Hans	Hans	0		H	sg n
Tamberg	####				
kes	kes	0		P	pl n
   	kes	0		P	sg n
No	no	0		I	
6	6	0		N	?
oma	oma	0		A	sg g
   	oma	0		D	
   	oma	0		P	sg g
   	oma	0		S	sg g
   	oma	0		V	o
   	oma	0		A	sg n
   	oma	0		A	sg p
   	oma	0		P	sg n
   	oma	0		P	sg p
   	oma	0		S	sg n
   	oma	0		S	sg p
kaebtusega	####				
Joosep	Joosep	0		H	sg n
Volmülleriga	####				
kahe	kaks	0		N	sg g
nädala	nädal	0		S	sg g
peale	pea	le		S	sg all
     	peale	0		D	
     	peale	0		K	
leppis	leppi	s		V	s
ei	ei	0		D	
  	ei	0		V	neg
old	####				
tulnud	tul=nud	0		A	
      	tul=nud	0		A	sg n
      	tul=nud	d		A	pl n
      	tule	nud		V	nud
      	tulnu	d		S	pl n
.	.			Z	
Hans	Hans	0		H	sg n
Plunt	####				
/	/			Z	
allkiri	all_kiri	0		S	sg n
/	/			Z	
