kohtu	kohtu	0		V	o
     	kohus	0		S	sg g
korra	kord	0		S	sg g
pärast	pära	st		S	sg el
      	pärane	t		A	sg p
      	pärast	0		D	
      	pärast	0		K	
olid	ole	id		V	sid
Kalvi	####				
kogukonna	kogukond	0		S	sg g
kohtumõistja	kohtu_mõistja	0		S	sg g
            	kohtu_mõistja	0		S	sg n
kokku	kokku	0		D	
     	kogu	0		S	adt
tulnud	tul=nud	0		A	
      	tul=nud	0		A	sg n
      	tul=nud	d		A	pl n
      	tule	nud		V	nud
      	tulnu	d		S	pl n
,	,			Z	
aga	aga	0		J	
ei	ei	0		D	
  	ei	0		V	neg
olnud	ol=nud	0		A	
     	ol=nud	0		A	sg n
     	ol=nud	d		A	pl n
     	ole	nud		V	nud
     	olnu	d		S	pl n
kedagi	keegi	dagi		P	sg p
mõistmist	mõistmine	t		S	sg p
.	.			Z	
kohtuvanem	kohtu_vanem	0		C	sg n
          	kohtu_vanem	0		S	sg n
:	:			Z	
Jakob	Jakob	0		H	sg n
Lokkotar	####				
""""	""""			Z	
kõrvamees	kõrva_mees	0		S	sg n
:	:			Z	
Mihkel	Mihkel	0		H	sg n
      	mihkel	0		A	sg n
      	mihkel	0		S	sg n
Pärn	pärn	0		S	sg n
""""	""""			Z	
""""	""""			Z	
Kristjan	Kristjan	0		H	sg n
Samel	####				
kirjutaja	kirjutaja	0		S	sg g
         	kirjutaja	0		S	sg n
:	:			Z	
J	J	0		Y	?
Vaader	####				
