ette	ette	0		D	
    	ette	0		K	
    	esi	tte		S	adt
astus	astu	s		V	s
kaebaja	kaebaja	0		S	sg g
       	kaebaja	0		S	sg n
Kersa	####				
vallast	vald	st		S	sg el
peremees	pere_mees	0		S	sg n
Rein	Rein	0		H	sg n
Venik	####				
,	,			Z	
ja	ja	0		J	
andis	and	is		V	s
üles	üles	0		D	
et	et	0		J	
tema	tema	0		P	sg g
    	tema	0		P	sg n
oma	oma	0		A	sg g
   	oma	0		D	
   	oma	0		P	sg g
   	oma	0		S	sg g
   	oma	0		V	o
   	oma	0		A	sg n
   	oma	0		A	sg p
   	oma	0		P	sg n
   	oma	0		P	sg p
   	oma	0		S	sg n
   	oma	0		S	sg p
sulast	sula	st		A	sg el
      	sula	st		S	sg el
      	sulane	t		S	sg p
Jakub	####				
talli	tall	0		S	adt
     	tall	0		S	sg g
     	tall	i		S	pl p
     	tall	0		S	sg p
on	ole	0		V	b
  	ole	0		V	vad
Simmu	####				
latti	latt	0		S	adt
     	latt	0		S	sg p
juure	juur	0		S	sg g
kude	kude	0		S	sg n
    	kude	0		S	sg p
peale	pea	le		S	sg all
     	peale	0		D	
     	peale	0		K	
tõle	####				
kubelnud	####				
ja	ja	0		J	
nende	see	de		P	pl g
     	tema	de		P	pl g
kaub	####				
olnud	ol=nud	0		A	
     	ol=nud	0		A	sg n
     	ol=nud	d		A	pl n
     	ole	nud		V	nud
     	olnu	d		S	pl n
8	8	0		N	?
rubla	rubla	0		S	sg g
     	rubla	0		S	sg n
     	rubla	0		S	sg p
kus	kus	0		D	
ja	ja	0		J	
Jakub	####				
tal	tema	l		P	sg ad
on	ole	0		V	b
  	ole	0		V	vad
3	3	0		N	?
kuud	kuu	d		S	pl n
    	kuu	d		S	sg p
juba	juba	0		D	
ära	ära	0		D	
   	ära	0		V	neg o
teeninud	teeni	nud		V	nud
        	teeni=nu	d		S	pl n
        	teeni=nud	0		A	
        	teeni=nud	0		A	sg n
        	teeni=nud	d		A	pl n
,	,			Z	
et	et	0		J	
Simmu	####				
lat	####				
ei	ei	0		D	
  	ei	0		V	neg
ole	ole	0		V	o
lubanud	luba	nud		V	nud
       	luba=nu	d		S	pl n
       	luba=nud	0		A	
       	luba=nud	0		A	sg n
       	luba=nud	d		A	pl n
tema	tema	0		P	sg g
    	tema	0		P	sg n
palka	palk	0		S	adt
     	palka	0		V	o
     	palk	0		S	sg p
kätte	kätte	0		K	
     	käsi	tte		S	adt
maksta	maks	ta		V	da
      	maks	ta		V	ta
ja	ja	0		J	
tema	tema	0		P	sg g
    	tema	0		P	sg n
on	ole	0		V	b
  	ole	0		V	vad
juba	juba	0		D	
2	2	0		N	?
korda	kord	0		S	adt
     	korda	0		V	o
     	kord	0		S	sg p
käinud	käi	nud		V	nud
      	käi=nud	0		A	
      	käi=nud	0		A	sg n
      	käi=nud	d		A	pl n
      	käinu	d		S	pl n
seda	see	da		P	sg p
nõudmas	nõud	mas		V	mas
,	,			Z	
siis	siis	0		D	
    	siis	0		J	
on	ole	0		V	b
  	ole	0		V	vad
kohus	kohu	s		V	s
     	kohus	0		S	sg n
:	:			Z	
mõistnud	mõist	nud		V	nud
        	mõist=nu	d		S	pl n
        	mõist=nud	0		A	
        	mõist=nud	0		A	sg n
        	mõist=nud	d		A	pl n
:	:			Z	
et	et	0		J	
Simmu	####				
lat	####				
peab	pida	b		V	b
nõnda	nõnda	0		D	
kuidas	kuidas	0		D	
kaup	kaup	0		S	sg n
olnud	ol=nud	0		A	
     	ol=nud	0		A	sg n
     	ol=nud	d		A	pl n
     	ole	nud		V	nud
     	olnu	d		S	pl n
seda	see	da		P	sg p
palka	palk	0		S	adt
     	palka	0		V	o
     	palk	0		S	sg p
täiste	täine	te		A	pl g
välja	välja	0		D	
     	välja	0		V	o
     	väli	0		S	adt
     	väli	0		S	sg g
     	väli	0		S	sg p
maksma	maks	ma		V	ma
,	,			Z	
ja	ja	0		J	
selle	see	0		P	sg g
     	sell	e		S	pl p
ette	ette	0		D	
    	ette	0		K	
    	esi	tte		S	adt
1	1	0		N	?
rub	####				
.	.			Z	
50	50	0		N	?
kop	kop	0		Y	?
.	.			Z	
valla	vald	0		S	sg g
     	valla	0		D	
laeka	laegas	0		S	adt
     	laegas	0		S	sg g
,	,			Z	
et	et	0		J	
ta	tema	0		P	sg g
  	tema	0		P	sg n
ilma	ilm	0		S	adt
    	ilm	0		S	sg g
    	ilma	0		D	
    	ilma	0		K	
    	ilm	0		S	sg p
süüta	süü	ta		S	sg ab
     	süüta	0		V	o
tõ	####				
mehe	mees	0		S	sg g
palka	palk	0		S	adt
     	palka	0		V	o
     	palk	0		S	sg p
on	ole	0		V	b
  	ole	0		V	vad
kinni	kinni	0		D	
pidanud	pida	nud		V	nud
       	pida=nu	d		S	pl n
       	pida=nud	0		A	
       	pida=nud	0		A	sg n
       	pida=nud	d		A	pl n
.	.			Z	
peavanem	pea_vanem	0		C	sg n
        	pea_vanem	0		S	sg n
:	:			Z	
Villem	Villem	0		H	sg n
mullirbek	####				
XXX	XXX	0		O	?
   	XXX	0		Y	?
abi	abi	0		S	sg g
   	abi	0		S	sg n
   	abi	0		S	sg p
:	:			Z	
Kaarel	Kaarel	0		H	sg n
      	kaar	l		S	sg ad
      	kaarel	0		S	sg n
lõuna	lõuna	0		S	sg g
     	lõuna	0		S	sg n
XXX	XXX	0		O	?
   	XXX	0		Y	?
teine	teine	0		O	sg n
     	teine	0		P	sg n
:	:			Z	
Jüri	Jüri	0		H	sg g
    	Jüri	0		H	sg n
Martson	####				
XXX	XXX	0		O	?
   	XXX	0		Y	?
