kohtu	kohtu	0		V	o
     	kohus	0		S	sg g
käiaid	####				
ei	ei	0		D	
  	ei	0		V	neg
olnud	ol=nud	0		A	
     	ol=nud	0		A	sg n
     	ol=nud	d		A	pl n
     	ole	nud		V	nud
     	olnu	d		S	pl n
ega	ega	0		D	
   	ega	0		J	
polnud	ole	nud		V	neg nud
mingisugust	mingi_sugune	t		P	sg p
asja	asi	0		S	adt
    	asi	0		S	sg g
    	asi	0		S	sg p
seletada	seleta	da		V	da
.	.			Z	
