kaebaja	kaebaja	0		S	sg g
       	kaebaja	0		S	sg n
:	:			Z	
Levont	####				
Baranov	####				
kaebab	kaeba	b		V	b
Mihkel	Mihkel	0		H	sg n
      	mihkel	0		A	sg n
      	mihkel	0		S	sg n
Beläievi	####				
peale	pea	le		S	sg all
     	peale	0		D	
     	peale	0		K	
,	,			Z	
et	et	0		J	
Mihkel	Mihkel	0		H	sg n
      	mihkel	0		A	sg n
      	mihkel	0		S	sg n
on	ole	0		V	b
  	ole	0		V	vad
teda	tema	da		P	sg p
sõimanud	sõima	nud		V	nud
        	sõima=nu	d		S	pl n
        	sõima=nud	0		A	
        	sõima=nud	0		A	sg n
        	sõima=nud	d		A	pl n
Alajõe	Ala_jõe	0		H	sg g
      	Ala_jõe	0		H	sg n
küla	küla	0		S	sg g
    	küla	0		S	sg n
    	küla	0		S	sg p
silla	sild	0		S	sg g
juures	juur	s		S	sg in
      	juures	0		D	
      	juures	0		K	
;	;			Z	
et	et	0		J	
sina	sina	0		P	sg n
    	sina	0		S	sg g
    	sina	0		V	o
    	sina	0		S	sg n
    	sina	0		S	sg p
minu	mina	0		P	sg g
peale	pea	le		S	sg all
     	peale	0		D	
     	peale	0		K	
vina	vina	0		S	sg g
    	vina	0		V	o
    	vina	0		S	sg n
    	vina	0		S	sg p
ei	ei	0		D	
  	ei	0		V	neg
või	või	0		S	sg g
   	või	0		V	o
   	või	0		D	
   	või	0		J	
   	või	0		S	sg n
võtta	võt	a		V	da
,	,			Z	
ega	ega	0		D	
   	ega	0		J	
ka	ka	0		D	
jua	####				
,	,			Z	
sina	sina	0		P	sg n
    	sina	0		S	sg g
    	sina	0		V	o
    	sina	0		S	sg n
    	sina	0		S	sg p
Hakenrihtri	####				
kohtos	####				
oled	ole	d		V	d
saanud	saa	nud		V	nud
      	saa=nud	0		A	
      	saa=nud	0		A	sg n
      	saa=nud	d		A	pl n
      	saanu	d		S	pl n
50	50	0		N	?
lõki	####				
,	,			Z	
ja	ja	0		J	
veelgi	veelgi	0		D	
      	vesi	l	gi	S	sg ad
saad	saa	d		V	d
    	saad	0		S	sg n
.	.			Z	
Tunnismees	tunnis_mees	0		S	sg n
:	:			Z	
Sahkar	####				
Sadeiev	####				
,	,			Z	
kes	kes	0		P	pl n
   	kes	0		P	sg n
on	ole	0		V	b
  	ole	0		V	vad
seda	see	da		P	sg p
sõimamist	sõimamine	t		S	sg p
kulnud	####				
,	,			Z	
Tunnistab	tunnista	b		V	b
kohtu	kohtu	0		V	o
     	kohus	0		S	sg g
ees	ees	0		D	
   	ees	0		K	
   	esi	s		S	sg in
,	,			Z	
et	et	0		J	
Mihkel	Mihkel	0		H	sg n
      	mihkel	0		A	sg n
      	mihkel	0		S	sg n
Beläiev	####				
õõlnud	####				
,	,			Z	
kõrtsi	kõrts	0		S	adt
      	kõrts	0		S	sg g
      	kõrts	0		S	sg p
emand	emand	0		S	sg n
sulle	sina	lle		P	sg all
andnud	and	nud		V	nud
      	and=nu	d		S	pl n
      	and=nud	0		A	
      	and=nud	0		A	sg n
      	and=nud	d		A	pl n
50	50	0		N	?
hopi	####				
,	,			Z	
ja	ja	0		J	
veelgi	veelgi	0		D	
      	vesi	l	gi	S	sg ad
saad	saa	d		V	d
    	saad	0		S	sg n
.	.			Z	
kaebatav	####				
:	:			Z	
Mihkel	Mihkel	0		H	sg n
      	mihkel	0		A	sg n
      	mihkel	0		S	sg n
Beläiev	####				
tunnistab	tunnista	b		V	b
kohtu	kohtu	0		V	o
     	kohus	0		S	sg g
ees	ees	0		D	
   	ees	0		K	
   	esi	s		S	sg in
;	;			Z	
et	et	0		J	
tema	tema	0		P	sg g
    	tema	0		P	sg n
olnud	ol=nud	0		A	
     	ol=nud	0		A	sg n
     	ol=nud	d		A	pl n
     	ole	nud		V	nud
     	olnu	d		S	pl n
kõrtsis	kõrts	s		S	sg in
;	;			Z	
ja	ja	0		J	
Levont	####				
käskis	käski	s		V	s
mind	mina	d		P	sg p
vina	vina	0		S	sg g
    	vina	0		V	o
    	vina	0		S	sg n
    	vina	0		S	sg p
võtta	võt	a		V	da
,	,			Z	
(	(			Z	
selle	see	0		P	sg g
     	sell	e		S	pl p
pärast	pära	st		S	sg el
      	pärane	t		A	sg p
      	pärast	0		D	
      	pärast	0		K	
,	,			Z	
et	et	0		J	
mina	mina	0		P	sg n
    	mina	0		S	sg g
    	mina	0		S	sg n
    	mina	0		S	sg p
ei	ei	0		D	
  	ei	0		V	neg
olnud	ol=nud	0		A	
     	ol=nud	0		A	sg n
     	ol=nud	d		A	pl n
     	ole	nud		V	nud
     	olnu	d		S	pl n
küla	küla	0		S	sg g
    	küla	0		S	sg n
    	küla	0		S	sg p
silla	sild	0		S	sg g
parandamise	parandamine	0		S	sg g
juures	juur	s		S	sg in
      	juures	0		D	
      	juures	0		K	
.	.			Z	
)	)			Z	
ja	ja	0		J	
ütles	ütle	s		V	s
minule	mina	le		P	sg all
sina	sina	0		P	sg n
    	sina	0		S	sg g
    	sina	0		V	o
    	sina	0		S	sg n
    	sina	0		S	sg p
raibe	raibe	0		S	sg n
,	,			Z	
ja	ja	0		J	
võtis	####				
minu	mina	0		P	sg g
rinnast	rind	st		S	sg el
kinni	kinni	0		D	
,	,			Z	
siis	siis	0		D	
    	siis	0		J	
mina	mina	0		P	sg n
    	mina	0		S	sg g
    	mina	0		S	sg n
    	mina	0		S	sg p
temale	tema	le		P	sg all
ütlesin	ütle	sin		V	sin
,	,			Z	
kõrtsi	kõrts	0		S	adt
      	kõrts	0		S	sg g
      	kõrts	0		S	sg p
emand	emand	0		S	sg n
sulle	sina	lle		P	sg all
andis	and	is		V	s
50	50	0		N	?
vitsa	vits	0		S	adt
     	vits	0		S	sg g
     	vits	0		S	sg p
lõki	####				
,	,			Z	
ja	ja	0		J	
nüüd	nüüd	0		D	
veel	veel	0		D	
    	vesi	l		S	sg ad
tahad	taht	d		V	d
saada	saa	da		V	da
     	saat	0		V	o
     	saa	da		V	ta
.	.			Z	
kohus	kohu	s		V	s
     	kohus	0		S	sg n
mõistnud	mõist	nud		V	nud
        	mõist=nu	d		S	pl n
        	mõist=nud	0		A	
        	mõist=nud	0		A	sg n
        	mõist=nud	d		A	pl n
,	,			Z	
et	et	0		J	
Mihkel	Mihkel	0		H	sg n
      	mihkel	0		A	sg n
      	mihkel	0		S	sg n
Belaiev	####				
maksab	maks	b		V	b
üks	üks	0		N	sg n
   	üks	0		P	sg n
rubla	rubla	0		S	sg g
     	rubla	0		S	sg n
     	rubla	0		S	sg p
trahvi	trahv	0		S	adt
      	trahv	0		S	sg g
      	trahvi	0		V	o
      	trahv	0		S	sg p
vala	vala	0		V	o
laeka	laegas	0		S	adt
     	laegas	0		S	sg g
.	.			Z	
mis	mis	0		P	pl n
   	mis	0		P	sg n
on	ole	0		V	b
  	ole	0		V	vad
vana	vana	0		A	sg g
    	vana	0		A	sg n
    	vana	0		A	sg p
    	vana	0		S	sg g
    	vana	0		S	sg n
    	vana	0		S	sg p
asja	asi	0		S	adt
    	asi	0		S	sg g
    	asi	0		S	sg p
ette	ette	0		D	
    	ette	0		K	
    	esi	tte		S	adt
pandnud	####				
.	.			Z	
ja	ja	0		J	
Levont	####				
maksab	maks	b		V	b
50	50	0		N	?
kop	kop	0		Y	?
trahvi	trahv	0		S	adt
      	trahv	0		S	sg g
      	trahvi	0		V	o
      	trahv	0		S	sg p
laeka	laegas	0		S	adt
     	laegas	0		S	sg g
.	.			Z	
mis	mis	0		P	pl n
   	mis	0		P	sg n
rinnust	rind	ust		S	pl el
       	rinnus	t		S	sg p
kinni	kinni	0		D	
võtis	####				
.	.			Z	
makstud	maks	tud		V	tud
       	maks=tu	d		S	pl n
       	maks=tud	0		A	
       	maks=tud	0		A	sg n
       	maks=tud	d		A	pl n
1	1	0		N	?
rub	####				
,	,			Z	
50	50	0		N	?
kop	kop	0		Y	?
.	.			Z	
