1895	1895	0		N	?
hagude	hagu	de		S	pl g
Iljaju	####				
16gu	####				
tunja	####				
viljas	vili	s		S	sg in
v	v	0		Y	?
Ingofzeijs	####				
voolojostnu	####				
suuda	suut	0		V	o
poverojen	####				
vallastas	####				
m	m	0		Y	?
.	.			Z	
Inzej_fengo	####				
Krafa	####				
Ernsta	####				
Otošavit	####				
takseeaalberg	####				
,	,			Z	
Aleksander	Aleksander	0		H	sg n
