2.	2.	0		O	?
ette	ette	0		D	
    	ette	0		K	
    	esi	tte		S	adt
tuli	tuli	0		S	sg n
    	tule	i		V	s
Juhan	Juhan	0		H	sg n
Vigar	####				
oma	oma	0		A	sg g
   	oma	0		D	
   	oma	0		P	sg g
   	oma	0		S	sg g
   	oma	0		V	o
   	oma	0		A	sg n
   	oma	0		A	sg p
   	oma	0		P	sg n
   	oma	0		P	sg p
   	oma	0		S	sg n
   	oma	0		S	sg p
naise	naine	0		S	sg g
pärandust	pärandus	t		S	sg p
sellitama	####				
kes	kes	0		P	pl n
   	kes	0		P	sg n
14mal	####				
Januaril	####				
aast	####				
.	.			Z	
1868	1868	0		N	?
ära	ära	0		D	
   	ära	0		V	neg o
surnud	surnu	d		S	pl n
      	surnud	0		A	
      	surnud	0		A	sg n
      	surnud	d		A	pl n
      	sure	nud		V	nud
.	.			Z	
Jaan	Jaan	0		H	sg n
    	jaan	0		S	sg n
    	jaan	0		Y	?
väärmann	väär_mann	0		S	sg n
oli	ole	i		V	s
käemees	käe_mees	0		S	sg n
.	.			Z	
surnud	surnu	d		S	pl n
      	surnud	0		A	
      	surnud	0		A	sg n
      	surnud	d		A	pl n
      	sure	nud		V	nud
naise	naine	0		S	sg g
pärandus	pärandu	s		V	s
        	pärandus	0		S	sg n
,	,			Z	
mis	mis	0		P	pl n
   	mis	0		P	sg n
tema	tema	0		P	sg g
    	tema	0		P	sg n
mehele	mees	le		S	sg all
minnes	mine	es		V	des
kassa	kassa	0		S	sg g
     	kassa	0		S	sg n
tõi	too	i		V	s
,	,			Z	
sai	saa	i		V	s
   	sai	0		S	sg n
tema	tema	0		P	sg g
    	tema	0		P	sg n
järele	järele	0		D	
      	järele	0		K	
jäenud	####				
kahe	kaks	0		N	sg g
lapsele	laps	le		S	sg all
sisu	sisu	0		S	sg g
    	sisu	0		S	sg n
    	sisu	0		S	sg p
pandud	pan=du	d		S	pl n
      	pan=dud	0		A	
      	pan=dud	0		A	sg n
      	pan=dud	d		A	pl n
      	pane	dud		V	tud
,	,			Z	
_issa	####				
annab	and	b		V	b
selle	see	0		P	sg g
     	sell	e		S	pl p
ajani	aeg	ni		S	sg ter
laste	laps	te		S	pl g
     	last	e		S	pl p
eest	eest	0		D	
    	eest	0		K	
    	esi	st		S	sg el
hoolt	hoog	lt		S	sg abl
     	hool	t		S	sg p
kui	kui	0		D	
   	kui	0		J	
nemmad	####				
täies	täis	s		A	sg in
     	täis	s		S	sg in
inimesseks	####				
kasvaavad	####				
ja	ja	0		J	
annab	and	b		V	b
siis	siis	0		D	
    	siis	0		J	
kohtu	kohtu	0		V	o
     	kohus	0		S	sg g
lubaga	####				
seda	see	da		P	sg p
sisu	sisu	0		S	sg g
    	sisu	0		S	sg n
    	sisu	0		S	sg p
pandud	pan=du	d		S	pl n
      	pan=dud	0		A	
      	pan=dud	0		A	sg n
      	pan=dud	d		A	pl n
      	pane	dud		V	tud
varandust	varandus	t		S	sg p
:	:			Z	
1	1	0		N	?
kert	####				
1	1	0		N	?
kuub	kuub	0		S	sg n
2	2	0		N	?
veiket	####				
rätikud	rätik	d		S	pl n
3	3	0		N	?
selikud	####				
1	1	0		N	?
olla	ole	a		V	da
raamat	raamat	0		S	sg n
1	1	0		N	?
uus	uus	0		A	sg n
testament	testament	0		S	sg n
laste	laps	te		S	pl g
     	last	e		S	pl p
kätte	kätte	0		K	
     	käsi	tte		S	adt
.	.			Z	
Kr	####				
.	.			Z	
Uhkivi	####				
XXX	XXX	0		O	?
   	XXX	0		Y	?
M	M	0		O	?
 	M	0		Y	?
:	:			Z	
Ruusalep	####				
XXX	XXX	0		O	?
   	XXX	0		Y	?
Joh	####				
.	.			Z	
Harmans	####				
XXX	XXX	0		O	?
   	XXX	0		Y	?
