kohtu	kohtu	0		V	o
     	kohus	0		S	sg g
ette	ette	0		D	
    	ette	0		K	
    	esi	tte		S	adt
tuli	tuli	0		S	sg n
    	tule	i		V	s
Hendrik	Hendrik	0		H	sg n
Olmann	####				
ja	ja	0		J	
kaebas	kaeba	s		V	s
et	et	0		J	
Mihkel	Mihkel	0		H	sg n
      	mihkel	0		A	sg n
      	mihkel	0		S	sg n
Vigar	####				
ja	ja	0		J	
Kustav	kus=tav	0		A	sg n
      	kuse	tav		V	tav
tihane	tihane	0		S	sg n
on	ole	0		V	b
  	ole	0		V	vad
tema	tema	0		P	sg g
    	tema	0		P	sg n
käest	käest	0		K	
     	käsi	st		S	sg el
sügisel	sügis	l		S	sg ad
2	2	0		N	?
nädalad	nädal	d		S	pl n
enne	enne	0		D	
    	enne	0		K	
    	enne	0		S	sg n
Mihklipäeva	mihkli_päev	0		S	adt
           	mihkli_päev	0		S	sg g
           	mihkli_päev	0		S	sg p
aluse	alune	0		A	sg g
     	alune	0		S	sg g
     	alus	0		S	sg g
tellinud	telli	nud		V	nud
        	telli=nu	d		S	pl n
        	telli=nud	0		A	
        	telli=nud	0		A	sg n
        	telli=nud	d		A	pl n
ja	ja	0		J	
Rammu	ramm	0		S	adt
     	ramm	0		S	sg g
     	ramm	0		S	sg p
dessaar	####				
viinud	vii	nud		V	nud
      	vii=nu	d		S	pl n
      	vii=nud	0		A	
      	vii=nud	0		A	sg n
      	vii=nud	d		A	pl n
ja	ja	0		J	
senna	senna	0		S	sg g
     	senna	0		S	sg n
üle	üle	0		D	
   	üle	0		K	
talve	talv	0		S	adt
     	talv	0		S	sg g
     	tali	0		S	adt
     	tali	0		S	sg g
     	talv	0		S	sg p
     	tali	0		S	sg p
jätnud	jät	nud		V	nud
      	jät=nu	d		S	pl n
      	jät=nud	0		A	
      	jät=nud	0		A	sg n
      	jät=nud	d		A	pl n
;	;			Z	
torm	torm	0		A	sg n
    	torm	0		S	sg n
lõhkunud	lõhku	nud		V	nud
        	lõhku=nu	d		S	pl n
        	lõhku=nud	0		A	
        	lõhku=nud	0		A	sg n
        	lõhku=nud	d		A	pl n
aluse	alune	0		A	sg g
     	alune	0		S	sg g
     	alus	0		S	sg g
ära	ära	0		D	
   	ära	0		V	neg o
,	,			Z	
ja	ja	0		J	
nüüd	nüüd	0		D	
nemad	tema	d		P	pl n
ei	ei	0		D	
  	ei	0		V	neg
taha	taht	0		V	o
    	taha	0		D	
    	taha	0		K	
enam	enam	0		C	sg n
    	enam	0		D	
sellega	see	ga		P	sg kom
tegemistgi	####				
teha	tege	a		V	da
.	.			Z	
Mihkel	Mihkel	0		H	sg n
      	mihkel	0		A	sg n
      	mihkel	0		S	sg n
Vigar	####				
ja	ja	0		J	
Kustav	kus=tav	0		A	sg n
      	kuse	tav		V	tav
tihane	tihane	0		S	sg n
said	saa	id		V	sid
ette	ette	0		D	
    	ette	0		K	
    	esi	tte		S	adt
kutsutud	kutsu	tud		V	tud
        	kutsutu	d		S	pl n
        	kutsutud	0		A	
        	kutsutud	0		A	sg n
        	kutsutud	d		A	pl n
,	,			Z	
nemad	tema	d		P	pl n
ei	ei	0		D	
  	ei	0		V	neg
võinud	või	nud		V	nud
      	või=nu	d		S	pl n
      	või=nud	0		A	
      	või=nud	0		A	sg n
      	või=nud	d		A	pl n
seda	see	da		P	sg p
salada	####				
.	.			Z	
Hendrek	####				
arvas	arva	s		V	s
oma	oma	0		A	sg g
   	oma	0		D	
   	oma	0		P	sg g
   	oma	0		S	sg g
   	oma	0		V	o
   	oma	0		A	sg n
   	oma	0		A	sg p
   	oma	0		P	sg n
   	oma	0		P	sg p
   	oma	0		S	sg n
   	oma	0		S	sg p
veikese	####				
vana	vana	0		A	sg g
    	vana	0		A	sg n
    	vana	0		A	sg p
    	vana	0		S	sg g
    	vana	0		S	sg n
    	vana	0		S	sg p
aluse	alune	0		A	sg g
     	alune	0		S	sg g
     	alus	0		S	sg g
30	30	0		N	?
rbl	rbl	0		Y	?
.	.			Z	
väärt	väärt	0		A	
     	väärt	0		D	
ja	ja	0		J	
leppis	leppi	s		V	s
nõnda	nõnda	0		D	
,	,			Z	
et	et	0		J	
Mihkel	Mihkel	0		H	sg n
      	mihkel	0		A	sg n
      	mihkel	0		S	sg n
ja	ja	0		J	
Kustav	kus=tav	0		A	sg n
      	kuse	tav		V	tav
tovad	####				
(	(			Z	
taklassi	####				
)	)			Z	
pealmise	pealmine	0		A	sg g
värki	värk	0		S	adt
     	värk	0		S	sg p
tervelt	tervelt	0		D	
       	terve	lt		A	sg abl
       	terve	lt		S	sg abl
tema	tema	0		P	sg g
    	tema	0		P	sg n
kätte	kätte	0		K	
     	käsi	tte		S	adt
ja	ja	0		J	
maksavad	maks	vad		V	vad
alumise	alumine	0		A	sg g
väärpuk	####				
eest	eest	0		D	
    	eest	0		K	
    	esi	st		S	sg el
,	,			Z	
mis	mis	0		P	pl n
   	mis	0		P	sg n
torm	torm	0		A	sg n
    	torm	0		S	sg n
ära	ära	0		D	
   	ära	0		V	neg o
lõhkunud	lõhku	nud		V	nud
        	lõhku=nu	d		S	pl n
        	lõhku=nud	0		A	
        	lõhku=nud	0		A	sg n
        	lõhku=nud	d		A	pl n
,	,			Z	
kumbki	kumbki	0		P	sg n
7	7	0		N	?
1	1	0		N	?
/	/			Z	
2	2	0		N	?
rbl	rbl	0		Y	?
.	.			Z	
kokku	kokku	0		D	
     	kogu	0		S	adt
15	15	0		N	?
rbl	rbl	0		Y	?
.	.			Z	
Mihkel	Mihkel	0		H	sg n
      	mihkel	0		A	sg n
      	mihkel	0		S	sg n
ja	ja	0		J	
Kustav	kus=tav	0		A	sg n
      	kuse	tav		V	tav
lubasid	luba	sid		S	pl p
       	luba	sid		V	sid
heameelega	hea_meel	ga		S	sg kom
seepealmine	####				
värk	värk	0		S	sg n
Hendrikule	Hendrik	le		H	sg all
tagasi	tagasi	0		D	
      	tagasi	0		K	
tervelt	tervelt	0		D	
       	terve	lt		A	sg abl
       	terve	lt		S	sg abl
astus	astu	s		V	s
ja	ja	0		J	
kuus	kuu	s		S	sg in
    	kuus	0		N	sg n
15	15	0		N	?
rbl	rbl	0		Y	?
.	.			Z	
maksta	maks	ta		V	da
      	maks	ta		V	ta
.	.			Z	
10.	10.	0		O	?
kohus	kohu	s		V	s
     	kohus	0		S	sg n
mõistis	mõist	is		V	s
Mihkel	Mihkel	0		H	sg n
      	mihkel	0		A	sg n
      	mihkel	0		S	sg n
Vigar	####				
ja	ja	0		J	
Kustav	kus=tav	0		A	sg n
      	kuse	tav		V	tav
tihane	tihane	0		S	sg n
toovad	too	vad		V	vad
      	toov	d		A	pl n
21misse	####				
Jaani	Jaan	0		H	adt
     	Jaan	0		H	sg g
     	Jaani	0		H	sg g
     	jaan	0		S	adt
     	jaan	0		S	sg g
     	Jaan	0		H	sg p
     	Jaani	0		H	sg n
     	jaan	0		S	sg p
kuu	kuu	0		S	sg g
   	kuu	0		S	sg n
päevaks	päev	ks		S	sg tr
1874	1874	0		N	?
see	see	0		P	sg n
aluse	alune	0		A	sg g
     	alune	0		S	sg g
     	alus	0		S	sg g
pealemine	####				
värk	värk	0		S	sg n
tervelt	tervelt	0		D	
       	terve	lt		A	sg abl
       	terve	lt		S	sg abl
Hendrik	Hendrik	0		H	sg n
kätte	kätte	0		K	
     	käsi	tte		S	adt
ja	ja	0		J	
maksvad	maksev	d		A	pl n
see	see	0		P	sg n
15	15	0		N	?
rbl	rbl	0		Y	?
.	.			Z	
Vihula	Vihula	0		H	sg g
      	Vihula	0		H	sg n
valla	vald	0		S	sg g
     	valla	0		D	
kohtusse	kohtune	se		A	adt
        	kohus	sse		S	sg ill
,	,			Z	
kust	kusi	t		S	sg p
    	kust	0		D	
Hendrik	Hendrik	0		H	sg n
seda	see	da		P	sg p
22mal	####				
Jaan	Jaan	0		H	sg n
    	jaan	0		S	sg n
    	jaan	0		Y	?
kuu	kuu	0		S	sg g
   	kuu	0		S	sg n
päeval	päev	l		S	sg ad
pärima	päri	ma		V	ma
tuleb	tule	b		V	b
.	.			Z	
nemad	tema	d		P	pl n
kõik	kõik	0		P	pl n
    	kõik	0		S	sg n
    	kõik	0		P	sg n
leppisid	leppi	sid		V	sid
nõnda	nõnda	0		D	
.	.			Z	
Kustav	kus=tav	0		A	sg n
      	kuse	tav		V	tav
Uukivi	####				
XXX	XXX	0		O	?
   	XXX	0		Y	?
Joosep	Joosep	0		H	sg n
neps	####				
XXX	XXX	0		O	?
   	XXX	0		Y	?
Jaan	Jaan	0		H	sg n
    	jaan	0		S	sg n
    	jaan	0		Y	?
Harmpaika	####				
XXX	XXX	0		O	?
   	XXX	0		Y	?
