kohtu	kohtu	0		V	o
     	kohus	0		S	sg g
ette	ette	0		D	
    	ette	0		K	
    	esi	tte		S	adt
said	saa	id		V	sid
kutsutud	kutsu	tud		V	tud
        	kutsutu	d		S	pl n
        	kutsutud	0		A	
        	kutsutud	0		A	sg n
        	kutsutud	d		A	pl n
need	see	d		P	pl n
mehed	mees	d		S	pl n
,	,			Z	
mis	mis	0		P	pl n
   	mis	0		P	sg n
mööda	mööda	0		A	
     	mööda	0		D	
     	mööda	0		K	
läinud	läinu	d		S	pl n
      	läinud	0		A	
      	läinud	0		A	sg n
      	läinud	d		A	pl n
      	mine	nud		V	nud
kohtupäeval	kohtu_päev	l		S	sg ad
olid	ole	id		V	sid
sisse	siss	e		S	pl p
     	sisse	0		D	
     	sisse	0		K	
kaebatud	####				
:	:			Z	
Kristjan	Kristjan	0		H	sg n
Vanda	Vanda	0		H	sg g
     	vannas	0		S	sg g
     	Vanda	0		H	sg n
sai	saa	i		V	s
   	sai	0		S	sg n
ette	ette	0		D	
    	ette	0		K	
    	esi	tte		S	adt
kutsutud	kutsu	tud		V	tud
        	kutsutu	d		S	pl n
        	kutsutud	0		A	
        	kutsutud	0		A	sg n
        	kutsutud	d		A	pl n
,	,			Z	
tema	tema	0		P	sg g
    	tema	0		P	sg n
ütles	ütle	s		V	s
:	:			Z	
minna	mine	a		V	da
jõin	joo	in		V	sin
hooste	####				
juures	juur	s		S	sg in
      	juures	0		D	
      	juures	0		K	
oma	oma	0		A	sg g
   	oma	0		D	
   	oma	0		P	sg g
   	oma	0		S	sg g
   	oma	0		V	o
   	oma	0		A	sg n
   	oma	0		A	sg p
   	oma	0		P	sg n
   	oma	0		P	sg p
   	oma	0		S	sg n
   	oma	0		S	sg p
viina	viin	0		S	adt
     	viin	0		S	sg g
     	viin	0		S	sg p
Kusta	Kusta	0		H	sg g
     	Kusta	0		H	sg n
     	kuse	ta		V	da
     	kuse	ta		V	ta
Vandega	vanne	ga		S	sg kom
minna	mine	a		V	da
Meta	meta	0		S	sg g
    	meta	0		S	sg n
solk	solk	0		S	sg n
ei	ei	0		D	
  	ei	0		V	neg
taha	taht	0		V	o
    	taha	0		D	
    	taha	0		K	
.	.			Z	
Joosep	Joosep	0		H	sg n
Pahkverk	####				
tunnistas	tunnista	s		V	s
,	,			Z	
et	et	0		J	
tema	tema	0		P	sg g
    	tema	0		P	sg n
on	ole	0		V	b
  	ole	0		V	vad
mättalt	mätas	lt		S	sg abl
viina	viin	0		S	adt
     	viin	0		S	sg g
     	viin	0		S	sg p
saanud	saa	nud		V	nud
      	saa=nud	0		A	
      	saa=nud	0		A	sg n
      	saa=nud	d		A	pl n
      	saanu	d		S	pl n
mittu	####				
korda	kord	0		S	adt
     	korda	0		V	o
     	kord	0		S	sg p
,	,			Z	
aga	aga	0		J	
ikka	ikka	0		D	
    	iga	0		S	adt
ilma	ilm	0		S	adt
    	ilm	0		S	sg g
    	ilma	0		D	
    	ilma	0		K	
    	ilm	0		S	sg p
rahasta	rahasta	0		V	o
.	.			Z	
Kusto	####				
Vanda	Vanda	0		H	sg g
     	vannas	0		S	sg g
     	Vanda	0		H	sg n
ütles	ütle	s		V	s
:	:			Z	
mina	mina	0		P	sg n
    	mina	0		S	sg g
    	mina	0		S	sg n
    	mina	0		S	sg p
sain	saa	in		V	sin
enne	enne	0		D	
    	enne	0		K	
    	enne	0		S	sg n
küll	küll	0		D	
    	küll	0		S	sg n
talmetatud	####				
raha	raha	0		S	sg g
    	raha	0		S	sg n
    	raha	0		S	sg p
eest	eest	0		D	
    	eest	0		K	
    	esi	st		S	sg el
viina	viin	0		S	adt
     	viin	0		S	sg g
     	viin	0		S	sg p
suhu	suu	0		S	adt
rüüppata	####				
,	,			Z	
aga	aga	0		J	
mitte	mitte	0		D	
pudelise	####				
,	,			Z	
Juhan	Juhan	0		H	sg n
Leuska	####				
tõi	too	i		V	s
mulle	mull	e		S	pl p
     	mina	lle		P	sg all
     	mulle	0		S	sg n
mättalt	mätas	lt		S	sg abl
kahel	kaks	l		N	sg ad
korral	kord	l		S	sg ad
      	korral	0		D	
      	korral	0		K	
üks	üks	0		N	sg n
   	üks	0		P	sg n
toop	toop	0		S	sg n
korraga	kord	ga		S	sg kom
       	korraga	0		D	
,	,			Z	
aga	aga	0		J	
kui	kui	0		D	
   	kui	0		J	
Kristjan	Kristjan	0		H	sg n
Vandega	vanne	ga		S	sg kom
tule	tuli	0		S	sg g
    	tule	0		V	o
ääres	äär	s		S	sg in
     	ääres	0		K	
jõime	joo	ime		V	sime
,	,			Z	
seda	see	da		P	sg p
viina	viin	0		S	adt
     	viin	0		S	sg g
     	viin	0		S	sg p
tõi	too	i		V	s
Kristjan	Kristjan	0		H	sg n
oma	oma	0		A	sg g
   	oma	0		D	
   	oma	0		P	sg g
   	oma	0		S	sg g
   	oma	0		V	o
   	oma	0		A	sg n
   	oma	0		A	sg p
   	oma	0		P	sg n
   	oma	0		P	sg p
   	oma	0		S	sg n
   	oma	0		S	sg p
kodunud	####				
.	.			Z	
Kusto	####				
enese	ise	0		P	sg g
ütles	ütle	s		V	s
:	:			Z	
mina	mina	0		P	sg n
    	mina	0		S	sg g
    	mina	0		S	sg n
    	mina	0		S	sg p
kautasin	####				
oma	oma	0		A	sg g
   	oma	0		D	
   	oma	0		P	sg g
   	oma	0		S	sg g
   	oma	0		V	o
   	oma	0		A	sg n
   	oma	0		A	sg p
   	oma	0		P	sg n
   	oma	0		P	sg p
   	oma	0		S	sg n
   	oma	0		S	sg p
kindada	####				
ära	ära	0		D	
   	ära	0		V	neg o
,	,			Z	
käisin	käi	sin		V	sin
otsimas	otsi	mas		V	mas
,	,			Z	
siis	siis	0		D	
    	siis	0		J	
Jaan	Jaan	0		H	sg n
    	jaan	0		S	sg n
    	jaan	0		Y	?
andis	and	is		V	s
Meta	meta	0		S	sg g
    	meta	0		S	sg n
lauda	laud	0		S	adt
     	laut	0		S	sg g
     	laud	0		S	sg p
taga	taga	0		D	
    	taga	0		K	
    	taga	0		V	o
mulle	mull	e		S	pl p
     	mina	lle		P	sg all
     	mulle	0		S	sg n
oma	oma	0		A	sg g
   	oma	0		D	
   	oma	0		P	sg g
   	oma	0		S	sg g
   	oma	0		V	o
   	oma	0		A	sg n
   	oma	0		A	sg p
   	oma	0		P	sg n
   	oma	0		P	sg p
   	oma	0		S	sg n
   	oma	0		S	sg p
pudelist	pudel	st		S	sg el
parrasüüd	parra_süü	d		S	pl n
         	parra_süüd	0		S	sg n
         	parra_süü	d		S	sg p
,	,			Z	
ei	ei	0		D	
  	ei	0		V	neg
minna	mine	a		V	da
tea	tead	0		V	o
kust	kusi	t		S	sg p
    	kust	0		D	
ta	tema	0		P	sg g
  	tema	0		P	sg n
seda	see	da		P	sg p
võttis	võt	is		V	s
.	.			Z	
suvel	suvi	l		S	sg ad
Heinaajal	heina_aeg	l		S	sg ad
Andres	Andre	s		H	sg in
      	Andres	0		H	sg n
Uukado	####				
tõi	too	i		V	s
meile	meil	e		S	pl p
     	mina	le		P	pl all
toop	toop	0		S	sg n
viina	viin	0		S	adt
     	viin	0		S	sg g
     	viin	0		S	sg p
,	,			Z	
meie	mina	0		P	pl g
    	mina	0		P	pl n
aitasime	aita	sime		V	sime
tema	tema	0		P	sg g
    	tema	0		P	sg n
heina	hein	0		S	adt
     	hein	0		S	sg g
     	hein	0		S	sg p
tükki	tükk	0		S	adt
     	tükk	0		S	sg p
     	tükki	0		D	
niita	niit	a		V	da
.	.			Z	
Andres	Andre	s		H	sg in
      	Andres	0		H	sg n
Uukado	####				
ütles	ütle	s		V	s
:	:			Z	
""""	""""			Z	
minna	mine	a		V	da
käisin	käi	sin		V	sin
talmetatud	####				
viina	viin	0		S	adt
     	viin	0		S	sg g
     	viin	0		S	sg p
küsimas	küsi	mas		V	mas
,	,			Z	
ei	ei	0		D	
  	ei	0		V	neg
antud	an=tu	d		S	pl n
     	and	tud		V	tud
     	antud	0		A	
     	antud	0		A	sg n
     	antud	d		A	pl n
;	;			Z	
siis	siis	0		D	
    	siis	0		J	
tellisin	telli	sin		V	sin
Juhan	Juhan	0		H	sg n
Ruusalepi	####				
käest	käest	0		K	
     	käsi	st		S	sg el
ühe	üks	0		N	sg g
   	üks	0		P	sg g
   	ühe	0		S	sg n
toopi	toop	0		S	adt
     	toop	0		S	sg p
laenuks	laen	ks		S	sg tr
       	laenu	ks		V	ks
ja	ja	0		J	
tõin	too	in		V	sin
temale	tema	le		P	sg all
jälle	jälle	0		D	
kätte	kätte	0		K	
     	käsi	tte		S	adt
.	.			Z	
Metsiku	metsik	0		A	sg g
       	metsik	0		S	sg g
mõisa	mõis	0		S	sg g
kubjas	kubjas	0		S	sg n
ja	ja	0		J	
mõisa	mõis	0		S	sg g
sepp	sepp	0		S	sg n
on	ole	0		V	b
  	ole	0		V	vad
ka	ka	0		D	
kohtusse	kohtune	se		A	adt
        	kohus	sse		S	sg ill
tunnistatud	tunnista	tud		V	tud
           	tunnista=tu	d		S	pl n
           	tunnista=tud	0		A	
           	tunnista=tud	0		A	sg n
           	tunnista=tud	d		A	pl n
,	,			Z	
neid	neid	0		S	sg n
    	see	d		P	pl p
    	tema	d		P	pl p
on	ole	0		V	b
  	ole	0		V	vad
lubatud	luba	tud		V	tud
       	luba=tu	d		S	pl n
       	lubatu	d		A	pl n
       	lubatud	0		A	
       	lubatud	0		A	sg n
       	lubatud	d		A	pl n
Metsiku	metsik	0		A	sg g
       	metsik	0		S	sg g
mõisa	mõis	0		S	sg g
Herra	####				
poolt	pool	t		N	sg p
     	pool	t		S	sg p
     	poolt	0		D	
     	poolt	0		K	
järel	järel	0		D	
     	järel	0		K	
kuulda	kuul	da		V	da
      	kuul	da		V	ta
.	.			Z	
Meta	meta	0		S	sg g
    	meta	0		S	sg n
peremees	pere_mees	0		S	sg n
Jaan	Jaan	0		H	sg n
    	jaan	0		S	sg n
    	jaan	0		Y	?
Armipaika	armi_paik	0		S	adt
         	armi_paik	0		S	sg p
sai	saa	i		V	s
   	sai	0		S	sg n
ette	ette	0		D	
    	ette	0		K	
    	esi	tte		S	adt
kutsutud	kutsu	tud		V	tud
        	kutsutu	d		S	pl n
        	kutsutud	0		A	
        	kutsutud	0		A	sg n
        	kutsutud	d		A	pl n
.	.			Z	
tema	tema	0		P	sg g
    	tema	0		P	sg n
vastas	vasta	s		V	s
      	vastas	0		D	
      	vastas	0		K	
:	:			Z	
ei	ei	0		D	
  	ei	0		V	neg
minna	mine	a		V	da
ole	ole	0		V	o
kellegile	####				
viina	viin	0		S	adt
     	viin	0		S	sg g
     	viin	0		S	sg p
andanud	####				
.	.			Z	
See	see	0		P	sg n
asi	asi	0		S	sg n
   	asi	0		V	o
saab	saa	b		V	b
kohalise	kohaline	0		A	sg g
kohtu	kohtu	0		V	o
     	kohus	0		S	sg g
alla	alla	0		D	
    	alla	0		K	
antud	an=tu	d		S	pl n
     	and	tud		V	tud
     	antud	0		A	
     	antud	0		A	sg n
     	antud	d		A	pl n
.	.			Z	
Hakenrihti	####				
kohtu	kohtu	0		V	o
     	kohus	0		S	sg g
alla	alla	0		D	
    	alla	0		K	
saadetud	saat	tud		V	tud
        	saade=tu	d		S	pl n
        	saadetud	0		A	
        	saadetud	0		A	sg n
        	saadetud	d		A	pl n
Juhan	Juhan	0		H	sg n
Summa	summ	0		S	adt
     	summ	0		S	sg g
     	summ	0		S	sg p
     	summa	0		S	sg g
     	summa	0		S	sg n
(	(			Z	
allkiri	all_kiri	0		S	sg n
)	)			Z	
,	,			Z	
Juhan	Juhan	0		H	sg n
Haili	####				
(	(			Z	
allkiri	all_kiri	0		S	sg n
)	)			Z	
,	,			Z	
Toomas	Toomas	0		H	sg n
      	Toomas	s		H	sg in
      	too	mas		V	mas
Uukivi	####				
XXX	XXX	0		O	?
   	XXX	0		Y	?
,	,			Z	
kirjutaja	kirjutaja	0		S	sg g
         	kirjutaja	0		S	sg n
Mart	Mart	0		H	sg n
    	mart	0		S	sg n
Mänd	mänd	0		S	sg n
