kohtu	kohtu	0		V	o
     	kohus	0		S	sg g
käiaid	####				
ei	ei	0		D	
  	ei	0		V	neg
olnud	ol=nud	0		A	
     	ol=nud	0		A	sg n
     	ol=nud	d		A	pl n
     	ole	nud		V	nud
     	olnu	d		S	pl n
ega	ega	0		D	
   	ega	0		J	
polnud	ole	nud		V	neg nud
mingisugust	mingi_sugune	t		P	sg p
asja	asi	0		S	adt
    	asi	0		S	sg g
    	asi	0		S	sg p
seletada	seleta	da		V	da
.	.			Z	
Johannes	Johannes	0		H	sg n
        	Johann	es		H	pl in
Haili	####				
(	(			Z	
allkiri	all_kiri	0		S	sg n
)	)			Z	
,	,			Z	
Juhan	Juhan	0		H	sg n
Summa	summ	0		S	adt
     	summ	0		S	sg g
     	summ	0		S	sg p
     	summa	0		S	sg g
     	summa	0		S	sg n
(	(			Z	
allkiri	all_kiri	0		S	sg n
)	)			Z	
,	,			Z	
Toomas	Toomas	0		H	sg n
      	Toomas	s		H	sg in
      	too	mas		V	mas
Uukivi	####				
XXX	XXX	0		O	?
   	XXX	0		Y	?
,	,			Z	
kirjut	kirju	t		A	sg p
.	.			Z	
Mart	Mart	0		H	sg n
    	mart	0		S	sg n
Mänd	mänd	0		S	sg n
