kaebas	kaeba	s		V	s
mõisa	mõis	0		S	sg g
rahe	rahe	0		S	sg g
    	rahe	0		S	sg n
Baroon	####				
v	v	0		Y	?
.	.			Z	
Stakelberg	####				
,	,			Z	
et	et	0		J	
turu	turg	0		S	sg g
koha	koht	0		S	sg g
    	koha	0		S	sg g
    	koha	0		V	o
    	koha	0		S	sg n
    	koha	0		S	sg p
pärisistjatel	####				
,	,			Z	
se	####				
on	ole	0		V	b
  	ole	0		V	vad
Hans	Hans	0		H	sg n
Mein	####				
ja	ja	0		J	
Jaak	Jaak	0		H	sg n
    	jaak	0		S	sg n
Meinil	####				
on	ole	0		V	b
  	ole	0		V	vad
jäänud	jää	nud		V	nud
      	jäänu	d		S	pl n
      	jäänud	0		A	
      	jäänud	0		A	sg n
      	jäänud	d		A	pl n
2.	2.	0		O	?
palgid	palk	d		S	pl n
mõisale	mõis	le		S	sg all
maksta	maks	ta		V	da
      	maks	ta		V	ta
mis	mis	0		P	pl n
   	mis	0		P	sg n
nemad	tema	d		P	pl n
oleks	ole	ks		V	ks
pidanud	pida	nud		V	nud
       	pida=nu	d		S	pl n
       	pida=nud	0		A	
       	pida=nud	0		A	sg n
       	pida=nud	d		A	pl n
kohe	kohe	0		A	sg n
    	kohe	0		D	
ära	ära	0		D	
   	ära	0		V	neg o
maksma	maks	ma		V	ma
aga	aga	0		J	
ei	ei	0		D	
  	ei	0		V	neg
ole	ole	0		V	o
mitte	mitte	0		D	
veel	veel	0		D	
    	vesi	l		S	sg ad
onud	onu	d		S	pl n
.	.			Z	
ette	ette	0		D	
    	ette	0		K	
    	esi	tte		S	adt
said	saa	id		V	sid
kutsutud	kutsu	tud		V	tud
        	kutsutu	d		S	pl n
        	kutsutud	0		A	
        	kutsutud	0		A	sg n
        	kutsutud	d		A	pl n
turu	turg	0		S	sg g
peremehed	pere_mees	d		S	pl n
,	,			Z	
ja	ja	0		J	
sai	saa	i		V	s
   	sai	0		S	sg n
küsitud	küsi	tud		V	tud
       	küsi=tu	d		S	pl n
       	küsi=tud	0		A	
       	küsi=tud	0		A	sg n
       	küsi=tud	d		A	pl n
,	,			Z	
kas	kas	0		D	
neil	see	l		P	pl ad
    	tema	l		P	pl ad
on	ole	0		V	b
  	ole	0		V	vad
need	see	d		P	pl n
palgid	palk	d		S	pl n
mõisa	mõis	0		S	sg g
herale	####				
anda	and	a		V	da
siis_	####				
tunnistasivad	tunni+st_asi=v	d		A	pl n
nemad	tema	d		P	pl n
ise	ise	0		A	
   	ise	0		D	
   	ise	0		P	pl n
   	ise	0		P	sg n
ka	ka	0		D	
et	et	0		J	
se	####				
õige	õige	0		A	sg g
    	õige	0		A	sg n
    	õige	0		D	
on	ole	0		V	b
  	ole	0		V	vad
,	,			Z	
et	et	0		J	
nemad	tema	d		P	pl n
peavad	pida	vad		V	vad
maksma	maks	ma		V	ma
.	.			Z	
kohus_mõistnud	####				
,	,			Z	
et	et	0		J	
nemad	tema	d		P	pl n
peavad	pida	vad		V	vad
need	see	d		P	pl n
palgid	palk	d		S	pl n
siis	siis	0		D	
    	siis	0		J	
mõisale	mõis	le		S	sg all
tagasi	tagasi	0		D	
      	tagasi	0		K	
maksma	maks	ma		V	ma
kui	kui	0		D	
   	kui	0		J	
neid	neid	0		S	sg n
    	see	d		P	pl p
    	tema	d		P	pl p
tarvis	tarvis	0		D	
      	tarvis	0		K	
on	ole	0		V	b
  	ole	0		V	vad
.	.			Z	
peavanem	pea_vanem	0		C	sg n
        	pea_vanem	0		S	sg n
:	:			Z	
J	J	0		Y	?
.	.			Z	
_Kulisaar	####				
XXX	XXX	0		O	?
   	XXX	0		Y	?
abimees	abi_mees	0		S	sg n
:	:			Z	
J	J	0		Y	?
.	.			Z	
_Kruusberg	####				
XXX	XXX	0		O	?
   	XXX	0		Y	?
teine	teine	0		O	sg n
     	teine	0		P	sg n
:	:			Z	
K	K	0		Y	?
.	.			Z	
_Lõuna	####				
XXX	XXX	0		O	?
   	XXX	0		Y	?
kirjut	kirju	t		A	sg p
:	:			Z	
JTamm	####				
