rista	rista	0		V	o
Kustav	kus=tav	0		A	sg n
      	kuse	tav		V	tav
Klaas	klaas	0		S	sg n
kaebab	kaeba	b		V	b
et	et	0		J	
Ueks	####				
küla	küla	0		S	sg g
    	küla	0		S	sg n
    	küla	0		S	sg p
meeste	meene	te		A	pl g
      	mees	te		S	pl g
Hans	Hans	0		H	sg n
Traks	traks	0		A	sg n
     	traks	0		S	sg n
üks	üks	0		N	sg n
   	üks	0		P	sg n
hobune	hobune	0		S	sg n
ja	ja	0		J	
Joosep	Joosep	0		H	sg n
Pollmann	####				
kaks	kaks	0		N	sg n
hoost	hoog	st		S	sg el
selle	see	0		P	sg g
     	sell	e		S	pl p
sama	sama	0		P	sg g
    	sama	0		P	sg n
    	sama	0		P	sg p
nädalal	nädal	l		S	sg ad
neli	neli	0		N	sg n
korda	kord	0		S	adt
     	korda	0		V	o
     	kord	0		S	sg p
tema	tema	0		P	sg g
    	tema	0		P	sg n
heinamal	####				
olnud	ol=nud	0		A	
     	ol=nud	0		A	sg n
     	ol=nud	d		A	pl n
     	ole	nud		V	nud
     	olnu	d		S	pl n
ja	ja	0		J	
nimetatud	nimeta	tud		V	tud
         	nimetatu	d		S	pl n
         	nimetatud	0		A	
         	nimetatud	0		A	sg n
         	nimetatud	d		A	pl n
mehed	mees	d		S	pl n
ei	ei	0		D	
  	ei	0		V	neg
taha	taht	0		V	o
    	taha	0		D	
    	taha	0		K	
oma	oma	0		A	sg g
   	oma	0		D	
   	oma	0		P	sg g
   	oma	0		S	sg g
   	oma	0		V	o
   	oma	0		A	sg n
   	oma	0		A	sg p
   	oma	0		P	sg n
   	oma	0		P	sg p
   	oma	0		S	sg n
   	oma	0		S	sg p
hobusid	hobu	sid		S	pl p
hoida	hoid	a		V	da
.	.			Z	
Hans	Hans	0		H	sg n
Plunt	####				
/	/			Z	
allkiri	all_kiri	0		S	sg n
/	/			Z	
