tuli	tuli	0		S	sg n
    	tule	i		V	s
ette	ette	0		D	
    	ette	0		K	
    	esi	tte		S	adt
Lassinurme	lassi_nurm	0		S	adt
          	lassi_nurm	0		S	sg g
          	lassi_nurm	0		S	sg p
mõisa	mõis	0		S	sg g
valitsusest	valitsus	st		S	sg el
kaebus	kaebus	0		S	sg n
,	,			Z	
ja	ja	0		J	
kaebas	kaeba	s		V	s
kohtule	kohus	le		S	sg all
,	,			Z	
et	et	0		J	
mõisa	mõis	0		S	sg g
tö	####				
poisid	poi	sid		S	pl p
      	poiss	d		S	pl n
Jüri	Jüri	0		H	sg g
    	Jüri	0		H	sg n
rLutis	####				
ja	ja	0		J	
Kaarel	Kaarel	0		H	sg n
      	kaar	l		S	sg ad
      	kaarel	0		S	sg n
kallas	kalla	s		V	s
      	kalla	s		S	sg in
      	kallas	0		S	sg n
on	ole	0		V	b
  	ole	0		V	vad
saadetud	saat	tud		V	tud
        	saade=tu	d		S	pl n
        	saadetud	0		A	
        	saadetud	0		A	sg n
        	saadetud	d		A	pl n
viima	vii	ma		V	ma
emised	emis	d		S	pl n
Väägevale	####				
viima	vii	ma		V	ma
,	,			Z	
siis	siis	0		D	
    	siis	0		J	
on	ole	0		V	b
  	ole	0		V	vad
nemad	tema	d		P	pl n
tee	tee	0		S	sg g
   	tege	0		V	o
   	tee	0		S	sg n
peal	pea	l		S	sg ad
    	peal	0		D	
    	peal	0		K	
hakkanud	####				
nendega	see	dega		P	pl kom
       	tema	dega		P	pl kom
hobustega	hobune	tega		S	pl kom
võidu	võidu	0		V	o
     	võit	0		S	sg g
     	võidu	0		D	
     	võidu	0		K	
ajama	aja	ma		V	ma
ja	ja	0		J	
mõlama	####				
nõnda	nõnda	0		D	
kaua	kaua	0		D	
kui	kui	0		D	
   	kui	0		J	
ajanud	aja	nud		V	nud
      	aja=nu	d		S	pl n
      	aja=nud	0		A	
      	aja=nud	0		A	sg n
      	aja=nud	d		A	pl n
vankri	vanker	0		S	sg g
asi	asi	0		S	sg n
   	asi	0		V	o
otsast	ots	st		S	sg el
      	otsast	0		K	
tük	####				
maha	maha	0		D	
,	,			Z	
ja	ja	0		J	
rattad	ratas	d		S	pl n
katki	katki	0		D	
.	.			Z	
Tulid	tule	id		V	sid
ette	ette	0		D	
    	ette	0		K	
    	esi	tte		S	adt
poisid	poi	sid		S	pl p
      	poiss	d		S	pl n
Kaarel	Kaarel	0		H	sg n
      	kaar	l		S	sg ad
      	kaarel	0		S	sg n
kalas	kala	s		S	sg in
ja	ja	0		J	
Jüri	Jüri	0		H	sg g
    	Jüri	0		H	sg n
Lorits	####				
ja	ja	0		J	
tunnistasid	tunnista	sid		V	sid
ka	ka	0		D	
ise	ise	0		A	
   	ise	0		D	
   	ise	0		P	pl n
   	ise	0		P	sg n
,	,			Z	
et	et	0		J	
se	####				
lugu	lugu	0		S	sg n
    	lugu	0		S	sg p
nõnda	nõnda	0		D	
olnud	ol=nud	0		A	
     	ol=nud	0		A	sg n
     	ol=nud	d		A	pl n
     	ole	nud		V	nud
     	olnu	d		S	pl n
,	,			Z	
siis	siis	0		D	
    	siis	0		J	
kohus	kohu	s		V	s
     	kohus	0		S	sg n
.	.			Z	
mõistnud	mõist	nud		V	nud
        	mõist=nu	d		S	pl n
        	mõist=nud	0		A	
        	mõist=nud	0		A	sg n
        	mõist=nud	d		A	pl n
:	:			Z	
et	et	0		J	
Jüri	Jüri	0		H	sg g
    	Jüri	0		H	sg n
Lorits	####				
saab	saa	b		V	b
25	25	0		N	?
vitsa	vits	0		S	adt
     	vits	0		S	sg g
     	vits	0		S	sg p
hoopi	hoop	0		S	adt
     	hoop	0		S	sg p
,	,			Z	
ja	ja	0		J	
Kaarel	Kaarel	0		H	sg n
      	kaar	l		S	sg ad
      	kaarel	0		S	sg n
kalas	kala	s		S	sg in
maksab	maks	b		V	b
3	3	0		N	?
rubla	rubla	0		S	sg g
     	rubla	0		S	sg n
     	rubla	0		S	sg p
valla	vald	0		S	sg g
     	valla	0		D	
laeka	laegas	0		S	adt
     	laegas	0		S	sg g
.	.			Z	
peavanem	pea_vanem	0		C	sg n
        	pea_vanem	0		S	sg n
:	:			Z	
JKlaas	####				
XXX	XXX	0		O	?
   	XXX	0		Y	?
abimees	abi_mees	0		S	sg n
.	.			Z	
MeinH	####				
.	.			Z	
_	_			Z	
XXX	XXX	0		O	?
   	XXX	0		Y	?
teine	teine	0		O	sg n
     	teine	0		P	sg n
:	:			Z	
J.Elberg	####				
XXX	XXX	0		O	?
   	XXX	0		Y	?
