kohtus	kohtu	s		V	s
      	kohus	s		S	sg in
käiaid	####				
ei	ei	0		D	
  	ei	0		V	neg
olnud	ol=nud	0		A	
     	ol=nud	0		A	sg n
     	ol=nud	d		A	pl n
     	ole	nud		V	nud
     	olnu	d		S	pl n
ja	ja	0		J	
ei	ei	0		D	
  	ei	0		V	neg
olnud	ol=nud	0		A	
     	ol=nud	0		A	sg n
     	ol=nud	d		A	pl n
     	ole	nud		V	nud
     	olnu	d		S	pl n
mingisugust	mingi_sugune	t		P	sg p
asja	asi	0		S	adt
    	asi	0		S	sg g
    	asi	0		S	sg p
seletada	seleta	da		V	da
.	.			Z	
kohtuvanem	kohtu_vanem	0		C	sg n
          	kohtu_vanem	0		S	sg n
:	:			Z	
allkiri	all_kiri	0		S	sg n
kohtukõrvamees	kohtu_kõrva_mees	0		S	sg n
:	:			Z	
allkiri	all_kiri	0		S	sg n
kohtukõrvamees	kohtu_kõrva_mees	0		S	sg n
:	:			Z	
allkiri	all_kiri	0		S	sg n
kirjutaja	kirjutaja	0		S	sg g
         	kirjutaja	0		S	sg n
:	:			Z	
allkiri	all_kiri	0		S	sg n
