kohtu	kohtu	0		V	o
     	kohus	0		S	sg g
ette	ette	0		D	
    	ette	0		K	
    	esi	tte		S	adt
tuli	tuli	0		S	sg n
    	tule	i		V	s
koolivanem	kooli_vanem	0		C	sg n
          	kooli_vanem	0		S	sg n
Joosep	Joosep	0		H	sg n
neps	####				
ja	ja	0		J	
ütles	ütle	s		V	s
:	:			Z	
Koolmeister	kool_meister	0		S	sg n
andis	and	is		V	s
mulle	mull	e		S	pl p
     	mina	lle		P	sg all
     	mulle	0		S	sg n
üles	üles	0		D	
,	,			Z	
et	et	0		J	
Mai	Mai	0		H	sg g
   	Mai	0		H	sg n
   	mai	0		S	sg g
   	mai	0		S	sg n
Tihane	tihane	0		S	sg n
on	ole	0		V	b
  	ole	0		V	vad
tulnud	tul=nud	0		A	
      	tul=nud	0		A	sg n
      	tul=nud	d		A	pl n
      	tule	nud		V	nud
      	tulnu	d		S	pl n
kooli	kool	i		S	pl p
     	kool	0		S	adt
     	kool	0		S	sg g
     	kool	0		S	sg p
tuppa	tuba	0		S	adt
kooli	kool	i		S	pl p
     	kool	0		S	adt
     	kool	0		S	sg g
     	kool	0		S	sg p
ajal	aeg	l		S	sg ad
    	ajal	0		K	
ja	ja	0		J	
öölnud	####				
temale	tema	le		P	sg all
:	:			Z	
sinna	sinna	0		D	
ole	ole	0		V	o
minu	mina	0		P	sg g
last	laps	t		S	sg p
    	last	0		S	sg n
24	24	0		N	?
tundi	tund	0		S	adt
     	tund	0		S	sg p
kooli	kool	i		S	pl p
     	kool	0		S	adt
     	kool	0		S	sg g
     	kool	0		S	sg p
toas	tuba	s		S	sg in
söömata	söö	mata		V	mata
       	sööm	ta		S	sg ab
       	söömata	0		A	
kinni	kinni	0		D	
pidanud	pida	nud		V	nud
       	pida=nu	d		S	pl n
       	pida=nud	0		A	
       	pida=nud	0		A	sg n
       	pida=nud	d		A	pl n
ja	ja	0		J	
karvupidi	karvu_pidi	0		D	
tahtnud	taht	nud		V	nud
       	taht=nu	d		S	pl n
       	taht=nud	0		A	
       	taht=nud	0		A	sg n
       	taht=nud	d		A	pl n
kooli	kool	i		S	pl p
     	kool	0		S	adt
     	kool	0		S	sg g
     	kool	0		S	sg p
toast	tuba	st		S	sg el
välja	välja	0		D	
     	välja	0		V	o
     	väli	0		S	adt
     	väli	0		S	sg g
     	väli	0		S	sg p
vedada	veda	da		V	da
,	,			Z	
sest	see	st		P	sg el
    	sest	0		J	
on	ole	0		V	b
  	ole	0		V	vad
ta	tema	0		P	sg g
  	tema	0		P	sg n
haigeks	haige	ks		A	sg tr
       	haige	ks		S	sg tr
jäänud	jää	nud		V	nud
      	jäänu	d		S	pl n
      	jäänud	0		A	
      	jäänud	0		A	sg n
      	jäänud	d		A	pl n
ja	ja	0		J	
surnud	surnu	d		S	pl n
      	surnud	0		A	
      	surnud	0		A	sg n
      	surnud	d		A	pl n
      	sure	nud		V	nud
.	.			Z	
koolivanem	kooli_vanem	0		C	sg n
          	kooli_vanem	0		S	sg n
on	ole	0		V	b
  	ole	0		V	vad
seda	see	da		P	sg p
kooli	kool	i		S	pl p
     	kool	0		S	adt
     	kool	0		S	sg g
     	kool	0		S	sg p
laste	laps	te		S	pl g
     	last	e		S	pl p
käest	käest	0		K	
     	käsi	st		S	sg el
järele	järele	0		D	
      	järele	0		K	
pärinud	päri	nud		V	nud
       	päri=nu	d		S	pl n
       	päri=nud	0		A	
       	päri=nud	0		A	sg n
       	päri=nud	d		A	pl n
,	,			Z	
need	see	d		P	pl n
ei	ei	0		D	
  	ei	0		V	neg
ole	ole	0		V	o
sest	see	st		P	sg el
    	sest	0		J	
midagi	miski	dagi		P	sg p
teadnud	tead	nud		V	nud
       	tead=nu	d		S	pl n
       	tead=nud	0		A	
       	tead=nud	0		A	sg n
       	tead=nud	d		A	pl n
.	.			Z	
Mai	Mai	0		H	sg g
   	Mai	0		H	sg n
   	mai	0		S	sg g
   	mai	0		S	sg n
tihasele	tihane	le		S	sg all
sai	saa	i		V	s
   	sai	0		S	sg n
käsk	käsk	0		S	sg n
antud	an=tu	d		S	pl n
     	and	tud		V	tud
     	antud	0		A	
     	antud	0		A	sg n
     	antud	d		A	pl n
,	,			Z	
et	et	0		J	
kohtu	kohtu	0		V	o
     	kohus	0		S	sg g
ette	ette	0		D	
    	ette	0		K	
    	esi	tte		S	adt
tuleb	tule	b		V	b
.	.			Z	
tema	tema	0		P	sg g
    	tema	0		P	sg n
mees	mees	0		S	sg n
    	mesi	s		S	sg in
Mikko	####				
Tihane	tihane	0		S	sg n
tuli	tuli	0		S	sg n
    	tule	i		V	s
kohtu	kohtu	0		V	o
     	kohus	0		S	sg g
ette	ette	0		D	
    	ette	0		K	
    	esi	tte		S	adt
ja	ja	0		J	
ütles	ütle	s		V	s
:	:			Z	
Mai	Mai	0		H	sg g
   	Mai	0		H	sg n
   	mai	0		S	sg g
   	mai	0		S	sg n
on	ole	0		V	b
  	ole	0		V	vad
haige	haige	0		A	sg g
     	haige	0		A	sg n
     	haige	0		S	sg g
     	haige	0		S	sg n
ei	ei	0		D	
  	ei	0		V	neg
võinud	või	nud		V	nud
      	või=nu	d		S	pl n
      	või=nud	0		A	
      	või=nud	0		A	sg n
      	või=nud	d		A	pl n
kohtu	kohtu	0		V	o
     	kohus	0		S	sg g
tulla	tule	a		V	da
.	.			Z	
minna	mine	a		V	da
tean	tead	n		V	n
seda	see	da		P	sg p
ka	ka	0		D	
.	.			Z	
Koolmeister	kool_meister	0		S	sg n
on	ole	0		V	b
  	ole	0		V	vad
minu	mina	0		P	sg g
tütre	tütar	0		S	sg g
24	24	0		N	?
tundi	tund	0		S	adt
     	tund	0		S	sg p
söömata	söö	mata		V	mata
       	sööm	ta		S	sg ab
       	söömata	0		A	
pidanud	pida	nud		V	nud
       	pida=nu	d		S	pl n
       	pida=nud	0		A	
       	pida=nud	0		A	sg n
       	pida=nud	d		A	pl n
ja	ja	0		J	
karvupidi	karvu_pidi	0		D	
vastu	vastu	0		D	
     	vastu	0		K	
sinna	sinna	0		D	
löönud	löö	nud		V	nud
      	löö=nu	d		S	pl n
      	löö=nud	0		A	
      	löö=nud	0		A	sg n
      	löö=nud	d		A	pl n
,	,			Z	
mis	mis	0		P	pl n
   	mis	0		P	sg n
koolmeister	kool_meister	0		S	sg n
see	see	0		P	sg n
on	ole	0		V	b
  	ole	0		V	vad
,	,			Z	
käib	käi	b		V	b
lastega	laps	tega		S	pl kom
kohut	kohus	t		S	sg p
ja	ja	0		J	
õpetab	õpeta	b		V	b
lastele	laps	tele		S	pl all
laulusid	laul	sid		S	pl p
,	,			Z	
mis	mis	0		P	pl n
   	mis	0		P	sg n
karja	kari	0		S	adt
     	kari	0		S	sg g
     	kari	0		S	sg p
poistelegi	poiss	tele	gi	S	pl all
ei	ei	0		D	
  	ei	0		V	neg
kõlba	kõlba	0		V	o
.	.			Z	
kohus	kohu	s		V	s
     	kohus	0		S	sg n
jättis	jät	is		V	s
Mikko	####				
tihase	tihane	0		S	sg g
tähelpanemata	tähe+l_pane=mata	0		A	
ja	ja	0		J	
andis	and	is		V	s
Mai	Mai	0		H	sg g
   	Mai	0		H	sg n
   	mai	0		S	sg g
   	mai	0		S	sg n
tihasele	tihane	le		S	sg all
käsku	käsk	0		S	adt
     	käsk	0		S	sg p
et	et	0		J	
kohtu	kohtu	0		V	o
     	kohus	0		S	sg g
tuleb	tule	b		V	b
.	.			Z	
Mai	Mai	0		H	sg g
   	Mai	0		H	sg n
   	mai	0		S	sg g
   	mai	0		S	sg n
Tihane	tihane	0		S	sg n
tuli	tuli	0		S	sg n
    	tule	i		V	s
kohtu	kohtu	0		V	o
     	kohus	0		S	sg g
ette	ette	0		D	
    	ette	0		K	
    	esi	tte		S	adt
ja	ja	0		J	
rääkis	rääki	s		V	s
nõnda	nõnda	0		D	
samuti	samuti	0		D	
kui	kui	0		D	
   	kui	0		J	
ta	tema	0		P	sg g
  	tema	0		P	sg n
kooli	kool	i		S	pl p
     	kool	0		S	adt
     	kool	0		S	sg g
     	kool	0		S	sg p
toas	tuba	s		S	sg in
oli	ole	i		V	s
rääkinud	rääki	nud		V	nud
        	rääki=nu	d		S	pl n
        	rääki=nud	0		A	
        	rääki=nud	0		A	sg n
        	rääki=nud	d		A	pl n
.	.			Z	
kohus	kohu	s		V	s
     	kohus	0		S	sg n
mõistis	mõist	is		V	s
:	:			Z	
Mai	Mai	0		H	sg g
   	Mai	0		H	sg n
   	mai	0		S	sg g
   	mai	0		S	sg n
Tihane	tihane	0		S	sg n
saab	saa	b		V	b
24	24	0		N	?
tundi	tund	0		S	adt
     	tund	0		S	sg p
vangi	vang	0		S	adt
     	vang	0		S	sg g
     	vang	0		S	sg p
trahvi	trahv	0		S	adt
      	trahv	0		S	sg g
      	trahvi	0		V	o
      	trahv	0		S	sg p
et	et	0		J	
koolmeistert	####				
laimas	laima	s		V	s
ja	ja	0		J	
kooli	kool	i		S	pl p
     	kool	0		S	adt
     	kool	0		S	sg g
     	kool	0		S	sg p
tundi	tund	0		S	adt
     	tund	0		S	sg p
seas	seas	0		K	
    	siga	s		A	sg in
    	siga	s		S	sg in
.	.			Z	
otsus	otsus	0		S	sg n
on	ole	0		V	b
  	ole	0		V	vad
täidetud	täit	tud		V	tud
        	täide=tu	d		S	pl n
        	täide=tud	0		A	
        	täide=tud	0		A	sg n
        	täide=tud	d		A	pl n
Juhan	Juhan	0		H	sg n
Summa	summ	0		S	adt
     	summ	0		S	sg g
     	summ	0		S	sg p
     	summa	0		S	sg g
     	summa	0		S	sg n
(	(			Z	
allkiri	all_kiri	0		S	sg n
)	)			Z	
,	,			Z	
Johannes	Johannes	0		H	sg n
        	Johann	es		H	pl in
Haili	####				
(	(			Z	
allkiri	all_kiri	0		S	sg n
)	)			Z	
,	,			Z	
Toomas	Toomas	0		H	sg n
      	Toomas	s		H	sg in
      	too	mas		V	mas
Uukivi	####				
XXX	XXX	0		O	?
   	XXX	0		Y	?
,	,			Z	
kirjut	kirju	t		A	sg p
.	.			Z	
Mart	Mart	0		H	sg n
    	mart	0		S	sg n
Mänd	mänd	0		S	sg n
