ette	ette	0		D	
    	ette	0		K	
    	esi	tte		S	adt
kutsutud	kutsu	tud		V	tud
        	kutsutu	d		S	pl n
        	kutsutud	0		A	
        	kutsutud	0		A	sg n
        	kutsutud	d		A	pl n
said	saa	id		V	sid
Kustav	kus=tav	0		A	sg n
      	kuse	tav		V	tav
Elens	####				
ja	ja	0		J	
Jaagup	Jaagup	0		H	sg n
Lääns	####				
.	.			Z	
Kustav	kus=tav	0		A	sg n
      	kuse	tav		V	tav
Elensi	####				
käest	käest	0		K	
     	käsi	st		S	sg el
sai	saa	i		V	s
   	sai	0		S	sg n
küsitud	küsi	tud		V	tud
       	küsi=tu	d		S	pl n
       	küsi=tud	0		A	
       	küsi=tud	0		A	sg n
       	küsi=tud	d		A	pl n
,	,			Z	
kas	kas	0		D	
tunnistust	tunnistus	t		S	sg p
toonud	too	nud		V	nud
      	too=nu	d		S	pl n
      	too=nud	0		A	
      	too=nud	0		A	sg n
      	too=nud	d		A	pl n
et	et	0		J	
sool	soo	l		S	sg ad
    	sool	0		S	sg n
    	sugu	l		S	sg ad
makstud	maks	tud		V	tud
       	maks=tu	d		S	pl n
       	maks=tud	0		A	
       	maks=tud	0		A	sg n
       	maks=tud	d		A	pl n
.	.			Z	
vastas	vasta	s		V	s
      	vastas	0		D	
      	vastas	0		K	
,	,			Z	
ei	ei	0		D	
  	ei	0		V	neg
ole	ole	0		V	o
.	.			Z	
Sai	saa	i		V	s
   	sai	0		S	sg n
küsitud	küsi	tud		V	tud
       	küsi=tu	d		S	pl n
       	küsi=tud	0		A	
       	küsi=tud	0		A	sg n
       	küsi=tud	d		A	pl n
kas	kas	0		D	
tunnistust	tunnistus	t		S	sg p
toonud	too	nud		V	nud
      	too=nu	d		S	pl n
      	too=nud	0		A	
      	too=nud	0		A	sg n
      	too=nud	d		A	pl n
et	et	0		J	
käsku	käsk	0		S	adt
     	käsk	0		S	sg p
poole	pool	0		N	sg g
     	pool	0		S	sg g
     	pool	e		S	pl p
     	poole	0		K	
     	poole	0		S	sg n
saanud	saa	nud		V	nud
      	saa=nud	0		A	
      	saa=nud	0		A	sg n
      	saa=nud	d		A	pl n
      	saanu	d		S	pl n
.	.			Z	
vastas	vasta	s		V	s
      	vastas	0		D	
      	vastas	0		K	
ei	ei	0		D	
  	ei	0		V	neg
ole	ole	0		V	o
.	.			Z	
kohus	kohu	s		V	s
     	kohus	0		S	sg n
katsus	katsu	s		V	s
neid	neid	0		S	sg n
    	see	d		P	pl p
    	tema	d		P	pl p
leppitada	####				
(	(			Z	
seadus	seadu	s		V	s
      	seadus	0		A	sg n
      	seadus	0		S	sg n
N 919	N919	0		Y	?
ja	ja	0		J	
kogukonna	kogukond	0		S	sg g
koht	koht	0		S	sg n
S	S	0		Y	?
.	.			Z	
N	N	0		Y	?
17.	17.	0		O	?
)	)			Z	
.	.			Z	
Jaagup	Jaagup	0		H	sg n
Lääns	####				
lubab	luba	b		V	b
leppida	leppi	da		V	da
kui	kui	0		D	
   	kui	0		J	
Kustav	kus=tav	0		A	sg n
      	kuse	tav		V	tav
Elens	####				
maksab	maks	b		V	b
kohe	kohe	0		A	sg n
    	kohe	0		D	
vaka	vakk	0		S	sg g
soola	sool	0		S	adt
     	sool	0		S	sg g
     	soola	0		V	o
     	sool	0		S	sg p
ette	ette	0		D	
    	ette	0		K	
    	esi	tte		S	adt
kolm	kolm	0		N	sg n
rub	####				
seitse	seitse	0		N	sg n
kümmend	####				
viis	vii	s		V	s
    	viis	0		N	sg n
    	viis	0		S	sg n
kop	kop	0		Y	?
.	.			Z	
/	/			Z	
3	3	0		N	?
rub	####				
75	75	0		N	?
kop	kop	0		Y	?
.	.			Z	
/	/			Z	
.	.			Z	
et	et	0		J	
ta	tema	0		P	sg g
  	tema	0		P	sg n
ühe	üks	0		N	sg g
   	üks	0		P	sg g
   	ühe	0		S	sg n
päeva	päev	0		S	adt
     	päev	0		S	sg g
     	päev	0		S	sg p
oli	ole	i		V	s
ilma	ilm	0		S	adt
    	ilm	0		S	sg g
    	ilma	0		D	
    	ilma	0		K	
    	ilm	0		S	sg p
aegu	aeg	u		S	pl p
    	aegu	0		K	
    	aegu	0		V	o
käinud	käi	nud		V	nud
      	käi=nud	0		A	
      	käi=nud	0		A	sg n
      	käi=nud	d		A	pl n
      	käinu	d		S	pl n
kohtus	kohtu	s		V	s
      	kohus	s		S	sg in
,	,			Z	
nõuab	nõud	b		V	b
ta	tema	0		P	sg g
  	tema	0		P	sg n
kaks	kaks	0		N	sg n
künende	####				
viis	vii	s		V	s
    	viis	0		N	sg n
    	viis	0		S	sg n
kop	kop	0		Y	?
.	.			Z	
(	(			Z	
25	25	0		N	?
kop	kop	0		Y	?
.	.			Z	
)	)			Z	
.	.			Z	
Kustav	kus=tav	0		A	sg n
      	kuse	tav		V	tav
Elens	####				
leppis	leppi	s		V	s
sellega	see	ga		P	sg kom
ja	ja	0		J	
maksis	maks	is		V	s
      	maksi	s		S	sg in
kohe	kohe	0		A	sg n
    	kohe	0		D	
kolm	kolm	0		N	sg n
rubla	rubla	0		S	sg g
     	rubla	0		S	sg n
     	rubla	0		S	sg p
seitsekümend	####				
viis	vii	s		V	s
    	viis	0		N	sg n
    	viis	0		S	sg n
kop	kop	0		Y	?
.	.			Z	
(	(			Z	
3	3	0		N	?
rub	####				
75	75	0		N	?
kop	kop	0		Y	?
.	.			Z	
)	)			Z	
soola	sool	0		S	adt
     	sool	0		S	sg g
     	soola	0		V	o
     	sool	0		S	sg p
raha	raha	0		S	sg g
    	raha	0		S	sg n
    	raha	0		S	sg p
ja	ja	0		J	
ühe	üks	0		N	sg g
   	üks	0		P	sg g
   	ühe	0		S	sg n
päeva	päev	0		S	adt
     	päev	0		S	sg g
     	päev	0		S	sg p
hind	hind	0		S	sg n
kakskümend	####				
viis	vii	s		V	s
    	viis	0		N	sg n
    	viis	0		S	sg n
kop	kop	0		Y	?
.	.			Z	
(	(			Z	
25	25	0		N	?
kop	kop	0		Y	?
.	.			Z	
)	)			Z	
kokku	kokku	0		D	
     	kogu	0		S	adt
neli	neli	0		N	sg n
rubla	rubla	0		S	sg g
     	rubla	0		S	sg n
     	rubla	0		S	sg p
Jaagup	Jaagup	0		H	sg n
Läänsile	lään_sile	0		A	sg n
välja	välja	0		D	
     	välja	0		V	o
     	väli	0		S	adt
     	väli	0		S	sg g
     	väli	0		S	sg p
.	.			Z	
