ei	ei	0		D	
  	ei	0		V	neg
tulnud	tul=nud	0		A	
      	tul=nud	0		A	sg n
      	tul=nud	d		A	pl n
      	tule	nud		V	nud
      	tulnu	d		S	pl n
ühtigi	ühtigi	0		D	
ette	ette	0		D	
    	ette	0		K	
    	esi	tte		S	adt
,	,			Z	
ja	ja	0		J	
ei	ei	0		D	
  	ei	0		V	neg
saanud	saa	nud		V	nud
      	saa=nud	0		A	
      	saa=nud	0		A	sg n
      	saa=nud	d		A	pl n
      	saanu	d		S	pl n
ühtigi	ühtigi	0		D	
mõistetud	mõist	tud		V	tud
         	mõiste=tu	d		S	pl n
         	mõiste=tud	0		A	
         	mõiste=tud	0		A	sg n
         	mõiste=tud	d		A	pl n
.	.			Z	
peavanem	pea_vanem	0		C	sg n
        	pea_vanem	0		S	sg n
:	:			Z	
Villem	Villem	0		H	sg n
mullirbek	####				
abimees	abi_mees	0		S	sg n
:	:			Z	
Kaarel	Kaarel	0		H	sg n
      	kaar	l		S	sg ad
      	kaarel	0		S	sg n
lõuna	lõuna	0		S	sg g
     	lõuna	0		S	sg n
teine	teine	0		O	sg n
     	teine	0		P	sg n
:	:			Z	
Hans	Hans	0		H	sg n
turu	turg	0		S	sg g
kirjutaja	kirjutaja	0		S	sg g
         	kirjutaja	0		S	sg n
HTamm	####				
