kohtu	kohtu	0		V	o
     	kohus	0		S	sg g
mehed	mees	d		S	pl n
kokku	kokku	0		D	
     	kogu	0		S	adt
tulnud	tul=nud	0		A	
      	tul=nud	0		A	sg n
      	tul=nud	d		A	pl n
      	tule	nud		V	nud
      	tulnu	d		S	pl n
.	.			Z	
kaebamist	kaebamine	t		S	sg p
ei	ei	0		D	
  	ei	0		V	neg
olnud	ol=nud	0		A	
     	ol=nud	0		A	sg n
     	ol=nud	d		A	pl n
     	ole	nud		V	nud
     	olnu	d		S	pl n
mitte	mitte	0		D	
.	.			Z	
vanem	vanem	0		C	sg n
     	vanem	0		S	sg n
Aleksei	Aleksei	0		H	sg g
       	Aleksei	0		H	sg n
Kann	kann	0		S	sg n
+	+			Z	
+	+			Z	
+	+			Z	
,	,			Z	
kohtu	kohtu	0		V	o
     	kohus	0		S	sg g
mees	mees	0		S	sg n
    	mesi	s		S	sg in
Laes	laad	s		S	sg in
    	lagi	s		S	sg in
Moondo	####				
