rbl	rbl	0		Y	?
kop	kop	0		Y	?
kihelkonna	kihelkond	0		S	sg g
kohtu	kohtu	0		V	o
     	kohus	0		S	sg g
raha	raha	0		S	sg g
    	raha	0		S	sg n
    	raha	0		S	sg p
37	37	0		N	?
??	??			Z	
kubermangu	kubermang	0		S	adt
          	kubermang	0		S	sg g
          	kubermang	0		S	sg p
siitungi	####				
raha	raha	0		S	sg g
    	raha	0		S	sg n
    	raha	0		S	sg p
3	3	0		N	?
?	?			Z	
Aida	ait	0		S	sg g
lubja	lubi	0		S	sg g
raha	raha	0		S	sg g
    	raha	0		S	sg n
    	raha	0		S	sg p
?	?			Z	
kija	####				
Jaani	Jaan	0		H	adt
     	Jaan	0		H	sg g
     	Jaani	0		H	sg g
     	jaan	0		S	adt
     	jaan	0		S	sg g
     	Jaan	0		H	sg p
     	Jaani	0		H	sg n
     	jaan	0		S	sg p
pea	pea	0		D	
   	pea	0		S	sg g
   	pida	0		V	o
   	pea	0		S	sg n
raha	raha	0		S	sg g
    	raha	0		S	sg n
    	raha	0		S	sg p
tagasi	tagasi	0		D	
      	tagasi	0		K	
juurde	juur	de		S	adt
      	juurde	0		D	
      	juurde	0		K	
arvutatud	arvuta	tud		V	tud
         	arvuta=tu	d		S	pl n
         	arvuta=tud	0		A	
         	arvuta=tud	0		A	sg n
         	arvuta=tud	d		A	pl n
1	1	0		N	?
?	?			Z	
talitaja	talitaja	0		S	sg g
        	talitaja	0		S	sg n
Jüri	Jüri	0		H	sg g
    	Jüri	0		H	sg n
plank	plank	0		A	sg n
     	plank	0		S	sg n
