haudako	####				
Jagub	jagu	b		V	b
Martenseni	####				
naine	naine	0		S	sg n
Trudo	####				
kaebas	kaeba	s		V	s
et	et	0		J	
tema	tema	0		P	sg g
    	tema	0		P	sg n
on	ole	0		V	b
  	ole	0		V	vad
selle	see	0		P	sg g
     	sell	e		S	pl p
Koplimetsa	kopli_mets	0		S	adt
          	kopli_mets	0		S	sg g
          	kopli_mets	0		S	sg p
Andrusele	Andrus	le		H	sg all
enne	enne	0		D	
    	enne	0		K	
    	enne	0		S	sg n
paknroti	####				
kuulutust	kuulutus	t		S	sg p
kut	####				
tema	tema	0		P	sg g
    	tema	0		P	sg n
on	ole	0		V	b
  	ole	0		V	vad
tualukoha	####				
peal	pea	l		S	sg ad
    	peal	0		D	
    	peal	0		K	
ikka	ikka	0		D	
    	iga	0		S	adt
olnud	ol=nud	0		A	
     	ol=nud	0		A	sg n
     	ol=nud	d		A	pl n
     	ole	nud		V	nud
     	olnu	d		S	pl n
2	2	0		N	?
rubla	rubla	0		S	sg g
     	rubla	0		S	sg n
     	rubla	0		S	sg p
hõbe	hõbe	0		S	sg n
ning	ning	0		J	
2	2	0		N	?
rubla	rubla	0		S	sg g
     	rubla	0		S	sg n
     	rubla	0		S	sg p
vask	vask	0		S	sg n
raha	raha	0		S	sg g
    	raha	0		S	sg n
    	raha	0		S	sg p
laenanud	laena	nud		V	nud
        	laena=nu	d		S	pl n
        	laena=nud	0		A	
        	laena=nud	0		A	sg n
        	laena=nud	d		A	pl n
ning	ning	0		J	
et	et	0		J	
see	see	0		P	sg n
Andrus	Andrus	0		H	sg n
on	ole	0		V	b
  	ole	0		V	vad
teda	tema	da		P	sg p
väga	väga	0		D	
palunud	palu	nud		V	nud
       	palu=nu	d		S	pl n
       	palu=nud	0		A	
       	palu=nud	0		A	sg n
       	palu=nud	d		A	pl n
et	et	0		J	
tema	tema	0		P	sg g
    	tema	0		P	sg n
mitte	mitte	0		D	
ei	ei	0		D	
  	ei	0		V	neg
pole	ole	0		V	neg o
pidanud	pida	nud		V	nud
       	pida=nu	d		S	pl n
       	pida=nud	0		A	
       	pida=nud	0		A	sg n
       	pida=nud	d		A	pl n
seda	see	da		P	sg p
üles	üles	0		D	
andma	and	ma		V	ma
ja	ja	0		J	
lubanud	luba	nud		V	nud
       	luba=nu	d		S	pl n
       	luba=nud	0		A	
       	luba=nud	0		A	sg n
       	luba=nud	d		A	pl n
ise	ise	0		A	
   	ise	0		D	
   	ise	0		P	pl n
   	ise	0		P	sg n
pärast	pära	st		S	sg el
      	pärane	t		A	sg p
      	pärast	0		D	
      	pärast	0		K	
seda	see	da		P	sg p
maksta	maks	ta		V	da
      	maks	ta		V	ta
ja	ja	0		J	
et	et	0		J	
ta	tema	0		P	sg g
  	tema	0		P	sg n
nüüd	nüüd	0		D	
juba	juba	0		D	
peale	pea	le		S	sg all
     	peale	0		D	
     	peale	0		K	
3	3	0		N	?
aastat	aasta	t		S	sg p
on	ole	0		V	b
  	ole	0		V	vad
ootanud	####				
ning	ning	0		J	
pole	ole	0		V	neg o
jal	####				
ühtigi	ühtigi	0		D	
tema	tema	0		P	sg g
    	tema	0		P	sg n
käest	käest	0		K	
     	käsi	st		S	sg el
saanud	saa	nud		V	nud
      	saa=nud	0		A	
      	saa=nud	0		A	sg n
      	saa=nud	d		A	pl n
      	saanu	d		S	pl n
,	,			Z	
ning	ning	0		J	
et	et	0		J	
nüüd	nüüd	0		D	
on	ole	0		V	b
  	ole	0		V	vad
tema	tema	0		P	sg g
    	tema	0		P	sg n
kuulda	kuul	da		V	da
      	kuul	da		V	ta
saanud	saa	nud		V	nud
      	saa=nud	0		A	
      	saa=nud	0		A	sg n
      	saa=nud	d		A	pl n
      	saanu	d		S	pl n
et	et	0		J	
see	see	0		P	sg n
Andrus	Andrus	0		H	sg n
on	ole	0		V	b
  	ole	0		V	vad
enne	enne	0		D	
    	enne	0		K	
    	enne	0		S	sg n
oksioni	####				
Luguse	####				
Mardi	Mart	0		H	sg g
     	mart	0		S	sg g
juurde	juur	de		S	adt
      	juurde	0		D	
      	juurde	0		K	
ühe	üks	0		N	sg g
   	üks	0		P	sg g
   	ühe	0		S	sg n
nelja	neli	0		N	adt
     	neli	0		N	sg g
     	neli	0		N	sg p
saanudase	####				
paja	pada	0		S	sg g
    	paja	0		S	sg g
    	paja	0		S	sg n
    	paja	0		S	sg p
hoida	hoid	a		V	da
ehk	ehk	0		D	
   	ehk	0		J	
eest	eest	0		D	
    	eest	0		K	
    	esi	st		S	sg el
ära	ära	0		D	
   	ära	0		V	neg o
varjendamiseks	####				
viinud	vii	nud		V	nud
      	vii=nu	d		S	pl n
      	vii=nud	0		A	
      	vii=nud	0		A	sg n
      	vii=nud	d		A	pl n
,	,			Z	
sai	saa	i		V	s
   	sai	0		S	sg n
siis	siis	0		D	
    	siis	0		J	
see	see	0		P	sg n
Andrus	Andrus	0		H	sg n
kästud	käs=tu	d		S	pl n
      	käs=tud	0		A	
      	käs=tud	0		A	sg n
      	käs=tud	d		A	pl n
      	käski	tud		V	tud
kohtu	kohtu	0		V	o
     	kohus	0		S	sg g
ette	ette	0		D	
    	ette	0		K	
    	esi	tte		S	adt
tulla	tule	a		V	da
ja	ja	0		J	
sai	saa	i		V	s
   	sai	0		S	sg n
siis	siis	0		D	
    	siis	0		J	
küsitud	küsi	tud		V	tud
       	küsi=tu	d		S	pl n
       	küsi=tud	0		A	
       	küsi=tud	0		A	sg n
       	küsi=tud	d		A	pl n
kas	kas	0		D	
tema	tema	0		P	sg g
    	tema	0		P	sg n
on	ole	0		V	b
  	ole	0		V	vad
selle	see	0		P	sg g
     	sell	e		S	pl p
Trudo	####				
käest	käest	0		K	
     	käsi	st		S	sg el
2	2	0		N	?
rubla	rubla	0		S	sg g
     	rubla	0		S	sg n
     	rubla	0		S	sg p
hõbe	hõbe	0		S	sg n
ning	ning	0		J	
2	2	0		N	?
rubla	rubla	0		S	sg g
     	rubla	0		S	sg n
     	rubla	0		S	sg p
50	50	0		N	?
kopikat	kopikas	t		S	sg p
vask	vask	0		S	sg n
raha	raha	0		S	sg g
    	raha	0		S	sg n
    	raha	0		S	sg p
laenanud	laena	nud		V	nud
        	laena=nu	d		S	pl n
        	laena=nud	0		A	
        	laena=nud	0		A	sg n
        	laena=nud	d		A	pl n
ning	ning	0		J	
ka	ka	0		D	
palunud	palu	nud		V	nud
       	palu=nu	d		S	pl n
       	palu=nud	0		A	
       	palu=nud	0		A	sg n
       	palu=nud	d		A	pl n
et	et	0		J	
tema	tema	0		P	sg g
    	tema	0		P	sg n
mitte	mitte	0		D	
seda	see	da		P	sg p
oksioni	####				
ajal	aeg	l		S	sg ad
    	ajal	0		K	
ei	ei	0		D	
  	ei	0		V	neg
pidanud	pida	nud		V	nud
       	pida=nu	d		S	pl n
       	pida=nud	0		A	
       	pida=nud	0		A	sg n
       	pida=nud	d		A	pl n
üles	üles	0		D	
andma	and	ma		V	ma
ning	ning	0		J	
ka	ka	0		D	
selle	see	0		P	sg g
     	sell	e		S	pl p
Luguse	####				
Mardi	Mart	0		H	sg g
     	mart	0		S	sg g
juurde	juur	de		S	adt
      	juurde	0		D	
      	juurde	0		K	
ühe	üks	0		N	sg g
   	üks	0		P	sg g
   	ühe	0		S	sg n
suure	suur	0		A	sg g
paja	pada	0		S	sg g
    	paja	0		S	sg g
    	paja	0		S	sg n
    	paja	0		S	sg p
viinud	vii	nud		V	nud
      	vii=nu	d		S	pl n
      	vii=nud	0		A	
      	vii=nud	0		A	sg n
      	vii=nud	d		A	pl n
,	,			Z	
aga	aga	0		J	
seda	see	da		P	sg p
ei	ei	0		D	
  	ei	0		V	neg
võinud	või	nud		V	nud
      	või=nu	d		S	pl n
      	või=nud	0		A	
      	või=nud	0		A	sg n
      	või=nud	d		A	pl n
see	see	0		P	sg n
Andrus	Andrus	0		H	sg n
mitte	mitte	0		D	
vabandada	vabanda	da		V	da
et	et	0		J	
ta	tema	0		P	sg g
  	tema	0		P	sg n
mitte	mitte	0		D	
seda	see	da		P	sg p
ei	ei	0		D	
  	ei	0		V	neg
pole	ole	0		V	neg o
teinud	tege	nud		V	nud
      	tei=nud	0		A	
      	tei=nud	0		A	sg n
      	tei=nud	d		A	pl n
      	teinu	d		S	pl n
.	.			Z	
sai	saa	i		V	s
   	sai	0		S	sg n
siis	siis	0		D	
    	siis	0		J	
see	see	0		P	sg n
nõu	nõu	0		S	sg g
   	nõu	0		S	sg n
   	nõu	0		S	sg p
võetud	võe=tu	d		S	pl n
      	võetud	0		A	
      	võetud	0		A	sg n
      	võetud	d		A	pl n
      	võt	tud		V	tud
ja	ja	0		J	
kohtu	kohtu	0		V	o
     	kohus	0		S	sg g
poolest	pool	st		N	sg el
       	pool	st		S	sg el
       	poolene	t		A	sg p
       	poolest	0		K	
mindud	min=du	d		S	pl n
      	min=dud	0		A	
      	min=dud	0		A	sg n
      	min=dud	d		A	pl n
      	mine	dud		V	tud
ning	ning	0		J	
see	see	0		P	sg n
pada	pada	0		S	sg g
    	pada	0		S	sg n
    	pada	0		S	sg p
selle	see	0		P	sg g
     	sell	e		S	pl p
Mardi	Mart	0		H	sg g
     	mart	0		S	sg g
juurest	juur	st		S	sg el
       	juurest	0		K	
ära	ära	0		D	
   	ära	0		V	neg o
tuutatud	####				
ning	ning	0		J	
oksioonu	####				
viisil	viis	l		S	sg ad
      	viisil	0		K	
seitsme	seitse	0		N	sg g
rubla	rubla	0		S	sg g
     	rubla	0		S	sg n
     	rubla	0		S	sg p
eest	eest	0		D	
    	eest	0		K	
    	esi	st		S	sg el
ära	ära	0		D	
   	ära	0		V	neg o
müütud	####				
ning	ning	0		J	
see	see	0		P	sg n
raha	raha	0		S	sg g
    	raha	0		S	sg n
    	raha	0		S	sg p
Trudole	####				
antud	an=tu	d		S	pl n
     	and	tud		V	tud
     	antud	0		A	
     	antud	0		A	sg n
     	antud	d		A	pl n
.	.			Z	
kohtu	kohtu	0		V	o
     	kohus	0		S	sg g
vanem	vanem	0		C	sg n
     	vanem	0		S	sg n
Hindrik	####				
Huss	####				
kohtu	kohtu	0		V	o
     	kohus	0		S	sg g
mees	mees	0		S	sg n
    	mesi	s		S	sg in
Mihkel	Mihkel	0		H	sg n
      	mihkel	0		A	sg n
      	mihkel	0		S	sg n
Nurja	nurja	0		D	
     	nurja	0		V	o
""""	""""			Z	
""""	""""			Z	
Hain	Hain	0		H	sg n
Rog	Rog	0		H	sg n
kirjutaja	kirjutaja	0		S	sg g
         	kirjutaja	0		S	sg n
Johann	Johann	0		H	sg n
Huum	####				
