Öiguse	####				
mõistmist	mõistmine	t		S	sg p
pole	ole	0		V	neg o
täna	täna	0		D	
    	täna	0		V	o
mitte	mitte	0		D	
olnud	ol=nud	0		A	
     	ol=nud	0		A	sg n
     	ol=nud	d		A	pl n
     	ole	nud		V	nud
     	olnu	d		S	pl n
seda	see	da		P	sg p
tunnistab	tunnista	b		V	b
kirjutaja	kirjutaja	0		S	sg g
         	kirjutaja	0		S	sg n
Johann	Johann	0		H	sg n
Huum	####				
