Tuhande	tuhat	0		N	sg g
üheksa	üheksa	0		N	sg g
      	üheksa	0		N	sg n
saaja	saaja	0		S	sg g
     	saaja	0		S	sg n
kümnendal	kümnes	l		O	sg ad
aastal	aasta	l		S	sg ad
Juuni	juuni	0		S	sg g
     	juuni	0		S	sg n
kuu	kuu	0		S	sg g
   	kuu	0		S	sg n
kolmandamal	####				
päeval	päev	l		S	sg ad
ilmus	ilmu	s		V	s
Laimjala	Laim_jala	0		H	sg g
        	Laim_jala	0		H	sg n
valla	vald	0		S	sg g
     	valla	0		D	
kohtuse	kohtune	0		A	sg g
talu	talu	0		S	sg g
    	talu	0		V	o
    	talu	0		S	sg n
    	talu	0		S	sg p
mees	mees	0		S	sg n
    	mesi	s		S	sg in
Laimjala	Laim_jala	0		H	sg g
        	Laim_jala	0		H	sg n
vallast	vald	st		S	sg el
Ivan	Ivan	0		H	sg n
Toombu	####				
ning	ning	0		J	
aavallas	####				
,	,			Z	
et	et	0		J	
soovib	soovi	b		V	b
seda	see	da		P	sg p
siinast	####				
suusõnalist	suu_sõnaline	t		A	sg p
tõstamenti	####				
,	,			Z	
mis	mis	0		P	pl n
   	mis	0		P	sg n
ta	tema	0		P	sg g
  	tema	0		P	sg n
siin	siin	0		D	
    	siin	0		S	sg n
valla	vald	0		S	sg g
     	valla	0		D	
kohtu	kohtu	0		V	o
     	kohus	0		S	sg g
ees	ees	0		D	
   	ees	0		K	
   	esi	s		S	sg in
19	19	0		N	?
Februaril	####				
tuande	####				
üheksa	üheksa	0		N	sg g
      	üheksa	0		N	sg n
saaja	saaja	0		S	sg g
     	saaja	0		S	sg n
üheksamal	####				
aastal	aasta	l		S	sg ad
siin	siin	0		D	
    	siin	0		S	sg n
valla	vald	0		S	sg g
     	valla	0		D	
kohtus	kohtu	s		V	s
      	kohus	s		S	sg in
suusõnalikult	suu_sõna=lik	lt		A	sg abl
             	suu_sõna=likult	0		D	
on	ole	0		V	b
  	ole	0		V	vad
teinud	tege	nud		V	nud
      	tei=nud	0		A	
      	tei=nud	0		A	sg n
      	tei=nud	d		A	pl n
      	teinu	d		S	pl n
järgmiselt	järgmine	lt		A	sg abl
          	järgmiselt	0		D	
ja	ja	0		J	
mis	mis	0		P	pl n
   	mis	0		P	sg n
on	ole	0		V	b
  	ole	0		V	vad
Laimjala	Laim_jala	0		H	sg g
        	Laim_jala	0		H	sg n
valla	vald	0		S	sg g
     	valla	0		D	
kohtu	kohtu	0		V	o
     	kohus	0		S	sg g
akti	akt	0		S	adt
    	akt	0		S	sg g
    	akt	0		S	sg p
raamatu	raamat	0		S	sg g
I	I	0		O	?
 	I	0		Y	?
 	j	0		Y	?
jaosse	jagu	sse		S	sg ill
1909	1909	0		N	?
aastal	aasta	l		S	sg ad
No	no	0		I	
5	5	0		N	?
all	all	0		D	
   	all	0		K	
sisse	siss	e		S	pl p
     	sisse	0		D	
     	sisse	0		K	
kirjutatud	kirjuta	tud		V	tud
          	kirjutatu	d		S	pl n
          	kirjutatud	0		A	
          	kirjutatud	0		A	sg n
          	kirjutatud	d		A	pl n
järgmiselt	järgmine	lt		A	sg abl
          	järgmiselt	0		D	
muuta	muu	ta		P	sg ab
     	muu	ta		S	sg ab
     	muut	a		V	da
nimelt	nimelt	0		D	
      	nimi	lt		S	sg abl
on	ole	0		V	b
  	ole	0		V	vad
tema	tema	0		P	sg g
    	tema	0		P	sg n
noorem	noorem	0		C	sg n
poeg	poeg	0		S	sg n
Feodor	Feodor	0		H	sg n
Toombu	####				
oma	oma	0		A	sg g
   	oma	0		D	
   	oma	0		P	sg g
   	oma	0		S	sg g
   	oma	0		V	o
   	oma	0		A	sg n
   	oma	0		A	sg p
   	oma	0		P	sg n
   	oma	0		P	sg p
   	oma	0		S	sg n
   	oma	0		S	sg p
jao	jagu	0		S	sg g
varandust	varandus	t		S	sg p
kõik	kõik	0		P	pl n
    	kõik	0		S	sg n
    	kõik	0		P	sg n
isa	isa	0		S	sg g
   	isa	0		S	sg n
   	isa	0		S	sg p
elu	elu	0		S	sg g
   	elu	0		S	sg n
   	elu	0		S	sg p
ajal	aeg	l		S	sg ad
    	ajal	0		K	
kätte	kätte	0		K	
     	käsi	tte		S	adt
saanud	saa	nud		V	nud
      	saa=nud	0		A	
      	saa=nud	0		A	sg n
      	saa=nud	d		A	pl n
      	saanu	d		S	pl n
ja	ja	0		J	
ei	ei	0		D	
  	ei	0		V	neg
ole	ole	0		V	o
Georgi	Georg	0		H	adt
      	Georg	0		H	sg g
      	Georg	0		H	sg p
      	Georgi	0		H	sg g
      	Georgi	0		H	sg n
Toombu	####				
mitte	mitte	0		D	
enam	enam	0		C	sg n
    	enam	0		D	
kohustatud	kohusta	tud		V	tud
          	kohusta=tu	d		S	pl n
          	kohusta=tud	0		A	
          	kohusta=tud	0		A	sg n
          	kohusta=tud	d		A	pl n
peale	pea	le		S	sg all
     	peale	0		D	
     	peale	0		K	
tõstamenti	####				
tegija	tegija	0		S	sg g
      	tegija	0		S	sg n
surma	surm	0		S	adt
     	surm	0		S	sg g
     	surma	0		V	o
     	surm	0		S	sg p
viis	vii	s		V	s
    	viis	0		N	sg n
    	viis	0		S	sg n
teist	sina	st		P	pl el
     	tee	ist		S	pl el
     	teist	0		D	
     	teine	t		O	sg p
     	teine	t		P	sg p
None	####				
rubla	rubla	0		S	sg g
     	rubla	0		S	sg n
     	rubla	0		S	sg p
oma	oma	0		A	sg g
   	oma	0		D	
   	oma	0		P	sg g
   	oma	0		S	sg g
   	oma	0		V	o
   	oma	0		A	sg n
   	oma	0		A	sg p
   	oma	0		P	sg n
   	oma	0		P	sg p
   	oma	0		S	sg n
   	oma	0		S	sg p
nooremaa	noore_maa	0		S	sg g
        	noore_maa	0		S	sg n
venna	vend	0		S	sg g
Feodor	Feodor	0		H	sg n
Toombule	####				
maksma	maks	ma		V	ma
.	.			Z	
maha	maha	0		D	
kriipsutud	kriipsu=tu	d		A	pl n
""""	""""			Z	
siin	siin	0		D	
    	siin	0		S	sg n
valla	vald	0		S	sg g
     	valla	0		D	
kohtus	kohtu	s		V	s
      	kohus	s		S	sg in
""""	""""			Z	
""""	""""			Z	
järgmiselt	järgmine	lt		A	sg abl
          	järgmiselt	0		D	
""""	""""			Z	
.	.			Z	
Ivan	Ivan	0		H	sg n
Toombu	####				
[	[			Z	
allkiri	all_kiri	0		S	sg n
]	]			Z	
1910	1910	0		N	?
aastal	aasta	l		S	sg ad
Juuni	juuni	0		S	sg g
     	juuni	0		S	sg n
kuu	kuu	0		S	sg g
   	kuu	0		S	sg n
3	3	0		N	?
päeval	päev	l		S	sg ad
Laimjala	Laim_jala	0		H	sg g
        	Laim_jala	0		H	sg n
valla	vald	0		S	sg g
     	valla	0		D	
kohus	kohu	s		V	s
     	kohus	0		S	sg n
seega	seega	0		D	
tunnistab	tunnista	b		V	b
,	,			Z	
et	et	0		J	
see	see	0		P	sg n
siinane	####				
suusonaline	####				
tõstament	####				
,	,			Z	
mis	mis	0		P	pl n
   	mis	0		P	sg n
Laimjala	Laim_jala	0		H	sg g
        	Laim_jala	0		H	sg n
valla	vald	0		S	sg g
     	valla	0		D	
talu	talu	0		S	sg g
    	talu	0		V	o
    	talu	0		S	sg n
    	talu	0		S	sg p
mehe	mees	0		S	sg g
Ivan	Ivan	0		H	sg n
Toombu	####				
poolt	pool	t		N	sg p
     	pool	t		S	sg p
     	poolt	0		D	
     	poolt	0		K	
tehtud	tehtu	d		S	pl n
      	tehtud	0		A	
      	tehtud	0		A	sg n
      	tehtud	d		A	pl n
      	tege	tud		V	tud
,	,			Z	
kes	kes	0		P	pl n
   	kes	0		P	sg n
valla	vald	0		S	sg g
     	valla	0		D	
kohtule	kohus	le		S	sg all
tuntud	tund	tud		V	tud
      	tuntu	d		S	pl n
      	tuntud	0		A	
      	tuntud	0		A	sg n
      	tuntud	d		A	pl n
on	ole	0		V	b
  	ole	0		V	vad
kirjutatud	kirjuta	tud		V	tud
          	kirjutatu	d		S	pl n
          	kirjutatud	0		A	
          	kirjutatud	0		A	sg n
          	kirjutatud	d		A	pl n
akti	akt	0		S	adt
    	akt	0		S	sg g
    	akt	0		S	sg p
raamatu	raamat	0		S	sg g
esimese	esimene	0		O	sg g
       	esimene	0		P	sg g
jaosse	jagu	sse		S	sg ill
No	no	0		I	
11	11	0		N	?
all	all	0		D	
   	all	0		K	
,	,			Z	
siin	siin	0		D	
    	siin	0		S	sg n
juures	juur	s		S	sg in
      	juures	0		D	
      	juures	0		K	
peale	pea	le		S	sg all
     	peale	0		D	
     	peale	0		K	
ette	ette	0		D	
    	ette	0		K	
    	esi	tte		S	adt
lugeamise	####				
olli	####				
ta	tema	0		P	sg g
  	tema	0		P	sg n
sellega	see	ga		P	sg kom
rahul	rahu	l		S	sg ad
     	rahul	0		D	
ja	ja	0		J	
kinnitas	kinnita	s		V	s
tema	tema	0		P	sg g
    	tema	0		P	sg n
selle	see	0		P	sg g
     	sell	e		S	pl p
tõstamenti	####				
oma	oma	0		A	sg g
   	oma	0		D	
   	oma	0		P	sg g
   	oma	0		S	sg g
   	oma	0		V	o
   	oma	0		A	sg n
   	oma	0		A	sg p
   	oma	0		P	sg n
   	oma	0		P	sg p
   	oma	0		S	sg n
   	oma	0		S	sg p
all	all	0		D	
   	all	0		K	
kirjaga	kiri	ga		S	sg kom
,	,			Z	
siia	siia	0		D	
    	siig	0		S	sg g
juurde	juur	de		S	adt
      	juurde	0		D	
      	juurde	0		K	
valla	vald	0		S	sg g
     	valla	0		D	
kohus	kohu	s		V	s
     	kohus	0		S	sg n
tunnistab	tunnista	b		V	b
et	et	0		J	
tõstamenti	####				
tegija	tegija	0		S	sg g
      	tegija	0		S	sg n
on	ole	0		V	b
  	ole	0		V	vad
selge	selge	0		A	sg g
     	selge	0		A	sg n
mõistuse	mõistus	0		S	sg g
ja	ja	0		J	
täie	täis	0		A	sg g
    	täis	0		S	sg g
arusaamisega	aru_saamine	ga		S	sg kom
.	.			Z	
eesistuja	ees_istuja	0		S	sg g
         	ees_istuja	0		S	sg n
:	:			Z	
A_	####				
.	.			Z	
_Jõeäär	####				
[	[			Z	
allkiri	all_kiri	0		S	sg n
]	]			Z	
kirjutaja	kirjutaja	0		S	sg g
         	kirjutaja	0		S	sg n
:	:			Z	
A	A	0		Y	?
.	.			Z	
_Küng	####				
[	[			Z	
allkiri	all_kiri	0		S	sg n
]	]			Z	
