ülle	ülle	0		D	
selle	see	0		P	sg g
     	sell	e		S	pl p
ei	ei	0		D	
  	ei	0		V	neg
või	või	0		S	sg g
   	või	0		V	o
   	või	0		D	
   	või	0		J	
   	või	0		S	sg n
aga	aga	0		J	
kogukonna	kogukond	0		S	sg g
valitsus	valitsus	0		S	sg n
mitte	mitte	0		D	
nimetamata	nimeta	mata		V	mata
          	nimeta=mata	0		A	
jätta	jät	a		V	da
,	,			Z	
kuidas	kuidas	0		D	
selsamal	see_sama	l		P	sg ad
päeval	päev	l		S	sg ad
ja	ja	0		J	
selsamal	see_sama	l		P	sg ad
tunnil	tund	l		S	sg ad
mil	mil	0		D	
   	mis	l		P	sg ad
see	see	0		P	sg n
valitsemise	valitsemine	0		S	sg g
Akt	akt	0		S	sg n
umbkaud	####				
oli	ole	i		V	s
ettevõetud	ette_võetud	0		A	
          	ette_võetud	0		A	sg n
          	ette_võetud	d		A	pl n
,	,			Z	
ning	ning	0		J	
3	3	0		N	?
Kantitati	####				
1	1	0		N	?
,	,			Z	
Mihone	####				
Pipuu	####				
,	,			Z	
2	2	0		N	?
endine	endine	0		A	sg n
talitaja	talitaja	0		S	sg g
        	talitaja	0		S	sg n
Alexei	####				
silla	sild	0		S	sg g
,	,			Z	
3	3	0		N	?
,	,			Z	
Andrei	Andrei	0		H	sg g
      	Andrei	0		H	sg n
Kap	####				
,	,			Z	
talitaja	talitaja	0		S	sg g
        	talitaja	0		S	sg n
ameti	amet	0		S	sg g
meestes	meene	tes		A	pl in
       	mees	tes		S	pl in
olid	ole	id		V	sid
nemetatud	####				
,	,			Z	
üks	üks	0		N	sg n
   	üks	0		P	sg n
selle	see	0		P	sg g
     	sell	e		S	pl p
valla	vald	0		S	sg g
     	valla	0		D	
pererentnik	pere_rentnik	0		S	sg n
Juhan	Juhan	0		H	sg n
Pipuu	####				
suurt	suur	t		A	sg p
kära	kära	0		S	sg g
    	kära	0		V	o
    	kära	0		S	sg n
    	kära	0		S	sg p
tõstis	tõst	is		V	s
,	,			Z	
sest	see	st		P	sg el
    	sest	0		J	
iseeranis	####				
nõudis	nõud	is		V	s
,	,			Z	
et	et	0		J	
tema	tema	0		P	sg g
    	tema	0		P	sg n
vend	vend	0		S	sg n
,	,			Z	
Mihkone	####				
Pipuu	####				
talitajaks	talitaja	ks		S	sg tr
saaks	saa	ks		V	ks
,	,			Z	
ning	ning	0		J	
et	et	0		J	
seda	see	da		P	sg p
endist	endine	t		A	sg p
      	ise	st		P	pl el
ausasti	ausasti	0		D	
oma	oma	0		A	sg g
   	oma	0		D	
   	oma	0		P	sg g
   	oma	0		S	sg g
   	oma	0		V	o
   	oma	0		A	sg n
   	oma	0		A	sg p
   	oma	0		P	sg n
   	oma	0		P	sg p
   	oma	0		S	sg n
   	oma	0		S	sg p
ammetit	####				
pidanud	pida	nud		V	nud
       	pida=nu	d		S	pl n
       	pida=nud	0		A	
       	pida=nud	0		A	sg n
       	pida=nud	d		A	pl n
tennist	tennis	t		S	sg p
talitajat	talitaja	t		S	sg p
keegi	kee	0	gi	S	sg g
     	kee	0	gi	V	o
     	keegi	0		P	sg n
     	kee	0	gi	S	sg n
täieliku	täielik	0		A	sg g
kokku	kokku	0		D	
     	kogu	0		S	adt
ees	ees	0		D	
   	ees	0		K	
   	esi	s		S	sg in
alvaks	####				
teha	tege	a		V	da
,	,			Z	
teotas	teota	s		V	s
seesama	see_sama	0		P	sg n
et	et	0		J	
talitaja	talitaja	0		S	sg g
        	talitaja	0		S	sg n
kui	kui	0		D	
   	kui	0		J	
peetis	peetis	0		A	
      	peetis	0		D	
tema	tema	0		P	sg g
    	tema	0		P	sg n
maksu	maks	0		S	adt
     	maks	0		S	sg g
     	maks	u		S	pl p
     	maks	0		S	sg p
raha	raha	0		S	sg g
    	raha	0		S	sg n
    	raha	0		S	sg p
ärasalanud	ära_sala=nu	d		S	pl n
          	ära_sala=nud	0		A	
          	ära_sala=nud	0		A	sg n
          	ära_sala=nud	d		A	pl n
ning	ning	0		J	
magasini	magas	ni		S	sg ter
        	magasin	0		S	adt
        	magasin	0		S	sg g
        	magasin	0		S	sg p
vilja	vili	0		S	adt
     	vili	0		S	sg g
     	vili	0		S	sg p
omast	oma	st		A	sg el
     	oma	st		P	sg el
     	oma	st		S	sg el
     	omane	t		A	sg p
pääst	####				
äramüünud	ära_müü=nu	d		S	pl n
         	ära_müü=nud	0		A	
         	ära_müü=nud	0		A	sg n
         	ära_müü=nud	d		A	pl n
ja	ja	0		J	
andnud	and	nud		V	nud
      	and=nu	d		S	pl n
      	and=nud	0		A	
      	and=nud	0		A	sg n
      	and=nud	d		A	pl n
mis	mis	0		P	pl n
   	mis	0		P	sg n
jalgi	####				
pole	ole	0		V	neg o
aida	ait	0		S	sg g
tagasi	tagasi	0		D	
      	tagasi	0		K	
tulnud	tul=nud	0		A	
      	tul=nud	0		A	sg n
      	tul=nud	d		A	pl n
      	tule	nud		V	nud
      	tulnu	d		S	pl n
.	.			Z	
seepeale	see_peale	0		D	
said	saa	id		V	sid
kaks	kaks	0		N	sg n
vallali	vallali	0		D	
meest	meene	t		A	sg p
     	mees	t		S	sg p
     	mesi	st		S	sg el
kes	kes	0		P	pl n
   	kes	0		P	sg n
enamiste	####				
ikka	ikka	0		D	
    	iga	0		S	adt
ilma	ilm	0		S	adt
    	ilm	0		S	sg g
    	ilma	0		D	
    	ilma	0		K	
    	ilm	0		S	sg p
passita	pass	ta		S	sg ab
       	passi	ta		V	ta
       	passita	0		V	o
hulkumas	hulku	mas		V	mas
olnud	ol=nud	0		A	
     	ol=nud	0		A	sg n
     	ol=nud	d		A	pl n
     	ole	nud		V	nud
     	olnu	d		S	pl n
,	,			Z	
vasili	####				
Särel	####				
ning	ning	0		J	
Ivan	Ivan	0		H	sg n
Nurk	nurk	0		S	sg n
julgust	julgus	t		S	sg p
suurt	suur	t		A	sg p
riidu	riid	0		S	adt
     	riid	0		S	sg p
     	riidu	0		D	
talitaja	talitaja	0		S	sg g
        	talitaja	0		S	sg n
vastu	vastu	0		D	
     	vastu	0		K	
tõsta	tõst	0		V	o
     	tõst	a		V	da
,	,			Z	
seepärast	see_pärast	0		D	
et	et	0		J	
ta	tema	0		P	sg g
  	tema	0		P	sg n
neile	see	le		P	pl all
     	tema	le		P	pl all
nüüd	nüüd	0		D	
varsti	varsti	0		D	
ilma	ilm	0		S	adt
    	ilm	0		S	sg g
    	ilma	0		D	
    	ilma	0		K	
    	ilm	0		S	sg p
passi	pass	0		S	adt
     	pass	0		S	sg g
     	passi	0		V	o
     	pass	0		S	sg p
rahata	raha	ta		S	sg ab
pole	ole	0		V	neg o
uusi	uus	i		A	pl p
passisi	####				
andnud	and	nud		V	nud
      	and=nu	d		S	pl n
      	and=nud	0		A	
      	and=nud	0		A	sg n
      	and=nud	d		A	pl n
ning	ning	0		J	
kui	kui	0		D	
   	kui	0		J	
talitaja	talitaja	0		S	sg g
        	talitaja	0		S	sg n
ning	ning	0		J	
kogukonna	kogukond	0		S	sg g
kohtu	kohtu	0		V	o
     	kohus	0		S	sg g
peavanem	pea_vanem	0		C	sg n
        	pea_vanem	0		S	sg n
ka	ka	0		D	
seda	see	da		P	sg p
kära	kära	0		S	sg g
    	kära	0		V	o
    	kära	0		S	sg n
    	kära	0		S	sg p
vaigistada	vaigista	da		V	da
ja	ja	0		J	
keelasa	####				
püüdsid	püüd	sid		V	sid
siiski	siiski	0		D	
ei	ei	0		D	
  	ei	0		V	neg
olnud	ol=nud	0		A	
     	ol=nud	0		A	sg n
     	ol=nud	d		A	pl n
     	ole	nud		V	nud
     	olnu	d		S	pl n
sest	see	st		P	sg el
    	sest	0		J	
suurest	suur	st		A	sg el
abi	abi	0		S	sg g
   	abi	0		S	sg n
   	abi	0		S	sg p
,	,			Z	
vaid	vaid	0		D	
    	vaid	0		J	
rahu	rahu	0		S	sg g
    	rahu	0		S	sg n
    	rahu	0		S	sg p
ja	ja	0		J	
seadus	seadu	s		V	s
      	seadus	0		A	sg n
      	seadus	0		S	sg n
,	,			Z	
mis	mis	0		P	pl n
   	mis	0		P	sg n
niisuguse	nii_sugune	0		P	sg g
ülemast	ülem	st		C	sg el
       	ülem	st		S	sg el
valitsejast	valitseja	st		S	sg el
kinnitatud	kinnita	tud		V	tud
          	kinnita=tu	d		S	pl n
          	kinnita=tud	0		A	
          	kinnita=tud	0		A	sg n
          	kinnita=tud	d		A	pl n
tarbilissel	####				
tunnil	tund	l		S	sg ad
,	,			Z	
kõikidest	kõik	dest		P	pl el
oleks	ole	ks		V	ks
pidanud	pida	nud		V	nud
       	pida=nu	d		S	pl n
       	pida=nud	0		A	
       	pida=nud	0		A	sg n
       	pida=nud	d		A	pl n
saama	saa	ma		V	ma
     	saam	0		S	adt
     	saam	0		S	sg g
     	saam	0		S	sg p
on	ole	0		V	b
  	ole	0		V	vad
sees	sees	0		D	
    	sees	0		K	
peetud	peetu	d		S	pl n
      	peetu	d		V	d
      	peetud	0		A	
      	peetud	0		A	sg n
      	peetud	d		A	pl n
      	pida	tud		V	tud
olid	ole	id		V	sid
nõnda	nõnda	0		D	
rikkutatud	####				
et	et	0		J	
viimaks	vii	maks		V	maks
       	viimaks	0		D	
enam	enam	0		C	sg n
    	enam	0		D	
võimalik	võimalik	0		A	sg n
ei	ei	0		D	
  	ei	0		V	neg
olnud	ol=nud	0		A	
     	ol=nud	0		A	sg n
     	ol=nud	d		A	pl n
     	ole	nud		V	nud
     	olnu	d		S	pl n
kõiki	kõik	0		P	pl p
seadussi	####				
mis	mis	0		P	pl n
   	mis	0		P	sg n
niisuguse	nii_sugune	0		P	sg g
valitsemise	valitsemine	0		S	sg g
juurs	####				
tarvis	tarvis	0		D	
      	tarvis	0		K	
,	,			Z	
tähele	täht	le		S	sg all
      	tähele	0		X	
panna	pand	0		S	sg g
     	pane	a		V	da
     	panna	0		S	sg g
     	panna	0		S	sg n
.	.			Z	
seepärast	see_pärast	0		D	
arvab	arva	b		V	b
kogukonna	kogukond	0		S	sg g
valitsus	valitsus	0		S	sg n
tarvis	tarvis	0		D	
      	tarvis	0		K	
olevat	ole	vat		V	vat
      	olev	t		A	sg p
      	olev	t		S	sg p
Aulise	auline	0		A	sg g
keiserliku	keiserlik	0		A	sg g
kihelkonna	kihelkond	0		S	sg g
kohtusele	kohtune	le		A	sg all
sest	see	st		P	sg el
    	sest	0		J	
alandlikult	alandlik	lt		A	sg abl
           	alandlikult	0		D	
teadust	teadus	t		S	sg p
anda	and	a		V	da
,	,			Z	
et	et	0		J	
isberroovis	####				
nende	see	de		P	pl g
     	tema	de		P	pl g
kolme	kolm	0		N	adt
     	kolm	0		N	sg g
     	kolm	0		N	sg p
(	(			Z	
rahorikkujate	####				
)	)			Z	
meeste	meene	te		A	pl g
      	mees	te		S	pl g
läbi	läbi	0		D	
    	läbi	0		K	
    	läbi	0		V	o
tarbeline	tarbe=line	0		A	sg n
rahho	####				
oli	ole	i		V	s
rikkutatud	####				
ja	ja	0		J	
seeläbi	see_läbi	0		D	
seatud	sea=tu	d		S	pl n
      	sead	tud		V	tud
      	seatud	0		A	
      	seatud	0		A	sg n
      	seatud	d		A	pl n
kümnikkude	kümnik	de		S	pl g
ligi	ligi	0		D	
    	ligi	0		K	
käest	käest	0		K	
     	käsi	st		S	sg el
kellest	kes	st		P	pl el
       	kes	st		P	sg el
palju	palju	0		D	
     	palju	0		P	sg g
     	palju	0		P	sg n
ja	ja	0		J	
vaiukat	####				
olid	ole	id		V	sid
1	1	0		N	?
,	,			Z	
ei	ei	0		D	
  	ei	0		V	neg
võinud	või	nud		V	nud
      	või=nu	d		S	pl n
      	või=nud	0		A	
      	või=nud	0		A	sg n
      	või=nud	d		A	pl n
küsitud	küsi	tud		V	tud
       	küsi=tu	d		S	pl n
       	küsi=tud	0		A	
       	küsi=tud	0		A	sg n
       	küsi=tud	d		A	pl n
saadagi	saa	da	gi	V	da
       	saat	0	gi	V	o
       	saa	da	gi	V	ta
keda	kes	da		P	pl p
    	kes	da		P	sg p
talitajaks	talitaja	ks		S	sg tr
ja	ja	0		J	
teisteks	teine	teks		O	pl tr
        	teine	teks		P	pl tr
ametmeesteks	amet_mees	teks		S	pl tr
valitsevad	valitse	vad		V	vad
          	valitsev	d		A	pl n
2	2	0		N	?
,	,			Z	
peab	pida	b		V	b
kogukonna	kogukond	0		S	sg g
valitsus	valitsus	0		S	sg n
keiserliku	keiserlik	0		A	sg g
kihelkonna	kihelkond	0		S	sg g
kohtu	kohtu	0		V	o
     	kohus	0		S	sg g
ette	ette	0		D	
    	ette	0		K	
    	esi	tte		S	adt
,	,			Z	
selle	see	0		P	sg g
     	sell	e		S	pl p
,	,			Z	
nüüd	nüüd	0		D	
,	,			Z	
enamiste	####				
tema	tema	0		P	sg g
    	tema	0		P	sg n
venna	vend	0		S	sg g
meelitlemise	meelitle=mine	0		S	sg g
läbi	läbi	0		D	
    	läbi	0		K	
    	läbi	0		V	o
üheossa	ühe_osa	0		S	adt
rentnikkude	rentnik	de		S	pl g
tahtmise	tahtmine	0		S	sg g
peale	pea	le		S	sg all
     	peale	0		D	
     	peale	0		K	
nimetatud	nimeta	tud		V	tud
         	nimetatu	d		S	pl n
         	nimetatud	0		A	
         	nimetatud	0		A	sg n
         	nimetatud	d		A	pl n
uuest	uus	st		A	sg el
talitajast	talitaja	st		S	sg el
seda	see	da		P	sg p
kurba	kurb	0		A	adt
     	kurb	0		A	sg p
tunnistust	tunnistus	t		S	sg p
andma	and	ma		V	ma
,	,			Z	
et	et	0		J	
kartab	####				
temal	tema	l		P	sg ad
ühe	üks	0		N	sg g
   	üks	0		P	sg g
   	ühe	0		S	sg n
niisuguse	nii_sugune	0		P	sg g
tarbelise	tarbe=line	0		A	sg g
ameti	amet	0		S	sg g
pidamiseks	pidamine	ks		S	sg tr
väga	väga	0		D	
vähe	vähe	0		D	
mõistust	mõistus	t		S	sg p
olevat	ole	vat		V	vat
      	olev	t		A	sg p
      	olev	t		S	sg p
,	,			Z	
mis	mis	0		P	pl n
   	mis	0		P	sg n
ennast	ise	t		P	sg p
seeläbi	see_läbi	0		D	
ülesnäitab	####				
,	,			Z	
et	et	0		J	
sagedale	sage	le		A	sg all
üle_lja	####				
äkkilise	####				
vihaga	viht	ga		S	sg kom
      	viha	ga		A	sg kom
      	viha	ga		S	sg kom
magasinis	magasin	s		S	sg in
ja	ja	0		J	
muialgi	####				
tüli	tüli	0		S	sg g
    	tüli	0		S	sg n
    	tüli	0		S	sg p
ja	ja	0		J	
riidu	riid	0		S	adt
     	riid	0		S	sg p
     	riidu	0		D	
teinud	tege	nud		V	nud
      	tei=nud	0		A	
      	tei=nud	0		A	sg n
      	tei=nud	d		A	pl n
      	teinu	d		S	pl n
,	,			Z	
asjade	asi	de		S	pl g
üle	üle	0		D	
   	üle	0		K	
,	,			Z	
mis	mis	0		P	pl n
   	mis	0		P	sg n
tasase	tasane	0		A	sg g
meelega	meel	ga		S	sg kom
       	meelega	0		D	
tulid	tule	id		V	sid
toimeta	toim	ta		S	sg ab
       	toime	ta		S	sg ab
       	toimeta	0		V	o
3	3	0		N	?
,	,			Z	
seisab	seis	b		V	b
siin	siin	0		D	
    	siin	0		S	sg n
kogukonna	kogukond	0		S	sg g
protokollis	protokoll	s		S	sg in
           	protokolli	s		V	s
temast	tema	st		P	sg el
üks	üks	0		N	sg n
   	üks	0		P	sg n
väga	väga	0		D	
laiiduväärt	lai_idu_väärt	0		A	
tük	####				
(	(			Z	
4.	4.	0		O	?
okt	okt	0		Y	?
1869	1869	0		N	?
)	)			Z	
kust	kusi	t		S	sg p
    	kust	0		D	
nähja	####				
võib	või	b		V	b
,	,			Z	
milviisil	####				
seesama	see_sama	0		P	sg n
Mihkone	####				
Pipuu	####				
üht	üks	0		N	sg p
   	üks	0		P	sg p
teist	sina	st		P	pl el
     	tee	ist		S	pl el
     	teist	0		D	
     	teine	t		O	sg p
     	teine	t		P	sg p
nõdra	nõder	0		A	sg g
tervisega	tervis	ga		S	sg kom
rentniku	rentnik	0		S	sg g
veriseks	verine	ks		A	sg tr
peksis	peks	is		V	s
ning	ning	0		J	
sest	see	st		P	sg el
    	sest	0		J	
midagi	miski	dagi		P	sg p
kuulda	kuul	da		V	da
      	kuul	da		V	ta
ei	ei	0		D	
  	ei	0		V	neg
võtnu	võt=nu	0		S	sg g
     	võt=nu	0		S	sg n
et	et	0		J	
talitaja	talitaja	0		S	sg g
        	talitaja	0		S	sg n
sääl	####				
juures	juur	s		S	sg in
      	juures	0		D	
      	juures	0		K	
oli	ole	i		V	s
ja	ja	0		J	
teda	tema	da		P	sg p
laske	lask	e		S	pl p
     	lask	ke		V	ge
     	lase	0		S	sg g
kurja	kuri	0		A	adt
     	kuri	0		A	sg g
     	kuri	0		S	adt
     	kuri	0		S	sg g
     	kuri	0		A	sg p
     	kuri	0		S	sg p
tegemast	tege	mast		V	mast
,	,			Z	
ning	ning	0		J	
viimaks	vii	maks		V	maks
       	viimaks	0		D	
kogukonna	kogukond	0		S	sg g
kohus	kohu	s		V	s
     	kohus	0		S	sg n
seda	see	da		P	sg p
tüli	tüli	0		S	sg g
    	tüli	0		S	sg n
    	tüli	0		S	sg p
ni	####				
kaugele	kauge	le		A	sg all
       	kaugele	0		D	
leppitas	####				
ja	ja	0		J	
toimetas	toimeta	s		V	s
,	,			Z	
et	et	0		J	
omalt	oma	lt		A	sg abl
     	oma	lt		P	sg abl
     	oma	lt		S	sg abl
     	oma=lt	0		D	
poolt	pool	t		N	sg p
     	pool	t		S	sg p
     	poolt	0		D	
     	poolt	0		K	
trahviis	####				
,	,			Z	
ja	ja	0		J	
kohtu	kohtu	0		V	o
     	kohus	0		S	sg g
sisse	siss	e		S	pl p
     	sisse	0		D	
     	sisse	0		K	
ei	ei	0		D	
  	ei	0		V	neg
saatnud	saat	nud		V	nud
       	saat=nu	d		S	pl n
       	saat=nud	0		A	
       	saat=nud	0		A	sg n
       	saat=nud	d		A	pl n
.	.			Z	
4	4	0		N	?
sai	saa	i		V	s
   	sai	0		S	sg n
perete	####				
sulaste	sulane	te		S	pl g
volimeheks	voli_mees	ks		S	sg tr
seesama	see_sama	0		P	sg n
Ivan	Ivan	0		H	sg n
Nurk	nurk	0		S	sg n
valitsetatud	####				
kes	kes	0		P	pl n
   	kes	0		P	sg n
eespool	ees_pool	0		D	
       	ees_pool	0		K	
nimetatud	nimeta	tud		V	tud
         	nimetatu	d		S	pl n
         	nimetatud	0		A	
         	nimetatud	0		A	sg n
         	nimetatud	d		A	pl n
tüli	tüli	0		S	sg g
    	tüli	0		S	sg n
    	tüli	0		S	sg p
tõstis	tõst	is		V	s
,	,			Z	
ja	ja	0		J	
issigi	issi	0	gi	S	sg g
      	issi	0	gi	S	sg n
seeläbi	see_läbi	0		D	
valitsemise	valitsemine	0		S	sg g
õigust	õigus	t		S	sg p
oli	ole	i		V	s
kaotanud	kaota	nud		V	nud
        	kaota=nu	d		S	pl n
        	kaota=nud	0		A	
        	kaota=nud	0		A	sg n
        	kaota=nud	d		A	pl n
et	et	0		J	
ilma	ilm	0		S	adt
    	ilm	0		S	sg g
    	ilma	0		D	
    	ilma	0		K	
    	ilm	0		S	sg p
passita	pass	ta		S	sg ab
       	passi	ta		V	ta
       	passita	0		V	o
oli	ole	i		V	s
hulkumas	hulku	mas		V	mas
olnud	ol=nud	0		A	
     	ol=nud	0		A	sg n
     	ol=nud	d		A	pl n
     	ole	nud		V	nud
     	olnu	d		S	pl n
.	.			Z	
5	5	0		N	?
võttis	võt	is		V	s
kogukond	kogukond	0		S	sg n
selsamal	see_sama	l		P	sg ad
hoobil	hoop	l		S	sg ad
omale	oma	le		A	sg all
     	oma	le		P	sg all
     	oma	le		S	sg all
seda	see	da		P	sg p
ise	ise	0		A	
   	ise	0		D	
   	ise	0		P	pl n
   	ise	0		P	sg n
meelevalla	meele_vald	0		S	sg g
uut	uus	t		A	sg p
kirjutajat	kirjutaja	t		S	sg p
seada	sead	a		V	da
,	,			Z	
ilma	ilm	0		S	adt
    	ilm	0		S	sg g
    	ilma	0		D	
    	ilma	0		K	
    	ilm	0		S	sg p
et	et	0		J	
selle	see	0		P	sg g
     	sell	e		S	pl p
seaduse	seadus	0		S	sg g
otsust	otsus	t		S	sg p
oleks	ole	ks		V	ks
ootnud	####				
,	,			Z	
mis	mis	0		P	pl n
   	mis	0		P	sg n
talu	talu	0		S	sg g
    	talu	0		V	o
    	talu	0		S	sg n
    	talu	0		S	sg p
seaduse	seadus	0		S	sg g
raamat	raamat	0		S	sg n
§	§	0		Y	?
26	26	0		N	?
ning	ning	0		J	
????	????			Z	
§	§	0		Y	?
19	19	0		N	?
selle	see	0		P	sg g
     	sell	e		S	pl p
üle	üle	0		D	
   	üle	0		K	
ettekirjutab	####				
.	.			Z	
Aulist	aul	st		S	sg el
      	auline	t		A	sg p
keiserliku	keiserlik	0		A	sg g
nõelkonna	nõel_konn	0		S	adt
         	nõel_konn	0		S	sg g
         	nõel_konn	0		S	sg p
kohut	kohus	t		S	sg p
palub	palu	b		V	b
seda	see	da		P	sg p
nüüd	nüüd	0		D	
nimetatud	nimeta	tud		V	tud
         	nimetatu	d		S	pl n
         	nimetatud	0		A	
         	nimetatud	0		A	sg n
         	nimetatud	d		A	pl n
kogukonna	kogukond	0		S	sg g
valitsus	valitsus	0		S	sg n
allendlikult	####				
et	et	0		J	
niisugusid	####				
tülilisi	tüli=line	i		A	pl p
asju	asi	u		S	pl p
armulikult	armulik	lt		A	sg abl
          	armulikult	0		D	
võttaks	####				
ligimaalt	####				
järele	järele	0		D	
      	järele	0		K	
kuulda	kuul	da		V	da
      	kuul	da		V	ta
ning	ning	0		J	
mis	mis	0		P	pl n
   	mis	0		P	sg n
seeläbi	see_läbi	0		D	
mitte	mitte	0		D	
i	i	0		Y	?
võinud	või	nud		V	nud
      	või=nu	d		S	pl n
      	või=nud	0		A	
      	või=nud	0		A	sg n
      	või=nud	d		A	pl n
õige	õige	0		A	sg g
    	õige	0		A	sg n
    	õige	0		D	
korra	kord	0		S	sg g
peale	pea	le		S	sg all
     	peale	0		D	
     	peale	0		K	
saada	saa	da		V	da
     	saat	0		V	o
     	saa	da		V	ta
,	,			Z	
pärandada	päranda	da		V	da
.	.			Z	
talitaja	talitaja	0		S	sg g
        	talitaja	0		S	sg n
Aleksei	Aleksei	0		H	sg g
       	Aleksei	0		H	sg n
silla	sild	0		S	sg g
eestseisja	eest_seisja	0		S	sg g
          	eest_seisja	0		S	sg n
Jakov	####				
kesküll	####				
kogukonna	kogukond	0		S	sg g
kohtu	kohtu	0		V	o
     	kohus	0		S	sg g
peavanem	pea_vanem	0		C	sg n
        	pea_vanem	0		S	sg n
Kiril	####				
Saar	saar	0		S	sg n
kirjutaja	kirjutaja	0		S	sg g
         	kirjutaja	0		S	sg n
P	P	0		Y	?
.	.			Z	
_	_			Z	
vesberg	####				
