ükstuat	####				
üheksa	üheksa	0		N	sg g
      	üheksa	0		N	sg n
saada	saa	da		V	da
     	saat	0		V	o
     	saa	da		V	ta
kümnendamal	####				
aastal	aasta	l		S	sg ad
ühekstamal	####				
mihkli	mihkel	0		A	sg g
      	mihkel	0		S	sg g
kuu	kuu	0		S	sg g
   	kuu	0		S	sg n
päeval	päev	l		S	sg ad
ilmus	ilmu	s		V	s
loona	lood	na		S	sg es
     	loog	na		S	sg es
     	lugu	na		S	sg es
valla	vald	0		S	sg g
     	valla	0		D	
kohtu	kohtu	0		V	o
     	kohus	0		S	sg g
ette	ette	0		D	
    	ette	0		K	
    	esi	tte		S	adt
loona	lood	na		S	sg es
     	loog	na		S	sg es
     	lugu	na		S	sg es
vallast	vald	st		S	sg el
kiriku	kirik	0		S	sg g
küllast	küll	st		S	sg el
       	küllane	t		A	sg p
talumees	talu_mees	0		S	sg n
Juhan	Juhan	0		H	sg n
Mihkli	Mihkel	0		H	sg g
      	Mihkli	0		H	sg g
      	mihkel	0		A	sg g
      	mihkel	0		S	sg g
      	Mihkli	0		H	sg n
p	p	0		Y	?
Kaasik	kaasik	0		S	sg n
ja	ja	0		J	
palus	palu	s		S	sg in
     	palu	s		V	s
järgmist	järgmine	t		A	sg p
suusõnalist	suu_sõnaline	t		A	sg p
testamenti	testament	0		S	adt
          	testament	0		S	sg p
kohtu	kohtu	0		V	o
     	kohus	0		S	sg g
akti	akt	0		S	adt
    	akt	0		S	sg g
    	akt	0		S	sg p
raamatusse	raamat	sse		S	sg ill
üles	üles	0		D	
võtta	võt	a		V	da
ja	ja	0		J	
nimelt	nimelt	0		D	
      	nimi	lt		S	sg abl
,	,			Z	
et	et	0		J	
tema	tema	0		P	sg g
    	tema	0		P	sg n
annab	and	b		V	b
pärast	pära	st		S	sg el
      	pärane	t		A	sg p
      	pärast	0		D	
      	pärast	0		K	
oma	oma	0		A	sg g
   	oma	0		D	
   	oma	0		P	sg g
   	oma	0		S	sg g
   	oma	0		V	o
   	oma	0		A	sg n
   	oma	0		A	sg p
   	oma	0		P	sg n
   	oma	0		P	sg p
   	oma	0		S	sg n
   	oma	0		S	sg p
surma	surm	0		S	adt
     	surm	0		S	sg g
     	surma	0		V	o
     	surm	0		S	sg p
oma	oma	0		A	sg g
   	oma	0		D	
   	oma	0		P	sg g
   	oma	0		S	sg g
   	oma	0		V	o
   	oma	0		A	sg n
   	oma	0		A	sg p
   	oma	0		P	sg n
   	oma	0		P	sg p
   	oma	0		S	sg n
   	oma	0		S	sg p
päralt	pära	lt		S	sg abl
      	päralt	0		K	
oleva	olev	0		A	sg g
     	olev	0		S	sg g
vabatniku	####				
maja	maja	0		S	sg g
    	maja	0		S	sg n
    	maja	0		S	sg p
,	,			Z	
mis	mis	0		P	pl n
   	mis	0		P	sg n
seisab	seis	b		V	b
loona	lood	na		S	sg es
     	loog	na		S	sg es
     	lugu	na		S	sg es
vallas	vald	s		S	sg in
kiriku	kirik	0		S	sg g
külas	küla	s		S	sg in
""""	""""			Z	
Nurga	nurk	0		S	sg g
""""	""""			Z	
vabat	####				
koha	koht	0		S	sg g
    	koha	0		S	sg g
    	koha	0		V	o
    	koha	0		S	sg n
    	koha	0		S	sg p
peal	pea	l		S	sg ad
    	peal	0		D	
    	peal	0		K	
ühes	üks	s		N	sg in
    	üks	s		P	sg in
    	ühes	0		D	
    	ühes	0		K	
kõige	kõik	0		P	sg g
     	kõige	0		D	
tema	tema	0		P	sg g
    	tema	0		P	sg n
päralt	pära	lt		S	sg abl
      	päralt	0		K	
oleva	olev	0		A	sg g
     	olev	0		S	sg g
liikuva	liikuv	0		A	sg g
varandusega	varandus	ga		S	sg kom
oma	oma	0		A	sg g
   	oma	0		D	
   	oma	0		P	sg g
   	oma	0		S	sg g
   	oma	0		V	o
   	oma	0		A	sg n
   	oma	0		A	sg p
   	oma	0		P	sg n
   	oma	0		P	sg p
   	oma	0		S	sg n
   	oma	0		S	sg p
kihlatud	kihla	tud		V	tud
        	kihlatu	d		S	pl n
        	kihlatud	0		A	
        	kihlatud	0		A	sg n
        	kihlatud	d		A	pl n
pruudile	pruut	le		S	sg all
Tiina	Tiina	0		H	sg g
     	Tiina	0		H	sg n
Peetri	Peeter	0		H	sg g
      	Peetri	0		H	sg g
      	Peetri	0		H	sg n
tütre	tütar	0		S	sg g
Rander´ile	####				
igaveseks	igavene	ks		A	sg tr
         	igaveseks	0		D	
omanduseks	omandus	ks		S	sg tr
:	:			Z	
Juhan	Juhan	0		H	sg n
Kaasik	kaasik	0		S	sg n
,	,			Z	
aga	aga	0		J	
et	et	0		J	
tema	tema	0		P	sg g
    	tema	0		P	sg n
ise	ise	0		A	
   	ise	0		D	
   	ise	0		P	pl n
   	ise	0		P	sg n
mitte	mitte	0		D	
kirjuta	kirju	ta		A	sg ab
       	kirjuta	0		V	o
ei	ei	0		D	
  	ei	0		V	neg
osa	osa	0		S	sg g
   	osa	0		S	sg n
   	osa	0		S	sg p
siis	siis	0		D	
    	siis	0		J	
kirjutas	kirjuta	s		V	s
tema	tema	0		P	sg g
    	tema	0		P	sg n
eest	eest	0		D	
    	eest	0		K	
    	esi	st		S	sg el
tema	tema	0		P	sg g
    	tema	0		P	sg n
palve	palve	0		S	sg g
     	palve	0		S	sg n
päelt	####				
alla	alla	0		D	
    	alla	0		K	
:	:			Z	
N_	####				
.	.			Z	
_	_			Z	
Jakobson	Jakobson	0		H	sg n
(	(			Z	
allikiri	####				
)	)			Z	
1910	1910	0		N	?
aastal	aasta	l		S	sg ad
9	9	0		N	?
mihkli	mihkel	0		A	sg g
      	mihkel	0		S	sg g
kp	####				
loona	lood	na		S	sg es
     	loog	na		S	sg es
     	lugu	na		S	sg es
valla	vald	0		S	sg g
     	valla	0		D	
kohus	kohu	s		V	s
     	kohus	0		S	sg n
tunnistab	tunnista	b		V	b
,	,			Z	
et	et	0		J	
see	see	0		P	sg n
sinane	####				
testament	testament	0		S	sg n
,	,			Z	
mis	mis	0		P	pl n
   	mis	0		P	sg n
kohtu	kohtu	0		V	o
     	kohus	0		S	sg g
akti	akt	0		S	adt
    	akt	0		S	sg g
    	akt	0		S	sg p
raamatusse	raamat	sse		S	sg ill
I	I	0		O	?
 	I	0		Y	?
 	j	0		Y	?
jause	####				
N19	N19	0		Y	?
alla	alla	0		D	
    	alla	0		K	
on	ole	0		V	b
  	ole	0		V	vad
sisse	siss	e		S	pl p
     	sisse	0		D	
     	sisse	0		K	
kirjutatud	kirjuta	tud		V	tud
          	kirjutatu	d		S	pl n
          	kirjutatud	0		A	
          	kirjutatud	0		A	sg n
          	kirjutatud	d		A	pl n
on	ole	0		V	b
  	ole	0		V	vad
loona	lood	na		S	sg es
     	loog	na		S	sg es
     	lugu	na		S	sg es
vallas	vald	s		S	sg in
kiriku	kirik	0		S	sg g
külas	küla	s		S	sg in
elutseva	elutse=v	0		A	sg g
talumehe	talu_mees	0		S	sg g
Juhan	Juhan	0		H	sg n
Mihkli	Mihkel	0		H	sg g
      	Mihkli	0		H	sg g
      	mihkel	0		A	sg g
      	mihkel	0		S	sg g
      	Mihkli	0		H	sg n
p	p	0		Y	?
Kaasik´u	####				
poolt	pool	t		N	sg p
     	pool	t		S	sg p
     	poolt	0		D	
     	poolt	0		K	
kokku	kokku	0		D	
     	kogu	0		S	adt
seatud	sea=tu	d		S	pl n
      	sead	tud		V	tud
      	seatud	0		A	
      	seatud	0		A	sg n
      	seatud	d		A	pl n
,	,			Z	
kellelge	####				
mõistuse	mõistus	0		S	sg g
ja	ja	0		J	
mõtte	mõte	0		S	sg g
juures	juur	s		S	sg in
      	juures	0		D	
      	juures	0		K	
oli	ole	i		V	s
ja	ja	0		J	
palelikult	pale=lik	lt		A	sg abl
          	pale=likult	0		D	
kohtule	kohus	le		S	sg all
tuntud	tund	tud		V	tud
      	tuntu	d		S	pl n
      	tuntud	0		A	
      	tuntud	0		A	sg n
      	tuntud	d		A	pl n
on	ole	0		V	b
  	ole	0		V	vad
,	,			Z	
kus	kus	0		D	
juures	juur	s		S	sg in
      	juures	0		D	
      	juures	0		K	
kohus	kohu	s		V	s
     	kohus	0		S	sg n
ka	ka	0		D	
õigeks	õige	ks		A	sg tr
tunnistab	tunnista	b		V	b
,	,			Z	
et	et	0		J	
see	see	0		P	sg n
sinane	####				
suusõnaline	suu_sõnaline	0		A	sg n
testament	testament	0		S	sg n
on	ole	0		V	b
  	ole	0		V	vad
testamenti	testament	0		S	adt
          	testament	0		S	sg p
tegijale	tegija	le		S	sg all
ette	ette	0		D	
    	ette	0		K	
    	esi	tte		S	adt
loetud	loetu	d		S	pl n
      	loetud	0		A	
      	loetud	0		A	sg n
      	loetud	d		A	pl n
      	luge	tud		V	tud
,	,			Z	
milleks	milleks	0		D	
       	mis	ks		P	pl tr
       	mis	ks		P	sg tr
tema	tema	0		P	sg g
    	tema	0		P	sg n
seda	see	da		P	sg p
oma	oma	0		A	sg g
   	oma	0		D	
   	oma	0		P	sg g
   	oma	0		S	sg g
   	oma	0		V	o
   	oma	0		A	sg n
   	oma	0		A	sg p
   	oma	0		P	sg n
   	oma	0		P	sg p
   	oma	0		S	sg n
   	oma	0		S	sg p
allkirjaga	all_kiri	ga		S	sg kom
kinnitas	kinnita	s		V	s
,	,			Z	
aga	aga	0		J	
et	et	0		J	
tema	tema	0		P	sg g
    	tema	0		P	sg n
see	see	0		P	sg n
mitte	mitte	0		D	
kirjuta	kirju	ta		A	sg ab
       	kirjuta	0		V	o
ei	ei	0		D	
  	ei	0		V	neg
osa	osa	0		S	sg g
   	osa	0		S	sg n
   	osa	0		S	sg p
,	,			Z	
siis	siis	0		D	
    	siis	0		J	
kirjutas	kirjuta	s		V	s
tema	tema	0		P	sg g
    	tema	0		P	sg n
eest	eest	0		D	
    	eest	0		K	
    	esi	st		S	sg el
tema	tema	0		P	sg g
    	tema	0		P	sg n
palve	palve	0		S	sg g
     	palve	0		S	sg n
päele	####				
alla	alla	0		D	
    	alla	0		K	
talumeesniikolai	####				
Jakobson	Jakobson	0		H	sg n
,	,			Z	
kes	kes	0		P	pl n
   	kes	0		P	sg n
kohtule	kohus	le		S	sg all
palelikult	pale=lik	lt		A	sg abl
          	pale=likult	0		D	
tuntud	tund	tud		V	tud
      	tuntu	d		S	pl n
      	tuntud	0		A	
      	tuntud	0		A	sg n
      	tuntud	d		A	pl n
on	ole	0		V	b
  	ole	0		V	vad
.	.			Z	
kohtu	kohtu	0		V	o
     	kohus	0		S	sg g
eesistuja	ees_istuja	0		S	sg g
         	ees_istuja	0		S	sg n
J_	####				
.	.			Z	
_	_			Z	
Aben	####				
(	(			Z	
allkiri	all_kiri	0		S	sg n
)	)			Z	
kirjutaja	kirjutaja	0		S	sg g
         	kirjutaja	0		S	sg n
Reinfeld	####				
(	(			Z	
allkiri	all_kiri	0		S	sg n
)	)			Z	
