oli	ole	i		V	s
kogukonna	kogukond	0		S	sg g
kohus	kohu	s		V	s
     	kohus	0		S	sg n
koos	koos	0		D	
    	koos	0		K	
    	koos	0		S	sg n
    	kubu	s		S	sg in
.	.			Z	
siis	siis	0		D	
    	siis	0		J	
tuli	tuli	0		S	sg n
    	tule	i		V	s
see	see	0		P	sg n
Saare	Saare	0		H	sg g
     	saar	0		S	sg g
     	Saare	0		H	sg n
valla	vald	0		S	sg g
     	valla	0		D	
vabatnik	####				
Andrei	Andrei	0		H	sg g
      	Andrei	0		H	sg n
vahe	vahe	0		A	sg n
    	vahe	0		S	sg g
    	vahe	0		S	sg n
ja	ja	0		J	
lubas	luba	s		V	s
kõik	kõik	0		P	pl n
    	kõik	0		S	sg n
    	kõik	0		P	sg n
oma	oma	0		A	sg g
   	oma	0		D	
   	oma	0		P	sg g
   	oma	0		S	sg g
   	oma	0		V	o
   	oma	0		A	sg n
   	oma	0		A	sg p
   	oma	0		P	sg n
   	oma	0		P	sg p
   	oma	0		S	sg n
   	oma	0		S	sg p
vara	vara	0		D	
    	vara	0		S	sg g
    	vara	0		S	sg n
    	vara	0		S	sg p
ja	ja	0		J	
maja	maja	0		S	sg g
    	maja	0		S	sg n
    	maja	0		S	sg p
mis	mis	0		P	pl n
   	mis	0		P	sg n
tal	tema	l		P	sg ad
sel	see	l		P	sg ad
   	sel	0		Y	?
päeval	päev	l		S	sg ad
veel	veel	0		D	
    	vesi	l		S	sg ad
on	ole	0		V	b
  	ole	0		V	vad
oma	oma	0		A	sg g
   	oma	0		D	
   	oma	0		P	sg g
   	oma	0		S	sg g
   	oma	0		V	o
   	oma	0		A	sg n
   	oma	0		A	sg p
   	oma	0		P	sg n
   	oma	0		P	sg p
   	oma	0		S	sg n
   	oma	0		S	sg p
kasvatliku	####				
Antoni	Anton	0		H	sg g
Jõeär	####				
,	,			Z	
kes	kes	0		P	pl n
   	kes	0		P	sg n
selle	see	0		P	sg g
     	sell	e		S	pl p
vana	vana	0		A	sg g
    	vana	0		A	sg n
    	vana	0		A	sg p
    	vana	0		S	sg g
    	vana	0		S	sg n
    	vana	0		S	sg p
Andrei	Andrei	0		H	sg g
      	Andrei	0		H	sg n
vahe	vahe	0		A	sg n
    	vahe	0		S	sg g
    	vahe	0		S	sg n
juures	juur	s		S	sg in
      	juures	0		D	
      	juures	0		K	
on	ole	0		V	b
  	ole	0		V	vad
juba	juba	0		D	
11nd	####				
aastat	aasta	t		S	sg p
elanud	ela	nud		V	nud
      	ela=nu	d		S	pl n
      	ela=nud	0		A	
      	ela=nud	0		A	sg n
      	ela=nud	d		A	pl n
ja	ja	0		J	
on	ole	0		V	b
  	ole	0		V	vad
ka	ka	0		D	
selle	see	0		P	sg g
     	sell	e		S	pl p
päevani	päev	ni		S	sg ter
kennast	####				
õigeks	õige	ks		A	sg tr
saanud	saa	nud		V	nud
      	saa=nud	0		A	
      	saa=nud	0		A	sg n
      	saa=nud	d		A	pl n
      	saanu	d		S	pl n
.	.			Z	
ning	ning	0		J	
ka	ka	0		D	
veel	veel	0		D	
    	vesi	l		S	sg ad
kõik	kõik	0		P	pl n
    	kõik	0		S	sg n
    	kõik	0		P	sg n
need	see	d		P	pl n
võlad	võlg	d		S	pl n
mis	mis	0		P	pl n
   	mis	0		P	sg n
selle	see	0		P	sg g
     	sell	e		S	pl p
Andrei	Andrei	0		H	sg g
      	Andrei	0		H	sg n
vahel	vahe	l		S	sg ad
     	vahel	0		D	
     	vahel	0		K	
väljast	väli	st		S	sg el
       	väljast	0		D	
saada	saa	da		V	da
     	saat	0		V	o
     	saa	da		V	ta
on	ole	0		V	b
  	ole	0		V	vad
,	,			Z	
on	ole	0		V	b
  	ole	0		V	vad
kõik	kõik	0		P	pl n
    	kõik	0		S	sg n
    	kõik	0		P	sg n
selle	see	0		P	sg g
     	sell	e		S	pl p
Antoni	Anton	0		H	sg g
Jõeäre	####				
pärida	päri	da		V	da
.	.			Z	
võlalised	võla=line	d		A	pl n
.	.			Z	
Andruse	Andrus	0		H	sg g
Mihkel	Mihkel	0		H	sg n
      	mihkel	0		A	sg n
      	mihkel	0		S	sg n
Ansber	####				
3	3	0		N	?
rubla	rubla	0		S	sg g
     	rubla	0		S	sg n
     	rubla	0		S	sg p
Kerkvere	####				
valla	vald	0		S	sg g
     	valla	0		D	
mees	mees	0		S	sg n
    	mesi	s		S	sg in
Kopli	Kopli	0		H	sg g
     	koppel	0		S	sg g
     	Kopli	0		H	sg n
Seiu	####				
2	2	0		N	?
rup	####				
20	20	0		N	?
kop	kop	0		Y	?
pea	pea	0		D	
   	pea	0		S	sg g
   	pida	0		V	o
   	pea	0		S	sg n
kohtumees	kohtu_mees	0		S	sg n
Mihkel	Mihkel	0		H	sg n
      	mihkel	0		A	sg n
      	mihkel	0		S	sg n
vahe	vahe	0		A	sg n
    	vahe	0		S	sg g
    	vahe	0		S	sg n
talitaja	talitaja	0		S	sg g
        	talitaja	0		S	sg n
Mihkel	Mihkel	0		H	sg n
      	mihkel	0		A	sg n
      	mihkel	0		S	sg n
Peet	Peet	0		H	sg n
    	peet	0		S	sg n
