kohtu	kohtu	0		V	o
     	kohus	0		S	sg g
ette	ette	0		D	
    	ette	0		K	
    	esi	tte		S	adt
astusid	astu	sid		V	sid
Laimjala	Laim_jala	0		H	sg g
        	Laim_jala	0		H	sg n
vallast	vald	st		S	sg el
Ivan	Ivan	0		H	sg n
riiuhk	####				
,	,			Z	
ja	ja	0		J	
kingli	####				
vallast	vald	st		S	sg el
Aleksander	Aleksander	0		H	sg n
Treiman	####				
,	,			Z	
ning	ning	0		J	
kaebasid	kaeba	sid		V	sid
,	,			Z	
et	et	0		J	
kingli	####				
vallast	vald	st		S	sg el
Laas	laas	0		S	sg n
Trei	trei	0		V	o
olla	ole	a		V	da
neid	neid	0		S	sg n
    	see	d		P	pl p
    	tema	d		P	pl p
ilma	ilm	0		S	adt
    	ilm	0		S	sg g
    	ilma	0		D	
    	ilma	0		K	
    	ilm	0		S	sg p
korraliku	korralik	0		A	sg g
seaduseta	seadus	ta		S	sg ab
otsimas	otsi	mas		V	mas
käinud	käi	nud		V	nud
      	käi=nud	0		A	
      	käi=nud	0		A	sg n
      	käi=nud	d		A	pl n
      	käinu	d		S	pl n
,	,			Z	
ja	ja	0		J	
neid	neid	0		S	sg n
    	see	d		P	pl p
    	tema	d		P	pl p
kõige	kõik	0		P	sg g
     	kõige	0		D	
selle	see	0		P	sg g
     	sell	e		S	pl p
suure	suur	0		A	sg g
mustla	####				
külla	küll	0		S	adt
     	küll	0		S	sg g
     	küla	0		S	adt
     	küll	0		S	sg p
kohta	koht	0		S	adt
     	kohta	0		K	
     	kohta	0		V	o
     	koht	0		S	sg p
,	,			Z	
üksipäinis	####				
teotanud	teota	nud		V	nud
        	teota=nu	d		S	pl n
        	teota=nud	0		A	
        	teota=nud	0		A	sg n
        	teota=nud	d		A	pl n
,	,			Z	
ja	ja	0		J	
iseäranis	ise_äranis	0		D	
Ivan	Ivan	0		H	sg n
riiuhk	####				
kartulid	kartul	d		S	pl n
,	,			Z	
keldris	kelder	s		S	sg in
suure	suur	0		A	sg g
oraga	ora	ga		S	sg kom
puruks	puru	ks		S	sg tr
      	puruks	0		D	
toobrkinud	####				
;	;			Z	
selle	see	0		P	sg g
     	sell	e		S	pl p
pärast	pära	st		S	sg el
      	pärane	t		A	sg p
      	pärast	0		D	
      	pärast	0		K	
et	et	0		J	
tema	tema	0		P	sg g
    	tema	0		P	sg n
Ait	ait	0		S	sg n
olli	####				
ära	ära	0		D	
   	ära	0		V	neg o
kistatud	####				
;	;			Z	
nüüd	nüüd	0		D	
kutsuti	kutsu	ti		V	ti
ette	ette	0		D	
    	ette	0		K	
    	esi	tte		S	adt
Laas	laas	0		S	sg n
Trei	trei	0		V	o
,	,			Z	
ja	ja	0		J	
kuulati	kuula	ti		V	ti
miks	miks	0		D	
    	miks	0		S	sg n
pärast	pära	st		S	sg el
      	pärane	t		A	sg p
      	pärast	0		D	
      	pärast	0		K	
ta	tema	0		P	sg g
  	tema	0		P	sg n
siis	siis	0		D	
    	siis	0		J	
niisugust	nii_sugune	t		P	sg p
korrata	kord	ta		S	sg ab
       	korda	ta		V	da
       	korda	ta		V	ta
tegu	tegu	0		S	sg n
    	tegu	0		S	sg p
olli	####				
teinud	tege	nud		V	nud
      	tei=nud	0		A	
      	tei=nud	0		A	sg n
      	tei=nud	d		A	pl n
      	teinu	d		S	pl n
,	,			Z	
ja	ja	0		J	
kas	kas	0		D	
ta	tema	0		P	sg g
  	tema	0		P	sg n
mingi	mingi	0		P	sg g
     	mink	0		S	sg g
     	minki	0		V	o
     	mingi	0		P	sg n
tunnistust	tunnistus	t		S	sg p
,	,			Z	
ehk	ehk	0		D	
   	ehk	0		J	
aru	aru	0		S	sg g
   	aru	0		S	sg n
   	aru	0		S	sg p
,	,			Z	
nõndest	####				
on	ole	0		V	b
  	ole	0		V	vad
saanud	saa	nud		V	nud
      	saa=nud	0		A	
      	saa=nud	0		A	sg n
      	saa=nud	d		A	pl n
      	saanu	d		S	pl n
;	;			Z	
aga	aga	0		J	
Trei	trei	0		V	o
ütles	ütle	s		V	s
et	et	0		J	
taal	####				
mitte	mitte	0		D	
midagi	miski	dagi		P	sg p
ei	ei	0		D	
  	ei	0		V	neg
ole	ole	0		V	o
,	,			Z	
isi	####				
oma	oma	0		A	sg g
   	oma	0		D	
   	oma	0		P	sg g
   	oma	0		S	sg g
   	oma	0		V	o
   	oma	0		A	sg n
   	oma	0		A	sg p
   	oma	0		P	sg n
   	oma	0		P	sg p
   	oma	0		S	sg n
   	oma	0		S	sg p
arvaamise	arv_aamine	0		A	sg g
järele	järele	0		D	
      	järele	0		K	
on	ole	0		V	b
  	ole	0		V	vad
ta	tema	0		P	sg g
  	tema	0		P	sg n
neid	neid	0		S	sg n
    	see	d		P	pl p
    	tema	d		P	pl p
otsima	otsi	ma		V	ma
läinud	läinu	d		S	pl n
      	läinud	0		A	
      	läinud	0		A	sg n
      	läinud	d		A	pl n
      	mine	nud		V	nud
;	;			Z	
siis	siis	0		D	
    	siis	0		J	
mõistis	mõist	is		V	s
kohus	kohu	s		V	s
     	kohus	0		S	sg n
,	,			Z	
et	et	0		J	
Trei	trei	0		V	o
peab	pida	b		V	b
Treimannile	####				
30	30	0		N	?
kopikud	####				
maksma	maks	ma		V	ma
;	;			Z	
ja	ja	0		J	
50	50	0		N	?
kopikud	####				
raha	raha	0		S	sg g
    	raha	0		S	sg n
    	raha	0		S	sg p
,	,			Z	
ning	ning	0		J	
üks	üks	0		N	sg n
   	üks	0		P	sg n
küllemit	####				
kartulid	kartul	d		S	pl n
riiuale	####				
,	,			Z	
sest	see	st		P	sg el
    	sest	0		J	
et	et	0		J	
ta	tema	0		P	sg g
  	tema	0		P	sg n
nõnda	nõnda	0		D	
on	ole	0		V	b
  	ole	0		V	vad
teotanud	teota	nud		V	nud
        	teota=nu	d		S	pl n
        	teota=nud	0		A	
        	teota=nud	0		A	sg n
        	teota=nud	d		A	pl n
.	.			Z	
kogukonna	kogukond	0		S	sg g
kohtu	kohtu	0		V	o
     	kohus	0		S	sg g
pea	pea	0		D	
   	pea	0		S	sg g
   	pida	0		V	o
   	pea	0		S	sg n
Aleksei	Aleksei	0		H	sg g
       	Aleksei	0		H	sg n
silla	sild	0		S	sg g
kohtumees	kohtu_mees	0		S	sg n
kinglist	####				
Ivan	Ivan	0		H	sg n
Rüütel	rüütel	0		S	sg n
XXX	XXX	0		O	?
   	XXX	0		Y	?
kirjutaja	kirjutaja	0		S	sg g
         	kirjutaja	0		S	sg n
Jakov	####				
Suster	####				
Reev	####				
.	.			Z	
19	19	0		N	?
Febr	####				
1888	1888	0		N	?
kohtu	kohtu	0		V	o
     	kohus	0		S	sg g
mõistmise	mõistmine	0		S	sg g
juures	juur	s		S	sg in
      	juures	0		D	
      	juures	0		K	
seisavad	seis	vad		V	vad
kolm	kolm	0		N	sg n
kohtumehed	kohtu_mees	d		S	pl n
olema	ole	ma		V	ma
kohtuhärra	kohtu_härra	0		S	sg g
          	kohtu_härra	0		S	sg n
????	????			Z	
