ette	ette	0		D	
    	ette	0		K	
    	esi	tte		S	adt
tuuli	tuul	i		S	pl p
kapteen	####				
Siimon	Siimon	0		H	sg n
hämäläinen	####				
oma	oma	0		A	sg g
   	oma	0		D	
   	oma	0		P	sg g
   	oma	0		S	sg g
   	oma	0		V	o
   	oma	0		A	sg n
   	oma	0		A	sg p
   	oma	0		P	sg n
   	oma	0		P	sg p
   	oma	0		S	sg n
   	oma	0		S	sg p
kahe	kaks	0		N	sg g
vastase	vastane	0		A	sg g
       	vastane	0		S	sg g
Aleksander	Aleksander	0		H	sg n
teekman	####				
ja	ja	0		J	
Jüri	Jüri	0		H	sg g
    	Jüri	0		H	sg n
Tiidus	Tiit	s		H	sg in
      	tiidus	0		A	sg n
      	tiidus	0		S	sg n
,	,			Z	
sest	see	st		P	sg el
    	sest	0		J	
tema	tema	0		P	sg g
    	tema	0		P	sg n
õmblus	õmblus	0		S	sg n
masin	masin	0		S	sg n
olli	####				
Aleksandri	Aleksander	0		H	sg g
          	Aleksandr	0		H	sg g
käes	käes	0		K	
    	käsi	s		S	sg in
harida	hari	da		V	da
ja	ja	0		J	
Jüri	Jüri	0		H	sg g
    	Jüri	0		H	sg n
on	ole	0		V	b
  	ole	0		V	vad
seda	see	da		P	sg p
linna	linn	0		S	adt
     	linn	0		S	sg g
     	linn	0		S	sg p
lubanud	luba	nud		V	nud
       	luba=nu	d		S	pl n
       	luba=nud	0		A	
       	luba=nud	0		A	sg n
       	luba=nud	d		A	pl n
viia	vii	a		V	da
ja	ja	0		J	
on	ole	0		V	b
  	ole	0		V	vad
lasknud	lask	nud		V	nud
       	lask=nu	d		S	pl n
       	lask=nud	0		A	
       	lask=nud	0		A	sg n
       	lask=nud	d		A	pl n
masina	masin	0		S	sg g
ära	ära	0		D	
   	ära	0		V	neg o
katuda	####				
.	.			Z	
kohus	kohu	s		V	s
     	kohus	0		S	sg n
mõistis	mõist	is		V	s
:	:			Z	
et	et	0		J	
Aleksander	Aleksander	0		H	sg n
peab	pida	b		V	b
maksma	maks	ma		V	ma
7	7	0		N	?
rubla	rubla	0		S	sg g
     	rubla	0		S	sg n
     	rubla	0		S	sg p
.	.			Z	
ja	ja	0		J	
Jüri	Jüri	0		H	sg g
    	Jüri	0		H	sg n
peab	pida	b		V	b
maksma	maks	ma		V	ma
8	8	0		N	?
rubla	rubla	0		S	sg g
     	rubla	0		S	sg n
     	rubla	0		S	sg p
.	.			Z	
sellega	see	ga		P	sg kom
leppis	leppi	s		V	s
kapteen	####				
.	.			Z	
aga	aga	0		J	
nad	tema	d		P	pl n
ei	ei	0		D	
  	ei	0		V	neg
maksnud	maks	nud		V	nud
       	maks=nu	d		S	pl n
       	maks=nud	0		A	
       	maks=nud	0		A	sg n
       	maks=nud	d		A	pl n
ära	ära	0		D	
   	ära	0		V	neg o
.	.			Z	
seega	seega	0		D	
kaebas	kaeba	s		V	s
kapteen	####				
edasi	edasi	0		D	
     	edasi	0		K	
.	.			Z	
