Nr.	Nr	0		Y	?
150	150	0		N	?
leisi	####				
preestrile	preester	le		S	sg all
,	,			Z	
et	et	0		J	
laseb	lask	b		V	b
oma	oma	0		A	sg g
   	oma	0		D	
   	oma	0		P	sg g
   	oma	0		S	sg g
   	oma	0		V	o
   	oma	0		A	sg n
   	oma	0		A	sg p
   	oma	0		P	sg n
   	oma	0		P	sg p
   	oma	0		S	sg n
   	oma	0		S	sg p
piiri	piir	0		S	adt
     	piir	0		S	sg g
     	piir	0		S	sg p
päelt	####				
maani	maa	ni		S	sg ter
lahti	laht	i		S	pl p
     	lahti	0		D	
kaevaata	####				
.	.			Z	
Taltaja	####				
Jvan	####				
vallau	vall_au	0		S	sg g
      	vall_au	0		S	sg n
      	vall_au	0		S	sg p
.	.			Z	
