Taavi	Taavi	0		H	sg g
     	Taavi	0		H	sg n
Raet	####				
on	ole	0		V	b
  	ole	0		V	vad
passi	pass	0		S	adt
     	pass	0		S	sg g
     	passi	0		V	o
     	pass	0		S	sg p
saanud	saa	nud		V	nud
      	saa=nud	0		A	
      	saa=nud	0		A	sg n
      	saa=nud	d		A	pl n
      	saanu	d		S	pl n
kahe	kaks	0		N	sg g
ku	####				
peale	pea	le		S	sg all
     	peale	0		D	
     	peale	0		K	
Haapsalu	Haap_salu	0		H	sg g
        	Haap_salu	0		H	sg n
        	haap_salu	0		G	
minna	mine	a		V	da
pea	pea	0		D	
   	pea	0		S	sg g
   	pida	0		V	o
   	pea	0		S	sg n
kohtu	kohtu	0		V	o
     	kohus	0		S	sg g
mees	mees	0		S	sg n
    	mesi	s		S	sg in
Laes	laad	s		S	sg in
    	lagi	s		S	sg in
Moondo	####				
