Tuhande	tuhat	0		N	sg g
üheksa	üheksa	0		N	sg g
      	üheksa	0		N	sg n
saaja	saaja	0		S	sg g
     	saaja	0		S	sg n
neljateistkümnendal	nelja_teist_kümnes	l		O	sg ad
aastal	aasta	l		S	sg ad
Novembri	november	0		S	sg g
kuu	kuu	0		S	sg g
   	kuu	0		S	sg n
kolmeteistkümnendal	kolme_teist_kümnes	l		O	sg ad
päeval	päev	l		S	sg ad
ilmus	ilmu	s		V	s
Laimjala	Laim_jala	0		H	sg g
        	Laim_jala	0		H	sg n
valla	vald	0		S	sg g
     	valla	0		D	
kohtuse	kohtune	0		A	sg g
talunaesterahvas	####				
siit	siit	0		D	
vallast	vald	st		S	sg el
Anna	and	0		V	o
    	Anna	0		H	sg g
    	Anna	0		H	sg n
    	anna	0		S	sg g
    	anna	0		S	sg n
Mihaili	####				
tütar	tütar	0		S	sg n
Aavik	Aavik	0		H	sg n
,	,			Z	
ning	ning	0		J	
avallas	####				
valla	vald	0		S	sg g
     	valla	0		D	
kohtule	kohus	le		S	sg all
oma	oma	0		A	sg g
   	oma	0		D	
   	oma	0		P	sg g
   	oma	0		S	sg g
   	oma	0		V	o
   	oma	0		A	sg n
   	oma	0		A	sg p
   	oma	0		P	sg n
   	oma	0		P	sg p
   	oma	0		S	sg n
   	oma	0		S	sg p
viimase	viimane	0		A	sg g
tahtmise	tahtmine	0		S	sg g
ja	ja	0		J	
nimelt	nimelt	0		D	
      	nimi	lt		S	sg abl
jättab	####				
kõik	kõik	0		P	pl n
    	kõik	0		S	sg n
    	kõik	0		P	sg n
oma	oma	0		A	sg g
   	oma	0		D	
   	oma	0		P	sg g
   	oma	0		S	sg g
   	oma	0		V	o
   	oma	0		A	sg n
   	oma	0		A	sg p
   	oma	0		P	sg n
   	oma	0		P	sg p
   	oma	0		S	sg n
   	oma	0		S	sg p
liikuva	liikuv	0		A	sg g
ja	ja	0		J	
liikumata	liiku	mata		V	mata
         	liiku=mata	0		A	
varanduse	varandus	0		S	sg g
ühes	üks	s		N	sg in
    	üks	s		P	sg in
    	ühes	0		D	
    	ühes	0		K	
talu	talu	0		S	sg g
    	talu	0		V	o
    	talu	0		S	sg n
    	talu	0		S	sg p
kuhaga	####				
Laimjala	Laim_jala	0		H	sg g
        	Laim_jala	0		H	sg n
vallas	vald	s		S	sg in
Paju_kurdla	####				
kohu	kohu	0		V	o
No	no	0		I	
16	16	0		N	?
,	,			Z	
oma	oma	0		A	sg g
   	oma	0		D	
   	oma	0		P	sg g
   	oma	0		S	sg g
   	oma	0		V	o
   	oma	0		A	sg n
   	oma	0		A	sg p
   	oma	0		P	sg n
   	oma	0		P	sg p
   	oma	0		S	sg n
   	oma	0		S	sg p
poja	poeg	0		S	sg g
    	poja	0		S	sg g
    	poja	0		S	sg n
    	poja	0		S	sg p
Georgi	Georg	0		H	adt
      	Georg	0		H	sg g
      	Georg	0		H	sg p
      	Georgi	0		H	sg g
      	Georgi	0		H	sg n
Aavikule	Aavik	le		H	sg all
ja	ja	0		J	
Laimjala	Laim_jala	0		H	sg g
        	Laim_jala	0		H	sg n
valla	vald	0		S	sg g
     	valla	0		D	
talumehe	talu_mees	0		S	sg g
Aleksei	Aleksei	0		H	sg g
       	Aleksei	0		H	sg n
Harjuni	Harju	ni		H	sg ter
poja	poeg	0		S	sg g
    	poja	0		S	sg g
    	poja	0		S	sg n
    	poja	0		S	sg p
lesk´le	####				
pärida	päri	da		V	da
peale	pea	le		S	sg all
     	peale	0		D	
     	peale	0		K	
oma	oma	0		A	sg g
   	oma	0		D	
   	oma	0		P	sg g
   	oma	0		S	sg g
   	oma	0		V	o
   	oma	0		A	sg n
   	oma	0		A	sg p
   	oma	0		P	sg n
   	oma	0		P	sg p
   	oma	0		S	sg n
   	oma	0		S	sg p
surma	surm	0		S	adt
     	surm	0		S	sg g
     	surma	0		V	o
     	surm	0		S	sg p
.	.			Z	
Anna	and	0		V	o
    	Anna	0		H	sg g
    	Anna	0		H	sg n
    	anna	0		S	sg g
    	anna	0		S	sg n
Aavik	Aavik	0		H	sg n
[	[			Z	
allkiri	all_kiri	0		S	sg n
]	]			Z	
1914	1914	0		N	?
aastal	aasta	l		S	sg ad
Novembrikuu	novembri_kuu	0		S	sg g
           	novembri_kuu	0		S	sg n
13	13	0		N	?
päeval	päev	l		S	sg ad
Laimjala	Laim_jala	0		H	sg g
        	Laim_jala	0		H	sg n
valla	vald	0		S	sg g
     	valla	0		D	
kohus	kohu	s		V	s
     	kohus	0		S	sg n
seega	seega	0		D	
tunnistab	tunnista	b		V	b
,	,			Z	
et	et	0		J	
seesinane	see_sinane	0		P	sg n
suusõnaline	suu_sõnaline	0		A	sg n
tõstament	####				
,	,			Z	
mis	mis	0		P	pl n
   	mis	0		P	sg n
Laimjala	Laim_jala	0		H	sg g
        	Laim_jala	0		H	sg n
valla	vald	0		S	sg g
     	valla	0		D	
talu	talu	0		S	sg g
    	talu	0		V	o
    	talu	0		S	sg n
    	talu	0		S	sg p
naisterahvas	naiste_rahvas	0		S	sg n
            	naiste_rahvas	s		S	sg in
Anna	and	0		V	o
    	Anna	0		H	sg g
    	Anna	0		H	sg n
    	anna	0		S	sg g
    	anna	0		S	sg n
Aavik	Aavik	0		H	sg n
poolt	pool	t		N	sg p
     	pool	t		S	sg p
     	poolt	0		D	
     	poolt	0		K	
tehtud	tehtu	d		S	pl n
      	tehtud	0		A	
      	tehtud	0		A	sg n
      	tehtud	d		A	pl n
      	tege	tud		V	tud
,	,			Z	
kes	kes	0		P	pl n
   	kes	0		P	sg n
valla	vald	0		S	sg g
     	valla	0		D	
kohtule	kohus	le		S	sg all
tuntud	tund	tud		V	tud
      	tuntu	d		S	pl n
      	tuntud	0		A	
      	tuntud	0		A	sg n
      	tuntud	d		A	pl n
,	,			Z	
on	ole	0		V	b
  	ole	0		V	vad
kirjutatud	kirjuta	tud		V	tud
          	kirjutatu	d		S	pl n
          	kirjutatud	0		A	
          	kirjutatud	0		A	sg n
          	kirjutatud	d		A	pl n
akti	akt	0		S	adt
    	akt	0		S	sg g
    	akt	0		S	sg p
raamatu	raamat	0		S	sg g
esimese	esimene	0		O	sg g
       	esimene	0		P	sg g
jause	####				
No	no	0		I	
14	14	0		N	?
all	all	0		D	
   	all	0		K	
,	,			Z	
siin	siin	0		D	
    	siin	0		S	sg n
juures	juur	s		S	sg in
      	juures	0		D	
      	juures	0		K	
peale	pea	le		S	sg all
     	peale	0		D	
     	peale	0		K	
üle	üle	0		D	
   	üle	0		K	
lugeamise	####				
olli	####				
ta	tema	0		P	sg g
  	tema	0		P	sg n
sellega	see	ga		P	sg kom
rahul	rahu	l		S	sg ad
     	rahul	0		D	
ja	ja	0		J	
kinnitas	kinnita	s		V	s
oma	oma	0		A	sg g
   	oma	0		D	
   	oma	0		P	sg g
   	oma	0		S	sg g
   	oma	0		V	o
   	oma	0		A	sg n
   	oma	0		A	sg p
   	oma	0		P	sg n
   	oma	0		P	sg p
   	oma	0		S	sg n
   	oma	0		S	sg p
allkirjaga	all_kiri	ga		S	sg kom
,	,			Z	
selle	see	0		P	sg g
     	sell	e		S	pl p
juurde	juur	de		S	adt
      	juurde	0		D	
      	juurde	0		K	
valla	vald	0		S	sg g
     	valla	0		D	
kohus	kohu	s		V	s
     	kohus	0		S	sg n
tunnistab	tunnista	b		V	b
,	,			Z	
et	et	0		J	
tõstamenti	####				
tegija	tegija	0		S	sg g
      	tegija	0		S	sg n
on	ole	0		V	b
  	ole	0		V	vad
selge	selge	0		A	sg g
     	selge	0		A	sg n
mõistuse	mõistus	0		S	sg g
ja	ja	0		J	
täie	täis	0		A	sg g
    	täis	0		S	sg g
aru	aru	0		S	sg g
   	aru	0		S	sg n
   	aru	0		S	sg p
saamisega	saamine	ga		S	sg kom
.	.			Z	
eesistuja	ees_istuja	0		S	sg g
         	ees_istuja	0		S	sg n
;	;			Z	
I_	####				
.	.			Z	
_Aavik	####				
[	[			Z	
allkiri	all_kiri	0		S	sg n
]	]			Z	
kirjutaja	kirjutaja	0		S	sg g
         	kirjutaja	0		S	sg n
:	:			Z	
A	A	0		Y	?
.	.			Z	
_Küng	####				
[	[			Z	
allkiri	all_kiri	0		S	sg n
]	]			Z	
