Tiiu	Tiiu	0		H	sg g
    	Tiiu	0		H	sg n
Tarkmeel	tark_meel	0		S	sg n
        	tark_mesi	l		S	sg ad
kaebas	kaeba	s		V	s
et	et	0		J	
pea	pea	0		D	
   	pea	0		S	sg g
   	pida	0		V	o
   	pea	0		S	sg n
kohtu	kohtu	0		V	o
     	kohus	0		S	sg g
mees	mees	0		S	sg n
    	mesi	s		S	sg in
Laes	laad	s		S	sg in
    	lagi	s		S	sg in
Moondo	####				
ei	ei	0		D	
  	ei	0		V	neg
ole	ole	0		V	o
temale	tema	le		P	sg all
vilja	vili	0		S	adt
     	vili	0		S	sg g
     	vili	0		S	sg p
andnud	and	nud		V	nud
      	and=nu	d		S	pl n
      	and=nud	0		A	
      	and=nud	0		A	sg n
      	and=nud	d		A	pl n
aidast	ait	st		S	sg el
ühte	ühte	0		D	
    	üks	0		N	adt
    	üks	0		P	adt
    	ühe	0		S	sg g
    	üks	0		N	sg p
    	üks	0		P	sg p
vakka	vakk	0		S	adt
     	vakk	0		S	sg p
     	vakka	0		D	
rukkisid	####				
mis	mis	0		P	pl n
   	mis	0		P	sg n
temal	tema	l		P	sg ad
saada	saa	da		V	da
     	saat	0		V	o
     	saa	da		V	ta
oli	ole	i		V	s
Taavi	Taavi	0		H	sg g
     	Taavi	0		H	sg n
Raet	####				
käest	käest	0		K	
     	käsi	st		S	sg el
,	,			Z	
ning	ning	0		J	
on	ole	0		V	b
  	ole	0		V	vad
teda	tema	da		P	sg p
raputanud	raputa	nud		V	nud
         	raputa=nu	d		S	pl n
         	raputa=nud	0		A	
         	raputa=nud	0		A	sg n
         	raputa=nud	d		A	pl n
nõnda	nõnda	0		D	
et	et	0		J	
tema	tema	0		P	sg g
    	tema	0		P	sg n
sest	see	st		P	sg el
    	sest	0		J	
haiget	haige	t		A	sg p
      	haige	t		S	sg p
saanud	saa	nud		V	nud
      	saa=nud	0		A	
      	saa=nud	0		A	sg n
      	saa=nud	d		A	pl n
      	saanu	d		S	pl n
.	.			Z	
aga	aga	0		J	
Laes	laad	s		S	sg in
    	lagi	s		S	sg in
ütleb	ütle	b		V	b
et	et	0		J	
Ado	Ado	0		H	sg g
   	Ado	0		H	sg n
Tarkmeel	tark_meel	0		S	sg n
        	tark_mesi	l		S	sg ad
Tiiu	Tiiu	0		H	sg g
    	Tiiu	0		H	sg n
mees	mees	0		S	sg n
    	mesi	s		S	sg in
ei	ei	0		D	
  	ei	0		V	neg
taha	taht	0		V	o
    	taha	0		D	
    	taha	0		K	
mitte	mitte	0		D	
oma	oma	0		A	sg g
   	oma	0		D	
   	oma	0		P	sg g
   	oma	0		S	sg g
   	oma	0		V	o
   	oma	0		A	sg n
   	oma	0		A	sg p
   	oma	0		P	sg n
   	oma	0		P	sg p
   	oma	0		S	sg n
   	oma	0		S	sg p
pea	pea	0		D	
   	pea	0		S	sg g
   	pida	0		V	o
   	pea	0		S	sg n
raha	raha	0		S	sg g
    	raha	0		S	sg n
    	raha	0		S	sg p
ära	ära	0		D	
   	ära	0		V	neg o
maksa	maks	0		S	adt
     	maks	0		S	sg g
     	maks	0		V	o
     	maks	0		S	sg p
ning	ning	0		J	
on	ole	0		V	b
  	ole	0		V	vad
temale	tema	le		P	sg all
mitu	mitu	0		P	sg n
käsku	käsk	0		S	adt
     	käsk	0		S	sg p
andnud	and	nud		V	nud
      	and=nu	d		S	pl n
      	and=nud	0		A	
      	and=nud	0		A	sg n
      	and=nud	d		A	pl n
aga	aga	0		J	
tema	tema	0		P	sg g
    	tema	0		P	sg n
pole	ole	0		V	neg o
jal	####				
ära	ära	0		D	
   	ära	0		V	neg o
maksnud	maks	nud		V	nud
       	maks=nu	d		S	pl n
       	maks=nud	0		A	
       	maks=nud	0		A	sg n
       	maks=nud	d		A	pl n
ja	ja	0		J	
on	ole	0		V	b
  	ole	0		V	vad
veel	veel	0		D	
    	vesi	l		S	sg ad
viimse	viimne	0		A	sg g
laupäev	lau_päev	0		S	sg n
Adole	Ado	le		H	sg all
ütelnud	ütle	nud		V	nud
       	ütel=nu	d		S	pl n
       	ütel=nud	0		A	
       	ütel=nud	0		A	sg n
       	ütel=nud	d		A	pl n
et	et	0		J	
tema	tema	0		P	sg g
    	tema	0		P	sg n
ei	ei	0		D	
  	ei	0		V	neg
anna	and	0		V	o
    	anna	0		S	sg g
    	anna	0		S	sg n
mitte	mitte	0		D	
enne	enne	0		D	
    	enne	0		K	
    	enne	0		S	sg n
vilja	vili	0		S	adt
     	vili	0		S	sg g
     	vili	0		S	sg p
kätte	kätte	0		K	
     	käsi	tte		S	adt
kui	kui	0		D	
   	kui	0		J	
ta	tema	0		P	sg g
  	tema	0		P	sg n
pea	pea	0		D	
   	pea	0		S	sg g
   	pida	0		V	o
   	pea	0		S	sg n
raha	raha	0		S	sg g
    	raha	0		S	sg n
    	raha	0		S	sg p
ära	ära	0		D	
   	ära	0		V	neg o
maksab	maks	b		V	b
,	,			Z	
nüüd	nüüd	0		D	
kui	kui	0		D	
   	kui	0		J	
magasini	magas	ni		S	sg ter
        	magasin	0		S	adt
        	magasin	0		S	sg g
        	magasin	0		S	sg p
sai	saa	i		V	s
   	sai	0		S	sg n
mindud	min=du	d		S	pl n
      	min=dud	0		A	
      	min=dud	0		A	sg n
      	min=dud	d		A	pl n
      	mine	dud		V	tud
siis	siis	0		D	
    	siis	0		J	
Ado	Ado	0		H	sg g
   	Ado	0		H	sg n
on	ole	0		V	b
  	ole	0		V	vad
oma	oma	0		A	sg g
   	oma	0		D	
   	oma	0		P	sg g
   	oma	0		S	sg g
   	oma	0		V	o
   	oma	0		A	sg n
   	oma	0		A	sg p
   	oma	0		P	sg n
   	oma	0		P	sg p
   	oma	0		S	sg n
   	oma	0		S	sg p
naise	naine	0		S	sg g
saatnud	saat	nud		V	nud
       	saat=nu	d		S	pl n
       	saat=nud	0		A	
       	saat=nud	0		A	sg n
       	saat=nud	d		A	pl n
vilja	vili	0		S	adt
     	vili	0		S	sg g
     	vili	0		S	sg p
saama	saa	ma		V	ma
     	saam	0		S	adt
     	saam	0		S	sg g
     	saam	0		S	sg p
aga	aga	0		J	
raha	raha	0		S	sg g
    	raha	0		S	sg n
    	raha	0		S	sg p
ei	ei	0		D	
  	ei	0		V	neg
toonud	too	nud		V	nud
      	too=nu	d		S	pl n
      	too=nud	0		A	
      	too=nud	0		A	sg n
      	too=nud	d		A	pl n
.	.			Z	
aga	aga	0		J	
Laes	laad	s		S	sg in
    	lagi	s		S	sg in
ei	ei	0		D	
  	ei	0		V	neg
andnud	and	nud		V	nud
      	and=nu	d		S	pl n
      	and=nud	0		A	
      	and=nud	0		A	sg n
      	and=nud	d		A	pl n
temale	tema	le		P	sg all
vilja	vili	0		S	adt
     	vili	0		S	sg g
     	vili	0		S	sg p
.	.			Z	
siis	siis	0		D	
    	siis	0		J	
Laes	laad	s		S	sg in
    	lagi	s		S	sg in
ütleb	ütle	b		V	b
et	et	0		J	
Tiiu	Tiiu	0		H	sg g
    	Tiiu	0		H	sg n
on	ole	0		V	b
  	ole	0		V	vad
teda	tema	da		P	sg p
sõimama	sõima	ma		V	ma
hakanud	hakka	nud		V	nud
       	haka=nu	d		S	pl n
       	haka=nud	0		A	
       	haka=nud	0		A	sg n
       	haka=nud	d		A	pl n
sassis	sassis	0		A	
      	sassis	0		D	
peaks	pea	ks		S	sg tr
     	pida	ks		V	ks
ning	ning	0		J	
seks	see	ks		P	sg tr
    	seks	0		S	sg n
ja	ja	0		J	
teiseks	teine	ks		O	sg tr
       	teine	ks		P	sg tr
       	teiseks	0		D	
,	,			Z	
ning	ning	0		J	
nõnda	nõnda	0		D	
käratsema	käratse	ma		V	ma
hakanud	hakka	nud		V	nud
       	haka=nu	d		S	pl n
       	haka=nud	0		A	
       	haka=nud	0		A	sg n
       	haka=nud	d		A	pl n
et	et	0		J	
seal	seal	0		D	
    	siga	l		A	sg ad
    	siga	l		S	sg ad
enam	enam	0		C	sg n
    	enam	0		D	
üks	üks	0		N	sg n
   	üks	0		P	sg n
teate	tead	te		V	te
     	teade	0		S	sg g
ei	ei	0		D	
  	ei	0		V	neg
saanud	saa	nud		V	nud
      	saa=nud	0		A	
      	saa=nud	0		A	sg n
      	saa=nud	d		A	pl n
      	saanu	d		S	pl n
ning	ning	0		J	
Laes	laad	s		S	sg in
    	lagi	s		S	sg in
on	ole	0		V	b
  	ole	0		V	vad
teda	tema	da		P	sg p
käeskinud	####				
välja	välja	0		D	
     	välja	0		V	o
     	väli	0		S	adt
     	väli	0		S	sg g
     	väli	0		S	sg p
minna	mine	a		V	da
aga	aga	0		J	
Tiiu	Tiiu	0		H	sg g
    	Tiiu	0		H	sg n
ei	ei	0		D	
  	ei	0		V	neg
läinud	läinu	d		S	pl n
      	läinud	0		A	
      	läinud	0		A	sg n
      	läinud	d		A	pl n
      	mine	nud		V	nud
.	.			Z	
siis	siis	0		D	
    	siis	0		J	
Laes	laad	s		S	sg in
    	lagi	s		S	sg in
on	ole	0		V	b
  	ole	0		V	vad
teda	tema	da		P	sg p
tahtnud	taht	nud		V	nud
       	taht=nu	d		S	pl n
       	taht=nud	0		A	
       	taht=nud	0		A	sg n
       	taht=nud	d		A	pl n
käsipidi	käsi_pidi	0		D	
välja	välja	0		D	
     	välja	0		V	o
     	väli	0		S	adt
     	väli	0		S	sg g
     	väli	0		S	sg p
viia	vii	a		V	da
,	,			Z	
aga	aga	0		J	
Tiiu	Tiiu	0		H	sg g
    	Tiiu	0		H	sg n
akanud	####				
Laesi	####				
vastu	vastu	0		D	
     	vastu	0		K	
ning	ning	0		J	
on	ole	0		V	b
  	ole	0		V	vad
Laesi	####				
tagasi	tagasi	0		D	
      	tagasi	0		K	
aida	ait	0		S	sg g
toonud	too	nud		V	nud
      	too=nu	d		S	pl n
      	too=nud	0		A	
      	too=nud	0		A	sg n
      	too=nud	d		A	pl n
iga	iga	0		P	sg g
   	iga	0		P	sg n
   	iga	0		P	sg p
   	iga	0		S	sg n
   	iga	0		S	sg p
Laes	laad	s		S	sg in
    	lagi	s		S	sg in
teda	tema	da		P	sg p
mitte	mitte	0		D	
välja	välja	0		D	
     	välja	0		V	o
     	väli	0		S	adt
     	väli	0		S	sg g
     	väli	0		S	sg p
saanud	saa	nud		V	nud
      	saa=nud	0		A	
      	saa=nud	0		A	sg n
      	saa=nud	d		A	pl n
      	saanu	d		S	pl n
.	.			Z	
mõistis	mõist	is		V	s
kogukonna	kogukond	0		S	sg g
kohus	kohu	s		V	s
     	kohus	0		S	sg n
et	et	0		J	
pea	pea	0		D	
   	pea	0		S	sg g
   	pida	0		V	o
   	pea	0		S	sg n
kohtu	kohtu	0		V	o
     	kohus	0		S	sg g
mehel	mees	l		S	sg ad
õigus	õigus	0		S	sg n
oli	ole	i		V	s
seda	see	da		P	sg p
vakka	vakk	0		S	adt
     	vakk	0		S	sg p
     	vakka	0		D	
vilja	vili	0		S	adt
     	vili	0		S	sg g
     	vili	0		S	sg p
pandiks	pant	ks		S	sg tr
       	panti	ks		V	ks
kinni	kinni	0		D	
pidada	pida	da		V	da
Tiiu	Tiiu	0		H	sg g
    	Tiiu	0		H	sg n
mehe	mees	0		S	sg g
Ado	Ado	0		H	sg g
   	Ado	0		H	sg n
Tarkmeel	tark_meel	0		S	sg n
        	tark_mesi	l		S	sg ad
mineva	minev	0		A	sg g
sügisese	sügisene	0		A	sg g
poole	pool	0		N	sg g
     	pool	0		S	sg g
     	pool	e		S	pl p
     	poole	0		K	
     	poole	0		S	sg n
pea	pea	0		D	
   	pea	0		S	sg g
   	pida	0		V	o
   	pea	0		S	sg n
raha	raha	0		S	sg g
    	raha	0		S	sg n
    	raha	0		S	sg p
eest	eest	0		D	
    	eest	0		K	
    	esi	st		S	sg el
mis	mis	0		P	pl n
   	mis	0		P	sg n
tema	tema	0		P	sg g
    	tema	0		P	sg n
võlgu	võlg	u		S	pl p
     	võlgu	0		D	
oli	ole	i		V	s
ning	ning	0		J	
et	et	0		J	
mõisa	mõis	0		S	sg g
valitsus	valitsus	0		S	sg n
seda	see	da		P	sg p
raha	raha	0		S	sg g
    	raha	0		S	sg n
    	raha	0		S	sg p
ära	ära	0		D	
   	ära	0		V	neg o
maksis	maks	is		V	s
      	maksi	s		S	sg in
andas	####				
kohtu	kohtu	0		V	o
     	kohus	0		S	sg g
mees	mees	0		S	sg n
    	mesi	s		S	sg in
see	see	0		P	sg n
vilja	vili	0		S	adt
     	vili	0		S	sg g
     	vili	0		S	sg p
ta	tema	0		P	sg g
  	tema	0		P	sg n
kätte	kätte	0		K	
     	käsi	tte		S	adt
pärast	pära	st		S	sg el
      	pärane	t		A	sg p
      	pärast	0		D	
      	pärast	0		K	
selle	see	0		P	sg g
     	sell	e		S	pl p
tüli	tüli	0		S	sg g
    	tüli	0		S	sg n
    	tüli	0		S	sg p
ning	ning	0		J	
tüli	tüli	0		S	sg g
    	tüli	0		S	sg n
    	tüli	0		S	sg p
tunnistuse	tunnistus	0		S	sg g
see	see	0		P	sg n
läbi	läbi	0		D	
    	läbi	0		K	
    	läbi	0		V	o
Pärt	Pärt	0		H	sg n
Laugen	####				
ning	ning	0		J	
Ann	Ann	0		H	sg n
Kuub	kuub	0		S	sg n
läbi	läbi	0		D	
    	läbi	0		K	
    	läbi	0		V	o
tõeks	tõde	ks		S	sg tr
     	tõsi	ks		S	sg tr
nõnda	nõnda	0		D	
kui	kui	0		D	
   	kui	0		J	
Laes	laad	s		S	sg in
    	lagi	s		S	sg in
siin	siin	0		D	
    	siin	0		S	sg n
rääkinud	rääki	nud		V	nud
        	rääki=nu	d		S	pl n
        	rääki=nud	0		A	
        	rääki=nud	0		A	sg n
        	rääki=nud	d		A	pl n
,	,			Z	
ning	ning	0		J	
et	et	0		J	
kohtu	kohtu	0		V	o
     	kohus	0		S	sg g
mehe	mees	0		S	sg g
sõna	sõna	0		S	sg g
    	sõna	0		V	o
    	sõna	0		S	sg n
    	sõna	0		S	sg p
ei	ei	0		D	
  	ei	0		V	neg
sa	sina	0		P	sg n
kuuldud	kuul	dud		V	tud
       	kuuldu	d		S	pl n
       	kuuldu	d		V	d
       	kuuldud	0		A	
       	kuuldud	0		A	sg n
       	kuuldud	d		A	pl n
ning	ning	0		J	
vastu	vastu	0		D	
     	vastu	0		K	
hakatud	hakka	tud		V	tud
       	haka=tu	d		S	pl n
       	haka=tud	0		A	
       	haka=tud	0		A	sg n
       	haka=tud	d		A	pl n
sai	saa	i		V	s
   	sai	0		S	sg n
mõistetud	mõist	tud		V	tud
         	mõiste=tu	d		S	pl n
         	mõiste=tud	0		A	
         	mõiste=tud	0		A	sg n
         	mõiste=tud	d		A	pl n
Tiiu	Tiiu	0		H	sg g
    	Tiiu	0		H	sg n
24	24	0		N	?
tunniks	tund	ks		S	sg tr
vangi	vang	0		S	adt
     	vang	0		S	sg g
     	vang	0		S	sg p
hoone	hoone	0		S	sg g
     	hoone	0		S	sg n
pea	pea	0		D	
   	pea	0		S	sg g
   	pida	0		V	o
   	pea	0		S	sg n
kohtu	kohtu	0		V	o
     	kohus	0		S	sg g
mehe	mees	0		S	sg g
abimees	abi_mees	0		S	sg n
Jaak	Jaak	0		H	sg n
    	jaak	0		S	sg n
Tarkind	tark_ind	0		S	sg n
,	,			Z	
kohtu	kohtu	0		V	o
     	kohus	0		S	sg g
mees	mees	0		S	sg n
    	mesi	s		S	sg in
Roman	Roman	0		H	sg n
Pehgme	####				
