Tõnis	Tõnis	0		H	sg n
Hogand	####				
on	ole	0		V	b
  	ole	0		V	vad
kihelkonna	kihelkond	0		S	sg g
kohtus	kohtu	s		V	s
      	kohus	s		S	sg in
käinud	käi	nud		V	nud
      	käi=nud	0		A	
      	käi=nud	0		A	sg n
      	käi=nud	d		A	pl n
      	käinu	d		S	pl n
selle	see	0		P	sg g
     	sell	e		S	pl p
perrast	####				
et	et	0		J	
tema	tema	0		P	sg g
    	tema	0		P	sg n
on	ole	0		V	b
  	ole	0		V	vad
Kreedu	####				
käest	käest	0		K	
     	käsi	st		S	sg el
need	see	d		P	pl n
hoone	hoone	0		S	sg g
     	hoone	0		S	sg n
vetimed	####				
vägisi	vägisi	0		D	
ära	ära	0		D	
   	ära	0		V	neg o
võtnud	võt	nud		V	nud
      	võt=nu	d		S	pl n
      	võt=nud	0		A	
      	võt=nud	0		A	sg n
      	võt=nud	d		A	pl n
siis	siis	0		D	
    	siis	0		J	
on	ole	0		V	b
  	ole	0		V	vad
kihelkonna	kihelkond	0		S	sg g
kohtus	kohtu	s		V	s
      	kohus	s		S	sg in
mõistetud	mõist	tud		V	tud
         	mõiste=tu	d		S	pl n
         	mõiste=tud	0		A	
         	mõiste=tud	0		A	sg n
         	mõiste=tud	d		A	pl n
et	et	0		J	
Tõnis	Tõnis	0		H	sg n
peab	pida	b		V	b
Kreedule	####				
maksma	maks	ma		V	ma
nende	see	de		P	pl g
     	tema	de		P	pl g
elude	elu	de		S	pl g
eest	eest	0		D	
    	eest	0		K	
    	esi	st		S	sg el
see	see	0		P	sg n
on	ole	0		V	b
  	ole	0		V	vad
pisike	pisike	0		A	sg n
sauna	saun	0		S	adt
     	saun	0		S	sg g
     	saun	0		S	sg p
tuba	tuba	0		S	sg n
    	tuba	0		S	sg p
ja	ja	0		J	
hoone	hoone	0		S	sg g
     	hoone	0		S	sg n
18	18	0		N	?
rubla	rubla	0		S	sg g
     	rubla	0		S	sg n
     	rubla	0		S	sg p
hõbe	hõbe	0		S	sg n
siis	siis	0		D	
    	siis	0		J	
on	ole	0		V	b
  	ole	0		V	vad
need	see	d		P	pl n
riided	riie	d		S	pl n
ja	ja	0		J	
ellud	####				
kõik	kõik	0		P	pl n
    	kõik	0		S	sg n
    	kõik	0		P	sg n
selget	selge	t		A	sg p
aga	aga	0		J	
Kreet	####				
peab	pida	b		V	b
selle	see	0		P	sg g
     	sell	e		S	pl p
aja	aeg	0		S	sg g
   	aja	0		V	o
nende	see	de		P	pl g
     	tema	de		P	pl g
elude	elu	de		S	pl g
sehes	####				
elama	ela	ma		V	ma
kuni	kuni	0		J	
    	kuni	0		K	
Tõnis	Tõnis	0		H	sg n
kõik	kõik	0		P	pl n
    	kõik	0		S	sg n
    	kõik	0		P	sg n
raha	raha	0		S	sg g
    	raha	0		S	sg n
    	raha	0		S	sg p
on	ole	0		V	b
  	ole	0		V	vad
ära	ära	0		D	
   	ära	0		V	neg o
maksnud	maks	nud		V	nud
       	maks=nu	d		S	pl n
       	maks=nud	0		A	
       	maks=nud	0		A	sg n
       	maks=nud	d		A	pl n
.	.			Z	
vanem	vanem	0		C	sg n
     	vanem	0		S	sg n
Aleksei	Aleksei	0		H	sg g
       	Aleksei	0		H	sg n
Kann	kann	0		S	sg n
+	+			Z	
+	+			Z	
+	+			Z	
,	,			Z	
kohtu	kohtu	0		V	o
     	kohus	0		S	sg g
mees	mees	0		S	sg n
    	mesi	s		S	sg in
Laes	laad	s		S	sg in
    	lagi	s		S	sg in
Moondo	####				
