Lümanda	Lümanda	0		H	sg g
       	Lümanda	0		H	sg n
vallast	vald	st		S	sg el
vabandik	####				
Simmo	####				
Leps	Leps	0		H	sg n
tuli	tuli	0		S	sg n
    	tule	i		V	s
kohtu	kohtu	0		V	o
     	kohus	0		S	sg g
ette	ette	0		D	
    	ette	0		K	
    	esi	tte		S	adt
ja	ja	0		J	
ütles	ütle	s		V	s
et	et	0		J	
tema	tema	0		P	sg g
    	tema	0		P	sg n
õud	õud	0		S	sg n
   	õud	d		S	pl n
tervis	tervis	0		S	sg n
vaene	vaen	e		S	pl p
     	vaene	0		A	sg n
     	vaene	0		S	sg n
tema	tema	0		P	sg g
    	tema	0		P	sg n
53	53	0		N	?
aastat	aasta	t		S	sg p
vana	vana	0		A	sg g
    	vana	0		A	sg n
    	vana	0		A	sg p
    	vana	0		S	sg g
    	vana	0		S	sg n
    	vana	0		S	sg p
ja	ja	0		J	
mitte	mitte	0		D	
poega	poeg	0		S	adt
     	pood	ga		S	sg kom
     	poeg	0		S	sg p
ei	ei	0		D	
  	ei	0		V	neg
ole	ole	0		V	o
kes	kes	0		P	pl n
   	kes	0		P	sg n
teda	tema	da		P	sg p
toita	toit	a		V	da
võib	või	b		V	b
kohus	kohu	s		V	s
     	kohus	0		S	sg n
küsis	küsi	s		V	s
et	et	0		J	
Simmul	####				
üks	üks	0		N	sg n
   	üks	0		P	sg n
tüttar	####				
on	ole	0		V	b
  	ole	0		V	vad
Simmo	####				
võib	või	b		V	b
otsida	otsi	da		V	da
kui	kui	0		D	
   	kui	0		J	
kedagi	keegi	dagi		P	sg p
on	ole	0		V	b
  	ole	0		V	vad
kes	kes	0		P	pl n
   	kes	0		P	sg n
temale	tema	le		P	sg all
väimeheks	väi_mees	ks		S	sg tr
lubab	luba	b		V	b
tulla	tule	a		V	da
selle	see	0		P	sg g
     	sell	e		S	pl p
peale	pea	le		S	sg all
     	peale	0		D	
     	peale	0		K	
kostas	####				
Simmo	####				
et	et	0		J	
temal	tema	l		P	sg ad
on	ole	0		V	b
  	ole	0		V	vad
tüttar	####				
täieealine	täie_ealine	0		A	sg n
ja	ja	0		J	
Juhani	Juhan	0		H	sg g
      	juha	ni		S	sg ter
poeg	poeg	0		S	sg n
Jakop	####				
Piht	piht	0		S	sg n
kostjab	####				
tema	tema	0		P	sg g
    	tema	0		P	sg n
tüttart	####				
kohus	kohu	s		V	s
     	kohus	0		S	sg n
kutsus	kutsu	s		V	s
      	kutsu	s		S	sg in
Jakobi	Jakob	0		H	sg g
ette	ette	0		D	
    	ette	0		K	
    	esi	tte		S	adt
ja	ja	0		J	
küsis	küsi	s		V	s
kas	kas	0		D	
tema	tema	0		P	sg g
    	tema	0		P	sg n
tahab	taht	b		V	b
Simmo	####				
tüttart	####				
oma	oma	0		A	sg g
   	oma	0		D	
   	oma	0		P	sg g
   	oma	0		S	sg g
   	oma	0		V	o
   	oma	0		A	sg n
   	oma	0		A	sg p
   	oma	0		P	sg n
   	oma	0		P	sg p
   	oma	0		S	sg n
   	oma	0		S	sg p
naiseks	naine	ks		S	sg tr
võtta	võt	a		V	da
ja	ja	0		J	
Simmo	####				
pojaks	poeg	ks		S	sg tr
      	poja	ks		S	sg tr
minna	mine	a		V	da
teda	tema	da		P	sg p
tema	tema	0		P	sg g
    	tema	0		P	sg n
naisega	naine	ga		S	sg kom
toita	toit	a		V	da
surma	surm	0		S	adt
     	surm	0		S	sg g
     	surma	0		V	o
     	surm	0		S	sg p
tunnin	####				
kui	kui	0		D	
   	kui	0		J	
vanematte	####				
kord	kord	0		D	
    	kord	0		S	sg n
on	ole	0		V	b
  	ole	0		V	vad
et	et	0		J	
nemad	tema	d		P	pl n
sellega	see	ga		P	sg kom
kauplenud	####				
sündinud	sündi	nud		V	nud
        	sündinu	d		S	pl n
        	sündinud	0		A	
        	sündinud	0		A	sg n
        	sündinud	d		A	pl n
ja	ja	0		J	
leppinud	leppi	nud		V	nud
        	leppi=nu	d		S	pl n
        	leppi=nud	0		A	
        	leppi=nud	0		A	sg n
        	leppi=nud	d		A	pl n
on	ole	0		V	b
  	ole	0		V	vad
tunnistavad	tunnista	vad		V	vad
           	tunnista=v	d		A	pl n
tõeks	tõde	ks		S	sg tr
     	tõsi	ks		S	sg tr
kolm	kolm	0		N	sg n
risti	rist	0		S	adt
     	rist	0		S	sg g
     	rist	0		S	sg p
     	risti	0		D	
     	risti	0		V	o
     	risti	0		S	sg g
     	risti	0		S	sg n
nime	nimi	0		S	sg g
    	nimi	0		S	sg p
kõrva	kõrv	0		S	adt
     	kõrv	0		S	sg g
     	kõrv	0		S	sg p
tehes	tege	es		V	des
tõeks	tõde	ks		S	sg tr
     	tõsi	ks		S	sg tr
siis	siis	0		D	
    	siis	0		J	
jääb	jää	b		V	b
Jakobile	Jakob	le		H	sg all
kui	kui	0		D	
   	kui	0		J	
Simmo	####				
vaimehele	vai_mees	le		S	sg all
kõik	kõik	0		P	pl n
    	kõik	0		S	sg n
    	kõik	0		P	sg n
elumaja	elu_maja	0		S	sg g
       	elu_maja	0		S	sg n
       	elu_maja	0		S	sg p
ja	ja	0		J	
mu	mina	0		P	sg g
lapse	laps	0		S	sg g
õigus	õigus	0		S	sg n
.	.			Z	
Simmo	####				
Leps	Leps	0		H	sg n
XXX	XXX	0		O	?
   	XXX	0		Y	?
Jakob	Jakob	0		H	sg n
Piht	piht	0		S	sg n
XXX	XXX	0		O	?
   	XXX	0		Y	?
