olid	ole	id		V	sid
kolli	koll	0		S	adt
     	koll	0		S	sg g
     	koll	0		S	sg p
     	kolli	0		S	sg g
     	kolli	0		S	sg n
poisid	poi	sid		S	pl p
      	poiss	d		S	pl n
kogukonna	kogukond	0		S	sg g
kohtu	kohtu	0		V	o
     	kohus	0		S	sg g
ees	ees	0		D	
   	ees	0		K	
   	esi	s		S	sg in
,	,			Z	
et	et	0		J	
nad	tema	d		P	pl n
laupäeva	lau_päev	0		S	adt
        	lau_päev	0		S	sg g
        	lau_päev	0		S	sg p
ööse	öös	e		S	pl p
kolist	koli	st		S	sg el
minnes	mine	es		V	des
külas	küla	s		S	sg in
pahandust	pahandus	t		S	sg p
teinud	tege	nud		V	nud
      	tei=nud	0		A	
      	tei=nud	0		A	sg n
      	tei=nud	d		A	pl n
      	teinu	d		S	pl n
,	,			Z	
nüüd	nüüd	0		D	
tunnistasid	tunnista	sid		V	sid
nad	tema	d		P	pl n
etelda	etle	da		V	da
      	etle	da		V	ta
Peeter	Peeter	0		H	sg n
Miku	Mikk	0		H	sg g
Adoniisako	####				
Ado	Ado	0		H	sg g
   	Ado	0		H	sg n
on	ole	0		V	b
  	ole	0		V	vad
esimesid	####				
olnud	ol=nud	0		A	
     	ol=nud	0		A	sg n
     	ol=nud	d		A	pl n
     	ole	nud		V	nud
     	olnu	d		S	pl n
pere	pere	0		S	sg g
    	pere	0		S	sg n
sisse	siss	e		S	pl p
     	sisse	0		D	
     	sisse	0		K	
minenud	####				
ja	ja	0		J	
on	ole	0		V	b
  	ole	0		V	vad
toas	tuba	s		S	sg in
pahandust	pahandus	t		S	sg p
teinud	tege	nud		V	nud
      	tei=nud	0		A	
      	tei=nud	0		A	sg n
      	tei=nud	d		A	pl n
      	teinu	d		S	pl n
ja	ja	0		J	
nüüd	nüüd	0		D	
on	ole	0		V	b
  	ole	0		V	vad
Talba	talb	0		S	adt
     	talb	0		S	sg p
Peeter	Peeter	0		H	sg n
ja	ja	0		J	
Jaan	Jaan	0		H	sg n
    	jaan	0		S	sg n
    	jaan	0		Y	?
ja	ja	0		J	
Miku	Mikk	0		H	sg g
Ado	Ado	0		H	sg g
   	Ado	0		H	sg n
2	2	0		N	?
tundi	tund	0		S	adt
     	tund	0		S	sg p
kinni	kinni	0		D	
olnud	ol=nud	0		A	
     	ol=nud	0		A	sg n
     	ol=nud	d		A	pl n
     	ole	nud		V	nud
     	olnu	d		S	pl n
