rannavere	ranna_veri	0		S	sg g
küla	küla	0		S	sg g
    	küla	0		S	sg n
    	küla	0		S	sg p
säre	säre	0		A	sg n
pere	pere	0		S	sg g
    	pere	0		S	sg n
No	no	0		I	
16	16	0		N	?
pere	pere	0		S	sg g
    	pere	0		S	sg n
mees	mees	0		S	sg n
    	mesi	s		S	sg in
mart	mart	0		S	sg n
paas	paa	s		A	sg in
    	paa	s		S	sg in
    	paas	0		S	sg n
,	,			Z	
tuli	tuli	0		S	sg n
    	tule	i		V	s
oma	oma	0		A	sg g
   	oma	0		D	
   	oma	0		P	sg g
   	oma	0		S	sg g
   	oma	0		V	o
   	oma	0		A	sg n
   	oma	0		A	sg p
   	oma	0		P	sg n
   	oma	0		P	sg p
   	oma	0		S	sg n
   	oma	0		S	sg p
venna	vend	0		S	sg g
mihkliga	mihkel	ga		A	sg kom
        	mihkel	ga		S	sg kom
tallitaja	####				
kohtu	kohtu	0		V	o
     	kohus	0		S	sg g
ette	ette	0		D	
    	ette	0		K	
    	esi	tte		S	adt
,	,			Z	
ja	ja	0		J	
andis	and	is		V	s
tõuda	####				
allose	####				
saadu	saad	0		S	adt
     	saadu	0		S	sg g
     	saadud	0		A	sg g
     	saad	0		S	sg p
     	saadu	0		S	sg n
kahe	kaks	0		N	sg g
vakkama	####				
põldu	põld	0		S	adt
     	põld	0		S	sg p
oma	oma	0		A	sg g
   	oma	0		D	
   	oma	0		P	sg g
   	oma	0		S	sg g
   	oma	0		V	o
   	oma	0		A	sg n
   	oma	0		A	sg p
   	oma	0		P	sg n
   	oma	0		P	sg p
   	oma	0		S	sg n
   	oma	0		S	sg p
venna	vend	0		S	sg g
mihkli	mihkel	0		A	sg g
      	mihkel	0		S	sg g
kätte	kätte	0		K	
     	käsi	tte		S	adt
,	,			Z	
ning	ning	0		J	
mihkel	mihkel	0		A	sg n
      	mihkel	0		S	sg n
maksab	maks	b		V	b
ega	ega	0		D	
   	ega	0		J	
aasta	aasta	0		S	sg g
     	aasta	0		S	sg n
kaks	kaks	0		N	sg n
rup	####				
.	.			Z	
hõ	####				
.	.			Z	
selle	see	0		P	sg g
     	sell	e		S	pl p
saadu	saad	0		S	adt
     	saadu	0		S	sg g
     	saadud	0		A	sg g
     	saad	0		S	sg p
     	saadu	0		S	sg n
põllu	põld	0		S	sg g
eest	eest	0		D	
    	eest	0		K	
    	esi	st		S	sg el
mardile	mart	le		S	sg all
ja	ja	0		J	
kinnitasid	kinnita	sid		V	sid
see	see	0		P	sg n
kaupäeva	####				
nõnda	nõnda	0		D	
,	,			Z	
et	et	0		J	
mart	mart	0		S	sg n
ei	ei	0		D	
  	ei	0		V	neg
või	või	0		S	sg g
   	või	0		V	o
   	või	0		D	
   	või	0		J	
   	või	0		S	sg n
seda	see	da		P	sg p
põldu	põld	0		S	adt
     	põld	0		S	sg p
vägise	vägine	0		A	sg g
      	vägine	0		S	sg g
ära	ära	0		D	
   	ära	0		V	neg o
võtta	võt	a		V	da
,	,			Z	
ega	ega	0		D	
   	ega	0		J	
mihkel	mihkel	0		A	sg n
      	mihkel	0		S	sg n
vägise	vägine	0		A	sg g
      	vägine	0		S	sg g
maha	maha	0		D	
jätta	jät	a		V	da
,	,			Z	
muidu	muidu	0		D	
kui	kui	0		D	
   	kui	0		J	
mõlematte	####				
tehtmine	####				
on	ole	0		V	b
  	ole	0		V	vad
tallitaja	####				
kohtus	kohtu	s		V	s
      	kohus	s		S	sg in
sel	see	l		P	sg ad
   	sel	0		Y	?
Juri	Juri	0		H	sg g
    	Juri	0		H	sg n
ku	####				
7mal	####				
päeval	päev	l		S	sg ad
1868	1868	0		N	?
tallitaja	####				
Jaan	Jaan	0		H	sg n
    	jaan	0		S	sg n
    	jaan	0		Y	?
tarkpea	tark_pea	0		S	sg g
       	tark_pea	0		S	sg n
XXX	XXX	0		O	?
   	XXX	0		Y	?
