oli	ole	i		V	s
kogukonna	kogukond	0		S	sg g
kohus	kohu	s		V	s
     	kohus	0		S	sg n
koos	koos	0		D	
    	koos	0		K	
    	koos	0		S	sg n
    	kubu	s		S	sg in
.	.			Z	
siis	siis	0		D	
    	siis	0		J	
tuli	tuli	0		S	sg n
    	tule	i		V	s
kohtu	kohtu	0		V	o
     	kohus	0		S	sg g
ette	ette	0		D	
    	ette	0		K	
    	esi	tte		S	adt
Marja	mari	0		S	adt
     	mari	0		S	sg g
     	mari	0		S	sg p
teis	sina	s		P	pl in
    	tee	is		S	pl in
.	.			Z	
ning	ning	0		J	
kaebas	kaeba	s		V	s
et	et	0		J	
26	26	0		N	?
juunil	juuni	l		S	sg ad
s	s	0		Y	?
.	.			Z	
a.	a	0		Y	?
tema	tema	0		P	sg g
    	tema	0		P	sg n
on	ole	0		V	b
  	ole	0		V	vad
oma	oma	0		A	sg g
   	oma	0		D	
   	oma	0		P	sg g
   	oma	0		S	sg g
   	oma	0		V	o
   	oma	0		A	sg n
   	oma	0		A	sg p
   	oma	0		P	sg n
   	oma	0		P	sg p
   	oma	0		S	sg n
   	oma	0		S	sg p
sugulast	sugulane	t		S	sg p
ära	ära	0		D	
   	ära	0		V	neg o
saatnud	saat	nud		V	nud
       	saat=nu	d		S	pl n
       	saat=nud	0		A	
       	saat=nud	0		A	sg n
       	saat=nud	d		A	pl n
.	.			Z	
kingli	####				
vallast	vald	st		S	sg el
Villem	Villem	0		H	sg n
lesk	lesk	0		S	sg n
.	.			Z	
ning	ning	0		J	
siis	siis	0		D	
    	siis	0		J	
on	ole	0		V	b
  	ole	0		V	vad
tema	tema	0		P	sg g
    	tema	0		P	sg n
koha	koht	0		S	sg g
    	koha	0		S	sg g
    	koha	0		V	o
    	koha	0		S	sg n
    	koha	0		S	sg p
Georgi	Georg	0		H	adt
      	Georg	0		H	sg g
      	Georg	0		H	sg p
      	Georgi	0		H	sg g
      	Georgi	0		H	sg n
Allas	Alla	s		H	sg in
:	:			Z	
laimamise	laimamine	0		S	sg g
sõnnu	####				
rääkinud	rääki	nud		V	nud
        	rääki=nu	d		S	pl n
        	rääki=nud	0		A	
        	rääki=nud	0		A	sg n
        	rääki=nud	d		A	pl n
et	et	0		J	
see	see	0		P	sg n
Villem	Villem	0		H	sg n
lesk	lesk	0		S	sg n
on	ole	0		V	b
  	ole	0		V	vad
maast	maa	st		S	sg el
üles	üles	0		D	
karganud	####				
tema	tema	0		P	sg g
    	tema	0		P	sg n
juurest	juur	st		S	sg el
       	juurest	0		K	
ning	ning	0		J	
jooksma	jooks	ma		V	ma
akanud	####				
.	.			Z	
palja	paljas	0		A	sg g
peaga	pea	ga		S	sg kom
Tõkkemetsa	tõkke_mets	0		S	adt
          	tõkke_mets	0		S	sg g
          	tõkke_mets	0		S	sg p
määl	####				
.	.			Z	
ning	ning	0		J	
veel	veel	0		D	
    	vesi	l		S	sg ad
see	see	0		P	sg n
Georgi	Georg	0		H	adt
      	Georg	0		H	sg g
      	Georg	0		H	sg p
      	Georgi	0		H	sg g
      	Georgi	0		H	sg n
on	ole	0		V	b
  	ole	0		V	vad
rääkinud	rääki	nud		V	nud
        	rääki=nu	d		S	pl n
        	rääki=nud	0		A	
        	rääki=nud	0		A	sg n
        	rääki=nud	d		A	pl n
et	et	0		J	
tema	tema	0		P	sg g
    	tema	0		P	sg n
ilmas	ilm	s		S	sg in
     	ilmas	0		D	
niisugust	nii_sugune	t		P	sg p
asja	asi	0		S	adt
    	asi	0		S	sg g
    	asi	0		S	sg p
pole	ole	0		V	neg o
näinud	näi	nud		V	nud
      	näge	nud		V	nud
      	näi=nud	0		A	
      	näi=nud	0		A	sg n
      	näi=nud	d		A	pl n
      	näinu	d		S	pl n
mitte	mitte	0		D	
kui	kui	0		D	
   	kui	0		J	
ta	tema	0		P	sg g
  	tema	0		P	sg n
siis	siis	0		D	
    	siis	0		J	
on	ole	0		V	b
  	ole	0		V	vad
näinud	näi	nud		V	nud
      	näge	nud		V	nud
      	näi=nud	0		A	
      	näi=nud	0		A	sg n
      	näi=nud	d		A	pl n
      	näinu	d		S	pl n
.	.			Z	
sellepärast	selle_pärast	0		D	
nõuab	nõud	b		V	b
see	see	0		P	sg n
Marja	mari	0		S	adt
     	mari	0		S	sg g
     	mari	0		S	sg p
teis	sina	s		P	pl in
    	tee	is		S	pl in
tõe	tõde	0		S	sg g
   	tõsi	0		S	sg g
tunnistust	tunnistus	t		S	sg p
selle	see	0		P	sg g
     	sell	e		S	pl p
iittu	####				
üle	üle	0		D	
   	üle	0		K	
.	.			Z	
et	et	0		J	
teda	tema	da		P	sg p
ilma	ilm	0		S	adt
    	ilm	0		S	sg g
    	ilma	0		D	
    	ilma	0		K	
    	ilm	0		S	sg p
süüta	süü	ta		S	sg ab
     	süüta	0		V	o
laimatakse	laima	takse		V	takse
ning	ning	0		J	
aruks	aru	ks		S	sg tr
tehjaks	####				
oma	oma	0		A	sg g
   	oma	0		D	
   	oma	0		P	sg g
   	oma	0		S	sg g
   	oma	0		V	o
   	oma	0		A	sg n
   	oma	0		A	sg p
   	oma	0		P	sg n
   	oma	0		P	sg p
   	oma	0		S	sg n
   	oma	0		S	sg p
sugulasega	sugulane	ga		S	sg kom
.	.			Z	
siis	siis	0		D	
    	siis	0		J	
sai	saa	i		V	s
   	sai	0		S	sg n
see	see	0		P	sg n
Georgi	Georg	0		H	adt
      	Georg	0		H	sg g
      	Georg	0		H	sg p
      	Georgi	0		H	sg g
      	Georgi	0		H	sg n
Allas	Alla	s		H	sg in
ette	ette	0		D	
    	ette	0		K	
    	esi	tte		S	adt
kutsutud	kutsu	tud		V	tud
        	kutsutu	d		S	pl n
        	kutsutud	0		A	
        	kutsutud	0		A	sg n
        	kutsutud	d		A	pl n
aga	aga	0		J	
tema	tema	0		P	sg g
    	tema	0		P	sg n
ütles	ütle	s		V	s
et	et	0		J	
ta	tema	0		P	sg g
  	tema	0		P	sg n
ei	ei	0		D	
  	ei	0		V	neg
ole	ole	0		V	o
mitte	mitte	0		D	
nõnda	nõnda	0		D	
rääkinud	rääki	nud		V	nud
        	rääki=nu	d		S	pl n
        	rääki=nud	0		A	
        	rääki=nud	0		A	sg n
        	rääki=nud	d		A	pl n
.	.			Z	
aga	aga	0		J	
ta	tema	0		P	sg g
  	tema	0		P	sg n
oli	ole	i		V	s
küll	küll	0		D	
    	küll	0		S	sg n
sealt	sealt	0		D	
     	siga	lt		A	sg abl
     	siga	lt		S	sg abl
kauda	####				
käinud	käi	nud		V	nud
      	käi=nud	0		A	
      	käi=nud	0		A	sg n
      	käi=nud	d		A	pl n
      	käinu	d		S	pl n
ning	ning	0		J	
nemad	tema	d		P	pl n
seal	seal	0		D	
    	siga	l		A	sg ad
    	siga	l		S	sg ad
näinud	näi	nud		V	nud
      	näge	nud		V	nud
      	näi=nud	0		A	
      	näi=nud	0		A	sg n
      	näi=nud	d		A	pl n
      	näinu	d		S	pl n
.	.			Z	
ja	ja	0		J	
see	see	0		P	sg n
Villem	Villem	0		H	sg n
lesk	lesk	0		S	sg n
on	ole	0		V	b
  	ole	0		V	vad
palja	paljas	0		A	sg g
peaga	pea	ga		S	sg kom
seal	seal	0		D	
    	siga	l		A	sg ad
    	siga	l		S	sg ad
maas	maa	s		S	sg in
    	maas	0		D	
olnud	ol=nud	0		A	
     	ol=nud	0		A	sg n
     	ol=nud	d		A	pl n
     	ole	nud		V	nud
     	olnu	d		S	pl n
.	.			Z	
see	see	0		P	sg n
on	ole	0		V	b
  	ole	0		V	vad
see	see	0		P	sg n
hul	####				
sõnna	####				
mis	mis	0		P	pl n
   	mis	0		P	sg n
ta	tema	0		P	sg g
  	tema	0		P	sg n
kahe	kaks	0		N	sg g
tüdrugu	####				
ees	ees	0		D	
   	ees	0		K	
   	esi	s		S	sg in
on	ole	0		V	b
  	ole	0		V	vad
rääkinud	rääki	nud		V	nud
        	rääki=nu	d		S	pl n
        	rääki=nud	0		A	
        	rääki=nud	0		A	sg n
        	rääki=nud	d		A	pl n
Juljanna	####				
Ansber	####				
ja	ja	0		J	
melanja	####				
Vörg	####				
.	.			Z	
siis	siis	0		D	
    	siis	0		J	
sai	saa	i		V	s
   	sai	0		S	sg n
need	see	d		P	pl n
kaks	kaks	0		N	sg n
kohtu	kohtu	0		V	o
     	kohus	0		S	sg g
ette	ette	0		D	
    	ette	0		K	
    	esi	tte		S	adt
kutsutud	kutsu	tud		V	tud
        	kutsutu	d		S	pl n
        	kutsutud	0		A	
        	kutsutud	0		A	sg n
        	kutsutud	d		A	pl n
ja	ja	0		J	
nemad	tema	d		P	pl n
mõlemad	mõlema	d		P	pl n
tunnistasid	tunnista	sid		V	sid
ka	ka	0		D	
nõnda	nõnda	0		D	
kui	kui	0		D	
   	kui	0		J	
see	see	0		P	sg n
Georgi	Georg	0		H	adt
      	Georg	0		H	sg g
      	Georg	0		H	sg p
      	Georgi	0		H	sg g
      	Georgi	0		H	sg n
oli	ole	i		V	s
rääkinud	rääki	nud		V	nud
        	rääki=nu	d		S	pl n
        	rääki=nud	0		A	
        	rääki=nud	0		A	sg n
        	rääki=nud	d		A	pl n
ühe	üks	0		N	sg g
   	üks	0		P	sg g
   	ühe	0		S	sg n
ulu	ulg	0		S	sg g
   	ulgu	0		V	o
   	ulu	0		V	o
sõnna	####				
et	et	0		J	
see	see	0		P	sg n
pois	poi	s		S	sg in
palja	paljas	0		A	sg g
peaga	pea	ga		S	sg kom
seal	seal	0		D	
    	siga	l		A	sg ad
    	siga	l		S	sg ad
maas	maa	s		S	sg in
    	maas	0		D	
on	ole	0		V	b
  	ole	0		V	vad
olnud	ol=nud	0		A	
     	ol=nud	0		A	sg n
     	ol=nud	d		A	pl n
     	ole	nud		V	nud
     	olnu	d		S	pl n
.	.			Z	
siis	siis	0		D	
    	siis	0		J	
sai	saa	i		V	s
   	sai	0		S	sg n
kogukonna	kogukond	0		S	sg g
kohtu	kohtu	0		V	o
     	kohus	0		S	sg g
poolest	pool	st		N	sg el
       	pool	st		S	sg el
       	poolene	t		A	sg p
       	poolest	0		K	
nõnda	nõnda	0		D	
mõistetud	mõist	tud		V	tud
         	mõiste=tu	d		S	pl n
         	mõiste=tud	0		A	
         	mõiste=tud	0		A	sg n
         	mõiste=tud	d		A	pl n
et	et	0		J	
see	see	0		P	sg n
iut	####				
peab	pida	b		V	b
seisma	seis	ma		V	ma
jääma	jää	ma		V	ma
     	jääm	0		S	adt
     	jääm	0		S	sg g
     	jääm	0		S	sg p
ilma	ilm	0		S	adt
    	ilm	0		S	sg g
    	ilma	0		D	
    	ilma	0		K	
    	ilm	0		S	sg p
et	et	0		J	
üks	üks	0		N	sg n
   	üks	0		P	sg n
sõnna	####				
sest	see	st		P	sg el
    	sest	0		J	
ei	ei	0		D	
  	ei	0		V	neg
tohi	tohti	0		V	o
enam	enam	0		C	sg n
    	enam	0		D	
räägita	rääki	ta		V	ta
mitte	mitte	0		D	
.	.			Z	
kes	kes	0		P	pl n
   	kes	0		P	sg n
sest	see	st		P	sg el
    	sest	0		J	
veel	veel	0		D	
    	vesi	l		S	sg ad
rääkib	####				
saab	saa	b		V	b
trahvi	trahv	0		S	adt
      	trahv	0		S	sg g
      	trahvi	0		V	o
      	trahv	0		S	sg p
alla	alla	0		D	
    	alla	0		K	
pandud	pan=du	d		S	pl n
      	pan=dud	0		A	
      	pan=dud	0		A	sg n
      	pan=dud	d		A	pl n
      	pane	dud		V	tud
.	.			Z	
pea	pea	0		D	
   	pea	0		S	sg g
   	pida	0		V	o
   	pea	0		S	sg n
kohtumees	kohtu_mees	0		S	sg n
Adu	adu	0		V	o
Paja	pada	0		S	sg g
    	paja	0		S	sg g
    	paja	0		S	sg n
    	paja	0		S	sg p
II	II	0		O	?
  	II	0		Y	?
  	jj	0		Y	?
kohtumees	kohtu_mees	0		S	sg n
Mihkel	Mihkel	0		H	sg n
      	mihkel	0		A	sg n
      	mihkel	0		S	sg n
kaks	kaks	0		N	sg n
III	III	0		O	?
   	III	0		Y	?
kohtumees	kohtu_mees	0		S	sg n
Mihkel	Mihkel	0		H	sg n
      	mihkel	0		A	sg n
      	mihkel	0		S	sg n
Rehhi	####				
