sealsammas	####				
nõudis	nõud	is		V	s
kihelkonna	kihelkond	0		S	sg g
kohtu	kohtu	0		V	o
     	kohus	0		S	sg g
käsu	käsk	0		S	sg g
peale	pea	le		S	sg all
     	peale	0		D	
     	peale	0		K	
kogukonna	kogukond	0		S	sg g
talitaja	talitaja	0		S	sg g
        	talitaja	0		S	sg n
Alexei	####				
silla	sild	0		S	sg g
et	et	0		J	
kogukonna	kogukond	0		S	sg g
kohtu	kohtu	0		V	o
     	kohus	0		S	sg g
peamees	pea_mees	0		S	sg n
vasili	####				
Maripuu	mari_puu	0		S	sg g
       	mari_puu	0		S	sg n
,	,			Z	
ning	ning	0		J	
tema	tema	0		P	sg g
    	tema	0		P	sg n
abimees	abi_mees	0		S	sg n
Ivan	Ivan	0		H	sg n
Põldes	####				
,	,			Z	
ning	ning	0		J	
see	see	0		P	sg n
volimees	voli_mees	0		S	sg n
Jakov	####				
kesküla	####				
,	,			Z	
kirjutajaga	kirjutaja	ga		S	sg kom
seinna	####				
vabaniku	####				
majale	maja	le		S	sg all
minna	mine	a		V	da
mis	mis	0		P	pl n
   	mis	0		P	sg n
""""	""""			Z	
Kive	kivi	e		S	pl p
Ado	Ado	0		H	sg g
   	Ado	0		H	sg n
""""	""""			Z	
nimetataks	nimeta	taks		V	taks
,	,			Z	
ning	ning	0		J	
seal	seal	0		D	
    	siga	l		A	sg ad
    	siga	l		S	sg ad
selle	see	0		P	sg g
     	sell	e		S	pl p
pärast	pära	st		S	sg el
      	pärane	t		A	sg p
      	pärast	0		D	
      	pärast	0		K	
,	,			Z	
et	et	0		J	
selle	see	0		P	sg g
     	sell	e		S	pl p
koha	koht	0		S	sg g
    	koha	0		S	sg g
    	koha	0		V	o
    	koha	0		S	sg n
    	koha	0		S	sg p
omanik	omanik	0		S	sg n
Alexei	####				
lesk	lesk	0		S	sg n
Ingel	ingel	0		S	sg n
     	Inge	l		H	sg ad
eidokia	####				
ärasurnud	ära_surnu	d		S	pl n
         	ära_surnud	0		A	
         	ära_surnud	0		A	sg n
         	ära_surnud	d		A	pl n
,	,			Z	
niihästi	nii_hästi	0		D	
see	see	0		P	sg n
elumaja	elu_maja	0		S	sg g
       	elu_maja	0		S	sg n
       	elu_maja	0		S	sg p
,	,			Z	
kui	kui	0		D	
   	kui	0		J	
kõik	kõik	0		P	pl n
    	kõik	0		S	sg n
    	kõik	0		P	sg n
liikuv	liiku	v		V	v
      	liikuv	0		A	sg n
varandus	varandus	0		S	sg n
ees	ees	0		D	
   	ees	0		K	
   	esi	s		S	sg in
leida	leid	a		V	da
,	,			Z	
üles_kirjutada	####				
.	.			Z	
kui	kui	0		D	
   	kui	0		J	
need	see	d		P	pl n
nimetatud	nimeta	tud		V	tud
         	nimetatu	d		S	pl n
         	nimetatud	0		A	
         	nimetatud	0		A	sg n
         	nimetatud	d		A	pl n
kohtuliikmed	kohtu_liige	d		S	pl n
sinna	sinna	0		D	
olid	ole	id		V	sid
läinud	läinu	d		S	pl n
      	läinud	0		A	
      	läinud	0		A	sg n
      	läinud	d		A	pl n
      	mine	nud		V	nud
siis	siis	0		D	
    	siis	0		J	
leidsid	leid	sid		V	sid
nemad	tema	d		P	pl n
sealt	sealt	0		D	
     	siga	lt		A	sg abl
     	siga	lt		S	sg abl
ning	ning	0		J	
pannid	pann	d		S	pl n
kirja	kirja	0		A	
     	kirja	0		V	o
     	kiri	0		S	adt
     	kiri	0		S	sg g
     	kiri	0		S	sg p
üles	üles	0		D	
:	:			Z	
1.	1.	0		O	?
,	,			Z	
üks	üks	0		N	sg n
   	üks	0		P	sg n
vabaniku	####				
maja	maja	0		S	sg g
    	maja	0		S	sg n
    	maja	0		S	sg p
,	,			Z	
10	10	0		N	?
1	1	0		N	?
/	/			Z	
2	2	0		N	?
sülda	süld	0		S	adt
     	süld	0		S	sg p
pik	####				
ning	ning	0		J	
3	3	0		N	?
sülda	süld	0		S	adt
     	süld	0		S	sg p
lai	lai	0		A	sg n
,	,			Z	
kelle	kes	0		P	pl g
     	kes	0		P	sg g
tuba	tuba	0		S	sg n
    	tuba	0		S	sg p
ning	ning	0		J	
kamber	kamber	0		S	sg n
puust	puu	st		S	sg el
     	puune	t		A	sg p
,	,			Z	
raatllane	####				
,	,			Z	
laut	laut	0		S	sg n
ning	ning	0		J	
sauna	saun	0		S	adt
     	saun	0		S	sg g
     	saun	0		S	sg p
hoone	hoone	0		S	sg g
     	hoone	0		S	sg n
enamiste	####				
kivist	kivi	st		S	sg el
      	kivine	t		A	sg p
;	;			Z	
sealsammas	####				
üks	üks	0		N	sg n
   	üks	0		P	sg n
kartuhvli	####				
kamber	kamber	0		S	sg n
kivist	kivi	st		S	sg el
      	kivine	t		A	sg p
,	,			Z	
aga	aga	0		J	
kaunisti	kaunisti	0		D	
Nonenud	####				
,	,			Z	
kõik	kõik	0		P	pl n
    	kõik	0		S	sg n
    	kõik	0		P	sg n
ühe	üks	0		N	sg g
   	üks	0		P	sg g
   	ühe	0		S	sg n
katukse	####				
al	####				
.	.			Z	
2.	2.	0		O	?
,	,			Z	
liikuv	liiku	v		V	v
      	liikuv	0		A	sg n
varandus	varandus	0		S	sg n
:	:			Z	
neli	neli	0		N	sg n
kirstu	kirst	0		S	adt
      	kirst	0		S	sg g
      	kirst	0		S	sg p
,	,			Z	
neist	see	st		P	pl el
     	tema	st		P	pl el
2	2	0		N	?
vana	vana	0		A	sg g
    	vana	0		A	sg n
    	vana	0		A	sg p
    	vana	0		S	sg g
    	vana	0		S	sg n
    	vana	0		S	sg p
,	,			Z	
2	2	0		N	?
uut	uus	t		A	sg p
üks	üks	0		N	sg n
   	üks	0		P	sg n
toidu	toit	0		S	sg g
kap	####				
kaks	kaks	0		N	sg n
kasti	kast	0		S	adt
     	kast	0		S	sg g
     	kast	0		S	sg p
,	,			Z	
kahevakkased	####				
üks	üks	0		N	sg n
   	üks	0		P	sg n
kast	kast	0		S	sg n
,	,			Z	
väike	väike	0		A	sg n
kolm	kolm	0		N	sg n
kalla	kalla	0		V	o
     	kalla	0		S	sg g
     	kalla	0		S	sg n
vaat	vaat	0		I	
    	vaat	0		S	sg n
üks	üks	0		N	sg n
   	üks	0		P	sg n
liha	liha	0		S	sg g
    	liha	0		S	sg n
    	liha	0		S	sg p
sulamise	sulamine	0		S	sg g
vaat	vaat	0		I	
    	vaat	0		S	sg n
kaks	kaks	0		N	sg n
lahtist	lahtine	t		A	sg p
vaat	vaat	0		I	
    	vaat	0		S	sg n
,	,			Z	
kaksteistkümeni	####				
/	/			Z	
12	12	0		N	?
/	/			Z	
räimvõrku	räim_võrk	0		S	adt
         	räim_võrk	0		S	sg p
;	;			Z	
neli	neli	0		N	sg n
vakka	vakk	0		S	adt
     	vakk	0		S	sg p
     	vakka	0		D	
kartuhvliid	####				
kaks	kaks	0		N	sg n
1	1	0		N	?
/	/			Z	
2	2	0		N	?
vk	####				
otra	oder	0		S	adt
    	oder	0		S	sg p
kaks	kaks	0		N	sg n
ve	####				
ämbrid	ämber	d		S	pl n
;	;			Z	
ning	ning	0		J	
1	1	0		N	?
külimiturje	####				
painall	####				
üks	üks	0		N	sg n
   	üks	0		P	sg n
kolme	kolm	0		N	adt
     	kolm	0		N	sg g
     	kolm	0		N	sg p
ämbrine	ämbrine	0		A	sg n
,	,			Z	
vigane	vigane	0		A	sg n
      	vigane	0		S	sg n
pada	pada	0		S	sg g
    	pada	0		S	sg n
    	pada	0		S	sg p
katel	katel	0		S	sg n
üks	üks	0		N	sg n
   	üks	0		P	sg n
paar	paar	0		N	sg n
    	paar	0		S	sg n
vanad	vana	d		A	pl n
     	vana	d		S	pl n
juma	####				
kappad	kappa	d		V	d
üks	üks	0		N	sg n
   	üks	0		P	sg n
lehm	lehm	0		S	sg n
üks	üks	0		N	sg n
   	üks	0		P	sg n
lammas	lammas	0		S	sg n
,	,			Z	
mis	mis	0		P	pl n
   	mis	0		P	sg n
surja	####				
vaestel	vaene	tel		A	pl ad
       	vaene	tel		S	pl ad
lubanud	luba	nud		V	nud
       	luba=nu	d		S	pl n
       	luba=nud	0		A	
       	luba=nud	0		A	sg n
       	luba=nud	d		A	pl n
üls	####				
leiva	leib	0		S	sg g
lõime	loo	ime		V	sime
     	lõim	0		S	adt
     	lõim	0		S	sg g
     	löö	ime		V	sime
     	lõim	0		S	sg p
;	;			Z	
3	3	0		N	?
ümargust	####				
painaltid	####				
üks	üks	0		N	sg n
   	üks	0		P	sg n
sööma	söö	ma		V	ma
     	sööm	0		S	adt
     	sööm	0		S	sg g
     	sööm	0		S	sg p
rend	####				
;	;			Z	
6	6	0		N	?
vikatit	vikat	t		S	sg p
,	,			Z	
4	4	0		N	?
sirpi	sirp	0		S	adt
     	sirp	0		S	sg p
,	,			Z	
1	1	0		N	?
regi	regi	0		S	sg n
,	,			Z	
1	1	0		N	?
pesmer	####				
kui	kui	0		D	
   	kui	0		J	
need	see	d		P	pl n
asjad	asi	d		S	pl n
olid	ole	id		V	sid
kirja	kirja	0		A	
     	kirja	0		V	o
     	kiri	0		S	adt
     	kiri	0		S	sg g
     	kiri	0		S	sg p
pandud	pan=du	d		S	pl n
      	pan=dud	0		A	
      	pan=dud	0		A	sg n
      	pan=dud	d		A	pl n
      	pane	dud		V	tud
,	,			Z	
siis	siis	0		D	
    	siis	0		J	
kinnitas	kinnita	s		V	s
kohtumees	kohtu_mees	0		S	sg n
seda	see	da		P	sg p
meest	meene	t		A	sg p
     	mees	t		S	sg p
     	mesi	st		S	sg el
,	,			Z	
nimega	nimi	ga		S	sg kom
Anton	Anton	0		H	sg n
kesküla	####				
,	,			Z	
kes	kes	0		P	pl n
   	kes	0		P	sg n
seal	seal	0		D	
    	siga	l		A	sg ad
    	siga	l		S	sg ad
majass	####				
elab	ela	b		V	b
,	,			Z	
et	et	0		J	
niihästi	nii_hästi	0		D	
selle	see	0		P	sg g
     	sell	e		S	pl p
maja	maja	0		S	sg g
    	maja	0		S	sg n
    	maja	0		S	sg p
kui	kui	0		D	
   	kui	0		J	
kõige	kõik	0		P	sg g
     	kõige	0		D	
mu	mina	0		P	sg g
varanduse	varandus	0		S	sg g
eest	eest	0		D	
    	eest	0		K	
    	esi	st		S	sg el
,	,			Z	
mis	mis	0		P	pl n
   	mis	0		P	sg n
seal	seal	0		D	
    	siga	l		A	sg ad
    	siga	l		S	sg ad
sees	sees	0		D	
    	sees	0		K	
,	,			Z	
ning	ning	0		J	
nüüd	nüüd	0		D	
ülespandud	üles_pandud	0		A	
          	üles_pandud	0		A	sg n
          	üles_pandud	d		A	pl n
,	,			Z	
õieti	õieti	0		D	
peab	pida	b		V	b
hoolt	hoog	lt		S	sg abl
     	hool	t		S	sg p
kandma	kand	ma		V	ma
,	,			Z	
et	et	0		J	
üks	üks	0		N	sg n
   	üks	0		P	sg n
sealt	sealt	0		D	
     	siga	lt		A	sg abl
     	siga	lt		S	sg abl
ei	ei	0		D	
  	ei	0		V	neg
sa	sina	0		P	sg n
kaduma	kadu	ma		V	ma
minna	mine	a		V	da
.	.			Z	
