Lümanda	Lümanda	0		H	sg g
       	Lümanda	0		H	sg n
vallast	vald	st		S	sg el
Tiina	Tiina	0		H	sg g
     	Tiina	0		H	sg n
meiius	####				
tuli	tuli	0		S	sg n
    	tule	i		V	s
täna	täna	0		D	
    	täna	0		V	o
ja	ja	0		J	
maksis	maks	is		V	s
      	maksi	s		S	sg in
55	55	0		N	?
rubla	rubla	0		S	sg g
     	rubla	0		S	sg n
     	rubla	0		S	sg p
sisse	siss	e		S	pl p
     	sisse	0		D	
     	sisse	0		K	
mis	mis	0		P	pl n
   	mis	0		P	sg n
Mihkel	Mihkel	0		H	sg n
      	mihkel	0		A	sg n
      	mihkel	0		S	sg n
Kraun	####				
Nr	Nr	0		Y	?
16al	####				
tema	tema	0		P	sg g
    	tema	0		P	sg n
lastele	laps	tele		S	pl all
lubasid	luba	sid		S	pl p
       	luba	sid		V	sid
jääda	jää	da		V	da
     	jää	da		V	ta
sest	see	st		P	sg el
    	sest	0		J	
rahast	raha	st		S	sg el
tuleb	tule	b		V	b
Tiina	Tiina	0		H	sg g
     	Tiina	0		H	sg n
mehe	mees	0		S	sg g
Ado	Ado	0		H	sg g
   	Ado	0		H	sg n
lastele	laps	tele		S	pl all
Hanni	####				
toitumiseks	toitumine	ks		S	sg tr
...	...			Z	
2	2	0		N	?
rubla	rubla	0		S	sg g
     	rubla	0		S	sg n
     	rubla	0		S	sg p
50	50	0		N	?
kop	kop	0		Y	?
Hanni	####				
matmiseks	matmine	ks		S	sg tr
viina	viin	0		S	adt
     	viin	0		S	sg g
     	viin	0		S	sg p
10	10	0		N	?
toopi	toop	0		S	adt
     	toop	0		S	sg p
2	2	0		N	?
rubla	rubla	0		S	sg g
     	rubla	0		S	sg n
     	rubla	0		S	sg p
2	2	0		N	?
Küllimitu	####				
ruk	####				
1	1	0		N	?
rubla	rubla	0		S	sg g
     	rubla	0		S	sg n
     	rubla	0		S	sg p
20	20	0		N	?
kop	kop	0		Y	?
3	3	0		N	?
küünart	küünar	t		S	sg p
pallaka	####				
riiet	riie	t		S	sg p
36	36	0		N	?
kop	kop	0		Y	?
kihelkonna	kihelkond	0		S	sg g
kohtus	kohtu	s		V	s
      	kohus	s		S	sg in
mõistetud	mõist	tud		V	tud
         	mõiste=tu	d		S	pl n
         	mõiste=tud	0		A	
         	mõiste=tud	0		A	sg n
         	mõiste=tud	d		A	pl n
Peetri	Peeter	0		H	sg g
      	Peetri	0		H	sg g
      	Peetri	0		H	sg n
elu	elu	0		S	sg g
   	elu	0		S	sg n
   	elu	0		S	sg p
tu	####				
võlg	võlg	0		S	sg n
14	14	0		N	?
rubla	rubla	0		S	sg g
     	rubla	0		S	sg n
     	rubla	0		S	sg p
20	20	0		N	?
kop	kop	0		Y	?
Hanni	####				
toitmise	toitmine	0		S	sg g
võlg	võlg	0		S	sg n
11	11	0		N	?
rubla	rubla	0		S	sg g
     	rubla	0		S	sg n
     	rubla	0		S	sg p
10	10	0		N	?
kop	kop	0		Y	?
ühte	ühte	0		D	
    	üks	0		N	adt
    	üks	0		P	adt
    	ühe	0		S	sg g
    	üks	0		N	sg p
    	üks	0		P	sg p
kokku	kokku	0		D	
     	kogu	0		S	adt
31	31	0		N	?
rubla	rubla	0		S	sg g
     	rubla	0		S	sg n
     	rubla	0		S	sg p
36	36	0		N	?
kop	kop	0		Y	?
ülle	ülle	0		D	
jäi	jää	i		V	s
elu	elu	0		S	sg g
   	elu	0		S	sg n
   	elu	0		S	sg p
raha	raha	0		S	sg g
    	raha	0		S	sg n
    	raha	0		S	sg p
24	24	0		N	?
rubla	rubla	0		S	sg g
     	rubla	0		S	sg n
     	rubla	0		S	sg p
19	19	0		N	?
kop	kop	0		Y	?
seda	see	da		P	sg p
raha	raha	0		S	sg g
    	raha	0		S	sg n
    	raha	0		S	sg p
jagavad	jaga	vad		V	vad
       	jagav	d		A	pl n
Hanni	####				
lesk	lesk	0		S	sg n
Miina	Miina	0		H	sg g
     	Miina	0		H	sg n
pojad	poeg	d		S	pl n
     	poja	d		S	pl n
Mats	Mats	0		H	sg n
    	mats	0		A	sg n
    	mats	0		S	sg n
,	,			Z	
Ado	Ado	0		H	sg g
   	Ado	0		H	sg n
,	,			Z	
pojad	poeg	d		S	pl n
     	poja	d		S	pl n
ja	ja	0		J	
Peeter	Peeter	0		H	sg n
Jüri	Jüri	0		H	sg g
    	Jüri	0		H	sg n
Jakob	Jakob	0		H	sg n
Mihkel	Mihkel	0		H	sg n
      	mihkel	0		A	sg n
      	mihkel	0		S	sg n
need	see	d		P	pl n
7	7	0		N	?
jagu	jagu	0		S	sg n
    	jagu	0		V	o
    	jagu	0		S	sg p
saab	saa	b		V	b
sest	see	st		P	sg el
    	sest	0		J	
tehtud	tehtu	d		S	pl n
      	tehtud	0		A	
      	tehtud	0		A	sg n
      	tehtud	d		A	pl n
      	tege	tud		V	tud
6	6	0		N	?
poega	poeg	0		S	adt
     	pood	ga		S	sg kom
     	poeg	0		S	sg p
saavad	saa	vad		V	vad
      	saav	d		A	pl n
      	saav	d		S	pl n
igaüks	iga_üks	0		P	sg n
3	3	0		N	?
rubla	rubla	0		S	sg g
     	rubla	0		S	sg n
     	rubla	0		S	sg p
45	45	0		N	?
1	1	0		N	?
/	/			Z	
2	2	0		N	?
kop	kop	0		Y	?
ja	ja	0		J	
Hanni	####				
lesk	lesk	0		S	sg n
saab	saa	b		V	b
3	3	0		N	?
rubla	rubla	0		S	sg g
     	rubla	0		S	sg n
     	rubla	0		S	sg p
46	46	0		N	?
kop	kop	0		Y	?
.	.			Z	
Peeter	Peeter	0		H	sg n
meiius	####				
võttis	võt	is		V	s
oma	oma	0		A	sg g
   	oma	0		D	
   	oma	0		P	sg g
   	oma	0		S	sg g
   	oma	0		V	o
   	oma	0		A	sg n
   	oma	0		A	sg p
   	oma	0		P	sg n
   	oma	0		P	sg p
   	oma	0		S	sg n
   	oma	0		S	sg p
raha	raha	0		S	sg g
    	raha	0		S	sg n
    	raha	0		S	sg p
3	3	0		N	?
rubla	rubla	0		S	sg g
     	rubla	0		S	sg n
     	rubla	0		S	sg p
45	45	0		N	?
1	1	0		N	?
/	/			Z	
2	2	0		N	?
kop	kop	0		Y	?
ja	ja	0		J	
venna	vend	0		S	sg g
Jakobi	Jakob	0		H	sg g
3	3	0		N	?
rubla	rubla	0		S	sg g
     	rubla	0		S	sg n
     	rubla	0		S	sg p
45	45	0		N	?
1	1	0		N	?
/	/			Z	
2	2	0		N	?
kop	kop	0		Y	?
ja	ja	0		J	
Hanni	####				
lesse	####				
Miina	Miina	0		H	sg g
     	Miina	0		H	sg n
3	3	0		N	?
rubla	rubla	0		S	sg g
     	rubla	0		S	sg n
     	rubla	0		S	sg p
46	46	0		N	?
kop	kop	0		Y	?
Jürna	####				
,	,			Z	
Matsi	Mats	0		H	adt
     	Mats	0		H	sg g
     	mats	0		A	adt
     	mats	0		A	sg g
     	mats	0		S	adt
     	mats	0		S	sg g
     	Mats	0		H	sg p
     	mats	0		A	sg p
     	mats	0		S	sg p
ja	ja	0		J	
Mihkli	Mihkel	0		H	sg g
      	Mihkli	0		H	sg g
      	mihkel	0		A	sg g
      	mihkel	0		S	sg g
      	Mihkli	0		H	sg n
raha	raha	0		S	sg g
    	raha	0		S	sg n
    	raha	0		S	sg p
sai	saa	i		V	s
   	sai	0		S	sg n
kohtu	kohtu	0		V	o
     	kohus	0		S	sg g
juurde	juur	de		S	adt
      	juurde	0		D	
      	juurde	0		K	
tagasi	tagasi	0		D	
      	tagasi	0		K	
jäetatud	####				
et	et	0		J	
Peeter	Peeter	0		H	sg n
oma	oma	0		A	sg g
   	oma	0		D	
   	oma	0		P	sg g
   	oma	0		S	sg g
   	oma	0		V	o
   	oma	0		A	sg n
   	oma	0		A	sg p
   	oma	0		P	sg n
   	oma	0		P	sg p
   	oma	0		S	sg n
   	oma	0		S	sg p
Jakobi	Jakob	0		H	sg g
ja	ja	0		J	
ema	ema	0		S	sg g
   	ema	0		S	sg n
   	ema	0		S	sg p
raha	raha	0		S	sg g
    	raha	0		S	sg n
    	raha	0		S	sg p
on	ole	0		V	b
  	ole	0		V	vad
välja	välja	0		D	
     	välja	0		V	o
     	väli	0		S	adt
     	väli	0		S	sg g
     	väli	0		S	sg p
võtnud	võt	nud		V	nud
      	võt=nu	d		S	pl n
      	võt=nud	0		A	
      	võt=nud	0		A	sg n
      	võt=nud	d		A	pl n
tunnistab	tunnista	b		V	b
tõeks	tõde	ks		S	sg tr
     	tõsi	ks		S	sg tr
Peeter	Peeter	0		H	sg n
meiius	####				
XXX	XXX	0		O	?
   	XXX	0		Y	?
Ado	Ado	0		H	sg g
   	Ado	0		H	sg n
Meiuse	####				
laste	laps	te		S	pl g
     	last	e		S	pl p
raha	raha	0		S	sg g
    	raha	0		S	sg n
    	raha	0		S	sg p
on	ole	0		V	b
  	ole	0		V	vad
välja	välja	0		D	
     	välja	0		V	o
     	väli	0		S	adt
     	väli	0		S	sg g
     	väli	0		S	sg p
võtnud	võt	nud		V	nud
      	võt=nu	d		S	pl n
      	võt=nud	0		A	
      	võt=nud	0		A	sg n
      	võt=nud	d		A	pl n
laste	laps	te		S	pl g
     	last	e		S	pl p
eestkostja	eest_kostja	0		S	sg g
          	eest_kostja	0		S	sg n
Ado	Ado	0		H	sg g
   	Ado	0		H	sg n
kasin	kasi	n		V	n
     	kasin	0		A	sg n
XXX	XXX	0		O	?
   	XXX	0		Y	?
