siis	siis	0		D	
    	siis	0		J	
astus	astu	s		V	s
ette	ette	0		D	
    	ette	0		K	
    	esi	tte		S	adt
kingli	####				
vallast	vald	st		S	sg el
Jakov	####				
salm	salm	0		S	sg n
ning	ning	0		J	
kaebas	kaeba	s		V	s
et	et	0		J	
tema	tema	0		P	sg g
    	tema	0		P	sg n
poeg	poeg	0		S	sg n
Vassili	Vassili	0		H	sg g
       	Vassili	0		H	sg n
seda	see	da		P	sg p
1884	1884	0		N	?
aastal	aasta	l		S	sg ad
6al	####				
oktoobri	oktoober	0		S	sg g
ku	####				
päeval	päev	l		S	sg ad
kogukonna	kogukond	0		S	sg g
kohtu	kohtu	0		V	o
     	kohus	0		S	sg g
ees	ees	0		D	
   	ees	0		K	
   	esi	s		S	sg in
lubatud	luba	tud		V	tud
       	luba=tu	d		S	pl n
       	lubatu	d		A	pl n
       	lubatud	0		A	
       	lubatud	0		A	sg n
       	lubatud	d		A	pl n
kaupa	kaup	0		S	adt
     	kaup	0		S	sg p
     	kaupa	0		K	
epoole	####				
pidanud	pida	nud		V	nud
       	pida=nu	d		S	pl n
       	pida=nud	0		A	
       	pida=nud	0		A	sg n
       	pida=nud	d		A	pl n
,	,			Z	
ja	ja	0		J	
ei	ei	0		D	
  	ei	0		V	neg
anda	and	a		V	da
temale	tema	le		P	sg all
mitte	mitte	0		D	
mingisugust	mingi_sugune	t		P	sg p
riista	riist	0		S	adt
      	riist	0		S	sg g
      	riist	0		S	sg p
mis	mis	0		P	pl n
   	mis	0		P	sg n
ta	tema	0		P	sg g
  	tema	0		P	sg n
oma	oma	0		A	sg g
   	oma	0		D	
   	oma	0		P	sg g
   	oma	0		S	sg g
   	oma	0		V	o
   	oma	0		A	sg n
   	oma	0		A	sg p
   	oma	0		P	sg n
   	oma	0		P	sg p
   	oma	0		S	sg n
   	oma	0		S	sg p
muretsetud	muretse	tud		V	tud
          	muretse=tu	d		S	pl n
          	muretse=tud	0		A	
          	muretse=tud	0		A	sg n
          	muretse=tud	d		A	pl n
olla	ole	a		V	da
,	,			Z	
seepärast	see_pärast	0		D	
tahab	taht	b		V	b
tema	tema	0		P	sg g
    	tema	0		P	sg n
oma	oma	0		A	sg g
   	oma	0		D	
   	oma	0		P	sg g
   	oma	0		S	sg g
   	oma	0		V	o
   	oma	0		A	sg n
   	oma	0		A	sg p
   	oma	0		P	sg n
   	oma	0		P	sg p
   	oma	0		S	sg n
   	oma	0		S	sg p
kraami	kraam	0		S	adt
      	kraam	0		S	sg g
      	kraami	0		V	o
      	kraam	0		S	sg p
lasta	lask	ta		V	da
     	lask	ta		V	ta
üles	üles	0		D	
kirjuta	kirju	ta		A	sg ab
       	kirjuta	0		V	o
,	,			Z	
ja	ja	0		J	
auksioni	####				
viisil	viis	l		S	sg ad
      	viisil	0		K	
ära	ära	0		D	
   	ära	0		V	neg o
müüa	müü	a		V	da
,	,			Z	
ning	ning	0		J	
oomad	####				
võlad	võlg	d		S	pl n
ära	ära	0		D	
   	ära	0		V	neg o
maksta	maks	ta		V	da
      	maks	ta		V	ta
ja	ja	0		J	
teiste	teine	te		O	pl g
      	teine	te		P	pl g
laste	laps	te		S	pl g
     	last	e		S	pl p
abiga	abi	ga		S	sg kom
oma	oma	0		A	sg g
   	oma	0		D	
   	oma	0		P	sg g
   	oma	0		S	sg g
   	oma	0		V	o
   	oma	0		A	sg n
   	oma	0		A	sg p
   	oma	0		P	sg n
   	oma	0		P	sg p
   	oma	0		S	sg n
   	oma	0		S	sg p
elu	elu	0		S	sg g
   	elu	0		S	sg n
   	elu	0		S	sg p
ülespidada	####				
ilma	ilm	0		S	adt
    	ilm	0		S	sg g
    	ilma	0		D	
    	ilma	0		K	
    	ilm	0		S	sg p
et	et	0		J	
tema	tema	0		P	sg g
    	tema	0		P	sg n
Vassili	Vassili	0		H	sg g
       	Vassili	0		H	sg n
käest	käest	0		K	
     	käsi	st		S	sg el
mingisugust	mingi_sugune	t		P	sg p
tahab	taht	b		V	b
tema	tema	0		P	sg g
    	tema	0		P	sg n
arvab	arva	b		V	b
et	et	0		J	
ta	tema	0		P	sg g
  	tema	0		P	sg n
kraam	kraam	0		S	sg n
võla	võlg	0		S	sg g
selgeks	selge	ks		A	sg tr
teeb	tege	b		V	b
,	,			Z	
ja	ja	0		J	
oma	oma	0		A	sg g
   	oma	0		D	
   	oma	0		P	sg g
   	oma	0		S	sg g
   	oma	0		V	o
   	oma	0		A	sg n
   	oma	0		A	sg p
   	oma	0		P	sg n
   	oma	0		P	sg p
   	oma	0		S	sg n
   	oma	0		S	sg p
elu	elu	0		S	sg g
   	elu	0		S	sg n
   	elu	0		S	sg p
ülespidamiseks	üles_pidamine	ks		S	sg tr
ka	ka	0		D	
üle	üle	0		D	
   	üle	0		K	
jääb	jää	b		V	b
.	.			Z	
aga	aga	0		J	
kogukonna	kogukond	0		S	sg g
kohus	kohu	s		V	s
     	kohus	0		S	sg n
ei	ei	0		D	
  	ei	0		V	neg
võinud	või	nud		V	nud
      	või=nu	d		S	pl n
      	või=nud	0		A	
      	või=nud	0		A	sg n
      	või=nud	d		A	pl n
seda	see	da		P	sg p
lubada	luba	da		V	da
,	,			Z	
andis	and	is		V	s
seda	see	da		P	sg p
kioovimist	####				
keiserliku	keiserlik	0		A	sg g
nõelkonna	nõel_konn	0		S	adt
         	nõel_konn	0		S	sg g
         	nõel_konn	0		S	sg p
hooleks	hool	ks		S	sg tr
.	.			Z	
kogukonna	kogukond	0		S	sg g
kohtu	kohtu	0		V	o
     	kohus	0		S	sg g
pea	pea	0		D	
   	pea	0		S	sg g
   	pida	0		V	o
   	pea	0		S	sg n
Jakov	####				
ajit	####				
XXX	XXX	0		O	?
   	XXX	0		Y	?
