kohus	kohu	s		V	s
     	kohus	0		S	sg n
oli	ole	i		V	s
kuulda	kuul	da		V	da
      	kuul	da		V	ta
saanud	saa	nud		V	nud
      	saa=nud	0		A	
      	saa=nud	0		A	sg n
      	saa=nud	d		A	pl n
      	saanu	d		S	pl n
et	et	0		J	
Nikkuste	nikk_uks	te		S	pl g
Maits	####				
meiiust	####				
oli	ole	i		V	s
mineva	minev	0		A	sg g
sügise	sügis	0		S	sg g
linase	linane	0		A	sg g
heinamaalt	heina_maa	lt		S	sg abl
heino	####				
ära	ära	0		D	
   	ära	0		V	neg o
müünud	müü	nud		V	nud
      	müü=nu	d		S	pl n
      	müü=nud	0		A	
      	müü=nud	0		A	sg n
      	müü=nud	d		A	pl n
,	,			Z	
sai	saa	i		V	s
   	sai	0		S	sg n
siis	siis	0		D	
    	siis	0		J	
see	see	0		P	sg n
Maits	####				
meiius	####				
kästud	käs=tu	d		S	pl n
      	käs=tud	0		A	
      	käs=tud	0		A	sg n
      	käs=tud	d		A	pl n
      	käski	tud		V	tud
kohtu	kohtu	0		V	o
     	kohus	0		S	sg g
ette	ette	0		D	
    	ette	0		K	
    	esi	tte		S	adt
tulla	tule	a		V	da
ja	ja	0		J	
sai	saa	i		V	s
   	sai	0		S	sg n
küsitud	küsi	tud		V	tud
       	küsi=tu	d		S	pl n
       	küsi=tud	0		A	
       	küsi=tud	0		A	sg n
       	küsi=tud	d		A	pl n
kuidas	kuidas	0		D	
tema	tema	0		P	sg g
    	tema	0		P	sg n
on	ole	0		V	b
  	ole	0		V	vad
tohinud	####				
Linnassoolt	####				
heinamaad	heina_maa	d		S	pl n
         	heina_maa	d		S	sg p
ära	ära	0		D	
   	ära	0		V	neg o
müüa	müü	a		V	da
?	?			Z	
eks	eks	0		D	
   	eks	0		S	sg n
   	eks	0		Y	?
tema	tema	0		P	sg g
    	tema	0		P	sg n
ei	ei	0		D	
  	ei	0		V	neg
ole	ole	0		V	o
seda	see	da		P	sg p
mitte	mitte	0		D	
kuuelnud	####				
et	et	0		J	
see	see	0		P	sg n
kõvaste	####				
keeldud	keeldu	d		V	d
on	ole	0		V	b
  	ole	0		V	vad
,	,			Z	
siis	siis	0		D	
    	siis	0		J	
ütles	ütle	s		V	s
see	see	0		P	sg n
Maits	####				
et	et	0		J	
tema	tema	0		P	sg g
    	tema	0		P	sg n
ei	ei	0		D	
  	ei	0		V	neg
poole	pool	0		N	sg g
     	pool	0		S	sg g
     	pool	e		S	pl p
     	poole	0		K	
     	poole	0		S	sg n
ühelegi	üks	le	gi	N	sg all
       	üks	le	gi	P	sg all
mitte	mitte	0		D	
ühte	ühte	0		D	
    	üks	0		N	adt
    	üks	0		P	adt
    	ühe	0		S	sg g
    	üks	0		N	sg p
    	üks	0		P	sg p
raua	raud	0		S	sg g
täit	täis	t		A	sg p
    	täis	t		S	sg p
heinamaad	heina_maa	d		S	pl n
         	heina_maa	d		S	sg p
andnud	and	nud		V	nud
      	and=nu	d		S	pl n
      	and=nud	0		A	
      	and=nud	0		A	sg n
      	and=nud	d		A	pl n
aga	aga	0		J	
kaks	kaks	0		N	sg n
koorma	koorem	0		S	sg g
      	koorma	0		V	o
valmis	valm	s		S	sg in
      	valmi	s		V	s
      	valmis	0		A	
      	valmis	0		A	sg n
      	valmis	0		D	
      	valmis	s		A	sg in
tehtud	tehtu	d		S	pl n
      	tehtud	0		A	
      	tehtud	0		A	sg n
      	tehtud	d		A	pl n
      	tege	tud		V	tud
heino	####				
on	ole	0		V	b
  	ole	0		V	vad
ta	tema	0		P	sg g
  	tema	0		P	sg n
andnud	and	nud		V	nud
      	and=nu	d		S	pl n
      	and=nud	0		A	
      	and=nud	0		A	sg n
      	and=nud	d		A	pl n
ühe	üks	0		N	sg g
   	üks	0		P	sg g
   	ühe	0		S	sg n
mära	mära	0		S	sg g
    	mära	0		S	sg n
    	mära	0		S	sg p
sälu	sälg	0		S	sg g
eest	eest	0		D	
    	eest	0		K	
    	esi	st		S	sg el
mis	mis	0		P	pl n
   	mis	0		P	sg n
ta	tema	0		P	sg g
  	tema	0		P	sg n
enesele	ise	le		P	sg all
on	ole	0		V	b
  	ole	0		V	vad
ostnud	ost	nud		V	nud
      	ost=nu	d		S	pl n
      	ost=nud	0		A	
      	ost=nud	0		A	sg n
      	ost=nud	d		A	pl n
,	,			Z	
sai	saa	i		V	s
   	sai	0		S	sg n
temale	tema	le		P	sg all
vastatud	vasta	tud		V	tud
        	vasta=tu	d		S	pl n
        	vasta=tud	0		A	
        	vasta=tud	0		A	sg n
        	vasta=tud	d		A	pl n
seda	see	da		P	sg p
oleks	ole	ks		V	ks
tema	tema	0		P	sg g
    	tema	0		P	sg n
pidanud	pida	nud		V	nud
       	pida=nu	d		S	pl n
       	pida=nud	0		A	
       	pida=nud	0		A	sg n
       	pida=nud	d		A	pl n
katsima	####				
kuidas	kuidas	0		D	
ta	tema	0		P	sg g
  	tema	0		P	sg n
seda	see	da		P	sg p
oleks	ole	ks		V	ks
selgeks	selge	ks		A	sg tr
saanud	saa	nud		V	nud
      	saa=nud	0		A	
      	saa=nud	0		A	sg n
      	saa=nud	d		A	pl n
      	saanu	d		S	pl n
ning	ning	0		J	
mitte	mitte	0		D	
sügise	sügis	0		S	sg g
oma	oma	0		A	sg g
   	oma	0		D	
   	oma	0		P	sg g
   	oma	0		S	sg g
   	oma	0		V	o
   	oma	0		A	sg n
   	oma	0		A	sg p
   	oma	0		P	sg n
   	oma	0		P	sg p
   	oma	0		S	sg n
   	oma	0		S	sg p
põhku	põhk	0		S	adt
     	põhk	0		S	sg p
ära	ära	0		D	
   	ära	0		V	neg o
püluma	####				
et	et	0		J	
elajad	elajas	d		S	pl n
nälja	nälg	0		S	sg g
läbi	läbi	0		D	
    	läbi	0		K	
    	läbi	0		V	o
nii	nii	0		D	
rammotomaks	####				
jäevad	####				
ning	ning	0		J	
mitte	mitte	0		D	
teo	tegu	0		S	sg g
   	tigu	0		S	sg g
päeva	päev	0		S	adt
     	päev	0		S	sg g
     	päev	0		S	sg p
õigel	õige	l		A	sg ad
viisil	viis	l		S	sg ad
      	viisil	0		K	
selgeks	selge	ks		A	sg tr
ei	ei	0		D	
  	ei	0		V	neg
taha	taht	0		V	o
    	taha	0		D	
    	taha	0		K	
saaja	saaja	0		S	sg g
     	saaja	0		S	sg n
.	.			Z	
sai	saa	i		V	s
   	sai	0		S	sg n
siis	siis	0		D	
    	siis	0		J	
selle	see	0		P	sg g
     	sell	e		S	pl p
üle	üle	0		D	
   	üle	0		K	
mõistetud	mõist	tud		V	tud
         	mõiste=tu	d		S	pl n
         	mõiste=tud	0		A	
         	mõiste=tud	0		A	sg n
         	mõiste=tud	d		A	pl n
et	et	0		J	
see	see	0		P	sg n
Maits	####				
pidi	pida	i		V	s
    	pidi	0		K	
20	20	0		N	?
lööki	löök	0		S	adt
     	löök	0		S	sg p
keppi	kepp	0		S	adt
     	kepp	0		S	sg p
saama	saa	ma		V	ma
     	saam	0		S	adt
     	saam	0		S	sg g
     	saam	0		S	sg p
.	.			Z	
kohtu	kohtu	0		V	o
     	kohus	0		S	sg g
vanem	vanem	0		C	sg n
     	vanem	0		S	sg n
Hindrik	####				
Huss	####				
kohtu	kohtu	0		V	o
     	kohus	0		S	sg g
mees	mees	0		S	sg n
    	mesi	s		S	sg in
Mihkel	Mihkel	0		H	sg n
      	mihkel	0		A	sg n
      	mihkel	0		S	sg n
Nurja	nurja	0		D	
     	nurja	0		V	o
""""	""""			Z	
""""	""""			Z	
Hain	Hain	0		H	sg n
Rog	Rog	0		H	sg n
kirjutaja	kirjutaja	0		S	sg g
         	kirjutaja	0		S	sg n
Johann	Johann	0		H	sg n
Huum	####				
