Sindis, Saia talus.
Awaliku kuulutamise peale sai protokoll N: 103al, 1884 aastal üles wõetud Andres Hendreksoni kraam, ehk Inwentar oksjoni wiisil tänasel päewal ära müüdud ja nimelt:N:			Asja nimi			Ära ostja nimi						
Wäärtus rbl.						kop		1			1 must 7a. ruun			Joh. Thal			52			30		2			Kimmel mära 2 a			Joh. Ehrbusch			35			25		3			walge kirja 1 p.a. lehm			Hendrek Walter			26			-		4			1 aast. härg			Joh. Jantson			25			50		5			- " - lehm			Ann Lipmann			23			10		6			1 lehmik wasikas			Juri Kuckk			11			25		7			1 - " -			Suura Hendrek Reinhold			8			50		8			1 wana lammas			LaurP?			3			20		9			1 - " -			Mihkel Ostras			2			70		10			1 noor - " -			Rätsepa Juri			1			33		11			1 - " -  			Liisa Hendrekson			-			20		12			1 kult			Rääsa Andres			7			15								Loomad summa:			196			48		1			puuaksidega wanger			Mihkel Järwesson			3			15		2			puuwanger			Juri Pusse			-			50		3			kahe rataga kaarik			Jaan Elen			-			40		4			raudaksidega wanger			Kuuse Jaak			8			45		5			rautud regi			Närju Jakob			1			80		6			rautud regi			Kuuse Jaak			1			22		7			kresla			Rummu Jakob			5			45		8			äkke pakkud			Hendrek Kumm			-			10		9			raud äkke			Toomas Ostrat			1			10		10			- " -			Mihkel Tölp			1			15		11			ader			Rääsa Andres			-			38		12			ka			? Kuuse Jaak			1			01		13			ühe poolega kapp			? ka			1			65		14			raud põhjaga sari			Sepp Kuller			-			90		15			arw sari			Jaan Ollino			-			70		16			suur taari nõu			Rätsepa Juri			1			-		17			2 pangene pada			Kooli Hendrek			-			55		18			1 külimit			Matsi Jaak reinhold			-			27		19			1 labidas			Joh. Ehrbusch			-			6		20			nahk rangid			Juri Pusse			-			83		21			adra raud paelad			Rätsepa Juri			-			51		22			sadula jalused			Laur Pernau			-			50		23			heina hang			Jakob Jantson			-			27		24			3 pinta			Juri Pusse			-			20		25			3 ka.			Laur Pernau			-			20		26			3 wikated			Sepp Kuller			-			21		27			2 kirwest			Rätsepa Juri			-			57		28			1 räime pütt			Karl Paat			-			40		29			riiete kirst			Kuuse Jaak			-			85		30			wilja kirst			Rummu Jakob			-			45		31			wilja kirst			? Suura Jakob			-			48		32			suur wilja tonn			ka			-			32		33			12 wakane wilja kast			Juri Pusse			-			95		34			lina seemne sari			Pulli Juri			1			-		35			wäike nõu			Tõnis Männikson			- 			5		36			wäike nõu			Mihkel Järweson			-			10		37			 - " - ummik			rätsep Kuck			-			3		38			2 küünla kirnu			Mart Lepp			-			3		39			30 toobine ankur			Rummu Jakob			1			-		40			1 nelja wakane nõu			Juri Juurikson			-			35		41			1 wiie wakane jahu nõu			Jaan ? uut			1			-		42			1 kitsas nõu			Mihkel ?ärwesson			-			5		43			1 wäike kast			Mihkel Roots			-			16		44			1 soolase pütt			H.Sternfeld			-			6		45			1 1/2 wakane nõu			Juri Pusse			-			3		46			wäike laud			Joosep Linda			-			5		47			lammaste rauad			Kuuse Jaak			-			12		48			3 sirpi			Pursi Juri			-			10		49			3 - " -			ei pakkunud keegi			-			-		50			1 liht sirp			Juri Juurikson			-			59		51			 wäike nõu			Juri Pusse			-			5					
52						1 wäike ankuri			Juri Pusse			-			60		53			1 wõi masin			Rummu Jakob			1			80		54			piima kirn			Kuuse Jaak			-			55		55			piima lüpsik			Pulli Juri			-			12		56			2 lassi			Suura Jakob			-			30		57			väike kapp			Schmidt			-			6		58			käärpuud			? Kuuse Jaak 			-			15		59			käsi saag			Mihkel Jarwesuu			-			21		60			lo?k saag			Kuuse Jaak			1			30		61			wask pasmer 45 lt			Rummu Jakob			1			05		62			kanga teljed			Kuuse Jaak			-			35		63			1 pikkpakk			Jaan Hanson			-			46		64			1 woki			KuuseJaak			-			30		65			1 ohert päraga			Jakob Eberhardt			-			15		66			kandiline laud			? Jüri Pusse			-			40		67			lina masin			Joh. Jantson			6			10		68			2 willa kraasid			Nõmme Juri			-			14		69			ühed - " - 			Pulp			-			5		70			2 peitelt			Juri Pusse			-			5		71			suur pada saunas			Suura Hendrek			1			50		72			pesu küna			ka			-			60		73			uhtumise riie			Juri Pusse			-			50		74			riiete kirst			ka			-			50		75			lühter			Kuuse Jaak			-			6		76			2 willa wakka			Juri Pusse			-			2		77			1 soola pütt			Jaak Reinhold			-			5		78			1 labidas			Juri Pusse			-			3		79			1 tuup			Roots			-			3		80			3 kanga suga			Juri Pusse			-			3		81			3 niied			ka			-			16		82			lina hari			M.Ostrast			-			6		83			niie jalad			Suura Jakob			-			4		84			Klaasid			Juri Pusse						
- 						2		85			lina kraas			Sepp Kuller			-			15		86			look			Kuuse Jaak			-			11		87			look			Sepp Kuller			-			20		88			look			Jaan Junt			-			5		89			palgi kelk			Matsi Jaak Mattiesen			-			16		90			iste			Suura Jakob			-			3		91			suur tann			Kooli Hendrek			-			8		92			ka			ka			-			41		93			wilja tann			Juri Pusse			-			5		94			4 rehe reha			Wiira Kuck			-			15		95			wee pang			Karja Juhan			-			8		96			külimit			Pulli Toomas			-			23		97			wana leiwa kapi			Nõmme wana Karel			 -			25		98			puu rangid			Niido Jaan Prus			-			80		99			weel			ka			-			7		100			telka			Karl Poot			-			20		101			2 kaussi			Juri Pusse			-			10		102			Pada			? Kuuse Jaak			-			50		103			hasmlid			Sepp Kuller			-			5								Summa			62			76								Loomade wäärtus			196			48								Ülepea summa			259			24		
See summa jäeb seniks kog. kohtu kätte, kuni kohtu ees seaduslikult wõla pärimised ? saawad.
Kog. kohtu nimel:
Eesistnik: Juri Pusse
Waata protokoll N: 24,39,82.
Kirj. J.Heinrichson
