Haslava	####				
kogukonna	kogukond	0		S	sg g
kohus	kohu	s		V	s
     	kohus	0		S	sg n
sel	see	l		P	sg ad
   	sel	0		Y	?
18	18	0		N	?
Augustil	august	l		S	sg ad
        	August	l		H	sg ad
1878	1878	0		N	?
juures	juur	s		S	sg in
      	juures	0		D	
      	juures	0		K	
istus	ist	s		S	sg in
     	istu	s		V	s
:	:			Z	
Peakohtumees	pea_kohtu_mees	0		S	sg n
Mihkel	Mihkel	0		H	sg n
      	mihkel	0		A	sg n
      	mihkel	0		S	sg n
Klaos	####				
kohtumees	kohtu_mees	0		S	sg n
Johan	Johan	0		H	sg n
Ling	ling	0		S	sg n
dito	####				
Johan	Johan	0		H	sg n
Udel	####				
tüli	tüli	0		S	sg g
    	tüli	0		S	sg n
    	tüli	0		S	sg p
ette	ette	0		D	
    	ette	0		K	
    	esi	tte		S	adt
Johan	Johan	0		H	sg n
sepa	sepp	0		S	sg g
ja	ja	0		J	
kaebas	kaeba	s		V	s
,	,			Z	
et	et	0		J	
Alexander	Alexander	0		H	sg n
Nõmmits	####				
ei	ei	0		D	
  	ei	0		V	neg
ole	ole	0		V	o
allnimetud	all_nimetu	d		A	pl n
punktid	punkt	d		S	pl n
       	punkti	d		V	d
tema	tema	0		P	sg g
    	tema	0		P	sg n
vastu	vastu	0		D	
     	vastu	0		K	
täitnud	täit	nud		V	nud
       	täit=nu	d		S	pl n
       	täit=nud	0		A	
       	täit=nud	0		A	sg n
       	täit=nud	d		A	pl n
ning	ning	0		J	
nimelt	nimelt	0		D	
      	nimi	lt		S	sg abl
:	:			Z	
1	1	0		N	?
)	)			Z	
ei	ei	0		D	
  	ei	0		V	neg
ole	ole	0		V	o
Nõmmits	####				
temale	tema	le		P	sg all
kortenit	####				
annud	####				
nõnda	nõnda	0		D	
kui	kui	0		D	
   	kui	0		J	
kaubategemise	kauba_tegemine	0		S	sg g
aeal	####				
lubanud	luba	nud		V	nud
       	luba=nu	d		S	pl n
       	luba=nud	0		A	
       	luba=nud	0		A	sg n
       	luba=nud	d		A	pl n
,	,			Z	
ning	ning	0		J	
nõuab	nõud	b		V	b
korterit	korter	t		S	sg p
.	.			Z	
2	2	0		N	?
)	)			Z	
nõuab	nõud	b		V	b
tema	tema	0		P	sg g
    	tema	0		P	sg n
kahju	kahi	0		S	adt
     	kahi	0		S	sg g
     	kahi	0		S	sg p
     	kahju	0		S	sg g
     	kahju	0		S	sg n
     	kahju	0		S	sg p
tasumist	tasumine	t		S	sg p
selle	see	0		P	sg g
     	sell	e		S	pl p
eest	eest	0		D	
    	eest	0		K	
    	esi	st		S	sg el
,	,			Z	
mis	mis	0		P	pl n
   	mis	0		P	sg n
tema	tema	0		P	sg g
    	tema	0		P	sg n
ilma	ilm	0		S	adt
    	ilm	0		S	sg g
    	ilma	0		D	
    	ilma	0		K	
    	ilm	0		S	sg p
korterita	korter	ta		S	sg ab
tee	tee	0		S	sg g
   	tege	0		V	o
   	tee	0		S	sg n
peal	pea	l		S	sg ad
    	peal	0		D	
    	peal	0		K	
peab	pida	b		V	b
olema	ole	ma		V	ma
2000	2000	0		N	?
rubla	rubla	0		S	sg g
     	rubla	0		S	sg n
     	rubla	0		S	sg p
.	.			Z	
3	3	0		N	?
)	)			Z	
on	ole	0		V	b
  	ole	0		V	vad
Nõmmits	####				
lubanud	luba	nud		V	nud
       	luba=nu	d		S	pl n
       	luba=nud	0		A	
       	luba=nud	0		A	sg n
       	luba=nud	d		A	pl n
iga	iga	0		P	sg g
   	iga	0		P	sg n
   	iga	0		P	sg p
   	iga	0		S	sg n
   	iga	0		S	sg p
aasta	aasta	0		S	sg g
     	aasta	0		S	sg n
100	100	0		N	?
vakka	vakk	0		S	adt
     	vakk	0		S	sg p
     	vakka	0		D	
vilja	vili	0		S	adt
     	vili	0		S	sg g
     	vili	0		S	sg p
temale	tema	le		P	sg all
oma	oma	0		A	sg g
   	oma	0		D	
   	oma	0		P	sg g
   	oma	0		S	sg g
   	oma	0		V	o
   	oma	0		A	sg n
   	oma	0		A	sg p
   	oma	0		P	sg n
   	oma	0		P	sg p
   	oma	0		S	sg n
   	oma	0		S	sg p
veski	veski	0		S	sg g
     	veski	0		S	sg n
man	man	0		D	
   	man	0		K	
ilma	ilm	0		S	adt
    	ilm	0		S	sg g
    	ilma	0		D	
    	ilma	0		K	
    	ilm	0		S	sg p
matteta	####				
jahvatada	jahvata	da		V	da
,	,			Z	
aga	aga	0		J	
ei	ei	0		D	
  	ei	0		V	neg
ole	ole	0		V	o
seda	see	da		P	sg p
mitte	mitte	0		D	
täitnud	täit	nud		V	nud
       	täit=nu	d		S	pl n
       	täit=nud	0		A	
       	täit=nud	0		A	sg n
       	täit=nud	d		A	pl n
ja	ja	0		J	
selle	see	0		P	sg g
     	sell	e		S	pl p
pärast	pära	st		S	sg el
      	pärane	t		A	sg p
      	pärast	0		D	
      	pärast	0		K	
on	ole	0		V	b
  	ole	0		V	vad
temal	tema	l		P	sg ad
iga	iga	0		P	sg g
   	iga	0		P	sg n
   	iga	0		P	sg p
   	iga	0		S	sg n
   	iga	0		S	sg p
aasta	aasta	0		S	sg g
     	aasta	0		S	sg n
kahju	kahi	0		S	adt
     	kahi	0		S	sg g
     	kahi	0		S	sg p
     	kahju	0		S	sg g
     	kahju	0		S	sg n
     	kahju	0		S	sg p
tulnud	tul=nud	0		A	
      	tul=nud	0		A	sg n
      	tul=nud	d		A	pl n
      	tule	nud		V	nud
      	tulnu	d		S	pl n
jahvatamise	jahvatamine	0		S	sg g
raha	raha	0		S	sg g
    	raha	0		S	sg n
    	raha	0		S	sg p
10	10	0		N	?
kop	kop	0		Y	?
.	.			Z	
vakka	vakk	0		S	adt
     	vakk	0		S	sg p
     	vakka	0		D	
pealt	pea	lt		S	sg abl
     	pealt	0		D	
     	pealt	0		K	
teeb	tege	b		V	b
10	10	0		N	?
rubla	rubla	0		S	sg g
     	rubla	0		S	sg n
     	rubla	0		S	sg p
ja	ja	0		J	
vaatamise	vaatamine	0		S	sg g
raha	raha	0		S	sg g
    	raha	0		S	sg n
    	raha	0		S	sg p
Roiju	####				
veskile	veski	le		S	sg all
ja	ja	0		J	
sealt	sealt	0		D	
     	siga	lt		A	sg abl
     	siga	lt		S	sg abl
tagasi	tagasi	0		D	
      	tagasi	0		K	
100	100	0		N	?
vakka	vakk	0		S	adt
     	vakk	0		S	sg p
     	vakka	0		D	
pealt	pea	lt		S	sg abl
     	pealt	0		D	
     	pealt	0		K	
10	10	0		N	?
rubla	rubla	0		S	sg g
     	rubla	0		S	sg n
     	rubla	0		S	sg p
,	,			Z	
teeb	tege	b		V	b
aastas	aasta	s		S	sg in
25	25	0		N	?
rubla	rubla	0		S	sg g
     	rubla	0		S	sg n
     	rubla	0		S	sg p
.	.			Z	
4	4	0		N	?
)	)			Z	
on	ole	0		V	b
  	ole	0		V	vad
kontrahi	kontraht	0		S	sg g
perra	####				
Nõmmits	####				
2	2	0		N	?
aasta	aasta	0		S	sg g
     	aasta	0		S	sg n
pärast	pära	st		S	sg el
      	pärane	t		A	sg p
      	pärast	0		D	
      	pärast	0		K	
üks	üks	0		N	sg n
   	üks	0		P	sg n
kodupoolse	kodu_poolne	0		A	sg g
tare	tare	0		S	sg g
    	tare	0		S	sg n
ta	tema	0		P	sg g
  	tema	0		P	sg n
...	...			Z	
[	[			Z	
ei	ei	0		D	
  	ei	0		V	neg
loe	loe	0		S	sg n
   	lood	0		S	sg g
   	luge	0		V	o
välja	välja	0		D	
     	välja	0		V	o
     	väli	0		S	adt
     	väli	0		S	sg g
     	väli	0		S	sg p
]	]			Z	
maa	maa	0		S	sg g
   	maa	0		S	sg n
pealt	pea	lt		S	sg abl
     	pealt	0		D	
     	pealt	0		K	
lubanud	luba	nud		V	nud
       	luba=nu	d		S	pl n
       	luba=nud	0		A	
       	luba=nud	0		A	sg n
       	luba=nud	d		A	pl n
ära	ära	0		D	
   	ära	0		V	neg o
kasuda	####				
,	,			Z	
aga	aga	0		J	
seda	see	da		P	sg p
tegemata	tege	mata		V	mata
        	tegemata	0		A	
jätnud	jät	nud		V	nud
      	jät=nu	d		S	pl n
      	jät=nud	0		A	
      	jät=nud	0		A	sg n
      	jät=nud	d		A	pl n
ja	ja	0		J	
nõuab	nõud	b		V	b
selle	see	0		P	sg g
     	sell	e		S	pl p
eest	eest	0		D	
    	eest	0		K	
    	esi	st		S	sg el
50	50	0		N	?
rubla	rubla	0		S	sg g
     	rubla	0		S	sg n
     	rubla	0		S	sg p
aastas	aasta	s		S	sg in
;	;			Z	
5	5	0		N	?
)	)			Z	
on	ole	0		V	b
  	ole	0		V	vad
Nõmmits	####				
temal	tema	l		P	sg ad
11	11	0		N	?
kohtu	kohtu	0		V	o
     	kohus	0		S	sg g
päeva	päev	0		S	adt
     	päev	0		S	sg g
     	päev	0		S	sg p
ära	ära	0		D	
   	ära	0		V	neg o
viitnud	viit	nud		V	nud
       	viit=nu	d		S	pl n
       	viit=nud	0		A	
       	viit=nud	0		A	sg n
       	viit=nud	d		A	pl n
,	,			Z	
et	et	0		J	
tema	tema	0		P	sg g
    	tema	0		P	sg n
tulemata	tule	mata		V	mata
        	tulemata	0		A	
on	ole	0		V	b
  	ole	0		V	vad
jäänud	jää	nud		V	nud
      	jäänu	d		S	pl n
      	jäänud	0		A	
      	jäänud	0		A	sg n
      	jäänud	d		A	pl n
,	,			Z	
mis	mis	0		P	pl n
   	mis	0		P	sg n
eest	eest	0		D	
    	eest	0		K	
    	esi	st		S	sg el
tema	tema	0		P	sg g
    	tema	0		P	sg n
iga	iga	0		P	sg g
   	iga	0		P	sg n
   	iga	0		P	sg p
   	iga	0		S	sg n
   	iga	0		S	sg p
päeva	päev	0		S	adt
     	päev	0		S	sg g
     	päev	0		S	sg p
pealt	pea	lt		S	sg abl
     	pealt	0		D	
     	pealt	0		K	
3	3	0		N	?
rubla	rubla	0		S	sg g
     	rubla	0		S	sg n
     	rubla	0		S	sg p
nõuab	nõud	b		V	b
-	-			Z	
33	33	0		N	?
rubla	rubla	0		S	sg g
     	rubla	0		S	sg n
     	rubla	0		S	sg p
.	.			Z	
viimasin	####				
andis	and	is		V	s
Johan	Johan	0		H	sg n
sepa	sepp	0		S	sg g
tunnistajat	tunnistaja	t		S	sg p
üles	üles	0		D	
,	,			Z	
kes	kes	0		P	pl n
   	kes	0		P	sg n
tema	tema	0		P	sg g
    	tema	0		P	sg n
kaupa	kaup	0		S	adt
     	kaup	0		S	sg p
     	kaupa	0		K	
tegemise	tegemine	0		S	sg g
man	man	0		D	
   	man	0		K	
on	ole	0		V	b
  	ole	0		V	vad
olnud	ol=nud	0		A	
     	ol=nud	0		A	sg n
     	ol=nud	d		A	pl n
     	ole	nud		V	nud
     	olnu	d		S	pl n
ning	ning	0		J	
nimelt	nimelt	0		D	
      	nimi	lt		S	sg abl
:	:			Z	
August	august	0		S	sg n
      	auk	st		S	sg el
      	August	0		H	sg n
Hintzer	####				
Kiigjärvest	####				
ja	ja	0		J	
Jakob	Jakob	0		H	sg n
Jansen	####				
ning	ning	0		J	
Johan	Johan	0		H	sg n
Priku	####				
Haslavalt	####				
.	.			Z	
Alexander	Alexander	0		H	sg n
Nõmmits	####				
selle	see	0		P	sg g
     	sell	e		S	pl p
kaebuse	kaebus	0		S	sg g
üle	üle	0		D	
   	üle	0		K	
küsitud	küsi	tud		V	tud
       	küsi=tu	d		S	pl n
       	küsi=tud	0		A	
       	küsi=tud	0		A	sg n
       	küsi=tud	d		A	pl n
vastas	vasta	s		V	s
      	vastas	0		D	
      	vastas	0		K	
,	,			Z	
et	et	0		J	
need	see	d		P	pl n
punktid	punkt	d		S	pl n
       	punkti	d		V	d
tema	tema	0		P	sg g
    	tema	0		P	sg n
kontrahi	kontraht	0		S	sg g
sees	sees	0		D	
    	sees	0		K	
Johan	Johan	0		H	sg n
sepa	sepp	0		S	sg g
vasta	vasta	0		V	o
mitte	mitte	0		D	
täitnud	täit	nud		V	nud
       	täit=nu	d		S	pl n
       	täit=nud	0		A	
       	täit=nud	0		A	sg n
       	täit=nud	d		A	pl n
ole	ole	0		V	o
.	.			Z	
tunnistajale	tunnistaja	le		S	sg all
August	august	0		S	sg n
      	auk	st		S	sg el
      	August	0		H	sg n
Hintzer	####				
Kiigjärvest	####				
ütles	ütle	s		V	s
välja	välja	0		D	
     	välja	0		V	o
     	väli	0		S	adt
     	väli	0		S	sg g
     	väli	0		S	sg p
,	,			Z	
et	et	0		J	
Alexander	Alexander	0		H	sg n
Nõmmits	####				
kaupa	kaup	0		S	adt
     	kaup	0		S	sg p
     	kaupa	0		K	
tegemise	tegemine	0		S	sg g
aeg	aeg	0		S	sg n
Johan	Johan	0		H	sg n
sepale	sepp	le		S	sg all
on	ole	0		V	b
  	ole	0		V	vad
lubanud	luba	nud		V	nud
       	luba=nu	d		S	pl n
       	luba=nud	0		A	
       	luba=nud	0		A	sg n
       	luba=nud	d		A	pl n
veski	veski	0		S	sg g
     	veski	0		S	sg n
tares	tare	s		S	sg in
kõik	kõik	0		P	pl n
    	kõik	0		S	sg n
    	kõik	0		P	sg n
see	see	0		P	sg n
rendi	rent	0		S	sg g
     	renti	0		V	o
aeg	aeg	0		S	sg n
elada	ela	da		V	da
,	,			Z	
peab	pida	b		V	b
aga	aga	0		J	
nii	nii	0		D	
palju	palju	0		D	
     	palju	0		P	sg g
     	palju	0		P	sg n
ruumi	ruum	0		S	adt
     	ruum	0		S	sg g
     	ruumi	0		V	o
     	ruum	0		S	sg p
veski	veski	0		S	sg g
     	veski	0		S	sg n
poisile	poiss	le		S	sg all
andma	and	ma		V	ma
,	,			Z	
kus	kus	0		D	
see	see	0		P	sg n
magana	####				
võib	või	b		V	b
,	,			Z	
peale	pea	le		S	sg all
     	peale	0		D	
     	peale	0		K	
selle	see	0		P	sg g
     	sell	e		S	pl p
on	ole	0		V	b
  	ole	0		V	vad
pidand	####				
lagunud	lagu	nud		V	nud
       	lagu=nu	d		S	pl n
       	lagu=nud	0		A	
       	lagu=nud	0		A	sg n
       	lagu=nud	d		A	pl n
lauda	laud	0		S	adt
     	laut	0		S	sg g
     	laud	0		S	sg p
asemele	ase	le		S	sg all
       	asemele	0		D	
       	asemele	0		K	
Nõmmits	####				
uue	uus	0		A	sg g
laada	laat	0		S	sg g
ehitama	ehti	tama		V	tama
       	ehita	ma		V	ma
ning	ning	0		J	
viimaks	vii	maks		V	maks
       	viimaks	0		D	
100	100	0		N	?
vakka	vakk	0		S	adt
     	vakk	0		S	sg p
     	vakka	0		D	
vilja	vili	0		S	adt
     	vili	0		S	sg g
     	vili	0		S	sg p
ilma	ilm	0		S	adt
    	ilm	0		S	sg g
    	ilma	0		D	
    	ilma	0		K	
    	ilm	0		S	sg p
matteta	####				
oma	oma	0		A	sg g
   	oma	0		D	
   	oma	0		P	sg g
   	oma	0		S	sg g
   	oma	0		V	o
   	oma	0		A	sg n
   	oma	0		A	sg p
   	oma	0		P	sg n
   	oma	0		P	sg p
   	oma	0		S	sg n
   	oma	0		S	sg p
veski	veski	0		S	sg g
     	veski	0		S	sg n
man	man	0		D	
   	man	0		K	
aastas	aasta	s		S	sg in
jahvatada	jahvata	da		V	da
.	.			Z	
See	see	0		P	sg n
nüüdne	nüüdne	0		A	sg n
kontraht	kontraht	0		S	sg n
on	ole	0		V	b
  	ole	0		V	vad
tõisiti	####				
tehtud	tehtu	d		S	pl n
      	tehtud	0		A	
      	tehtud	0		A	sg n
      	tehtud	d		A	pl n
      	tege	tud		V	tud
,	,			Z	
kui	kui	0		D	
   	kui	0		J	
kaubategemise	kauba_tegemine	0		S	sg g
aeg	aeg	0		S	sg n
loetud	loetu	d		S	pl n
      	loetud	0		A	
      	loetud	0		A	sg n
      	loetud	d		A	pl n
      	luge	tud		V	tud
.	.			Z	
tunnistajat	tunnistaja	t		S	sg p
Johan	Johan	0		H	sg n
Priku	####				
ja	ja	0		J	
Jakob	Jakob	0		H	sg n
Jantson	####				
ütlesid	ütle	sid		V	sid
sunda	####				
saama	saa	ma		V	ma
     	saam	0		S	adt
     	saam	0		S	sg g
     	saam	0		S	sg p
välja	välja	0		D	
     	välja	0		V	o
     	väli	0		S	adt
     	väli	0		S	sg g
     	väli	0		S	sg p
kui	kui	0		D	
   	kui	0		J	
August	august	0		S	sg n
      	auk	st		S	sg el
      	August	0		H	sg n
Hintzer	####				
.	.			Z	
mõistus	mõistus	0		S	sg n
:	:			Z	
tunnistajate	tunnistaja	te		S	pl g
välja	välja	0		D	
     	välja	0		V	o
     	väli	0		S	adt
     	väli	0		S	sg g
     	väli	0		S	sg p
ütlemise	ütlemine	0		S	sg g
peale	pea	le		S	sg all
     	peale	0		D	
     	peale	0		K	
peab	pida	b		V	b
a.	a	0		Y	?
Nõmmits	####				
üks	üks	0		N	sg n
   	üks	0		P	sg n
korter	korter	0		S	sg n
oma	oma	0		A	sg g
   	oma	0		D	
   	oma	0		P	sg g
   	oma	0		S	sg g
   	oma	0		V	o
   	oma	0		A	sg n
   	oma	0		A	sg p
   	oma	0		P	sg n
   	oma	0		P	sg p
   	oma	0		S	sg n
   	oma	0		S	sg p
maa	maa	0		S	sg g
   	maa	0		S	sg n
rentnikule	rentnik	le		S	sg all
andma	and	ma		V	ma
,	,			Z	
laseb	lask	b		V	b
kodapoolse	koda_poolne	0		A	sg g
tare	tare	0		S	sg g
    	tare	0		S	sg n
selle	see	0		P	sg g
     	sell	e		S	pl p
Johan	Johan	0		H	sg n
sepaks	sepp	ks		S	sg tr
renditud	renti	tud		V	tud
        	rendi=tu	d		S	pl n
        	rendi=tud	0		A	
        	rendi=tud	0		A	sg n
        	rendi=tud	d		A	pl n
maa	maa	0		S	sg g
   	maa	0		S	sg n
pealt	pea	lt		S	sg abl
     	pealt	0		D	
     	pealt	0		K	
ära	ära	0		D	
   	ära	0		V	neg o
viia	vii	a		V	da
ehk	ehk	0		D	
   	ehk	0		J	
maksab	maks	b		V	b
aastas	aasta	s		S	sg in
50	50	0		N	?
rubla	rubla	0		S	sg g
     	rubla	0		S	sg n
     	rubla	0		S	sg p
ja	ja	0		J	
jahvatab	jahvata	b		V	b
aga	aga	0		J	
aasta	aasta	0		S	sg g
     	aasta	0		S	sg n
ilma	ilm	0		S	adt
    	ilm	0		S	sg g
    	ilma	0		D	
    	ilma	0		K	
    	ilm	0		S	sg p
matteta	####				
100	100	0		N	?
vakka	vakk	0		S	adt
     	vakk	0		S	sg p
     	vakka	0		D	
vilja	vili	0		S	adt
     	vili	0		S	sg g
     	vili	0		S	sg p
Joh	####				
.	.			Z	
sepale	sepp	le		S	sg all
.	.			Z	
kohtu	kohtu	0		V	o
     	kohus	0		S	sg g
lauas	laud	s		S	sg in
olevat	ole	vat		V	vat
      	olev	t		A	sg p
      	olev	t		S	sg p
:	:			Z	
Peakohtumees	pea_kohtu_mees	0		S	sg n
Mihkel	Mihkel	0		H	sg n
      	mihkel	0		A	sg n
      	mihkel	0		S	sg n
Klaos	####				
kohtumees	kohtu_mees	0		S	sg n
:	:			Z	
Johan	Johan	0		H	sg n
Ling	ling	0		S	sg n
dito	####				
Johan	Johan	0		H	sg n
Udel	####				
.	.			Z	
mõistus	mõistus	0		S	sg n
sai	saa	i		V	s
   	sai	0		S	sg n
talurahva	talu_rahvas	0		S	sg g
seaduse	seadus	0		S	sg g
raamatu	raamat	0		S	sg g
perra	####				
a	a	0		Y	?
1860	1860	0		N	?
§§	§§	0		Y	?
772	772	0		N	?
ja	ja	0		J	
773	773	0		N	?
kuulutud	kuulu	tud		V	tud
        	kuulu=tu	d		S	pl n
        	kuulu=tud	0		A	
        	kuulu=tud	0		A	sg n
        	kuulu=tud	d		A	pl n
ning	ning	0		J	
õppus	õppus	0		S	sg n
antud	an=tu	d		S	pl n
     	and	tud		V	tud
     	antud	0		A	
     	antud	0		A	sg n
     	antud	d		A	pl n
mis	mis	0		P	pl n
   	mis	0		P	sg n
tähele	täht	le		S	sg all
      	tähele	0		X	
tuleb	tule	b		V	b
panna	pand	0		S	sg g
     	pane	a		V	da
     	panna	0		S	sg g
     	panna	0		S	sg n
kui	kui	0		D	
   	kui	0		J	
keegi	kee	0	gi	S	sg g
     	kee	0	gi	V	o
     	keegi	0		P	sg n
     	kee	0	gi	S	sg n
suuremat	suurem	t		C	sg p
kohut	kohus	t		S	sg p
tahab	taht	b		V	b
käija	käija	0		S	sg g
     	käija	0		S	sg n
ja	ja	0		J	
ei	ei	0		D	
  	ei	0		V	neg
olnud	ol=nud	0		A	
     	ol=nud	0		A	sg n
     	ol=nud	d		A	pl n
     	ole	nud		V	nud
     	olnu	d		S	pl n
mõlemad	mõlema	d		P	pl n
kohtu	kohtu	0		V	o
     	kohus	0		S	sg g
käijad	käija	d		S	pl n
sellega	see	ga		P	sg kom
rahul	rahu	l		S	sg ad
     	rahul	0		D	
.	.			Z	
