sel	see	l		P	sg ad
   	sel	0		Y	?
27	27	0		N	?
Mail	Mai	l		H	sg ad
    	maa	il		S	pl ad
    	mai	l		S	sg ad
    	mail	0		S	sg n
1885	1885	0		N	?
kaebas	kaeba	s		V	s
Liis	Liis	0		H	sg n
    	Lii	s		H	sg in
Tenn	####				
Jaan	Jaan	0		H	sg n
    	jaan	0		S	sg n
    	jaan	0		Y	?
Saviku	####				
man	man	0		D	
   	man	0		K	
olen	ole	n		V	n
,	,			Z	
et	et	0		J	
tema	tema	0		P	sg g
    	tema	0		P	sg n
müinud	####				
mineva	minev	0		A	sg g
astu	astu	0		V	o
Eduard	Eduard	0		H	sg n
Laberile	####				
üks	üks	0		N	sg n
   	üks	0		P	sg n
kuhi	kuhi	0		S	sg n
heinu	hein	u		S	pl p
10	10	0		N	?
rubl	####				
eest	eest	0		D	
    	eest	0		K	
    	esi	st		S	sg el
ja	ja	0		J	
tema	tema	0		P	sg g
    	tema	0		P	sg n
ei	ei	0		D	
  	ei	0		V	neg
ole	ole	0		V	o
raha	raha	0		S	sg g
    	raha	0		S	sg n
    	raha	0		S	sg p
saanud	saa	nud		V	nud
      	saa=nud	0		A	
      	saa=nud	0		A	sg n
      	saa=nud	d		A	pl n
      	saanu	d		S	pl n
ja	ja	0		J	
palus	palu	s		S	sg in
     	palu	s		V	s
et	et	0		J	
kohus	kohu	s		V	s
     	kohus	0		S	sg n
seda	see	da		P	sg p
maksma	maks	ma		V	ma
kunis	####				
.	.			Z	
Eduard	Eduard	0		H	sg n
Laber	####				
vastutas	vastuta	s		V	s
,	,			Z	
et	et	0		J	
tema	tema	0		P	sg g
    	tema	0		P	sg n
see	see	0		P	sg n
10	10	0		N	?
rubl	####				
Liis	Liis	0		H	sg n
    	Lii	s		H	sg in
Tenno	####				
loaga	luba	ga		S	sg kom
     	luga	ga		S	sg kom
Aleksander	Aleksander	0		H	sg n
Laberi	####				
kätte	kätte	0		K	
     	käsi	tte		S	adt
annud	####				
,	,			Z	
sest	see	st		P	sg el
    	sest	0		J	
Liis	Liis	0		H	sg n
    	Lii	s		H	sg in
Tenno	####				
ja	ja	0		J	
Aleksander	Aleksander	0		H	sg n
Laber	####				
läinud	läinu	d		S	pl n
      	läinud	0		A	
      	läinud	0		A	sg n
      	läinud	d		A	pl n
      	mine	nud		V	nud
ühes	üks	s		N	sg in
    	üks	s		P	sg in
    	ühes	0		D	
    	ühes	0		K	
Venemaale	Vene_maa	le		H	sg all
ja	ja	0		J	
temal	tema	l		P	sg ad
ei	ei	0		D	
  	ei	0		V	neg
ole	ole	0		V	o
siis	siis	0		D	
    	siis	0		J	
just	just	0		D	
    	just	0		I	
10	10	0		N	?
rublat	rubla	t		S	sg p
anda	and	a		V	da
olnud	ol=nud	0		A	
     	ol=nud	0		A	sg n
     	ol=nud	d		A	pl n
     	ole	nud		V	nud
     	olnu	d		S	pl n
vaid	vaid	0		D	
    	vaid	0		J	
25	25	0		N	?
rublaline	rublaline	0		S	sg n
olnud	ol=nud	0		A	
     	ol=nud	0		A	sg n
     	ol=nud	d		A	pl n
     	ole	nud		V	nud
     	olnu	d		S	pl n
pärast	pära	st		S	sg el
      	pärane	t		A	sg p
      	pärast	0		D	
      	pärast	0		K	
tulnud	tul=nud	0		A	
      	tul=nud	0		A	sg n
      	tul=nud	d		A	pl n
      	tule	nud		V	nud
      	tulnu	d		S	pl n
Aleksander	Aleksander	0		H	sg n
Laber	####				
Venemaalt	Vene_maa	lt		H	sg abl
kodu	kodu	0		S	sg g
    	kodu	0		S	sg n
    	kodu	0		S	sg p
ja	ja	0		J	
müinud	####				
selle	see	0		P	sg g
     	sell	e		S	pl p
heina	hein	0		S	adt
     	hein	0		S	sg g
     	hein	0		S	sg p
kuhja	kuhja	0		V	o
     	kuhi	0		S	adt
     	kuhi	0		S	sg g
     	kuhi	0		S	sg p
tõine	####				
kõrd	####				
ära	ära	0		D	
   	ära	0		V	neg o
.	.			Z	
tunistaja	####				
Daniel	Daniel	0		H	sg n
Luha	luht	0		S	sg g
tunistas	####				
,	,			Z	
et	et	0		J	
selle	see	0		P	sg g
     	sell	e		S	pl p
et	et	0		J	
Eduard	Eduard	0		H	sg n
Laberil	####				
väikest	väike	t		A	sg p
       	väikene	t		A	sg p
raha	raha	0		S	sg g
    	raha	0		S	sg n
    	raha	0		S	sg p
ei	ei	0		D	
  	ei	0		V	neg
ole	ole	0		V	o
olnud	ol=nud	0		A	
     	ol=nud	0		A	sg n
     	ol=nud	d		A	pl n
     	ole	nud		V	nud
     	olnu	d		S	pl n
on	ole	0		V	b
  	ole	0		V	vad
seesama	see_sama	0		P	sg n
25	25	0		N	?
rubla	rubla	0		S	sg g
     	rubla	0		S	sg n
     	rubla	0		S	sg p
lisa	lisa	0		S	sg g
    	lisa	0		V	o
    	lisa	0		S	sg n
    	lisa	0		S	sg p
Aleksander	Aleksander	0		H	sg n
Laberi	####				
kätte	kätte	0		K	
     	käsi	tte		S	adt
annud	####				
ja	ja	0		J	
ütelnud	ütle	nud		V	nud
       	ütel=nu	d		S	pl n
       	ütel=nud	0		A	
       	ütel=nud	0		A	sg n
       	ütel=nud	d		A	pl n
siin	siin	0		D	
    	siin	0		S	sg n
on	ole	0		V	b
  	ole	0		V	vad
ka	ka	0		D	
Liis	Liis	0		H	sg n
    	Lii	s		H	sg in
Tenno	####				
raha	raha	0		S	sg g
    	raha	0		S	sg n
    	raha	0		S	sg p
,	,			Z	
kus	kus	0		D	
juures	juur	s		S	sg in
      	juures	0		D	
      	juures	0		K	
Liis	Liis	0		H	sg n
    	Lii	s		H	sg in
Tenno	####				
ka	ka	0		D	
ise	ise	0		A	
   	ise	0		D	
   	ise	0		P	pl n
   	ise	0		P	sg n
olnud	ol=nud	0		A	
     	ol=nud	0		A	sg n
     	ol=nud	d		A	pl n
     	ole	nud		V	nud
     	olnu	d		S	pl n
selle	see	0		P	sg g
     	sell	e		S	pl p
peale	pea	le		S	sg all
     	peale	0		D	
     	peale	0		K	
ütelnud	ütle	nud		V	nud
       	ütel=nu	d		S	pl n
       	ütel=nud	0		A	
       	ütel=nud	0		A	sg n
       	ütel=nud	d		A	pl n
Liis	Liis	0		H	sg n
    	Lii	s		H	sg in
Tenno	####				
vend	vend	0		S	sg n
küll	küll	0		D	
    	küll	0		S	sg n
Aleksander	Aleksander	0		H	sg n
Luha	luht	0		S	sg g
selle	see	0		P	sg g
     	sell	e		S	pl p
raha	raha	0		S	sg g
    	raha	0		S	sg n
    	raha	0		S	sg p
Liisu	liisk	0		S	sg g
     	liisu	0		V	o
Tennole	####				
Venemaal	Vene_maa	l		H	sg ad
ära	ära	0		D	
   	ära	0		V	neg o
annab	and	b		V	b
,	,			Z	
sest	see	st		P	sg el
    	sest	0		J	
nemad	tema	d		P	pl n
läinud	läinu	d		S	pl n
      	läinud	0		A	
      	läinud	0		A	sg n
      	läinud	d		A	pl n
      	mine	nud		V	nud
ühes	üks	s		N	sg in
    	üks	s		P	sg in
    	ühes	0		D	
    	ühes	0		K	
Venemaale	Vene_maa	le		H	sg all
.	.			Z	
Mõistetud	mõist	tud		V	tud
         	mõiste=tu	d		S	pl n
         	mõiste=tud	0		A	
         	mõiste=tud	0		A	sg n
         	mõiste=tud	d		A	pl n
:	:			Z	
et	et	0		J	
Liis	Liis	0		H	sg n
    	Lii	s		H	sg in
Tenno	####				
nõudmise	nõudmine	0		S	sg g
kaebus	kaebus	0		S	sg n
vastu	vastu	0		D	
     	vastu	0		K	
Eduard	Eduard	0		H	sg n
Laber	####				
tühjaks	tühi	ks		A	sg tr
mõista	mõist	0		V	o
      	mõist	a		V	da
on	ole	0		V	b
  	ole	0		V	vad
,	,			Z	
selle	see	0		P	sg g
     	sell	e		S	pl p
et	et	0		J	
Eduard	Eduard	0		H	sg n
Laber	####				
selle	see	0		P	sg g
     	sell	e		S	pl p
raha	raha	0		S	sg g
    	raha	0		S	sg n
    	raha	0		S	sg p
Liis	Liis	0		H	sg n
    	Lii	s		H	sg in
Tenno	####				
man	man	0		D	
   	man	0		K	
olen	ole	n		V	n
Aleksander	Aleksander	0		H	sg n
Laberi	####				
kätte	kätte	0		K	
     	käsi	tte		S	adt
on	ole	0		V	b
  	ole	0		V	vad
annud	####				
,	,			Z	
ja	ja	0		J	
Liis	Liis	0		H	sg n
    	Lii	s		H	sg in
Tenno	####				
sel	see	l		P	sg ad
   	sel	0		Y	?
kõrral	####				
midagi	miski	dagi		P	sg p
selle	see	0		P	sg g
     	sell	e		S	pl p
vastu	vastu	0		D	
     	vastu	0		K	
ei	ei	0		D	
  	ei	0		V	neg
ole	ole	0		V	o
kõnelnud	kõnel=nu	d		S	pl n
        	kõnel=nud	0		A	
        	kõnel=nud	0		A	sg n
        	kõnel=nud	d		A	pl n
        	kõnele	nud		V	nud
ja	ja	0		J	
ühes	üks	s		N	sg in
    	üks	s		P	sg in
    	ühes	0		D	
    	ühes	0		K	
Aleksander	Aleksander	0		H	sg n
Laberiga	####				
Venemale	vene_male	0		S	sg g
        	vene_male	0		S	sg n
on	ole	0		V	b
  	ole	0		V	vad
läinud	läinu	d		S	pl n
      	läinud	0		A	
      	läinud	0		A	sg n
      	läinud	d		A	pl n
      	mine	nud		V	nud
siis	siis	0		D	
    	siis	0		J	
võib	või	b		V	b
Liis	Liis	0		H	sg n
    	Lii	s		H	sg in
Tenno	####				
selle	see	0		P	sg g
     	sell	e		S	pl p
raha	raha	0		S	sg g
    	raha	0		S	sg n
    	raha	0		S	sg p
pärast	pära	st		S	sg el
      	pärane	t		A	sg p
      	pärast	0		D	
      	pärast	0		K	
Aleksander	Aleksander	0		H	sg n
Laberi	####				
vasta	vasta	0		V	o
kaebust	kaebus	t		S	sg p
tõsta	tõst	0		V	o
     	tõst	a		V	da
kui	kui	0		D	
   	kui	0		J	
see	see	0		P	sg n
seda	see	da		P	sg p
ära	ära	0		D	
   	ära	0		V	neg o
maksnud	maks	nud		V	nud
       	maks=nu	d		S	pl n
       	maks=nud	0		A	
       	maks=nud	0		A	sg n
       	maks=nud	d		A	pl n
ei	ei	0		D	
  	ei	0		V	neg
peaks	pea	ks		S	sg tr
     	pida	ks		V	ks
olema	ole	ma		V	ma
.	.			Z	
see	see	0		P	sg n
mõistus	mõistus	0		S	sg n
sai	saa	i		V	s
   	sai	0		S	sg n
kuulutatud	kuuluta	tud		V	tud
          	kuuluta=tu	d		S	pl n
          	kuuluta=tud	0		A	
          	kuuluta=tud	0		A	sg n
          	kuuluta=tud	d		A	pl n
ja	ja	0		J	
õpetud	####				
leht	leht	0		S	sg n
välja	välja	0		D	
     	välja	0		V	o
     	väli	0		S	adt
     	väli	0		S	sg g
     	väli	0		S	sg p
antud	an=tu	d		S	pl n
     	and	tud		V	tud
     	antud	0		A	
     	antud	0		A	sg n
     	antud	d		A	pl n
.	.			Z	
peakohtumees	pea_kohtu_mees	0		S	sg n
:	:			Z	
J. Ling	####				
/	/			Z	
allkiri	all_kiri	0		S	sg n
/	/			Z	
kohtumees	kohtu_mees	0		S	sg n
:	:			Z	
Johan	Johan	0		H	sg n
Klaosen	####				
XXX	XXX	0		O	?
   	XXX	0		Y	?
J. Krusberg	####				
/	/			Z	
allkiri	all_kiri	0		S	sg n
/	/			Z	
