Sai	saa	i		V	s
   	sai	0		S	sg n
siin	siin	0		D	
    	siin	0		S	sg n
kogukonna	kogukond	0		S	sg g
kohtu	kohtu	0		V	o
     	kohus	0		S	sg g
juures	juur	s		S	sg in
      	juures	0		D	
      	juures	0		K	
kokkora	kokk_ora	0		S	sg g
       	kokk_ora	0		S	sg n
       	kokk_ora	0		S	sg p
kogukonna	kogukond	0		S	sg g
kohtu	kohtu	0		V	o
     	kohus	0		S	sg g
protokulil	####				
sest	see	st		P	sg el
    	sest	0		J	
,	,			Z	
28	28	0		N	?
Aaprillist	####				
1883	1883	0		N	?
sub	####				
N	N	0		Y	?
24.	24.	0		O	?
ette	ette	0		D	
    	ette	0		K	
    	esi	tte		S	adt
võetud	võe=tu	d		S	pl n
      	võetud	0		A	
      	võetud	0		A	sg n
      	võetud	d		A	pl n
      	võt	tud		V	tud
ja	ja	0		J	
sisse	siss	e		S	pl p
     	sisse	0		D	
     	sisse	0		K	
kirjutud	####				
mis	mis	0		P	pl n
   	mis	0		P	sg n
järgmine	järgmine	0		A	sg n
on	ole	0		V	b
  	ole	0		V	vad
:	:			Z	
Tuli	tuli	0		S	sg n
    	tule	i		V	s
ette	ette	0		D	
    	ette	0		K	
    	esi	tte		S	adt
Kustav	kus=tav	0		A	sg n
      	kuse	tav		V	tav
Ärma	####				
Jaani	Jaan	0		H	adt
     	Jaan	0		H	sg g
     	Jaani	0		H	sg g
     	jaan	0		S	adt
     	jaan	0		S	sg g
     	Jaan	0		H	sg p
     	Jaani	0		H	sg n
     	jaan	0		S	sg p
poeg	poeg	0		S	sg n
ja	ja	0		J	
annab	and	b		V	b
ülese	ülene	0		A	sg g
,	,			Z	
et	et	0		J	
tema	tema	0		P	sg g
    	tema	0		P	sg n
on	ole	0		V	b
  	ole	0		V	vad
oma	oma	0		A	sg g
   	oma	0		D	
   	oma	0		P	sg g
   	oma	0		S	sg g
   	oma	0		V	o
   	oma	0		A	sg n
   	oma	0		A	sg p
   	oma	0		P	sg n
   	oma	0		P	sg p
   	oma	0		S	sg n
   	oma	0		S	sg p
poja	poeg	0		S	sg g
    	poja	0		S	sg g
    	poja	0		S	sg n
    	poja	0		S	sg p
Pauli	Paul	0		H	adt
     	Paul	0		H	sg g
     	Paul	0		H	sg p
1880	1880	0		N	?
mal	####				
aastal	aasta	l		S	sg ad
Johan	Johan	0		H	sg n
Havakivile	####				
Pallalt	####				
kasu	kasu	0		S	sg g
    	kasu	0		S	sg n
    	kasu	0		S	sg p
pojaks	poeg	ks		S	sg tr
      	poja	ks		S	sg tr
ära	ära	0		D	
   	ära	0		V	neg o
andnud	and	nud		V	nud
      	and=nu	d		S	pl n
      	and=nud	0		A	
      	and=nud	0		A	sg n
      	and=nud	d		A	pl n
ja	ja	0		J	
ütleb	ütle	b		V	b
,	,			Z	
et	et	0		J	
tema	tema	0		P	sg g
    	tema	0		P	sg n
on	ole	0		V	b
  	ole	0		V	vad
kolme	kolm	0		N	adt
     	kolm	0		N	sg g
     	kolm	0		N	sg p
aasta	aasta	0		S	sg g
     	aasta	0		S	sg n
eest	eest	0		D	
    	eest	0		K	
    	esi	st		S	sg el
Paul	Paul	0		H	sg n
Ärma	####				
Kustavi	####				
poja	poeg	0		S	sg g
    	poja	0		S	sg g
    	poja	0		S	sg n
    	poja	0		S	sg p
omale	oma	le		A	sg all
     	oma	le		P	sg all
     	oma	le		S	sg all
poja	poeg	0		S	sg g
    	poja	0		S	sg g
    	poja	0		S	sg n
    	poja	0		S	sg p
asemele	ase	le		S	sg all
       	asemele	0		D	
       	asemele	0		K	
võtnud	võt	nud		V	nud
      	võt=nu	d		S	pl n
      	võt=nud	0		A	
      	võt=nud	0		A	sg n
      	võt=nud	d		A	pl n
ja	ja	0		J	
tahab	taht	b		V	b
teda	tema	da		P	sg p
kui	kui	0		D	
   	kui	0		J	
oma	oma	0		A	sg g
   	oma	0		D	
   	oma	0		P	sg g
   	oma	0		S	sg g
   	oma	0		V	o
   	oma	0		A	sg n
   	oma	0		A	sg p
   	oma	0		P	sg n
   	oma	0		P	sg p
   	oma	0		S	sg n
   	oma	0		S	sg p
poega	poeg	0		S	adt
     	pood	ga		S	sg kom
     	poeg	0		S	sg p
kasvatada	kasvata	da		V	da
ja	ja	0		J	
koolitada	koolita	da		V	da
ja	ja	0		J	
kinnitab	kinnita	b		V	b
teda	tema	da		P	sg p
oma	oma	0		A	sg g
   	oma	0		D	
   	oma	0		P	sg g
   	oma	0		S	sg g
   	oma	0		V	o
   	oma	0		A	sg n
   	oma	0		A	sg p
   	oma	0		P	sg n
   	oma	0		P	sg p
   	oma	0		S	sg n
   	oma	0		S	sg p
varanduse	varandus	0		S	sg g
pärijaks	pärija	ks		S	sg tr
pääle	####				
surma	surm	0		S	adt
     	surm	0		S	sg g
     	surma	0		V	o
     	surm	0		S	sg p
.	.			Z	
Johan	Johan	0		H	sg n
Havakivil	####				
omal	oma	l		A	sg ad
    	oma	l		P	sg ad
    	oma	l		S	sg ad
poegi	poeg	i		S	pl p
     	poegi	0		V	o
     	pood	0	gi	S	sg g
     	puge	0	gi	V	o
ei	ei	0		D	
  	ei	0		V	neg
ole	ole	0		V	o
.	.			Z	
Paul	Paul	0		H	sg n
Ärma	####				
on	ole	0		V	b
  	ole	0		V	vad
õpetaja	õpetaja	0		S	sg g
       	õpetaja	0		S	sg n
kirja	kirja	0		A	
     	kirja	0		V	o
     	kiri	0		S	adt
     	kiri	0		S	sg g
     	kiri	0		S	sg p
järele	järele	0		D	
      	järele	0		K	
sündinud	sündi	nud		V	nud
        	sündinu	d		S	pl n
        	sündinud	0		A	
        	sündinud	0		A	sg n
        	sündinud	d		A	pl n
22	22	0		N	?
Septembril	september	l		S	sg ad
1871.	1871.	0		O	?
selle	see	0		P	sg g
     	sell	e		S	pl p
järele	järele	0		D	
      	järele	0		K	
nüüd	nüüd	0		D	
11½	####				
aastat	aasta	t		S	sg p
vana	vana	0		A	sg g
    	vana	0		A	sg n
    	vana	0		A	sg p
    	vana	0		S	sg g
    	vana	0		S	sg n
    	vana	0		S	sg p
.	.			Z	
Selle	see	0		P	sg g
     	sell	e		S	pl p
tunnistuseks	tunnistus	ks		S	sg tr
on	ole	0		V	b
  	ole	0		V	vad
ennast	ise	t		P	sg p
alla	alla	0		D	
    	alla	0		K	
kirjutanud	kirjuta	nud		V	nud
          	kirjutanu	d		S	pl n
          	kirjutanud	0		A	
          	kirjutanud	0		A	sg n
          	kirjutanud	d		A	pl n
:	:			Z	
Kusta	Kusta	0		H	sg g
     	Kusta	0		H	sg n
     	kuse	ta		V	da
     	kuse	ta		V	ta
Härma	härm	0		S	adt
     	härm	0		S	sg g
     	härma	0		D	
     	härma	0		V	o
     	härm	0		S	sg p
Juhan	Juhan	0		H	sg n
Havakivi	####				
Mihkel	Mihkel	0		H	sg n
      	mihkel	0		A	sg n
      	mihkel	0		S	sg n
Punder	####				
/	/			Z	
kohtumeeste	kohtu_mees	te		S	pl g
allkirjad	all_kiri	d		S	pl n
/	/			Z	
Kustav	kus=tav	0		A	sg n
      	kuse	tav		V	tav
Ärma	####				
kokkoralt	kokk_ora	lt		S	sg abl
on	ole	0		V	b
  	ole	0		V	vad
ka	ka	0		D	
siin	siin	0		D	
    	siin	0		S	sg n
kohtu	kohtu	0		V	o
     	kohus	0		S	sg g
ees	ees	0		D	
   	ees	0		K	
   	esi	s		S	sg in
ja	ja	0		J	
kinnitab	kinnita	b		V	b
ka	ka	0		D	
siin	siin	0		D	
    	siin	0		S	sg n
Palla	####				
kogukonna	kogukond	0		S	sg g
kohtus	kohtu	s		V	s
      	kohus	s		S	sg in
et	et	0		J	
tema	tema	0		P	sg g
    	tema	0		P	sg n
on	ole	0		V	b
  	ole	0		V	vad
aastal	aasta	l		S	sg ad
1880	1880	0		N	?
oma	oma	0		A	sg g
   	oma	0		D	
   	oma	0		P	sg g
   	oma	0		S	sg g
   	oma	0		V	o
   	oma	0		A	sg n
   	oma	0		A	sg p
   	oma	0		P	sg n
   	oma	0		P	sg p
   	oma	0		S	sg n
   	oma	0		S	sg p
poja	poeg	0		S	sg g
    	poja	0		S	sg g
    	poja	0		S	sg n
    	poja	0		S	sg p
Pauli	Paul	0		H	adt
     	Paul	0		H	sg g
     	Paul	0		H	sg p
Johan	Johan	0		H	sg n
Havakivile	####				
Pallalt	####				
pojandis	####				
ära	ära	0		D	
   	ära	0		V	neg o
andnud	and	nud		V	nud
      	and=nu	d		S	pl n
      	and=nud	0		A	
      	and=nud	0		A	sg n
      	and=nud	d		A	pl n
.	.			Z	
Johan	Johan	0		H	sg n
Hakivi	####				
on	ole	0		V	b
  	ole	0		V	vad
siin	siin	0		D	
    	siin	0		S	sg n
ja	ja	0		J	
lubab	luba	b		V	b
teda	tema	da		P	sg p
vasto	####				
võtta	võt	a		V	da
.	.			Z	
Mõlemad	mõlema	d		P	pl n
kinnitavad	kinnita	vad		V	vad
          	kinnitav	d		A	pl n
siin	siin	0		D	
    	siin	0		S	sg n
kohtu	kohtu	0		V	o
     	kohus	0		S	sg g
ees	ees	0		D	
   	ees	0		K	
   	esi	s		S	sg in
kokkora	kokk_ora	0		S	sg g
       	kokk_ora	0		S	sg n
       	kokk_ora	0		S	sg p
kohtu	kohtu	0		V	o
     	kohus	0		S	sg g
protokoli	####				
täita	täi	ta		S	sg ab
     	täi	ta		V	ta
     	täit	a		V	da
     	täita	0		V	o
.	.			Z	
Selle	see	0		P	sg g
     	sell	e		S	pl p
kinnituseks	kinnitus	ks		S	sg tr
on	ole	0		V	b
  	ole	0		V	vad
ennast	ise	t		P	sg p
alla	alla	0		D	
    	alla	0		K	
kirjutanud	kirjuta	nud		V	nud
          	kirjutanu	d		S	pl n
          	kirjutanud	0		A	
          	kirjutanud	0		A	sg n
          	kirjutanud	d		A	pl n
:	:			Z	
peakohtumees	pea_kohtu_mees	0		S	sg n
H. Horn	####				
kohtumees	kohtu_mees	0		S	sg n
J. Soieva	####				
kohtumees	kohtu_mees	0		S	sg n
O. Mõisa	####				
.	.			Z	
Kirjutaja	kirjutaja	0		S	sg g
         	kirjutaja	0		S	sg n
eest	eest	0		D	
    	eest	0		K	
    	esi	st		S	sg el
:	:			Z	
Rosenberg	Rosenberg	0		H	sg n
Märkus	märkus	0		S	sg n
:	:			Z	
7.	7.	0		O	?
Novembril	november	l		S	sg ad
1892	1892	0		N	?
a.	a	0		Y	?
ärakiri	ära_kiri	0		S	sg n
välja	välja	0		D	
     	välja	0		V	o
     	väli	0		S	adt
     	väli	0		S	sg g
     	väli	0		S	sg p
antud	an=tu	d		S	pl n
     	and	tud		V	tud
     	antud	0		A	
     	antud	0		A	sg n
     	antud	d		A	pl n
.	.			Z	
Kirjutaja	kirjutaja	0		S	sg g
         	kirjutaja	0		S	sg n
V	V	0		O	?
 	V	0		Y	?
.	.			Z	
_Seidenbach	####				
