raskolnisa	####				
Tatjana	Tatjana	0		H	sg g
       	Tatjana	0		H	sg n
Sacharjeva	####				
kaibab	####				
:	:			Z	
""""	""""			Z	
tema	tema	0		P	sg g
    	tema	0		P	sg n
ei	ei	0		D	
  	ei	0		V	neg
võinu	või=nu	0		S	sg g
     	või=nu	0		S	sg n
oma	oma	0		A	sg g
   	oma	0		D	
   	oma	0		P	sg g
   	oma	0		S	sg g
   	oma	0		V	o
   	oma	0		A	sg n
   	oma	0		A	sg p
   	oma	0		P	sg n
   	oma	0		P	sg p
   	oma	0		S	sg n
   	oma	0		S	sg p
mehe	mees	0		S	sg g
-	-			Z	
Ivan	Ivan	0		H	sg n
Jakovleviga	Jakovlev	ga		H	sg kom
enam	enam	0		C	sg n
    	enam	0		D	
ühes	üks	s		N	sg in
    	üks	s		P	sg in
    	ühes	0		D	
    	ühes	0		K	
elada	ela	da		V	da
;	;			Z	
sest	see	st		P	sg el
    	sest	0		J	
ta	tema	0		P	sg g
  	tema	0		P	sg n
oleva	olev	0		A	sg g
     	olev	0		S	sg g
raske	rask	e		S	pl p
     	raske	0		A	sg g
     	raske	0		A	sg n
joodi	joo	di		V	ti
     	jood	0		S	adt
     	jood	0		S	sg g
     	joodi	0		V	o
     	jood	0		S	sg p
,	,			Z	
peksva	peksev	0		A	sg g
teda	tema	da		P	sg p
sadedast	####				
ja	ja	0		J	
ei	ei	0		D	
  	ei	0		V	neg
jõudva	jõudev	0		A	sg g
tema	tema	0		P	sg g
    	tema	0		P	sg n
kahte	kaks	0		N	adt
     	kaks	0		N	sg p
last	laps	t		S	sg p
    	last	0		S	sg n
toita	toit	a		V	da
.	.			Z	
""""	""""			Z	
Mõistetud	mõist	tud		V	tud
         	mõiste=tu	d		S	pl n
         	mõiste=tud	0		A	
         	mõiste=tud	0		A	sg n
         	mõiste=tud	d		A	pl n
:	:			Z	
Ivan	Ivan	0		H	sg n
Jakovlev	Jakovlev	0		H	sg n
maksku	maks	ku		V	gu
10	10	0		N	?
aastat	aasta	t		S	sg p
iga	iga	0		P	sg g
   	iga	0		P	sg n
   	iga	0		P	sg p
   	iga	0		S	sg n
   	iga	0		S	sg p
aasta	aasta	0		S	sg g
     	aasta	0		S	sg n
8	8	0		N	?
rubla	rubla	0		S	sg g
     	rubla	0		S	sg n
     	rubla	0		S	sg p
,	,			Z	
1sel	####				
Märtsil	märts	l		S	sg ad
ia	####				
1sel	####				
Septembril	september	l		S	sg ad
4	4	0		N	?
rubla	rubla	0		S	sg g
     	rubla	0		S	sg n
     	rubla	0		S	sg p
,	,			Z	
kuni	kuni	0		J	
    	kuni	0		K	
lapsed	laps	d		S	pl n
suuremaks	suurem	ks		C	sg tr
saavad	saa	vad		V	vad
      	saav	d		A	pl n
      	saav	d		S	pl n
.	.			Z	
Peaks	pea	ks		S	sg tr
     	pida	ks		V	ks
aga	aga	0		J	
naine	naine	0		S	sg n
selle	see	0		P	sg g
     	sell	e		S	pl p
aja	aeg	0		S	sg g
   	aja	0		V	o
sees	sees	0		D	
    	sees	0		K	
tõisele	####				
mehele	mees	le		S	sg all
saama	saa	ma		V	ma
     	saam	0		S	adt
     	saam	0		S	sg g
     	saam	0		S	sg p
,	,			Z	
siis	siis	0		D	
    	siis	0		J	
Jakovlevi	Jakovlev	0		H	adt
         	Jakovlev	0		H	sg g
         	Jakovlev	0		H	sg p
maks	maks	0		S	sg n
jääb	jää	b		V	b
maha	maha	0		D	
.	.			Z	
