Aavvinurme	####				
kogokonna	####				
kohtus	kohtu	s		V	s
      	kohus	s		S	sg in
sel	see	l		P	sg ad
   	sel	0		Y	?
.	.			Z	
30mal	####				
Mail	Mai	l		H	sg ad
    	maa	il		S	pl ad
    	mai	l		S	sg ad
    	mail	0		S	sg n
1886	1886	0		N	?
Kohtu	kohtu	0		V	o
     	kohus	0		S	sg g
juures	juur	s		S	sg in
      	juures	0		D	
      	juures	0		K	
olid	ole	id		V	sid
.	.			Z	
peakohtumees	pea_kohtu_mees	0		S	sg n
Mart	Mart	0		H	sg n
    	mart	0		S	sg n
Jago	####				
.	.			Z	
teine	teine	0		O	sg n
     	teine	0		P	sg n
kohtumees	kohtu_mees	0		S	sg n
Mart	Mart	0		H	sg n
    	mart	0		S	sg n
Liis	Liis	0		H	sg n
    	Lii	s		H	sg in
kolmas	kolmas	0		O	sg n
kohtumees	kohtu_mees	0		S	sg n
Toomas	Toomas	0		H	sg n
      	Toomas	s		H	sg in
      	too	mas		V	mas
Pärn	pärn	0		S	sg n
Tänasel	tänane	l		A	sg ad
päeval	päev	l		S	sg ad
astus	astu	s		V	s
ette	ette	0		D	
    	ette	0		K	
    	esi	tte		S	adt
Mihkel	Mihkel	0		H	sg n
      	mihkel	0		A	sg n
      	mihkel	0		S	sg n
Kütt	kütt	0		S	sg n
Aadrako	####				
karja	kari	0		S	adt
     	kari	0		S	sg g
     	kari	0		S	sg p
mõisa	mõis	0		S	sg g
järel	järel	0		D	
     	järel	0		K	
N	N	0		Y	?
44.	44.	0		O	?
krundi	krunt	0		S	sg g
      	krunti	0		V	o
mees	mees	0		S	sg n
    	mesi	s		S	sg in
,	,			Z	
ja	ja	0		J	
palus	palu	s		S	sg in
     	palu	s		V	s
kogokonna	####				
kohut	kohus	t		S	sg p
seda	see	da		P	sg p
tüli	tüli	0		S	sg g
    	tüli	0		S	sg n
    	tüli	0		S	sg p
asja	asi	0		S	adt
    	asi	0		S	sg g
    	asi	0		S	sg p
seletada	seleta	da		V	da
,	,			Z	
mis	mis	0		P	pl n
   	mis	0		P	sg n
temal	tema	l		P	sg ad
teiste	teine	te		O	pl g
      	teine	te		P	pl g
Aadraku	####				
krundimeistega	####				
kopli	koppel	0		S	sg g
pärast	pära	st		S	sg el
      	pärane	t		A	sg p
      	pärast	0		D	
      	pärast	0		K	
on	ole	0		V	b
  	ole	0		V	vad
,	,			Z	
ja	ja	0		J	
et	et	0		J	
need	see	d		P	pl n
samad	sama	d		P	pl n
temale	tema	le		P	sg all
,	,			Z	
tema	tema	0		P	sg g
    	tema	0		P	sg n
kitsa	kitsas	0		A	sg g
ruumi	ruum	0		S	adt
     	ruum	0		S	sg g
     	ruumi	0		V	o
     	ruum	0		S	sg p
pärast	pära	st		S	sg el
      	pärane	t		A	sg p
      	pärast	0		D	
      	pärast	0		K	
vie	####				
Aaasta	####				
eest	eest	0		D	
    	eest	0		K	
    	esi	st		S	sg el
,	,			Z	
küla	küla	0		S	sg g
    	küla	0		S	sg n
    	küla	0		S	sg p
karjama	####				
küllest	####				
,	,			Z	
vasto	####				
tema	tema	0		P	sg g
    	tema	0		P	sg n
piiri	piir	0		S	adt
     	piir	0		S	sg g
     	piir	0		S	sg p
üks	üks	0		N	sg n
   	üks	0		P	sg n
koppel	koppel	0		S	sg n
andnud	and	nud		V	nud
      	and=nu	d		S	pl n
      	and=nud	0		A	
      	and=nud	0		A	sg n
      	and=nud	d		A	pl n
,	,			Z	
kuhu	kuhu	0		D	
nemad	tema	d		P	pl n
isi	####				
olid	ole	id		V	sid
piiri	piir	0		S	adt
     	piir	0		S	sg g
     	piir	0		S	sg p
ette	ette	0		D	
    	ette	0		K	
    	esi	tte		S	adt
tehnud	####				
,	,			Z	
kust	kusi	t		S	sg p
    	kust	0		D	
sadik	####				
se	####				
koppel	koppel	0		S	sg n
sab	####				
,	,			Z	
ja	ja	0		J	
pealegi	pealegi	0		D	
veel	veel	0		D	
    	vesi	l		S	sg ad
haugost	haug_ost	0		S	sg n
ette	ette	0		D	
    	ette	0		K	
    	esi	tte		S	adt
lasknud	lask	nud		V	nud
       	lask=nu	d		S	pl n
       	lask=nud	0		A	
       	lask=nud	0		A	sg n
       	lask=nud	d		A	pl n
,	,			Z	
ja	ja	0		J	
et	et	0		J	
tema	tema	0		P	sg g
    	tema	0		P	sg n
seda	see	da		P	sg p
koplid	koppel	d		S	pl n
selle	see	0		P	sg g
     	sell	e		S	pl p
aja	aeg	0		S	sg g
   	aja	0		V	o
sees	sees	0		D	
    	sees	0		K	
hästi	hästi	0		D	
metsast	mets	st		S	sg el
       	metsane	t		A	sg p
puhastanud	puhasta	nud		V	nud
          	puhasta=nu	d		S	pl n
          	puhasta=nud	0		A	
          	puhasta=nud	0		A	sg n
          	puhasta=nud	d		A	pl n
,	,			Z	
ja	ja	0		J	
seal	seal	0		D	
    	siga	l		A	sg ad
    	siga	l		S	sg ad
palio	####				
tõõd	####				
tehnud	####				
,	,			Z	
tahad	taht	d		V	d
aga	aga	0		J	
nüid	####				
teised	teine	d		O	pl n
      	teine	d		P	pl n
krundi	krunt	0		S	sg g
      	krunti	0		V	o
mehed	mees	d		S	pl n
seda	see	da		P	sg p
tema	tema	0		P	sg g
    	tema	0		P	sg n
käest	käest	0		K	
     	käsi	st		S	sg el
ära	ära	0		D	
   	ära	0		V	neg o
võtta	võt	a		V	da
,	,			Z	
ja	ja	0		J	
karja	kari	0		S	adt
     	kari	0		S	sg g
     	kari	0		S	sg p
maaks	maa	ks		S	sg tr
teha	tege	a		V	da
,	,			Z	
.	.			Z	
Aastusid	####				
ette	ette	0		D	
    	ette	0		K	
    	esi	tte		S	adt
teised	teine	d		O	pl n
      	teine	d		P	pl n
Aadraku	####				
küla	küla	0		S	sg g
    	küla	0		S	sg n
    	küla	0		S	sg p
krundimehed	krundi_mees	d		S	pl n
,	,			Z	
ja	ja	0		J	
räkisid	####				
,	,			Z	
et	et	0		J	
nemad	tema	d		P	pl n
Mihkel	Mihkel	0		H	sg n
      	mihkel	0		A	sg n
      	mihkel	0		S	sg n
Küttale	####				
aga	aga	0		J	
nattukenne	####				
olid	ole	id		V	sid
lubanud	luba	nud		V	nud
       	luba=nu	d		S	pl n
       	luba=nud	0		A	
       	luba=nud	0		A	sg n
       	luba=nud	d		A	pl n
koplis	koppel	s		S	sg in
võtta	võt	a		V	da
,	,			Z	
kui	kui	0		D	
   	kui	0		J	
aga	aga	0		J	
Mihkel	Mihkel	0		H	sg n
      	mihkel	0		A	sg n
      	mihkel	0		S	sg n
Kütt	kütt	0		S	sg n
iga	iga	0		P	sg g
   	iga	0		P	sg n
   	iga	0		P	sg p
   	iga	0		S	sg n
   	iga	0		S	sg p
Aaasta	####				
seda	see	da		P	sg p
koplid	koppel	d		S	pl n
laiemaks	laiem	ks		C	sg tr
ajab	aja	b		V	b
küla	küla	0		S	sg g
    	küla	0		S	sg n
    	küla	0		S	sg p
karja	kari	0		S	adt
     	kari	0		S	sg g
     	kari	0		S	sg p
ma	mina	0		P	sg n
sisse	siss	e		S	pl p
     	sisse	0		D	
     	sisse	0		K	
,	,			Z	
ja	ja	0		J	
et	et	0		J	
nemad	tema	d		P	pl n
selle	see	0		P	sg g
     	sell	e		S	pl p
pärast	pära	st		S	sg el
      	pärane	t		A	sg p
      	pärast	0		D	
      	pärast	0		K	
nüid	####				
tahad	taht	d		V	d
ara	arg	0		A	sg g
võtta	võt	a		V	da
.	.			Z	
Siis	siis	0		D	
    	siis	0		J	
vatas	####				
kogokonna	####				
kohus	kohu	s		V	s
     	kohus	0		S	sg n
seda	see	da		P	sg p
asja	asi	0		S	adt
    	asi	0		S	sg g
    	asi	0		S	sg p
küla	küla	0		S	sg g
    	küla	0		S	sg n
    	küla	0		S	sg p
kaart	kaar	t		S	sg p
     	kaart	0		S	sg n
pealt	pea	lt		S	sg abl
     	pealt	0		D	
     	pealt	0		K	
järele	järele	0		D	
      	järele	0		K	
,	,			Z	
ja	ja	0		J	
leidis	leid	is		V	s
      	leidis	0		S	sg n
et	et	0		J	
se	####				
koppel	koppel	0		S	sg n
mis	mis	0		P	pl n
   	mis	0		P	sg n
Mihkel	Mihkel	0		H	sg n
      	mihkel	0		A	sg n
      	mihkel	0		S	sg n
Kütta	küt	a		V	da
krundi	krunt	0		S	sg g
      	krunti	0		V	o
küles	####				
on	ole	0		V	b
  	ole	0		V	vad
mitte	mitte	0		D	
suur	suur	0		A	sg n
ei	ei	0		D	
  	ei	0		V	neg
ole	ole	0		V	o
,	,			Z	
ja	ja	0		J	
et	et	0		J	
Mihkel	Mihkel	0		H	sg n
      	mihkel	0		A	sg n
      	mihkel	0		S	sg n
Kütt	kütt	0		S	sg n
ilma	ilm	0		S	adt
    	ilm	0		S	sg g
    	ilma	0		D	
    	ilma	0		K	
    	ilm	0		S	sg p
seleta	seleta	0		V	o
läbbi	####				
ei	ei	0		D	
  	ei	0		V	neg
sa	sina	0		P	sg n
ning	ning	0		J	
Moistis	####				
et	et	0		J	
Aadrako	####				
krundi	krunt	0		S	sg g
      	krunti	0		V	o
mehed	mees	d		S	pl n
ise	ise	0		A	
   	ise	0		D	
   	ise	0		P	pl n
   	ise	0		P	sg n
vie	####				
Aaasta	####				
eest	eest	0		D	
    	eest	0		K	
    	esi	st		S	sg el
Mihkel	Mihkel	0		H	sg n
      	mihkel	0		A	sg n
      	mihkel	0		S	sg n
Küttale	####				
seda	see	da		P	sg p
koplid	koppel	d		S	pl n
andnud	and	nud		V	nud
      	and=nu	d		S	pl n
      	and=nud	0		A	
      	and=nud	0		A	sg n
      	and=nud	d		A	pl n
olid	ole	id		V	sid
kelle	kes	0		P	pl g
     	kes	0		P	sg g
juures	juur	s		S	sg in
      	juures	0		D	
      	juures	0		K	
tema	tema	0		P	sg g
    	tema	0		P	sg n
paljo	####				
tõõd	####				
tehnud	####				
ja	ja	0		J	
vaeva	vaev	0		S	adt
     	vaev	0		S	sg g
     	vaeva	0		V	o
     	vaev	0		S	sg p
nähud	näht	d		S	pl n
,	,			Z	
jäeb	####				
selle	see	0		P	sg g
     	sell	e		S	pl p
pärast	pära	st		S	sg el
      	pärane	t		A	sg p
      	pärast	0		D	
      	pärast	0		K	
se	####				
koppel	koppel	0		S	sg n
Mihkel	Mihkel	0		H	sg n
      	mihkel	0		A	sg n
      	mihkel	0		S	sg n
Kütta	küt	a		V	da
kätte	kätte	0		K	
     	käsi	tte		S	adt
ka	ka	0		D	
edispiddi	####				
prukida	####				
Mis	mis	0		P	pl n
   	mis	0		P	sg n
tunnistad	tunnista	d		V	d
kohtumehed	kohtu_mees	d		S	pl n
.	.			Z	
Mart	Mart	0		H	sg n
    	mart	0		S	sg n
Jago	####				
.	.			Z	
XXX	XXX	0		O	?
   	XXX	0		Y	?
Mart	Mart	0		H	sg n
    	mart	0		S	sg n
Liis	Liis	0		H	sg n
    	Lii	s		H	sg in
XXX	XXX	0		O	?
   	XXX	0		Y	?
Toomas	Toomas	0		H	sg n
      	Toomas	s		H	sg in
      	too	mas		V	mas
Pärn	pärn	0		S	sg n
XXX	XXX	0		O	?
   	XXX	0		Y	?
