Peeter	Peeter	0		H	sg n
Lebedev	Lebedev	0		H	sg n
kasepealt	kase_pea	lt		S	sg abl
         	kase_pealt	0		D	
on	ole	0		V	b
  	ole	0		V	vad
võlgu	võlg	u		S	pl p
     	võlgu	0		D	
Jakob	Jakob	0		H	sg n
Pahale	pahk	le		S	sg all
      	paha	le		A	sg all
      	paha	le		S	sg all
Kavastult	####				
6	6	0		N	?
rubla	rubla	0		S	sg g
     	rubla	0		S	sg n
     	rubla	0		S	sg p
40	40	0		N	?
kopikad	kopikas	d		S	pl n
ja	ja	0		J	
lubbab	####				
se	####				
võlg	võlg	0		S	sg n
täna	täna	0		D	
    	täna	0		V	o
kahe	kaks	0		N	sg g
nädala	nädal	0		S	sg g
pärast	pära	st		S	sg el
      	pärane	t		A	sg p
      	pärast	0		D	
      	pärast	0		K	
äratasutud	ära_tasu=tu	d		S	pl n
          	ära_tasu=tud	0		A	
          	ära_tasu=tud	0		A	sg n
          	ära_tasu=tud	d		A	pl n
.	.			Z	
A	A	0		Y	?
.	.			Z	
_	_			Z	
Krim	####				
[	[			Z	
allkiri	all_kiri	0		S	sg n
]	]			Z	
,	,			Z	
pea	pea	0		D	
   	pea	0		S	sg g
   	pida	0		V	o
   	pea	0		S	sg n
xxx	####				
Maddis	####				
erm	####				
,	,			Z	
kohtumees	kohtu_mees	0		S	sg n
A	A	0		Y	?
.	.			Z	
_	_			Z	
Pärn	pärn	0		S	sg n
[	[			Z	
allkiri	all_kiri	0		S	sg n
]	]			Z	
,	,			Z	
""""	""""			Z	
xxx	####				
Tavet	####				
kook	kook	0		S	sg n
,	,			Z	
""""	""""			Z	
