Aastus	####				
ette	ette	0		D	
    	ette	0		K	
    	esi	tte		S	adt
Mihkel	Mihkel	0		H	sg n
      	mihkel	0		A	sg n
      	mihkel	0		S	sg n
Kook	kook	0		S	sg n
metsavarguse	metsa_vargus	0		S	sg g
pärast	pära	st		S	sg el
      	pärane	t		A	sg p
      	pärast	0		D	
      	pärast	0		K	
ja	ja	0		J	
maksis	maks	is		V	s
      	maksi	s		S	sg in
ühe	üks	0		N	sg g
   	üks	0		P	sg g
   	ühe	0		S	sg n
puu	puu	0		S	sg g
   	puu	0		S	sg n
eest	eest	0		D	
    	eest	0		K	
    	esi	st		S	sg el
56.	56.	0		O	?
kopikad	kopikas	d		S	pl n
ja	ja	0		J	
sest	see	st		P	sg el
    	sest	0		J	
rahast	raha	st		S	sg el
saab	saa	b		V	b
28	28	0		N	?
kop	kop	0		Y	?
valla	vald	0		S	sg g
     	valla	0		D	
laeka	laegas	0		S	adt
     	laegas	0		S	sg g
.	.			Z	
