Mihaila	####				
Semenov	####				
Petuhov	####				
ja	ja	0		J	
kassepäh	####				
valla	vald	0		S	sg g
     	valla	0		D	
inimenne	inim_enne	0		S	sg n
Mihaila	####				
Jegorov	####				
Schirnov	####				
tulid	tule	id		V	sid
kogukonna	kogukond	0		S	sg g
kohtu	kohtu	0		V	o
     	kohus	0		S	sg g
ette	ette	0		D	
    	ette	0		K	
    	esi	tte		S	adt
,	,			Z	
ja	ja	0		J	
palusid	palu	sid		S	pl p
       	palu	sid		V	sid
oma	oma	0		A	sg g
   	oma	0		D	
   	oma	0		P	sg g
   	oma	0		S	sg g
   	oma	0		V	o
   	oma	0		A	sg n
   	oma	0		A	sg p
   	oma	0		P	sg n
   	oma	0		P	sg p
   	oma	0		S	sg n
   	oma	0		S	sg p
lepping	####				
protokoli	####				
võtta	võt	a		V	da
.	.			Z	
Mihaila	####				
Jegorov	####				
Schirnov	####				
on	ole	0		V	b
  	ole	0		V	vad
tema	tema	0		P	sg g
    	tema	0		P	sg n
maea	####				
ehitada	ehita	da		V	da
võtnud	võt	nud		V	nud
      	võt=nu	d		S	pl n
      	võt=nud	0		A	
      	võt=nud	0		A	sg n
      	võt=nud	d		A	pl n
,	,			Z	
ja	ja	0		J	
jätnud	jät	nud		V	nud
      	jät=nu	d		S	pl n
      	jät=nud	0		A	
      	jät=nud	0		A	sg n
      	jät=nud	d		A	pl n
polele	####				
,	,			Z	
ja	ja	0		J	
lubbab	####				
se	####				
ettevoetud	ette_voe=tu	d		A	pl n
raha	raha	0		S	sg g
    	raha	0		S	sg n
    	raha	0		S	sg p
kaubast	kaup	st		S	sg el
taganemise	taganemine	0		S	sg g
eest	eest	0		D	
    	eest	0		K	
    	esi	st		S	sg el
üleültse	####				
30.	30.	0		O	?
rublaga	rubla	ga		S	sg kom
15.	15.	0		O	?
Martsil	####				
1882.	1882.	0		O	?
a.	a	0		Y	?
Mihaila	####				
Semenov	####				
Petuhovile	####				
väljamaksa	välja_maks	0		S	adt
          	välja_maks	0		S	sg g
          	välja_maks	0		S	sg p
.	.			Z	
A	A	0		Y	?
.	.			Z	
_	_			Z	
Krim	####				
[	[			Z	
allkiri	all_kiri	0		S	sg n
]	]			Z	
,	,			Z	
pea	pea	0		D	
   	pea	0		S	sg g
   	pida	0		V	o
   	pea	0		S	sg n
A	A	0		Y	?
.	.			Z	
_	_			Z	
Pärn	pärn	0		S	sg n
[	[			Z	
allkiri	all_kiri	0		S	sg n
]	]			Z	
,	,			Z	
kohtumees	kohtu_mees	0		S	sg n
xxx	####				
Tavet	####				
kook	kook	0		S	sg n
,	,			Z	
""""	""""			Z	
xxx	####				
Josep	####				
Maddi	####				
,	,			Z	
""""	""""			Z	
