sel	see	l		P	sg ad
   	sel	0		Y	?
1	1	0		N	?
Vebruaril	####				
1888.	1888.	0		O	?
selle	see	0		P	sg g
     	sell	e		S	pl p
otsuse	otsus	0		S	sg g
peale	pea	le		S	sg all
     	peale	0		D	
     	peale	0		K	
sest	see	st		P	sg el
    	sest	0		J	
16	16	0		N	?
Novembrist	november	st		S	sg el
1887	1887	0		N	?
Jaan	Jaan	0		H	sg n
    	jaan	0		S	sg n
    	jaan	0		Y	?
pruuksta	####				
kaebuse	kaebus	0		S	sg g
asja	asi	0		S	adt
    	asi	0		S	sg g
    	asi	0		S	sg p
mesipuu	mesi_puu	0		S	sg g
       	mesi_puu	0		S	sg n
lõhkumise	lõhkumine	0		S	sg g
pärast	pära	st		S	sg el
      	pärane	t		A	sg p
      	pärast	0		D	
      	pärast	0		K	
oli	ole	i		V	s
Mihkel	Mihkel	0		H	sg n
      	mihkel	0		A	sg n
      	mihkel	0		S	sg n
Rosenthal	####				
tulnud	tul=nud	0		A	
      	tul=nud	0		A	sg n
      	tul=nud	d		A	pl n
      	tule	nud		V	nud
      	tulnu	d		S	pl n
ja	ja	0		J	
vastutas	vastuta	s		V	s
oma	oma	0		A	sg g
   	oma	0		D	
   	oma	0		P	sg g
   	oma	0		S	sg g
   	oma	0		V	o
   	oma	0		A	sg n
   	oma	0		A	sg p
   	oma	0		P	sg n
   	oma	0		P	sg p
   	oma	0		S	sg n
   	oma	0		S	sg p
eksa	####				
Jaan	Jaan	0		H	sg n
    	jaan	0		S	sg n
    	jaan	0		Y	?
Rosenthali	####				
man	man	0		D	
   	man	0		K	
olen	ole	n		V	n
et	et	0		J	
tema	tema	0		P	sg g
    	tema	0		P	sg n
Jaan	Jaan	0		H	sg n
    	jaan	0		S	sg n
    	jaan	0		Y	?
pruuksta	####				
mesi	mesi	0		S	pl p
    	mesi	0		S	sg n
puud	puu	d		S	pl n
    	puud	0		S	sg n
    	puu	d		S	sg p
lõhkunud	lõhku	nud		V	nud
        	lõhku=nu	d		S	pl n
        	lõhku=nud	0		A	
        	lõhku=nud	0		A	sg n
        	lõhku=nud	d		A	pl n
ei	ei	0		D	
  	ei	0		V	neg
ole	ole	0		V	o
,	,			Z	
Johan	Johan	0		H	sg n
Jansen	####				
vastutas	vastuta	s		V	s
niisama	nii_sama	0		D	
.	.			Z	
metsavaht	metsa_vaht	0		S	sg n
Peeter	Peeter	0		H	sg n
Klaosen	####				
tunistas	####				
et	et	0		J	
tema	tema	0		P	sg g
    	tema	0		P	sg n
karja	kari	0		S	adt
     	kari	0		S	sg g
     	kari	0		S	sg p
pois	poi	s		S	sg in
Johan	Johan	0		H	sg n
Jansen	####				
olevat	ole	vat		V	vat
      	olev	t		A	sg p
      	olev	t		S	sg p
kõnelnud	kõnel=nu	d		S	pl n
        	kõnel=nud	0		A	
        	kõnel=nud	0		A	sg n
        	kõnel=nud	d		A	pl n
        	kõnele	nud		V	nud
,	,			Z	
et	et	0		J	
tema	tema	0		P	sg g
    	tema	0		P	sg n
Mihkel	Mihkel	0		H	sg n
      	mihkel	0		A	sg n
      	mihkel	0		S	sg n
Rosenthali	####				
ja	ja	0		J	
Jaan	Jaan	0		H	sg n
    	jaan	0		S	sg n
    	jaan	0		Y	?
Märtiniga	####				
Jaan	Jaan	0		H	sg n
    	jaan	0		S	sg n
    	jaan	0		Y	?
pruuksta	####				
mesi	mesi	0		S	pl p
    	mesi	0		S	sg n
puud	puu	d		S	pl n
    	puud	0		S	sg n
    	puu	d		S	sg p
ära	ära	0		D	
   	ära	0		V	neg o
on	ole	0		V	b
  	ole	0		V	vad
lõhkunud	lõhku	nud		V	nud
        	lõhku=nu	d		S	pl n
        	lõhku=nud	0		A	
        	lõhku=nud	0		A	sg n
        	lõhku=nud	d		A	pl n
.	.			Z	
Liis	Liis	0		H	sg n
    	Lii	s		H	sg in
komusaar	komu_saar	0		S	sg n
tunistas	####				
niisama	nii_sama	0		D	
kui	kui	0		D	
   	kui	0		J	
Peeter	Peeter	0		H	sg n
Klaosen	####				
ja	ja	0		J	
et	et	0		J	
Mihkel	Mihkel	0		H	sg n
      	mihkel	0		A	sg n
      	mihkel	0		S	sg n
Rosenthal	####				
olevat	ole	vat		V	vat
      	olev	t		A	sg p
      	olev	t		S	sg p
Johan	Johan	0		H	sg n
Jantsonil	jant_soni	l		S	sg ad
käsknud	####				
seda	see	da		P	sg p
mesi	mesi	0		S	pl p
    	mesi	0		S	sg n
puud	puu	d		S	pl n
    	puud	0		S	sg n
    	puu	d		S	sg p
lõhkumist	lõhkumine	t		S	sg p
ära	ära	0		D	
   	ära	0		V	neg o
salata	salga	ta		V	da
      	sala	ta		S	sg ab
      	salga	ta		V	ta
.	.			Z	
Mõistetud	mõist	tud		V	tud
         	mõiste=tu	d		S	pl n
         	mõiste=tud	0		A	
         	mõiste=tud	0		A	sg n
         	mõiste=tud	d		A	pl n
:	:			Z	
et	et	0		J	
ega	ega	0		D	
   	ega	0		J	
karjapois	karja_poi	s		S	sg in
2	2	0		N	?
rubl	####				
selle	see	0		P	sg g
     	sell	e		S	pl p
mesi	mesi	0		S	pl p
    	mesi	0		S	sg n
puud	puu	d		S	pl n
    	puud	0		S	sg n
    	puu	d		S	sg p
lõhkumise	lõhkumine	0		S	sg g
eest	eest	0		D	
    	eest	0		K	
    	esi	st		S	sg el
kahjutasumist	kahju_tasumine	t		S	sg p
Jaan	Jaan	0		H	sg n
    	jaan	0		S	sg n
    	jaan	0		Y	?
pruuksale	pruuk_sale	0		A	sg n
ja	ja	0		J	
1	1	0		N	?
rubl	####				
trahvi	trahv	0		S	adt
      	trahv	0		S	sg g
      	trahvi	0		V	o
      	trahv	0		S	sg p
vaeste	vaene	te		A	pl g
      	vaene	te		S	pl g
laadiku	laadik	0		S	sg g
heaks	hea	ks		A	sg tr
     	hea	ks		S	sg tr
     	heaks	0		D	
     	heaks	0		K	
peavad	pida	vad		V	vad
maksma	maks	ma		V	ma
,	,			Z	
selle	see	0		P	sg g
     	sell	e		S	pl p
et	et	0		J	
nemad	tema	d		P	pl n
selle	see	0		P	sg g
     	sell	e		S	pl p
mesi	mesi	0		S	pl p
    	mesi	0		S	sg n
puud	puu	d		S	pl n
    	puud	0		S	sg n
    	puu	d		S	sg p
lõhkunud	lõhku	nud		V	nud
        	lõhku=nu	d		S	pl n
        	lõhku=nud	0		A	
        	lõhku=nud	0		A	sg n
        	lõhku=nud	d		A	pl n
on	ole	0		V	b
  	ole	0		V	vad
,	,			Z	
sellepärra	####				
tuleb	tule	b		V	b
maksta	maks	ta		V	da
      	maks	ta		V	ta
Mihkel	Mihkel	0		H	sg n
      	mihkel	0		A	sg n
      	mihkel	0		S	sg n
Rosenthali	####				
,	,			Z	
Kusta	Kusta	0		H	sg g
     	Kusta	0		H	sg n
     	kuse	ta		V	da
     	kuse	ta		V	ta
Märtini	####				
ja	ja	0		J	
Jaan	Jaan	0		H	sg n
    	jaan	0		S	sg n
    	jaan	0		Y	?
Jansonil	####				
see	see	0		P	sg n
raha	raha	0		S	sg g
    	raha	0		S	sg n
    	raha	0		S	sg p
.	.			Z	
see	see	0		P	sg n
mõistus	mõistus	0		S	sg n
sai	saa	i		V	s
   	sai	0		S	sg n
Jaan	Jaan	0		H	sg n
    	jaan	0		S	sg n
    	jaan	0		Y	?
pruuksile	pruuk_sile	0		A	sg n
kuulutatud	kuuluta	tud		V	tud
          	kuuluta=tu	d		S	pl n
          	kuuluta=tud	0		A	
          	kuuluta=tud	0		A	sg n
          	kuuluta=tud	d		A	pl n
ja	ja	0		J	
õpetud	####				
leht	leht	0		S	sg n
välja	välja	0		D	
     	välja	0		V	o
     	väli	0		S	adt
     	väli	0		S	sg g
     	väli	0		S	sg p
antud	an=tu	d		S	pl n
     	and	tud		V	tud
     	antud	0		A	
     	antud	0		A	sg n
     	antud	d		A	pl n
.	.			Z	
sel	see	l		P	sg ad
   	sel	0		Y	?
24	24	0		N	?
Oktobril	####				
1888	1888	0		N	?
sai	saa	i		V	s
   	sai	0		S	sg n
mõistus	mõistus	0		S	sg n
Mihkel	Mihkel	0		H	sg n
      	mihkel	0		A	sg n
      	mihkel	0		S	sg n
Rosenthali	####				
eksa	####				
Jaanile	Jaan	le		H	sg all
       	Jaani	le		H	sg all
       	jaan	le		S	sg all
§	§	0		Y	?
773	773	0		N	?
ja	ja	0		J	
774	774	0		N	?
perra	####				
kuulutatud	kuuluta	tud		V	tud
          	kuuluta=tu	d		S	pl n
          	kuuluta=tud	0		A	
          	kuuluta=tud	0		A	sg n
          	kuuluta=tud	d		A	pl n
ja	ja	0		J	
õpetud	####				
leht	leht	0		S	sg n
välja	välja	0		D	
     	välja	0		V	o
     	väli	0		S	adt
     	väli	0		S	sg g
     	väli	0		S	sg p
antud	an=tu	d		S	pl n
     	and	tud		V	tud
     	antud	0		A	
     	antud	0		A	sg n
     	antud	d		A	pl n
.	.			Z	
peakohtumees	pea_kohtu_mees	0		S	sg n
Johan	Johan	0		H	sg n
Ling	ling	0		S	sg n
XXX	XXX	0		O	?
   	XXX	0		Y	?
kohtumees	kohtu_mees	0		S	sg n
Johan	Johan	0		H	sg n
opman	opman	0		S	sg n
XXX	XXX	0		O	?
   	XXX	0		Y	?
""""	""""			Z	
Johan	Johan	0		H	sg n
rasva	rasv	0		S	adt
     	rasv	0		S	sg g
     	rasva	0		D	
     	rasva	0		V	o
     	rasv	0		S	sg p
XXX	XXX	0		O	?
   	XXX	0		Y	?
""""	""""			Z	
Jaan	Jaan	0		H	sg n
    	jaan	0		S	sg n
    	jaan	0		Y	?
Hansen	Hansen	0		H	sg n
/	/			Z	
allkiri	all_kiri	0		S	sg n
/	/			Z	
