Aavvinurme	####				
Metskogokonnakohtus	####				
sel	see	l		P	sg ad
   	sel	0		Y	?
6	6	0		N	?
Mail	Mai	l		H	sg ad
    	maa	il		S	pl ad
    	mai	l		S	sg ad
    	mail	0		S	sg n
187.8	187.8	0		N	?
koos	koos	0		D	
    	koos	0		K	
    	koos	0		S	sg n
    	kubu	s		S	sg in
olid	ole	id		V	sid
.	.			Z	
peakohtumees	pea_kohtu_mees	0		S	sg n
Josep	####				
Laurison	####				
teine	teine	0		O	sg n
     	teine	0		P	sg n
kohtumees	kohtu_mees	0		S	sg n
Jaan	Jaan	0		H	sg n
    	jaan	0		S	sg n
    	jaan	0		Y	?
Mänd	mänd	0		S	sg n
kolmas	kolmas	0		O	sg n
kohtumees	kohtu_mees	0		S	sg n
Jüri	Jüri	0		H	sg g
    	Jüri	0		H	sg n
Tomi	Tom	0		H	adt
    	Tom	0		H	sg g
    	Tom	0		H	sg p
Üks	üks	0		N	sg n
   	üks	0		P	sg n
Keiserlik	keiserlik	0		A	sg n
Tartu	Tartu	0		H	adt
     	Tartu	0		H	sg g
     	Tartu	0		H	sg n
     	tartu	0		G	
Maakohus	maa_kohus	0		S	sg n
oli	ole	i		V	s
üks	üks	0		N	sg n
   	üks	0		P	sg n
Vang	vang	0		S	sg n
selle	see	0		P	sg g
     	sell	e		S	pl p
eeskirja	ees_kiri	0		S	adt
        	ees_kiri	0		S	sg g
        	ees_kiri	0		S	sg p
juures	juur	s		S	sg in
      	juures	0		D	
      	juures	0		K	
sest	see	st		P	sg el
    	sest	0		J	
1	1	0		N	?
Maist	Mai	st		H	sg el
     	maa	ist		S	pl el
     	mai	st		S	sg el
     	maine	t		A	sg p
c	c	0		Y	?
N	N	0		Y	?
:	:			Z	
4218	4218	0		N	?
seie	####				
kogokonna	####				
kohtu	kohtu	0		V	o
     	kohus	0		S	sg g
kätte	kätte	0		K	
     	käsi	tte		S	adt
selle	see	0		P	sg g
     	sell	e		S	pl p
käsuga	käsk	ga		S	sg kom
saatnud	saat	nud		V	nud
       	saat=nu	d		S	pl n
       	saat=nud	0		A	
       	saat=nud	0		A	sg n
       	saat=nud	d		A	pl n
,	,			Z	
et	et	0		J	
Aavvinurme	####				
kõrtsmik	kõrtsmik	0		S	sg n
Aleksander	Aleksander	0		H	sg n
Suits	suits	0		S	sg n
on	ole	0		V	b
  	ole	0		V	vad
se	####				
inimenne	inim_enne	0		S	sg n
Tartu	Tartu	0		H	adt
     	Tartu	0		H	sg g
     	Tartu	0		H	sg n
     	tartu	0		G	
linnas	linn	s		S	sg in
kinni	kinni	0		D	
panna	pand	0		S	sg g
     	pane	a		V	da
     	panna	0		S	sg g
     	panna	0		S	sg n
lasknud	lask	nud		V	nud
       	lask=nu	d		S	pl n
       	lask=nud	0		A	
       	lask=nud	0		A	sg n
       	lask=nud	d		A	pl n
.	.			Z	
et	et	0		J	
se	####				
peab	pida	b		V	b
tema	tema	0		P	sg g
    	tema	0		P	sg n
kõrtsi	kõrts	0		S	adt
      	kõrts	0		S	sg g
      	kõrts	0		S	sg p
eest	eest	0		D	
    	eest	0		K	
    	esi	st		S	sg el
mineva	minev	0		A	sg g
talvel	talv	l		S	sg ad
      	tali	l		S	sg ad
üks	üks	0		N	sg n
   	üks	0		P	sg n
regi	regi	0		S	sg n
ja	ja	0		J	
hobbose	####				
riistad	riist	d		S	pl n
ära	ära	0		D	
   	ära	0		V	neg o
varastanud	varasta	nud		V	nud
          	varasta=nu	d		S	pl n
          	varasta=nud	0		A	
          	varasta=nud	0		A	sg n
          	varasta=nud	d		A	pl n
olema	ole	ma		V	ma
.	.			Z	
ja	ja	0		J	
et	et	0		J	
kogokonnakohus	####				
peab	pida	b		V	b
selle	see	0		P	sg g
     	sell	e		S	pl p
asja	asi	0		S	adt
    	asi	0		S	sg g
    	asi	0		S	sg p
sees	sees	0		D	
    	sees	0		K	
üks	üks	0		N	sg n
   	üks	0		P	sg n
ees	ees	0		D	
   	ees	0		K	
   	esi	s		S	sg in
järele	järele	0		D	
      	järele	0		K	
kuulamine	kuulamine	0		S	sg n
tegema	tege	ma		V	ma
.	.			Z	
Sai	saa	i		V	s
   	sai	0		S	sg n
ette	ette	0		D	
    	ette	0		K	
    	esi	tte		S	adt
kutsutud	kutsu	tud		V	tud
        	kutsutu	d		S	pl n
        	kutsutud	0		A	
        	kutsutud	0		A	sg n
        	kutsutud	d		A	pl n
Maetsma	####				
kõrtsmik	kõrtsmik	0		S	sg n
Aleksander	Aleksander	0		H	sg n
Suits	suits	0		S	sg n
kes	kes	0		P	pl n
   	kes	0		P	sg n
räkis	####				
et	et	0		J	
se	####				
olnud	ol=nud	0		A	
     	ol=nud	0		A	sg n
     	ol=nud	d		A	pl n
     	ole	nud		V	nud
     	olnu	d		S	pl n
mineva	minev	0		A	sg g
talvel	talv	l		S	sg ad
      	tali	l		S	sg ad
sel	see	l		P	sg ad
   	sel	0		Y	?
.	.			Z	
28al	####				
Dcmbril	####				
1877	1877	0		N	?
kui	kui	0		D	
   	kui	0		J	
üks	üks	0		N	sg n
   	üks	0		P	sg n
hantverki	####				
moodi	mood	0		S	adt
     	mood	0		S	sg p
     	moodi	0		A	
     	moodi	0		K	
mees	mees	0		S	sg n
    	mesi	s		S	sg in
on	ole	0		V	b
  	ole	0		V	vad
tema	tema	0		P	sg g
    	tema	0		P	sg n
kõrtsi	kõrts	0		S	adt
      	kõrts	0		S	sg g
      	kõrts	0		S	sg p
tulnud	tul=nud	0		A	
      	tul=nud	0		A	sg n
      	tul=nud	d		A	pl n
      	tule	nud		V	nud
      	tulnu	d		S	pl n
ning	ning	0		J	
temaga	tema	ga		P	sg kom
hobust	hobu	st		S	sg el
      	hobune	t		S	sg p
vahetanud	vaheta	nud		V	nud
         	vaheta=nu	d		S	pl n
         	vaheta=nud	0		A	
         	vaheta=nud	0		A	sg n
         	vaheta=nud	d		A	pl n
ja	ja	0		J	
temale	tema	le		P	sg all
üks	üks	0		N	sg n
   	üks	0		P	sg n
mustjas	mustjas	0		A	sg n
       	mustjas	s		A	sg in
kõrb	kõrb	0		A	sg n
    	kõrb	0		S	sg n
Mära	mära	0		S	sg g
    	mära	0		S	sg n
    	mära	0		S	sg p
hobbone	####				
.	.			Z	
3	3	0		N	?
1	1	0		N	?
/	/			Z	
2	2	0		N	?
Aaastad	####				
vana	vana	0		A	sg g
    	vana	0		A	sg n
    	vana	0		A	sg p
    	vana	0		S	sg g
    	vana	0		S	sg n
    	vana	0		S	sg p
andnud	and	nud		V	nud
      	and=nu	d		S	pl n
      	and=nud	0		A	
      	and=nud	0		A	sg n
      	and=nud	d		A	pl n
kes	kes	0		P	pl n
   	kes	0		P	sg n
umbes	umbes	0		A	
     	umbes	0		D	
     	umme	s		S	sg in
60	60	0		N	?
rubla	rubla	0		S	sg g
     	rubla	0		S	sg n
     	rubla	0		S	sg p
väärt	väärt	0		A	
     	väärt	0		D	
olnud	ol=nud	0		A	
     	ol=nud	0		A	sg n
     	ol=nud	d		A	pl n
     	ole	nud		V	nud
     	olnu	d		S	pl n
ja	ja	0		J	
anod	####				
tema	tema	0		P	sg g
    	tema	0		P	sg n
selle	see	0		P	sg g
     	sell	e		S	pl p
mehele	mees	le		S	sg all
üks	üks	0		N	sg n
   	üks	0		P	sg n
vana	vana	0		A	sg g
    	vana	0		A	sg n
    	vana	0		A	sg p
    	vana	0		S	sg g
    	vana	0		S	sg n
    	vana	0		S	sg p
hobbone	####				
vasto	####				
ja	ja	0		J	
15	15	0		N	?
rubla	rubla	0		S	sg g
     	rubla	0		S	sg n
     	rubla	0		S	sg p
peale	pea	le		S	sg all
     	peale	0		D	
     	peale	0		K	
,	,			Z	
et	et	0		J	
aga	aga	0		J	
tema	tema	0		P	sg g
    	tema	0		P	sg n
kartma	kart	ma		V	ma
hakkanud	####				
et	et	0		J	
se	####				
hobbone	####				
üks	üks	0		N	sg n
   	üks	0		P	sg n
varastud	####				
voib	####				
olla	ole	a		V	da
on	ole	0		V	b
  	ole	0		V	vad
tema	tema	0		P	sg g
    	tema	0		P	sg n
selle	see	0		P	sg g
     	sell	e		S	pl p
mehe	mees	0		S	sg g
käest	käest	0		K	
     	käsi	st		S	sg el
hobbose	####				
pasi	####				
küsinud	küsi	nud		V	nud
       	küsi=nu	d		S	pl n
       	küsi=nud	0		A	
       	küsi=nud	0		A	sg n
       	küsi=nud	d		A	pl n
.	.			Z	
se	####				
aga	aga	0		J	
ütlenud	####				
et	et	0		J	
temal	tema	l		P	sg ad
seda	see	da		P	sg p
ei	ei	0		D	
  	ei	0		V	neg
ole	ole	0		V	o
.	.			Z	
ja	ja	0		J	
piddanud	####				
nemad	tema	d		P	pl n
kontori	kontor	0		S	sg g
juure	juur	0		S	sg g
minema	mine	ma		V	ma
et	et	0		J	
se	####				
hobbone	####				
saab	saa	b		V	b
üles	üles	0		D	
kirjutud	####				
ja	ja	0		J	
tulnud	tul=nud	0		A	
      	tul=nud	0		A	sg n
      	tul=nud	d		A	pl n
      	tule	nud		V	nud
      	tulnu	d		S	pl n
selle	see	0		P	sg g
     	sell	e		S	pl p
peale	pea	le		S	sg all
     	peale	0		D	
     	peale	0		K	
ka	ka	0		D	
üks	üks	0		N	sg n
   	üks	0		P	sg n
Valla	vald	0		S	sg g
     	valla	0		D	
kohtumees	kohtu_mees	0		S	sg n
sina	sina	0		P	sg n
    	sina	0		S	sg g
    	sina	0		V	o
    	sina	0		S	sg n
    	sina	0		S	sg p
kõrtsi	kõrts	0		S	adt
      	kõrts	0		S	sg g
      	kõrts	0		S	sg p
,	,			Z	
se	####				
võõras	võõras	0		A	sg n
      	võõras	0		S	sg n
      	võõras	s		A	sg in
      	võõras	s		S	sg in
mees	mees	0		S	sg n
    	mesi	s		S	sg in
on	ole	0		V	b
  	ole	0		V	vad
aga	aga	0		J	
kulnud	####				
et	et	0		J	
üks	üks	0		N	sg n
   	üks	0		P	sg n
kohtumees	kohtu_mees	0		S	sg n
on	ole	0		V	b
  	ole	0		V	vad
sina	sina	0		P	sg n
    	sina	0		S	sg g
    	sina	0		V	o
    	sina	0		S	sg n
    	sina	0		S	sg p
tulnud	tul=nud	0		A	
      	tul=nud	0		A	sg n
      	tul=nud	d		A	pl n
      	tule	nud		V	nud
      	tulnu	d		S	pl n
ja	ja	0		J	
on	ole	0		V	b
  	ole	0		V	vad
kohe	kohe	0		A	sg n
    	kohe	0		D	
õue	õu	0		S	adt
   	õu	0		S	sg g
   	õue	0		D	
   	õu	0		S	sg p
lähud	####				
,	,			Z	
ja	ja	0		J	
kui	kui	0		D	
   	kui	0		J	
nemad	tema	d		P	pl n
välja	välja	0		D	
     	välja	0		V	o
     	väli	0		S	adt
     	väli	0		S	sg g
     	väli	0		S	sg p
lähud	####				
ei	ei	0		D	
  	ei	0		V	neg
ole	ole	0		V	o
seda	see	da		P	sg p
võõrast	võõras	st		A	sg el
       	võõras	st		S	sg el
       	võõras	t		A	sg p
       	võõras	t		S	sg p
meest	meene	t		A	sg p
     	mees	t		S	sg p
     	mesi	st		S	sg el
enamb	####				
koskil	####				
olnud	ol=nud	0		A	
     	ol=nud	0		A	sg n
     	ol=nud	d		A	pl n
     	ole	nud		V	nud
     	olnu	d		S	pl n
ning	ning	0		J	
selle	see	0		P	sg g
     	sell	e		S	pl p
hobbosega	####				
mis	mis	0		P	pl n
   	mis	0		P	sg n
tema	tema	0		P	sg g
    	tema	0		P	sg n
sellele	see	le		P	sg all
andnud	and	nud		V	nud
      	and=nu	d		S	pl n
      	and=nud	0		A	
      	and=nud	0		A	sg n
      	and=nud	d		A	pl n
ära	ära	0		D	
   	ära	0		V	neg o
sõitnud	sõit	nud		V	nud
       	sõit=nu	d		S	pl n
       	sõit=nud	0		A	
       	sõit=nud	0		A	sg n
       	sõit=nud	d		A	pl n
,	,			Z	
selle	see	0		P	sg g
     	sell	e		S	pl p
peale	pea	le		S	sg all
     	peale	0		D	
     	peale	0		K	
on	ole	0		V	b
  	ole	0		V	vad
siis	siis	0		D	
    	siis	0		J	
tema	tema	0		P	sg g
    	tema	0		P	sg n
kohe	kohe	0		A	sg n
    	kohe	0		D	
selle	see	0		P	sg g
     	sell	e		S	pl p
kohtumehe	kohtu_mees	0		S	sg g
Aandres	####				
Kiigega	kiik	ga		S	sg kom
kontori	kontor	0		S	sg g
juure	juur	0		S	sg g
sõitnud	sõit	nud		V	nud
       	sõit=nu	d		S	pl n
       	sõit=nud	0		A	
       	sõit=nud	0		A	sg n
       	sõit=nud	d		A	pl n
ning	ning	0		J	
Vallavalitsusele	valla_valitsus	le		S	sg all
teada	tead	a		V	da
andnud	and	nud		V	nud
      	and=nu	d		S	pl n
      	and=nud	0		A	
      	and=nud	0		A	sg n
      	and=nud	d		A	pl n
et	et	0		J	
üks	üks	0		N	sg n
   	üks	0		P	sg n
võõras	võõras	0		A	sg n
      	võõras	0		S	sg n
      	võõras	s		A	sg in
      	võõras	s		S	sg in
mees	mees	0		S	sg n
    	mesi	s		S	sg in
on	ole	0		V	b
  	ole	0		V	vad
temale	tema	le		P	sg all
üks	üks	0		N	sg n
   	üks	0		P	sg n
noor	noor	0		A	sg n
    	noor	0		S	sg n
hobbone	####				
odava	odav	0		A	sg g
hinaga	####				
vahetanud	vaheta	nud		V	nud
         	vaheta=nu	d		S	pl n
         	vaheta=nud	0		A	
         	vaheta=nud	0		A	sg n
         	vaheta=nud	d		A	pl n
mis	mis	0		P	pl n
   	mis	0		P	sg n
kül	####				
üks	üks	0		N	sg n
   	üks	0		P	sg n
varastud	####				
hobbone	####				
saab	saa	b		V	b
olema	ole	ma		V	ma
.	.			Z	
,	,			Z	
ja	ja	0		J	
anod	####				
temale	tema	le		P	sg all
siis	siis	0		D	
    	siis	0		J	
Valla	vald	0		S	sg g
     	valla	0		D	
valitsus	valitsus	0		S	sg n
käsku	käsk	0		S	adt
     	käsk	0		S	sg p
et	et	0		J	
tema	tema	0		P	sg g
    	tema	0		P	sg n
peab	pida	b		V	b
nõnda	nõnda	0		D	
kohe	kohe	0		A	sg n
    	kohe	0		D	
järele	järele	0		D	
      	järele	0		K	
sõitma	sõit	ma		V	ma
ja	ja	0		J	
se	####				
voeras	####				
mees	mees	0		S	sg n
    	mesi	s		S	sg in
kinni	kinni	0		D	
võtma	võt	ma		V	ma
ja	ja	0		J	
Vallavalitsuse	valla_valitsus	0		S	sg g
juure	juur	0		S	sg g
toma	####				
ja	ja	0		J	
antud	an=tu	d		S	pl n
     	and	tud		V	tud
     	antud	0		A	
     	antud	0		A	sg n
     	antud	d		A	pl n
temale	tema	le		P	sg all
seltsimehest	seltsi_mees	st		S	sg el
Jaan	Jaan	0		H	sg n
    	jaan	0		S	sg n
    	jaan	0		Y	?
Traks	traks	0		A	sg n
     	traks	0		S	sg n
kaasa	kaasa	0		D	
     	kaasa	0		V	o
     	kaasa	0		S	sg g
     	kaasa	0		S	sg n
.	.			Z	
selle	see	0		P	sg g
     	sell	e		S	pl p
peale	pea	le		S	sg all
     	peale	0		D	
     	peale	0		K	
on	ole	0		V	b
  	ole	0		V	vad
nemad	tema	d		P	pl n
siis	siis	0		D	
    	siis	0		J	
kuni	kuni	0		J	
    	kuni	0		K	
Lohosu	####				
ligidale	ligida	le		A	sg all
        	ligidale	0		D	
        	ligidale	0		K	
sõitnud	sõit	nud		V	nud
       	sõit=nu	d		S	pl n
       	sõit=nud	0		A	
       	sõit=nud	0		A	sg n
       	sõit=nud	d		A	pl n
ja	ja	0		J	
se	####				
mees	mees	0		S	sg n
    	mesi	s		S	sg in
selle	see	0		P	sg g
     	sell	e		S	pl p
vana	vana	0		A	sg g
    	vana	0		A	sg n
    	vana	0		A	sg p
    	vana	0		S	sg g
    	vana	0		S	sg n
    	vana	0		S	sg p
hobbosega	####				
mis	mis	0		P	pl n
   	mis	0		P	sg n
tema	tema	0		P	sg g
    	tema	0		P	sg n
sellele	see	le		P	sg all
andnud	and	nud		V	nud
      	and=nu	d		S	pl n
      	and=nud	0		A	
      	and=nud	0		A	sg n
      	and=nud	d		A	pl n
.	.			Z	
kätte	kätte	0		K	
     	käsi	tte		S	adt
saanud	saa	nud		V	nud
      	saa=nud	0		A	
      	saa=nud	0		A	sg n
      	saa=nud	d		A	pl n
      	saanu	d		S	pl n
.	.			Z	
ja	ja	0		J	
et	et	0		J	
tema	tema	0		P	sg g
    	tema	0		P	sg n
nattukenne	####				
joobnud	joobnu	d		S	pl n
       	joobnud	0		A	
       	joobnud	0		A	sg n
       	joobnud	d		A	pl n
olnud	ol=nud	0		A	
     	ol=nud	0		A	sg n
     	ol=nud	d		A	pl n
     	ole	nud		V	nud
     	olnu	d		S	pl n
ning	ning	0		J	
kartnud	kart	nud		V	nud
       	kart=nu	d		S	pl n
       	kart=nud	0		A	
       	kart=nud	0		A	sg n
       	kart=nud	d		A	pl n
et	et	0		J	
se	####				
inimenne	inim_enne	0		S	sg n
temale	tema	le		P	sg all
metsavahel	metsa_vahe	l		S	sg ad
voib	####				
kurja	kuri	0		A	adt
     	kuri	0		A	sg g
     	kuri	0		S	adt
     	kuri	0		S	sg g
     	kuri	0		A	sg p
     	kuri	0		S	sg p
teha	tege	a		V	da
kui	kui	0		D	
   	kui	0		J	
tema	tema	0		P	sg g
    	tema	0		P	sg n
teda	tema	da		P	sg p
kinni	kinni	0		D	
vottab	####				
siis	siis	0		D	
    	siis	0		J	
on	ole	0		V	b
  	ole	0		V	vad
nemad	tema	d		P	pl n
kuni	kuni	0		J	
    	kuni	0		K	
Nenasi	####				
kortsi	kortsi	0		V	o
juure	juur	0		S	sg g
soita	####				
tahtnud	taht	nud		V	nud
       	taht=nu	d		S	pl n
       	taht=nud	0		A	
       	taht=nud	0		A	sg n
       	taht=nud	d		A	pl n
,	,			Z	
teepeal	tee_pea	l		S	sg ad
on	ole	0		V	b
  	ole	0		V	vad
aga	aga	0		J	
tema	tema	0		P	sg g
    	tema	0		P	sg n
selle	see	0		P	sg g
     	sell	e		S	pl p
võõra	võõras	0		A	sg g
     	võõras	0		S	sg g
mehe	mees	0		S	sg g
hobbose	####				
peale	pea	le		S	sg all
     	peale	0		D	
     	peale	0		K	
istunud	istu	nud		V	nud
       	istu=nu	d		S	pl n
       	istu=nud	0		A	
       	istu=nud	0		A	sg n
       	istu=nud	d		A	pl n
ning	ning	0		J	
se	####				
võõras	võõras	0		A	sg n
      	võõras	0		S	sg n
      	võõras	s		A	sg in
      	võõras	s		S	sg in
mees	mees	0		S	sg n
    	mesi	s		S	sg in
jälle	jälle	0		D	
tema	tema	0		P	sg g
    	tema	0		P	sg n
hobbose	####				
peale	pea	le		S	sg all
     	peale	0		D	
     	peale	0		K	
.	.			Z	
kus	kus	0		D	
peal	pea	l		S	sg ad
    	peal	0		D	
    	peal	0		K	
ka	ka	0		D	
Jaan	Jaan	0		H	sg n
    	jaan	0		S	sg n
    	jaan	0		Y	?
Traks	traks	0		A	sg n
     	traks	0		S	sg n
istunud	istu	nud		V	nud
       	istu=nu	d		S	pl n
       	istu=nud	0		A	
       	istu=nud	0		A	sg n
       	istu=nud	d		A	pl n
,	,			Z	
ja	ja	0		J	
on	ole	0		V	b
  	ole	0		V	vad
nemad	tema	d		P	pl n
sedaviisi	seda_viisi	0		D	
tükmaad	####				
edasi	edasi	0		D	
     	edasi	0		K	
sõitnud	sõit	nud		V	nud
       	sõit=nu	d		S	pl n
       	sõit=nud	0		A	
       	sõit=nud	0		A	sg n
       	sõit=nud	d		A	pl n
korraga	kord	ga		S	sg kom
       	korraga	0		D	
on	ole	0		V	b
  	ole	0		V	vad
se	####				
võõras	võõras	0		A	sg n
      	võõras	0		S	sg n
      	võõras	s		A	sg in
      	võõras	s		S	sg in
mees	mees	0		S	sg n
    	mesi	s		S	sg in
ja	ja	0		J	
Jaan	Jaan	0		H	sg n
    	jaan	0		S	sg n
    	jaan	0		Y	?
Traks	traks	0		A	sg n
     	traks	0		S	sg n
kõvvaste	####				
sõitma	sõit	ma		V	ma
hakkand	hakk_and	0		S	sg n
ning	ning	0		J	
tema	tema	0		P	sg g
    	tema	0		P	sg n
uvve	####				
hobbose	####				
ja	ja	0		J	
ree	regi	0		S	sg g
ning	ning	0		J	
riistadega	riist	dega		S	pl kom
ära	ära	0		D	
   	ära	0		V	neg o
soitnud	####				
ja	ja	0		J	
tema	tema	0		P	sg g
    	tema	0		P	sg n
selle	see	0		P	sg g
     	sell	e		S	pl p
vana	vana	0		A	sg g
    	vana	0		A	sg n
    	vana	0		A	sg p
    	vana	0		S	sg g
    	vana	0		S	sg n
    	vana	0		S	sg p
hobbosega	####				
maha	maha	0		D	
jäänud	jää	nud		V	nud
      	jäänu	d		S	pl n
      	jäänud	0		A	
      	jäänud	0		A	sg n
      	jäänud	d		A	pl n
,	,			Z	
ja	ja	0		J	
tulnud	tul=nud	0		A	
      	tul=nud	0		A	sg n
      	tul=nud	d		A	pl n
      	tule	nud		V	nud
      	tulnu	d		S	pl n
Jaan	Jaan	0		H	sg n
    	jaan	0		S	sg n
    	jaan	0		Y	?
Traks	traks	0		A	sg n
     	traks	0		S	sg n
tunni	tund	0		S	sg g
aja	aeg	0		S	sg g
   	aja	0		V	o
pärast	pära	st		S	sg el
      	pärane	t		A	sg p
      	pärast	0		D	
      	pärast	0		K	
jala	jalg	0		S	sg g
    	jala	0		D	
tagasi	tagasi	0		D	
      	tagasi	0		K	
ning	ning	0		J	
ütlenud	####				
et	et	0		J	
se	####				
mees	mees	0		S	sg n
    	mesi	s		S	sg in
on	ole	0		V	b
  	ole	0		V	vad
pistuli	####				
taskust	tasku	st		S	sg el
välja	välja	0		D	
     	välja	0		V	o
     	väli	0		S	adt
     	väli	0		S	sg g
     	väli	0		S	sg p
võtnud	võt	nud		V	nud
      	võt=nu	d		S	pl n
      	võt=nud	0		A	
      	võt=nud	0		A	sg n
      	võt=nud	d		A	pl n
ja	ja	0		J	
teda	tema	da		P	sg p
ähvartanud	####				
lasta	lask	ta		V	da
     	lask	ta		V	ta
kui	kui	0		D	
   	kui	0		J	
tema	tema	0		P	sg g
    	tema	0		P	sg n
pealt	pea	lt		S	sg abl
     	pealt	0		D	
     	pealt	0		K	
ära	ära	0		D	
   	ära	0		V	neg o
ei	ei	0		D	
  	ei	0		V	neg
lähe	lähe	0		S	sg n
    	mine	0		V	neg o
ning	ning	0		J	
teda	tema	da		P	sg p
maha	maha	0		D	
ajanod	####				
ja	ja	0		J	
isi	####				
ära	ära	0		D	
   	ära	0		V	neg o
sõitnud	sõit	nud		V	nud
       	sõit=nu	d		S	pl n
       	sõit=nud	0		A	
       	sõit=nud	0		A	sg n
       	sõit=nud	d		A	pl n
,	,			Z	
ja	ja	0		J	
on	ole	0		V	b
  	ole	0		V	vad
sedaviisi	seda_viisi	0		D	
se	####				
võõras	võõras	0		A	sg n
      	võõras	0		S	sg n
      	võõras	s		A	sg in
      	võõras	s		S	sg in
mees	mees	0		S	sg n
    	mesi	s		S	sg in
se	####				
varastud	####				
hobbone	####				
jale	####				
oma	oma	0		A	sg g
   	oma	0		D	
   	oma	0		P	sg g
   	oma	0		S	sg g
   	oma	0		V	o
   	oma	0		A	sg n
   	oma	0		A	sg p
   	oma	0		P	sg n
   	oma	0		P	sg p
   	oma	0		S	sg n
   	oma	0		S	sg p
kätte	kätte	0		K	
     	käsi	tte		S	adt
tagasi	tagasi	0		D	
      	tagasi	0		K	
saanud	saa	nud		V	nud
      	saa=nud	0		A	
      	saa=nud	0		A	sg n
      	saa=nud	d		A	pl n
      	saanu	d		S	pl n
ja	ja	0		J	
tema	tema	0		P	sg g
    	tema	0		P	sg n
riistad	riist	d		S	pl n
ning	ning	0		J	
regi	regi	0		S	sg n
ja	ja	0		J	
15	15	0		N	?
rubla	rubla	0		S	sg g
     	rubla	0		S	sg n
     	rubla	0		S	sg p
pealis	pealis	0		S	sg n
raha	raha	0		S	sg g
    	raha	0		S	sg n
    	raha	0		S	sg p
ära	ära	0		D	
   	ära	0		V	neg o
veenud	####				
.	.			Z	
ja	ja	0		J	
rehendab	####				
tema	tema	0		P	sg g
    	tema	0		P	sg n
et	et	0		J	
se	####				
regi	regi	0		S	sg n
4	4	0		N	?
rubla	rubla	0		S	sg g
     	rubla	0		S	sg n
     	rubla	0		S	sg p
hobbose	####				
riistad	riist	d		S	pl n
15	15	0		N	?
rubla	rubla	0		S	sg g
     	rubla	0		S	sg n
     	rubla	0		S	sg p
ja	ja	0		J	
pealis	pealis	0		S	sg n
raha	raha	0		S	sg g
    	raha	0		S	sg n
    	raha	0		S	sg p
15	15	0		N	?
rubla	rubla	0		S	sg g
     	rubla	0		S	sg n
     	rubla	0		S	sg p
ülepea	üle_pea	0		D	
3	3	0		N	?
rubla	rubla	0		S	sg g
     	rubla	0		S	sg n
     	rubla	0		S	sg p
kahju	kahi	0		S	adt
     	kahi	0		S	sg g
     	kahi	0		S	sg p
     	kahju	0		S	sg g
     	kahju	0		S	sg n
     	kahju	0		S	sg p
saanud	saa	nud		V	nud
      	saa=nud	0		A	
      	saa=nud	0		A	sg n
      	saa=nud	d		A	pl n
      	saanu	d		S	pl n
.	.			Z	
se	####				
võõramehe	võõra_mees	0		S	sg g
saan	saa	n		V	n
    	saan	0		S	sg n
aga	aga	0		J	
tema	tema	0		P	sg g
    	tema	0		P	sg n
kätte	kätte	0		K	
     	käsi	tte		S	adt
jäänud	jää	nud		V	nud
      	jäänu	d		S	pl n
      	jäänud	0		A	
      	jäänud	0		A	sg n
      	jäänud	d		A	pl n
,	,			Z	
nüid	####				
on	ole	0		V	b
  	ole	0		V	vad
aga	aga	0		J	
tema	tema	0		P	sg g
    	tema	0		P	sg n
seda	see	da		P	sg p
inimest	inimene	t		S	sg p
Tartu	Tartu	0		H	adt
     	Tartu	0		H	sg g
     	Tartu	0		H	sg n
     	tartu	0		G	
linnas	linn	s		S	sg in
leidnud	leid	nud		V	nud
       	leid=nu	d		S	pl n
       	leid=nud	0		A	
       	leid=nud	0		A	sg n
       	leid=nud	d		A	pl n
.	.			Z	
ja	ja	0		J	
Politsei	politsei	0		S	sg g
        	politsei	0		S	sg n
peale	pea	le		S	sg all
     	peale	0		D	
     	peale	0		K	
kinni	kinni	0		D	
panna	pand	0		S	sg g
     	pane	a		V	da
     	panna	0		S	sg g
     	panna	0		S	sg n
lasknud	lask	nud		V	nud
       	lask=nu	d		S	pl n
       	lask=nud	0		A	
       	lask=nud	0		A	sg n
       	lask=nud	d		A	pl n
.	.			Z	
ja	ja	0		J	
tunnistas	tunnista	s		V	s
et	et	0		J	
se	####				
mees	mees	0		S	sg n
    	mesi	s		S	sg in
kes	kes	0		P	pl n
   	kes	0		P	sg n
praegust	praegune	t		A	sg p
siin	siin	0		D	
    	siin	0		S	sg n
kohtu	kohtu	0		V	o
     	kohus	0		S	sg g
ees	ees	0		D	
   	ees	0		K	
   	esi	s		S	sg in
sesama	####				
inimenne	inim_enne	0		S	sg n
on	ole	0		V	b
  	ole	0		V	vad
kes	kes	0		P	pl n
   	kes	0		P	sg n
temale	tema	le		P	sg all
üks	üks	0		N	sg n
   	üks	0		P	sg n
varastud	####				
hobbone	####				
vahetanud	vaheta	nud		V	nud
         	vaheta=nu	d		S	pl n
         	vaheta=nud	0		A	
         	vaheta=nud	0		A	sg n
         	vaheta=nud	d		A	pl n
,	,			Z	
ja	ja	0		J	
pärast	pära	st		S	sg el
      	pärane	t		A	sg p
      	pärast	0		D	
      	pärast	0		K	
selle	see	0		P	sg g
     	sell	e		S	pl p
sama	sama	0		P	sg g
    	sama	0		P	sg n
    	sama	0		P	sg p
hobbose	####				
ning	ning	0		J	
tema	tema	0		P	sg g
    	tema	0		P	sg n
ree	regi	0		S	sg g
ja	ja	0		J	
riistadega	riist	dega		S	pl kom
ära	ära	0		D	
   	ära	0		V	neg o
põgenenod	####				
.	.			Z	
ja	ja	0		J	
nõub	####				
tema	tema	0		P	sg g
    	tema	0		P	sg n
selle	see	0		P	sg g
     	sell	e		S	pl p
inimese	inimene	0		S	sg g
käest	käest	0		K	
     	käsi	st		S	sg el
34	34	0		N	?
rubla	rubla	0		S	sg g
     	rubla	0		S	sg n
     	rubla	0		S	sg p
kahju	kahi	0		S	adt
     	kahi	0		S	sg g
     	kahi	0		S	sg p
     	kahju	0		S	sg g
     	kahju	0		S	sg n
     	kahju	0		S	sg p
tasumist	tasumine	t		S	sg p
See	see	0		P	sg n
Vang	vang	0		S	sg n
nimega	nimi	ga		S	sg kom
Iisak	####				
ramp	ramp	0		S	sg n
tunnistas	tunnista	s		V	s
et	et	0		J	
tema	tema	0		P	sg g
    	tema	0		P	sg n
Vastse	vastne	0		A	sg g
      	vastne	0		S	sg g
lina	lina	0		S	sg g
    	lina	0		S	sg n
    	lina	0		S	sg p
mees	mees	0		S	sg n
    	mesi	s		S	sg in
ning	ning	0		J	
on	ole	0		V	b
  	ole	0		V	vad
2	2	0		N	?
1	1	0		N	?
/	/			Z	
2	2	0		N	?
Aaastad	####				
pasi	####				
peal	pea	l		S	sg ad
    	peal	0		D	
    	peal	0		K	
.	.			Z	
Peeterburgis	####				
linnas	linn	s		S	sg in
teninud	####				
ja	ja	0		J	
ei	ei	0		D	
  	ei	0		V	neg
tea	tead	0		V	o
tema	tema	0		P	sg g
    	tema	0		P	sg n
sest	see	st		P	sg el
    	sest	0		J	
asjast	asi	st		S	sg el
keige	####				
vähemad	vähem	d		C	pl n
mis	mis	0		P	pl n
   	mis	0		P	sg n
se	####				
kõrtsmik	kõrtsmik	0		S	sg n
Aleksander	Aleksander	0		H	sg n
Suits	suits	0		S	sg n
tema	tema	0		P	sg g
    	tema	0		P	sg n
peale	pea	le		S	sg all
     	peale	0		D	
     	peale	0		K	
kaebab	kaeba	b		V	b
et	et	0		J	
tema	tema	0		P	sg g
    	tema	0		P	sg n
oleks	ole	ks		V	ks
sellele	see	le		P	sg all
üks	üks	0		N	sg n
   	üks	0		P	sg n
hobbone	####				
vahetanud	vaheta	nud		V	nud
         	vaheta=nu	d		S	pl n
         	vaheta=nud	0		A	
         	vaheta=nud	0		A	sg n
         	vaheta=nud	d		A	pl n
.	.			Z	
sest	see	st		P	sg el
    	sest	0		J	
et	et	0		J	
tema	tema	0		P	sg g
    	tema	0		P	sg n
veel	veel	0		D	
    	vesi	l		S	sg ad
ilmaski	ilmaski	0		D	
ei	ei	0		D	
  	ei	0		V	neg
ole	ole	0		V	o
Aavvinurmes	####				
käinod	####				
.	.			Z	
ega	ega	0		D	
   	ega	0		J	
ka	ka	0		D	
Aleksander	Aleksander	0		H	sg n
rauchi	####				
nähud	näht	d		S	pl n
,	,			Z	
nüid	####				
on	ole	0		V	b
  	ole	0		V	vad
aga	aga	0		J	
Aleksander	Aleksander	0		H	sg n
rauch	####				
teda	tema	da		P	sg p
Tartu	Tartu	0		H	adt
     	Tartu	0		H	sg g
     	Tartu	0		H	sg n
     	tartu	0		G	
linnas	linn	s		S	sg in
kinni	kinni	0		D	
panna	pand	0		S	sg g
     	pane	a		V	da
     	panna	0		S	sg g
     	panna	0		S	sg n
lasknud	lask	nud		V	nud
       	lask=nu	d		S	pl n
       	lask=nud	0		A	
       	lask=nud	0		A	sg n
       	lask=nud	d		A	pl n
.	.			Z	
ja	ja	0		J	
teda	tema	da		P	sg p
vangi	vang	0		S	adt
     	vang	0		S	sg g
     	vang	0		S	sg p
viisi	viis	0		S	adt
     	viis	0		S	sg g
     	viis	i		N	pl p
     	viisi	0		K	
     	viis	0		S	sg p
seie	####				
sadetud	####				
ilma	ilm	0		S	adt
    	ilm	0		S	sg g
    	ilma	0		D	
    	ilma	0		K	
    	ilm	0		S	sg p
süita	####				
ning	ning	0		J	
on	ole	0		V	b
  	ole	0		V	vad
tema	tema	0		P	sg g
    	tema	0		P	sg n
linnas	linn	s		S	sg in
Uuridega	uur	dega		S	pl kom
kauplenod	####				
.	.			Z	
Jaan	Jaan	0		H	sg n
    	jaan	0		S	sg n
    	jaan	0		Y	?
Traks	traks	0		A	sg n
     	traks	0		S	sg n
sai	saa	i		V	s
   	sai	0		S	sg n
ette	ette	0		D	
    	ette	0		K	
    	esi	tte		S	adt
kutsutud	kutsu	tud		V	tud
        	kutsutu	d		S	pl n
        	kutsutud	0		A	
        	kutsutud	0		A	sg n
        	kutsutud	d		A	pl n
kes	kes	0		P	pl n
   	kes	0		P	sg n
tunnistas	tunnista	s		V	s
et	et	0		J	
se	####				
võõras	võõras	0		A	sg n
      	võõras	0		S	sg n
      	võõras	s		A	sg in
      	võõras	s		S	sg in
mees	mees	0		S	sg n
    	mesi	s		S	sg in
kes	kes	0		P	pl n
   	kes	0		P	sg n
siin	siin	0		D	
    	siin	0		S	sg n
kohtu	kohtu	0		V	o
     	kohus	0		S	sg g
ees	ees	0		D	
   	ees	0		K	
   	esi	s		S	sg in
sesama	####				
on	ole	0		V	b
  	ole	0		V	vad
keda	kes	da		P	pl p
    	kes	da		P	sg p
nemad	tema	d		P	pl n
Aleksander	Aleksander	0		H	sg n
rauchiga	####				
taga	taga	0		D	
    	taga	0		K	
    	taga	0		V	o
ajanod	####				
,	,			Z	
ja	ja	0		J	
kellega	kes	ga		P	pl kom
       	kes	ga		P	sg kom
tema	tema	0		P	sg g
    	tema	0		P	sg n
sõtnud	####				
ning	ning	0		J	
se	####				
pärast	pära	st		S	sg el
      	pärane	t		A	sg p
      	pärast	0		D	
      	pärast	0		K	
pistoli	####				
taskust	tasku	st		S	sg el
välja	välja	0		D	
     	välja	0		V	o
     	väli	0		S	adt
     	väli	0		S	sg g
     	väli	0		S	sg p
võtnud	võt	nud		V	nud
      	võt=nu	d		S	pl n
      	võt=nud	0		A	
      	võt=nud	0		A	sg n
      	võt=nud	d		A	pl n
ja	ja	0		J	
teda	tema	da		P	sg p
laska	####				
ähvartanod	####				
.	.			Z	
Aandres	####				
raja	rada	0		S	sg g
    	raja	0		S	sg g
    	raja	0		V	o
    	raja	0		S	sg n
    	raja	0		S	sg p
tunnistas	tunnista	s		V	s
et	et	0		J	
se	####				
Vang	vang	0		S	sg n
kes	kes	0		P	pl n
   	kes	0		P	sg n
siin	siin	0		D	
    	siin	0		S	sg n
kohtu	kohtu	0		V	o
     	kohus	0		S	sg g
ees	ees	0		D	
   	ees	0		K	
   	esi	s		S	sg in
sesama	####				
on	ole	0		V	b
  	ole	0		V	vad
.	.			Z	
kes	kes	0		P	pl n
   	kes	0		P	sg n
Aleksander	Aleksander	0		H	sg n
rauchiga	####				
hobbost	####				
vahetanud	vaheta	nud		V	nud
         	vaheta=nu	d		S	pl n
         	vaheta=nud	0		A	
         	vaheta=nud	0		A	sg n
         	vaheta=nud	d		A	pl n
ning	ning	0		J	
pärast	pära	st		S	sg el
      	pärane	t		A	sg p
      	pärast	0		D	
      	pärast	0		K	
ära	ära	0		D	
   	ära	0		V	neg o
põgenenud	põgene	nud		V	nud
         	põgene=nu	d		S	pl n
         	põgene=nud	0		A	
         	põgene=nud	0		A	sg n
         	põgene=nud	d		A	pl n
.	.			Z	
ja	ja	0		J	
on	ole	0		V	b
  	ole	0		V	vad
tema	tema	0		P	sg g
    	tema	0		P	sg n
sellega	see	ga		P	sg kom
ühes	üks	s		N	sg in
    	üks	s		P	sg in
    	ühes	0		D	
    	ühes	0		K	
Aleksander	Aleksander	0		H	sg n
rauchi	####				
juures	juur	s		S	sg in
      	juures	0		D	
      	juures	0		K	
teed	tee	d		S	pl n
    	tege	d		V	d
    	tee	d		S	sg p
joonud	joo	nud		V	nud
      	joo=nu	d		S	pl n
      	joo=nud	0		A	
      	joo=nud	0		A	sg n
      	joo=nud	d		A	pl n
.	.			Z	
Gusta	####				
Liiv	liiv	0		S	sg n
tunnistas	tunnista	s		V	s
nendasamuti	####				
et	et	0		J	
tema	tema	0		P	sg g
    	tema	0		P	sg n
seda	see	da		P	sg p
meest	meene	t		A	sg p
     	mees	t		S	sg p
     	mesi	st		S	sg el
Maetsma	####				
kõrtsis	kõrts	s		S	sg in
nähud	näht	d		S	pl n
kui	kui	0		D	
   	kui	0		J	
tema	tema	0		P	sg g
    	tema	0		P	sg n
Aleksander	Aleksander	0		H	sg n
rauchiga	####				
hobbost	####				
vahetanud	vaheta	nud		V	nud
         	vaheta=nu	d		S	pl n
         	vaheta=nud	0		A	
         	vaheta=nud	0		A	sg n
         	vaheta=nud	d		A	pl n
,	,			Z	
ning	ning	0		J	
temaga	tema	ga		P	sg kom
veel	veel	0		D	
    	vesi	l		S	sg ad
ühes	üks	s		N	sg in
    	üks	s		P	sg in
    	ühes	0		D	
    	ühes	0		K	
teed	tee	d		S	pl n
    	tege	d		V	d
    	tee	d		S	sg p
joonod	####				
.	.			Z	
Mihkel	Mihkel	0		H	sg n
      	mihkel	0		A	sg n
      	mihkel	0		S	sg n
karo	####				
tunnistas	tunnista	s		V	s
et	et	0		J	
se	####				
Vang	vang	0		S	sg n
kes	kes	0		P	pl n
   	kes	0		P	sg n
siin	siin	0		D	
    	siin	0		S	sg n
kohtu	kohtu	0		V	o
     	kohus	0		S	sg g
ees	ees	0		D	
   	ees	0		K	
   	esi	s		S	sg in
sesama	####				
on	ole	0		V	b
  	ole	0		V	vad
kes	kes	0		P	pl n
   	kes	0		P	sg n
Aleksander	Aleksander	0		H	sg n
rauchiga	####				
hobbosid	####				
vahetanud	vaheta	nud		V	nud
         	vaheta=nu	d		S	pl n
         	vaheta=nud	0		A	
         	vaheta=nud	0		A	sg n
         	vaheta=nud	d		A	pl n
.	.			Z	
Moistus	####				
et	et	0		J	
Aleksander	Aleksander	0		H	sg n
rauch	####				
,	,			Z	
Jaan	Jaan	0		H	sg n
    	jaan	0		S	sg n
    	jaan	0		Y	?
Traks	traks	0		A	sg n
     	traks	0		S	sg n
,	,			Z	
Aandres	####				
raja	rada	0		S	sg g
    	raja	0		S	sg g
    	raja	0		V	o
    	raja	0		S	sg n
    	raja	0		S	sg p
,	,			Z	
Gustav	Gustav	0		H	sg n
Liiv	liiv	0		S	sg n
ja	ja	0		J	
Mihkel	Mihkel	0		H	sg n
      	mihkel	0		A	sg n
      	mihkel	0		S	sg n
karo	####				
kõik	kõik	0		P	pl n
    	kõik	0		S	sg n
    	kõik	0		P	sg n
seda	see	da		P	sg p
tunnistavad	tunnista	vad		V	vad
           	tunnista=v	d		A	pl n
et	et	0		J	
se	####				
Vang	vang	0		S	sg n
Iisak	####				
ramp	ramp	0		S	sg n
se	####				
sama	sama	0		P	sg g
    	sama	0		P	sg n
    	sama	0		P	sg p
mees	mees	0		S	sg n
    	mesi	s		S	sg in
on	ole	0		V	b
  	ole	0		V	vad
kes	kes	0		P	pl n
   	kes	0		P	sg n
mineva	minev	0		A	sg g
talvel	talv	l		S	sg ad
      	tali	l		S	sg ad
Aavvinurmes	####				
Aleksander	Aleksander	0		H	sg n
rauchile	####				
üks	üks	0		N	sg n
   	üks	0		P	sg n
varastud	####				
hobbone	####				
vahetas	vaheta	s		V	s
,	,			Z	
ning	ning	0		J	
sellega	see	ga		P	sg kom
pärast	pära	st		S	sg el
      	pärane	t		A	sg p
      	pärast	0		D	
      	pärast	0		K	
jälle	jälle	0		D	
ära	ära	0		D	
   	ära	0		V	neg o
põgenes	põgene	s		V	s
siis	siis	0		D	
    	siis	0		J	
ei	ei	0		D	
  	ei	0		V	neg
tulle	tull	e		S	pl p
     	tuli	0		S	adt
sest	see	st		P	sg el
    	sest	0		J	
ühtegi	ühte	0	gi	D	
      	üks	0	gi	N	adt
      	üks	0	gi	P	adt
      	ühe	0	gi	S	sg g
      	üks	0	gi	N	sg p
      	üks	0	gi	P	sg p
lugu	lugu	0		S	sg n
    	lugu	0		S	sg p
piddada	####				
et	et	0		J	
Iisak	####				
ramp	ramp	0		S	sg n
seda	see	da		P	sg p
salgab	salga	b		V	b
.	.			Z	
et	et	0		J	
tema	tema	0		P	sg g
    	tema	0		P	sg n
ei	ei	0		D	
  	ei	0		V	neg
ole	ole	0		V	o
Aavvinurmes	####				
käinud	käi	nud		V	nud
      	käi=nud	0		A	
      	käi=nud	0		A	sg n
      	käi=nud	d		A	pl n
      	käinu	d		S	pl n
ega	ega	0		D	
   	ega	0		J	
rauchiga	####				
hobbosid	####				
vahetanud	vaheta	nud		V	nud
         	vaheta=nu	d		S	pl n
         	vaheta=nud	0		A	
         	vaheta=nud	0		A	sg n
         	vaheta=nud	d		A	pl n
,	,			Z	
mis	mis	0		P	pl n
   	mis	0		P	sg n
läbbi	####				
tema	tema	0		P	sg g
    	tema	0		P	sg n
arvab	arva	b		V	b
kohtu	kohtu	0		V	o
     	kohus	0		S	sg g
alt	alt	0		S	sg n
   	alt	0		D	
   	alt	0		K	
lahti	laht	i		S	pl p
     	lahti	0		D	
saama	saa	ma		V	ma
     	saam	0		S	adt
     	saam	0		S	sg g
     	saam	0		S	sg p
,	,			Z	
ning	ning	0		J	
on	ole	0		V	b
  	ole	0		V	vad
tema	tema	0		P	sg g
    	tema	0		P	sg n
selle	see	0		P	sg g
     	sell	e		S	pl p
pärast	pära	st		S	sg el
      	pärane	t		A	sg p
      	pärast	0		D	
      	pärast	0		K	
hobbose	####				
varas	vara	s		S	sg in
     	varas	0		S	sg n
ja	ja	0		J	
peab	pida	b		V	b
tema	tema	0		P	sg g
    	tema	0		P	sg n
seda	see	da		P	sg p
Ühe	üks	0		N	sg g
   	üks	0		P	sg g
   	ühe	0		S	sg n
Keiserlikku	keiserlik	0		A	adt
           	keiserlik	0		A	sg p
Tartu	Tartu	0		H	adt
     	Tartu	0		H	sg g
     	Tartu	0		H	sg n
     	tartu	0		G	
Maakohtos	####				
välja	välja	0		D	
     	välja	0		V	o
     	väli	0		S	adt
     	väli	0		S	sg g
     	väli	0		S	sg p
andma	and	ma		V	ma
kust	kusi	t		S	sg p
    	kust	0		D	
tema	tema	0		P	sg g
    	tema	0		P	sg n
se	####				
hobbone	####				
oli	ole	i		V	s
varastanud	varasta	nud		V	nud
          	varasta=nu	d		S	pl n
          	varasta=nud	0		A	
          	varasta=nud	0		A	sg n
          	varasta=nud	d		A	pl n
,	,			Z	
ja	ja	0		J	
kuhu	kuhu	0		D	
teda	tema	da		P	sg p
jälle	jälle	0		D	
pandnud	####				
.	.			Z	
ja	ja	0		J	
peab	pida	b		V	b
tema	tema	0		P	sg g
    	tema	0		P	sg n
ka	ka	0		D	
se	####				
kahju	kahi	0		S	adt
     	kahi	0		S	sg g
     	kahi	0		S	sg p
     	kahju	0		S	sg g
     	kahju	0		S	sg n
     	kahju	0		S	sg p
34	34	0		N	?
rubla	rubla	0		S	sg g
     	rubla	0		S	sg n
     	rubla	0		S	sg p
Aleksander	Aleksander	0		H	sg n
rauchle	####				
välja	välja	0		D	
     	välja	0		V	o
     	väli	0		S	adt
     	väli	0		S	sg g
     	väli	0		S	sg p
maksma	maks	ma		V	ma
,	,			Z	
ja	ja	0		J	
saab	saa	b		V	b
Iisak	####				
ramp	ramp	0		S	sg n
vahi	vaht	0		S	sg g
    	vahti	0		V	o
all	all	0		D	
   	all	0		K	
Uhe	####				
Keiserlikku	keiserlik	0		A	adt
           	keiserlik	0		A	sg p
Tartu	Tartu	0		H	adt
     	Tartu	0		H	sg g
     	Tartu	0		H	sg n
     	tartu	0		G	
Maakohtu	maa_kohus	0		S	sg g
kätte	kätte	0		K	
     	käsi	tte		S	adt
sadetud	####				
suurema	suurem	0		C	sg g
kohtu	kohtu	0		V	o
     	kohus	0		S	sg g
moistmise	####				
alla	alla	0		D	
    	alla	0		K	
.	.			Z	
Josep	####				
Laurison	####				
XXX	XXX	0		O	?
   	XXX	0		Y	?
Jaan	Jaan	0		H	sg n
    	jaan	0		S	sg n
    	jaan	0		Y	?
Mänd	mänd	0		S	sg n
XXX	XXX	0		O	?
   	XXX	0		Y	?
Jüri	Jüri	0		H	sg g
    	Jüri	0		H	sg n
Tomi	Tom	0		H	adt
    	Tom	0		H	sg g
    	Tom	0		H	sg p
XXX	XXX	0		O	?
   	XXX	0		Y	?
