Aastus	####				
ette	ette	0		D	
    	ette	0		K	
    	esi	tte		S	adt
Jüri	Jüri	0		H	sg g
    	Jüri	0		H	sg n
Kask	kask	0		S	sg n
ja	ja	0		J	
kaebas	kaeba	s		V	s
et	et	0		J	
temal	tema	l		P	sg ad
on	ole	0		V	b
  	ole	0		V	vad
sada	sada	0		N	sg n
    	sada	0		N	sg p
Mihkel	Mihkel	0		H	sg n
      	mihkel	0		A	sg n
      	mihkel	0		S	sg n
Kike	####				
käest	käest	0		K	
     	käsi	st		S	sg el
10	10	0		N	?
rubla	rubla	0		S	sg g
     	rubla	0		S	sg n
     	rubla	0		S	sg p
85	85	0		N	?
kop	kop	0		Y	?
:	:			Z	
ja	ja	0		J	
on	ole	0		V	b
  	ole	0		V	vad
lubanud	luba	nud		V	nud
       	luba=nu	d		S	pl n
       	luba=nud	0		A	
       	luba=nud	0		A	sg n
       	luba=nud	d		A	pl n
marja	mari	0		S	adt
     	mari	0		S	sg g
     	mari	0		S	sg p
pävast	####				
ära	ära	0		D	
   	ära	0		V	neg o
maksa	maks	0		S	adt
     	maks	0		S	sg g
     	maks	0		V	o
     	maks	0		S	sg p
mis	mis	0		P	pl n
   	mis	0		P	sg n
tunnistad	tunnista	d		V	d
kohtomehed	####				
.	.			Z	
Maddis	####				
Tamm	tamm	0		S	sg n
XXX	XXX	0		O	?
   	XXX	0		Y	?
Maddis	####				
Allik	Allik	0		H	sg n
XXX	XXX	0		O	?
   	XXX	0		Y	?
