№	№	0		Y	?
7.	7.	0		O	?
Haslava	####				
valla	vald	0		S	sg g
     	valla	0		D	
kohus	kohu	s		V	s
     	kohus	0		S	sg n
18	18	0		N	?
Augustil	august	l		S	sg ad
        	August	l		H	sg ad
1899	1899	0		N	?
a.	a	0		Y	?
juures	juur	s		S	sg in
      	juures	0		D	
      	juures	0		K	
oli	ole	i		V	s
kohtueesistuja	kohtu_ees_istuja	0		S	sg g
              	kohtu_ees_istuja	0		S	sg n
:	:			Z	
Jaan	Jaan	0		H	sg n
    	jaan	0		S	sg n
    	jaan	0		Y	?
Rosenthal	####				
.	.			Z	
Ilmusid	ilmu	sid		V	sid
selle	see	0		P	sg g
     	sell	e		S	pl p
vallakohtu	valla_kohus	0		S	sg g
ette	ette	0		D	
    	ette	0		K	
    	esi	tte		S	adt
Anna	and	0		V	o
    	Anna	0		H	sg g
    	Anna	0		H	sg n
    	anna	0		S	sg g
    	anna	0		S	sg n
(	(			Z	
Guf	####				
)	)			Z	
valla	vald	0		S	sg g
     	valla	0		D	
isak	####				
Peeter	Peeter	0		H	sg n
Johani	Johan	0		H	sg g
p	p	0		Y	?
.	.			Z	
Siitsa	####				
ja	ja	0		J	
Johan	Johan	0		H	sg n
Jaani	Jaan	0		H	adt
     	Jaan	0		H	sg g
     	Jaani	0		H	sg g
     	jaan	0		S	adt
     	jaan	0		S	sg g
     	Jaan	0		H	sg p
     	Jaani	0		H	sg n
     	jaan	0		S	sg p
p	p	0		Y	?
.	.			Z	
Siitsa	####				
puttu	####				
valla	vald	0		S	sg g
     	valla	0		D	
isak	####				
ja	ja	0		J	
palusid	palu	sid		S	pl p
       	palu	sid		V	sid
järgmist	järgmine	t		A	sg p
mahategemist	maha_tegemine	t		S	sg p
protokolli	protokoll	0		S	adt
          	protokoll	0		S	sg g
          	protokolli	0		V	o
          	protokoll	0		S	sg p
raamatusse	raamat	sse		S	sg ill
kirjutada	kirjuta	da		V	da
.	.			Z	
Peeter	Peeter	0		H	sg n
Siitsa	####				
on	ole	0		V	b
  	ole	0		V	vad
oma	oma	0		A	sg g
   	oma	0		D	
   	oma	0		P	sg g
   	oma	0		S	sg g
   	oma	0		V	o
   	oma	0		A	sg n
   	oma	0		A	sg p
   	oma	0		P	sg n
   	oma	0		P	sg p
   	oma	0		S	sg n
   	oma	0		S	sg p
varanduse	varandus	0		S	sg g
isale	isa	le		S	sg all
Johan	Johan	0		H	sg n
Siitsa	####				
laenanud	laena	nud		V	nud
        	laena=nu	d		S	pl n
        	laena=nud	0		A	
        	laena=nud	0		A	sg n
        	laena=nud	d		A	pl n
elamiseks	elamine	ks		S	sg tr
ja	ja	0		J	
talu	talu	0		S	sg g
    	talu	0		V	o
    	talu	0		S	sg n
    	talu	0		S	sg p
pidamiseks	pidamine	ks		S	sg tr
ja	ja	0		J	
nimelt	nimelt	0		D	
      	nimi	lt		S	sg abl
järgmiseks	järgmine	ks		A	sg tr
varanduse	varandus	0		S	sg g
asju	asi	u		S	pl p
:	:			Z	
väärt	väärt	0		A	
     	väärt	0		D	
rbl	rbl	0		Y	?
üks	üks	0		N	sg n
   	üks	0		P	sg n
hobune	hobune	0		S	sg n
70	70	0		N	?
üks	üks	0		N	sg n
   	üks	0		P	sg n
hobune	hobune	0		S	sg n
50	50	0		N	?
üks	üks	0		N	sg n
   	üks	0		P	sg n
lehm	lehm	0		S	sg n
20	20	0		N	?
üks	üks	0		N	sg n
   	üks	0		P	sg n
lehm	lehm	0		S	sg n
30	30	0		N	?
lehm	lehm	0		S	sg n
õhvakene	õhva=kene	0		S	sg n
8	8	0		N	?
üks	üks	0		N	sg n
   	üks	0		P	sg n
pull	pull	0		A	sg n
    	pull	0		S	sg n
1½_	####				
aastat	aasta	t		S	sg p
vana	vana	0		A	sg g
    	vana	0		A	sg n
    	vana	0		A	sg p
    	vana	0		S	sg g
    	vana	0		S	sg n
    	vana	0		S	sg p
7	7	0		N	?
kuus	kuu	s		S	sg in
    	kuus	0		N	sg n
lammast	lammas	t		S	sg p
12	12	0		N	?
seitse	seitse	0		N	sg n
voonakest	voona=ke	t		S	sg p
10	10	0		N	?
rbl	rbl	0		Y	?
50	50	0		N	?
kop	kop	0		Y	?
üks	üks	0		N	sg n
   	üks	0		P	sg n
orik	####				
siga	siga	0		A	sg n
    	siga	0		A	sg p
    	siga	0		S	sg n
    	siga	0		S	sg p
13	13	0		N	?
üks	üks	0		N	sg n
   	üks	0		P	sg n
orik	####				
siga	siga	0		A	sg n
    	siga	0		A	sg p
    	siga	0		S	sg n
    	siga	0		S	sg p
13	13	0		N	?
ühe	üks	0		N	sg g
   	üks	0		P	sg g
   	ühe	0		S	sg n
hobuse	hobune	0		S	sg g
riistad	riist	d		S	pl n
7	7	0		N	?
üks	üks	0		N	sg n
   	üks	0		P	sg n
regi	regi	0		S	sg n
2	2	0		N	?
kahed	kaks	d		N	pl n
puutelgedega	puu_telg	dega		S	pl kom
töövankrid	töö_vanker	d		S	pl n
kokku	kokku	0		D	
     	kogu	0		S	adt
15	15	0		N	?
rehepeksmise	rehe_peksmine	0		S	sg g
tema	tema	0		P	sg g
    	tema	0		P	sg n
2	2	0		N	?
kolm	kolm	0		N	sg n
vikatid	vikat	d		S	pl n
1	1	0		N	?
kaks	kaks	0		N	sg n
sõnniku	sõnnik	0		S	sg g
vikla	vigel	0		S	adt
     	vigel	0		S	sg p
60	60	0		N	?
kop	kop	0		Y	?
neli	neli	0		N	sg n
sirpi	sirp	0		S	adt
     	sirp	0		S	sg p
ja	ja	0		J	
üks	üks	0		N	sg n
   	üks	0		P	sg n
heina	hein	0		S	adt
     	hein	0		S	sg g
     	hein	0		S	sg p
hark	hark	0		S	sg n
40	40	0		N	?
kop	kop	0		Y	?
üks	üks	0		N	sg n
   	üks	0		P	sg n
piima	piim	0		S	adt
     	piim	0		S	sg g
     	piim	0		S	sg p
karn	karn	0		S	sg n
(	(			Z	
lõpsik	####				
)	)			Z	
1	1	0		N	?
üks	üks	0		N	sg n
   	üks	0		P	sg n
lehm	lehm	0		S	sg n
vasik	####				
5	5	0		N	?
kaks	kaks	0		N	sg n
hark	hark	0		S	sg n
atra	ader	0		S	adt
    	ader	0		S	sg p
2	2	0		N	?
üks	üks	0		N	sg n
   	üks	0		P	sg n
kapsa	kapsa	0		V	o
     	kapsas	0		S	sg g
tõrtud	####				
2	2	0		N	?
üks	üks	0		N	sg n
   	üks	0		P	sg n
liha	liha	0		S	sg g
    	liha	0		S	sg n
    	liha	0		S	sg p
tõrtud	####				
1	1	0		N	?
kuus	kuu	s		S	sg in
    	kuus	0		N	sg n
kana	kana	0		S	sg g
    	kana	0		S	sg n
    	kana	0		S	sg p
ja	ja	0		J	
üks	üks	0		N	sg n
   	üks	0		P	sg n
kukk	kukk	0		S	sg n
2	2	0		N	?
üks	üks	0		N	sg n
   	üks	0		P	sg n
õhvakene	õhva=kene	0		S	sg n
9	9	0		N	?
25	25	0		N	?
vilja	vili	0		S	adt
     	vili	0		S	sg g
     	vili	0		S	sg p
kotti	kott	0		S	adt
     	kotti	0		D	
     	kott	i		S	pl p
     	kott	0		S	sg p
10	10	0		N	?
seina	sein	0		S	adt
     	sein	0		S	sg g
     	sein	0		S	sg p
kell	kell	0		S	sg n
2	2	0		N	?
summa	summ	0		S	adt
     	summ	0		S	sg g
     	summ	0		S	sg p
     	summa	0		S	sg g
     	summa	0		S	sg n
300	300	0		N	?
summa	summ	0		S	adt
     	summ	0		S	sg g
     	summ	0		S	sg p
     	summa	0		S	sg g
     	summa	0		S	sg n
kolm	kolm	0		N	sg n
saada	saa	da		V	da
     	saat	0		V	o
     	saa	da		V	ta
(	(			Z	
300	300	0		N	?
)	)			Z	
rbl	rbl	0		Y	?
peale	pea	le		S	sg all
     	peale	0		D	
     	peale	0		K	
,	,			Z	
mis	mis	0		P	pl n
   	mis	0		P	sg n
varandust	varandus	t		S	sg p
isa	isa	0		S	sg g
   	isa	0		S	sg n
   	isa	0		S	sg p
Johan	Johan	0		H	sg n
Siitsa	####				
mulle	mull	e		S	pl p
     	mina	lle		P	sg all
     	mulle	0		S	sg n
nõudmise	nõudmine	0		S	sg g
peale	pea	le		S	sg all
     	peale	0		D	
     	peale	0		K	
on	ole	0		V	b
  	ole	0		V	vad
kohustatud	kohusta	tud		V	tud
          	kohusta=tu	d		S	pl n
          	kohusta=tud	0		A	
          	kohusta=tud	0		A	sg n
          	kohusta=tud	d		A	pl n
tagasi	tagasi	0		D	
      	tagasi	0		K	
andma	and	ma		V	ma
ehk	ehk	0		D	
   	ehk	0		J	
ära	ära	0		D	
   	ära	0		V	neg o
jäänud	jää	nud		V	nud
      	jäänu	d		S	pl n
      	jäänud	0		A	
      	jäänud	0		A	sg n
      	jäänud	d		A	pl n
asjade	asi	de		S	pl g
enda	ise	0		P	sg g
rahaga	raha	ga		S	sg kom
maksma	maks	ma		V	ma
.	.			Z	
Johan	Johan	0		H	sg n
Siitsa	####				
ütleb	ütle	b		V	b
et	et	0		J	
eelpool	eel_pool	0		D	
nimetatud	nimeta	tud		V	tud
         	nimetatu	d		S	pl n
         	nimetatud	0		A	
         	nimetatud	0		A	sg n
         	nimetatud	d		A	pl n
varandus	varandus	0		S	sg n
on	ole	0		V	b
  	ole	0		V	vad
poea	####				
Peetri	Peeter	0		H	sg g
      	Peetri	0		H	sg g
      	Peetri	0		H	sg n
Siitsa	####				
käest	käest	0		K	
     	käsi	st		S	sg el
saanud	saa	nud		V	nud
      	saa=nud	0		A	
      	saa=nud	0		A	sg n
      	saa=nud	d		A	pl n
      	saanu	d		S	pl n
laenuks	laen	ks		S	sg tr
       	laenu	ks		V	ks
ja	ja	0		J	
lubab	luba	b		V	b
nõudmise	nõudmine	0		S	sg g
peale	pea	le		S	sg all
     	peale	0		D	
     	peale	0		K	
seda	see	da		P	sg p
tagasi	tagasi	0		D	
      	tagasi	0		K	
maksa	maks	0		S	adt
     	maks	0		S	sg g
     	maks	0		V	o
     	maks	0		S	sg p
ehk	ehk	0		D	
   	ehk	0		J	
asjadega	asi	dega		S	pl kom
tagasi	tagasi	0		D	
      	tagasi	0		K	
anda	and	a		V	da
.	.			Z	
Johan	Johan	0		H	sg n
Siitsa	####				
ei	ei	0		D	
  	ei	0		V	neg
mõista	mõist	0		V	o
      	mõist	a		V	da
kirjutada	kirjuta	da		V	da
,	,			Z	
tema	tema	0		P	sg g
    	tema	0		P	sg n
palve	palve	0		S	sg g
     	palve	0		S	sg n
peale	pea	le		S	sg all
     	peale	0		D	
     	peale	0		K	
kirjutas	kirjuta	s		V	s
tema	tema	0		P	sg g
    	tema	0		P	sg n
eest	eest	0		D	
    	eest	0		K	
    	esi	st		S	sg el
alla	alla	0		D	
    	alla	0		K	
:	:			Z	
M. Käärik	####				
/	/			Z	
allkiri	all_kiri	0		S	sg n
/	/			Z	
Peeter	Peeter	0		H	sg n
Siitsa	####				
/	/			Z	
allkiri	all_kiri	0		S	sg n
/	/			Z	
1899	1899	0		N	?
aastal	aasta	l		S	sg ad
18	18	0		N	?
Augustil	august	l		S	sg ad
        	August	l		H	sg ad
on	ole	0		V	b
  	ole	0		V	vad
eelseisav	####				
lepping	####				
suusõnal	suu_sõnal	0		D	
selle	see	0		P	sg g
     	sell	e		S	pl p
vallakohtule	valla_kohus	le		S	sg all
Peeter	Peeter	0		H	sg n
Jaani	Jaan	0		H	adt
     	Jaan	0		H	sg g
     	Jaani	0		H	sg g
     	jaan	0		S	adt
     	jaan	0		S	sg g
     	Jaan	0		H	sg p
     	Jaani	0		H	sg n
     	jaan	0		S	sg p
p	p	0		Y	?
.	.			Z	
Siitsa	####				
,	,			Z	
kes	kes	0		P	pl n
   	kes	0		P	sg n
Anna	and	0		V	o
    	Anna	0		H	sg g
    	Anna	0		H	sg n
    	anna	0		S	sg g
    	anna	0		S	sg n
valla	vald	0		S	sg g
     	valla	0		D	
isak	####				
Võru	Võru	0		H	sg g
    	Võru	0		H	sg n
    	võru	0		S	sg g
    	võru	0		S	sg n
    	võru	0		S	sg p
Kreisis	kreis	s		S	sg in
,	,			Z	
elab	ela	b		V	b
Hanja	hanja	0		S	sg g
     	hanja	0		S	sg n
vallas	vald	s		S	sg in
,	,			Z	
ajalikult	ajalik	lt		A	sg abl
         	ajaliku=lt	0		D	
aga	aga	0		J	
Haslava	####				
vallas	vald	s		S	sg in
ja	ja	0		J	
Johan	Johan	0		H	sg n
Jaani	Jaan	0		H	adt
     	Jaan	0		H	sg g
     	Jaani	0		H	sg g
     	jaan	0		S	adt
     	jaan	0		S	sg g
     	Jaan	0		H	sg p
     	Jaani	0		H	sg n
     	jaan	0		S	sg p
p	p	0		Y	?
.	.			Z	
Siitsa	####				
läbi	läbi	0		D	
    	läbi	0		K	
    	läbi	0		V	o
kui	kui	0		D	
   	kui	0		J	
puttu	####				
valla	vald	0		S	sg g
     	valla	0		D	
liige	liige	0		S	sg n
,	,			Z	
elab	ela	b		V	b
Haslava	####				
vallas	vald	s		S	sg in
kesa	kesa	0		S	sg g
    	kesa	0		S	sg n
    	kesa	0		S	sg p
talus	talu	s		S	sg in
     	talu	s		V	s
,	,			Z	
et	et	0		J	
mõlemad	mõlema	d		P	pl n
leppingu	####				
tegijad	tegija	d		S	pl n
selle	see	0		P	sg g
     	sell	e		S	pl p
vallakohtule	valla_kohus	le		S	sg all
palelikult	pale=lik	lt		A	sg abl
          	pale=likult	0		D	
tuntud	tund	tud		V	tud
      	tuntu	d		S	pl n
      	tuntud	0		A	
      	tuntud	0		A	sg n
      	tuntud	d		A	pl n
ja	ja	0		J	
neil	see	l		P	pl ad
    	tema	l		P	pl ad
seadusline	####				
võim	võim	0		S	sg n
leppingu	####				
tegemiseks	tegemine	ks		S	sg tr
on	ole	0		V	b
  	ole	0		V	vad
ja	ja	0		J	
et	et	0		J	
Peeter	Peeter	0		H	sg n
Siitsa	####				
oma	oma	0		A	sg g
   	oma	0		D	
   	oma	0		P	sg g
   	oma	0		S	sg g
   	oma	0		V	o
   	oma	0		A	sg n
   	oma	0		A	sg p
   	oma	0		P	sg n
   	oma	0		P	sg p
   	oma	0		S	sg n
   	oma	0		S	sg p
käega	käsi	ga		S	sg kom
,	,			Z	
isa	isa	0		S	sg g
   	isa	0		S	sg n
   	isa	0		S	sg p
Johan	Johan	0		H	sg n
Siitsa	####				
eest	eest	0		D	
    	eest	0		K	
    	esi	st		S	sg el
aga	aga	0		J	
,	,			Z	
kes	kes	0		P	pl n
   	kes	0		P	sg n
kirjutada	kirjuta	da		V	da
ei	ei	0		D	
  	ei	0		V	neg
mõista	mõist	0		V	o
      	mõist	a		V	da
,	,			Z	
tema	tema	0		P	sg g
    	tema	0		P	sg n
palve	palve	0		S	sg g
     	palve	0		S	sg n
peale	pea	le		S	sg all
     	peale	0		D	
     	peale	0		K	
allakirjutas	####				
Haslava	####				
valla	vald	0		S	sg g
     	valla	0		D	
isak	####				
Märt	Märt	0		H	sg n
Käärik	####				
Tõnise	Tõnis	0		H	sg g
p	p	0		Y	?
.	.			Z	
,	,			Z	
tunnistab	tunnista	b		V	b
valla	vald	0		S	sg g
     	valla	0		D	
kohus	kohu	s		V	s
     	kohus	0		S	sg n
sellega	see	ga		P	sg kom
siin	siin	0		D	
    	siin	0		S	sg n
tõeks	tõde	ks		S	sg tr
     	tõsi	ks		S	sg tr
.	.			Z	
kohtueesistuja	kohtu_ees_istuja	0		S	sg g
              	kohtu_ees_istuja	0		S	sg n
:	:			Z	
J. Rosenthal	####				
/	/			Z	
allkiri	all_kiri	0		S	sg n
/	/			Z	
kirjutaja	kirjutaja	0		S	sg g
         	kirjutaja	0		S	sg n
:	:			Z	
K. Laar	####				
/	/			Z	
allkiri	all_kiri	0		S	sg n
/	/			Z	
/	/			Z	
Pitser	pitser	0		S	sg n
/	/			Z	
1907	1907	0		N	?
aasta	aasta	0		S	sg g
     	aasta	0		S	sg n
Jaanuari	jaanuar	0		S	adt
        	jaanuar	0		S	sg g
        	jaanuar	0		S	sg p
kuu	kuu	0		S	sg g
   	kuu	0		S	sg n
4mal	####				
päeval	päev	l		S	sg ad
mina	mina	0		P	sg n
    	mina	0		S	sg g
    	mina	0		S	sg n
    	mina	0		S	sg p
Peeter	Peeter	0		H	sg n
Siitsa	####				
selle	see	0		P	sg g
     	sell	e		S	pl p
läbi	läbi	0		D	
    	läbi	0		K	
    	läbi	0		V	o
tunnistas	tunnista	s		V	s
,	,			Z	
et	et	0		J	
ole	ole	0		V	o
oma	oma	0		A	sg g
   	oma	0		D	
   	oma	0		P	sg g
   	oma	0		S	sg g
   	oma	0		V	o
   	oma	0		A	sg n
   	oma	0		A	sg p
   	oma	0		P	sg n
   	oma	0		P	sg p
   	oma	0		S	sg n
   	oma	0		S	sg p
isa	isa	0		S	sg g
   	isa	0		S	sg n
   	isa	0		S	sg p
Johan	Johan	0		H	sg n
Jaani	Jaan	0		H	adt
     	Jaan	0		H	sg g
     	Jaani	0		H	sg g
     	jaan	0		S	adt
     	jaan	0		S	sg g
     	Jaan	0		H	sg p
     	Jaani	0		H	sg n
     	jaan	0		S	sg p
poeg	poeg	0		S	sg n
Siitsa	####				
käest	käest	0		K	
     	käsi	st		S	sg el
selle	see	0		P	sg g
     	sell	e		S	pl p
kraami	kraam	0		S	adt
      	kraam	0		S	sg g
      	kraami	0		V	o
      	kraam	0		S	sg p
eest	eest	0		D	
    	eest	0		K	
    	esi	st		S	sg el
,	,			Z	
mis	mis	0		P	pl n
   	mis	0		P	sg n
Haslava	####				
valla	vald	0		S	sg g
     	valla	0		D	
kohtu	kohtu	0		V	o
     	kohus	0		S	sg g
leppingute	####				
raamatusse	raamat	sse		S	sg ill
18	18	0		N	?
Augustil	august	l		S	sg ad
        	August	l		H	sg ad
1899	1899	0		N	?
aastal	aasta	l		S	sg ad
№	№	0		Y	?
7	7	0		N	?
all	all	0		D	
   	all	0		K	
temale	tema	le		P	sg all
tarvituseks	tarvitus	ks		S	sg tr
andsin	and	sin		V	sin
tänasel	tänane	l		A	sg ad
päeval	päev	l		S	sg ad
/	/			Z	
300	300	0		N	?
rbl	rbl	0		Y	?
/	/			Z	
kolm	kolm	0		N	sg n
saada	saa	da		V	da
     	saat	0		V	o
     	saa	da		V	ta
rubla	rubla	0		S	sg g
     	rubla	0		S	sg n
     	rubla	0		S	sg p
sula	sula	0		A	sg g
    	sula	0		S	sg g
    	sula	0		V	o
    	sula	0		A	sg n
    	sula	0		A	sg p
    	sula	0		S	sg n
    	sula	0		S	sg p
rahaga	raha	ga		S	sg kom
kätte	kätte	0		K	
     	käsi	tte		S	adt
saanud	saa	nud		V	nud
      	saa=nud	0		A	
      	saa=nud	0		A	sg n
      	saa=nud	d		A	pl n
      	saanu	d		S	pl n
,	,			Z	
mille	mis	0		P	pl g
     	mis	0		P	sg g
pärast	pära	st		S	sg el
      	pärane	t		A	sg p
      	pärast	0		D	
      	pärast	0		K	
minul	mina	l		P	sg ad
tähendatud	tähenda	tud		V	tud
          	tähenda=tu	d		S	pl n
          	tähenda=tud	0		A	
          	tähenda=tud	0		A	sg n
          	tähenda=tud	d		A	pl n
leppingu	####				
järele	järele	0		D	
      	järele	0		K	
oma	oma	0		A	sg g
   	oma	0		D	
   	oma	0		P	sg g
   	oma	0		S	sg g
   	oma	0		V	o
   	oma	0		A	sg n
   	oma	0		A	sg p
   	oma	0		P	sg n
   	oma	0		P	sg p
   	oma	0		S	sg n
   	oma	0		S	sg p
isa	isa	0		S	sg g
   	isa	0		S	sg n
   	isa	0		S	sg p
käest	käest	0		K	
     	käsi	st		S	sg el
enam	enam	0		C	sg n
    	enam	0		D	
midagi	miski	dagi		P	sg p
üleval	ülev	l		A	sg ad
      	üleval	0		D	
nimetud	nimetu	d		A	pl n
protokolli	protokoll	0		S	adt
          	protokoll	0		S	sg g
          	protokolli	0		V	o
          	protokoll	0		S	sg p
järgi	järg	i		S	pl p
     	järgi	0		D	
     	järgi	0		K	
     	järgi	0		V	o
nõuda	nõud	a		V	da
ei	ei	0		D	
  	ei	0		V	neg
ole	ole	0		V	o
.	.			Z	
Peeter	Peeter	0		H	sg n
Siitsa	####				
/	/			Z	
allkiri	all_kiri	0		S	sg n
/	/			Z	
