Kirepä	####				
metsa	mets	0		S	adt
     	mets	0		S	sg g
     	mets	0		S	sg p
varguse	vargus	0		S	sg g
asi	asi	0		S	sg n
   	asi	0		V	o
.	.			Z	
/	/			Z	
:	:			Z	
vata	####				
N 55	N55	0		Y	?
siin	siin	0		D	
    	siin	0		S	sg n
ramatus	####				
:	:			Z	
/	/			Z	
Moisa	####				
valitsus	valitsus	0		S	sg n
;	;			Z	
sovides	####				
et	et	0		J	
Kirempä	####				
metsa	mets	0		S	adt
     	mets	0		S	sg g
     	mets	0		S	sg p
varguse	vargus	0		S	sg g
asi	asi	0		S	sg n
   	asi	0		V	o
siin	siin	0		D	
    	siin	0		S	sg n
saks	saks	0		S	sg n
ära	ära	0		D	
   	ära	0		V	neg o
seletud	seletu	d		V	d
,	,			Z	
võeti	võt	ti		V	ti
seda	see	da		P	sg p
asja	asi	0		S	adt
    	asi	0		S	sg g
    	asi	0		S	sg p
teist	sina	st		P	pl el
     	tee	ist		S	pl el
     	teist	0		D	
     	teine	t		O	sg p
     	teine	t		P	sg p
kora	####				
ette	ette	0		D	
    	ette	0		K	
    	esi	tte		S	adt
.	.			Z	
Jegor	####				
Nikiti	####				
nüüd	nüüd	0		D	
tunnistab	tunnista	b		V	b
et	et	0		J	
näinud	näi	nud		V	nud
      	näge	nud		V	nud
      	näi=nud	0		A	
      	näi=nud	0		A	sg n
      	näi=nud	d		A	pl n
      	näinu	d		S	pl n
,	,			Z	
kui	kui	0		D	
   	kui	0		J	
Aanufri	####				
Prokofjev	Prokofjev	0		H	sg n
suvvel	####				
2	2	0		N	?
ja	ja	0		J	
Ivan	Ivan	0		H	sg n
Filipov	####				
3	3	0		N	?
puud	puu	d		S	pl n
    	puud	0		S	sg n
    	puu	d		S	sg p
raijunud	####				
ja	ja	0		J	
ära	ära	0		D	
   	ära	0		V	neg o
korinud	####				
.	.			Z	
Mõlemad	mõlema	d		P	pl n
vaidlevad	vaidle	vad		V	vad
         	vaidle=v	d		A	pl n
vasto	####				
et	et	0		J	
kül	####				
puud	puu	d		S	pl n
    	puud	0		S	sg n
    	puu	d		S	sg p
korinud	####				
ole	ole	0		V	o
,	,			Z	
aga	aga	0		J	
aino	####				
nendest	see	dest		P	pl el
       	tema	dest		P	pl el
mis	mis	0		P	pl n
   	mis	0		P	sg n
tuul	tuul	0		S	sg n
maha	maha	0		D	
murdnud	murd	nud		V	nud
       	murd=nu	d		S	pl n
       	murd=nud	0		A	
       	murd=nud	0		A	sg n
       	murd=nud	d		A	pl n
,	,			Z	
ja	ja	0		J	
kelle	kes	0		P	pl g
     	kes	0		P	sg g
peale	pea	le		S	sg all
     	peale	0		D	
     	peale	0		K	
neil	see	l		P	pl ad
    	tema	l		P	pl ad
moisa	####				
valitsusest	valitsus	st		S	sg el
luba	luba	0		S	sg n
    	luba	0		V	o
    	luba	0		S	sg p
on	ole	0		V	b
  	ole	0		V	vad
,	,			Z	
koorida	koori	da		V	da
.	.			Z	
Moiset	####				
nüüd	nüüd	0		D	
:	:			Z	
Jegor	####				
Nikiti	####				
maksab	maks	b		V	b
moisa	####				
heaks	hea	ks		A	sg tr
     	hea	ks		S	sg tr
     	heaks	0		D	
     	heaks	0		K	
nende	see	de		P	pl g
     	tema	de		P	pl g
4	4	0		N	?
puude	puu	de		S	pl g
     	puude	0		S	sg n
     	puue	0		S	sg g
eest	eest	0		D	
    	eest	0		K	
    	esi	st		S	sg el
mis	mis	0		P	pl n
   	mis	0		P	sg n
raijunud	####				
8	8	0		N	?
rubla	rubla	0		S	sg g
     	rubla	0		S	sg n
     	rubla	0		S	sg p
,	,			Z	
Ivan	Ivan	0		H	sg n
Filipov	####				
3	3	0		N	?
puu	puu	0		S	sg g
   	puu	0		S	sg n
eest	eest	0		D	
    	eest	0		K	
    	esi	st		S	sg el
-	-			Z	
6	6	0		N	?
rubla	rubla	0		S	sg g
     	rubla	0		S	sg n
     	rubla	0		S	sg p
ja	ja	0		J	
Aanufri	####				
Prokofjev	Prokofjev	0		H	sg n
2	2	0		N	?
puu	puu	0		S	sg g
   	puu	0		S	sg n
eest	eest	0		D	
    	eest	0		K	
    	esi	st		S	sg el
4	4	0		N	?
rubla	rubla	0		S	sg g
     	rubla	0		S	sg n
     	rubla	0		S	sg p
,	,			Z	
mis	mis	0		P	pl n
   	mis	0		P	sg n
raha	raha	0		S	sg g
    	raha	0		S	sg n
    	raha	0		S	sg p
14	14	0		N	?
päeva	päev	0		S	adt
     	päev	0		S	sg g
     	päev	0		S	sg p
sees	sees	0		D	
    	sees	0		K	
peab	pida	b		V	b
maksetud	makse=tu	d		A	pl n
olema	ole	ma		V	ma
,	,			Z	
muido	####				
nõuab	nõud	b		V	b
kohus	kohu	s		V	s
     	kohus	0		S	sg n
seda	see	da		P	sg p
raha	raha	0		S	sg g
    	raha	0		S	sg n
    	raha	0		S	sg p
risumise	####				
viisi	viis	0		S	adt
     	viis	0		S	sg g
     	viis	i		N	pl p
     	viisi	0		K	
     	viis	0		S	sg p
.	.			Z	
