Joosep	Joosep	0		H	sg n
Prikker	####				
Sõmerpalust	Sõmer_palu	st		H	sg el
kaebas	kaeba	s		V	s
,	,			Z	
et	et	0		J	
temal	tema	l		P	sg ad
Johan	Johan	0		H	sg n
Musta	must	0		A	adt
     	must	0		A	sg g
     	must	0		S	adt
     	must	0		S	sg g
     	musta	0		V	o
     	must	0		A	sg p
     	must	0		S	sg p
käest	käest	0		K	
     	käsi	st		S	sg el
23	23	0		N	?
rbl	rbl	0		Y	?
.	.			Z	
saada	saa	da		V	da
     	saat	0		V	o
     	saa	da		V	ta
,	,			Z	
mis	mis	0		P	pl n
   	mis	0		P	sg n
tema	tema	0		P	sg g
    	tema	0		P	sg n
kätte	kätte	0		K	
     	käsi	tte		S	adt
nõuab	nõud	b		V	b
.	.			Z	
Johan	Johan	0		H	sg n
Must	must	0		A	sg n
    	must	0		S	sg n
    	mina	st		P	sg el
ei	ei	0		D	
  	ei	0		V	neg
salga	salga	0		V	o
     	salk	0		S	sg g
20	20	0		N	?
rbl	rbl	0		Y	?
.	.			Z	
võlga	võlg	0		S	adt
     	võlg	0		S	sg p
olevat	ole	vat		V	vat
      	olev	t		A	sg p
      	olev	t		S	sg p
,	,			Z	
aga	aga	0		J	
3	3	0		N	?
rbl	rbl	0		Y	?
.	.			Z	
tema	tema	0		P	sg g
    	tema	0		P	sg n
mitte	mitte	0		D	
ei	ei	0		D	
  	ei	0		V	neg
mäleta	mäleta	0		V	o
ja	ja	0		J	
tahab	taht	b		V	b
ka	ka	0		D	
seda	see	da		P	sg p
kõik	kõik	0		P	pl n
    	kõik	0		S	sg n
    	kõik	0		P	sg n
äramaksa	ära_maks	0		S	adt
        	ära_maks	0		S	sg g
        	ära_maks	0		S	sg p
.	.			Z	
Mõiste	mõiste	0		S	sg g
      	mõiste	0		S	sg n
:	:			Z	
Johan	Johan	0		H	sg n
Must	must	0		A	sg n
    	must	0		S	sg n
    	mina	st		P	sg el
peab	pida	b		V	b
8	8	0		N	?
peavad	pida	vad		V	vad
sees	sees	0		D	
    	sees	0		K	
23	23	0		N	?
rbl	rbl	0		Y	?
.	.			Z	
Joos	####				
.	.			Z	
Prikkeri	####				
hääks	####				
ära	ära	0		D	
   	ära	0		V	neg o
maksma	maks	ma		V	ma
.	.			Z	
Mõiste	mõiste	0		S	sg g
      	mõiste	0		S	sg n
sai	saa	i		V	s
   	sai	0		S	sg n
kohtukäijatele	kohtu_käija	tele		S	pl all
kuulutud	kuulu	tud		V	tud
        	kuulu=tu	d		S	pl n
        	kuulu=tud	0		A	
        	kuulu=tud	0		A	sg n
        	kuulu=tud	d		A	pl n
.	.			Z	
Äramaksetud	ära_makse=tu	d		A	pl n
23	23	0		N	?
rbl	rbl	0		Y	?
.	.			Z	
