Sel	see	l		P	sg ad
   	sel	0		Y	?
11.	11.	0		O	?
Novembril	november	l		S	sg ad
c	c	0		Y	?
subNr	####				
918	918	0		N	?
poolele	pool	le		N	sg all
       	pool	le		S	sg all
jäänud	jää	nud		V	nud
      	jäänu	d		S	pl n
      	jäänud	0		A	
      	jäänud	0		A	sg n
      	jäänud	d		A	pl n
asjus	asi	us		S	pl in
tuli	tuli	0		S	sg n
    	tule	i		V	s
ette	ette	0		D	
    	ette	0		K	
    	esi	tte		S	adt
Mart	Mart	0		H	sg n
    	mart	0		S	sg n
Markus	Markus	0		H	sg n
ja	ja	0		J	
tunnistab	tunnista	b		V	b
,	,			Z	
et	et	0		J	
tema	tema	0		P	sg g
    	tema	0		P	sg n
olnud	ol=nud	0		A	
     	ol=nud	0		A	sg n
     	ol=nud	d		A	pl n
     	ole	nud		V	nud
     	olnu	d		S	pl n
Jaan	Jaan	0		H	sg n
    	jaan	0		S	sg n
    	jaan	0		Y	?
Ostra	####				
kraami	kraam	0		S	adt
      	kraam	0		S	sg g
      	kraami	0		V	o
      	kraam	0		S	sg p
vedamas	veda	mas		V	mas
,	,			Z	
oma	oma	0		A	sg g
   	oma	0		D	
   	oma	0		P	sg g
   	oma	0		S	sg g
   	oma	0		V	o
   	oma	0		A	sg n
   	oma	0		A	sg p
   	oma	0		P	sg n
   	oma	0		P	sg p
   	oma	0		S	sg n
   	oma	0		S	sg p
hobusega	hobune	ga		S	sg kom
ja	ja	0		J	
leppinud	leppi	nud		V	nud
        	leppi=nu	d		S	pl n
        	leppi=nud	0		A	
        	leppi=nud	0		A	sg n
        	leppi=nud	d		A	pl n
3.	3.	0		O	?
rubla	rubla	0		S	sg g
     	rubla	0		S	sg n
     	rubla	0		S	sg p
peale	pea	le		S	sg all
     	peale	0		D	
     	peale	0		K	
Jaan	Jaan	0		H	sg n
    	jaan	0		S	sg n
    	jaan	0		Y	?
Ostra	####				
sõõgi	####				
ja	ja	0		J	
viina	viin	0		S	adt
     	viin	0		S	sg g
     	viin	0		S	sg p
peal	pea	l		S	sg ad
    	peal	0		D	
    	peal	0		K	
.	.			Z	
Aadam	Aadam	0		H	sg n
kalev	kalev	0		S	sg n
tunnistab	tunnista	b		V	b
,	,			Z	
et	et	0		J	
tema	tema	0		P	sg g
    	tema	0		P	sg n
olnud	ol=nud	0		A	
     	ol=nud	0		A	sg n
     	ol=nud	d		A	pl n
     	ole	nud		V	nud
     	olnu	d		S	pl n
oma	oma	0		A	sg g
   	oma	0		D	
   	oma	0		P	sg g
   	oma	0		S	sg g
   	oma	0		V	o
   	oma	0		A	sg n
   	oma	0		A	sg p
   	oma	0		P	sg n
   	oma	0		P	sg p
   	oma	0		S	sg n
   	oma	0		S	sg p
hobusega	hobune	ga		S	sg kom
Jaan	Jaan	0		H	sg n
    	jaan	0		S	sg n
    	jaan	0		Y	?
Ostra	####				
kraami	kraam	0		S	adt
      	kraam	0		S	sg g
      	kraami	0		V	o
      	kraam	0		S	sg p
vedamas	veda	mas		V	mas
,	,			Z	
peremees	pere_mees	0		S	sg n
andnud	and	nud		V	nud
      	and=nu	d		S	pl n
      	and=nud	0		A	
      	and=nud	0		A	sg n
      	and=nud	d		A	pl n
sõõgi	####				
ja	ja	0		J	
viina	viin	0		S	adt
     	viin	0		S	sg g
     	viin	0		S	sg p
omalt	oma	lt		A	sg abl
     	oma	lt		P	sg abl
     	oma	lt		S	sg abl
     	oma=lt	0		D	
poolt	pool	t		N	sg p
     	pool	t		S	sg p
     	poolt	0		D	
     	poolt	0		K	
ja	ja	0		J	
nõuda	nõud	a		V	da
tunnistaja	tunnistaja	0		S	sg g
          	tunnistaja	0		S	sg n
3.	3.	0		O	?
rubla	rubla	0		S	sg g
     	rubla	0		S	sg n
     	rubla	0		S	sg p
oma	oma	0		A	sg g
   	oma	0		D	
   	oma	0		P	sg g
   	oma	0		S	sg g
   	oma	0		V	o
   	oma	0		A	sg n
   	oma	0		A	sg p
   	oma	0		P	sg n
   	oma	0		P	sg p
   	oma	0		S	sg n
   	oma	0		S	sg p
vaeva	vaev	0		S	adt
     	vaev	0		S	sg g
     	vaeva	0		V	o
     	vaev	0		S	sg p
eest	eest	0		D	
    	eest	0		K	
    	esi	st		S	sg el
kraami	kraam	0		S	adt
      	kraam	0		S	sg g
      	kraami	0		V	o
      	kraam	0		S	sg p
vedaja	vedaja	0		S	sg g
      	vedaja	0		S	sg n
Daniel	Daniel	0		H	sg n
Ala	ala	0		S	sg g
   	ala	0		S	sg n
   	ala	0		S	sg p
tunnistab	tunnista	b		V	b
niisama	nii_sama	0		D	
,	,			Z	
kui	kui	0		D	
   	kui	0		J	
eespool	ees_pool	0		D	
       	ees_pool	0		K	
Aadam	Aadam	0		H	sg n
kalev	kalev	0		S	sg n
on	ole	0		V	b
  	ole	0		V	vad
tunnistanud	tunnista	nud		V	nud
           	tunnista=nu	d		S	pl n
           	tunnista=nud	0		A	
           	tunnista=nud	0		A	sg n
           	tunnista=nud	d		A	pl n
.	.			Z	
raha	raha	0		S	sg g
    	raha	0		S	sg n
    	raha	0		S	sg p
olla	ole	a		V	da
maksmatta	####				
Jaan	Jaan	0		H	sg n
    	jaan	0		S	sg n
    	jaan	0		Y	?
Ostra	####				
kraami	kraam	0		S	adt
      	kraam	0		S	sg g
      	kraami	0		V	o
      	kraam	0		S	sg p
vedaja	vedaja	0		S	sg g
      	vedaja	0		S	sg n
Jakob	Jakob	0		H	sg n
Lummi	lumm	i		S	pl p
tunnistab	tunnista	b		V	b
niisama	nii_sama	0		D	
,	,			Z	
kui	kui	0		D	
   	kui	0		J	
eespool	ees_pool	0		D	
       	ees_pool	0		K	
Daniel	Daniel	0		H	sg n
Al	Al	0		Y	?
on	ole	0		V	b
  	ole	0		V	vad
tunnistanud	tunnista	nud		V	nud
           	tunnista=nu	d		S	pl n
           	tunnista=nud	0		A	
           	tunnista=nud	0		A	sg n
           	tunnista=nud	d		A	pl n
.	.			Z	
raha	raha	0		S	sg g
    	raha	0		S	sg n
    	raha	0		S	sg p
olla	ole	a		V	da
maksmatta	####				
Mihkel	Mihkel	0		H	sg n
      	mihkel	0		A	sg n
      	mihkel	0		S	sg n
Vilip	####				
tunnistab	tunnista	b		V	b
niisama	nii_sama	0		D	
,	,			Z	
kui	kui	0		D	
   	kui	0		J	
eespool	ees_pool	0		D	
       	ees_pool	0		K	
Jakob	Jakob	0		H	sg n
Lummi	lumm	i		S	pl p
Jakob	Jakob	0		H	sg n
räni	räni	0		S	sg g
    	räni	0		S	sg n
    	räni	0		S	sg p
tunnistab	tunnista	b		V	b
niisama	nii_sama	0		D	
.	.			Z	
Ivan	Ivan	0		H	sg n
Politanov	####				
tunnisatb	####				
,	,			Z	
et	et	0		J	
tema	tema	0		P	sg g
    	tema	0		P	sg n
olla	ole	a		V	da
nüüd	nüüd	0		D	
Jaan	Jaan	0		H	sg n
    	jaan	0		S	sg n
    	jaan	0		Y	?
Ostra	####				
oma	oma	0		A	sg g
   	oma	0		D	
   	oma	0		P	sg g
   	oma	0		S	sg g
   	oma	0		V	o
   	oma	0		A	sg n
   	oma	0		A	sg p
   	oma	0		P	sg n
   	oma	0		P	sg p
   	oma	0		S	sg n
   	oma	0		S	sg p
juure	juur	0		S	sg g
üüri	üür	0		S	adt
    	üür	0		S	sg g
    	üüri	0		V	o
    	üür	0		S	sg p
peale	pea	le		S	sg all
     	peale	0		D	
     	peale	0		K	
võtnud	võt	nud		V	nud
      	võt=nu	d		S	pl n
      	võt=nud	0		A	
      	võt=nud	0		A	sg n
      	võt=nud	d		A	pl n
,	,			Z	
kuni	kuni	0		J	
    	kuni	0		K	
lihavõtte	liha_võte	0		S	sg g
pühadeni	püha	deni		A	pl ter
        	püha	deni		S	pl ter
13.	13.	0		O	?
rubla	rubla	0		S	sg g
     	rubla	0		S	sg n
     	rubla	0		S	sg p
hina	####				
al	####				
.	.			Z	
ja	ja	0		J	
tehnud	####				
Jaan	Jaan	0		H	sg n
    	jaan	0		S	sg n
    	jaan	0		Y	?
Ostra	####				
ka	ka	0		D	
liigud	liik	d		S	pl n
      	liiku	d		V	d
omalt	oma	lt		A	sg abl
     	oma	lt		P	sg abl
     	oma	lt		S	sg abl
     	oma=lt	0		D	
poolt	pool	t		N	sg p
     	pool	t		S	sg p
     	poolt	0		D	
     	poolt	0		K	
edasi	edasi	0		D	
     	edasi	0		K	
tunnistab	tunnista	b		V	b
tema	tema	0		P	sg g
    	tema	0		P	sg n
,	,			Z	
et	et	0		J	
Jaan	Jaan	0		H	sg n
    	jaan	0		S	sg n
    	jaan	0		Y	?
Ostral	####				
olnud	ol=nud	0		A	
     	ol=nud	0		A	sg n
     	ol=nud	d		A	pl n
     	ole	nud		V	nud
     	olnu	d		S	pl n
palju	palju	0		D	
     	palju	0		P	sg g
     	palju	0		P	sg n
kraami	kraam	0		S	adt
      	kraam	0		S	sg g
      	kraami	0		V	o
      	kraam	0		S	sg p
,	,			Z	
ja	ja	0		J	
vedanud	veda	nud		V	nud
       	veda=nu	d		S	pl n
       	veda=nud	0		A	
       	veda=nud	0		A	sg n
       	veda=nud	d		A	pl n
vie	####				
vai	vai	0		S	sg n
rohkem	rohkem	0		D	
hobustega	hobune	tega		S	pl kom
Jaan	Jaan	0		H	sg n
    	jaan	0		S	sg n
    	jaan	0		Y	?
Ostra	####				
õpipois	õpi_poi	s		S	sg in
Kidem	####				
Ostra	####				
tunnistab	tunnista	b		V	b
,	,			Z	
et	et	0		J	
nemad	tema	d		P	pl n
olla	ole	a		V	da
2.	2.	0		O	?
mehe	mees	0		S	sg g
12.	12.	0		O	?
paeva	####				
seisnud	seis	nud		V	nud
       	seis=nu	d		S	pl n
       	seis=nud	0		A	
       	seis=nud	0		A	sg n
       	seis=nud	d		A	pl n
,	,			Z	
selle	see	0		P	sg g
     	sell	e		S	pl p
Aavdakim	####				
Jaksina	####				
maeast	####				
väljaaeamise	####				
läbbi	####				
/	/			Z	
:	:			Z	
jääb	jää	b		V	b
poolele	pool	le		N	sg all
       	pool	le		S	sg all
:/	:			Z	
Maddis	####				
erm	####				
,	,			Z	
kohtum	####				
A	A	0		Y	?
.	.			Z	
_	_			Z	
Pärn	pärn	0		S	sg n
.	.			Z	
[	[			Z	
allkiri	all_kiri	0		S	sg n
]	]			Z	
,	,			Z	
-	-			Z	
""""	""""			Z	
-	-			Z	
Tavet	####				
kook	kook	0		S	sg n
,	,			Z	
-	-			Z	
""""	""""			Z	
-	-			Z	
