tüli	tüli	0		S	sg g
    	tüli	0		S	sg n
    	tüli	0		S	sg p
ette	ette	0		D	
    	ette	0		K	
    	esi	tte		S	adt
Johan	Johan	0		H	sg n
Padar	####				
ja	ja	0		J	
palus	palu	s		S	sg in
     	palu	s		V	s
protokolli	protokoll	0		S	adt
          	protokoll	0		S	sg g
          	protokolli	0		V	o
          	protokoll	0		S	sg p
üles	üles	0		D	
panna	pand	0		S	sg g
     	pane	a		V	da
     	panna	0		S	sg g
     	panna	0		S	sg n
,	,			Z	
et	et	0		J	
tema	tema	0		P	sg g
    	tema	0		P	sg n
oma	oma	0		A	sg g
   	oma	0		D	
   	oma	0		P	sg g
   	oma	0		S	sg g
   	oma	0		V	o
   	oma	0		A	sg n
   	oma	0		A	sg p
   	oma	0		P	sg n
   	oma	0		P	sg p
   	oma	0		S	sg n
   	oma	0		S	sg p
nüüdse	nüüdne	0		A	sg g
naise	naine	0		S	sg g
Maie	Maie	0		H	sg g
    	Maie	0		H	sg n
poega	poeg	0		S	adt
     	pood	ga		S	sg kom
     	poeg	0		S	sg p
,	,			Z	
kes	kes	0		P	pl n
   	kes	0		P	sg n
enne	enne	0		D	
    	enne	0		K	
    	enne	0		S	sg n
abieluse	####				
heitmist	heitmine	t		S	sg p
sündinud	sündi	nud		V	nud
        	sündinu	d		S	pl n
        	sündinud	0		A	
        	sündinud	0		A	sg n
        	sündinud	d		A	pl n
,	,			Z	
nimega	nimi	ga		S	sg kom
Jaan	Jaan	0		H	sg n
    	jaan	0		S	sg n
    	jaan	0		Y	?
Peedoksaar	####				
sünd	sünd	0		S	sg n
    	sünd	0		Y	?
.	.			Z	
13.	13.	0		O	?
Vebruaril	####				
1879	1879	0		N	?
talurahva	talu_rahvas	0		S	sg g
seaduse	seadus	0		S	sg g
raamatu	raamat	0		S	sg g
järel	järel	0		D	
     	järel	0		K	
aastast	aasta	st		S	sg el
       	aastane	t		A	sg p
1860	1860	0		N	?
§	§	0		Y	?
592	592	0		N	?
omale	oma	le		A	sg all
     	oma	le		P	sg all
     	oma	le		S	sg all
pojaks	poeg	ks		S	sg tr
      	poja	ks		S	sg tr
võtab	võt	b		V	b
kõige	kõik	0		P	sg g
     	kõige	0		D	
õiguste	õigus	te		S	pl g
ja	ja	0		J	
kohustega	kohus	tega		S	pl kom
,	,			Z	
mis	mis	0		P	pl n
   	mis	0		P	sg n
ühel	üks	l		N	sg ad
    	üks	l		P	sg ad
ihulikul	ihulik	l		A	sg ad
lapsel	laps	l		S	sg ad
on	ole	0		V	b
  	ole	0		V	vad
ja	ja	0		J	
tunnistab	tunnista	b		V	b
seda	see	da		P	sg p
oma	oma	0		A	sg g
   	oma	0		D	
   	oma	0		P	sg g
   	oma	0		S	sg g
   	oma	0		V	o
   	oma	0		A	sg n
   	oma	0		A	sg p
   	oma	0		P	sg n
   	oma	0		P	sg p
   	oma	0		S	sg n
   	oma	0		S	sg p
allkirjaga	all_kiri	ga		S	sg kom
.	.			Z	
Johan	Johan	0		H	sg n
Padar	####				
XXX	XXX	0		O	?
   	XXX	0		Y	?
otsus	otsus	0		S	sg n
:	:			Z	
seda	see	da		P	sg p
protokolli	protokoll	0		S	adt
          	protokoll	0		S	sg g
          	protokolli	0		V	o
          	protokoll	0		S	sg p
ülespanna	üles_pand	0		S	sg g
         	üles_panna	0		S	sg g
         	üles_panna	0		S	sg n
peakohtumees	pea_kohtu_mees	0		S	sg n
:	:			Z	
Peeter	Peeter	0		H	sg n
Kripsoon	####				
XXX	XXX	0		O	?
   	XXX	0		Y	?
kohtumees	kohtu_mees	0		S	sg n
Johan	Johan	0		H	sg n
Kiljak	####				
allkiri	all_kiri	0		S	sg n
abiohtumees	abi_ohtu_mees	0		S	sg n
Kusta	Kusta	0		H	sg g
     	Kusta	0		H	sg n
     	kuse	ta		V	da
     	kuse	ta		V	ta
Saarva	####				
allkiri	all_kiri	0		S	sg n
kirjutaja	kirjutaja	0		S	sg g
         	kirjutaja	0		S	sg n
:	:			Z	
Chr	Chr	0		Y	?
.	.			Z	
Kapp	kapp	0		S	sg n
allkiri	all_kiri	0		S	sg n
