Krimani	####				
kogukonna	kogukond	0		S	sg g
kohtus	kohtu	s		V	s
      	kohus	s		S	sg in
sel	see	l		P	sg ad
   	sel	0		Y	?
25mal	####				
Juuni	juuni	0		S	sg g
     	juuni	0		S	sg n
1871.	1871.	0		O	?
Johan	Johan	0		H	sg n
Klaos	####				
tuli	tuli	0		S	sg n
    	tule	i		V	s
30mal	####				
April	####				
kohtu	kohtu	0		V	o
     	kohus	0		S	sg g
ette	ette	0		D	
    	ette	0		K	
    	esi	tte		S	adt
ja	ja	0		J	
kaebas	kaeba	s		V	s
et	et	0		J	
mina	mina	0		P	sg n
    	mina	0		S	sg g
    	mina	0		S	sg n
    	mina	0		S	sg p
olin	ole	in		V	sin
vana	vana	0		A	sg g
    	vana	0		A	sg n
    	vana	0		A	sg p
    	vana	0		S	sg g
    	vana	0		S	sg n
    	vana	0		S	sg p
kuusteks	kuune	teks		A	pl tr
Endrik	Endrik	0		H	sg n
sahks	####				
endale	ise	le		P	sg all
sulaseks	sulane	ks		S	sg tr
juba	juba	0		D	
Februari	####				
kuul	kuu	l		S	sg ad
    	kuul	0		S	sg n
kaubelnud	kauple	nud		V	nud
         	kaubel=nu	d		S	pl n
         	kaubel=nud	0		A	
         	kaubel=nud	0		A	sg n
         	kaubel=nud	d		A	pl n
aga	aga	0		J	
ta	tema	0		P	sg g
  	tema	0		P	sg n
ei	ei	0		D	
  	ei	0		V	neg
ole	ole	0		V	o
senni	####				
ajani	aeg	ni		S	sg ter
veel	veel	0		D	
    	vesi	l		S	sg ad
mitte	mitte	0		D	
mind	mina	d		P	sg p
teenima	teeni	ma		V	ma
tulnud	tul=nud	0		A	
      	tul=nud	0		A	sg n
      	tul=nud	d		A	pl n
      	tule	nud		V	nud
      	tulnu	d		S	pl n
tema	tema	0		P	sg g
    	tema	0		P	sg n
kaubeldud	kauple	dud		V	tud
         	kaubel=du	d		S	pl n
         	kaubel=dud	0		A	
         	kaubel=dud	0		A	sg n
         	kaubel=dud	d		A	pl n
palk	palk	0		S	sg n
oli	ole	i		V	s
3	3	0		N	?
vakka	vakk	0		S	adt
     	vakk	0		S	sg p
     	vakka	0		D	
rukkid	rukis	d		S	pl n
4	4	0		N	?
vakka	vakk	0		S	adt
     	vakk	0		S	sg p
     	vakka	0		D	
kesvi	kesv	i		S	pl p
1	1	0		N	?
vak	####				
kartuflid	####				
maha	maha	0		D	
pool	pool	0		K	
    	pool	0		N	sg n
    	pool	0		S	sg n
pearaha	pea_raha	0		S	sg g
       	pea_raha	0		S	sg n
       	pea_raha	0		S	sg p
150	150	0		N	?
saabaraha	####				
ja	ja	0		J	
üks	üks	0		N	sg n
   	üks	0		P	sg n
rubla	rubla	0		S	sg g
     	rubla	0		S	sg n
     	rubla	0		S	sg p
käeraha	käe_raha	0		S	sg g
       	käe_raha	0		S	sg n
       	käe_raha	0		S	sg p
kätte	kätte	0		K	
     	käsi	tte		S	adt
annud	####				
,	,			Z	
mul	mina	l		P	sg ad
on	ole	0		V	b
  	ole	0		V	vad
ainult	ainu	lt		S	sg abl
      	ainult	0		D	
sulast	sula	st		A	sg el
      	sula	st		S	sg el
      	sulane	t		S	sg p
vaia	vai	0		S	adt
    	vai	0		S	sg g
    	vaia	0		V	o
    	vai	0		S	sg p
.	.			Z	
Endrik	Endrik	0		H	sg n
saks	saks	0		S	sg n
sai	saa	i		V	s
   	sai	0		S	sg n
sest	see	st		P	sg el
    	sest	0		J	
25	25	0		N	?
Juunil	juuni	l		S	sg ad
siia	siia	0		D	
    	siig	0		S	sg g
kohtu	kohtu	0		V	o
     	kohus	0		S	sg g
ette	ette	0		D	
    	ette	0		K	
    	esi	tte		S	adt
tallitud	talli=tu	d		A	pl n
ja	ja	0		J	
ta	tema	0		P	sg g
  	tema	0		P	sg n
ütles	ütle	s		V	s
:	:			Z	
mina	mina	0		P	sg n
    	mina	0		S	sg g
    	mina	0		S	sg n
    	mina	0		S	sg p
olen	ole	n		V	n
küll	küll	0		D	
    	küll	0		S	sg n
temaga	tema	ga		P	sg kom
kaup	kaup	0		S	sg n
teinud	tege	nud		V	nud
      	tei=nud	0		A	
      	tei=nud	0		A	sg n
      	tei=nud	d		A	pl n
      	teinu	d		S	pl n
,	,			Z	
aga	aga	0		J	
mina	mina	0		P	sg n
    	mina	0		S	sg g
    	mina	0		S	sg n
    	mina	0		S	sg p
ei	ei	0		D	
  	ei	0		V	neg
võinud	või	nud		V	nud
      	või=nu	d		S	pl n
      	või=nud	0		A	
      	või=nud	0		A	sg n
      	või=nud	d		A	pl n
mitte	mitte	0		D	
tema	tema	0		P	sg g
    	tema	0		P	sg n
teenistuse	teenistus	0		S	sg g
minna	mine	a		V	da
sest	see	st		P	sg el
    	sest	0		J	
ma	mina	0		P	sg n
ütli	####				
õkva	õkva	0		D	
peale	pea	le		S	sg all
     	peale	0		D	
     	peale	0		K	
see	see	0		P	sg n
kaubategemise	kauba_tegemine	0		S	sg g
Klaosele	####				
et	et	0		J	
ma	mina	0		P	sg n
sinu	sina	0		P	sg g
sulaseks	sulane	ks		S	sg tr
küll	küll	0		D	
    	küll	0		S	sg n
ei	ei	0		D	
  	ei	0		V	neg
lähe	lähe	0		S	sg n
    	mine	0		V	neg o
ja	ja	0		J	
pakusin	####				
see	see	0		P	sg n
1	1	0		N	?
rubla	rubla	0		S	sg g
     	rubla	0		S	sg n
     	rubla	0		S	sg p
käeraha	käe_raha	0		S	sg g
       	käe_raha	0		S	sg n
       	käe_raha	0		S	sg p
tagasi	tagasi	0		D	
      	tagasi	0		K	
sest	see	st		P	sg el
    	sest	0		J	
minu	mina	0		P	sg g
oli	ole	i		V	s
vägise	vägine	0		A	sg g
      	vägine	0		S	sg g
Hagele	####				
viitud	####				
et	et	0		J	
ma	mina	0		P	sg n
viinast	viin	st		S	sg el
       	viinane	t		A	sg p
joonud	joo	nud		V	nud
      	joo=nu	d		S	pl n
      	joo=nud	0		A	
      	joo=nud	0		A	sg n
      	joo=nud	d		A	pl n
olin	ole	in		V	sin
2	2	0		N	?
vaid	vaid	0		D	
    	vaid	0		J	
3	3	0		N	?
nädala	nädal	0		S	sg g
pärast	pära	st		S	sg el
      	pärane	t		A	sg p
      	pärast	0		D	
      	pärast	0		K	
pakusin	####				
sulle	sina	lle		P	sg all
käeraha	käe_raha	0		S	sg g
       	käe_raha	0		S	sg n
       	käe_raha	0		S	sg p
tagasi	tagasi	0		D	
      	tagasi	0		K	
viina	viin	0		S	adt
     	viin	0		S	sg g
     	viin	0		S	sg p
olin	ole	in		V	sin
ma	mina	0		P	sg n
saanud	saa	nud		V	nud
      	saa=nud	0		A	
      	saa=nud	0		A	sg n
      	saa=nud	d		A	pl n
      	saanu	d		S	pl n
ja	ja	0		J	
ei	ei	0		D	
  	ei	0		V	neg
tea	tead	0		V	o
mis	mis	0		P	pl n
   	mis	0		P	sg n
palk	palk	0		S	sg n
ta	tema	0		P	sg g
  	tema	0		P	sg n
mulle	mull	e		S	pl p
     	mina	lle		P	sg all
     	mulle	0		S	sg n
oli	ole	i		V	s
lubanud	luba	nud		V	nud
       	luba=nu	d		S	pl n
       	luba=nud	0		A	
       	luba=nud	0		A	sg n
       	luba=nud	d		A	pl n
.	.			Z	
kogukonna	kogukond	0		S	sg g
kohus	kohu	s		V	s
     	kohus	0		S	sg n
arvab	arva	b		V	b
see	see	0		P	sg n
palk	palk	0		S	sg n
raha	raha	0		S	sg g
    	raha	0		S	sg n
    	raha	0		S	sg p
perra	####				
mis	mis	0		P	pl n
   	mis	0		P	sg n
25	25	0		N	?
rub	####				
25	25	0		N	?
kop	kop	0		Y	?
välja	välja	0		D	
     	välja	0		V	o
     	väli	0		S	adt
     	väli	0		S	sg g
     	väli	0		S	sg p
teeb	tege	b		V	b
,	,			Z	
siis	siis	0		D	
    	siis	0		J	
küsis	küsi	s		V	s
kohus	kohu	s		V	s
     	kohus	0		S	sg n
kas	kas	0		D	
Endrik	Endrik	0		H	sg n
saks	saks	0		S	sg n
Klaose	####				
teenistuse	teenistus	0		S	sg g
läheb	mine	b		V	b
.	.			Z	
ta	tema	0		P	sg g
  	tema	0		P	sg n
ütles	ütle	s		V	s
:	:			Z	
ei	ei	0		D	
  	ei	0		V	neg
mitte	mitte	0		D	
ma	mina	0		P	sg n
ei	ei	0		D	
  	ei	0		V	neg
lähe	lähe	0		S	sg n
    	mine	0		V	neg o
.	.			Z	
kogukonna	kogukond	0		S	sg g
kohus	kohu	s		V	s
     	kohus	0		S	sg n
25mal	####				
Juuni	juuni	0		S	sg g
     	juuni	0		S	sg n
1871.	1871.	0		O	?
kogukonna	kogukond	0		S	sg g
kohus	kohu	s		V	s
     	kohus	0		S	sg n
mõistis	mõist	is		V	s
:	:			Z	
kui	kui	0		D	
   	kui	0		J	
Endrik	Endrik	0		H	sg n
saks	saks	0		S	sg n
mitte	mitte	0		D	
Klaost	####				
teenima	teeni	ma		V	ma
ei	ei	0		D	
  	ei	0		V	neg
lähe	lähe	0		S	sg n
    	mine	0		V	neg o
siis	siis	0		D	
    	siis	0		J	
peab	pida	b		V	b
Endrik	Endrik	0		H	sg n
sahks	####				
Klaosele	####				
see	see	0		P	sg n
kaubeldud	kauple	dud		V	tud
         	kaubel=du	d		S	pl n
         	kaubel=dud	0		A	
         	kaubel=dud	0		A	sg n
         	kaubel=dud	d		A	pl n
aasta	aasta	0		S	sg g
     	aasta	0		S	sg n
palk	palk	0		S	sg n
25	25	0		N	?
rbl	rbl	0		Y	?
50	50	0		N	?
kop	kop	0		Y	?
ja	ja	0		J	
90	90	0		N	?
kopka	####				
vana	vana	0		A	sg g
    	vana	0		A	sg n
    	vana	0		A	sg p
    	vana	0		S	sg g
    	vana	0		S	sg n
    	vana	0		S	sg p
kuuste	kuune	te		A	pl g
laadiku	laadik	0		S	sg g
kahe	kaks	0		N	sg g
nädala	nädal	0		S	sg g
sees	sees	0		D	
    	sees	0		K	
ära	ära	0		D	
   	ära	0		V	neg o
maksma	maks	ma		V	ma
sellepärast	selle_pärast	0		D	
et	et	0		J	
ta	tema	0		P	sg g
  	tema	0		P	sg n
selle	see	0		P	sg g
     	sell	e		S	pl p
raha	raha	0		S	sg g
    	raha	0		S	sg n
    	raha	0		S	sg p
eest	eest	0		D	
    	eest	0		K	
    	esi	st		S	sg el
endale	ise	le		P	sg all
päevilist	päeviline	t		S	sg p
võtab	võt	b		V	b
.	.			Z	
kohtu	kohtu	0		V	o
     	kohus	0		S	sg g
lauas	laud	s		S	sg in
olid	ole	id		V	sid
:	:			Z	
peakohtumees	pea_kohtu_mees	0		S	sg n
Johan	Johan	0		H	sg n
Mina	mina	0		P	sg n
    	mina	0		S	sg g
    	mina	0		S	sg n
    	mina	0		S	sg p
abi	abi	0		S	sg g
   	abi	0		S	sg n
   	abi	0		S	sg p
""""	""""			Z	
Johan	Johan	0		H	sg n
rasva	rasv	0		S	adt
     	rasv	0		S	sg g
     	rasva	0		D	
     	rasva	0		V	o
     	rasv	0		S	sg p
abi	abi	0		S	sg g
   	abi	0		S	sg n
   	abi	0		S	sg p
""""	""""			Z	
Kaarel	Kaarel	0		H	sg n
      	kaar	l		S	sg ad
      	kaarel	0		S	sg n
poeadderson	####				
kirjutaja	kirjutaja	0		S	sg g
         	kirjutaja	0		S	sg n
V. Kogi	####				
/	/			Z	
allkiri	all_kiri	0		S	sg n
/	/			Z	
