Haslava	####				
kogukonna	kogukond	0		S	sg g
kohus	kohu	s		V	s
     	kohus	0		S	sg n
sel	see	l		P	sg ad
   	sel	0		Y	?
10	10	0		N	?
märtsil	märts	l		S	sg ad
1886	1886	0		N	?
man	man	0		D	
   	man	0		K	
olid	ole	id		V	sid
:	:			Z	
peakohtumees	pea_kohtu_mees	0		S	sg n
Mihkel	Mihkel	0		H	sg n
      	mihkel	0		A	sg n
      	mihkel	0		S	sg n
Ivan	Ivan	0		H	sg n
kohtumees	kohtu_mees	0		S	sg n
:	:			Z	
Jüri	Jüri	0		H	sg g
    	Jüri	0		H	sg n
kärn	kärn	0		S	sg n
""""	""""			Z	
Johan	Johan	0		H	sg n
opman	opman	0		S	sg n
""""	""""			Z	
Jaan	Jaan	0		H	sg n
    	jaan	0		S	sg n
    	jaan	0		Y	?
Hansen	Hansen	0		H	sg n
kaebas	kaeba	s		V	s
Leena	Lee	na		H	sg es
     	Leena	0		H	sg g
     	Leena	0		H	sg n
voola	voola	0		V	o
Krimannist	####				
oma	oma	0		A	sg g
   	oma	0		D	
   	oma	0		P	sg g
   	oma	0		S	sg g
   	oma	0		V	o
   	oma	0		A	sg n
   	oma	0		A	sg p
   	oma	0		P	sg n
   	oma	0		P	sg p
   	oma	0		S	sg n
   	oma	0		S	sg p
eksa	####				
Johan	Johan	0		H	sg n
voola	voola	0		V	o
man	man	0		D	
   	man	0		K	
olen	ole	n		V	n
,	,			Z	
et	et	0		J	
temal	tema	l		P	sg ad
Karl	Karl	0		H	sg n
Türk	####				
lapse	laps	0		S	sg g
teinud	tege	nud		V	nud
      	tei=nud	0		A	
      	tei=nud	0		A	sg n
      	tei=nud	d		A	pl n
      	teinu	d		S	pl n
nii	nii	0		D	
et	et	0		J	
see	see	0		P	sg n
laps	laps	0		S	sg n
praegu	praegu	0		D	
5½_	####				
kuud	kuu	d		S	pl n
    	kuu	d		S	sg p
vana	vana	0		A	sg g
    	vana	0		A	sg n
    	vana	0		A	sg p
    	vana	0		S	sg g
    	vana	0		S	sg n
    	vana	0		S	sg p
on	ole	0		V	b
  	ole	0		V	vad
sellepärast	selle_pärast	0		D	
palus	palu	s		S	sg in
     	palu	s		V	s
kaebaja	kaebaja	0		S	sg g
       	kaebaja	0		S	sg n
et	et	0		J	
Karl	Karl	0		H	sg n
Türk	####				
sunitud	####				
saaks	saa	ks		V	ks
200	200	0		N	?
rubl	####				
lapsekasvatamise	lapse_kasvatamine	0		S	sg g
raha	raha	0		S	sg g
    	raha	0		S	sg n
    	raha	0		S	sg p
temale	tema	le		P	sg all
maksma	maks	ma		V	ma
.	.			Z	
Karl	Karl	0		H	sg n
Türk	####				
vastutas	vastuta	s		V	s
selle	see	0		P	sg g
     	sell	e		S	pl p
peale	pea	le		S	sg all
     	peale	0		D	
     	peale	0		K	
,	,			Z	
et	et	0		J	
tema	tema	0		P	sg g
    	tema	0		P	sg n
selle	see	0		P	sg g
     	sell	e		S	pl p
kaebaja	kaebaja	0		S	sg g
       	kaebaja	0		S	sg n
tüdrukuga	tüdruk	ga		S	sg kom
ennast	ise	t		P	sg p
seisnud	seis	nud		V	nud
       	seis=nu	d		S	pl n
       	seis=nud	0		A	
       	seis=nud	0		A	sg n
       	seis=nud	d		A	pl n
ei	ei	0		D	
  	ei	0		V	neg
ole	ole	0		V	o
ja	ja	0		J	
ei	ei	0		D	
  	ei	0		V	neg
taha	taht	0		V	o
    	taha	0		D	
    	taha	0		K	
ka	ka	0		D	
.	.			Z	
peale	pea	le		S	sg all
     	peale	0		D	
     	peale	0		K	
selle	see	0		P	sg g
     	sell	e		S	pl p
tunistas	####				
Karl	Karl	0		H	sg n
Türk	####				
see	see	0		P	sg n
kaebus	kaebus	0		S	sg n
õigeks	õige	ks		A	sg tr
ja	ja	0		J	
lubas	luba	s		V	s
10	10	0		N	?
rubl	####				
astas	####				
lapse	laps	0		S	sg g
kasvatamise	kasvatamine	0		S	sg g
raha	raha	0		S	sg g
    	raha	0		S	sg n
    	raha	0		S	sg p
Leena	Lee	na		H	sg es
     	Leena	0		H	sg g
     	Leena	0		H	sg n
voolali	####				
maksta	maks	ta		V	da
      	maks	ta		V	ta
ja	ja	0		J	
ütles	ütle	s		V	s
et	et	0		J	
tema	tema	0		P	sg g
    	tema	0		P	sg n
240	240	0		N	?
kop	kop	0		Y	?
jubba	####				
ära	ära	0		D	
   	ära	0		V	neg o
on	ole	0		V	b
  	ole	0		V	vad
maksnud	maks	nud		V	nud
       	maks=nu	d		S	pl n
       	maks=nud	0		A	
       	maks=nud	0		A	sg n
       	maks=nud	d		A	pl n
ja	ja	0		J	
maksis	maks	is		V	s
      	maksi	s		S	sg in
kohtu	kohtu	0		V	o
     	kohus	0		S	sg g
eest	eest	0		D	
    	eest	0		K	
    	esi	st		S	sg el
3	3	0		N	?
rubl	####				
ja	ja	0		J	
lubas	luba	s		V	s
see	see	0		P	sg n
460	460	0		N	?
kop	kop	0		Y	?
mis	mis	0		P	pl n
   	mis	0		P	sg n
veel	veel	0		D	
    	vesi	l		S	sg ad
manu	manu	0		D	
    	manu	0		K	
maksta	maks	ta		V	da
      	maks	ta		V	ta
tuleb	tule	b		V	b
kevade	kevad	0		S	sg g
      	kevade	0		S	sg g
      	kevade	0		S	sg n
ära	ära	0		D	
   	ära	0		V	neg o
maksta	maks	ta		V	da
      	maks	ta		V	ta
.	.			Z	
Edespidi	####				
lubas	luba	s		V	s
Karl	Karl	0		H	sg n
Türk	####				
ega	ega	0		D	
   	ega	0		J	
sügise	sügis	0		S	sg g
10	10	0		N	?
rubl	####				
ette	ette	0		D	
    	ette	0		K	
    	esi	tte		S	adt
ära	ära	0		D	
   	ära	0		V	neg o
maksta	maks	ta		V	da
      	maks	ta		V	ta
.	.			Z	
Leena	Lee	na		H	sg es
     	Leena	0		H	sg g
     	Leena	0		H	sg n
voola	voola	0		V	o
võttis	võt	is		V	s
see	see	0		P	sg n
3	3	0		N	?
rubl	####				
vasta	vasta	0		V	o
ja	ja	0		J	
lubas	luba	s		V	s
sellega	see	ga		P	sg kom
nii	nii	0		D	
kui	kui	0		D	
   	kui	0		J	
Karl	Karl	0		H	sg n
Türk	####				
maksta	maks	ta		V	da
      	maks	ta		V	ta
lubas	luba	s		V	s
,	,			Z	
rahul	rahu	l		S	sg ad
     	rahul	0		D	
olla	ole	a		V	da
.	.			Z	
Mõistetud	mõist	tud		V	tud
         	mõiste=tu	d		S	pl n
         	mõiste=tud	0		A	
         	mõiste=tud	0		A	sg n
         	mõiste=tud	d		A	pl n
:	:			Z	
et	et	0		J	
Karl	Karl	0		H	sg n
Türk	####				
oma	oma	0		A	sg g
   	oma	0		D	
   	oma	0		P	sg g
   	oma	0		S	sg g
   	oma	0		V	o
   	oma	0		A	sg n
   	oma	0		A	sg p
   	oma	0		P	sg n
   	oma	0		P	sg p
   	oma	0		S	sg n
   	oma	0		S	sg p
lubamise	lubamine	0		S	sg g
perra	####				
see	see	0		P	sg n
460	460	0		N	?
kop	kop	0		Y	?
sel	see	l		P	sg ad
   	sel	0		Y	?
kevadel	kevad	l		S	sg ad
       	kevade	l		S	sg ad
ja	ja	0		J	
siis	siis	0		D	
    	siis	0		J	
edespidi	####				
ega	ega	0		D	
   	ega	0		J	
sügise	sügis	0		S	sg g
10	10	0		N	?
rubl	####				
Leena	Lee	na		H	sg es
     	Leena	0		H	sg g
     	Leena	0		H	sg n
voolali	####				
lapsekasvatamise	lapse_kasvatamine	0		S	sg g
raha	raha	0		S	sg g
    	raha	0		S	sg n
    	raha	0		S	sg p
maksma	maks	ma		V	ma
peab	pida	b		V	b
seni	seni	0		D	
kui	kui	0		D	
   	kui	0		J	
see	see	0		P	sg n
laps	laps	0		S	sg n
10	10	0		N	?
astad	####				
vanaks	vana	ks		A	sg tr
      	vana	ks		S	sg tr
on	ole	0		V	b
  	ole	0		V	vad
saanud	saa	nud		V	nud
      	saa=nud	0		A	
      	saa=nud	0		A	sg n
      	saa=nud	d		A	pl n
      	saanu	d		S	pl n
.	.			Z	
see	see	0		P	sg n
mõistus	mõistus	0		S	sg n
sai	saa	i		V	s
   	sai	0		S	sg n
kuulutatud	kuuluta	tud		V	tud
          	kuuluta=tu	d		S	pl n
          	kuuluta=tud	0		A	
          	kuuluta=tud	0		A	sg n
          	kuuluta=tud	d		A	pl n
ja	ja	0		J	
olid	ole	id		V	sid
sellega	see	ga		P	sg kom
rahu	rahu	0		S	sg g
    	rahu	0		S	sg n
    	rahu	0		S	sg p
.	.			Z	
peakohtumees	pea_kohtu_mees	0		S	sg n
:	:			Z	
Mihkli	Mihkel	0		H	sg g
      	Mihkli	0		H	sg g
      	mihkel	0		A	sg g
      	mihkel	0		S	sg g
      	Mihkli	0		H	sg n
Ivan	Ivan	0		H	sg n
/	/			Z	
allkiri	all_kiri	0		S	sg n
/	/			Z	
kohtumees	kohtu_mees	0		S	sg n
:	:			Z	
Jüri	Jüri	0		H	sg g
    	Jüri	0		H	sg n
kärn	kärn	0		S	sg n
XXX	XXX	0		O	?
   	XXX	0		Y	?
""""	""""			Z	
Johan	Johan	0		H	sg n
opman	opman	0		S	sg n
XXX	XXX	0		O	?
   	XXX	0		Y	?
""""	""""			Z	
Jaan	Jaan	0		H	sg n
    	jaan	0		S	sg n
    	jaan	0		Y	?
Hansen	Hansen	0		H	sg n
/	/			Z	
allkiri	all_kiri	0		S	sg n
/	/			Z	
Olles	ole	es		V	des
14	14	0		N	?
rubl	####				
60	60	0		N	?
kop	kop	0		Y	?
kätte	kätte	0		K	
     	käsi	tte		S	adt
saanud	saa	nud		V	nud
      	saa=nud	0		A	
      	saa=nud	0		A	sg n
      	saa=nud	d		A	pl n
      	saanu	d		S	pl n
sel	see	l		P	sg ad
   	sel	0		Y	?
27	27	0		N	?
Oktober	####				
1886	1886	0		N	?
Leena	Lee	na		H	sg es
     	Leena	0		H	sg g
     	Leena	0		H	sg n
voola	voola	0		V	o
/	/			Z	
allkiri	all_kiri	0		S	sg n
/	/			Z	
