sel	see	l		P	sg ad
   	sel	0		Y	?
27nel	####				
jusi	####				
1878.	1878.	0		O	?
Pakohtumees	####				
Jakob	Jakob	0		H	sg n
Kulberg	####				
kohtumees	kohtu_mees	0		S	sg n
Johan	Johan	0		H	sg n
Kihtud	####				
-	-			Z	
""""	""""			Z	
-	-			Z	
Jaan	Jaan	0		H	sg n
    	jaan	0		S	sg n
    	jaan	0		Y	?
palubbas	####				
Veskemõisa	####				
valla	vald	0		S	sg g
     	valla	0		D	
vanem	vanem	0		C	sg n
     	vanem	0		S	sg n
Ott	Ott	0		H	sg n
   	ott	0		S	sg n
Iljak	####				
kaebab	kaeba	b		V	b
et	et	0		J	
Krüüdnerist	####				
tagga	####				
talu	talu	0		S	sg g
    	talu	0		V	o
    	talu	0		S	sg n
    	talu	0		S	sg p
peremees	pere_mees	0		S	sg n
Rants	####				
Nahtppar	####				
,	,			Z	
ja	ja	0		J	
Saare	Saare	0		H	sg g
     	saar	0		S	sg g
     	Saare	0		H	sg n
talu	talu	0		S	sg g
    	talu	0		V	o
    	talu	0		S	sg n
    	talu	0		S	sg p
peremehe	pere_mees	0		S	sg g
poeg	poeg	0		S	sg n
Jüri	Jüri	0		H	sg g
    	Jüri	0		H	sg n
varrul	####				
-	-			Z	
on	ole	0		V	b
  	ole	0		V	vad
tema	tema	0		P	sg g
    	tema	0		P	sg n
heinamaa	heina_maa	0		S	sg g
        	heina_maa	0		S	sg n
hommi	####				
hobustega	hobune	tega		S	pl kom
ära	ära	0		D	
   	ära	0		V	neg o
sõtnud	####				
seda	see	da		P	sg p
on	ole	0		V	b
  	ole	0		V	vad
näinud	näi	nud		V	nud
      	näge	nud		V	nud
      	näi=nud	0		A	
      	näi=nud	0		A	sg n
      	näi=nud	d		A	pl n
      	näinu	d		S	pl n
Veskemõisa	####				
vallast	vald	st		S	sg el
Ann	Ann	0		H	sg n
Matsin	mat	sin		V	sin
,	,			Z	
ja	ja	0		J	
Kusta	Kusta	0		H	sg g
     	Kusta	0		H	sg n
     	kuse	ta		V	da
     	kuse	ta		V	ta
Tiislar	####				
et	et	0		J	
nende	see	de		P	pl g
     	tema	de		P	pl g
hobuse	hobune	0		S	sg g
niitun	####				
on	ole	0		V	b
  	ole	0		V	vad
olnud	ol=nud	0		A	
     	ol=nud	0		A	sg n
     	ol=nud	d		A	pl n
     	ole	nud		V	nud
     	olnu	d		S	pl n
ja	ja	0		J	
kohtumees	kohtu_mees	0		S	sg n
Johan	Johan	0		H	sg n
Andruvits	####				
on	ole	0		V	b
  	ole	0		V	vad
see	see	0		P	sg n
kahju	kahi	0		S	adt
     	kahi	0		S	sg g
     	kahi	0		S	sg p
     	kahju	0		S	sg g
     	kahju	0		S	sg n
     	kahju	0		S	sg p
üle	üle	0		D	
   	üle	0		K	
kaenud	kae	nud		V	nud
      	kae=nu	d		S	pl n
      	kae=nud	0		A	
      	kae=nud	0		A	sg n
      	kae=nud	d		A	pl n
,	,			Z	
ja	ja	0		J	
ma	mina	0		P	sg n
nõuan	nõud	n		V	n
,	,			Z	
selle	see	0		P	sg g
     	sell	e		S	pl p
kahju	kahi	0		S	adt
     	kahi	0		S	sg g
     	kahi	0		S	sg p
     	kahju	0		S	sg g
     	kahju	0		S	sg n
     	kahju	0		S	sg p
tasumist	tasumine	t		S	sg p
4.	4.	0		O	?
rbl	rbl	0		Y	?
.	.			Z	
Krüüdnerist	####				
Rants	####				
Nahtppar	####				
ütles	ütle	s		V	s
et	et	0		J	
meie	mina	0		P	pl g
    	mina	0		P	pl n
hobuse	hobune	0		S	sg g
olid	ole	id		V	sid
raendiko	####				
peal	pea	l		S	sg ad
    	peal	0		D	
    	peal	0		K	
,	,			Z	
ja	ja	0		J	
pärast	pära	st		S	sg el
      	pärane	t		A	sg p
      	pärast	0		D	
      	pärast	0		K	
on	ole	0		V	b
  	ole	0		V	vad
pois	poi	s		S	sg in
Jüri	Jüri	0		H	sg g
    	Jüri	0		H	sg n
Siimus	Siim	s		H	sg in
neid	neid	0		S	sg n
    	see	d		P	pl p
    	tema	d		P	pl p
vankri	vanker	0		S	sg g
külgi	külg	i		S	pl p
pannud	pan=nu	d		S	pl n
      	pan=nud	0		A	
      	pan=nud	0		A	sg n
      	pan=nud	d		A	pl n
      	pane	nud		V	nud
,	,			Z	
ja	ja	0		J	
ütleb	ütle	b		V	b
,	,			Z	
et	et	0		J	
tema	tema	0		P	sg g
    	tema	0		P	sg n
sest	see	st		P	sg el
    	sest	0		J	
heinamaa	heina_maa	0		S	sg g
        	heina_maa	0		S	sg n
söötmiseks	söötmine	ks		S	sg tr
midagi	miski	dagi		P	sg p
tea	tead	0		V	o
,	,			Z	
ja	ja	0		J	
ütles	ütle	s		V	s
,	,			Z	
et	et	0		J	
tema	tema	0		P	sg g
    	tema	0		P	sg n
hoolen	####				
see	see	0		P	sg n
töö	töö	0		S	sg g
   	töö	0		S	sg n
rahvas	rahvas	0		S	sg n
      	rahvas	s		S	sg in
,	,			Z	
ja	ja	0		J	
kõik	kõik	0		P	pl n
    	kõik	0		S	sg n
    	kõik	0		P	sg n
see	see	0		P	sg n
talitsus	tali=tsus	0		S	sg n
on	ole	0		V	b
  	ole	0		V	vad
olnud	ol=nud	0		A	
     	ol=nud	0		A	sg n
     	ol=nud	d		A	pl n
     	ole	nud		V	nud
     	olnu	d		S	pl n
,	,			Z	
selle	see	0		P	sg g
     	sell	e		S	pl p
et	et	0		J	
tõine	####				
peremees	pere_mees	0		S	sg n
Jüri	Jüri	0		H	sg g
    	Jüri	0		H	sg n
varrul	####				
ühes	üks	s		N	sg in
    	üks	s		P	sg in
    	ühes	0		D	
    	ühes	0		K	
ei	ei	0		D	
  	ei	0		V	neg
ole	ole	0		V	o
,	,			Z	
ütles	ütle	s		V	s
et	et	0		J	
nende	see	de		P	pl g
     	tema	de		P	pl g
hobused	hobune	d		S	pl n
ei	ei	0		D	
  	ei	0		V	neg
ole	ole	0		V	o
mitte	mitte	0		D	
Ott	Ott	0		H	sg n
   	ott	0		S	sg n
Ilaku	####				
heinamaa	heina_maa	0		S	sg g
        	heina_maa	0		S	sg n
peale	pea	le		S	sg all
     	peale	0		D	
     	peale	0		K	
saanud	saa	nud		V	nud
      	saa=nud	0		A	
      	saa=nud	0		A	sg n
      	saa=nud	d		A	pl n
      	saanu	d		S	pl n
.	.			Z	
1.	1.	0		O	?
tunistajat	####				
,	,			Z	
Veskemõisa	####				
vallast	vald	st		S	sg el
:	:			Z	
Ann	Ann	0		H	sg n
,	,			Z	
Matsin	mat	sin		V	sin
,	,			Z	
ütleb	ütle	b		V	b
,	,			Z	
et	et	0		J	
tema	tema	0		P	sg g
    	tema	0		P	sg n
seda	see	da		P	sg p
on	ole	0		V	b
  	ole	0		V	vad
näinud	näi	nud		V	nud
      	näge	nud		V	nud
      	näi=nud	0		A	
      	näi=nud	0		A	sg n
      	näi=nud	d		A	pl n
      	näinu	d		S	pl n
,	,			Z	
et	et	0		J	
need	see	d		P	pl n
hobused	hobune	d		S	pl n
Ott	Ott	0		H	sg n
   	ott	0		S	sg n
Ilaku	####				
heinamaa	heina_maa	0		S	sg g
        	heina_maa	0		S	sg n
peal	pea	l		S	sg ad
    	peal	0		D	
    	peal	0		K	
on	ole	0		V	b
  	ole	0		V	vad
söönud	söö	nud		V	nud
      	söönu	d		S	pl n
      	söönud	0		A	
      	söönud	0		A	sg n
      	söönud	d		A	pl n
,	,			Z	
õige	õige	0		A	sg g
    	õige	0		A	sg n
    	õige	0		D	
palju	palju	0		D	
     	palju	0		P	sg g
     	palju	0		P	sg n
haga	####				
.	.			Z	
2.	2.	0		O	?
tunistaja	####				
,	,			Z	
Kusta	Kusta	0		H	sg g
     	Kusta	0		H	sg n
     	kuse	ta		V	da
     	kuse	ta		V	ta
Tiislar	####				
,	,			Z	
ütles	ütle	s		V	s
ka	ka	0		D	
seda	see	da		P	sg p
näinud	näi	nud		V	nud
      	näge	nud		V	nud
      	näi=nud	0		A	
      	näi=nud	0		A	sg n
      	näi=nud	d		A	pl n
      	näinu	d		S	pl n
olevat	ole	vat		V	vat
      	olev	t		A	sg p
      	olev	t		S	sg p
,	,			Z	
et	et	0		J	
need	see	d		P	pl n
hobused	hobune	d		S	pl n
,	,			Z	
see	see	0		P	sg n
heinamaa	heina_maa	0		S	sg g
        	heina_maa	0		S	sg n
on	ole	0		V	b
  	ole	0		V	vad
ära	ära	0		D	
   	ära	0		V	neg o
söönud	söö	nud		V	nud
      	söönu	d		S	pl n
      	söönud	0		A	
      	söönud	0		A	sg n
      	söönud	d		A	pl n
.	.			Z	
3.	3.	0		O	?
tunnistaja	tunnistaja	0		S	sg g
          	tunnistaja	0		S	sg n
,	,			Z	
kohtumees	kohtu_mees	0		S	sg n
Joh	####				
Andruvits	####				
,	,			Z	
ütles	ütle	s		V	s
,	,			Z	
see	see	0		P	sg n
heina	hein	0		S	adt
     	hein	0		S	sg g
     	hein	0		S	sg p
ma	mina	0		P	sg n
küll	küll	0		D	
    	küll	0		S	sg n
halvasta	####				
läbi	läbi	0		D	
    	läbi	0		K	
    	läbi	0		V	o
söödud	söö	dud		V	tud
      	söödu	d		S	pl n
      	söödud	0		A	
      	söödud	0		A	sg n
      	söödud	d		A	pl n
      	sööt	d		S	pl n
,	,			Z	
ja	ja	0		J	
sõkkuta	####				
olevat	ole	vat		V	vat
      	olev	t		A	sg p
      	olev	t		S	sg p
.	.			Z	
kohus	kohu	s		V	s
     	kohus	0		S	sg n
mõistis	mõist	is		V	s
,	,			Z	
et	et	0		J	
Rants	####				
Nahtppar	####				
,	,			Z	
on	ole	0		V	b
  	ole	0		V	vad
seal	seal	0		D	
    	siga	l		A	sg ad
    	siga	l		S	sg ad
,	,			Z	
üle	üle	0		D	
   	üle	0		K	
selle	see	0		P	sg g
     	sell	e		S	pl p
to	####				
peremees	pere_mees	0		S	sg n
ütelnud	ütle	nud		V	nud
       	ütel=nu	d		S	pl n
       	ütel=nud	0		A	
       	ütel=nud	0		A	sg n
       	ütel=nud	d		A	pl n
enda	ise	0		P	sg g
olevat	ole	vat		V	vat
      	olev	t		A	sg p
      	olev	t		S	sg p
,	,			Z	
siis	siis	0		D	
    	siis	0		J	
peab	pida	b		V	b
ka	ka	0		D	
tema	tema	0		P	sg g
    	tema	0		P	sg n
,	,			Z	
Rants	####				
Nahtppar	####				
selle	see	0		P	sg g
     	sell	e		S	pl p
heinamaa	heina_maa	0		S	sg g
        	heina_maa	0		S	sg n
söötmise	söötmine	0		S	sg g
kahju	kahi	0		S	adt
     	kahi	0		S	sg g
     	kahi	0		S	sg p
     	kahju	0		S	sg g
     	kahju	0		S	sg n
     	kahju	0		S	sg p
,	,			Z	
3	3	0		N	?
rbl	rbl	0		Y	?
.	.			Z	
Ott	Ott	0		H	sg n
   	ott	0		S	sg n
Iljakule	####				
ära	ära	0		D	
   	ära	0		V	neg o
maksma	maks	ma		V	ma
.	.			Z	
Rants	####				
Nahtppar	####				
ei	ei	0		D	
  	ei	0		V	neg
ole	ole	0		V	o
sellega	see	ga		P	sg kom
rahus	rahu	s		S	sg in
,	,			Z	
Ott	Ott	0		H	sg n
   	ott	0		S	sg n
Iljak	####				
ei	ei	0		D	
  	ei	0		V	neg
ole	ole	0		V	o
ka	ka	0		D	
sellega	see	ga		P	sg kom
rahul	rahu	l		S	sg ad
     	rahul	0		D	
ja	ja	0		J	
palusid	palu	sid		S	pl p
       	palu	sid		V	sid
protokoll	protokoll	0		S	sg n
välja	välja	0		D	
     	välja	0		V	o
     	väli	0		S	adt
     	väli	0		S	sg g
     	väli	0		S	sg p
.	.			Z	
8.	8.	0		O	?
päevani	päev	ni		S	sg ter
kaebuse	kaebus	0		S	sg g
tärminil	tärmin	l		S	sg ad
sai	saa	i		V	s
   	sai	0		S	sg n
nõndale	####				
ka	ka	0		D	
nim	nim	0		Y	?
(	(			Z	
m	m	0		Y	?
)	)			Z	
etud	####				
.	.			Z	
