Metsaülevaataja	metsa_üle_vaataja	0		S	sg g
               	metsa_üle_vaataja	0		S	sg n
Grosi	####				
kaebuse	kaebus	0		S	sg g
asjus	asi	us		S	pl in
,	,			Z	
vasta	vasta	0		V	o
koolivanemad	kooli_vanem	d		C	pl n
            	kooli_vanem	d		S	pl n
Vidrik	####				
Nopeli	####				
enam-puu	enam-puu	0		S	sg g
        	enam-puu	0		S	sg n
vastavõtmise	####				
pärast	pära	st		S	sg el
      	pärane	t		A	sg p
      	pärast	0		D	
      	pärast	0		K	
Haapsipea	####				
kooli-maja	kooli-maja	0		S	sg g
          	kooli-maja	0		S	sg n
          	kooli-maja	0		S	sg p
juures	juur	s		S	sg in
      	juures	0		D	
      	juures	0		K	
,	,			Z	
ütles	ütle	s		V	s
talusulane	talu_sulane	0		S	sg n
Josep	####				
Mesipuu	mesi_puu	0		S	sg g
       	mesi_puu	0		S	sg n
,	,			Z	
et	et	0		J	
mitte	mitte	0		D	
tema	tema	0		P	sg g
    	tema	0		P	sg n
,	,			Z	
vait	vait	0		D	
    	vait	0		I	
tema	tema	0		P	sg g
    	tema	0		P	sg n
peremehe	pere_mees	0		S	sg g
elias	####				
Jõgi	jõgi	0		S	sg n
poeg	poeg	0		S	sg n
olla	ole	a		V	da
kooli-	kool	i		S	pl p
      	kool	0		S	adt
      	kool	0		S	sg g
      	kool	0		S	sg p
puud	puu	d		S	pl n
    	puud	0		S	sg n
    	puu	d		S	sg p
viinud	vii	nud		V	nud
      	vii=nu	d		S	pl n
      	vii=nud	0		A	
      	vii=nud	0		A	sg n
      	vii=nud	d		A	pl n
.	.			Z	
-	-			Z	
Talusulane	talu_sulane	0		S	sg n
Jakob	Jakob	0		H	sg n
Roots	roots	0		S	sg n
ütles	ütle	s		V	s
:	:			Z	
et	et	0		J	
Gustav	Gustav	0		H	sg n
Kusiku	kusik	0		S	sg g
sulane	sulane	0		S	sg n
      	sulane	0		V	o
Aaron	####				
Vilip	####				
,	,			Z	
kes	kes	0		P	pl n
   	kes	0		P	sg n
praegu	praegu	0		D	
Villandimaal	####				
on	ole	0		V	b
  	ole	0		V	vad
,	,			Z	
olla	ole	a		V	da
ka	ka	0		D	
puud	puu	d		S	pl n
    	puud	0		S	sg n
    	puu	d		S	sg p
koolimaja	kooli_maja	0		S	sg g
         	kooli_maja	0		S	sg n
         	kooli_maja	0		S	sg p
juure	juur	0		S	sg g
viinud	vii	nud		V	nud
      	vii=nu	d		S	pl n
      	vii=nud	0		A	
      	vii=nud	0		A	sg n
      	vii=nud	d		A	pl n
.	.			Z	
-	-			Z	
Otsus	otsus	0		S	sg n
:	:			Z	
Aasi	aasi	0		V	o
jääb	jää	b		V	b
sügiseni	sügis	ni		S	sg ter
,	,			Z	
kui	kui	0		D	
   	kui	0		J	
Aaron	####				
Vilip	####				
kodu	kodu	0		S	sg g
    	kodu	0		S	sg n
    	kodu	0		S	sg p
tuleb	tule	b		V	b
.	.			Z	
-	-			Z	
A	A	0		Y	?
.	.			Z	
_	_			Z	
Saul	Saul	0		H	sg n
M	M	0		O	?
 	M	0		Y	?
.	.			Z	
kook	kook	0		S	sg n
K. Tõruvere	####				
