Poolele	pool	le		N	sg all
       	pool	le		S	sg all
jäänud	jää	nud		V	nud
      	jäänu	d		S	pl n
      	jäänud	0		A	
      	jäänud	0		A	sg n
      	jäänud	d		A	pl n
Josep	####				
Kusik	kusik	0		S	sg n
kaebduses	####				
kokkoralt	kokk_ora	lt		S	sg abl
,	,			Z	
tuli	tuli	0		S	sg n
    	tule	i		V	s
ette	ette	0		D	
    	ette	0		K	
    	esi	tte		S	adt
Josep	####				
Tehvan	####				
Kaarli	Kaarel	0		H	sg g
      	Kaarli	0		H	sg g
      	Kaarli	0		H	sg n
poeg	poeg	0		S	sg n
,	,			Z	
ja	ja	0		J	
tunnistab	tunnista	b		V	b
,	,			Z	
et	et	0		J	
Josep	####				
Kusik	kusik	0		S	sg n
mänginud	mängi	nud		V	nud
        	mängi=nu	d		S	pl n
        	mängi=nud	0		A	
        	mängi=nud	0		A	sg n
        	mängi=nud	d		A	pl n
harmoonikad	harmoonika	d		S	pl n
ja	ja	0		J	
Jaan	Jaan	0		H	sg n
    	jaan	0		S	sg n
    	jaan	0		Y	?
Peetso	####				
aanud	####				
teda	tema	da		P	sg p
välja	välja	0		D	
     	välja	0		V	o
     	väli	0		S	adt
     	väli	0		S	sg g
     	väli	0		S	sg p
.	.			Z	
se	####				
lähud	####				
ka	ka	0		D	
kohe	kohe	0		A	sg n
    	kohe	0		D	
,	,			Z	
aga	aga	0		J	
lõõmist	####				
pole	ole	0		V	neg o
tema	tema	0		P	sg g
    	tema	0		P	sg n
nähud	näht	d		S	pl n
/	/			Z	
:	:			Z	
jääb	jää	b		V	b
poolelel	####				
J. Pringveld	####				
[	[			Z	
allkiri	all_kiri	0		S	sg n
]	]			Z	
,	,			Z	
pea	pea	0		D	
   	pea	0		S	sg g
   	pida	0		V	o
   	pea	0		S	sg n
J	J	0		Y	?
.	.			Z	
kokka	kokk	0		S	adt
     	kokka	0		V	o
     	kokk	0		S	sg p
[	[			Z	
allkiri	all_kiri	0		S	sg n
]	]			Z	
kohtumees	kohtu_mees	0		S	sg n
Karel	####				
Kadak	####				
[	[			Z	
allkiri	all_kiri	0		S	sg n
]	]			Z	
-	-			Z	
""""	""""			Z	
-	-			Z	
Toomas	Toomas	0		H	sg n
      	Toomas	s		H	sg in
      	too	mas		V	mas
kook	kook	0		S	sg n
[	[			Z	
allkiri	all_kiri	0		S	sg n
]	]			Z	
-	-			Z	
""""	""""			Z	
-	-			Z	
