sel	see	l		P	sg ad
   	sel	0		Y	?
19	19	0		N	?
Mail	Mai	l		H	sg ad
    	maa	il		S	pl ad
    	mai	l		S	sg ad
    	mail	0		S	sg n
1886	1886	0		N	?
selle	see	0		P	sg g
     	sell	e		S	pl p
otsuse	otsus	0		S	sg g
peale	pea	le		S	sg all
     	peale	0		D	
     	peale	0		K	
sest	see	st		P	sg el
    	sest	0		J	
28	28	0		N	?
Aprilist	####				
s	s	0		Y	?
.	.			Z	
a	a	0		Y	?
mõisa	mõis	0		S	sg g
valitsuse	valitsus	0		S	sg g
kaebuse	kaebus	0		S	sg g
asja	asi	0		S	adt
    	asi	0		S	sg g
    	asi	0		S	sg p
vastu	vastu	0		D	
     	vastu	0		K	
Tikko	####				
talu	talu	0		S	sg g
    	talu	0		V	o
    	talu	0		S	sg n
    	talu	0		S	sg p
rentnik	rentnik	0		S	sg n
Johan	Johan	0		H	sg n
Udel	####				
andis	and	is		V	s
mõisavalitsus	mõisa_valitsus	0		S	sg n
üles	üles	0		D	
,	,			Z	
et	et	0		J	
rentnik	rentnik	0		S	sg n
Johan	Johan	0		H	sg n
Udel	####				
see	see	0		P	sg n
rendi	rent	0		S	sg g
     	renti	0		V	o
võlg	võlg	0		S	sg n
seni	seni	0		D	
ajani	aeg	ni		S	sg ter
maksnud	maks	nud		V	nud
       	maks=nu	d		S	pl n
       	maks=nud	0		A	
       	maks=nud	0		A	sg n
       	maks=nud	d		A	pl n
ei	ei	0		D	
  	ei	0		V	neg
ole	ole	0		V	o
sellepärast	selle_pärast	0		D	
palus	palu	s		S	sg in
     	palu	s		V	s
mõisavalitsus	mõisa_valitsus	0		S	sg n
seda	see	da		P	sg p
rendi	rent	0		S	sg g
     	renti	0		V	o
võlga	võlg	0		S	adt
     	võlg	0		S	sg p
sisse	siss	e		S	pl p
     	sisse	0		D	
     	sisse	0		K	
nõuda	nõud	a		V	da
ja	ja	0		J	
Johan	Johan	0		H	sg n
Udel	####				
kontraht	kontraht	0		S	sg n
punkt	punkt	0		S	sg n
3	3	0		N	?
perra	####				
sest	see	st		P	sg el
    	sest	0		J	
kohast	koht	st		S	sg el
      	koha	st		S	sg el
      	kohane	t		A	sg p
Jüripäeval	jüri_päev	l		S	sg ad
1887	1887	0		N	?
välja	välja	0		D	
     	välja	0		V	o
     	väli	0		S	adt
     	väli	0		S	sg g
     	väli	0		S	sg p
mõista	mõist	0		V	o
      	mõist	a		V	da
.	.			Z	
see	see	0		P	sg n
rendikontrahti	rendi_kontraht	0		S	adt
              	rendi_kontraht	0		S	sg p
punkt	punkt	0		S	sg n
3	3	0		N	?
sai	saa	i		V	s
   	sai	0		S	sg n
ette	ette	0		D	
    	ette	0		K	
    	esi	tte		S	adt
loetu	loetu	0		S	sg g
     	loetud	0		A	sg g
     	loetu	0		S	sg n
ja	ja	0		J	
selle	see	0		P	sg g
     	sell	e		S	pl p
peale	pea	le		S	sg all
     	peale	0		D	
     	peale	0		K	
Mõistetud	mõist	tud		V	tud
         	mõiste=tu	d		S	pl n
         	mõiste=tud	0		A	
         	mõiste=tud	0		A	sg n
         	mõiste=tud	d		A	pl n
:	:			Z	
et	et	0		J	
Tikko	####				
talu	talu	0		S	sg g
    	talu	0		V	o
    	talu	0		S	sg n
    	talu	0		S	sg p
rentnik	rentnik	0		S	sg n
Johan	Johan	0		H	sg n
Udel	####				
see	see	0		P	sg n
talu	talu	0		S	sg g
    	talu	0		V	o
    	talu	0		S	sg n
    	talu	0		S	sg p
koht	koht	0		S	sg n
23	23	0		N	?
Aprilil	####				
1887	1887	0		N	?
mõisavalitsusele	mõisa_valitsus	le		S	sg all
ära	ära	0		D	
   	ära	0		V	neg o
andma	and	ma		V	ma
ja	ja	0		J	
ise	ise	0		A	
   	ise	0		D	
   	ise	0		P	pl n
   	ise	0		P	sg n
sealt	sealt	0		D	
     	siga	lt		A	sg abl
     	siga	lt		S	sg abl
välja	välja	0		D	
     	välja	0		V	o
     	väli	0		S	adt
     	väli	0		S	sg g
     	väli	0		S	sg p
peab	pida	b		V	b
minemad	####				
,	,			Z	
selle	see	0		P	sg g
     	sell	e		S	pl p
et	et	0		J	
tema	tema	0		P	sg g
    	tema	0		P	sg n
kontrahi	kontraht	0		S	sg g
punkt	punkt	0		S	sg n
3	3	0		N	?
perra	####				
rendi	rent	0		S	sg g
     	renti	0		V	o
termini	term	ni		S	sg ter
       	termin	0		S	sg g
ei	ei	0		D	
  	ei	0		V	neg
ole	ole	0		V	o
pidanud	pida	nud		V	nud
       	pida=nu	d		S	pl n
       	pida=nud	0		A	
       	pida=nud	0		A	sg n
       	pida=nud	d		A	pl n
ja	ja	0		J	
et	et	0		J	
see	see	0		P	sg n
võlg	võlg	0		S	sg n
rent	rent	0		S	sg n
60	60	0		N	?
rub	####				
27½_	####				
kop	kop	0		Y	?
tema	tema	0		P	sg g
    	tema	0		P	sg n
käest	käest	0		K	
     	käsi	st		S	sg el
sisse	siss	e		S	pl p
     	sisse	0		D	
     	sisse	0		K	
on	ole	0		V	b
  	ole	0		V	vad
risuda	####				
.	.			Z	
see	see	0		P	sg n
mõistus	mõistus	0		S	sg n
sai	saa	i		V	s
   	sai	0		S	sg n
mõisavalitsusele	mõisa_valitsus	le		S	sg all
kuulutatud	kuuluta	tud		V	tud
          	kuuluta=tu	d		S	pl n
          	kuuluta=tud	0		A	
          	kuuluta=tud	0		A	sg n
          	kuuluta=tud	d		A	pl n
,	,			Z	
sel	see	l		P	sg ad
   	sel	0		Y	?
7	7	0		N	?
juulil	juuli	l		S	sg ad
1886	1886	0		N	?
sai	saa	i		V	s
   	sai	0		S	sg n
see	see	0		P	sg n
mõistus	mõistus	0		S	sg n
Johan	Johan	0		H	sg n
Udelile	####				
kuulutatud	kuuluta	tud		V	tud
          	kuuluta=tu	d		S	pl n
          	kuuluta=tud	0		A	
          	kuuluta=tud	0		A	sg n
          	kuuluta=tud	d		A	pl n
ja	ja	0		J	
õpetud	####				
leht	leht	0		S	sg n
välja	välja	0		D	
     	välja	0		V	o
     	väli	0		S	adt
     	väli	0		S	sg g
     	väli	0		S	sg p
antud	an=tu	d		S	pl n
     	and	tud		V	tud
     	antud	0		A	
     	antud	0		A	sg n
     	antud	d		A	pl n
.	.			Z	
peakohtumees	pea_kohtu_mees	0		S	sg n
:	:			Z	
Mihkli	Mihkel	0		H	sg g
      	Mihkli	0		H	sg g
      	mihkel	0		A	sg g
      	mihkel	0		S	sg g
      	Mihkli	0		H	sg n
Ivan	Ivan	0		H	sg n
/	/			Z	
allkiri	all_kiri	0		S	sg n
/	/			Z	
kohtumees	kohtu_mees	0		S	sg n
Jüri	Jüri	0		H	sg g
    	Jüri	0		H	sg n
kern	####				
XXX	XXX	0		O	?
   	XXX	0		Y	?
""""	""""			Z	
Jaan	Jaan	0		H	sg n
    	jaan	0		S	sg n
    	jaan	0		Y	?
Hansen	Hansen	0		H	sg n
/	/			Z	
allkiri	all_kiri	0		S	sg n
/	/			Z	
kirjutaja	kirjutaja	0		S	sg g
         	kirjutaja	0		S	sg n
:	:			Z	
J.Veber	####				
/	/			Z	
allkiri	all_kiri	0		S	sg n
/	/			Z	
