3.	3.	0		O	?
)	)			Z	
kolmandaks	kolmandaks	0		D	
          	kolmas	ks		O	sg tr
sai	saa	i		V	s
   	sai	0		S	sg n
nende	see	de		P	pl g
     	tema	de		P	pl g
Talu	talu	0		S	sg g
    	talu	0		V	o
    	talu	0		S	sg n
    	talu	0		S	sg p
rahva	rahvas	0		S	sg g
Sullaste	####				
hulkas	####				
kos	####				
50.	50.	0		O	?
koos	koos	0		D	
    	koos	0		K	
    	koos	0		S	sg n
    	kubu	s		S	sg in
olid	ole	id		V	sid
iga	iga	0		P	sg g
   	iga	0		P	sg n
   	iga	0		P	sg p
   	iga	0		S	sg n
   	iga	0		S	sg p
10	10	0		N	?
isike	####				
peäle	####				
üks	üks	0		N	sg n
   	üks	0		P	sg n
eest	eest	0		D	
    	eest	0		K	
    	esi	st		S	sg el
kostja	kostja	0		S	sg g
      	kostja	0		S	sg n
Valitsetud	valitse	tud		V	tud
          	valitse=tu	d		S	pl n
          	valitse=tud	0		A	
          	valitse=tud	0		A	sg n
          	valitse=tud	d		A	pl n
nimelt	nimelt	0		D	
      	nimi	lt		S	sg abl
1.	1.	0		O	?
)	)			Z	
Maddis	####				
Vadi	vadi	0		S	sg g
    	vadi	0		V	o
    	vadi	0		S	sg n
    	vadi	0		S	sg p
.	.			Z	
Valitsejad	valitseja	d		S	pl n
olid	ole	id		V	sid
Maddis	####				
Lallo2	####				
.	.			Z	
Villem	Villem	0		H	sg n
Vadi	vadi	0		S	sg g
    	vadi	0		V	o
    	vadi	0		S	sg n
    	vadi	0		S	sg p
3.	3.	0		O	?
Jüri	Jüri	0		H	sg g
    	Jüri	0		H	sg n
Kukk	kukk	0		S	sg n
4.	4.	0		O	?
Josep	####				
Kukk	kukk	0		S	sg n
5.	5.	0		O	?
Josep	####				
Soo	soo	0		I	
   	soo	0		S	sg g
   	sugu	0		S	sg g
   	soo	0		S	sg n
6.	6.	0		O	?
Jaan	Jaan	0		H	sg n
    	jaan	0		S	sg n
    	jaan	0		Y	?
Lillu	####				
7.	7.	0		O	?
Karel	####				
Lillu	####				
8.	8.	0		O	?
Kustav	kus=tav	0		A	sg n
      	kuse	tav		V	tav
Lillu	####				
9.	9.	0		O	?
Laur	Laur	0		H	sg n
Tuha	tuhk	0		S	sg g
.	.			Z	
2.	2.	0		O	?
)	)			Z	
Teiseks	teine	ks		O	sg tr
       	teine	ks		P	sg tr
       	teiseks	0		D	
Jüri	Jüri	0		H	sg g
    	Jüri	0		H	sg n
Kasik	####				
.	.			Z	
Valitsejad	valitseja	d		S	pl n
olit	####				
1.	1.	0		O	?
elias	####				
Kubjas	kubjas	0		S	sg n
2.	2.	0		O	?
Johan	Johan	0		H	sg n
Post	post	0		S	sg n
3.	3.	0		O	?
Juhan	Juhan	0		H	sg n
Vahi	vaht	0		S	sg g
    	vahti	0		V	o
4.	4.	0		O	?
Maddis	####				
Toso	####				
,	,			Z	
5.	5.	0		O	?
Josep	####				
Havaki	####				
6.	6.	0		O	?
Jaan	Jaan	0		H	sg n
    	jaan	0		S	sg n
    	jaan	0		Y	?
Oksa	oks	0		S	adt
    	oks	0		S	sg g
    	oks	0		S	sg p
7.	7.	0		O	?
Mihkel	Mihkel	0		H	sg n
      	mihkel	0		A	sg n
      	mihkel	0		S	sg n
Toso	####				
8.	8.	0		O	?
Josep	####				
Õunap	####				
9.	9.	0		O	?
Josep	####				
Rosenpärk	####				
3.	3.	0		O	?
)	)			Z	
Villem	Villem	0		H	sg n
Olla	ole	a		V	da
.	.			Z	
Valitsejat	valitseja	t		S	sg p
olit	####				
1.	1.	0		O	?
Kustav	kus=tav	0		A	sg n
      	kuse	tav		V	tav
Nukka	nukk	0		S	adt
     	nukk	0		S	sg p
2.	2.	0		O	?
Kustav	kus=tav	0		A	sg n
      	kuse	tav		V	tav
eber	####				
3.	3.	0		O	?
Jakkob	####				
Lind	lind	0		S	sg n
4.	4.	0		O	?
Karel	####				
Verbo	####				
5.	5.	0		O	?
Jakkob	####				
Lind	lind	0		S	sg n
6.	6.	0		O	?
Jakkob	####				
Ilves	ilves	0		S	sg n
7.	7.	0		O	?
Karel	####				
Ilves	ilves	0		S	sg n
8.	8.	0		O	?
Jakob	Jakob	0		H	sg n
Tagoma	####				
9.	9.	0		O	?
Juhan	Juhan	0		H	sg n
Tragoni	####				
.	.			Z	
4	4	0		N	?
)	)			Z	
Josep	####				
Rosenpärk	####				
.	.			Z	
Valitsejad	valitseja	d		S	pl n
olit	####				
1.	1.	0		O	?
Jaan	Jaan	0		H	sg n
    	jaan	0		S	sg n
    	jaan	0		Y	?
Lindmets	lind_mets	0		S	sg n
.	.			Z	
2.	2.	0		O	?
Siim	Siim	0		H	sg n
,	,			Z	
rätsep	rätsep	0		S	sg n
3.	3.	0		O	?
Mihkel	Mihkel	0		H	sg n
      	mihkel	0		A	sg n
      	mihkel	0		S	sg n
Männi	mänd	0		S	sg g
4.	4.	0		O	?
Maddis	####				
Sarvi	sarv	i		S	pl p
5.	5.	0		O	?
Kustav	kus=tav	0		A	sg n
      	kuse	tav		V	tav
Sep	####				
6.	6.	0		O	?
elias	####				
Sep	####				
,	,			Z	
7.	7.	0		O	?
Kustav	kus=tav	0		A	sg n
      	kuse	tav		V	tav
troe	####				
8.	8.	0		O	?
Jüri	Jüri	0		H	sg g
    	Jüri	0		H	sg n
troe	####				
9.	9.	0		O	?
Kustav	kus=tav	0		A	sg n
      	kuse	tav		V	tav
Hanni	####				
.	.			Z	
5	5	0		N	?
)	)			Z	
.	.			Z	
Jüri	Jüri	0		H	sg g
    	Jüri	0		H	sg n
Trala	####				
.	.			Z	
Valitsejad	valitseja	d		S	pl n
on	ole	0		V	b
  	ole	0		V	vad
,	,			Z	
1.	1.	0		O	?
Kaarel	Kaarel	0		H	sg n
      	kaar	l		S	sg ad
      	kaarel	0		S	sg n
Havaki	####				
2.	2.	0		O	?
Vitrik	####				
rätsep	rätsep	0		S	sg n
3.	3.	0		O	?
Karel	####				
rätsep	rätsep	0		S	sg n
4.	4.	0		O	?
Jüri	Jüri	0		H	sg g
    	Jüri	0		H	sg n
Niti	####				
5.	5.	0		O	?
Kustav	kus=tav	0		A	sg n
      	kuse	tav		V	tav
karma	karma	0		S	sg g
     	karma	0		S	sg n
6.	6.	0		O	?
Karel	####				
Januska	####				
7.	7.	0		O	?
Johan	Johan	0		H	sg n
Tral	####				
8.	8.	0		O	?
Jüri	Jüri	0		H	sg g
    	Jüri	0		H	sg n
Suits	suits	0		S	sg n
9.	9.	0		O	?
Tõnnis	Tõnn	s		H	sg in
Aabramsohn	####				
.	.			Z	
