Aastus	####				
kohtu	kohtu	0		V	o
     	kohus	0		S	sg g
ette	ette	0		D	
    	ette	0		K	
    	esi	tte		S	adt
Tõnise	Tõnis	0		H	sg g
lesk	lesk	0		S	sg n
Mari	Mari	0		H	sg g
    	mari	0		S	sg g
    	mari	0		S	sg n
    	Mari	0		H	sg n
    	mari	0		S	sg p
Saar	saar	0		S	sg n
oma	oma	0		A	sg g
   	oma	0		D	
   	oma	0		P	sg g
   	oma	0		S	sg g
   	oma	0		V	o
   	oma	0		A	sg n
   	oma	0		A	sg p
   	oma	0		P	sg n
   	oma	0		P	sg p
   	oma	0		S	sg n
   	oma	0		S	sg p
väimehega	väi_mees	ga		S	sg kom
roela	####				
valla	vald	0		S	sg g
     	valla	0		D	
liige	liige	0		S	sg n
Jaan	Jaan	0		H	sg n
    	jaan	0		S	sg n
    	jaan	0		Y	?
Mägi	Mägi	0		H	sg g
    	mägi	0		S	sg n
    	Mägi	0		H	sg n
ja	ja	0		J	
Liisa	Liisa	0		H	sg g
     	Liisa	0		H	sg n
eestkostja	eest_kostja	0		S	sg g
          	eest_kostja	0		S	sg n
Joosep	Joosep	0		H	sg n
Lauk	lauk	0		S	sg n
ning	ning	0		J	
eestkostja	eest_kostja	0		S	sg g
          	eest_kostja	0		S	sg n
Villem	Villem	0		H	sg n
Oksa	oks	0		S	adt
    	oks	0		S	sg g
    	oks	0		S	sg p
selle	see	0		P	sg g
     	sell	e		S	pl p
palvega	palve	ga		S	sg kom
et	et	0		J	
nendele	see	dele		P	pl all
       	tema	dele		P	pl all
saaks	saa	ks		V	ks
see	see	0		P	sg n
raha	raha	0		S	sg g
    	raha	0		S	sg n
    	raha	0		S	sg p
paber	paber	0		S	sg n
mis	mis	0		P	pl n
   	mis	0		P	sg n
Tõnnis	Tõnn	s		H	sg in
Saare	Saare	0		H	sg g
     	saar	0		S	sg g
     	Saare	0		H	sg n
pärijate	pärija	te		S	pl g
nimel	nimel	0		K	
     	nimi	l		S	sg ad
valla	vald	0		S	sg g
     	valla	0		D	
kapis	kapp	s		S	sg in
seisab	seis	b		V	b
680	680	0		N	?
rbl	rbl	0		Y	?
suur	suur	0		A	sg n
välja	välja	0		D	
     	välja	0		V	o
     	väli	0		S	adt
     	väli	0		S	sg g
     	väli	0		S	sg p
antud	an=tu	d		S	pl n
     	and	tud		V	tud
     	antud	0		A	
     	antud	0		A	sg n
     	antud	d		A	pl n
,	,			Z	
sest	see	st		P	sg el
    	sest	0		J	
et	et	0		J	
ema	ema	0		S	sg g
   	ema	0		S	sg n
   	ema	0		S	sg p
Mari	Mari	0		H	sg g
    	mari	0		S	sg g
    	mari	0		S	sg n
    	Mari	0		H	sg n
    	mari	0		S	sg p
ju	ju	0		D	
teist	sina	st		P	pl el
     	tee	ist		S	pl el
     	teist	0		D	
     	teine	t		O	sg p
     	teine	t		P	sg p
aastat	aasta	t		S	sg p
väimehe	väi_mees	0		S	sg g
juures	juur	s		S	sg in
      	juures	0		D	
      	juures	0		K	
elab	ela	b		V	b
ja	ja	0		J	
sellele	see	le		P	sg all
nüüd	nüüd	0		D	
koha	koht	0		S	sg g
    	koha	0		S	sg g
    	koha	0		V	o
    	koha	0		S	sg n
    	koha	0		S	sg p
ostmiseks	ostmine	ks		S	sg tr
raha	raha	0		S	sg g
    	raha	0		S	sg n
    	raha	0		S	sg p
vaja	vaja	0		D	
    	vaja	0		V	o
on	ole	0		V	b
  	ole	0		V	vad
.	.			Z	
Valla	vald	0		S	sg g
     	valla	0		D	
valitsus	valitsus	0		S	sg n
avaldab	avalda	b		V	b
soovi	soov	0		S	adt
     	soov	0		S	sg g
     	soovi	0		V	o
     	soov	0		S	sg p
,	,			Z	
et	et	0		J	
ema	ema	0		S	sg g
   	ema	0		S	sg n
   	ema	0		S	sg p
Mari	Mari	0		H	sg g
    	mari	0		S	sg g
    	mari	0		S	sg n
    	Mari	0		H	sg n
    	mari	0		S	sg p
Saare	Saare	0		H	sg g
     	saar	0		S	sg g
     	Saare	0		H	sg n
jagu	jagu	0		S	sg n
    	jagu	0		V	o
    	jagu	0		S	sg p
saaks	saa	ks		V	ks
vallas	vald	s		S	sg in
alal	ala	l		S	sg ad
    	alal	0		D	
hoitud	hoi=tu	d		S	pl n
      	hoi=tud	0		A	
      	hoi=tud	0		A	sg n
      	hoi=tud	d		A	pl n
      	hoid	tud		V	tud
,	,			Z	
sest	see	st		P	sg el
    	sest	0		J	
võimalik	võimalik	0		A	sg n
võib	või	b		V	b
olla	ole	a		V	da
et	et	0		J	
väimees	väi_mees	0		S	sg n
Jaan	Jaan	0		H	sg n
    	jaan	0		S	sg n
    	jaan	0		Y	?
Mägi	Mägi	0		H	sg g
    	mägi	0		S	sg n
    	Mägi	0		H	sg n
kord	kord	0		D	
    	kord	0		S	sg n
ämma	ämm	0		S	adt
    	ämm	0		S	sg g
    	ämm	0		S	sg p
valla	vald	0		S	sg g
     	valla	0		D	
toita	toit	a		V	da
jätab	jät	b		V	b
.	.			Z	
Selle	see	0		P	sg g
     	sell	e		S	pl p
vasta	vasta	0		V	o
tõutab	####				
Jaan	Jaan	0		H	sg n
    	jaan	0		S	sg n
    	jaan	0		Y	?
Mägi	Mägi	0		H	sg g
    	mägi	0		S	sg n
    	Mägi	0		H	sg n
oma	oma	0		A	sg g
   	oma	0		D	
   	oma	0		P	sg g
   	oma	0		S	sg g
   	oma	0		V	o
   	oma	0		A	sg n
   	oma	0		A	sg p
   	oma	0		P	sg n
   	oma	0		P	sg p
   	oma	0		S	sg n
   	oma	0		S	sg p
ämma	ämm	0		S	adt
    	ämm	0		S	sg g
    	ämm	0		S	sg p
Mari	Mari	0		H	sg g
    	mari	0		S	sg g
    	mari	0		S	sg n
    	Mari	0		H	sg n
    	mari	0		S	sg p
Saart	saar	t		S	sg p
elu	elu	0		S	sg g
   	elu	0		S	sg n
   	elu	0		S	sg p
otsani	ots	ni		S	sg ter
toita	toit	a		V	da
,	,			Z	
teda	tema	da		P	sg p
roela	####				
valla	vald	0		S	sg g
     	valla	0		D	
hinge	hing	0		S	adt
     	hing	0		S	sg g
     	hinge	0		S	sg g
     	hinge	0		S	sg n
     	hing	0		S	sg p
kirjase	####				
ümber	ümber	0		D	
     	ümber	0		K	
kirjutada	kirjuta	da		V	da
lasta	lask	ta		V	da
     	lask	ta		V	ta
,	,			Z	
ja	ja	0		J	
kõigiti	kõigiti	0		D	
hoolt	hoog	lt		S	sg abl
     	hool	t		S	sg p
kanda	kand	0		S	adt
     	kand	a		V	da
     	kand	0		S	sg p
,	,			Z	
et	et	0		J	
tema	tema	0		P	sg g
    	tema	0		P	sg n
ämm	ämm	0		S	sg n
mitte	mitte	0		D	
Palla	####				
valla	vald	0		S	sg g
     	valla	0		D	
toita	toit	a		V	da
ei	ei	0		D	
  	ei	0		V	neg
jäe	####				
.	.			Z	
eestkostja	eest_kostja	0		S	sg g
          	eest_kostja	0		S	sg n
Villem	Villem	0		H	sg n
Oksa	oks	0		S	adt
    	oks	0		S	sg g
    	oks	0		S	sg p
on	ole	0		V	b
  	ole	0		V	vad
sellega	see	ga		P	sg kom
rahul	rahu	l		S	sg ad
     	rahul	0		D	
ja	ja	0		J	
ema	ema	0		S	sg g
   	ema	0		S	sg n
   	ema	0		S	sg p
Mari	Mari	0		H	sg g
    	mari	0		S	sg g
    	mari	0		S	sg n
    	Mari	0		H	sg n
    	mari	0		S	sg p
Saar	saar	0		S	sg n
lubab	luba	b		V	b
ühe	üks	0		N	sg g
   	üks	0		P	sg g
   	ühe	0		S	sg n
saa	saa	0		V	o
rubla	rubla	0		S	sg g
     	rubla	0		S	sg n
     	rubla	0		S	sg p
omast	oma	st		A	sg el
     	oma	st		P	sg el
     	oma	st		S	sg el
     	omane	t		A	sg p
rahast	raha	st		S	sg el
vanema	vanem	0		C	sg g
      	vanem	0		S	sg g
tütre	tütar	0		S	sg g
Aanele	####				
päranduseks	pärandus	ks		S	sg tr
jätta	jät	a		V	da
,	,			Z	
mis	mis	0		P	pl n
   	mis	0		P	sg n
raha	raha	0		S	sg g
    	raha	0		S	sg n
    	raha	0		S	sg p
väimees	väi_mees	0		S	sg n
Jaan	Jaan	0		H	sg n
    	jaan	0		S	sg n
    	jaan	0		Y	?
Mägi	Mägi	0		H	sg g
    	mägi	0		S	sg n
    	Mägi	0		H	sg n
pärast	pära	st		S	sg el
      	pärane	t		A	sg p
      	pärast	0		D	
      	pärast	0		K	
tema	tema	0		P	sg g
    	tema	0		P	sg n
surma	surm	0		S	adt
     	surm	0		S	sg g
     	surma	0		V	o
     	surm	0		S	sg p
on	ole	0		V	b
  	ole	0		V	vad
kohustatud	kohusta	tud		V	tud
          	kohusta=tu	d		S	pl n
          	kohusta=tud	0		A	
          	kohusta=tud	0		A	sg n
          	kohusta=tud	d		A	pl n
Aanele	####				
välja	välja	0		D	
     	välja	0		V	o
     	väli	0		S	adt
     	väli	0		S	sg g
     	väli	0		S	sg p
maksma	maks	ma		V	ma
.	.			Z	
Jaan	Jaan	0		H	sg n
    	jaan	0		S	sg n
    	jaan	0		Y	?
Mägi	Mägi	0		H	sg g
    	mägi	0		S	sg n
    	Mägi	0		H	sg n
V	V	0		O	?
 	V	0		Y	?
Oksa	oks	0		S	adt
    	oks	0		S	sg g
    	oks	0		S	sg p
Mari	Mari	0		H	sg g
    	mari	0		S	sg g
    	mari	0		S	sg n
    	Mari	0		H	sg n
    	mari	0		S	sg p
Saar	saar	0		S	sg n
/	/			Z	
ei	ei	0		D	
  	ei	0		V	neg
oska	oska	0		V	o
kirja	kirja	0		A	
     	kirja	0		V	o
     	kiri	0		S	adt
     	kiri	0		S	sg g
     	kiri	0		S	sg p
:	:			Z	
/	/			Z	
Selle	see	0		P	sg g
     	sell	e		S	pl p
lepinguga	leping	ga		S	sg kom
rahul	rahu	l		S	sg ad
     	rahul	0		D	
olles	ole	es		V	des
paberit	paber	t		S	sg p
välja	välja	0		D	
     	välja	0		V	o
     	väli	0		S	adt
     	väli	0		S	sg g
     	väli	0		S	sg p
andes	and	es		V	des
     	anne	s		S	sg in
:	:			Z	
Vallavanem	valla_vanem	0		S	sg n
:	:			Z	
Vallavanema	valla_vanem	0		S	sg g
abi	abi	0		S	sg g
   	abi	0		S	sg n
   	abi	0		S	sg p
kohtumäärus	kohtu_määrus	0		S	sg n
:	:			Z	
et	et	0		J	
lepingu	leping	0		S	sg g
tegijad	tegija	d		S	pl n
inimesed	inimene	d		S	pl n
kohtule	kohus	le		S	sg all
isiklikult	isiklik	lt		A	sg abl
          	isiklikult	0		D	
tuntud	tund	tud		V	tud
      	tuntu	d		S	pl n
      	tuntud	0		A	
      	tuntud	0		A	sg n
      	tuntud	d		A	pl n
on	ole	0		V	b
  	ole	0		V	vad
,	,			Z	
Liisa	Liisa	0		H	sg g
     	Liisa	0		H	sg n
Saar	saar	0		S	sg n
ju	ju	0		D	
mehele	mees	le		S	sg all
läinud	läinu	d		S	pl n
      	läinud	0		A	
      	läinud	0		A	sg n
      	läinud	d		A	pl n
      	mine	nud		V	nud
ja	ja	0		J	
eestkostmise	eest_kostmine	0		S	sg g
alt	alt	0		S	sg n
   	alt	0		D	
   	alt	0		K	
lahti	laht	i		S	pl p
     	lahti	0		D	
,	,			Z	
siis	siis	0		D	
    	siis	0		J	
tema	tema	0		P	sg g
    	tema	0		P	sg n
kohta	koht	0		S	adt
     	kohta	0		K	
     	kohta	0		V	o
     	koht	0		S	sg p
hoiu	hoid	0		S	sg g
pidamist	pidamine	t		S	sg p
lõpetada	lõpeta	da		V	da
ja	ja	0		J	
lepingut	leping	t		S	sg p
valla	vald	0		S	sg g
     	valla	0		D	
kohtu	kohtu	0		V	o
     	kohus	0		S	sg g
Sead	sead	d		V	d
    	siga	d		A	pl n
    	siga	d		S	pl n
.	.			Z	
II	II	0		O	?
  	II	0		Y	?
  	jj	0		Y	?
jau	####				
§	§	0		Y	?
278	278	0		N	?
põhjusel	põhjus	l		S	sg ad
kinnitada	kinnita	da		V	da
.	.			Z	
kohtueesistuja	kohtu_ees_istuja	0		S	sg g
              	kohtu_ees_istuja	0		S	sg n
A .Saar	####				
kohtumõistjad	kohtu_mõistja	d		S	pl n
Josep	####				
Rosenberg	Rosenberg	0		H	sg n
Josep	####				
Hanst	####				
Kirjutaja	kirjutaja	0		S	sg g
         	kirjutaja	0		S	sg n
K	K	0		Y	?
Sep	####				
.	.			Z	
