Pala	Pala	0		H	sg g
    	pala	0		S	sg g
    	pala	0		V	o
    	Pala	0		H	sg n
    	pala	0		S	sg n
    	pala	0		S	sg p
valla	vald	0		S	sg g
     	valla	0		D	
kohus	kohu	s		V	s
     	kohus	0		S	sg n
7	7	0		N	?
aprillil	aprill	l		S	sg ad
1905.	1905.	0		O	?
esimees	esi_mees	0		S	sg n
JSoieva	####				
kohtu	kohtu	0		V	o
     	kohus	0		S	sg g
mõistjad	mõistja	d		S	pl n
A	A	0		Y	?
Saar	saar	0		S	sg n
J	J	0		Y	?
Reinhold	####				
.	.			Z	
kohtu	kohtu	0		V	o
     	kohus	0		S	sg g
ette	ette	0		D	
    	ette	0		K	
    	esi	tte		S	adt
tulid	tule	id		V	sid
Kaarel	Kaarel	0		H	sg n
      	kaar	l		S	sg ad
      	kaarel	0		S	sg n
Peetsu	####				
ja	ja	0		J	
Gustav	Gustav	0		H	sg n
Lätt	####				
ja	ja	0		J	
palusid	palu	sid		S	pl p
       	palu	sid		V	sid
eneste	ise	te		P	pl g
lepingut	leping	t		S	sg p
kinnitada	kinnita	da		V	da
järgmiselt	järgmine	lt		A	sg abl
          	järgmiselt	0		D	
:	:			Z	
rendi	rent	0		S	sg g
     	renti	0		V	o
leping	leping	0		S	sg n
,	,			Z	
mis	mis	0		P	pl n
   	mis	0		P	sg n
12	12	0		N	?
vebruaril	####				
1904	1904	0		N	?
a	a	0		Y	?
N 15	N15	0		Y	?
all	all	0		D	
   	all	0		K	
siin	siin	0		D	
    	siin	0		S	sg n
kohtus	kohtu	s		V	s
      	kohus	s		S	sg in
kinnitatud	kinnita	tud		V	tud
          	kinnita=tu	d		S	pl n
          	kinnita=tud	0		A	
          	kinnita=tud	0		A	sg n
          	kinnita=tud	d		A	pl n
,	,			Z	
jäeb	####				
veel	veel	0		D	
    	vesi	l		S	sg ad
üheks	üks	ks		N	sg tr
     	üks	ks		P	sg tr
aastas	aasta	s		S	sg in
maksvaks	maksev	ks		A	sg tr
,	,			Z	
ainult	ainu	lt		S	sg abl
      	ainult	0		D	
rendist	rent	st		S	sg el
       	rendis	t		S	sg p
jäeb	####				
30	30	0		N	?
rbl	rbl	0		Y	?
maha	maha	0		D	
,	,			Z	
nõnda	nõnda	0		D	
et	et	0		J	
aasta	aasta	0		S	sg g
     	aasta	0		S	sg n
rent	rent	0		S	sg n
170	170	0		N	?
rbl	rbl	0		Y	?
jäeb	####				
,	,			Z	
ja	ja	0		J	
kindlustuse	kindlustus	0		S	sg g
raha	raha	0		S	sg g
    	raha	0		S	sg n
    	raha	0		S	sg p
100	100	0		N	?
rubla	rubla	0		S	sg g
     	rubla	0		S	sg n
     	rubla	0		S	sg p
ei	ei	0		D	
  	ei	0		V	neg
jäe	####				
mitte	mitte	0		D	
enam	enam	0		C	sg n
    	enam	0		D	
seisma	seis	ma		V	ma
,	,			Z	
see	see	0		P	sg n
on	ole	0		V	b
  	ole	0		V	vad
juba	juba	0		D	
rendiks	rent	ks		S	sg tr
       	renti	ks		V	ks
arvatud	arva	tud		V	tud
       	arva=tu	d		S	pl n
       	arva=tud	0		A	
       	arva=tud	0		A	sg n
       	arva=tud	d		A	pl n
,	,			Z	
kuna	kuna	0		D	
    	kuna	0		J	
talu	talu	0		S	sg g
    	talu	0		V	o
    	talu	0		S	sg n
    	talu	0		S	sg p
loomad	loom	d		S	pl n
tingimiste	tingimine	te		S	pl g
kindlustuteks	####				
jäevad	####				
.	.			Z	
K. Peetso	####				
Kusta	Kusta	0		H	sg g
     	Kusta	0		H	sg n
     	kuse	ta		V	da
     	kuse	ta		V	ta
läl	####				
.	.			Z	
(	(			Z	
Allkirjad	all_kiri	d		S	pl n
)	)			Z	
et	et	0		J	
mõlemad	mõlema	d		P	pl n
lepingu	leping	0		S	sg g
tegijad	tegija	d		S	pl n
kohtule	kohus	le		S	sg all
tuntud	tund	tud		V	tud
      	tuntu	d		S	pl n
      	tuntud	0		A	
      	tuntud	0		A	sg n
      	tuntud	d		A	pl n
ja	ja	0		J	
oma	oma	0		A	sg g
   	oma	0		D	
   	oma	0		P	sg g
   	oma	0		S	sg g
   	oma	0		V	o
   	oma	0		A	sg n
   	oma	0		A	sg p
   	oma	0		P	sg n
   	oma	0		P	sg p
   	oma	0		S	sg n
   	oma	0		S	sg p
endist	endine	t		A	sg p
      	ise	st		P	pl el
lepingut	leping	t		S	sg p
pikendasid	pikenda	sid		V	sid
,	,			Z	
siis	siis	0		D	
    	siis	0		J	
seda	see	da		P	sg p
lepingut	leping	t		S	sg p
kinnitada	kinnita	da		V	da
.	.			Z	
esimees	esi_mees	0		S	sg n
:	:			Z	
J. Soieva	####				
kohtumõistjad	kohtu_mõistja	d		S	pl n
A	A	0		Y	?
Saar	saar	0		S	sg n
J. Reinhold	####				
Kirjutaja	kirjutaja	0		S	sg g
         	kirjutaja	0		S	sg n
Sep	####				
.	.			Z	
Märkus	märkus	0		S	sg n
.	.			Z	
Läbivaadatud	läbi_vaadatud	0		A	
            	läbi_vaadatud	0		A	sg n
            	läbi_vaadatud	d		A	pl n
27	27	0		N	?
juulil	juuli	l		S	sg ad
1905	1905	0		N	?
a.	a	0		Y	?
Ülema	ülem	0		C	sg g
     	ülem	0		S	sg g
Talurahvakohtu	talu_rahva_kohus	0		S	sg g
esimees	esi_mees	0		S	sg n
K. Parts	####				
.	.			Z	
