Tänasel	tänane	l		A	sg ad
päeval	päev	l		S	sg ad
sai	saa	i		V	s
   	sai	0		S	sg n
protokolli	protokoll	0		S	adt
          	protokoll	0		S	sg g
          	protokolli	0		V	o
          	protokoll	0		S	sg p
üles	üles	0		D	
võetud	võe=tu	d		S	pl n
      	võetud	0		A	
      	võetud	0		A	sg n
      	võetud	d		A	pl n
      	võt	tud		V	tud
kadund	####				
Liis	Liis	0		H	sg n
    	Lii	s		H	sg in
Sulbi	sulp	0		S	sg g
varandus	varandus	0		S	sg n
,	,			Z	
mis	mis	0		P	pl n
   	mis	0		P	sg n
oksjoni	oksjon	0		S	sg g
viisi	viis	0		S	adt
     	viis	0		S	sg g
     	viis	i		N	pl p
     	viisi	0		K	
     	viis	0		S	sg p
13	13	0		N	?
Oktobril	####				
s	s	0		Y	?
.	.			Z	
a.	a	0		Y	?
ära	ära	0		D	
   	ära	0		V	neg o
müüdud	müü	dud		V	tud
      	müü=du	d		S	pl n
      	müü=dud	0		A	
      	müü=dud	0		A	sg n
      	müü=dud	d		A	pl n
sai	saa	i		V	s
   	sai	0		S	sg n
.	.			Z	
Üks	üks	0		N	sg n
   	üks	0		P	sg n
pada	pada	0		S	sg g
    	pada	0		S	sg n
    	pada	0		S	sg p
ostnud	ost	nud		V	nud
      	ost=nu	d		S	pl n
      	ost=nud	0		A	
      	ost=nud	0		A	sg n
      	ost=nud	d		A	pl n
Peeter	Peeter	0		H	sg n
küsima	küsi	ma		V	ma
35	35	0		N	?
kop	kop	0		Y	?
.	.			Z	
üks	üks	0		N	sg n
   	üks	0		P	sg n
undruk	undruk	0		S	sg n
ostnud	ost	nud		V	nud
      	ost=nu	d		S	pl n
      	ost=nud	0		A	
      	ost=nud	0		A	sg n
      	ost=nud	d		A	pl n
Peeter	Peeter	0		H	sg n
Piir	piir	0		S	sg n
1	1	0		N	?
rbl	rbl	0		Y	?
.	.			Z	
üks	üks	0		N	sg n
   	üks	0		P	sg n
undruk	undruk	0		S	sg n
ostnud	ost	nud		V	nud
      	ost=nu	d		S	pl n
      	ost=nud	0		A	
      	ost=nud	0		A	sg n
      	ost=nud	d		A	pl n
Hendr	####				
.	.			Z	
Peedokese	####				
1	1	0		N	?
rbl	rbl	0		Y	?
.	.			Z	
40	40	0		N	?
kop	kop	0		Y	?
.	.			Z	
üks	üks	0		N	sg n
   	üks	0		P	sg n
undruk	undruk	0		S	sg n
ostnud	ost	nud		V	nud
      	ost=nu	d		S	pl n
      	ost=nud	0		A	
      	ost=nud	0		A	sg n
      	ost=nud	d		A	pl n
Johan	Johan	0		H	sg n
Rootslane	rootslane	0		S	sg n
5	5	0		N	?
kop	kop	0		Y	?
.	.			Z	
undruku	undruk	0		S	sg g
täis	täi	s		S	sg in
    	täi	s		V	s
    	täis	0		A	
    	täis	0		A	sg n
    	täis	0		D	
    	täis	0		S	sg n
riiet	riie	t		S	sg p
ostnud	ost	nud		V	nud
      	ost=nu	d		S	pl n
      	ost=nud	0		A	
      	ost=nud	0		A	sg n
      	ost=nud	d		A	pl n
Jaan	Jaan	0		H	sg n
    	jaan	0		S	sg n
    	jaan	0		Y	?
Tubli	tubli	0		A	sg g
     	tubli	0		A	sg n
1	1	0		N	?
rbl	rbl	0		Y	?
.	.			Z	
55	55	0		N	?
kop	kop	0		Y	?
.	.			Z	
üks	üks	0		N	sg n
   	üks	0		P	sg n
palitu	palitu	0		S	sg g
      	palitu	0		S	sg n
ostnud	ost	nud		V	nud
      	ost=nu	d		S	pl n
      	ost=nud	0		A	
      	ost=nud	0		A	sg n
      	ost=nud	d		A	pl n
Al	Al	0		Y	?
.	.			Z	
Tobrusk	####				
1	1	0		N	?
rbl	rbl	0		Y	?
.	.			Z	
70	70	0		N	?
kop	kop	0		Y	?
.	.			Z	
üks	üks	0		N	sg n
   	üks	0		P	sg n
jak	####				
ostnud	ost	nud		V	nud
      	ost=nu	d		S	pl n
      	ost=nud	0		A	
      	ost=nud	0		A	sg n
      	ost=nud	d		A	pl n
Aadam	Aadam	0		H	sg n
Piir	piir	0		S	sg n
1	1	0		N	?
rbl	rbl	0		Y	?
.	.			Z	
21	21	0		N	?
kop	kop	0		Y	?
.	.			Z	
1	1	0		N	?
jak	####				
ostnud	ost	nud		V	nud
      	ost=nu	d		S	pl n
      	ost=nud	0		A	
      	ost=nud	0		A	sg n
      	ost=nud	d		A	pl n
Kusta	Kusta	0		H	sg g
     	Kusta	0		H	sg n
     	kuse	ta		V	da
     	kuse	ta		V	ta
Saarva	####				
70	70	0		N	?
kop	kop	0		Y	?
.	.			Z	
Siksi	####				
rõivast	rõivas	st		S	sg el
       	rõivas	t		S	sg p
ostnud	ost	nud		V	nud
      	ost=nu	d		S	pl n
      	ost=nud	0		A	
      	ost=nud	0		A	sg n
      	ost=nud	d		A	pl n
J. Kuruk	####				
21	21	0		N	?
kop	kop	0		Y	?
.	.			Z	
külle	####				
aluse	alune	0		A	sg g
     	alune	0		S	sg g
     	alus	0		S	sg g
lina	lina	0		S	sg g
    	lina	0		S	sg n
    	lina	0		S	sg p
ostnud	ost	nud		V	nud
      	ost=nu	d		S	pl n
      	ost=nud	0		A	
      	ost=nud	0		A	sg n
      	ost=nud	d		A	pl n
Hendr	####				
.	.			Z	
Nagel	####				
55	55	0		N	?
kop	kop	0		Y	?
.	.			Z	
sukad	sukk	d		S	pl n
ostnud	ost	nud		V	nud
      	ost=nu	d		S	pl n
      	ost=nud	0		A	
      	ost=nud	0		A	sg n
      	ost=nud	d		A	pl n
K. Saarva	####				
10	10	0		N	?
kop	kop	0		Y	?
.	.			Z	
Anu	Anu	0		H	sg g
   	anu	0		V	o
   	Anu	0		H	sg n
rõivas	rõivas	0		S	sg n
      	rõivas	s		S	sg in
ostnud	ost	nud		V	nud
      	ost=nu	d		S	pl n
      	ost=nud	0		A	
      	ost=nud	0		A	sg n
      	ost=nud	d		A	pl n
K. Parvei	####				
2	2	0		N	?
rbl	rbl	0		Y	?
.	.			Z	
Anu	Anu	0		H	sg g
   	anu	0		V	o
   	Anu	0		H	sg n
rõivas	rõivas	0		S	sg n
      	rõivas	s		S	sg in
ostnud	ost	nud		V	nud
      	ost=nu	d		S	pl n
      	ost=nud	0		A	
      	ost=nud	0		A	sg n
      	ost=nud	d		A	pl n
Jaan	Jaan	0		H	sg n
    	jaan	0		S	sg n
    	jaan	0		Y	?
Tubli	tubli	0		A	sg g
     	tubli	0		A	sg n
1	1	0		N	?
rbl	rbl	0		Y	?
.	.			Z	
paar	paar	0		N	sg n
    	paar	0		S	sg n
kinnid	####				
ostnud	ost	nud		V	nud
      	ost=nu	d		S	pl n
      	ost=nud	0		A	
      	ost=nud	0		A	sg n
      	ost=nud	d		A	pl n
Jaan	Jaan	0		H	sg n
    	jaan	0		S	sg n
    	jaan	0		Y	?
Saarva	####				
23	23	0		N	?
kop	kop	0		Y	?
.	.			Z	
paar	paar	0		N	sg n
    	paar	0		S	sg n
kinnid	####				
ostnud	ost	nud		V	nud
      	ost=nu	d		S	pl n
      	ost=nud	0		A	
      	ost=nud	0		A	sg n
      	ost=nud	d		A	pl n
koht	koht	0		S	sg n
.	.			Z	
uskkur	####				
6	6	0		N	?
kop	kop	0		Y	?
.	.			Z	
1	1	0		N	?
jak	####				
ostnud	ost	nud		V	nud
      	ost=nu	d		S	pl n
      	ost=nud	0		A	
      	ost=nud	0		A	sg n
      	ost=nud	d		A	pl n
P. Virulane	####				
15	15	0		N	?
kop	kop	0		Y	?
.	.			Z	
Viljad	Vilja	d		H	pl n
      	vili	d		S	pl n
ostnud	ost	nud		V	nud
      	ost=nu	d		S	pl n
      	ost=nud	0		A	
      	ost=nud	0		A	sg n
      	ost=nud	d		A	pl n
H. Nagel	####				
1	1	0		N	?
rbl	rbl	0		Y	?
.	.			Z	
5	5	0		N	?
kop	kop	0		Y	?
.	.			Z	
Siksi	####				
rätt	rätt	0		S	sg n
ostnud	ost	nud		V	nud
      	ost=nu	d		S	pl n
      	ost=nud	0		A	
      	ost=nud	0		A	sg n
      	ost=nud	d		A	pl n
P. Virulane	####				
62	62	0		N	?
kop	kop	0		Y	?
.	.			Z	
Siksi	####				
rätt	rätt	0		S	sg n
ostnud	ost	nud		V	nud
      	ost=nu	d		S	pl n
      	ost=nud	0		A	
      	ost=nud	0		A	sg n
      	ost=nud	d		A	pl n
J. Rootslane	####				
7	7	0		N	?
kop	kop	0		Y	?
.	.			Z	
1	1	0		N	?
rätt	rätt	0		S	sg n
ostnud	ost	nud		V	nud
      	ost=nu	d		S	pl n
      	ost=nud	0		A	
      	ost=nud	0		A	sg n
      	ost=nud	d		A	pl n
Peeter	Peeter	0		H	sg n
küsima	küsi	ma		V	ma
20	20	0		N	?
kop	kop	0		Y	?
.	.			Z	
üks	üks	0		N	sg n
   	üks	0		P	sg n
kott	kott	0		S	sg n
ja	ja	0		J	
rõivas	rõivas	0		S	sg n
      	rõivas	s		S	sg in
ostnud	ost	nud		V	nud
      	ost=nu	d		S	pl n
      	ost=nud	0		A	
      	ost=nud	0		A	sg n
      	ost=nud	d		A	pl n
Aadam	Aadam	0		H	sg n
Piir	piir	0		S	sg n
10	10	0		N	?
kop	kop	0		Y	?
.	.			Z	
üks	üks	0		N	sg n
   	üks	0		P	sg n
kasukas	kasukas	0		S	sg n
       	kasukas	s		S	sg in
ostnud	ost	nud		V	nud
      	ost=nu	d		S	pl n
      	ost=nud	0		A	
      	ost=nud	0		A	sg n
      	ost=nud	d		A	pl n
Aadam	Aadam	0		H	sg n
Piir	piir	0		S	sg n
4	4	0		N	?
rbl	rbl	0		Y	?
.	.			Z	
85	85	0		N	?
kop	kop	0		Y	?
.	.			Z	
summa	summ	0		S	adt
     	summ	0		S	sg g
     	summ	0		S	sg p
     	summa	0		S	sg g
     	summa	0		S	sg n
19	19	0		N	?
rbl	rbl	0		Y	?
.	.			Z	
21	21	0		N	?
kop	kop	0		Y	?
.	.			Z	
sest	see	st		P	sg el
    	sest	0		J	
summast	summ	st		S	sg el
       	summa	st		S	sg el
on	ole	0		V	b
  	ole	0		V	vad
ära	ära	0		D	
   	ära	0		V	neg o
arvata	arva	ta		V	da
      	arva	ta		V	ta
      	arvata	0		D	
oks	oks	0		S	sg n
.	.			Z	
kulud	kulg	d		S	pl n
     	kulu	d		S	pl n
     	kulu	d		V	d
1	1	0		N	?
rbl	rbl	0		Y	?
.	.			Z	
jääb	jää	b		V	b
üle	üle	0		D	
   	üle	0		K	
18	18	0		N	?
rbl	rbl	0		Y	?
.	.			Z	
21	21	0		N	?
kop	kop	0		Y	?
.	.			Z	
otsus	otsus	0		S	sg n
:	:			Z	
See	see	0		P	sg n
üle	üle	0		D	
   	üle	0		K	
jäänud	jää	nud		V	nud
      	jäänu	d		S	pl n
      	jäänud	0		A	
      	jäänud	0		A	sg n
      	jäänud	d		A	pl n
18	18	0		N	?
rbl	rbl	0		Y	?
.	.			Z	
21	21	0		N	?
kop	kop	0		Y	?
.	.			Z	
on	ole	0		V	b
  	ole	0		V	vad
vallavalitsuse	valla_valitsus	0		S	sg g
kätte	kätte	0		K	
     	käsi	tte		S	adt
Liis	Liis	0		H	sg n
    	Lii	s		H	sg in
Sulbi	sulp	0		S	sg g
laste	laps	te		S	pl g
     	last	e		S	pl p
ülespidamiseks	üles_pidamine	ks		S	sg tr
ära	ära	0		D	
   	ära	0		V	neg o
anda	and	a		V	da
.	.			Z	
peakohtumees	pea_kohtu_mees	0		S	sg n
:	:			Z	
koha	koht	0		S	sg g
    	koha	0		S	sg g
    	koha	0		V	o
    	koha	0		S	sg n
    	koha	0		S	sg p
Piir	piir	0		S	sg n
allkiri	all_kiri	0		S	sg n
kohtumees	kohtu_mees	0		S	sg n
:	:			Z	
P. Peedusoon	####				
XXX	XXX	0		O	?
   	XXX	0		Y	?
kohtumees	kohtu_mees	0		S	sg n
:	:			Z	
Joh	####				
.	.			Z	
Rootslane	rootslane	0		S	sg n
XXX	XXX	0		O	?
   	XXX	0		Y	?
kohtumees	kohtu_mees	0		S	sg n
:	:			Z	
Kusta	Kusta	0		H	sg g
     	Kusta	0		H	sg n
     	kuse	ta		V	da
     	kuse	ta		V	ta
Saarva	####				
allkiri	all_kiri	0		S	sg n
kohtumees	kohtu_mees	0		S	sg n
:	:			Z	
Hendrik	Hendrik	0		H	sg n
Tootsi	Tootsi	0		H	adt
      	Tootsi	0		H	sg g
      	Tootsi	0		H	sg n
allkiri	all_kiri	0		S	sg n
kirjutaja	kirjutaja	0		S	sg g
         	kirjutaja	0		S	sg n
as	####				
,	,			Z	
K. Veske	####				
allkiri	all_kiri	0		S	sg n
