Aavvinurme	####				
Moisa	####				
koggo	####				
konna	konn	0		S	adt
     	konn	0		S	sg g
     	konn	0		S	sg p
kohtos	####				
Sel	see	l		P	sg ad
   	sel	0		Y	?
15mal	####				
Februaril	####				
1864	1864	0		N	?
Aaastal	####				
Aastus	####				
seie	####				
koggo	####				
konna	konn	0		S	adt
     	konn	0		S	sg g
     	konn	0		S	sg p
kohtu	kohtu	0		V	o
     	kohus	0		S	sg g
ette	ette	0		D	
    	ette	0		K	
    	esi	tte		S	adt
ennareis	####				
külast	küla	st		S	sg el
Peremees	pere_mees	0		S	sg n
nimega	nimi	ga		S	sg kom
Aandres	####				
Kiik	kiik	0		S	sg n
ja	ja	0		J	
tema	tema	0		P	sg g
    	tema	0		P	sg n
teine	teine	0		O	sg n
     	teine	0		P	sg n
vend	vend	0		S	sg n
Mihkel	Mihkel	0		H	sg n
      	mihkel	0		A	sg n
      	mihkel	0		S	sg n
Kiik	kiik	0		S	sg n
keda	kes	da		P	pl p
    	kes	da		P	sg p
nemad	tema	d		P	pl n
nikrutiks	####				
välja	välja	0		D	
     	välja	0		V	o
     	väli	0		S	adt
     	väli	0		S	sg g
     	väli	0		S	sg p
ostid	ost	d		S	pl n
,	,			Z	
ja	ja	0		J	
need	see	d		P	pl n
võlglased	võlglane	d		S	pl n
kelle	kes	0		P	pl g
     	kes	0		P	sg g
käest	käest	0		K	
     	käsi	st		S	sg el
nemad	tema	d		P	pl n
raha	raha	0		S	sg g
    	raha	0		S	sg n
    	raha	0		S	sg p
lainasid	####				
tulid	tule	id		V	sid
ette	ette	0		D	
    	ette	0		K	
    	esi	tte		S	adt
ja	ja	0		J	
anid	####				
ommad	####				
võlald	####				
üles	üles	0		D	
,	,			Z	
kelle	kes	0		P	pl g
     	kes	0		P	sg g
nimed	nimi	d		S	pl n
ja	ja	0		J	
kuipaljo	####				
on	ole	0		V	b
  	ole	0		V	vad
.	.			Z	
Auselja	au_selg	0		S	sg g
Josep	####				
Kask	kask	0		S	sg n
28	28	0		N	?
Rub	Rub			H	?
.	.			Z	
51	51	0		N	?
kop	kop	0		Y	?
Jüri	Jüri	0		H	sg g
    	Jüri	0		H	sg n
Polaks	####				
15	15	0		N	?
Rub	Rub			H	?
.	.			Z	
õbetad	####				
Juhan	Juhan	0		H	sg n
Tebe	####				
15	15	0		N	?
Rub	Rub			H	?
.	.			Z	
õbetad	####				
Tammesare	####				
rätsep	rätsep	0		S	sg n
28	28	0		N	?
Rub	Rub			H	?
.	.			Z	
57	57	0		N	?
kop	kop	0		Y	?
.	.			Z	
Toomas	Toomas	0		H	sg n
      	Toomas	s		H	sg in
      	too	mas		V	mas
Kiik	kiik	0		S	sg n
4	4	0		N	?
Rub	Rub			H	?
.	.			Z	
28	28	0		N	?
1	1	0		N	?
/	/			Z	
2	2	0		N	?
õb	####				
Siis	siis	0		D	
    	siis	0		J	
on	ole	0		V	b
  	ole	0		V	vad
nende	see	de		P	pl g
     	tema	de		P	pl g
Aandres	####				
Mihkel	Mihkel	0		H	sg n
      	mihkel	0		A	sg n
      	mihkel	0		S	sg n
ja	ja	0		J	
Jakob	Jakob	0		H	sg n
Kiikme	####				
vana	vana	0		A	sg g
    	vana	0		A	sg n
    	vana	0		A	sg p
    	vana	0		S	sg g
    	vana	0		S	sg n
    	vana	0		S	sg p
ära	ära	0		D	
   	ära	0		V	neg o
surnud	surnu	d		S	pl n
      	surnud	0		A	
      	surnud	0		A	sg n
      	surnud	d		A	pl n
      	sure	nud		V	nud
Iissa	####				
varandust	varandus	t		S	sg p
järele	järele	0		D	
      	järele	0		K	
jäänud	jää	nud		V	nud
      	jäänu	d		S	pl n
      	jäänud	0		A	
      	jäänud	0		A	sg n
      	jäänud	d		A	pl n
1	1	0		N	?
obbone	####				
2	2	0		N	?
lehma	lehm	0		S	adt
     	lehm	0		S	sg g
     	lehm	0		S	sg p
ja	ja	0		J	
1	1	0		N	?
Ärg	####				
siis	siis	0		D	
    	siis	0		J	
on	ole	0		V	b
  	ole	0		V	vad
Josep	####				
Kask	kask	0		S	sg n
võtnud	võt	nud		V	nud
      	võt=nu	d		S	pl n
      	võt=nud	0		A	
      	võt=nud	0		A	sg n
      	võt=nud	d		A	pl n
se	####				
obbone	####				
ommale	####				
kogokonna	####				
kohtu	kohtu	0		V	o
     	kohus	0		S	sg g
ees	ees	0		D	
   	ees	0		K	
   	esi	s		S	sg in
ja	ja	0		J	
on	ole	0		V	b
  	ole	0		V	vad
arvatud	arva	tud		V	tud
       	arva=tu	d		S	pl n
       	arva=tud	0		A	
       	arva=tud	0		A	sg n
       	arva=tud	d		A	pl n
14	14	0		N	?
Rub	Rub			H	?
.	.			Z	
28	28	0		N	?
1	1	0		N	?
/	/			Z	
2	2	0		N	?
kop	kop	0		Y	?
õbet	####				
ja	ja	0		J	
need	see	d		P	pl n
teised	teine	d		O	pl n
      	teine	d		P	pl n
elajad	elajas	d		S	pl n
jäd	####				
suvvel	####				
Janipäeva	####				
ajal	aeg	l		S	sg ad
    	ajal	0		K	
kui	kui	0		D	
   	kui	0		J	
nemad	tema	d		P	pl n
õiked	####				
inda	ind	0		S	adt
    	ind	0		S	sg p
sad	####				
maksma	maks	ma		V	ma
siis	siis	0		D	
    	siis	0		J	
saab	saa	b		V	b
need	see	d		P	pl n
2	2	0		N	?
lehma	lehm	0		S	adt
     	lehm	0		S	sg g
     	lehm	0		S	sg p
1	1	0		N	?
arg	arg	0		A	sg n
ära	ära	0		D	
   	ära	0		V	neg o
müidud	####				
ja	ja	0		J	
se	####				
raha	raha	0		S	sg g
    	raha	0		S	sg n
    	raha	0		S	sg p
nende	see	de		P	pl g
     	tema	de		P	pl g
võlglastele	võlglane	tele		S	pl all
ära	ära	0		D	
   	ära	0		V	neg o
jaetud	####				
sama	sama	0		P	sg g
    	sama	0		P	sg n
    	sama	0		P	sg p
.	.			Z	
ja	ja	0		J	
mis	mis	0		P	pl n
   	mis	0		P	sg n
veel	veel	0		D	
    	vesi	l		S	sg ad
võlgo	####				
jääb	jää	b		V	b
seda	see	da		P	sg p
peab	pida	b		V	b
Mihkel	Mihkel	0		H	sg n
      	mihkel	0		A	sg n
      	mihkel	0		S	sg n
ja	ja	0		J	
tema	tema	0		P	sg g
    	tema	0		P	sg n
teine	teine	0		O	sg n
     	teine	0		P	sg n
vend	vend	0		S	sg n
Jakob	Jakob	0		H	sg n
Kiik	kiik	0		S	sg n
ni	####				
kaua	kaua	0		D	
aitama	aita	ma		V	ma
välja	välja	0		D	
     	välja	0		V	o
     	väli	0		S	adt
     	väli	0		S	sg g
     	väli	0		S	sg p
tenida	####				
kui	kui	0		D	
   	kui	0		J	
need	see	d		P	pl n
võlglased	võlglane	d		S	pl n
tasa	tasa	0		D	
on	ole	0		V	b
  	ole	0		V	vad
mis	mis	0		P	pl n
   	mis	0		P	sg n
tunnistad	tunnista	d		V	d
kohtomehed	####				
Maddis	####				
Aaali	####				
XXX	XXX	0		O	?
   	XXX	0		Y	?
Aabram	Aabram	0		H	sg n
Tamm	tamm	0		S	sg n
XXX	XXX	0		O	?
   	XXX	0		Y	?
Josep	####				
Klebani	####				
XXX	XXX	0		O	?
   	XXX	0		Y	?
