Krimanni	####				
kogukonna	kogukond	0		S	sg g
kohtus	kohtu	s		V	s
      	kohus	s		S	sg in
16	16	0		N	?
April	####				
1871.	1871.	0		O	?
kuuldnu	####				
rentnik	rentnik	0		S	sg n
H. Freyfeldt	####				
tuli	tuli	0		S	sg n
    	tule	i		V	s
ette	ette	0		D	
    	ette	0		K	
    	esi	tte		S	adt
ja	ja	0		J	
kaebas	kaeba	s		V	s
enda	ise	0		P	sg g
poole	pool	0		N	sg g
     	pool	0		S	sg g
     	pool	e		S	pl p
     	poole	0		K	
     	poole	0		S	sg n
sulaste	sulane	te		S	pl g
peale	pea	le		S	sg all
     	peale	0		D	
     	peale	0		K	
nimelt	nimelt	0		D	
      	nimi	lt		S	sg abl
Johan	Johan	0		H	sg n
Hunt	hunt	0		S	sg n
Aadam	Aadam	0		H	sg n
Krol	####				
,	,			Z	
Johan	Johan	0		H	sg n
kauer	####				
ja	ja	0		J	
Johan	Johan	0		H	sg n
Variku	varik	0		S	sg g
peale	pea	le		S	sg all
     	peale	0		D	
     	peale	0		K	
et	et	0		J	
nemad	tema	d		P	pl n
ei	ei	0		D	
  	ei	0		V	neg
kündnud	künd	nud		V	nud
       	künd=nu	d		S	pl n
       	künd=nud	0		A	
       	künd=nud	0		A	sg n
       	künd=nud	d		A	pl n
mitte	mitte	0		D	
sügise	sügis	0		S	sg g
kartufli	####				
maad	maa	d		S	pl n
    	maa	d		S	sg p
ära	ära	0		D	
   	ära	0		V	neg o
ja	ja	0		J	
rehkendan	rehkenda	n		V	n
selle	see	0		P	sg g
     	sell	e		S	pl p
läbi	läbi	0		D	
    	läbi	0		K	
    	läbi	0		V	o
iga	iga	0		P	sg g
   	iga	0		P	sg n
   	iga	0		P	sg p
   	iga	0		S	sg n
   	iga	0		S	sg p
mehe	mees	0		S	sg g
peale	pea	le		S	sg all
     	peale	0		D	
     	peale	0		K	
7	7	0		N	?
vakka	vakk	0		S	adt
     	vakk	0		S	sg p
     	vakka	0		D	
kartuflid	####				
ja	ja	0		J	
kartufli	####				
vedu	vedu	0		S	sg n
    	vedu	0		S	sg p
eest	eest	0		D	
    	eest	0		K	
    	esi	st		S	sg el
2	2	0		N	?
rubla	rubla	0		S	sg g
     	rubla	0		S	sg n
     	rubla	0		S	sg p
25	25	0		N	?
kop	kop	0		Y	?
.	.			Z	
ka	ka	0		D	
kesvi	kesv	i		S	pl p
ja	ja	0		J	
kaera	kaer	0		S	adt
     	kaer	0		S	sg g
     	kaer	0		S	sg p
vedu	vedu	0		S	sg n
    	vedu	0		S	sg p
eest	eest	0		D	
    	eest	0		K	
    	esi	st		S	sg el
1	1	0		N	?
rubla	rubla	0		S	sg g
     	rubla	0		S	sg n
     	rubla	0		S	sg p
40	40	0		N	?
kop	kop	0		Y	?
.	.			Z	
ja	ja	0		J	
rehe	rehi	0		S	sg g
papi	papp	0		S	sg g
    	papi	0		S	sg g
    	papi	0		S	sg n
palka	palk	0		S	adt
     	palka	0		V	o
     	palk	0		S	sg p
1	1	0		N	?
rubla	rubla	0		S	sg g
     	rubla	0		S	sg n
     	rubla	0		S	sg p
ja	ja	0		J	
iga	iga	0		P	sg g
   	iga	0		P	sg n
   	iga	0		P	sg p
   	iga	0		S	sg n
   	iga	0		S	sg p
üks	üks	0		N	sg n
   	üks	0		P	sg n
võttis	võt	is		V	s
5	5	0		N	?
leisikat	leisikas	t		S	sg p
ristik	ristik	0		S	sg n
heinu	hein	u		S	pl p
ja	ja	0		J	
nõuan	nõud	n		V	n
igaühe	iga_üks	0		P	sg g
käest	käest	0		K	
     	käsi	st		S	sg el
1	1	0		N	?
rubla	rubla	0		S	sg g
     	rubla	0		S	sg n
     	rubla	0		S	sg p
25	25	0		N	?
kop	kop	0		Y	?
.	.			Z	
Aadam	Aadam	0		H	sg n
Krol	####				
tuli	tuli	0		S	sg n
    	tule	i		V	s
ette	ette	0		D	
    	ette	0		K	
    	esi	tte		S	adt
ja	ja	0		J	
ütles	ütle	s		V	s
:	:			Z	
meie	mina	0		P	pl g
    	mina	0		P	pl n
tahtsime	taht	sime		V	sime
sügise	sügis	0		S	sg g
kartufli	####				
maad	maa	d		S	pl n
    	maa	d		S	sg p
ära	ära	0		D	
   	ära	0		V	neg o
künda	künd	a		V	da
aga	aga	0		J	
Freyfeldt	####				
ei	ei	0		D	
  	ei	0		V	neg
lasknud	lask	nud		V	nud
       	lask=nu	d		S	pl n
       	lask=nud	0		A	
       	lask=nud	0		A	sg n
       	lask=nud	d		A	pl n
ning	ning	0		J	
ütles	ütle	s		V	s
:	:			Z	
ei	ei	0		D	
  	ei	0		V	neg
pruugib	pruuki	b		V	b
mitte	mitte	0		D	
kartufli	####				
maad	maa	d		S	pl n
    	maa	d		S	sg p
künda	künd	a		V	da
sest	see	st		P	sg el
    	sest	0		J	
et	et	0		J	
ma	mina	0		P	sg n
ilma	ilm	0		S	adt
    	ilm	0		S	sg g
    	ilma	0		D	
    	ilma	0		K	
    	ilm	0		S	sg p
kündmata	künd	mata		V	mata
        	künd=mata	0		A	
olen	ole	n		V	n
mõisa	mõis	0		S	sg g
käest	käest	0		K	
     	käsi	st		S	sg el
vastu	vastu	0		D	
     	vastu	0		K	
võtnud	võt	nud		V	nud
      	võt=nu	d		S	pl n
      	võt=nud	0		A	
      	võt=nud	0		A	sg n
      	võt=nud	d		A	pl n
ja	ja	0		J	
kartuflid	####				
oleksime	ole	ksime		V	ksime
meie	mina	0		P	pl g
    	mina	0		P	pl n
vedanud	veda	nud		V	nud
       	veda=nu	d		S	pl n
       	veda=nud	0		A	
       	veda=nud	0		A	sg n
       	veda=nud	d		A	pl n
kui	kui	0		D	
   	kui	0		J	
tal	tema	l		P	sg ad
oleks	ole	ks		V	ks
vedada	veda	da		V	da
olnud	ol=nud	0		A	
     	ol=nud	0		A	sg n
     	ol=nud	d		A	pl n
     	ole	nud		V	nud
     	olnu	d		S	pl n
ja	ja	0		J	
nii	nii	0		D	
sama	sama	0		P	sg g
    	sama	0		P	sg n
    	sama	0		P	sg p
ka	ka	0		D	
kesvad	kesv	d		S	pl n
ja	ja	0		J	
kaerad	kaer	d		S	pl n
aga	aga	0		J	
et	et	0		J	
ta	tema	0		P	sg g
  	tema	0		P	sg n
kodust	kodu	st		S	sg el
      	kodune	t		A	sg p
ära	ära	0		D	
   	ära	0		V	neg o
müis	####				
ja	ja	0		J	
meil	meil	0		S	sg n
    	mina	l		P	pl ad
vedada	veda	da		V	da
ei	ei	0		D	
  	ei	0		V	neg
lasknud	lask	nud		V	nud
       	lask=nu	d		S	pl n
       	lask=nud	0		A	
       	lask=nud	0		A	sg n
       	lask=nud	d		A	pl n
ei	ei	0		D	
  	ei	0		V	neg
või	või	0		S	sg g
   	või	0		V	o
   	või	0		D	
   	või	0		J	
   	või	0		S	sg n
meie	mina	0		P	pl g
    	mina	0		P	pl n
mitte	mitte	0		D	
maksta	maks	ta		V	da
      	maks	ta		V	ta
ja	ja	0		J	
need	see	d		P	pl n
heinad	hein	d		S	pl n
oli	ole	i		V	s
ta	tema	0		P	sg g
  	tema	0		P	sg n
töö	töö	0		S	sg g
   	töö	0		S	sg n
aast	####				
meile	meil	e		S	pl p
     	mina	le		P	pl all
annud	####				
mis	mis	0		P	pl n
   	mis	0		P	sg n
ka	ka	0		D	
meie	mina	0		P	pl g
    	mina	0		P	pl n
kaupa	kaup	0		S	adt
     	kaup	0		S	sg p
     	kaupa	0		K	
sees	sees	0		D	
    	sees	0		K	
oli	ole	i		V	s
.	.			Z	
Johan	Johan	0		H	sg n
Hunt	hunt	0		S	sg n
Johan	Johan	0		H	sg n
kauer	####				
ja	ja	0		J	
Johan	Johan	0		H	sg n
Varik	varik	0		S	sg n
tulevad	tule	vad		V	vad
       	tulev	d		A	pl n
ette	ette	0		D	
    	ette	0		K	
    	esi	tte		S	adt
ja	ja	0		J	
ütlesivad	####				
just	just	0		D	
    	just	0		I	
niisamuti	nii_samuti	0		D	
kui	kui	0		D	
   	kui	0		J	
Aadam	Aadam	0		H	sg n
Krol	####				
ütles	ütle	s		V	s
.	.			Z	
mõistus	mõistus	0		S	sg n
:	:			Z	
kogukonna	kogukond	0		S	sg g
kohus	kohu	s		V	s
     	kohus	0		S	sg n
mõistis	mõist	is		V	s
et	et	0		J	
Freyfeldil	####				
ei	ei	0		D	
  	ei	0		V	neg
ole	ole	0		V	o
õigus	õigus	0		S	sg n
muud	muu	d		P	pl n
    	muu	d		S	pl n
    	muu	d		V	d
    	muu	d		P	sg p
    	muu	d		S	sg p
nõna	####				
kui	kui	0		D	
   	kui	0		J	
üksnes	üksnes	0		D	
rehepapi	rehe_papp	0		S	sg g
        	rehe_papi	0		S	sg g
        	rehe_papi	0		S	sg n
palka	palk	0		S	adt
     	palka	0		V	o
     	palk	0		S	sg p
peab	pida	b		V	b
iga	iga	0		P	sg g
   	iga	0		P	sg n
   	iga	0		P	sg p
   	iga	0		S	sg n
   	iga	0		S	sg p
sulane	sulane	0		S	sg n
      	sulane	0		V	o
1	1	0		N	?
rubla	rubla	0		S	sg g
     	rubla	0		S	sg n
     	rubla	0		S	sg p
Freyfledele	####				
ära	ära	0		D	
   	ära	0		V	neg o
maksma	maks	ma		V	ma
sellepärast	selle_pärast	0		D	
et	et	0		J	
neil	see	l		P	pl ad
    	tema	l		P	pl ad
ühtige	ühti	ge		V	ge
selged	selge	d		A	pl n
tunnistust	tunnistus	t		S	sg p
ei	ei	0		D	
  	ei	0		V	neg
ole	ole	0		V	o
.	.			Z	
kohtu	kohtu	0		V	o
     	kohus	0		S	sg g
lauas	laud	s		S	sg in
olid	ole	id		V	sid
:	:			Z	
peakohtumees	pea_kohtu_mees	0		S	sg n
Joh	####				
:	:			Z	
Mina	mina	0		P	sg n
    	mina	0		S	sg g
    	mina	0		S	sg n
    	mina	0		S	sg p
kohtumees	kohtu_mees	0		S	sg n
Johan	Johan	0		H	sg n
rasva	rasv	0		S	adt
     	rasv	0		S	sg g
     	rasva	0		D	
     	rasva	0		V	o
     	rasv	0		S	sg p
Vöörmünder	vöörmünder	0		S	sg n
Mart	Mart	0		H	sg n
    	mart	0		S	sg n
kärik	####				
kirjutaja	kirjutaja	0		S	sg g
         	kirjutaja	0		S	sg n
asemel	ase	l		S	sg ad
      	asemel	0		K	
:	:			Z	
M. Baumann	####				
/	/			Z	
allkiri	all_kiri	0		S	sg n
/	/			Z	
