1834	1834	0		N	?
Sel	see	l		P	sg ad
   	sel	0		Y	?
21	21	0		N	?
Mail	Mai	l		H	sg ad
    	maa	il		S	pl ad
    	mai	l		S	sg ad
    	mail	0		S	sg n
Allekõrre	####				
Karel	####				
Mäggi	####				
on	ole	0		V	b
  	ole	0		V	vad
oksioni	####				
raha	raha	0		S	sg g
    	raha	0		S	sg n
    	raha	0		S	sg p
saanud	saa	nud		V	nud
      	saa=nud	0		A	
      	saa=nud	0		A	sg n
      	saa=nud	d		A	pl n
      	saanu	d		S	pl n
69	69	0		N	?
Rub	Rub			H	?
.	.			Z	
75	75	0		N	?
kop	kop	0		Y	?
.	.			Z	
ja	ja	0		J	
se	####				
raha	raha	0		S	sg g
    	raha	0		S	sg n
    	raha	0		S	sg p
on	ole	0		V	b
  	ole	0		V	vad
saanud	saa	nud		V	nud
      	saa=nud	0		A	
      	saa=nud	0		A	sg n
      	saa=nud	d		A	pl n
      	saanu	d		S	pl n
magasini	magas	ni		S	sg ter
        	magasin	0		S	adt
        	magasin	0		S	sg g
        	magasin	0		S	sg p
võla	võlg	0		S	sg g
eest	eest	0		D	
    	eest	0		K	
    	esi	st		S	sg el
arvadud	####				
tema	tema	0		P	sg g
    	tema	0		P	sg n
võlg	võlg	0		S	sg n
on	ole	0		V	b
  	ole	0		V	vad
6	6	0		N	?
v	v	0		Y	?
.	.			Z	
ruk	####				
.	.			Z	
6	6	0		N	?
v	v	0		Y	?
.	.			Z	
odre	####				
7	7	0		N	?
1	1	0		N	?
/	/			Z	
2	2	0		N	?
karo	####				
ja	ja	0		J	
on	ole	0		V	b
  	ole	0		V	vad
arvatud	arva	tud		V	tud
       	arva=tu	d		S	pl n
       	arva=tud	0		A	
       	arva=tud	0		A	sg n
       	arva=tud	d		A	pl n
5	5	0		N	?
Rub	Rub			H	?
rua	####				
3	3	0		N	?
Rub	Rub			H	?
.	.			Z	
50	50	0		N	?
kop	kop	0		Y	?
odra	oder	0		S	sg g
2	2	0		N	?
Rub	Rub			H	?
.	.			Z	
50	50	0		N	?
kop	kop	0		Y	?
Karod	####				
ja	ja	0		J	
tema	tema	0		P	sg g
    	tema	0		P	sg n
võlg	võlg	0		S	sg n
on	ole	0		V	b
  	ole	0		V	vad
tasa	tasa	0		D	
.	.			Z	
1834	1834	0		N	?
kohtumehed	kohtu_mees	d		S	pl n
Maddis	####				
Sõber	sõber	0		S	sg n
XXX	XXX	0		O	?
   	XXX	0		Y	?
Maddis	####				
Allik	Allik	0		H	sg n
XXX	XXX	0		O	?
   	XXX	0		Y	?
