Krismanni	####				
22sel	####				
Januaril	####				
1871.	1871.	0		O	?
Johan	Johan	0		H	sg n
Mina	mina	0		P	sg n
    	mina	0		S	sg g
    	mina	0		S	sg n
    	mina	0		S	sg p
tuli	tuli	0		S	sg n
    	tule	i		V	s
ette	ette	0		D	
    	ette	0		K	
    	esi	tte		S	adt
ja	ja	0		J	
kaebas	kaeba	s		V	s
et	et	0		J	
minul	mina	l		P	sg ad
on	ole	0		V	b
  	ole	0		V	vad
Blangenbergi	####				
käest	käest	0		K	
     	käsi	st		S	sg el
saada	saa	da		V	da
     	saat	0		V	o
     	saa	da		V	ta
Ritsu	####				
maja	maja	0		S	sg g
    	maja	0		S	sg n
    	maja	0		S	sg p
eest	eest	0		D	
    	eest	0		K	
    	esi	st		S	sg el
mineva	minev	0		A	sg g
kevadese	kevad_ese	0		S	sg n
rent	rent	0		S	sg n
70	70	0		N	?
rublad	rubla	d		S	pl n
ja	ja	0		J	
enne	enne	0		D	
    	enne	0		K	
    	enne	0		S	sg n
seda	see	da		P	sg p
oli	ole	i		V	s
jälle	jälle	0		D	
minu	mina	0		P	sg g
käest	käest	0		K	
     	käsi	st		S	sg el
10	10	0		N	?
rubla	rubla	0		S	sg g
     	rubla	0		S	sg n
     	rubla	0		S	sg p
ja	ja	0		J	
hobuse	hobune	0		S	sg g
pealis	pealis	0		S	sg n
16	16	0		N	?
rublad	rubla	d		S	pl n
Heringate	####				
raha	raha	0		S	sg g
    	raha	0		S	sg n
    	raha	0		S	sg p
2	2	0		N	?
rubla	rubla	0		S	sg g
     	rubla	0		S	sg n
     	rubla	0		S	sg p
25	25	0		N	?
kop	kop	0		Y	?
.	.			Z	
Vilja	Vilja	0		H	sg g
     	vili	0		S	adt
     	vili	0		S	sg g
     	Vilja	0		H	sg n
     	vili	0		S	sg p
krane	####				
eest	eest	0		D	
    	eest	0		K	
    	esi	st		S	sg el
72	72	0		N	?
kop	kop	0		Y	?
.	.			Z	
3	3	0		N	?
pari	pari	0		S	sg g
    	pari	0		S	sg n
    	pari	0		S	sg p
söögi	söö	0	gi	V	o
     	söök	0		S	sg g
1	1	0		N	?
rb	####				
50	50	0		N	?
kop	kop	0		Y	?
.	.			Z	
ja	ja	0		J	
Vene	vene	0		G	
    	vene	0		S	sg g
    	vene	0		S	sg n
raha	raha	0		S	sg g
    	raha	0		S	sg n
    	raha	0		S	sg p
heina	hein	0		S	adt
     	hein	0		S	sg g
     	hein	0		S	sg p
aegu	aeg	u		S	pl p
    	aegu	0		K	
    	aegu	0		V	o
40	40	0		N	?
kop	kop	0		Y	?
mis	mis	0		P	pl n
   	mis	0		P	sg n
ühe	üks	0		N	sg g
   	üks	0		P	sg g
   	ühe	0		S	sg n
summa	summ	0		S	adt
     	summ	0		S	sg g
     	summ	0		S	sg p
     	summa	0		S	sg g
     	summa	0		S	sg n
välja	välja	0		D	
     	välja	0		V	o
     	väli	0		S	adt
     	väli	0		S	sg g
     	väli	0		S	sg p
teeb	tege	b		V	b
100	100	0		N	?
rublad	rubla	d		S	pl n
ja	ja	0		J	
87	87	0		N	?
kop	kop	0		Y	?
.	.			Z	
Peeter	Peeter	0		H	sg n
Blangenberg	####				
tuli	tuli	0		S	sg n
    	tule	i		V	s
oma	oma	0		A	sg g
   	oma	0		D	
   	oma	0		P	sg g
   	oma	0		S	sg g
   	oma	0		V	o
   	oma	0		A	sg n
   	oma	0		A	sg p
   	oma	0		P	sg n
   	oma	0		P	sg p
   	oma	0		S	sg n
   	oma	0		S	sg p
emandaga	emand	ga		S	sg kom
12	12	0		N	?
Vebruaril	####				
ette	ette	0		D	
    	ette	0		K	
    	esi	tte		S	adt
ja	ja	0		J	
ütlesivad	####				
:	:			Z	
see	see	0		P	sg n
on	ole	0		V	b
  	ole	0		V	vad
õige	õige	0		A	sg g
    	õige	0		A	sg n
    	õige	0		D	
küll	küll	0		D	
    	küll	0		S	sg n
et	et	0		J	
meie	mina	0		P	pl g
    	mina	0		P	pl n
J. Mina	####				
käest	käest	0		K	
     	käsi	st		S	sg el
oleme	ole	me		V	me
nii	nii	0		D	
palju	palju	0		D	
     	palju	0		P	sg g
     	palju	0		P	sg n
saanud	saa	nud		V	nud
      	saa=nud	0		A	
      	saa=nud	0		A	sg n
      	saa=nud	d		A	pl n
      	saanu	d		S	pl n
aga	aga	0		J	
meil	meil	0		S	sg n
    	mina	l		P	pl ad
on	ole	0		V	b
  	ole	0		V	vad
veelgi	veelgi	0		D	
      	vesi	l	gi	S	sg ad
tema	tema	0		P	sg g
    	tema	0		P	sg n
käest	käest	0		K	
     	käsi	st		S	sg el
saada	saa	da		V	da
     	saat	0		V	o
     	saa	da		V	ta
ja	ja	0		J	
seda	see	da		P	sg p
rendi	rent	0		S	sg g
     	renti	0		V	o
raha	raha	0		S	sg g
    	raha	0		S	sg n
    	raha	0		S	sg p
ei	ei	0		D	
  	ei	0		V	neg
maksama	####				
meie	mina	0		P	pl g
    	mina	0		P	pl n
mitte	mitte	0		D	
temale	tema	le		P	sg all
täieste	####				
ära	ära	0		D	
   	ära	0		V	neg o
sellepärast	selle_pärast	0		D	
et	et	0		J	
rubla	rubla	0		S	sg g
     	rubla	0		S	sg n
     	rubla	0		S	sg p
kop	kop	0		Y	?
tema	tema	0		P	sg g
    	tema	0		P	sg n
oli	ole	i		V	s
selle	see	0		P	sg g
     	sell	e		S	pl p
ma	mina	0		P	sg n
küllest	####				
sennamehele	senna_mees	le		S	sg all
2	2	0		N	?
vakka	vakk	0		S	adt
     	vakk	0		S	sg p
     	vakka	0		D	
alla	alla	0		D	
    	alla	0		K	
maad	maa	d		S	pl n
    	maa	d		S	sg p
kust	kusi	t		S	sg p
    	kust	0		D	
mina	mina	0		P	sg n
    	mina	0		S	sg g
    	mina	0		S	sg n
    	mina	0		S	sg p
12	12	0		N	?
vakka	vakk	0		S	adt
     	vakk	0		S	sg p
     	vakka	0		D	
kesvi	kesv	i		S	pl p
rehkendan	rehkenda	n		V	n
à	####				
vak	####				
2	2	0		N	?
rubla	rubla	0		S	sg g
     	rubla	0		S	sg n
     	rubla	0		S	sg p
.	.			Z	
summa	summ	0		S	adt
     	summ	0		S	sg g
     	summ	0		S	sg p
     	summa	0		S	sg g
     	summa	0		S	sg n
24	24	0		N	?
-	-			Z	
ja	ja	0		J	
1	1	0		N	?
koorma	koorem	0		S	sg g
      	koorma	0		V	o
alla	alla	0		D	
    	alla	0		K	
heinamaad	heina_maa	d		S	pl n
         	heina_maa	d		S	sg p
võttis	võt	is		V	s
ära	ära	0		D	
   	ära	0		V	neg o
5	5	0		N	?
-	-			Z	
esiteks	esiteks	0		D	
võttis	võt	is		V	s
puhast	puhas	t		A	sg p
raha	raha	0		S	sg g
    	raha	0		S	sg n
    	raha	0		S	sg p
minu	mina	0		P	sg g
käest	käest	0		K	
     	käsi	st		S	sg el
50	50	0		N	?
-	-			Z	
puhast	puhas	t		A	sg p
raha	raha	0		S	sg g
    	raha	0		S	sg n
    	raha	0		S	sg p
oli	ole	i		V	s
võtnud	võt	nud		V	nud
      	võt=nu	d		S	pl n
      	võt=nud	0		A	
      	võt=nud	0		A	sg n
      	võt=nud	d		A	pl n
8	8	0		N	?
50	50	0		N	?
3	3	0		N	?
vankri	vanker	0		S	sg g
rahast	raha	st		S	sg el
2	2	0		N	?
hobuste	hobune	te		S	pl g
rautamine	rauta=mine	0		S	sg n
-	-			Z	
50	50	0		N	?
sepale	sepp	le		S	sg all
üks	üks	0		N	sg n
   	üks	0		P	sg n
korten	####				
viina	viin	0		S	adt
     	viin	0		S	sg g
     	viin	0		S	sg p
-	-			Z	
10	10	0		N	?
kõrtsist	kõrts	st		S	sg el
oli	ole	i		V	s
joonud	joo	nud		V	nud
      	joo=nu	d		S	pl n
      	joo=nud	0		A	
      	joo=nud	0		A	sg n
      	joo=nud	d		A	pl n
-	-			Z	
40	40	0		N	?
1	1	0		N	?
paar	paar	0		N	sg n
    	paar	0		S	sg n
saapid	####				
olen	ole	n		V	n
peatanud	peata	nud		V	nud
        	peata=nu	d		S	pl n
        	peata=nud	0		A	
        	peata=nud	0		A	sg n
        	peata=nud	d		A	pl n
2	2	0		N	?
-	-			Z	
1	1	0		N	?
leisikas	leisikas	0		S	sg n
        	leisikas	s		S	sg in
püidla	####				
jahu	jahu	0		S	sg g
    	jahu	0		V	o
    	jahu	0		S	sg n
    	jahu	0		S	sg p
1	1	0		N	?
20	20	0		N	?
2	2	0		N	?
toop	toop	0		S	sg n
künel	####				
ja	ja	0		J	
½_	####				
toopi	toop	0		S	adt
     	toop	0		S	sg p
Rummu	rumm	0		S	adt
     	rumm	0		S	sg g
     	rumm	0		S	sg p
1	1	0		N	?
40	40	0		N	?
tüürbergi	####				
rehknung	####				
kohfi	####				
ja	ja	0		J	
Zuker	####				
-	-			Z	
88	88	0		N	?
piiri	piir	0		S	adt
     	piir	0		S	sg g
     	piir	0		S	sg p
peremehe	pere_mees	0		S	sg g
Johan	Johan	0		H	sg n
Semeni	####				
võlg	võlg	0		S	sg n
3	3	0		N	?
-	-			Z	
Õpetajale	õpetaja	le		S	sg all
laulatuse	laulatus	0		S	sg g
aegu	aeg	u		S	pl p
    	aegu	0		K	
    	aegu	0		V	o
1	1	0		N	?
-	-			Z	
köstrile	köster	le		S	sg all
1	1	0		N	?
-	-			Z	
1	1	0		N	?
paar	paar	0		N	sg n
    	paar	0		S	sg n
saapid	####				
pidanud	pida	nud		V	nud
       	pida=nu	d		S	pl n
       	pida=nud	0		A	
       	pida=nud	0		A	sg n
       	pida=nud	d		A	pl n
2	2	0		N	?
-	-			Z	
minu	mina	0		P	sg g
hobusega	hobune	ga		S	sg kom
käis	käi	s		V	s
    	käis	0		S	sg n
Pihkvas	Pihkva	s		H	sg in
võrin	võrin	0		S	sg n
3	3	0		N	?
-	-			Z	
Tohvri	####				
Jaanile	Jaan	le		H	sg all
       	Jaani	le		H	sg all
       	jaan	le		S	sg all
heinte	hein	te		S	pl g
eest	eest	0		D	
    	eest	0		K	
    	esi	st		S	sg el
1	1	0		N	?
50	50	0		N	?
14	14	0		N	?
küünart	küünar	t		S	sg p
villast	vill	st		S	sg el
       	villa	st		S	sg el
       	villane	t		A	sg p
riiet	riie	t		S	sg p
9	9	0		N	?
-	-			Z	
1	1	0		N	?
Arschin	####				
villast	vill	st		S	sg el
       	villa	st		S	sg el
       	villane	t		A	sg p
vesti	vest	0		S	adt
     	vest	0		S	sg g
     	vest	0		S	sg p
riiet	riie	t		S	sg p
1	1	0		N	?
-	-			Z	
5	5	0		N	?
küünart	küünar	t		S	sg p
villast	vill	st		S	sg el
       	villa	st		S	sg el
       	villane	t		A	sg p
püksi	püks	0		S	adt
     	püks	0		S	sg g
     	püks	0		S	sg p
riiet	riie	t		S	sg p
3	3	0		N	?
50	50	0		N	?
Mina	mina	0		P	sg n
    	mina	0		S	sg g
    	mina	0		S	sg n
    	mina	0		S	sg p
sulasele	sulane	le		S	sg all
1	1	0		N	?
paar	paar	0		N	sg n
    	paar	0		S	sg n
püksa	####				
ja	ja	0		J	
jalg	jalg	0		S	sg n
rätti	rätt	0		S	adt
     	rätt	0		S	sg p
3	3	0		N	?
50	50	0		N	?
1	1	0		N	?
kätte	kätte	0		K	
     	käsi	tte		S	adt
kuni	kuni	0		J	
    	kuni	0		K	
põrsas	põrsas	0		S	sg n
      	põrsas	s		S	sg in
3	3	0		N	?
-	-			Z	
7	7	0		N	?
vähemad	vähem	d		C	pl n
põrsast	põrsas	st		S	sg el
       	põrsas	t		S	sg p
7	7	0		N	?
-	-			Z	
1	1	0		N	?
külimit	külimit	0		S	sg n
suurmit	####				
1	1	0		N	?
50	50	0		N	?
kõrtsi	kõrts	0		S	adt
      	kõrts	0		S	sg g
      	kõrts	0		S	sg p
võlga	võlg	0		S	adt
     	võlg	0		S	sg p
oli	ole	i		V	s
välja	välja	0		D	
     	välja	0		V	o
     	väli	0		S	adt
     	väli	0		S	sg g
     	väli	0		S	sg p
annud	####				
1	1	0		N	?
40	40	0		N	?
ja	ja	0		J	
tänavu	tänavu	0		D	
talvel	talv	l		S	sg ad
      	tali	l		S	sg ad
sai	saa	i		V	s
   	sai	0		S	sg n
jälle	jälle	0		D	
15	15	0		N	?
-	-			Z	
Siis	siis	0		D	
    	siis	0		J	
on	ole	0		V	b
  	ole	0		V	vad
mul	mina	l		P	sg ad
Johan	Johan	0		H	sg n
Mina	mina	0		P	sg n
    	mina	0		S	sg g
    	mina	0		S	sg n
    	mina	0		S	sg p
käest	käest	0		K	
     	käsi	st		S	sg el
saada	saa	da		V	da
     	saat	0		V	o
     	saa	da		V	ta
151	151	0		N	?
88	88	0		N	?
Johan	Johan	0		H	sg n
Mina	mina	0		P	sg n
    	mina	0		S	sg g
    	mina	0		S	sg n
    	mina	0		S	sg p
tuli	tuli	0		S	sg n
    	tule	i		V	s
ette	ette	0		D	
    	ette	0		K	
    	esi	tte		S	adt
ja	ja	0		J	
ütles	ütle	s		V	s
:	:			Z	
köstrile	köster	le		S	sg all
1	1	0		N	?
rubla	rubla	0		S	sg g
     	rubla	0		S	sg n
     	rubla	0		S	sg p
ei	ei	0		D	
  	ei	0		V	neg
ole	ole	0		V	o
ma	mina	0		P	sg n
mitte	mitte	0		D	
saanud	saa	nud		V	nud
      	saa=nud	0		A	
      	saa=nud	0		A	sg n
      	saa=nud	d		A	pl n
      	saanu	d		S	pl n
aga	aga	0		J	
muidu	muidu	0		D	
olen	ole	n		V	n
ma	mina	0		P	sg n
küll	küll	0		D	
    	küll	0		S	sg n
keik	####				
saanud	saa	nud		V	nud
      	saa=nud	0		A	
      	saa=nud	0		A	sg n
      	saa=nud	d		A	pl n
      	saanu	d		S	pl n
aga	aga	0		J	
mõned	mõni	d		P	pl n
asjad	asi	d		S	pl n
palus	palu	s		S	sg in
     	palu	s		V	s
kohtu	kohtu	0		V	o
     	kohus	0		S	sg g
mõistuse	mõistus	0		S	sg g
alla	alla	0		D	
    	alla	0		K	
kelle	kes	0		P	pl g
     	kes	0		P	sg g
eest	eest	0		D	
    	eest	0		K	
    	esi	st		S	sg el
mina	mina	0		P	sg n
    	mina	0		S	sg g
    	mina	0		S	sg n
    	mina	0		S	sg p
nii	nii	0		D	
palju	palju	0		D	
     	palju	0		P	sg g
     	palju	0		P	sg n
ei	ei	0		D	
  	ei	0		V	neg
võin	või	n		V	n
kui	kui	0		D	
   	kui	0		J	
nende	see	de		P	pl g
     	tema	de		P	pl g
nõudmine	nõudmine	0		S	sg n
on	ole	0		V	b
  	ole	0		V	vad
nimelt	nimelt	0		D	
      	nimi	lt		S	sg abl
sulaste	sulane	te		S	pl g
pükste	püks	te		S	pl g
ja	ja	0		J	
jalg	jalg	0		S	sg n
rätikute	rätik	te		S	pl g
eest	eest	0		D	
    	eest	0		K	
    	esi	st		S	sg el
ja	ja	0		J	
8	8	0		N	?
põrsa	põrsas	0		S	sg g
eest	eest	0		D	
    	eest	0		K	
    	esi	st		S	sg el
ja	ja	0		J	
suurmed	####				
annan	and	n		V	n
mina	mina	0		P	sg n
    	mina	0		S	sg g
    	mina	0		S	sg n
    	mina	0		S	sg p
neile	see	le		P	pl all
     	tema	le		P	pl all
tagasi	tagasi	0		D	
      	tagasi	0		K	
ja	ja	0		J	
Pihkvas	Pihkva	s		H	sg in
hobuse	hobune	0		S	sg g
käimise	käimine	0		S	sg g
eest	eest	0		D	
    	eest	0		K	
    	esi	st		S	sg el
ei	ei	0		D	
  	ei	0		V	neg
tahan	taht	n		V	n
mina	mina	0		P	sg n
    	mina	0		S	sg g
    	mina	0		S	sg n
    	mina	0		S	sg p
mitte	mitte	0		D	
sugugi	sugugi	0		D	
maksta	maks	ta		V	da
      	maks	ta		V	ta
sellepärast	selle_pärast	0		D	
et	et	0		J	
minu	mina	0		P	sg g
kaerad	kaer	d		S	pl n
ja	ja	0		J	
heinad	hein	d		S	pl n
ühes	üks	s		N	sg in
    	üks	s		P	sg in
    	ühes	0		D	
    	ühes	0		K	
olivad	####				
ja	ja	0		J	
ka	ka	0		D	
minu	mina	0		P	sg g
mees	mees	0		S	sg n
    	mesi	s		S	sg in
man	man	0		D	
   	man	0		K	
oli	ole	i		V	s
ja	ja	0		J	
seda	see	da		P	sg p
maad	maa	d		S	pl n
    	maa	d		S	sg p
iga	iga	0		P	sg g
   	iga	0		P	sg n
   	iga	0		P	sg p
   	iga	0		S	sg n
   	iga	0		S	sg p
heinamaad	heina_maa	d		S	pl n
         	heina_maa	d		S	sg p
ei	ei	0		D	
  	ei	0		V	neg
ole	ole	0		V	o
mina	mina	0		P	sg n
    	mina	0		S	sg g
    	mina	0		S	sg n
    	mina	0		S	sg p
mitte	mitte	0		D	
sennamehele	senna_mees	le		S	sg all
annud	####				
ja	ja	0		J	
see	see	0		P	sg n
võib	või	b		V	b
olla	ole	a		V	da
et	et	0		J	
minu	mina	0		P	sg g
veli	veli	0		S	sg n
Kusta	Kusta	0		H	sg g
     	Kusta	0		H	sg n
     	kuse	ta		V	da
     	kuse	ta		V	ta
on	ole	0		V	b
  	ole	0		V	vad
see	see	0		P	sg n
maa	maa	0		S	sg g
   	maa	0		S	sg n
annud	####				
ja	ja	0		J	
see	see	0		P	sg n
50	50	0		N	?
rublad	rubla	d		S	pl n
oli	ole	i		V	s
ta	tema	0		P	sg g
  	tema	0		P	sg n
küll	küll	0		D	
    	küll	0		S	sg n
mulle	mull	e		S	pl p
     	mina	lle		P	sg all
     	mulle	0		S	sg n
annud	####				
ja	ja	0		J	
see	see	0		P	sg n
raha	raha	0		S	sg g
    	raha	0		S	sg n
    	raha	0		S	sg p
olin	ole	in		V	sin
Kuristjale	####				
kõrtsi	kõrts	0		S	adt
      	kõrts	0		S	sg g
      	kõrts	0		S	sg p
kautsioniks	####				
sisse	siss	e		S	pl p
     	sisse	0		D	
     	sisse	0		K	
maksnud	maks	nud		V	nud
       	maks=nu	d		S	pl n
       	maks=nud	0		A	
       	maks=nud	0		A	sg n
       	maks=nud	d		A	pl n
ja	ja	0		J	
see	see	0		P	sg n
kautsion	####				
oli	ole	i		V	s
nüüd	nüüd	0		D	
sinna	sinna	0		D	
Blangenbergi	####				
võla	võlg	0		S	sg g
eest	eest	0		D	
    	eest	0		K	
    	esi	st		S	sg el
kinni	kinni	0		D	
pantud	####				
ja	ja	0		J	
tema	tema	0		P	sg g
    	tema	0		P	sg n
võib	või	b		V	b
see	see	0		P	sg n
50	50	0		N	?
rubla	rubla	0		S	sg g
     	rubla	0		S	sg n
     	rubla	0		S	sg p
Kuristja	####				
mõisast	mõis	st		S	sg el
nõuda	nõud	a		V	da
.	.			Z	
Peeter	Peeter	0		H	sg n
Blangenberg	####				
tuli	tuli	0		S	sg n
    	tule	i		V	s
ette	ette	0		D	
    	ette	0		K	
    	esi	tte		S	adt
ja	ja	0		J	
ütles	ütle	s		V	s
:	:			Z	
kust	kusi	t		S	sg p
    	kust	0		D	
mina	mina	0		P	sg n
    	mina	0		S	sg g
    	mina	0		S	sg n
    	mina	0		S	sg p
võin	või	n		V	n
seda	see	da		P	sg p
raha	raha	0		S	sg g
    	raha	0		S	sg n
    	raha	0		S	sg p
Kuristjalt	####				
nõuda	nõud	a		V	da
kui	kui	0		D	
   	kui	0		J	
mina	mina	0		P	sg n
    	mina	0		S	sg g
    	mina	0		S	sg n
    	mina	0		S	sg p
ei	ei	0		D	
  	ei	0		V	neg
ole	ole	0		V	o
senna	senna	0		S	sg g
     	senna	0		S	sg n
sisse	siss	e		S	pl p
     	sisse	0		D	
     	sisse	0		K	
maksnud	maks	nud		V	nud
       	maks=nu	d		S	pl n
       	maks=nud	0		A	
       	maks=nud	0		A	sg n
       	maks=nud	d		A	pl n
sest	see	st		P	sg el
    	sest	0		J	
see	see	0		P	sg n
peab	pida	b		V	b
see	see	0		P	sg n
raha	raha	0		S	sg g
    	raha	0		S	sg n
    	raha	0		S	sg p
nõudma	nõud	ma		V	ma
kelle	kes	0		P	pl g
     	kes	0		P	sg g
peale	pea	le		S	sg all
     	peale	0		D	
     	peale	0		K	
kõrtsi	kõrts	0		S	adt
      	kõrts	0		S	sg g
      	kõrts	0		S	sg p
võetud	võe=tu	d		S	pl n
      	võetud	0		A	
      	võetud	0		A	sg n
      	võetud	d		A	pl n
      	võt	tud		V	tud
oli	ole	i		V	s
ja	ja	0		J	
kes	kes	0		P	pl n
   	kes	0		P	sg n
senna	senna	0		S	sg g
     	senna	0		S	sg n
raha	raha	0		S	sg g
    	raha	0		S	sg n
    	raha	0		S	sg p
sisse	siss	e		S	pl p
     	sisse	0		D	
     	sisse	0		K	
maksis	maks	is		V	s
      	maksi	s		S	sg in
.	.			Z	
mõistus	mõistus	0		S	sg n
:	:			Z	
25	25	0		N	?
Vebruaril	####				
1871.	1871.	0		O	?
kohus	kohu	s		V	s
     	kohus	0		S	sg n
mõistis	mõist	is		V	s
et	et	0		J	
Johan	Johan	0		H	sg n
Mina	mina	0		P	sg n
    	mina	0		S	sg g
    	mina	0		S	sg n
    	mina	0		S	sg p
peab	pida	b		V	b
Blangenbergile	####				
8	8	0		N	?
põrsast	põrsas	st		S	sg el
       	põrsas	t		S	sg p
tagasi	tagasi	0		D	
      	tagasi	0		K	
andma	and	ma		V	ma
ehk	ehk	0		D	
   	ehk	0		J	
maksab	maks	b		V	b
rahaga	raha	ga		S	sg kom
5	5	0		N	?
rubla	rubla	0		S	sg g
     	rubla	0		S	sg n
     	rubla	0		S	sg p
90	90	0		N	?
kop	kop	0		Y	?
.	.			Z	
ja	ja	0		J	
annab	and	b		V	b
?	?			Z	
suurmid	####				
ehk	ehk	0		D	
   	ehk	0		J	
maksab	maks	b		V	b
1	1	0		N	?
rubla	rubla	0		S	sg g
     	rubla	0		S	sg n
     	rubla	0		S	sg p
ja	ja	0		J	
Pihkvas	Pihkva	s		H	sg in
käimise	käimine	0		S	sg g
eest	eest	0		D	
    	eest	0		K	
    	esi	st		S	sg el
1	1	0		N	?
rubla	rubla	0		S	sg g
     	rubla	0		S	sg n
     	rubla	0		S	sg p
ja	ja	0		J	
sulase	sulane	0		S	sg g
pükste	püks	te		S	pl g
ja	ja	0		J	
jalg	jalg	0		S	sg n
rätte	rätt	e		S	pl p
pealt	pea	lt		S	sg abl
     	pealt	0		D	
     	pealt	0		K	
2	2	0		N	?
rb	####				
ja	ja	0		J	
see	see	0		P	sg n
kõrtsi	kõrts	0		S	adt
      	kõrts	0		S	sg g
      	kõrts	0		S	sg p
kautsioni	####				
raha	raha	0		S	sg g
    	raha	0		S	sg n
    	raha	0		S	sg p
50	50	0		N	?
rublad	rubla	d		S	pl n
mis	mis	0		P	pl n
   	mis	0		P	sg n
siis	siis	0		D	
    	siis	0		J	
ühe	üks	0		N	sg g
   	üks	0		P	sg g
   	ühe	0		S	sg n
summa	summ	0		S	adt
     	summ	0		S	sg g
     	summ	0		S	sg p
     	summa	0		S	sg g
     	summa	0		S	sg n
välja	välja	0		D	
     	välja	0		V	o
     	väli	0		S	adt
     	väli	0		S	sg g
     	väli	0		S	sg p
teeb	tege	b		V	b
114	114	0		N	?
rubla	rubla	0		S	sg g
     	rubla	0		S	sg n
     	rubla	0		S	sg p
28	28	0		N	?
kop	kop	0		Y	?
.	.			Z	
ja	ja	0		J	
selle	see	0		P	sg g
     	sell	e		S	pl p
maa	maa	0		S	sg g
   	maa	0		S	sg n
ning	ning	0		J	
heinamaa	heina_maa	0		S	sg g
        	heina_maa	0		S	sg n
nõudmise	nõudmine	0		S	sg g
kahju	kahi	0		S	adt
     	kahi	0		S	sg g
     	kahi	0		S	sg p
     	kahju	0		S	sg g
     	kahju	0		S	sg n
     	kahju	0		S	sg p
ei	ei	0		D	
  	ei	0		V	neg
ole	ole	0		V	o
Blangenbergil	####				
õigus	õigus	0		S	sg n
nõuda	nõud	a		V	da
,	,			Z	
ning	ning	0		J	
on	ole	0		V	b
  	ole	0		V	vad
siis	siis	0		D	
    	siis	0		J	
Blangenbergi	####				
ja	ja	0		J	
Mina	mina	0		P	sg n
    	mina	0		S	sg g
    	mina	0		S	sg n
    	mina	0		S	sg p
rehknungi	####				
vahe	vahe	0		A	sg n
    	vahe	0		S	sg g
    	vahe	0		S	sg n
13	13	0		N	?
rubla	rubla	0		S	sg g
     	rubla	0		S	sg n
     	rubla	0		S	sg p
41	41	0		N	?
kop	kop	0		Y	?
.	.			Z	
mis	mis	0		P	pl n
   	mis	0		P	sg n
Johan	Johan	0		H	sg n
Mina	mina	0		P	sg n
    	mina	0		S	sg g
    	mina	0		S	sg n
    	mina	0		S	sg p
peab	pida	b		V	b
Blangenbergile	####				
ära	ära	0		D	
   	ära	0		V	neg o
maksma	maks	ma		V	ma
.	.			Z	
kohtu	kohtu	0		V	o
     	kohus	0		S	sg g
lauas	laud	s		S	sg in
olid	ole	id		V	sid
:	:			Z	
kohtumees	kohtu_mees	0		S	sg n
Johan	Johan	0		H	sg n
rasva	rasv	0		S	adt
     	rasv	0		S	sg g
     	rasva	0		D	
     	rasva	0		V	o
     	rasv	0		S	sg p
""""	""""			Z	
Kaarel	Kaarel	0		H	sg n
      	kaar	l		S	sg ad
      	kaarel	0		S	sg n
Põderson	####				
abikohtumees	abi_kohtu_mees	0		S	sg n
Jaan	Jaan	0		H	sg n
    	jaan	0		S	sg n
    	jaan	0		Y	?
Põderson	####				
kirjutaja	kirjutaja	0		S	sg g
         	kirjutaja	0		S	sg n
asemel	ase	l		S	sg ad
      	asemel	0		K	
:	:			Z	
M. Baumann	####				
/	/			Z	
allkiri	all_kiri	0		S	sg n
/	/			Z	
