Jakob	Jakob	0		H	sg n
Thul	####				
olevat	ole	vat		V	vat
      	olev	t		A	sg p
      	olev	t		S	sg p
Haslava	####				
mõisa	mõis	0		S	sg g
metsast	mets	st		S	sg el
       	metsane	t		A	sg p
1	1	0		N	?
koorm	####				
puid	puu	id		S	pl p
varastanud	varasta	nud		V	nud
          	varasta=nu	d		S	pl n
          	varasta=nud	0		A	
          	varasta=nud	0		A	sg n
          	varasta=nud	d		A	pl n
.	.			Z	
metsavalitsus	metsa_valitsus	0		S	sg n
G. Holts	####				
nõuab	nõud	b		V	b
kahjutasumiseks	kahju_tasumine	ks		S	sg tr
50	50	0		N	?
kop	kop	0		Y	?
.	.			Z	
Jakob	Jakob	0		H	sg n
Thul	####				
vastutab	vastuta	b		V	b
,	,			Z	
et	et	0		J	
tema	tema	0		P	sg g
    	tema	0		P	sg n
ei	ei	0		D	
  	ei	0		V	neg
olevat	ole	vat		V	vat
      	olev	t		A	sg p
      	olev	t		S	sg p
mitte	mitte	0		D	
rohkem	rohkem	0		D	
kui	kui	0		D	
   	kui	0		J	
sullega	####				
toonut	too=nu	t		S	sg p
.	.			Z	
mõistus	mõistus	0		S	sg n
:	:			Z	
Jakob	Jakob	0		H	sg n
Thul	####				
piab	####				
selle	see	0		P	sg g
     	sell	e		S	pl p
puude	puu	de		S	pl g
     	puude	0		S	sg n
     	puue	0		S	sg g
eest	eest	0		D	
    	eest	0		K	
    	esi	st		S	sg el
mõtsavalitsusel	####				
50	50	0		N	?
kop	kop	0		Y	?
.	.			Z	
trahvi	trahv	0		S	adt
      	trahv	0		S	sg g
      	trahvi	0		V	o
      	trahv	0		S	sg p
maksma	maks	ma		V	ma
.	.			Z	
Peakohtumees	pea_kohtu_mees	0		S	sg n
Johan	Johan	0		H	sg n
Toom	toom	0		S	sg n
XXX	XXX	0		O	?
   	XXX	0		Y	?
kohtumees	kohtu_mees	0		S	sg n
Jaan	Jaan	0		H	sg n
    	jaan	0		S	sg n
    	jaan	0		Y	?
Virro	####				
XXX	XXX	0		O	?
   	XXX	0		Y	?
kohtumees	kohtu_mees	0		S	sg n
Jüri	Jüri	0		H	sg g
    	Jüri	0		H	sg n
Luha	luht	0		S	sg g
XXX	XXX	0		O	?
   	XXX	0		Y	?
kohtumees	kohtu_mees	0		S	sg n
Jüri	Jüri	0		H	sg g
    	Jüri	0		H	sg n
kärn	kärn	0		S	sg n
XXX	XXX	0		O	?
   	XXX	0		Y	?
mõistus	mõistus	0		S	sg n
sai	saa	i		V	s
   	sai	0		S	sg n
kuulutud	kuulu	tud		V	tud
        	kuulu=tu	d		S	pl n
        	kuulu=tud	0		A	
        	kuulu=tud	0		A	sg n
        	kuulu=tud	d		A	pl n
ning	ning	0		J	
suurema	suurem	0		C	sg g
kohtukäimise	kohtu_käimine	0		S	sg g
õppetuse	õppe=tus	0		S	sg g
kirja	kirja	0		A	
     	kirja	0		V	o
     	kiri	0		S	adt
     	kiri	0		S	sg g
     	kiri	0		S	sg p
välja	välja	0		D	
     	välja	0		V	o
     	väli	0		S	adt
     	väli	0		S	sg g
     	väli	0		S	sg p
andud	andu	d		V	d
.	.			Z	
