Lubevi	####				
kohtumajas	kohtu_maja	s		S	sg in
sel	see	l		P	sg ad
   	sel	0		Y	?
17	17	0		N	?
märtsil	märts	l		S	sg ad
1872	1872	0		N	?
oli	ole	i		V	s
kog	####				
.	.			Z	
kohus	kohu	s		V	s
     	kohus	0		S	sg n
peakohtumees	pea_kohtu_mees	0		S	sg n
Märt	Märt	0		H	sg n
Oja	oja	0		S	sg g
   	oja	0		S	sg n
   	oja	0		S	sg p
kohtumees	kohtu_mees	0		S	sg n
Peeter	Peeter	0		H	sg n
Visnapuu	visna_puu	0		S	sg g
        	visna_puu	0		S	sg n
Jaak	Jaak	0		H	sg n
    	jaak	0		S	sg n
Sillmann	####				
kaebas	kaeba	s		V	s
J	J	0		Y	?
Freuman	####				
et	et	0		J	
Johan	Johan	0		H	sg n
Krimpe	####				
on	ole	0		V	b
  	ole	0		V	vad
tema	tema	0		P	sg g
    	tema	0		P	sg n
kartufli	####				
ära	ära	0		D	
   	ära	0		V	neg o
söötnud	sööt	nud		V	nud
       	sööt=nu	d		S	pl n
       	sööt=nud	0		A	
       	sööt=nud	0		A	sg n
       	sööt=nud	d		A	pl n
