Haslava	####				
kogukonna	kogukond	0		S	sg g
kohus	kohu	s		V	s
     	kohus	0		S	sg n
sel	see	l		P	sg ad
   	sel	0		Y	?
4	4	0		N	?
Juunil	juuni	l		S	sg ad
1884.	1884.	0		O	?
man	man	0		D	
   	man	0		K	
olid	ole	id		V	sid
:	:			Z	
peakohtumees	pea_kohtu_mees	0		S	sg n
:	:			Z	
Jaan	Jaan	0		H	sg n
    	jaan	0		S	sg n
    	jaan	0		Y	?
Ling	ling	0		S	sg n
kohtumees	kohtu_mees	0		S	sg n
:	:			Z	
Johan	Johan	0		H	sg n
Klaosen	####				
Peeter	Peeter	0		H	sg n
Ivan	Ivan	0		H	sg n
Johan	Johan	0		H	sg n
Grossberg	####				
keiserliku	keiserlik	0		A	sg g
4ta	4	ta		N	sg ab
Tartu	Tartu	0		H	adt
     	Tartu	0		H	sg g
     	Tartu	0		H	sg n
     	tartu	0		G	
Kihelkonna	Kihelkonna	0		H	sg g
          	kihelkond	0		S	sg g
          	Kihelkonna	0		H	sg n
kohtu	kohtu	0		V	o
     	kohus	0		S	sg g
käsu	käsk	0		S	sg g
peale	pea	le		S	sg all
     	peale	0		D	
     	peale	0		K	
sest	see	st		P	sg el
    	sest	0		J	
24	24	0		N	?
maist	maa	ist		S	pl el
     	mai	st		S	sg el
     	maine	t		A	sg p
s	s	0		Y	?
.	.			Z	
a	a	0		Y	?
Nr	Nr	0		Y	?
3130	3130	0		N	?
sai	saa	i		V	s
   	sai	0		S	sg n
tänasel	tänane	l		A	sg ad
päeval	päev	l		S	sg ad
Jüri	Jüri	0		H	sg g
    	Jüri	0		H	sg n
Kitsiku	kitsik	0		A	sg g
palk	palk	0		S	sg n
4	4	0		N	?
rubl	####				
35	35	0		N	?
cop	####				
Endrik	Endrik	0		H	sg n
mälkud	####				
heaks	hea	ks		A	sg tr
     	hea	ks		S	sg tr
     	heaks	0		D	
     	heaks	0		K	
Jaan	Jaan	0		H	sg n
    	jaan	0		S	sg n
    	jaan	0		Y	?
Saviku	####				
kätte	kätte	0		K	
     	käsi	tte		S	adt
kinni	kinni	0		D	
keelatud	keela	tud		V	tud
        	keelatu	d		S	pl n
        	keelatud	0		A	
        	keelatud	0		A	sg n
        	keelatud	d		A	pl n
,	,			Z	
mis	mis	0		P	pl n
   	mis	0		P	sg n
raha	raha	0		S	sg g
    	raha	0		S	sg n
    	raha	0		S	sg p
Savik	####				
Mihklipäeval	mihkli_päev	l		S	sg ad
1884	1884	0		N	?
selle	see	0		P	sg g
     	sell	e		S	pl p
kohtu	kohtu	0		V	o
     	kohus	0		S	sg g
kätte	kätte	0		K	
     	käsi	tte		S	adt
välja	välja	0		D	
     	välja	0		V	o
     	väli	0		S	adt
     	väli	0		S	sg g
     	väli	0		S	sg p
maksma	maks	ma		V	ma
peab	pida	b		V	b
,	,			Z	
kust	kusi	t		S	sg p
    	kust	0		D	
siis	siis	0		D	
    	siis	0		J	
Endrik	Endrik	0		H	sg n
mälk	####				
kätte	kätte	0		K	
     	käsi	tte		S	adt
saab	saa	b		V	b
.	.			Z	
otsus	otsus	0		S	sg n
:	:			Z	
seda	see	da		P	sg p
protokolli	protokoll	0		S	adt
          	protokoll	0		S	sg g
          	protokolli	0		V	o
          	protokoll	0		S	sg p
üles	üles	0		D	
panna	pand	0		S	sg g
     	pane	a		V	da
     	panna	0		S	sg g
     	panna	0		S	sg n
.	.			Z	
peakohtumees	pea_kohtu_mees	0		S	sg n
J. Ling	####				
/	/			Z	
allkiri	all_kiri	0		S	sg n
/	/			Z	
kohtumees	kohtu_mees	0		S	sg n
Johan	Johan	0		H	sg n
Klaosen	####				
XXX	XXX	0		O	?
   	XXX	0		Y	?
""""	""""			Z	
Peeter	Peeter	0		H	sg n
Ivan	Ivan	0		H	sg n
/	/			Z	
allkiri	all_kiri	0		S	sg n
/	/			Z	
""""	""""			Z	
Johan	Johan	0		H	sg n
Krusberg	####				
/	/			Z	
allkiri	all_kiri	0		S	sg n
/	/			Z	
sel	see	l		P	sg ad
   	sel	0		Y	?
22	22	0		N	?
Oktbr	####				
1884	1884	0		N	?
sai	saa	i		V	s
   	sai	0		S	sg n
4	4	0		N	?
rubl	####				
35	35	0		N	?
Cop	####				
Hendrik	Hendrik	0		H	sg n
Mälkule	####				
valla	vald	0		S	sg g
     	valla	0		D	
maksetud	makse=tu	d		A	pl n
.	.			Z	
Hendrik	Hendrik	0		H	sg n
mälk	####				
/	/			Z	
allkiri	all_kiri	0		S	sg n
/	/			Z	
