kaebas	kaeba	s		V	s
Metsavaht	metsa_vaht	0		S	sg n
Mihkel	Mihkel	0		H	sg n
      	mihkel	0		A	sg n
      	mihkel	0		S	sg n
Pärn	pärn	0		S	sg n
et	et	0		J	
Juhan	Juhan	0		H	sg n
Tomi	Tom	0		H	adt
    	Tom	0		H	sg g
    	Tom	0		H	sg p
on	ole	0		V	b
  	ole	0		V	vad
üks	üks	0		N	sg n
   	üks	0		P	sg n
männi	mänd	0		S	sg g
pu	####				
varastanud	varasta	nud		V	nud
          	varasta=nu	d		S	pl n
          	varasta=nud	0		A	
          	varasta=nud	0		A	sg n
          	varasta=nud	d		A	pl n
ja	ja	0		J	
maksis	maks	is		V	s
      	maksi	s		S	sg in
selle	see	0		P	sg g
     	sell	e		S	pl p
eest	eest	0		D	
    	eest	0		K	
    	esi	st		S	sg el
1	1	0		N	?
R	R	0		Y	?
:	:			Z	
28	28	0		N	?
K	K	0		Y	?
:	:			Z	
Jüri	Jüri	0		H	sg g
    	Jüri	0		H	sg n
Aaab	####				
on	ole	0		V	b
  	ole	0		V	vad
2	2	0		N	?
kase	kask	0		S	sg g
puud	puu	d		S	pl n
    	puud	0		S	sg n
    	puu	d		S	sg p
varastanud	varasta	nud		V	nud
          	varasta=nu	d		S	pl n
          	varasta=nud	0		A	
          	varasta=nud	0		A	sg n
          	varasta=nud	d		A	pl n
ja	ja	0		J	
maksis	maks	is		V	s
      	maksi	s		S	sg in
nende	see	de		P	pl g
     	tema	de		P	pl g
eest	eest	0		D	
    	eest	0		K	
    	esi	st		S	sg el
1	1	0		N	?
R	R	0		Y	?
:	:			Z	
36	36	0		N	?
K	K	0		Y	?
:	:			Z	
Jüri	Jüri	0		H	sg g
    	Jüri	0		H	sg n
Õunn	####				
on	ole	0		V	b
  	ole	0		V	vad
üks	üks	0		N	sg n
   	üks	0		P	sg n
männi	mänd	0		S	sg g
pu	####				
varastanud	varasta	nud		V	nud
          	varasta=nu	d		S	pl n
          	varasta=nud	0		A	
          	varasta=nud	0		A	sg n
          	varasta=nud	d		A	pl n
ja	ja	0		J	
maksis	maks	is		V	s
      	maksi	s		S	sg in
selle	see	0		P	sg g
     	sell	e		S	pl p
eest	eest	0		D	
    	eest	0		K	
    	esi	st		S	sg el
1	1	0		N	?
R	R	0		Y	?
:	:			Z	
28	28	0		N	?
K	K	0		Y	?
:	:			Z	
Jaan	Jaan	0		H	sg n
    	jaan	0		S	sg n
    	jaan	0		Y	?
Lep	####				
on	ole	0		V	b
  	ole	0		V	vad
2	2	0		N	?
Kuse	kusi	0		S	sg g
    	kuse	0		V	o
puud	puu	d		S	pl n
    	puud	0		S	sg n
    	puu	d		S	sg p
varastanud	varasta	nud		V	nud
          	varasta=nu	d		S	pl n
          	varasta=nud	0		A	
          	varasta=nud	0		A	sg n
          	varasta=nud	d		A	pl n
ja	ja	0		J	
maksis	maks	is		V	s
      	maksi	s		S	sg in
nende	see	de		P	pl g
     	tema	de		P	pl g
eest	eest	0		D	
    	eest	0		K	
    	esi	st		S	sg el
1	1	0		N	?
R	R	0		Y	?
:	:			Z	
36	36	0		N	?
K	K	0		Y	?
:	:			Z	
seda	see	da		P	sg p
tunnistab	tunnista	b		V	b
kohtomees	####				
Juhan	Juhan	0		H	sg n
Tomi	Tom	0		H	adt
    	Tom	0		H	sg g
    	Tom	0		H	sg p
:	:			Z	
