Ilmus	ilmu	s		V	s
kohtu	kohtu	0		V	o
     	kohus	0		S	sg g
ette	ette	0		D	
    	ette	0		K	
    	esi	tte		S	adt
Peeter	Peeter	0		H	sg n
Laabasin	####				
Jaani	Jaan	0		H	adt
     	Jaan	0		H	sg g
     	Jaani	0		H	sg g
     	jaan	0		S	adt
     	jaan	0		S	sg g
     	Jaan	0		H	sg p
     	Jaani	0		H	sg n
     	jaan	0		S	sg p
poeg	poeg	0		S	sg n
ja	ja	0		J	
palus-	palu	s		S	sg in
tema	tema	0		P	sg g
    	tema	0		P	sg n
poolt	pool	t		N	sg p
     	pool	t		S	sg p
     	poolt	0		D	
     	poolt	0		K	
selle	see	0		P	sg g
     	sell	e		S	pl p
19	19	0		N	?
Oktoobril	oktoober	l		S	sg ad
1902	1902	0		N	?
aasta	aasta	0		S	sg g
     	aasta	0		S	sg n
13ule	####				
sell	sell	0		S	sg n
vallakohtu	valla_kohus	0		S	sg g
raamatusse	raamat	sse		S	sg ill
üle	üle	0		D	
   	üle	0		K	
pantud	####				
oma	oma	0		A	sg g
   	oma	0		D	
   	oma	0		P	sg g
   	oma	0		S	sg g
   	oma	0		V	o
   	oma	0		A	sg n
   	oma	0		A	sg p
   	oma	0		P	sg n
   	oma	0		P	sg p
   	oma	0		S	sg n
   	oma	0		S	sg p
testamendi	testament	0		S	sg g
.	.			Z	
Erne	####				
talu	talu	0		S	sg g
    	talu	0		V	o
    	talu	0		S	sg n
    	talu	0		S	sg p
kohta	koht	0		S	adt
     	kohta	0		K	
     	kohta	0		V	o
     	koht	0		S	sg p
maha	maha	0		D	
kuuldavaks	kuuldav	ks		A	sg tr
seda	see	da		P	sg p
testamendi	testament	0		S	sg g
tühjaks	tühi	ks		A	sg tr
sees	sees	0		D	
    	sees	0		K	
üles	üles	0		D	
andis	and	is		V	s
,	,			Z	
et	et	0		J	
tema	tema	0		P	sg g
    	tema	0		P	sg n
praegu	praegu	0		D	
oma	oma	0		A	sg g
   	oma	0		D	
   	oma	0		P	sg g
   	oma	0		S	sg g
   	oma	0		V	o
   	oma	0		A	sg n
   	oma	0		A	sg p
   	oma	0		P	sg n
   	oma	0		P	sg p
   	oma	0		S	sg n
   	oma	0		S	sg p
päranduse	pärandus	0		S	sg g
kohta	koht	0		S	adt
     	kohta	0		K	
     	kohta	0		V	o
     	koht	0		S	sg p
mingit	mingi	t		P	sg p
testamendi	testament	0		S	sg g
ei	ei	0		D	
  	ei	0		V	neg
tee	tee	0		S	sg g
   	tege	0		V	o
   	tee	0		S	sg n
.	.			Z	
Peetri	Peeter	0		H	sg g
      	Peetri	0		H	sg g
      	Peetri	0		H	sg n
Jaani	Jaan	0		H	adt
     	Jaan	0		H	sg g
     	Jaani	0		H	sg g
     	jaan	0		S	adt
     	jaan	0		S	sg g
     	Jaan	0		H	sg p
     	Jaani	0		H	sg n
     	jaan	0		S	sg p
poeg	poeg	0		S	sg n
Paerasin	####				
aga	aga	0		J	
A	A	0		Y	?
kirjutada	kirjuta	da		V	da
ei	ei	0		D	
  	ei	0		V	neg
oska	oska	0		V	o
,	,			Z	
kirjutas	kirjuta	s		V	s
tema	tema	0		P	sg g
    	tema	0		P	sg n
palvel	palve	l		S	sg ad
alus	alg	s		S	sg in
    	alus	0		S	sg n
kuusla	####				
kuuljärv	kuul_järv	0		S	sg n
et	et	0		J	
Peeter	Peeter	0		H	sg n
Jaani	Jaan	0		H	adt
     	Jaan	0		H	sg g
     	Jaani	0		H	sg g
     	jaan	0		S	adt
     	jaan	0		S	sg g
     	Jaan	0		H	sg p
     	Jaani	0		H	sg n
     	jaan	0		S	sg p
poeg	poeg	0		S	sg n
Laabasin	####				
oma	oma	0		A	sg g
   	oma	0		D	
   	oma	0		P	sg g
   	oma	0		S	sg g
   	oma	0		V	o
   	oma	0		A	sg n
   	oma	0		A	sg p
   	oma	0		P	sg n
   	oma	0		P	sg p
   	oma	0		S	sg n
   	oma	0		S	sg p
sele	####				
19Oktobril	####				
1920.	1920.	0		O	?
tehtud	tehtu	d		S	pl n
      	tehtud	0		A	
      	tehtud	0		A	sg n
      	tehtud	d		A	pl n
      	tege	tud		V	tud
testamendi	testament	0		S	sg g
selge	selge	0		A	sg g
     	selge	0		A	sg n
meele	meel	0		S	sg g
     	mesi	le		S	sg all
ja	ja	0		J	
terve	terve	0		A	sg g
     	terve	0		A	sg n
     	terve	0		S	sg g
     	terve	0		S	sg n
mõistuse	mõistus	0		S	sg g
juures	juur	s		S	sg in
      	juures	0		D	
      	juures	0		K	
oleks	ole	ks		V	ks
ümberhinanud	####				
tühjaks	tühi	ks		A	sg tr
on	ole	0		V	b
  	ole	0		V	vad
teinud	tege	nud		V	nud
      	tei=nud	0		A	
      	tei=nud	0		A	sg n
      	tei=nud	d		A	pl n
      	teinu	d		S	pl n
ja	ja	0		J	
tema	tema	0		P	sg g
    	tema	0		P	sg n
selle	see	0		P	sg g
     	sell	e		S	pl p
kohtule	kohus	le		S	sg all
taastatud	taasta	tud		V	tud
         	taasta=tu	d		S	pl n
         	taasta=tud	0		A	
         	taasta=tud	0		A	sg n
         	taasta=tud	d		A	pl n
on	ole	0		V	b
  	ole	0		V	vad
ja	ja	0		J	
et	et	0		J	
tema	tema	0		P	sg g
    	tema	0		P	sg n
palvel	palve	l		S	sg ad
tema	tema	0		P	sg g
    	tema	0		P	sg n
ust	uks	t		S	sg p
   	ust	0		I	
kohtule	kohus	le		S	sg all
tuntud	tund	tud		V	tud
      	tuntu	d		S	pl n
      	tuntud	0		A	
      	tuntud	0		A	sg n
      	tuntud	d		A	pl n
kurka	####				
Hajat	####				
oma	oma	0		A	sg g
   	oma	0		D	
   	oma	0		P	sg g
   	oma	0		S	sg g
   	oma	0		V	o
   	oma	0		A	sg n
   	oma	0		A	sg p
   	oma	0		P	sg n
   	oma	0		P	sg p
   	oma	0		S	sg n
   	oma	0		S	sg p
nime	nimi	0		S	sg g
    	nimi	0		S	sg p
on	ole	0		V	b
  	ole	0		V	vad
allkirjastanud	all_kirjasta	nud		V	nud
              	all_kirjasta=nu	d		S	pl n
              	all_kirjasta=nud	0		A	
              	all_kirjasta=nud	0		A	sg n
              	all_kirjasta=nud	d		A	pl n
,	,			Z	
-	-			Z	
saab	saa	b		V	b
seega	seega	0		D	
tunnistatud	tunnista	tud		V	tud
           	tunnista=tu	d		S	pl n
           	tunnista=tud	0		A	
           	tunnista=tud	0		A	sg n
           	tunnista=tud	d		A	pl n
.	.			Z	
