Sel	see	l		P	sg ad
   	sel	0		Y	?
18mal	####				
Veebruaril	veebruar	l		S	sg ad
1872.	1872.	0		O	?
Mõistis	mõist	is		V	s
kohus	kohu	s		V	s
     	kohus	0		S	sg n
Jaan	Jaan	0		H	sg n
    	jaan	0		S	sg n
    	jaan	0		Y	?
Aani	####				
kahte	kaks	0		N	adt
     	kaks	0		N	sg p
kordse	kordne	0		A	sg g
      	kordne	0		S	sg g
Kohtu	kohtu	0		V	o
     	kohus	0		S	sg g
käsu	käsk	0		S	sg g
vastapanemise	####				
pärast	pära	st		S	sg el
      	pärane	t		A	sg p
      	pärast	0		D	
      	pärast	0		K	
,	,			Z	
peab	pida	b		V	b
Jaan	Jaan	0		H	sg n
    	jaan	0		S	sg n
    	jaan	0		Y	?
üks	üks	0		N	sg n
   	üks	0		P	sg n
rubel	####				
kogukonna	kogukond	0		S	sg g
laekan	####				
trahvi	trahv	0		S	adt
      	trahv	0		S	sg g
      	trahvi	0		V	o
      	trahv	0		S	sg p
maksma	maks	ma		V	ma
ja	ja	0		J	
selle	see	0		P	sg g
     	sell	e		S	pl p
pärast	pära	st		S	sg el
      	pärane	t		A	sg p
      	pärast	0		D	
      	pärast	0		K	
et	et	0		J	
kohtumees	kohtu_mees	0		S	sg n
kord	kord	0		D	
    	kord	0		S	sg n
järel	järel	0		D	
     	järel	0		K	
käenud	####				
25	25	0		N	?
kop	kop	0		Y	?
:	:			Z	
selle	see	0		P	sg g
     	sell	e		S	pl p
ees	ees	0		D	
   	ees	0		K	
   	esi	s		S	sg in
.	.			Z	
Maddis	####				
Vadi	vadi	0		S	sg g
    	vadi	0		V	o
    	vadi	0		S	sg n
    	vadi	0		S	sg p
+	+			Z	
+	+			Z	
+	+			Z	
elias	####				
Kubjas	kubjas	0		S	sg n
+	+			Z	
+	+			Z	
+	+			Z	
Reinholt	####				
Tamm	tamm	0		S	sg n
+	+			Z	
+	+			Z	
+	+			Z	
