tüli	tüli	0		S	sg g
    	tüli	0		S	sg n
    	tüli	0		S	sg p
ette	ette	0		D	
    	ette	0		K	
    	esi	tte		S	adt
Mari	Mari	0		H	sg g
    	mari	0		S	sg g
    	mari	0		S	sg n
    	Mari	0		H	sg n
    	mari	0		S	sg p
Kriis	kriis	0		S	sg n
ja	ja	0		J	
kaebas	kaeba	s		V	s
Aadam	Aadam	0		H	sg n
Matsoni	####				
man	man	0		D	
   	man	0		K	
seistes	seis	tes		V	des
:	:			Z	
tema	tema	0		P	sg g
    	tema	0		P	sg n
mees	mees	0		S	sg n
    	mesi	s		S	sg in
Mihkel	Mihkel	0		H	sg n
      	mihkel	0		A	sg n
      	mihkel	0		S	sg n
Kriis	kriis	0		S	sg n
ei	ei	0		D	
  	ei	0		V	neg
pia	####				
temaga	tema	ga		P	sg kom
rahulikult	rahulik	lt		A	sg abl
          	rahulikult	0		D	
elama	ela	ma		V	ma
,	,			Z	
vaid	vaid	0		D	
    	vaid	0		J	
piab	####				
teda	tema	da		P	sg p
ära	ära	0		D	
   	ära	0		V	neg o
aeama	####				
ja	ja	0		J	
tare	tare	0		S	sg g
    	tare	0		S	sg n
,	,			Z	
mis	mis	0		P	pl n
   	mis	0		P	sg n
tema	tema	0		P	sg g
    	tema	0		P	sg n
oma	oma	0		A	sg g
   	oma	0		D	
   	oma	0		P	sg g
   	oma	0		S	sg g
   	oma	0		V	o
   	oma	0		A	sg n
   	oma	0		A	sg p
   	oma	0		P	sg n
   	oma	0		P	sg p
   	oma	0		S	sg n
   	oma	0		S	sg p
on	ole	0		V	b
  	ole	0		V	vad
,	,			Z	
ära	ära	0		D	
   	ära	0		V	neg o
palutada	####				
ähvardama	ähvarda	ma		V	ma
ning	ning	0		J	
palub	palu	b		V	b
,	,			Z	
et	et	0		J	
kohus	kohu	s		V	s
     	kohus	0		S	sg n
tema	tema	0		P	sg g
    	tema	0		P	sg n
meest	meene	t		A	sg p
     	mees	t		S	sg p
     	mesi	st		S	sg el
noommiks	####				
.	.			Z	
Mihkel	Mihkel	0		H	sg n
      	mihkel	0		A	sg n
      	mihkel	0		S	sg n
Kriis	kriis	0		S	sg n
selle	see	0		P	sg g
     	sell	e		S	pl p
üle	üle	0		D	
   	üle	0		K	
küsitud	küsi	tud		V	tud
       	küsi=tu	d		S	pl n
       	küsi=tud	0		A	
       	küsi=tud	0		A	sg n
       	küsi=tud	d		A	pl n
,	,			Z	
ütles	ütle	s		V	s
välja	välja	0		D	
     	välja	0		V	o
     	väli	0		S	adt
     	väli	0		S	sg g
     	väli	0		S	sg p
:	:			Z	
tema	tema	0		P	sg g
    	tema	0		P	sg n
on	ole	0		V	b
  	ole	0		V	vad
ennegi	ennegi	0		D	
oma	oma	0		A	sg g
   	oma	0		D	
   	oma	0		P	sg g
   	oma	0		S	sg g
   	oma	0		V	o
   	oma	0		A	sg n
   	oma	0		A	sg p
   	oma	0		P	sg n
   	oma	0		P	sg p
   	oma	0		S	sg n
   	oma	0		S	sg p
naisele	naine	le		S	sg all
ütelnud	ütle	nud		V	nud
       	ütel=nu	d		S	pl n
       	ütel=nud	0		A	
       	ütel=nud	0		A	sg n
       	ütel=nud	d		A	pl n
,	,			Z	
et	et	0		J	
kui	kui	0		D	
   	kui	0		J	
see	see	0		P	sg n
temaga	tema	ga		P	sg kom
rahulikult	rahulik	lt		A	sg abl
          	rahulikult	0		D	
ei	ei	0		D	
  	ei	0		V	neg
taha	taht	0		V	o
    	taha	0		D	
    	taha	0		K	
elada	ela	da		V	da
,	,			Z	
siis	siis	0		D	
    	siis	0		J	
võivad	või	vad		V	vad
      	võiv	d		A	pl n
ära	ära	0		D	
   	ära	0		V	neg o
mina	mina	0		P	sg n
    	mina	0		S	sg g
    	mina	0		S	sg n
    	mina	0		S	sg p
,	,			Z	
tare	tare	0		S	sg g
    	tare	0		S	sg n
ei	ei	0		D	
  	ei	0		V	neg
ole	ole	0		V	o
tema	tema	0		P	sg g
    	tema	0		P	sg n
lubanud	luba	nud		V	nud
       	luba=nu	d		S	pl n
       	luba=nud	0		A	
       	luba=nud	0		A	sg n
       	luba=nud	d		A	pl n
palutada	####				
,	,			Z	
vaid	vaid	0		D	
    	vaid	0		J	
oma	oma	0		A	sg g
   	oma	0		D	
   	oma	0		P	sg g
   	oma	0		S	sg g
   	oma	0		V	o
   	oma	0		A	sg n
   	oma	0		A	sg p
   	oma	0		P	sg n
   	oma	0		P	sg p
   	oma	0		S	sg n
   	oma	0		S	sg p
kraami	kraam	0		S	adt
      	kraam	0		S	sg g
      	kraami	0		V	o
      	kraam	0		S	sg p
,	,			Z	
sest	see	st		P	sg el
    	sest	0		J	
temal	tema	l		P	sg ad
on	ole	0		V	b
  	ole	0		V	vad
omaga	oma	ga		A	sg kom
     	oma	ga		P	sg kom
     	oma	ga		S	sg kom
loa	luba	0		S	sg g
   	luga	0		S	sg g
teha	tege	a		V	da
,	,			Z	
mis	mis	0		P	pl n
   	mis	0		P	sg n
tahab	taht	b		V	b
.	.			Z	
mõistus	mõistus	0		S	sg n
:	:			Z	
Mihkel	Mihkel	0		H	sg n
      	mihkel	0		A	sg n
      	mihkel	0		S	sg n
Kriis	kriis	0		S	sg n
peab	pida	b		V	b
edespidi	####				
oma	oma	0		A	sg g
   	oma	0		D	
   	oma	0		P	sg g
   	oma	0		S	sg g
   	oma	0		V	o
   	oma	0		A	sg n
   	oma	0		A	sg p
   	oma	0		P	sg n
   	oma	0		P	sg p
   	oma	0		S	sg n
   	oma	0		S	sg p
naisega	naine	ga		S	sg kom
rahulikult	rahulik	lt		A	sg abl
          	rahulikult	0		D	
elama	ela	ma		V	ma
ja	ja	0		J	
saab	saa	b		V	b
palutada	####				
ähvardamise	ähvardamine	0		S	sg g
eest	eest	0		D	
    	eest	0		K	
    	esi	st		S	sg el
kolmeks	kolm	ks		N	sg tr
ööks	öö	ks		S	sg tr
ja	ja	0		J	
peavaks	####				
trahviks	trahv	ks		S	sg tr
        	trahvi	ks		V	ks
kinni	kinni	0		D	
pantud	####				
.	.			Z	
Peakohtumees	pea_kohtu_mees	0		S	sg n
:	:			Z	
Peeter	Peeter	0		H	sg n
Kripson	####				
XXX	XXX	0		O	?
   	XXX	0		Y	?
kohtumees	kohtu_mees	0		S	sg n
:	:			Z	
Peeter	Peeter	0		H	sg n
Hendrikson	####				
XXX	XXX	0		O	?
   	XXX	0		Y	?
kohtumees	kohtu_mees	0		S	sg n
:	:			Z	
Kusta	Kusta	0		H	sg g
     	Kusta	0		H	sg n
     	kuse	ta		V	da
     	kuse	ta		V	ta
Ivanthal	####				
XXX	XXX	0		O	?
   	XXX	0		Y	?
kohtumees	kohtu_mees	0		S	sg n
:	:			Z	
koha	koht	0		S	sg g
    	koha	0		S	sg g
    	koha	0		V	o
    	koha	0		S	sg n
    	koha	0		S	sg p
Vosmann	####				
XXX	XXX	0		O	?
   	XXX	0		Y	?
kohtumees	kohtu_mees	0		S	sg n
:	:			Z	
Johan	Johan	0		H	sg n
Klaosoon	####				
kohtumees	kohtu_mees	0		S	sg n
:	:			Z	
Jaan	Jaan	0		H	sg n
    	jaan	0		S	sg n
    	jaan	0		Y	?
Hansing	####				
mõistus	mõistus	0		S	sg n
sai	saa	i		V	s
   	sai	0		S	sg n
kohtukäijatele	kohtu_käija	tele		S	pl all
T	T	0		Y	?
.	.			Z	
S	S	0		Y	?
.	.			Z	
R	R	0		Y	?
.	.			Z	
perra	####				
a.	a	0		Y	?
1860	1860	0		N	?
§	§	0		Y	?
772	772	0		N	?
-	-			Z	
774	774	0		N	?
kuulutud	kuulu	tud		V	tud
        	kuulu=tu	d		S	pl n
        	kuulu=tud	0		A	
        	kuulu=tud	0		A	sg n
        	kuulu=tud	d		A	pl n
ja	ja	0		J	
olid	ole	id		V	sid
kohtukäijad	kohtu_käija	d		S	pl n
sellega	see	ga		P	sg kom
rahul	rahu	l		S	sg ad
     	rahul	0		D	
ning	ning	0		J	
istus	ist	s		S	sg in
     	istu	s		V	s
Mihkel	Mihkel	0		H	sg n
      	mihkel	0		A	sg n
      	mihkel	0		S	sg n
Kriis	kriis	0		S	sg n
trahvi	trahv	0		S	adt
      	trahv	0		S	sg g
      	trahvi	0		V	o
      	trahv	0		S	sg p
ära	ära	0		D	
   	ära	0		V	neg o
.	.			Z	
