Protokoli	####				
peale	pea	le		S	sg all
     	peale	0		D	
     	peale	0		K	
31	31	0		N	?
Märtsist	märts	st		S	sg el
s	s	0		Y	?
.	.			Z	
a.	a	0		Y	?
N	N	0		Y	?
.	.			Z	
54	54	0		N	?
sai	saa	i		V	s
   	sai	0		S	sg n
ettekutsutud	ette_kutsutu	d		S	pl n
            	ette_kutsutud	0		A	
            	ette_kutsutud	0		A	sg n
            	ette_kutsutud	d		A	pl n
Jaan	Jaan	0		H	sg n
    	jaan	0		S	sg n
    	jaan	0		Y	?
Kubja	####				
ja	ja	0		J	
ei	ei	0		D	
  	ei	0		V	neg
teadnud	tead	nud		V	nud
       	tead=nu	d		S	pl n
       	tead=nud	0		A	
       	tead=nud	0		A	sg n
       	tead=nud	d		A	pl n
selles	see	s		P	sg in
asjas	asi	s		S	sg in
kedagi	keegi	dagi		P	sg p
ülesanda	####				
.	.			Z	
ettekutsutud	ette_kutsutu	d		S	pl n
            	ette_kutsutud	0		A	
            	ette_kutsutud	0		A	sg n
            	ette_kutsutud	d		A	pl n
Josep	####				
Rosenberg	Rosenberg	0		H	sg n
,	,			Z	
endine	endine	0		A	sg n
valla	vald	0		S	sg g
     	valla	0		D	
võõrmündri	####				
ja	ja	0		J	
andis	and	is		V	s
üles	üles	0		D	
et	et	0		J	
se	####				
Kustav	kus=tav	0		A	sg n
      	kuse	tav		V	tav
edro	####				
pearaha	pea_raha	0		S	sg g
       	pea_raha	0		S	sg n
       	pea_raha	0		S	sg p
võlg	võlg	0		S	sg n
Hendrik	Hendrik	0		H	sg n
Horni	####				
poolt	pool	t		N	sg p
     	pool	t		S	sg p
     	poolt	0		D	
     	poolt	0		K	
mitte	mitte	0		D	
äratasutud	ära_tasu=tu	d		S	pl n
          	ära_tasu=tud	0		A	
          	ära_tasu=tud	0		A	sg n
          	ära_tasu=tud	d		A	pl n
ei	ei	0		D	
  	ei	0		V	neg
ole	ole	0		V	o
sellepärast	selle_pärast	0		D	
on	ole	0		V	b
  	ole	0		V	vad
see	see	0		P	sg n
raamat	raamat	0		S	sg n
ka	ka	0		D	
vallakappi	valla_kapp	0		S	adt
          	valla_kapp	0		S	sg p
pantud	####				
.	.			Z	
Otsus	otsus	0		S	sg n
vallavanem	valla_vanem	0		S	sg n
Kustav	kus=tav	0		A	sg n
      	kuse	tav		V	tav
kokka	kokk	0		S	adt
     	kokka	0		V	o
     	kokk	0		S	sg p
ja	ja	0		J	
Hendrik	Hendrik	0		H	sg n
Horn	####				
tunnistuste	tunnistus	te		S	pl g
kuulutuseks	kuulutus	ks		S	sg tr
ettetarvitada	####				
.	.			Z	
Peakohtumees	pea_kohtu_mees	0		S	sg n
.	.			Z	
kohtumees	kohtu_mees	0		S	sg n
abi	abi	0		S	sg g
   	abi	0		S	sg n
   	abi	0		S	sg p
kohtumees	kohtu_mees	0		S	sg n
Kirjutaja	kirjutaja	0		S	sg g
         	kirjutaja	0		S	sg n
Carl	Carl	0		H	sg n
Palm	palm	0		S	sg n
.	.			Z	
(	(			Z	
allkiri	all_kiri	0		S	sg n
)	)			Z	
