kaebas	kaeba	s		V	s
Karl	Karl	0		H	sg n
Tilisson	####				
,	,			Z	
et	et	0		J	
temal	tema	l		P	sg ad
oma	oma	0		A	sg g
   	oma	0		D	
   	oma	0		P	sg g
   	oma	0		S	sg g
   	oma	0		V	o
   	oma	0		A	sg n
   	oma	0		A	sg p
   	oma	0		P	sg n
   	oma	0		P	sg p
   	oma	0		S	sg n
   	oma	0		S	sg p
naese	####				
osajagu	osa_jagu	0		S	sg n
       	osa_jagu	0		S	sg p
Aru	aru	0		S	sg g
   	aru	0		S	sg n
   	aru	0		S	sg p
kogu	kogu	0		A	
    	kogu	0		S	sg g
    	kogu	0		V	o
    	kogu	0		S	sg n
    	kogu	0		S	sg p
kuna	kuna	0		D	
    	kuna	0		J	
kohtu	kohtu	0		V	o
     	kohus	0		S	sg g
protokolli	protokoll	0		S	adt
          	protokoll	0		S	sg g
          	protokolli	0		V	o
          	protokoll	0		S	sg p
järgi	järg	i		S	pl p
     	järgi	0		D	
     	järgi	0		K	
     	järgi	0		V	o
sest	see	st		P	sg el
    	sest	0		J	
21	21	0		N	?
Jaanuarist	jaanuar	st		S	sg el
1887 300	1887300	0		N	?
rbl	rbl	0		Y	?
.	.			Z	
pärida	päri	da		V	da
olla	ole	a		V	da
ning	ning	0		J	
palus	palu	s		S	sg in
     	palu	s		V	s
kohut	kohus	t		S	sg p
seda	see	da		P	sg p
sisse	siss	e		S	pl p
     	sisse	0		D	
     	sisse	0		K	
nõuda	nõud	a		V	da
.	.			Z	
käemees	käe_mees	0		S	sg n
Joha	####				
Jakobson	Jakobson	0		H	sg n
ja	ja	0		J	
Johan	Johan	0		H	sg n
Sild	sild	0		S	sg n
ette	ette	0		D	
    	ette	0		K	
    	esi	tte		S	adt
tulnd	####				
vastasivad	vastas_iva	d		S	pl n
,	,			Z	
et	et	0		J	
see	see	0		P	sg n
Karl	Karl	0		H	sg n
Tilissoni	####				
naese	####				
osajagu	osa_jagu	0		S	sg n
       	osa_jagu	0		S	sg p
raha	raha	0		S	sg g
    	raha	0		S	sg n
    	raha	0		S	sg p
,	,			Z	
mis	mis	0		P	pl n
   	mis	0		P	sg n
Tõnis	Tõnis	0		H	sg n
Peabi	####				
käes	käes	0		K	
    	käsi	s		S	sg in
võlas	võlg	s		S	sg in
seisab	seis	b		V	b
see	see	0		P	sg n
on	ole	0		V	b
  	ole	0		V	vad
summa	summ	0		S	adt
     	summ	0		S	sg g
     	summ	0		S	sg p
     	summa	0		S	sg g
     	summa	0		S	sg n
420	420	0		N	?
rbl	rbl	0		Y	?
ühes	üks	s		N	sg in
    	üks	s		P	sg in
    	ühes	0		D	
    	ühes	0		K	
protsendiga	protsent	ga		S	sg kom
kokku	kokku	0		D	
     	kogu	0		S	adt
,	,			Z	
ning	ning	0		J	
palusivad	####				
kohut	kohus	t		S	sg p
seda	see	da		P	sg p
sisse	siss	e		S	pl p
     	sisse	0		D	
     	sisse	0		K	
nõuda	nõud	a		V	da
sellest	see	st		P	sg el
summast	summ	st		S	sg el
       	summa	st		S	sg el
on	ole	0		V	b
  	ole	0		V	vad
100	100	0		N	?
rbl	rbl	0		Y	?
ära	ära	0		D	
   	ära	0		V	neg o
maksetud	makse=tu	d		A	pl n
ning	ning	0		J	
veel	veel	0		D	
    	vesi	l		S	sg ad
kevadeni	kevad	ni		S	sg ter
        	kevade	ni		S	sg ter
maksa	maks	0		S	adt
     	maks	0		S	sg g
     	maks	0		V	o
     	maks	0		S	sg p
370	370	0		N	?
rbl	rbl	0		Y	?
.	.			Z	
Jaan	Jaan	0		H	sg n
    	jaan	0		S	sg n
    	jaan	0		Y	?
peab	pida	b		V	b
Tõnise	Tõnis	0		H	sg g
poeg	poeg	0		S	sg n
ette	ette	0		D	
    	ette	0		K	
    	esi	tte		S	adt
tulnd	####				
vastas	vasta	s		V	s
      	vastas	0		D	
      	vastas	0		K	
,	,			Z	
et	et	0		J	
tema	tema	0		P	sg g
    	tema	0		P	sg n
pool	pool	0		K	
    	pool	0		N	sg n
    	pool	0		S	sg n
sellest	see	st		P	sg el
nõutud	nõu=tu	d		S	pl n
      	nõu=tud	0		A	
      	nõu=tud	0		A	sg n
      	nõu=tud	d		A	pl n
      	nõud	tud		V	tud
      	nõutu	d		A	pl n
summast	summ	st		S	sg el
       	summa	st		S	sg el
see	see	0		P	sg n
on	ole	0		V	b
  	ole	0		V	vad
185	185	0		N	?
rbl	rbl	0		Y	?
1	1	0		N	?
Märtsis	märts	s		S	sg in
1890	1890	0		N	?
välja	välja	0		D	
     	välja	0		V	o
     	väli	0		S	adt
     	väli	0		S	sg g
     	väli	0		S	sg p
maksab	maks	b		V	b
ning	ning	0		J	
teisi	teine	0		O	pl p
     	teine	0		P	pl p
poole	pool	0		N	sg g
     	pool	0		S	sg g
     	pool	e		S	pl p
     	poole	0		K	
     	poole	0		S	sg n
rahaga	raha	ga		S	sg kom
palus	palu	s		S	sg in
     	palu	s		V	s
kohut	kohus	t		S	sg p
üks	üks	0		N	sg n
   	üks	0		P	sg n
aasta	aasta	0		S	sg g
     	aasta	0		S	sg n
kannatada	kannata	da		V	da
.	.			Z	
otsus	otsus	0		S	sg n
:	:			Z	
tuleva	tulev	0		A	sg g
kohtu	kohtu	0		V	o
     	kohus	0		S	sg g
päevas	päev	s		S	sg in
Tõnis	Tõnis	0		H	sg n
peab	pida	b		V	b
ette	ette	0		D	
    	ette	0		K	
    	esi	tte		S	adt
telli	telli	0		V	o
.	.			Z	
Kuristajaks	kurista=ja	ks		S	sg tr
.	.			Z	
