Aastus	####				
ette	ette	0		D	
    	ette	0		K	
    	esi	tte		S	adt
Aana	####				
Vastalo	####				
eestkostja	eest_kostja	0		S	sg g
          	eest_kostja	0		S	sg n
oma	oma	0		A	sg g
   	oma	0		D	
   	oma	0		P	sg g
   	oma	0		S	sg g
   	oma	0		V	o
   	oma	0		A	sg n
   	oma	0		A	sg p
   	oma	0		P	sg n
   	oma	0		P	sg p
   	oma	0		S	sg n
   	oma	0		S	sg p
venna	vend	0		S	sg g
Jakob	Jakob	0		H	sg n
Vastaloga	####				
ja	ja	0		J	
kaebas	kaeba	s		V	s
,	,			Z	
et	et	0		J	
Kristian	####				
Aabroi	####				
olevat	ole	vat		V	vat
      	olev	t		A	sg p
      	olev	t		S	sg p
mineva	minev	0		A	sg g
kevvade	####				
temaga	tema	ga		P	sg kom
hakkanut	####				
lihalikult	lihalik	lt		A	sg abl
          	lihaliku=lt	0		D	
koos	koos	0		D	
    	koos	0		K	
    	koos	0		S	sg n
    	kubu	s		S	sg in
olema	ole	ma		V	ma
ja	ja	0		J	
seda	see	da		P	sg p
paar	paar	0		N	sg n
    	paar	0		S	sg n
nädalat	nädal	t		S	sg p
enne	enne	0		D	
    	enne	0		K	
    	enne	0		S	sg n
Jaani	Jaan	0		H	adt
     	Jaan	0		H	sg g
     	Jaani	0		H	sg g
     	jaan	0		S	adt
     	jaan	0		S	sg g
     	Jaan	0		H	sg p
     	Jaani	0		H	sg n
     	jaan	0		S	sg p
mineva	minev	0		A	sg g
aasta	aasta	0		S	sg g
     	aasta	0		S	sg n
lõppetanu	lõppe_tanu	0		S	sg g
         	lõppe_tanu	0		S	sg n
         	lõppe_tanu	0		S	sg p
,	,			Z	
mis	mis	0		P	pl n
   	mis	0		P	sg n
järel	järel	0		D	
     	järel	0		K	
temal	tema	l		P	sg ad
5	5	0		N	?
nädalat	nädal	t		S	sg p
homen	####				
tagasi	tagasi	0		D	
      	tagasi	0		K	
üks	üks	0		N	sg n
   	üks	0		P	sg n
poeg	poeg	0		S	sg n
laps	laps	0		S	sg n
sündinut	sündinu	t		S	sg p
        	sündinud	t		A	sg p
.	.			Z	
Selle	see	0		P	sg g
     	sell	e		S	pl p
eest	eest	0		D	
    	eest	0		K	
    	esi	st		S	sg el
nõuab	nõud	b		V	b
Aan	####				
Vastalo	####				
,	,			Z	
et	et	0		J	
Kristian	####				
Aabroi	####				
se	####				
laps	laps	0		S	sg n
tagasi	tagasi	0		D	
      	tagasi	0		K	
võttab	####				
ehk	ehk	0		D	
   	ehk	0		J	
lapse	laps	0		S	sg g
toitmise	toitmine	0		S	sg g
tarvis	tarvis	0		D	
      	tarvis	0		K	
120	120	0		N	?
rubla	rubla	0		S	sg g
     	rubla	0		S	sg n
     	rubla	0		S	sg p
hõbe	hõbe	0		S	sg n
maksab	maks	b		V	b
.	.			Z	
Kristian	####				
Aabroi	####				
ettekutsutud	ette_kutsutu	d		S	pl n
            	ette_kutsutud	0		A	
            	ette_kutsutud	0		A	sg n
            	ette_kutsutud	d		A	pl n
salgas	salga	s		V	s
      	salk	s		S	sg in
seda	see	da		P	sg p
,	,			Z	
et	et	0		J	
lihalikult	lihalik	lt		A	sg abl
          	lihaliku=lt	0		D	
Aan	####				
Vastaloga	####				
kunagi	kunagi	0		D	
koos	koos	0		D	
    	koos	0		K	
    	koos	0		S	sg n
    	kubu	s		S	sg in
olnud	ol=nud	0		A	
     	ol=nud	0		A	sg n
     	ol=nud	d		A	pl n
     	ole	nud		V	nud
     	olnu	d		S	pl n
,	,			Z	
Aan	####				
Vastalo	####				
lubbas	####				
tunnistuse	tunnistus	0		S	sg g
läbbi	####				
selgeks	selge	ks		A	sg tr
teha	tege	a		V	da
,	,			Z	
et	et	0		J	
Kristian	####				
Aabroi	####				
tema	tema	0		P	sg g
    	tema	0		P	sg n
juures	juur	s		S	sg in
      	juures	0		D	
      	juures	0		K	
aidas	ait	s		S	sg in
käinut	käinu	t		S	sg p
ja	ja	0		J	
andis	and	is		V	s
üles	üles	0		D	
Aan	####				
Vastalo	####				
Jakobi	Jakob	0		H	sg g
naine	naine	0		S	sg n
,	,			Z	
Lisa	lisa	0		S	sg g
    	lisa	0		V	o
    	lisa	0		S	sg n
    	lisa	0		S	sg p
Aabroi	####				
,	,			Z	
Karel	####				
Aabroi	####				
,	,			Z	
Mari	Mari	0		H	sg g
    	mari	0		S	sg g
    	mari	0		S	sg n
    	Mari	0		H	sg n
    	mari	0		S	sg p
Aabroi	####				
,	,			Z	
Jakob	Jakob	0		H	sg n
Ilves	ilves	0		S	sg n
ja	ja	0		J	
Jaan	Jaan	0		H	sg n
    	jaan	0		S	sg n
    	jaan	0		Y	?
Befeldt	####				
,	,			Z	
kelle	kes	0		P	pl g
     	kes	0		P	sg g
vasto	####				
Kristian	####				
Aabroil	####				
muud	muu	d		P	pl n
    	muu	d		S	pl n
    	muu	d		V	d
    	muu	d		P	sg p
    	muu	d		S	sg p
räkimist	####				
es	es			H	?
ole	ole	0		V	o
,	,			Z	
et	et	0		J	
need	see	d		P	pl n
nimetud	nimetu	d		A	pl n
inimiset	####				
kaebajaga	kaebaja	ga		S	sg kom
ühes	üks	s		N	sg in
    	üks	s		P	sg in
    	ühes	0		D	
    	ühes	0		K	
nõus	nõu	s		S	sg in
    	nõus	0		D	
on	ole	0		V	b
  	ole	0		V	vad
.	.			Z	
et	et	0		J	
tunnistajat	tunnistaja	t		S	sg p
veel	veel	0		D	
    	vesi	l		S	sg ad
ülekulata	üle_kula	ta		S	sg ab
,	,			Z	
sai	saa	i		V	s
   	sai	0		S	sg n
arvatu	arva=tu	0		S	sg g
      	arva=tu	0		S	sg n
:	:			Z	
Tuleva	tulev	0		A	sg g
kohtu	kohtu	0		V	o
     	kohus	0		S	sg g
päevaks	päev	ks		S	sg tr
kaebaja	kaebaja	0		S	sg g
       	kaebaja	0		S	sg n
,	,			Z	
kaebduse	####				
alune	alune	0		A	sg n
     	alune	0		S	sg n
ja	ja	0		J	
tunnistajat	tunnistaja	t		S	sg p
ette	ette	0		D	
    	ette	0		K	
    	esi	tte		S	adt
kutsu	kutsu	0		V	o
     	kutsu	0		S	sg g
     	kutsu	0		S	sg n
.	.			Z	
Peakohtumees	pea_kohtu_mees	0		S	sg n
:	:			Z	
Paul	Paul	0		H	sg n
Villemson	####				
kohtumees	kohtu_mees	0		S	sg n
:	:			Z	
Josep	####				
Havakivvi	####				
""""	""""			Z	
Thomas	Thomas	0		H	sg n
Velt	####				
Kirjutaja	kirjutaja	0		S	sg g
         	kirjutaja	0		S	sg n
asemel	ase	l		S	sg ad
      	asemel	0		K	
V	V	0		O	?
 	V	0		Y	?
....	....			Z	
feld	####				
[	[			Z	
allkiri	all_kiri	0		S	sg n
]	]			Z	
