Mihkel	Mihkel	0		H	sg n
      	mihkel	0		A	sg n
      	mihkel	0		S	sg n
Kook	kook	0		S	sg n
on	ole	0		V	b
  	ole	0		V	vad
viis	vii	s		V	s
    	viis	0		N	sg n
    	viis	0		S	sg n
Männi	mänd	0		S	sg g
puud	puu	d		S	pl n
    	puud	0		S	sg n
    	puu	d		S	sg p
varastanud	varasta	nud		V	nud
          	varasta=nu	d		S	pl n
          	varasta=nud	0		A	
          	varasta=nud	0		A	sg n
          	varasta=nud	d		A	pl n
karjametsast	karja_mets	st		S	sg el
ja	ja	0		J	
maksis	maks	is		V	s
      	maksi	s		S	sg in
1	1	0		N	?
R	R	0		Y	?
:	:			Z	
70	70	0		N	?
kop	kop	0		Y	?
Metsavahile	metsa_vaht	le		S	sg all
ja	ja	0		J	
1	1	0		N	?
R	R	0		Y	?
:	:			Z	
70	70	0		N	?
K	K	0		Y	?
:	:			Z	
on	ole	0		V	b
  	ole	0		V	vad
võlgo	####				
.	.			Z	
ja	ja	0		J	
trahvitud	trahvi	tud		V	tud
         	trahvi=tu	d		S	pl n
         	trahvi=tud	0		A	
         	trahvi=tud	0		A	sg n
         	trahvi=tud	d		A	pl n
10	10	0		N	?
hopi	####				
.	.			Z	
nisammoti	####				
kaebas	kaeba	s		V	s
Aandres	####				
Traks	traks	0		A	sg n
     	traks	0		S	sg n
et	et	0		J	
Hendrik	Hendrik	0		H	sg n
Kask	kask	0		S	sg n
on	ole	0		V	b
  	ole	0		V	vad
üks	üks	0		N	sg n
   	üks	0		P	sg n
Kuse	kusi	0		S	sg g
    	kuse	0		V	o
pu	####				
varastanud	varasta	nud		V	nud
          	varasta=nu	d		S	pl n
          	varasta=nud	0		A	
          	varasta=nud	0		A	sg n
          	varasta=nud	d		A	pl n
karjama	####				
metsast	mets	st		S	sg el
       	metsane	t		A	sg p
ja	ja	0		J	
34	34	0		N	?
K	K	0		Y	?
:	:			Z	
valla	vald	0		S	sg g
     	valla	0		D	
laek	####				
34	34	0		N	?
K	K	0		Y	?
M	M	0		O	?
 	M	0		Y	?
:	:			Z	
Jüri	Jüri	0		H	sg g
    	Jüri	0		H	sg n
Õunapu	####				
üks	üks	0		N	sg n
   	üks	0		P	sg n
Männi	mänd	0		S	sg g
pu	####				
ja	ja	0		J	
maksis	maks	is		V	s
      	maksi	s		S	sg in
44	44	0		N	?
K	K	0		Y	?
:	:			Z	
valla	vald	0		S	sg g
     	valla	0		D	
laeka	laegas	0		S	adt
     	laegas	0		S	sg g
44	44	0		N	?
M	M	0		O	?
 	M	0		Y	?
:	:			Z	
Josep	####				
Part	pars	t		S	sg p
    	part	0		S	sg n
on	ole	0		V	b
  	ole	0		V	vad
üks	üks	0		N	sg n
   	üks	0		P	sg n
kase	kask	0		S	sg g
pu	####				
Kronometsast	####				
varastanud	varasta	nud		V	nud
          	varasta=nu	d		S	pl n
          	varasta=nud	0		A	
          	varasta=nud	0		A	sg n
          	varasta=nud	d		A	pl n
ja	ja	0		J	
maksis	maks	is		V	s
      	maksi	s		S	sg in
68	68	0		N	?
K	K	0		Y	?
:	:			Z	
ello	####				
Provel	####				
on	ole	0		V	b
  	ole	0		V	vad
15	15	0		N	?
leisikad	leisikas	d		S	pl n
heina	hein	0		S	adt
     	hein	0		S	sg g
     	hein	0		S	sg p
Krono	####				
metsast	mets	st		S	sg el
       	metsane	t		A	sg p
teinud	tege	nud		V	nud
      	tei=nud	0		A	
      	tei=nud	0		A	sg n
      	tei=nud	d		A	pl n
      	teinu	d		S	pl n
ja	ja	0		J	
maksis	maks	is		V	s
      	maksi	s		S	sg in
1	1	0		N	?
R	R	0		Y	?
:	:			Z	
50	50	0		N	?
K	K	0		Y	?
.	.			Z	
ja	ja	0		J	
trahvitud	trahvi	tud		V	tud
         	trahvi=tu	d		S	pl n
         	trahvi=tud	0		A	
         	trahvi=tud	0		A	sg n
         	trahvi=tud	d		A	pl n
15	15	0		N	?
hopi	####				
iga	iga	0		P	sg g
   	iga	0		P	sg n
   	iga	0		P	sg p
   	iga	0		S	sg n
   	iga	0		S	sg p
üht	üks	0		N	sg p
   	üks	0		P	sg p
.	.			Z	
