Tuli	tuli	0		S	sg n
    	tule	i		V	s
ette	ette	0		D	
    	ette	0		K	
    	esi	tte		S	adt
kadunu	kadunu	0		S	sg g
      	kadunud	0		A	sg g
      	kadunu	0		S	sg n
Karel	####				
Toso	####				
naine	naine	0		S	sg n
Kadri	Kadri	0		H	sg g
     	Kadri	0		H	sg n
     	kadri	0		S	sg g
     	kadri	0		S	sg n
Toso	####				
ja	ja	0		J	
palus	palu	s		S	sg in
     	palu	s		V	s
;	;			Z	
et	et	0		J	
Protokoli	####				
üles	üles	0		D	
pantud	####				
saaks	saa	ks		V	ks
,	,			Z	
et	et	0		J	
tema	tema	0		P	sg g
    	tema	0		P	sg n
ommal	####				
Josep	####				
Rosenbergi	Rosenberg	0		H	adt
          	Rosenberg	0		H	sg g
          	Rosenberg	0		H	sg p
võõlmündriks	####				
valitseb	valitse	b		V	b
.	.			Z	
Sai	saa	i		V	s
   	sai	0		S	sg n
Josep	####				
Rosenberg	Rosenberg	0		H	sg n
ette	ette	0		D	
    	ette	0		K	
    	esi	tte		S	adt
kutsutud	kutsu	tud		V	tud
        	kutsutu	d		S	pl n
        	kutsutud	0		A	
        	kutsutud	0		A	sg n
        	kutsutud	d		A	pl n
.	.			Z	
kes	kes	0		P	pl n
   	kes	0		P	sg n
vastas	vasta	s		V	s
      	vastas	0		D	
      	vastas	0		K	
,	,			Z	
et	et	0		J	
tema	tema	0		P	sg g
    	tema	0		P	sg n
jääb	jää	b		V	b
kül	####				
kadunud	kadu	nud		V	nud
       	kadunu	d		S	pl n
       	kadunud	0		A	
       	kadunud	0		A	sg n
       	kadunud	d		A	pl n
Karel	####				
Toso	####				
naisel	naine	l		S	sg ad
Kadril	Kadri	l		H	sg ad
      	kadri	l		S	sg ad
3	3	0		N	?
aastas	aasta	s		S	sg in
Võõlmündriks	####				
.	.			Z	
Josep	####				
Rosenberk	####				
kohtumees	kohtu_mees	0		S	sg n
:	:			Z	
Josep	####				
Soieva	####				
.	.			Z	
kohtumees	kohtu_mees	0		S	sg n
:	:			Z	
Otto	Otto	0		H	sg g
    	Otto	0		H	sg n
Mõisa	mõis	0		S	sg g
.	.			Z	
kohtumees	kohtu_mees	0		S	sg n
:	:			Z	
Kaarel	Kaarel	0		H	sg n
      	kaar	l		S	sg ad
      	kaarel	0		S	sg n
Olla	ole	a		V	da
.	.			Z	
