XXI	XXI	0		O	?
   	XXI	0		Y	?
Aavinurme	####				
Vallakohus	valla_kohus	0		S	sg n
8	8	0		N	?
Novembril	november	l		S	sg ad
1869	1869	0		N	?
a	a	0		Y	?
Juures	juur	s		S	sg in
      	juures	0		D	
      	juures	0		K	
olid	ole	id		V	sid
:	:			Z	
kohtu	kohtu	0		V	o
     	kohus	0		S	sg g
eesistuja	ees_istuja	0		S	sg g
         	ees_istuja	0		S	sg n
:	:			Z	
J	J	0		Y	?
.	.			Z	
kalaus	####				
kohtumees	kohtu_mees	0		S	sg n
:	:			Z	
M. Pugri	####				
kohtumees	kohtu_mees	0		S	sg n
:	:			Z	
J. Paas	####				
Tulid	tule	id		V	sid
ette	ette	0		D	
    	ette	0		K	
    	esi	tte		S	adt
Aavinurme-Mets	####				
valla	vald	0		S	sg g
     	valla	0		D	
taluinimesed	talu_inimene	d		S	pl n
Mihkel	Mihkel	0		H	sg n
      	mihkel	0		A	sg n
      	mihkel	0		S	sg n
Halik	####				
Joosepi	Joosep	0		H	sg g
p	p	0		Y	?
ja	ja	0		J	
Joosep	Joosep	0		H	sg n
Halik	####				
Johani	Johan	0		H	sg g
p	p	0		Y	?
.	.			Z	
ja	ja	0		J	
rääkisid	rääki	sid		V	sid
et	et	0		J	
Mihkel	Mihkel	0		H	sg n
      	mihkel	0		A	sg n
      	mihkel	0		S	sg n
Halik	####				
oma	oma	0		A	sg g
   	oma	0		D	
   	oma	0		P	sg g
   	oma	0		S	sg g
   	oma	0		V	o
   	oma	0		A	sg n
   	oma	0		A	sg p
   	oma	0		P	sg n
   	oma	0		P	sg p
   	oma	0		S	sg n
   	oma	0		S	sg p
No	no	0		I	
492	492	0		N	?
bobuli	####				
krund	####				
mis	mis	0		P	pl n
   	mis	0		P	sg n
Aavinurme	####				
valla	vald	0		S	sg g
     	valla	0		D	
ja	ja	0		J	
Ulvi	Ulvi	0		H	sg g
    	Ulvi	0		H	sg n
küla	küla	0		S	sg g
    	küla	0		S	sg n
    	küla	0		S	sg p
talumaade	talu_maa	de		S	pl g
piirides	piir	des		S	pl in
seisab	seis	b		V	b
ja	ja	0		J	
5	5	0		N	?
Dessatini	####				
suur	suur	0		A	sg n
on	ole	0		V	b
  	ole	0		V	vad
Joosep	Joosep	0		H	sg n
Halikule	####				
igavese	igavene	0		A	sg g
aja	aeg	0		S	sg g
   	aja	0		V	o
peale	pea	le		S	sg all
     	peale	0		D	
     	peale	0		K	
ära	ära	0		D	
   	ära	0		V	neg o
müünud	müü	nud		V	nud
      	müü=nu	d		S	pl n
      	müü=nud	0		A	
      	müü=nud	0		A	sg n
      	müü=nud	d		A	pl n
on	ole	0		V	b
  	ole	0		V	vad
neljasada	neli_sada	0		N	sg p
kahekümne	kaks_kümmend	0		N	sg g
viie	viis	0		N	sg g
rubla	rubla	0		S	sg g
     	rubla	0		S	sg n
     	rubla	0		S	sg p
/	/			Z	
:	:			Z	
425	425	0		N	?
rbl	rbl	0		Y	?
.	.			Z	
:	:			Z	
/	/			Z	
eest	eest	0		D	
    	eest	0		K	
    	esi	st		S	sg el
ja	ja	0		J	
ei	ei	0		D	
  	ei	0		V	neg
luba	luba	0		S	sg n
    	luba	0		V	o
    	luba	0		S	sg p
Mihkel	Mihkel	0		H	sg n
      	mihkel	0		A	sg n
      	mihkel	0		S	sg n
Halik	####				
seda	see	da		P	sg p
oma	oma	0		A	sg g
   	oma	0		D	
   	oma	0		P	sg g
   	oma	0		S	sg g
   	oma	0		V	o
   	oma	0		A	sg n
   	oma	0		A	sg p
   	oma	0		P	sg n
   	oma	0		P	sg p
   	oma	0		S	sg n
   	oma	0		S	sg p
krundi	krunt	0		S	sg g
      	krunti	0		V	o
enam	enam	0		C	sg n
    	enam	0		D	
millaski	####				
Joosep	Joosep	0		H	sg n
Haliku	####				
käest	käest	0		K	
     	käsi	st		S	sg el
tagasi	tagasi	0		D	
      	tagasi	0		K	
nõuda	nõud	a		V	da
,	,			Z	
sest	see	st		P	sg el
    	sest	0		J	
et	et	0		J	
tema	tema	0		P	sg g
    	tema	0		P	sg n
Aavinurme-Mets	####				
vallast	vald	st		S	sg el
ära	ära	0		D	
   	ära	0		V	neg o
Jamburgi	####				
kreisi	kreis	0		S	adt
      	kreis	0		S	sg g
      	kreis	0		S	sg p
St	st	0		I	
.	.			Z	
Peeterburgi	####				
kubermangu	kubermang	0		S	adt
          	kubermang	0		S	sg g
          	kubermang	0		S	sg p
elama	ela	ma		V	ma
on	ole	0		V	b
  	ole	0		V	vad
läinud	läinu	d		S	pl n
      	läinud	0		A	
      	läinud	0		A	sg n
      	läinud	d		A	pl n
      	mine	nud		V	nud
ja	ja	0		J	
oma	oma	0		A	sg g
   	oma	0		D	
   	oma	0		P	sg g
   	oma	0		S	sg g
   	oma	0		V	o
   	oma	0		A	sg n
   	oma	0		A	sg p
   	oma	0		P	sg n
   	oma	0		P	sg p
   	oma	0		S	sg n
   	oma	0		S	sg p
revisjoni	revisjon	0		S	adt
         	revisjon	0		S	sg g
         	revisjon	0		S	sg p
ka	ka	0		D	
sina	sina	0		P	sg n
    	sina	0		S	sg g
    	sina	0		V	o
    	sina	0		S	sg n
    	sina	0		S	sg p
viib	vii	b		V	b
ja	ja	0		J	
palud	palu	d		S	pl n
     	palu	d		V	d
nemad	tema	d		P	pl n
mõlemad	mõlema	d		P	pl n
seda	see	da		P	sg p
kaupa	kaup	0		S	adt
     	kaup	0		S	sg p
     	kaupa	0		K	
kohtu	kohtu	0		V	o
     	kohus	0		S	sg g
poolest	pool	st		N	sg el
       	pool	st		S	sg el
       	poolene	t		A	sg p
       	poolest	0		K	
üleskirjutada	####				
ja	ja	0		J	
ustavaks	ustav	ks		A	sg tr
tunnistada	tunnista	da		V	da
et	et	0		J	
se	####				
kindlaks	kindel	ks		A	sg tr
jääks	jää	ks		S	sg tr
     	jää	ks		V	ks
ja	ja	0		J	
kirjutad	kirjuta	d		V	d
nemad	tema	d		P	pl n
kauba	kaup	0		S	sg g
tegijad	tegija	d		S	pl n
selle	see	0		P	sg g
     	sell	e		S	pl p
kinnituseks	kinnitus	ks		S	sg tr
mõlemad	mõlema	d		P	pl n
omad	oma	d		A	pl n
    	oma	d		P	pl n
    	oma	d		S	pl n
    	oma	d		V	d
nimed	nimi	d		S	pl n
oma	oma	0		A	sg g
   	oma	0		D	
   	oma	0		P	sg g
   	oma	0		S	sg g
   	oma	0		V	o
   	oma	0		A	sg n
   	oma	0		A	sg p
   	oma	0		P	sg n
   	oma	0		P	sg p
   	oma	0		S	sg n
   	oma	0		S	sg p
käega	käsi	ga		S	sg kom
siia	siia	0		D	
    	siig	0		S	sg g
alla	alla	0		D	
    	alla	0		K	
.	.			Z	
kõik	kõik	0		P	pl n
    	kõik	0		S	sg n
    	kõik	0		P	sg n
majad	maja	d		S	pl n
mis	mis	0		P	pl n
   	mis	0		P	sg n
seal	seal	0		D	
    	siga	l		A	sg ad
    	siga	l		S	sg ad
krundi	krunt	0		S	sg g
      	krunti	0		V	o
peal	pea	l		S	sg ad
    	peal	0		D	
    	peal	0		K	
on	ole	0		V	b
  	ole	0		V	vad
käid	käi	d		V	d
sellega	see	ga		P	sg kom
ühes	üks	s		N	sg in
    	üks	s		P	sg in
    	ühes	0		D	
    	ühes	0		K	
ja	ja	0		J	
saavad	saa	vad		V	vad
      	saav	d		A	pl n
      	saav	d		S	pl n
ühtlasi	ühtlane	i		A	pl p
       	ühtlasi	0		D	
Joosep	Joosep	0		H	sg n
Haliku	####				
Johani	Johan	0		H	sg g
poja	poeg	0		S	sg g
    	poja	0		S	sg g
    	poja	0		S	sg n
    	poja	0		S	sg p
omanduseks	omandus	ks		S	sg tr
selle	see	0		P	sg g
     	sell	e		S	pl p
sama	sama	0		P	sg g
    	sama	0		P	sg n
    	sama	0		P	sg p
ülemal	ülem	l		C	sg ad
      	ülem	l		S	sg ad
nimetud	nimetu	d		A	pl n
raha	raha	0		S	sg g
    	raha	0		S	sg n
    	raha	0		S	sg p
eest	eest	0		D	
    	eest	0		K	
    	esi	st		S	sg el
.	.			Z	
Mihkel	Mihkel	0		H	sg n
      	mihkel	0		A	sg n
      	mihkel	0		S	sg n
Halik	####				
(	(			Z	
allkiri	all_kiri	0		S	sg n
)	)			Z	
Josep	####				
Halik	####				
(	(			Z	
allkiri	all_kiri	0		S	sg n
)	)			Z	
Üks	üks	0		N	sg n
   	üks	0		P	sg n
tuhat	tuhat	0		N	sg n
     	tuhat	0		N	sg p
kaheksasada	kaheksa_sada	0		N	sg n
üheksakümne	üheksa_kümmend	0		N	sg g
kuuendama	####				
aasta	aasta	0		S	sg g
     	aasta	0		S	sg n
Novembri	november	0		S	sg g
kuu	kuu	0		S	sg g
   	kuu	0		S	sg n
kaheksandamal	####				
päeval	päev	l		S	sg ad
on	ole	0		V	b
  	ole	0		V	vad
eelseisav	####				
kaup	kaup	0		S	sg n
ustavaks	ustav	ks		A	sg tr
tunnistamiseks	tunnistamine	ks		S	sg tr
ette	ette	0		D	
    	ette	0		K	
    	esi	tte		S	adt
pantud	####				
I	I	0		O	?
 	I	0		Y	?
 	j	0		Y	?
Jurjevi	####				
Ülema	ülem	0		C	sg g
     	ülem	0		S	sg g
talurahva	talu_rahvas	0		S	sg g
kohtu	kohtu	0		V	o
     	kohus	0		S	sg g
ringkonna	ringkond	0		S	sg g
XXI	XXI	0		O	?
   	XXI	0		Y	?
vallakohtule	valla_kohus	le		S	sg all
kelle	kes	0		P	pl g
     	kes	0		P	sg g
asukoht	asu_koht	0		S	sg n
Jurjevi	####				
kreisis	kreis	s		S	sg in
Aavinurme	####				
valamajas	####				
Aavinurme-Mets	####				
valla	vald	0		S	sg g
     	valla	0		D	
taluinimeste	talu_inimene	te		S	pl g
poolest	pool	st		N	sg el
       	pool	st		S	sg el
       	poolene	t		A	sg p
       	poolest	0		K	
kes	kes	0		P	pl n
   	kes	0		P	sg n
on	ole	0		V	b
  	ole	0		V	vad
S. Peeterburgi	####				
kubermangus	kubermang	s		S	sg in
Jamburgi	####				
kreisis	kreis	s		S	sg in
Opola	####				
vallas	vald	s		S	sg in
ja	ja	0		J	
rili	####				
külas	küla	s		S	sg in
elustav	elusta	v		V	v
       	elustav	0		A	sg n
Mihkel	Mihkel	0		H	sg n
      	mihkel	0		A	sg n
      	mihkel	0		S	sg n
Halik	####				
Joosepi	Joosep	0		H	sg g
p	p	0		Y	?
.	.			Z	
ja	ja	0		J	
Jurjevi	####				
kreisis	kreis	s		S	sg in
,	,			Z	
Aavinurme	####				
vallas	vald	s		S	sg in
ja	ja	0		J	
Ulvi	Ulvi	0		H	sg g
    	Ulvi	0		H	sg n
külas	küla	s		S	sg in
elustav	elusta	v		V	v
       	elustav	0		A	sg n
Joosep	Joosep	0		H	sg n
Halik	####				
Johani	Johan	0		H	sg g
p	p	0		Y	?
.	.			Z	
kes	kes	0		P	pl n
   	kes	0		P	sg n
mõlemad	mõlema	d		P	pl n
vallakohtule	valla_kohus	le		S	sg all
tuntud	tund	tud		V	tud
      	tuntu	d		S	pl n
      	tuntud	0		A	
      	tuntud	0		A	sg n
      	tuntud	d		A	pl n
ja	ja	0		J	
teatud	tea=tu	d		S	pl n
      	tead	tud		V	tud
      	teatud	0		A	
      	teatud	0		A	sg n
      	teatud	d		A	pl n
on	ole	0		V	b
  	ole	0		V	vad
,	,			Z	
mille	mis	0		P	pl g
     	mis	0		P	sg g
juures	juur	s		S	sg in
      	juures	0		D	
      	juures	0		K	
vallakohus	valla_kohus	0		S	sg n
tõendab	tõenda	b		V	b
et	et	0		J	
mõlemad	mõlema	d		P	pl n
kaubategijad	kauba_tegija	d		S	pl n
on	ole	0		V	b
  	ole	0		V	vad
eelseisvat	eel_seisev	t		A	sg p
Protokoli	####				
oma	oma	0		A	sg g
   	oma	0		D	
   	oma	0		P	sg g
   	oma	0		S	sg g
   	oma	0		V	o
   	oma	0		A	sg n
   	oma	0		A	sg p
   	oma	0		P	sg n
   	oma	0		P	sg p
   	oma	0		S	sg n
   	oma	0		S	sg p
allkirjadega	all_kiri	dega		S	pl kom
kinnitanud	kinnita	nud		V	nud
          	kinnita=nu	d		S	pl n
          	kinnita=nud	0		A	
          	kinnita=nud	0		A	sg n
          	kinnita=nud	d		A	pl n
kui	kui	0		D	
   	kui	0		J	
see	see	0		P	sg n
nendele	see	dele		P	pl all
       	tema	dele		P	pl all
ette	ette	0		D	
    	ette	0		K	
    	esi	tte		S	adt
loetud	loetu	d		S	pl n
      	loetud	0		A	
      	loetud	0		A	sg n
      	loetud	d		A	pl n
      	luge	tud		V	tud
sai	saa	i		V	s
   	sai	0		S	sg n
.	.			Z	
Peale	pea	le		S	sg all
     	peale	0		D	
     	peale	0		K	
selle	see	0		P	sg g
     	sell	e		S	pl p
maksis	maks	is		V	s
      	maksi	s		S	sg in
Joosep	Joosep	0		H	sg n
Halik	####				
Mihkel	Mihkel	0		H	sg n
      	mihkel	0		A	sg n
      	mihkel	0		S	sg n
Halikule	####				
siin	siin	0		D	
    	siin	0		S	sg n
kohtu	kohtu	0		V	o
     	kohus	0		S	sg g
juures	juur	s		S	sg in
      	juures	0		D	
      	juures	0		K	
kolmsada	kolm_sada	0		N	sg n
seitsekümend	####				
viis	vii	s		V	s
    	viis	0		N	sg n
    	viis	0		S	sg n
/	/			Z	
:	:			Z	
375	375	0		N	?
:	:			Z	
/	/			Z	
rubla	rubla	0		S	sg g
     	rubla	0		S	sg n
     	rubla	0		S	sg p
ära	ära	0		D	
   	ära	0		V	neg o
kuna	kuna	0		D	
    	kuna	0		J	
50	50	0		N	?
rubla	rubla	0		S	sg g
     	rubla	0		S	sg n
     	rubla	0		S	sg p
nõndakauaks	####				
maksta	maks	ta		V	da
      	maks	ta		V	ta
jääb	jää	b		V	b
kui	kui	0		D	
   	kui	0		J	
Joosep	Joosep	0		H	sg n
Halik	####				
on	ole	0		V	b
  	ole	0		V	vad
selle	see	0		P	sg g
     	sell	e		S	pl p
krundi	krunt	0		S	sg g
      	krunti	0		V	o
peale	pea	le		S	sg all
     	peale	0		D	
     	peale	0		K	
Jurjevi	####				
Võro	####				
Rahukohtu	rahu_kohus	0		S	sg g
kogu	kogu	0		A	
    	kogu	0		S	sg g
    	kogu	0		V	o
    	kogu	0		S	sg n
    	kogu	0		S	sg p
Krepostino	####				
Jauskonnast	####				
ostu	ost	0		S	adt
    	ost	0		S	sg g
    	ost	0		S	sg p
kontrakt	####				
kätte	kätte	0		K	
     	käsi	tte		S	adt
saanud	saa	nud		V	nud
      	saa=nud	0		A	
      	saa=nud	0		A	sg n
      	saa=nud	d		A	pl n
      	saanu	d		S	pl n
.	.			Z	
Peale	pea	le		S	sg all
     	peale	0		D	
     	peale	0		K	
selle	see	0		P	sg g
     	sell	e		S	pl p
saab	saa	b		V	b
vallakohus	valla_kohus	0		S	sg n
selle	see	0		P	sg g
     	sell	e		S	pl p
krundi	krunt	0		S	sg g
      	krunti	0		V	o
müümise	müümine	0		S	sg g
üle	üle	0		D	
   	üle	0		K	
üks	üks	0		N	sg n
   	üks	0		P	sg n
kuulutus	kuulutus	0		S	sg n
kuu	kuu	0		S	sg g
   	kuu	0		S	sg n
aja	aeg	0		S	sg g
   	aja	0		V	o
peale	pea	le		S	sg all
     	peale	0		D	
     	peale	0		K	
välja	välja	0		D	
     	välja	0		V	o
     	väli	0		S	adt
     	väli	0		S	sg g
     	väli	0		S	sg p
panema	pane	ma		V	ma
ja	ja	0		J	
üleskutsuma	####				
neid	neid	0		S	sg n
    	see	d		P	pl p
    	tema	d		P	pl p
kes	kes	0		P	pl n
   	kes	0		P	sg n
selle	see	0		P	sg g
     	sell	e		S	pl p
ostmise	ostmine	0		S	sg g
ja	ja	0		J	
müümisele	müümine	le		S	sg all
takistust	takistus	t		S	sg p
teha	tege	a		V	da
tahad	taht	d		V	d
.	.			Z	
J	J	0		Y	?
.	.			Z	
kalaus	####				
(	(			Z	
allkiri	all_kiri	0		S	sg n
)	)			Z	
Mihkel	Mihkel	0		H	sg n
      	mihkel	0		A	sg n
      	mihkel	0		S	sg n
Pugri	####				
(	(			Z	
allkiri	all_kiri	0		S	sg n
)	)			Z	
Jaan	Jaan	0		H	sg n
    	jaan	0		S	sg n
    	jaan	0		Y	?
Paas	paa	s		A	sg in
    	paa	s		S	sg in
    	paas	0		S	sg n
(	(			Z	
allkiri	all_kiri	0		S	sg n
)	)			Z	
