Hermann	Hermann	0		H	sg n
Laharitas	####				
Vidrik	####				
mõisast	mõis	st		S	sg el
kaebas	kaeba	s		V	s
,	,			Z	
et	et	0		J	
tema	tema	0		P	sg g
    	tema	0		P	sg n
poeg	poeg	0		S	sg n
Jaan	Jaan	0		H	sg n
    	jaan	0		S	sg n
    	jaan	0		Y	?
olnud	ol=nud	0		A	
     	ol=nud	0		A	sg n
     	ol=nud	d		A	pl n
     	ole	nud		V	nud
     	olnu	d		S	pl n
mööda	mööda	0		A	
     	mööda	0		D	
     	mööda	0		K	
läinud	läinu	d		S	pl n
      	läinud	0		A	
      	läinud	0		A	sg n
      	läinud	d		A	pl n
      	mine	nud		V	nud
suvel	suvi	l		S	sg ad
siin	siin	0		D	
    	siin	0		S	sg n
kõsti	####				
talul	talu	l		S	sg ad
kõivu	kõiv	0		S	adt
     	kõiv	0		S	sg g
     	kõiv	0		S	sg p
pool	pool	0		K	
    	pool	0		N	sg n
    	pool	0		S	sg n
karjas	kari	s		S	sg in
ja	ja	0		J	
pidanud	pida	nud		V	nud
       	pida=nu	d		S	pl n
       	pida=nud	0		A	
       	pida=nud	0		A	sg n
       	pida=nud	d		A	pl n
palka	palk	0		S	adt
     	palka	0		V	o
     	palk	0		S	sg p
saama	saa	ma		V	ma
     	saam	0		S	adt
     	saam	0		S	sg g
     	saam	0		S	sg p
6	6	0		N	?
rubla	rubla	0		S	sg g
     	rubla	0		S	sg n
     	rubla	0		S	sg p
raha	raha	0		S	sg g
    	raha	0		S	sg n
    	raha	0		S	sg p
ja	ja	0		J	
1	1	0		N	?
kübar	kübar	0		S	sg n
,	,			Z	
mille	mis	0		P	pl g
     	mis	0		P	sg g
asemel	ase	l		S	sg ad
      	asemel	0		K	
oma	oma	0		A	sg g
   	oma	0		D	
   	oma	0		P	sg g
   	oma	0		S	sg g
   	oma	0		V	o
   	oma	0		A	sg n
   	oma	0		A	sg p
   	oma	0		P	sg n
   	oma	0		P	sg p
   	oma	0		S	sg n
   	oma	0		S	sg p
kübara	kübar	0		S	sg g
äraapidanud	####				
.	.			Z	
nüüd	nüüd	0		D	
ei	ei	0		D	
  	ei	0		V	neg
tahtnud	taht	nud		V	nud
       	taht=nu	d		S	pl n
       	taht=nud	0		A	
       	taht=nud	0		A	sg n
       	taht=nud	d		A	pl n
peremees	pere_mees	0		S	sg n
Jaan	Jaan	0		H	sg n
    	jaan	0		S	sg n
    	jaan	0		Y	?
kõiv	kõiv	0		S	sg n
see	see	0		P	sg n
palk	palk	0		S	sg n
mitte	mitte	0		D	
maksa	maks	0		S	adt
     	maks	0		S	sg g
     	maks	0		V	o
     	maks	0		S	sg p
.	.			Z	
kaebaja	kaebaja	0		S	sg g
       	kaebaja	0		S	sg n
nõuab	nõud	b		V	b
seda	see	da		P	sg p
kätte	kätte	0		K	
     	käsi	tte		S	adt
saada	saa	da		V	da
     	saat	0		V	o
     	saa	da		V	ta
.	.			Z	
Jaan	Jaan	0		H	sg n
    	jaan	0		S	sg n
    	jaan	0		Y	?
kõiv	kõiv	0		S	sg n
ütles	ütle	s		V	s
,	,			Z	
et	et	0		J	
palk	palk	0		S	sg n
olnud	ol=nud	0		A	
     	ol=nud	0		A	sg n
     	ol=nud	d		A	pl n
     	ole	nud		V	nud
     	olnu	d		S	pl n
6	6	0		N	?
rubla	rubla	0		S	sg g
     	rubla	0		S	sg n
     	rubla	0		S	sg p
,	,			Z	
millest	mis	st		P	pl el
       	mis	st		P	sg el
käsi	käski	0		V	o
    	käsi	0		S	pl p
    	käsi	0		S	sg n
    	käsi	0		D	
rahaks	raha	ks		S	sg tr
1	1	0		N	?
rubla	rubla	0		S	sg g
     	rubla	0		S	sg n
     	rubla	0		S	sg p
äramakstud	ära_maks=tu	d		S	pl n
          	ära_maks=tud	0		A	
          	ära_maks=tud	0		A	sg n
          	ära_maks=tud	d		A	pl n
saanud	saa	nud		V	nud
      	saa=nud	0		A	
      	saa=nud	0		A	sg n
      	saa=nud	d		A	pl n
      	saanu	d		S	pl n
.	.			Z	
kübarat	kübar	t		S	sg p
ei	ei	0		D	
  	ei	0		V	neg
olla	ole	a		V	da
mitte	mitte	0		D	
loetud	loetu	d		S	pl n
      	loetud	0		A	
      	loetud	0		A	sg n
      	loetud	d		A	pl n
      	luge	tud		V	tud
,	,			Z	
aga	aga	0		J	
palka	palk	0		S	adt
     	palka	0		V	o
     	palk	0		S	sg p
ei	ei	0		D	
  	ei	0		V	neg
taha	taht	0		V	o
    	taha	0		D	
    	taha	0		K	
mitte	mitte	0		D	
äramaksa	ära_maks	0		S	adt
        	ära_maks	0		S	sg g
        	ära_maks	0		S	sg p
:	:			Z	
1	1	0		N	?
,	,			Z	
üks	üks	0		N	sg n
   	üks	0		P	sg n
paar	paar	0		N	sg n
    	paar	0		S	sg n
saapaid	saabas	id		S	pl p
neid	neid	0		S	sg n
    	see	d		P	pl p
    	tema	d		P	pl p
äravarastanud	ära_varasta=nu	d		S	pl n
             	ära_varasta=nud	0		A	
             	ära_varasta=nud	0		A	sg n
             	ära_varasta=nud	d		A	pl n
.	.			Z	
4	4	0		N	?
rbl	rbl	0		Y	?
.	.			Z	
50	50	0		N	?
kop	kop	0		Y	?
.	.			Z	
2	2	0		N	?
,	,			Z	
ühe	üks	0		N	sg g
   	üks	0		P	sg g
   	ühe	0		S	sg n
eina	####				
äärapnud	####				
,	,			Z	
10	10	0		N	?
rbl	rbl	0		Y	?
.	.			Z	
summa	summ	0		S	adt
     	summ	0		S	sg g
     	summ	0		S	sg p
     	summa	0		S	sg g
     	summa	0		S	sg n
14	14	0		N	?
rbl	rbl	0		Y	?
.	.			Z	
50	50	0		N	?
kop	kop	0		Y	?
.	.			Z	
Hermann	Hermann	0		H	sg n
Laharitas	####				
vastas	vasta	s		V	s
      	vastas	0		D	
      	vastas	0		K	
:	:			Z	
üks	üks	0		N	sg n
   	üks	0		P	sg n
rubla	rubla	0		S	sg g
     	rubla	0		S	sg n
     	rubla	0		S	sg p
raha	raha	0		S	sg g
    	raha	0		S	sg n
    	raha	0		S	sg p
küll	küll	0		D	
    	küll	0		S	sg n
saanud	saa	nud		V	nud
      	saa=nud	0		A	
      	saa=nud	0		A	sg n
      	saa=nud	d		A	pl n
      	saanu	d		S	pl n
,	,			Z	
aga	aga	0		J	
see	see	0		P	sg n
olnud	ol=nud	0		A	
     	ol=nud	0		A	sg n
     	ol=nud	d		A	pl n
     	ole	nud		V	nud
     	olnu	d		S	pl n
käe	käsi	0		S	sg g
raha	raha	0		S	sg g
    	raha	0		S	sg n
    	raha	0		S	sg p
.	.			Z	
saapad	saabas	d		S	pl n
ei	ei	0		D	
  	ei	0		V	neg
olla	ole	a		V	da
varastanud	varasta	nud		V	nud
          	varasta=nu	d		S	pl n
          	varasta=nud	0		A	
          	varasta=nud	0		A	sg n
          	varasta=nud	d		A	pl n
ja	ja	0		J	
oinas	oinas	0		S	sg n
     	oinas	s		S	sg in
mitte	mitte	0		D	
tappetud	tappe=tu	d		A	pl n
.	.			Z	
mõistus	mõistus	0		S	sg n
:	:			Z	
Jaan	Jaan	0		H	sg n
    	jaan	0		S	sg n
    	jaan	0		Y	?
kõiv	kõiv	0		S	sg n
peab	pida	b		V	b
Hermann	Hermann	0		H	sg n
Laharitas	####				
'	’			Z	
sele	####				
tema	tema	0		P	sg g
    	tema	0		P	sg n
poja	poeg	0		S	sg g
    	poja	0		S	sg g
    	poja	0		S	sg n
    	poja	0		S	sg p
kasuks	kasu	ks		S	sg tr
palka	palk	0		S	adt
     	palka	0		V	o
     	palk	0		S	sg p
5	5	0		N	?
rubla	rubla	0		S	sg g
     	rubla	0		S	sg n
     	rubla	0		S	sg p
ära	ära	0		D	
   	ära	0		V	neg o
maksma	maks	ma		V	ma
.	.			Z	
1	1	0		N	?
rubla	rubla	0		S	sg g
     	rubla	0		S	sg n
     	rubla	0		S	sg p
on	ole	0		V	b
  	ole	0		V	vad
käerahaks	käe_raha	ks		S	sg tr
ärakaanud	####				
.	.			Z	
vargust	vargus	t		S	sg p
võib	või	b		V	b
äralt	####				
kaebada	####				
.	.			Z	
mõistus	mõistus	0		S	sg n
kuulutadi	####				
§	§	0		Y	?
773	773	0		N	?
seletamisega	seletamine	ga		S	sg kom
.	.			Z	
