Haslava	####				
kogukonna	kogukond	0		S	sg g
kohus	kohu	s		V	s
     	kohus	0		S	sg n
sel	see	l		P	sg ad
   	sel	0		Y	?
5	5	0		N	?
Juunil	juuni	l		S	sg ad
1889.	1889.	0		O	?
man	man	0		D	
   	man	0		K	
olid	ole	id		V	sid
:	:			Z	
peakohtumees	pea_kohtu_mees	0		S	sg n
:	:			Z	
Jaan	Jaan	0		H	sg n
    	jaan	0		S	sg n
    	jaan	0		Y	?
Virro	####				
kohtumees	kohtu_mees	0		S	sg n
:	:			Z	
Jaan	Jaan	0		H	sg n
    	jaan	0		S	sg n
    	jaan	0		Y	?
pruuks	####				
""""	""""			Z	
Jaan	Jaan	0		H	sg n
    	jaan	0		S	sg n
    	jaan	0		Y	?
Toom	toom	0		S	sg n
selle	see	0		P	sg g
     	sell	e		S	pl p
otsuse	otsus	0		S	sg g
peale	pea	le		S	sg all
     	peale	0		D	
     	peale	0		K	
sest	see	st		P	sg el
    	sest	0		J	
27	27	0		N	?
märtsist	märts	st		S	sg el
s	s	0		Y	?
.	.			Z	
a	a	0		Y	?
Karl	Karl	0		H	sg n
Lesta	lest	0		S	adt
     	lest	0		S	sg g
     	lest	0		S	sg p
kaebuse	kaebus	0		S	sg g
asja	asi	0		S	adt
    	asi	0		S	sg g
    	asi	0		S	sg p
vasta	vasta	0		V	o
Jaan	Jaan	0		H	sg n
    	jaan	0		S	sg n
    	jaan	0		Y	?
soo	soo	0		I	
   	soo	0		S	sg g
   	sugu	0		S	sg g
   	soo	0		S	sg n
oli	ole	i		V	s
kutsumise	kutsumine	0		S	sg g
peale	pea	le		S	sg all
     	peale	0		D	
     	peale	0		K	
ette	ette	0		D	
    	ette	0		K	
    	esi	tte		S	adt
tulnud	tul=nud	0		A	
      	tul=nud	0		A	sg n
      	tul=nud	d		A	pl n
      	tule	nud		V	nud
      	tulnu	d		S	pl n
Jaan	Jaan	0		H	sg n
    	jaan	0		S	sg n
    	jaan	0		Y	?
Savik	####				
ja	ja	0		J	
tunistas	####				
,	,			Z	
et	et	0		J	
üks	üks	0		N	sg n
   	üks	0		P	sg n
venelane	venelane	0		S	sg n
lubanud	luba	nud		V	nud
       	luba=nu	d		S	pl n
       	luba=nud	0		A	
       	luba=nud	0		A	sg n
       	luba=nud	d		A	pl n
14	14	0		N	?
rubl	####				
maksta	maks	ta		V	da
      	maks	ta		V	ta
kui	kui	0		D	
   	kui	0		J	
Karl	Karl	0		H	sg n
Taarile	taar	le		S	sg all
astu	astu	0		V	o
paks	paks	0		A	sg n
    	paks	0		S	sg n
oleks	ole	ks		V	ks
antud	an=tu	d		S	pl n
     	and	tud		V	tud
     	antud	0		A	
     	antud	0		A	sg n
     	antud	d		A	pl n
,	,			Z	
Jaan	Jaan	0		H	sg n
    	jaan	0		S	sg n
    	jaan	0		Y	?
soo	soo	0		I	
   	soo	0		S	sg g
   	sugu	0		S	sg g
   	soo	0		S	sg n
ei	ei	0		D	
  	ei	0		V	neg
ole	ole	0		V	o
astu	astu	0		V	o
peale	pea	le		S	sg all
     	peale	0		D	
     	peale	0		K	
passi	pass	0		S	adt
     	pass	0		S	sg g
     	passi	0		V	o
     	pass	0		S	sg p
lubanud	luba	nud		V	nud
       	luba=nu	d		S	pl n
       	luba=nud	0		A	
       	luba=nud	0		A	sg n
       	luba=nud	d		A	pl n
vaid	vaid	0		D	
    	vaid	0		J	
ütelnud	ütle	nud		V	nud
       	ütel=nu	d		S	pl n
       	ütel=nud	0		A	
       	ütel=nud	0		A	sg n
       	ütel=nud	d		A	pl n
,	,			Z	
et	et	0		J	
see	see	0		P	sg n
pois	poi	s		S	sg in
saab	saa	b		V	b
poole	pool	0		N	sg g
     	pool	0		S	sg g
     	pool	e		S	pl p
     	poole	0		K	
     	poole	0		S	sg n
astu	astu	0		V	o
paks	paks	0		A	sg n
    	paks	0		S	sg n
selle	see	0		P	sg g
     	sell	e		S	pl p
,	,			Z	
et	et	0		J	
tema	tema	0		P	sg g
    	tema	0		P	sg n
sügise	sügis	0		S	sg g
lootsi	loots	0		S	adt
      	loots	0		S	sg g
      	lootsi	0		V	o
      	loots	0		S	sg p
alla	alla	0		D	
    	alla	0		K	
tuleb	tule	b		V	b
,	,			Z	
selle	see	0		P	sg g
     	sell	e		S	pl p
peale	pea	le		S	sg all
     	peale	0		D	
     	peale	0		K	
läinud	läinu	d		S	pl n
      	läinud	0		A	
      	läinud	0		A	sg n
      	läinud	d		A	pl n
      	mine	nud		V	nud
Karl	Karl	0		H	sg n
Taari	taar	0		S	adt
     	taar	0		S	sg g
     	taar	0		S	sg p
venelasega	venelane	ga		S	sg kom
välja	välja	0		D	
     	välja	0		V	o
     	väli	0		S	adt
     	väli	0		S	sg g
     	väli	0		S	sg p
ja	ja	0		J	
ei	ei	0		D	
  	ei	0		V	neg
ole	ole	0		V	o
ka	ka	0		D	
enam	enam	0		C	sg n
    	enam	0		D	
tuppa	tuba	0		S	adt
tulnud	tul=nud	0		A	
      	tul=nud	0		A	sg n
      	tul=nud	d		A	pl n
      	tule	nud		V	nud
      	tulnu	d		S	pl n
vaid	vaid	0		D	
    	vaid	0		J	
läinud	läinu	d		S	pl n
      	läinud	0		A	
      	läinud	0		A	sg n
      	läinud	d		A	pl n
      	mine	nud		V	nud
koguni	kogu	ni		S	sg ter
      	koguni	0		D	
ära	ära	0		D	
   	ära	0		V	neg o
.	.			Z	
verik	####				
Jüri	Jüri	0		H	sg g
    	Jüri	0		H	sg n
Luha	luht	0		S	sg g
tunistas	####				
,	,			Z	
et	et	0		J	
üks	üks	0		N	sg n
   	üks	0		P	sg n
venelane	venelane	0		S	sg n
tahtnud	taht	nud		V	nud
       	taht=nu	d		S	pl n
       	taht=nud	0		A	
       	taht=nud	0		A	sg n
       	taht=nud	d		A	pl n
Karl	Karl	0		H	sg n
Taari	taar	0		S	adt
     	taar	0		S	sg g
     	taar	0		S	sg p
passi	pass	0		S	adt
     	pass	0		S	sg g
     	passi	0		V	o
     	pass	0		S	sg p
ja	ja	0		J	
lubanud	luba	nud		V	nud
       	luba=nu	d		S	pl n
       	luba=nud	0		A	
       	luba=nud	0		A	sg n
       	luba=nud	d		A	pl n
12	12	0		N	?
rubl	####				
maksta	maks	ta		V	da
      	maks	ta		V	ta
ja	ja	0		J	
Jaan	Jaan	0		H	sg n
    	jaan	0		S	sg n
    	jaan	0		Y	?
soo	soo	0		I	
   	soo	0		S	sg g
   	sugu	0		S	sg g
   	soo	0		S	sg n
ei	ei	0		D	
  	ei	0		V	neg
ole	ole	0		V	o
passi	pass	0		S	adt
     	pass	0		S	sg g
     	passi	0		V	o
     	pass	0		S	sg p
muidu	muidu	0		D	
annud	####				
kui	kui	0		D	
   	kui	0		J	
tema	tema	0		P	sg g
    	tema	0		P	sg n
keig	####				
võlg	võlg	0		S	sg n
ära	ära	0		D	
   	ära	0		V	neg o
maksab	maks	b		V	b
ja	ja	0		J	
venelane	venelane	0		S	sg n
ütelnud	ütle	nud		V	nud
       	ütel=nu	d		S	pl n
       	ütel=nud	0		A	
       	ütel=nud	0		A	sg n
       	ütel=nud	d		A	pl n
et	et	0		J	
kui	kui	0		D	
   	kui	0		J	
Karl	Karl	0		H	sg n
Taari	taar	0		S	adt
     	taar	0		S	sg g
     	taar	0		S	sg p
teenib	teeni	b		V	b
siis	siis	0		D	
    	siis	0		J	
maksab	maks	b		V	b
tema	tema	0		P	sg g
    	tema	0		P	sg n
veel	veel	0		D	
    	vesi	l		S	sg ad
ja	ja	0		J	
kui	kui	0		D	
   	kui	0		J	
tema	tema	0		P	sg g
    	tema	0		P	sg n
ei	ei	0		D	
  	ei	0		V	neg
teeni	tee	ni		S	sg ter
     	teeni	0		V	o
ei	ei	0		D	
  	ei	0		V	neg
maksta	maks	ta		V	da
      	maks	ta		V	ta
tema	tema	0		P	sg g
    	tema	0		P	sg n
,	,			Z	
raha	raha	0		S	sg g
    	raha	0		S	sg n
    	raha	0		S	sg p
ei	ei	0		D	
  	ei	0		V	neg
ole	ole	0		V	o
tema	tema	0		P	sg g
    	tema	0		P	sg n
näinud	näi	nud		V	nud
      	näge	nud		V	nud
      	näi=nud	0		A	
      	näi=nud	0		A	sg n
      	näi=nud	d		A	pl n
      	näinu	d		S	pl n
.	.			Z	
Jaan	Jaan	0		H	sg n
    	jaan	0		S	sg n
    	jaan	0		Y	?
Ling	ling	0		S	sg n
tunistas	####				
,	,			Z	
et	et	0		J	
Karl	Karl	0		H	sg n
Taari	taar	0		S	adt
     	taar	0		S	sg g
     	taar	0		S	sg p
podratsik	####				
pakunud	####				
15	15	0		N	?
rubl	####				
varsti	varsti	0		D	
kätte	kätte	0		K	
     	käsi	tte		S	adt
ja	ja	0		J	
siis	siis	0		D	
    	siis	0		J	
ega	ega	0		D	
   	ega	0		J	
kuu	kuu	0		S	sg g
   	kuu	0		S	sg n
peale	pea	le		S	sg all
     	peale	0		D	
     	peale	0		K	
selle	see	0		P	sg g
     	sell	e		S	pl p
5	5	0		N	?
rubl	####				
Karl	Karl	0		H	sg n
Taari	taar	0		S	adt
     	taar	0		S	sg g
     	taar	0		S	sg p
võla	võlg	0		S	sg g
kustutuses	kustutus	s		S	sg in
maksta	maks	ta		V	da
      	maks	ta		V	ta
ja	ja	0		J	
tahtnud	taht	nud		V	nud
       	taht=nu	d		S	pl n
       	taht=nud	0		A	
       	taht=nud	0		A	sg n
       	taht=nud	d		A	pl n
passi	pass	0		S	adt
     	pass	0		S	sg g
     	passi	0		V	o
     	pass	0		S	sg p
,	,			Z	
ent	ent	0		J	
Jaan	Jaan	0		H	sg n
    	jaan	0		S	sg n
    	jaan	0		Y	?
soo	soo	0		I	
   	soo	0		S	sg g
   	sugu	0		S	sg g
   	soo	0		S	sg n
ei	ei	0		D	
  	ei	0		V	neg
ole	ole	0		V	o
passi	pass	0		S	adt
     	pass	0		S	sg g
     	passi	0		V	o
     	pass	0		S	sg p
annud	####				
ja	ja	0		J	
ei	ei	0		D	
  	ei	0		V	neg
ole	ole	0		V	o
seda	see	da		P	sg p
raha	raha	0		S	sg g
    	raha	0		S	sg n
    	raha	0		S	sg p
ka	ka	0		D	
vastu	vastu	0		D	
     	vastu	0		K	
võtnud	võt	nud		V	nud
      	võt=nu	d		S	pl n
      	võt=nud	0		A	
      	võt=nud	0		A	sg n
      	võt=nud	d		A	pl n
.	.			Z	
Johan	Johan	0		H	sg n
rasva	rasv	0		S	adt
     	rasv	0		S	sg g
     	rasva	0		D	
     	rasva	0		V	o
     	rasv	0		S	sg p
Krimannist	####				
tunistas	####				
,	,			Z	
et	et	0		J	
venelane	venelane	0		S	sg n
tahtnud	taht	nud		V	nud
       	taht=nu	d		S	pl n
       	taht=nud	0		A	
       	taht=nud	0		A	sg n
       	taht=nud	d		A	pl n
astu	astu	0		V	o
passi	pass	0		S	adt
     	pass	0		S	sg g
     	passi	0		V	o
     	pass	0		S	sg p
,	,			Z	
ent	ent	0		J	
Jaan	Jaan	0		H	sg n
    	jaan	0		S	sg n
    	jaan	0		Y	?
soo	soo	0		I	
   	soo	0		S	sg g
   	sugu	0		S	sg g
   	soo	0		S	sg n
ei	ei	0		D	
  	ei	0		V	neg
ole	ole	0		V	o
astu	astu	0		V	o
passi	pass	0		S	adt
     	pass	0		S	sg g
     	passi	0		V	o
     	pass	0		S	sg p
annud	####				
vaid	vaid	0		D	
    	vaid	0		J	
ütelnud	ütle	nud		V	nud
       	ütel=nu	d		S	pl n
       	ütel=nud	0		A	
       	ütel=nud	0		A	sg n
       	ütel=nud	d		A	pl n
et	et	0		J	
Karl	Karl	0		H	sg n
Taari	taar	0		S	adt
     	taar	0		S	sg g
     	taar	0		S	sg p
ei	ei	0		D	
  	ei	0		V	neg
sa	sina	0		P	sg n
astu	astu	0		V	o
passi	pass	0		S	adt
     	pass	0		S	sg g
     	passi	0		V	o
     	pass	0		S	sg p
selle	see	0		P	sg g
     	sell	e		S	pl p
,	,			Z	
et	et	0		J	
temal	tema	l		P	sg ad
sügise	sügis	0		S	sg g
ette	ette	0		D	
    	ette	0		K	
    	esi	tte		S	adt
minek	minek	0		S	sg n
on	ole	0		V	b
  	ole	0		V	vad
ja	ja	0		J	
see	see	0		P	sg n
venelane	venelane	0		S	sg n
lubanud	luba	nud		V	nud
       	luba=nu	d		S	pl n
       	luba=nud	0		A	
       	luba=nud	0		A	sg n
       	luba=nud	d		A	pl n
enne	enne	0		D	
    	enne	0		K	
    	enne	0		S	sg n
sugu	sugu	0		A	
    	sugu	0		D	
    	sugu	0		S	sg n
    	sugu	0		S	sg p
raha	raha	0		S	sg g
    	raha	0		S	sg n
    	raha	0		S	sg p
maksta	maks	ta		V	da
      	maks	ta		V	ta
,	,			Z	
ent	ent	0		J	
raha	raha	0		S	sg g
    	raha	0		S	sg n
    	raha	0		S	sg p
ei	ei	0		D	
  	ei	0		V	neg
ole	ole	0		V	o
keegi	kee	0	gi	S	sg g
     	kee	0	gi	V	o
     	keegi	0		P	sg n
     	kee	0	gi	S	sg n
pakunud	####				
ja	ja	0		J	
peale	pea	le		S	sg all
     	peale	0		D	
     	peale	0		K	
selle	see	0		P	sg g
     	sell	e		S	pl p
läinud	läinu	d		S	pl n
      	läinud	0		A	
      	läinud	0		A	sg n
      	läinud	d		A	pl n
      	mine	nud		V	nud
see	see	0		P	sg n
venelane	venelane	0		S	sg n
Karl	Karl	0		H	sg n
Taariga	taar	ga		S	sg kom
ära	ära	0		D	
   	ära	0		V	neg o
.	.			Z	
otsus	otsus	0		S	sg n
:	:			Z	
et	et	0		J	
Jaan	Jaan	0		H	sg n
    	jaan	0		S	sg n
    	jaan	0		Y	?
soo	soo	0		I	
   	soo	0		S	sg g
   	sugu	0		S	sg g
   	soo	0		S	sg n
ja	ja	0		J	
Karl	Karl	0		H	sg n
Lesta	lest	0		S	adt
     	lest	0		S	sg g
     	lest	0		S	sg p
ette	ette	0		D	
    	ette	0		K	
    	esi	tte		S	adt
on	ole	0		V	b
  	ole	0		V	vad
kutsuta	kutsu	ta		V	ta
       	kutsu	ta		S	sg ab
.	.			Z	
peakohtumees	pea_kohtu_mees	0		S	sg n
Jaan	Jaan	0		H	sg n
    	jaan	0		S	sg n
    	jaan	0		Y	?
Virro	####				
XXX	XXX	0		O	?
   	XXX	0		Y	?
kohtumees	kohtu_mees	0		S	sg n
.	.			Z	
Jaan	Jaan	0		H	sg n
    	jaan	0		S	sg n
    	jaan	0		Y	?
pruuks	####				
/	/			Z	
allkiri	all_kiri	0		S	sg n
/	/			Z	
""""	""""			Z	
Jaan	Jaan	0		H	sg n
    	jaan	0		S	sg n
    	jaan	0		Y	?
Toom	toom	0		S	sg n
XXX	XXX	0		O	?
   	XXX	0		Y	?
