sel	see	l		P	sg ad
   	sel	0		Y	?
3	3	0		N	?
juulil	juuli	l		S	sg ad
1875	1875	0		N	?
koos	koos	0		D	
    	koos	0		K	
    	koos	0		S	sg n
    	kubu	s		S	sg in
olid	ole	id		V	sid
peakohtumees	pea_kohtu_mees	0		S	sg n
Josep	####				
Kask	kask	0		S	sg n
teine	teine	0		O	sg n
     	teine	0		P	sg n
kohtumees	kohtu_mees	0		S	sg n
Juhan	Juhan	0		H	sg n
koppel	koppel	0		S	sg n
kolmas	kolmas	0		O	sg n
kohtumees	kohtu_mees	0		S	sg n
Maddis	####				
Sildnik	####				
Josep	####				
Pärn	pärn	0		S	sg n
kes	kes	0		P	pl n
   	kes	0		P	sg n
14	14	0		N	?
Aaastad	####				
vana	vana	0		A	sg g
    	vana	0		A	sg n
    	vana	0		A	sg p
    	vana	0		S	sg g
    	vana	0		S	sg n
    	vana	0		S	sg p
ning	ning	0		J	
kes	kes	0		P	pl n
   	kes	0		P	sg n
Ulvi	Ulvi	0		H	sg g
    	Ulvi	0		H	sg n
küla	küla	0		S	sg g
    	küla	0		S	sg n
    	küla	0		S	sg p
seakarjas	sea_kari	s		S	sg in
oli	ole	i		V	s
on	ole	0		V	b
  	ole	0		V	vad
kurja	kuri	0		A	adt
     	kuri	0		A	sg g
     	kuri	0		S	adt
     	kuri	0		S	sg g
     	kuri	0		A	sg p
     	kuri	0		S	sg p
meelega	meel	ga		S	sg kom
       	meelega	0		D	
küla	küla	0		S	sg g
    	küla	0		S	sg n
    	küla	0		S	sg p
heinamaad	heina_maa	d		S	pl n
         	heina_maa	d		S	sg p
purust	puru	st		S	sg el
      	purune	t		A	sg p
teha	tege	a		V	da
lasknud	lask	nud		V	nud
       	lask=nu	d		S	pl n
       	lask=nud	0		A	
       	lask=nud	0		A	sg n
       	lask=nud	d		A	pl n
.	.			Z	
,	,			Z	
ning	ning	0		J	
siis	siis	0		D	
    	siis	0		J	
karja	kari	0		S	adt
     	kari	0		S	sg g
     	kari	0		S	sg p
maha	maha	0		D	
jatnud	####				
ja	ja	0		J	
ümber	ümber	0		D	
     	ümber	0		K	
hulgub	hulku	b		V	b
ning	ning	0		J	
kaardisid	####				
mängib	mängi	b		V	b
,	,			Z	
siis	siis	0		D	
    	siis	0		J	
saab	saa	b		V	b
temale	tema	le		P	sg all
Mihkel	Mihkel	0		H	sg n
      	mihkel	0		A	sg n
      	mihkel	0		S	sg n
Aambose	####				
kostmise	kostmine	0		S	sg g
all	all	0		D	
   	all	0		K	
10	10	0		N	?
vitsa	vits	0		S	adt
     	vits	0		S	sg g
     	vits	0		S	sg p
lõõki	####				
trahvi	trahv	0		S	adt
      	trahv	0		S	sg g
      	trahvi	0		V	o
      	trahv	0		S	sg p
moistetud	####				
,	,			Z	
et	et	0		J	
tema	tema	0		P	sg g
    	tema	0		P	sg n
peab	pida	b		V	b
ennast	ise	t		P	sg p
parandama	paranda	ma		V	ma
.	.			Z	
Josep	####				
Kask	kask	0		S	sg n
XXX	XXX	0		O	?
   	XXX	0		Y	?
Juhan	Juhan	0		H	sg n
koppel	koppel	0		S	sg n
XXX	XXX	0		O	?
   	XXX	0		Y	?
Maddis	####				
Sildnik	####				
XXX	XXX	0		O	?
   	XXX	0		Y	?
