Jüri	Jüri	0		H	sg g
    	Jüri	0		H	sg n
Lepik	lepik	0		S	sg n
tikkunud	tikku	nud		V	nud
        	tikku=nu	d		S	pl n
        	tikku=nud	0		A	
        	tikku=nud	0		A	sg n
        	tikku=nud	d		A	pl n
Moisa	####				
metsavahi	metsa_vaht	0		S	sg g
keelmise	####				
vasto	####				
terve	terve	0		A	sg g
     	terve	0		A	sg n
     	terve	0		S	sg g
     	terve	0		S	sg n
metsa	mets	0		S	adt
     	mets	0		S	sg g
     	mets	0		S	sg p
sisse	siss	e		S	pl p
     	sisse	0		D	
     	sisse	0		K	
puud	puu	d		S	pl n
    	puud	0		S	sg n
    	puu	d		S	sg p
raijuma	####				
,	,			Z	
ning	ning	0		J	
lõi	loo	i		V	s
   	löö	i		V	s
moisa	####				
metsavaht	metsa_vaht	0		S	sg n
,	,			Z	
kes	kes	0		P	pl n
   	kes	0		P	sg n
kirve	kirves	0		S	sg g
tema	tema	0		P	sg g
    	tema	0		P	sg n
käest	käest	0		K	
     	käsi	st		S	sg el
selle	see	0		P	sg g
     	sell	e		S	pl p
pärast	pära	st		S	sg el
      	pärane	t		A	sg p
      	pärast	0		D	
      	pärast	0		K	
tahtis	taht	is		V	s
ära	ära	0		D	
   	ära	0		V	neg o
võtta	võt	a		V	da
.	.			Z	
Saab	Saab	0		H	sg n
    	saa	b		V	b
15	15	0		N	?
vitsa	vits	0		S	adt
     	vits	0		S	sg g
     	vits	0		S	sg p
hopi	####				
selle	see	0		P	sg g
     	sell	e		S	pl p
eest	eest	0		D	
    	eest	0		K	
    	esi	st		S	sg el
et	et	0		J	
moisast	####				
ülevatajaks	####				
jäetud	jäe=tu	d		S	pl n
      	jäe=tud	0		A	
      	jäe=tud	0		A	sg n
      	jäe=tud	d		A	pl n
      	jät	tud		V	tud
meest	meene	t		A	sg p
     	mees	t		S	sg p
     	mesi	st		S	sg el
lõi	loo	i		V	s
   	löö	i		V	s
,	,			Z	
ning	ning	0		J	
maksab	maks	b		V	b
50	50	0		N	?
kop	kop	0		Y	?
.	.			Z	
h	h	0		Y	?
.	.			Z	
trahvi	trahv	0		S	adt
      	trahv	0		S	sg g
      	trahvi	0		V	o
      	trahv	0		S	sg p
selle	see	0		P	sg g
     	sell	e		S	pl p
eest	eest	0		D	
    	eest	0		K	
    	esi	st		S	sg el
et	et	0		J	
terve	terve	0		A	sg g
     	terve	0		A	sg n
     	terve	0		S	sg g
     	terve	0		S	sg n
metsa	mets	0		S	adt
     	mets	0		S	sg g
     	mets	0		S	sg p
sisse	siss	e		S	pl p
     	sisse	0		D	
     	sisse	0		K	
raioma	####				
läks	mine	s		V	s
,	,			Z	
keelmise	####				
vasto	####				
.	.			Z	
_	_			Z	
