Ette	ette	0		D	
    	ette	0		K	
    	esi	tte		S	adt
tulid	tule	id		V	sid
Mina	mina	0		P	sg n
    	mina	0		S	sg g
    	mina	0		S	sg n
    	mina	0		S	sg p
Matson	####				
oma	oma	0		A	sg g
   	oma	0		D	
   	oma	0		P	sg g
   	oma	0		S	sg g
   	oma	0		V	o
   	oma	0		A	sg n
   	oma	0		A	sg p
   	oma	0		P	sg n
   	oma	0		P	sg p
   	oma	0		S	sg n
   	oma	0		S	sg p
Estkostjaga	####				
,	,			Z	
Joh	####				
.	.			Z	
Matsoniga	####				
,	,			Z	
ja	ja	0		J	
palus	palu	s		S	sg in
     	palu	s		V	s
kohut	kohus	t		S	sg p
seda	see	da		P	sg p
Jakob	Jakob	0		H	sg n
Torga	####				
sundida	sundi	da		V	da
,	,			Z	
et	et	0		J	
tema	tema	0		P	sg g
    	tema	0		P	sg n
temale	tema	le		P	sg all
lapse	laps	0		S	sg g
üleskasvatamise	üles_kasvatamine	0		S	sg g
abi	abi	0		S	sg g
   	abi	0		S	sg n
   	abi	0		S	sg p
maksab	maks	b		V	b
,	,			Z	
selle	see	0		P	sg g
     	sell	e		S	pl p
et	et	0		J	
temal	tema	l		P	sg ad
temast	tema	st		P	sg el
Laps	laps	0		S	sg n
on	ole	0		V	b
  	ole	0		V	vad
.	.			Z	
kui	kui	0		D	
   	kui	0		J	
nüüd	nüüd	0		D	
kogukonnakohtu	kogukonna_kohus	0		S	sg g
selle	see	0		P	sg g
     	sell	e		S	pl p
protokolli	protokoll	0		S	adt
          	protokoll	0		S	sg g
          	protokolli	0		V	o
          	protokoll	0		S	sg p
Raamatu	raamat	0		S	sg g
Ahepool	ahe_pool	0		S	sg n
??	??			Z	
No	no	0		I	
45	45	0		N	?
tunistab	####				
,	,			Z	
et	et	0		J	
Jakob	Jakob	0		H	sg n
Torg	####				
ettekutsutud	ette_kutsutu	d		S	pl n
            	ette_kutsutud	0		A	
            	ette_kutsutud	0		A	sg n
            	ette_kutsutud	d		A	pl n
ja	ja	0		J	
temale	tema	le		P	sg all
Nõuda	nõud	a		V	da
antud	an=tu	d		S	pl n
     	and	tud		V	tud
     	antud	0		A	
     	antud	0		A	sg n
     	antud	d		A	pl n
,	,			Z	
et	et	0		J	
tema	tema	0		P	sg g
    	tema	0		P	sg n
seda	see	da		P	sg p
naisterahvvaks	####				
omale	oma	le		A	sg all
     	oma	le		P	sg all
     	oma	le		S	sg all
naiseks	naine	ks		S	sg tr
võtaks	võt	ks		V	ks
,	,			Z	
ent	ent	0		J	
ütles	ütle	s		V	s
Jakob	Jakob	0		H	sg n
,	,			Z	
et	et	0		J	
kah	kah	0		D	
need	see	d		P	pl n
poisid	poi	sid		S	pl p
      	poiss	d		S	pl n
Jaan	Jaan	0		H	sg n
    	jaan	0		S	sg n
    	jaan	0		Y	?
Müür	müür	0		S	sg n
ja	ja	0		J	
Jakob	Jakob	0		H	sg n
Klaus	Klaus	0		H	sg n
on	ole	0		V	b
  	ole	0		V	vad
see	see	0		P	sg n
Mina	mina	0		P	sg n
    	mina	0		S	sg g
    	mina	0		S	sg n
    	mina	0		S	sg p
Matsoniga	####				
elanud	ela	nud		V	nud
      	ela=nu	d		S	pl n
      	ela=nud	0		A	
      	ela=nud	0		A	sg n
      	ela=nud	d		A	pl n
.	.			Z	
Need	see	d		P	pl n
nimetatud	nimeta	tud		V	tud
         	nimetatu	d		S	pl n
         	nimetatud	0		A	
         	nimetatud	0		A	sg n
         	nimetatud	d		A	pl n
2	2	0		N	?
poisse	poi	sse		S	sg ill
      	poiss	e		S	pl p
ettekutsutud	ette_kutsutu	d		S	pl n
            	ette_kutsutud	0		A	
            	ette_kutsutud	0		A	sg n
            	ette_kutsutud	d		A	pl n
,	,			Z	
ütleva	ütlev	0		A	sg g
välja	välja	0		D	
     	välja	0		V	o
     	väli	0		S	adt
     	väli	0		S	sg g
     	väli	0		S	sg p
,	,			Z	
et	et	0		J	
nemad	tema	d		P	pl n
mitte	mitte	0		D	
see	see	0		P	sg n
Miinaga	Miina	ga		H	sg kom
ei	ei	0		D	
  	ei	0		V	neg
ole	ole	0		V	o
elanud	ela	nud		V	nud
      	ela=nu	d		S	pl n
      	ela=nud	0		A	
      	ela=nud	0		A	sg n
      	ela=nud	d		A	pl n
vaid	vaid	0		D	
    	vaid	0		J	
et	et	0		J	
Jakob	Jakob	0		H	sg n
Torg	####				
neile	see	le		P	pl all
     	tema	le		P	pl all
35	35	0		N	?
rubl	####				
hõb	####				
paknu	####				
,	,			Z	
et	et	0		J	
nemad	tema	d		P	pl n
ütlesid	ütle	sid		V	sid
,	,			Z	
et	et	0		J	
nemad	tema	d		P	pl n
kah	kah	0		D	
oleksid	ole	ksid		V	ksid
Miinaga	Miina	ga		H	sg kom
elanud	ela	nud		V	nud
      	ela=nu	d		S	pl n
      	ela=nud	0		A	
      	ela=nud	0		A	sg n
      	ela=nud	d		A	pl n
.	.			Z	
Mina	mina	0		P	sg n
    	mina	0		S	sg g
    	mina	0		S	sg n
    	mina	0		S	sg p
Matson	####				
küsitud	küsi	tud		V	tud
       	küsi=tu	d		S	pl n
       	küsi=tud	0		A	
       	küsi=tud	0		A	sg n
       	küsi=tud	d		A	pl n
,	,			Z	
kas	kas	0		D	
tema	tema	0		P	sg g
    	tema	0		P	sg n
on	ole	0		V	b
  	ole	0		V	vad
nende	see	de		P	pl g
     	tema	de		P	pl g
poisidega	poi_side	ga		S	sg kom
elanud	ela	nud		V	nud
      	ela=nu	d		S	pl n
      	ela=nud	0		A	
      	ela=nud	0		A	sg n
      	ela=nud	d		A	pl n
,	,			Z	
ütles	ütle	s		V	s
,	,			Z	
et	et	0		J	
tema	tema	0		P	sg g
    	tema	0		P	sg n
mitte	mitte	0		D	
ei	ei	0		D	
  	ei	0		V	neg
ole	ole	0		V	o
kellega	kes	ga		P	pl kom
       	kes	ga		P	sg kom
,	,			Z	
kui	kui	0		D	
   	kui	0		J	
ükson	####				
Jakob	Jakob	0		H	sg n
Torgaga	####				
elanud	ela	nud		V	nud
      	ela=nu	d		S	pl n
      	ela=nud	0		A	
      	ela=nud	0		A	sg n
      	ela=nud	d		A	pl n
.	.			Z	
sai	saa	i		V	s
   	sai	0		S	sg n
mõistetud	mõist	tud		V	tud
         	mõiste=tu	d		S	pl n
         	mõiste=tud	0		A	
         	mõiste=tud	0		A	sg n
         	mõiste=tud	d		A	pl n
:	:			Z	
Jakob	Jakob	0		H	sg n
Torg	####				
peab	pida	b		V	b
Mina	mina	0		P	sg n
    	mina	0		S	sg g
    	mina	0		S	sg n
    	mina	0		S	sg p
Matsonile	####				
poea	####				
üleskasvatamise	üles_kasvatamine	0		S	sg g
peale	pea	le		S	sg all
     	peale	0		D	
     	peale	0		K	
iga	iga	0		P	sg g
   	iga	0		P	sg n
   	iga	0		P	sg p
   	iga	0		S	sg n
   	iga	0		S	sg p
aasta	aasta	0		S	sg g
     	aasta	0		S	sg n
8	8	0		N	?
rubl	####				
.	.			Z	
hoob	hoob	0		S	sg n
kümme	kümme	0		N	sg n
aastad	aasta	d		S	pl n
järgimööda	järgi_mööda	0		D	
maksma	maks	ma		V	ma
.	.			Z	
see	see	0		P	sg n
mõistmine	mõistmine	0		S	sg n
sai	saa	i		V	s
   	sai	0		S	sg n
kohtukäigele	####				
§	§	0		Y	?
772	772	0		N	?
ja	ja	0		J	
773	773	0		N	?
järrele	####				
kalutud	kalu=tu	d		A	pl n
.	.			Z	
Peeter	Peeter	0		H	sg n
Kutsari	kutsar	0		S	sg g
XXX	XXX	0		O	?
   	XXX	0		Y	?
Vidrik	####				
Harkmann	hark_mann	0		S	sg n
XXX	XXX	0		O	?
   	XXX	0		Y	?
Joosep	Joosep	0		H	sg n
Koor	koor	0		S	sg n
XXX	XXX	0		O	?
   	XXX	0		Y	?
Peeter	Peeter	0		H	sg n
Akert	####				
XXX	XXX	0		O	?
   	XXX	0		Y	?
Jakob	Jakob	0		H	sg n
Torg	####				
ja	ja	0		J	
Mina	mina	0		P	sg n
    	mina	0		S	sg g
    	mina	0		S	sg n
    	mina	0		S	sg p
Matson	####				
ei	ei	0		D	
  	ei	0		V	neg
oleva	olev	0		A	sg g
     	olev	0		S	sg g
selle	see	0		P	sg g
     	sell	e		S	pl p
mõistmisega	mõistmine	ga		S	sg kom
rahu	rahu	0		S	sg g
    	rahu	0		S	sg n
    	rahu	0		S	sg p
,	,			Z	
vaid	vaid	0		D	
    	vaid	0		J	
andsivad	####				
teada	tead	a		V	da
,	,			Z	
et	et	0		J	
nemad	tema	d		P	pl n
saavad	saa	vad		V	vad
      	saav	d		A	pl n
      	saav	d		S	pl n
suremad	####				
kohut	kohus	t		S	sg p
käima	käi	ma		V	ma
     	käim	0		S	adt
     	käim	0		S	sg g
     	käim	0		S	sg p
