et	et	0		J	
se	####				
Lesk	lesk	0		S	sg n
naine	naine	0		S	sg n
Sophie	####				
Preison	####				
Lohosu	####				
külast	küla	st		S	sg el
tahab	taht	b		V	b
ühe	üks	0		N	sg g
   	üks	0		P	sg g
   	ühe	0		S	sg n
teise	teine	0		O	adt
     	teine	0		O	sg g
     	teine	0		P	adt
     	teine	0		P	sg g
Aabiello	####				
sisse	siss	e		S	pl p
     	sisse	0		D	
     	sisse	0		K	
anda	and	a		V	da
,	,			Z	
siis	siis	0		D	
    	siis	0		J	
lubab	luba	b		V	b
tema	tema	0		P	sg g
    	tema	0		P	sg n
oma	oma	0		A	sg g
   	oma	0		D	
   	oma	0		P	sg g
   	oma	0		S	sg g
   	oma	0		V	o
   	oma	0		A	sg n
   	oma	0		A	sg p
   	oma	0		P	sg n
   	oma	0		P	sg p
   	oma	0		S	sg n
   	oma	0		S	sg p
esimese	esimene	0		O	sg g
       	esimene	0		P	sg g
Mehe	mees	0		S	sg g
tüttrele	####				
Lisole	####				
,	,			Z	
1	1	0		N	?
lehm	lehm	0		S	sg n
,	,			Z	
2	2	0		N	?
uvet	####				
Kube	kube	0		S	sg n
ja	ja	0		J	
3	3	0		N	?
rublat	rubla	t		S	sg p
raha	raha	0		S	sg g
    	raha	0		S	sg n
    	raha	0		S	sg p
.	.			Z	
Võlmõldrest	####				
jaeb	####				
Mert	####				
Usai	####				
,	,			Z	
Lohosu	####				
külast	küla	st		S	sg el
.	.			Z	
Aavvinurme	####				
kogokonna	####				
Kochtu	####				
mehet	####				
Aabram	Aabram	0		H	sg n
Kask	kask	0		S	sg n
XXX	XXX	0		O	?
   	XXX	0		Y	?
Michel	####				
Traks	traks	0		A	sg n
     	traks	0		S	sg n
XXX	XXX	0		O	?
   	XXX	0		Y	?
Karel	####				
Kuil	kuu	il		S	pl ad
XXX	XXX	0		O	?
   	XXX	0		Y	?
