adN182	####				
/	/			Z	
88.	88.	0		O	?
a.	a	0		Y	?
6.9.11.44. 89	69114489	0		N	?
.	.			Z	
a.	a	0		Y	?
Päärast	####				
seda	see	da		P	sg p
kui	kui	0		D	
   	kui	0		J	
kohtukäijatel	kohtu_käija	tel		S	pl ad
muud	muu	d		P	pl n
    	muu	d		S	pl n
    	muu	d		V	d
    	muu	d		P	sg p
    	muu	d		S	sg p
midagi	miski	dagi		P	sg p
enam	enam	0		C	sg n
    	enam	0		D	
ette	ette	0		D	
    	ette	0		K	
    	esi	tte		S	adt
tuua	too	a		V	da
ei	ei	0		D	
  	ei	0		V	neg
olnud	ol=nud	0		A	
     	ol=nud	0		A	sg n
     	ol=nud	d		A	pl n
     	ole	nud		V	nud
     	olnu	d		S	pl n
ja	ja	0		J	
kui	kui	0		D	
   	kui	0		J	
tunnistate	tunnista	te		V	te
ütlemised	ütlemine	d		S	pl n
etteloetud	ette_loetu	d		S	pl n
          	ette_loetud	0		A	
          	ette_loetud	0		A	sg n
          	ette_loetud	d		A	pl n
saanud	saa	nud		V	nud
      	saa=nud	0		A	
      	saa=nud	0		A	sg n
      	saa=nud	d		A	pl n
      	saanu	d		S	pl n
olid	ole	id		V	sid
siis	siis	0		D	
    	siis	0		J	
tegi	sina	0	gi	P	pl g
    	tege	i		V	s
    	sina	0	gi	P	pl n
kohus-	kohus	0		S	sg n
mõistus	mõistus	0		S	sg n
:	:			Z	
mõistus	mõistus	0		S	sg n
jäid	jää	id		V	sid
tegemata	tege	mata		V	mata
        	tegemata	0		A	
,	,			Z	
kuna	kuna	0		D	
    	kuna	0		J	
vallavanem	valla_vanem	0		S	sg n
Jants	####				
Jaak	Jaak	0		H	sg n
    	jaak	0		S	sg n
kennerile	####				
andeks	andeks	0		X	
      	anne	ks		S	sg tr
annud	####				
on	ole	0		V	b
  	ole	0		V	vad
.	.			Z	
