Protokoli	####				
peale	pea	le		S	sg all
     	peale	0		D	
     	peale	0		K	
11	11	0		N	?
Vebruarist	####				
s	s	0		Y	?
.	.			Z	
a.	a	0		Y	?
N	N	0		Y	?
:	:			Z	
24	24	0		N	?
tuli	tuli	0		S	sg n
    	tule	i		V	s
ette	ette	0		D	
    	ette	0		K	
    	esi	tte		S	adt
Palla	####				
mõisa	mõis	0		S	sg g
kirjutaja	kirjutaja	0		S	sg g
         	kirjutaja	0		S	sg n
Julius	Julius	0		H	sg n
Valdmann	vald_mann	0		S	sg n
ja	ja	0		J	
andis	and	is		V	s
üles	üles	0		D	
et	et	0		J	
kubjas	kubjas	0		S	sg n
Karl	Karl	0		H	sg n
Märtin	####				
mitte	mitte	0		D	
tänaseks	tänane	ks		A	sg tr
        	tänaseks	0		D	
päevaks	päev	ks		S	sg tr
ettetarvitud	####				
ei	ei	0		D	
  	ei	0		V	neg
ole	ole	0		V	o
sest	see	st		P	sg el
    	sest	0		J	
et	et	0		J	
ühe	üks	0		N	sg g
   	üks	0		P	sg g
   	ühe	0		S	sg n
väga	väga	0		D	
tarvilise	tarviline	0		A	sg g
asja	asi	0		S	adt
    	asi	0		S	sg g
    	asi	0		S	sg p
pärast	pära	st		S	sg el
      	pärane	t		A	sg p
      	pärast	0		D	
      	pärast	0		K	
mõisa	mõis	0		S	sg g
valitsus	valitsus	0		S	sg n
teda	tema	da		P	sg p
kolme	kolm	0		N	adt
     	kolm	0		N	sg g
     	kolm	0		N	sg p
päeva	päev	0		S	adt
     	päev	0		S	sg g
     	päev	0		S	sg p
peale	pea	le		S	sg all
     	peale	0		D	
     	peale	0		K	
kodust	kodu	st		S	sg el
      	kodune	t		A	sg p
ärasaatnud	ära_saat=nu	d		S	pl n
          	ära_saat=nud	0		A	
          	ära_saat=nud	0		A	sg n
          	ära_saat=nud	d		A	pl n
on	ole	0		V	b
  	ole	0		V	vad
.	.			Z	
ettekutsutud	ette_kutsutu	d		S	pl n
            	ette_kutsutud	0		A	
            	ette_kutsutud	0		A	sg n
            	ette_kutsutud	d		A	pl n
Jakob	Jakob	0		H	sg n
Puusep	####				
rana	####				
mõisa	mõis	0		S	sg g
moonamees	moona_mees	0		S	sg n
ja	ja	0		J	
vastas	vasta	s		V	s
      	vastas	0		D	
      	vastas	0		K	
küsimise	küsimine	0		S	sg g
peale	pea	le		S	sg all
     	peale	0		D	
     	peale	0		K	
et	et	0		J	
6tal	####				
Detsembril	detsember	l		S	sg ad
m	m	0		Y	?
.	.			Z	
a.	a	0		Y	?
olla	ole	a		V	da
tema	tema	0		P	sg g
    	tema	0		P	sg n
kartohvlidega	####				
Palla	####				
viinakoa	####				
juures	juur	s		S	sg in
      	juures	0		D	
      	juures	0		K	
olnud	ol=nud	0		A	
     	ol=nud	0		A	sg n
     	ol=nud	d		A	pl n
     	ole	nud		V	nud
     	olnu	d		S	pl n
kui	kui	0		D	
   	kui	0		J	
Palla	####				
mõisa	mõis	0		S	sg g
kubjas	kubjas	0		S	sg n
Karl	Karl	0		H	sg n
Märtin	####				
,	,			Z	
Madis	Madis	0		H	sg n
     	madis	0		S	sg n
Aabramsoni	####				
hobuse	hobune	0		S	sg g
pealt	pea	lt		S	sg abl
     	pealt	0		D	
     	pealt	0		K	
ohjad	ohja	d		V	d
     	ohi	d		S	pl n
äravõtnud	ära_võt=nu	d		S	pl n
         	ära_võt=nud	0		A	
         	ära_võt=nud	0		A	sg n
         	ära_võt=nud	d		A	pl n
ja	ja	0		J	
ütelnud	ütle	nud		V	nud
       	ütel=nu	d		S	pl n
       	ütel=nud	0		A	
       	ütel=nud	0		A	sg n
       	ütel=nud	d		A	pl n
et	et	0		J	
need	see	d		P	pl n
ohjad	ohja	d		V	d
     	ohi	d		S	pl n
mõisa	mõis	0		S	sg g
omad	oma	d		A	pl n
    	oma	d		P	pl n
    	oma	d		S	pl n
    	oma	d		V	d
olnud	ol=nud	0		A	
     	ol=nud	0		A	sg n
     	ol=nud	d		A	pl n
     	ole	nud		V	nud
     	olnu	d		S	pl n
,	,			Z	
selle	see	0		P	sg g
     	sell	e		S	pl p
peale	pea	le		S	sg all
     	peale	0		D	
     	peale	0		K	
võtnud	võt	nud		V	nud
      	võt=nu	d		S	pl n
      	võt=nud	0		A	
      	võt=nud	0		A	sg n
      	võt=nud	d		A	pl n
Karl	Karl	0		H	sg n
Märtin	####				
ühe	üks	0		N	sg g
   	üks	0		P	sg g
   	ühe	0		S	sg n
kepi	kepp	0		S	sg g
    	keppi	0		V	o
hao	hagu	0		S	sg g
kubu	kubu	0		S	sg g
    	kubu	0		S	sg n
    	kubu	0		S	sg p
seest	seest	0		D	
     	seest	0		K	
umbes	umbes	0		A	
     	umbes	0		D	
     	umme	s		S	sg in
kolm	kolm	0		N	sg n
jalga	jalg	0		S	adt
     	jalg	0		S	sg p
     	jalga	0		D	
pitk	####				
ja	ja	0		J	
lõõnud	####				
sellega	see	ga		P	sg kom
kaks	kaks	0		N	sg n
korda	kord	0		S	adt
     	korda	0		V	o
     	kord	0		S	sg p
Madis	Madis	0		H	sg n
     	madis	0		S	sg n
Aabramsonile	####				
õla	õlg	0		S	sg g
peale	pea	le		S	sg all
     	peale	0		D	
     	peale	0		K	
,	,			Z	
mispeale	mis_peale	0		D	
mõlemad	mõlema	d		P	pl n
riidlejad	riidle=ja	d		S	pl n
koost	koost	0		D	
     	kubu	st		S	sg el
äraläinud	ära_läinu	d		S	pl n
         	ära_läinud	0		A	
         	ära_läinud	0		A	sg n
         	ära_läinud	d		A	pl n
.	.			Z	
Madis	Madis	0		H	sg n
     	madis	0		S	sg n
Aabramson	####				
ei	ei	0		D	
  	ei	0		V	neg
ole	ole	0		V	o
Karl	Karl	0		H	sg n
Märtinid	####				
mitte	mitte	0		D	
puutunud	puutu	nud		V	nud
        	puutu=nu	d		S	pl n
        	puutu=nud	0		A	
        	puutu=nud	0		A	sg n
        	puutu=nud	d		A	pl n
.	.			Z	
Josep	####				
Villa	vill	0		S	adt
     	vill	0		S	sg g
     	vill	0		S	sg p
     	villa	0		S	sg g
     	villa	0		S	sg n
rana	####				
mõisa	mõis	0		S	sg g
moonamees	moona_mees	0		S	sg n
andis	and	is		V	s
niisama	nii_sama	0		D	
protokoli	####				
kui	kui	0		D	
   	kui	0		J	
Jakob	Jakob	0		H	sg n
Puusep	####				
ilma	ilm	0		S	adt
    	ilm	0		S	sg g
    	ilma	0		D	
    	ilma	0		K	
    	ilm	0		S	sg p
et	et	0		J	
midagi	miski	dagi		P	sg p
juurde	juur	de		S	adt
      	juurde	0		D	
      	juurde	0		K	
lisada	lisa	da		V	da
oli	ole	i		V	s
.	.			Z	
Madis	Madis	0		H	sg n
     	madis	0		S	sg n
Aabramson	####				
andis	and	is		V	s
üles	üles	0		D	
et	et	0		J	
tema	tema	0		P	sg g
    	tema	0		P	sg n
ennast	ise	t		P	sg p
mitte	mitte	0		D	
tohtri	tohter	0		S	sg g
poolt	pool	t		N	sg p
     	pool	t		S	sg p
     	poolt	0		D	
     	poolt	0		K	
ülevaadata	####				
lasknud	lask	nud		V	nud
       	lask=nu	d		S	pl n
       	lask=nud	0		A	
       	lask=nud	0		A	sg n
       	lask=nud	d		A	pl n
ei	ei	0		D	
  	ei	0		V	neg
ole	ole	0		V	o
mis	mis	0		P	pl n
   	mis	0		P	sg n
järele	järele	0		D	
      	järele	0		K	
kohus	kohu	s		V	s
     	kohus	0		S	sg n
nõnda	nõnda	0		D	
hoopide	hoop	de		S	pl g
raskusest	raskune	st		A	sg el
         	raskus	st		S	sg el
arusaada	####				
oleks	ole	ks		V	ks
võinud	või	nud		V	nud
      	või=nu	d		S	pl n
      	või=nud	0		A	
      	või=nud	0		A	sg n
      	või=nud	d		A	pl n
.	.			Z	
Madis	Madis	0		H	sg n
     	madis	0		S	sg n
Aabramsonil	####				
said	saa	id		V	sid
tunnistused	tunnistus	d		S	pl n
avaltud	####				
.	.			Z	
Otsus	otsus	0		S	sg n
:	:			Z	
Karl	Karl	0		H	sg n
Märtin	####				
tunnistuste	tunnistus	te		S	pl g
avalduseks	avaldus	ks		S	sg tr
ettetarvitada	####				
.	.			Z	
Peakohtumees	pea_kohtu_mees	0		S	sg n
J. Sarvi	####				
kohtumees	kohtu_mees	0		S	sg n
J. Stam	####				
kohtumees	kohtu_mees	0		S	sg n
M. Piiri	####				
Kirjutaja	kirjutaja	0		S	sg g
         	kirjutaja	0		S	sg n
Carl	Carl	0		H	sg n
Palm	palm	0		S	sg n
.	.			Z	
(	(			Z	
allkiri	all_kiri	0		S	sg n
)	)			Z	
