maga	maga	0		V	o
Peeter	Peeter	0		H	sg n
võtab	võt	b		V	b
Rasinal	####				
mõisa	mõis	0		S	sg g
all	all	0		D	
   	all	0		K	
Madi	####				
talu	talu	0		S	sg g
    	talu	0		V	o
    	talu	0		S	sg n
    	talu	0		S	sg p
,	,			Z	
ja	ja	0		J	
teeb	tege	b		V	b
selle	see	0		P	sg g
     	sell	e		S	pl p
eest	eest	0		D	
    	eest	0		K	
    	esi	st		S	sg el
kaks	kaks	0		N	sg n
paevat	####				
jalaga	jalg	ga		S	sg kom
iga	iga	0		P	sg g
   	iga	0		P	sg n
   	iga	0		P	sg p
   	iga	0		S	sg n
   	iga	0		S	sg p
nädal	nädal	0		S	sg n
mõisale	mõis	le		S	sg all
,	,			Z	
ja	ja	0		J	
toop	toop	0		S	sg n
talvel	talv	l		S	sg ad
      	tali	l		S	sg ad
kaks	kaks	0		N	sg n
sülda	süld	0		S	adt
     	süld	0		S	sg p
ahju	ahi	0		S	adt
    	ahi	0		S	sg g
    	ahi	0		S	sg p
puid	puu	id		S	pl p
mõisa	mõis	0		S	sg g
peale	pea	le		S	sg all
     	peale	0		D	
     	peale	0		K	
.	.			Z	
-	-			Z	
kui	kui	0		D	
   	kui	0		J	
Peeter	Peeter	0		H	sg n
maga	maga	0		V	o
akkab	####				
trootsima	####				
,	,			Z	
ja	ja	0		J	
teised	teine	d		O	pl n
      	teine	d		P	pl n
rahvas	rahvas	0		S	sg n
      	rahvas	s		S	sg in
mõisa	mõis	0		S	sg g
vastu	vastu	0		D	
     	vastu	0		K	
ülese	ülene	0		A	sg g
ajab	aja	b		V	b
,	,			Z	
siis	siis	0		D	
    	siis	0		J	
on	ole	0		V	b
  	ole	0		V	vad
mõisavalitsusel	mõisa_valitsus	l		S	sg ad
luba	luba	0		S	sg n
    	luba	0		V	o
    	luba	0		S	sg p
ka	ka	0		D	
kesk	kesk	0		K	
aastal	aasta	l		S	sg ad
maa	maa	0		S	sg g
   	maa	0		S	sg n
tema	tema	0		P	sg g
    	tema	0		P	sg n
kest	kest	0		S	sg n
perra	####				
võtma	võt	ma		V	ma
.	.			Z	
Rasin	rasi	n		V	n
3	3	0		N	?
August	august	0		S	sg n
      	auk	st		S	sg el
      	August	0		H	sg n
1862.	1862.	0		O	?
(	(			Z	
allkiri	all_kiri	0		S	sg n
)	)			Z	
Peeter	Peeter	0		H	sg n
maga	maga	0		V	o
XXX	XXX	0		O	?
   	XXX	0		Y	?
