Jüri	Jüri	0		H	sg g
    	Jüri	0		H	sg n
Järlov	####				
lubas	luba	s		V	s
oma	oma	0		A	sg g
   	oma	0		D	
   	oma	0		P	sg g
   	oma	0		S	sg g
   	oma	0		V	o
   	oma	0		A	sg n
   	oma	0		A	sg p
   	oma	0		P	sg n
   	oma	0		P	sg p
   	oma	0		S	sg n
   	oma	0		S	sg p
võlga	võlg	0		S	adt
     	võlg	0		S	sg p
11rbl	####				
.	.			Z	
Vidrik	####				
Jantsile	jant_sile	0		A	sg n
ära	ära	0		D	
   	ära	0		V	neg o
maksa	maks	0		S	adt
     	maks	0		S	sg g
     	maks	0		V	o
     	maks	0		S	sg p
,	,			Z	
nii	nii	0		D	
pea	pea	0		D	
   	pea	0		S	sg g
   	pida	0		V	o
   	pea	0		S	sg n
kui	kui	0		D	
   	kui	0		J	
tal	tema	l		P	sg ad
seda	see	da		P	sg p
võimalik	võimalik	0		A	sg n
on	ole	0		V	b
  	ole	0		V	vad
.	.			Z	
otsus	otsus	0		S	sg n
:	:			Z	
protokolli	protokoll	0		S	adt
          	protokoll	0		S	sg g
          	protokolli	0		V	o
          	protokoll	0		S	sg p
kirjutada	kirjuta	da		V	da
.	.			Z	
Peakohtumees	pea_kohtu_mees	0		S	sg n
M	M	0		O	?
 	M	0		Y	?
Roth	####				
(	(			Z	
allkiri	all_kiri	0		S	sg n
)	)			Z	
kohtumees	kohtu_mees	0		S	sg n
p	p	0		Y	?
Leverdand	####				
(	(			Z	
allkiri	all_kiri	0		S	sg n
)	)			Z	
kohtumees	kohtu_mees	0		S	sg n
H.Kangur	####				
(	(			Z	
allkiri	all_kiri	0		S	sg n
)	)			Z	
kohtumee	kohtu_mesi	0		S	sg g
J	J	0		Y	?
Järlov	####				
(	(			Z	
allkiri	all_kiri	0		S	sg n
)	)			Z	
Kirjut	kirju	t		A	sg p
.	.			Z	
(	(			Z	
allkiri	all_kiri	0		S	sg n
)	)			Z	
