Haslava	####				
kogukonna	kogukond	0		S	sg g
kohus	kohu	s		V	s
     	kohus	0		S	sg n
1	1	0		N	?
April	####				
1881.	1881.	0		O	?
juures	juur	s		S	sg in
      	juures	0		D	
      	juures	0		K	
istus	ist	s		S	sg in
     	istu	s		V	s
:	:			Z	
Peakohtumees	pea_kohtu_mees	0		S	sg n
Mihkel	Mihkel	0		H	sg n
      	mihkel	0		A	sg n
      	mihkel	0		S	sg n
Klaos	####				
kohtumees	kohtu_mees	0		S	sg n
Johan	Johan	0		H	sg n
Ling	ling	0		S	sg n
dito	####				
Johan	Johan	0		H	sg n
Udel	####				
dito	####				
Johan	Johan	0		H	sg n
Jantsel	####				
tüli	tüli	0		S	sg g
    	tüli	0		S	sg n
    	tüli	0		S	sg p
ette	ette	0		D	
    	ette	0		K	
    	esi	tte		S	adt
Jaan	Jaan	0		H	sg n
    	jaan	0		S	sg n
    	jaan	0		Y	?
Subbel	####				
ja	ja	0		J	
kaebas	kaeba	s		V	s
:	:			Z	
temal	tema	l		P	sg ad
on	ole	0		V	b
  	ole	0		V	vad
2	2	0		N	?
rubl	####				
.	.			Z	
55	55	0		N	?
kop	kop	0		Y	?
.	.			Z	
Joahkim	####				
Rosenthali	####				
käest	käest	0		K	
     	käsi	st		S	sg el
saada	saa	da		V	da
     	saat	0		V	o
     	saa	da		V	ta
,	,			Z	
mis	mis	0		P	pl n
   	mis	0		P	sg n
tema	tema	0		P	sg g
    	tema	0		P	sg n
välja	välja	0		D	
     	välja	0		V	o
     	väli	0		S	adt
     	väli	0		S	sg g
     	väli	0		S	sg p
on	ole	0		V	b
  	ole	0		V	vad
pidanud	pida	nud		V	nud
       	pida=nu	d		S	pl n
       	pida=nud	0		A	
       	pida=nud	0		A	sg n
       	pida=nud	d		A	pl n
maksma	maks	ma		V	ma
,	,			Z	
kui	kui	0		D	
   	kui	0		J	
kaebatav	####				
mitte	mitte	0		D	
mehi	mees	0		S	pl p
teed	tee	d		S	pl n
    	tege	d		V	d
    	tee	d		S	sg p
tasutusima	####				
(	(			Z	
tegema	tege	ma		V	ma
)	)			Z	
ja	ja	0		J	
ka	ka	0		D	
Saare	Saare	0		H	sg g
     	saar	0		S	sg g
     	Saare	0		H	sg n
selja	selg	0		S	sg g
parandama	paranda	ma		V	ma
ei	ei	0		D	
  	ei	0		V	neg
ole	ole	0		V	o
saatnud	saat	nud		V	nud
       	saat=nu	d		S	pl n
       	saat=nud	0		A	
       	saat=nud	0		A	sg n
       	saat=nud	d		A	pl n
ning	ning	0		J	
palub	palu	b		V	b
seda	see	da		P	sg p
nüüd	nüüd	0		D	
kätte	kätte	0		K	
     	käsi	tte		S	adt
saada	saa	da		V	da
     	saat	0		V	o
     	saa	da		V	ta
.	.			Z	
Joahkim	####				
Rosenthal	####				
kaebuse	kaebus	0		S	sg g
üle	üle	0		D	
   	üle	0		K	
küsitud	küsi	tud		V	tud
       	küsi=tu	d		S	pl n
       	küsi=tud	0		A	
       	küsi=tud	0		A	sg n
       	küsi=tud	d		A	pl n
,	,			Z	
ütles	ütle	s		V	s
välja	välja	0		D	
     	välja	0		V	o
     	väli	0		S	adt
     	väli	0		S	sg g
     	väli	0		S	sg p
:	:			Z	
tema	tema	0		P	sg g
    	tema	0		P	sg n
on	ole	0		V	b
  	ole	0		V	vad
omad	oma	d		A	pl n
    	oma	d		P	pl n
    	oma	d		S	pl n
    	oma	d		V	d
mehed	mees	d		S	pl n
sel	see	l		P	sg ad
   	sel	0		Y	?
korral	kord	l		S	sg ad
      	korral	0		D	
      	korral	0		K	
välja	välja	0		D	
     	välja	0		V	o
     	väli	0		S	adt
     	väli	0		S	sg g
     	väli	0		S	sg p
saatnud	saat	nud		V	nud
       	saat=nu	d		S	pl n
       	saat=nud	0		A	
       	saat=nud	0		A	sg n
       	saat=nud	d		A	pl n
ja	ja	0		J	
on	ole	0		V	b
  	ole	0		V	vad
pidand	####				
käsk	käsk	0		S	sg n
täidetud	täit	tud		V	tud
        	täide=tu	d		S	pl n
        	täide=tud	0		A	
        	täide=tud	0		A	sg n
        	täide=tud	d		A	pl n
saama	saa	ma		V	ma
     	saam	0		S	adt
     	saam	0		S	sg g
     	saam	0		S	sg p
.	.			Z	
Jaan	Jaan	0		H	sg n
    	jaan	0		S	sg n
    	jaan	0		Y	?
Kroomann	####				
tunnistas	tunnista	s		V	s
:	:			Z	
Joach	####				
.	.			Z	
Rosenthali	####				
mehed	mees	d		S	pl n
ei	ei	0		D	
  	ei	0		V	neg
ole	ole	0		V	o
sel	see	l		P	sg ad
   	sel	0		Y	?
korral	kord	l		S	sg ad
      	korral	0		D	
      	korral	0		K	
mitte	mitte	0		D	
väljas	välja	s		V	s
      	väli	s		S	sg in
      	väljas	0		D	
olnuvad	####				
,	,			Z	
siis	siis	0		D	
    	siis	0		J	
on	ole	0		V	b
  	ole	0		V	vad
Jaan	Jaan	0		H	sg n
    	jaan	0		S	sg n
    	jaan	0		Y	?
Subbel	####				
raha	raha	0		S	sg g
    	raha	0		S	sg n
    	raha	0		S	sg p
eest	eest	0		D	
    	eest	0		K	
    	esi	st		S	sg el
mehed	mees	d		S	pl n
palganud	palka	nud		V	nud
        	palga=nu	d		S	pl n
        	palga=nud	0		A	
        	palga=nud	0		A	sg n
        	palga=nud	d		A	pl n
ja	ja	0		J	
ka	ka	0		D	
pärast	pära	st		S	sg el
      	pärane	t		A	sg p
      	pärast	0		D	
      	pärast	0		K	
nõndale	####				
ommast	####				
käest	käest	0		K	
     	käsi	st		S	sg el
välja	välja	0		D	
     	välja	0		V	o
     	väli	0		S	adt
     	väli	0		S	sg g
     	väli	0		S	sg p
maksnud	maks	nud		V	nud
       	maks=nu	d		S	pl n
       	maks=nud	0		A	
       	maks=nud	0		A	sg n
       	maks=nud	d		A	pl n
.	.			Z	
mõistus	mõistus	0		S	sg n
.	.			Z	
selle	see	0		P	sg g
     	sell	e		S	pl p
et	et	0		J	
tunnistuse	tunnistus	0		S	sg g
perra	####				
Joahkim	####				
Rosenthal	####				
mitte	mitte	0		D	
oma	oma	0		A	sg g
   	oma	0		D	
   	oma	0		P	sg g
   	oma	0		S	sg g
   	oma	0		V	o
   	oma	0		A	sg n
   	oma	0		A	sg p
   	oma	0		P	sg n
   	oma	0		P	sg p
   	oma	0		S	sg n
   	oma	0		S	sg p
mehi	mees	0		S	pl p
välja	välja	0		D	
     	välja	0		V	o
     	väli	0		S	adt
     	väli	0		S	sg g
     	väli	0		S	sg p
ei	ei	0		D	
  	ei	0		V	neg
ole	ole	0		V	o
saatnud	saat	nud		V	nud
       	saat=nu	d		S	pl n
       	saat=nud	0		A	
       	saat=nud	0		A	sg n
       	saat=nud	d		A	pl n
ja	ja	0		J	
mehed	mees	d		S	pl n
on	ole	0		V	b
  	ole	0		V	vad
saanud	saa	nud		V	nud
      	saa=nud	0		A	
      	saa=nud	0		A	sg n
      	saa=nud	d		A	pl n
      	saanu	d		S	pl n
palgatud	palka	tud		V	tud
        	palga=tu	d		S	pl n
        	palga=tud	0		A	
        	palga=tud	0		A	sg n
        	palga=tud	d		A	pl n
,	,			Z	
siis	siis	0		D	
    	siis	0		J	
peab	pida	b		V	b
tema	tema	0		P	sg g
    	tema	0		P	sg n
2	2	0		N	?
rubl	####				
.	.			Z	
55	55	0		N	?
kop	kop	0		Y	?
.	.			Z	
8	8	0		N	?
peavad	pida	vad		V	vad
sees	sees	0		D	
    	sees	0		K	
Jaan	Jaan	0		H	sg n
    	jaan	0		S	sg n
    	jaan	0		Y	?
Soobeli	####				
hääks	####				
välja	välja	0		D	
     	välja	0		V	o
     	väli	0		S	adt
     	väli	0		S	sg g
     	väli	0		S	sg p
maksma	maks	ma		V	ma
.	.			Z	
Mihkel	Mihkel	0		H	sg n
      	mihkel	0		A	sg n
      	mihkel	0		S	sg n
Klaos	####				
Johan	Johan	0		H	sg n
Ling	ling	0		S	sg n
Johan	Johan	0		H	sg n
Udel	####				
Johan	Johan	0		H	sg n
Jantsel	####				
mõistus	mõistus	0		S	sg n
sai	saa	i		V	s
   	sai	0		S	sg n
kohtukäijatele	kohtu_käija	tele		S	pl all
T	T	0		Y	?
.	.			Z	
S	S	0		Y	?
.	.			Z	
R	R	0		Y	?
.	.			Z	
perra	####				
a.	a	0		Y	?
1860	1860	0		N	?
§	§	0		Y	?
772	772	0		N	?
-	-			Z	
774	774	0		N	?
kuulutud	kuulu	tud		V	tud
        	kuulu=tu	d		S	pl n
        	kuulu=tud	0		A	
        	kuulu=tud	0		A	sg n
        	kuulu=tud	d		A	pl n
ja	ja	0		J	
õppus	õppus	0		S	sg n
antud	an=tu	d		S	pl n
     	and	tud		V	tud
     	antud	0		A	
     	antud	0		A	sg n
     	antud	d		A	pl n
n.n.	####				
e	e	0		Y	?
.	.			Z	
ja	ja	0		J	
ei	ei	0		D	
  	ei	0		V	neg
olnud	ol=nud	0		A	
     	ol=nud	0		A	sg n
     	ol=nud	d		A	pl n
     	ole	nud		V	nud
     	olnu	d		S	pl n
Joahkim	####				
Rosenthal	####				
mitte	mitte	0		D	
sellega	see	ga		P	sg kom
rahul	rahu	l		S	sg ad
     	rahul	0		D	
.	.			Z	
