Peakohtumees	pea_kohtu_mees	0		S	sg n
Aadam	Aadam	0		H	sg n
Puk	####				
XXX	XXX	0		O	?
   	XXX	0		Y	?
Aabbi	####				
kohtumees	kohtu_mees	0		S	sg n
Kristjan	Kristjan	0		H	sg n
Täht	täht	0		S	sg n
XXX	XXX	0		O	?
   	XXX	0		Y	?
Võõlmünder	####				
Mart	Mart	0		H	sg n
    	mart	0		S	sg n
Lepp	lepp	0		S	sg n
XXX	XXX	0		O	?
   	XXX	0		Y	?
Mari	Mari	0		H	sg g
    	mari	0		S	sg g
    	mari	0		S	sg n
    	Mari	0		H	sg n
    	mari	0		S	sg p
Müller	Müller	0		H	sg n
ja	ja	0		J	
Liso	####				
Rand	rand	0		S	sg n
kaebad	kaeba	d		V	d
,	,			Z	
et	et	0		J	
Jüri	Jüri	0		H	sg g
    	Jüri	0		H	sg n
Kask	kask	0		S	sg n
on	ole	0		V	b
  	ole	0		V	vad
nende	see	de		P	pl g
     	tema	de		P	pl g
rided	####				
Moisa	####				
karja	kari	0		S	adt
     	kari	0		S	sg g
     	kari	0		S	sg p
lauda	laud	0		S	adt
     	laut	0		S	sg g
     	laud	0		S	sg p
kattusele	####				
viskanud	####				
ja	ja	0		J	
neid	neid	0		S	sg n
    	see	d		P	pl p
    	tema	d		P	pl p
veel	veel	0		D	
    	vesi	l		S	sg ad
peale	pea	le		S	sg all
     	peale	0		D	
     	peale	0		K	
selle	see	0		P	sg g
     	sell	e		S	pl p
lõnud	####				
.	.			Z	
Mari	Mari	0		H	sg g
    	mari	0		S	sg g
    	mari	0		S	sg n
    	Mari	0		H	sg n
    	mari	0		S	sg p
Mülerid	####				
üksi	üksi	0		D	
ja	ja	0		J	
Liso	####				
randa	rand	0		S	adt
     	rand	0		S	sg p
kaks	kaks	0		N	sg n
korda	kord	0		S	adt
     	korda	0		V	o
     	kord	0		S	sg p
.	.			Z	
Jüri	Jüri	0		H	sg g
    	Jüri	0		H	sg n
Kask	kask	0		S	sg n
ütleb	ütle	b		V	b
:	:			Z	
et	et	0		J	
nende	see	de		P	pl g
     	tema	de		P	pl g
rided	####				
on	ole	0		V	b
  	ole	0		V	vad
tema	tema	0		P	sg g
    	tema	0		P	sg n
viskanud	####				
nälja	nälg	0		S	sg g
pärast	pära	st		S	sg el
      	pärane	t		A	sg p
      	pärast	0		D	
      	pärast	0		K	
kattusele	####				
,	,			Z	
aga	aga	0		J	
tüdrukud	tüdruk	d		S	pl n
on	ole	0		V	b
  	ole	0		V	vad
ütlenud	####				
Jüri	Jüri	0		H	sg g
    	Jüri	0		H	sg n
Kask	kask	0		S	sg n
sina	sina	0		P	sg n
    	sina	0		S	sg g
    	sina	0		V	o
    	sina	0		S	sg n
    	sina	0		S	sg p
viska	viska	0		V	o
oma	oma	0		A	sg g
   	oma	0		D	
   	oma	0		P	sg g
   	oma	0		S	sg g
   	oma	0		V	o
   	oma	0		A	sg n
   	oma	0		A	sg p
   	oma	0		P	sg n
   	oma	0		P	sg p
   	oma	0		S	sg n
   	oma	0		S	sg p
naise	naine	0		S	sg g
rided	####				
kattusele	####				
.	.			Z	
Selle	see	0		P	sg g
     	sell	e		S	pl p
peale	pea	le		S	sg all
     	peale	0		D	
     	peale	0		K	
on	ole	0		V	b
  	ole	0		V	vad
Jüri	Jüri	0		H	sg g
    	Jüri	0		H	sg n
Kask	kask	0		S	sg n
neid	neid	0		S	sg n
    	see	d		P	pl p
    	tema	d		P	pl p
tüdrukud	tüdruk	d		S	pl n
:	:			Z	
lõnud	####				
.	.			Z	
Seda	see	da		P	sg p
tunnistad	tunnista	d		V	d
Juhan	Juhan	0		H	sg n
Vels	####				
ja	ja	0		J	
Mart	Mart	0		H	sg n
    	mart	0		S	sg n
ei	ei	0		D	
  	ei	0		V	neg
.	.			Z	
kogokonna	####				
kohus	kohu	s		V	s
     	kohus	0		S	sg n
on	ole	0		V	b
  	ole	0		V	vad
mõistnud	mõist	nud		V	nud
        	mõist=nu	d		S	pl n
        	mõist=nud	0		A	
        	mõist=nud	0		A	sg n
        	mõist=nud	d		A	pl n
,	,			Z	
et	et	0		J	
Jüri	Jüri	0		H	sg g
    	Jüri	0		H	sg n
Kask	kask	0		S	sg n
selle	see	0		P	sg g
     	sell	e		S	pl p
eest	eest	0		D	
    	eest	0		K	
    	esi	st		S	sg el
tema	tema	0		P	sg g
    	tema	0		P	sg n
nende	see	de		P	pl g
     	tema	de		P	pl g
tüdrukute	tüdruk	te		S	pl g
rided	####				
on	ole	0		V	b
  	ole	0		V	vad
kattusele	####				
viskanud	####				
ja	ja	0		J	
neid	neid	0		S	sg n
    	see	d		P	pl p
    	tema	d		P	pl p
lõnud	####				
peab	pida	b		V	b
15	15	0		N	?
loki	lokk	0		S	sg g
    	lokki	0		V	o
vitso	####				
sama	sama	0		P	sg g
    	sama	0		P	sg n
    	sama	0		P	sg p
.	.			Z	
Selle	see	0		P	sg g
     	sell	e		S	pl p
peale	pea	le		S	sg all
     	peale	0		D	
     	peale	0		K	
on	ole	0		V	b
  	ole	0		V	vad
need	see	d		P	pl n
tüdrukud	tüdruk	d		S	pl n
palunud	palu	nud		V	nud
       	palu=nu	d		S	pl n
       	palu=nud	0		A	
       	palu=nud	0		A	sg n
       	palu=nud	d		A	pl n
,	,			Z	
et	et	0		J	
nemad	tema	d		P	pl n
leppi	lepp	i		S	pl p
ära	ära	0		D	
   	ära	0		V	neg o
ja	ja	0		J	
annad	and	d		V	d
     	anna	d		S	pl n
se	####				
kord	kord	0		D	
    	kord	0		S	sg n
andeks	andeks	0		X	
      	anne	ks		S	sg tr
.	.			Z	
Kirjutaja	kirjutaja	0		S	sg g
         	kirjutaja	0		S	sg n
C. Friedrich	####				
Mandel	mandel	0		S	sg n
