Aavvinurme	####				
Metskogokonnakohtus	####				
sel	see	l		P	sg ad
   	sel	0		Y	?
8	8	0		N	?
Decembril	####				
187.8	187.8	0		N	?
koos	koos	0		D	
    	koos	0		K	
    	koos	0		S	sg n
    	kubu	s		S	sg in
olid	ole	id		V	sid
peakohtumees	pea_kohtu_mees	0		S	sg n
Josep	####				
Laurison	####				
teine	teine	0		O	sg n
     	teine	0		P	sg n
kohtumees	kohtu_mees	0		S	sg n
Aandres	####				
Kiik	kiik	0		S	sg n
kolmas	kolmas	0		O	sg n
kohtumees	kohtu_mees	0		S	sg n
Josep	####				
Velt	####				
kaebas	kaeba	s		V	s
Kadri	Kadri	0		H	sg g
     	Kadri	0		H	sg n
     	kadri	0		S	sg g
     	kadri	0		S	sg n
Vaher	vaher	0		S	sg n
oma	oma	0		A	sg g
   	oma	0		D	
   	oma	0		P	sg g
   	oma	0		S	sg g
   	oma	0		V	o
   	oma	0		A	sg n
   	oma	0		A	sg p
   	oma	0		P	sg n
   	oma	0		P	sg p
   	oma	0		S	sg n
   	oma	0		S	sg p
Venna	vend	0		S	sg g
Jüri	Jüri	0		H	sg g
    	Jüri	0		H	sg n
Lille	lill	0		S	adt
     	lill	0		S	sg g
     	lill	0		S	sg p
juures	juur	s		S	sg in
      	juures	0		D	
      	juures	0		K	
olemisel	olemine	l		S	sg ad
et	et	0		J	
temal	tema	l		P	sg ad
Jaan	Jaan	0		H	sg n
    	jaan	0		S	sg n
    	jaan	0		Y	?
Silla	sild	0		S	sg g
käest	käest	0		K	
     	käsi	st		S	sg el
25	25	0		N	?
rubla	rubla	0		S	sg g
     	rubla	0		S	sg n
     	rubla	0		S	sg p
sada	sada	0		N	sg n
    	sada	0		N	sg p
on	ole	0		V	b
  	ole	0		V	vad
ja	ja	0		J	
et	et	0		J	
tema	tema	0		P	sg g
    	tema	0		P	sg n
lesk	lesk	0		S	sg n
inimenne	inim_enne	0		S	sg n
ja	ja	0		J	
lapsed	laps	d		S	pl n
toita	toit	a		V	da
.	.			Z	
siis	siis	0		D	
    	siis	0		J	
palub	palu	b		V	b
tema	tema	0		P	sg g
    	tema	0		P	sg n
kogokonnakohut	####				
Jaan	Jaan	0		H	sg n
    	jaan	0		S	sg n
    	jaan	0		Y	?
Silda	sild	0		S	adt
     	silda	0		V	o
     	sild	0		S	sg p
sundida	sundi	da		V	da
et	et	0		J	
se	####				
temale	tema	le		P	sg all
se	####				
võlg	võlg	0		S	sg n
ära	ära	0		D	
   	ära	0		V	neg o
maksab	maks	b		V	b
.	.			Z	
Jaan	Jaan	0		H	sg n
    	jaan	0		S	sg n
    	jaan	0		Y	?
Sild	sild	0		S	sg n
tunnistas	tunnista	s		V	s
et	et	0		J	
se	####				
õige	õige	0		A	sg g
    	õige	0		A	sg n
    	õige	0		D	
et	et	0		J	
tema	tema	0		P	sg g
    	tema	0		P	sg n
Kadri	Kadri	0		H	sg g
     	Kadri	0		H	sg n
     	kadri	0		S	sg g
     	kadri	0		S	sg n
Vaherile	####				
25	25	0		N	?
rubla	rubla	0		S	sg g
     	rubla	0		S	sg n
     	rubla	0		S	sg p
võlgu	võlg	u		S	pl p
     	võlgu	0		D	
on	ole	0		V	b
  	ole	0		V	vad
.	.			Z	
ja	ja	0		J	
oleks	ole	ks		V	ks
tema	tema	0		P	sg g
    	tema	0		P	sg n
se	####				
võlg	võlg	0		S	sg n
juba	juba	0		D	
ammugi	ammugi	0		D	
ära	ära	0		D	
   	ära	0		V	neg o
maksnud	maks	nud		V	nud
       	maks=nu	d		S	pl n
       	maks=nud	0		A	
       	maks=nud	0		A	sg n
       	maks=nud	d		A	pl n
.	.			Z	
kui	kui	0		D	
   	kui	0		J	
tema	tema	0		P	sg g
    	tema	0		P	sg n
oma	oma	0		A	sg g
   	oma	0		D	
   	oma	0		P	sg g
   	oma	0		S	sg g
   	oma	0		V	o
   	oma	0		A	sg n
   	oma	0		A	sg p
   	oma	0		P	sg n
   	oma	0		P	sg p
   	oma	0		S	sg n
   	oma	0		S	sg p
issa	####				
käest	käest	0		K	
     	käsi	st		S	sg el
oleks	ole	ks		V	ks
oma	oma	0		A	sg g
   	oma	0		D	
   	oma	0		P	sg g
   	oma	0		S	sg g
   	oma	0		V	o
   	oma	0		A	sg n
   	oma	0		A	sg p
   	oma	0		P	sg n
   	oma	0		P	sg p
   	oma	0		S	sg n
   	oma	0		S	sg p
raha	raha	0		S	sg g
    	raha	0		S	sg n
    	raha	0		S	sg p
kätte	kätte	0		K	
     	käsi	tte		S	adt
saanud	saa	nud		V	nud
      	saa=nud	0		A	
      	saa=nud	0		A	sg n
      	saa=nud	d		A	pl n
      	saanu	d		S	pl n
.	.			Z	
Moistus	####				
Jaan	Jaan	0		H	sg n
    	jaan	0		S	sg n
    	jaan	0		Y	?
Sild	sild	0		S	sg n
peab	pida	b		V	b
se	####				
võlg	võlg	0		S	sg n
25	25	0		N	?
rubla	rubla	0		S	sg g
     	rubla	0		S	sg n
     	rubla	0		S	sg p
Jõulu	####				
pühatest	####				
1878	1878	0		N	?
Kadri	Kadri	0		H	sg g
     	Kadri	0		H	sg n
     	kadri	0		S	sg g
     	kadri	0		S	sg n
Vaherile	####				
ära	ära	0		D	
   	ära	0		V	neg o
maksma	maks	ma		V	ma
.	.			Z	
vastasel	vastane	l		A	sg ad
        	vastane	l		S	sg ad
korral	kord	l		S	sg ad
      	korral	0		D	
      	korral	0		K	
saab	saa	b		V	b
temale	tema	le		P	sg all
oksjon	oksjon	0		S	sg n
tehtud	tehtu	d		S	pl n
      	tehtud	0		A	
      	tehtud	0		A	sg n
      	tehtud	d		A	pl n
      	tege	tud		V	tud
ja	ja	0		J	
selle	see	0		P	sg g
     	sell	e		S	pl p
tee	tee	0		S	sg g
   	tege	0		V	o
   	tee	0		S	sg n
peal	pea	l		S	sg ad
    	peal	0		D	
    	peal	0		K	
se	####				
raha	raha	0		S	sg g
    	raha	0		S	sg n
    	raha	0		S	sg p
sisse	siss	e		S	pl p
     	sisse	0		D	
     	sisse	0		K	
nõutud	nõu=tu	d		S	pl n
      	nõu=tud	0		A	
      	nõu=tud	0		A	sg n
      	nõu=tud	d		A	pl n
      	nõud	tud		V	tud
      	nõutu	d		A	pl n
.	.			Z	
ja	ja	0		J	
saab	saa	b		V	b
selle	see	0		P	sg g
     	sell	e		S	pl p
eest	eest	0		D	
    	eest	0		K	
    	esi	st		S	sg el
et	et	0		J	
tema	tema	0		P	sg g
    	tema	0		P	sg n
kohtu	kohtu	0		V	o
     	kohus	0		S	sg g
toas	tuba	s		S	sg in
kisendanud	kisenda	nud		V	nud
          	kisenda=nu	d		S	pl n
          	kisenda=nud	0		A	
          	kisenda=nud	0		A	sg n
          	kisenda=nud	d		A	pl n
12	12	0		N	?
tunni	tund	0		S	sg g
peale	pea	le		S	sg all
     	peale	0		D	
     	peale	0		K	
kinni	kinni	0		D	
pantud	####				
.	.			Z	
Josep	####				
Laurison	####				
XXX	XXX	0		O	?
   	XXX	0		Y	?
Aandres	####				
Kiik	kiik	0		S	sg n
XXX	XXX	0		O	?
   	XXX	0		Y	?
Josep	####				
Velt	####				
XXX	XXX	0		O	?
   	XXX	0		Y	?
