Haslava	####				
kogukonna	kogukond	0		S	sg g
kohus	kohu	s		V	s
     	kohus	0		S	sg n
sel	see	l		P	sg ad
   	sel	0		Y	?
23	23	0		N	?
septembril	september	l		S	sg ad
1885	1885	0		N	?
man	man	0		D	
   	man	0		K	
olid	ole	id		V	sid
:	:			Z	
peakohtumees	pea_kohtu_mees	0		S	sg n
Jaan	Jaan	0		H	sg n
    	jaan	0		S	sg n
    	jaan	0		Y	?
Ling	ling	0		S	sg n
kohtumees	kohtu_mees	0		S	sg n
:	:			Z	
Johan	Johan	0		H	sg n
Klaosen	####				
""""	""""			Z	
Peeter	Peeter	0		H	sg n
Ivan	Ivan	0		H	sg n
""""	""""			Z	
Johan	Johan	0		H	sg n
Grossberg	####				
selle	see	0		P	sg g
     	sell	e		S	pl p
otsuse	otsus	0		S	sg g
peale	pea	le		S	sg all
     	peale	0		D	
     	peale	0		K	
sest	see	st		P	sg el
    	sest	0		J	
2	2	0		N	?
septembrist	september	st		S	sg el
s	s	0		Y	?
.	.			Z	
a.	a	0		Y	?
Mari	Mari	0		H	sg g
    	mari	0		S	sg g
    	mari	0		S	sg n
    	Mari	0		H	sg n
    	mari	0		S	sg p
Janseni	####				
kaebuse	kaebus	0		S	sg g
asja	asi	0		S	adt
    	asi	0		S	sg g
    	asi	0		S	sg p
vastu	vastu	0		D	
     	vastu	0		K	
Peeter	Peeter	0		H	sg n
soo	soo	0		I	
   	soo	0		S	sg g
   	sugu	0		S	sg g
   	soo	0		S	sg n
nõudmise	nõudmine	0		S	sg g
pärast	pära	st		S	sg el
      	pärane	t		A	sg p
      	pärast	0		D	
      	pärast	0		K	
oli	ole	i		V	s
täna	täna	0		D	
    	täna	0		V	o
täis	täi	s		S	sg in
    	täi	s		V	s
    	täis	0		A	
    	täis	0		A	sg n
    	täis	0		D	
    	täis	0		S	sg n
kohus	kohu	s		V	s
     	kohus	0		S	sg n
koos	koos	0		D	
    	koos	0		K	
    	koos	0		S	sg n
    	kubu	s		S	sg in
ja	ja	0		J	
sai	saa	i		V	s
   	sai	0		S	sg n
Mõistetud	mõist	tud		V	tud
         	mõiste=tu	d		S	pl n
         	mõiste=tud	0		A	
         	mõiste=tud	0		A	sg n
         	mõiste=tud	d		A	pl n
:	:			Z	
et	et	0		J	
Mari	Mari	0		H	sg g
    	mari	0		S	sg g
    	mari	0		S	sg n
    	Mari	0		H	sg n
    	mari	0		S	sg p
Jantsoni	jant_soni	0		S	sg g
        	jant_soni	0		S	sg n
        	jant_soni	0		S	sg p
nõudmise	nõudmine	0		S	sg g
kaebus	kaebus	0		S	sg n
vasta	vasta	0		V	o
Peeter	Peeter	0		H	sg n
soo	soo	0		I	
   	soo	0		S	sg g
   	sugu	0		S	sg g
   	soo	0		S	sg n
tühjaks	tühi	ks		A	sg tr
on	ole	0		V	b
  	ole	0		V	vad
mõista	mõist	0		V	o
      	mõist	a		V	da
,	,			Z	
selle	see	0		P	sg g
     	sell	e		S	pl p
et	et	0		J	
see	see	0		P	sg n
nõudmine	nõudmine	0		S	sg n
selge	selge	0		A	sg g
     	selge	0		A	sg n
ei	ei	0		D	
  	ei	0		V	neg
ole	ole	0		V	o
sest	see	st		P	sg el
    	sest	0		J	
kui	kui	0		D	
   	kui	0		J	
Peeter	Peeter	0		H	sg n
soo	soo	0		I	
   	soo	0		S	sg g
   	sugu	0		S	sg g
   	soo	0		S	sg n
selle	see	0		P	sg g
     	sell	e		S	pl p
maja	maja	0		S	sg g
    	maja	0		S	sg n
    	maja	0		S	sg p
võttis	võt	is		V	s
ja	ja	0		J	
krami	####				
ostis	ost	is		V	s
     	ost	s		S	sg in
ja	ja	0		J	
siis	siis	0		D	
    	siis	0		J	
midagi	miski	dagi		P	sg p
Mari	Mari	0		H	sg g
    	mari	0		S	sg g
    	mari	0		S	sg n
    	Mari	0		H	sg n
    	mari	0		S	sg p
Jantsoni	jant_soni	0		S	sg g
        	jant_soni	0		S	sg n
        	jant_soni	0		S	sg p
heaks	hea	ks		A	sg tr
     	hea	ks		S	sg tr
     	heaks	0		D	
     	heaks	0		K	
jäi	jää	i		V	s
,	,			Z	
pidas	pida	s		V	s
Mari	Mari	0		H	sg g
    	mari	0		S	sg g
    	mari	0		S	sg n
    	Mari	0		H	sg n
    	mari	0		S	sg p
Jansen	####				
seda	see	da		P	sg p
selgeks	selge	ks		A	sg tr
kohtu	kohtu	0		V	o
     	kohus	0		S	sg g
protokolli	protokoll	0		S	adt
          	protokoll	0		S	sg g
          	protokolli	0		V	o
          	protokoll	0		S	sg p
üles	üles	0		D	
panna	pand	0		S	sg g
     	pane	a		V	da
     	panna	0		S	sg g
     	panna	0		S	sg n
laskma	lask	ma		V	ma
ja	ja	0		J	
et	et	0		J	
Peeter	Peeter	0		H	sg n
soo	soo	0		I	
   	soo	0		S	sg g
   	sugu	0		S	sg g
   	soo	0		S	sg n
selle	see	0		P	sg g
     	sell	e		S	pl p
Mari	Mari	0		H	sg g
    	mari	0		S	sg g
    	mari	0		S	sg n
    	Mari	0		H	sg n
    	mari	0		S	sg p
Jantsonile	jant_soni	le		S	sg all
tarvilise	tarviline	0		A	sg g
toitu	toit	0		S	adt
     	toitu	0		V	o
     	toit	0		S	sg p
,	,			Z	
rõivad	rõivas	d		S	pl n
ja	ja	0		J	
ka	ka	0		D	
kangise	####				
andma	and	ma		V	ma
peab	pida	b		V	b
ja	ja	0		J	
Mari	Mari	0		H	sg g
    	mari	0		S	sg g
    	mari	0		S	sg n
    	Mari	0		H	sg n
    	mari	0		S	sg p
Jansen	####				
peab	pida	b		V	b
selle	see	0		P	sg g
     	sell	e		S	pl p
juures	juur	s		S	sg in
      	juures	0		D	
      	juures	0		K	
rahulik	rahulik	0		A	sg n
olema	ole	ma		V	ma
ja	ja	0		J	
seda	see	da		P	sg p
talun	talu	n		V	n
tallitama	####				
,	,			Z	
mis	mis	0		P	pl n
   	mis	0		P	sg n
tema	tema	0		P	sg g
    	tema	0		P	sg n
jõud	jõud	0		S	sg n
    	jõud	d		S	pl n
kannab	kand	b		V	b
.	.			Z	
see	see	0		P	sg n
mõistus	mõistus	0		S	sg n
sai	saa	i		V	s
   	sai	0		S	sg n
kuulutada	kuuluta	da		V	da
Mari	Mari	0		H	sg g
    	mari	0		S	sg g
    	mari	0		S	sg n
    	Mari	0		H	sg n
    	mari	0		S	sg p
Jantsonile	jant_soni	le		S	sg all
ja	ja	0		J	
õpetud	####				
leht	leht	0		S	sg n
välja	välja	0		D	
     	välja	0		V	o
     	väli	0		S	adt
     	väli	0		S	sg g
     	väli	0		S	sg p
antud	an=tu	d		S	pl n
     	and	tud		V	tud
     	antud	0		A	
     	antud	0		A	sg n
     	antud	d		A	pl n
sel	see	l		P	sg ad
   	sel	0		Y	?
14	14	0		N	?
Oktobri	####				
1885	1885	0		N	?
see	see	0		P	sg n
mõistus	mõistus	0		S	sg n
Peeter	Peeter	0		H	sg n
soole	soo	le		S	sg all
     	sool	0		S	sg g
     	sool	e		S	pl p
     	sugu	le		S	sg all
kuulutatud	kuuluta	tud		V	tud
          	kuuluta=tu	d		S	pl n
          	kuuluta=tud	0		A	
          	kuuluta=tud	0		A	sg n
          	kuuluta=tud	d		A	pl n
.	.			Z	
peakohtumees	pea_kohtu_mees	0		S	sg n
J. Ling	####				
/	/			Z	
allkiri	all_kiri	0		S	sg n
/	/			Z	
kohtumees	kohtu_mees	0		S	sg n
Johan	Johan	0		H	sg n
Klaosen	####				
XXX	XXX	0		O	?
   	XXX	0		Y	?
""""	""""			Z	
J. Krusberg	####				
/	/			Z	
allkiri	all_kiri	0		S	sg n
/	/			Z	
""""	""""			Z	
Peeter	Peeter	0		H	sg n
Ivan	Ivan	0		H	sg n
/	/			Z	
allkiri	all_kiri	0		S	sg n
/	/			Z	
