Kooskora	####				
maja	maja	0		S	sg g
    	maja	0		S	sg n
    	maja	0		S	sg p
peremees	pere_mees	0		S	sg n
Saamuel	####				
Tik	####				
andis	and	is		V	s
üles	üles	0		D	
,	,			Z	
et	et	0		J	
tema	tema	0		P	sg g
    	tema	0		P	sg n
kodapoolne	koda_poolne	0		A	sg n
Johan	Johan	0		H	sg n
Tootsi	Tootsi	0		H	adt
      	Tootsi	0		H	sg g
      	Tootsi	0		H	sg n
kevade	kevad	0		S	sg g
      	kevade	0		S	sg g
      	kevade	0		S	sg n
tarest	tare	st		S	sg el
välja	välja	0		D	
     	välja	0		V	o
     	väli	0		S	adt
     	väli	0		S	sg g
     	väli	0		S	sg p
peab	pida	b		V	b
minemad	####				
,	,			Z	
sest	see	st		P	sg el
    	sest	0		J	
et	et	0		J	
tema	tema	0		P	sg g
    	tema	0		P	sg n
varastab	varasta	b		V	b
ja	ja	0		J	
joob	joo	b		V	b
.	.			Z	
Johan	Johan	0		H	sg n
Tootsi	Tootsi	0		H	adt
      	Tootsi	0		H	sg g
      	Tootsi	0		H	sg n
ei	ei	0		D	
  	ei	0		V	neg
ole	ole	0		V	o
tulnud	tul=nud	0		A	
      	tul=nud	0		A	sg n
      	tul=nud	d		A	pl n
      	tule	nud		V	nud
      	tulnu	d		S	pl n
.	.			Z	
otsus	otsus	0		S	sg n
:	:			Z	
Johan	Johan	0		H	sg n
Tootsi	Tootsi	0		H	adt
      	Tootsi	0		H	sg g
      	Tootsi	0		H	sg n
saab	saa	b		V	b
18.	18.	0		O	?
Detsembril	detsember	l		S	sg ad
ettetoodut	ette_toodu	t		S	sg p
          	ette_toodud	t		A	sg p
ülesütlemiseks	üles_ütlemine	ks		S	sg tr
.	.			Z	
5.	5.	0		O	?
Vebruaril	####				
1888	1888	0		N	?
Joh	####				
.	.			Z	
Tootsile	Tootsi	le		H	sg all
ülesüteldut	üles_ütel=du	t		S	sg p
.	.			Z	
