tüli	tüli	0		S	sg g
    	tüli	0		S	sg n
    	tüli	0		S	sg p
ette	ette	0		D	
    	ette	0		K	
    	esi	tte		S	adt
Jüri	Jüri	0		H	sg g
    	Jüri	0		H	sg n
saks	saks	0		S	sg n
ja	ja	0		J	
kaebas	kaeba	s		V	s
:	:			Z	
temal	tema	l		P	sg ad
on	ole	0		V	b
  	ole	0		V	vad
15	15	0		N	?
rbl	rbl	0		Y	?
.	.			Z	
Jakob	Jakob	0		H	sg n
Koori	koor	0		S	adt
     	koor	0		S	sg g
     	koor	i		S	pl p
     	koori	0		V	o
     	koor	0		S	sg p
käest	käest	0		K	
     	käsi	st		S	sg el
saada	saa	da		V	da
     	saat	0		V	o
     	saa	da		V	ta
,	,			Z	
mis	mis	0		P	pl n
   	mis	0		P	sg n
see	see	0		P	sg n
ei	ei	0		D	
  	ei	0		V	neg
salga	salga	0		V	o
     	salk	0		S	sg g
vaid	vaid	0		D	
    	vaid	0		J	
lubab	luba	b		V	b
seda	see	da		P	sg p
Jüripäävaks	####				
s	s	0		Y	?
.	.			Z	
a.	a	0		Y	?
ära	ära	0		D	
   	ära	0		V	neg o
maksa	maks	0		S	adt
     	maks	0		S	sg g
     	maks	0		V	o
     	maks	0		S	sg p
,	,			Z	
kellega	kes	ga		P	pl kom
       	kes	ga		P	sg kom
Jüri	Jüri	0		H	sg g
    	Jüri	0		H	sg n
saks	saks	0		S	sg n
rahul	rahu	l		S	sg ad
     	rahul	0		D	
oli	ole	i		V	s
.	.			Z	
otsus	otsus	0		S	sg n
:	:			Z	
seda	see	da		P	sg p
protokolli	protokoll	0		S	adt
          	protokoll	0		S	sg g
          	protokolli	0		V	o
          	protokoll	0		S	sg p
ülespanna	üles_pand	0		S	sg g
         	üles_panna	0		S	sg g
         	üles_panna	0		S	sg n
.	.			Z	
Peakohtumees	pea_kohtu_mees	0		S	sg n
:	:			Z	
Peeter	Peeter	0		H	sg n
Kripson	####				
XXX	XXX	0		O	?
   	XXX	0		Y	?
kohtumees	kohtu_mees	0		S	sg n
:	:			Z	
Peeter	Peeter	0		H	sg n
Hendrikson	####				
XXX	XXX	0		O	?
   	XXX	0		Y	?
kohtumees	kohtu_mees	0		S	sg n
:	:			Z	
Kusta	Kusta	0		H	sg g
     	Kusta	0		H	sg n
     	kuse	ta		V	da
     	kuse	ta		V	ta
Ivanthal	####				
XXX	XXX	0		O	?
   	XXX	0		Y	?
kohtumees	kohtu_mees	0		S	sg n
:	:			Z	
koha	koht	0		S	sg g
    	koha	0		S	sg g
    	koha	0		V	o
    	koha	0		S	sg n
    	koha	0		S	sg p
Vosmann	####				
XXX	XXX	0		O	?
   	XXX	0		Y	?
kohtumees	kohtu_mees	0		S	sg n
:	:			Z	
Johan	Johan	0		H	sg n
Klaosoon	####				
