protokolli	protokoll	0		S	adt
          	protokoll	0		S	sg g
          	protokolli	0		V	o
          	protokoll	0		S	sg p
põhjusel	põhjus	l		S	sg ad
7.	7.	0		O	?
Oktobrist	oktobrist	0		S	sg n
s	s	0		Y	?
.	.			Z	
a.	a	0		Y	?
No	no	0		I	
184	184	0		N	?
sai	saa	i		V	s
   	sai	0		S	sg n
Joosep	Joosep	0		H	sg n
Pung	pung	0		S	sg n
üle	üle	0		D	
   	üle	0		K	
kuulatud	kuula	tud		V	tud
        	kuula=tu	d		S	pl n
        	kuula=tud	0		A	
        	kuula=tud	0		A	sg n
        	kuula=tud	d		A	pl n
ja	ja	0		J	
ütles	ütle	s		V	s
kaebuse	kaebus	0		S	sg g
peale	pea	le		S	sg all
     	peale	0		D	
     	peale	0		K	
,	,			Z	
et	et	0		J	
temal	tema	l		P	sg ad
ülepea	üle_pea	0		D	
9	9	0		N	?
elajat	elajas	t		S	sg p
ja	ja	0		J	
10	10	0		N	?
lammast	lammas	t		S	sg p
on	ole	0		V	b
  	ole	0		V	vad
ja	ja	0		J	
tema	tema	0		P	sg g
    	tema	0		P	sg n
sellest	see	st		P	sg el
ei	ei	0		D	
  	ei	0		V	neg
tea	tead	0		V	o
,	,			Z	
kui	kui	0		D	
   	kui	0		J	
karjus	karju	s		V	s
      	karjus	0		S	sg n
tema	tema	0		P	sg g
    	tema	0		P	sg n
keelu	keeld	0		S	sg g
vastu	vastu	0		D	
     	vastu	0		K	
elajat	elajas	t		S	sg p
mõisa	mõis	0		S	sg g
metsa	mets	0		S	adt
     	mets	0		S	sg g
     	mets	0		S	sg p
lasknud	lask	nud		V	nud
       	lask=nu	d		S	pl n
       	lask=nud	0		A	
       	lask=nud	0		A	sg n
       	lask=nud	d		A	pl n
;	;			Z	
panditud	panti	tud		V	tud
        	pandi=tu	d		S	pl n
        	pandi=tud	0		A	
        	pandi=tud	0		A	sg n
        	pandi=tud	d		A	pl n
elajat	elajas	t		S	sg p
ei	ei	0		D	
  	ei	0		V	neg
ole	ole	0		V	o
tema	tema	0		P	sg g
    	tema	0		P	sg n
ära	ära	0		D	
   	ära	0		V	neg o
toonud	too	nud		V	nud
      	too=nu	d		S	pl n
      	too=nud	0		A	
      	too=nud	0		A	sg n
      	too=nud	d		A	pl n
.	.			Z	
Mõiste	mõiste	0		S	sg g
      	mõiste	0		S	sg n
:	:			Z	
Joosep	Joosep	0		H	sg n
Pung	pung	0		S	sg n
maksab	maks	b		V	b
3	3	0		N	?
rbl	rbl	0		Y	?
.	.			Z	
metsavalitsuse	metsa_valitsus	0		S	sg g
hääks	####				
ja	ja	0		J	
1	1	0		N	?
rbl	rbl	0		Y	?
.	.			Z	
valla	vald	0		S	sg g
     	valla	0		D	
vaeste	vaene	te		A	pl g
      	vaene	te		S	pl g
laadiku	laadik	0		S	sg g
selle	see	0		P	sg g
     	sell	e		S	pl p
eest	eest	0		D	
    	eest	0		K	
    	esi	st		S	sg el
trahvi	trahv	0		S	adt
      	trahv	0		S	sg g
      	trahvi	0		V	o
      	trahv	0		S	sg p
,	,			Z	
et	et	0		J	
panditud	panti	tud		V	tud
        	pandi=tu	d		S	pl n
        	pandi=tud	0		A	
        	pandi=tud	0		A	sg n
        	pandi=tud	d		A	pl n
lehm	lehm	0		S	sg n
äraaetud	ära_aetud	0		A	
        	ära_aetud	0		A	sg n
        	ära_aetud	d		A	pl n
saanud	saa	nud		V	nud
      	saa=nud	0		A	
      	saa=nud	0		A	sg n
      	saa=nud	d		A	pl n
      	saanu	d		S	pl n
.	.			Z	
Mõiste	mõiste	0		S	sg g
      	mõiste	0		S	sg n
sai	saa	i		V	s
   	sai	0		S	sg n
kohtukäijatele	kohtu_käija	tele		S	pl all
T	T	0		Y	?
.	.			Z	
S	S	0		Y	?
.	.			Z	
R	R	0		Y	?
järel	järel	0		D	
     	järel	0		K	
a.	a	0		Y	?
1860	1860	0		N	?
§	§	0		Y	?
772	772	0		N	?
-	-			Z	
774	774	0		N	?
kuulutud	kuulu	tud		V	tud
        	kuulu=tu	d		S	pl n
        	kuulu=tud	0		A	
        	kuulu=tud	0		A	sg n
        	kuulu=tud	d		A	pl n
ja	ja	0		J	
et	et	0		J	
metsavalitsus	metsa_valitsus	0		S	sg n
rahul	rahu	l		S	sg ad
     	rahul	0		D	
ei	ei	0		D	
  	ei	0		V	neg
ole	ole	0		V	o
sai	saa	i		V	s
   	sai	0		S	sg n
õppusleht	õppus_leht	0		S	sg n
välja	välja	0		D	
     	välja	0		V	o
     	väli	0		S	adt
     	väli	0		S	sg g
     	väli	0		S	sg p
antud	an=tu	d		S	pl n
     	and	tud		V	tud
     	antud	0		A	
     	antud	0		A	sg n
     	antud	d		A	pl n
.	.			Z	
