Jaan	Jaan	0		H	sg n
    	jaan	0		S	sg n
    	jaan	0		Y	?
Ottan	####				
kaebas	kaeba	s		V	s
,	,			Z	
et	et	0		J	
Jaan	Jaan	0		H	sg n
    	jaan	0		S	sg n
    	jaan	0		Y	?
Kiiselil	####				
temale	tema	le		P	sg all
7	7	0		N	?
rbl	rbl	0		Y	?
.	.			Z	
60	60	0		N	?
kop	kop	0		Y	?
.	.			Z	
jahvatamise	jahvatamine	0		S	sg g
raha	raha	0		S	sg g
    	raha	0		S	sg n
    	raha	0		S	sg p
maksmata	maks	mata		V	mata
        	maks=mata	0		A	
-	-			Z	
nõuab	nõud	b		V	b
kätte	kätte	0		K	
     	käsi	tte		S	adt
Jaan	Jaan	0		H	sg n
    	jaan	0		S	sg n
    	jaan	0		Y	?
Kiisel	kiisel	0		S	sg n
ütles	ütle	s		V	s
selle	see	0		P	sg g
     	sell	e		S	pl p
nõudmise	nõudmine	0		S	sg g
õige	õige	0		A	sg g
    	õige	0		A	sg n
    	õige	0		D	
olevat	ole	vat		V	vat
      	olev	t		A	sg p
      	olev	t		S	sg p
aga	aga	0		J	
kaupa	kaup	0		S	adt
     	kaup	0		S	sg p
     	kaupa	0		K	
järele	järele	0		D	
      	järele	0		K	
olevat	ole	vat		V	vat
      	olev	t		A	sg p
      	olev	t		S	sg p
Jakobi	Jakob	0		H	sg g
päevani	päev	ni		S	sg ter
aega	aeg	0		S	adt
    	aeg	0		S	sg p
    	aega	0		K	
maksa	maks	0		S	adt
     	maks	0		S	sg g
     	maks	0		V	o
     	maks	0		S	sg p
Jaan	Jaan	0		H	sg n
    	jaan	0		S	sg n
    	jaan	0		Y	?
Ottan	####				
andis	and	is		V	s
seda	see	da		P	sg p
järele	järele	0		D	
      	järele	0		K	
.	.			Z	
Mõiste	mõiste	0		S	sg g
      	mõiste	0		S	sg n
:	:			Z	
Jaan	Jaan	0		H	sg n
    	jaan	0		S	sg n
    	jaan	0		Y	?
Kiisel	kiisel	0		S	sg n
peab	pida	b		V	b
25.	25.	0		O	?
Juulil	juuli	l		S	sg ad
c	c	0		Y	?
.	.			Z	
Jaan	Jaan	0		H	sg n
    	jaan	0		S	sg n
    	jaan	0		Y	?
Ottanile	####				
7	7	0		N	?
rbl	rbl	0		Y	?
.	.			Z	
60	60	0		N	?
kop	kop	0		Y	?
.	.			Z	
jahvatamise	jahvatamine	0		S	sg g
raha	raha	0		S	sg g
    	raha	0		S	sg n
    	raha	0		S	sg p
ära	ära	0		D	
   	ära	0		V	neg o
maksma	maks	ma		V	ma
.	.			Z	
Peakohtumees	pea_kohtu_mees	0		S	sg n
:	:			Z	
P. Kripson	####				
XXX	XXX	0		O	?
   	XXX	0		Y	?
kohtumees	kohtu_mees	0		S	sg n
:	:			Z	
P. Hendrikson	####				
XXX	XXX	0		O	?
   	XXX	0		Y	?
kohtumees	kohtu_mees	0		S	sg n
:	:			Z	
K. Vosman	####				
XXX	XXX	0		O	?
   	XXX	0		Y	?
Mõiste	mõiste	0		S	sg g
      	mõiste	0		S	sg n
sai	saa	i		V	s
   	sai	0		S	sg n
kohtukäijatele	kohtu_käija	tele		S	pl all
kuulutatud	kuuluta	tud		V	tud
          	kuuluta=tu	d		S	pl n
          	kuuluta=tud	0		A	
          	kuuluta=tud	0		A	sg n
          	kuuluta=tud	d		A	pl n
a.	a	0		Y	?
n	n	0		Y	?
.	.			Z	
e	e	0		Y	?
ja	ja	0		J	
olid	ole	id		V	sid
need	see	d		P	pl n
mõistega	mõiste	ga		S	sg kom
rahul	rahu	l		S	sg ad
     	rahul	0		D	
.	.			Z	
kirjutaja	kirjutaja	0		S	sg g
         	kirjutaja	0		S	sg n
:	:			Z	
Ch	####				
Kapp	kapp	0		S	sg n
allkiri	all_kiri	0		S	sg n
