Sel	see	l		P	sg ad
   	sel	0		Y	?
15	15	0		N	?
juulil	juuli	l		S	sg ad
c	c	0		Y	?
sub	####				
N 95	N95	0		Y	?
pooleni	pool	ni		N	sg ter
       	pool	ni		S	sg ter
jäänud	jää	nud		V	nud
      	jäänu	d		S	pl n
      	jäänud	0		A	
      	jäänud	0		A	sg n
      	jäänud	d		A	pl n
asjus	asi	us		S	pl in
tuli	tuli	0		S	sg n
    	tule	i		V	s
ette	ette	0		D	
    	ette	0		K	
    	esi	tte		S	adt
Mart	Mart	0		H	sg n
    	mart	0		S	sg n
Kirtsi	####				
Saare	Saare	0		H	sg g
     	saar	0		S	sg g
     	Saare	0		H	sg n
vallast	vald	st		S	sg el
ja	ja	0		J	
tunnistab	tunnista	b		V	b
et	et	0		J	
tema	tema	0		P	sg g
    	tema	0		P	sg n
on	ole	0		V	b
  	ole	0		V	vad
oma	oma	0		A	sg g
   	oma	0		D	
   	oma	0		P	sg g
   	oma	0		S	sg g
   	oma	0		V	o
   	oma	0		A	sg n
   	oma	0		A	sg p
   	oma	0		P	sg n
   	oma	0		P	sg p
   	oma	0		S	sg n
   	oma	0		S	sg p
hobuse	hobune	0		S	sg g
mõni	mõni	0		P	sg n
kord	kord	0		D	
    	kord	0		S	sg n
andnud	and	nud		V	nud
      	and=nu	d		S	pl n
      	and=nud	0		A	
      	and=nud	0		A	sg n
      	and=nud	d		A	pl n
karja	kari	0		S	adt
     	kari	0		S	sg g
     	kari	0		S	sg p
meistri	meister	0		S	sg g
rehbergile	####				
,	,			Z	
siis	siis	0		D	
    	siis	0		J	
on	ole	0		V	b
  	ole	0		V	vad
üks	üks	0		N	sg n
   	üks	0		P	sg n
kord	kord	0		D	
    	kord	0		S	sg n
rehberg	####				
nattus	####				
kene	####				
heinu	hein	u		S	pl p
pandnud	####				
kast	kast	0		S	sg n
et	et	0		J	
parem	parem	0		C	sg n
     	parem	0		D	
istu	ist	0		S	adt
    	ist	0		S	sg g
    	istu	0		D	
    	istu	0		V	o
    	ist	0		S	sg p
,	,			Z	
kui	kui	0		D	
   	kui	0		J	
too	too	0		P	sg n
   	too	0		V	o
kallastele	kallas	tele		S	pl all
lähud	####				
.	.			Z	
Hobone	####				
on	ole	0		V	b
  	ole	0		V	vad
temale	tema	le		P	sg all
kül	####				
mõisa	mõis	0		S	sg g
talis	tali	s		S	sg in
olnud	ol=nud	0		A	
     	ol=nud	0		A	sg n
     	ol=nud	d		A	pl n
     	ole	nud		V	nud
     	olnu	d		S	pl n
mitto	####				
korda	kord	0		S	adt
     	korda	0		V	o
     	kord	0		S	sg p
ja	ja	0		J	
ka	ka	0		D	
rehberg	####				
on	ole	0		V	b
  	ole	0		V	vad
lubanud	luba	nud		V	nud
       	luba=nu	d		S	pl n
       	luba=nud	0		A	
       	luba=nud	0		A	sg n
       	luba=nud	d		A	pl n
temal	tema	l		P	sg ad
hobosele	####				
heino	####				
ette	ette	0		D	
    	ette	0		K	
    	esi	tte		S	adt
anda	and	a		V	da
,	,			Z	
rehberg	####				
ütelnud	ütle	nud		V	nud
       	ütel=nu	d		S	pl n
       	ütel=nud	0		A	
       	ütel=nud	0		A	sg n
       	ütel=nud	d		A	pl n
temale	tema	le		P	sg all
et	et	0		J	
päris	päri	s		V	s
     	päris	0		A	
     	päris	0		D	
hära	####				
on	ole	0		V	b
  	ole	0		V	vad
lubanud	luba	nud		V	nud
       	luba=nu	d		S	pl n
       	luba=nud	0		A	
       	luba=nud	0		A	sg n
       	luba=nud	d		A	pl n
et	et	0		J	
kui	kui	0		D	
   	kui	0		J	
tema	tema	0		P	sg g
    	tema	0		P	sg n
hobune	hobune	0		S	sg n
mõni	mõni	0		P	sg n
kord	kord	0		D	
    	kord	0		S	sg n
Pallal	####				
on	ole	0		V	b
  	ole	0		V	vad
,	,			Z	
võib	või	b		V	b
mõisa	mõis	0		S	sg g
tali	tali	0		S	sg g
    	tali	0		S	sg n
    	tali	0		S	sg p
panna	pand	0		S	sg g
     	pane	a		V	da
     	panna	0		S	sg g
     	panna	0		S	sg n
.	.			Z	
Heina	hein	0		S	adt
     	hein	0		S	sg g
     	hein	0		S	sg p
tega	####				
jahu	jahu	0		S	sg g
    	jahu	0		V	o
    	jahu	0		S	sg n
    	jahu	0		S	sg p
vargusest	vargus	st		S	sg el
ei	ei	0		D	
  	ei	0		V	neg
tea	tead	0		V	o
tema	tema	0		P	sg g
    	tema	0		P	sg n
kedagi	keegi	dagi		P	sg p
ei	ei	0		D	
  	ei	0		V	neg
ole	ole	0		V	o
ka	ka	0		D	
tema	tema	0		P	sg g
    	tema	0		P	sg n
varastanud	varasta	nud		V	nud
          	varasta=nu	d		S	pl n
          	varasta=nud	0		A	
          	varasta=nud	0		A	sg n
          	varasta=nud	d		A	pl n
.	.			Z	
Otsus	otsus	0		S	sg n
:	:			Z	
et	et	0		J	
Palla	####				
mõisa	mõis	0		S	sg g
valitseja	valitseja	0		S	sg g
         	valitseja	0		S	sg n
Vinterfelt	####				
kui	kui	0		D	
   	kui	0		J	
kaibaja	####				
siin	siin	0		D	
    	siin	0		S	sg n
ei	ei	0		D	
  	ei	0		V	neg
ole	ole	0		V	o
,	,			Z	
saab	saa	b		V	b
lähemal	lähem	l		C	sg ad
       	lähemal	0		D	
kohtu	kohtu	0		V	o
     	kohus	0		S	sg g
päeval	päev	l		S	sg ad
ette	ette	0		D	
    	ette	0		K	
    	esi	tte		S	adt
võetud	võe=tu	d		S	pl n
      	võetud	0		A	
      	võetud	0		A	sg n
      	võetud	d		A	pl n
      	võt	tud		V	tud
ja	ja	0		J	
otsus	otsus	0		S	sg n
teha	tege	a		V	da
.	.			Z	
Peakohtumees	pea_kohtu_mees	0		S	sg n
:	:			Z	
H. Horn	####				
kohtumees	kohtu_mees	0		S	sg n
:	:			Z	
Josep	####				
Soieva	####				
kohtum	####				
:	:			Z	
Otto	Otto	0		H	sg g
    	Otto	0		H	sg n
Mõisa	mõis	0		S	sg g
Kirjutaja	kirjutaja	0		S	sg g
         	kirjutaja	0		S	sg n
:	:			Z	
Rosenberg	Rosenberg	0		H	sg n
