Aavvinurme	####				
Metsvallavalitsuse	mets_valla_valitsus	0		S	sg g
juures	juur	s		S	sg in
      	juures	0		D	
      	juures	0		K	
sel	see	l		P	sg ad
   	sel	0		Y	?
.	.			Z	
27	27	0		N	?
Oktobril	####				
187.8	187.8	0		N	?
koos	koos	0		D	
    	koos	0		K	
    	koos	0		S	sg n
    	kubu	s		S	sg in
olid	ole	id		V	sid
Vallavanemb	####				
Juhan	Juhan	0		H	sg n
koppel	koppel	0		S	sg n
Vallavõõlmonder	####				
Gusta	####				
Halik	####				
Vallavõõlmonder	####				
Mart	Mart	0		H	sg n
    	mart	0		S	sg n
Reisenpuk	####				
Aastusid	####				
ette	ette	0		D	
    	ette	0		K	
    	esi	tte		S	adt
Laekonoküla	####				
peremehed	pere_mees	d		S	pl n
ja	ja	0		J	
anid	####				
Vallavalitsusele	valla_valitsus	le		S	sg all
üles	üles	0		D	
et	et	0		J	
nemad	tema	d		P	pl n
on	ole	0		V	b
  	ole	0		V	vad
Krono	####				
maamõtja	####				
Härada	####				
palunud	palu	nud		V	nud
       	palu=nu	d		S	pl n
       	palu=nud	0		A	
       	palu=nud	0		A	sg n
       	palu=nud	d		A	pl n
nende	see	de		P	pl g
     	tema	de		P	pl g
talumaad	talu_maa	d		S	pl n
        	talu_maa	d		S	sg p
kruntist	####				
teha	tege	a		V	da
ja	ja	0		J	
on	ole	0		V	b
  	ole	0		V	vad
siis	siis	0		D	
    	siis	0		J	
Kronomaamõtja	####				
Hära	####				
Telesin	####				
nendele	see	dele		P	pl all
       	tema	dele		P	pl all
kruntid	####				
tehnud	####				
.	.			Z	
ja	ja	0		J	
nendele	see	dele		P	pl all
       	tema	dele		P	pl all
piirid	piir	d		S	pl n
ära	ära	0		D	
   	ära	0		V	neg o
näitanud	####				
mis	mis	0		P	pl n
   	mis	0		P	sg n
nemad	tema	d		P	pl n
teadvad	teadev	d		A	pl n
.	.			Z	
N 1	N1	0		Y	?
)	)			Z	
.	.			Z	
Mihkel	Mihkel	0		H	sg n
      	mihkel	0		A	sg n
      	mihkel	0		S	sg n
Laurison	####				
N	N	0		Y	?
krundi	krunt	0		S	sg g
      	krunti	0		V	o
peremees	pere_mees	0		S	sg n
tunnistas	tunnista	s		V	s
et	et	0		J	
tema	tema	0		P	sg g
    	tema	0		P	sg n
oma	oma	0		A	sg g
   	oma	0		D	
   	oma	0		P	sg g
   	oma	0		S	sg g
   	oma	0		V	o
   	oma	0		A	sg n
   	oma	0		A	sg p
   	oma	0		P	sg n
   	oma	0		P	sg p
   	oma	0		S	sg n
   	oma	0		S	sg p
kruntiga	krunt_iga	0		S	sg n
        	krunt_iga	0		S	sg p
rahul	rahu	l		S	sg ad
     	rahul	0		D	
on	ole	0		V	b
  	ole	0		V	vad
,	,			Z	
ja	ja	0		J	
seda	see	da		P	sg p
uvve	####				
piiride	piir	de		S	pl g
järel	järel	0		D	
     	järel	0		K	
oma	oma	0		A	sg g
   	oma	0		D	
   	oma	0		P	sg g
   	oma	0		S	sg g
   	oma	0		V	o
   	oma	0		A	sg n
   	oma	0		A	sg p
   	oma	0		P	sg n
   	oma	0		P	sg p
   	oma	0		S	sg n
   	oma	0		S	sg p
kätte	kätte	0		K	
     	käsi	tte		S	adt
prukimiseks	####				
palub	palu	b		V	b
saada	saa	da		V	da
     	saat	0		V	o
     	saa	da		V	ta
Mihkel	Mihkel	0		H	sg n
      	mihkel	0		A	sg n
      	mihkel	0		S	sg n
Laurisoni	####				
eest	eest	0		D	
    	eest	0		K	
    	esi	st		S	sg el
tema	tema	0		P	sg g
    	tema	0		P	sg n
issa	####				
Toomas	Toomas	0		H	sg n
      	Toomas	s		H	sg in
      	too	mas		V	mas
Laurison	####				
XXX	XXX	0		O	?
   	XXX	0		Y	?
N 2	N2	0		Y	?
)	)			Z	
.	.			Z	
Josep	####				
Jallak	####				
N	N	0		Y	?
krundi	krunt	0		S	sg g
      	krunti	0		V	o
peremees	pere_mees	0		S	sg n
tunnistas	tunnista	s		V	s
et	et	0		J	
tema	tema	0		P	sg g
    	tema	0		P	sg n
oma	oma	0		A	sg g
   	oma	0		D	
   	oma	0		P	sg g
   	oma	0		S	sg g
   	oma	0		V	o
   	oma	0		A	sg n
   	oma	0		A	sg p
   	oma	0		P	sg n
   	oma	0		P	sg p
   	oma	0		S	sg n
   	oma	0		S	sg p
kruntiga	krunt_iga	0		S	sg n
        	krunt_iga	0		S	sg p
rahul	rahu	l		S	sg ad
     	rahul	0		D	
on	ole	0		V	b
  	ole	0		V	vad
ning	ning	0		J	
seda	see	da		P	sg p
uvve	####				
piiride	piir	de		S	pl g
järel	järel	0		D	
     	järel	0		K	
oma	oma	0		A	sg g
   	oma	0		D	
   	oma	0		P	sg g
   	oma	0		S	sg g
   	oma	0		V	o
   	oma	0		A	sg n
   	oma	0		A	sg p
   	oma	0		P	sg n
   	oma	0		P	sg p
   	oma	0		S	sg n
   	oma	0		S	sg p
kätte	kätte	0		K	
     	käsi	tte		S	adt
prukimiseks	####				
palub	palu	b		V	b
saada	saa	da		V	da
     	saat	0		V	o
     	saa	da		V	ta
Josep	####				
Jallak	####				
XXX	XXX	0		O	?
   	XXX	0		Y	?
N 3	N3	0		Y	?
)	)			Z	
.	.			Z	
Jaan	Jaan	0		H	sg n
    	jaan	0		S	sg n
    	jaan	0		Y	?
Laurison	####				
N	N	0		Y	?
krundi	krunt	0		S	sg g
      	krunti	0		V	o
peremees	pere_mees	0		S	sg n
tunnistas	tunnista	s		V	s
et	et	0		J	
tema	tema	0		P	sg g
    	tema	0		P	sg n
oma	oma	0		A	sg g
   	oma	0		D	
   	oma	0		P	sg g
   	oma	0		S	sg g
   	oma	0		V	o
   	oma	0		A	sg n
   	oma	0		A	sg p
   	oma	0		P	sg n
   	oma	0		P	sg p
   	oma	0		S	sg n
   	oma	0		S	sg p
kruntiga	krunt_iga	0		S	sg n
        	krunt_iga	0		S	sg p
rahul	rahu	l		S	sg ad
     	rahul	0		D	
ei	ei	0		D	
  	ei	0		V	neg
ole	ole	0		V	o
sest	see	st		P	sg el
    	sest	0		J	
et	et	0		J	
tema	tema	0		P	sg g
    	tema	0		P	sg n
paljo	####				
vähemb	####				
põllu	põld	0		S	sg g
ja	ja	0		J	
heinamaad	heina_maa	d		S	pl n
         	heina_maa	d		S	sg p
saanud	saa	nud		V	nud
      	saa=nud	0		A	
      	saa=nud	0		A	sg n
      	saa=nud	d		A	pl n
      	saanu	d		S	pl n
,	,			Z	
kui	kui	0		D	
   	kui	0		J	
temal	tema	l		P	sg ad
enne	enne	0		D	
    	enne	0		K	
    	enne	0		S	sg n
olnud	ol=nud	0		A	
     	ol=nud	0		A	sg n
     	ol=nud	d		A	pl n
     	ole	nud		V	nud
     	olnu	d		S	pl n
.	.			Z	
N 4	N4	0		Y	?
)	)			Z	
.	.			Z	
Josep	####				
Laurison	####				
N	N	0		Y	?
.	.			Z	
krundi	krunt	0		S	sg g
      	krunti	0		V	o
peremees	pere_mees	0		S	sg n
tunnistas	tunnista	s		V	s
et	et	0		J	
tema	tema	0		P	sg g
    	tema	0		P	sg n
oma	oma	0		A	sg g
   	oma	0		D	
   	oma	0		P	sg g
   	oma	0		S	sg g
   	oma	0		V	o
   	oma	0		A	sg n
   	oma	0		A	sg p
   	oma	0		P	sg n
   	oma	0		P	sg p
   	oma	0		S	sg n
   	oma	0		S	sg p
kruntiga	krunt_iga	0		S	sg n
        	krunt_iga	0		S	sg p
rahul	rahu	l		S	sg ad
     	rahul	0		D	
on	ole	0		V	b
  	ole	0		V	vad
ning	ning	0		J	
seda	see	da		P	sg p
uvve	####				
piiride	piir	de		S	pl g
järel	järel	0		D	
     	järel	0		K	
oma	oma	0		A	sg g
   	oma	0		D	
   	oma	0		P	sg g
   	oma	0		S	sg g
   	oma	0		V	o
   	oma	0		A	sg n
   	oma	0		A	sg p
   	oma	0		P	sg n
   	oma	0		P	sg p
   	oma	0		S	sg n
   	oma	0		S	sg p
kätte	kätte	0		K	
     	käsi	tte		S	adt
prukimiseks	####				
palub	palu	b		V	b
saada	saa	da		V	da
     	saat	0		V	o
     	saa	da		V	ta
Josep	####				
Laurison	####				
XXX	XXX	0		O	?
   	XXX	0		Y	?
N 5	N5	0		Y	?
)	)			Z	
.	.			Z	
Mart	Mart	0		H	sg n
    	mart	0		S	sg n
Laurison	####				
N	N	0		Y	?
krundi	krunt	0		S	sg g
      	krunti	0		V	o
peremees	pere_mees	0		S	sg n
tunnistas	tunnista	s		V	s
et	et	0		J	
tema	tema	0		P	sg g
    	tema	0		P	sg n
oma	oma	0		A	sg g
   	oma	0		D	
   	oma	0		P	sg g
   	oma	0		S	sg g
   	oma	0		V	o
   	oma	0		A	sg n
   	oma	0		A	sg p
   	oma	0		P	sg n
   	oma	0		P	sg p
   	oma	0		S	sg n
   	oma	0		S	sg p
kruntiga	krunt_iga	0		S	sg n
        	krunt_iga	0		S	sg p
rahul	rahu	l		S	sg ad
     	rahul	0		D	
on	ole	0		V	b
  	ole	0		V	vad
,	,			Z	
ning	ning	0		J	
seda	see	da		P	sg p
uvve	####				
piiride	piir	de		S	pl g
järel	järel	0		D	
     	järel	0		K	
oma	oma	0		A	sg g
   	oma	0		D	
   	oma	0		P	sg g
   	oma	0		S	sg g
   	oma	0		V	o
   	oma	0		A	sg n
   	oma	0		A	sg p
   	oma	0		P	sg n
   	oma	0		P	sg p
   	oma	0		S	sg n
   	oma	0		S	sg p
kätte	kätte	0		K	
     	käsi	tte		S	adt
prukimiseks	####				
palub	palu	b		V	b
saada	saa	da		V	da
     	saat	0		V	o
     	saa	da		V	ta
Mart	Mart	0		H	sg n
    	mart	0		S	sg n
Laurison	####				
XXX	XXX	0		O	?
   	XXX	0		Y	?
N 6	N6	0		Y	?
)	)			Z	
Jaan	Jaan	0		H	sg n
    	jaan	0		S	sg n
    	jaan	0		Y	?
Aambos	####				
N	N	0		Y	?
krundi	krunt	0		S	sg g
      	krunti	0		V	o
peremees	pere_mees	0		S	sg n
tunnistas	tunnista	s		V	s
et	et	0		J	
tema	tema	0		P	sg g
    	tema	0		P	sg n
oma	oma	0		A	sg g
   	oma	0		D	
   	oma	0		P	sg g
   	oma	0		S	sg g
   	oma	0		V	o
   	oma	0		A	sg n
   	oma	0		A	sg p
   	oma	0		P	sg n
   	oma	0		P	sg p
   	oma	0		S	sg n
   	oma	0		S	sg p
kruntiga	krunt_iga	0		S	sg n
        	krunt_iga	0		S	sg p
rahul	rahu	l		S	sg ad
     	rahul	0		D	
on	ole	0		V	b
  	ole	0		V	vad
ning	ning	0		J	
seda	see	da		P	sg p
uvve	####				
piiride	piir	de		S	pl g
jarel	####				
oma	oma	0		A	sg g
   	oma	0		D	
   	oma	0		P	sg g
   	oma	0		S	sg g
   	oma	0		V	o
   	oma	0		A	sg n
   	oma	0		A	sg p
   	oma	0		P	sg n
   	oma	0		P	sg p
   	oma	0		S	sg n
   	oma	0		S	sg p
kätte	kätte	0		K	
     	käsi	tte		S	adt
prukimiseks	####				
palub	palu	b		V	b
saada	saa	da		V	da
     	saat	0		V	o
     	saa	da		V	ta
Jaan	Jaan	0		H	sg n
    	jaan	0		S	sg n
    	jaan	0		Y	?
Aambose	####				
eest	eest	0		D	
    	eest	0		K	
    	esi	st		S	sg el
tema	tema	0		P	sg g
    	tema	0		P	sg n
issa	####				
Mihkel	Mihkel	0		H	sg n
      	mihkel	0		A	sg n
      	mihkel	0		S	sg n
Aambos	####				
XXX	XXX	0		O	?
   	XXX	0		Y	?
N 7	N7	0		Y	?
)	)			Z	
.	.			Z	
Jakob	Jakob	0		H	sg n
Laurison	####				
N	N	0		Y	?
krundi	krunt	0		S	sg g
      	krunti	0		V	o
peremees	pere_mees	0		S	sg n
tunnistas	tunnista	s		V	s
et	et	0		J	
tema	tema	0		P	sg g
    	tema	0		P	sg n
oma	oma	0		A	sg g
   	oma	0		D	
   	oma	0		P	sg g
   	oma	0		S	sg g
   	oma	0		V	o
   	oma	0		A	sg n
   	oma	0		A	sg p
   	oma	0		P	sg n
   	oma	0		P	sg p
   	oma	0		S	sg n
   	oma	0		S	sg p
kruntiga	krunt_iga	0		S	sg n
        	krunt_iga	0		S	sg p
rahul	rahu	l		S	sg ad
     	rahul	0		D	
on	ole	0		V	b
  	ole	0		V	vad
ning	ning	0		J	
seda	see	da		P	sg p
uvve	####				
piiride	piir	de		S	pl g
järel	järel	0		D	
     	järel	0		K	
oma	oma	0		A	sg g
   	oma	0		D	
   	oma	0		P	sg g
   	oma	0		S	sg g
   	oma	0		V	o
   	oma	0		A	sg n
   	oma	0		A	sg p
   	oma	0		P	sg n
   	oma	0		P	sg p
   	oma	0		S	sg n
   	oma	0		S	sg p
kätte	kätte	0		K	
     	käsi	tte		S	adt
prukimiseks	####				
palub	palu	b		V	b
sada	sada	0		N	sg n
    	sada	0		N	sg p
Jakob	Jakob	0		H	sg n
Laurison	####				
XXX	XXX	0		O	?
   	XXX	0		Y	?
Juhan	Juhan	0		H	sg n
koppel	koppel	0		S	sg n
XXX	XXX	0		O	?
   	XXX	0		Y	?
Gusta	####				
Halik	####				
XXX	XXX	0		O	?
   	XXX	0		Y	?
Mart	Mart	0		H	sg n
    	mart	0		S	sg n
Reisenpuk	####				
XXX	XXX	0		O	?
   	XXX	0		Y	?
