1889	1889	0		N	?
goda	####				
janvarja	####				
29	29	0		N	?
dna	####				
Palaskoi	####				
Volostnoi	####				
Sud	####				
v	v	0		Y	?
sostav	####				
Predsedatelja	####				
Jakoba	####				
Reingolda	####				
i	i	0		Y	?
tšlenov	####				
Suda	####				
Gustava	####				
Soo	soo	0		I	
   	soo	0		S	sg g
   	sugu	0		S	sg g
   	soo	0		S	sg n
i	i	0		Y	?
Tenisa	####				
Oksa	oks	0		S	adt
    	oks	0		S	sg g
    	oks	0		S	sg p
javilis	####				
jedinstvenõje	####				
sakonõje	####				
naslednika	####				
umeršago	####				
Jakoba	####				
Turk	####				
,	,			Z	
Mina	mina	0		P	sg n
    	mina	0		S	sg g
    	mina	0		S	sg n
    	mina	0		S	sg p
Martinson	Martinson	0		H	sg n
urožd	####				
.	.			Z	
Turk	####				
,	,			Z	
muž	####				
jeja	####				
Josep	####				
Martinson	Martinson	0		H	sg n
,	,			Z	
i	i	0		Y	?
Aana	####				
Reinok	####				
po	####				
pervojemu	####				
mužu	####				
Turk	####				
i	i	0		Y	?
sajavili	saja_vili	0		S	sg n
,	,			Z	
tštoo	####				
poslutšaju	####				
pereustupki	####				
ih	ih	0		I	
sonasledništšeju	####				
Lisoju	####				
Tuxa	####				
prisuždenoi	####				
jei	####				
opreleniem	####				
sego	####				
Suda	####				
ot	####				
18	18	0		N	?
dekabrja	####				
1879	1879	0		N	?
goda	####				
polovinõ	####				
usadbõ	####				
kauri	kaur	0		S	adt
     	kaur	0		S	sg g
     	kaur	0		S	sg p
     	kauri	0		S	sg g
     	kauri	0		S	sg n
N 2	N2	0		Y	?
imenia	####				
Gali	####				
svojemu	####				
mužu	####				
Karlu	####				
Jurjevu	####				
Tuha	tuhk	0		S	sg g
oni	####				
otkasõvajutas	####				
ot	####				
predostavlenogo	####				
im	####				
prava	####				
preimuštšestvenoi	####				
pokupki	####				
etoi	####				
nedvižmost	####				
i	i	0		Y	?
sim	####				
isjavljajut	####				
položitelnoje	####				
soglasije	####				
na	na	0		D	
ukreplenije	####				
Jurjevskim	####				
Krepostnõm	####				
Otdeleniem	####				
sa	sina	0		P	sg n
mužem	####				
Lisi	####				
Tuha-	tuhk	0		S	sg g
Karla	Karla	0		H	sg g
     	Karla	0		H	sg n
Tuha	tuhk	0		S	sg g
usadbõ	####				
kauri	kaur	0		S	adt
     	kaur	0		S	sg g
     	kaur	0		S	sg p
     	kauri	0		S	sg g
     	kauri	0		S	sg n
N 2	N2	0		Y	?
imenia	####				
Gali	####				
.	.			Z	
Miina	Miina	0		H	sg g
     	Miina	0		H	sg n
Martsoni	mart_soni	0		S	sg g
        	mart_soni	0		S	sg n
        	mart_soni	0		S	sg p
eest	eest	0		D	
    	eest	0		K	
    	esi	st		S	sg el
:	:			Z	
Josep	####				
Martinson	Martinson	0		H	sg n
Aana	####				
ja	ja	0		J	
Mihkel	Mihkel	0		H	sg n
      	mihkel	0		A	sg n
      	mihkel	0		S	sg n
Reinoki	####				
eest	eest	0		D	
    	eest	0		K	
    	esi	st		S	sg el
.	.			Z	
Lisa	lisa	0		S	sg g
    	lisa	0		V	o
    	lisa	0		S	sg n
    	lisa	0		S	sg p
Tuha	tuhk	0		S	sg g
Volostnoi	####				
Sud	####				
ubedivilis	####				
na	na	0		D	
too	too	0		P	sg n
   	too	0		V	o
tštoo	####				
,	,			Z	
tštoo	####				
dogovora	####				
vajuštšiesa	####				
litsa	####				
imejut	####				
sakonuju	####				
pravosposobnost	####				
k	k	0		Y	?
soveršeniju	####				
aktov	####				
,	,			Z	
udostovrjajet	####				
podpisi	####				
Josepa	####				
Martinsona	####				
i	i	0		Y	?
Mihelja	####				
Reinoka	####				
,	,			Z	
sa	sina	0		P	sg n
nego	####				
Lisi	####				
Tuha	tuhk	0		S	sg g
sobstvenorutšno	####				
podpisanõmi	####				
.	.			Z	
Predsedatel	####				
Suda	####				
J	J	0		Y	?
Reingold	####				
Vol	####				
.	.			Z	
Sudi	sudi	0		V	o
:	:			Z	
G. Soo	####				
T. Oksa	####				
Pisar	pisar	0		S	sg n
KSep	####				
.	.			Z	
