Sel	see	l		P	sg ad
   	sel	0		Y	?
22mal	####				
September	september	0		S	sg n
1872.	1872.	0		O	?
Tuli	tuli	0		S	sg n
    	tule	i		V	s
Kusta	Kusta	0		H	sg g
     	Kusta	0		H	sg n
     	kuse	ta		V	da
     	kuse	ta		V	ta
Nukka	nukk	0		S	adt
     	nukk	0		S	sg p
kui	kui	0		D	
   	kui	0		J	
Peetri	Peeter	0		H	sg g
      	Peetri	0		H	sg g
      	Peetri	0		H	sg n
Tallo	####				
renti	rent	0		S	adt
     	rent	0		S	sg p
piddaja	####				
oma	oma	0		A	sg g
   	oma	0		D	
   	oma	0		P	sg g
   	oma	0		S	sg g
   	oma	0		V	o
   	oma	0		A	sg n
   	oma	0		A	sg p
   	oma	0		P	sg n
   	oma	0		P	sg p
   	oma	0		S	sg n
   	oma	0		S	sg p
poolemehega	poole_mees	ga		S	sg kom
Karel	####				
Niidikuga	####				
ette	ette	0		D	
    	ette	0		K	
    	esi	tte		S	adt
ia	####				
andis	and	is		V	s
Kusta	Kusta	0		H	sg g
     	Kusta	0		H	sg n
     	kuse	ta		V	da
     	kuse	ta		V	ta
Nukka	nukk	0		S	adt
     	nukk	0		S	sg p
kogokonna	####				
Kohtu	kohtu	0		V	o
     	kohus	0		S	sg g
eest	eest	0		D	
    	eest	0		K	
    	esi	st		S	sg el
teada	tead	a		V	da
,	,			Z	
et	et	0		J	
Karel	####				
Niidik	####				
Kevvade	####				
1873	1873	0		N	?
selle	see	0		P	sg g
     	sell	e		S	pl p
poole	pool	0		N	sg g
     	pool	0		S	sg g
     	pool	e		S	pl p
     	poole	0		K	
     	poole	0		S	sg n
Peetri	Peeter	0		H	sg g
      	Peetri	0		H	sg g
      	Peetri	0		H	sg n
Tallo	####				
aseme	ase	0		S	sg g
peab	pida	b		V	b
äraandma	####				
sellepärast	selle_pärast	0		D	
et	et	0		J	
Kusta	Kusta	0		H	sg g
     	Kusta	0		H	sg n
     	kuse	ta		V	da
     	kuse	ta		V	ta
Nukka	nukk	0		S	adt
     	nukk	0		S	sg p
üksi	üksi	0		D	
seda	see	da		P	sg p
Tallo	####				
endale	ise	le		P	sg all
tahab	taht	b		V	b
pidada	pida	da		V	da
.	.			Z	
Maddis	####				
Vadi	vadi	0		S	sg g
    	vadi	0		V	o
    	vadi	0		S	sg n
    	vadi	0		S	sg p
+	+			Z	
+	+			Z	
+	+			Z	
Märt	Märt	0		H	sg n
Piiri	piir	0		S	adt
     	piir	0		S	sg g
     	piir	0		S	sg p
+	+			Z	
+	+			Z	
+	+			Z	
elias	####				
Kubjas	kubjas	0		S	sg n
+	+			Z	
+	+			Z	
+	+			Z	
