XXI	XXI	0		O	?
   	XXI	0		Y	?
Aavvinurme	####				
Vallakohtus	valla_kohus	s		S	sg in
sel	see	l		P	sg ad
   	sel	0		Y	?
.	.			Z	
13	13	0		N	?
Januaril	####				
1895	1895	0		N	?
koos	koos	0		D	
    	koos	0		K	
    	koos	0		S	sg n
    	kubu	s		S	sg in
olid	ole	id		V	sid
peakohtumees	pea_kohtu_mees	0		S	sg n
Jaan	Jaan	0		H	sg n
    	jaan	0		S	sg n
    	jaan	0		Y	?
kalaus	####				
kohtumees	kohtu_mees	0		S	sg n
Jüri	Jüri	0		H	sg g
    	Jüri	0		H	sg n
Reisenpuk	####				
kohtumees	kohtu_mees	0		S	sg n
Jaan	Jaan	0		H	sg n
    	jaan	0		S	sg n
    	jaan	0		Y	?
Paas	paa	s		A	sg in
    	paa	s		S	sg in
    	paas	0		S	sg n
Aastus	####				
ette	ette	0		D	
    	ette	0		K	
    	esi	tte		S	adt
Vadi	vadi	0		S	sg g
    	vadi	0		V	o
    	vadi	0		S	sg n
    	vadi	0		S	sg p
küla	küla	0		S	sg g
    	küla	0		S	sg n
    	küla	0		S	sg p
talu	talu	0		S	sg g
    	talu	0		V	o
    	talu	0		S	sg n
    	talu	0		S	sg p
peremees	pere_mees	0		S	sg n
Jaan	Jaan	0		H	sg n
    	jaan	0		S	sg n
    	jaan	0		Y	?
Pom	####				
ja	ja	0		J	
palus	palu	s		S	sg in
     	palu	s		V	s
Vallakohut	valla_kohus	t		S	sg p
tema	tema	0		P	sg g
    	tema	0		P	sg n
testament	testament	0		S	sg n
protokoli	####				
üles	üles	0		D	
kirjutada	kirjuta	da		V	da
et	et	0		J	
temal	tema	l		P	sg ad
lihalikku	lihalik	0		A	adt
         	lihalik	0		A	sg p
poeg	poeg	0		S	sg n
lapsi	laps	i		S	pl p
ei	ei	0		D	
  	ei	0		V	neg
ole	ole	0		V	o
siis	siis	0		D	
    	siis	0		J	
lubab	luba	b		V	b
tema	tema	0		P	sg g
    	tema	0		P	sg n
oma	oma	0		A	sg g
   	oma	0		D	
   	oma	0		P	sg g
   	oma	0		S	sg g
   	oma	0		V	o
   	oma	0		A	sg n
   	oma	0		A	sg p
   	oma	0		P	sg n
   	oma	0		P	sg p
   	oma	0		S	sg n
   	oma	0		S	sg p
talu	talu	0		S	sg g
    	talu	0		V	o
    	talu	0		S	sg n
    	talu	0		S	sg p
krund	####				
N 36	N36	0		Y	?
oma	oma	0		A	sg g
   	oma	0		D	
   	oma	0		P	sg g
   	oma	0		S	sg g
   	oma	0		V	o
   	oma	0		A	sg n
   	oma	0		A	sg p
   	oma	0		P	sg n
   	oma	0		P	sg p
   	oma	0		S	sg n
   	oma	0		S	sg p
vanema	vanem	0		C	sg g
      	vanem	0		S	sg g
tüttre	####				
Mari	Mari	0		H	sg g
    	mari	0		S	sg g
    	mari	0		S	sg n
    	Mari	0		H	sg n
    	mari	0		S	sg p
Pommile	pomm	le		S	sg all
.	.			Z	
keige	####				
selle	see	0		P	sg g
     	sell	e		S	pl p
krundi	krunt	0		S	sg g
      	krunti	0		V	o
peal	pea	l		S	sg ad
    	peal	0		D	
    	peal	0		K	
olevatte	####				
majadega	maja	dega		S	pl kom
pärida	päri	da		V	da
ja	ja	0		J	
pärib	päri	b		V	b
ka	ka	0		D	
vanemb	####				
tüttar	####				
kõik	kõik	0		P	pl n
    	kõik	0		S	sg n
    	kõik	0		P	sg n
liikuv	liiku	v		V	v
      	liikuv	0		A	sg n
varantus	####				
.	.			Z	
ning	ning	0		J	
peab	pida	b		V	b
tema	tema	0		P	sg g
    	tema	0		P	sg n
oma	oma	0		A	sg g
   	oma	0		D	
   	oma	0		P	sg g
   	oma	0		S	sg g
   	oma	0		V	o
   	oma	0		A	sg n
   	oma	0		A	sg p
   	oma	0		P	sg n
   	oma	0		P	sg p
   	oma	0		S	sg n
   	oma	0		S	sg p
noorema	noorem	0		C	sg g
sõsara	sõsar	0		S	sg g
Liisa	Liisa	0		H	sg g
     	Liisa	0		H	sg n
Pommile	pomm	le		S	sg all
talu	talu	0		S	sg g
    	talu	0		V	o
    	talu	0		S	sg n
    	talu	0		S	sg p
õiguse	õigus	0		S	sg g
eest	eest	0		D	
    	eest	0		K	
    	esi	st		S	sg el
sada	sada	0		N	sg n
    	sada	0		N	sg p
viiskümend	####				
rubla	rubla	0		S	sg g
     	rubla	0		S	sg n
     	rubla	0		S	sg p
puhast	puhas	t		A	sg p
raha	raha	0		S	sg g
    	raha	0		S	sg n
    	raha	0		S	sg p
maksma	maks	ma		V	ma
ning	ning	0		J	
liikuvast	liikuv	st		A	sg el
varandusest	varandus	st		S	sg el
üks	üks	0		N	sg n
   	üks	0		P	sg n
lehm	lehm	0		S	sg n
ja	ja	0		J	
lammas	lammas	0		S	sg n
andma	and	ma		V	ma
,	,			Z	
kui	kui	0		D	
   	kui	0		J	
Liisa	Liisa	0		H	sg g
     	Liisa	0		H	sg n
ei	ei	0		D	
  	ei	0		V	neg
peaks	pea	ks		S	sg tr
     	pida	ks		V	ks
mehele	mees	le		S	sg all
minema	mine	ma		V	ma
ehk	ehk	0		D	
   	ehk	0		J	
saama	saa	ma		V	ma
     	saam	0		S	adt
     	saam	0		S	sg g
     	saam	0		S	sg p
siis	siis	0		D	
    	siis	0		J	
on	ole	0		V	b
  	ole	0		V	vad
temal	tema	l		P	sg ad
luba	luba	0		S	sg n
    	luba	0		V	o
    	luba	0		S	sg p
minu	mina	0		P	sg g
majas	maja	s		S	sg in
elada	ela	da		V	da
nendakaua	####				
kui	kui	0		D	
   	kui	0		J	
tema	tema	0		P	sg g
    	tema	0		P	sg n
oma	oma	0		A	sg g
   	oma	0		D	
   	oma	0		P	sg g
   	oma	0		S	sg g
   	oma	0		V	o
   	oma	0		A	sg n
   	oma	0		A	sg p
   	oma	0		P	sg n
   	oma	0		P	sg p
   	oma	0		S	sg n
   	oma	0		S	sg p
sõsaraga	sõsar	ga		S	sg kom
läbbi	####				
saab	saa	b		V	b
,	,			Z	
ja	ja	0		J	
vottab	####				
tema	tema	0		P	sg g
    	tema	0		P	sg n
nüid	####				
omale	oma	le		A	sg all
     	oma	le		P	sg all
     	oma	le		S	sg all
üks	üks	0		N	sg n
   	üks	0		P	sg n
koduväimees	kodu_väi_mees	0		S	sg n
Haliku	####				
valla	vald	0		S	sg g
     	valla	0		D	
meest	meene	t		A	sg p
     	mees	t		S	sg p
     	mesi	st		S	sg el
Jaan	Jaan	0		H	sg n
    	jaan	0		S	sg n
    	jaan	0		Y	?
Otterid	####				
kes	kes	0		P	pl n
   	kes	0		P	sg n
vanema	vanem	0		C	sg g
      	vanem	0		S	sg g
tüttre	####				
Mari	Mari	0		H	sg g
    	mari	0		S	sg g
    	mari	0		S	sg n
    	Mari	0		H	sg n
    	mari	0		S	sg p
omale	oma	le		A	sg all
     	oma	le		P	sg all
     	oma	le		S	sg all
naiseks	naine	ks		S	sg tr
võttab	####				
,	,			Z	
ja	ja	0		J	
talu	talu	0		S	sg g
    	talu	0		V	o
    	talu	0		S	sg n
    	talu	0		S	sg p
valitsus	valitsus	0		S	sg n
peale	pea	le		S	sg all
     	peale	0		D	
     	peale	0		K	
tema	tema	0		P	sg g
    	tema	0		P	sg n
Jaan	Jaan	0		H	sg n
    	jaan	0		S	sg n
    	jaan	0		Y	?
Pommi	pomm	0		S	adt
     	pomm	0		S	sg g
     	pommi	0		D	
     	pommi	0		V	o
     	pomm	0		S	sg p
surma	surm	0		S	adt
     	surm	0		S	sg g
     	surma	0		V	o
     	surm	0		S	sg p
oma	oma	0		A	sg g
   	oma	0		D	
   	oma	0		P	sg g
   	oma	0		S	sg g
   	oma	0		V	o
   	oma	0		A	sg n
   	oma	0		A	sg p
   	oma	0		P	sg n
   	oma	0		P	sg p
   	oma	0		S	sg n
   	oma	0		S	sg p
kätte	kätte	0		K	
     	käsi	tte		S	adt
saab	saa	b		V	b
,	,			Z	
kuni	kuni	0		J	
    	kuni	0		K	
oma	oma	0		A	sg g
   	oma	0		D	
   	oma	0		P	sg g
   	oma	0		S	sg g
   	oma	0		V	o
   	oma	0		A	sg n
   	oma	0		A	sg p
   	oma	0		P	sg n
   	oma	0		P	sg p
   	oma	0		S	sg n
   	oma	0		S	sg p
surmani	surm	ni		S	sg ter
on	ole	0		V	b
  	ole	0		V	vad
tema	tema	0		P	sg g
    	tema	0		P	sg n
isi	####				
oma	oma	0		A	sg g
   	oma	0		D	
   	oma	0		P	sg g
   	oma	0		S	sg g
   	oma	0		V	o
   	oma	0		A	sg n
   	oma	0		A	sg p
   	oma	0		P	sg n
   	oma	0		P	sg p
   	oma	0		S	sg n
   	oma	0		S	sg p
talu	talu	0		S	sg g
    	talu	0		V	o
    	talu	0		S	sg n
    	talu	0		S	sg p
peremees	pere_mees	0		S	sg n
ja	ja	0		J	
valitseja	valitseja	0		S	sg g
         	valitseja	0		S	sg n
.	.			Z	
kui	kui	0		D	
   	kui	0		J	
Liisa	Liisa	0		H	sg g
     	Liisa	0		H	sg n
peale	pea	le		S	sg all
     	peale	0		D	
     	peale	0		K	
minu	mina	0		P	sg g
surma	surm	0		S	adt
     	surm	0		S	sg g
     	surma	0		V	o
     	surm	0		S	sg p
oma	oma	0		A	sg g
   	oma	0		D	
   	oma	0		P	sg g
   	oma	0		S	sg g
   	oma	0		V	o
   	oma	0		A	sg n
   	oma	0		A	sg p
   	oma	0		P	sg n
   	oma	0		P	sg p
   	oma	0		S	sg n
   	oma	0		S	sg p
sosara	####				
juure	juur	0		S	sg g
elama	ela	ma		V	ma
jaeb	####				
ja	ja	0		J	
talu	talu	0		S	sg g
    	talu	0		V	o
    	talu	0		S	sg n
    	talu	0		S	sg p
tõõd	####				
teeb	tege	b		V	b
siis	siis	0		D	
    	siis	0		J	
peab	pida	b		V	b
tema	tema	0		P	sg g
    	tema	0		P	sg n
sealt	sealt	0		D	
     	siga	lt		A	sg abl
     	siga	lt		S	sg abl
majast	maja	st		S	sg el
riided	riie	d		S	pl n
ja	ja	0		J	
muud	muu	d		P	pl n
    	muu	d		S	pl n
    	muu	d		V	d
    	muu	d		P	sg p
    	muu	d		S	sg p
tarvitust	tarvitus	t		S	sg p
saama	saa	ma		V	ma
     	saam	0		S	adt
     	saam	0		S	sg g
     	saam	0		S	sg p
Jaan	Jaan	0		H	sg n
    	jaan	0		S	sg n
    	jaan	0		Y	?
Pom	####				
ei	ei	0		D	
  	ei	0		V	neg
moista	####				
kirjutada	kirjuta	da		V	da
tema	tema	0		P	sg g
    	tema	0		P	sg n
palve	palve	0		S	sg g
     	palve	0		S	sg n
peale	pea	le		S	sg all
     	peale	0		D	
     	peale	0		K	
kirjutas	kirjuta	s		V	s
alla	alla	0		D	
    	alla	0		K	
tema	tema	0		P	sg g
    	tema	0		P	sg n
tulev	tule	v		V	v
     	tulev	0		A	sg n
väimees	väi_mees	0		S	sg n
Jaan	Jaan	0		H	sg n
    	jaan	0		S	sg n
    	jaan	0		Y	?
Otter	####				
(	(			Z	
allkiri	all_kiri	0		S	sg n
)	)			Z	
Otsus	otsus	0		S	sg n
Sel	see	l		P	sg ad
   	sel	0		Y	?
13	13	0		N	?
Januaril	####				
1895	1895	0		N	?
on	ole	0		V	b
  	ole	0		V	vad
XXI	XXI	0		O	?
   	XXI	0		Y	?
Aavvinurme	####				
Vallakohus	valla_kohus	0		S	sg n
I	I	0		O	?
 	I	0		Y	?
 	j	0		Y	?
Jürjevi	####				
Ülematalurahva	ülema_talu_rahvas	0		S	sg g
kohtu	kohtu	0		V	o
     	kohus	0		S	sg g
ringkonnas	ringkond	s		S	sg in
Jaan	Jaan	0		H	sg n
    	jaan	0		S	sg n
    	jaan	0		Y	?
Pommi	pomm	0		S	adt
     	pomm	0		S	sg g
     	pommi	0		D	
     	pommi	0		V	o
     	pomm	0		S	sg p
palve	palve	0		S	sg g
     	palve	0		S	sg n
asi	asi	0		S	sg n
   	asi	0		V	o
tema	tema	0		P	sg g
    	tema	0		P	sg n
testament	testament	0		S	sg n
uleskirjutamise	####				
pärast	pära	st		S	sg el
      	pärane	t		A	sg p
      	pärast	0		D	
      	pärast	0		K	
üle	üle	0		D	
   	üle	0		K	
kuulanud	kuula	nud		V	nud
        	kuula=nu	d		S	pl n
        	kuula=nud	0		A	
        	kuula=nud	0		A	sg n
        	kuula=nud	d		A	pl n
ning	ning	0		J	
sedda	####				
Protokoli	####				
üles	üles	0		D	
kirjutanud	kirjuta	nud		V	nud
          	kirjutanu	d		S	pl n
          	kirjutanud	0		A	
          	kirjutanud	0		A	sg n
          	kirjutanud	d		A	pl n
,	,			Z	
mis	mis	0		P	pl n
   	mis	0		P	sg n
peale	pea	le		S	sg all
     	peale	0		D	
     	peale	0		K	
Jaan	Jaan	0		H	sg n
    	jaan	0		S	sg n
    	jaan	0		Y	?
Pommi	pomm	0		S	adt
     	pomm	0		S	sg g
     	pommi	0		D	
     	pommi	0		V	o
     	pomm	0		S	sg p
surma	surm	0		S	adt
     	surm	0		S	sg g
     	surma	0		V	o
     	surm	0		S	sg p
säduslikku	####				
jõuu	####				
sisse	siss	e		S	pl p
     	sisse	0		D	
     	sisse	0		K	
astub	astu	b		V	b
.	.			Z	
Jaan	Jaan	0		H	sg n
    	jaan	0		S	sg n
    	jaan	0		Y	?
kalaus	####				
.	.			Z	
(	(			Z	
allkiri	all_kiri	0		S	sg n
)	)			Z	
Jüri	Jüri	0		H	sg g
    	Jüri	0		H	sg n
Reisenpuk	####				
(	(			Z	
allkiri	all_kiri	0		S	sg n
)	)			Z	
Jaan	Jaan	0		H	sg n
    	jaan	0		S	sg n
    	jaan	0		Y	?
Paas	paa	s		A	sg in
    	paa	s		S	sg in
    	paas	0		S	sg n
(	(			Z	
allkiri	all_kiri	0		S	sg n
)	)			Z	
kirjutaja	kirjutaja	0		S	sg g
         	kirjutaja	0		S	sg n
Schulbach	####				
(	(			Z	
allkiri	all_kiri	0		S	sg n
)	)			Z	
