*	*			Z	
.	.			Z	
.	.			Z	
.	.			Z	
andma	and	ma		V	ma
,	,			Z	
sellepärast	selle_pärast	0		D	
ei	ei	0		D	
  	ei	0		V	neg
ole	ole	0		V	o
see	see	0		P	sg n
sugugi	sugugi	0		D	
tema	tema	0		P	sg g
    	tema	0		P	sg n
asi	asi	0		S	sg n
   	asi	0		V	o
kust	kusi	t		S	sg p
    	kust	0		D	
Johan	Johan	0		H	sg n
Jager	####				
seeme	seeme	0		S	sg n
sai	saa	i		V	s
   	sai	0		S	sg n
,	,			Z	
tema	tema	0		P	sg g
    	tema	0		P	sg n
on	ole	0		V	b
  	ole	0		V	vad
sügise	sügis	0		S	sg g
ennegi	ennegi	0		D	
poole	pool	0		N	sg g
     	pool	0		S	sg g
     	pool	e		S	pl p
     	poole	0		K	
     	poole	0		S	sg n
saagi	saa	0	gi	V	o
     	saag	0		S	adt
     	saak	0		S	sg g
     	saag	0		S	sg p
saanud	saa	nud		V	nud
      	saa=nud	0		A	
      	saa=nud	0		A	sg n
      	saa=nud	d		A	pl n
      	saanu	d		S	pl n
.	.			Z	
kontrahti	kontraht	0		S	adt
         	kontraht	0		S	sg p
näidas	####				
Jaan	Jaan	0		H	sg n
    	jaan	0		S	sg n
    	jaan	0		Y	?
Antik	####				
ette	ette	0		D	
    	ette	0		K	
    	esi	tte		S	adt
.	.			Z	
peale	pea	le		S	sg all
     	peale	0		D	
     	peale	0		K	
selle	see	0		P	sg g
     	sell	e		S	pl p
leppisivad	####				
nemad	tema	d		P	pl n
tõine	####				
tõisega	####				
ära	ära	0		D	
   	ära	0		V	neg o
,	,			Z	
et	et	0		J	
nemad	tema	d		P	pl n
see	see	0		P	sg n
5	5	0		N	?
rubl	####				
50	50	0		N	?
kop	kop	0		Y	?
pooleks	pool	ks		N	sg tr
       	pool	ks		S	sg tr
       	pooleks	0		D	
maksavad	maks	vad		V	vad
Mihkel	Mihkel	0		H	sg n
      	mihkel	0		A	sg n
      	mihkel	0		S	sg n
päevale	päev	le		S	sg all
otsus	otsus	0		S	sg n
:	:			Z	
seda	see	da		P	sg p
protokolli	protokoll	0		S	adt
          	protokoll	0		S	sg g
          	protokolli	0		V	o
          	protokoll	0		S	sg p
üles	üles	0		D	
panna	pand	0		S	sg g
     	pane	a		V	da
     	panna	0		S	sg g
     	panna	0		S	sg n
.	.			Z	
peakohtumees	pea_kohtu_mees	0		S	sg n
J. Ling	####				
/	/			Z	
allkiri	all_kiri	0		S	sg n
/	/			Z	
kohtumees	kohtu_mees	0		S	sg n
Johan	Johan	0		H	sg n
Klaosen	####				
XXX	XXX	0		O	?
   	XXX	0		Y	?
""""	""""			Z	
Peeter	Peeter	0		H	sg n
Ivan	Ivan	0		H	sg n
