selle	see	0		P	sg g
     	sell	e		S	pl p
läbi	läbi	0		D	
    	läbi	0		K	
    	läbi	0		V	o
tunnistutas	####				
et	et	0		J	
Kusta	Kusta	0		H	sg g
     	Kusta	0		H	sg n
     	kuse	ta		V	da
     	kuse	ta		V	ta
Teral	tera	l		S	sg ad
,	,			Z	
Jaan	Jaan	0		H	sg n
    	jaan	0		S	sg n
    	jaan	0		Y	?
Piir	piir	0		S	sg n
ja	ja	0		J	
Kusta	Kusta	0		H	sg g
     	Kusta	0		H	sg n
     	kuse	ta		V	da
     	kuse	ta		V	ta
Piir	piir	0		S	sg n
lubavat	luba	vat		V	vat
       	lubav	t		A	sg p
see	see	0		P	sg n
üle	üle	0		D	
   	üle	0		K	
vandida	####				
,	,			Z	
et	et	0		J	
Tartu	Tartu	0		H	adt
     	Tartu	0		H	sg g
     	Tartu	0		H	sg n
     	tartu	0		G	
linnas	linn	s		S	sg in
ärakulnud	####				
Peeter	Peeter	0		H	sg n
Peeterson	####				
on	ole	0		V	b
  	ole	0		V	vad
oma	oma	0		A	sg g
   	oma	0		D	
   	oma	0		P	sg g
   	oma	0		S	sg g
   	oma	0		V	o
   	oma	0		A	sg n
   	oma	0		A	sg p
   	oma	0		P	sg n
   	oma	0		P	sg p
   	oma	0		S	sg n
   	oma	0		S	sg p
poja	poeg	0		S	sg g
    	poja	0		S	sg g
    	poja	0		S	sg n
    	poja	0		S	sg p
poiale	####				
,	,			Z	
Johan	Johan	0		H	sg n
Peetersonile	####				
,	,			Z	
oma	oma	0		A	sg g
   	oma	0		D	
   	oma	0		P	sg g
   	oma	0		S	sg g
   	oma	0		V	o
   	oma	0		A	sg n
   	oma	0		A	sg p
   	oma	0		P	sg n
   	oma	0		P	sg p
   	oma	0		S	sg n
   	oma	0		S	sg p
maja	maja	0		S	sg g
    	maja	0		S	sg n
    	maja	0		S	sg p
,	,			Z	
mis	mis	0		P	pl n
   	mis	0		P	sg n
temal	tema	l		P	sg ad
Tartulinnas	####				
on	ole	0		V	b
  	ole	0		V	vad
,	,			Z	
ning	ning	0		J	
nii	nii	0		D	
palju	palju	0		D	
     	palju	0		P	sg g
     	palju	0		P	sg n
raha	raha	0		S	sg g
    	raha	0		S	sg n
    	raha	0		S	sg p
lubanud	luba	nud		V	nud
       	luba=nu	d		S	pl n
       	luba=nud	0		A	
       	luba=nud	0		A	sg n
       	luba=nud	d		A	pl n
,	,			Z	
et	et	0		J	
see	see	0		P	sg n
maja	maja	0		S	sg g
    	maja	0		S	sg n
    	maja	0		S	sg p
saaks	saa	ks		V	ks
hästi	hästi	0		D	
ümbertehtud	ümber_tehtu	d		S	pl n
           	ümber_tehtud	0		A	
           	ümber_tehtud	0		A	sg n
           	ümber_tehtud	d		A	pl n
saama	saa	ma		V	ma
     	saam	0		S	adt
     	saam	0		S	sg g
     	saam	0		S	sg p
.	.			Z	
