1874	1874	0		N	?
Aavvinurme	####				
koggo	####				
konna	konn	0		S	adt
     	konn	0		S	sg g
     	konn	0		S	sg p
kohtu	kohtu	0		V	o
     	kohus	0		S	sg g
ette	ette	0		D	
    	ette	0		K	
    	esi	tte		S	adt
astusid	astu	sid		V	sid
Sel	see	l		P	sg ad
   	sel	0		Y	?
17mal	####				
Januaril	####				
Kupäval	####				
Sare	####				
külast	küla	st		S	sg el
Pobo	####				
1.	1.	0		O	?
Jüri	Jüri	0		H	sg g
    	Jüri	0		H	sg n
Õunapu	####				
2.	2.	0		O	?
Jakob	Jakob	0		H	sg n
Mihkelson	####				
3.	3.	0		O	?
Mihkel	Mihkel	0		H	sg n
      	mihkel	0		A	sg n
      	mihkel	0		S	sg n
Aambos	####				
et	et	0		J	
nemad	tema	d		P	pl n
olid	ole	id		V	sid
1864	1864	0		N	?
Aaastal	####				
ja	ja	0		J	
30mal	####				
Detsmbri	####				
Kupäval	####				
Kirbosare	####				
külas	küla	s		S	sg in
käinud	käi	nud		V	nud
      	käi=nud	0		A	
      	käi=nud	0		A	sg n
      	käi=nud	d		A	pl n
      	käinu	d		S	pl n
kolme	kolm	0		N	adt
     	kolm	0		N	sg g
     	kolm	0		N	sg p
Obosega	####				
ja	ja	0		J	
perud	peru	d		A	pl n
     	peru	d		S	pl n
peal	pea	l		S	sg ad
    	peal	0		D	
    	peal	0		K	
se	####				
tunnismees	tunnis_mees	0		S	sg n
on	ole	0		V	b
  	ole	0		V	vad
Kirbo	####				
Maddis	####				
Mihkelson	####				
kes	kes	0		P	pl n
   	kes	0		P	sg n
seda	see	da		P	sg p
näggi	####				
ja	ja	0		J	
ütlesid	ütle	sid		V	sid
et	et	0		J	
nemad	tema	d		P	pl n
piddidküiskale	####				
minema	mine	ma		V	ma
ja	ja	0		J	
ei	ei	0		D	
  	ei	0		V	neg
läinud	läinu	d		S	pl n
      	läinud	0		A	
      	läinud	0		A	sg n
      	läinud	d		A	pl n
      	mine	nud		V	nud
ja	ja	0		J	
läksid	mine	sid		V	sid
Juhan	Juhan	0		H	sg n
Jootmaallika	####				
jao	jagu	0		S	sg g
metsa	mets	0		S	adt
     	mets	0		S	sg g
     	mets	0		S	sg p
üsi	####				
pero	####				
tulega	tuli	ga		S	sg kom
ja	ja	0		J	
varastasid	varasta	sid		V	sid
kolm	kolm	0		N	sg n
Männi	mänd	0		S	sg g
puud	puu	d		S	pl n
    	puud	0		S	sg n
    	puu	d		S	sg p
esimenne	####				
oli	ole	i		V	s
.	.			Z	
Krono	####				
tembli	####				
ehk	ehk	0		D	
   	ehk	0		J	
numetud	####				
Laeva	Laeva	0		H	adt
     	Laeva	0		H	sg g
     	laev	0		S	adt
     	laev	0		S	sg g
     	Laeva	0		H	sg n
     	laev	0		S	sg p
pu	####				
mis	mis	0		P	pl n
   	mis	0		P	sg n
oli	ole	i		V	s
pikkus	pikkus	0		S	sg n
5	5	0		N	?
Sülda	süld	0		S	adt
     	süld	0		S	sg p
8	8	0		N	?
versukad	####				
jäme	jäme	0		A	sg n
teine	teine	0		O	sg n
     	teine	0		P	sg n
veike	####				
pu	####				
mis	mis	0		P	pl n
   	mis	0		P	sg n
oli	ole	i		V	s
pik	####				
3	3	0		N	?
Sülda	süld	0		S	adt
     	süld	0		S	sg p
7	7	0		N	?
versukad	####				
jäme	jäme	0		A	sg n
kolmas	kolmas	0		O	sg n
pu	####				
mis	mis	0		P	pl n
   	mis	0		P	sg n
oli	ole	i		V	s
pikkus	pikkus	0		S	sg n
3	3	0		N	?
Sulda	####				
6	6	0		N	?
versukad	####				
jäme	jäme	0		A	sg n
mis	mis	0		P	pl n
   	mis	0		P	sg n
tunnistad	tunnista	d		V	d
kogokonna	####				
kohtomehed	####				
kohtomehed	####				
Maddis	####				
Allik	Allik	0		H	sg n
X	X	0		O	?
 	X	0		Y	?
Aabram	Aabram	0		H	sg n
Tamm	tamm	0		S	sg n
X	X	0		O	?
 	X	0		Y	?
Josep	####				
Klebani	####				
X	X	0		O	?
 	X	0		Y	?
