ette	ette	0		D	
    	ette	0		K	
    	esi	tte		S	adt
tuli	tuli	0		S	sg n
    	tule	i		V	s
Jõgeva	Jõgeva	0		H	sg g
      	Jõgeva	0		H	sg n
      	jõgeva	0		G	
vallast	vald	st		S	sg el
Kustav	kus=tav	0		A	sg n
      	kuse	tav		V	tav
Pirn	pirn	0		S	sg n
kadunud	kadu	nud		V	nud
       	kadunu	d		S	pl n
       	kadunud	0		A	
       	kadunud	0		A	sg n
       	kadunud	d		A	pl n
Gottleppa	####				
Soonseini	####				
asemik	asemik	0		S	sg n
ja	ja	0		J	
kaebas	kaeba	s		V	s
et	et	0		J	
siit	siit	0		D	
Säeritsa	####				
kõrtsi	kõrts	0		S	adt
      	kõrts	0		S	sg g
      	kõrts	0		S	sg p
mees	mees	0		S	sg n
    	mesi	s		S	sg in
Ivan	Ivan	0		H	sg n
Poltov	####				
kui	kui	0		D	
   	kui	0		J	
seda	see	da		P	sg p
kõrtsid	kõrts	d		S	pl n
Gottleppa	####				
käest	käest	0		K	
     	käsi	st		S	sg el
võtnud	võt	nud		V	nud
      	võt=nu	d		S	pl n
      	võt=nud	0		A	
      	võt=nud	0		A	sg n
      	võt=nud	d		A	pl n
lubanud	luba	nud		V	nud
       	luba=nu	d		S	pl n
       	luba=nud	0		A	
       	luba=nud	0		A	sg n
       	luba=nud	d		A	pl n
25	25	0		N	?
rubla	rubla	0		S	sg g
     	rubla	0		S	sg n
     	rubla	0		S	sg p
käsi	käski	0		V	o
    	käsi	0		S	pl p
    	käsi	0		S	sg n
    	käsi	0		D	
raha	raha	0		S	sg g
    	raha	0		S	sg n
    	raha	0		S	sg p
anda	and	a		V	da
ja	ja	0		J	
kõrtsi	kõrts	0		S	adt
      	kõrts	0		S	sg g
      	kõrts	0		S	sg p
rent	rent	0		S	sg n
olnud	ol=nud	0		A	
     	ol=nud	0		A	sg n
     	ol=nud	d		A	pl n
     	ole	nud		V	nud
     	olnu	d		S	pl n
260	260	0		N	?
rubla	rubla	0		S	sg g
     	rubla	0		S	sg n
     	rubla	0		S	sg p
aga	aga	0		J	
nüüd	nüüd	0		D	
salgab	salga	b		V	b
kõrtsimees	kõrtsi_mees	0		S	sg n
et	et	0		J	
tema	tema	0		P	sg g
    	tema	0		P	sg n
ei	ei	0		D	
  	ei	0		V	neg
ole	ole	0		V	o
midagi	miski	dagi		P	sg p
lubanud	luba	nud		V	nud
       	luba=nu	d		S	pl n
       	luba=nud	0		A	
       	luba=nud	0		A	sg n
       	luba=nud	d		A	pl n
vaid	vaid	0		D	
    	vaid	0		J	
aga	aga	0		J	
se	####				
kõrtsi	kõrts	0		S	adt
      	kõrts	0		S	sg g
      	kõrts	0		S	sg p
rent	rent	0		S	sg n
ja	ja	0		J	
2	2	0		N	?
rubla	rubla	0		S	sg g
     	rubla	0		S	sg n
     	rubla	0		S	sg p
veel	veel	0		D	
    	vesi	l		S	sg ad
kõrtsi	kõrts	0		S	adt
      	kõrts	0		S	sg g
      	kõrts	0		S	sg p
kauba	kaup	0		S	sg g
paberite	paber	te		S	pl g
raha	raha	0		S	sg g
    	raha	0		S	sg n
    	raha	0		S	sg p
oleva	olev	0		A	sg g
     	olev	0		S	sg g
ka	ka	0		D	
maksmatta	####				
üle	üle	0		D	
   	üle	0		K	
pea	pea	0		D	
   	pea	0		S	sg g
   	pida	0		V	o
   	pea	0		S	sg n
27	27	0		N	?
rubla	rubla	0		S	sg g
     	rubla	0		S	sg n
     	rubla	0		S	sg p
.	.			Z	
kutsumise	kutsumine	0		S	sg g
peäle	####				
astus	astu	s		V	s
kõrtsimees	kõrtsi_mees	0		S	sg n
Ivan	Ivan	0		H	sg n
Poltohv	####				
ette	ette	0		D	
    	ette	0		K	
    	esi	tte		S	adt
kostis	kost	s		S	sg in
      	kost	is		V	s
tema	tema	0		P	sg g
    	tema	0		P	sg n
ei	ei	0		D	
  	ei	0		V	neg
tea	tead	0		V	o
midagi	miski	dagi		P	sg p
Gottlepale	####				
maksta	maks	ta		V	da
      	maks	ta		V	ta
olema	ole	ma		V	ma
kõrtsi	kõrts	0		S	adt
      	kõrts	0		S	sg g
      	kõrts	0		S	sg p
rent	rent	0		S	sg n
260	260	0		N	?
rubla	rubla	0		S	sg g
     	rubla	0		S	sg n
     	rubla	0		S	sg p
oleva	olev	0		A	sg g
     	olev	0		S	sg g
tema	tema	0		P	sg g
    	tema	0		P	sg n
ära	ära	0		D	
   	ära	0		V	neg o
maksnud	maks	nud		V	nud
       	maks=nu	d		S	pl n
       	maks=nud	0		A	
       	maks=nud	0		A	sg n
       	maks=nud	d		A	pl n
ja	ja	0		J	
kasu	kasu	0		S	sg g
    	kasu	0		S	sg n
    	kasu	0		S	sg p
raha	raha	0		S	sg g
    	raha	0		S	sg n
    	raha	0		S	sg p
ei	ei	0		D	
  	ei	0		V	neg
ole	ole	0		V	o
tema	tema	0		P	sg g
    	tema	0		P	sg n
midagi	miski	dagi		P	sg p
lubanud	luba	nud		V	nud
       	luba=nu	d		S	pl n
       	luba=nud	0		A	
       	luba=nud	0		A	sg n
       	luba=nud	d		A	pl n
.	.			Z	
Selle	see	0		P	sg g
     	sell	e		S	pl p
peäle	####				
küsis	küsi	s		V	s
kohus	kohu	s		V	s
     	kohus	0		S	sg n
kas	kas	0		D	
neil	see	l		P	pl ad
    	tema	l		P	pl ad
tunnistust	tunnistus	t		S	sg p
ei	ei	0		D	
  	ei	0		V	neg
ole	ole	0		V	o
.	.			Z	
kutsumise	kutsumine	0		S	sg g
peäle	####				
astus	astu	s		V	s
Paul	Paul	0		H	sg n
Olla	ole	a		V	da
ette	ette	0		D	
    	ette	0		K	
    	esi	tte		S	adt
kostis	kost	s		S	sg in
      	kost	is		V	s
küsimise	küsimine	0		S	sg g
peäle	####				
,	,			Z	
et	et	0		J	
tema	tema	0		P	sg g
    	tema	0		P	sg n
on	ole	0		V	b
  	ole	0		V	vad
kuulnud	kuul	nud		V	nud
       	kuul=nud	0		A	
       	kuul=nud	0		A	sg n
       	kuul=nud	d		A	pl n
       	kuulnu	d		S	pl n
et	et	0		J	
Ivan	Ivan	0		H	sg n
Poltohv	####				
25	25	0		N	?
rubla	rubla	0		S	sg g
     	rubla	0		S	sg n
     	rubla	0		S	sg p
Gottlepale	####				
kasu	kasu	0		S	sg g
    	kasu	0		S	sg n
    	kasu	0		S	sg p
raha	raha	0		S	sg g
    	raha	0		S	sg n
    	raha	0		S	sg p
lubanud	luba	nud		V	nud
       	luba=nu	d		S	pl n
       	luba=nud	0		A	
       	luba=nud	0		A	sg n
       	luba=nud	d		A	pl n
.	.			Z	
kutsumise	kutsumine	0		S	sg g
peäle	####				
astus	astu	s		V	s
Aandres	####				
Kirs	kirs	0		S	sg n
ette	ette	0		D	
    	ette	0		K	
    	esi	tte		S	adt
kostis	kost	s		S	sg in
      	kost	is		V	s
küsimise	küsimine	0		S	sg g
peäle	####				
,	,			Z	
et	et	0		J	
tema	tema	0		P	sg g
    	tema	0		P	sg n
on	ole	0		V	b
  	ole	0		V	vad
õige	õige	0		A	sg g
    	õige	0		A	sg n
    	õige	0		D	
juures	juur	s		S	sg in
      	juures	0		D	
      	juures	0		K	
olnud	ol=nud	0		A	
     	ol=nud	0		A	sg n
     	ol=nud	d		A	pl n
     	ole	nud		V	nud
     	olnu	d		S	pl n
kui	kui	0		D	
   	kui	0		J	
nemad	tema	d		P	pl n
Gotteleppa	####				
maias	maia	s		S	sg in
     	maias	0		A	sg n
     	maias	s		A	sg in
kortsid	kortsi	d		V	d
kaubelnud	kauple	nud		V	nud
         	kaubel=nu	d		S	pl n
         	kaubel=nud	0		A	
         	kaubel=nud	0		A	sg n
         	kaubel=nud	d		A	pl n
ja	ja	0		J	
kuulnud	kuul	nud		V	nud
       	kuul=nud	0		A	
       	kuul=nud	0		A	sg n
       	kuul=nud	d		A	pl n
       	kuulnu	d		S	pl n
kui	kui	0		D	
   	kui	0		J	
kõrtsimees	kõrtsi_mees	0		S	sg n
25	25	0		N	?
rubla	rubla	0		S	sg g
     	rubla	0		S	sg n
     	rubla	0		S	sg p
kasu	kasu	0		S	sg g
    	kasu	0		S	sg n
    	kasu	0		S	sg p
raha	raha	0		S	sg g
    	raha	0		S	sg n
    	raha	0		S	sg p
lubanud	luba	nud		V	nud
       	luba=nu	d		S	pl n
       	luba=nud	0		A	
       	luba=nud	0		A	sg n
       	luba=nud	d		A	pl n
ja	ja	0		J	
Jüri	Jüri	0		H	sg g
    	Jüri	0		H	sg n
päival	####				
kel	kes	l		P	sg ad
12	12	0		N	?
lubanud	luba	nud		V	nud
       	luba=nu	d		S	pl n
       	luba=nud	0		A	
       	luba=nud	0		A	sg n
       	luba=nud	d		A	pl n
kõrtsi	kõrts	0		S	adt
      	kõrts	0		S	sg g
      	kõrts	0		S	sg p
kätte	kätte	0		K	
     	käsi	tte		S	adt
anda	and	a		V	da
.	.			Z	
Peäle	####				
selle	see	0		P	sg g
     	sell	e		S	pl p
saatis	saat	is		V	s
kohus	kohu	s		V	s
     	kohus	0		S	sg n
neid	neid	0		S	sg n
    	see	d		P	pl p
    	tema	d		P	pl p
kohtu	kohtu	0		V	o
     	kohus	0		S	sg g
toast	tuba	st		S	sg el
välja	välja	0		D	
     	välja	0		V	o
     	väli	0		S	adt
     	väli	0		S	sg g
     	väli	0		S	sg p
ja	ja	0		J	
sundis	sundi	s		V	s
neid	neid	0		S	sg n
    	see	d		P	pl p
    	tema	d		P	pl p
leppima	leppi	ma		V	ma
enne	enne	0		D	
    	enne	0		K	
    	enne	0		S	sg n
kui	kui	0		D	
   	kui	0		J	
otsus	otsus	0		S	sg n
saab	saa	b		V	b
kulutud	kulu	tud		V	tud
       	kulu=tu	d		S	pl n
       	kulu=tud	0		A	
       	kulu=tud	0		A	sg n
       	kulu=tud	d		A	pl n
.	.			Z	
kutsumise	kutsumine	0		S	sg g
peäle	####				
astusid	astu	sid		V	sid
kohtu	kohtu	0		V	o
     	kohus	0		S	sg g
tuppa	tuba	0		S	adt
ja	ja	0		J	
lepisid	####				
ära	ära	0		D	
   	ära	0		V	neg o
mis	mis	0		P	pl n
   	mis	0		P	sg n
ka	ka	0		D	
oma	oma	0		A	sg g
   	oma	0		D	
   	oma	0		P	sg g
   	oma	0		S	sg g
   	oma	0		V	o
   	oma	0		A	sg n
   	oma	0		A	sg p
   	oma	0		P	sg n
   	oma	0		P	sg p
   	oma	0		S	sg n
   	oma	0		S	sg p
nime	nimi	0		S	sg g
    	nimi	0		S	sg p
alla	alla	0		D	
    	alla	0		K	
kirjutusega	kirjutus	ga		S	sg kom
sai	saa	i		V	s
   	sai	0		S	sg n
tõentud	####				
ja	ja	0		J	
maksis	maks	is		V	s
      	maksi	s		S	sg in
15	15	0		N	?
rubla	rubla	0		S	sg g
     	rubla	0		S	sg n
     	rubla	0		S	sg p
.	.			Z	
Kustav	kus=tav	0		A	sg n
      	kuse	tav		V	tav
Pirn	pirn	0		S	sg n
XXX	XXX	0		O	?
   	XXX	0		Y	?
Ivan	Ivan	0		H	sg n
Polot	polo	t		S	sg p
XXX	XXX	0		O	?
   	XXX	0		Y	?
