tuli	tuli	0		S	sg n
    	tule	i		V	s
ette	ette	0		D	
    	ette	0		K	
    	esi	tte		S	adt
Peeter	Peeter	0		H	sg n
pearli	####				
ja	ja	0		J	
ütleb	ütle	b		V	b
et	et	0		J	
Aadam	Aadam	0		H	sg n
juuksaar	####				
on	ole	0		V	b
  	ole	0		V	vad
teda	tema	da		P	sg p
teotanud	teota	nud		V	nud
        	teota=nu	d		S	pl n
        	teota=nud	0		A	
        	teota=nud	0		A	sg n
        	teota=nud	d		A	pl n
ja	ja	0		J	
on	ole	0		V	b
  	ole	0		V	vad
tema	tema	0		P	sg g
    	tema	0		P	sg n
selja	selg	0		S	sg g
lepi	leppi	0		V	o
10	10	0		N	?
rbl	rbl	0		Y	?
raha	raha	0		S	sg g
    	raha	0		S	sg n
    	raha	0		S	sg p
oma	oma	0		A	sg g
   	oma	0		D	
   	oma	0		P	sg g
   	oma	0		S	sg g
   	oma	0		V	o
   	oma	0		A	sg n
   	oma	0		A	sg p
   	oma	0		P	sg n
   	oma	0		P	sg p
   	oma	0		S	sg n
   	oma	0		S	sg p
mütsist	müts	st		S	sg el
välja	välja	0		D	
     	välja	0		V	o
     	väli	0		S	adt
     	väli	0		S	sg g
     	väli	0		S	sg p
kautanud	####				
.	.			Z	
Aadam	Aadam	0		H	sg n
ütleb	ütle	b		V	b
et	et	0		J	
Peeter	Peeter	0		H	sg n
kõrtsis	kõrts	s		S	sg in
tülinud	####				
,	,			Z	
kella	kell	0		S	adt
     	kell	0		S	sg g
     	kella	0		V	o
     	kell	0		S	sg p
8adakas	####				
kella	kell	0		S	adt
     	kell	0		S	sg g
     	kella	0		V	o
     	kell	0		S	sg p
8ni	8	ni		N	sg ter
hommiko	####				
.	.			Z	
Tina	tina	0		S	sg g
    	tina	0		S	sg n
    	tina	0		S	sg p
oli	ole	i		V	s
ühepuhku	ühe_puhk	0		S	adt
        	ühe_puhk	0		S	sg p
kõrtsis	kõrts	s		S	sg in
taplenud	####				
ja	ja	0		J	
ei	ei	0		D	
  	ei	0		V	neg
ole	ole	0		V	o
mitte	mitte	0		D	
kõrtsimehe	kõrtsi_mees	0		S	sg g
käsu	käsk	0		S	sg g
peale	pea	le		S	sg all
     	peale	0		D	
     	peale	0		K	
tüli	tüli	0		S	sg g
    	tüli	0		S	sg n
    	tüli	0		S	sg p
mahatnud	####				
.	.			Z	
Grunvald	####				
ette	ette	0		D	
    	ette	0		K	
    	esi	tte		S	adt
kutsutud	kutsu	tud		V	tud
        	kutsutu	d		S	pl n
        	kutsutud	0		A	
        	kutsutud	0		A	sg n
        	kutsutud	d		A	pl n
ütleb	ütle	b		V	b
et	et	0		J	
tema	tema	0		P	sg g
    	tema	0		P	sg n
on	ole	0		V	b
  	ole	0		V	vad
kohtu	kohtu	0		V	o
     	kohus	0		S	sg g
mehe	mees	0		S	sg g
Aadam	Aadam	0		H	sg n
perra	####				
leind	####				
ja	ja	0		J	
on	ole	0		V	b
  	ole	0		V	vad
teda	tema	da		P	sg p
palunud	palu	nud		V	nud
       	palu=nu	d		S	pl n
       	palu=nud	0		A	
       	palu=nud	0		A	sg n
       	palu=nud	d		A	pl n
tülisi	####				
lachti	####				
teha	tege	a		V	da
,	,			Z	
Aadam	Aadam	0		H	sg n
on	ole	0		V	b
  	ole	0		V	vad
Peeter	Peeter	0		H	sg n
kindi	####				
võtnud	võt	nud		V	nud
      	võt=nu	d		S	pl n
      	võt=nud	0		A	
      	võt=nud	0		A	sg n
      	võt=nud	d		A	pl n
ja	ja	0		J	
on	ole	0		V	b
  	ole	0		V	vad
teda	tema	da		P	sg p
ära	ära	0		D	
   	ära	0		V	neg o
viinud	vii	nud		V	nud
      	vii=nu	d		S	pl n
      	vii=nud	0		A	
      	vii=nud	0		A	sg n
      	vii=nud	d		A	pl n
kõrtsis	kõrts	s		S	sg in
,	,			Z	
mõisa	mõis	0		S	sg g
juure	juur	0		S	sg g
.	.			Z	
lömist	####				
ei	ei	0		D	
  	ei	0		V	neg
ole	ole	0		V	o
midagi	miski	dagi		P	sg p
neind	####				
,	,			Z	
ja	ja	0		J	
rahast	raha	st		S	sg el
ka	ka	0		D	
ei	ei	0		D	
  	ei	0		V	neg
ole	ole	0		V	o
midagi	miski	dagi		P	sg p
neind	####				
.	.			Z	
kohus	kohu	s		V	s
     	kohus	0		S	sg n
mõistab	mõist	b		V	b
seda	see	da		P	sg p
astja	astja	0		S	sg g
     	astja	0		S	sg n
tühjaks	tühi	ks		A	sg tr
ja	ja	0		J	
ei	ei	0		D	
  	ei	0		V	neg
ole	ole	0		V	o
vahe	vahe	0		A	sg n
    	vahe	0		S	sg g
    	vahe	0		S	sg n
Aadam	Aadam	0		H	sg n
seda	see	da		P	sg p
10	10	0		N	?
R	R	0		Y	?
raha	raha	0		S	sg g
    	raha	0		S	sg n
    	raha	0		S	sg p
maksta	maks	ta		V	da
      	maks	ta		V	ta
mis	mis	0		P	pl n
   	mis	0		P	sg n
tema	tema	0		P	sg g
    	tema	0		P	sg n
nõuuab	####				
.	.			Z	
peamees	pea_mees	0		S	sg n
Peeter	Peeter	0		H	sg n
Madisson	####				
/	/			Z	
XXX	XXX	0		O	?
   	XXX	0		Y	?
/	/			Z	
abimees	abi_mees	0		S	sg n
Peeter	Peeter	0		H	sg n
Zirn	####				
/	/			Z	
XXX	XXX	0		O	?
   	XXX	0		Y	?
/	/			Z	
-	-			Z	
""""	""""			Z	
-	-			Z	
Joosep	Joosep	0		H	sg n
Tensing	####				
/	/			Z	
XXX	XXX	0		O	?
   	XXX	0		Y	?
/	/			Z	
