sel	see	l		P	sg ad
   	sel	0		Y	?
4	4	0		N	?
Augustil	august	l		S	sg ad
        	August	l		H	sg ad
1886	1886	0		N	?
kaebas	kaeba	s		V	s
Roiju	####				
Jüri	Jüri	0		H	sg g
    	Jüri	0		H	sg n
Klaos	####				
,	,			Z	
et	et	0		J	
Jaan	Jaan	0		H	sg n
    	jaan	0		S	sg n
    	jaan	0		Y	?
Tohvri	####				
tema	tema	0		P	sg g
    	tema	0		P	sg n
kasu	kasu	0		S	sg g
    	kasu	0		S	sg n
    	kasu	0		S	sg p
raendiko	####				
peal	pea	l		S	sg ad
    	peal	0		D	
    	peal	0		K	
oma	oma	0		A	sg g
   	oma	0		D	
   	oma	0		P	sg g
   	oma	0		S	sg g
   	oma	0		V	o
   	oma	0		A	sg n
   	oma	0		A	sg p
   	oma	0		P	sg n
   	oma	0		P	sg p
   	oma	0		S	sg n
   	oma	0		S	sg p
hobust	hobu	st		S	sg el
      	hobune	t		S	sg p
on	ole	0		V	b
  	ole	0		V	vad
söötnud	sööt	nud		V	nud
       	sööt=nu	d		S	pl n
       	sööt=nud	0		A	
       	sööt=nud	0		A	sg n
       	sööt=nud	d		A	pl n
,	,			Z	
seda	see	da		P	sg p
ei	ei	0		D	
  	ei	0		V	neg
ole	ole	0		V	o
keegi	kee	0	gi	S	sg g
     	kee	0	gi	V	o
     	keegi	0		P	sg n
     	kee	0	gi	S	sg n
üle	üle	0		D	
   	üle	0		K	
kaenud	kae	nud		V	nud
      	kae=nu	d		S	pl n
      	kae=nud	0		A	
      	kae=nud	0		A	sg n
      	kae=nud	d		A	pl n
ja	ja	0		J	
tunistaja	####				
on	ole	0		V	b
  	ole	0		V	vad
:	:			Z	
Jüri	Jüri	0		H	sg g
    	Jüri	0		H	sg n
Padar	####				
ja	ja	0		J	
Endrik	Endrik	0		H	sg n
,	,			Z	
kes	kes	0		P	pl n
   	kes	0		P	sg n
Roijol	####				
elava	elav	0		A	sg g
     	elav	0		S	sg g
.	.			Z	
Jaan	Jaan	0		H	sg n
    	jaan	0		S	sg n
    	jaan	0		Y	?
Tohvri	####				
Krimannist	####				
vastutas	vastuta	s		V	s
selle	see	0		P	sg g
     	sell	e		S	pl p
peale	pea	le		S	sg all
     	peale	0		D	
     	peale	0		K	
,	,			Z	
et	et	0		J	
tema	tema	0		P	sg g
    	tema	0		P	sg n
teadmise	teadmine	0		S	sg g
perra	####				
ei	ei	0		D	
  	ei	0		V	neg
ole	ole	0		V	o
tema	tema	0		P	sg g
    	tema	0		P	sg n
hobune	hobune	0		S	sg n
kunagi	kunagi	0		D	
kaebaja	kaebaja	0		S	sg g
       	kaebaja	0		S	sg n
raendiku	####				
peal	pea	l		S	sg ad
    	peal	0		D	
    	peal	0		K	
olnud	ol=nud	0		A	
     	ol=nud	0		A	sg n
     	ol=nud	d		A	pl n
     	ole	nud		V	nud
     	olnu	d		S	pl n
.	.			Z	
otsus	otsus	0		S	sg n
:	:			Z	
et	et	0		J	
tunistaja	####				
ette	ette	0		D	
    	ette	0		K	
    	esi	tte		S	adt
on	ole	0		V	b
  	ole	0		V	vad
kutsuta	kutsu	ta		V	ta
       	kutsu	ta		S	sg ab
.	.			Z	
kohtumees	kohtu_mees	0		S	sg n
:	:			Z	
Jüri	Jüri	0		H	sg g
    	Jüri	0		H	sg n
kärn	kärn	0		S	sg n
XXX	XXX	0		O	?
   	XXX	0		Y	?
""""	""""			Z	
Jaan	Jaan	0		H	sg n
    	jaan	0		S	sg n
    	jaan	0		Y	?
Hansen	Hansen	0		H	sg n
/	/			Z	
allkiri	all_kiri	0		S	sg n
/	/			Z	
""""	""""			Z	
Johan	Johan	0		H	sg n
rasva	rasv	0		S	adt
     	rasv	0		S	sg g
     	rasva	0		D	
     	rasva	0		V	o
     	rasv	0		S	sg p
XXX	XXX	0		O	?
   	XXX	0		Y	?
