Palla	####				
mõisavalitsuse	mõisa_valitsus	0		S	sg g
nimel	nimel	0		K	
     	nimi	l		S	sg ad
kaebab	kaeba	b		V	b
Josep	####				
eber	####				
Mai	Mai	0		H	sg g
   	Mai	0		H	sg n
   	mai	0		S	sg g
   	mai	0		S	sg n
Velt	####				
ja	ja	0		J	
Mari	Mari	0		H	sg g
    	mari	0		S	sg g
    	mari	0		S	sg n
    	Mari	0		H	sg n
    	mari	0		S	sg p
kaio	####				
peale	pea	le		S	sg all
     	peale	0		D	
     	peale	0		K	
need	see	d		P	pl n
olla	ole	a		V	da
mõisa	mõis	0		S	sg g
metsast	mets	st		S	sg el
       	metsane	t		A	sg p
rohtu	rohtu	0		D	
     	rohtu	0		V	o
     	rohi	0		S	adt
     	rohi	0		S	sg p
kiskunud	kisku	nud		V	nud
        	kisku=nu	d		S	pl n
        	kisku=nud	0		A	
        	kisku=nud	0		A	sg n
        	kisku=nud	d		A	pl n
,	,			Z	
ilma	ilm	0		S	adt
    	ilm	0		S	sg g
    	ilma	0		D	
    	ilma	0		K	
    	ilm	0		S	sg p
et	et	0		J	
seks	see	ks		P	sg tr
    	seks	0		S	sg n
luba	luba	0		S	sg n
    	luba	0		V	o
    	luba	0		S	sg p
oleks	ole	ks		V	ks
olnud	ol=nud	0		A	
     	ol=nud	0		A	sg n
     	ol=nud	d		A	pl n
     	ole	nud		V	nud
     	olnu	d		S	pl n
:	:			Z	
,	,			Z	
nõuab	nõud	b		V	b
kummagi	kumbki	gi		P	sg g
käest	käest	0		K	
     	käsi	st		S	sg el
1.	1.	0		O	?
rubla	rubla	0		S	sg g
     	rubla	0		S	sg n
     	rubla	0		S	sg p
,	,			Z	
kahjutasumist	kahju_tasumine	t		S	sg p
.	.			Z	
Mai	Mai	0		H	sg g
   	Mai	0		H	sg n
   	mai	0		S	sg g
   	mai	0		S	sg n
Velt	####				
oma	oma	0		A	sg g
   	oma	0		D	
   	oma	0		P	sg g
   	oma	0		S	sg g
   	oma	0		V	o
   	oma	0		A	sg n
   	oma	0		A	sg p
   	oma	0		P	sg n
   	oma	0		P	sg p
   	oma	0		S	sg n
   	oma	0		S	sg p
eestkostja	eest_kostja	0		S	sg g
          	eest_kostja	0		S	sg n
Jaan	Jaan	0		H	sg n
    	jaan	0		S	sg n
    	jaan	0		Y	?
Kubaga	####				
tunnistab	tunnista	b		V	b
ennast	ise	t		P	sg p
süüdlaseks	süüdlane	ks		S	sg tr
.	.			Z	
Mari	Mari	0		H	sg g
    	mari	0		S	sg g
    	mari	0		S	sg n
    	Mari	0		H	sg n
    	mari	0		S	sg p
kaio	####				
on	ole	0		V	b
  	ole	0		V	vad
ilma	ilm	0		S	adt
    	ilm	0		S	sg g
    	ilma	0		D	
    	ilma	0		K	
    	ilm	0		S	sg p
meheta	mees	ta		S	sg ab
kohtu	kohtu	0		V	o
     	kohus	0		S	sg g
ette	ette	0		D	
    	ette	0		K	
    	esi	tte		S	adt
tulnud	tul=nud	0		A	
      	tul=nud	0		A	sg n
      	tul=nud	d		A	pl n
      	tule	nud		V	nud
      	tulnu	d		S	pl n
,	,			Z	
ei	ei	0		D	
  	ei	0		V	neg
või	või	0		S	sg g
   	või	0		V	o
   	või	0		D	
   	või	0		J	
   	või	0		S	sg n
üle	üle	0		D	
   	üle	0		K	
kuulatud	kuula	tud		V	tud
        	kuula=tu	d		S	pl n
        	kuula=tud	0		A	
        	kuula=tud	0		A	sg n
        	kuula=tud	d		A	pl n
saada	saa	da		V	da
     	saat	0		V	o
     	saa	da		V	ta
.	.			Z	
Kaarel	Kaarel	0		H	sg n
      	kaar	l		S	sg ad
      	kaarel	0		S	sg n
Aanuk	####				
,	,			Z	
mõisa	mõis	0		S	sg g
metsavaht	metsa_vaht	0		S	sg n
on	ole	0		V	b
  	ole	0		V	vad
neid	neid	0		S	sg n
    	see	d		P	pl p
    	tema	d		P	pl p
kinni	kinni	0		D	
võtnud	võt	nud		V	nud
      	võt=nu	d		S	pl n
      	võt=nud	0		A	
      	võt=nud	0		A	sg n
      	võt=nud	d		A	pl n
ja	ja	0		J	
on	ole	0		V	b
  	ole	0		V	vad
mõnemil	####				
sirbid	sirp	d		S	pl n
pantud	####				
.	.			Z	
kohus	kohu	s		V	s
     	kohus	0		S	sg n
mõistis	mõist	is		V	s
:	:			Z	
kaebdus	####				
Mari	Mari	0		H	sg g
    	mari	0		S	sg g
    	mari	0		S	sg n
    	Mari	0		H	sg n
    	mari	0		S	sg p
kaio	####				
kohta	koht	0		S	adt
     	kohta	0		K	
     	kohta	0		V	o
     	koht	0		S	sg p
jääb	jää	b		V	b
lähema	lähem	0		C	sg g
kohtu	kohtu	0		V	o
     	kohus	0		S	sg g
päeva	päev	0		S	adt
     	päev	0		S	sg g
     	päev	0		S	sg p
peale	pea	le		S	sg all
     	peale	0		D	
     	peale	0		K	
.	.			Z	
On	ole	0		V	b
  	ole	0		V	vad
aga	aga	0		J	
Mai	Mai	0		H	sg g
   	Mai	0		H	sg n
   	mai	0		S	sg g
   	mai	0		S	sg n
Velt	####				
ilma	ilm	0		S	adt
    	ilm	0		S	sg g
    	ilma	0		D	
    	ilma	0		K	
    	ilm	0		S	sg p
mõisa	mõis	0		S	sg g
loata	loata	0		A	
     	loata	0		D	
     	luba	ta		S	sg ab
     	luga	ta		S	sg ab
rohtu	rohtu	0		D	
     	rohtu	0		V	o
     	rohi	0		S	adt
     	rohi	0		S	sg p
kiskumas	kisku	mas		V	mas
käinud	käi	nud		V	nud
      	käi=nud	0		A	
      	käi=nud	0		A	sg n
      	käi=nud	d		A	pl n
      	käinu	d		S	pl n
,	,			Z	
siis	siis	0		D	
    	siis	0		J	
saab	saa	b		V	b
teine	teine	0		O	sg n
     	teine	0		P	sg n
selle	see	0		P	sg g
     	sell	e		S	pl p
eest	eest	0		D	
    	eest	0		K	
    	esi	st		S	sg el
1.	1.	0		O	?
rubla	rubla	0		S	sg g
     	rubla	0		S	sg n
     	rubla	0		S	sg p
vaeste	vaene	te		A	pl g
      	vaene	te		S	pl g
ladiko	####				
heaks	hea	ks		A	sg tr
     	hea	ks		S	sg tr
     	heaks	0		D	
     	heaks	0		K	
trahvitud	trahvi	tud		V	tud
         	trahvi=tu	d		S	pl n
         	trahvi=tud	0		A	
         	trahvi=tud	0		A	sg n
         	trahvi=tud	d		A	pl n
,	,			Z	
ja	ja	0		J	
peaks	pea	ks		S	sg tr
     	pida	ks		V	ks
peale	pea	le		S	sg all
     	peale	0		D	
     	peale	0		K	
selle	see	0		P	sg g
     	sell	e		S	pl p
ka	ka	0		D	
veel	veel	0		D	
    	vesi	l		S	sg ad
pantimise	panti=mine	0		S	sg g
raha	raha	0		S	sg g
    	raha	0		S	sg n
    	raha	0		S	sg p
maksma	maks	ma		V	ma
,	,			Z	
kui	kui	0		D	
   	kui	0		J	
mõisa	mõis	0		S	sg g
seda	see	da		P	sg p
ka	ka	0		D	
on	ole	0		V	b
  	ole	0		V	vad
nõudnud	nõud	nud		V	nud
       	nõud=nu	d		S	pl n
       	nõud=nud	0		A	
       	nõud=nud	0		A	sg n
       	nõud=nud	d		A	pl n
ei	ei	0		D	
  	ei	0		V	neg
ole	ole	0		V	o
,	,			Z	
siis	siis	0		D	
    	siis	0		J	
jääb	jää	b		V	b
ta	tema	0		P	sg g
  	tema	0		P	sg n
sest	see	st		P	sg el
    	sest	0		J	
maksust	maks	st		S	sg el
lahti	laht	i		S	pl p
     	lahti	0		D	
.	.			Z	
/	/			Z	
:	:			Z	
Otsus	otsus	0		S	sg n
muutunud	muutu	nud		V	nud
        	muutu=nu	d		S	pl n
        	muutu=nud	0		A	
        	muutu=nud	0		A	sg n
        	muutu=nud	d		A	pl n
se	####				
13	13	0		N	?
Augustil	august	l		S	sg ad
        	August	l		H	sg ad
c	c	0		Y	?
.	.			Z	
Tallorahva	####				
seaduse	seadus	0		S	sg g
raamatu	raamat	0		S	sg g
§	§	0		Y	?
§	§	0		Y	?
272	272	0		N	?
ja	ja	0		J	
273	273	0		N	?
juhatud	juha=tu	d		A	pl n
ja	ja	0		J	
õppuse	õppus	0		S	sg g
kirjad	kirja	d		V	d
      	kiri	d		S	pl n
väljaantud	välja_antud	0		A	
          	välja_antud	0		A	sg n
          	välja_antud	d		A	pl n
.	.			Z	
:	:			Z	
/	/			Z	
Peakohtumees	pea_kohtu_mees	0		S	sg n
:	:			Z	
H.Horn	####				
kohtumees	kohtu_mees	0		S	sg n
:	:			Z	
Märt	Märt	0		H	sg n
Piiri	piir	0		S	adt
     	piir	0		S	sg g
     	piir	0		S	sg p
kohtumees	kohtu_mees	0		S	sg n
:	:			Z	
Josep	####				
Soieva	####				
