mõistman	####				
olid	ole	id		V	sid
keik	####				
kohtumehed	kohtu_mees	d		S	pl n
.	.			Z	
tuli	tuli	0		S	sg n
    	tule	i		V	s
ette	ette	0		D	
    	ette	0		K	
    	esi	tte		S	adt
metsavaht	metsa_vaht	0		S	sg n
ja	ja	0		J	
kaebas	kaeba	s		V	s
et	et	0		J	
Soone	soon	0		S	sg g
Jüri	Jüri	0		H	sg g
    	Jüri	0		H	sg n
Soonvald	soon_vald	0		S	sg n
on	ole	0		V	b
  	ole	0		V	vad
mõisa	mõis	0		S	sg g
metsast	mets	st		S	sg el
       	metsane	t		A	sg p
5	5	0		N	?
kõivad	####				
raiunu	raiu=nu	0		S	sg g
      	raiu=nu	0		S	sg n
mis	mis	0		P	pl n
   	mis	0		P	sg n
nii	nii	0		D	
jäänud	jää	nud		V	nud
      	jäänu	d		S	pl n
      	jäänud	0		A	
      	jäänud	0		A	sg n
      	jäänud	d		A	pl n
on	ole	0		V	b
  	ole	0		V	vad
kui	kui	0		D	
   	kui	0		J	
päleppis	####				
kahlava	kahla=v	0		A	sg g
.	.			Z	
mõistus	mõistus	0		S	sg n
et	et	0		J	
Jüri	Jüri	0		H	sg g
    	Jüri	0		H	sg n
Soonvald	soon_vald	0		S	sg n
ühes	üks	s		N	sg in
    	üks	s		P	sg in
    	ühes	0		D	
    	ühes	0		K	
haige	haige	0		A	sg g
     	haige	0		A	sg n
     	haige	0		S	sg g
     	haige	0		S	sg n
olevat	ole	vat		V	vat
      	olev	t		A	sg p
      	olev	t		S	sg p
sai	saa	i		V	s
   	sai	0		S	sg n
mõistetas	####				
et	et	0		J	
tema	tema	0		P	sg g
    	tema	0		P	sg n
maksta	maks	ta		V	da
      	maks	ta		V	ta
kannud	kann	d		S	pl n
pealt	pea	lt		S	sg abl
     	pealt	0		D	
     	pealt	0		K	
50	50	0		N	?
kopikat	kopikas	t		S	sg p
teeb	tege	b		V	b
ühe	üks	0		N	sg g
   	üks	0		P	sg g
   	ühe	0		S	sg n
summa	summ	0		S	adt
     	summ	0		S	sg g
     	summ	0		S	sg p
     	summa	0		S	sg g
     	summa	0		S	sg n
2	2	0		N	?
rubla	rubla	0		S	sg g
     	rubla	0		S	sg n
     	rubla	0		S	sg p
50	50	0		N	?
kopikat	kopikas	t		S	sg p
tuleva	tulev	0		A	sg g
ritis	####				
peab	pida	b		V	b
olema	ole	ma		V	ma
ära	ära	0		D	
   	ära	0		V	neg o
makstud	maks	tud		V	tud
       	maks=tu	d		S	pl n
       	maks=tud	0		A	
       	maks=tud	0		A	sg n
       	maks=tud	d		A	pl n
.	.			Z	
