Danila	####				
Timofejev	Timofejev	0		H	sg n
Bubnov	####				
kaebab	kaeba	b		V	b
Jefim	####				
Kusmin	####				
Muchi	####				
peale	pea	le		S	sg all
     	peale	0		D	
     	peale	0		K	
,	,			Z	
se	####				
olla	ole	a		V	da
teda	tema	da		P	sg p
peksnud	peks	nud		V	nud
       	peks=nu	d		S	pl n
       	peks=nud	0		A	
       	peks=nud	0		A	sg n
       	peks=nud	d		A	pl n
,	,			Z	
mis	mis	0		P	pl n
   	mis	0		P	sg n
eest	eest	0		D	
    	eest	0		K	
    	esi	st		S	sg el
tema	tema	0		P	sg g
    	tema	0		P	sg n
30	30	0		N	?
rubla	rubla	0		S	sg g
     	rubla	0		S	sg n
     	rubla	0		S	sg p
nõuab	nõud	b		V	b
Jefim	####				
Kusmin	####				
Muchi	####				
kostab	kost	b		V	b
kaebduse	####				
peale	pea	le		S	sg all
     	peale	0		D	
     	peale	0		K	
,	,			Z	
et	et	0		J	
se	####				
Daniila	####				
Bubnov	####				
olla	ole	a		V	da
teda	tema	da		P	sg p
oma	oma	0		A	sg g
   	oma	0		D	
   	oma	0		P	sg g
   	oma	0		S	sg g
   	oma	0		V	o
   	oma	0		A	sg n
   	oma	0		A	sg p
   	oma	0		P	sg n
   	oma	0		P	sg p
   	oma	0		S	sg n
   	oma	0		S	sg p
liikme	liige	0		S	sg g
rikkujaks	rikkuja	ks		S	sg tr
nimetanud	nimeta	nud		V	nud
         	nimeta=nu	d		S	pl n
         	nimeta=nud	0		A	
         	nimeta=nud	0		A	sg n
         	nimeta=nud	d		A	pl n
(	(			Z	
samodratsev	####				
)	)			Z	
aga	aga	0		J	
pole	ole	0		V	neg o
mitte	mitte	0		D	
lõõnud	####				
,	,			Z	
vaid	vaid	0		D	
    	vaid	0		J	
kord	kord	0		D	
    	kord	0		S	sg n
lükkanud	####				
Osip	####				
Kudraschäv	####				
tunnistab	tunnista	b		V	b
,	,			Z	
et	et	0		J	
Jefim	####				
Kusmin	####				
Muchi	####				
olla	ole	a		V	da
Daniila	####				
Bubnovi	####				
3.	3.	0		O	?
korda	kord	0		S	adt
     	korda	0		V	o
     	kord	0		S	sg p
rusikaga	rusikas	ga		S	sg kom
pähe	pea	0		S	adt
    	pähe	0		K	
lõõnud	####				
aga	aga	0		J	
Vladimir	Vladimir	0		H	sg n
Muchi	####				
pole	ole	0		V	neg o
mitte	mitte	0		D	
lõõnud	####				
,	,			Z	
sõna	sõna	0		S	sg g
    	sõna	0		V	o
    	sõna	0		S	sg n
    	sõna	0		S	sg p
ütlemist	ütlemine	t		S	sg p
pole	ole	0		V	neg o
tema	tema	0		P	sg g
    	tema	0		P	sg n
kuulnud	kuul	nud		V	nud
       	kuul=nud	0		A	
       	kuul=nud	0		A	sg n
       	kuul=nud	d		A	pl n
       	kuulnu	d		S	pl n
.	.			Z	
/	/			Z	
:	:			Z	
jääb	jää	b		V	b
poolele	pool	le		N	sg all
       	pool	le		S	sg all
:/	:			Z	
A	A	0		Y	?
.	.			Z	
_	_			Z	
Krim	####				
[	[			Z	
allkiri	all_kiri	0		S	sg n
]	]			Z	
,	,			Z	
pea	pea	0		D	
   	pea	0		S	sg g
   	pida	0		V	o
   	pea	0		S	sg n
xxx	####				
Maddis	####				
erm	####				
,	,			Z	
kohtumees	kohtu_mees	0		S	sg n
A	A	0		Y	?
.	.			Z	
_	_			Z	
Pärn	pärn	0		S	sg n
[	[			Z	
allkiri	all_kiri	0		S	sg n
]	]			Z	
,	,			Z	
""""	""""			Z	
xxx	####				
Josep	####				
Maddi	####				
,	,			Z	
""""	""""			Z	
