tüli	tüli	0		S	sg g
    	tüli	0		S	sg n
    	tüli	0		S	sg p
ette	ette	0		D	
    	ette	0		K	
    	esi	tte		S	adt
Johan	Johan	0		H	sg n
Tennosaar	####				
ja	ja	0		J	
kaebas	kaeba	s		V	s
:	:			Z	
temal	tema	l		P	sg ad
on	ole	0		V	b
  	ole	0		V	vad
10	10	0		N	?
rubl	####				
.	.			Z	
Peeter	Peeter	0		H	sg n
Valge	valge	0		A	sg g
     	valge	0		A	sg n
     	valge	0		S	sg g
     	valge	0		S	sg n
käest	käest	0		K	
     	käsi	st		S	sg el
saada	saa	da		V	da
     	saat	0		V	o
     	saa	da		V	ta
,	,			Z	
nõuab	nõud	b		V	b
seda	see	da		P	sg p
kätte	kätte	0		K	
     	käsi	tte		S	adt
.	.			Z	
Peeter	Peeter	0		H	sg n
Valge	valge	0		A	sg g
     	valge	0		A	sg n
     	valge	0		S	sg g
     	valge	0		S	sg n
ütles	ütle	s		V	s
kaebuse	kaebus	0		S	sg g
peale	pea	le		S	sg all
     	peale	0		D	
     	peale	0		K	
välja	välja	0		D	
     	välja	0		V	o
     	väli	0		S	adt
     	väli	0		S	sg g
     	väli	0		S	sg p
,	,			Z	
et	et	0		J	
temal	tema	l		P	sg ad
Johan	Johan	0		H	sg n
Tennosaarele	####				
13	13	0		N	?
rubl	####				
.	.			Z	
maksa	maks	0		S	adt
     	maks	0		S	sg g
     	maks	0		V	o
     	maks	0		S	sg p
on	ole	0		V	b
  	ole	0		V	vad
,	,			Z	
ning	ning	0		J	
lubab	luba	b		V	b
seda	see	da		P	sg p
Octobri	####				
kuu	kuu	0		S	sg g
   	kuu	0		S	sg n
sees	sees	0		D	
    	sees	0		K	
s	s	0		Y	?
.	.			Z	
a.	a	0		Y	?
ära	ära	0		D	
   	ära	0		V	neg o
maksa	maks	0		S	adt
     	maks	0		S	sg g
     	maks	0		V	o
     	maks	0		S	sg p
,	,			Z	
kellega	kes	ga		P	pl kom
       	kes	ga		P	sg kom
Joh	####				
.	.			Z	
Tennosaar	####				
rahul	rahu	l		S	sg ad
     	rahul	0		D	
oli	ole	i		V	s
.	.			Z	
otsus	otsus	0		S	sg n
:	:			Z	
seda	see	da		P	sg p
protokolli	protokoll	0		S	adt
          	protokoll	0		S	sg g
          	protokolli	0		V	o
          	protokoll	0		S	sg p
ülespanna	üles_pand	0		S	sg g
         	üles_panna	0		S	sg g
         	üles_panna	0		S	sg n
.	.			Z	
Peakohtumees	pea_kohtu_mees	0		S	sg n
:	:			Z	
Peeter	Peeter	0		H	sg n
Kripson	####				
XXX	XXX	0		O	?
   	XXX	0		Y	?
kohtumees	kohtu_mees	0		S	sg n
:	:			Z	
Peeter	Peeter	0		H	sg n
Hendrikson	####				
XXX	XXX	0		O	?
   	XXX	0		Y	?
kohtumees	kohtu_mees	0		S	sg n
:	:			Z	
koha	koht	0		S	sg g
    	koha	0		S	sg g
    	koha	0		V	o
    	koha	0		S	sg n
    	koha	0		S	sg p
Vosmann	####				
XXX	XXX	0		O	?
   	XXX	0		Y	?
kohtumees	kohtu_mees	0		S	sg n
:	:			Z	
J	J	0		Y	?
Klaosoon	####				
