Hendrik	Hendrik	0		H	sg n
Kaareadik	####				
kaebas	kaeba	s		V	s
,	,			Z	
et	et	0		J	
Kusta	Kusta	0		H	sg g
     	Kusta	0		H	sg n
     	kuse	ta		V	da
     	kuse	ta		V	ta
Neerot	####				
on	ole	0		V	b
  	ole	0		V	vad
tema	tema	0		P	sg g
    	tema	0		P	sg n
käest	käest	0		K	
     	käsi	st		S	sg el
laenanud	laena	nud		V	nud
        	laena=nu	d		S	pl n
        	laena=nud	0		A	
        	laena=nud	0		A	sg n
        	laena=nud	d		A	pl n
üks	üks	0		N	sg n
   	üks	0		P	sg n
korv	korv	0		S	sg n
õlut	õlu	t		S	sg p
kõige	kõik	0		P	sg g
     	kõige	0		D	
pudeldega	####				
nõuab	nõud	b		V	b
3	3	0		N	?
rubla	rubla	0		S	sg g
     	rubla	0		S	sg n
     	rubla	0		S	sg p
50	50	0		N	?
kop	kop	0		Y	?
.	.			Z	
Kusta	Kusta	0		H	sg g
     	Kusta	0		H	sg n
     	kuse	ta		V	da
     	kuse	ta		V	ta
Neerot	####				
vastutas	vastuta	s		V	s
kaebuse	kaebus	0		S	sg g
peale	pea	le		S	sg all
     	peale	0		D	
     	peale	0		K	
,	,			Z	
et	et	0		J	
ta	tema	0		P	sg g
  	tema	0		P	sg n
on	ole	0		V	b
  	ole	0		V	vad
ühe	üks	0		N	sg g
   	üks	0		P	sg g
   	ühe	0		S	sg n
korvi	korv	0		S	adt
     	korv	0		S	sg g
     	korv	0		S	sg p
õlut	õlu	t		S	sg p
toonud	too	nud		V	nud
      	too=nu	d		S	pl n
      	too=nud	0		A	
      	too=nud	0		A	sg n
      	too=nud	d		A	pl n
Joosep	Joosep	0		H	sg n
Piirsoonile	piir_soon	ile		S	pl all
,	,			Z	
kes	kes	0		P	pl n
   	kes	0		P	sg n
teda	tema	da		P	sg p
petnud	pet	nud		V	nud
      	pet=nu	d		S	pl n
      	pet=nud	0		A	
      	pet=nud	0		A	sg n
      	pet=nud	d		A	pl n
ja	ja	0		J	
lubanud	luba	nud		V	nud
       	luba=nu	d		S	pl n
       	luba=nud	0		A	
       	luba=nud	0		A	sg n
       	luba=nud	d		A	pl n
ära	ära	0		D	
   	ära	0		V	neg o
maksa	maks	0		S	adt
     	maks	0		S	sg g
     	maks	0		V	o
     	maks	0		S	sg p
.	.			Z	
Mõiste	mõiste	0		S	sg g
      	mõiste	0		S	sg n
:	:			Z	
Kusta	Kusta	0		H	sg g
     	Kusta	0		H	sg n
     	kuse	ta		V	da
     	kuse	ta		V	ta
Neerot	####				
peab	pida	b		V	b
8	8	0		N	?
päeva	päev	0		S	adt
     	päev	0		S	sg g
     	päev	0		S	sg p
sees	sees	0		D	
    	sees	0		K	
3	3	0		N	?
rubl	####				
.	.			Z	
50	50	0		N	?
kop	kop	0		Y	?
.	.			Z	
Hendrik	Hendrik	0		H	sg n
Kaareätingi	####				
hääks	####				
ära	ära	0		D	
   	ära	0		V	neg o
maksma	maks	ma		V	ma
.	.			Z	
Mõiste	mõiste	0		S	sg g
      	mõiste	0		S	sg n
kuulutadi	####				
kohtus	kohtu	s		V	s
      	kohus	s		S	sg in
käiatele	####				
T	T	0		Y	?
.	.			Z	
R	R	0		Y	?
.	.			Z	
S	S	0		Y	?
.	.			Z	
a	a	0		Y	?
1860	1860	0		N	?
§	§	0		Y	?
772	772	0		N	?
-	-			Z	
774	774	0		N	?
seletusega	seletus	ga		S	sg kom
,	,			Z	
aga	aga	0		J	
et	et	0		J	
Kusta	Kusta	0		H	sg g
     	Kusta	0		H	sg n
     	kuse	ta		V	da
     	kuse	ta		V	ta
Neerot	####				
otsuse	otsus	0		S	sg g
kuulutamiseks	kuulutamine	ks		S	sg tr
ära	ära	0		D	
   	ära	0		V	neg o
peaksi	####				
,	,			Z	
ja	ja	0		J	
talle	tall	e		S	pl p
     	tall	0		S	adt
     	tall	0		S	sg g
     	tema	lle		P	sg all
     	tall	0		S	sg p
tee	tee	0		S	sg g
   	tege	0		V	o
   	tee	0		S	sg n
peale	pea	le		S	sg all
     	peale	0		D	
     	peale	0		K	
takkas	####				
järgi	järg	i		S	pl p
     	järgi	0		D	
     	järgi	0		K	
     	järgi	0		V	o
saadetud	saat	tud		V	tud
        	saade=tu	d		S	pl n
        	saadetud	0		A	
        	saadetud	0		A	sg n
        	saadetud	d		A	pl n
sai	saa	i		V	s
   	sai	0		S	sg n
,	,			Z	
mõisteti	mõist	ti		V	ti
teda	tema	da		P	sg p
,	,			Z	
Kusta	Kusta	0		H	sg g
     	Kusta	0		H	sg n
     	kuse	ta		V	da
     	kuse	ta		V	ta
Neerot	####				
24	24	0		N	?
tunniks	tund	ks		S	sg tr
vee	vesi	0		S	sg g
leiva	leib	0		S	sg g
peale	pea	le		S	sg all
     	peale	0		D	
     	peale	0		K	
ning	ning	0		J	
kuulutadi	####				
see	see	0		P	sg n
mõiste	mõiste	0		S	sg g
      	mõiste	0		S	sg n
talle	tall	e		S	pl p
     	tall	0		S	adt
     	tall	0		S	sg g
     	tema	lle		P	sg all
     	tall	0		S	sg p
üksi	üksi	0		D	
peeni	pee	ni		S	sg ter
     	peen	i		A	pl p
.	.			Z	
