sell	sell	0		S	sg n
samal	sama	l		P	sg ad
päeval	päev	l		S	sg ad
tulevat	tule	vat		V	vat
       	tulev	t		A	sg p
ette	ette	0		D	
    	ette	0		K	
    	esi	tte		S	adt
:	:			Z	
ennine	####				
Kärsa	kärss	0		S	sg g
küla	küla	0		S	sg g
    	küla	0		S	sg n
    	küla	0		S	sg p
sepp	sepp	0		S	sg n
Johan	Johan	0		H	sg n
Nieländer	####				
ja	ja	0		J	
Kärsa	kärss	0		S	sg g
küla	küla	0		S	sg g
    	küla	0		S	sg n
    	küla	0		S	sg p
peremehed	pere_mees	d		S	pl n
Variku	varik	0		S	sg g
Hendrik	Hendrik	0		H	sg n
,	,			Z	
Raudsepa	raud_sepp	0		S	sg g
Kusta	Kusta	0		H	sg g
     	Kusta	0		H	sg n
     	kuse	ta		V	da
     	kuse	ta		V	ta
,	,			Z	
Saarva	####				
Jaan	Jaan	0		H	sg n
    	jaan	0		S	sg n
    	jaan	0		Y	?
ja	ja	0		J	
Saarvabeter	####				
Jaan	Jaan	0		H	sg n
    	jaan	0		S	sg n
    	jaan	0		Y	?
ja	ja	0		J	
näidis	näidis	0		S	sg n
Johan	Johan	0		H	sg n
Nieländer	####				
nende	see	de		P	pl g
     	tema	de		P	pl g
peremeeste	pere_mees	te		S	pl g
käest	käest	0		K	
     	käsi	st		S	sg el
neid	neid	0		S	sg n
    	see	d		P	pl p
    	tema	d		P	pl p
12	12	0		N	?
rublad	rubla	d		S	pl n
,	,			Z	
kätte	kätte	0		K	
     	käsi	tte		S	adt
kogukonna	kogukond	0		S	sg g
kohtu	kohtu	0		V	o
     	kohus	0		S	sg g
poolest	pool	st		N	sg el
       	pool	st		S	sg el
       	poolene	t		A	sg p
       	poolest	0		K	
temale	tema	le		P	sg all
3mal	####				
Mai	Mai	0		H	sg g
   	Mai	0		H	sg n
   	mai	0		S	sg g
   	mai	0		S	sg n
kuu	kuu	0		S	sg g
   	kuu	0		S	sg n
päeval	päev	l		S	sg ad
No	no	0		I	
121	121	0		N	?
all	all	0		D	
   	all	0		K	
Raud	raud	0		S	sg n
hea	hea	0		A	sg g
   	hea	0		A	sg n
   	hea	0		S	sg g
   	hea	0		S	sg n
eest	eest	0		D	
    	eest	0		K	
    	esi	st		S	sg el
ja	ja	0		J	
hoonete	hoone	te		S	pl g
ehitamise	ehitamine	0		S	sg g
eest	eest	0		D	
    	eest	0		K	
    	esi	st		S	sg el
on	ole	0		V	b
  	ole	0		V	vad
maksa	maks	0		S	adt
     	maks	0		S	sg g
     	maks	0		V	o
     	maks	0		S	sg p
mõistetud	mõist	tud		V	tud
         	mõiste=tu	d		S	pl n
         	mõiste=tud	0		A	
         	mõiste=tud	0		A	sg n
         	mõiste=tud	d		A	pl n
.	.			Z	
Need	see	d		P	pl n
peremehed	pere_mees	d		S	pl n
kaebsivad	####				
aga	aga	0		J	
Johan	Johan	0		H	sg n
Nieländer	####				
peale	pea	le		S	sg all
     	peale	0		D	
     	peale	0		K	
tulle	tull	e		S	pl p
     	tuli	0		S	adt
üle	üle	0		D	
   	üle	0		K	
,	,			Z	
et	et	0		J	
tema	tema	0		P	sg g
    	tema	0		P	sg n
ei	ei	0		D	
  	ei	0		V	neg
ole	ole	0		V	o
mitte	mitte	0		D	
neid	neid	0		S	sg n
    	see	d		P	pl p
    	tema	d		P	pl p
16	16	0		N	?
palki	palk	0		S	adt
     	palk	0		S	sg p
,	,			Z	
ketti	kett	0		S	adt
     	kett	0		S	sg p
mõisa	mõis	0		S	sg g
mõtsast	####				
temale	tema	le		P	sg all
antud	an=tu	d		S	pl n
     	and	tud		V	tud
     	antud	0		A	
     	antud	0		A	sg n
     	antud	d		A	pl n
saivad	####				
,	,			Z	
hoonedes	####				
äraehitanud	ära_ehita=nu	d		S	pl n
           	ära_ehita=nud	0		A	
           	ära_ehita=nud	0		A	sg n
           	ära_ehita=nud	d		A	pl n
,	,			Z	
vaid	vaid	0		D	
    	vaid	0		J	
neid	neid	0		S	sg n
    	see	d		P	pl p
    	tema	d		P	pl p
ärapalutanud	ära_palu_tanu	d		S	pl n
,	,			Z	
ning	ning	0		J	
kah	kah	0		D	
veel	veel	0		D	
    	vesi	l		S	sg ad
1	1	0		N	?
süli	süli	0		S	sg n
puid	puu	id		S	pl p
,	,			Z	
ketti	kett	0		S	adt
     	kett	0		S	sg p
Joh	####				
.	.			Z	
Nieländer	####				
pidi	pida	i		V	s
    	pidi	0		K	
perra	####				
jätma	jät	ma		V	ma
,	,			Z	
rohkem	rohkem	0		D	
ärapruukinud	ära_pruuki=nu	d		S	pl n
            	ära_pruuki=nud	0		A	
            	ära_pruuki=nud	0		A	sg n
            	ära_pruuki=nud	d		A	pl n
,	,			Z	
nii	nii	0		D	
kui	kui	0		D	
   	kui	0		J	
kah	kah	0		D	
ühe	üks	0		N	sg g
   	üks	0		P	sg g
   	ühe	0		S	sg n
Tsiatali	####				
on	ole	0		V	b
  	ole	0		V	vad
Joh	####				
.	.			Z	
Nieländer	####				
äratäitanud	ära_täita=nu	d		S	pl n
           	ära_täita=nud	0		A	
           	ära_täita=nud	0		A	sg n
           	ära_täita=nud	d		A	pl n
ja	ja	0		J	
nausivad	####				
16	16	0		N	?
palkide	palk	de		S	pl g
eest	eest	0		D	
    	eest	0		K	
    	esi	st		S	sg el
a	a	0		Y	?
'	’			Z	
60	60	0		N	?
kop	kop	0		Y	?
.	.			Z	
hõb	####				
.	.			Z	
9	9	0		N	?
rubl	####				
.	.			Z	
60	60	0		N	?
kop	kop	0		Y	?
.	.			Z	
1	1	0		N	?
üles	üles	0		D	
Puiede	####				
eest	eest	0		D	
    	eest	0		K	
    	esi	st		S	sg el
2	2	0		N	?
rubl	####				
.	.			Z	
1	1	0		N	?
Tsia	####				
talli	tall	0		S	adt
     	tall	0		S	sg g
     	tall	i		S	pl p
     	tall	0		S	sg p
eest	eest	0		D	
    	eest	0		K	
    	esi	st		S	sg el
1	1	0		N	?
rubl	####				
.	.			Z	
40	40	0		N	?
kop	kop	0		Y	?
.	.			Z	
Johan	Johan	0		H	sg n
Nieländer	####				
ei	ei	0		D	
  	ei	0		V	neg
või	või	0		S	sg g
   	või	0		V	o
   	või	0		D	
   	või	0		J	
   	või	0		S	sg n
salata	salga	ta		V	da
      	sala	ta		S	sg ab
      	salga	ta		V	ta
,	,			Z	
et	et	0		J	
tema	tema	0		P	sg g
    	tema	0		P	sg n
nõuda	nõud	a		V	da
viisil	viis	l		S	sg ad
      	viisil	0		K	
on	ole	0		V	b
  	ole	0		V	vad
teinud	tege	nud		V	nud
      	tei=nud	0		A	
      	tei=nud	0		A	sg n
      	tei=nud	d		A	pl n
      	teinu	d		S	pl n
.	.			Z	
sai	saa	i		V	s
   	sai	0		S	sg n
mõistetud	mõist	tud		V	tud
         	mõiste=tu	d		S	pl n
         	mõiste=tud	0		A	
         	mõiste=tud	0		A	sg n
         	mõiste=tud	d		A	pl n
:	:			Z	
Need	see	d		P	pl n
12	12	0		N	?
rubl	####				
.	.			Z	
rublad	rubla	d		S	pl n
,	,			Z	
ketti	kett	0		S	adt
     	kett	0		S	sg p
Joh	####				
.	.			Z	
Nieländer	####				
pidi	pida	i		V	s
    	pidi	0		K	
saama	saa	ma		V	ma
     	saam	0		S	adt
     	saam	0		S	sg g
     	saam	0		S	sg p
,	,			Z	
sest	see	st		P	sg el
    	sest	0		J	
rahast	raha	st		S	sg el
maha	maha	0		D	
arvata	arva	ta		V	da
      	arva	ta		V	ta
      	arvata	0		D	
,	,			Z	
mis	mis	0		P	pl n
   	mis	0		P	sg n
Joh	####				
.	.			Z	
Nieländer	####				
peremeestele	pere_mees	tele		S	pl all
on	ole	0		V	b
  	ole	0		V	vad
kahju	kahi	0		S	adt
     	kahi	0		S	sg g
     	kahi	0		S	sg p
     	kahju	0		S	sg g
     	kahju	0		S	sg n
     	kahju	0		S	sg p
teinud	tege	nud		V	nud
      	tei=nud	0		A	
      	tei=nud	0		A	sg n
      	tei=nud	d		A	pl n
      	teinu	d		S	pl n
ja	ja	0		J	
peab	pida	b		V	b
selle	see	0		P	sg g
     	sell	e		S	pl p
järgi	järg	i		S	pl p
     	järgi	0		D	
     	järgi	0		K	
     	järgi	0		V	o
Joh	####				
.	.			Z	
Nieländer	####				
peremeestele	pere_mees	tele		S	pl all
veel	veel	0		D	
    	vesi	l		S	sg ad
manu	manu	0		D	
    	manu	0		K	
maksma	maks	ma		V	ma
:	:			Z	
1	1	0		N	?
rubl	####				
.	.			Z	
kop	kop	0		Y	?
.	.			Z	
hoob	hoob	0		S	sg n
.	.			Z	
see	see	0		P	sg n
mõistmine	mõistmine	0		S	sg n
sai	saa	i		V	s
   	sai	0		S	sg n
kuulutud	kuulu	tud		V	tud
        	kuulu=tu	d		S	pl n
        	kuulu=tud	0		A	
        	kuulu=tud	0		A	sg n
        	kuulu=tud	d		A	pl n
etc	####				
.	.			Z	
etc	####				
.	.			Z	
etc	####				
.	.			Z	
Peeter	Peeter	0		H	sg n
sisakson	####				
XXX	XXX	0		O	?
   	XXX	0		Y	?
Johan	Johan	0		H	sg n
Laan	####				
XXX	XXX	0		O	?
   	XXX	0		Y	?
Joosep	Joosep	0		H	sg n
Adoson	####				
XXX	XXX	0		O	?
   	XXX	0		Y	?
Peeter	Peeter	0		H	sg n
Akert	####				
XXX	XXX	0		O	?
   	XXX	0		Y	?
Vidrik	####				
Harkmann	hark_mann	0		S	sg n
XXX	XXX	0		O	?
   	XXX	0		Y	?
