Kolka	kolgas	0		S	sg g
küla	küla	0		S	sg g
    	küla	0		S	sg n
    	küla	0		S	sg p
venelase	venelane	0		S	sg g
sai	saa	i		V	s
   	sai	0		S	sg n
kogokonna	####				
kohtu	kohtu	0		V	o
     	kohus	0		S	sg g
ette	ette	0		D	
    	ette	0		K	
    	esi	tte		S	adt
talitetus	####				
et	et	0		J	
neile	see	le		P	pl all
     	tema	le		P	pl all
Kuberneri	kuberner	0		S	adt
         	kuberner	0		S	sg g
         	kuberner	0		S	sg p
herra	####				
käsk	käsk	0		S	sg n
ningk	####				
kontrakt	####				
mes	####				
moisa	####				
oli	ole	i		V	s
tema	tema	0		P	sg g
    	tema	0		P	sg n
ja	ja	0		J	
Kuberneri	kuberner	0		S	adt
         	kuberner	0		S	sg g
         	kuberner	0		S	sg p
herra	####				
läbbi	####				
oli	ole	i		V	s
kaenu	kae=nu	0		S	sg g
     	kae=nu	0		S	sg n
,	,			Z	
ette	ette	0		D	
    	ette	0		K	
    	esi	tte		S	adt
sab	####				
loetus	loetu	s		S	sg in
      	loetud	s		A	sg in
      	loetus	0		S	sg n
ningk	####				
selletettu	####				
.	.			Z	
kui	kui	0		D	
   	kui	0		J	
lugemine	lugemine	0		S	sg n
ning	ning	0		J	
selletamine	####				
valmis	valm	s		S	sg in
      	valmi	s		V	s
      	valmis	0		A	
      	valmis	0		A	sg n
      	valmis	0		D	
      	valmis	s		A	sg in
oli	ole	i		V	s
,	,			Z	
küsis	küsi	s		V	s
moisa	####				
valitsus	valitsus	0		S	sg n
nende	see	de		P	pl g
     	tema	de		P	pl g
kaest	kae	st		S	sg el
ka	ka	0		D	
nema	####				
kontrakt	####				
tahava	####				
võtta	võt	a		V	da
et	et	0		J	
ilma	ilm	0		S	adt
    	ilm	0		S	sg g
    	ilma	0		D	
    	ilma	0		K	
    	ilm	0		S	sg p
kontrakt	####				
ei	ei	0		D	
  	ei	0		V	neg
tohi	tohti	0		V	o
keaki	####				
maad	maa	d		S	pl n
    	maa	d		S	sg p
arida	####				
,	,			Z	
karja	kari	0		S	adt
     	kari	0		S	sg g
     	kari	0		S	sg p
välja	välja	0		D	
     	välja	0		V	o
     	väli	0		S	adt
     	väli	0		S	sg g
     	väli	0		S	sg p
laske	lask	e		S	pl p
     	lask	ke		V	ge
     	lase	0		S	sg g
nink	####				
heina	hein	0		S	adt
     	hein	0		S	sg g
     	hein	0		S	sg p
maad	maa	d		S	pl n
    	maa	d		S	sg p
nita	####				
,	,			Z	
sis	####				
vastus	vastus	0		S	sg n
kik	####				
küla	küla	0		S	sg g
    	küla	0		S	sg n
    	küla	0		S	sg p
et	et	0		J	
nema	####				
kontrakt	####				
ei	ei	0		D	
  	ei	0		V	neg
voi	####				
võtta	võt	a		V	da
enne	enne	0		D	
    	enne	0		K	
    	enne	0		S	sg n
kui	kui	0		D	
   	kui	0		J	
nõnda	nõnda	0		D	
asi	asi	0		S	sg n
   	asi	0		V	o
selletetu	####				
om	####				
.	.			Z	
Päle	####				
se	####				
tuli	tuli	0		S	sg n
    	tule	i		V	s
juure	juur	0		S	sg g
Kolka	kolgas	0		S	sg g
venelane	venelane	0		S	sg n
Kuprin	####				
Aarchipov	####				
ningk	####				
ütlel	####				
et	et	0		J	
tema	tema	0		P	sg g
    	tema	0		P	sg n
selle	see	0		P	sg g
     	sell	e		S	pl p
kontraktika	####				
rahul	rahu	l		S	sg ad
     	rahul	0		D	
om	####				
ningk	####				
pallel	####				
peris	####				
herra	####				
et	et	0		J	
temal	tema	l		P	sg ad
muua	####				
krund	####				
ningk	####				
kontrakt	####				
saab	saa	b		V	b
antaks	and	taks		V	taks
,	,			Z	
mes	####				
temale	tema	le		P	sg all
ka	ka	0		D	
lubatu	lubatu	0		A	sg g
      	lubatud	0		A	sg g
      	lubatu	0		A	sg n
sai	saa	i		V	s
   	sai	0		S	sg n
ningk	####				
mamõtja	####				
läbbi	####				
kaardi	kaart	0		S	sg g
pera	####				
saab	saa	b		V	b
antus	antud	s		A	sg in
.	.			Z	
