Tänasel	tänane	l		A	sg ad
päeval	päev	l		S	sg ad
sai	saa	i		V	s
   	sai	0		S	sg n
Ühe	üks	0		N	sg g
   	üks	0		P	sg g
   	ühe	0		S	sg n
Keiserlikko	####				
Tartu	Tartu	0		H	adt
     	Tartu	0		H	sg g
     	Tartu	0		H	sg n
     	tartu	0		G	
I	I	0		O	?
 	I	0		Y	?
 	j	0		Y	?
Kihelkonna	Kihelkonna	0		H	sg g
          	kihelkond	0		S	sg g
          	Kihelkonna	0		H	sg n
kohtu	kohtu	0		V	o
     	kohus	0		S	sg g
herra	####				
käsu	käsk	0		S	sg g
peale	pea	le		S	sg all
     	peale	0		D	
     	peale	0		K	
Aavvinurme	####				
Vallavanema	valla_vanem	0		S	sg g
Jakob	Jakob	0		H	sg n
Liisi	Liis	0		H	adt
     	Liis	0		H	sg g
     	Liisi	0		H	sg g
     	liisi	0		V	o
     	Liis	0		H	sg p
     	Liisi	0		H	sg n
ja	ja	0		J	
Valla	vald	0		S	sg g
     	valla	0		D	
Võõlmõndrite	####				
Jaak	Jaak	0		H	sg n
    	jaak	0		S	sg n
Klaup	####				
,	,			Z	
Jaan	Jaan	0		H	sg n
    	jaan	0		S	sg n
    	jaan	0		Y	?
Aambos	####				
,	,			Z	
ja	ja	0		J	
Maddis	####				
Kase	kask	0		S	sg g
varandus	varandus	0		S	sg n
üles	üles	0		D	
voetud	voe=tu	d		A	pl n
,	,			Z	
ning	ning	0		J	
oli	ole	i		V	s
peakohtumees	pea_kohtu_mees	0		S	sg n
nende	see	de		P	pl g
     	tema	de		P	pl g
Majades	maja	des		S	pl in
käinud	käi	nud		V	nud
      	käi=nud	0		A	
      	käi=nud	0		A	sg n
      	käi=nud	d		A	pl n
      	käinu	d		S	pl n
,	,			Z	
ja	ja	0		J	
allamal	####				
nimetud	nimetu	d		A	pl n
asjad	asi	d		S	pl n
nende	see	de		P	pl g
     	tema	de		P	pl g
juures	juur	s		S	sg in
      	juures	0		D	
      	juures	0		K	
üles	üles	0		D	
võtnud	võt	nud		V	nud
      	võt=nu	d		S	pl n
      	võt=nud	0		A	
      	võt=nud	0		A	sg n
      	võt=nud	d		A	pl n
.	.			Z	
Vallavanemal	valla_vanem	l		S	sg ad
Jakob	Jakob	0		H	sg n
Liisil	Liis	l		H	sg ad
      	Liisi	l		H	sg ad
sai	saa	i		V	s
   	sai	0		S	sg n
üles	üles	0		D	
voetud	voe=tu	d		A	pl n
.	.			Z	
2.	2.	0		O	?
härga	härg	0		S	adt
     	härg	0		S	sg p
1.	1.	0		O	?
hobune	hobune	0		S	sg n
2.	2.	0		O	?
lehma	lehm	0		S	adt
     	lehm	0		S	sg g
     	lehm	0		S	sg p
1.	1.	0		O	?
vanger	####				
1.	1.	0		O	?
regi	regi	0		S	sg n
3	3	0		N	?
lammast	lammas	t		S	sg p
1.	1.	0		O	?
Siga	siga	0		A	sg n
    	siga	0		A	sg p
    	siga	0		S	sg n
    	siga	0		S	sg p
Võõlmõnder	####				
Jaak	Jaak	0		H	sg n
    	jaak	0		S	sg n
Klaupil	####				
oli	ole	i		V	s
varandust	varandus	t		S	sg p
leida	leid	a		V	da
1.	1.	0		O	?
hobbone	####				
1.	1.	0		O	?
härg	härg	0		S	sg n
2.	2.	0		O	?
lehma	lehm	0		S	adt
     	lehm	0		S	sg g
     	lehm	0		S	sg p
1.	1.	0		O	?
Siga	siga	0		A	sg n
    	siga	0		A	sg p
    	siga	0		S	sg n
    	siga	0		S	sg p
2.	2.	0		O	?
Lammast	lammas	t		S	sg p
.	.			Z	
1.	1.	0		O	?
regi	regi	0		S	sg n
1.	1.	0		O	?
vanger	####				
.	.			Z	
Võõlmõnder	####				
Jaan	Jaan	0		H	sg n
    	jaan	0		S	sg n
    	jaan	0		Y	?
Aambosel	####				
oli	ole	i		V	s
varandust	varandus	t		S	sg p
1	1	0		N	?
hoobone	####				
1.	1.	0		O	?
lehm	lehm	0		S	sg n
2.	2.	0		O	?
Lammast	lammas	t		S	sg p
1.	1.	0		O	?
vanker	vanker	0		S	sg n
1.	1.	0		O	?
regi	regi	0		S	sg n
1.	1.	0		O	?
Siga	siga	0		A	sg n
    	siga	0		A	sg p
    	siga	0		S	sg n
    	siga	0		S	sg p
Võõlmõnder	####				
Maddis	####				
kasel	kask	l		S	sg ad
oli	ole	i		V	s
varandust	varandus	t		S	sg p
1.	1.	0		O	?
lehm	lehm	0		S	sg n
1.	1.	0		O	?
vasikas	vasikas	0		S	sg n
       	vasikas	s		S	sg in
Mart	Mart	0		H	sg n
    	mart	0		S	sg n
Jago	####				
XXX	XXX	0		O	?
   	XXX	0		Y	?
Mart	Mart	0		H	sg n
    	mart	0		S	sg n
Liis	Liis	0		H	sg n
    	Lii	s		H	sg in
XXX	XXX	0		O	?
   	XXX	0		Y	?
Toomas	Toomas	0		H	sg n
      	Toomas	s		H	sg in
      	too	mas		V	mas
Pärn	pärn	0		S	sg n
XXX	XXX	0		O	?
   	XXX	0		Y	?
