Sel	see	l		P	sg ad
   	sel	0		Y	?
16mal	####				
Nobr	####				
.	.			Z	
1873	1873	0		N	?
kaebas	kaeba	s		V	s
Josep	####				
Havakivvi	####				
et	et	0		J	
Tõnnis	Tõnn	s		H	sg in
Aabramson	####				
ja	ja	0		J	
Karel	####				
Saar	saar	0		S	sg n
tema	tema	0		P	sg g
    	tema	0		P	sg n
2	2	0		N	?
Lambat	####				
ilma	ilm	0		S	adt
    	ilm	0		S	sg g
    	ilma	0		D	
    	ilma	0		K	
    	ilm	0		S	sg p
süta	####				
kinni	kinni	0		D	
aianud	####				
,	,			Z	
et	et	0		J	
tema	tema	0		P	sg g
    	tema	0		P	sg n
kül	####				
kaks	kaks	0		N	sg n
korda	kord	0		S	adt
     	korda	0		V	o
     	kord	0		S	sg p
olla	ole	a		V	da
järele	järele	0		D	
      	järele	0		K	
saatnud	saat	nud		V	nud
       	saat=nu	d		S	pl n
       	saat=nud	0		A	
       	saat=nud	0		A	sg n
       	saat=nud	d		A	pl n
aga	aga	0		J	
siiski	siiski	0		D	
ei	ei	0		D	
  	ei	0		V	neg
ole	ole	0		V	o
tema	tema	0		P	sg g
    	tema	0		P	sg n
elajat	elajas	t		S	sg p
välja	välja	0		D	
     	välja	0		V	o
     	väli	0		S	adt
     	väli	0		S	sg g
     	väli	0		S	sg p
antud	an=tu	d		S	pl n
     	and	tud		V	tud
     	antud	0		A	
     	antud	0		A	sg n
     	antud	d		A	pl n
.	.			Z	
Tõnnis	Tõnn	s		H	sg in
Aabramson	####				
ja	ja	0		J	
Karel	####				
Saar	saar	0		S	sg n
olla	ole	a		V	da
kül	####				
kohtumees	kohtu_mees	0		S	sg n
sina	sina	0		P	sg n
    	sina	0		S	sg g
    	sina	0		V	o
    	sina	0		S	sg n
    	sina	0		S	sg p
kutsunud	kutsu	nud		V	nud
        	kutsu=nu	d		S	pl n
        	kutsu=nud	0		A	
        	kutsu=nud	0		A	sg n
        	kutsu=nud	d		A	pl n
.	.			Z	
kes	kes	0		P	pl n
   	kes	0		P	sg n
kurja	kuri	0		A	adt
     	kuri	0		A	sg g
     	kuri	0		S	adt
     	kuri	0		S	sg g
     	kuri	0		A	sg p
     	kuri	0		S	sg p
piddanud	####				
vatama	####				
,	,			Z	
aga	aga	0		J	
kuri	kuri	0		A	sg n
    	kuri	0		S	sg n
ei	ei	0		D	
  	ei	0		V	neg
ole	ole	0		V	o
kahe	kaks	0		N	sg g
Lambata	lammas	ta		S	sg ab
poolt	pool	t		N	sg p
     	pool	t		S	sg p
     	poolt	0		D	
     	poolt	0		K	
tehtud	tehtu	d		S	pl n
      	tehtud	0		A	
      	tehtud	0		A	sg n
      	tehtud	d		A	pl n
      	tege	tud		V	tud
.	.			Z	
kui	kui	0		D	
   	kui	0		J	
aga	aga	0		J	
Tõnnis	Tõnn	s		H	sg in
Aabramsoni	####				
oma	oma	0		A	sg g
   	oma	0		D	
   	oma	0		P	sg g
   	oma	0		S	sg g
   	oma	0		V	o
   	oma	0		A	sg n
   	oma	0		A	sg p
   	oma	0		P	sg n
   	oma	0		P	sg p
   	oma	0		S	sg n
   	oma	0		S	sg p
hobune	hobune	0		S	sg n
olla	ole	a		V	da
ühe	üks	0		N	sg g
   	üks	0		P	sg g
   	ühe	0		S	sg n
kaera-välja	kaera-välja	0		D	
           	kaera-välja	0		V	o
           	kaera-väli	0		S	adt
           	kaera-väli	0		S	sg g
           	kaera-väli	0		S	sg p
nukka	nukk	0		S	adt
     	nukk	0		S	sg p
peal	pea	l		S	sg ad
    	peal	0		D	
    	peal	0		K	
olnud	ol=nud	0		A	
     	ol=nud	0		A	sg n
     	ol=nud	d		A	pl n
     	ole	nud		V	nud
     	olnu	d		S	pl n
.	.			Z	
Ütles	ütle	s		V	s
Tõnnis	Tõnn	s		H	sg in
Aabramson	####				
ja	ja	0		J	
Karel	####				
Saar	saar	0		S	sg n
et	et	0		J	
Lambat	####				
olla	ole	a		V	da
nende	see	de		P	pl g
     	tema	de		P	pl g
lu	####				
peal	pea	l		S	sg ad
    	peal	0		D	
    	peal	0		K	
olnud	ol=nud	0		A	
     	ol=nud	0		A	sg n
     	ol=nud	d		A	pl n
     	ole	nud		V	nud
     	olnu	d		S	pl n
keda	kes	da		P	pl p
    	kes	da		P	sg p
naad	####				
ilma	ilm	0		S	adt
    	ilm	0		S	sg g
    	ilma	0		D	
    	ilma	0		K	
    	ilm	0		S	sg p
näetamata	####				
saadon	####				
panud	####				
.	.			Z	
kui	kui	0		D	
   	kui	0		J	
nüd	####				
selgest	selge	st		A	sg el
näha	näge	a		V	da
on	ole	0		V	b
  	ole	0		V	vad
,	,			Z	
et	et	0		J	
need	see	d		P	pl n
Josep	####				
Havakivvi	####				
lambat	####				
.	.			Z	
kui	kui	0		D	
   	kui	0		J	
se	####				
pärast	pära	st		S	sg el
      	pärane	t		A	sg p
      	pärast	0		D	
      	pärast	0		K	
kinniatu	####				
olivat	####				
siis	siis	0		D	
    	siis	0		J	
mõistis	mõist	is		V	s
kohus	kohu	s		V	s
     	kohus	0		S	sg n
:	:			Z	
et	et	0		J	
Karel	####				
Saar	saar	0		S	sg n
kelle	kes	0		P	pl g
     	kes	0		P	sg g
naine	naine	0		S	sg n
se	####				
pea	pea	0		D	
   	pea	0		S	sg g
   	pida	0		V	o
   	pea	0		S	sg n
südlane	####				
senna	senna	0		S	sg g
     	senna	0		S	sg n
juures	juur	s		S	sg in
      	juures	0		D	
      	juures	0		K	
olla	ole	a		V	da
olnud	ol=nud	0		A	
     	ol=nud	0		A	sg n
     	ol=nud	d		A	pl n
     	ole	nud		V	nud
     	olnu	d		S	pl n
maks	maks	0		S	sg n
Karel	####				
Saar	saar	0		S	sg n
üks	üks	0		N	sg n
   	üks	0		P	sg n
rubla	rubla	0		S	sg g
     	rubla	0		S	sg n
     	rubla	0		S	sg p
kogokonna	####				
laekan	####				
.	.			Z	
Tõnnis	Tõnn	s		H	sg in
Aabramson	####				
oli	ole	i		V	s
Josep	####				
Havakivvi	####				
ära	ära	0		D	
   	ära	0		V	neg o
leppinud	leppi	nud		V	nud
        	leppi=nu	d		S	pl n
        	leppi=nud	0		A	
        	leppi=nud	0		A	sg n
        	leppi=nud	d		A	pl n
.	.			Z	
kohtumees	kohtu_mees	0		S	sg n
Märt	Märt	0		H	sg n
Piiri	piir	0		S	adt
     	piir	0		S	sg g
     	piir	0		S	sg p
+	+			Z	
+	+			Z	
+	+			Z	
kohtumees	kohtu_mees	0		S	sg n
elias	####				
Kubja	####				
+	+			Z	
+	+			Z	
+	+			Z	
Aabbi	####				
Reinholt	####				
Tamm	tamm	0		S	sg n
+	+			Z	
+	+			Z	
+	+			Z	
