Haslava	####				
mõisavalitsus	mõisa_valitsus	0		S	sg n
kaebab	kaeba	b		V	b
,	,			Z	
et	et	0		J	
see	see	0		P	sg n
kandemees	kande_mees	0		S	sg n
Peeter	Peeter	0		H	sg n
Tik	####				
ei	ei	0		D	
  	ei	0		V	neg
orja	orja	0		V	o
    	ori	0		S	adt
    	ori	0		S	sg g
    	ori	0		S	sg p
mitte	mitte	0		D	
ja	ja	0		J	
on	ole	0		V	b
  	ole	0		V	vad
mõisale	mõis	le		S	sg all
viga	viga	0		S	sg n
    	viga	0		S	sg p
palju	palju	0		D	
     	palju	0		P	sg g
     	palju	0		P	sg n
võlgu	võlg	u		S	pl p
     	võlgu	0		D	
jäänut	jäänu	t		S	sg p
      	jäänud	t		A	sg p
,	,			Z	
nimelt	nimelt	0		D	
      	nimi	lt		S	sg abl
:	:			Z	
1.	1.	0		O	?
,	,			Z	
1	1	0		N	?
3	3	0		N	?
/	/			Z	
4	4	0		N	?
vak	####				
ruki	####				
magasist	magas	st		S	sg el
2.	2.	0		O	?
,	,			Z	
2	2	0		N	?
tsetvarik	####				
kaerad	kaer	d		S	pl n
3.	3.	0		O	?
,	,			Z	
3	3	0		N	?
vak	####				
ööriko	####				
kartuflid	####				
a	a	0		Y	?
1	1	0		N	?
r	r	0		Y	?
25	25	0		N	?
k	k	0		Y	?
.	.			Z	
3	3	0		N	?
rub	####				
.	.			Z	
75	75	0		N	?
k	k	0		Y	?
.	.			Z	
4.	4.	0		O	?
,	,			Z	
2	2	0		N	?
vak	####				
pikke	####				
kartuflid	####				
a	a	0		Y	?
'	’			Z	
1	1	0		N	?
r	r	0		Y	?
.	.			Z	
10	10	0		N	?
k	k	0		Y	?
.	.			Z	
3	3	0		N	?
rub	####				
.	.			Z	
30	30	0		N	?
k	k	0		Y	?
.	.			Z	
5.	5.	0		O	?
,	,			Z	
1	1	0		N	?
vak	####				
seeme	seeme	0		S	sg n
kaeru	kaer	u		S	pl p
a	a	0		Y	?
'	’			Z	
2	2	0		N	?
r	r	0		Y	?
.	.			Z	
2	2	0		N	?
rub	####				
.	.			Z	
6.	6.	0		O	?
,	,			Z	
2	2	0		N	?
vak	####				
seeme	seeme	0		S	sg n
kesvi	kesv	i		S	pl p
a	a	0		Y	?
'	’			Z	
3	3	0		N	?
r	r	0		Y	?
.	.			Z	
50	50	0		N	?
k	k	0		Y	?
.	.			Z	
7	7	0		N	?
rub	####				
7.	7.	0		O	?
,	,			Z	
3	3	0		N	?
1	1	0		N	?
/	/			Z	
2	2	0		N	?
vak	####				
ruki	####				
a	a	0		Y	?
'	’			Z	
4	4	0		N	?
r	r	0		Y	?
.	.			Z	
14	14	0		N	?
rub	####				
.	.			Z	
8.	8.	0		O	?
,	,			Z	
pro	####				
18	18	0		N	?
66	66	0		N	?
/	/			Z	
67	67	0		N	?
võlgu	võlg	u		S	pl p
     	võlgu	0		D	
jäänut	jäänu	t		S	sg p
      	jäänud	t		A	sg p
12	12	0		N	?
r	r	0		Y	?
.	.			Z	
37	37	0		N	?
1	1	0		N	?
/	/			Z	
2	2	0		N	?
k	k	0		Y	?
.	.			Z	
12	12	0		N	?
rub	####				
.	.			Z	
37	37	0		N	?
1	1	0		N	?
/	/			Z	
2	2	0		N	?
k	k	0		Y	?
.	.			Z	
summa	summ	0		S	adt
     	summ	0		S	sg g
     	summ	0		S	sg p
     	summa	0		S	sg g
     	summa	0		S	sg n
42	42	0		N	?
rub	####				
.	.			Z	
42	42	0		N	?
1	1	0		N	?
/	/			Z	
2	2	0		N	?
k	k	0		Y	?
.	.			Z	
mõisavalitsus	mõisa_valitsus	0		S	sg n
nõuab	nõud	b		V	b
,	,			Z	
et	et	0		J	
kohus	kohu	s		V	s
     	kohus	0		S	sg n
sunnis	sund	s		S	sg in
seda	see	da		P	sg p
Peeter	Peeter	0		H	sg n
Tiki	tikki	0		V	o
orjamaks	orja	maks		V	maks
.	.			Z	
Peeter	Peeter	0		H	sg n
Tik	####				
vastutab	vastuta	b		V	b
selle	see	0		P	sg g
     	sell	e		S	pl p
kaebuse	kaebus	0		S	sg g
peal	pea	l		S	sg ad
    	peal	0		D	
    	peal	0		K	
,	,			Z	
et	et	0		J	
see	see	0		P	sg n
mõisavalitsuse	mõisa_valitsus	0		S	sg g
naudmine	####				
olevat	ole	vat		V	vat
      	olev	t		A	sg p
      	olev	t		S	sg p
õige	õige	0		A	sg g
    	õige	0		A	sg n
    	õige	0		D	
ning	ning	0		J	
lubab	luba	b		V	b
igakord	iga_kord	0		S	sg n
kui	kui	0		D	
   	kui	0		J	
vaja	vaja	0		D	
    	vaja	0		V	o
on	ole	0		V	b
  	ole	0		V	vad
iluste	####				
orjamaa	orja_maa	0		S	sg g
       	orja_maa	0		S	sg n
ja	ja	0		J	
kõik	kõik	0		P	pl n
    	kõik	0		S	sg n
    	kõik	0		P	sg n
Jüripäeval	jüri_päev	l		S	sg ad
ära	ära	0		D	
   	ära	0		V	neg o
tasuda	tasu	da		V	da
.	.			Z	
mõistus	mõistus	0		S	sg n
:	:			Z	
Peeter	Peeter	0		H	sg n
Tik	####				
piab	####				
kõige	kõik	0		P	sg g
     	kõige	0		D	
vähem	vähem	0		C	sg n
     	vähem	0		D	
2	2	0		N	?
tööpra	####				
ja	ja	0		J	
2	2	0		N	?
jala	jalg	0		S	sg g
    	jala	0		D	
päeva	päev	0		S	adt
     	päev	0		S	sg g
     	päev	0		S	sg p
iga	iga	0		P	sg g
   	iga	0		P	sg n
   	iga	0		P	sg p
   	iga	0		S	sg n
   	iga	0		S	sg p
nädala	nädal	0		S	sg g
,	,			Z	
seni	seni	0		D	
kui	kui	0		D	
   	kui	0		J	
Jüripäevani	jüri_päev	ni		S	sg ter
1869	1869	0		N	?
mõisale	mõis	le		S	sg all
välja	välja	0		D	
     	välja	0		V	o
     	väli	0		S	adt
     	väli	0		S	sg g
     	väli	0		S	sg p
saatma	saat	ma		V	ma
ning	ning	0		J	
enda	ise	0		P	sg g
võlg	võlg	0		S	sg n
ka	ka	0		D	
Jüripäevani	jüri_päev	ni		S	sg ter
1869	1869	0		N	?
mõisale	mõis	le		S	sg all
ära	ära	0		D	
   	ära	0		V	neg o
tasuma	tasu	ma		V	ma
.	.			Z	
kui	kui	0		D	
   	kui	0		J	
Peeter	Peeter	0		H	sg n
Tik	####				
hästi	hästi	0		D	
ei	ei	0		D	
  	ei	0		V	neg
orja	orja	0		V	o
    	ori	0		S	adt
    	ori	0		S	sg g
    	ori	0		S	sg p
ja	ja	0		J	
käsu	käsk	0		S	sg g
peal	pea	l		S	sg ad
    	peal	0		D	
    	peal	0		K	
välja	välja	0		D	
     	välja	0		V	o
     	väli	0		S	adt
     	väli	0		S	sg g
     	väli	0		S	sg p
ei	ei	0		D	
  	ei	0		V	neg
saada	saa	da		V	da
     	saat	0		V	o
     	saa	da		V	ta
,	,			Z	
siis	siis	0		D	
    	siis	0		J	
piab	####				
mõisavalitsus	mõisa_valitsus	0		S	sg n
kog	####				
.	.			Z	
kus	kus	0		D	
.	.			Z	
kohtule	kohus	le		S	sg all
üles	üles	0		D	
andma	and	ma		V	ma
seda	see	da		P	sg p
ning	ning	0		J	
saab	saa	b		V	b
Peeter	Peeter	0		H	sg n
Tik	####				
siis	siis	0		D	
    	siis	0		J	
selle	see	0		P	sg g
     	sell	e		S	pl p
eest	eest	0		D	
    	eest	0		K	
    	esi	st		S	sg el
trahvitud	trahvi	tud		V	tud
         	trahvi=tu	d		S	pl n
         	trahvi=tud	0		A	
         	trahvi=tud	0		A	sg n
         	trahvi=tud	d		A	pl n
.	.			Z	
ja	ja	0		J	
kui	kui	0		D	
   	kui	0		J	
Peeter	Peeter	0		H	sg n
Tik	####				
ei	ei	0		D	
  	ei	0		V	neg
pia	####				
enda	ise	0		P	sg g
võla	võlg	0		S	sg g
Jüripäevani	jüri_päev	ni		S	sg ter
1869	1869	0		N	?
ära	ära	0		D	
   	ära	0		V	neg o
maksma	maks	ma		V	ma
,	,			Z	
siis	siis	0		D	
    	siis	0		J	
piab	####				
mõisa	mõis	0		S	sg g
kah	kah	0		D	
jälle	jälle	0		D	
üles	üles	0		D	
andma	and	ma		V	ma
ning	ning	0		J	
saab	saa	b		V	b
siis	siis	0		D	
    	siis	0		J	
kog	####				
.	.			Z	
kus	kus	0		D	
.	.			Z	
kohus	kohu	s		V	s
     	kohus	0		S	sg n
oksjoni	oksjon	0		S	sg g
viisil	viis	l		S	sg ad
      	viisil	0		K	
seda	see	da		P	sg p
võla	võlg	0		S	sg g
Peeter	Peeter	0		H	sg n
Tiki	tikki	0		V	o
käest	käest	0		K	
     	käsi	st		S	sg el
sisse	siss	e		S	pl p
     	sisse	0		D	
     	sisse	0		K	
näidma	####				
.	.			Z	
kohtumees	kohtu_mees	0		S	sg n
Jaan	Jaan	0		H	sg n
    	jaan	0		S	sg n
    	jaan	0		Y	?
Virro	####				
XXX	XXX	0		O	?
   	XXX	0		Y	?
kohtumees	kohtu_mees	0		S	sg n
Jüri	Jüri	0		H	sg g
    	Jüri	0		H	sg n
Luha	luht	0		S	sg g
XXX	XXX	0		O	?
   	XXX	0		Y	?
kohtumees	kohtu_mees	0		S	sg n
Jüri	Jüri	0		H	sg g
    	Jüri	0		H	sg n
kärn	kärn	0		S	sg n
XXX	XXX	0		O	?
   	XXX	0		Y	?
mõistus	mõistus	0		S	sg n
sai	saa	i		V	s
   	sai	0		S	sg n
kuulutud	kuulu	tud		V	tud
        	kuulu=tu	d		S	pl n
        	kuulu=tud	0		A	
        	kuulu=tud	0		A	sg n
        	kuulu=tud	d		A	pl n
ning	ning	0		J	
suurema	suurem	0		C	sg g
kohtukäimise	kohtu_käimine	0		S	sg g
õppetuse	õppe=tus	0		S	sg g
kiri	kiri	0		S	sg n
välja	välja	0		D	
     	välja	0		V	o
     	väli	0		S	adt
     	väli	0		S	sg g
     	väli	0		S	sg p
andud	andu	d		V	d
.	.			Z	
