sel	see	l		P	sg ad
   	sel	0		Y	?
23	23	0		N	?
juulil	juuli	l		S	sg ad
1884.	1884.	0		O	?
kaebas	kaeba	s		V	s
Vassil	####				
Alete	####				
et	et	0		J	
Jüri	Jüri	0		H	sg g
    	Jüri	0		H	sg n
Kroomas	####				
,	,			Z	
Jüri	Jüri	0		H	sg g
    	Jüri	0		H	sg n
Viilup	####				
ja	ja	0		J	
Jaan	Jaan	0		H	sg n
    	jaan	0		S	sg n
    	jaan	0		Y	?
Kroomas	####				
teda	tema	da		P	sg p
peksnud	peks	nud		V	nud
       	peks=nu	d		S	pl n
       	peks=nud	0		A	
       	peks=nud	0		A	sg n
       	peks=nud	d		A	pl n
on	ole	0		V	b
  	ole	0		V	vad
ja	ja	0		J	
ütelugu	üte_lugu	0		S	sg n
       	üte_lugu	0		S	sg p
sõimand	sõim_and	0		S	sg n
sellepärast	selle_pärast	0		D	
ei	ei	0		D	
  	ei	0		V	neg
või	või	0		S	sg g
   	või	0		V	o
   	või	0		D	
   	või	0		J	
   	või	0		S	sg n
tema	tema	0		P	sg g
    	tema	0		P	sg n
sugugi	sugugi	0		D	
seal	seal	0		D	
    	siga	l		A	sg ad
    	siga	l		S	sg ad
talun	talu	n		V	n
orjata	orja	ta		V	da
      	ori	ta		S	sg ab
      	orja	ta		V	ta
ja	ja	0		J	
elada	ela	da		V	da
ja	ja	0		J	
palus	palu	s		S	sg in
     	palu	s		V	s
et	et	0		J	
kohus	kohu	s		V	s
     	kohus	0		S	sg n
neid	neid	0		S	sg n
    	see	d		P	pl p
    	tema	d		P	pl p
inimesi	inimene	i		S	pl p
noomis	noomi	s		V	s
ja	ja	0		J	
keelas	keela	s		V	s
.	.			Z	
Jaan	Jaan	0		H	sg n
    	jaan	0		S	sg n
    	jaan	0		Y	?
ja	ja	0		J	
Jüri	Jüri	0		H	sg g
    	Jüri	0		H	sg n
Kroomas	####				
ja	ja	0		J	
Jüri	Jüri	0		H	sg g
    	Jüri	0		H	sg n
Viilup	####				
vastutasid	vastuta	sid		V	sid
et	et	0		J	
nemad	tema	d		P	pl n
seda	see	da		P	sg p
kaebajat	kaebaja	t		S	sg p
pekson	####				
ei	ei	0		D	
  	ei	0		V	neg
ole	ole	0		V	o
ja	ja	0		J	
Jüri	Jüri	0		H	sg g
    	Jüri	0		H	sg n
Viilup	####				
tunistas	####				
et	et	0		J	
söögi	söö	0	gi	V	o
     	söök	0		S	sg g
pärast	pära	st		S	sg el
      	pärane	t		A	sg p
      	pärast	0		D	
      	pärast	0		K	
on	ole	0		V	b
  	ole	0		V	vad
Vassil	####				
Alete	####				
Jüri	Jüri	0		H	sg g
    	Jüri	0		H	sg n
Kroomaniga	####				
tüli	tüli	0		S	sg g
    	tüli	0		S	sg n
    	tüli	0		S	sg p
akkanud	####				
.	.			Z	
selle	see	0		P	sg g
     	sell	e		S	pl p
peale	pea	le		S	sg all
     	peale	0		D	
     	peale	0		K	
sanud	####				
keik	####				
kohtu	kohtu	0		V	o
     	kohus	0		S	sg g
poolt	pool	t		N	sg p
     	pool	t		S	sg p
     	poolt	0		D	
     	poolt	0		K	
noomita	noomi	ta		V	ta
,	,			Z	
et	et	0		J	
nemad	tema	d		P	pl n
rahu	rahu	0		S	sg g
    	rahu	0		S	sg n
    	rahu	0		S	sg p
peavad	pida	vad		V	vad
olema	ole	ma		V	ma
ja	ja	0		J	
kes	kes	0		P	pl n
   	kes	0		P	sg n
edespidi	####				
tüli	tüli	0		S	sg g
    	tüli	0		S	sg n
    	tüli	0		S	sg p
tõstab	tõst	b		V	b
langeb	lange	b		V	b
trahvi	trahv	0		S	adt
      	trahv	0		S	sg g
      	trahvi	0		V	o
      	trahv	0		S	sg p
alla	alla	0		D	
    	alla	0		K	
.	.			Z	
otsus	otsus	0		S	sg n
:	:			Z	
seda	see	da		P	sg p
protokolli	protokoll	0		S	adt
          	protokoll	0		S	sg g
          	protokolli	0		V	o
          	protokoll	0		S	sg p
üles	üles	0		D	
panna	pand	0		S	sg g
     	pane	a		V	da
     	panna	0		S	sg g
     	panna	0		S	sg n
.	.			Z	
peakohtumees	pea_kohtu_mees	0		S	sg n
J. Ling	####				
/	/			Z	
allkiri	all_kiri	0		S	sg n
/	/			Z	
kohtumees	kohtu_mees	0		S	sg n
:	:			Z	
Peeter	Peeter	0		H	sg n
Ivan	Ivan	0		H	sg n
/	/			Z	
allkiri	all_kiri	0		S	sg n
/	/			Z	
J. Krusberg	####				
/	/			Z	
allkiri	all_kiri	0		S	sg n
/	/			Z	
Jaan	Jaan	0		H	sg n
    	jaan	0		S	sg n
    	jaan	0		Y	?
pruuks	####				
/	/			Z	
allkiri	all_kiri	0		S	sg n
/	/			Z	
