Jüri	Jüri	0		H	sg g
    	Jüri	0		H	sg n
Paats	####				
kaebas	kaeba	s		V	s
,	,			Z	
et	et	0		J	
Jaan	Jaan	0		H	sg n
    	jaan	0		S	sg n
    	jaan	0		Y	?
küsima	küsi	ma		V	ma
7	7	0		N	?
elajat	elajas	t		S	sg p
tema	tema	0		P	sg g
    	tema	0		P	sg n
niidust	niit	st		S	sg el
kinni	kinni	0		D	
aetud	ae=tu	d		S	pl n
     	aetud	0		A	
     	aetud	0		A	sg n
     	aetud	d		A	pl n
     	aja	tud		V	tud
-	-			Z	
nõuab	nõud	b		V	b
7	7	0		N	?
rbl	rbl	0		Y	?
.	.			Z	
kahjutasumist	kahju_tasumine	t		S	sg p
.	.			Z	
Jaan	Jaan	0		H	sg n
    	jaan	0		S	sg n
    	jaan	0		Y	?
küsima	küsi	ma		V	ma
salgab	salga	b		V	b
.	.			Z	
metsavaht	metsa_vaht	0		S	sg n
Jaan	Jaan	0		H	sg n
    	jaan	0		S	sg n
    	jaan	0		Y	?
Viiro	####				
ei	ei	0		D	
  	ei	0		V	neg
tea	tead	0		V	o
tunnistada	tunnista	da		V	da
et	et	0		J	
Jaan	Jaan	0		H	sg n
    	jaan	0		S	sg n
    	jaan	0		Y	?
küsima	küsi	ma		V	ma
elajat	elajas	t		S	sg p
Jüri	Jüri	0		H	sg g
    	Jüri	0		H	sg n
Paatsi	####				
niitud	####				
olnud	ol=nud	0		A	
     	ol=nud	0		A	sg n
     	ol=nud	d		A	pl n
     	ole	nud		V	nud
     	olnu	d		S	pl n
.	.			Z	
Mõiste	mõiste	0		S	sg g
      	mõiste	0		S	sg n
:	:			Z	
Jüri	Jüri	0		H	sg g
    	Jüri	0		H	sg n
Paatsil	####				
ei	ei	0		D	
  	ei	0		V	neg
ole	ole	0		V	o
Jaan	Jaan	0		H	sg n
    	jaan	0		S	sg n
    	jaan	0		Y	?
küsima	küsi	ma		V	ma
käest	käest	0		K	
     	käsi	st		S	sg el
midagi	miski	dagi		P	sg p
nõudmist	nõudmine	t		S	sg p
,	,			Z	
et	et	0		J	
ühtigi	ühtigi	0		D	
tunnistust	tunnistus	t		S	sg p
ei	ei	0		D	
  	ei	0		V	neg
ole	ole	0		V	o
.	.			Z	
kohtumees	kohtu_mees	0		S	sg n
:	:			Z	
J. Ottan	####				
XXX	XXX	0		O	?
   	XXX	0		Y	?
kohtumees	kohtu_mees	0		S	sg n
:	:			Z	
Mõiste	mõiste	0		S	sg g
      	mõiste	0		S	sg n
sai	saa	i		V	s
   	sai	0		S	sg n
kohtukäijatele	kohtu_käija	tele		S	pl all
kuulutatud	kuuluta	tud		V	tud
          	kuuluta=tu	d		S	pl n
          	kuuluta=tud	0		A	
          	kuuluta=tud	0		A	sg n
          	kuuluta=tud	d		A	pl n
T	T	0		Y	?
.	.			Z	
S	S	0		Y	?
.	.			Z	
R	R	0		Y	?
.	.			Z	
§	§	0		Y	?
772	772	0		N	?
-	-			Z	
774	774	0		N	?
järele	järele	0		D	
      	järele	0		K	
aastast	aasta	st		S	sg el
       	aastane	t		A	sg p
1860	1860	0		N	?
ja	ja	0		J	
õpus	####				
antud	an=tu	d		S	pl n
     	and	tud		V	tud
     	antud	0		A	
     	antud	0		A	sg n
     	antud	d		A	pl n
mis	mis	0		P	pl n
   	mis	0		P	sg n
tähele	täht	le		S	sg all
      	tähele	0		X	
panna	pand	0		S	sg g
     	pane	a		V	da
     	panna	0		S	sg g
     	panna	0		S	sg n
tuleb	tule	b		V	b
,	,			Z	
kui	kui	0		D	
   	kui	0		J	
keegi	kee	0	gi	S	sg g
     	kee	0	gi	V	o
     	keegi	0		P	sg n
     	kee	0	gi	S	sg n
kõrgemat	kõrgem	t		C	sg p
        	kõrgem	t		S	sg p
kohut	kohus	t		S	sg p
nõuab	nõud	b		V	b
ning	ning	0		J	
kirjutaja	kirjutaja	0		S	sg g
         	kirjutaja	0		S	sg n
:	:			Z	
Chr	Chr	0		Y	?
Kapp	kapp	0		S	sg n
allkiri	all_kiri	0		S	sg n
