Protokoll	protokoll	0		S	sg n
Aavvinurme	####				
Vallakohtus	valla_kohus	s		S	sg in
sel	see	l		P	sg ad
   	sel	0		Y	?
.	.			Z	
27	27	0		N	?
Novembril	november	l		S	sg ad
1899.	1899.	0		O	?
juures	juur	s		S	sg in
      	juures	0		D	
      	juures	0		K	
olid	ole	id		V	sid
eesistuja	ees_istuja	0		S	sg g
         	ees_istuja	0		S	sg n
Mihkel	Mihkel	0		H	sg n
      	mihkel	0		A	sg n
      	mihkel	0		S	sg n
Pihlak	####				
kohtumees	kohtu_mees	0		S	sg n
Jaan	Jaan	0		H	sg n
    	jaan	0		S	sg n
    	jaan	0		Y	?
Pärn	pärn	0		S	sg n
Aabikohtumees	####				
J. Jallak	####				
Tulid	tule	id		V	sid
ette	ette	0		D	
    	ette	0		K	
    	esi	tte		S	adt
Aavvinurme	####				
valla	vald	0		S	sg g
     	valla	0		D	
inimesed	inimene	d		S	pl n
Aleksander	Aleksander	0		H	sg n
Olisaar	####				
Pauluse	Paulus	0		H	sg g
poeg	poeg	0		S	sg n
kes	kes	0		P	pl n
   	kes	0		P	sg n
Lohosu	####				
vallas	vald	s		S	sg in
elab	ela	b		V	b
ja	ja	0		J	
Aandres	####				
Pärn	pärn	0		S	sg n
Juri	Juri	0		H	sg g
    	Juri	0		H	sg n
poeg	poeg	0		S	sg n
ja	ja	0		J	
palusid	palu	sid		S	pl p
       	palu	sid		V	sid
Vallakohut	valla_kohus	t		S	sg p
nende	see	de		P	pl g
     	tema	de		P	pl g
kaupa	kaup	0		S	adt
     	kaup	0		S	sg p
     	kaupa	0		K	
ja	ja	0		J	
konrakt	####				
Aakt	####				
ramatuse	####				
üles	üles	0		D	
kirjutada	kirjuta	da		V	da
jargmisel	####				
viisil	viis	l		S	sg ad
      	viisil	0		K	
Aandres	####				
Pärn	pärn	0		S	sg n
annab	and	b		V	b
oma	oma	0		A	sg g
   	oma	0		D	
   	oma	0		P	sg g
   	oma	0		S	sg g
   	oma	0		V	o
   	oma	0		A	sg n
   	oma	0		A	sg p
   	oma	0		P	sg n
   	oma	0		P	sg p
   	oma	0		S	sg n
   	oma	0		S	sg p
poega	poeg	0		S	adt
     	pood	ga		S	sg kom
     	poeg	0		S	sg p
August	august	0		S	sg n
      	auk	st		S	sg el
      	August	0		H	sg n
Pärna	pärn	0		S	adt
     	pärn	0		S	sg g
     	pärn	0		S	sg p
kes	kes	0		P	pl n
   	kes	0		P	sg n
16	16	0		N	?
Aaastad	####				
vana	vana	0		A	sg g
    	vana	0		A	sg n
    	vana	0		A	sg p
    	vana	0		S	sg g
    	vana	0		S	sg n
    	vana	0		S	sg p
Aleksander	Aleksander	0		H	sg n
Olisaare	####				
juure	juur	0		S	sg g
õpi	õpp	0		S	sg g
   	õppi	0		V	o
poisiks	poiss	ks		S	sg tr
kahe	kaks	0		N	sg g
Aaasta	####				
peale	pea	le		S	sg all
     	peale	0		D	
     	peale	0		K	
rätsepa	rätsep	0		S	sg g
ametid	amet	d		S	pl n
õppima	õppi	ma		V	ma
ja	ja	0		J	
peab	pida	b		V	b
Aleksander	Aleksander	0		H	sg n
Olisaar	####				
temale	tema	le		P	sg all
selle	see	0		P	sg g
     	sell	e		S	pl p
aja	aeg	0		S	sg g
   	aja	0		V	o
sees	sees	0		D	
    	sees	0		K	
rätsepa	rätsep	0		S	sg g
ameti	amet	0		S	sg g
kätte	kätte	0		K	
     	käsi	tte		S	adt
õppetama	####				
.	.			Z	
selle	see	0		P	sg g
     	sell	e		S	pl p
õppetuse	õppe=tus	0		S	sg g
eest	eest	0		D	
    	eest	0		K	
    	esi	st		S	sg el
maksab	maks	b		V	b
Aandres	####				
Pärn	pärn	0		S	sg n
Aleksander	Aleksander	0		H	sg n
Olisaarele	####				
veel	veel	0		D	
    	vesi	l		S	sg ad
20	20	0		N	?
rubla	rubla	0		S	sg g
     	rubla	0		S	sg n
     	rubla	0		S	sg p
juure	juur	0		S	sg g
nüid	####				
kohe	kohe	0		A	sg n
    	kohe	0		D	
,	,			Z	
ning	ning	0		J	
kannab	kand	b		V	b
õpi	õpp	0		S	sg g
   	õppi	0		V	o
pois	poi	s		S	sg in
oma	oma	0		A	sg g
   	oma	0		D	
   	oma	0		P	sg g
   	oma	0		S	sg g
   	oma	0		V	o
   	oma	0		A	sg n
   	oma	0		A	sg p
   	oma	0		P	sg n
   	oma	0		P	sg p
   	oma	0		S	sg n
   	oma	0		S	sg p
riiet	riie	t		S	sg p
ja	ja	0		J	
maksab	maks	b		V	b
isi	####				
oma	oma	0		A	sg g
   	oma	0		D	
   	oma	0		P	sg g
   	oma	0		S	sg g
   	oma	0		V	o
   	oma	0		A	sg n
   	oma	0		A	sg p
   	oma	0		P	sg n
   	oma	0		P	sg p
   	oma	0		S	sg n
   	oma	0		S	sg p
pearaha	pea_raha	0		S	sg g
       	pea_raha	0		S	sg n
       	pea_raha	0		S	sg p
.	.			Z	
kui	kui	0		D	
   	kui	0		J	
se	####				
peaks	pea	ks		S	sg tr
     	pida	ks		V	ks
juhtuma	juhtu	ma		V	ma
et	et	0		J	
meister	meister	0		S	sg n
ehk	ehk	0		D	
   	ehk	0		J	
õpi	õpp	0		S	sg g
   	õppi	0		V	o
pois	poi	s		S	sg in
enne	enne	0		D	
    	enne	0		K	
    	enne	0		S	sg n
kahte	kaks	0		N	adt
     	kaks	0		N	sg p
Aaastad	####				
ära	ära	0		D	
   	ära	0		V	neg o
sureb	sure	b		V	b
ehk	ehk	0		D	
   	ehk	0		J	
et	et	0		J	
meister	meister	0		S	sg n
Aleksander	Aleksander	0		H	sg n
Olisaar	####				
oma	oma	0		A	sg g
   	oma	0		D	
   	oma	0		P	sg g
   	oma	0		S	sg g
   	oma	0		V	o
   	oma	0		A	sg n
   	oma	0		A	sg p
   	oma	0		P	sg n
   	oma	0		P	sg p
   	oma	0		S	sg n
   	oma	0		S	sg p
elukohta	elu_koht	0		S	adt
        	elu_koht	0		S	sg p
muudab	muut	b		V	b
ja	ja	0		J	
kuhugi	kuhugi	0		D	
kaugemale	kaugem	le		C	sg all
         	kaugemale	0		D	
lina	lina	0		S	sg g
    	lina	0		S	sg n
    	lina	0		S	sg p
elama	ela	ma		V	ma
läheb	mine	b		V	b
siis	siis	0		D	
    	siis	0		J	
peab	pida	b		V	b
pois	poi	s		S	sg in
temaga	tema	ga		P	sg kom
ühes	üks	s		N	sg in
    	üks	s		P	sg in
    	ühes	0		D	
    	ühes	0		K	
minema	mine	ma		V	ma
aga	aga	0		J	
kui	kui	0		D	
   	kui	0		J	
tema	tema	0		P	sg g
    	tema	0		P	sg n
seda	see	da		P	sg p
ei	ei	0		D	
  	ei	0		V	neg
taha	taht	0		V	o
    	taha	0		D	
    	taha	0		K	
,	,			Z	
siis	siis	0		D	
    	siis	0		J	
on	ole	0		V	b
  	ole	0		V	vad
nende	see	de		P	pl g
     	tema	de		P	pl g
kaup	kaup	0		S	sg n
sest	see	st		P	sg el
    	sest	0		J	
ajast	aeg	st		S	sg el
     	ajane	t		A	sg p
murtud	mur=tu	d		S	pl n
      	mur=tud	0		A	
      	mur=tud	0		A	sg n
      	mur=tud	d		A	pl n
      	murd	tud		V	tud
ja	ja	0		J	
ei	ei	0		D	
  	ei	0		V	neg
ole	ole	0		V	o
nendel	see	del		P	pl ad
      	tema	del		P	pl ad
teine	teine	0		O	sg n
     	teine	0		P	sg n
teise	teine	0		O	adt
     	teine	0		O	sg g
     	teine	0		P	adt
     	teine	0		P	sg g
käest	käest	0		K	
     	käsi	st		S	sg el
ei	ei	0		D	
  	ei	0		V	neg
ühtegi	ühte	0	gi	D	
      	üks	0	gi	N	adt
      	üks	0	gi	P	adt
      	ühe	0	gi	S	sg g
      	üks	0	gi	N	sg p
      	üks	0	gi	P	sg p
nõudmist	nõudmine	t		S	sg p
.	.			Z	
,	,			Z	
kui	kui	0		D	
   	kui	0		J	
aga	aga	0		J	
se	####				
peaks	pea	ks		S	sg tr
     	pida	ks		V	ks
ette	ette	0		D	
    	ette	0		K	
    	esi	tte		S	adt
tulema	tule	ma		V	ma
et	et	0		J	
meister	meister	0		S	sg n
poisi	poiss	0		S	sg g
ilma	ilm	0		S	adt
    	ilm	0		S	sg g
    	ilma	0		D	
    	ilma	0		K	
    	ilm	0		S	sg p
põhjuseta	põhjus	ta		S	sg ab
oma	oma	0		A	sg g
   	oma	0		D	
   	oma	0		P	sg g
   	oma	0		S	sg g
   	oma	0		V	o
   	oma	0		A	sg n
   	oma	0		A	sg p
   	oma	0		P	sg n
   	oma	0		P	sg p
   	oma	0		S	sg n
   	oma	0		S	sg p
juurest	juur	st		S	sg el
       	juurest	0		K	
ära	ära	0		D	
   	ära	0		V	neg o
ajab	aja	b		V	b
ehk	ehk	0		D	
   	ehk	0		J	
et	et	0		J	
pois	poi	s		S	sg in
oma	oma	0		A	sg g
   	oma	0		D	
   	oma	0		P	sg g
   	oma	0		S	sg g
   	oma	0		V	o
   	oma	0		A	sg n
   	oma	0		A	sg p
   	oma	0		P	sg n
   	oma	0		P	sg p
   	oma	0		S	sg n
   	oma	0		S	sg p
voliga	voli	ga		S	sg kom
enneaegu	enne_aegu	0		D	
oma	oma	0		A	sg g
   	oma	0		D	
   	oma	0		P	sg g
   	oma	0		S	sg g
   	oma	0		V	o
   	oma	0		A	sg n
   	oma	0		A	sg p
   	oma	0		P	sg n
   	oma	0		P	sg p
   	oma	0		S	sg n
   	oma	0		S	sg p
õpimeistri	õpi_meister	0		S	sg g
juurest	juur	st		S	sg el
       	juurest	0		K	
ära	ära	0		D	
   	ära	0		V	neg o
läheb	mine	b		V	b
siis	siis	0		D	
    	siis	0		J	
maksab	maks	b		V	b
kahju	kahi	0		S	adt
     	kahi	0		S	sg g
     	kahi	0		S	sg p
     	kahju	0		S	sg g
     	kahju	0		S	sg n
     	kahju	0		S	sg p
tegia	####				
kahju	kahi	0		S	adt
     	kahi	0		S	sg g
     	kahi	0		S	sg p
     	kahju	0		S	sg g
     	kahju	0		S	sg n
     	kahju	0		S	sg p
sajale	sada	le		N	sg all
50	50	0		N	?
viiskümend	####				
rubla	rubla	0		S	sg g
     	rubla	0		S	sg n
     	rubla	0		S	sg p
kahjutasumist	kahju_tasumine	t		S	sg p
selle	see	0		P	sg g
     	sell	e		S	pl p
kontrakt	####				
kinnitamiseks	kinnitamine	ks		S	sg tr
on	ole	0		V	b
  	ole	0		V	vad
molemad	####				
kauba	kaup	0		S	sg g
tegijad	tegija	d		S	pl n
omad	oma	d		A	pl n
    	oma	d		P	pl n
    	oma	d		S	pl n
    	oma	d		V	d
nimed	nimi	d		S	pl n
alla	alla	0		D	
    	alla	0		K	
kirjutanud	kirjuta	nud		V	nud
          	kirjutanu	d		S	pl n
          	kirjutanud	0		A	
          	kirjutanud	0		A	sg n
          	kirjutanud	d		A	pl n
.	.			Z	
A	A	0		Y	?
.	.			Z	
_	_			Z	
Olisaar	####				
(	(			Z	
allkiri	all_kiri	0		S	sg n
)	)			Z	
Aandres	####				
Pärn	pärn	0		S	sg n
(	(			Z	
allkiri	all_kiri	0		S	sg n
)	)			Z	
1899	1899	0		N	?
Aaastal	####				
Novembri	november	0		S	sg g
kuu	kuu	0		S	sg g
   	kuu	0		S	sg n
27	27	0		N	?
päeval	päev	l		S	sg ad
on	ole	0		V	b
  	ole	0		V	vad
see	see	0		P	sg n
eesseisav	####				
kontrakt	####				
ja	ja	0		J	
lepimine	####				
Aavvinurme	####				
Vallakohtule	valla_kohus	le		S	sg all
Aavvinurme	####				
Vallamajas	valla_maja	s		S	sg in
kohtu	kohtu	0		V	o
     	kohus	0		S	sg g
protokoli	####				
üleskirjutamiseks	üles_kirjutamine	ks		S	sg tr
ja	ja	0		J	
kinnitamiseks	kinnitamine	ks		S	sg tr
ette	ette	0		D	
    	ette	0		K	
    	esi	tte		S	adt
kantud	kand	tud		V	tud
      	kantu	d		S	pl n
      	kantud	0		A	
      	kantud	0		A	sg n
      	kantud	d		A	pl n
Aavvinurme	####				
valla	vald	0		S	sg g
     	valla	0		D	
inimeste	inimene	te		S	pl g
Aleksander	Aleksander	0		H	sg n
Olisaare	####				
Pauluse	Paulus	0		H	sg g
poja	poeg	0		S	sg g
    	poja	0		S	sg g
    	poja	0		S	sg n
    	poja	0		S	sg p
ja	ja	0		J	
Aandres	####				
Pärna	pärn	0		S	adt
     	pärn	0		S	sg g
     	pärn	0		S	sg p
Juri	Juri	0		H	sg g
    	Juri	0		H	sg n
poja	poeg	0		S	sg g
    	poja	0		S	sg g
    	poja	0		S	sg n
    	poja	0		S	sg p
poolt	pool	t		N	sg p
     	pool	t		S	sg p
     	poolt	0		D	
     	poolt	0		K	
,	,			Z	
ja	ja	0		J	
on	ole	0		V	b
  	ole	0		V	vad
need	see	d		P	pl n
kontrakt	####				
tegijad	tegija	d		S	pl n
Vallakohtule	valla_kohus	le		S	sg all
tuntud	tund	tud		V	tud
      	tuntu	d		S	pl n
      	tuntud	0		A	
      	tuntud	0		A	sg n
      	tuntud	d		A	pl n
ja	ja	0		J	
teatud	tea=tu	d		S	pl n
      	tead	tud		V	tud
      	teatud	0		A	
      	teatud	0		A	sg n
      	teatud	d		A	pl n
ning	ning	0		J	
nende	see	de		P	pl g
     	tema	de		P	pl g
susana	####				
lepping	####				
tänasel	tänane	l		A	sg ad
paaval	####				
Aakt	####				
ramatuse	####				
N 15	N15	0		Y	?
all	all	0		D	
   	all	0		K	
üles	üles	0		D	
kerjutud	####				
ja	ja	0		J	
kohtu	kohtu	0		V	o
     	kohus	0		S	sg g
poolest	pool	st		N	sg el
       	pool	st		S	sg el
       	poolene	t		A	sg p
       	poolest	0		K	
kinnitud	kinnitu	d		V	d
saanud	saa	nud		V	nud
      	saa=nud	0		A	
      	saa=nud	0		A	sg n
      	saa=nud	d		A	pl n
      	saanu	d		S	pl n
ja	ja	0		J	
on	ole	0		V	b
  	ole	0		V	vad
need	see	d		P	pl n
kontrakt	####				
tegijad	tegija	d		S	pl n
molemad	####				
omad	oma	d		A	pl n
    	oma	d		P	pl n
    	oma	d		S	pl n
    	oma	d		V	d
nimed	nimi	d		S	pl n
oma	oma	0		A	sg g
   	oma	0		D	
   	oma	0		P	sg g
   	oma	0		S	sg g
   	oma	0		V	o
   	oma	0		A	sg n
   	oma	0		A	sg p
   	oma	0		P	sg n
   	oma	0		P	sg p
   	oma	0		S	sg n
   	oma	0		S	sg p
käega	käsi	ga		S	sg kom
alla	alla	0		D	
    	alla	0		K	
kerjutanud	####				
.	.			Z	
M. Pihlak	####				
.	.			Z	
(	(			Z	
allkiri	all_kiri	0		S	sg n
)	)			Z	
J. Pärn	####				
(	(			Z	
allkiri	all_kiri	0		S	sg n
)	)			Z	
J. Jalak	####				
.	.			Z	
(	(			Z	
allkiri	all_kiri	0		S	sg n
)	)			Z	
Kirjutaja	kirjutaja	0		S	sg g
         	kirjutaja	0		S	sg n
Schulbach	####				
(	(			Z	
allkiri	all_kiri	0		S	sg n
)	)			Z	
