Metsavalitseja	metsa_valitseja	0		S	sg g
              	metsa_valitseja	0		S	sg n
Gros	####				
kaebab	kaeba	b		V	b
Ivan	Ivan	0		H	sg n
Garafimov	####				
Saposchnikov	####				
peale	pea	le		S	sg all
     	peale	0		D	
     	peale	0		K	
,	,			Z	
se	####				
pole	ole	0		V	neg o
heinamaad	heina_maa	d		S	pl n
         	heina_maa	d		S	sg p
,	,			Z	
mis	mis	0		P	pl n
   	mis	0		P	sg n
puhastada	puhasta	da		V	da
olnud	ol=nud	0		A	
     	ol=nud	0		A	sg n
     	ol=nud	d		A	pl n
     	ole	nud		V	nud
     	olnu	d		S	pl n
mitte	mitte	0		D	
täieste	####				
ärapuhastanud	ära_puhasta=nu	d		S	pl n
             	ära_puhasta=nud	0		A	
             	ära_puhasta=nud	0		A	sg n
             	ära_puhasta=nud	d		A	pl n
.	.			Z	
Ivan	Ivan	0		H	sg n
Garafimov	####				
Saposchnikov	####				
kostab	kost	b		V	b
,	,			Z	
et	et	0		J	
tema	tema	0		P	sg g
    	tema	0		P	sg n
olla	ole	a		V	da
täieste	####				
ära	ära	0		D	
   	ära	0		V	neg o
puhastanud	puhasta	nud		V	nud
          	puhasta=nu	d		S	pl n
          	puhasta=nud	0		A	
          	puhasta=nud	0		A	sg n
          	puhasta=nud	d		A	pl n
.	.			Z	
Võõrmõnder	####				
Josep	####				
kokka	kokk	0		S	adt
     	kokka	0		V	o
     	kokk	0		S	sg p
tunnistab	tunnista	b		V	b
,	,			Z	
et	et	0		J	
heinamaa	heina_maa	0		S	sg g
        	heina_maa	0		S	sg n
pole	ole	0		V	neg o
mitte	mitte	0		D	
täieste	####				
puhas	puhas	0		A	sg n
olnud	ol=nud	0		A	
     	ol=nud	0		A	sg n
     	ol=nud	d		A	pl n
     	ole	nud		V	nud
     	olnu	d		S	pl n
kohus	kohu	s		V	s
     	kohus	0		S	sg n
Mõistis	mõist	is		V	s
:	:			Z	
Ivan	Ivan	0		H	sg n
Garafimov	####				
Saposchnikov	####				
maksab	maks	b		V	b
6.	6.	0		O	?
rubla	rubla	0		S	sg g
     	rubla	0		S	sg n
     	rubla	0		S	sg p
vaesteladiko	####				
trahviks	trahv	ks		S	sg tr
        	trahvi	ks		V	ks
,	,			Z	
ei	ei	0		D	
  	ei	0		V	neg
ole	ole	0		V	o
aga	aga	0		J	
raha	raha	0		S	sg g
    	raha	0		S	sg n
    	raha	0		S	sg p
väljamaksa	välja_maks	0		S	adt
          	välja_maks	0		S	sg g
          	välja_maks	0		S	sg p
,	,			Z	
siis	siis	0		D	
    	siis	0		J	
istub	istu	b		V	b
3x24	####				
tunni	tund	0		S	sg g
vangihoones	vangi_hoone	s		S	sg in
kinni	kinni	0		D	
/	/			Z	
:	:			Z	
Otsus	otsus	0		S	sg n
kulutud	kulu	tud		V	tud
       	kulu=tu	d		S	pl n
       	kulu=tud	0		A	
       	kulu=tud	0		A	sg n
       	kulu=tud	d		A	pl n
sel	see	l		P	sg ad
   	sel	0		Y	?
25.	25.	0		O	?
Oktobril	####				
.	.			Z	
c	c	0		Y	?
.	.			Z	
Tallorahva	####				
seaduse	seadus	0		S	sg g
ramatu	####				
§§	§§	0		Y	?
772	772	0		N	?
ja	ja	0		J	
773	773	0		N	?
juhatusel	juhatus	l		S	sg ad
:	:			Z	
/	/			Z	
A	A	0		Y	?
.	.			Z	
_	_			Z	
Krim	####				
[	[			Z	
allkiri	all_kiri	0		S	sg n
]	]			Z	
,	,			Z	
pea	pea	0		D	
   	pea	0		S	sg g
   	pida	0		V	o
   	pea	0		S	sg n
xxx	####				
Maddis	####				
erm	####				
,	,			Z	
kohtumees	kohtu_mees	0		S	sg n
A	A	0		Y	?
.	.			Z	
_	_			Z	
Pärn	pärn	0		S	sg n
[	[			Z	
allkiri	all_kiri	0		S	sg n
]	]			Z	
,	,			Z	
""""	""""			Z	
xxx	####				
Tavet	####				
kook	kook	0		S	sg n
,	,			Z	
""""	""""			Z	
