elias	####				
Narits	####				
kaebab	kaeba	b		V	b
Aabram	Aabram	0		H	sg n
Käär	käär	0		S	sg n
peale	pea	le		S	sg all
     	peale	0		D	
     	peale	0		K	
,	,			Z	
selle	see	0		P	sg g
     	sell	e		S	pl p
2.	2.	0		O	?
hobust	hobu	st		S	sg el
      	hobune	t		S	sg p
olnud	ol=nud	0		A	
     	ol=nud	0		A	sg n
     	ol=nud	d		A	pl n
     	ole	nud		V	nud
     	olnu	d		S	pl n
tema	tema	0		P	sg g
    	tema	0		P	sg n
kaerast	kaer	st		S	sg el
       	kaerane	t		A	sg p
ja	ja	0		J	
tema	tema	0		P	sg g
    	tema	0		P	sg n
võtnud	võt	nud		V	nud
      	võt=nu	d		S	pl n
      	võt=nud	0		A	
      	võt=nud	0		A	sg n
      	võt=nud	d		A	pl n
kinni	kinni	0		D	
:	:			Z	
Võõrmõnder	####				
Josep	####				
kokka	kokk	0		S	adt
     	kokka	0		V	o
     	kokk	0		S	sg p
kes	kes	0		P	pl n
   	kes	0		P	sg n
kurja	kuri	0		A	adt
     	kuri	0		A	sg g
     	kuri	0		S	adt
     	kuri	0		S	sg g
     	kuri	0		A	sg p
     	kuri	0		S	sg p
ülevatanud	üleva_tanu	d		S	pl n
,	,			Z	
ütleb	ütle	b		V	b
et	et	0		J	
kahju	kahi	0		S	adt
     	kahi	0		S	sg g
     	kahi	0		S	sg p
     	kahju	0		S	sg g
     	kahju	0		S	sg n
     	kahju	0		S	sg p
olnud	ol=nud	0		A	
     	ol=nud	0		A	sg n
     	ol=nud	d		A	pl n
     	ole	nud		V	nud
     	olnu	d		S	pl n
paari	paar	0		N	adt
     	paar	0		N	sg g
     	paar	0		S	adt
     	paar	0		S	sg g
     	paari	0		D	
     	paari	0		V	o
     	paar	0		N	sg p
     	paar	0		S	sg p
toopi	toop	0		S	adt
     	toop	0		S	sg p
võra	võra	0		S	sg g
    	võra	0		V	o
    	võra	0		S	sg n
    	võra	0		S	sg p
Aabram	Aabram	0		H	sg n
Käär	käär	0		S	sg n
kostab	kost	b		V	b
et	et	0		J	
elias	####				
Narits	####				
olla	ole	a		V	da
neid	neid	0		S	sg n
    	see	d		P	pl p
    	tema	d		P	pl p
hobuseid	hobune	id		S	pl p
karjama	####				
pealt	pea	lt		S	sg abl
     	pealt	0		D	
     	pealt	0		K	
kinni	kinni	0		D	
võtnud	võt	nud		V	nud
      	võt=nu	d		S	pl n
      	võt=nud	0		A	
      	võt=nud	0		A	sg n
      	võt=nud	d		A	pl n
elias	####				
Narits	####				
annab	and	b		V	b
järele	järele	0		D	
      	järele	0		K	
et	et	0		J	
tema	tema	0		P	sg g
    	tema	0		P	sg n
karjama	####				
pealt	pea	lt		S	sg abl
     	pealt	0		D	
     	pealt	0		K	
kinni	kinni	0		D	
võtnud	võt	nud		V	nud
      	võt=nu	d		S	pl n
      	võt=nud	0		A	
      	võt=nud	0		A	sg n
      	võt=nud	d		A	pl n
.	.			Z	
kohus	kohu	s		V	s
     	kohus	0		S	sg n
moistis	####				
:	:			Z	
Aabram	Aabram	0		H	sg n
Käär	käär	0		S	sg n
maksab	maks	b		V	b
see	see	0		P	sg n
kahju	kahi	0		S	adt
     	kahi	0		S	sg g
     	kahi	0		S	sg p
     	kahju	0		S	sg g
     	kahju	0		S	sg n
     	kahju	0		S	sg p
2	2	0		N	?
toopi	toop	0		S	adt
     	toop	0		S	sg p
kaeru	kaer	u		S	pl p
elias	####				
Naritsale	####				
/	/			Z	
:	:			Z	
Otsus	otsus	0		S	sg n
kulutud	kulu	tud		V	tud
       	kulu=tu	d		S	pl n
       	kulu=tud	0		A	
       	kulu=tud	0		A	sg n
       	kulu=tud	d		A	pl n
sel	see	l		P	sg ad
   	sel	0		Y	?
9.	9.	0		O	?
Oktobril	####				
1880	1880	0		N	?
:	:			Z	
/	/			Z	
A	A	0		Y	?
.	.			Z	
_	_			Z	
Krim	####				
[	[			Z	
allkiri	all_kiri	0		S	sg n
]	]			Z	
,	,			Z	
pea	pea	0		D	
   	pea	0		S	sg g
   	pida	0		V	o
   	pea	0		S	sg n
Maddis	####				
erm	####				
,	,			Z	
kohtumees	kohtu_mees	0		S	sg n
A	A	0		Y	?
.	.			Z	
_	_			Z	
Pärn	pärn	0		S	sg n
[	[			Z	
allkiri	all_kiri	0		S	sg n
]	]			Z	
,	,			Z	
""""	""""			Z	
Josep	####				
Maddi	####				
,	,			Z	
""""	""""			Z	
