Sel	see	l		P	sg ad
   	sel	0		Y	?
17.	17.	0		O	?
Decembril	####				
*	*			Z	
*	*			Z	
*	*			Z	
*	*			Z	
Nr	Nr	0		Y	?
770	770	0		N	?
poolele	pool	le		N	sg all
       	pool	le		S	sg all
jäänud	jää	nud		V	nud
      	jäänu	d		S	pl n
      	jäänud	0		A	
      	jäänud	0		A	sg n
      	jäänud	d		A	pl n
asjus	asi	us		S	pl in
tuli	tuli	0		S	sg n
    	tule	i		V	s
kohtu	kohtu	0		V	o
     	kohus	0		S	sg g
ette	ette	0		D	
    	ette	0		K	
    	esi	tte		S	adt
Nastasa	####				
Lahtovski	####				
ja	ja	0		J	
tunnistab	tunnista	b		V	b
,	,			Z	
et	et	0		J	
se	####				
Aana	####				
Gratschkova	####				
olla	ole	a		V	da
kül	####				
abbi	####				
kisendanud	kisenda	nud		V	nud
          	kisenda=nu	d		S	pl n
          	kisenda=nud	0		A	
          	kisenda=nud	0		A	sg n
          	kisenda=nud	d		A	pl n
,	,			Z	
tema	tema	0		P	sg g
    	tema	0		P	sg n
lähud	####				
välja	välja	0		D	
     	välja	0		V	o
     	väli	0		S	adt
     	väli	0		S	sg g
     	väli	0		S	sg p
,	,			Z	
pole	ole	0		V	neg o
enam	enam	0		C	sg n
    	enam	0		D	
kedagi	keegi	dagi		P	sg p
nähud	näht	d		S	pl n
,	,			Z	
aga	aga	0		J	
naine	naine	0		S	sg n
olnud	ol=nud	0		A	
     	ol=nud	0		A	sg n
     	ol=nud	d		A	pl n
     	ole	nud		V	nud
     	olnu	d		S	pl n
rietest	####				
ärariisutud	ära_riisu=tu	d		S	pl n
           	ära_riisu=tud	0		A	
           	ära_riisu=tud	0		A	sg n
           	ära_riisu=tud	d		A	pl n
.	.			Z	
Aana	####				
Gratschkova	####				
kaest	kae	st		S	sg el
sai	saa	i		V	s
   	sai	0		S	sg n
kohtu	kohtu	0		V	o
     	kohus	0		S	sg g
poolest	pool	st		N	sg el
       	pool	st		S	sg el
       	poolene	t		A	sg p
       	poolest	0		K	
küsitud	küsi	tud		V	tud
       	küsi=tu	d		S	pl n
       	küsi=tud	0		A	
       	küsi=tud	0		A	sg n
       	küsi=tud	d		A	pl n
,	,			Z	
kas	kas	0		D	
tema	tema	0		P	sg g
    	tema	0		P	sg n
oma	oma	0		A	sg g
   	oma	0		D	
   	oma	0		P	sg g
   	oma	0		S	sg g
   	oma	0		V	o
   	oma	0		A	sg n
   	oma	0		A	sg p
   	oma	0		P	sg n
   	oma	0		P	sg p
   	oma	0		S	sg n
   	oma	0		S	sg p
riisujaid	riisuja	id		S	pl p
tunneb	tund	b		V	b
,	,			Z	
ta	tema	0		P	sg g
  	tema	0		P	sg n
kostab	kost	b		V	b
küsimise	küsimine	0		S	sg g
peale	pea	le		S	sg all
     	peale	0		D	
     	peale	0		K	
,	,			Z	
et	et	0		J	
tema	tema	0		P	sg g
    	tema	0		P	sg n
seda	see	da		P	sg p
vandega	vanne	ga		S	sg kom
kinnitada	kinnita	da		V	da
voib	####				
,	,			Z	
et	et	0		J	
tema	tema	0		P	sg g
    	tema	0		P	sg n
riisujad	riisuja	d		S	pl n
nimelt	nimelt	0		D	
      	nimi	lt		S	sg abl
need	see	d		P	pl n
kaebatud	####				
Ivan	Ivan	0		H	sg n
Lõisochi	####				
ja	ja	0		J	
Tiit	Tiit	0		H	sg n
Stepanov	####				
Kurilov	####				
olla	ole	a		V	da
olnud	ol=nud	0		A	
     	ol=nud	0		A	sg n
     	ol=nud	d		A	pl n
     	ole	nud		V	nud
     	olnu	d		S	pl n
.	.			Z	
Kolka	kolgas	0		S	sg g
sotska	####				
Timofei	####				
koschov	####				
tunnistab	tunnista	b		V	b
,	,			Z	
et	et	0		J	
Aana	####				
Gratschkova	####				
olla	ole	a		V	da
oma	oma	0		A	sg g
   	oma	0		D	
   	oma	0		P	sg g
   	oma	0		S	sg g
   	oma	0		V	o
   	oma	0		A	sg n
   	oma	0		A	sg p
   	oma	0		P	sg n
   	oma	0		P	sg p
   	oma	0		S	sg n
   	oma	0		S	sg p
peksu	peks	0		S	adt
     	peks	0		S	sg g
     	peks	0		S	sg p
temale	tema	le		P	sg all
ära	ära	0		D	
   	ära	0		V	neg o
näidanud	näita	nud		V	nud
        	näida=nu	d		S	pl n
        	näida=nud	0		A	
        	näida=nud	0		A	sg n
        	näida=nud	d		A	pl n
,	,			Z	
ja	ja	0		J	
olnud	ol=nud	0		A	
     	ol=nud	0		A	sg n
     	ol=nud	d		A	pl n
     	ole	nud		V	nud
     	olnu	d		S	pl n
tema	tema	0		P	sg g
    	tema	0		P	sg n
ihu	ihk	0		S	sg g
   	ihu	0		S	sg g
   	ihu	0		V	o
   	ihu	0		S	sg n
   	ihu	0		S	sg p
kõik	kõik	0		P	pl n
    	kõik	0		S	sg n
    	kõik	0		P	sg n
siniseks	sinine	ks		A	sg tr
        	sinine	ks		S	sg tr
peksetud	####				
ja	ja	0		J	
olnud	ol=nud	0		A	
     	ol=nud	0		A	sg n
     	ol=nud	d		A	pl n
     	ole	nud		V	nud
     	olnu	d		S	pl n
undruk	undruk	0		S	sg n
kolmeks	kolm	ks		N	sg tr
tükkis	tükki	s		V	s
      	tükkis	0		A	
      	tükkis	0		D	
      	tükkis	0		K	
kistud	kis=tu	d		S	pl n
      	kisku	tud		V	tud
      	kistud	0		A	
      	kistud	0		A	sg n
      	kistud	d		A	pl n
,	,			Z	
ja	ja	0		J	
kassavaika	####				
ka	ka	0		D	
puruks	puru	ks		S	sg tr
      	puruks	0		D	
kistud	kis=tu	d		S	pl n
      	kisku	tud		V	tud
      	kistud	0		A	
      	kistud	0		A	sg n
      	kistud	d		A	pl n
:	:			Z	
kohus	kohu	s		V	s
     	kohus	0		S	sg n
moistis	####				
:	:			Z	
Ivan	Ivan	0		H	sg n
Lõisochi	####				
ja	ja	0		J	
Tiit	Tiit	0		H	sg n
Stepanov	####				
Kurilov	####				
saavad	saa	vad		V	vad
      	saav	d		A	pl n
      	saav	d		S	pl n
edespidiseks	####				
ülekuulamiseks	üle_kuulamine	ks		S	sg tr
Keiserlikko	####				
Tartu	Tartu	0		H	adt
     	Tartu	0		H	sg g
     	Tartu	0		H	sg n
     	tartu	0		G	
Sillakohtu	silla_kohus	0		S	sg g
kätte	kätte	0		K	
     	käsi	tte		S	adt
antud	an=tu	d		S	pl n
     	and	tud		V	tud
     	antud	0		A	
     	antud	0		A	sg n
     	antud	d		A	pl n
,	,			Z	
selle	see	0		P	sg g
     	sell	e		S	pl p
põhjusel	põhjus	l		S	sg ad
,	,			Z	
et	et	0		J	
Aana	####				
Gratschkova	####				
selle	see	0		P	sg g
     	sell	e		S	pl p
peale	pea	le		S	sg all
     	peale	0		D	
     	peale	0		K	
vandega	vanne	ga		S	sg kom
tõendada	tõenda	da		V	da
lubbab	####				
,	,			Z	
et	et	0		J	
need	see	d		P	pl n
nimelt	nimelt	0		D	
      	nimi	lt		S	sg abl
tema	tema	0		P	sg g
    	tema	0		P	sg n
rõõvijad	####				
ja	ja	0		J	
peksjad	peks=ja	d		S	pl n
olnud	ol=nud	0		A	
     	ol=nud	0		A	sg n
     	ol=nud	d		A	pl n
     	ole	nud		V	nud
     	olnu	d		S	pl n
.	.			Z	
A	A	0		Y	?
.	.			Z	
_	_			Z	
Krim	####				
[	[			Z	
allkiri	all_kiri	0		S	sg n
]	]			Z	
,	,			Z	
pea	pea	0		D	
   	pea	0		S	sg g
   	pida	0		V	o
   	pea	0		S	sg n
Maddis	####				
erm	####				
,	,			Z	
kohtum	####				
.	.			Z	
A	A	0		Y	?
.	.			Z	
_	_			Z	
Pärn	pärn	0		S	sg n
[	[			Z	
allkiri	all_kiri	0		S	sg n
]	]			Z	
,	,			Z	
-	-			Z	
""""	""""			Z	
-	-			Z	
Josep	####				
Maddi	####				
,	,			Z	
-	-			Z	
""""	""""			Z	
-	-			Z	
