Protokoll	protokoll	0		S	sg n
Aavvinurme	####				
Vallakohtus	valla_kohus	s		S	sg in
sel	see	l		P	sg ad
   	sel	0		Y	?
19.	19.	0		O	?
Juunil	juuni	l		S	sg ad
1889.	1889.	0		O	?
juures	juur	s		S	sg in
      	juures	0		D	
      	juures	0		K	
olid	ole	id		V	sid
kohtueesistuja	kohtu_ees_istuja	0		S	sg g
              	kohtu_ees_istuja	0		S	sg n
Mihkel	Mihkel	0		H	sg n
      	mihkel	0		A	sg n
      	mihkel	0		S	sg n
Pihlak	####				
kohtumees	kohtu_mees	0		S	sg n
Josep	####				
Aambos	####				
Aabikohtumees	####				
Jaan	Jaan	0		H	sg n
    	jaan	0		S	sg n
    	jaan	0		Y	?
Haav	haav	0		S	sg n
Tulid	tule	id		V	sid
ette	ette	0		D	
    	ette	0		K	
    	esi	tte		S	adt
Aavvinurme	####				
valla	vald	0		S	sg g
     	valla	0		D	
ja	ja	0		J	
Karusoo	karu_soo	0		S	sg g
       	karu_sugu	0		S	sg g
       	karu_soo	0		S	sg n
talu	talu	0		S	sg g
    	talu	0		V	o
    	talu	0		S	sg n
    	talu	0		S	sg p
peremees	pere_mees	0		S	sg n
Jüri	Jüri	0		H	sg g
    	Jüri	0		H	sg n
Reisenpuk	####				
Tooma	Toomas	0		H	sg g
     	too	ma		V	ma
poeg	poeg	0		S	sg n
ja	ja	0		J	
Aavvinurme	####				
valla	vald	0		S	sg g
     	valla	0		D	
inimene	inimene	0		S	sg n
Aleksander	Aleksander	0		H	sg n
Olisaar	####				
Pauluse	Paulus	0		H	sg g
poeg	poeg	0		S	sg n
kes	kes	0		P	pl n
   	kes	0		P	sg n
Lohosu	####				
vallas	vald	s		S	sg in
elab	ela	b		V	b
ja	ja	0		J	
palusid	palu	sid		S	pl p
       	palu	sid		V	sid
Vallakohut	valla_kohus	t		S	sg p
nende	see	de		P	pl g
     	tema	de		P	pl g
kaupa	kaup	0		S	adt
     	kaup	0		S	sg p
     	kaupa	0		K	
ja	ja	0		J	
kontrakt	####				
kinnitada	kinnita	da		V	da
selle	see	0		P	sg g
     	sell	e		S	pl p
üle	üle	0		D	
   	üle	0		K	
et	et	0		J	
Jüri	Jüri	0		H	sg g
    	Jüri	0		H	sg n
Reisenpuk	####				
oma	oma	0		A	sg g
   	oma	0		D	
   	oma	0		P	sg g
   	oma	0		S	sg g
   	oma	0		V	o
   	oma	0		A	sg n
   	oma	0		A	sg p
   	oma	0		P	sg n
   	oma	0		P	sg p
   	oma	0		S	sg n
   	oma	0		S	sg p
venna	vend	0		S	sg g
August	august	0		S	sg n
      	auk	st		S	sg el
      	August	0		H	sg n
reisnepukki	####				
17	17	0		N	?
Aaastad	####				
vana	vana	0		A	sg g
    	vana	0		A	sg n
    	vana	0		A	sg p
    	vana	0		S	sg g
    	vana	0		S	sg n
    	vana	0		S	sg p
Aleksander	Aleksander	0		H	sg n
Olisaare	####				
juure	juur	0		S	sg g
ühe	üks	0		N	sg g
   	üks	0		P	sg g
   	ühe	0		S	sg n
Aaasta	####				
peale	pea	le		S	sg all
     	peale	0		D	
     	peale	0		K	
rätsepa	rätsep	0		S	sg g
ametid	amet	d		S	pl n
õppima	õppi	ma		V	ma
paneb	pane	b		V	b
.	.			Z	
ja	ja	0		J	
peab	pida	b		V	b
Aleksander	Aleksander	0		H	sg n
Olisaar	####				
August	august	0		S	sg n
      	auk	st		S	sg el
      	August	0		H	sg n
Reisenpukkile	####				
selle	see	0		P	sg g
     	sell	e		S	pl p
aja	aeg	0		S	sg g
   	aja	0		V	o
sees	sees	0		D	
    	sees	0		K	
rätsepa	rätsep	0		S	sg g
amet	amet	0		S	sg n
täiesti	täiesti	0		D	
kätte	kätte	0		K	
     	käsi	tte		S	adt
õppetama	####				
mis	mis	0		P	pl n
   	mis	0		P	sg n
ette	ette	0		D	
    	ette	0		K	
    	esi	tte		S	adt
Jüri	Jüri	0		H	sg g
    	Jüri	0		H	sg n
Reisenpuk	####				
Aleksander	Aleksander	0		H	sg n
Olisaarele	####				
5	5	0		N	?
rubla	rubla	0		S	sg g
     	rubla	0		S	sg n
     	rubla	0		S	sg p
õppetuse	õppe=tus	0		S	sg g
raha	raha	0		S	sg g
    	raha	0		S	sg n
    	raha	0		S	sg p
maksab	maks	b		V	b
,	,			Z	
kui	kui	0		D	
   	kui	0		J	
aga	aga	0		J	
Aleksander	Aleksander	0		H	sg n
Olisaar	####				
ametid	amet	d		S	pl n
ei	ei	0		D	
  	ei	0		V	neg
õppa	õppa	0		V	o
siis	siis	0		D	
    	siis	0		J	
maksab	maks	b		V	b
tema	tema	0		P	sg g
    	tema	0		P	sg n
poisile	poiss	le		S	sg all
August	august	0		S	sg n
      	auk	st		S	sg el
      	August	0		H	sg n
Reisenpukile	####				
25	25	0		N	?
rubla	rubla	0		S	sg g
     	rubla	0		S	sg n
     	rubla	0		S	sg p
tagasi	tagasi	0		D	
      	tagasi	0		K	
tenistuse	####				
eest	eest	0		D	
    	eest	0		K	
    	esi	st		S	sg el
.	.			Z	
Jüri	Jüri	0		H	sg g
    	Jüri	0		H	sg n
Reisenpuk	####				
(	(			Z	
allkiri	all_kiri	0		S	sg n
)	)			Z	
Aleksander	Aleksander	0		H	sg n
Olisaar	####				
räkis	####				
et	et	0		J	
se	####				
tõsi	tõsi	0		S	pl p
    	tõsi	0		S	sg n
et	et	0		J	
tema	tema	0		P	sg g
    	tema	0		P	sg n
on	ole	0		V	b
  	ole	0		V	vad
Tooma	Toomas	0		H	sg g
     	too	ma		V	ma
poja	poeg	0		S	sg g
    	poja	0		S	sg g
    	poja	0		S	sg n
    	poja	0		S	sg p
Jüri	Jüri	0		H	sg g
    	Jüri	0		H	sg n
Reisenpukkiga	####				
seda	see	da		P	sg p
kaupa	kaup	0		S	adt
     	kaup	0		S	sg p
     	kaupa	0		K	
tehnud	####				
et	et	0		J	
se	####				
oma	oma	0		A	sg g
   	oma	0		D	
   	oma	0		P	sg g
   	oma	0		S	sg g
   	oma	0		V	o
   	oma	0		A	sg n
   	oma	0		A	sg p
   	oma	0		P	sg n
   	oma	0		P	sg p
   	oma	0		S	sg n
   	oma	0		S	sg p
venda	vend	0		S	adt
     	vend	0		S	sg p
August	august	0		S	sg n
      	auk	st		S	sg el
      	August	0		H	sg n
Reisenpukki	####				
tema	tema	0		P	sg g
    	tema	0		P	sg n
juure	juur	0		S	sg g
ühe	üks	0		N	sg g
   	üks	0		P	sg g
   	ühe	0		S	sg n
Aaasta	####				
peale	pea	le		S	sg all
     	peale	0		D	
     	peale	0		K	
rätsepa	rätsep	0		S	sg g
ametid	amet	d		S	pl n
õppima	õppi	ma		V	ma
paneb	pane	b		V	b
ning	ning	0		J	
temale	tema	le		P	sg all
viis	vii	s		V	s
    	viis	0		N	sg n
    	viis	0		S	sg n
rubla	rubla	0		S	sg g
     	rubla	0		S	sg n
     	rubla	0		S	sg p
õppetuse	õppe=tus	0		S	sg g
raha	raha	0		S	sg g
    	raha	0		S	sg n
    	raha	0		S	sg p
maksab	maks	b		V	b
ja	ja	0		J	
lubab	luba	b		V	b
tema	tema	0		P	sg g
    	tema	0		P	sg n
August	august	0		S	sg n
      	auk	st		S	sg el
      	August	0		H	sg n
Reisenpukkile	####				
ühe	üks	0		N	sg g
   	üks	0		P	sg g
   	ühe	0		S	sg n
Aaasta	####				
jooksul	jooks	l		S	sg ad
       	jooksul	0		K	
rätsepa	rätsep	0		S	sg g
ameti	amet	0		S	sg g
kätte	kätte	0		K	
     	käsi	tte		S	adt
õppetada	####				
,	,			Z	
kauba	kaup	0		S	sg g
tegijad	tegija	d		S	pl n
lepisid	####				
veel	veel	0		D	
    	vesi	l		S	sg ad
selle	see	0		P	sg g
     	sell	e		S	pl p
üle	üle	0		D	
   	üle	0		K	
kokku	kokku	0		D	
     	kogu	0		S	adt
et	et	0		J	
kui	kui	0		D	
   	kui	0		J	
kummagi	kumbki	gi		P	sg g
poolt	pool	t		N	sg p
     	pool	t		S	sg p
     	poolt	0		D	
     	poolt	0		K	
kontrakt	####				
rikkutud	####				
saab	saa	b		V	b
.	.			Z	
/	/			Z	
välja	välja	0		D	
     	välja	0		V	o
     	väli	0		S	adt
     	väli	0		S	sg g
     	väli	0		S	sg p
arvatud	arva	tud		V	tud
       	arva=tu	d		S	pl n
       	arva=tud	0		A	
       	arva=tud	0		A	sg n
       	arva=tud	d		A	pl n
raske	rask	e		S	pl p
     	raske	0		A	sg g
     	raske	0		A	sg n
haigus	haigus	0		S	sg n
      	haik	s		S	sg in
ehk	ehk	0		D	
   	ehk	0		J	
surma	surm	0		S	adt
     	surm	0		S	sg g
     	surma	0		V	o
     	surm	0		S	sg p
juhtumine	juhtumine	0		S	sg n
:	:			Z	
/	/			Z	
siis	siis	0		D	
    	siis	0		J	
maksab	maks	b		V	b
se	####				
kahju	kahi	0		S	adt
     	kahi	0		S	sg g
     	kahi	0		S	sg p
     	kahju	0		S	sg g
     	kahju	0		S	sg n
     	kahju	0		S	sg p
tegia	####				
kahju	kahi	0		S	adt
     	kahi	0		S	sg g
     	kahi	0		S	sg p
     	kahju	0		S	sg g
     	kahju	0		S	sg n
     	kahju	0		S	sg p
sajale	sada	le		N	sg all
25	25	0		N	?
rubl	####				
kahju	kahi	0		S	adt
     	kahi	0		S	sg g
     	kahi	0		S	sg p
     	kahju	0		S	sg g
     	kahju	0		S	sg n
     	kahju	0		S	sg p
tasumist	tasumine	t		S	sg p
.	.			Z	
ja	ja	0		J	
maksis	maks	is		V	s
      	maksi	s		S	sg in
Jüri	Jüri	0		H	sg g
    	Jüri	0		H	sg n
Reisenpuk	####				
Aleksander	Aleksander	0		H	sg n
Olisaarele	####				
5	5	0		N	?
rubla	rubla	0		S	sg g
     	rubla	0		S	sg n
     	rubla	0		S	sg p
välja	välja	0		D	
     	välja	0		V	o
     	väli	0		S	adt
     	väli	0		S	sg g
     	väli	0		S	sg p
.	.			Z	
Aleksander	Aleksander	0		H	sg n
Olisaar	####				
.	.			Z	
(	(			Z	
allkiri	all_kiri	0		S	sg n
)	)			Z	
Jüri	Jüri	0		H	sg g
    	Jüri	0		H	sg n
Reisenpuk	####				
(	(			Z	
allkiri	all_kiri	0		S	sg n
)	)			Z	
1889	1889	0		N	?
Juuni	juuni	0		S	sg g
     	juuni	0		S	sg n
kuu	kuu	0		S	sg g
   	kuu	0		S	sg n
19	19	0		N	?
päeval	päev	l		S	sg ad
on	ole	0		V	b
  	ole	0		V	vad
se	####				
eesseisav	####				
suusana	suusk	na		S	sg es
lepping	####				
ja	ja	0		J	
kontrakt	####				
Aavvinurme	####				
Vallakohtule	valla_kohus	le		S	sg all
I	I	0		O	?
 	I	0		Y	?
 	j	0		Y	?
Jurjevi	####				
Ülema	ülem	0		C	sg g
     	ülem	0		S	sg g
talurahva	talu_rahvas	0		S	sg g
kohtu	kohtu	0		V	o
     	kohus	0		S	sg g
ringkonnas	ringkond	s		S	sg in
Aavvinurme	####				
Vallakohtumajas	valla_kohtu_maja	s		S	sg in
kinnitamiseks	kinnitamine	ks		S	sg tr
ette	ette	0		D	
    	ette	0		K	
    	esi	tte		S	adt
kantud	kand	tud		V	tud
      	kantu	d		S	pl n
      	kantud	0		A	
      	kantud	0		A	sg n
      	kantud	d		A	pl n
Aavvinurme	####				
Valla	vald	0		S	sg g
     	valla	0		D	
inimeste	inimene	te		S	pl g
Jüri	Jüri	0		H	sg g
    	Jüri	0		H	sg n
Reisenpuk	####				
Tooma	Toomas	0		H	sg g
     	too	ma		V	ma
poja	poeg	0		S	sg g
    	poja	0		S	sg g
    	poja	0		S	sg n
    	poja	0		S	sg p
ja	ja	0		J	
Aleksander	Aleksander	0		H	sg n
Olisaar	####				
Pauluse	Paulus	0		H	sg g
poja	poeg	0		S	sg g
    	poja	0		S	sg g
    	poja	0		S	sg n
    	poja	0		S	sg p
poolt	pool	t		N	sg p
     	pool	t		S	sg p
     	poolt	0		D	
     	poolt	0		K	
selle	see	0		P	sg g
     	sell	e		S	pl p
asja	asi	0		S	adt
    	asi	0		S	sg g
    	asi	0		S	sg p
ule	####				
et	et	0		J	
Aleksander	Aleksander	0		H	sg n
Olisaar	####				
August	august	0		S	sg n
      	auk	st		S	sg el
      	August	0		H	sg n
Reisenpukkile	####				
ühe	üks	0		N	sg g
   	üks	0		P	sg g
   	ühe	0		S	sg n
Aaasta	####				
jooksul	jooks	l		S	sg ad
       	jooksul	0		K	
rätsepa	rätsep	0		S	sg g
ameti	amet	0		S	sg g
õppetab	####				
,	,			Z	
ja	ja	0		J	
on	ole	0		V	b
  	ole	0		V	vad
need	see	d		P	pl n
molemad	####				
leppingu	####				
tegijad	tegija	d		S	pl n
Vallakohtule	valla_kohus	le		S	sg all
tuntud	tund	tud		V	tud
      	tuntu	d		S	pl n
      	tuntud	0		A	
      	tuntud	0		A	sg n
      	tuntud	d		A	pl n
ja	ja	0		J	
teatud	tea=tu	d		S	pl n
      	tead	tud		V	tud
      	teatud	0		A	
      	teatud	0		A	sg n
      	teatud	d		A	pl n
ning	ning	0		J	
nende	see	de		P	pl g
     	tema	de		P	pl g
lepping	####				
kohtu	kohtu	0		V	o
     	kohus	0		S	sg g
akti	akt	0		S	adt
    	akt	0		S	sg g
    	akt	0		S	sg p
ramatuse	####				
N 14	N14	0		Y	?
all	all	0		D	
   	all	0		K	
üles	üles	0		D	
kirjutud	####				
ja	ja	0		J	
kohtu	kohtu	0		V	o
     	kohus	0		S	sg g
poolest	pool	st		N	sg el
       	pool	st		S	sg el
       	poolene	t		A	sg p
       	poolest	0		K	
kinnitud	kinnitu	d		V	d
selle	see	0		P	sg g
     	sell	e		S	pl p
tingimisega	tingimine	ga		S	sg kom
et	et	0		J	
August	august	0		S	sg n
      	auk	st		S	sg el
      	August	0		H	sg n
Reisenpuk	####				
peab	pida	b		V	b
isi	####				
vallakohtu	valla_kohus	0		S	sg g
juure	juur	0		S	sg g
tulema	tule	ma		V	ma
ja	ja	0		J	
kohtule	kohus	le		S	sg all
üles	üles	0		D	
andma	and	ma		V	ma
et	et	0		J	
kas	kas	0		D	
tema	tema	0		P	sg g
    	tema	0		P	sg n
selle	see	0		P	sg g
     	sell	e		S	pl p
kaubaga	kaup	ga		S	sg kom
rahul	rahu	l		S	sg ad
     	rahul	0		D	
on	ole	0		V	b
  	ole	0		V	vad
Livlandi	####				
talurahva	talu_rahvas	0		S	sg g
säduse	####				
põhjusel	põhjus	l		S	sg ad
Aaastast	####				
18.60	18.60	0		N	?
§	§	0		Y	?
945	945	0		N	?
järel	järel	0		D	
     	järel	0		K	
.	.			Z	
M. Pihlak	####				
.	.			Z	
(	(			Z	
allkiri	all_kiri	0		S	sg n
)	)			Z	
J. Aambus	####				
.	.			Z	
(	(			Z	
allkiri	all_kiri	0		S	sg n
)	)			Z	
J. Aaav	####				
.	.			Z	
(	(			Z	
allkiri	all_kiri	0		S	sg n
)	)			Z	
Kirjutaja	kirjutaja	0		S	sg g
         	kirjutaja	0		S	sg n
Schulbach	####				
(	(			Z	
allkiri	all_kiri	0		S	sg n
)	)			Z	
