Tuli	tuli	0		S	sg n
    	tule	i		V	s
ette	ette	0		D	
    	ette	0		K	
    	esi	tte		S	adt
Palla	####				
koolmeister	kool_meister	0		S	sg n
Friedrich	Friedrich	0		H	sg n
Martinson	Martinson	0		H	sg n
ja	ja	0		J	
andis	and	is		V	s
üles	üles	0		D	
et	et	0		J	
temal	tema	l		P	sg ad
1½	####				
sülda	süld	0		S	adt
     	süld	0		S	sg p
põletuse	põletus	0		S	sg g
puid	puu	id		S	pl p
vähem	vähem	0		C	sg n
     	vähem	0		D	
antud	an=tu	d		S	pl n
     	and	tud		V	tud
     	antud	0		A	
     	antud	0		A	sg n
     	antud	d		A	pl n
kui	kui	0		D	
   	kui	0		J	
saama	saa	ma		V	ma
     	saam	0		S	adt
     	saam	0		S	sg g
     	saam	0		S	sg p
pidi	pida	i		V	s
    	pidi	0		K	
.	.			Z	
15	15	0		N	?
sülda	süld	0		S	adt
     	süld	0		S	sg p
pidanud	pida	nud		V	nud
       	pida=nu	d		S	pl n
       	pida=nud	0		A	
       	pida=nud	0		A	sg n
       	pida=nud	d		A	pl n
saama	saa	ma		V	ma
     	saam	0		S	adt
     	saam	0		S	sg g
     	saam	0		S	sg p
ja	ja	0		J	
13	13	0		N	?
½	####				
sülda	süld	0		S	adt
     	süld	0		S	sg p
saanudki	saa	nud	ki	V	nud
        	saanu	d	ki	S	pl n
palus	palu	s		S	sg in
     	palu	s		V	s
seda	see	da		P	sg p
asja	asi	0		S	adt
    	asi	0		S	sg g
    	asi	0		S	sg p
järelekuulata	####				
.	.			Z	
Tuli	tuli	0		S	sg n
    	tule	i		V	s
ette	ette	0		D	
    	ette	0		K	
    	esi	tte		S	adt
vallavanem	valla_vanem	0		S	sg n
Josep	####				
Soieva	####				
ja	ja	0		J	
andis	and	is		V	s
üles	üles	0		D	
et	et	0		J	
vana	vana	0		A	sg g
    	vana	0		A	sg n
    	vana	0		A	sg p
    	vana	0		S	sg g
    	vana	0		S	sg n
    	vana	0		S	sg p
vallavalitsus	valla_valitsus	0		S	sg n
temale	tema	le		P	sg all
etteandnud	ette_and=nu	d		S	pl n
          	ette_and=nud	0		A	
          	ette_and=nud	0		A	sg n
          	ette_and=nud	d		A	pl n
et	et	0		J	
Martinson	Martinson	0		H	sg n
mineva	minev	0		A	sg g
aasta	aasta	0		S	sg g
     	aasta	0		S	sg n
1½	####				
sülda	süld	0		S	adt
     	süld	0		S	sg p
puid	puu	id		S	pl p
rohkem	rohkem	0		D	
saanud	saa	nud		V	nud
      	saa=nud	0		A	
      	saa=nud	0		A	sg n
      	saa=nud	d		A	pl n
      	saanu	d		S	pl n
.	.			Z	
Tuli	tuli	0		S	sg n
    	tule	i		V	s
ette	ette	0		D	
    	ette	0		K	
    	esi	tte		S	adt
endine	endine	0		A	sg n
vallavanem	valla_vanem	0		S	sg n
Gustav	Gustav	0		H	sg n
kokka	kokk	0		S	adt
     	kokka	0		V	o
     	kokk	0		S	sg p
ja	ja	0		J	
andis	and	is		V	s
üles	üles	0		D	
et	et	0		J	
seda	see	da		P	sg p
endised	endine	d		A	pl n
võõrmündrid	####				
Josep	####				
Rosenberg	Rosenberg	0		H	sg n
ja	ja	0		J	
Kustav	kus=tav	0		A	sg n
      	kuse	tav		V	tav
Vaht	vaht	0		S	sg n
tead	tead	d		V	d
sest	see	st		P	sg el
    	sest	0		J	
nemad	tema	d		P	pl n
vedanud	veda	nud		V	nud
       	veda=nu	d		S	pl n
       	veda=nud	0		A	
       	veda=nud	0		A	sg n
       	veda=nud	d		A	pl n
puid	puu	id		S	pl p
.	.			Z	
endine	endine	0		A	sg n
vallavõõrmünder	####				
Josep	####				
Rosenberg	Rosenberg	0		H	sg n
ettekutsutud	ette_kutsutu	d		S	pl n
            	ette_kutsutud	0		A	
            	ette_kutsutud	0		A	sg n
            	ette_kutsutud	d		A	pl n
andis	and	is		V	s
üles	üles	0		D	
et	et	0		J	
see	see	0		P	sg n
kül	####				
õige	õige	0		A	sg g
    	õige	0		A	sg n
    	õige	0		D	
olla	ole	a		V	da
et	et	0		J	
Martinson	Martinson	0		H	sg n
1½	####				
sülda	süld	0		S	adt
     	süld	0		S	sg p
puid	puu	id		S	pl p
mineva	minev	0		A	sg g
aasta	aasta	0		S	sg g
     	aasta	0		S	sg n
rohkem	rohkem	0		D	
saanud	saa	nud		V	nud
      	saa=nud	0		A	
      	saa=nud	0		A	sg n
      	saa=nud	d		A	pl n
      	saanu	d		S	pl n
,	,			Z	
need	see	d		P	pl n
puud	puu	d		S	pl n
    	puud	0		S	sg n
    	puu	d		S	sg p
ei	ei	0		D	
  	ei	0		V	neg
ole	ole	0		V	o
temale	tema	le		P	sg all
kül	####				
mitte	mitte	0		D	
kätte	kätte	0		K	
     	käsi	tte		S	adt
mõõdetud	mõõt	tud		V	tud
        	mõõde=tu	d		S	pl n
        	mõõdetud	0		A	
        	mõõdetud	0		A	sg n
        	mõõdetud	d		A	pl n
aga	aga	0		J	
puid	puu	id		S	pl p
oli	ole	i		V	s
niipalju	nii_palju	0		D	
olnud	ol=nud	0		A	
     	ol=nud	0		A	sg n
     	ol=nud	d		A	pl n
     	ole	nud		V	nud
     	olnu	d		S	pl n
seda	see	da		P	sg p
teada	tead	a		V	da
Kusta	Kusta	0		H	sg g
     	Kusta	0		H	sg n
     	kuse	ta		V	da
     	kuse	ta		V	ta
Vaht	vaht	0		S	sg n
kõige	kõik	0		P	sg g
     	kõige	0		D	
paremini	paremini	0		D	
.	.			Z	
Otsus	otsus	0		S	sg n
:	:			Z	
Kusta	Kusta	0		H	sg g
     	Kusta	0		H	sg n
     	kuse	ta		V	da
     	kuse	ta		V	ta
Vaht	vaht	0		S	sg n
ettetarvitada	####				
.	.			Z	
kohtumees	kohtu_mees	0		S	sg n
J. Stam	####				
.	.			Z	
kohtumees	kohtu_mees	0		S	sg n
M. Piiri	####				
.	.			Z	
abi	abi	0		S	sg g
   	abi	0		S	sg n
   	abi	0		S	sg p
kohtumees	kohtu_mees	0		S	sg n
J. Tagoma	####				
.	.			Z	
Kirjutaja	kirjutaja	0		S	sg g
         	kirjutaja	0		S	sg n
Carl	Carl	0		H	sg n
Palm	palm	0		S	sg n
.	.			Z	
(	(			Z	
allkiri	all_kiri	0		S	sg n
)	)			Z	
