Haslava	####				
kogukonna	kogukond	0		S	sg g
kohus	kohu	s		V	s
     	kohus	0		S	sg n
10	10	0		N	?
Juunil	juuni	l		S	sg ad
1881.	1881.	0		O	?
juures	juur	s		S	sg in
      	juures	0		D	
      	juures	0		K	
istus	ist	s		S	sg in
     	istu	s		V	s
:	:			Z	
Peakohtumees	pea_kohtu_mees	0		S	sg n
Mihkel	Mihkel	0		H	sg n
      	mihkel	0		A	sg n
      	mihkel	0		S	sg n
Klaos	####				
kohtumees	kohtu_mees	0		S	sg n
Johan	Johan	0		H	sg n
Udel	####				
dito	####				
Johan	Johan	0		H	sg n
Jantsel	####				
tüli	tüli	0		S	sg g
    	tüli	0		S	sg n
    	tüli	0		S	sg p
ette	ette	0		D	
    	ette	0		K	
    	esi	tte		S	adt
Johan	Johan	0		H	sg n
Meinhard	Meinhard	0		H	sg n
Krimamist	####				
päri	päri	0		D	
    	päri	0		V	o
ja	ja	0		J	
kaebas	kaeba	s		V	s
:	:			Z	
tema	tema	0		P	sg g
    	tema	0		P	sg n
kaubelnud	kauple	nud		V	nud
         	kaubel=nu	d		S	pl n
         	kaubel=nud	0		A	
         	kaubel=nud	0		A	sg n
         	kaubel=nud	d		A	pl n
Jaan	Jaan	0		H	sg n
    	jaan	0		S	sg n
    	jaan	0		Y	?
Roijlandi	####				
käest	käest	0		K	
     	käsi	st		S	sg el
oma	oma	0		A	sg g
   	oma	0		D	
   	oma	0		P	sg g
   	oma	0		S	sg g
   	oma	0		V	o
   	oma	0		A	sg n
   	oma	0		A	sg p
   	oma	0		P	sg n
   	oma	0		P	sg p
   	oma	0		S	sg n
   	oma	0		S	sg p
poole	pool	0		N	sg g
     	pool	0		S	sg g
     	pool	e		S	pl p
     	poole	0		K	
     	poole	0		S	sg n
tera	tera	0		S	sg g
    	tera	0		S	sg n
    	tera	0		S	sg p
mehele	mees	le		S	sg all
Johan	Johan	0		H	sg n
Steinbergile	####				
ühe	üks	0		N	sg g
   	üks	0		P	sg g
   	ühe	0		S	sg n
hobuse	hobune	0		S	sg g
40	40	0		N	?
rubl	####				
.	.			Z	
eest	eest	0		D	
    	eest	0		K	
    	esi	st		S	sg el
ja	ja	0		J	
andnud	and	nud		V	nud
      	and=nu	d		S	pl n
      	and=nud	0		A	
      	and=nud	0		A	sg n
      	and=nud	d		A	pl n
kohe	kohe	0		A	sg n
    	kohe	0		D	
15	15	0		N	?
rubl	####				
.	.			Z	
käeraha	käe_raha	0		S	sg g
       	käe_raha	0		S	sg n
       	käe_raha	0		S	sg p
kaebatavale	####				
;	;			Z	
kaup	kaup	0		S	sg n
olnud	ol=nud	0		A	
     	ol=nud	0		A	sg n
     	ol=nud	d		A	pl n
     	ole	nud		V	nud
     	olnu	d		S	pl n
,	,			Z	
et	et	0		J	
2	2	0		N	?
peavad	pida	vad		V	vad
pärast	pära	st		S	sg el
      	pärane	t		A	sg p
      	pärast	0		D	
      	pärast	0		K	
peab	pida	b		V	b
hobune	hobune	0		S	sg n
ära	ära	0		D	
   	ära	0		V	neg o
tõotama	tõota	ma		V	ma
,	,			Z	
ehk	ehk	0		D	
   	ehk	0		J	
ka	ka	0		D	
peale	pea	le		S	sg all
     	peale	0		D	
     	peale	0		K	
selle	see	0		P	sg g
     	sell	e		S	pl p
,	,			Z	
siis	siis	0		D	
    	siis	0		J	
võib	või	b		V	b
aga	aga	0		J	
tema	tema	0		P	sg g
    	tema	0		P	sg n
(	(			Z	
Jaan	Jaan	0		H	sg n
    	jaan	0		S	sg n
    	jaan	0		Y	?
roikand	####				
)	)			Z	
see	see	0		P	sg n
hobusega	hobune	ga		S	sg kom
orjata	orja	ta		V	da
      	ori	ta		S	sg ab
      	orja	ta		V	ta
.	.			Z	
paari	paar	0		N	adt
     	paar	0		N	sg g
     	paar	0		S	adt
     	paar	0		S	sg g
     	paari	0		D	
     	paari	0		V	o
     	paar	0		N	sg p
     	paar	0		S	sg p
peavad	pida	vad		V	vad
pärast	pära	st		S	sg el
      	pärane	t		A	sg p
      	pärast	0		D	
      	pärast	0		K	
läinud	läinu	d		S	pl n
      	läinud	0		A	
      	läinud	0		A	sg n
      	läinud	d		A	pl n
      	mine	nud		V	nud
Joh	####				
.	.			Z	
Steinberg	####				
see	see	0		P	sg n
hobusele	hobune	le		S	sg all
järele	järele	0		D	
      	järele	0		K	
,	,			Z	
mis	mis	0		P	pl n
   	mis	0		P	sg n
aga	aga	0		J	
kaebatav	####				
temale	tema	le		P	sg all
ei	ei	0		D	
  	ei	0		V	neg
ole	ole	0		V	o
andnud	and	nud		V	nud
      	and=nu	d		S	pl n
      	and=nud	0		A	
      	and=nud	0		A	sg n
      	and=nud	d		A	pl n
,	,			Z	
nüüd	nüüd	0		D	
nõuab	nõud	b		V	b
tema	tema	0		P	sg g
    	tema	0		P	sg n
see	see	0		P	sg n
15	15	0		N	?
rubl	####				
.	.			Z	
käeraha	käe_raha	0		S	sg g
       	käe_raha	0		S	sg n
       	käe_raha	0		S	sg p
tagasi	tagasi	0		D	
      	tagasi	0		K	
ja	ja	0		J	
20	20	0		N	?
rubl	####				
.	.			Z	
kahjutasumiseks	kahju_tasumine	ks		S	sg tr
selle	see	0		P	sg g
     	sell	e		S	pl p
,	,			Z	
et	et	0		J	
tema	tema	0		P	sg g
    	tema	0		P	sg n
hobust	hobu	st		S	sg el
      	hobune	t		S	sg p
ei	ei	0		D	
  	ei	0		V	neg
ole	ole	0		V	o
saanud	saa	nud		V	nud
      	saa=nud	0		A	
      	saa=nud	0		A	sg n
      	saa=nud	d		A	pl n
      	saanu	d		S	pl n
ja	ja	0		J	
oma	oma	0		A	sg g
   	oma	0		D	
   	oma	0		P	sg g
   	oma	0		S	sg g
   	oma	0		V	o
   	oma	0		A	sg n
   	oma	0		A	sg p
   	oma	0		P	sg n
   	oma	0		P	sg p
   	oma	0		S	sg n
   	oma	0		S	sg p
tööga	töö	ga		S	sg kom
seisma	seis	ma		V	ma
pidand	####				
jääma	jää	ma		V	ma
     	jääm	0		S	adt
     	jääm	0		S	sg g
     	jääm	0		S	sg p
.	.			Z	
Jaan	Jaan	0		H	sg n
    	jaan	0		S	sg n
    	jaan	0		Y	?
roikand	####				
kaebuse	kaebus	0		S	sg g
üle	üle	0		D	
   	üle	0		K	
küsitud	küsi	tud		V	tud
       	küsi=tu	d		S	pl n
       	küsi=tud	0		A	
       	küsi=tud	0		A	sg n
       	küsi=tud	d		A	pl n
,	,			Z	
ei	ei	0		D	
  	ei	0		V	neg
salga	salga	0		V	o
     	salk	0		S	sg g
oma	oma	0		A	sg g
   	oma	0		D	
   	oma	0		P	sg g
   	oma	0		S	sg g
   	oma	0		V	o
   	oma	0		A	sg n
   	oma	0		A	sg p
   	oma	0		P	sg n
   	oma	0		P	sg p
   	oma	0		S	sg n
   	oma	0		S	sg p
hobust	hobu	st		S	sg el
      	hobune	t		S	sg p
Johan	Johan	0		H	sg n
Steinbergile	####				
40	40	0		N	?
rubl	####				
.	.			Z	
eest	eest	0		D	
    	eest	0		K	
    	esi	st		S	sg el
ära	ära	0		D	
   	ära	0		V	neg o
kaubelnud	kauple	nud		V	nud
         	kaubel=nu	d		S	pl n
         	kaubel=nud	0		A	
         	kaubel=nud	0		A	sg n
         	kaubel=nud	d		A	pl n
,	,			Z	
kui	kui	0		D	
   	kui	0		J	
ka	ka	0		D	
15	15	0		N	?
rubl	####				
.	.			Z	
käeraha	käe_raha	0		S	sg g
       	käe_raha	0		S	sg n
       	käe_raha	0		S	sg p
saanud	saa	nud		V	nud
      	saa=nud	0		A	
      	saa=nud	0		A	sg n
      	saa=nud	d		A	pl n
      	saanu	d		S	pl n
olevat	ole	vat		V	vat
      	olev	t		A	sg p
      	olev	t		S	sg p
,	,			Z	
ütles	ütle	s		V	s
aga	aga	0		J	
kaupa	kaup	0		S	adt
     	kaup	0		S	sg p
     	kaupa	0		K	
nõnda	nõnda	0		D	
olevat	ole	vat		V	vat
      	olev	t		A	sg p
      	olev	t		S	sg p
,	,			Z	
et	et	0		J	
Steinberg	####				
tõisel	####				
pääval	####				
pidand	####				
see	see	0		P	sg n
hobune	hobune	0		S	sg n
ära	ära	0		D	
   	ära	0		V	neg o
viima	vii	ma		V	ma
ja	ja	0		J	
raha	raha	0		S	sg g
    	raha	0		S	sg n
    	raha	0		S	sg p
tooma	too	ma		V	ma
,	,			Z	
mis	mis	0		P	pl n
   	mis	0		P	sg n
aga	aga	0		J	
tegemata	tege	mata		V	mata
        	tegemata	0		A	
jätnud	jät	nud		V	nud
      	jät=nu	d		S	pl n
      	jät=nud	0		A	
      	jät=nud	0		A	sg n
      	jät=nud	d		A	pl n
,	,			Z	
ja	ja	0		J	
peale	pea	le		S	sg all
     	peale	0		D	
     	peale	0		K	
termini	term	ni		S	sg ter
       	termin	0		S	sg g
tema	tema	0		P	sg g
    	tema	0		P	sg n
poole	pool	0		N	sg g
     	pool	0		S	sg g
     	pool	e		S	pl p
     	poole	0		K	
     	poole	0		S	sg n
tulnud	tul=nud	0		A	
      	tul=nud	0		A	sg n
      	tul=nud	d		A	pl n
      	tule	nud		V	nud
      	tulnu	d		S	pl n
,	,			Z	
hobust	hobu	st		S	sg el
      	hobune	t		S	sg p
kätte	kätte	0		K	
     	käsi	tte		S	adt
tahtnud	taht	nud		V	nud
       	taht=nu	d		S	pl n
       	taht=nud	0		A	
       	taht=nud	0		A	sg n
       	taht=nud	d		A	pl n
saada	saa	da		V	da
     	saat	0		V	o
     	saa	da		V	ta
,	,			Z	
aga	aga	0		J	
enesel	ise	l		P	sg ad
ei	ei	0		D	
  	ei	0		V	neg
ole	ole	0		V	o
kõik	kõik	0		P	pl n
    	kõik	0		S	sg n
    	kõik	0		P	sg n
raha	raha	0		S	sg g
    	raha	0		S	sg n
    	raha	0		S	sg p
olnud	ol=nud	0		A	
     	ol=nud	0		A	sg n
     	ol=nud	d		A	pl n
     	ole	nud		V	nud
     	olnu	d		S	pl n
,	,			Z	
mispeale	mis_peale	0		D	
tema	tema	0		P	sg g
    	tema	0		P	sg n
hobust	hobu	st		S	sg el
      	hobune	t		S	sg p
ei	ei	0		D	
  	ei	0		V	neg
ole	ole	0		V	o
annud	####				
ja	ja	0		J	
14	14	0		N	?
rubl	####				
.	.			Z	
käeraha	käe_raha	0		S	sg g
       	käe_raha	0		S	sg n
       	käe_raha	0		S	sg p
tagasi	tagasi	0		D	
      	tagasi	0		K	
pakunud	####				
,	,			Z	
mis	mis	0		P	pl n
   	mis	0		P	sg n
Steinberg	####				
vastu	vastu	0		D	
     	vastu	0		K	
ei	ei	0		D	
  	ei	0		V	neg
ole	ole	0		V	o
võtnud	võt	nud		V	nud
      	võt=nu	d		S	pl n
      	võt=nud	0		A	
      	võt=nud	0		A	sg n
      	võt=nud	d		A	pl n
.	.			Z	
Johan	Johan	0		H	sg n
Steinberg	####				
ütles	ütle	s		V	s
välja	välja	0		D	
     	välja	0		V	o
     	väli	0		S	adt
     	väli	0		S	sg g
     	väli	0		S	sg p
:	:			Z	
tema	tema	0		P	sg g
    	tema	0		P	sg n
on	ole	0		V	b
  	ole	0		V	vad
Jaan	Jaan	0		H	sg n
    	jaan	0		S	sg n
    	jaan	0		Y	?
Roijlandi	####				
poole	pool	0		N	sg g
     	pool	0		S	sg g
     	pool	e		S	pl p
     	poole	0		K	
     	poole	0		S	sg n
selle	see	0		P	sg g
     	sell	e		S	pl p
hobusele	hobune	le		S	sg all
perra	####				
läinud	läinu	d		S	pl n
      	läinud	0		A	
      	läinud	0		A	sg n
      	läinud	d		A	pl n
      	mine	nud		V	nud
ja	ja	0		J	
tahtnud	taht	nud		V	nud
       	taht=nu	d		S	pl n
       	taht=nud	0		A	
       	taht=nud	0		A	sg n
       	taht=nud	d		A	pl n
teda	tema	da		P	sg p
ära	ära	0		D	
   	ära	0		V	neg o
tuua	too	a		V	da
,	,			Z	
mis	mis	0		P	pl n
   	mis	0		P	sg n
aga	aga	0		J	
roikand	####				
mitte	mitte	0		D	
ei	ei	0		D	
  	ei	0		V	neg
ole	ole	0		V	o
lasknud	lask	nud		V	nud
       	lask=nu	d		S	pl n
       	lask=nud	0		A	
       	lask=nud	0		A	sg n
       	lask=nud	d		A	pl n
,	,			Z	
vaid	vaid	0		D	
    	vaid	0		J	
pakunud	####				
ennegi	ennegi	0		D	
14	14	0		N	?
rubl	####				
.	.			Z	
käeraha	käe_raha	0		S	sg g
       	käe_raha	0		S	sg n
       	käe_raha	0		S	sg p
tagasi	tagasi	0		D	
      	tagasi	0		K	
,	,			Z	
mis	mis	0		P	pl n
   	mis	0		P	sg n
tema	tema	0		P	sg g
    	tema	0		P	sg n
mitte	mitte	0		D	
vastu	vastu	0		D	
     	vastu	0		K	
ei	ei	0		D	
  	ei	0		V	neg
ole	ole	0		V	o
võtnud	võt	nud		V	nud
      	võt=nu	d		S	pl n
      	võt=nud	0		A	
      	võt=nud	0		A	sg n
      	võt=nud	d		A	pl n
.	.			Z	
Peet	Peet	0		H	sg n
    	peet	0		S	sg n
Linde	lind	e		S	pl p
     	linne	0		S	sg g
Krimamist	####				
tunnistas	tunnista	s		V	s
:	:			Z	
Joh	####				
.	.			Z	
Steinberg	####				
on	ole	0		V	b
  	ole	0		V	vad
see	see	0		P	sg n
hobune	hobune	0		S	sg n
Roijlandi	####				
käest	käest	0		K	
     	käsi	st		S	sg el
ostnud	ost	nud		V	nud
      	ost=nu	d		S	pl n
      	ost=nud	0		A	
      	ost=nud	0		A	sg n
      	ost=nud	d		A	pl n
,	,			Z	
kes	kes	0		P	pl n
   	kes	0		P	sg n
15	15	0		N	?
rubl	####				
.	.			Z	
käeraha	käe_raha	0		S	sg g
       	käe_raha	0		S	sg n
       	käe_raha	0		S	sg p
Meinhardi	Meinhard	0		H	adt
         	Meinhard	0		H	sg g
         	Meinhard	0		H	sg p
käest	käest	0		K	
     	käsi	st		S	sg el
vastu	vastu	0		D	
     	vastu	0		K	
võtnud	võt	nud		V	nud
      	võt=nu	d		S	pl n
      	võt=nud	0		A	
      	võt=nud	0		A	sg n
      	võt=nud	d		A	pl n
;	;			Z	
kaup	kaup	0		S	sg n
olnud	ol=nud	0		A	
     	ol=nud	0		A	sg n
     	ol=nud	d		A	pl n
     	ole	nud		V	nud
     	olnu	d		S	pl n
,	,			Z	
et	et	0		J	
kahe	kaks	0		N	sg g
peavad	pida	vad		V	vad
pärast	pära	st		S	sg el
      	pärane	t		A	sg p
      	pärast	0		D	
      	pärast	0		K	
hobune	hobune	0		S	sg n
ära	ära	0		D	
   	ära	0		V	neg o
peab	pida	b		V	b
viitma	viit	ma		V	ma
,	,			Z	
ehk	ehk	0		D	
   	ehk	0		J	
on	ole	0		V	b
  	ole	0		V	vad
müüjal	müüja	l		S	sg ad
loa	luba	0		S	sg g
   	luga	0		S	sg g
temaga	tema	ga		P	sg kom
oma	oma	0		A	sg g
   	oma	0		D	
   	oma	0		P	sg g
   	oma	0		S	sg g
   	oma	0		V	o
   	oma	0		A	sg n
   	oma	0		A	sg p
   	oma	0		P	sg n
   	oma	0		P	sg p
   	oma	0		S	sg n
   	oma	0		S	sg p
töösid	töö	sid		S	pl p
teha	tege	a		V	da
ja	ja	0		J	
võib	või	b		V	b
ka	ka	0		D	
nädala	nädal	0		S	sg g
pärast	pära	st		S	sg el
      	pärane	t		A	sg p
      	pärast	0		D	
      	pärast	0		K	
ära	ära	0		D	
   	ära	0		V	neg o
viidud	vii	dud		V	tud
      	vii=du	d		S	pl n
      	vii=dud	0		A	
      	vii=dud	0		A	sg n
      	vii=dud	d		A	pl n
saada	saa	da		V	da
     	saat	0		V	o
     	saa	da		V	ta
.	.			Z	
Villem	Villem	0		H	sg n
Steinberg	####				
tunnistas	tunnista	s		V	s
nõndasama	nõnda_sama	0		D	
kui	kui	0		D	
   	kui	0		J	
Peet	Peet	0		H	sg n
    	peet	0		S	sg n
Linde	lind	e		S	pl p
     	linne	0		S	sg g
.	.			Z	
mõistus	mõistus	0		S	sg n
:	:			Z	
selle	see	0		P	sg g
     	sell	e		S	pl p
et	et	0		J	
Jaan	Jaan	0		H	sg n
    	jaan	0		S	sg n
    	jaan	0		Y	?
roikand	####				
seda	see	da		P	sg p
hobust	hobu	st		S	sg el
      	hobune	t		S	sg p
kätte	kätte	0		K	
     	käsi	tte		S	adt
ei	ei	0		D	
  	ei	0		V	neg
ole	ole	0		V	o
andnud	and	nud		V	nud
      	and=nu	d		S	pl n
      	and=nud	0		A	
      	and=nud	0		A	sg n
      	and=nud	d		A	pl n
,	,			Z	
siis	siis	0		D	
    	siis	0		J	
peab	pida	b		V	b
tema	tema	0		P	sg g
    	tema	0		P	sg n
see	see	0		P	sg n
15	15	0		N	?
rubl	####				
.	.			Z	
käeraha	käe_raha	0		S	sg g
       	käe_raha	0		S	sg n
       	käe_raha	0		S	sg p
,	,			Z	
kui	kui	0		D	
   	kui	0		J	
ka	ka	0		D	
5	5	0		N	?
rubl	####				
.	.			Z	
kahjutasumiseks	kahju_tasumine	ks		S	sg tr
Johan	Johan	0		H	sg n
Steinbergile	####				
8	8	0		N	?
peavad	pida	vad		V	vad
sees	sees	0		D	
    	sees	0		K	
välja	välja	0		D	
     	välja	0		V	o
     	väli	0		S	adt
     	väli	0		S	sg g
     	väli	0		S	sg p
maksma	maks	ma		V	ma
.	.			Z	
Peakohtumees	pea_kohtu_mees	0		S	sg n
Mihkel	Mihkel	0		H	sg n
      	mihkel	0		A	sg n
      	mihkel	0		S	sg n
Klaos	####				
kohtumees	kohtu_mees	0		S	sg n
Johan	Johan	0		H	sg n
Udel	####				
dito	####				
Johan	Johan	0		H	sg n
Jantsel	####				
mõistus	mõistus	0		S	sg n
sai	saa	i		V	s
   	sai	0		S	sg n
kohtukäijatele	kohtu_käija	tele		S	pl all
T	T	0		Y	?
.	.			Z	
S	S	0		Y	?
.	.			Z	
R	R	0		Y	?
.	.			Z	
perra	####				
a.	a	0		Y	?
1860	1860	0		N	?
§	§	0		Y	?
772	772	0		N	?
-	-			Z	
774	774	0		N	?
kuulutud	kuulu	tud		V	tud
        	kuulu=tu	d		S	pl n
        	kuulu=tud	0		A	
        	kuulu=tud	0		A	sg n
        	kuulu=tud	d		A	pl n
ja	ja	0		J	
õppus	õppus	0		S	sg n
antud	an=tu	d		S	pl n
     	and	tud		V	tud
     	antud	0		A	
     	antud	0		A	sg n
     	antud	d		A	pl n
,	,			Z	
mis	mis	0		P	pl n
   	mis	0		P	sg n
tähele	täht	le		S	sg all
      	tähele	0		X	
tuleb	tule	b		V	b
panna	pand	0		S	sg g
     	pane	a		V	da
     	panna	0		S	sg g
     	panna	0		S	sg n
,	,			Z	
kui	kui	0		D	
   	kui	0		J	
keegi	kee	0	gi	S	sg g
     	kee	0	gi	V	o
     	keegi	0		P	sg n
     	kee	0	gi	S	sg n
kõrgemat	kõrgem	t		C	sg p
        	kõrgem	t		S	sg p
kohut	kohus	t		S	sg p
tahab	taht	b		V	b
käija	käija	0		S	sg g
     	käija	0		S	sg n
ja	ja	0		J	
ei	ei	0		D	
  	ei	0		V	neg
olnud	ol=nud	0		A	
     	ol=nud	0		A	sg n
     	ol=nud	d		A	pl n
     	ole	nud		V	nud
     	olnu	d		S	pl n
kohtukäijad	kohtu_käija	d		S	pl n
mitte	mitte	0		D	
sellega	see	ga		P	sg kom
rahul	rahu	l		S	sg ad
     	rahul	0		D	
.	.			Z	
