kogukonna	kogukond	0		S	sg g
valitsuse	valitsus	0		S	sg g
poolt	pool	t		N	sg p
     	pool	t		S	sg p
     	poolt	0		D	
     	poolt	0		K	
on	ole	0		V	b
  	ole	0		V	vad
ette	ette	0		D	
    	ette	0		K	
    	esi	tte		S	adt
pantud	####				
,	,			Z	
et	et	0		J	
Johan	Johan	0		H	sg n
Holtsmann	####				
on	ole	0		V	b
  	ole	0		V	vad
2	2	0		N	?
kõrd	####				
magasist	magas	st		S	sg el
rukkid	rukis	d		S	pl n
võtnud	võt	nud		V	nud
      	võt=nu	d		S	pl n
      	võt=nud	0		A	
      	võt=nud	0		A	sg n
      	võt=nud	d		A	pl n
ja	ja	0		J	
kumbagi	kumbki	gi		P	adt
       	kumbki	gi		P	sg p
kõrra	kõrra	0		D	
     	kõrra	0		I	
aeg	aeg	0		S	sg n
3	3	0		N	?
tunni	tund	0		S	sg g
,	,			Z	
ja	ja	0		J	
3	3	0		N	?
tunni	tund	0		S	sg g
on	ole	0		V	b
  	ole	0		V	vad
pulga	pulk	0		S	sg g
peale	pea	le		S	sg all
     	peale	0		D	
     	peale	0		K	
leigatud	####				
ja	ja	0		J	
3	3	0		N	?
tunni	tund	0		S	sg g
ei	ei	0		D	
  	ei	0		V	neg
ole	ole	0		V	o
ja	ja	0		J	
nüüd	nüüd	0		D	
tahab	taht	b		V	b
Holtsman	####				
seda	see	da		P	sg p
tõist	####				
3	3	0		N	?
tunni	tund	0		S	sg g
ära	ära	0		D	
   	ära	0		V	neg o
salata	salga	ta		V	da
      	sala	ta		S	sg ab
      	salga	ta		V	ta
,	,			Z	
aga	aga	0		J	
ise	ise	0		A	
   	ise	0		D	
   	ise	0		P	pl n
   	ise	0		P	sg n
pagges	####				
ära	ära	0		D	
   	ära	0		V	neg o
.	.			Z	
Holtsman	####				
vastab	vasta	b		V	b
et	et	0		J	
tema	tema	0		P	sg g
    	tema	0		P	sg n
on	ole	0		V	b
  	ole	0		V	vad
2	2	0		N	?
kõrd	####				
võtnud	võt	nud		V	nud
      	võt=nu	d		S	pl n
      	võt=nud	0		A	
      	võt=nud	0		A	sg n
      	võt=nud	d		A	pl n
ja	ja	0		J	
kumbagi	kumbki	gi		P	adt
       	kumbki	gi		P	sg p
kõr	####				
2	2	0		N	?
tunni	tund	0		S	sg g
,	,			Z	
ja	ja	0		J	
et	et	0		J	
on	ole	0		V	b
  	ole	0		V	vad
keik	####				
pulga	pulk	0		S	sg g
peal	pea	l		S	sg ad
    	peal	0		D	
    	peal	0		K	
.	.			Z	
Pulga	pulk	0		S	sg g
peal	pea	l		S	sg ad
    	peal	0		D	
    	peal	0		K	
seisab	seis	b		V	b
3	3	0		N	?
tunni	tund	0		S	sg g
kõraga	####				
leigatud	####				
aga	aga	0		J	
mitte	mitte	0		D	
2	2	0		N	?
tunni	tund	0		S	sg g
.	.			Z	
Johan	Johan	0		H	sg n
Lesthal	####				
tunnistab	tunnista	b		V	b
,	,			Z	
et	et	0		J	
2	2	0		N	?
tunni	tund	0		S	sg g
on	ole	0		V	b
  	ole	0		V	vad
ära	ära	0		D	
   	ära	0		V	neg o
vallatud	valda	tud		V	tud
        	valla=tu	d		S	pl n
        	valla=tud	0		A	
        	valla=tud	0		A	sg n
        	valla=tud	d		A	pl n
        	vallatu	d		A	pl n
,	,			Z	
ja	ja	0		J	
siis	siis	0		D	
    	siis	0		J	
kolmanda	kolmas	0		O	sg g
tunni	tund	0		S	sg g
vallamise	####				
aega	aeg	0		S	adt
    	aeg	0		S	sg p
    	aega	0		K	
on	ole	0		V	b
  	ole	0		V	vad
kotti	kott	0		S	adt
     	kotti	0		D	
     	kott	i		S	pl p
     	kott	0		S	sg p
rapputud	rappu	tud		V	tud
        	rappu=tu	d		S	pl n
        	rappu=tud	0		A	
        	rappu=tud	0		A	sg n
        	rappu=tud	d		A	pl n
,	,			Z	
siis	siis	0		D	
    	siis	0		J	
on	ole	0		V	b
  	ole	0		V	vad
sisse	siss	e		S	pl p
     	sisse	0		D	
     	sisse	0		K	
läinud	läinu	d		S	pl n
      	läinud	0		A	
      	läinud	0		A	sg n
      	läinud	d		A	pl n
      	mine	nud		V	nud
.	.			Z	
Kaarel	Kaarel	0		H	sg n
      	kaar	l		S	sg ad
      	kaarel	0		S	sg n
servas	serv	s		S	sg in
      	serva	s		V	s
Tatralt	tatar	lt		S	sg abl
tunistab	####				
,	,			Z	
et	et	0		J	
seal	seal	0		D	
    	siga	l		A	sg ad
    	siga	l		S	sg ad
on	ole	0		V	b
  	ole	0		V	vad
jahvatanud	jahvata	nud		V	nud
          	jahvata=nu	d		S	pl n
          	jahvata=nud	0		A	
          	jahvata=nud	0		A	sg n
          	jahvata=nud	d		A	pl n
ja	ja	0		J	
4	4	0		N	?
muti	mutt	0		S	sg g
    	muti	0		S	sg g
    	muti	0		S	sg n
annud	####				
.	.			Z	
Raudsepa	raud_sepp	0		S	sg g
Jaan	Jaan	0		H	sg n
    	jaan	0		S	sg n
    	jaan	0		Y	?
Lesthal	####				
tunistab	####				
,	,			Z	
et	et	0		J	
Unipiha	uni_pihk	0		S	sg g
       	uni_piht	0		S	sg g
kõrtsi	kõrts	0		S	adt
      	kõrts	0		S	sg g
      	kõrts	0		S	sg p
sisse	siss	e		S	pl p
     	sisse	0		D	
     	sisse	0		K	
kannuvad	####				
ja	ja	0		J	
olnud	ol=nud	0		A	
     	ol=nud	0		A	sg n
     	ol=nud	d		A	pl n
     	ole	nud		V	nud
     	olnu	d		S	pl n
kolm	kolm	0		N	sg n
tunni	tund	0		S	sg g
,	,			Z	
ja	ja	0		J	
palju	palju	0		D	
     	palju	0		P	sg g
     	palju	0		P	sg n
nii	nii	0		D	
sugust	sugune	t		A	sg p
tunistust	####				
.	.			Z	
mõistus	mõistus	0		S	sg n
Siis	siis	0		D	
    	siis	0		J	
on	ole	0		V	b
  	ole	0		V	vad
kohus	kohu	s		V	s
     	kohus	0		S	sg n
mõistnud	mõist	nud		V	nud
        	mõist=nu	d		S	pl n
        	mõist=nud	0		A	
        	mõist=nud	0		A	sg n
        	mõist=nud	d		A	pl n
et	et	0		J	
Holtsmann	####				
peab	pida	b		V	b
3	3	0		N	?
tüni	####				
rukkid	rukis	d		S	pl n
maksma	maks	ma		V	ma
ja	ja	0		J	
3	3	0		N	?
ööd	öö	d		S	pl n
   	öö	d		S	sg p
päeva	päev	0		S	adt
     	päev	0		S	sg g
     	päev	0		S	sg p
kuni	kuni	0		J	
    	kuni	0		K	
pandud	pan=du	d		S	pl n
      	pan=dud	0		A	
      	pan=dud	0		A	sg n
      	pan=dud	d		A	pl n
      	pane	dud		V	tud
saama	saa	ma		V	ma
     	saam	0		S	adt
     	saam	0		S	sg g
     	saam	0		S	sg p
.	.			Z	
kohtu	kohtu	0		V	o
     	kohus	0		S	sg g
otsus	otsus	0		S	sg n
on	ole	0		V	b
  	ole	0		V	vad
kuulutud	kuulu	tud		V	tud
        	kuulu=tu	d		S	pl n
        	kuulu=tud	0		A	
        	kuulu=tud	0		A	sg n
        	kuulu=tud	d		A	pl n
.	.			Z	
pea	pea	0		D	
   	pea	0		S	sg g
   	pida	0		V	o
   	pea	0		S	sg n
kohtumees	kohtu_mees	0		S	sg n
Märt	Märt	0		H	sg n
Puk	####				
juuresistuja	juures_istu=ja	0		S	sg g
            	juures_istu=ja	0		S	sg n
Jaan	Jaan	0		H	sg n
    	jaan	0		S	sg n
    	jaan	0		Y	?
Pangsep	####				
""""	""""			Z	
Mihkel	Mihkel	0		H	sg n
      	mihkel	0		A	sg n
      	mihkel	0		S	sg n
Männ	####				
