metsavalitsus	metsa_valitsus	0		S	sg n
kaebas	kaeba	s		V	s
,	,			Z	
et	et	0		J	
Karl	Karl	0		H	sg n
Kõiman	####				
ja	ja	0		J	
Jaan	Jaan	0		H	sg n
    	jaan	0		S	sg n
    	jaan	0		Y	?
Tälli	####				
mõisa	mõis	0		S	sg g
metsast	mets	st		S	sg el
       	metsane	t		A	sg p
ilma	ilm	0		S	adt
    	ilm	0		S	sg g
    	ilma	0		D	
    	ilma	0		K	
    	ilm	0		S	sg p
loata	loata	0		A	
     	loata	0		D	
     	luba	ta		S	sg ab
     	luga	ta		S	sg ab
puid	puu	id		S	pl p
välja	välja	0		D	
     	välja	0		V	o
     	väli	0		S	adt
     	väli	0		S	sg g
     	väli	0		S	sg p
vedanud	veda	nud		V	nud
       	veda=nu	d		S	pl n
       	veda=nud	0		A	
       	veda=nud	0		A	sg n
       	veda=nud	d		A	pl n
-	-			Z	
nõuab	nõud	b		V	b
et	et	0		J	
kumbgi	####				
6	6	0		N	?
rubl	####				
.	.			Z	
trahvitud	trahvi	tud		V	tud
         	trahvi=tu	d		S	pl n
         	trahvi=tud	0		A	
         	trahvi=tud	0		A	sg n
         	trahvi=tud	d		A	pl n
saaks	saa	ks		V	ks
.	.			Z	
Kaarel	Kaarel	0		H	sg n
      	kaar	l		S	sg ad
      	kaarel	0		S	sg n
Kõiman	####				
ja	ja	0		J	
Jaan	Jaan	0		H	sg n
    	jaan	0		S	sg n
    	jaan	0		Y	?
Tälli	####				
sa	sina	0		P	sg n
seda	see	da		P	sg p
salata	salga	ta		V	da
      	sala	ta		S	sg ab
      	salga	ta		V	ta
et	et	0		J	
nemad	tema	d		P	pl n
ilma	ilm	0		S	adt
    	ilm	0		S	sg g
    	ilma	0		D	
    	ilma	0		K	
    	ilm	0		S	sg p
loata	loata	0		A	
     	loata	0		D	
     	luba	ta		S	sg ab
     	luga	ta		S	sg ab
puud	puu	d		S	pl n
    	puud	0		S	sg n
    	puu	d		S	sg p
on	ole	0		V	b
  	ole	0		V	vad
toonud	too	nud		V	nud
      	too=nu	d		S	pl n
      	too=nud	0		A	
      	too=nud	0		A	sg n
      	too=nud	d		A	pl n
.	.			Z	
mõiste	mõiste	0		S	sg g
      	mõiste	0		S	sg n
:	:			Z	
Kaarel	Kaarel	0		H	sg n
      	kaar	l		S	sg ad
      	kaarel	0		S	sg n
Kõiman	####				
kui	kui	0		D	
   	kui	0		J	
ka	ka	0		D	
Jaan	Jaan	0		H	sg n
    	jaan	0		S	sg n
    	jaan	0		Y	?
Täll	####				
peavad	pida	vad		V	vad
kumbgi	####				
2	2	0		N	?
rubl	####				
.	.			Z	
metsavalitsuse	metsa_valitsus	0		S	sg g
hääks	####				
8	8	0		N	?
p	p	0		Y	?
.	.			Z	
sees	sees	0		D	
    	sees	0		K	
välja	välja	0		D	
     	välja	0		V	o
     	väli	0		S	adt
     	väli	0		S	sg g
     	väli	0		S	sg p
maksma	maks	ma		V	ma
.	.			Z	
peakohtumees	pea_kohtu_mees	0		S	sg n
:	:			Z	
P. Kripson	####				
XXX	XXX	0		O	?
   	XXX	0		Y	?
kohtumees	kohtu_mees	0		S	sg n
:	:			Z	
P. Hendrikson	####				
XXX	XXX	0		O	?
   	XXX	0		Y	?
kohtumees	kohtu_mees	0		S	sg n
:	:			Z	
K. Vosmann	####				
XXX	XXX	0		O	?
   	XXX	0		Y	?
kohtumees	kohtu_mees	0		S	sg n
:	:			Z	
k	k	0		Y	?
Ivanthal	####				
XXX	XXX	0		O	?
   	XXX	0		Y	?
mõiste	mõiste	0		S	sg g
      	mõiste	0		S	sg n
sai	saa	i		V	s
   	sai	0		S	sg n
kohtukäijatele	kohtu_käija	tele		S	pl all
kuulutud	kuulu	tud		V	tud
        	kuulu=tu	d		S	pl n
        	kuulu=tud	0		A	
        	kuulu=tud	0		A	sg n
        	kuulu=tud	d		A	pl n
ja	ja	0		J	
ei	ei	0		D	
  	ei	0		V	neg
olnud	ol=nud	0		A	
     	ol=nud	0		A	sg n
     	ol=nud	d		A	pl n
     	ole	nud		V	nud
     	olnu	d		S	pl n
nemad	tema	d		P	pl n
sellega	see	ga		P	sg kom
rahul	rahu	l		S	sg ad
     	rahul	0		D	
.	.			Z	
kirjutaja	kirjutaja	0		S	sg g
         	kirjutaja	0		S	sg n
Ch	####				
Kapp	kapp	0		S	sg n
allkiri	all_kiri	0		S	sg n
29	29	0		N	?
Januaril	####				
1885	1885	0		N	?
Karl	Karl	0		H	sg n
Kõiman	####				
ära	ära	0		D	
   	ära	0		V	neg o
maksnud	maks	nud		V	nud
       	maks=nu	d		S	pl n
       	maks=nud	0		A	
       	maks=nud	0		A	sg n
       	maks=nud	d		A	pl n
.	.			Z	
