Siis	siis	0		D	
    	siis	0		J	
tulid	tule	id		V	sid
Jakob	Jakob	0		H	sg n
Havakivvi	####				
oma	oma	0		A	sg g
   	oma	0		D	
   	oma	0		P	sg g
   	oma	0		S	sg g
   	oma	0		V	o
   	oma	0		A	sg n
   	oma	0		A	sg p
   	oma	0		P	sg n
   	oma	0		P	sg p
   	oma	0		S	sg n
   	oma	0		S	sg p
lahutud	lahutu	d		V	d
naese	####				
Mariga	Mari	ga		H	sg kom
      	mari	ga		S	sg kom
kohtu	kohtu	0		V	o
     	kohus	0		S	sg g
ette	ette	0		D	
    	ette	0		K	
    	esi	tte		S	adt
oma	oma	0		A	sg g
   	oma	0		D	
   	oma	0		P	sg g
   	oma	0		S	sg g
   	oma	0		V	o
   	oma	0		A	sg n
   	oma	0		A	sg p
   	oma	0		P	sg n
   	oma	0		P	sg p
   	oma	0		S	sg n
   	oma	0		S	sg p
võla	võlg	0		S	sg g
pärast	pära	st		S	sg el
      	pärane	t		A	sg p
      	pärast	0		D	
      	pärast	0		K	
,	,			Z	
mis	mis	0		P	pl n
   	mis	0		P	sg n
naesel	####				
temale	tema	le		P	sg all
jäi	jää	i		V	s
maksmata	maks	mata		V	mata
        	maks=mata	0		A	
ja	ja	0		J	
selle	see	0		P	sg g
     	sell	e		S	pl p
naese	####				
lehm	lehm	0		S	sg n
seisis	seis	is		V	s
Jaak	Jaak	0		H	sg n
    	jaak	0		S	sg n
Havakivvi	####				
käes	käes	0		K	
    	käsi	s		S	sg in
selle	see	0		P	sg g
     	sell	e		S	pl p
10	10	0		N	?
rubla	rubla	0		S	sg g
     	rubla	0		S	sg n
     	rubla	0		S	sg p
eest	eest	0		D	
    	eest	0		K	
    	esi	st		S	sg el
ja	ja	0		J	
oli	ole	i		V	s
se	####				
lehm	lehm	0		S	sg n
kolm	kolm	0		N	sg n
nädalat	nädal	t		S	sg p
peale	pea	le		S	sg all
     	peale	0		D	
     	peale	0		K	
mihklipäeva	mihkli_päev	0		S	adt
           	mihkli_päev	0		S	sg g
           	mihkli_päev	0		S	sg p
Jago	####				
toita	toit	a		V	da
ning	ning	0		J	
Jaak	Jaak	0		H	sg n
    	jaak	0		S	sg n
kinkis	kinki	s		V	s
temale	tema	le		P	sg all
se	####				
kullo	####				
ja	ja	0		J	
Jakobil	Jakob	l		H	sg ad
on	ole	0		V	b
  	ole	0		V	vad
jäänud	jää	nud		V	nud
      	jäänu	d		S	pl n
      	jäänud	0		A	
      	jäänud	0		A	sg n
      	jäänud	d		A	pl n
4	4	0		N	?
särki	särk	0		S	adt
     	särk	0		S	sg p
senna	senna	0		S	sg g
     	senna	0		S	sg n
selle	see	0		P	sg g
     	sell	e		S	pl p
naese	####				
kätte	kätte	0		K	
     	käsi	tte		S	adt
,	,			Z	
kui	kui	0		D	
   	kui	0		J	
tema	tema	0		P	sg g
    	tema	0		P	sg n
sealt	sealt	0		D	
     	siga	lt		A	sg abl
     	siga	lt		S	sg abl
ära	ära	0		D	
   	ära	0		V	neg o
tuli	tuli	0		S	sg n
    	tule	i		V	s
ning	ning	0		J	
se	####				
naine	naine	0		S	sg n
on	ole	0		V	b
  	ole	0		V	vad
toonud	too	nud		V	nud
      	too=nu	d		S	pl n
      	too=nud	0		A	
      	too=nud	0		A	sg n
      	too=nud	d		A	pl n
Havakivvile	####				
100	100	0		N	?
pihho	####				
linu	lina	u		S	pl p
,	,			Z	
siis	siis	0		D	
    	siis	0		J	
jäd	####				
need	see	d		P	pl n
vastastikko	####				
:	:			Z	
tema	tema	0		P	sg g
    	tema	0		P	sg n
ei	ei	0		D	
  	ei	0		V	neg
või	või	0		S	sg g
   	või	0		V	o
   	või	0		D	
   	või	0		J	
   	või	0		S	sg n
nõuda	nõud	a		V	da
linu	lina	u		S	pl p
,	,			Z	
ja	ja	0		J	
mees	mees	0		S	sg n
    	mesi	s		S	sg in
kingib	kinki	b		V	b
temale	tema	le		P	sg all
need	see	d		P	pl n
4	4	0		N	?
särki	särk	0		S	adt
     	särk	0		S	sg p
ja	ja	0		J	
paar	paar	0		N	sg n
    	paar	0		S	sg n
sukkad	####				
.	.			Z	
