Vallamajase	####				
tulid	tule	id		V	sid
Toomas	Toomas	0		H	sg n
      	Toomas	s		H	sg in
      	too	mas		V	mas
Velt	####				
ja	ja	0		J	
tema	tema	0		P	sg g
    	tema	0		P	sg n
poeg	poeg	0		S	sg n
Kaarel	Kaarel	0		H	sg n
      	kaar	l		S	sg ad
      	kaarel	0		S	sg n
Velt	####				
ning	ning	0		J	
selle	see	0		P	sg g
     	sell	e		S	pl p
äi	äi	0		S	sg n
Jakob	Jakob	0		H	sg n
elken	####				
.	.			Z	
Toomas	Toomas	0		H	sg n
      	Toomas	s		H	sg in
      	too	mas		V	mas
Velt	####				
tahab	taht	b		V	b
volikogu	voli_kogu	0		S	sg g
        	voli_kogu	0		S	sg n
        	voli_kogu	0		S	sg p
ees	ees	0		D	
   	ees	0		K	
   	esi	s		S	sg in
tehtud	tehtu	d		S	pl n
      	tehtud	0		A	
      	tehtud	0		A	sg n
      	tehtud	d		A	pl n
      	tege	tud		V	tud
lepingu	leping	0		S	sg g
täienduseks	täiendus	ks		S	sg tr
veel	veel	0		D	
    	vesi	l		S	sg ad
juurde	juur	de		S	adt
      	juurde	0		D	
      	juurde	0		K	
lisada	lisa	da		V	da
,	,			Z	
et	et	0		J	
tema	tema	0		P	sg g
    	tema	0		P	sg n
juba	juba	0		D	
ennemalt	ennem	lt		C	sg abl
        	ennemalt	0		D	
vanema	vanem	0		C	sg g
      	vanem	0		S	sg g
poja	poeg	0		S	sg g
    	poja	0		S	sg g
    	poja	0		S	sg n
    	poja	0		S	sg p
Jakobile	Jakob	le		H	sg all
andnud	and	nud		V	nud
      	and=nu	d		S	pl n
      	and=nud	0		A	
      	and=nud	0		A	sg n
      	and=nud	d		A	pl n
2	2	0		N	?
lehma	lehm	0		S	adt
     	lehm	0		S	sg g
     	lehm	0		S	sg p
ja	ja	0		J	
ühe	üks	0		N	sg g
   	üks	0		P	sg g
   	ühe	0		S	sg n
mullika	mullikas	0		S	sg g
ja	ja	0		J	
annab	and	b		V	b
ka	ka	0		D	
vana	vana	0		A	sg g
    	vana	0		A	sg n
    	vana	0		A	sg p
    	vana	0		S	sg g
    	vana	0		S	sg n
    	vana	0		S	sg p
mära	mära	0		S	sg g
    	mära	0		S	sg n
    	mära	0		S	sg p
Jakobile	Jakob	le		H	sg all
,	,			Z	
niisama	nii_sama	0		D	
ka	ka	0		D	
vanem	vanem	0		C	sg n
     	vanem	0		S	sg n
tõõ	####				
vankri	vanker	0		S	sg g
,	,			Z	
ühed	üks	d		N	pl n
    	üks	d		P	pl n
rangid	rangid	d		S	pl n
ja	ja	0		J	
sedelga	sedelgas	0		S	sg g
,	,			Z	
1	1	0		N	?
vene	vene	0		G	
    	vene	0		S	sg g
    	vene	0		S	sg n
look	look	0		S	sg n
ja	ja	0		J	
ohjad	ohja	d		V	d
     	ohi	d		S	pl n
nõõrist	####				
.	.			Z	
Need	see	d		P	pl n
sead	sead	d		V	d
    	siga	d		A	pl n
    	siga	d		S	pl n
mis	mis	0		P	pl n
   	mis	0		P	sg n
Jakobi	Jakob	0		H	sg g
nimel	nimel	0		K	
     	nimi	l		S	sg ad
on	ole	0		V	b
  	ole	0		V	vad
jäd	####				
temale	tema	le		P	sg all
ja	ja	0		J	
kaks	kaks	0		N	sg n
lammast	lammas	t		S	sg p
.	.			Z	
Vilja	Vilja	0		H	sg g
     	vili	0		S	adt
     	vili	0		S	sg g
     	Vilja	0		H	sg n
     	vili	0		S	sg p
saab	saa	b		V	b
Jakob	Jakob	0		H	sg n
3	3	0		N	?
vakka	vakk	0		S	adt
     	vakk	0		S	sg p
     	vakka	0		D	
rukkid	rukis	d		S	pl n
3	3	0		N	?
vakka	vakk	0		S	adt
     	vakk	0		S	sg p
     	vakka	0		D	
odre	####				
ja	ja	0		J	
3	3	0		N	?
vakka	vakk	0		S	adt
     	vakk	0		S	sg p
     	vakka	0		D	
kaeru	kaer	u		S	pl p
ja	ja	0		J	
jäeb	####				
oma	oma	0		A	sg g
   	oma	0		D	
   	oma	0		P	sg g
   	oma	0		S	sg g
   	oma	0		V	o
   	oma	0		A	sg n
   	oma	0		A	sg p
   	oma	0		P	sg n
   	oma	0		P	sg p
   	oma	0		S	sg n
   	oma	0		S	sg p
perega	pere	ga		S	sg kom
talu	talu	0		S	sg g
    	talu	0		V	o
    	talu	0		S	sg n
    	talu	0		S	sg p
sõõgi	####				
lauast	laud	st		S	sg el
lahku	lahk	0		S	adt
     	lahku	0		D	
     	lahku	0		V	o
     	lahk	0		S	sg p
.	.			Z	
Mis	mis	0		P	pl n
   	mis	0		P	sg n
Jakob	Jakob	0		H	sg n
ise	ise	0		A	
   	ise	0		D	
   	ise	0		P	pl n
   	ise	0		P	sg n
on	ole	0		V	b
  	ole	0		V	vad
majase	####				
ostnud	ost	nud		V	nud
      	ost=nu	d		S	pl n
      	ost=nud	0		A	
      	ost=nud	0		A	sg n
      	ost=nud	d		A	pl n
või	või	0		S	sg g
   	või	0		V	o
   	või	0		D	
   	või	0		J	
   	või	0		S	sg n
teinud	tege	nud		V	nud
      	tei=nud	0		A	
      	tei=nud	0		A	sg n
      	tei=nud	d		A	pl n
      	teinu	d		S	pl n
,	,			Z	
see	see	0		P	sg n
on	ole	0		V	b
  	ole	0		V	vad
juba	juba	0		D	
tema	tema	0		P	sg g
    	tema	0		P	sg n
tarvitusel	tarvitus	l		S	sg ad
ja	ja	0		J	
võib	või	b		V	b
ära	ära	0		D	
   	ära	0		V	neg o
viia	vii	a		V	da
kõik	kõik	0		P	pl n
    	kõik	0		S	sg n
    	kõik	0		P	sg n
puu	puu	0		S	sg g
   	puu	0		S	sg n
riistad	riist	d		S	pl n
või	või	0		S	sg g
   	või	0		V	o
   	või	0		D	
   	või	0		J	
   	või	0		S	sg n
mõbel	####				
,	,			Z	
aga	aga	0		J	
koorelahutaja	koore_lahuta=ja	0		S	sg g
             	koore_lahuta=ja	0		S	sg n
jäeb	####				
taluse	####				
,	,			Z	
kui	kui	0		D	
   	kui	0		J	
vend	vend	0		S	sg n
rätsep	rätsep	0		S	sg n
selle	see	0		P	sg g
     	sell	e		S	pl p
võla	võlg	0		S	sg g
mis	mis	0		P	pl n
   	mis	0		P	sg n
tema	tema	0		P	sg g
    	tema	0		P	sg n
raha	raha	0		S	sg g
    	raha	0		S	sg n
    	raha	0		S	sg p
koorelahutaja	koore_lahuta=ja	0		S	sg g
             	koore_lahuta=ja	0		S	sg n
küles	####				
on	ole	0		V	b
  	ole	0		V	vad
,	,			Z	
taluse	####				
jätab	jät	b		V	b
.	.			Z	
kui	kui	0		D	
   	kui	0		J	
aga	aga	0		J	
Jakob	Jakob	0		H	sg n
tahab	taht	b		V	b
koorelahutajat	koore_lahuta=ja	t		S	sg p
omale	oma	le		A	sg all
     	oma	le		P	sg all
     	oma	le		S	sg all
,	,			Z	
siis	siis	0		D	
    	siis	0		J	
peab	pida	b		V	b
1904.	1904.	0		O	?
aastal	aasta	l		S	sg ad
saadud	saa	dud		V	tud
      	saadu	d		S	pl n
      	saadud	0		A	
      	saadud	0		A	sg n
      	saadud	d		A	pl n
võiraha	või_raha	0		S	sg g
       	või_raha	0		S	sg n
       	või_raha	0		S	sg p
taluse	####				
tagasi	tagasi	0		D	
      	tagasi	0		K	
maksma	maks	ma		V	ma
,	,			Z	
sest	see	st		P	sg el
    	sest	0		J	
et	et	0		J	
see	see	0		P	sg n
raha	raha	0		S	sg g
    	raha	0		S	sg n
    	raha	0		S	sg p
kõik	kõik	0		P	pl n
    	kõik	0		S	sg n
    	kõik	0		P	sg n
tema	tema	0		P	sg g
    	tema	0		P	sg n
käes	käes	0		K	
    	käsi	s		S	sg in
on	ole	0		V	b
  	ole	0		V	vad
.	.			Z	
Jakobi	Jakob	0		H	sg g
era	era	0		S	sg g
   	era	0		S	sg n
   	era	0		S	sg p
linad	lina	d		S	pl n
jäevad	####				
temale	tema	le		P	sg all
.	.			Z	
kõik	kõik	0		P	pl n
    	kõik	0		S	sg n
    	kõik	0		P	sg n
muu	muu	0		P	sg g
   	muu	0		S	sg g
   	muu	0		V	o
   	muu	0		P	sg n
   	muu	0		S	sg n
varandus	varandus	0		S	sg n
,	,			Z	
mis	mis	0		P	pl n
   	mis	0		P	sg n
siin	siin	0		D	
    	siin	0		S	sg n
nimetatud	nimeta	tud		V	tud
         	nimetatu	d		S	pl n
         	nimetatud	0		A	
         	nimetatud	0		A	sg n
         	nimetatud	d		A	pl n
ei	ei	0		D	
  	ei	0		V	neg
ole	ole	0		V	o
,	,			Z	
jäeb	####				
taluse	####				
Kaarli	Kaarel	0		H	sg g
      	Kaarli	0		H	sg g
      	Kaarli	0		H	sg n
hoole	hoog	le		S	sg all
     	hool	0		S	sg g
     	hoole	0		S	sg n
alla	alla	0		D	
    	alla	0		K	
,	,			Z	
peab	pida	b		V	b
aga	aga	0		J	
Kaarel	Kaarel	0		H	sg n
      	kaar	l		S	sg ad
      	kaarel	0		S	sg n
siis	siis	0		D	
    	siis	0		J	
kui	kui	0		D	
   	kui	0		J	
Liine	liin	e		S	pl p
mehele	mees	le		S	sg all
läheb	mine	b		V	b
,	,			Z	
temale	tema	le		P	sg all
2	2	0		N	?
lehma	lehm	0		S	adt
     	lehm	0		S	sg g
     	lehm	0		S	sg p
andma	and	ma		V	ma
ja	ja	0		J	
pulme	####				
ka	ka	0		D	
pidama	pida	ma		V	ma
ja	ja	0		J	
annab	and	b		V	b
koduse	kodune	0		A	sg g
kapi	kapp	0		S	sg g
    	kappi	0		V	o
temale	tema	le		P	sg all
.	.			Z	
Selle	see	0		P	sg g
     	sell	e		S	pl p
vasta	vasta	0		V	o
maksab	maks	b		V	b
Kaarel	Kaarel	0		H	sg n
      	kaar	l		S	sg ad
      	kaarel	0		S	sg n
lubatud	luba	tud		V	tud
       	luba=tu	d		S	pl n
       	lubatu	d		A	pl n
       	lubatud	0		A	
       	lubatud	0		A	sg n
       	lubatud	d		A	pl n
rendi	rent	0		S	sg g
     	renti	0		V	o
võla	võlg	0		S	sg g
196	196	0		N	?
rbl	rbl	0		Y	?
46	46	0		N	?
kop	kop	0		Y	?
.	.			Z	
ära	ära	0		D	
   	ära	0		V	neg o
.	.			Z	
J	J	0		Y	?
Velt	####				
Karl	Karl	0		H	sg n
Velt	####				
Jakob	Jakob	0		H	sg n
elken	####				
(	(			Z	
allkirjad	all_kiri	d		S	pl n
)	)			Z	
Tõendan	tõenda	n		V	n
,	,			Z	
et	et	0		J	
see	see	0		P	sg n
leping	leping	0		S	sg n
on	ole	0		V	b
  	ole	0		V	vad
kõikidele	kõik	dele		P	pl all
ette	ette	0		D	
    	ette	0		K	
    	esi	tte		S	adt
loetud	loetu	d		S	pl n
      	loetud	0		A	
      	loetud	0		A	sg n
      	loetud	d		A	pl n
      	luge	tud		V	tud
ja	ja	0		J	
lepingu	leping	0		S	sg g
tegijad	tegija	d		S	pl n
on	ole	0		V	b
  	ole	0		V	vad
teda	tema	da		P	sg p
läbilugenud	läbi_luge=nu	d		S	pl n
           	läbi_luge=nud	0		A	
           	läbi_luge=nud	0		A	sg n
           	läbi_luge=nud	d		A	pl n
ja	ja	0		J	
omad	oma	d		A	pl n
    	oma	d		P	pl n
    	oma	d		S	pl n
    	oma	d		V	d
nimed	nimi	d		S	pl n
alla	alla	0		D	
    	alla	0		K	
kirjutanud	kirjuta	nud		V	nud
          	kirjutanu	d		S	pl n
          	kirjutanud	0		A	
          	kirjutanud	0		A	sg n
          	kirjutanud	d		A	pl n
.	.			Z	
Vallavanem	valla_vanem	0		S	sg n
:	:			Z	
P. Villemson	####				
Kirjutaja	kirjutaja	0		S	sg g
         	kirjutaja	0		S	sg n
Sep	####				
.	.			Z	
Pala	Pala	0		H	sg g
    	pala	0		S	sg g
    	pala	0		V	o
    	Pala	0		H	sg n
    	pala	0		S	sg n
    	pala	0		S	sg p
valla	vald	0		S	sg g
     	valla	0		D	
valitsuse	valitsus	0		S	sg g
pitsat	pitsa	t		S	sg p
      	pitsat	0		S	sg n
jäljend	jäljend	0		S	sg n
.	.			Z	
