sel	see	l		P	sg ad
   	sel	0		Y	?
4dal	####				
mal	####				
1879.	1879.	0		O	?
peakohtumees	pea_kohtu_mees	0		S	sg n
Jakob	Jakob	0		H	sg n
Kulberg	####				
.	.			Z	
kohtumees	kohtu_mees	0		S	sg n
Jaan	Jaan	0		H	sg n
    	jaan	0		S	sg n
    	jaan	0		Y	?
palubbas	####				
.	.			Z	
abi	abi	0		S	sg g
   	abi	0		S	sg n
   	abi	0		S	sg p
-	-			Z	
""""	""""			Z	
-	-			Z	
Johan	Johan	0		H	sg n
Andruvits	####				
Veskemõisa	####				
vallast	vald	st		S	sg el
Jaan	Jaan	0		H	sg n
    	jaan	0		S	sg n
    	jaan	0		Y	?
makseer	####				
kaebab	kaeba	b		V	b
et	et	0		J	
Veskemõisa	####				
kogukonna	kogukond	0		S	sg g
kohtumees	kohtu_mees	0		S	sg n
Johan	Johan	0		H	sg n
Kihtud	####				
on	ole	0		V	b
  	ole	0		V	vad
mulle	mull	e		S	pl p
     	mina	lle		P	sg all
     	mulle	0		S	sg n
Veskemõisa	####				
mõisa	mõis	0		S	sg g
kõrtsi	kõrts	0		S	adt
      	kõrts	0		S	sg g
      	kõrts	0		S	sg p
täie	täis	0		A	sg g
    	täis	0		S	sg g
taga	taga	0		D	
    	taga	0		K	
    	taga	0		V	o
nii	nii	0		D	
rängaste	####				
löönud	löö	nud		V	nud
      	löö=nu	d		S	pl n
      	löö=nud	0		A	
      	löö=nud	0		A	sg n
      	löö=nud	d		A	pl n
,	,			Z	
et	et	0		J	
ta	tema	0		P	sg g
  	tema	0		P	sg n
mulle	mull	e		S	pl p
     	mina	lle		P	sg all
     	mulle	0		S	sg n
pähe	pea	0		S	adt
    	pähe	0		K	
surma	surm	0		S	adt
     	surm	0		S	sg g
     	surma	0		V	o
     	surm	0		S	sg p
öögi	öö	0	gi	S	sg g
    	öök	0		S	sg g
    	ööki	0		V	o
    	öö	0	gi	S	sg n
leid	leid	0		S	sg n
,	,			Z	
ja	ja	0		J	
muidu	muidu	0		D	
pek	####				
ta	tema	0		P	sg g
  	tema	0		P	sg n
minu	mina	0		P	sg g
kelle	kes	0		P	pl g
     	kes	0		P	sg g
üle	üle	0		D	
   	üle	0		K	
ma	mina	0		P	sg n
arvu	arv	0		S	adt
    	arv	0		S	sg g
    	arv	0		S	sg p
ei	ei	0		D	
  	ei	0		V	neg
tea	tead	0		V	o
ütelda	ütle	da		V	da
      	ütle	da		V	ta
.	.			Z	
seda	see	da		P	sg p
peavad	pida	vad		V	vad
teadma	tead	ma		V	ma
nägija	nägija	0		S	sg g
      	nägija	0		S	sg n
,	,			Z	
kõrtsimees	kõrtsi_mees	0		S	sg n
Mihkel	Mihkel	0		H	sg n
      	mihkel	0		A	sg n
      	mihkel	0		S	sg n
ja	ja	0		J	
Johan	Johan	0		H	sg n
Elles	Elle	s		H	sg in
,	,			Z	
ja	ja	0		J	
Hans	Hans	0		H	sg n
poots	####				
,	,			Z	
ja	ja	0		J	
Peeter	Peeter	0		H	sg n
Suits	suits	0		S	sg n
.	.			Z	
Johan	Johan	0		H	sg n
Kihtud	####				
ütles	ütle	s		V	s
võib	või	b		V	b
olla	ole	a		V	da
,	,			Z	
et	et	0		J	
ma	mina	0		P	sg n
seal	seal	0		D	
    	siga	l		A	sg ad
    	siga	l		S	sg ad
abenit	####				
selgeste	####				
löönud	löö	nud		V	nud
      	löö=nu	d		S	pl n
      	löö=nud	0		A	
      	löö=nud	0		A	sg n
      	löö=nud	d		A	pl n
ma	mina	0		P	sg n
ei	ei	0		D	
  	ei	0		V	neg
ole	ole	0		V	o
talle	tall	e		S	pl p
     	tall	0		S	adt
     	tall	0		S	sg g
     	tema	lle		P	sg all
     	tall	0		S	sg p
,	,			Z	
ja	ja	0		J	
se	####				
oleme	ole	me		V	me
väljas	välja	s		V	s
      	väli	s		S	sg in
      	väljas	0		D	
kooli	kool	i		S	pl p
     	kool	0		S	adt
     	kool	0		S	sg g
     	kool	0		S	sg p
tare	tare	0		S	sg g
    	tare	0		S	sg n
man	man	0		D	
   	man	0		K	
,	,			Z	
ja	ja	0		J	
Orega	####				
kõrtsin	####				
jõime	joo	ime		V	sime
veel	veel	0		D	
    	vesi	l		S	sg ad
peale	pea	le		S	sg all
     	peale	0		D	
     	peale	0		K	
.	.			Z	
kõrtsimees	kõrtsi_mees	0		S	sg n
Mihkel	Mihkel	0		H	sg n
      	mihkel	0		A	sg n
      	mihkel	0		S	sg n
Peetsa	####				
ütleb	ütle	b		V	b
et	et	0		J	
mina	mina	0		P	sg n
    	mina	0		S	sg g
    	mina	0		S	sg n
    	mina	0		S	sg p
ei	ei	0		D	
  	ei	0		V	neg
näe	näge	0		V	o
nende	see	de		P	pl g
     	tema	de		P	pl g
kakkelust	kakk_elu	st		S	sg el
,	,			Z	
see	see	0		P	sg n
oli	ole	i		V	s
väljas	välja	s		V	s
      	väli	s		S	sg in
      	väljas	0		D	
olnud	ol=nud	0		A	
     	ol=nud	0		A	sg n
     	ol=nud	d		A	pl n
     	ole	nud		V	nud
     	olnu	d		S	pl n
,	,			Z	
seda	see	da		P	sg p
Jaan	Jaan	0		H	sg n
    	jaan	0		S	sg n
    	jaan	0		Y	?
makseer	####				
ise	ise	0		A	
   	ise	0		D	
   	ise	0		P	pl n
   	ise	0		P	sg n
ütles	ütle	s		V	s
,	,			Z	
et	et	0		J	
käe	käsi	0		S	sg g
mis	mis	0		P	pl n
   	mis	0		P	sg n
nad	tema	d		P	pl n
mulle	mull	e		S	pl p
     	mina	lle		P	sg all
     	mulle	0		S	sg n
teiva	####				
,	,			Z	
muud	muu	d		P	pl n
    	muu	d		S	pl n
    	muu	d		V	d
    	muu	d		P	sg p
    	muu	d		S	sg p
ma	mina	0		P	sg n
ei	ei	0		D	
  	ei	0		V	neg
tea	tead	0		V	o
.	.			Z	
Hans	Hans	0		H	sg n
pootsi	####				
leid	leid	0		S	sg n
ta	tema	0		P	sg g
  	tema	0		P	sg n
maha	maha	0		D	
kõrtsin	####				
Peeter	Peeter	0		H	sg n
Suits	suits	0		S	sg n
ütleb	ütle	b		V	b
,	,			Z	
kui	kui	0		D	
   	kui	0		J	
ma	mina	0		P	sg n
mäelt	mägi	lt		S	sg abl
söömast	söö	mast		V	mast
       	sööm	st		S	sg el
alla	alla	0		D	
    	alla	0		K	
kõrtsi	kõrts	0		S	adt
      	kõrts	0		S	sg g
      	kõrts	0		S	sg p
tulid	tule	id		V	sid
,	,			Z	
siis	siis	0		D	
    	siis	0		J	
oli	ole	i		V	s
Jaan	Jaan	0		H	sg n
    	jaan	0		S	sg n
    	jaan	0		Y	?
makseer	####				
kõrtsin	####				
,	,			Z	
ja	ja	0		J	
tugerd	####				
kõrtsi	kõrts	0		S	adt
      	kõrts	0		S	sg g
      	kõrts	0		S	sg p
pengi	####				
peal	pea	l		S	sg ad
    	peal	0		D	
    	peal	0		K	
,	,			Z	
ja	ja	0		J	
ma	mina	0		P	sg n
nägi	näge	i		V	s
et	et	0		J	
tal	tema	l		P	sg ad
pea	pea	0		D	
   	pea	0		S	sg g
   	pida	0		V	o
   	pea	0		S	sg n
liige	liige	0		S	sg n
oli	ole	i		V	s
,	,			Z	
ja	ja	0		J	
kas	kas	0		D	
tal	tema	l		P	sg ad
vere	veri	0		S	sg g
,	,			Z	
ehk	ehk	0		D	
   	ehk	0		J	
väega	vägi	ga		S	sg kom
liige	liige	0		S	sg n
oli	ole	i		V	s
seda	see	da		P	sg p
ma	mina	0		P	sg n
ei	ei	0		D	
  	ei	0		V	neg
käe	käsi	0		S	sg g
.	.			Z	
see	see	0		P	sg n
oli	ole	i		V	s
peale	pea	le		S	sg all
     	peale	0		D	
     	peale	0		K	
kella	kell	0		S	adt
     	kell	0		S	sg g
     	kella	0		V	o
     	kell	0		S	sg p
8.	8.	0		O	?
aja	aeg	0		S	sg g
   	aja	0		V	o
õhtu	õhtu	0		S	sg g
    	õhtu	0		S	sg n
,	,			Z	
ja	ja	0		J	
Jaan	Jaan	0		H	sg n
    	jaan	0		S	sg n
    	jaan	0		Y	?
maksis	maks	is		V	s
      	maksi	s		S	sg in
ja	ja	0		J	
kõrtsi	kõrts	0		S	adt
      	kõrts	0		S	sg g
      	kõrts	0		S	sg p
kaupa	kaup	0		S	adt
     	kaup	0		S	sg p
     	kaupa	0		K	
laua	laud	0		S	sg g
ette	ette	0		D	
    	ette	0		K	
    	esi	tte		S	adt
kojuma	####				
,	,			Z	
roh-	####				
em	####				
ma	mina	0		P	sg n
sest	see	st		P	sg el
    	sest	0		J	
ei	ei	0		D	
  	ei	0		V	neg
tea	tead	0		V	o
.	.			Z	
Hans	Hans	0		H	sg n
poots	####				
ütles	ütle	s		V	s
,	,			Z	
et	et	0		J	
tema	tema	0		P	sg g
    	tema	0		P	sg n
Jaan	Jaan	0		H	sg n
    	jaan	0		S	sg n
    	jaan	0		Y	?
makseri	####				
peksmiseks	peksmine	ks		S	sg tr
midagi	miski	dagi		P	sg p
ei	ei	0		D	
  	ei	0		V	neg
näe	näge	0		V	o
,	,			Z	
mina	mina	0		P	sg n
    	mina	0		S	sg g
    	mina	0		S	sg n
    	mina	0		S	sg p
läksin	mine	sin		V	sin
kõrtsi	kõrts	0		S	adt
      	kõrts	0		S	sg g
      	kõrts	0		S	sg p
,	,			Z	
ja	ja	0		J	
Jaan	Jaan	0		H	sg n
    	jaan	0		S	sg n
    	jaan	0		Y	?
makseer	####				
kit	####				
oma	oma	0		A	sg g
   	oma	0		D	
   	oma	0		P	sg g
   	oma	0		S	sg g
   	oma	0		V	o
   	oma	0		A	sg n
   	oma	0		A	sg p
   	oma	0		P	sg n
   	oma	0		P	sg p
   	oma	0		S	sg n
   	oma	0		S	sg p
hobust	hobu	st		S	sg el
      	hobune	t		S	sg p
üle	üle	0		D	
   	üle	0		K	
kõige	kõik	0		P	sg g
     	kõige	0		D	
jookseb	jooks	b		V	b
,	,			Z	
ja	ja	0		J	
ma	mina	0		P	sg n
ütli	####				
mis	mis	0		P	pl n
   	mis	0		P	sg n
sa	sina	0		P	sg n
seda	see	da		P	sg p
kittad	####				
,	,			Z	
selle	see	0		P	sg g
     	sell	e		S	pl p
peale	pea	le		S	sg all
     	peale	0		D	
     	peale	0		K	
leid	leid	0		S	sg n
Jaan	Jaan	0		H	sg n
    	jaan	0		S	sg n
    	jaan	0		Y	?
makseer	####				
minu	mina	0		P	sg g
maha	maha	0		D	
kõrtsin	####				
,	,			Z	
ja	ja	0		J	
kui	kui	0		D	
   	kui	0		J	
ma	mina	0		P	sg n
peale	pea	le		S	sg all
     	peale	0		D	
     	peale	0		K	
kella	kell	0		S	adt
     	kell	0		S	sg g
     	kella	0		V	o
     	kell	0		S	sg p
9.	9.	0		O	?
ajal	aeg	l		S	sg ad
    	ajal	0		K	
õhtud	õhtu	d		S	pl n
söömast	söö	mast		V	mast
       	sööm	st		S	sg el
alla	alla	0		D	
    	alla	0		K	
tuli	tuli	0		S	sg n
    	tule	i		V	s
siis	siis	0		D	
    	siis	0		J	
oli	ole	i		V	s
Jaan	Jaan	0		H	sg n
    	jaan	0		S	sg n
    	jaan	0		Y	?
makseer	####				
kõrtsin	####				
,	,			Z	
ja	ja	0		J	
mina	mina	0		P	sg n
    	mina	0		S	sg g
    	mina	0		S	sg n
    	mina	0		S	sg p
ei	ei	0		D	
  	ei	0		V	neg
näe	näge	0		V	o
tema	tema	0		P	sg g
    	tema	0		P	sg n
löömiseks	löömine	ks		S	sg tr
midagi	miski	dagi		P	sg p
,	,			Z	
ta	tema	0		P	sg g
  	tema	0		P	sg n
jäi	jää	i		V	s
kõrtsi	kõrts	0		S	adt
      	kõrts	0		S	sg g
      	kõrts	0		S	sg p
,	,			Z	
Johan	Johan	0		H	sg n
kituse	####				
ja	ja	0		J	
Johan	Johan	0		H	sg n
Elleriga	####				
.	.			Z	
Johan	Johan	0		H	sg n
Elles	Elle	s		H	sg in
ütleb	ütle	b		V	b
,	,			Z	
et	et	0		J	
kella	kell	0		S	adt
     	kell	0		S	sg g
     	kella	0		V	o
     	kell	0		S	sg p
aga	aga	0		J	
mina	mina	0		P	sg n
    	mina	0		S	sg g
    	mina	0		S	sg n
    	mina	0		S	sg p
küll	küll	0		D	
    	küll	0		S	sg n
ei	ei	0		D	
  	ei	0		V	neg
tea	tead	0		V	o
arvata	arva	ta		V	da
      	arva	ta		V	ta
      	arvata	0		D	
õhtu	õhtu	0		S	sg g
    	õhtu	0		S	sg n
kel	kes	l		P	sg ad
10.	10.	0		O	?
ehk	ehk	0		D	
   	ehk	0		J	
ka	ka	0		D	
rohkem	rohkem	0		D	
,	,			Z	
mina	mina	0		P	sg n
    	mina	0		S	sg g
    	mina	0		S	sg n
    	mina	0		S	sg p
läksin	mine	sin		V	sin
kõrtsist	kõrts	st		S	sg el
välja	välja	0		D	
     	välja	0		V	o
     	väli	0		S	adt
     	väli	0		S	sg g
     	väli	0		S	sg p
,	,			Z	
ja	ja	0		J	
Johan	Johan	0		H	sg n
Kihtud	####				
ja	ja	0		J	
Jaan	Jaan	0		H	sg n
    	jaan	0		S	sg n
    	jaan	0		Y	?
makseer	####				
olid	ole	id		V	sid
rinnupside	####				
kinni	kinni	0		D	
võetud	võe=tu	d		S	pl n
      	võetud	0		A	
      	võetud	0		A	sg n
      	võetud	d		A	pl n
      	võt	tud		V	tud
ja	ja	0		J	
Johan	Johan	0		H	sg n
Kihtud	####				
,	,			Z	
ütles	ütle	s		V	s
peasta	####				
tema	tema	0		P	sg g
    	tema	0		P	sg n
kuradi	kurat	0		S	sg g
käe	käsi	0		S	sg g
rinnust	rind	ust		S	pl el
       	rinnus	t		S	sg p
ära	ära	0		D	
   	ära	0		V	neg o
,	,			Z	
ja	ja	0		J	
mina	mina	0		P	sg n
    	mina	0		S	sg g
    	mina	0		S	sg n
    	mina	0		S	sg p
peastse	####				
Jaani	Jaan	0		H	adt
     	Jaan	0		H	sg g
     	Jaani	0		H	sg g
     	jaan	0		S	adt
     	jaan	0		S	sg g
     	Jaan	0		H	sg p
     	Jaani	0		H	sg n
     	jaan	0		S	sg p
käe	käsi	0		S	sg g
Johani	Johan	0		H	sg g
küllest	####				
ära	ära	0		D	
   	ära	0		V	neg o
,	,			Z	
ja	ja	0		J	
selle	see	0		P	sg g
     	sell	e		S	pl p
leid	leid	0		S	sg n
Jani	Jan	0		H	adt
    	Jan	0		H	sg g
    	Jan	0		H	sg p
pikkali	####				
maha	maha	0		D	
selle	see	0		P	sg g
     	sell	e		S	pl p
peale	pea	le		S	sg all
     	peale	0		D	
     	peale	0		K	
võt	####				
Johan	Johan	0		H	sg n
Kihtud	####				
kõrtsimehe	kõrtsi_mees	0		S	sg g
haud	haud	0		S	sg n
    	haudu	d		V	d
riidast	riit	st		S	sg el
ühe	üks	0		N	sg g
   	üks	0		P	sg g
   	ühe	0		S	sg n
puud	puu	d		S	pl n
    	puud	0		S	sg n
    	puu	d		S	sg p
ja	ja	0		J	
sellega	see	ga		P	sg kom
leid	leid	0		S	sg n
ta	tema	0		P	sg g
  	tema	0		P	sg n
Johan	Johan	0		H	sg n
Kihtud	####				
Jaan	Jaan	0		H	sg n
    	jaan	0		S	sg n
    	jaan	0		Y	?
makserile	####				
,	,			Z	
räi-	####				
kaeste	####				
2.	2.	0		O	?
ehk	ehk	0		D	
   	ehk	0		J	
3.	3.	0		O	?
kõrd	####				
pähe	pea	0		S	adt
    	pähe	0		K	
,	,			Z	
ja	ja	0		J	
kui	kui	0		D	
   	kui	0		J	
ma	mina	0		P	sg n
nägi	näge	i		V	s
et	et	0		J	
Jaan	Jaan	0		H	sg n
    	jaan	0		S	sg n
    	jaan	0		Y	?
nii	nii	0		D	
rängast	ränk	st		A	sg el
lüüa	löö	a		V	da
sai	saa	i		V	s
   	sai	0		S	sg n
siis	siis	0		D	
    	siis	0		J	
ma	mina	0		P	sg n
läksin	mine	sin		V	sin
ära	ära	0		D	
   	ära	0		V	neg o
kõrtsi	kõrts	0		S	adt
      	kõrts	0		S	sg g
      	kõrts	0		S	sg p
,	,			Z	
ja	ja	0		J	
Johan	Johan	0		H	sg n
ja	ja	0		J	
Jaan	Jaan	0		H	sg n
    	jaan	0		S	sg n
    	jaan	0		Y	?
jäid	jää	id		V	sid
välja	välja	0		D	
     	välja	0		V	o
     	väli	0		S	adt
     	väli	0		S	sg g
     	väli	0		S	sg p
,	,			Z	
peale	pea	le		S	sg all
     	peale	0		D	
     	peale	0		K	
see	see	0		P	sg n
tulid	tule	id		V	sid
ka	ka	0		D	
nemad	tema	d		P	pl n
mõlema	mõlema	0		P	sg g
,	,			Z	
Johan	Johan	0		H	sg n
enne	enne	0		D	
    	enne	0		K	
    	enne	0		S	sg n
,	,			Z	
ja	ja	0		J	
Jaan	Jaan	0		H	sg n
    	jaan	0		S	sg n
    	jaan	0		Y	?
pärast	pära	st		S	sg el
      	pärane	t		A	sg p
      	pärast	0		D	
      	pärast	0		K	
kõrtsi	kõrts	0		S	adt
      	kõrts	0		S	sg g
      	kõrts	0		S	sg p
,	,			Z	
ja	ja	0		J	
Jaan	Jaan	0		H	sg n
    	jaan	0		S	sg n
    	jaan	0		Y	?
ütles	ütle	s		V	s
Johanile	Johan	le		H	sg all
ikken	####				
et	et	0		J	
sa	sina	0		P	sg n
leid	leid	0		S	sg n
mulle	mull	e		S	pl p
     	mina	lle		P	sg all
     	mulle	0		S	sg n
väga	väga	0		D	
rängast	ränk	st		A	sg el
ja	ja	0		J	
pea	pea	0		D	
   	pea	0		S	sg g
   	pida	0		V	o
   	pea	0		S	sg n
oli	ole	i		V	s
Jaanil	Jaan	l		H	sg ad
      	Jaani	l		H	sg ad
      	jaan	l		S	sg ad
verine	verine	0		A	sg n
,	,			Z	
ja	ja	0		J	
kõrtsimees	kõrtsi_mees	0		S	sg n
nägi	näge	i		V	s
seda	see	da		P	sg p
,	,			Z	
et	et	0		J	
Jaani	Jaan	0		H	adt
     	Jaan	0		H	sg g
     	Jaani	0		H	sg g
     	jaan	0		S	adt
     	jaan	0		S	sg g
     	Jaan	0		H	sg p
     	Jaani	0		H	sg n
     	jaan	0		S	sg p
pea	pea	0		D	
   	pea	0		S	sg g
   	pida	0		V	o
   	pea	0		S	sg n
katki	katki	0		D	
oli	ole	i		V	s
ja	ja	0		J	
mõisa	mõis	0		S	sg g
poisi	poiss	0		S	sg g
olid	ole	id		V	sid
ka	ka	0		D	
kõrtsin	####				
Jaan	Jaan	0		H	sg n
    	jaan	0		S	sg n
    	jaan	0		Y	?
makseer	####				
nõuab	nõud	b		V	b
selle	see	0		P	sg g
     	sell	e		S	pl p
eest	eest	0		D	
    	eest	0		K	
    	esi	st		S	sg el
150.	150.	0		O	?
rbl	rbl	0		Y	?
Johan	Johan	0		H	sg n
kituse	####				
käest	käest	0		K	
     	käsi	st		S	sg el
.	.			Z	
Johan	Johan	0		H	sg n
Kihtud	####				
ütles	ütle	s		V	s
,	,			Z	
et	et	0		J	
mina	mina	0		P	sg n
    	mina	0		S	sg g
    	mina	0		S	sg n
    	mina	0		S	sg p
ole	ole	0		V	o
see	see	0		P	sg n
3.	3.	0		O	?
rblaga	####				
maksmisega	maksmine	ga		S	sg kom
ära	ära	0		D	
   	ära	0		V	neg o
leppinud	leppi	nud		V	nud
        	leppi=nu	d		S	pl n
        	leppi=nud	0		A	
        	leppi=nud	0		A	sg n
        	leppi=nud	d		A	pl n
.	.			Z	
kohtumees	kohtu_mees	0		S	sg n
Johan	Johan	0		H	sg n
Andruvits	####				
ütles	ütle	s		V	s
et	et	0		J	
see	see	0		P	sg n
3.	3.	0		O	?
rbl	rbl	0		Y	?
,	,			Z	
mis	mis	0		P	pl n
   	mis	0		P	sg n
Johan	Johan	0		H	sg n
Kihtud	####				
Jaan	Jaan	0		H	sg n
    	jaan	0		S	sg n
    	jaan	0		Y	?
makserile	####				
löömise	löömine	0		S	sg g
eest	eest	0		D	
    	eest	0		K	
    	esi	st		S	sg el
et	et	0		J	
pidi	pida	i		V	s
    	pidi	0		K	
tassa	####				
olema	ole	ma		V	ma
Johan	Johan	0		H	sg n
Elles	Elle	s		H	sg in
ütles	ütle	s		V	s
ka	ka	0		D	
,	,			Z	
et	et	0		J	
3.	3.	0		O	?
rbl	rbl	0		Y	?
on	ole	0		V	b
  	ole	0		V	vad
Johan	Johan	0		H	sg n
Kihtud	####				
Jaan	Jaan	0		H	sg n
    	jaan	0		S	sg n
    	jaan	0		Y	?
makserile	####				
löömise	löömine	0		S	sg g
eest	eest	0		D	
    	eest	0		K	
    	esi	st		S	sg el
maksnud	maks	nud		V	nud
       	maks=nu	d		S	pl n
       	maks=nud	0		A	
       	maks=nud	0		A	sg n
       	maks=nud	d		A	pl n
.	.			Z	
