Sel	see	l		P	sg ad
   	sel	0		Y	?
16	16	0		N	?
Juunil	juuni	l		S	sg ad
c	c	0		Y	?
.	.			Z	
84	84	0		N	?
polele	####				
jäänud	jää	nud		V	nud
      	jäänu	d		S	pl n
      	jäänud	0		A	
      	jäänud	0		A	sg n
      	jäänud	d		A	pl n
kaebduse	####				
asjus	asi	us		S	pl in
tuli	tuli	0		S	sg n
    	tule	i		V	s
kohtu	kohtu	0		V	o
     	kohus	0		S	sg g
ette	ette	0		D	
    	ette	0		K	
    	esi	tte		S	adt
Johan	Johan	0		H	sg n
Hausenbergi	####				
sulane	sulane	0		S	sg n
      	sulane	0		V	o
Jaan	Jaan	0		H	sg n
    	jaan	0		S	sg n
    	jaan	0		Y	?
Holst	Holst	0		H	sg n
ja	ja	0		J	
ütleb	ütle	b		V	b
,	,			Z	
et	et	0		J	
tema	tema	0		P	sg g
    	tema	0		P	sg n
pole	ole	0		V	neg o
Allatskivvi	####				
metsast	mets	st		S	sg el
       	metsane	t		A	sg p
kedagi	keegi	dagi		P	sg p
puid	puu	id		S	pl p
varastanud	varasta	nud		V	nud
          	varasta=nu	d		S	pl n
          	varasta=nud	0		A	
          	varasta=nud	0		A	sg n
          	varasta=nud	d		A	pl n
.	.			Z	
Aaravõetud	aara_võetud	0		A	
          	aara_võetud	0		A	sg n
          	aara_võetud	d		A	pl n
pakku	pakk	0		S	adt
     	pakk	0		S	sg p
leidnud	leid	nud		V	nud
       	leid=nu	d		S	pl n
       	leid=nud	0		A	
       	leid=nud	0		A	sg n
       	leid=nud	d		A	pl n
tema	tema	0		P	sg g
    	tema	0		P	sg n
oma	oma	0		A	sg g
   	oma	0		D	
   	oma	0		P	sg g
   	oma	0		S	sg g
   	oma	0		V	o
   	oma	0		A	sg n
   	oma	0		A	sg p
   	oma	0		P	sg n
   	oma	0		P	sg p
   	oma	0		S	sg n
   	oma	0		S	sg p
karjama	####				
pealt	pea	lt		S	sg abl
     	pealt	0		D	
     	pealt	0		K	
Metsavaht	metsa_vaht	0		S	sg n
nähud	näht	d		S	pl n
kuda	####				
Jaan	Jaan	0		H	sg n
    	jaan	0		S	sg n
    	jaan	0		Y	?
Holst	Holst	0		H	sg n
lattid	####				
äraveenud	####				
mis	mis	0		P	pl n
   	mis	0		P	sg n
tema	tema	0		P	sg g
    	tema	0		P	sg n
ennemalt	ennem	lt		C	sg abl
        	ennemalt	0		D	
Alaltskivvi	####				
metsast	mets	st		S	sg el
       	metsane	t		A	sg p
varastanud	varasta	nud		V	nud
          	varasta=nu	d		S	pl n
          	varasta=nud	0		A	
          	varasta=nud	0		A	sg n
          	varasta=nud	d		A	pl n
ja	ja	0		J	
Kavastu	####				
ma	mina	0		P	sg n
peale	pea	le		S	sg all
     	peale	0		D	
     	peale	0		K	
hunniku	hunnik	0		S	sg g
pandnud	####				
.	.			Z	
/	/			Z	
:	:			Z	
jääb	jää	b		V	b
poolele	pool	le		N	sg all
       	pool	le		S	sg all
:	:			Z	
/	/			Z	
A	A	0		Y	?
.	.			Z	
_	_			Z	
Krim	####				
[	[			Z	
allkiri	all_kiri	0		S	sg n
]	]			Z	
,	,			Z	
pea	pea	0		D	
   	pea	0		S	sg g
   	pida	0		V	o
   	pea	0		S	sg n
xxx	####				
Maddis	####				
erm	####				
,	,			Z	
kohtumees	kohtu_mees	0		S	sg n
A	A	0		Y	?
.	.			Z	
_	_			Z	
Pärn	pärn	0		S	sg n
[	[			Z	
allkiri	all_kiri	0		S	sg n
]	]			Z	
,	,			Z	
""""	""""			Z	
xxx	####				
Tavet	####				
kook	kook	0		S	sg n
,	,			Z	
""""	""""			Z	
