Aavvinurme	####				
kogokonna	####				
Kochtus	####				
sel	see	l		P	sg ad
   	sel	0		Y	?
23.	23.	0		O	?
Decbr	####				
:	:			Z	
1853.	1853.	0		O	?
Kochtomehed	####				
olivat	####				
juures	juur	s		S	sg in
      	juures	0		D	
      	juures	0		K	
,	,			Z	
ja	ja	0		J	
Mamota	####				
Herra	####				
elram	####				
.	.			Z	
kaebas	kaeba	s		V	s
Krono	####				
Metsaherra	####				
Baron	####				
von	####				
der	####				
Pahlen	####				
,	,			Z	
et	et	0		J	
Laekonna	lae_konn	0		S	adt
        	lae_konn	0		S	sg g
        	lae_konn	0		S	sg p
küla	küla	0		S	sg g
    	küla	0		S	sg n
    	küla	0		S	sg p
Peremehet	####				
,	,			Z	
Nimega	nimi	ga		S	sg kom
,	,			Z	
Toomas	Toomas	0		H	sg n
      	Toomas	s		H	sg in
      	too	mas		V	mas
Laurison	####				
,	,			Z	
Michel	####				
Laurison	####				
Joseph	Joseph	0		H	sg n
Laurison	####				
,	,			Z	
Jahn	####				
Jallak	####				
,	,			Z	
Jahn	####				
Aambos	####				
Pobo	####				
,	,			Z	
on	ole	0		V	b
  	ole	0		V	vad
ilma	ilm	0		S	adt
    	ilm	0		S	sg g
    	ilma	0		D	
    	ilma	0		K	
    	ilm	0		S	sg p
ilma	ilm	0		S	adt
    	ilm	0		S	sg g
    	ilma	0		D	
    	ilma	0		K	
    	ilm	0		S	sg p
Lubbata	####				
Krono	####				
Metsa	mets	0		S	adt
     	mets	0		S	sg g
     	mets	0		S	sg p
leikanut	####				
;	;			Z	
ja	ja	0		J	
Metsmad	####				
Vilja	Vilja	0		H	sg g
     	vili	0		S	adt
     	vili	0		S	sg g
     	Vilja	0		H	sg n
     	vili	0		S	sg p
all	all	0		D	
   	all	0		K	
prukinut	####				
Siis	siis	0		D	
    	siis	0		J	
sai	saa	i		V	s
   	sai	0		S	sg n
se	####				
kaebuse	kaebus	0		S	sg g
Aasi	aasi	0		V	o
pera	####				
kulatut	kula=tu	t		A	sg p
,	,			Z	
ja	ja	0		J	
Metsa	mets	0		S	adt
     	mets	0		S	sg g
     	mets	0		S	sg p
Herra	####				
,	,			Z	
ja	ja	0		J	
Mamota	####				
Herraga	####				
nink	####				
kui	kui	0		D	
   	kui	0		J	
Aavvinurme	####				
kogukonna	kogukond	0		S	sg g
Kochtu	####				
Mestega	####				
se	####				
kuri	kuri	0		A	sg n
    	kuri	0		S	sg n
ülevatatut	####				
,	,			Z	
et	et	0		J	
se	####				
kaebus	kaebus	0		S	sg n
oige	oie	0		S	sg g
on	ole	0		V	b
  	ole	0		V	vad
.	.			Z	
Siis	siis	0		D	
    	siis	0		J	
sai	saa	i		V	s
   	sai	0		S	sg n
kogokonna	####				
Kochtu	####				
polest	####				
se	####				
kurja	kuri	0		A	adt
     	kuri	0		A	sg g
     	kuri	0		S	adt
     	kuri	0		S	sg g
     	kuri	0		A	sg p
     	kuri	0		S	sg p
päle	####				
Moistetut	####				
et	et	0		J	
ega	ega	0		D	
   	ega	0		J	
üks	üks	0		N	sg n
   	üks	0		P	sg n
nimetut	nimetu	t		A	sg p
Peremees	pere_mees	0		S	sg n
30	30	0		N	?
Lõki	####				
Vitsu	vits	u		S	pl p
Mele	####				
parandamise	parandamine	0		S	sg g
pärast	pära	st		S	sg el
      	pärane	t		A	sg p
      	pärast	0		D	
      	pärast	0		K	
siin	siin	0		D	
    	siin	0		S	sg n
Kochtu	####				
een	####				
saab	saa	b		V	b
.	.			Z	
Päle	####				
selle	see	0		P	sg g
     	sell	e		S	pl p
on	ole	0		V	b
  	ole	0		V	vad
moistetut	####				
et	et	0		J	
üks	üks	0		N	sg n
   	üks	0		P	sg n
süüalune	süü_alune	0		A	sg n
        	süü_alune	0		S	sg n
Peremees	pere_mees	0		S	sg n
4.	4.	0		O	?
Vacka	####				
Kuse	kusi	0		S	sg g
    	kuse	0		V	o
Käbit	####				
Metsa	mets	0		S	adt
     	mets	0		S	sg g
     	mets	0		S	sg p
vahi	vaht	0		S	sg g
    	vahti	0		V	o
Joseph	Joseph	0		H	sg n
Pichkva	####				
kätte	kätte	0		K	
     	käsi	tte		S	adt
vevat	####				
,	,			Z	
ja	ja	0		J	
tuleval	tulev	l		A	sg ad
kevvade	####				
se	####				
Vilja	Vilja	0		H	sg g
     	vili	0		S	adt
     	vili	0		S	sg g
     	Vilja	0		H	sg n
     	vili	0		S	sg p
all	all	0		D	
   	all	0		K	
prukitut	####				
Metsamaad	metsa_maa	d		S	pl n
         	metsa_maa	d		S	sg p
oma	oma	0		A	sg g
   	oma	0		D	
   	oma	0		P	sg g
   	oma	0		S	sg g
   	oma	0		V	o
   	oma	0		A	sg n
   	oma	0		A	sg p
   	oma	0		P	sg n
   	oma	0		P	sg p
   	oma	0		S	sg n
   	oma	0		S	sg p
Jouga	####				
üles	üles	0		D	
künavat	####				
ja	ja	0		J	
Puu	puu	0		S	sg g
   	puu	0		S	sg n
semega	####				
era	era	0		S	sg g
   	era	0		S	sg n
   	era	0		S	sg p
külvavat	külva	vat		V	vat
        	külva=v	t		A	sg p
.	.			Z	
On	ole	0		V	b
  	ole	0		V	vad
Metsaherra	####				
lubamise	lubamine	0		S	sg g
päle	####				
se	####				
moistetut	####				
30	30	0		N	?
Vitsa	vits	0		S	adt
     	vits	0		S	sg g
     	vits	0		S	sg p
Lõgi	####				
,	,			Z	
20	20	0		N	?
kop	kop	0		Y	?
:	:			Z	
Oebbetat	####				
Lõgi	####				
päle	####				
velja	####				
lunastata	lunasta	ta		V	ta
.	.			Z	
Aandres	####				
Tamm	tamm	0		S	sg n
Kochtuvaneb	####				
.	.			Z	
