Haslava	####				
kogukonna	kogukond	0		S	sg g
kohus	kohu	s		V	s
     	kohus	0		S	sg n
10	10	0		N	?
märtsil	märts	l		S	sg ad
1878	1878	0		N	?
juures	juur	s		S	sg in
      	juures	0		D	
      	juures	0		K	
istus	ist	s		S	sg in
     	istu	s		V	s
:	:			Z	
Peakohtumees	pea_kohtu_mees	0		S	sg n
Mihkel	Mihkel	0		H	sg n
      	mihkel	0		A	sg n
      	mihkel	0		S	sg n
Klaos	####				
.	.			Z	
kohtumees	kohtu_mees	0		S	sg n
Johan	Johan	0		H	sg n
Udel	####				
dito	####				
Rein	Rein	0		H	sg n
Ango	####				
tüli	tüli	0		S	sg g
    	tüli	0		S	sg n
    	tüli	0		S	sg p
ette	ette	0		D	
    	ette	0		K	
    	esi	tte		S	adt
Johan	Johan	0		H	sg n
Plutnik	####				
vanast	vana	st		A	sg el
      	vana	st		S	sg el
kuusteks	kuune	teks		A	pl tr
ja	ja	0		J	
kaebas	kaeba	s		V	s
et	et	0		J	
Haslava	####				
mõisa	mõis	0		S	sg g
mölder	mölder	0		S	sg n
Mihkel	Mihkel	0		H	sg n
      	mihkel	0		A	sg n
      	mihkel	0		S	sg n
soo	soo	0		I	
   	soo	0		S	sg g
   	sugu	0		S	sg g
   	soo	0		S	sg n
tema	tema	0		P	sg g
    	tema	0		P	sg n
käest	käest	0		K	
     	käsi	st		S	sg el
4	4	0		N	?
vakka	vakk	0		S	adt
     	vakk	0		S	sg p
     	vakka	0		D	
tatriku	####				
koormid	####				
ära	ära	0		D	
   	ära	0		V	neg o
võtnud	võt	nud		V	nud
      	võt=nu	d		S	pl n
      	võt=nud	0		A	
      	võt=nud	0		A	sg n
      	võt=nud	d		A	pl n
ning	ning	0		J	
nõuab	nõud	b		V	b
neid	neid	0		S	sg n
    	see	d		P	pl p
    	tema	d		P	pl p
tagasi	tagasi	0		D	
      	tagasi	0		K	
ja	ja	0		J	
möldri	mölder	0		S	sg g
sulane	sulane	0		S	sg n
      	sulane	0		V	o
Johan	Johan	0		H	sg n
Tuul	tuul	0		S	sg n
on	ole	0		V	b
  	ole	0		V	vad
teda	tema	da		P	sg p
löönud	löö	nud		V	nud
      	löö=nu	d		S	pl n
      	löö=nud	0		A	
      	löö=nud	0		A	sg n
      	löö=nud	d		A	pl n
.	.			Z	
sai	saa	i		V	s
   	sai	0		S	sg n
mölder	mölder	0		S	sg n
Mihkel	Mihkel	0		H	sg n
      	mihkel	0		A	sg n
      	mihkel	0		S	sg n
soo	soo	0		I	
   	soo	0		S	sg g
   	sugu	0		S	sg g
   	soo	0		S	sg n
ette	ette	0		D	
    	ette	0		K	
    	esi	tte		S	adt
kutsutud	kutsu	tud		V	tud
        	kutsutu	d		S	pl n
        	kutsutud	0		A	
        	kutsutud	0		A	sg n
        	kutsutud	d		A	pl n
ja	ja	0		J	
ütles	ütle	s		V	s
kaebuse	kaebus	0		S	sg g
peale	pea	le		S	sg all
     	peale	0		D	
     	peale	0		K	
välja	välja	0		D	
     	välja	0		V	o
     	väli	0		S	adt
     	väli	0		S	sg g
     	väli	0		S	sg p
,	,			Z	
et	et	0		J	
Johan	Johan	0		H	sg n
Plutnik	####				
Jüri	Jüri	0		H	sg g
    	Jüri	0		H	sg n
kesa	kesa	0		S	sg g
    	kesa	0		S	sg n
    	kesa	0		S	sg p
tatriki	####				
kotti	kott	0		S	adt
     	kotti	0		D	
     	kott	i		S	pl p
     	kott	0		S	sg p
ära	ära	0		D	
   	ära	0		V	neg o
jahvatanud	jahvata	nud		V	nud
          	jahvata=nu	d		S	pl n
          	jahvata=nud	0		A	
          	jahvata=nud	0		A	sg n
          	jahvata=nud	d		A	pl n
varguse	vargus	0		S	sg g
viisi	viis	0		S	adt
     	viis	0		S	sg g
     	viis	i		N	pl p
     	viisi	0		K	
     	viis	0		S	sg p
ja	ja	0		J	
sellepärast	selle_pärast	0		D	
on	ole	0		V	b
  	ole	0		V	vad
tema	tema	0		P	sg g
    	tema	0		P	sg n
Plutniku	####				
kotti	kott	0		S	adt
     	kotti	0		D	
     	kott	i		S	pl p
     	kott	0		S	sg p
kinni	kinni	0		D	
pannud	pan=nu	d		S	pl n
      	pan=nud	0		A	
      	pan=nud	0		A	sg n
      	pan=nud	d		A	pl n
      	pane	nud		V	nud
.	.			Z	
Jüri	Jüri	0		H	sg g
    	Jüri	0		H	sg n
kesa	kesa	0		S	sg g
    	kesa	0		S	sg n
    	kesa	0		S	sg p
tunnistas	tunnista	s		V	s
,	,			Z	
et	et	0		J	
Johan	Johan	0		H	sg n
Plutnik	####				
tema	tema	0		P	sg g
    	tema	0		P	sg n
tatriku	####				
kotti	kott	0		S	adt
     	kotti	0		D	
     	kott	i		S	pl p
     	kott	0		S	sg p
ära	ära	0		D	
   	ära	0		V	neg o
lasknud	lask	nud		V	nud
       	lask=nu	d		S	pl n
       	lask=nud	0		A	
       	lask=nud	0		A	sg n
       	lask=nud	d		A	pl n
mis	mis	0		P	pl n
   	mis	0		P	sg n
peale	pea	le		S	sg all
     	peale	0		D	
     	peale	0		K	
Johan	Johan	0		H	sg n
Plutnik	####				
välja	välja	0		D	
     	välja	0		V	o
     	väli	0		S	adt
     	väli	0		S	sg g
     	väli	0		S	sg p
ütles	ütle	s		V	s
,	,			Z	
et	et	0		J	
möldri	mölder	0		S	sg g
sulane	sulane	0		S	sg n
      	sulane	0		V	o
Johan	Johan	0		H	sg n
Tuul	tuul	0		S	sg n
on	ole	0		V	b
  	ole	0		V	vad
pidanud	pida	nud		V	nud
       	pida=nu	d		S	pl n
       	pida=nud	0		A	
       	pida=nud	0		A	sg n
       	pida=nud	d		A	pl n
lepitsa	####				
kotti	kott	0		S	adt
     	kotti	0		D	
     	kott	i		S	pl p
     	kott	0		S	sg p
külge	külg	0		S	adt
     	külg	0		S	sg p
     	külge	0		D	
     	külge	0		K	
panema	pane	ma		V	ma
,	,			Z	
mis	mis	0		P	pl n
   	mis	0		P	sg n
ka	ka	0		D	
kotti	kott	0		S	adt
     	kotti	0		D	
     	kott	i		S	pl p
     	kott	0		S	sg p
külles	####				
on	ole	0		V	b
  	ole	0		V	vad
olnud	ol=nud	0		A	
     	ol=nud	0		A	sg n
     	ol=nud	d		A	pl n
     	ole	nud		V	nud
     	olnu	d		S	pl n
,	,			Z	
kus	kus	0		D	
tema	tema	0		P	sg g
    	tema	0		P	sg n
nimi	nimi	0		S	sg n
peal	pea	l		S	sg ad
    	peal	0		D	
    	peal	0		K	
olnud	ol=nud	0		A	
     	ol=nud	0		A	sg n
     	ol=nud	d		A	pl n
     	ole	nud		V	nud
     	olnu	d		S	pl n
ja	ja	0		J	
sellepärast	selle_pärast	0		D	
on	ole	0		V	b
  	ole	0		V	vad
tema	tema	0		P	sg g
    	tema	0		P	sg n
seda	see	da		P	sg p
kotti	kott	0		S	adt
     	kotti	0		D	
     	kott	i		S	pl p
     	kott	0		S	sg p
ära	ära	0		D	
   	ära	0		V	neg o
jahvatada	jahvata	da		V	da
tahtnud	taht	nud		V	nud
       	taht=nu	d		S	pl n
       	taht=nud	0		A	
       	taht=nud	0		A	sg n
       	taht=nud	d		A	pl n
.	.			Z	
Johan	Johan	0		H	sg n
Tuul	tuul	0		S	sg n
selle	see	0		P	sg g
     	sell	e		S	pl p
üle	üle	0		D	
   	üle	0		K	
küsitud	küsi	tud		V	tud
       	küsi=tu	d		S	pl n
       	küsi=tud	0		A	
       	küsi=tud	0		A	sg n
       	küsi=tud	d		A	pl n
,	,			Z	
ütles	ütle	s		V	s
välja	välja	0		D	
     	välja	0		V	o
     	väli	0		S	adt
     	väli	0		S	sg g
     	väli	0		S	sg p
,	,			Z	
et	et	0		J	
tema	tema	0		P	sg g
    	tema	0		P	sg n
lepitsad	####				
ei	ei	0		D	
  	ei	0		V	neg
ole	ole	0		V	o
pannud	pan=nu	d		S	pl n
      	pan=nud	0		A	
      	pan=nud	0		A	sg n
      	pan=nud	d		A	pl n
      	pane	nud		V	nud
Johan	Johan	0		H	sg n
Plutniku	####				
kotti	kott	0		S	adt
     	kotti	0		D	
     	kott	i		S	pl p
     	kott	0		S	sg p
külge	külg	0		S	adt
     	külg	0		S	sg p
     	külge	0		D	
     	külge	0		K	
ja	ja	0		J	
ei	ei	0		D	
  	ei	0		V	neg
ole	ole	0		V	o
ka	ka	0		D	
teda	tema	da		P	sg p
peksnud	peks	nud		V	nud
       	peks=nu	d		S	pl n
       	peks=nud	0		A	
       	peks=nud	0		A	sg n
       	peks=nud	d		A	pl n
.	.			Z	
Johan	Johan	0		H	sg n
Plutnik	####				
selle	see	0		P	sg g
     	sell	e		S	pl p
üle	üle	0		D	
   	üle	0		K	
küsitud	küsi	tud		V	tud
       	küsi=tu	d		S	pl n
       	küsi=tud	0		A	
       	küsi=tud	0		A	sg n
       	küsi=tud	d		A	pl n
,	,			Z	
mispärast	mis_pärast	0		D	
tema	tema	0		P	sg g
    	tema	0		P	sg n
lepitsad	####				
kotti	kott	0		S	adt
     	kotti	0		D	
     	kott	i		S	pl p
     	kott	0		S	sg p
suhu	suu	0		S	adt
ei	ei	0		D	
  	ei	0		V	neg
ole	ole	0		V	o
jätnud	jät	nud		V	nud
      	jät=nu	d		S	pl n
      	jät=nud	0		A	
      	jät=nud	0		A	sg n
      	jät=nud	d		A	pl n
,	,			Z	
et	et	0		J	
tõised	####				
oleks	ole	ks		V	ks
näinud	näi	nud		V	nud
      	näge	nud		V	nud
      	näi=nud	0		A	
      	näi=nud	0		A	sg n
      	näi=nud	d		A	pl n
      	näinu	d		S	pl n
,	,			Z	
et	et	0		J	
tema	tema	0		P	sg g
    	tema	0		P	sg n
nimi	nimi	0		S	sg n
Jüri	Jüri	0		H	sg g
    	Jüri	0		H	sg n
kesa	kesa	0		S	sg g
    	kesa	0		S	sg n
    	kesa	0		S	sg p
kotti	kott	0		S	adt
     	kotti	0		D	
     	kott	i		S	pl p
     	kott	0		S	sg p
külles	####				
oleks	ole	ks		V	ks
olnud	ol=nud	0		A	
     	ol=nud	0		A	sg n
     	ol=nud	d		A	pl n
     	ole	nud		V	nud
     	olnu	d		S	pl n
,	,			Z	
vastas	vasta	s		V	s
      	vastas	0		D	
      	vastas	0		K	
:	:			Z	
tema	tema	0		P	sg g
    	tema	0		P	sg n
olevat	ole	vat		V	vat
      	olev	t		A	sg p
      	olev	t		S	sg p
enne	enne	0		D	
    	enne	0		K	
    	enne	0		S	sg n
kivi	kivi	0		S	sg g
    	kivi	0		S	sg n
    	kivi	0		S	sg p
peale	pea	le		S	sg all
     	peale	0		D	
     	peale	0		K	
laskmist	laskmine	t		S	sg p
lepitsa	####				
kotti	kott	0		S	adt
     	kotti	0		D	
     	kott	i		S	pl p
     	kott	0		S	sg p
suust	suu	st		S	sg el
ära	ära	0		D	
   	ära	0		V	neg o
võtnud	võt	nud		V	nud
      	võt=nu	d		S	pl n
      	võt=nud	0		A	
      	võt=nud	0		A	sg n
      	võt=nud	d		A	pl n
ja	ja	0		J	
Johan	Johan	0		H	sg n
tuulele	tuul	le		S	sg all
näidanud	näita	nud		V	nud
        	näida=nu	d		S	pl n
        	näida=nud	0		A	
        	näida=nud	0		A	sg n
        	näida=nud	d		A	pl n
,	,			Z	
aga	aga	0		J	
Tuul	tuul	0		S	sg n
on	ole	0		V	b
  	ole	0		V	vad
lepitsa	####				
katki	katki	0		D	
raiunud	raiu	nud		V	nud
       	raiu=nu	d		S	pl n
       	raiu=nud	0		A	
       	raiu=nud	0		A	sg n
       	raiu=nud	d		A	pl n
.	.			Z	
mõistus	mõistus	0		S	sg n
:	:			Z	
Johan	Johan	0		H	sg n
Plutnik	####				
maksab	maks	b		V	b
6	6	0		N	?
rubla	rubla	0		S	sg g
     	rubla	0		S	sg n
     	rubla	0		S	sg p
vaeste	vaene	te		A	pl g
      	vaene	te		S	pl g
laadiku	laadik	0		S	sg g
trahvi	trahv	0		S	adt
      	trahv	0		S	sg g
      	trahvi	0		V	o
      	trahv	0		S	sg p
ja	ja	0		J	
saab	saa	b		V	b
möldri	mölder	0		S	sg g
Mihkel	Mihkel	0		H	sg n
      	mihkel	0		A	sg n
      	mihkel	0		S	sg n
soo	soo	0		I	
   	soo	0		S	sg g
   	sugu	0		S	sg g
   	soo	0		S	sg n
käest	käest	0		K	
     	käsi	st		S	sg el
omad	oma	d		A	pl n
    	oma	d		P	pl n
    	oma	d		S	pl n
    	oma	d		V	d
tatriku	####				
koormat	koorem	t		S	sg p
kätte	kätte	0		K	
     	käsi	tte		S	adt
.	.			Z	
kohtu	kohtu	0		V	o
     	kohus	0		S	sg g
lauas	laud	s		S	sg in
olivad	####				
:	:			Z	
Peakohtumees	pea_kohtu_mees	0		S	sg n
Mihkel	Mihkel	0		H	sg n
      	mihkel	0		A	sg n
      	mihkel	0		S	sg n
Klaos	####				
kohtumees	kohtu_mees	0		S	sg n
:	:			Z	
Johan	Johan	0		H	sg n
Ling	ling	0		S	sg n
dito	####				
Johan	Johan	0		H	sg n
Udel	####				
tõsi	tõsi	0		S	pl p
    	tõsi	0		S	sg n
Rein	Rein	0		H	sg n
Anku	####				
.	.			Z	
mõistus	mõistus	0		S	sg n
sai	saa	i		V	s
   	sai	0		S	sg n
seadust	seadus	t		S	sg p
mööda	mööda	0		A	
     	mööda	0		D	
     	mööda	0		K	
kuulutud	kuulu	tud		V	tud
        	kuulu=tu	d		S	pl n
        	kuulu=tud	0		A	
        	kuulu=tud	0		A	sg n
        	kuulu=tud	d		A	pl n
ja	ja	0		J	
õppus	õppus	0		S	sg n
antud	an=tu	d		S	pl n
     	and	tud		V	tud
     	antud	0		A	
     	antud	0		A	sg n
     	antud	d		A	pl n
,	,			Z	
mis	mis	0		P	pl n
   	mis	0		P	sg n
tähele	täht	le		S	sg all
      	tähele	0		X	
tules	tuli	s		S	sg in
panna	pand	0		S	sg g
     	pane	a		V	da
     	panna	0		S	sg g
     	panna	0		S	sg n
,	,			Z	
kui	kui	0		D	
   	kui	0		J	
suuremat	suurem	t		C	sg p
kohut	kohus	t		S	sg p
tahaks	taht	ks		V	ks
käija	käija	0		S	sg g
     	käija	0		S	sg n
.	.			Z	
