Johann	Johann	0		H	sg n
Tammur	####				
kaebas	kaeba	s		V	s
,	,			Z	
et	et	0		J	
Peeter	Peeter	0		H	sg n
Piir	piir	0		S	sg n
olla	ole	a		V	da
tema	tema	0		P	sg g
    	tema	0		P	sg n
naist	naine	t		S	sg p
peksnud	peks	nud		V	nud
       	peks=nu	d		S	pl n
       	peks=nud	0		A	
       	peks=nud	0		A	sg n
       	peks=nud	d		A	pl n
,	,			Z	
suurunud	####				
ja	ja	0		J	
välja	välja	0		D	
     	välja	0		V	o
     	väli	0		S	adt
     	väli	0		S	sg g
     	väli	0		S	sg p
viskanud	####				
kambrist	kamber	st		S	sg el
.	.			Z	
kaebaja	kaebaja	0		S	sg g
       	kaebaja	0		S	sg n
nõuab	nõud	b		V	b
5	5	0		N	?
rubla	rubla	0		S	sg g
     	rubla	0		S	sg n
     	rubla	0		S	sg p
valuraha	valu_raha	0		S	sg g
        	valu_raha	0		S	sg n
        	valu_raha	0		S	sg p
.	.			Z	
otsus	otsus	0		S	sg n
:	:			Z	
kaebaja	kaebaja	0		S	sg g
       	kaebaja	0		S	sg n
ja	ja	0		J	
kaebatud	####				
teiseks	teine	ks		O	sg tr
       	teine	ks		P	sg tr
       	teiseks	0		D	
kohtu	kohtu	0		V	o
     	kohus	0		S	sg g
peavaks	####				
ette	ette	0		D	
    	ette	0		K	
    	esi	tte		S	adt
kutsuda	kutsu	da		V	da
.	.			Z	
