sel	see	l		P	sg ad
   	sel	0		Y	?
21	21	0		N	?
Märsil	märss	l		S	sg ad
1875	1875	0		N	?
koos	koos	0		D	
    	koos	0		K	
    	koos	0		S	sg n
    	kubu	s		S	sg in
olid	ole	id		V	sid
peakohtumees	pea_kohtu_mees	0		S	sg n
Josep	####				
Kask	kask	0		S	sg n
teinekohtumees	####				
Maddis	####				
Sildnik	####				
kolmas	kolmas	0		O	sg n
kohtumees	kohtu_mees	0		S	sg n
Jaan	Jaan	0		H	sg n
    	jaan	0		S	sg n
    	jaan	0		Y	?
Mänd	mänd	0		S	sg n
Toomas	Toomas	0		H	sg n
      	Toomas	s		H	sg in
      	too	mas		V	mas
Vaino	Vaino	0		H	sg g
     	Vaino	0		H	sg n
malsis	####				
metsavarguse	metsa_vargus	0		S	sg g
eest	eest	0		D	
    	eest	0		K	
    	esi	st		S	sg el
trahvi	trahv	0		S	adt
      	trahv	0		S	sg g
      	trahvi	0		V	o
      	trahv	0		S	sg p
1	1	0		N	?
kuusk	kuusk	0		S	sg n
34	34	0		N	?
jalga	jalg	0		S	adt
     	jalg	0		S	sg p
     	jalga	0		D	
p	p	0		Y	?
.	.			Z	
11	11	0		N	?
toli	####				
kanno	####				
p	p	0		Y	?
.	.			Z	
1	1	0		N	?
rubl	####				
.	.			Z	
84	84	0		N	?
kop	kop	0		Y	?
1	1	0		N	?
kuusk	kuusk	0		S	sg n
32	32	0		N	?
-	-			Z	
9	9	0		N	?
-	-			Z	
120.	120.	0		O	?
Summa	summ	0		S	adt
     	summ	0		S	sg g
     	summ	0		S	sg p
     	summa	0		S	sg g
     	summa	0		S	sg n
3	3	0		N	?
rubl	####				
.	.			Z	
14	14	0		N	?
Cp	####				
.	.			Z	
Josep	####				
Kask	kask	0		S	sg n
XXX	XXX	0		O	?
   	XXX	0		Y	?
Maddis	####				
Sildnik	####				
XXX	XXX	0		O	?
   	XXX	0		Y	?
Jaan	Jaan	0		H	sg n
    	jaan	0		S	sg n
    	jaan	0		Y	?
Mänd	mänd	0		S	sg n
XXX	XXX	0		O	?
   	XXX	0		Y	?
