Pala	Pala	0		H	sg g
    	pala	0		S	sg g
    	pala	0		V	o
    	Pala	0		H	sg n
    	pala	0		S	sg n
    	pala	0		S	sg p
vallakohus	valla_kohus	0		S	sg n
22	22	0		N	?
märtsil	märts	l		S	sg ad
1907	1907	0		N	?
a.	a	0		Y	?
Juures	juur	s		S	sg in
      	juures	0		D	
      	juures	0		K	
olid	ole	id		V	sid
esimees	esi_mees	0		S	sg n
K	K	0		Y	?
Reinhold	####				
.	.			Z	
kohtuliikmed	kohtu_liige	d		S	pl n
K. Holst	####				
,	,			Z	
P. Juur	####				
,	,			Z	
V. Tamming	####				
.	.			Z	
Tulid	tule	id		V	sid
ette	ette	0		D	
    	ette	0		K	
    	esi	tte		S	adt
Pala	Pala	0		H	sg g
    	pala	0		S	sg g
    	pala	0		V	o
    	Pala	0		H	sg n
    	pala	0		S	sg n
    	pala	0		S	sg p
valla	vald	0		S	sg g
     	valla	0		D	
liikmed	liige	d		S	pl n
Gustav	Gustav	0		H	sg n
Jaanuse	Jaanus	0		H	sg g
p	p	0		Y	?
.	.			Z	
Visser	####				
ja	ja	0		J	
tema	tema	0		P	sg g
    	tema	0		P	sg n
poeg	poeg	0		S	sg n
August	august	0		S	sg n
      	auk	st		S	sg el
      	August	0		H	sg n
Gustavi	Gustav	0		H	sg g
p	p	0		Y	?
.	.			Z	
Visser	####				
ja	ja	0		J	
tegid	tege	id		V	sid
eneste	ise	te		P	pl g
vahel	vahe	l		S	sg ad
     	vahel	0		D	
     	vahel	0		K	
järgmise	järgmine	0		A	sg g
lepingu	leping	0		S	sg g
:	:			Z	
Iisa	####				
,	,			Z	
Gustav	Gustav	0		H	sg n
Jaanuse	Jaanus	0		H	sg g
p	p	0		Y	?
Visser	####				
annab	and	b		V	b
oma	oma	0		A	sg g
   	oma	0		D	
   	oma	0		P	sg g
   	oma	0		S	sg g
   	oma	0		V	o
   	oma	0		A	sg n
   	oma	0		A	sg p
   	oma	0		P	sg n
   	oma	0		P	sg p
   	oma	0		S	sg n
   	oma	0		S	sg p
päralt	pära	lt		S	sg abl
      	päralt	0		K	
oleva	olev	0		A	sg g
     	olev	0		S	sg g
Jõe	jõgi	0		S	sg g
mõisa	mõis	0		S	sg g
järel	järel	0		D	
     	järel	0		K	
oleva	olev	0		A	sg g
     	olev	0		S	sg g
Lombi	lomp	0		S	sg g
N 35	N35	0		Y	?
poole	pool	0		N	sg g
     	pool	0		S	sg g
     	pool	e		S	pl p
     	poole	0		K	
     	poole	0		S	sg n
talukoha	talu_koht	0		S	sg g
,	,			Z	
kõige	kõik	0		P	sg g
     	kõige	0		D	
tema	tema	0		P	sg g
    	tema	0		P	sg n
pääl	####				
olevate	olev	te		A	pl g
       	olev	te		S	pl g
ehitustega	ehitus	tega		S	pl kom
,	,			Z	
ühe	üks	0		N	sg g
   	üks	0		P	sg g
   	ühe	0		S	sg n
hobuse	hobune	0		S	sg g
ja	ja	0		J	
kahe	kaks	0		N	sg g
lehmaga	lehm	ga		S	sg kom
poja	poeg	0		S	sg g
    	poja	0		S	sg g
    	poja	0		S	sg n
    	poja	0		S	sg p
Augustile	august	le		S	sg all
         	August	le		H	sg all
klngituseks	####				
ja	ja	0		J	
nimelt	nimelt	0		D	
      	nimi	lt		S	sg abl
,	,			Z	
Jüripäeval	jüri_päev	l		S	sg ad
,	,			Z	
23	23	0		N	?
aprillil	aprill	l		S	sg ad
1109.	1109.	0		O	?
aastal	aasta	l		S	sg ad
,	,			Z	
järgmiste	järgmine	te		A	pl g
tingimistega	tingimine	tega		S	pl kom
:	:			Z	
1.	1.	0		O	?
,	,			Z	
,	,			Z	
Kuusiksaare	kuusik_saar	0		S	sg g
`	’			Z	
`	’			Z	
maaos	####				
saab	saa	b		V	b
jäedavalt	####				
ühes	üks	s		N	sg in
    	üks	s		P	sg in
    	ühes	0		D	
    	ühes	0		K	
tema	tema	0		P	sg g
    	tema	0		P	sg n
pääl	####				
olevate	olev	te		A	pl g
       	olev	te		S	pl g
ehitustega	ehitus	tega		S	pl kom
Lombi	lomp	0		S	sg g
talu	talu	0		S	sg g
    	talu	0		V	o
    	talu	0		S	sg n
    	talu	0		S	sg p
küljest	külg	st		S	sg el
       	küljest	0		D	
       	küljest	0		K	
ära	ära	0		D	
   	ära	0		V	neg o
lahutud	lahutu	d		V	d
ja	ja	0		J	
isa	isa	0		S	sg g
   	isa	0		S	sg n
   	isa	0		S	sg p
Gustavile	Gustav	le		H	sg all
arvatud	arva	tud		V	tud
       	arva=tu	d		S	pl n
       	arva=tud	0		A	
       	arva=tud	0		A	sg n
       	arva=tud	d		A	pl n
,	,			Z	
ja	ja	0		J	
jäeb	####				
pääle	####				
minu	mina	0		P	sg g
surma	surm	0		S	adt
     	surm	0		S	sg g
     	surma	0		V	o
     	surm	0		S	sg p
minu	mina	0		P	sg g
naisele	naine	le		S	sg all
ja	ja	0		J	
tütre	tütar	0		S	sg g
emiilile	####				
ning	ning	0		J	
pääle	####				
neid	neid	0		S	sg n
    	see	d		P	pl p
    	tema	d		P	pl p
Juhannes-	####				
eduard	####				
Gustavi	Gustav	0		H	sg g
p	p	0		Y	?
.	.			Z	
Visserile	####				
,	,			Z	
ilma	ilm	0		S	adt
    	ilm	0		S	sg g
    	ilma	0		D	
    	ilma	0		K	
    	ilm	0		S	sg p
mingisuguse	mingi_sugune	0		P	sg g
maksuta	maks	ta		S	sg ab
.	.			Z	
Tähendus	tähendus	0		S	sg n
:	:			Z	
Sunduslikud	sunduslik	d		A	pl n
maamaksud	maa_maks	d		S	pl n
selle	see	0		P	sg g
     	sell	e		S	pl p
maaos	####				
eest	eest	0		D	
    	eest	0		K	
    	esi	st		S	sg el
maksab	maks	b		V	b
poeg	poeg	0		S	sg n
August	august	0		S	sg n
      	auk	st		S	sg el
      	August	0		H	sg n
.	.			Z	
2.	2.	0		O	?
Selles	see	s		P	sg in
ajaks	aeg	ks		S	sg tr
     	aja	ks		V	ks
,	,			Z	
kui	kui	0		D	
   	kui	0		J	
talu	talu	0		S	sg g
    	talu	0		V	o
    	talu	0		S	sg n
    	talu	0		S	sg p
poja	poeg	0		S	sg g
    	poja	0		S	sg g
    	poja	0		S	sg n
    	poja	0		S	sg p
Augustile	august	le		S	sg all
         	August	le		H	sg all
saab	saa	b		V	b
s. o.	s.o	0		Y	?
1910	1910	0		N	?
aastas	aasta	s		S	sg in
,	,			Z	
peab	pida	b		V	b
tema	tema	0		P	sg g
    	tema	0		P	sg n
Kuusiksaar	kuusik_saar	0		S	sg n
maaos	####				
pääle	####				
aitama	aita	ma		V	ma
isa	isa	0		S	sg g
   	isa	0		S	sg n
   	isa	0		S	sg p
Gustavil	Gustav	l		H	sg ad
elamiseks	elamine	ks		S	sg tr
korraliku	korralik	0		A	sg g
maja	maja	0		S	sg g
    	maja	0		S	sg n
    	maja	0		S	sg p
üles	üles	0		D	
ehitada	ehita	da		V	da
.	.			Z	
3.	3.	0		O	?
Iisa	####				
Gustav	Gustav	0		H	sg n
Visser	####				
ja	ja	0		J	
tema	tema	0		P	sg g
    	tema	0		P	sg n
pere	pere	0		S	sg g
    	pere	0		S	sg n
ülespidamiseks	üles_pidamine	ks		S	sg tr
annab	and	b		V	b
poeg	poeg	0		S	sg n
August	august	0		S	sg n
      	auk	st		S	sg el
      	August	0		H	sg n
iga	iga	0		P	sg g
   	iga	0		P	sg n
   	iga	0		P	sg p
   	iga	0		S	sg n
   	iga	0		S	sg p
aasta	aasta	0		S	sg g
     	aasta	0		S	sg n
kahe	kaks	0		N	sg g
inimese	inimene	0		S	sg g
moona	moon	0		S	adt
     	moon	0		S	sg g
     	moon	0		S	sg p
,	,			Z	
s. o.	s.o	0		Y	?
10	10	0		N	?
vakka	vakk	0		S	adt
     	vakk	0		S	sg p
     	vakka	0		D	
rukkit	####				
,	,			Z	
10	10	0		N	?
vakka	vakk	0		S	adt
     	vakk	0		S	sg p
     	vakka	0		D	
odre	####				
,	,			Z	
10	10	0		N	?
vakka	vakk	0		S	adt
     	vakk	0		S	sg p
     	vakka	0		D	
kartohvlid	####				
,	,			Z	
2	2	0		N	?
lesikat	####				
häid	hea	id		A	pl p
    	hea	id		S	pl p
linu	lina	u		S	pl p
ja	ja	0		J	
15	15	0		N	?
rub	####				
raha	raha	0		S	sg g
    	raha	0		S	sg n
    	raha	0		S	sg p
ja	ja	0		J	
peab	pida	b		V	b
ühe	üks	0		N	sg g
   	üks	0		P	sg g
   	ühe	0		S	sg n
lehma	lehm	0		S	adt
     	lehm	0		S	sg g
     	lehm	0		S	sg p
oma	oma	0		A	sg g
   	oma	0		D	
   	oma	0		P	sg g
   	oma	0		S	sg g
   	oma	0		V	o
   	oma	0		A	sg n
   	oma	0		A	sg p
   	oma	0		P	sg n
   	oma	0		P	sg p
   	oma	0		S	sg n
   	oma	0		S	sg p
kraamist	kraam	st		S	sg el
üleval	ülev	l		A	sg ad
      	üleval	0		D	
,	,			Z	
ehk	ehk	0		D	
   	ehk	0		J	
,	,			Z	
annab	and	b		V	b
sedavõrd	seda_võrd	0		D	
loomatoidust	looma_toit	st		S	sg el
.	.			Z	
Õunaaiast	õuna_aed	st		S	sg el
jäeb	####				
isa	isa	0		S	sg g
   	isa	0		S	sg n
   	isa	0		S	sg p
Gustavile	Gustav	le		H	sg all
osa	osa	0		S	sg g
   	osa	0		S	sg n
   	osa	0		S	sg p
.	.			Z	
4.	4.	0		O	?
Poeg	poeg	0		S	sg n
August	august	0		S	sg n
      	auk	st		S	sg el
      	August	0		H	sg n
annab	and	b		V	b
Kuusiksaare	kuusik_saar	0		S	sg g
maaharimiseks	maa_harimine	ks		S	sg tr
isale	isa	le		S	sg all
hobust	hobu	st		S	sg el
      	hobune	t		S	sg p
,	,			Z	
ja	ja	0		J	
pääle	####				
selle	see	0		P	sg g
     	sell	e		S	pl p
veel	veel	0		D	
    	vesi	l		S	sg ad
igal	iga	l		P	sg ad
ajal	aeg	l		S	sg ad
    	ajal	0		K	
,	,			Z	
kui	kui	0		D	
   	kui	0		J	
isal	isa	l		S	sg ad
tarvis	tarvis	0		D	
      	tarvis	0		K	
peaks	pea	ks		S	sg tr
     	pida	ks		V	ks
olema	ole	ma		V	ma
.	.			Z	
5.	5.	0		O	?
August	august	0		S	sg n
      	auk	st		S	sg el
      	August	0		H	sg n
Visser	####				
maksab	maks	b		V	b
oma	oma	0		A	sg g
   	oma	0		D	
   	oma	0		P	sg g
   	oma	0		S	sg g
   	oma	0		V	o
   	oma	0		A	sg n
   	oma	0		A	sg p
   	oma	0		P	sg n
   	oma	0		P	sg p
   	oma	0		S	sg n
   	oma	0		S	sg p
vendade	vend	de		S	pl g
ja	ja	0		J	
õele	õde	le		S	sg all
välja	välja	0		D	
     	välja	0		V	o
     	väli	0		S	adt
     	väli	0		S	sg g
     	väli	0		S	sg p
:	:			Z	
Aleksandrile	Aleksander	le		H	sg all
            	Aleksandr	le		H	sg all
70	70	0		N	?
rub	####				
.	.			Z	
,	,			Z	
aga	aga	0		J	
emilie	####				
,	,			Z	
Kaarli	Kaarel	0		H	sg g
      	Kaarli	0		H	sg g
      	Kaarli	0		H	sg n
ja	ja	0		J	
Voldemarile	Voldemar	le		H	sg all
igaühele	iga_üks	le		P	sg all
100-sada	####				
rubla	rubla	0		S	sg g
     	rubla	0		S	sg n
     	rubla	0		S	sg p
,	,			Z	
ja	ja	0		J	
Johannes	Johannes	0		H	sg n
        	Johann	es		H	pl in
eduardile	####				
200	200	0		N	?
-	-			Z	
kakssada	kaks_sada	0		N	sg n
rub	####				
.	.			Z	
6.	6.	0		O	?
Tütre	tütar	0		S	sg g
emilie	####				
osa	osa	0		S	sg g
   	osa	0		S	sg n
   	osa	0		S	sg p
ei	ei	0		D	
  	ei	0		V	neg
saa	saa	0		V	o
mitte	mitte	0		D	
otsekohe	otse_kohe	0		D	
tema	tema	0		P	sg g
    	tema	0		P	sg n
enese	ise	0		P	sg g
kätte	kätte	0		K	
     	käsi	tte		S	adt
antud	an=tu	d		S	pl n
     	and	tud		V	tud
     	antud	0		A	
     	antud	0		A	sg n
     	antud	d		A	pl n
,	,			Z	
vaid	vaid	0		D	
    	vaid	0		J	
isa	isa	0		S	sg g
   	isa	0		S	sg n
   	isa	0		S	sg p
kätte	kätte	0		K	
     	käsi	tte		S	adt
,	,			Z	
ja	ja	0		J	
pääle	####				
isa	isa	0		S	sg g
   	isa	0		S	sg n
   	isa	0		S	sg p
surma	surm	0		S	adt
     	surm	0		S	sg g
     	surma	0		V	o
     	surm	0		S	sg p
ühe	üks	0		N	sg g
   	üks	0		P	sg g
   	ühe	0		S	sg n
usaldatava	usaldatav	0		A	sg g
poja	poeg	0		S	sg g
    	poja	0		S	sg g
    	poja	0		S	sg n
    	poja	0		S	sg p
hoolde	hool	de		S	adt
      	hoole	0		S	adt
      	hoole	0		S	sg g
.	.			Z	
raha	raha	0		S	sg g
    	raha	0		S	sg n
    	raha	0		S	sg p
peab	pida	b		V	b
protsendi	protsent	0		S	sg g
pääl	####				
seisma	seis	ma		V	ma
.	.			Z	
Sellest	see	st		P	sg el
rahast	raha	st		S	sg el
saab	saa	b		V	b
tarvilisel	tarviline	l		A	sg ad
korral	kord	l		S	sg ad
      	korral	0		D	
      	korral	0		K	
temale	tema	le		P	sg all
välja	välja	0		D	
     	välja	0		V	o
     	väli	0		S	adt
     	väli	0		S	sg g
     	väli	0		S	sg p
antud	an=tu	d		S	pl n
     	and	tud		V	tud
     	antud	0		A	
     	antud	0		A	sg n
     	antud	d		A	pl n
.	.			Z	
7.	7.	0		O	?
kui	kui	0		D	
   	kui	0		J	
Iisa	####				
Gustav	Gustav	0		H	sg n
peaks	pea	ks		S	sg tr
     	pida	ks		V	ks
enne	enne	0		D	
    	enne	0		K	
    	enne	0		S	sg n
1910	1910	0		N	?
aastat	aasta	t		S	sg p
ära	ära	0		D	
   	ära	0		V	neg o
surema	sure	ma		V	ma
,	,			Z	
ehk	ehk	0		D	
   	ehk	0		J	
milgi	mil	0	gi	D	
     	mis	l	gi	P	sg ad
muul	muu	l		P	sg ad
    	muu	l		S	sg ad
    	muul	0		S	sg n
teel	tee	l		S	sg ad
    	teel	0		K	
temal	tema	l		P	sg ad
talupidamine	talu_pidamine	0		S	sg n
võimatus	võimatu	s		A	sg in
        	võimatus	0		S	sg n
peaks	pea	ks		S	sg tr
     	pida	ks		V	ks
saama	saa	ma		V	ma
     	saam	0		S	adt
     	saam	0		S	sg g
     	saam	0		S	sg p
,	,			Z	
siis	siis	0		D	
    	siis	0		J	
saab	saa	b		V	b
poeg	poeg	0		S	sg n
August	august	0		S	sg n
      	auk	st		S	sg el
      	August	0		H	sg n
kõik	kõik	0		P	pl n
    	kõik	0		S	sg n
    	kõik	0		P	sg n
üleval	ülev	l		A	sg ad
      	üleval	0		D	
nimetud	nimetu	d		A	pl n
kohused	kohus	d		S	pl n
sest	see	st		P	sg el
    	sest	0		J	
ajast	aeg	st		S	sg el
     	ajane	t		A	sg p
pääle	####				
enese	ise	0		P	sg g
kanda	kand	0		S	adt
     	kand	a		V	da
     	kand	0		S	sg p
võtma	võt	ma		V	ma
ja	ja	0		J	
pääle	####				
selle	see	0		P	sg g
     	sell	e		S	pl p
minu	mina	0		P	sg g
poega	poeg	0		S	adt
     	pood	ga		S	sg kom
     	poeg	0		S	sg p
ja	ja	0		J	
enese	ise	0		P	sg g
venda	vend	0		S	adt
     	vend	0		S	sg p
Juhannes	####				
eduardi	####				
kuni	kuni	0		J	
    	kuni	0		K	
1910	1910	0		N	?
aastani	aasta	ni		S	sg ter
kasvatama	kasva	tama		V	tama
         	kasvata	ma		V	ma
ja	ja	0		J	
koolitama	koolita	ma		V	ma
ja	ja	0		J	
ikkagi	ikkagi	0		D	
temale	tema	le		P	sg all
määratud	määra	tud		V	tud
        	määra=tu	d		S	pl n
        	määratu	d		A	pl n
        	määratud	0		A	
        	määratud	0		A	sg n
        	määratud	d		A	pl n
osa	osa	0		S	sg g
   	osa	0		S	sg n
   	osa	0		S	sg p
200	200	0		N	?
rub	####				
.	.			Z	
välja	välja	0		D	
     	välja	0		V	o
     	väli	0		S	adt
     	väli	0		S	sg g
     	väli	0		S	sg p
maksma	maks	ma		V	ma
.	.			Z	
8.	8.	0		O	?
Oma	oma	0		A	sg g
   	oma	0		D	
   	oma	0		P	sg g
   	oma	0		S	sg g
   	oma	0		V	o
   	oma	0		A	sg n
   	oma	0		A	sg p
   	oma	0		P	sg n
   	oma	0		P	sg p
   	oma	0		S	sg n
   	oma	0		S	sg p
nimetud	nimetu	d		A	pl n
vendade	vend	de		S	pl g
ja	ja	0		J	
õele	õde	le		S	sg all
peab	pida	b		V	b
August	august	0		S	sg n
      	auk	st		S	sg el
      	August	0		H	sg n
10	10	0		N	?
aasta	aasta	0		S	sg g
     	aasta	0		S	sg n
jooksul	jooks	l		S	sg ad
       	jooksul	0		K	
,	,			Z	
sellest	see	st		P	sg el
ajast	aeg	st		S	sg el
     	ajane	t		A	sg p
arvatud	arva	tud		V	tud
       	arva=tu	d		S	pl n
       	arva=tud	0		A	
       	arva=tud	0		A	sg n
       	arva=tud	d		A	pl n
,	,			Z	
kui	kui	0		D	
   	kui	0		J	
talu	talu	0		S	sg g
    	talu	0		V	o
    	talu	0		S	sg n
    	talu	0		S	sg p
tema	tema	0		P	sg g
    	tema	0		P	sg n
kätte	kätte	0		K	
     	käsi	tte		S	adt
saab	saa	b		V	b
,	,			Z	
raha	raha	0		S	sg g
    	raha	0		S	sg n
    	raha	0		S	sg p
välja	välja	0		D	
     	välja	0		V	o
     	väli	0		S	adt
     	väli	0		S	sg g
     	väli	0		S	sg p
maksma	maks	ma		V	ma
ilma	ilm	0		S	adt
    	ilm	0		S	sg g
    	ilma	0		D	
    	ilma	0		K	
    	ilm	0		S	sg p
%	%	0		Y	?
.	.			Z	
9.	9.	0		O	?
kui	kui	0		D	
   	kui	0		J	
Gustav	Gustav	0		H	sg n
Visser	####				
ehk	ehk	0		D	
   	ehk	0		J	
tema	tema	0		P	sg g
    	tema	0		P	sg n
abikaasa	abi_kaasa	0		S	sg g
        	abi_kaasa	0		S	sg n
ükskord	üks_kord	0		D	
ära	ära	0		D	
   	ära	0		V	neg o
sured	sure	d		V	d
,	,			Z	
siis	siis	0		D	
    	siis	0		J	
teeb	tege	b		V	b
see	see	0		P	sg n
,	,			Z	
kes	kes	0		P	pl n
   	kes	0		P	sg n
Kuusiksaares	kuusik_saar	s		S	sg in
elama	ela	ma		V	ma
saab	saa	b		V	b
,	,			Z	
iga	iga	0		P	sg g
   	iga	0		P	sg n
   	iga	0		P	sg p
   	iga	0		S	sg n
   	iga	0		S	sg p
aasta	aasta	0		S	sg g
     	aasta	0		S	sg n
Lombi	lomp	0		S	sg g
talule	talu	le		S	sg all
10	10	0		N	?
jalapäeva	jala_päev	0		S	adt
         	jala_päev	0		S	sg g
         	jala_päev	0		S	sg p
.	.			Z	
kui	kui	0		D	
   	kui	0		J	
aga	aga	0		J	
sääl	####				
emilist	####				
tütar	tütar	0		S	sg n
elama	ela	ma		V	ma
saab	saa	b		V	b
,	,			Z	
siis	siis	0		D	
    	siis	0		J	
peab	pida	b		V	b
poeg	poeg	0		S	sg n
August	august	0		S	sg n
      	auk	st		S	sg el
      	August	0		H	sg n
temale	tema	le		P	sg all
igaaastaseks	iga_aastane	ks		A	sg tr
moonas	moon	s		S	sg in
4	4	0		N	?
vakka	vakk	0		S	adt
     	vakk	0		S	sg p
     	vakka	0		D	
rukkid	rukis	d		S	pl n
ja	ja	0		J	
4	4	0		N	?
vakka	vakk	0		S	adt
     	vakk	0		S	sg p
     	vakka	0		D	
otre	####				
andma	and	ma		V	ma
.	.			Z	
Gustav	Gustav	0		H	sg n
Jaanuse	Jaanus	0		H	sg g
p	p	0		Y	?
.	.			Z	
Visser	####				
ei	ei	0		D	
  	ei	0		V	neg
oska	oska	0		V	o
kirjutada	kirjuta	da		V	da
,	,			Z	
tema	tema	0		P	sg g
    	tema	0		P	sg n
palvel	palve	l		S	sg ad
kirjutas	kirjuta	s		V	s
:	:			Z	
Gustav	Gustav	0		H	sg n
Olev	Olev	0		H	sg n
    	ole	v		V	v
    	olev	0		A	sg n
    	olev	0		S	sg n
August	august	0		S	sg n
      	auk	st		S	sg el
      	August	0		H	sg n
Visser	####				
.	.			Z	
Palla	####				
vallakohus	valla_kohus	0		S	sg n
tõendab	tõenda	b		V	b
,	,			Z	
et	et	0		J	
eesolev	ees_olev	0		A	sg n
       	ees_olev	0		S	sg n
leping	leping	0		S	sg n
isiklikult	isiklik	lt		A	sg abl
          	isiklikult	0		D	
tuntud	tund	tud		V	tud
      	tuntu	d		S	pl n
      	tuntud	0		A	
      	tuntud	0		A	sg n
      	tuntud	d		A	pl n
Pala	Pala	0		H	sg g
    	pala	0		S	sg g
    	pala	0		V	o
    	Pala	0		H	sg n
    	pala	0		S	sg n
    	pala	0		S	sg p
valla	vald	0		S	sg g
     	valla	0		D	
liikme	liige	0		S	sg g
Gustav	Gustav	0		H	sg n
Jaanuse	Jaanus	0		H	sg g
p	p	0		Y	?
Visser	####				
ja	ja	0		J	
tema	tema	0		P	sg g
    	tema	0		P	sg n
poja	poeg	0		S	sg g
    	poja	0		S	sg g
    	poja	0		S	sg n
    	poja	0		S	sg p
August	august	0		S	sg n
      	auk	st		S	sg el
      	August	0		H	sg n
vahel	vahe	l		S	sg ad
     	vahel	0		D	
     	vahel	0		K	
maha	maha	0		D	
tehtud	tehtu	d		S	pl n
      	tehtud	0		A	
      	tehtud	0		A	sg n
      	tehtud	d		A	pl n
      	tege	tud		V	tud
ja	ja	0		J	
Gustav	Gustav	0		H	sg n
Visseri	####				
palvel	palve	l		S	sg ad
ja	ja	0		J	
kirjaoskamatusel	kirja_oskamatus	l		S	sg ad
Gustav	Gustav	0		H	sg n
Josepi	####				
p	p	0		Y	?
Olevi	Olev	0		H	sg g
ja	ja	0		J	
lepingu	leping	0		S	sg g
tõise	####				
tegia	####				
August	august	0		S	sg n
      	auk	st		S	sg el
      	August	0		H	sg n
Gustavi	Gustav	0		H	sg g
p	p	0		Y	?
Visseri	####				
poolt	pool	t		N	sg p
     	pool	t		S	sg p
     	poolt	0		D	
     	poolt	0		K	
isiklikult	isiklik	lt		A	sg abl
          	isiklikult	0		D	
on	ole	0		V	b
  	ole	0		V	vad
alla	alla	0		D	
    	alla	0		K	
kirjutud	####				
.	.			Z	
esimees	esi_mees	0		S	sg n
K	K	0		Y	?
Reinhold	####				
liikmed	liige	d		S	pl n
K	K	0		Y	?
Holst	Holst	0		H	sg n
V	V	0		O	?
 	V	0		Y	?
Tamming	####				
P	P	0		Y	?
Juur	juur	0		S	sg n
.	.			Z	
A	A	0		Y	?
.	.			Z	
j	j	0		Y	?
.	.			Z	
Kirjutaja	kirjutaja	0		S	sg g
         	kirjutaja	0		S	sg n
Brükkel	####				
.	.			Z	
