Haslava	####				
kogukonna	kogukond	0		S	sg g
kohus	kohu	s		V	s
     	kohus	0		S	sg n
29	29	0		N	?
Aprillil	aprill	l		S	sg ad
1881.	1881.	0		O	?
juures	juur	s		S	sg in
      	juures	0		D	
      	juures	0		K	
istus	ist	s		S	sg in
     	istu	s		V	s
:	:			Z	
Peakohtumees	pea_kohtu_mees	0		S	sg n
Mihkel	Mihkel	0		H	sg n
      	mihkel	0		A	sg n
      	mihkel	0		S	sg n
Klaos	####				
kohtumees	kohtu_mees	0		S	sg n
Johan	Johan	0		H	sg n
Ling	ling	0		S	sg n
dito	####				
Johan	Johan	0		H	sg n
Udel	####				
tüli	tüli	0		S	sg g
    	tüli	0		S	sg n
    	tüli	0		S	sg p
ette	ette	0		D	
    	ette	0		K	
    	esi	tte		S	adt
Joahkim	####				
Rosenthal	####				
ja	ja	0		J	
kaebas	kaeba	s		V	s
:	:			Z	
Tilba	####				
taluperemees	talu_pere_mees	0		S	sg n
ei	ei	0		D	
  	ei	0		V	neg
ole	ole	0		V	o
1877	1877	0		N	?
aastal	aasta	l		S	sg ad
tema	tema	0		P	sg g
    	tema	0		P	sg n
maja	maja	0		S	sg g
    	maja	0		S	sg n
    	maja	0		S	sg p
kattuse	####				
katmise	katmine	0		S	sg g
tarvis	tarvis	0		D	
      	tarvis	0		K	
384	384	0		N	?
naela	nael	0		S	adt
     	nael	0		S	sg g
     	nael	0		S	sg p
õlgi	õlg	i		S	pl p
ära	ära	0		D	
   	ära	0		V	neg o
toonud	too	nud		V	nud
      	too=nu	d		S	pl n
      	too=nud	0		A	
      	too=nud	0		A	sg n
      	too=nud	d		A	pl n
,	,			Z	
ei	ei	0		D	
  	ei	0		V	neg
ka	ka	0		D	
ühte	ühte	0		D	
    	üks	0		N	adt
    	üks	0		P	adt
    	ühe	0		S	sg g
    	üks	0		N	sg p
    	üks	0		P	sg p
päeva	päev	0		S	adt
     	päev	0		S	sg g
     	päev	0		S	sg p
teinud	tege	nud		V	nud
      	tei=nud	0		A	
      	tei=nud	0		A	sg n
      	tei=nud	d		A	pl n
      	teinu	d		S	pl n
,	,			Z	
ning	ning	0		J	
nõuab	nõud	b		V	b
,	,			Z	
et	et	0		J	
kohus	kohu	s		V	s
     	kohus	0		S	sg n
teda	tema	da		P	sg p
seda	see	da		P	sg p
aunniks	####				
tegema	tege	ma		V	ma
.	.			Z	
Tilba	####				
taluperemees	talu_pere_mees	0		S	sg n
Jaan	Jaan	0		H	sg n
    	jaan	0		S	sg n
    	jaan	0		Y	?
Rosenthal	####				
kaebuse	kaebus	0		S	sg g
üle	üle	0		D	
   	üle	0		K	
küsitud	küsi	tud		V	tud
       	küsi=tu	d		S	pl n
       	küsi=tud	0		A	
       	küsi=tud	0		A	sg n
       	küsi=tud	d		A	pl n
ütles	ütle	s		V	s
välja	välja	0		D	
     	välja	0		V	o
     	väli	0		S	adt
     	väli	0		S	sg g
     	väli	0		S	sg p
,	,			Z	
et	et	0		J	
tema	tema	0		P	sg g
    	tema	0		P	sg n
neist	see	st		P	pl el
     	tema	st		P	pl el
õlgedest	õlg	dest		S	pl el
midagi	miski	dagi		P	sg p
ei	ei	0		D	
  	ei	0		V	neg
tea	tead	0		V	o
,	,			Z	
selle	see	0		P	sg g
     	sell	e		S	pl p
,	,			Z	
et	et	0		J	
tema	tema	0		P	sg g
    	tema	0		P	sg n
see	see	0		P	sg n
maja	maja	0		S	sg g
    	maja	0		S	sg n
    	maja	0		S	sg p
kontrahi	kontraht	0		S	sg g
Jüri	Jüri	0		H	sg g
    	Jüri	0		H	sg n
Allmanni	all_mann	0		S	adt
        	all_mann	0		S	sg g
        	all_mann	0		S	sg p
käest	käest	0		K	
     	käsi	st		S	sg el
on	ole	0		V	b
  	ole	0		V	vad
ostnud	ost	nud		V	nud
      	ost=nu	d		S	pl n
      	ost=nud	0		A	
      	ost=nud	0		A	sg n
      	ost=nud	d		A	pl n
ja	ja	0		J	
tema	tema	0		P	sg g
    	tema	0		P	sg n
aegu	aeg	u		S	pl p
    	aegu	0		K	
    	aegu	0		V	o
seda	see	da		P	sg p
käsko	####				
ei	ei	0		D	
  	ei	0		V	neg
ole	ole	0		V	o
antud	an=tu	d		S	pl n
     	and	tud		V	tud
     	antud	0		A	
     	antud	0		A	sg n
     	antud	d		A	pl n
,	,			Z	
ning	ning	0		J	
võib	või	b		V	b
Joahkim	####				
Rosenthal	####				
seda	see	da		P	sg p
Jüri	Jüri	0		H	sg g
    	Jüri	0		H	sg n
Allmanni	all_mann	0		S	adt
        	all_mann	0		S	sg g
        	all_mann	0		S	sg p
käest	käest	0		K	
     	käsi	st		S	sg el
nõuda	nõud	a		V	da
,	,			Z	
kes	kes	0		P	pl n
   	kes	0		P	sg n
sel	see	l		P	sg ad
   	sel	0		Y	?
aeal	####				
peremees	pere_mees	0		S	sg n
olnud	ol=nud	0		A	
     	ol=nud	0		A	sg n
     	ol=nud	d		A	pl n
     	ole	nud		V	nud
     	olnu	d		S	pl n
.	.			Z	
mõistus	mõistus	0		S	sg n
:	:			Z	
selle	see	0		P	sg g
     	sell	e		S	pl p
et	et	0		J	
Joahkim	####				
Rosenthal	####				
seda	see	da		P	sg p
siis	siis	0		D	
    	siis	0		J	
Jüri	Jüri	0		H	sg g
    	Jüri	0		H	sg n
Allmanni	all_mann	0		S	adt
        	all_mann	0		S	sg g
        	all_mann	0		S	sg p
käest	käest	0		K	
     	käsi	st		S	sg el
ei	ei	0		D	
  	ei	0		V	neg
nõudnud	nõud	nud		V	nud
       	nõud=nu	d		S	pl n
       	nõud=nud	0		A	
       	nõud=nud	0		A	sg n
       	nõud=nud	d		A	pl n
,	,			Z	
kui	kui	0		D	
   	kui	0		J	
see	see	0		P	sg n
veel	veel	0		D	
    	vesi	l		S	sg ad
peremees	pere_mees	0		S	sg n
oli	ole	i		V	s
,	,			Z	
siis	siis	0		D	
    	siis	0		J	
ei	ei	0		D	
  	ei	0		V	neg
või	või	0		S	sg g
   	või	0		V	o
   	või	0		D	
   	või	0		J	
   	või	0		S	sg n
tema	tema	0		P	sg g
    	tema	0		P	sg n
nüüd	nüüd	0		D	
enam	enam	0		C	sg n
    	enam	0		D	
midagi	miski	dagi		P	sg p
Jaan	Jaan	0		H	sg n
    	jaan	0		S	sg n
    	jaan	0		Y	?
Rosenthali	####				
käest	käest	0		K	
     	käsi	st		S	sg el
nõuda	nõud	a		V	da
.	.			Z	
Mihkel	Mihkel	0		H	sg n
      	mihkel	0		A	sg n
      	mihkel	0		S	sg n
Klaos	####				
Johan	Johan	0		H	sg n
Ling	ling	0		S	sg n
Johan	Johan	0		H	sg n
Udel	####				
mõistus	mõistus	0		S	sg n
sai	saa	i		V	s
   	sai	0		S	sg n
kohtukäijatele	kohtu_käija	tele		S	pl all
T	T	0		Y	?
.	.			Z	
S-R	S-R	0		Y	?
.	.			Z	
perra	####				
a.	a	0		Y	?
1860	1860	0		N	?
§	§	0		Y	?
772	772	0		N	?
-	-			Z	
774	774	0		N	?
kuulutud	kuulu	tud		V	tud
        	kuulu=tu	d		S	pl n
        	kuulu=tud	0		A	
        	kuulu=tud	0		A	sg n
        	kuulu=tud	d		A	pl n
n.n.	####				
e	e	0		Y	?
.	.			Z	
ja	ja	0		J	
ei	ei	0		D	
  	ei	0		V	neg
olnud	ol=nud	0		A	
     	ol=nud	0		A	sg n
     	ol=nud	d		A	pl n
     	ole	nud		V	nud
     	olnu	d		S	pl n
Joahkim	####				
Rosenthal	####				
mitte	mitte	0		D	
sellega	see	ga		P	sg kom
rahul	rahu	l		S	sg ad
     	rahul	0		D	
.	.			Z	
