Palla	####				
mõisa	mõis	0		S	sg g
perisherra	####				
oli	ole	i		V	s
selle	see	0		P	sg g
     	sell	e		S	pl p
kohtu	kohtu	0		V	o
     	kohus	0		S	sg g
juures	juur	s		S	sg in
      	juures	0		D	
      	juures	0		K	
kirjalikult	kirjalik	lt		A	sg abl
           	kirjalikult	0		D	
sissekaebanud	####				
et	et	0		J	
Jüri	Jüri	0		H	sg g
    	Jüri	0		H	sg n
Tõldsep	####				
nagu	nagu	0		D	
    	nagu	0		J	
Aaidame	####				
talu	talu	0		S	sg g
    	talu	0		V	o
    	talu	0		S	sg n
    	talu	0		S	sg p
eestseisa	####				
võlatasumise	võla_tasumine	0		S	sg g
raha	raha	0		S	sg g
    	raha	0		S	sg n
    	raha	0		S	sg p
kuni	kuni	0		J	
    	kuni	0		K	
23	23	0		N	?
Aaprilini	####				
1888 100	1888100	0		N	?
rbl	rbl	0		Y	?
.	.			Z	
s. o.	s.o	0		Y	?
1887	1887	0		N	?
ja	ja	0		J	
1888	1888	0		N	?
terminist	termin	st		S	sg el
võlgu	võlg	u		S	pl p
     	võlgu	0		D	
on	ole	0		V	b
  	ole	0		V	vad
,	,			Z	
niisama	nii_sama	0		D	
13	13	0		N	?
rbl	rbl	0		Y	?
.	.			Z	
protsenti	protsent	0		S	adt
         	protsent	0		S	sg p
raha	raha	0		S	sg g
    	raha	0		S	sg n
    	raha	0		S	sg p
s.o.	s.o	0		Y	?
summas	summ	s		S	sg in
      	summa	s		S	sg in
113	113	0		N	?
rbl	rbl	0		Y	?
.	.			Z	
Nõudis	nõud	is		V	s
seda	see	da		P	sg p
raha	raha	0		S	sg g
    	raha	0		S	sg n
    	raha	0		S	sg p
kätte	kätte	0		K	
     	käsi	tte		S	adt
.	.			Z	
Jüri	Jüri	0		H	sg g
    	Jüri	0		H	sg n
Tõltsep	####				
ettekutsutud	ette_kutsutu	d		S	pl n
            	ette_kutsutud	0		A	
            	ette_kutsutud	0		A	sg n
            	ette_kutsutud	d		A	pl n
kes	kes	0		P	pl n
   	kes	0		P	sg n
vahe	vahe	0		A	sg n
    	vahe	0		S	sg g
    	vahe	0		S	sg n
ajal	aeg	l		S	sg ad
    	ajal	0		K	
Venemaal	Vene_maa	l		H	sg ad
oli	ole	i		V	s
ja	ja	0		J	
sellepärast	selle_pärast	0		D	
mitte	mitte	0		D	
ennem	ennem	0		C	sg n
     	ennem	0		D	
ettetarvitud	####				
saada	saa	da		V	da
     	saat	0		V	o
     	saa	da		V	ta
ei	ei	0		D	
  	ei	0		V	neg
võinud	või	nud		V	nud
      	või=nu	d		S	pl n
      	või=nud	0		A	
      	või=nud	0		A	sg n
      	või=nud	d		A	pl n
näitas	näita	s		V	s
Palla	####				
perisherra	####				
kviitungid	kviitung	d		S	pl n
kohtu	kohtu	0		V	o
     	kohus	0		S	sg g
juures	juur	s		S	sg in
      	juures	0		D	
      	juures	0		K	
ette	ette	0		D	
    	ette	0		K	
    	esi	tte		S	adt
kelle	kes	0		P	pl g
     	kes	0		P	sg g
järele	järele	0		D	
      	järele	0		K	
tema	tema	0		P	sg g
    	tema	0		P	sg n
1881	1881	0		N	?
aasta	aasta	0		S	sg g
     	aasta	0		S	sg n
võlgnevus	võlgnevus	0		S	sg n
50	50	0		N	?
rbl	rbl	0		Y	?
.	.			Z	
äramaksnud	ära_maks=nu	d		S	pl n
          	ära_maks=nud	0		A	
          	ära_maks=nud	0		A	sg n
          	ära_maks=nud	d		A	pl n
on	ole	0		V	b
  	ole	0		V	vad
mis	mis	0		P	pl n
   	mis	0		P	sg n
järele	järele	0		D	
      	järele	0		K	
tema	tema	0		P	sg g
    	tema	0		P	sg n
õige	õige	0		A	sg g
    	õige	0		A	sg n
    	õige	0		D	
võlg	võlg	0		S	sg n
113	113	0		N	?
kop	kop	0		Y	?
.	.			Z	
suur	suur	0		A	sg n
on	ole	0		V	b
  	ole	0		V	vad
.	.			Z	
Otsus	otsus	0		S	sg n
Jüri	Jüri	0		H	sg g
    	Jüri	0		H	sg n
Tõltsep	####				
maksab	maks	b		V	b
8	8	0		N	?
päeva	päev	0		S	adt
     	päev	0		S	sg g
     	päev	0		S	sg p
sees	sees	0		D	
    	sees	0		K	
Palla	####				
perisherra	####				
von	####				
Strykile	####				
need	see	d		P	pl n
13	13	0		N	?
rbl	rbl	0		Y	?
.	.			Z	
välja	välja	0		D	
     	välja	0		V	o
     	väli	0		S	adt
     	väli	0		S	sg g
     	väli	0		S	sg p
.	.			Z	
See	see	0		P	sg n
otsus	otsus	0		S	sg n
sai	saa	i		V	s
   	sai	0		S	sg n
Jüri	Jüri	0		H	sg g
    	Jüri	0		H	sg n
Tõltsepale	####				
kätte	kätte	0		K	
     	käsi	tte		S	adt
antud	an=tu	d		S	pl n
     	and	tud		V	tud
     	antud	0		A	
     	antud	0		A	sg n
     	antud	d		A	pl n
,	,			Z	
mõisapolitsei	mõisa_politsei	0		S	sg g
             	mõisa_politsei	0		S	sg n
asemik	asemik	0		S	sg n
oli	ole	i		V	s
aga	aga	0		J	
sellevahel	selle_vahe	l		S	sg ad
äraläinud	ära_läinu	d		S	pl n
         	ära_läinud	0		A	
         	ära_läinud	0		A	sg n
         	ära_läinud	d		A	pl n
.	.			Z	
Peakohtumees	pea_kohtu_mees	0		S	sg n
J. Sarvi	####				
.	.			Z	
kohtumees	kohtu_mees	0		S	sg n
J. Stam	####				
.	.			Z	
kohtumees	kohtu_mees	0		S	sg n
M. Piri	####				
.	.			Z	
Kirjutaja	kirjutaja	0		S	sg g
         	kirjutaja	0		S	sg n
Carl	Carl	0		H	sg n
Palm	palm	0		S	sg n
.	.			Z	
(	(			Z	
allkiri	all_kiri	0		S	sg n
)	)			Z	
