Märt	Märt	0		H	sg n
Pluum	####				
kaebab	kaeba	b		V	b
,	,			Z	
et	et	0		J	
tema	tema	0		P	sg g
    	tema	0		P	sg n
on	ole	0		V	b
  	ole	0		V	vad
suve	suvi	0		S	sg g
    	suvi	0		S	sg p
peale	pea	le		S	sg all
     	peale	0		D	
     	peale	0		K	
Märt	Märt	0		H	sg n
raamiga	raam	ga		S	sg kom
kaup	kaup	0		S	sg n
teinud	tege	nud		V	nud
      	tei=nud	0		A	
      	tei=nud	0		A	sg n
      	tei=nud	d		A	pl n
      	teinu	d		S	pl n
,	,			Z	
4	4	0		N	?
v	v	0		Y	?
.	.			Z	
kesvi	kesv	i		S	pl p
3	3	0		N	?
v	v	0		Y	?
ruk	####				
2	2	0		N	?
kolmandiko	####				
Lina	lina	0		S	sg g
    	lina	0		S	sg n
    	lina	0		S	sg p
oma	oma	0		A	sg g
   	oma	0		D	
   	oma	0		P	sg g
   	oma	0		S	sg g
   	oma	0		V	o
   	oma	0		A	sg n
   	oma	0		A	sg p
   	oma	0		P	sg n
   	oma	0		P	sg p
   	oma	0		S	sg n
   	oma	0		S	sg p
seemnega	seeme	ga		S	sg kom
,	,			Z	
3	3	0		N	?
v	v	0		Y	?
kartulid	kartul	d		S	pl n
maha	maha	0		D	
oma	oma	0		A	sg g
   	oma	0		D	
   	oma	0		P	sg g
   	oma	0		S	sg g
   	oma	0		V	o
   	oma	0		A	sg n
   	oma	0		A	sg p
   	oma	0		P	sg n
   	oma	0		P	sg p
   	oma	0		S	sg n
   	oma	0		S	sg p
seemnega	seeme	ga		S	sg kom
,	,			Z	
ja	ja	0		J	
2	2	0		N	?
kolmandiko	####				
peremehe	pere_mees	0		S	sg g
seemnega	seeme	ga		S	sg kom
ja	ja	0		J	
1	1	0		N	?
kuuendik	kuuendik	0		N	sg n
        	kuuendik	0		S	sg n
Ernit	Erni	t		H	sg p
,	,			Z	
ja	ja	0		J	
nüüd	nüüd	0		D	
on	ole	0		V	b
  	ole	0		V	vad
tema	tema	0		P	sg g
    	tema	0		P	sg n
11	11	0		N	?
nädalad	nädal	d		S	pl n
teenind	####				
ja	ja	0		J	
on	ole	0		V	b
  	ole	0		V	vad
tüli	tüli	0		S	sg g
    	tüli	0		S	sg n
    	tüli	0		S	sg p
läinud	läinu	d		S	pl n
      	läinud	0		A	
      	läinud	0		A	sg n
      	läinud	d		A	pl n
      	mine	nud		V	nud
ja	ja	0		J	
tema	tema	0		P	sg g
    	tema	0		P	sg n
on	ole	0		V	b
  	ole	0		V	vad
ära	ära	0		D	
   	ära	0		V	neg o
tunud	####				
aga	aga	0		J	
peremees	pere_mees	0		S	sg n
Märt	Märt	0		H	sg n
Rami	####				
ei	ei	0		D	
  	ei	0		V	neg
ole	ole	0		V	o
teda	tema	da		P	sg p
keelanud	keela	nud		V	nud
        	keela=nu	d		S	pl n
        	keela=nud	0		A	
        	keela=nud	0		A	sg n
        	keela=nud	d		A	pl n
tulemast	tule	mast		V	mast
ja	ja	0		J	
nüüd	nüüd	0		D	
nõuab	nõud	b		V	b
oma	oma	0		A	sg g
   	oma	0		D	
   	oma	0		P	sg g
   	oma	0		S	sg g
   	oma	0		V	o
   	oma	0		A	sg n
   	oma	0		A	sg p
   	oma	0		P	sg n
   	oma	0		P	sg p
   	oma	0		S	sg n
   	oma	0		S	sg p
11	11	0		N	?
nädala	nädal	0		S	sg g
teenistust	teenistus	t		S	sg p
,	,			Z	
ja	ja	0		J	
et	et	0		J	
peremees	pere_mees	0		S	sg n
on	ole	0		V	b
  	ole	0		V	vad
talle	tall	e		S	pl p
     	tall	0		S	adt
     	tall	0		S	sg g
     	tema	lle		P	sg all
     	tall	0		S	sg p
ütelnud	ütle	nud		V	nud
       	ütel=nu	d		S	pl n
       	ütel=nud	0		A	
       	ütel=nud	0		A	sg n
       	ütel=nud	d		A	pl n
sinna	sinna	0		D	
kurat	kurat	0		I	
     	kurat	0		S	sg n
saanud	saa	nud		V	nud
      	saa=nud	0		A	
      	saa=nud	0		A	sg n
      	saa=nud	d		A	pl n
      	saanu	d		S	pl n
lager	####				
.	.			Z	
Ette	ette	0		D	
    	ette	0		K	
    	esi	tte		S	adt
sai	saa	i		V	s
   	sai	0		S	sg n
kutsutud	kutsu	tud		V	tud
        	kutsutu	d		S	pl n
        	kutsutud	0		A	
        	kutsutud	0		A	sg n
        	kutsutud	d		A	pl n
Märt	Märt	0		H	sg n
Rami	####				
,	,			Z	
ja	ja	0		J	
tema	tema	0		P	sg g
    	tema	0		P	sg n
ütleb	ütle	b		V	b
et	et	0		J	
tema	tema	0		P	sg g
    	tema	0		P	sg n
ei	ei	0		D	
  	ei	0		V	neg
ole	ole	0		V	o
teda	tema	da		P	sg p
mitte	mitte	0		D	
ära	ära	0		D	
   	ära	0		V	neg o
ajanud	aja	nud		V	nud
      	aja=nu	d		S	pl n
      	aja=nud	0		A	
      	aja=nud	0		A	sg n
      	aja=nud	d		A	pl n
vaid	vaid	0		D	
    	vaid	0		J	
Pluum	####				
on	ole	0		V	b
  	ole	0		V	vad
teda	tema	da		P	sg p
veel	veel	0		D	
    	vesi	l		S	sg ad
ilma	ilm	0		S	adt
    	ilm	0		S	sg g
    	ilma	0		D	
    	ilma	0		K	
    	ilm	0		S	sg p
inimeseta	inimene	ta		S	sg ab
jätnud	jät	nud		V	nud
      	jät=nu	d		S	pl n
      	jät=nud	0		A	
      	jät=nud	0		A	sg n
      	jät=nud	d		A	pl n
.	.			Z	
Johan	Johan	0		H	sg n
Reinson	####				
ja	ja	0		J	
Kadri	Kadri	0		H	sg g
     	Kadri	0		H	sg n
     	kadri	0		S	sg g
     	kadri	0		S	sg n
Rudi	rudi	0		V	o
tunistavad	####				
et	et	0		J	
Märt	Märt	0		H	sg n
Ramm	ramm	0		S	sg n
ei	ei	0		D	
  	ei	0		V	neg
ole	ole	0		V	o
mitte	mitte	0		D	
Pluumi	####				
ajanud	aja	nud		V	nud
      	aja=nu	d		S	pl n
      	aja=nud	0		A	
      	aja=nud	0		A	sg n
      	aja=nud	d		A	pl n
vaid	vaid	0		D	
    	vaid	0		J	
Pluum	####				
on	ole	0		V	b
  	ole	0		V	vad
ise	ise	0		A	
   	ise	0		D	
   	ise	0		P	pl n
   	ise	0		P	sg n
ära	ära	0		D	
   	ära	0		V	neg o
läinud	läinu	d		S	pl n
      	läinud	0		A	
      	läinud	0		A	sg n
      	läinud	d		A	pl n
      	mine	nud		V	nud
ja	ja	0		J	
teenistus	teenistus	0		S	sg n
pooleli	pooleli	0		D	
jätnud	jät	nud		V	nud
      	jät=nu	d		S	pl n
      	jät=nud	0		A	
      	jät=nud	0		A	sg n
      	jät=nud	d		A	pl n
.	.			Z	
mõistus	mõistus	0		S	sg n
.	.			Z	
et	et	0		J	
Pluum	####				
ise	ise	0		A	
   	ise	0		D	
   	ise	0		P	pl n
   	ise	0		P	sg n
ära	ära	0		D	
   	ära	0		V	neg o
on	ole	0		V	b
  	ole	0		V	vad
läinud	läinu	d		S	pl n
      	läinud	0		A	
      	läinud	0		A	sg n
      	läinud	d		A	pl n
      	mine	nud		V	nud
,	,			Z	
ja	ja	0		J	
peremehe	pere_mees	0		S	sg g
ilma	ilm	0		S	adt
    	ilm	0		S	sg g
    	ilma	0		D	
    	ilma	0		K	
    	ilm	0		S	sg p
inimeseta	inimene	ta		S	sg ab
jätnud	jät	nud		V	nud
      	jät=nu	d		S	pl n
      	jät=nud	0		A	
      	jät=nud	0		A	sg n
      	jät=nud	d		A	pl n
,	,			Z	
selle	see	0		P	sg g
     	sell	e		S	pl p
ei	ei	0		D	
  	ei	0		V	neg
sa	sina	0		P	sg n
ka	ka	0		D	
Pluum	####				
midagi	miski	dagi		P	sg p
.	.			Z	
pea	pea	0		D	
   	pea	0		S	sg g
   	pida	0		V	o
   	pea	0		S	sg n
kohtumees	kohtu_mees	0		S	sg n
Kaarel	Kaarel	0		H	sg n
      	kaar	l		S	sg ad
      	kaarel	0		S	sg n
Lassmann	lass_mann	0		S	sg n
juuresistuja	juures_istu=ja	0		S	sg g
            	juures_istu=ja	0		S	sg n
Peeter	Peeter	0		H	sg n
Lestmann	lest_mann	0		S	sg n
""""	""""			Z	
Jaan	Jaan	0		H	sg n
    	jaan	0		S	sg n
    	jaan	0		Y	?
Hagel	####				
