Nõnda	nõnda	0		D	
kui	kui	0		D	
   	kui	0		J	
Luka	####				
Ivanov	Ivanov	0		H	sg n
Djuk	####				
,	,			Z	
kelle	kes	0		P	pl g
     	kes	0		P	sg g
käest	käest	0		K	
     	käsi	st		S	sg el
üks	üks	0		N	sg n
   	üks	0		P	sg n
kuub	kuub	0		S	sg n
panditud	panti	tud		V	tud
        	pandi=tu	d		S	pl n
        	pandi=tud	0		A	
        	pandi=tud	0		A	sg n
        	pandi=tud	d		A	pl n
sai	saa	i		V	s
   	sai	0		S	sg n
/	/			Z	
:	:			Z	
vata	####				
protokoll	protokoll	0		S	sg n
N	N	0		Y	?
.	.			Z	
?	?			Z	
/	/			Z	
sedasamo	####				
seni	seni	0		D	
aeani	####				
ei	ei	0		D	
  	ei	0		V	neg
ole	ole	0		V	o
lunastanud	lunasta	nud		V	nud
          	lunasta=nu	d		S	pl n
          	lunasta=nud	0		A	
          	lunasta=nud	0		A	sg n
          	lunasta=nud	d		A	pl n
et	et	0		J	
kül	####				
termin	termin	0		S	sg n
pitkendud	####				
,	,			Z	
siis	siis	0		D	
    	siis	0		J	
sai	saa	i		V	s
   	sai	0		S	sg n
moistetud	####				
se	####				
kuub	kuub	0		S	sg n
tuleval	tulev	l		A	sg ad
redil	####				
oksjoni	oksjon	0		S	sg g
visil	####				
ära	ära	0		D	
   	ära	0		V	neg o
müia	####				
;	;			Z	
_	_			Z	
oksjoni	oksjon	0		S	sg g
piddamest	####				
aga	aga	0		J	
tuleval	tulev	l		A	sg ad
pühal	püha	l		A	sg ad
     	püha	l		S	sg ad
seaduse	seadus	0		S	sg g
järele	järele	0		D	
      	järele	0		K	
kihelkonna	kihelkond	0		S	sg g
kirrikus	####				
kulutada	kuluta	da		V	da
.	.			Z	
