sel	see	l		P	sg ad
   	sel	0		Y	?
17	17	0		N	?
aprilil	####				
1887.	1887.	0		O	?
man	man	0		D	
   	man	0		K	
olivad	####				
Peakohtum	####				
M. Karu	####				
.	.			Z	
kohtum	####				
.	.			Z	
J. Aleksanderson	####				
-	-			Z	
""""	""""			Z	
-	-			Z	
J. Kulberg	####				
sel	see	l		P	sg ad
   	sel	0		Y	?
tänasel	tänane	l		A	sg ad
päeval	päev	l		S	sg ad
on	ole	0		V	b
  	ole	0		V	vad
Jüri	Jüri	0		H	sg g
    	Jüri	0		H	sg n
Tigane	####				
ja	ja	0		J	
tema	tema	0		P	sg g
    	tema	0		P	sg n
väimees	väi_mees	0		S	sg n
Jakob	Jakob	0		H	sg n
Jantson	####				
enda	ise	0		P	sg g
vahel	vahe	l		S	sg ad
     	vahel	0		D	
     	vahel	0		K	
leppinud	leppi	nud		V	nud
        	leppi=nu	d		S	pl n
        	leppi=nud	0		A	
        	leppi=nud	0		A	sg n
        	leppi=nud	d		A	pl n
,	,			Z	
et	et	0		J	
Jüri	Jüri	0		H	sg g
    	Jüri	0		H	sg n
Tigase	####				
käest	käest	0		K	
     	käsi	st		S	sg el
on	ole	0		V	b
  	ole	0		V	vad
Jakob	Jakob	0		H	sg n
Jantsonil	jant_soni	l		S	sg ad
selle	see	0		P	sg g
     	sell	e		S	pl p
1886	1886	0		N	?
/	/			Z	
87	87	0		N	?
aasta	aasta	0		S	sg g
     	aasta	0		S	sg n
teenistuse	teenistus	0		S	sg g
palga	palk	0		S	sg g
nimelt	nimelt	0		D	
      	nimi	lt		S	sg abl
käes	käes	0		K	
    	käsi	s		S	sg in
selges	selge	s		A	sg in
rahaks	raha	ks		S	sg tr
arvatud	arva	tud		V	tud
       	arva=tu	d		S	pl n
       	arva=tud	0		A	
       	arva=tud	0		A	sg n
       	arva=tud	d		A	pl n
,	,			Z	
23.	23.	0		O	?
rbl	rbl	0		Y	?
55.	55.	0		O	?
kop	kop	0		Y	?
ja	ja	0		J	
Jüri	Jüri	0		H	sg g
    	Jüri	0		H	sg n
Tigane	####				
maksab	maks	b		V	b
veel	veel	0		D	
    	vesi	l		S	sg ad
perra	####				
Jaak	Jaak	0		H	sg n
    	jaak	0		S	sg n
Jantsonile	jant_soni	le		S	sg all
25.	25.	0		O	?
rbl	rbl	0		Y	?
-	-			Z	
ja	ja	0		J	
need	see	d		P	pl n
loetud	loetu	d		S	pl n
      	loetud	0		A	
      	loetud	0		A	sg n
      	loetud	d		A	pl n
      	luge	tud		V	tud
3.	3.	0		O	?
amet	amet	0		S	sg n
,	,			Z	
2.	2.	0		O	?
tegi	sina	0	gi	P	pl g
    	tege	i		V	s
    	sina	0	gi	P	pl n
ja	ja	0		J	
10.	10.	0		O	?
küünard	####				
villast	vill	st		S	sg el
       	villa	st		S	sg el
       	villane	t		A	sg p
rõivast	rõivas	st		S	sg el
       	rõivas	t		S	sg p
Oksa	oks	0		S	adt
    	oks	0		S	sg g
    	oks	0		S	sg p
jaolt	jaolt	0		D	
     	jagu	lt		S	sg abl
saatnut	saat=nu	t		S	sg p
viljast	vili	st		S	sg el
mis	mis	0		P	pl n
   	mis	0		P	sg n
veel	veel	0		D	
    	vesi	l		S	sg ad
Jüri	Jüri	0		H	sg g
    	Jüri	0		H	sg n
Tigase	####				
käes	käes	0		K	
    	käsi	s		S	sg in
on	ole	0		V	b
  	ole	0		V	vad
ei	ei	0		D	
  	ei	0		V	neg
ole	ole	0		V	o
Jakob	Jakob	0		H	sg n
Jantsu-	####				
nil	####				
midagi	miski	dagi		P	sg p
nõuda	nõud	a		V	da
,	,			Z	
kui	kui	0		D	
   	kui	0		J	
ennegi	ennegi	0		D	
linaseemned	lina_seeme	d		S	pl n
.	.			Z	
ja	ja	0		J	
pealt	pea	lt		S	sg abl
     	pealt	0		D	
     	pealt	0		K	
selle	see	0		P	sg g
     	sell	e		S	pl p
veel	veel	0		D	
    	vesi	l		S	sg ad
Jüri	Jüri	0		H	sg g
    	Jüri	0		H	sg n
Tigasele	####				
laenatud	laena	tud		V	tud
        	laena=tu	d		S	pl n
        	laena=tud	0		A	
        	laena=tud	0		A	sg n
        	laena=tud	d		A	pl n
raha	raha	0		S	sg g
    	raha	0		S	sg n
    	raha	0		S	sg p
,	,			Z	
48.	48.	0		O	?
rbl	rbl	0		Y	?
.	.			Z	
see	see	0		P	sg n
on	ole	0		V	b
  	ole	0		V	vad
ühte	ühte	0		D	
    	üks	0		N	adt
    	üks	0		P	adt
    	ühe	0		S	sg g
    	üks	0		N	sg p
    	üks	0		P	sg p
kokku	kokku	0		D	
     	kogu	0		S	adt
arvatus	arva=tu	s		S	sg in
       	arva=tus	0		S	sg n
Jüri	Jüri	0		H	sg g
    	Jüri	0		H	sg n
Tigasel	####				
73.	73.	0		O	?
rbl	rbl	0		Y	?
Jakob	Jakob	0		H	sg n
Jantsonile	jant_soni	le		S	sg all
,	,			Z	
sel	see	l		P	sg ad
   	sel	0		Y	?
tärminil	tärmin	l		S	sg ad
ära	ära	0		D	
   	ära	0		V	neg o
maksta	maks	ta		V	da
      	maks	ta		V	ta
1sel	####				
mal	####				
1887.	1887.	0		O	?
aastal	aasta	l		S	sg ad
,	,			Z	
23.	23.	0		O	?
rblat	####				
,	,			Z	
ja	ja	0		J	
sel	see	l		P	sg ad
   	sel	0		Y	?
teisel	teine	l		O	sg ad
      	teine	l		P	sg ad
vebruaril	####				
1888	1888	0		N	?
a	a	0		Y	?
50	50	0		N	?
rbl	rbl	0		Y	?
ja	ja	0		J	
maksab	maks	b		V	b
selle	see	0		P	sg g
     	sell	e		S	pl p
raha	raha	0		S	sg g
    	raha	0		S	sg n
    	raha	0		S	sg p
eest	eest	0		D	
    	eest	0		K	
    	esi	st		S	sg el
selle	see	0		P	sg g
     	sell	e		S	pl p
tärmini	tärmin	0		S	sg g
,	,			Z	
2.	2.	0		O	?
rbl	rbl	0		Y	?
50.	50.	0		O	?
kop	kop	0		Y	?
.	.			Z	
protsendi	protsent	0		S	sg g
seda	see	da		P	sg p
kinnitavad	kinnita	vad		V	vad
          	kinnitav	d		A	pl n
tõeks	tõde	ks		S	sg tr
     	tõsi	ks		S	sg tr
oma	oma	0		A	sg g
   	oma	0		D	
   	oma	0		P	sg g
   	oma	0		S	sg g
   	oma	0		V	o
   	oma	0		A	sg n
   	oma	0		A	sg p
   	oma	0		P	sg n
   	oma	0		P	sg p
   	oma	0		S	sg n
   	oma	0		S	sg p
nime	nimi	0		S	sg g
    	nimi	0		S	sg p
allakirjutusega	alla_kirjutus	ga		S	sg kom
võla	võlg	0		S	sg g
maksa	maks	0		S	adt
     	maks	0		S	sg g
     	maks	0		V	o
     	maks	0		S	sg p
Jüri	Jüri	0		H	sg g
    	Jüri	0		H	sg n
Tigane	####				
XXX	XXX	0		O	?
   	XXX	0		Y	?
võla	võlg	0		S	sg g
pärija	pärija	0		S	sg g
      	pärija	0		S	sg n
Jakob	Jakob	0		H	sg n
Jantson	####				
XXX	XXX	0		O	?
   	XXX	0		Y	?
