№	№	0		Y	?
1.	1.	0		O	?
Haslava	####				
vallakohus	valla_kohus	0		S	sg n
Haslava	####				
vallamajas	valla_maja	s		S	sg in
8	8	0		N	?
Januaril	####				
1899	1899	0		N	?
a.	a	0		Y	?
juures	juur	s		S	sg in
      	juures	0		D	
      	juures	0		K	
oli	ole	i		V	s
kohtueesistuja	kohtu_ees_istuja	0		S	sg g
              	kohtu_ees_istuja	0		S	sg n
Jaan	Jaan	0		H	sg n
    	jaan	0		S	sg n
    	jaan	0		Y	?
Rosenthal	####				
.	.			Z	
Ilmusid	ilmu	sid		V	sid
surnud	surnu	d		S	pl n
      	surnud	0		A	
      	surnud	0		A	sg n
      	surnud	d		A	pl n
      	sure	nud		V	nud
Jaan	Jaan	0		H	sg n
    	jaan	0		S	sg n
    	jaan	0		Y	?
Klaos	####				
pärijad	pärija	d		S	pl n
Johan	Johan	0		H	sg n
Klaos	####				
ja	ja	0		J	
Daniel	Daniel	0		H	sg n
Klaos	####				
ja	ja	0		J	
palusid	palu	sid		S	pl p
       	palu	sid		V	sid
järgmist	järgmine	t		A	sg p
ustavaks	ustav	ks		A	sg tr
tunnistuseks	tunnistus	ks		S	sg tr
akti	akt	0		S	adt
    	akt	0		S	sg g
    	akt	0		S	sg p
raamatusse	raamat	sse		S	sg ill
kirjutada	kirjuta	da		V	da
.	.			Z	
kaaspärija	kaas_pärija	0		S	sg g
          	kaas_pärija	0		S	sg n
Daniel	Daniel	0		H	sg n
Klaos	####				
Jaani	Jaan	0		H	adt
     	Jaan	0		H	sg g
     	Jaani	0		H	sg g
     	jaan	0		S	adt
     	jaan	0		S	sg g
     	Jaan	0		H	sg p
     	Jaani	0		H	sg n
     	jaan	0		S	sg p
p	p	0		Y	?
.	.			Z	
annab	and	b		V	b
üles	üles	0		D	
,	,			Z	
et	et	0		J	
on	ole	0		V	b
  	ole	0		V	vad
oma	oma	0		A	sg g
   	oma	0		D	
   	oma	0		P	sg g
   	oma	0		S	sg g
   	oma	0		V	o
   	oma	0		A	sg n
   	oma	0		A	sg p
   	oma	0		P	sg n
   	oma	0		P	sg p
   	oma	0		S	sg n
   	oma	0		S	sg p
venna	vend	0		S	sg g
Johan	Johan	0		H	sg n
Jaani	Jaan	0		H	adt
     	Jaan	0		H	sg g
     	Jaani	0		H	sg g
     	jaan	0		S	adt
     	jaan	0		S	sg g
     	Jaan	0		H	sg p
     	Jaani	0		H	sg n
     	jaan	0		S	sg p
p	p	0		Y	?
.	.			Z	
Klaos	####				
käest	käest	0		K	
     	käsi	st		S	sg el
Pihkva	Pihkva	0		H	sg g
      	Pihkva	0		H	sg n
      	pihkva	0		G	
Panga	pank	0		S	sg g
piletist	pilet	st		S	sg el
,	,			Z	
mis	mis	0		P	pl n
   	mis	0		P	sg n
viissada	viis_sada	0		N	sg n
(	(			Z	
500	500	0		N	?
)	)			Z	
rbl	rbl	0		Y	?
suur	suur	0		A	sg n
1890	1890	0		N	?
aasta	aasta	0		S	sg g
     	aasta	0		S	sg n
1	1	0		N	?
Juunist	juuni	st		S	sg el
№	№	0		Y	?
3302	3302	0		N	?
,	,			Z	
kätte	kätte	0		K	
     	käsi	tte		S	adt
saanud	saa	nud		V	nud
      	saa=nud	0		A	
      	saa=nud	0		A	sg n
      	saa=nud	d		A	pl n
      	saanu	d		S	pl n
osajagu	osa_jagu	0		S	sg n
       	osa_jagu	0		S	sg p
kakssada	kaks_sada	0		N	sg n
(	(			Z	
200	200	0		N	?
)	)			Z	
rbl	rbl	0		Y	?
.	.			Z	
D. Klaos	####				
/	/			Z	
allkiri	all_kiri	0		S	sg n
/	/			Z	
kaaspärija	kaas_pärija	0		S	sg g
          	kaas_pärija	0		S	sg n
Johan	Johan	0		H	sg n
Jaani	Jaan	0		H	adt
     	Jaan	0		H	sg g
     	Jaani	0		H	sg g
     	jaan	0		S	adt
     	jaan	0		S	sg g
     	Jaan	0		H	sg p
     	Jaani	0		H	sg n
     	jaan	0		S	sg p
p	p	0		Y	?
.	.			Z	
Klaos	####				
tunistab	####				
õigeks	õige	ks		A	sg tr
et	et	0		J	
on	ole	0		V	b
  	ole	0		V	vad
vennale	vend	le		S	sg all
Daniel	Daniel	0		H	sg n
Klaos	####				
ülevel	####				
nimetud	nimetu	d		A	pl n
summa	summ	0		S	adt
     	summ	0		S	sg g
     	summ	0		S	sg p
     	summa	0		S	sg g
     	summa	0		S	sg n
osajaoks	osa_jagu	ks		S	sg tr
välja	välja	0		D	
     	välja	0		V	o
     	väli	0		S	adt
     	väli	0		S	sg g
     	väli	0		S	sg p
maksnud	maks	nud		V	nud
       	maks=nu	d		S	pl n
       	maks=nud	0		A	
       	maks=nud	0		A	sg n
       	maks=nud	d		A	pl n
.	.			Z	
Johan	Johan	0		H	sg n
Klaos	####				
/	/			Z	
allkiri	all_kiri	0		S	sg n
/	/			Z	
1899	1899	0		N	?
aastal	aasta	l		S	sg ad
8	8	0		N	?
Januaril	####				
on	ole	0		V	b
  	ole	0		V	vad
eelseisav	####				
lepping	####				
Johan	Johan	0		H	sg n
Jaani	Jaan	0		H	adt
     	Jaan	0		H	sg g
     	Jaani	0		H	sg g
     	jaan	0		S	adt
     	jaan	0		S	sg g
     	Jaan	0		H	sg p
     	Jaani	0		H	sg n
     	jaan	0		S	sg p
p	p	0		Y	?
.	.			Z	
Klaos	####				
ja	ja	0		J	
Daniel	Daniel	0		H	sg n
Jaani	Jaan	0		H	adt
     	Jaan	0		H	sg g
     	Jaani	0		H	sg g
     	jaan	0		S	adt
     	jaan	0		S	sg g
     	Jaan	0		H	sg p
     	Jaani	0		H	sg n
     	jaan	0		S	sg p
p	p	0		Y	?
.	.			Z	
Klaos	####				
poolt	pool	t		N	sg p
     	pool	t		S	sg p
     	poolt	0		D	
     	poolt	0		K	
,	,			Z	
kes	kes	0		P	pl n
   	kes	0		P	sg n
elavad	ela	vad		V	vad
      	elav	d		A	pl n
      	elav	d		S	pl n
Haaslava	Haaslava	0		H	sg g
        	Haaslava	0		H	sg n
vallas	vald	s		S	sg in
suusõnal	suu_sõnal	0		D	
selle	see	0		P	sg g
     	sell	e		S	pl p
kohtule	kohus	le		S	sg all
ustavaks	ustav	ks		A	sg tr
tunnistuseks	tunnistus	ks		S	sg tr
ette	ette	0		D	
    	ette	0		K	
    	esi	tte		S	adt
pantud	####				
ja	ja	0		J	
leppingu	####				
tegijad	tegija	d		S	pl n
teadmise	teadmine	0		S	sg g
järele	järele	0		D	
      	järele	0		K	
selle	see	0		P	sg g
     	sell	e		S	pl p
valla	vald	0		S	sg g
     	valla	0		D	
isekud	####				
ja	ja	0		J	
kohtule	kohus	le		S	sg all
palelikult	pale=lik	lt		A	sg abl
          	pale=likult	0		D	
tuntud	tund	tud		V	tud
      	tuntu	d		S	pl n
      	tuntud	0		A	
      	tuntud	0		A	sg n
      	tuntud	d		A	pl n
ja	ja	0		J	
et	et	0		J	
neil	see	l		P	pl ad
    	tema	l		P	pl ad
seadusline	####				
võim	võim	0		S	sg n
on	ole	0		V	b
  	ole	0		V	vad
leppingut	####				
teha	tege	a		V	da
ja	ja	0		J	
mõlemad	mõlema	d		P	pl n
leppingu	####				
tegijad	tegija	d		S	pl n
oma	oma	0		A	sg g
   	oma	0		D	
   	oma	0		P	sg g
   	oma	0		S	sg g
   	oma	0		V	o
   	oma	0		A	sg n
   	oma	0		A	sg p
   	oma	0		P	sg n
   	oma	0		P	sg p
   	oma	0		S	sg n
   	oma	0		S	sg p
käega	käsi	ga		S	sg kom
siin	siin	0		D	
    	siin	0		S	sg n
alla	alla	0		D	
    	alla	0		K	
on	ole	0		V	b
  	ole	0		V	vad
kirjutanud	kirjuta	nud		V	nud
          	kirjutanu	d		S	pl n
          	kirjutanud	0		A	
          	kirjutanud	0		A	sg n
          	kirjutanud	d		A	pl n
,	,			Z	
tunnistab	tunnista	b		V	b
vallakohus	valla_kohus	0		S	sg n
sellega	see	ga		P	sg kom
tõeks	tõde	ks		S	sg tr
     	tõsi	ks		S	sg tr
.	.			Z	
kohtueesistuja	kohtu_ees_istuja	0		S	sg g
              	kohtu_ees_istuja	0		S	sg n
J. Rosenthal	####				
/	/			Z	
allkiri	all_kiri	0		S	sg n
/	/			Z	
kohtukirjutaja	kohtu_kirjutaja	0		S	sg g
              	kohtu_kirjutaja	0		S	sg n
:	:			Z	
K. Laar	####				
/	/			Z	
allkiri	all_kiri	0		S	sg n
/	/			Z	
/	/			Z	
Pitser	pitser	0		S	sg n
/	/			Z	
