Juuni	juuni	0		S	sg g
     	juuni	0		S	sg n
ku	####				
27	27	0		N	?
se	####				
Aasi	aasi	0		V	o
ei	ei	0		D	
  	ei	0		V	neg
ole	ole	0		V	o
Tõsi	tõsi	0		S	pl p
    	tõsi	0		S	sg n
mis	mis	0		P	pl n
   	mis	0		P	sg n
se	####				
Naine	naine	0		S	sg n
räkis	####				
kokokonna	####				
kohhus	####				
Jättis	jät	is		V	s
Neeid	####				
rahho	####				
et	et	0		J	
se	####				
oli	ole	i		V	s
vale	vale	0		A	sg g
    	vale	0		A	sg n
    	vale	0		S	sg g
    	vale	0		S	sg n
