Sel	see	l		P	sg ad
   	sel	0		Y	?
samal	sama	l		P	sg ad
peaval	####				
kaebas	kaeba	s		V	s
Ludvig	####				
Salo	####				
.	.			Z	
Ta	tema	0		P	sg g
  	tema	0		P	sg n
olla	ole	a		V	da
külvil	külv	l		S	sg ad
5	5	0		N	?
külmitu	####				
rükkit	####				
4	4	0		N	?
külmitu	####				
Odre	####				
saanud	saa	nud		V	nud
      	saa=nud	0		A	
      	saa=nud	0		A	sg n
      	saa=nud	d		A	pl n
      	saanu	d		S	pl n
;	;			Z	
ja	ja	0		J	
seda	see	da		P	sg p
nimetud	nimetu	d		A	pl n
vili	vili	0		S	sg n
olla	ole	a		V	da
Otto	Otto	0		H	sg g
    	Otto	0		H	sg n
Sep	####				
ära	ära	0		D	
   	ära	0		V	neg o
pantud	####				
.	.			Z	
Selle	see	0		P	sg g
     	sell	e		S	pl p
eest	eest	0		D	
    	eest	0		K	
    	esi	st		S	sg el
mis	mis	0		P	pl n
   	mis	0		P	sg n
Ludvig	####				
Salo	####				
Otto	Otto	0		H	sg g
    	Otto	0		H	sg n
Seppal	####				
5	5	0		N	?
rubla	rubla	0		S	sg g
     	rubla	0		S	sg n
     	rubla	0		S	sg p
võlgo	####				
on	ole	0		V	b
  	ole	0		V	vad
.	.			Z	
Sai	saa	i		V	s
   	sai	0		S	sg n
Otto	Otto	0		H	sg g
    	Otto	0		H	sg n
Sep	####				
ette	ette	0		D	
    	ette	0		K	
    	esi	tte		S	adt
kutsutud	kutsu	tud		V	tud
        	kutsutu	d		S	pl n
        	kutsutud	0		A	
        	kutsutud	0		A	sg n
        	kutsutud	d		A	pl n
.	.			Z	
kes	kes	0		P	pl n
   	kes	0		P	sg n
ütles	ütle	s		V	s
et	et	0		J	
se	####				
õige	õige	0		A	sg g
    	õige	0		A	sg n
    	õige	0		D	
on	ole	0		V	b
  	ole	0		V	vad
.	.			Z	
ja	ja	0		J	
nõnda	nõnda	0		D	
:	:			Z	
4	4	0		N	?
külmitu	####				
ja	ja	0		J	
5	5	0		N	?
külmitos	####				
7	7	0		N	?
toopi	toop	0		S	adt
     	toop	0		S	sg p
puudus	puudu	s		V	s
      	puudus	0		S	sg n
olnud	ol=nud	0		A	
     	ol=nud	0		A	sg n
     	ol=nud	d		A	pl n
     	ole	nud		V	nud
     	olnu	d		S	pl n
mis	mis	0		P	pl n
   	mis	0		P	sg n
odra	oder	0		S	sg g
olla	ole	a		V	da
nõnda	nõnda	0		D	
kuddas	####				
need	see	d		P	pl n
olla	ole	a		V	da
külvil	külv	l		S	sg ad
ära	ära	0		D	
   	ära	0		V	neg o
totud	totu	d		S	pl n
ja	ja	0		J	
olla	ole	a		V	da
ka	ka	0		D	
kohtumees	kohtu_mees	0		S	sg n
Tõnnis	Tõnn	s		H	sg in
Soieva	####				
luba	luba	0		S	sg n
    	luba	0		V	o
    	luba	0		S	sg p
müda	####				
need	see	d		P	pl n
rukkit	####				
nõnda	nõnda	0		D	
kui	kui	0		D	
   	kui	0		J	
oma	oma	0		A	sg g
   	oma	0		D	
   	oma	0		P	sg g
   	oma	0		S	sg g
   	oma	0		V	o
   	oma	0		A	sg n
   	oma	0		A	sg p
   	oma	0		P	sg n
   	oma	0		P	sg p
   	oma	0		S	sg n
   	oma	0		S	sg p
võlgu	võlg	u		S	pl p
     	võlgu	0		D	
eest	eest	0		D	
    	eest	0		K	
    	esi	st		S	sg el
pantud	####				
.	.			Z	
Mõistis	mõist	is		V	s
kohhus	####				
,	,			Z	
et	et	0		J	
Otto	Otto	0		H	sg g
    	Otto	0		H	sg n
Sep	####				
piddab	####				
rukkit	####				
seni	seni	0		D	
ajani	aeg	ni		S	sg ter
kunnis	####				
Ludvig	####				
Salo	####				
need	see	d		P	pl n
5	5	0		N	?
rublat	rubla	t		S	sg p
Ottole	Otto	le		H	sg all
kätte	kätte	0		K	
     	käsi	tte		S	adt
maksap	####				
.	.			Z	
Tõnnis	Tõnn	s		H	sg in
Soieva	####				
+	+			Z	
+	+			Z	
+	+			Z	
Karel	####				
Rosenberg	Rosenberg	0		H	sg n
+	+			Z	
+	+			Z	
+	+			Z	
Jüri	Jüri	0		H	sg g
    	Jüri	0		H	sg n
Priks	priks	0		I	
+	+			Z	
+	+			Z	
+	+			Z	
