№	№	0		Y	?
44	44	0		N	?
sel	see	l		P	sg ad
   	sel	0		Y	?
24	24	0		N	?
Aprilil	####				
1890.	1890.	0		O	?
kaebas	kaeba	s		V	s
Tõntsu	####				
talu	talu	0		S	sg g
    	talu	0		V	o
    	talu	0		S	sg n
    	talu	0		S	sg p
omanik	omanik	0		S	sg n
Jaan	Jaan	0		H	sg n
    	jaan	0		S	sg n
    	jaan	0		Y	?
Roiland	####				
,	,			Z	
et	et	0		J	
tema	tema	0		P	sg g
    	tema	0		P	sg n
pops	pops	0		S	sg n
Hans	Hans	0		H	sg n
Sild	sild	0		S	sg n
kaupa	kaup	0		S	adt
     	kaup	0		S	sg p
     	kaupa	0		K	
perra	####				
3	3	0		N	?
astad	####				
päeva	päev	0		S	adt
     	päev	0		S	sg g
     	päev	0		S	sg p
ära	ära	0		D	
   	ära	0		V	neg o
teinud	tege	nud		V	nud
      	tei=nud	0		A	
      	tei=nud	0		A	sg n
      	tei=nud	d		A	pl n
      	teinu	d		S	pl n
ei	ei	0		D	
  	ei	0		V	neg
ole	ole	0		V	o
see	see	0		P	sg n
on	ole	0		V	b
  	ole	0		V	vad
75	75	0		N	?
päeva	päev	0		S	adt
     	päev	0		S	sg g
     	päev	0		S	sg p
kokku	kokku	0		D	
     	kogu	0		S	adt
,	,			Z	
nende	see	de		P	pl g
     	tema	de		P	pl g
eest	eest	0		D	
    	eest	0		K	
    	esi	st		S	sg el
nõuab	nõud	b		V	b
Jaan	Jaan	0		H	sg n
    	jaan	0		S	sg n
    	jaan	0		Y	?
Roiland	####				
a	a	0		Y	?
50	50	0		N	?
kop	kop	0		Y	?
37	37	0		N	?
rubl	####				
50	50	0		N	?
kop	kop	0		Y	?
.	.			Z	
tõiselt	####				
ei	ei	0		D	
  	ei	0		V	neg
ole	ole	0		V	o
see	see	0		P	sg n
Hans	Hans	0		H	sg n
Sild	sild	0		S	sg n
kaubeldut	kaubel=du	t		S	sg p
maa	maa	0		S	sg g
   	maa	0		S	sg n
rendi	rent	0		S	sg g
     	renti	0		V	o
30	30	0		N	?
rubl	####				
ära	ära	0		D	
   	ära	0		V	neg o
maksnud	maks	nud		V	nud
       	maks=nu	d		S	pl n
       	maks=nud	0		A	
       	maks=nud	0		A	sg n
       	maks=nud	d		A	pl n
,	,			Z	
kolmandalt	kolmas	lt		O	sg abl
on	ole	0		V	b
  	ole	0		V	vad
Hans	Hans	0		H	sg n
Sild	sild	0		S	sg n
7	7	0		N	?
koormat	koorem	t		S	sg p
sõnnikut	sõnnik	t		S	sg p
vastu	vastu	0		D	
     	vastu	0		K	
leppingut	####				
tema	tema	0		P	sg g
    	tema	0		P	sg n
talust	talu	st		S	sg el
välja	välja	0		D	
     	välja	0		V	o
     	väli	0		S	adt
     	väli	0		S	sg g
     	väli	0		S	sg p
viinud	vii	nud		V	nud
      	vii=nu	d		S	pl n
      	vii=nud	0		A	
      	vii=nud	0		A	sg n
      	vii=nud	d		A	pl n
,	,			Z	
selle	see	0		P	sg g
     	sell	e		S	pl p
eest	eest	0		D	
    	eest	0		K	
    	esi	st		S	sg el
nõuab	nõud	b		V	b
Jaan	Jaan	0		H	sg n
    	jaan	0		S	sg n
    	jaan	0		Y	?
Roiland	####				
3	3	0		N	?
rubl	####				
50	50	0		N	?
kop	kop	0		Y	?
ja	ja	0		J	
neljandalt	neljas	lt		O	sg abl
olevat	ole	vat		V	vat
      	olev	t		A	sg p
      	olev	t		S	sg p
tema	tema	0		P	sg g
    	tema	0		P	sg n
,	,			Z	
Jaan	Jaan	0		H	sg n
    	jaan	0		S	sg n
    	jaan	0		Y	?
Roiland	####				
,	,			Z	
jubba	####				
tõine	####				
astu	astu	0		V	o
Hans	Hans	0		H	sg n
Sildaga	####				
kohtu	kohtu	0		V	o
     	kohus	0		S	sg g
käija	käija	0		S	sg g
     	käija	0		S	sg n
mis	mis	0		P	pl n
   	mis	0		P	sg n
läbi	läbi	0		D	
    	läbi	0		K	
    	läbi	0		V	o
temal	tema	l		P	sg ad
4	4	0		N	?
päeva	päev	0		S	adt
     	päev	0		S	sg g
     	päev	0		S	sg p
on	ole	0		V	b
  	ole	0		V	vad
kulunud	kulu	nud		V	nud
       	kulu=nu	d		S	pl n
       	kulunud	0		A	
       	kulunud	0		A	sg n
       	kulunud	d		A	pl n
ja	ja	0		J	
nõuab	nõud	b		V	b
nende	see	de		P	pl g
     	tema	de		P	pl g
eest	eest	0		D	
    	eest	0		K	
    	esi	st		S	sg el
55	55	0		N	?
rubl	####				
.	.			Z	
Jaan	Jaan	0		H	sg n
    	jaan	0		S	sg n
    	jaan	0		Y	?
Roiland	####				
palub	palu	b		V	b
,	,			Z	
et	et	0		J	
kohus	kohu	s		V	s
     	kohus	0		S	sg n
Hans	Hans	0		H	sg n
Silda	sild	0		S	adt
     	silda	0		V	o
     	sild	0		S	sg p
sunnis	sund	s		S	sg in
see	see	0		P	sg n
päeva	päev	0		S	adt
     	päev	0		S	sg g
     	päev	0		S	sg p
,	,			Z	
rendi	rent	0		S	sg g
     	renti	0		V	o
,	,			Z	
sõnniku	sõnnik	0		S	sg g
ja	ja	0		J	
kohtu	kohtu	0		V	o
     	kohus	0		S	sg g
käimise	käimine	0		S	sg g
raha	raha	0		S	sg g
    	raha	0		S	sg n
    	raha	0		S	sg p
temale	tema	le		P	sg all
ära	ära	0		D	
   	ära	0		V	neg o
maksma	maks	ma		V	ma
.	.			Z	
Jaan	Jaan	0		H	sg n
    	jaan	0		S	sg n
    	jaan	0		Y	?
Roiland	####				
/	/			Z	
allkiri	all_kiri	0		S	sg n
/	/			Z	
Hans	Hans	0		H	sg n
Sild	sild	0		S	sg n
vastutas	vastuta	s		V	s
selle	see	0		P	sg g
     	sell	e		S	pl p
peale	pea	le		S	sg all
     	peale	0		D	
     	peale	0		K	
,	,			Z	
et	et	0		J	
tema	tema	0		P	sg g
    	tema	0		P	sg n
2	2	0		N	?
astad	####				
päeva	päev	0		S	adt
     	päev	0		S	sg g
     	päev	0		S	sg p
ära	ära	0		D	
   	ära	0		V	neg o
on	ole	0		V	b
  	ole	0		V	vad
teinud	tege	nud		V	nud
      	tei=nud	0		A	
      	tei=nud	0		A	sg n
      	tei=nud	d		A	pl n
      	teinu	d		S	pl n
ja	ja	0		J	
nüüd	nüüd	0		D	
2	2	0		N	?
astad	####				
on	ole	0		V	b
  	ole	0		V	vad
see	see	0		P	sg n
asi	asi	0		S	sg n
   	asi	0		V	o
kohtu	kohtu	0		V	o
     	kohus	0		S	sg g
all	all	0		D	
   	all	0		K	
olnud	ol=nud	0		A	
     	ol=nud	0		A	sg n
     	ol=nud	d		A	pl n
     	ole	nud		V	nud
     	olnu	d		S	pl n
ja	ja	0		J	
kogukonna	kogukond	0		S	sg g
kohus	kohu	s		V	s
     	kohus	0		S	sg n
olevat	ole	vat		V	vat
      	olev	t		A	sg p
      	olev	t		S	sg p
temale	tema	le		P	sg all
5	5	0		N	?
rubl	####				
ega	ega	0		D	
   	ega	0		J	
astu	astu	0		V	o
ma	mina	0		P	sg n
eest	eest	0		D	
    	eest	0		K	
    	esi	st		S	sg el
mõistnud	mõist	nud		V	nud
        	mõist=nu	d		S	pl n
        	mõist=nud	0		A	
        	mõist=nud	0		A	sg n
        	mõist=nud	d		A	pl n
,	,			Z	
tõise	####				
kaebuse	kaebus	0		S	sg g
peale	pea	le		S	sg all
     	peale	0		D	
     	peale	0		K	
,	,			Z	
et	et	0		J	
tema	tema	0		P	sg g
    	tema	0		P	sg n
maa	maa	0		S	sg g
   	maa	0		S	sg n
rendi	rent	0		S	sg g
     	renti	0		V	o
ära	ära	0		D	
   	ära	0		V	neg o
on	ole	0		V	b
  	ole	0		V	vad
maksnud	maks	nud		V	nud
       	maks=nu	d		S	pl n
       	maks=nud	0		A	
       	maks=nud	0		A	sg n
       	maks=nud	d		A	pl n
ja	ja	0		J	
midagi	miski	dagi		P	sg p
võlgu	võlg	u		S	pl p
     	võlgu	0		D	
ei	ei	0		D	
  	ei	0		V	neg
ole	ole	0		V	o
,	,			Z	
tema	tema	0		P	sg g
    	tema	0		P	sg n
käes	käes	0		K	
    	käsi	s		S	sg in
olevat	ole	vat		V	vat
      	olev	t		A	sg p
      	olev	t		S	sg p
2	2	0		N	?
astad	####				
maa	maa	0		S	sg g
   	maa	0		S	sg n
olnud	ol=nud	0		A	
     	ol=nud	0		A	sg n
     	ol=nud	d		A	pl n
     	ole	nud		V	nud
     	olnu	d		S	pl n
,	,			Z	
mis	mis	0		P	pl n
   	mis	0		P	sg n
ka	ka	0		D	
ära	ära	0		D	
   	ära	0		V	neg o
on	ole	0		V	b
  	ole	0		V	vad
tasutud	tasu	tud		V	tud
       	tasu=tu	d		S	pl n
       	tasu=tud	0		A	
       	tasu=tud	0		A	sg n
       	tasu=tud	d		A	pl n
.	.			Z	
kolmanda	kolmas	0		O	sg g
kaebuse	kaebus	0		S	sg g
peale	pea	le		S	sg all
     	peale	0		D	
     	peale	0		K	
,	,			Z	
et	et	0		J	
tema	tema	0		P	sg g
    	tema	0		P	sg n
küll	küll	0		D	
    	küll	0		S	sg n
oma	oma	0		A	sg g
   	oma	0		D	
   	oma	0		P	sg g
   	oma	0		S	sg g
   	oma	0		V	o
   	oma	0		A	sg n
   	oma	0		A	sg p
   	oma	0		P	sg n
   	oma	0		P	sg p
   	oma	0		S	sg n
   	oma	0		S	sg p
lehma	lehm	0		S	adt
     	lehm	0		S	sg g
     	lehm	0		S	sg p
sõnniku	sõnnik	0		S	sg g
välja	välja	0		D	
     	välja	0		V	o
     	väli	0		S	adt
     	väli	0		S	sg g
     	väli	0		S	sg p
on	ole	0		V	b
  	ole	0		V	vad
viinud	vii	nud		V	nud
      	vii=nu	d		S	pl n
      	vii=nud	0		A	
      	vii=nud	0		A	sg n
      	vii=nud	d		A	pl n
,	,			Z	
ent	ent	0		J	
nende	see	de		P	pl g
     	tema	de		P	pl g
kaup	kaup	0		S	sg n
ei	ei	0		D	
  	ei	0		V	neg
keela	keela	0		V	o
seda	see	da		P	sg p
,	,			Z	
põllupõhku	põllu_põhk	0		S	adt
          	põllu_põhk	0		S	sg p
ei	ei	0		D	
  	ei	0		V	neg
tohi	tohti	0		V	o
tema	tema	0		P	sg g
    	tema	0		P	sg n
kaupa	kaup	0		S	adt
     	kaup	0		S	sg p
     	kaupa	0		K	
perra	####				
mitte	mitte	0		D	
välja	välja	0		D	
     	välja	0		V	o
     	väli	0		S	adt
     	väli	0		S	sg g
     	väli	0		S	sg p
vija	####				
aga	aga	0		J	
sõnnik	sõnnik	0		S	sg n
on	ole	0		V	b
  	ole	0		V	vad
keeldmata	####				
ja	ja	0		J	
neljanda	neljas	0		O	sg g
kaebuse	kaebus	0		S	sg g
peale	pea	le		S	sg all
     	peale	0		D	
     	peale	0		K	
,	,			Z	
et	et	0		J	
Jaan	Jaan	0		H	sg n
    	jaan	0		S	sg n
    	jaan	0		Y	?
Roiland	####				
ilma	ilm	0		S	adt
    	ilm	0		S	sg g
    	ilma	0		D	
    	ilma	0		K	
    	ilm	0		S	sg p
asjata	asi	ta		S	sg ab
      	asjata	0		A	
      	asjata	0		D	
      	asjata	0		V	o
on	ole	0		V	b
  	ole	0		V	vad
kaebanud	####				
,	,			Z	
sellepärast	selle_pärast	0		D	
ei	ei	0		D	
  	ei	0		V	neg
või	või	0		S	sg g
   	või	0		V	o
   	või	0		D	
   	või	0		J	
   	või	0		S	sg n
tema	tema	0		P	sg g
    	tema	0		P	sg n
ka	ka	0		D	
neid	neid	0		S	sg n
    	see	d		P	pl p
    	tema	d		P	pl p
kohtu	kohtu	0		V	o
     	kohus	0		S	sg g
käimise	käimine	0		S	sg g
päeva	päev	0		S	adt
     	päev	0		S	sg g
     	päev	0		S	sg p
maksta	maks	ta		V	da
      	maks	ta		V	ta
.	.			Z	
Hans	Hans	0		H	sg n
Sild	sild	0		S	sg n
/	/			Z	
allkiri	all_kiri	0		S	sg n
/	/			Z	
Jaan	Jaan	0		H	sg n
    	jaan	0		S	sg n
    	jaan	0		Y	?
Roiland	####				
tõendas	tõenda	s		V	s
,	,			Z	
et	et	0		J	
temal	tema	l		P	sg ad
3	3	0		N	?
astu	astu	0		V	o
päeva	päev	0		S	adt
     	päev	0		S	sg g
     	päev	0		S	sg p
ja	ja	0		J	
30	30	0		N	?
rubl	####				
rendi	rent	0		S	sg g
     	renti	0		V	o
tõesti	tõesti	0		D	
saada	saa	da		V	da
     	saat	0		V	o
     	saa	da		V	ta
on	ole	0		V	b
  	ole	0		V	vad
.	.			Z	
selle	see	0		P	sg g
     	sell	e		S	pl p
peale	pea	le		S	sg all
     	peale	0		D	
     	peale	0		K	
palus	palu	s		S	sg in
     	palu	s		V	s
Jaan	Jaan	0		H	sg n
    	jaan	0		S	sg n
    	jaan	0		Y	?
Roiland	####				
et	et	0		J	
kohus	kohu	s		V	s
     	kohus	0		S	sg n
Hans	Hans	0		H	sg n
Silda	sild	0		S	adt
     	silda	0		V	o
     	sild	0		S	sg p
kunis	####				
oma	oma	0		A	sg g
   	oma	0		D	
   	oma	0		P	sg g
   	oma	0		S	sg g
   	oma	0		V	o
   	oma	0		A	sg n
   	oma	0		A	sg p
   	oma	0		P	sg n
   	oma	0		P	sg p
   	oma	0		S	sg n
   	oma	0		S	sg p
tare	tare	0		S	sg g
    	tare	0		S	sg n
ära	ära	0		D	
   	ära	0		V	neg o
viima	vii	ma		V	ma
ja	ja	0		J	
selle	see	0		P	sg g
     	sell	e		S	pl p
et	et	0		J	
Hans	Hans	0		H	sg n
Sild	sild	0		S	sg n
oma	oma	0		A	sg g
   	oma	0		D	
   	oma	0		P	sg g
   	oma	0		S	sg g
   	oma	0		V	o
   	oma	0		A	sg n
   	oma	0		A	sg p
   	oma	0		P	sg n
   	oma	0		P	sg p
   	oma	0		S	sg n
   	oma	0		S	sg p
hoonet	hoone	t		S	sg p
ära	ära	0		D	
   	ära	0		V	neg o
ei	ei	0		D	
  	ei	0		V	neg
ole	ole	0		V	o
viinud	vii	nud		V	nud
      	vii=nu	d		S	pl n
      	vii=nud	0		A	
      	vii=nud	0		A	sg n
      	vii=nud	d		A	pl n
,	,			Z	
nõuab	nõud	b		V	b
tema	tema	0		P	sg g
    	tema	0		P	sg n
nüüd	nüüd	0		D	
edespidi	####				
50	50	0		N	?
päeva	päev	0		S	adt
     	päev	0		S	sg g
     	päev	0		S	sg p
astu	astu	0		V	o
eest	eest	0		D	
    	eest	0		K	
    	esi	st		S	sg el
ja	ja	0		J	
ei	ei	0		D	
  	ei	0		V	neg
anna	and	0		V	o
    	anna	0		S	sg g
    	anna	0		S	sg n
Hans	Hans	0		H	sg n
Sildale	####				
mitte	mitte	0		D	
enam	enam	0		C	sg n
    	enam	0		D	
aidatud	aita	tud		V	tud
       	aida=tu	d		S	pl n
       	aida=tud	0		A	
       	aida=tud	0		A	sg n
       	aida=tud	d		A	pl n
vaid	vaid	0		D	
    	vaid	0		J	
ennegi	ennegi	0		D	
tee	tee	0		S	sg g
   	tege	0		V	o
   	tee	0		S	sg n
raha	raha	0		S	sg g
    	raha	0		S	sg n
    	raha	0		S	sg p
maja	maja	0		S	sg g
    	maja	0		S	sg n
    	maja	0		S	sg p
juurest	juur	st		S	sg el
       	juurest	0		K	
tee	tee	0		S	sg g
   	tege	0		V	o
   	tee	0		S	sg n
peale	pea	le		S	sg all
     	peale	0		D	
     	peale	0		K	
niisama	nii_sama	0		D	
keelab	keela	b		V	b
tema	tema	0		P	sg g
    	tema	0		P	sg n
heinamaa	heina_maa	0		S	sg g
        	heina_maa	0		S	sg n
pealt	pea	lt		S	sg abl
     	pealt	0		D	
     	pealt	0		K	
vett	vesi	tt		S	sg p
võtta	võt	a		V	da
ja	ja	0		J	
sinna	sinna	0		D	
käivad	käi	vad		V	vad
      	käiv	d		A	pl n
teha	tege	a		V	da
vaid	vaid	0		D	
    	vaid	0		J	
võib	või	b		V	b
Hans	Hans	0		H	sg n
Sild	sild	0		S	sg n
ennegi	ennegi	0		D	
kuulamise	kuulamine	0		S	sg g
Jaani	Jaan	0		H	adt
     	Jaan	0		H	sg g
     	Jaani	0		H	sg g
     	jaan	0		S	adt
     	jaan	0		S	sg g
     	Jaan	0		H	sg p
     	Jaani	0		H	sg n
     	jaan	0		S	sg p
kaebust	kaebus	t		S	sg p
vett	vesi	tt		S	sg p
võtta	võt	a		V	da
.	.			Z	
Jaan	Jaan	0		H	sg n
    	jaan	0		S	sg n
    	jaan	0		Y	?
Roiland	####				
/	/			Z	
allkiri	all_kiri	0		S	sg n
/	/			Z	
Hans	Hans	0		H	sg n
Sild	sild	0		S	sg n
ei	ei	0		D	
  	ei	0		V	neg
loa	luba	0		S	sg g
   	luga	0		S	sg g
päeva	päev	0		S	adt
     	päev	0		S	sg g
     	päev	0		S	sg p
teha	tege	a		V	da
vaid	vaid	0		D	
    	vaid	0		J	
raha	raha	0		S	sg g
    	raha	0		S	sg n
    	raha	0		S	sg p
maksta	maks	ta		V	da
      	maks	ta		V	ta
,	,			Z	
mis	mis	0		P	pl n
   	mis	0		P	sg n
kohus	kohu	s		V	s
     	kohus	0		S	sg n
mõistab	mõist	b		V	b
ja	ja	0		J	
ei	ei	0		D	
  	ei	0		V	neg
loa	luba	0		S	sg g
   	luga	0		S	sg g
aidatud	aita	tud		V	tud
       	aida=tu	d		S	pl n
       	aida=tud	0		A	
       	aida=tud	0		A	sg n
       	aida=tud	d		A	pl n
ei	ei	0		D	
  	ei	0		V	neg
ka	ka	0		D	
käivad	käi	vad		V	vad
      	käiv	d		A	pl n
ära	ära	0		D	
   	ära	0		V	neg o
anda	and	a		V	da
,	,			Z	
selle	see	0		P	sg g
     	sell	e		S	pl p
et	et	0		J	
temal	tema	l		P	sg ad
usad	####				
ja	ja	0		J	
ka	ka	0		D	
kaevat	kae	vat		V	vat
      	kae=v	t		A	sg p
välja	välja	0		D	
     	välja	0		V	o
     	väli	0		S	adt
     	väli	0		S	sg g
     	väli	0		S	sg p
kaubeldud	kauple	dud		V	tud
         	kaubel=du	d		S	pl n
         	kaubel=dud	0		A	
         	kaubel=dud	0		A	sg n
         	kaubel=dud	d		A	pl n
on	ole	0		V	b
  	ole	0		V	vad
,	,			Z	
kelle	kes	0		P	pl g
     	kes	0		P	sg g
eest	eest	0		D	
    	eest	0		K	
    	esi	st		S	sg el
tema	tema	0		P	sg g
    	tema	0		P	sg n
25	25	0		N	?
päeva	päev	0		S	adt
     	päev	0		S	sg g
     	päev	0		S	sg p
tegema	tege	ma		V	ma
peab	pida	b		V	b
.	.			Z	
Hans	Hans	0		H	sg n
Sild	sild	0		S	sg n
/	/			Z	
allkiri	all_kiri	0		S	sg n
/	/			Z	
Mõistetud	mõist	tud		V	tud
         	mõiste=tu	d		S	pl n
         	mõiste=tud	0		A	
         	mõiste=tud	0		A	sg n
         	mõiste=tud	d		A	pl n
:	:			Z	
et	et	0		J	
Hans	Hans	0		H	sg n
Sild	sild	0		S	sg n
75	75	0		N	?
võlg	võlg	0		S	sg n
jalgusi	####				
päeva	päev	0		S	adt
     	päev	0		S	sg g
     	päev	0		S	sg p
eest	eest	0		D	
    	eest	0		K	
    	esi	st		S	sg el
37	37	0		N	?
rubl	####				
50	50	0		N	?
kop	kop	0		Y	?
ja	ja	0		J	
võlg	võlg	0		S	sg n
rent	rent	0		S	sg n
30	30	0		N	?
rubl	####				
8	8	0		N	?
päeva	päev	0		S	adt
     	päev	0		S	sg g
     	päev	0		S	sg p
sees	sees	0		D	
    	sees	0		K	
Jaan	Jaan	0		H	sg n
    	jaan	0		S	sg n
    	jaan	0		Y	?
Roilandile	####				
ära	ära	0		D	
   	ära	0		V	neg o
maksma	maks	ma		V	ma
peab	pida	b		V	b
,	,			Z	
selle	see	0		P	sg g
     	sell	e		S	pl p
et	et	0		J	
tema	tema	0		P	sg g
    	tema	0		P	sg n
seda	see	da		P	sg p
selges	selge	s		A	sg in
teha	tege	a		V	da
ei	ei	0		D	
  	ei	0		V	neg
jõua	jõud	0		V	o
et	et	0		J	
tema	tema	0		P	sg g
    	tema	0		P	sg n
seda	see	da		P	sg p
Jaan	Jaan	0		H	sg n
    	jaan	0		S	sg n
    	jaan	0		Y	?
Roilandile	####				
ära	ära	0		D	
   	ära	0		V	neg o
oleks	ole	ks		V	ks
tasunud	tasu	nud		V	nud
       	tasu=nu	d		S	pl n
       	tasu=nud	0		A	
       	tasu=nud	0		A	sg n
       	tasu=nud	d		A	pl n
.	.			Z	
Jaan	Jaan	0		H	sg n
    	jaan	0		S	sg n
    	jaan	0		Y	?
Roilandi	####				
sõnniku	sõnnik	0		S	sg g
ja	ja	0		J	
kohtupäeva	kohtu_päev	0		S	adt
          	kohtu_päev	0		S	sg g
          	kohtu_päev	0		S	sg p
nõudmine	nõudmine	0		S	sg n
on	ole	0		V	b
  	ole	0		V	vad
tühjaks	tühi	ks		A	sg tr
mõista	mõist	0		V	o
      	mõist	a		V	da
,	,			Z	
selle	see	0		P	sg g
     	sell	e		S	pl p
et	et	0		J	
need	see	d		P	pl n
nõudmised	nõudmine	d		S	pl n
selge	selge	0		A	sg g
     	selge	0		A	sg n
ei	ei	0		D	
  	ei	0		V	neg
ole	ole	0		V	o
.	.			Z	
Hans	Hans	0		H	sg n
Sild	sild	0		S	sg n
peab	pida	b		V	b
selle	see	0		P	sg g
     	sell	e		S	pl p
1890	1890	0		N	?
/	/			Z	
91	91	0		N	?
astu	astu	0		V	o
eest	eest	0		D	
    	eest	0		K	
    	esi	st		S	sg el
25	25	0		N	?
jalgusi	####				
päeva	päev	0		S	adt
     	päev	0		S	sg g
     	päev	0		S	sg p
tegema	tege	ma		V	ma
ja	ja	0		J	
oma	oma	0		A	sg g
   	oma	0		D	
   	oma	0		P	sg g
   	oma	0		S	sg g
   	oma	0		V	o
   	oma	0		A	sg n
   	oma	0		A	sg p
   	oma	0		P	sg n
   	oma	0		P	sg p
   	oma	0		S	sg n
   	oma	0		S	sg p
hoone	hoone	0		S	sg g
     	hoone	0		S	sg n
kuni	kuni	0		J	
    	kuni	0		K	
23	23	0		N	?
Aprilini	####				
1891	1891	0		N	?
Jaan	Jaan	0		H	sg n
    	jaan	0		S	sg n
    	jaan	0		Y	?
Roilandi	####				
maa	maa	0		S	sg g
   	maa	0		S	sg n
pealt	pea	lt		S	sg abl
     	pealt	0		D	
     	pealt	0		K	
ära	ära	0		D	
   	ära	0		V	neg o
viima	vii	ma		V	ma
.	.			Z	
see	see	0		P	sg n
usad	####				
ja	ja	0		J	
tare	tare	0		S	sg g
    	tare	0		S	sg n
ase	ase	0		S	sg n
,	,			Z	
mis	mis	0		P	pl n
   	mis	0		P	sg n
praegu	praegu	0		D	
Hans	Hans	0		H	sg n
Sild	sild	0		S	sg n
käes	käes	0		K	
    	käsi	s		S	sg in
on	ole	0		V	b
  	ole	0		V	vad
,	,			Z	
jääb	jää	b		V	b
ka	ka	0		D	
1890	1890	0		N	?
/	/			Z	
91	91	0		N	?
astas	####				
tema	tema	0		P	sg g
    	tema	0		P	sg n
kätte	kätte	0		K	
     	käsi	tte		S	adt
ent	ent	0		J	
vett	vesi	tt		S	sg p
ei	ei	0		D	
  	ei	0		V	neg
tohi	tohti	0		V	o
Hans	Hans	0		H	sg n
Sild	sild	0		S	sg n
mitte	mitte	0		D	
Jaan	Jaan	0		H	sg n
    	jaan	0		S	sg n
    	jaan	0		Y	?
Roilandi	####				
heinamaa	heina_maa	0		S	sg g
        	heina_maa	0		S	sg n
seest	seest	0		D	
     	seest	0		K	
võtta	võt	a		V	da
,	,			Z	
vaid	vaid	0		D	
    	vaid	0		J	
peab	pida	b		V	b
kuulamise	kuulamine	0		S	sg g
Jaani	Jaan	0		H	adt
     	Jaan	0		H	sg g
     	Jaani	0		H	sg g
     	jaan	0		S	adt
     	jaan	0		S	sg g
     	Jaan	0		H	sg p
     	Jaani	0		H	sg n
     	jaan	0		S	sg p
kaevust	kaev	st		S	sg el
       	kaevus	t		S	sg p
omale	oma	le		A	sg all
     	oma	le		P	sg all
     	oma	le		S	sg all
vett	vesi	tt		S	sg p
võtma	võt	ma		V	ma
.	.			Z	
see	see	0		P	sg n
mõistus	mõistus	0		S	sg n
sai	saa	i		V	s
   	sai	0		S	sg n
kuulutatud	kuuluta	tud		V	tud
          	kuuluta=tu	d		S	pl n
          	kuuluta=tud	0		A	
          	kuuluta=tud	0		A	sg n
          	kuuluta=tud	d		A	pl n
.	.			Z	
Jaan	Jaan	0		H	sg n
    	jaan	0		S	sg n
    	jaan	0		Y	?
Roiland	####				
/	/			Z	
allkiri	all_kiri	0		S	sg n
/	/			Z	
Hans	Hans	0		H	sg n
Sild	sild	0		S	sg n
/	/			Z	
allkiri	all_kiri	0		S	sg n
/	/			Z	
peakohtumees	pea_kohtu_mees	0		S	sg n
Jaan	Jaan	0		H	sg n
    	jaan	0		S	sg n
    	jaan	0		Y	?
Virro	####				
XXX	XXX	0		O	?
   	XXX	0		Y	?
kohtumees	kohtu_mees	0		S	sg n
:	:			Z	
Jakob	Jakob	0		H	sg n
saks	saks	0		S	sg n
/	/			Z	
allkiri	all_kiri	0		S	sg n
/	/			Z	
""""	""""			Z	
Peeter	Peeter	0		H	sg n
Hansen	Hansen	0		H	sg n
XXX	XXX	0		O	?
   	XXX	0		Y	?
see	see	0		P	sg n
mõistus	mõistus	0		S	sg n
sai	saa	i		V	s
   	sai	0		S	sg n
II	II	0		O	?
  	II	0		Y	?
  	jj	0		Y	?
ülema	ülem	0		C	sg g
     	ülem	0		S	sg g
talurahva	talu_rahvas	0		S	sg g
kohtu	kohtu	0		V	o
     	kohus	0		S	sg g
poolt	pool	t		N	sg p
     	pool	t		S	sg p
     	poolt	0		D	
     	poolt	0		K	
tühjaks	tühi	ks		A	sg tr
seletu	seletu	0		V	o
,	,			Z	
selle	see	0		P	sg g
     	sell	e		S	pl p
et	et	0		J	
Jaan	Jaan	0		H	sg n
    	jaan	0		S	sg n
    	jaan	0		Y	?
Roilandi	####				
nõudmine	nõudmine	0		S	sg n
üle	üle	0		D	
   	üle	0		K	
100	100	0		N	?
rubl	####				
on	ole	0		V	b
  	ole	0		V	vad
.	.			Z	
kiri	kiri	0		S	sg n
sest	see	st		P	sg el
    	sest	0		J	
1	1	0		N	?
maist	maa	ist		S	pl el
     	mai	st		S	sg el
     	maine	t		A	sg p
1890	1890	0		N	?
№	№	0		Y	?
626	626	0		N	?
