Tuli	tuli	0		S	sg n
    	tule	i		V	s
kohtu	kohtu	0		V	o
     	kohus	0		S	sg g
ette	ette	0		D	
    	ette	0		K	
    	esi	tte		S	adt
rana	####				
valla	vald	0		S	sg g
     	valla	0		D	
Aadu	Aadu	0		H	sg g
    	Aadu	0		H	sg n
Jaani	Jaan	0		H	adt
     	Jaan	0		H	sg g
     	Jaani	0		H	sg g
     	jaan	0		S	adt
     	jaan	0		S	sg g
     	Jaan	0		H	sg p
     	Jaani	0		H	sg n
     	jaan	0		S	sg p
N	N	0		Y	?
:	:			Z	
18	18	0		N	?
poole	pool	0		N	sg g
     	pool	0		S	sg g
     	pool	e		S	pl p
     	poole	0		K	
     	poole	0		S	sg n
talu	talu	0		S	sg g
    	talu	0		V	o
    	talu	0		S	sg n
    	talu	0		S	sg p
omanik	omanik	0		S	sg n
Jaan	Jaan	0		H	sg n
    	jaan	0		S	sg n
    	jaan	0		Y	?
Mihkli	Mihkel	0		H	sg g
      	Mihkli	0		H	sg g
      	mihkel	0		A	sg g
      	mihkel	0		S	sg g
      	Mihkli	0		H	sg n
pg	####				
Kreus	####				
selle	see	0		P	sg g
     	sell	e		S	pl p
palvega	palve	ga		S	sg kom
,	,			Z	
et	et	0		J	
tema	tema	0		P	sg g
    	tema	0		P	sg n
viimane	viimane	0		A	sg n
tahtmine	tahtmine	0		S	sg n
kohtu	kohtu	0		V	o
     	kohus	0		S	sg g
protokoli	####				
üles	üles	0		D	
kirjutataks	kirjuta	taks		V	taks
,	,			Z	
järgmiselt	järgmine	lt		A	sg abl
          	järgmiselt	0		D	
:	:			Z	
Aadu	Aadu	0		H	sg g
    	Aadu	0		H	sg n
Jaani	Jaan	0		H	adt
     	Jaan	0		H	sg g
     	Jaani	0		H	sg g
     	jaan	0		S	adt
     	jaan	0		S	sg g
     	Jaan	0		H	sg p
     	Jaani	0		H	sg n
     	jaan	0		S	sg p
N	N	0		Y	?
:	:			Z	
18	18	0		N	?
talu	talu	0		S	sg g
    	talu	0		V	o
    	talu	0		S	sg n
    	talu	0		S	sg p
on	ole	0		V	b
  	ole	0		V	vad
üle	üle	0		D	
   	üle	0		K	
kõige	kõik	0		P	sg g
     	kõige	0		D	
13	13	0		N	?
taadrit	####				
56	56	0		N	?
grosi	####				
suur	suur	0		A	sg n
ja	ja	0		J	
kahe	kaks	0		N	sg g
peale	pea	le		S	sg all
     	peale	0		D	
     	peale	0		K	
Kaarel	Kaarel	0		H	sg n
      	kaar	l		S	sg ad
      	kaarel	0		S	sg n
Reinholdi	####				
ja	ja	0		J	
Jaan	Jaan	0		H	sg n
    	jaan	0		S	sg n
    	jaan	0		Y	?
Kreuse	####				
nimel	nimel	0		K	
     	nimi	l		S	sg ad
kinnitatud	kinnita	tud		V	tud
          	kinnita=tu	d		S	pl n
          	kinnita=tud	0		A	
          	kinnita=tud	0		A	sg n
          	kinnita=tud	d		A	pl n
.	.			Z	
Ostu	ost	0		S	adt
    	ost	0		S	sg g
    	ost	0		S	sg p
kontraht	kontraht	0		S	sg n
järel	järel	0		D	
     	järel	0		K	
maksab	maks	b		V	b
talu	talu	0		S	sg g
    	talu	0		V	o
    	talu	0		S	sg n
    	talu	0		S	sg p
1950	1950	0		N	?
rbl	rbl	0		Y	?
millest	mis	st		P	pl el
       	mis	st		P	sg el
1000	1000	0		N	?
rbl	rbl	0		Y	?
Kredit	####				
Kass	kass	0		S	sg n
võlg	võlg	0		S	sg n
on	ole	0		V	b
  	ole	0		V	vad
.	.			Z	
Mõisa	mõis	0		S	sg g
Herrale	####				
on	ole	0		V	b
  	ole	0		V	vad
koht	koht	0		S	sg n
kinni	kinni	0		D	
maksetud	makse=tu	d		A	pl n
.	.			Z	
Selle	see	0		P	sg g
     	sell	e		S	pl p
poole	pool	0		N	sg g
     	pool	0		S	sg g
     	pool	e		S	pl p
     	poole	0		K	
     	poole	0		S	sg n
talu	talu	0		S	sg g
    	talu	0		V	o
    	talu	0		S	sg n
    	talu	0		S	sg p
ja	ja	0		J	
kõik	kõik	0		P	pl n
    	kõik	0		S	sg n
    	kõik	0		P	sg n
liikuva	liikuv	0		A	sg g
varanduse	varandus	0		S	sg g
mis	mis	0		P	pl n
   	mis	0		P	sg n
talus	talu	s		S	sg in
     	talu	s		V	s
on	ole	0		V	b
  	ole	0		V	vad
,	,			Z	
lubab	luba	b		V	b
Jaan	Jaan	0		H	sg n
    	jaan	0		S	sg n
    	jaan	0		Y	?
Kreus	####				
oma	oma	0		A	sg g
   	oma	0		D	
   	oma	0		P	sg g
   	oma	0		S	sg g
   	oma	0		V	o
   	oma	0		A	sg n
   	oma	0		A	sg p
   	oma	0		P	sg n
   	oma	0		P	sg p
   	oma	0		S	sg n
   	oma	0		S	sg p
ainukese	ainuke	0		A	sg g
        	ainukene	0		A	sg g
pojale	poeg	le		S	sg all
      	poja	le		S	sg all
Villemile	Villem	le		H	sg all
pärast	pära	st		S	sg el
      	pärane	t		A	sg p
      	pärast	0		D	
      	pärast	0		K	
oma	oma	0		A	sg g
   	oma	0		D	
   	oma	0		P	sg g
   	oma	0		S	sg g
   	oma	0		V	o
   	oma	0		A	sg n
   	oma	0		A	sg p
   	oma	0		P	sg n
   	oma	0		P	sg p
   	oma	0		S	sg n
   	oma	0		S	sg p
surma	surm	0		S	adt
     	surm	0		S	sg g
     	surma	0		V	o
     	surm	0		S	sg p
päranduseks	pärandus	ks		S	sg tr
,	,			Z	
ilma	ilm	0		S	adt
    	ilm	0		S	sg g
    	ilma	0		D	
    	ilma	0		K	
    	ilm	0		S	sg p
et	et	0		J	
kellegil	####				
sellest	see	st		P	sg el
midagi	miski	dagi		P	sg p
saada	saa	da		V	da
     	saat	0		V	o
     	saa	da		V	ta
oleks	ole	ks		V	ks
,	,			Z	
või	või	0		S	sg g
   	või	0		V	o
   	või	0		D	
   	või	0		J	
   	või	0		S	sg n
nõudmise	nõudmine	0		S	sg g
õigust	õigus	t		S	sg p
.	.			Z	
Tütred	tütar	d		S	pl n
1	1	0		N	?
,	,			Z	
Mai	Mai	0		H	sg g
   	Mai	0		H	sg n
   	mai	0		S	sg g
   	mai	0		S	sg n
Reinhold	####				
Jakobi	Jakob	0		H	sg g
naine	naine	0		S	sg n
,	,			Z	
2	2	0		N	?
,	,			Z	
Lena	####				
Jürgenson	Jürgenson	0		H	sg n
Villemi	Villem	0		H	sg g
naine	naine	0		S	sg n
ja	ja	0		J	
3	3	0		N	?
,	,			Z	
Liisa	Liisa	0		H	sg g
     	Liisa	0		H	sg n
Jürgenson	Jürgenson	0		H	sg n
Jakobi	Jakob	0		H	sg g
naine	naine	0		S	sg n
saavad	saa	vad		V	vad
      	saav	d		A	pl n
      	saav	d		S	pl n
isa	isa	0		S	sg g
   	isa	0		S	sg n
   	isa	0		S	sg p
raha	raha	0		S	sg g
    	raha	0		S	sg n
    	raha	0		S	sg p
varandusest	varandus	st		S	sg el
iga	iga	0		P	sg g
   	iga	0		P	sg n
   	iga	0		P	sg p
   	iga	0		S	sg n
   	iga	0		S	sg p
üks	üks	0		N	sg n
   	üks	0		P	sg n
sada	sada	0		N	sg n
    	sada	0		N	sg p
(	(			Z	
100	100	0		N	?
)	)			Z	
rubla	rubla	0		S	sg g
     	rubla	0		S	sg n
     	rubla	0		S	sg p
;	;			Z	
peale	pea	le		S	sg all
     	peale	0		D	
     	peale	0		K	
oma	oma	0		A	sg g
   	oma	0		D	
   	oma	0		P	sg g
   	oma	0		S	sg g
   	oma	0		V	o
   	oma	0		A	sg n
   	oma	0		A	sg p
   	oma	0		P	sg n
   	oma	0		P	sg p
   	oma	0		S	sg n
   	oma	0		S	sg p
kaasa	kaasa	0		D	
     	kaasa	0		V	o
     	kaasa	0		S	sg g
     	kaasa	0		S	sg n
vara	vara	0		D	
    	vara	0		S	sg g
    	vara	0		S	sg n
    	vara	0		S	sg p
veel	veel	0		D	
    	vesi	l		S	sg ad
juurde	juur	de		S	adt
      	juurde	0		D	
      	juurde	0		K	
.	.			Z	
Jaan	Jaan	0		H	sg n
    	jaan	0		S	sg n
    	jaan	0		Y	?
Kreus	####				
,	,			Z	
aga	aga	0		J	
et	et	0		J	
tema	tema	0		P	sg g
    	tema	0		P	sg n
ise	ise	0		A	
   	ise	0		D	
   	ise	0		P	pl n
   	ise	0		P	sg n
kirjutada	kirjuta	da		V	da
ei	ei	0		D	
  	ei	0		V	neg
oska	oska	0		V	o
,	,			Z	
kirjutas	kirjuta	s		V	s
tema	tema	0		P	sg g
    	tema	0		P	sg n
palve	palve	0		S	sg g
     	palve	0		S	sg n
peale	pea	le		S	sg all
     	peale	0		D	
     	peale	0		K	
alla	alla	0		D	
    	alla	0		K	
Joanes	####				
Toomi	toom	0		S	adt
     	toom	0		S	sg g
     	toom	i		S	pl p
     	toom	0		S	sg p
Matse	Mats	e		H	pl p
     	mats	e		A	pl p
     	mats	e		S	pl p
p	p	0		Y	?
.	.			Z	
Palla	####				
valla	vald	0		S	sg g
     	valla	0		D	
kohus	kohu	s		V	s
     	kohus	0		S	sg n
tunnistab	tunnista	b		V	b
,	,			Z	
et	et	0		J	
rana	####				
valla	vald	0		S	sg g
     	valla	0		D	
Aadu	Aadu	0		H	sg g
    	Aadu	0		H	sg n
Jaani	Jaan	0		H	adt
     	Jaan	0		H	sg g
     	Jaani	0		H	sg g
     	jaan	0		S	adt
     	jaan	0		S	sg g
     	Jaan	0		H	sg p
     	Jaani	0		H	sg n
     	jaan	0		S	sg p
N	N	0		Y	?
:	:			Z	
18	18	0		N	?
poole	pool	0		N	sg g
     	pool	0		S	sg g
     	pool	e		S	pl p
     	poole	0		K	
     	poole	0		S	sg n
talu	talu	0		S	sg g
    	talu	0		V	o
    	talu	0		S	sg n
    	talu	0		S	sg p
omaniku	omanik	0		S	sg g
Jaan	Jaan	0		H	sg n
    	jaan	0		S	sg n
    	jaan	0		Y	?
Mihkli	Mihkel	0		H	sg g
      	Mihkli	0		H	sg g
      	mihkel	0		A	sg g
      	mihkel	0		S	sg g
      	Mihkli	0		H	sg n
pg	####				
Kreuse	####				
viimane	viimane	0		A	sg n
tahtmine	tahtmine	0		S	sg n
tema	tema	0		P	sg g
    	tema	0		P	sg n
suusõna	suu_sõna	0		S	sg g
       	suu_sõna	0		S	sg n
       	suu_sõna	0		S	sg p
ütlemise	ütlemine	0		S	sg g
järel	järel	0		D	
     	järel	0		K	
on	ole	0		V	b
  	ole	0		V	vad
kohtu	kohtu	0		V	o
     	kohus	0		S	sg g
protokoli	####				
üles	üles	0		D	
kirjutatud	kirjuta	tud		V	tud
          	kirjutatu	d		S	pl n
          	kirjutatud	0		A	
          	kirjutatud	0		A	sg n
          	kirjutatud	d		A	pl n
,	,			Z	
temale	tema	le		P	sg all
ette	ette	0		D	
    	ette	0		K	
    	esi	tte		S	adt
loetud	loetu	d		S	pl n
      	loetud	0		A	
      	loetud	0		A	sg n
      	loetud	d		A	pl n
      	luge	tud		V	tud
ja	ja	0		J	
tema	tema	0		P	sg g
    	tema	0		P	sg n
poolt	pool	t		N	sg p
     	pool	t		S	sg p
     	poolt	0		D	
     	poolt	0		K	
alla	alla	0		D	
    	alla	0		K	
kirjutatud	kirjuta	tud		V	tud
          	kirjutatu	d		S	pl n
          	kirjutatud	0		A	
          	kirjutatud	0		A	sg n
          	kirjutatud	d		A	pl n
,	,			Z	
aga	aga	0		J	
et	et	0		J	
ta	tema	0		P	sg g
  	tema	0		P	sg n
ise	ise	0		A	
   	ise	0		D	
   	ise	0		P	pl n
   	ise	0		P	sg n
kirjutada	kirjuta	da		V	da
ei	ei	0		D	
  	ei	0		V	neg
mõistnud	mõist	nud		V	nud
        	mõist=nu	d		S	pl n
        	mõist=nud	0		A	
        	mõist=nud	0		A	sg n
        	mõist=nud	d		A	pl n
,	,			Z	
tema	tema	0		P	sg g
    	tema	0		P	sg n
selle	see	0		P	sg g
     	sell	e		S	pl p
kohase	kohane	0		A	sg g
palve	palve	0		S	sg g
     	palve	0		S	sg n
peale	pea	le		S	sg all
     	peale	0		D	
     	peale	0		K	
kohtule	kohus	le		S	sg all
tuntud	tund	tud		V	tud
      	tuntu	d		S	pl n
      	tuntud	0		A	
      	tuntud	0		A	sg n
      	tuntud	d		A	pl n
rana	####				
valla	vald	0		S	sg g
     	valla	0		D	
liikme	liige	0		S	sg g
Johannes	Johannes	0		H	sg n
        	Johann	es		H	pl in
Toomi	toom	0		S	adt
     	toom	0		S	sg g
     	toom	i		S	pl p
     	toom	0		S	sg p
Madise	Madis	0		H	sg g
      	madis	0		S	sg g
pg	####				
.	.			Z	
poolt	pool	t		N	sg p
     	pool	t		S	sg p
     	poolt	0		D	
     	poolt	0		K	
alla	alla	0		D	
    	alla	0		K	
kirjutatud	kirjuta	tud		V	tud
          	kirjutatu	d		S	pl n
          	kirjutatud	0		A	
          	kirjutatud	0		A	sg n
          	kirjutatud	d		A	pl n
,	,			Z	
mis	mis	0		P	pl n
   	mis	0		P	sg n
pärast	pära	st		S	sg el
      	pärane	t		A	sg p
      	pärast	0		D	
      	pärast	0		K	
see	see	0		P	sg n
testament	testament	0		S	sg n
kohtu	kohtu	0		V	o
     	kohus	0		S	sg g
akti	akt	0		S	adt
    	akt	0		S	sg g
    	akt	0		S	sg p
raamatuse	raa_matus	0		S	sg g
N	N	0		Y	?
:	:			Z	
8	8	0		N	?
all	all	0		D	
   	all	0		K	
sisse	siss	e		S	pl p
     	sisse	0		D	
     	sisse	0		K	
kirjutatud	kirjuta	tud		V	tud
          	kirjutatu	d		S	pl n
          	kirjutatud	0		A	
          	kirjutatud	0		A	sg n
          	kirjutatud	d		A	pl n
võib	või	b		V	b
saada	saa	da		V	da
     	saat	0		V	o
     	saa	da		V	ta
.	.			Z	
kohtu	kohtu	0		V	o
     	kohus	0		S	sg g
eesistuja	ees_istuja	0		S	sg g
         	ees_istuja	0		S	sg n
J	J	0		Y	?
Reinhold	####				
kohtumõistjad	kohtu_mõistja	d		S	pl n
G	G	0		Y	?
Soo	soo	0		I	
   	soo	0		S	sg g
   	sugu	0		S	sg g
   	soo	0		S	sg n
V. Otson	####				
J	J	0		Y	?
ernits	####				
Kirjutaja	kirjutaja	0		S	sg g
         	kirjutaja	0		S	sg n
KSep	####				
.	.			Z	
