Nina	Nina	0		H	sg g
    	Nina	0		H	sg n
    	nina	0		S	sg g
    	nina	0		S	sg n
    	nina	0		S	sg p
kõrtsimees	kõrtsi_mees	0		S	sg n
Peeter	Peeter	0		H	sg n
Kusik	kusik	0		S	sg n
kaebab	kaeba	b		V	b
Karel	####				
kalev	kalev	0		S	sg n
peale	pea	le		S	sg all
     	peale	0		D	
     	peale	0		K	
se	####				
olla	ole	a		V	da
teda	tema	da		P	sg p
heina-vargaks	heina-varas	ks		S	sg tr
teotanud	teota	nud		V	nud
        	teota=nu	d		S	pl n
        	teota=nud	0		A	
        	teota=nud	0		A	sg n
        	teota=nud	d		A	pl n
.	.			Z	
Ta	tema	0		P	sg g
  	tema	0		P	sg n
olla	ole	a		V	da
kül	####				
kuhja	kuhja	0		V	o
     	kuhi	0		S	adt
     	kuhi	0		S	sg g
     	kuhi	0		S	sg p
heinu	hein	u		S	pl p
kaebatu	####				
käest	käest	0		K	
     	käsi	st		S	sg el
ostnud	ost	nud		V	nud
      	ost=nu	d		S	pl n
      	ost=nud	0		A	
      	ost=nud	0		A	sg n
      	ost=nud	d		A	pl n
ja	ja	0		J	
maksnud	maks	nud		V	nud
       	maks=nu	d		S	pl n
       	maks=nud	0		A	
       	maks=nud	0		A	sg n
       	maks=nud	d		A	pl n
Karel	####				
Kalevile	Kalev	le		H	sg all
        	kalev	le		S	sg all
selle	see	0		P	sg g
     	sell	e		S	pl p
eest	eest	0		D	
    	eest	0		K	
    	esi	st		S	sg el
20.	20.	0		O	?
rubla	rubla	0		S	sg g
     	rubla	0		S	sg n
     	rubla	0		S	sg p
välja	välja	0		D	
     	välja	0		V	o
     	väli	0		S	adt
     	väli	0		S	sg g
     	väli	0		S	sg p
.	.			Z	
Karel	####				
kalev	kalev	0		S	sg n
ütleb	ütle	b		V	b
,	,			Z	
et	et	0		J	
kõrtsimees	kõrtsi_mees	0		S	sg n
olla	ole	a		V	da
kül	####				
selle	see	0		P	sg g
     	sell	e		S	pl p
heinakuhja	heina_kuhi	0		S	adt
          	heina_kuhi	0		S	sg g
          	heina_kuhi	0		S	sg p
äraveenud	####				
pole	ole	0		V	neg o
aga	aga	0		J	
tema	tema	0		P	sg g
    	tema	0		P	sg n
heinu	hein	u		S	pl p
müinud	####				
,	,			Z	
vaid	vaid	0		D	
    	vaid	0		J	
näidanud	näita	nud		V	nud
        	näida=nu	d		S	pl n
        	näida=nud	0		A	
        	näida=nud	0		A	sg n
        	näida=nud	d		A	pl n
keigest	####				
kuhja	kuhja	0		V	o
     	kuhi	0		S	adt
     	kuhi	0		S	sg g
     	kuhi	0		S	sg p
,	,			Z	
kohe	kohe	0		A	sg n
    	kohe	0		D	
peale	pea	le		S	sg all
     	peale	0		D	
     	peale	0		K	
Nina-laada	Nina-laat	0		S	sg g
näidanud	näita	nud		V	nud
        	näida=nu	d		S	pl n
        	näida=nud	0		A	
        	näida=nud	0		A	sg n
        	näida=nud	d		A	pl n
tema	tema	0		P	sg g
    	tema	0		P	sg n
laupasel	####				
paeval	####				
kõrtsimehele	kõrtsi_mees	le		S	sg all
,	,			Z	
pole	ole	0		V	neg o
aga	aga	0		J	
sugugi	sugugi	0		D	
kuhja	kuhja	0		V	o
     	kuhi	0		S	adt
     	kuhi	0		S	sg g
     	kuhi	0		S	sg p
puudust	puudus	t		S	sg p
leidnud	leid	nud		V	nud
       	leid=nu	d		S	pl n
       	leid=nud	0		A	
       	leid=nud	0		A	sg n
       	leid=nud	d		A	pl n
,	,			Z	
sest	see	st		P	sg el
    	sest	0		J	
tema	tema	0		P	sg g
    	tema	0		P	sg n
ei	ei	0		D	
  	ei	0		V	neg
olla	ole	a		V	da
peremees	pere_mees	0		S	sg n
vaid	vaid	0		D	
    	vaid	0		J	
vend	vend	0		S	sg n
Aabram	Aabram	0		H	sg n
kalev	kalev	0		S	sg n
.	.			Z	
Karel	####				
Kükkit	####				
tunnistab	tunnista	b		V	b
,	,			Z	
et	et	0		J	
tema	tema	0		P	sg g
    	tema	0		P	sg n
nähes	näge	es		V	des
olla	ole	a		V	da
Peeter	Peeter	0		H	sg n
Kusik	kusik	0		S	sg n
est	####				
20	20	0		N	?
rubla	rubla	0		S	sg g
     	rubla	0		S	sg n
     	rubla	0		S	sg p
Karel	####				
kalevi	kalev	0		S	sg g
kätte	kätte	0		K	
     	käsi	tte		S	adt
andnud	and	nud		V	nud
      	and=nu	d		S	pl n
      	and=nud	0		A	
      	and=nud	0		A	sg n
      	and=nud	d		A	pl n
,	,			Z	
ja	ja	0		J	
õelnud	####				
""""	""""			Z	
se	####				
on	ole	0		V	b
  	ole	0		V	vad
nende	see	de		P	pl g
     	tema	de		P	pl g
eest	eest	0		D	
    	eest	0		K	
    	esi	st		S	sg el
,	,			Z	
ja	ja	0		J	
pärast	pära	st		S	sg el
      	pärane	t		A	sg p
      	pärast	0		D	
      	pärast	0		K	
andnud	and	nud		V	nud
      	and=nu	d		S	pl n
      	and=nud	0		A	
      	and=nud	0		A	sg n
      	and=nud	d		A	pl n
30.	30.	0		O	?
rubla	rubla	0		S	sg g
     	rubla	0		S	sg n
     	rubla	0		S	sg p
ja	ja	0		J	
Karel	####				
kalev	kalev	0		S	sg n
lubanud	luba	nud		V	nud
       	luba=nu	d		S	pl n
       	luba=nud	0		A	
       	luba=nud	0		A	sg n
       	luba=nud	d		A	pl n
se	####				
raha	raha	0		S	sg g
    	raha	0		S	sg n
    	raha	0		S	sg p
30.	30.	0		O	?
rubla	rubla	0		S	sg g
     	rubla	0		S	sg n
     	rubla	0		S	sg p
pühadeks	püha	deks		A	pl tr
        	püha	deks		S	pl tr
s.o.	s.o	0		Y	?
Joulu	####				
pühadeks	püha	deks		A	pl tr
        	püha	deks		S	pl tr
ära	ära	0		D	
   	ära	0		V	neg o
tasuda	tasu	da		V	da
.	.			Z	
Tunnistus	tunnistus	0		S	sg n
sai	saa	i		V	s
   	sai	0		S	sg n
avvaldut	####				
Karel	####				
kalev	kalev	0		S	sg n
on	ole	0		V	b
  	ole	0		V	vad
Peeter	Peeter	0		H	sg n
Kusiku	kusik	0		S	sg g
auu	####				
risunud	####				
,	,			Z	
sest	see	st		P	sg el
    	sest	0		J	
ta	tema	0		P	sg g
  	tema	0		P	sg n
on	ole	0		V	b
  	ole	0		V	vad
heinakuhja	heina_kuhi	0		S	adt
          	heina_kuhi	0		S	sg g
          	heina_kuhi	0		S	sg p
müünud	müü	nud		V	nud
      	müü=nu	d		S	pl n
      	müü=nud	0		A	
      	müü=nud	0		A	sg n
      	müü=nud	d		A	pl n
,	,			Z	
ja	ja	0		J	
nüüd	nüüd	0		D	
teist	sina	st		P	pl el
     	tee	ist		S	pl el
     	teist	0		D	
     	teine	t		O	sg p
     	teine	t		P	sg p
teotanud	teota	nud		V	nud
        	teota=nu	d		S	pl n
        	teota=nud	0		A	
        	teota=nud	0		A	sg n
        	teota=nud	d		A	pl n
,	,			Z	
et	et	0		J	
on	ole	0		V	b
  	ole	0		V	vad
kuhja	kuhja	0		V	o
     	kuhi	0		S	adt
     	kuhi	0		S	sg g
     	kuhi	0		S	sg p
varastanud	varasta	nud		V	nud
          	varasta=nu	d		S	pl n
          	varasta=nud	0		A	
          	varasta=nud	0		A	sg n
          	varasta=nud	d		A	pl n
,	,			Z	
mis	mis	0		P	pl n
   	mis	0		P	sg n
peale	pea	le		S	sg all
     	peale	0		D	
     	peale	0		K	
kohus	kohu	s		V	s
     	kohus	0		S	sg n
temale	tema	le		P	sg all
2x24	####				
tunni	tund	0		S	sg g
vangisolemist	vangi+s_olemine	t		S	sg p
trahvi	trahv	0		S	adt
      	trahv	0		S	sg g
      	trahvi	0		V	o
      	trahv	0		S	sg p
kogukonna	kogukond	0		S	sg g
vangihoones	vangi_hoone	s		S	sg in
olla	ole	a		V	da
mõistetud	mõist	tud		V	tud
         	mõiste=tu	d		S	pl n
         	mõiste=tud	0		A	
         	mõiste=tud	0		A	sg n
         	mõiste=tud	d		A	pl n
sai	saa	i		V	s
   	sai	0		S	sg n
/	/			Z	
:	:			Z	
sesinane	####				
kogukonna	kogukond	0		S	sg g
kohtu	kohtu	0		V	o
     	kohus	0		S	sg g
otsus	otsus	0		S	sg n
sai	saa	i		V	s
   	sai	0		S	sg n
kohtukäijatele	kohtu_käija	tele		S	pl all
18.60	18.60	0		N	?
a.	a	0		Y	?
a	a	0		Y	?
väljaantud	välja_antud	0		A	
          	välja_antud	0		A	sg n
          	välja_antud	d		A	pl n
Tallorahva	####				
seaduse	seadus	0		S	sg g
ramatu	####				
juhatusel	juhatus	l		S	sg ad
kulutud	kulu	tud		V	tud
       	kulu=tu	d		S	pl n
       	kulu=tud	0		A	
       	kulu=tud	0		A	sg n
       	kulu=tud	d		A	pl n
,	,			Z	
kellega	kes	ga		P	pl kom
       	kes	ga		P	sg kom
kaebaja	kaebaja	0		S	sg g
       	kaebaja	0		S	sg n
rahule	rahu	le		S	sg all
      	rahule	0		D	
jääb	jää	b		V	b
.	.			Z	
aga	aga	0		J	
mitte	mitte	0		D	
kaebatu	####				
.	.			Z	
Viimsele	viimne	le		A	sg all
sai	saa	i		V	s
   	sai	0		S	sg n
§	§	0		Y	?
821	821	0		N	?
nimetud	nimetu	d		A	pl n
oppuse	####				
kiri	kiri	0		S	sg n
antud	an=tu	d		S	pl n
     	and	tud		V	tud
     	antud	0		A	
     	antud	0		A	sg n
     	antud	d		A	pl n
ja	ja	0		J	
kulutud	kulu	tud		V	tud
       	kulu=tu	d		S	pl n
       	kulu=tud	0		A	
       	kulu=tud	0		A	sg n
       	kulu=tud	d		A	pl n
,	,			Z	
et	et	0		J	
temal	tema	l		P	sg ad
kulmatta	####				
on	ole	0		V	b
  	ole	0		V	vad
,	,			Z	
8	8	0		N	?
paeva	####				
sees	sees	0		D	
    	sees	0		K	
kihelkonna	kihelkond	0		S	sg g
kohtu	kohtu	0		V	o
     	kohus	0		S	sg g
ees	ees	0		D	
   	ees	0		K	
   	esi	s		S	sg in
kaebdust	####				
võib	või	b		V	b
kanda	kand	0		S	adt
     	kand	a		V	da
     	kand	0		S	sg p
:	:			Z	
/	/			Z	
A	A	0		Y	?
.	.			Z	
_	_			Z	
Krim	####				
[	[			Z	
allkiri	all_kiri	0		S	sg n
]	]			Z	
,	,			Z	
pea	pea	0		D	
   	pea	0		S	sg g
   	pida	0		V	o
   	pea	0		S	sg n
xxx	####				
Maddis	####				
erm	####				
,	,			Z	
kohtumees	kohtu_mees	0		S	sg n
A	A	0		Y	?
.	.			Z	
_	_			Z	
Pärn	pärn	0		S	sg n
[	[			Z	
allkiri	all_kiri	0		S	sg n
]	]			Z	
,	,			Z	
""""	""""			Z	
xxx	####				
Josep	####				
Maddi	####				
,	,			Z	
""""	""""			Z	
