Jaan	Jaan	0		H	sg n
    	jaan	0		S	sg n
    	jaan	0		Y	?
Tennosaar	####				
kaebas	kaeba	s		V	s
,	,			Z	
et	et	0		J	
Mihkel	Mihkel	0		H	sg n
      	mihkel	0		A	sg n
      	mihkel	0		S	sg n
Soe	soe	0		A	sg n
   	soe	0		S	sg n
   	suge	0		V	o
   	susi	0		S	sg g
tema	tema	0		P	sg g
    	tema	0		P	sg n
seale	siga	le		A	sg all
     	siga	le		S	sg all
pea	pea	0		D	
   	pea	0		S	sg g
   	pida	0		V	o
   	pea	0		S	sg n
sisse	siss	e		S	pl p
     	sisse	0		D	
     	sisse	0		K	
vegalaga	####				
mulgu	mulk	0		S	sg g
löönud	löö	nud		V	nud
      	löö=nu	d		S	pl n
      	löö=nud	0		A	
      	löö=nud	0		A	sg n
      	löö=nud	d		A	pl n
-	-			Z	
nõuab	nõud	b		V	b
25	25	0		N	?
rbl	rbl	0		Y	?
.	.			Z	
ja	ja	0		J	
jääb	jää	b		V	b
siis	siis	0		D	
    	siis	0		J	
siga	siga	0		A	sg n
    	siga	0		A	sg p
    	siga	0		S	sg n
    	siga	0		S	sg p
Mihkel	Mihkel	0		H	sg n
      	mihkel	0		A	sg n
      	mihkel	0		S	sg n
sõele	####				
Mihkel	Mihkel	0		H	sg n
      	mihkel	0		A	sg n
      	mihkel	0		S	sg n
Soe	soe	0		A	sg n
   	soe	0		S	sg n
   	suge	0		V	o
   	susi	0		S	sg g
salgab	salga	b		V	b
vallavöörmunder	valla_vöör_munder	0		S	sg n
Peeter	Peeter	0		H	sg n
Tork	####				
andis	and	is		V	s
üles	üles	0		D	
,	,			Z	
et	et	0		J	
tema	tema	0		P	sg g
    	tema	0		P	sg n
seda	see	da		P	sg p
ülekaenud	üle_kae=nu	d		S	pl n
         	üle_kae=nud	0		A	
         	üle_kae=nud	0		A	sg n
         	üle_kae=nud	d		A	pl n
;	;			Z	
seal	seal	0		D	
    	siga	l		A	sg ad
    	siga	l		S	sg ad
olnud	ol=nud	0		A	
     	ol=nud	0		A	sg n
     	ol=nud	d		A	pl n
     	ole	nud		V	nud
     	olnu	d		S	pl n
kõrva	kõrv	0		S	adt
     	kõrv	0		S	sg g
     	kõrv	0		S	sg p
mulk	mulk	0		S	sg n
verine	verine	0		A	sg n
;	;			Z	
siga	siga	0		A	sg n
    	siga	0		A	sg p
    	siga	0		S	sg n
    	siga	0		S	sg p
on	ole	0		V	b
  	ole	0		V	vad
20	20	0		N	?
rubla	rubla	0		S	sg g
     	rubla	0		S	sg n
     	rubla	0		S	sg p
väärt	väärt	0		A	
     	väärt	0		D	
.	.			Z	
mõiste	mõiste	0		S	sg g
      	mõiste	0		S	sg n
:	:			Z	
Mihkel	Mihkel	0		H	sg n
      	mihkel	0		A	sg n
      	mihkel	0		S	sg n
Soe	soe	0		A	sg n
   	soe	0		S	sg n
   	suge	0		V	o
   	susi	0		S	sg g
maksab	maks	b		V	b
Jaan	Jaan	0		H	sg n
    	jaan	0		S	sg n
    	jaan	0		Y	?
Tennosaarele	####				
20	20	0		N	?
rubla	rubla	0		S	sg g
     	rubla	0		S	sg n
     	rubla	0		S	sg p
ja	ja	0		J	
jääb	jää	b		V	b
siga	siga	0		A	sg n
    	siga	0		A	sg p
    	siga	0		S	sg n
    	siga	0		S	sg p
Mihkel	Mihkel	0		H	sg n
      	mihkel	0		A	sg n
      	mihkel	0		S	sg n
sõele	####				
Peakohtumees	pea_kohtu_mees	0		S	sg n
:	:			Z	
P. Kripson	####				
kohtumees	kohtu_mees	0		S	sg n
:	:			Z	
P. Hendrikson	####				
kohtumees	kohtu_mees	0		S	sg n
:	:			Z	
K. Vosman	####				
Mõiste	mõiste	0		S	sg g
      	mõiste	0		S	sg n
sai	saa	i		V	s
   	sai	0		S	sg n
kohtukäijatele	kohtu_käija	tele		S	pl all
kuulutatud	kuuluta	tud		V	tud
          	kuuluta=tu	d		S	pl n
          	kuuluta=tud	0		A	
          	kuuluta=tud	0		A	sg n
          	kuuluta=tud	d		A	pl n
T	T	0		Y	?
.	.			Z	
S	S	0		Y	?
.	.			Z	
R	R	0		Y	?
.	.			Z	
§	§	0		Y	?
772	772	0		N	?
-	-			Z	
774	774	0		N	?
järele	järele	0		D	
      	järele	0		K	
aastast	aasta	st		S	sg el
       	aastane	t		A	sg p
1860	1860	0		N	?
ja	ja	0		J	
õpus	####				
antud	an=tu	d		S	pl n
     	and	tud		V	tud
     	antud	0		A	
     	antud	0		A	sg n
     	antud	d		A	pl n
mis	mis	0		P	pl n
   	mis	0		P	sg n
tähele	täht	le		S	sg all
      	tähele	0		X	
panna	pand	0		S	sg g
     	pane	a		V	da
     	panna	0		S	sg g
     	panna	0		S	sg n
tuleb	tule	b		V	b
kui	kui	0		D	
   	kui	0		J	
keegi	kee	0	gi	S	sg g
     	kee	0	gi	V	o
     	keegi	0		P	sg n
     	kee	0	gi	S	sg n
kõrgemat	kõrgem	t		C	sg p
        	kõrgem	t		S	sg p
kohut	kohus	t		S	sg p
nõuab	nõud	b		V	b
ning	ning	0		J	
ei	ei	0		D	
  	ei	0		V	neg
olnud	ol=nud	0		A	
     	ol=nud	0		A	sg n
     	ol=nud	d		A	pl n
     	ole	nud		V	nud
     	olnu	d		S	pl n
kohtukäijad	kohtu_käija	d		S	pl n
rahul	rahu	l		S	sg ad
     	rahul	0		D	
.	.			Z	
kirjutaja	kirjutaja	0		S	sg g
         	kirjutaja	0		S	sg n
:	:			Z	
11.	11.	0		O	?
Novbr	####				
.	.			Z	
1885	1885	0		N	?
Kihelk	####				
.	.			Z	
kohtuse	kohtune	0		A	sg g
saadetud	saat	tud		V	tud
        	saade=tu	d		S	pl n
        	saadetud	0		A	
        	saadetud	0		A	sg n
        	saadetud	d		A	pl n
.	.			Z	
