Jakob	Jakob	0		H	sg n
Peedoksaar	####				
kaebas	kaeba	s		V	s
Johan	Johan	0		H	sg n
Nagel	####				
laenanud	laena	nud		V	nud
        	laena=nu	d		S	pl n
        	laena=nud	0		A	
        	laena=nud	0		A	sg n
        	laena=nud	d		A	pl n
tema	tema	0		P	sg g
    	tema	0		P	sg n
käest	käest	0		K	
     	käsi	st		S	sg el
220	220	0		N	?
rubla	rubla	0		S	sg g
     	rubla	0		S	sg n
     	rubla	0		S	sg p
maa	maa	0		S	sg g
   	maa	0		S	sg n
ostmise	ostmine	0		S	sg g
peale	pea	le		S	sg all
     	peale	0		D	
     	peale	0		K	
selle	see	0		P	sg g
     	sell	e		S	pl p
tingimisega	tingimine	ga		S	sg kom
kui	kui	0		D	
   	kui	0		J	
tema	tema	0		P	sg g
    	tema	0		P	sg n
seda	see	da		P	sg p
raha	raha	0		S	sg g
    	raha	0		S	sg n
    	raha	0		S	sg p
ära	ära	0		D	
   	ära	0		V	neg o
ei	ei	0		D	
  	ei	0		V	neg
jõua	jõud	0		V	o
maksa	maks	0		S	adt
     	maks	0		S	sg g
     	maks	0		V	o
     	maks	0		S	sg p
,	,			Z	
siis	siis	0		D	
    	siis	0		J	
jääb	jää	b		V	b
maa	maa	0		S	sg g
   	maa	0		S	sg n
temale	tema	le		P	sg all
.	.			Z	
et	et	0		J	
ga	####				
kaebatav	####				
temal	tema	l		P	sg ad
elada	ela	da		V	da
ei	ei	0		D	
  	ei	0		V	neg
lase	lask	0		V	o
    	lase	0		S	sg n
,	,			Z	
nõuab	nõud	b		V	b
tema	tema	0		P	sg g
    	tema	0		P	sg n
oma	oma	0		A	sg g
   	oma	0		D	
   	oma	0		P	sg g
   	oma	0		S	sg g
   	oma	0		V	o
   	oma	0		A	sg n
   	oma	0		A	sg p
   	oma	0		P	sg n
   	oma	0		P	sg p
   	oma	0		S	sg n
   	oma	0		S	sg p
raha	raha	0		S	sg g
    	raha	0		S	sg n
    	raha	0		S	sg p
kahe	kaks	0		N	sg g
aasta	aasta	0		S	sg g
     	aasta	0		S	sg n
protsendiga	protsent	ga		S	sg kom
tagasi	tagasi	0		D	
      	tagasi	0		K	
ning	ning	0		J	
oma	oma	0		A	sg g
   	oma	0		D	
   	oma	0		P	sg g
   	oma	0		S	sg g
   	oma	0		V	o
   	oma	0		A	sg n
   	oma	0		A	sg p
   	oma	0		P	sg n
   	oma	0		P	sg p
   	oma	0		S	sg n
   	oma	0		S	sg p
väljamineku	välja_minek	0		S	sg g
kahju	kahi	0		S	adt
     	kahi	0		S	sg g
     	kahi	0		S	sg p
     	kahju	0		S	sg g
     	kahju	0		S	sg n
     	kahju	0		S	sg p
200	200	0		N	?
rubla	rubla	0		S	sg g
     	rubla	0		S	sg n
     	rubla	0		S	sg p
.	.			Z	
Johan	Johan	0		H	sg n
Nagel	####				
ei	ei	0		D	
  	ei	0		V	neg
salga	salga	0		V	o
     	salk	0		S	sg g
seda	see	da		P	sg p
raha	raha	0		S	sg g
    	raha	0		S	sg n
    	raha	0		S	sg p
saanud	saa	nud		V	nud
      	saa=nud	0		A	
      	saa=nud	0		A	sg n
      	saa=nud	d		A	pl n
      	saanu	d		S	pl n
olevat	ole	vat		V	vat
      	olev	t		A	sg p
      	olev	t		S	sg p
mis	mis	0		P	pl n
   	mis	0		P	sg n
eest	eest	0		D	
    	eest	0		K	
    	esi	st		S	sg el
ka	ka	0		D	
maa	maa	0		S	sg g
   	maa	0		S	sg n
kaebaja	kaebaja	0		S	sg g
       	kaebaja	0		S	sg n
käes	käes	0		K	
    	käsi	s		S	sg in
on	ole	0		V	b
  	ole	0		V	vad
.	.			Z	
Aga	aga	0		J	
et	et	0		J	
Jakob	Jakob	0		H	sg n
Peedoksaar	####				
temaga	tema	ga		P	sg kom
ära	ära	0		D	
   	ära	0		V	neg o
elada	ela	da		V	da
ei	ei	0		D	
  	ei	0		V	neg
saa	saa	0		V	o
vaid	vaid	0		D	
    	vaid	0		J	
alati	alga	ti		V	ti
     	alati	0		D	
riidleb	riidle	b		V	b
,	,			Z	
tahab	taht	b		V	b
tema	tema	0		P	sg g
    	tema	0		P	sg n
110	110	0		N	?
rubla	rubla	0		S	sg g
     	rubla	0		S	sg n
     	rubla	0		S	sg p
tänavu	tänavu	0		D	
ja	ja	0		J	
100	100	0		N	?
rubla	rubla	0		S	sg g
     	rubla	0		S	sg n
     	rubla	0		S	sg p
tuleva	tulev	0		A	sg g
aasta	aasta	0		S	sg g
     	aasta	0		S	sg n
välja	välja	0		D	
     	välja	0		V	o
     	väli	0		S	adt
     	väli	0		S	sg g
     	väli	0		S	sg p
maksa	maks	0		S	adt
     	maks	0		S	sg g
     	maks	0		V	o
     	maks	0		S	sg p
.	.			Z	
Hendrik	Hendrik	0		H	sg n
Peedoksaar	####				
tunnistas	tunnista	s		V	s
Johan	Johan	0		H	sg n
Nagel	####				
olevat	ole	vat		V	vat
      	olev	t		A	sg p
      	olev	t		S	sg p
Jakob	Jakob	0		H	sg n
Peedoksaare	####				
käest	käest	0		K	
     	käsi	st		S	sg el
raha	raha	0		S	sg g
    	raha	0		S	sg n
    	raha	0		S	sg p
maa	maa	0		S	sg g
   	maa	0		S	sg n
osta	ost	0		V	o
    	ost	a		V	da
laenanud	laena	nud		V	nud
        	laena=nu	d		S	pl n
        	laena=nud	0		A	
        	laena=nud	0		A	sg n
        	laena=nud	d		A	pl n
ja	ja	0		J	
lubanud	luba	nud		V	nud
       	luba=nu	d		S	pl n
       	luba=nud	0		A	
       	luba=nud	0		A	sg n
       	luba=nud	d		A	pl n
temale	tema	le		P	sg all
selle	see	0		P	sg g
     	sell	e		S	pl p
asemele	ase	le		S	sg all
       	asemele	0		D	
       	asemele	0		K	
maad	maa	d		S	pl n
    	maa	d		S	sg p
anda	and	a		V	da
.	.			Z	
Gotlieb	####				
Mollok	####				
tunnistas	tunnista	s		V	s
nõndasama	nõnda_sama	0		D	
.	.			Z	
Mõiste	mõiste	0		S	sg g
      	mõiste	0		S	sg n
:	:			Z	
Johan	Johan	0		H	sg n
Nagel	####				
peab	pida	b		V	b
220	220	0		N	?
rubla	rubla	0		S	sg g
     	rubla	0		S	sg n
     	rubla	0		S	sg p
ja	ja	0		J	
15	15	0		N	?
rubla	rubla	0		S	sg g
     	rubla	0		S	sg n
     	rubla	0		S	sg p
protsendi	protsent	0		S	sg g
14	14	0		N	?
päeva	päev	0		S	adt
     	päev	0		S	sg g
     	päev	0		S	sg p
sees	sees	0		D	
    	sees	0		K	
Jakob	Jakob	0		H	sg n
Peedoksaare	####				
hääks	####				
väljamaksma	####				
ja	ja	0		J	
läheb	mine	b		V	b
Peedoksaar	####				
majast	maja	st		S	sg el
välja	välja	0		D	
     	välja	0		V	o
     	väli	0		S	adt
     	väli	0		S	sg g
     	väli	0		S	sg p
-	-			Z	
ehk	ehk	0		D	
   	ehk	0		J	
annab	and	b		V	b
loetud	loetu	d		S	pl n
      	loetud	0		A	
      	loetud	0		A	sg n
      	loetud	d		A	pl n
      	luge	tud		V	tud
summa	summ	0		S	adt
     	summ	0		S	sg g
     	summ	0		S	sg p
     	summa	0		S	sg g
     	summa	0		S	sg n
temale	tema	le		P	sg all
kätte	kätte	0		K	
     	käsi	tte		S	adt
.	.			Z	
Peakohtumees	pea_kohtu_mees	0		S	sg n
:	:			Z	
Peeter	Peeter	0		H	sg n
Kripson	####				
XXX	XXX	0		O	?
   	XXX	0		Y	?
kohtumees	kohtu_mees	0		S	sg n
:	:			Z	
Peeter	Peeter	0		H	sg n
Hendrikson	####				
XXX	XXX	0		O	?
   	XXX	0		Y	?
kohtumees	kohtu_mees	0		S	sg n
:	:			Z	
kohta	koht	0		S	adt
     	kohta	0		K	
     	kohta	0		V	o
     	koht	0		S	sg p
Vosmann	####				
XXX	XXX	0		O	?
   	XXX	0		Y	?
kohtumees	kohtu_mees	0		S	sg n
:	:			Z	
Kusta	Kusta	0		H	sg g
     	Kusta	0		H	sg n
     	kuse	ta		V	da
     	kuse	ta		V	ta
Ivanthal	####				
XXX	XXX	0		O	?
   	XXX	0		Y	?
kohtumees	kohtu_mees	0		S	sg n
:	:			Z	
Mik	####				
Rebane	rebane	0		S	sg n
kohtumees	kohtu_mees	0		S	sg n
:	:			Z	
Jaan	Jaan	0		H	sg n
    	jaan	0		S	sg n
    	jaan	0		Y	?
Hansing	####				
Mõiste	mõiste	0		S	sg g
      	mõiste	0		S	sg n
sai	saa	i		V	s
   	sai	0		S	sg n
kohtukäijatele	kohtu_käija	tele		S	pl all
T	T	0		Y	?
.	.			Z	
S	S	0		Y	?
.	.			Z	
R	R	0		Y	?
.	.			Z	
järele	järele	0		D	
      	järele	0		K	
§	§	0		Y	?
772	772	0		N	?
-	-			Z	
774	774	0		N	?
kuulutatud	kuuluta	tud		V	tud
          	kuuluta=tu	d		S	pl n
          	kuuluta=tud	0		A	
          	kuuluta=tud	0		A	sg n
          	kuuluta=tud	d		A	pl n
ja	ja	0		J	
õpus	####				
antud	an=tu	d		S	pl n
     	and	tud		V	tud
     	antud	0		A	
     	antud	0		A	sg n
     	antud	d		A	pl n
mis	mis	0		P	pl n
   	mis	0		P	sg n
tähele	täht	le		S	sg all
      	tähele	0		X	
panna	pand	0		S	sg g
     	pane	a		V	da
     	panna	0		S	sg g
     	panna	0		S	sg n
tuleb	tule	b		V	b
kui	kui	0		D	
   	kui	0		J	
keegi	kee	0	gi	S	sg g
     	kee	0	gi	V	o
     	keegi	0		P	sg n
     	kee	0	gi	S	sg n
kõrgemal	kõrgem	l		C	sg ad
        	kõrgem	l		S	sg ad
        	kõrgemal	0		D	
kohul	####				
nõuab	nõud	b		V	b
ja	ja	0		J	
ei	ei	0		D	
  	ei	0		V	neg
olnud	ol=nud	0		A	
     	ol=nud	0		A	sg n
     	ol=nud	d		A	pl n
     	ole	nud		V	nud
     	olnu	d		S	pl n
mõlemad	mõlema	d		P	pl n
kohtukäijad	kohtu_käija	d		S	pl n
rahul	rahu	l		S	sg ad
     	rahul	0		D	
.	.			Z	
kirjutaja	kirjutaja	0		S	sg g
         	kirjutaja	0		S	sg n
:	:			Z	
Chr	Chr	0		Y	?
Kapp	kapp	0		S	sg n
allkiri	all_kiri	0		S	sg n
19.	19.	0		O	?
Novbr	####				
.	.			Z	
Kihelkonna	Kihelkonna	0		H	sg g
          	kihelkond	0		S	sg g
          	Kihelkonna	0		H	sg n
sisse	siss	e		S	pl p
     	sisse	0		D	
     	sisse	0		K	
saadetud	saat	tud		V	tud
        	saade=tu	d		S	pl n
        	saadetud	0		A	
        	saadetud	0		A	sg n
        	saadetud	d		A	pl n
