Johann	Johann	0		H	sg n
Pettaja	pett_aeg	0		S	sg g
kaebduses	####				
vasta	vasta	0		V	o
surnud	surnu	d		S	pl n
      	surnud	0		A	
      	surnud	0		A	sg n
      	surnud	d		A	pl n
      	sure	nud		V	nud
Kusta	Kusta	0		H	sg g
     	Kusta	0		H	sg n
     	kuse	ta		V	da
     	kuse	ta		V	ta
Mihkelsoni	mihkel_soni	0		S	sg g
          	mihkel_soni	0		S	sg n
          	mihkel_soni	0		S	sg p
pärandajaid	päranda=ja	id		S	pl p
,	,			Z	
nõudmise	nõudmine	0		S	sg g
pärast	pära	st		S	sg el
      	pärane	t		A	sg p
      	pärast	0		D	
      	pärast	0		K	
,	,			Z	
kaebatud	####				
protokoll	protokoll	0		S	sg n
Nr	Nr	0		Y	?
270	270	0		N	?
tulevad	tule	vad		V	vad
       	tulev	d		A	pl n
ette	ette	0		D	
    	ette	0		K	
    	esi	tte		S	adt
,	,			Z	
Johann	Johann	0		H	sg n
Petta	pet	a		V	da
,	,			Z	
ja	ja	0		J	
vöörmündrik	vöör_mündrik	0		S	sg n
Hans	Hans	0		H	sg n
Laur	Laur	0		H	sg n
,	,			Z	
lesk	lesk	0		S	sg n
Mari	Mari	0		H	sg g
    	mari	0		S	sg g
    	mari	0		S	sg n
    	Mari	0		H	sg n
    	mari	0		S	sg p
Mihkelson	####				
ja	ja	0		J	
eestkostja	eest_kostja	0		S	sg g
          	eest_kostja	0		S	sg n
Mats	Mats	0		H	sg n
    	mats	0		A	sg n
    	mats	0		S	sg n
Mitt	Mitt	0		H	sg n
.	.			Z	
neile	see	le		P	pl all
     	tema	le		P	pl all
sai	saa	i		V	s
   	sai	0		S	sg n
tunnistus	tunnistus	0		S	sg n
ette	ette	0		D	
    	ette	0		K	
    	esi	tte		S	adt
loetud	loetu	d		S	pl n
      	loetud	0		A	
      	loetud	0		A	sg n
      	loetud	d		A	pl n
      	luge	tud		V	tud
.	.			Z	
mõistus	mõistus	0		S	sg n
:	:			Z	
tunnistaide	####				
välja	välja	0		D	
     	välja	0		V	o
     	väli	0		S	adt
     	väli	0		S	sg g
     	väli	0		S	sg p
ütlemise	ütlemine	0		S	sg g
põhja	põhja	0		V	o
     	põhi	0		S	adt
     	põhi	0		S	sg g
     	põhi	0		S	sg p
peal	pea	l		S	sg ad
    	peal	0		D	
    	peal	0		K	
peab	pida	b		V	b
Johann	Johann	0		H	sg n
Pettale	####				
tema	tema	0		P	sg g
    	tema	0		P	sg n
võlg	võlg	0		S	sg n
10	10	0		N	?
rubla	rubla	0		S	sg g
     	rubla	0		S	sg n
     	rubla	0		S	sg p
surnud	surnu	d		S	pl n
      	surnud	0		A	
      	surnud	0		A	sg n
      	surnud	d		A	pl n
      	sure	nud		V	nud
Kusta	Kusta	0		H	sg g
     	Kusta	0		H	sg n
     	kuse	ta		V	da
     	kuse	ta		V	ta
Mihkelsoni	mihkel_soni	0		S	sg g
          	mihkel_soni	0		S	sg n
          	mihkel_soni	0		S	sg p
järele	järele	0		D	
      	järele	0		K	
jäänud	jää	nud		V	nud
      	jäänu	d		S	pl n
      	jäänud	0		A	
      	jäänud	0		A	sg n
      	jäänud	d		A	pl n
varandusest	varandus	st		S	sg el
äramakstud	ära_maks=tu	d		S	pl n
          	ära_maks=tud	0		A	
          	ära_maks=tud	0		A	sg n
          	ära_maks=tud	d		A	pl n
saama	saa	ma		V	ma
     	saam	0		S	adt
     	saam	0		S	sg g
     	saam	0		S	sg p
.	.			Z	
mõistus	mõistus	0		S	sg n
kuulutadi	####				
§	§	0		Y	?
773	773	0		N	?
seletamisega	seletamine	ga		S	sg kom
.	.			Z	
