sel	see	l		P	sg ad
   	sel	0		Y	?
18	18	0		N	?
Märtsil	märts	l		S	sg ad
1885	1885	0		N	?
kaebas	kaeba	s		V	s
Roiju	####				
Jüri	Jüri	0		H	sg g
    	Jüri	0		H	sg n
Klaos	####				
,	,			Z	
et	et	0		J	
tema	tema	0		P	sg g
    	tema	0		P	sg n
rentnik	rentnik	0		S	sg n
Jakob	Jakob	0		H	sg n
Paabo	####				
1	1	0		N	?
Oktobri	####				
1884	1884	0		N	?
astu	astu	0		V	o
rendi	rent	0		S	sg g
     	renti	0		V	o
24	24	0		N	?
rub	####				
50	50	0		N	?
kop	kop	0		Y	?
ja	ja	0		J	
puude	puu	de		S	pl g
     	puude	0		S	sg n
     	puue	0		S	sg g
eest	eest	0		D	
    	eest	0		K	
    	esi	st		S	sg el
7	7	0		N	?
rubl	####				
,	,			Z	
koku	####				
31	31	0		N	?
rubl	####				
50	50	0		N	?
kop	kop	0		Y	?
võlgu	võlg	u		S	pl p
     	võlgu	0		D	
on	ole	0		V	b
  	ole	0		V	vad
ja	ja	0		J	
palus	palu	s		S	sg in
     	palu	s		V	s
et	et	0		J	
kohus	kohu	s		V	s
     	kohus	0		S	sg n
seda	see	da		P	sg p
maksma	maks	ma		V	ma
kunis	####				
.	.			Z	
Jakob	Jakob	0		H	sg n
Paabo	####				
vastutas	vastuta	s		V	s
et	et	0		J	
tema	tema	0		P	sg g
    	tema	0		P	sg n
see	see	0		P	sg n
raha	raha	0		S	sg g
    	raha	0		S	sg n
    	raha	0		S	sg p
võlgu	võlg	u		S	pl p
     	võlgu	0		D	
on	ole	0		V	b
  	ole	0		V	vad
ja	ja	0		J	
siis	siis	0		D	
    	siis	0		J	
seda	see	da		P	sg p
maksta	maks	ta		V	da
      	maks	ta		V	ta
tahab	taht	b		V	b
kui	kui	0		D	
   	kui	0		J	
kohus	kohu	s		V	s
     	kohus	0		S	sg n
seda	see	da		P	sg p
siis	siis	0		D	
    	siis	0		J	
seletada	seleta	da		V	da
võtab	võt	b		V	b
kui	kui	0		D	
   	kui	0		J	
tema	tema	0		P	sg g
    	tema	0		P	sg n
Jüripäeval	jüri_päev	l		S	sg ad
1885	1885	0		N	?
selle	see	0		P	sg g
     	sell	e		S	pl p
koha	koht	0		S	sg g
    	koha	0		S	sg g
    	koha	0		V	o
    	koha	0		S	sg n
    	koha	0		S	sg p
ära	ära	0		D	
   	ära	0		V	neg o
annab	and	b		V	b
,	,			Z	
et	et	0		J	
tema	tema	0		P	sg g
    	tema	0		P	sg n
kahju	kahi	0		S	adt
     	kahi	0		S	sg g
     	kahi	0		S	sg p
     	kahju	0		S	sg g
     	kahju	0		S	sg n
     	kahju	0		S	sg p
kätte	kätte	0		K	
     	käsi	tte		S	adt
saab	saa	b		V	b
,	,			Z	
mis	mis	0		P	pl n
   	mis	0		P	sg n
temal	tema	l		P	sg ad
on	ole	0		V	b
  	ole	0		V	vad
olnud	ol=nud	0		A	
     	ol=nud	0		A	sg n
     	ol=nud	d		A	pl n
     	ole	nud		V	nud
     	olnu	d		S	pl n
,	,			Z	
ehk	ehk	0		D	
   	ehk	0		J	
mis	mis	0		P	pl n
   	mis	0		P	sg n
tema	tema	0		P	sg g
    	tema	0		P	sg n
selle	see	0		P	sg g
     	sell	e		S	pl p
talule	talu	le		S	sg all
juurde	juur	de		S	adt
      	juurde	0		D	
      	juurde	0		K	
on	ole	0		V	b
  	ole	0		V	vad
teinud	tege	nud		V	nud
      	tei=nud	0		A	
      	tei=nud	0		A	sg n
      	tei=nud	d		A	pl n
      	teinu	d		S	pl n
.	.			Z	
Jüri	Jüri	0		H	sg g
    	Jüri	0		H	sg n
Klaos	####				
vastutas	vastuta	s		V	s
,	,			Z	
et	et	0		J	
tema	tema	0		P	sg g
    	tema	0		P	sg n
seda	see	da		P	sg p
siis	siis	0		D	
    	siis	0		J	
seletab	seleta	b		V	b
kui	kui	0		D	
   	kui	0		J	
Jakob	Jakob	0		H	sg n
Pabu	####				
koha	koht	0		S	sg g
    	koha	0		S	sg g
    	koha	0		V	o
    	koha	0		S	sg n
    	koha	0		S	sg p
ära	ära	0		D	
   	ära	0		V	neg o
annab	and	b		V	b
ja	ja	0		J	
kui	kui	0		D	
   	kui	0		J	
tema	tema	0		P	sg g
    	tema	0		P	sg n
sinna	sinna	0		D	
midagi	miski	dagi		P	sg p
ehitanud	ehita	nud		V	nud
        	ehita=nu	d		S	pl n
        	ehita=nud	0		A	
        	ehita=nud	0		A	sg n
        	ehita=nud	d		A	pl n
on	ole	0		V	b
  	ole	0		V	vad
tahab	taht	b		V	b
tema	tema	0		P	sg g
    	tema	0		P	sg n
seda	see	da		P	sg p
ka	ka	0		D	
tasuda	tasu	da		V	da
.	.			Z	
Jakob	Jakob	0		H	sg n
Pabu	####				
maksis	maks	is		V	s
      	maksi	s		S	sg in
see	see	0		P	sg n
võlg	võlg	0		S	sg n
31	31	0		N	?
rubl	####				
50	50	0		N	?
kop	kop	0		Y	?
ära	ära	0		D	
   	ära	0		V	neg o
.	.			Z	
otsus	otsus	0		S	sg n
:	:			Z	
seda	see	da		P	sg p
protokolli	protokoll	0		S	adt
          	protokoll	0		S	sg g
          	protokolli	0		V	o
          	protokoll	0		S	sg p
üles	üles	0		D	
panna	pand	0		S	sg g
     	pane	a		V	da
     	panna	0		S	sg g
     	panna	0		S	sg n
.	.			Z	
peakohtumees	pea_kohtu_mees	0		S	sg n
:	:			Z	
J. Ling	####				
/	/			Z	
allkiri	all_kiri	0		S	sg n
/	/			Z	
kohtumees	kohtu_mees	0		S	sg n
:	:			Z	
Johan	Johan	0		H	sg n
Klaosen	####				
XXX	XXX	0		O	?
   	XXX	0		Y	?
""""	""""			Z	
Peeter	Peeter	0		H	sg n
Luha	luht	0		S	sg g
/	/			Z	
allkiri	all_kiri	0		S	sg n
/	/			Z	
