Tänasel	tänane	l		A	sg ad
päeval	päev	l		S	sg ad
oli	ole	i		V	s
kogukonna	kogukond	0		S	sg g
kohus	kohu	s		V	s
     	kohus	0		S	sg n
Palla	####				
karjamõisa	karja_mõis	0		S	sg g
läinud	läinu	d		S	pl n
      	läinud	0		A	
      	läinud	0		A	sg n
      	läinud	d		A	pl n
      	mine	nud		V	nud
ja	ja	0		J	
seal	seal	0		D	
    	siga	l		A	sg ad
    	siga	l		S	sg ad
Ludvig	####				
Salo	####				
heaks	hea	ks		A	sg tr
     	hea	ks		S	sg tr
     	heaks	0		D	
     	heaks	0		K	
tema	tema	0		P	sg g
    	tema	0		P	sg n
ärakadunud	ära_kadunu	d		S	pl n
          	ära_kadunud	0		A	
          	ära_kadunud	0		A	sg n
          	ära_kadunud	d		A	pl n
raha	raha	0		S	sg g
    	raha	0		S	sg n
    	raha	0		S	sg p
tasumiseks	tasumine	ks		S	sg tr
2	2	0		N	?
rbl	rbl	0		Y	?
.	.			Z	
40	40	0		N	?
kop	kop	0		Y	?
.	.			Z	
eest	eest	0		D	
    	eest	0		K	
    	esi	st		S	sg el
(	(			Z	
protokoll	protokoll	0		S	sg n
16	16	0		N	?
Oktobrist	oktobrist	0		S	sg n
1886	1886	0		N	?
N	N	0		Y	?
:	:			Z	
103	103	0		N	?
)	)			Z	
Märt	Märt	0		H	sg n
,	,			Z	
Mihkel	Mihkel	0		H	sg n
      	mihkel	0		A	sg n
      	mihkel	0		S	sg n
ja	ja	0		J	
Josep	####				
Vilka	vilka	0		V	o
     	vilgas	0		A	sg g
     	vilka	0		S	sg g
     	vilka	0		S	sg n
varandusest	varandus	st		S	sg el
ühtekokku	ühte_kokku	0		D	
4	4	0		N	?
rehast	reha	st		S	sg el
ja	ja	0		J	
1	1	0		N	?
tagumine	tagumine	0		A	sg n
telg	telg	0		S	sg n
1	1	0		N	?
rbl	rbl	0		Y	?
.	.			Z	
80	80	0		N	?
kop	kop	0		Y	?
.	.			Z	
ja	ja	0		J	
Mihkel	Mihkel	0		H	sg n
      	mihkel	0		A	sg n
      	mihkel	0		S	sg n
Teder	teder	0		S	sg n
nuka	nukk	0		S	sg g
saag	saag	0		S	sg n
60	60	0		N	?
kop	kop	0		Y	?
.	.			Z	
keelu	keeld	0		S	sg g
alla	alla	0		D	
    	alla	0		K	
pandnud	####				
.	.			Z	
Otsus	otsus	0		S	sg n
need	see	d		P	pl n
asjad	asi	d		S	pl n
väljaiamüü	####				
.	.			Z	
Peakohtumees	pea_kohtu_mees	0		S	sg n
J. Sarvi	####				
kohtumees	kohtu_mees	0		S	sg n
J. Stam	####				
kohtumees	kohtu_mees	0		S	sg n
M. Piiri	####				
.	.			Z	
Kirjutaja	kirjutaja	0		S	sg g
         	kirjutaja	0		S	sg n
G. Palm	####				
.	.			Z	
