Kustav	kus=tav	0		A	sg n
      	kuse	tav		V	tav
Kusik	kusik	0		S	sg n
oli	ole	i		V	s
Märt	Märt	0		H	sg n
Pender	####				
ilma	ilm	0		S	adt
    	ilm	0		S	sg g
    	ilma	0		D	
    	ilma	0		K	
    	ilm	0		S	sg p
suita	####				
,	,			Z	
kolm	kolm	0		N	sg n
korda	kord	0		S	adt
     	korda	0		V	o
     	kord	0		S	sg p
loenut	####				
aja	aeg	0		S	sg g
   	aja	0		V	o
teivaga	####				
,	,			Z	
selle	see	0		P	sg g
     	sell	e		S	pl p
lõmise	####				
est	####				
sab	####				
Kustav	kus=tav	0		A	sg n
      	kuse	tav		V	tav
Kusik	kusik	0		S	sg n
25	25	0		N	?
vitsa	vits	0		S	adt
     	vits	0		S	sg g
     	vits	0		S	sg p
lõki	####				
.	.			Z	
