Sai	saa	i		V	s
   	sai	0		S	sg n
kulutud	kulu	tud		V	tud
       	kulu=tu	d		S	pl n
       	kulu=tud	0		A	
       	kulu=tud	0		A	sg n
       	kulu=tud	d		A	pl n
Kolka	kolgas	0		S	sg g
venelassele	####				
Aafonasi	####				
Iljini	Iljin	0		H	adt
      	Iljin	0		H	sg g
      	Iljin	0		H	sg p
Karsubovile	####				
Kreisrihtri	####				
moistmine	####				
tema	tema	0		P	sg g
    	tema	0		P	sg n
kaebduse	####				
asjas	asi	s		S	sg in
kose	kosk	0		S	sg g
/	/			Z	
:	:			Z	
kosel	kosk	l		S	sg ad
.	.			Z	
/	/			Z	
moisa	####				
valitsuse	valitsus	0		S	sg g
vasto	####				
,	,			Z	
kelle	kes	0		P	pl g
     	kes	0		P	sg g
jarele	####				
temal	tema	l		P	sg ad
veel	veel	0		D	
    	vesi	l		S	sg ad
sada	sada	0		N	sg n
    	sada	0		N	sg p
sesinase	####				
moisa	####				
käest	käest	0		K	
     	käsi	st		S	sg el
65	65	0		N	?
rubla	rubla	0		S	sg g
     	rubla	0		S	sg n
     	rubla	0		S	sg p
?	?			Z	
tõõpalka	####				
jala	jalg	0		S	sg g
    	jala	0		D	
vaevara	vae_vara	0		S	sg g
       	vae_vara	0		S	sg n
       	vae_vara	0		S	sg p
kokku	kokku	0		D	
     	kogu	0		S	adt
.	.			Z	
_	_			Z	
Aandu	####				
Karsubov	####				
üles	üles	0		D	
et	et	0		J	
rahul	rahu	l		S	sg ad
     	rahul	0		D	
ole	ole	0		V	o
.	.			Z	
