kaebab	kaeba	b		V	b
Kadrina	Kadri	na		H	sg es
       	Kadrina	0		H	sg g
       	kadri	na		S	sg es
       	Kadrina	0		H	sg n
Mõisa	mõis	0		S	sg g
valitsus	valitsus	0		S	sg n
Jasuse	####				
?	?			Z	
karjase	karjane	0		S	sg g
Villemi	Villem	0		H	sg g
peäle	####				
et	et	0		J	
mineva	minev	0		A	sg g
nädala	nädal	0		S	sg g
olnud	ol=nud	0		A	
     	ol=nud	0		A	sg n
     	ol=nud	d		A	pl n
     	ole	nud		V	nud
     	olnu	d		S	pl n
14	14	0		N	?
elajad	elajas	d		S	pl n
Kadrina	Kadri	na		H	sg es
       	Kadrina	0		H	sg g
       	kadri	na		S	sg es
       	Kadrina	0		H	sg n
Mõisa	mõis	0		S	sg g
odra	oder	0		S	sg g
sees	sees	0		D	
    	sees	0		K	
mis	mis	0		P	pl n
   	mis	0		P	sg n
Mõisa	mõis	0		S	sg g
valitsus	valitsus	0		S	sg n
lasnud	####				
kinni	kinni	0		D	
panna	pand	0		S	sg g
     	pane	a		V	da
     	panna	0		S	sg g
     	panna	0		S	sg n
aga	aga	0		J	
et	et	0		J	
kui	kui	0		D	
   	kui	0		J	
moisa	####				
valitsus	valitsus	0		S	sg n
kudo	####				
ei	ei	0		D	
  	ei	0		V	neg
ole	ole	0		V	o
olnud	ol=nud	0		A	
     	ol=nud	0		A	sg n
     	ol=nud	d		A	pl n
     	ole	nud		V	nud
     	olnu	d		S	pl n
karja	kari	0		S	adt
     	kari	0		S	sg g
     	kari	0		S	sg p
salaja	salaja	0		D	
elajad	elajas	d		S	pl n
ära	ära	0		D	
   	ära	0		V	neg o
aianud	####				
.	.			Z	
kutsut	kutsu	t		S	sg p
karjus	karju	s		V	s
      	karjus	0		S	sg n
ette	ette	0		D	
    	ette	0		K	
    	esi	tte		S	adt
mis	mis	0		P	pl n
   	mis	0		P	sg n
tohtis	tohti	s		V	s
ninda	####				
salaja	salaja	0		D	
elajad	elajas	d		S	pl n
mi	####				
kinni	kinni	0		D	
pantud	####				
ära	ära	0		D	
   	ära	0		V	neg o
aiada	####				
ütles	ütle	s		V	s
valitseja	valitseja	0		S	sg g
         	valitseja	0		S	sg n
lapsed	laps	d		S	pl n
lasknud	lask	nud		V	nud
       	lask=nu	d		S	pl n
       	lask=nud	0		A	
       	lask=nud	0		A	sg n
       	lask=nud	d		A	pl n
elajad	elajas	d		S	pl n
välja	välja	0		D	
     	välja	0		V	o
     	väli	0		S	adt
     	väli	0		S	sg g
     	väli	0		S	sg p
ja	ja	0		J	
ei	ei	0		D	
  	ei	0		V	neg
mitte	mitte	0		D	
tema	tema	0		P	sg g
    	tema	0		P	sg n
ise	ise	0		A	
   	ise	0		D	
   	ise	0		P	pl n
   	ise	0		P	sg n
,	,			Z	
küsis	küsi	s		V	s
1	1	0		N	?
Rub	Rub			H	?
elaja	elajas	0		S	sg g
?	?			Z	
Moistetud	####				
et	et	0		J	
karjus	karju	s		V	s
      	karjus	0		S	sg n
Villem	Villem	0		H	sg n
vaene	vaen	e		S	pl p
     	vaene	0		A	sg n
     	vaene	0		S	sg n
mees	mees	0		S	sg n
    	mesi	s		S	sg in
ja	ja	0		J	
ei	ei	0		D	
  	ei	0		V	neg
joua	####				
hulkad	####				
raha	raha	0		S	sg g
    	raha	0		S	sg n
    	raha	0		S	sg p
maksta	maks	ta		V	da
      	maks	ta		V	ta
50	50	0		N	?
kop	kop	0		Y	?
elaja	elajas	0		S	sg g
eest	eest	0		D	
    	eest	0		K	
    	esi	st		S	sg el
7	7	0		N	?
Rub	Rub			H	?
Pea	pea	0		D	
   	pea	0		S	sg g
   	pida	0		V	o
   	pea	0		S	sg n
kohtumees	kohtu_mees	0		S	sg n
Josep	####				
Leppasep	####				
XXX	XXX	0		O	?
   	XXX	0		Y	?
abbi	####				
Jakub	####				
Johan	Johan	0		H	sg n
XXX	XXX	0		O	?
   	XXX	0		Y	?
abbi	####				
Jaan	Jaan	0		H	sg n
    	jaan	0		S	sg n
    	jaan	0		Y	?
Paijo	####				
XXX	XXX	0		O	?
   	XXX	0		Y	?
