Kõetsmik	####				
Juhan	Juhan	0		H	sg n
Leetberg	####				
kaebas	kaeba	s		V	s
et	et	0		J	
Soldat	soldat	0		S	sg n
Maddis	####				
Soon	soon	0		S	sg n
,	,			Z	
ja	ja	0		J	
Mõisa	mõis	0		S	sg g
sulane	sulane	0		S	sg n
      	sulane	0		V	o
Villem	Villem	0		H	sg n
Õunapu	####				
lähud	####				
taplema	taple	ma		V	ma
,	,			Z	
ja	ja	0		J	
kui	kui	0		D	
   	kui	0		J	
tema	tema	0		P	sg g
    	tema	0		P	sg n
neid	neid	0		S	sg n
    	see	d		P	pl p
    	tema	d		P	pl p
tahtnud	taht	nud		V	nud
       	taht=nu	d		S	pl n
       	taht=nud	0		A	
       	taht=nud	0		A	sg n
       	taht=nud	d		A	pl n
kõrtsist	kõrts	st		S	sg el
võla	võlg	0		S	sg g
ajada	aja	da		V	da
,	,			Z	
lõnud	####				
neist	see	st		P	pl el
     	tema	st		P	pl el
üks	üks	0		N	sg n
   	üks	0		P	sg n
temale	tema	le		P	sg all
vasto	####				
silmi	silm	i		S	pl p
     	silmi	0		D	
,	,			Z	
nõnda	nõnda	0		D	
et	et	0		J	
veri	veri	0		S	sg n
väljas	välja	s		V	s
      	väli	s		S	sg in
      	väljas	0		D	
ja	ja	0		J	
palus	palu	s		S	sg in
     	palu	s		V	s
kohut	kohus	t		S	sg p
seda	see	da		P	sg p
järele	järele	0		D	
      	järele	0		K	
kuulata	kuula	ta		V	da
       	kuulata	0		V	o
       	kuula	ta		V	ta
.	.			Z	
Sai	saa	i		V	s
   	sai	0		S	sg n
ette	ette	0		D	
    	ette	0		K	
    	esi	tte		S	adt
kutsutud	kutsu	tud		V	tud
        	kutsutu	d		S	pl n
        	kutsutud	0		A	
        	kutsutud	0		A	sg n
        	kutsutud	d		A	pl n
Villem	Villem	0		H	sg n
Õunapu	####				
kes	kes	0		P	pl n
   	kes	0		P	sg n
räkis	####				
,	,			Z	
et	et	0		J	
Soldat	soldat	0		S	sg n
Maddis	####				
Soon	soon	0		S	sg n
teda	tema	da		P	sg p
sõimanud	sõima	nud		V	nud
        	sõima=nu	d		S	pl n
        	sõima=nud	0		A	
        	sõima=nud	0		A	sg n
        	sõima=nud	d		A	pl n
et	et	0		J	
tema	tema	0		P	sg g
    	tema	0		P	sg n
ja	ja	0		J	
tema	tema	0		P	sg g
    	tema	0		P	sg n
suguselts	sugu_selts	0		S	sg n
masurikud	####				
ja	ja	0		J	
ilma	ilm	0		S	adt
    	ilm	0		S	sg g
    	ilma	0		D	
    	ilma	0		K	
    	ilm	0		S	sg p
hulgused	hulgus	d		S	pl n
pead	pea	d		S	pl n
    	pida	d		V	d
    	pea	d		S	sg p
olema	ole	ma		V	ma
.	.			Z	
Maddis	####				
Soon	soon	0		S	sg n
räkis	####				
,	,			Z	
et	et	0		J	
Villem	Villem	0		H	sg n
Õunapu	####				
temale	tema	le		P	sg all
ütlenud	####				
,	,			Z	
sa	sina	0		P	sg n
oled	ole	d		V	d
minu	mina	0		P	sg g
laua	laud	0		S	sg g
taga	taga	0		D	
    	taga	0		K	
    	taga	0		V	o
mittu	####				
korda	kord	0		S	adt
     	korda	0		V	o
     	kord	0		S	sg p
sõnud	sõnu	d		V	d
ja	ja	0		J	
nina	nina	0		S	sg g
    	nina	0		S	sg n
    	nina	0		S	sg p
tattine	####				
peas	pea	s		S	sg in
ja	ja	0		J	
on	ole	0		V	b
  	ole	0		V	vad
nendel	see	del		P	pl ad
      	tema	del		P	pl ad
selle	see	0		P	sg g
     	sell	e		S	pl p
peale	pea	le		S	sg all
     	peale	0		D	
     	peale	0		K	
tüli	tüli	0		S	sg g
    	tüli	0		S	sg n
    	tüli	0		S	sg p
tulnud	tul=nud	0		A	
      	tul=nud	0		A	sg n
      	tul=nud	d		A	pl n
      	tule	nud		V	nud
      	tulnu	d		S	pl n
.	.			Z	
Moistus	####				
et	et	0		J	
nemad	tema	d		P	pl n
teine	teine	0		O	sg n
     	teine	0		P	sg n
teist	sina	st		P	pl el
     	tee	ist		S	pl el
     	teist	0		D	
     	teine	t		O	sg p
     	teine	t		P	sg p
soimanud	####				
.	.			Z	
saab	saa	b		V	b
Maddis	####				
Soon	soon	0		S	sg n
2	2	0		N	?
päeva	päev	0		S	adt
     	päev	0		S	sg g
     	päev	0		S	sg p
peale	pea	le		S	sg all
     	peale	0		D	
     	peale	0		K	
kinni	kinni	0		D	
pantud	####				
,	,			Z	
aga	aga	0		J	
Villem	Villem	0		H	sg n
Õunapu	####				
15	15	0		N	?
vitsa	vits	0		S	adt
     	vits	0		S	sg g
     	vits	0		S	sg p
lõgiga	####				
trahvitud	trahvi	tud		V	tud
         	trahvi=tu	d		S	pl n
         	trahvi=tud	0		A	
         	trahvi=tud	0		A	sg n
         	trahvi=tud	d		A	pl n
Mart	Mart	0		H	sg n
    	mart	0		S	sg n
Jagu	jagu	0		S	sg n
    	jagu	0		V	o
    	jagu	0		S	sg p
XXX	XXX	0		O	?
   	XXX	0		Y	?
Mart	Mart	0		H	sg n
    	mart	0		S	sg n
Liis	Liis	0		H	sg n
    	Lii	s		H	sg in
XXX	XXX	0		O	?
   	XXX	0		Y	?
Jaak	Jaak	0		H	sg n
    	jaak	0		S	sg n
Klaup	####				
XXX	XXX	0		O	?
   	XXX	0		Y	?
