ette	ette	0		D	
    	ette	0		K	
    	esi	tte		S	adt
astus	astu	s		V	s
Palla	####				
vallamees	valla_mees	0		S	sg n
Karel	####				
Olla	ole	a		V	da
L	L	0		O	?
 	L	0		Y	?
.	.			Z	
von	####				
Stryki	####				
herra	####				
volmahti	####				
ja	ja	0		J	
andis	and	is		V	s
se	####				
volmaht	####				
kiri	kiri	0		S	sg n
sest	see	st		P	sg el
    	sest	0		J	
24.	24.	0		O	?
-	-			Z	
1875	1875	0		N	?
kohtu	kohtu	0		V	o
     	kohus	0		S	sg g
kätte	kätte	0		K	
     	käsi	tte		S	adt
.	.			Z	
Karel	####				
Olla	ole	a		V	da
kaebas	kaeba	s		V	s
Palamõisa	pala_mõis	0		S	sg g
valitsuse	valitsus	0		S	sg g
asemel	ase	l		S	sg ad
      	asemel	0		K	
:	:			Z	
et	et	0		J	
Kristjan	Kristjan	0		H	sg n
Aabroil	####				
kui	kui	0		D	
   	kui	0		J	
se	####				
ennu	####				
talukoht	talu_koht	0		S	sg n
tema	tema	0		P	sg g
    	tema	0		P	sg n
käes	käes	0		K	
    	käsi	s		S	sg in
vasta	vasta	0		V	o
võetu	võetud	0		A	sg g
,	,			Z	
selle	see	0		P	sg g
     	sell	e		S	pl p
juures	juur	s		S	sg in
      	juures	0		D	
      	juures	0		K	
järelnimmetud	järel_nimme=tu	d		A	pl n
puduset	####				
ja	ja	0		J	
vigat	####				
,	,			Z	
mis	mis	0		P	pl n
   	mis	0		P	sg n
kontrahi	kontraht	0		S	sg g
vasto	####				
sel	see	l		P	sg ad
   	sel	0		Y	?
26	26	0		N	?
Aaprilil	####				
s	s	0		Y	?
.	.			Z	
a.	a	0		Y	?
leitud	leid	tud		V	tud
      	leitu	d		S	pl n
      	leitud	0		A	
      	leitud	0		A	sg n
      	leitud	d		A	pl n
on	ole	0		V	b
  	ole	0		V	vad
.	.			Z	
1.	1.	0		O	?
reialune	####				
ladu	ladu	0		S	sg n
    	ladu	0		S	sg p
sõretast	####				
tehtu	tehtu	0		S	sg g
     	tehtud	0		A	sg g
     	tehtu	0		S	sg n
ja	ja	0		J	
lattid	####				
puduvat	####				
,	,			Z	
mis	mis	0		P	pl n
   	mis	0		P	sg n
eest	eest	0		D	
    	eest	0		K	
    	esi	st		S	sg el
3	3	0		N	?
rubla	rubla	0		S	sg g
     	rubla	0		S	sg n
     	rubla	0		S	sg p
kahjutasumist	kahju_tasumine	t		S	sg p
mõisavalitsus	mõisa_valitsus	0		S	sg n
nõuab-	####				
3	3	0		N	?
rbl	rbl	0		Y	?
.	.			Z	
2.	2.	0		O	?
karjalautat	####				
mädat	####				
,	,			Z	
nõuab	nõud	b		V	b
selle	see	0		P	sg g
     	sell	e		S	pl p
eest	eest	0		D	
    	eest	0		K	
    	esi	st		S	sg el
50	50	0		N	?
rubla	rubla	0		S	sg g
     	rubla	0		S	sg n
     	rubla	0		S	sg p
.	.			Z	
3.	3.	0		O	?
Üks	üks	0		N	sg n
   	üks	0		P	sg n
oni	####				
sein	sein	0		S	sg n
pudus	pudu	s		S	sg in
5	5	0		N	?
rubla	rubla	0		S	sg g
     	rubla	0		S	sg n
     	rubla	0		S	sg p
.	.			Z	
4.	4.	0		O	?
kaevo	####				
rakket	####				
mädat	####				
5	5	0		N	?
rubla	rubla	0		S	sg g
     	rubla	0		S	sg n
     	rubla	0		S	sg p
.	.			Z	
5.	5.	0		O	?
Õue	õu	0		S	adt
   	õu	0		S	sg g
   	õue	0		D	
   	õu	0		S	sg p
aed	aed	0		S	sg n
sõre	sõre	0		A	sg n
ja	ja	0		J	
parandamata	paranda	mata		V	mata
           	paranda=mata	0		A	
5	5	0		N	?
rubla	rubla	0		S	sg g
     	rubla	0		S	sg n
     	rubla	0		S	sg p
.	.			Z	
6.	6.	0		O	?
hobuste	hobune	te		S	pl g
koppel	koppel	0		S	sg n
puudub	puudu	b		V	b
5	5	0		N	?
rubla	rubla	0		S	sg g
     	rubla	0		S	sg n
     	rubla	0		S	sg p
.	.			Z	
Transport	transport	0		S	sg n
73	73	0		N	?
rubla	rubla	0		S	sg g
     	rubla	0		S	sg n
     	rubla	0		S	sg p
7	7	0		N	?
)	)			Z	
karjatänav	karja_tänav	0		S	sg n
parandamata	paranda	mata		V	mata
           	paranda=mata	0		A	
mis	mis	0		P	pl n
   	mis	0		P	sg n
eest	eest	0		D	
    	eest	0		K	
    	esi	st		S	sg el
mõisavalitsus	mõisa_valitsus	0		S	sg n
nõuab	nõud	b		V	b
1	1	0		N	?
rubla	rubla	0		S	sg g
     	rubla	0		S	sg n
     	rubla	0		S	sg p
.	.			Z	
8	8	0		N	?
)	)			Z	
koda	koda	0		S	sg n
    	koda	0		S	sg p
halva	halb	0		A	sg g
     	halva	0		V	o
seisuses	seisus	s		S	sg in
,	,			Z	
kattus	kattu	s		V	s
sõre	sõre	0		A	sg n
ja	ja	0		J	
pudub	####				
pool	pool	0		K	
    	pool	0		N	sg n
    	pool	0		S	sg n
,	,			Z	
nõuab	nõud	b		V	b
selle	see	0		P	sg g
     	sell	e		S	pl p
eest	eest	0		D	
    	eest	0		K	
    	esi	st		S	sg el
kahjutasumist	kahju_tasumine	t		S	sg p
20	20	0		N	?
rubla-	rubla	0		S	sg g
      	rubla	0		S	sg n
      	rubla	0		S	sg p
9	9	0		N	?
)	)			Z	
sitta	sitt	0		A	adt
     	sitt	0		S	adt
     	sitta	0		V	o
     	sitt	0		A	sg p
     	sitt	0		S	sg p
ja	ja	0		J	
hõlgi	####				
väha	####				
ja	ja	0		J	
on	ole	0		V	b
  	ole	0		V	vad
Kristjan	Kristjan	0		H	sg n
Aabroi	####				
nimelt	nimelt	0		D	
      	nimi	lt		S	sg abl
2	2	0		N	?
koormat	koorem	t		S	sg p
hõlgi	####				
äravedanu	ära_veda=nu	0		S	sg g
         	ära_veda=nu	0		S	sg n
,	,			Z	
nõuab	nõud	b		V	b
selle	see	0		P	sg g
     	sell	e		S	pl p
eest	eest	0		D	
    	eest	0		K	
    	esi	st		S	sg el
tasumist	tasumine	t		S	sg p
üleültse	####				
25	25	0		N	?
rubla	rubla	0		S	sg g
     	rubla	0		S	sg n
     	rubla	0		S	sg p
.	.			Z	
10	10	0		N	?
)	)			Z	
2	2	0		N	?
1	1	0		N	?
/	/			Z	
2	2	0		N	?
jalga	jalg	0		S	adt
     	jalg	0		S	sg p
     	jalga	0		D	
puid	puu	id		S	pl p
pudus	pudu	s		S	sg in
1	1	0		N	?
rubla	rubla	0		S	sg g
     	rubla	0		S	sg n
     	rubla	0		S	sg p
.	.			Z	
11	11	0		N	?
)	)			Z	
rükki	####				
oras	ora	s		S	sg in
    	oras	0		S	sg n
äratalatu	ära_tala=tu	0		A	sg g
         	ära_tala=tu	0		A	sg n
10	10	0		N	?
rubla	rubla	0		S	sg g
     	rubla	0		S	sg n
     	rubla	0		S	sg p
.	.			Z	
12	12	0		N	?
)	)			Z	
1	1	0		N	?
1	1	0		N	?
/	/			Z	
3	3	0		N	?
vakkama	####				
rükki	####				
orast	ora	st		S	sg el
     	oras	t		S	sg p
kogunnist	####				
halb	halb	0		A	sg n
10	10	0		N	?
rubla	rubla	0		S	sg g
     	rubla	0		S	sg n
     	rubla	0		S	sg p
.	.			Z	
13	13	0		N	?
)	)			Z	
paaride	paar	de		N	pl g
       	paar	de		S	pl g
vitsat	####				
pudus	pudu	s		S	sg in
oni	####				
juures	juur	s		S	sg in
      	juures	0		D	
      	juures	0		K	
3	3	0		N	?
rubla	rubla	0		S	sg g
     	rubla	0		S	sg n
     	rubla	0		S	sg p
.	.			Z	
Üleültse	####				
143	143	0		N	?
rubla	rubla	0		S	sg g
     	rubla	0		S	sg n
     	rubla	0		S	sg p
hõbe	hõbe	0		S	sg n
.	.			Z	
kaebaja	kaebaja	0		S	sg g
       	kaebaja	0		S	sg n
andis	and	is		V	s
tunnistajaks	tunnistaja	ks		S	sg tr
üles	üles	0		D	
keike	####				
neide	neid	e		S	pl p
punktide	punkt	de		S	pl g
all	all	0		D	
   	all	0		K	
kohtumehed	kohtu_mees	d		S	pl n
Thomas	Thomas	0		H	sg n
Velt	####				
ja	ja	0		J	
Josep	####				
Rosenberg	Rosenberg	0		H	sg n
,	,			Z	
kes	kes	0		P	pl n
   	kes	0		P	sg n
enno	####				
talu	talu	0		S	sg g
    	talu	0		V	o
    	talu	0		S	sg n
    	talu	0		S	sg p
kokka	kokk	0		S	adt
     	kokka	0		V	o
     	kokk	0		S	sg p
vastuvõtmise	vastu_võtmine	0		S	sg g
juures	juur	s		S	sg in
      	juures	0		D	
      	juures	0		K	
on	ole	0		V	b
  	ole	0		V	vad
olnut	olnu	t		S	sg p
ja	ja	0		J	
veel	veel	0		D	
    	vesi	l		S	sg ad
peale	pea	le		S	sg all
     	peale	0		D	
     	peale	0		K	
selle	see	0		P	sg g
     	sell	e		S	pl p
punkt	punkt	0		S	sg n
üheks	üks	ks		N	sg tr
     	üks	ks		P	sg tr
all	all	0		D	
   	all	0		K	
Otto	Otto	0		H	sg g
    	Otto	0		H	sg n
Reinman	####				
Jõe	jõgi	0		S	sg g
......	......			Z	
ja	ja	0		J	
Jaan	Jaan	0		H	sg n
    	jaan	0		S	sg n
    	jaan	0		Y	?
Aabroi	####				
Pkt	####				
1	1	0		N	?
ja	ja	0		J	
6	6	0		N	?
all	all	0		D	
   	all	0		K	
lubbas	####				
kaebaja	kaebaja	0		S	sg g
       	kaebaja	0		S	sg n
teises	teine	s		O	sg in
      	teine	s		P	sg in
kohtupäevas	kohtu_päev	s		S	sg in
tunnistust	tunnistus	t		S	sg p
tua	####				
.	.			Z	
Kristjan	Kristjan	0		H	sg n
Aabroi	####				
andis	and	is		V	s
selle	see	0		P	sg g
     	sell	e		S	pl p
kaebduse	####				
peale	pea	le		S	sg all
     	peale	0		D	
     	peale	0		K	
vastust	vastus	t		S	sg p
.	.			Z	
1.	1.	0		O	?
reialuse	####				
ladu	ladu	0		S	sg n
    	ladu	0		S	sg p
olnu	olnu	0		S	sg g
    	olnu	0		S	sg n
,	,			Z	
siis	siis	0		D	
    	siis	0		J	
kui	kui	0		D	
   	kui	0		J	
se	####				
ennu	####				
talu	talu	0		S	sg g
    	talu	0		V	o
    	talu	0		S	sg n
    	talu	0		S	sg p
tema	tema	0		P	sg g
    	tema	0		P	sg n
kätte	kätte	0		K	
     	käsi	tte		S	adt
sanu	####				
nisugune	####				
,	,			Z	
kui	kui	0		D	
   	kui	0		J	
koha	koht	0		S	sg g
    	koha	0		S	sg g
    	koha	0		V	o
    	koha	0		S	sg n
    	koha	0		S	sg p
äraandmise	ära_andmine	0		S	sg g
juures	juur	s		S	sg in
      	juures	0		D	
      	juures	0		K	
.	.			Z	
2.	2.	0		O	?
Mõisa	mõis	0		S	sg g
herra	####				
ei	ei	0		D	
  	ei	0		V	neg
ole	ole	0		V	o
temale	tema	le		P	sg all
parandamise	parandamine	0		S	sg g
materiali	####				
andnu	and=nu	0		S	sg g
     	and=nu	0		S	sg n
,	,			Z	
mis	mis	0		P	pl n
   	mis	0		P	sg n
tunnistada	tunnista	da		V	da
võivat	või	vat		V	vat
      	võiv	t		A	sg p
Paul	Paul	0		H	sg n
ja	ja	0		J	
Villem	Villem	0		H	sg n
Villemson	####				
.	.			Z	
3.	3.	0		O	?
Seal	seal	0		D	
    	siga	l		A	sg ad
    	siga	l		S	sg ad
oni	####				
juures	juur	s		S	sg in
      	juures	0		D	
      	juures	0		K	
olnut	olnu	t		S	sg p
1867	1867	0		N	?
aastal	aasta	l		S	sg ad
aid	####				
,	,			Z	
aga	aga	0		J	
mitte	mitte	0		D	
sein	sein	0		S	sg n
ja	ja	0		J	
se	####				
ka	ka	0		D	
koha	koht	0		S	sg g
    	koha	0		S	sg g
    	koha	0		V	o
    	koha	0		S	sg n
    	koha	0		S	sg p
ära	ära	0		D	
   	ära	0		V	neg o
andmise	andmine	0		S	sg g
juures	juur	s		S	sg in
      	juures	0		D	
      	juures	0		K	
nida	####				
olnu	olnu	0		S	sg g
    	olnu	0		S	sg n
.	.			Z	
4.	4.	0		O	?
kaev	kae	v		V	v
    	kae=v	0		A	sg n
    	kaev	0		S	sg n
oleva	olev	0		A	sg g
     	olev	0		S	sg g
kül	####				
vana	vana	0		A	sg g
    	vana	0		A	sg n
    	vana	0		A	sg p
    	vana	0		S	sg g
    	vana	0		S	sg n
    	vana	0		S	sg p
,	,			Z	
aga	aga	0		J	
veel	veel	0		D	
    	vesi	l		S	sg ad
kõlblik	kõlblik	0		A	sg n
.	.			Z	
5.	5.	0		O	?
Oni	####				
aijad	####				
on	ole	0		V	b
  	ole	0		V	vad
kõrraperast	####				
parandut	####				
ja	ja	0		J	
ei	ei	0		D	
  	ei	0		V	neg
olla	ole	a		V	da
puud	puu	d		S	pl n
    	puud	0		S	sg n
    	puu	d		S	sg p
mõisa	mõis	0		S	sg g
poolest	pool	st		N	sg el
       	pool	st		S	sg el
       	poolene	t		A	sg p
       	poolest	0		K	
6.	6.	0		O	?
hobuste	hobune	te		S	pl g
kopli	koppel	0		S	sg g
aida	ait	0		S	sg g
ei	ei	0		D	
  	ei	0		V	neg
ole	ole	0		V	o
talu	talu	0		S	sg g
    	talu	0		V	o
    	talu	0		S	sg n
    	talu	0		S	sg p
juures	juur	s		S	sg in
      	juures	0		D	
      	juures	0		K	
juba	juba	0		D	
kontrahi	kontraht	0		S	sg g
hakkatusel	####				
mitte	mitte	0		D	
olnu	olnu	0		S	sg g
    	olnu	0		S	sg n
ja	ja	0		J	
ei	ei	0		D	
  	ei	0		V	neg
ole	ole	0		V	o
mõisa	mõis	0		S	sg g
herra	####				
ka	ka	0		D	
latte	latt	e		S	pl p
tema	tema	0		P	sg g
    	tema	0		P	sg n
palumise	palumine	0		S	sg g
peale	pea	le		S	sg all
     	peale	0		D	
     	peale	0		K	
andnu	and=nu	0		S	sg g
     	and=nu	0		S	sg n
,	,			Z	
mis	mis	0		P	pl n
   	mis	0		P	sg n
tunnistavat	tunnista	vat		V	vat
           	tunnista=v	t		A	sg p
Thomas	Thomas	0		H	sg n
Beifeld	####				
ja	ja	0		J	
Villem	Villem	0		H	sg n
Villemson	####				
.	.			Z	
6	6	0		N	?
antud	an=tu	d		S	pl n
     	and	tud		V	tud
     	antud	0		A	
     	antud	0		A	sg n
     	antud	d		A	pl n
,	,			Z	
mis	mis	0		P	pl n
   	mis	0		P	sg n
tunnistada	tunnista	da		V	da
või	või	0		S	sg g
   	või	0		V	o
   	või	0		D	
   	või	0		J	
   	või	0		S	sg n
Maddis	####				
Saar	saar	0		S	sg n
ja	ja	0		J	
Villem	Villem	0		H	sg n
Villemson	####				
.	.			Z	
7.	7.	0		O	?
karja	kari	0		S	adt
     	kari	0		S	sg g
     	kari	0		S	sg p
aia	aed	0		S	sg g
tarvis	tarvis	0		D	
      	tarvis	0		K	
on	ole	0		V	b
  	ole	0		V	vad
herra	####				
puud	puu	d		S	pl n
    	puud	0		S	sg n
    	puu	d		S	sg p
ka	ka	0		D	
keelnu	####				
,	,			Z	
mis	mis	0		P	pl n
   	mis	0		P	sg n
tunnistava	tunnista=v	0		A	sg g
Villem	Villem	0		H	sg n
Villemson	####				
ja	ja	0		J	
Thomas	Thomas	0		H	sg n
Beifeldt	####				
.	.			Z	
8.	8.	0		O	?
koda	koda	0		S	sg n
    	koda	0		S	sg p
ei	ei	0		D	
  	ei	0		V	neg
olla	ole	a		V	da
mitte	mitte	0		D	
ni	####				
väega	vägi	ga		S	sg kom
halva	halb	0		A	sg g
     	halva	0		V	o
seisuses	seisus	s		S	sg in
ja	ja	0		J	
on	ole	0		V	b
  	ole	0		V	vad
mõisa	mõis	0		S	sg g
herra	####				
,	,			Z	
kui	kui	0		D	
   	kui	0		J	
tema	tema	0		P	sg g
    	tema	0		P	sg n
paluma	palu	ma		V	ma
materiiali	####				
keelnu	####				
,	,			Z	
tunnistavat	tunnista	vat		V	vat
           	tunnista=v	t		A	sg p
Josep	####				
Salo	####				
,	,			Z	
Thomas	Thomas	0		H	sg n
V	V	0		O	?
 	V	0		Y	?
elt	####				
ja	ja	0		J	
Michel	####				
Priks	priks	0		I	
.	.			Z	
9.	9.	0		O	?
Sitta	sitt	0		A	adt
     	sitt	0		S	adt
     	sitta	0		V	o
     	sitt	0		A	sg p
     	sitt	0		S	sg p
olla	ole	a		V	da
külalt	küla	lt		S	sg abl
nisama	####				
ka	ka	0		D	
hõlgi	####				
ja	ja	0		J	
ei	ei	0		D	
  	ei	0		V	neg
ole	ole	0		V	o
tema	tema	0		P	sg g
    	tema	0		P	sg n
kunagi	kunagi	0		D	
hõlgi	####				
majast	maja	st		S	sg el
välja	välja	0		D	
     	välja	0		V	o
     	väli	0		S	adt
     	väli	0		S	sg g
     	väli	0		S	sg p
venu	####				
.	.			Z	
10.	10.	0		O	?
Puud	puu	d		S	pl n
    	puud	0		S	sg n
    	puu	d		S	sg p
on	ole	0		V	b
  	ole	0		V	vad
tema	tema	0		P	sg g
    	tema	0		P	sg n
mõisa	mõis	0		S	sg g
käest	käest	0		K	
     	käsi	st		S	sg el
10	10	0		N	?
sülda	süld	0		S	adt
     	süld	0		S	sg p
teenelt	teene	lt		S	sg abl
vastuvõtnu	vastu_võt=nu	0		S	sg g
          	vastu_võt=nu	0		S	sg n
ja	ja	0		J	
on	ole	0		V	b
  	ole	0		V	vad
ka	ka	0		D	
need	see	d		P	pl n
nisama	####				
putumata	####				
,	,			Z	
kui	kui	0		D	
   	kui	0		J	
aga	aga	0		J	
veidi	veidi	0		D	
pudus	pudu	s		S	sg in
on	ole	0		V	b
  	ole	0		V	vad
,	,			Z	
siis	siis	0		D	
    	siis	0		J	
on	ole	0		V	b
  	ole	0		V	vad
nemat	####				
arvanut	arva=nu	t		S	sg p
,	,			Z	
et	et	0		J	
puud	puu	d		S	pl n
    	puud	0		S	sg n
    	puu	d		S	sg p
toret	####				
olit	####				
.	.			Z	
11.	11.	0		O	?
rükki	####				
oras	ora	s		S	sg in
    	oras	0		S	sg n
olla	ole	a		V	da
kõik	kõik	0		P	pl n
    	kõik	0		S	sg n
    	kõik	0		P	sg n
hea	hea	0		A	sg g
   	hea	0		A	sg n
   	hea	0		S	sg g
   	hea	0		S	sg n
olnu	olnu	0		S	sg g
    	olnu	0		S	sg n
,	,			Z	
sügise	sügis	0		S	sg g
olnu	olnu	0		S	sg g
    	olnu	0		S	sg n
kül	####				
mõni	mõni	0		P	sg n
jälg	jälg	0		S	sg n
aga	aga	0		J	
selleperast	####				
ei	ei	0		D	
  	ei	0		V	neg
oleva	olev	0		A	sg g
     	olev	0		S	sg g
nüüd	nüüd	0		D	
orasel	oras	l		S	sg ad
midagi	miski	dagi		P	sg p
viga	viga	0		S	sg n
    	viga	0		S	sg p
olnud	ol=nud	0		A	
     	ol=nud	0		A	sg n
     	ol=nud	d		A	pl n
     	ole	nud		V	nud
     	olnu	d		S	pl n
.	.			Z	
13.	13.	0		O	?
et	et	0		J	
paaride	paar	de		N	pl g
       	paar	de		S	pl g
vitsat	####				
pudus	pudu	s		S	sg in
ei	ei	0		D	
  	ei	0		V	neg
tea	tead	0		V	o
tema	tema	0		P	sg g
    	tema	0		P	sg n
mitte	mitte	0		D	
.	.			Z	
Kristjan	Kristjan	0		H	sg n
Aabroi	####				
es	es			H	?
leia	leid	0		V	o
nende	see	de		P	pl g
     	tema	de		P	pl g
tunnistajade	####				
vasto	####				
,	,			Z	
mis	mis	0		P	pl n
   	mis	0		P	sg n
kaebaja	kaebaja	0		S	sg g
       	kaebaja	0		S	sg n
ülesandnu	üles_and=nu	0		S	sg g
         	üles_and=nu	0		S	sg n
midagi	miski	dagi		P	sg p
seadusliko	####				
räkimist	####				
;	;			Z	
nisamuti	nisa_mutt	0		S	sg g
        	nisa_muti	0		S	sg g
        	nisa_muti	0		S	sg n
ei	ei	0		D	
  	ei	0		V	neg
ole	ole	0		V	o
ka	ka	0		D	
Karel	####				
Olat	####				
Aabroi	####				
tunnistajade	####				
vasto	####				
midagi	miski	dagi		P	sg p
/	/			Z	
:	:			Z	
mõlemat	mõlema	t		P	sg p
välja	välja	0		D	
     	välja	0		V	o
     	väli	0		S	adt
     	väli	0		S	sg g
     	väli	0		S	sg p
:	:			Z	
/	/			Z	
kohtomees	####				
Thomas	Thomas	0		H	sg n
Velt	####				
andis	and	is		V	s
protokoli	####				
,	,			Z	
et	et	0		J	
tema	tema	0		P	sg g
    	tema	0		P	sg n
ammeti	amme=ti	0		D	
poolest	pool	st		N	sg el
       	pool	st		S	sg el
       	poolene	t		A	sg p
       	poolest	0		K	
ennu	####				
tallo	####				
äraandmise	ära_andmine	0		S	sg g
juures	juur	s		S	sg in
      	juures	0		D	
      	juures	0		K	
olnu	olnu	0		S	sg g
    	olnu	0		S	sg n
ja	ja	0		J	
leidnu	leid=nu	0		S	sg g
      	leid=nu	0		S	sg n
,	,			Z	
et	et	0		J	
punkt	punkt	0		S	sg n
1	1	0		N	?
,	,			Z	
2	2	0		N	?
,	,			Z	
3	3	0		N	?
,	,			Z	
4	4	0		N	?
,	,			Z	
5	5	0		N	?
,	,			Z	
6	6	0		N	?
,	,			Z	
7	7	0		N	?
,	,			Z	
8	8	0		N	?
,	,			Z	
10	10	0		N	?
,	,			Z	
12	12	0		N	?
ja	ja	0		J	
13	13	0		N	?
all	all	0		D	
   	all	0		K	
üles	üles	0		D	
antu	antud	0		A	sg g
vigat	####				
kinnida	####				
just	just	0		D	
    	just	0		I	
olnu	olnu	0		S	sg g
    	olnu	0		S	sg n
,	,			Z	
kuidas	kuidas	0		D	
kaebaja	kaebaja	0		S	sg g
       	kaebaja	0		S	sg n
räkinut	####				
üksi	üksi	0		D	
aga	aga	0		J	
punkt	punkt	0		S	sg n
9	9	0		N	?
all	all	0		D	
   	all	0		K	
on	ole	0		V	b
  	ole	0		V	vad
sitta	sitt	0		A	adt
     	sitt	0		S	adt
     	sitta	0		V	o
     	sitt	0		A	sg p
     	sitt	0		S	sg p
ja	ja	0		J	
hõlgi	####				
Kristjan	Kristjan	0		H	sg n
Aabroil	####				
kül	####				
ma	mina	0		P	sg n
järgi	järg	i		S	pl p
     	järgi	0		D	
     	järgi	0		K	
     	järgi	0		V	o
arvata	arva	ta		V	da
      	arva	ta		V	ta
      	arvata	0		D	
väha	####				
olnut	olnu	t		S	sg p
aga	aga	0		J	
2	2	0		N	?
koormat	koorem	t		S	sg p
hõlgi	####				
äravidu	####				
,	,			Z	
ei	ei	0		D	
  	ei	0		V	neg
tea	tead	0		V	o
tema	tema	0		P	sg g
    	tema	0		P	sg n
mitte	mitte	0		D	
.	.			Z	
Punkt	punkt	0		S	sg n
11	11	0		N	?
all	all	0		D	
   	all	0		K	
ei	ei	0		D	
  	ei	0		V	neg
tea	tead	0		V	o
tema	tema	0		P	sg g
    	tema	0		P	sg n
mitte	mitte	0		D	
kus	kus	0		D	
rükki	####				
oras	ora	s		S	sg in
    	oras	0		S	sg n
mõnne	####				
koha	koht	0		S	sg g
    	koha	0		S	sg g
    	koha	0		V	o
    	koha	0		S	sg n
    	koha	0		S	sg p
pealt	pea	lt		S	sg abl
     	pealt	0		D	
     	pealt	0		K	
tallatu	talla=tu	0		S	sg g
       	talla=tu	0		S	sg n
olnu	olnu	0		S	sg g
    	olnu	0		S	sg n
,	,			Z	
et	et	0		J	
vatamas	####				
ei	ei	0		D	
  	ei	0		V	neg
ole	ole	0		V	o
käinut	käinu	t		S	sg p
.	.			Z	
Kohtuliikmet	####				
mõistsit	####				
:	:			Z	
See	see	0		P	sg n
asi	asi	0		S	sg n
   	asi	0		V	o
teisel	teine	l		O	sg ad
      	teine	l		P	sg ad
kohtupäeval	kohtu_päev	l		S	sg ad
edasi	edasi	0		D	
     	edasi	0		K	
õiendada	õienda	da		V	da
.	.			Z	
Peakohtumees	pea_kohtu_mees	0		S	sg n
:	:			Z	
Paul	Paul	0		H	sg n
Villemson	####				
kohtomees	####				
:	:			Z	
Josep	####				
Havakivvi	####				
Aabikohomees	####				
:	:			Z	
Thomas	Thomas	0		H	sg n
Velt	####				
.	.			Z	
Kirj	####				
.	.			Z	
allkiri	all_kiri	0		S	sg n
