sellsamal	####				
päeval	päev	l		S	sg ad
22.	22.	0		O	?
jaanuaril	jaanuar	l		S	sg ad
1888.	1888.	0		O	?
tüli	tüli	0		S	sg g
    	tüli	0		S	sg n
    	tüli	0		S	sg p
ette	ette	0		D	
    	ette	0		K	
    	esi	tte		S	adt
Jüri	Jüri	0		H	sg g
    	Jüri	0		H	sg n
Hint	####				
Tõhu	tõhk	0		S	sg g
vallast	vald	st		S	sg el
ja	ja	0		J	
kaebab	kaeba	b		V	b
,	,			Z	
et	et	0		J	
Jüri	Jüri	0		H	sg g
    	Jüri	0		H	sg n
Tigane	####				
temale	tema	le		P	sg all
25	25	0		N	?
rubla	rubla	0		S	sg g
     	rubla	0		S	sg n
     	rubla	0		S	sg p
raha	raha	0		S	sg g
    	raha	0		S	sg n
    	raha	0		S	sg p
võlgnevat	võlgne	vat		V	vat
         	võlgne=v	t		A	sg p
.	.			Z	
Jaebaja	####				
nõuab	nõud	b		V	b
oma	oma	0		A	sg g
   	oma	0		D	
   	oma	0		P	sg g
   	oma	0		S	sg g
   	oma	0		V	o
   	oma	0		A	sg n
   	oma	0		A	sg p
   	oma	0		P	sg n
   	oma	0		P	sg p
   	oma	0		S	sg n
   	oma	0		S	sg p
võlga	võlg	0		S	adt
     	võlg	0		S	sg p
kätte	kätte	0		K	
     	käsi	tte		S	adt
saada	saa	da		V	da
     	saat	0		V	o
     	saa	da		V	ta
.	.			Z	
-	-			Z	
otsus	otsus	0		S	sg n
:	:			Z	
kaebaja	kaebaja	0		S	sg g
       	kaebaja	0		S	sg n
ja	ja	0		J	
kaebuse	kaebus	0		S	sg g
alune	alune	0		A	sg n
     	alune	0		S	sg n
tulevaks	tulev	ks		A	sg tr
kohtupäevaks	kohtu_päev	ks		S	sg tr
ette	ette	0		D	
    	ette	0		K	
    	esi	tte		S	adt
kutsuda	kutsu	da		V	da
.	.			Z	
Peakohtumees	pea_kohtu_mees	0		S	sg n
:	:			Z	
M. Karu	####				
kohtumees	kohtu_mees	0		S	sg n
:	:			Z	
J	J	0		Y	?
.	.			Z	
A	A	0		Y	?
.	.			Z	
kohtumees	kohtu_mees	0		S	sg n
.	.			Z	
