Jõemoisas	####				
sel	see	l		P	sg ad
   	sel	0		Y	?
9nal	####				
Vebruaril	####				
1862	1862	0		N	?
kogokonna	####				
kohus	kohu	s		V	s
     	kohus	0		S	sg n
kaibas	####				
.......	.......			Z	
metsavaht	metsa_vaht	0		S	sg n
et	et	0		J	
Märt	Märt	0		H	sg n
Jeger	####				
on	ole	0		V	b
  	ole	0		V	vad
sane	####				
Moisa	####				
metsast	mets	st		S	sg el
       	metsane	t		A	sg p
üks	üks	0		N	sg n
   	üks	0		P	sg n
korem	####				
puid	puu	id		S	pl p
varastanud	varasta	nud		V	nud
          	varasta=nu	d		S	pl n
          	varasta=nud	0		A	
          	varasta=nud	0		A	sg n
          	varasta=nud	d		A	pl n
mis	mis	0		P	pl n
   	mis	0		P	sg n
Märt	Märt	0		H	sg n
Jeger	####				
ka	ka	0		D	
ei	ei	0		D	
  	ei	0		V	neg
salga	salga	0		V	o
     	salk	0		S	sg g
vaid	vaid	0		D	
    	vaid	0		J	
isi	####				
ütleb	ütle	b		V	b
tõisi	####				
oled	ole	d		V	d
.	.			Z	
Selle	see	0		P	sg g
     	sell	e		S	pl p
peäle	####				
sai	saa	i		V	s
   	sai	0		S	sg n
mõistetud	mõist	tud		V	tud
         	mõiste=tu	d		S	pl n
         	mõiste=tud	0		A	
         	mõiste=tud	0		A	sg n
         	mõiste=tud	d		A	pl n
Märt	Märt	0		H	sg n
Jeger	####				
maksab	maks	b		V	b
1	1	0		N	?
rubla	rubla	0		S	sg g
     	rubla	0		S	sg n
     	rubla	0		S	sg p
obetad	####				
,	,			Z	
ja	ja	0		J	
saab	saa	b		V	b
15	15	0		N	?
vitsa	vits	0		S	adt
     	vits	0		S	sg g
     	vits	0		S	sg p
lõõki	####				
trahvi	trahv	0		S	adt
      	trahv	0		S	sg g
      	trahvi	0		V	o
      	trahv	0		S	sg p
.	.			Z	
Josep	####				
Olen	ole	n		V	n
peakohtumees	pea_kohtu_mees	0		S	sg n
Kustav	kus=tav	0		A	sg n
      	kuse	tav		V	tav
Mälson	####				
abikohtumees	abi_kohtu_mees	0		S	sg n
Vidrik	####				
enes	####				
abikohtumees	abi_kohtu_mees	0		S	sg n
