№	№	0		Y	?
36	36	0		N	?
sel	see	l		P	sg ad
   	sel	0		Y	?
16	16	0		N	?
Aprilil	####				
1890.	1890.	0		O	?
kaebas	kaeba	s		V	s
Mihkel	Mihkel	0		H	sg n
      	mihkel	0		A	sg n
      	mihkel	0		S	sg n
Taari	taar	0		S	adt
     	taar	0		S	sg g
     	taar	0		S	sg p
,	,			Z	
et	et	0		J	
tema	tema	0		P	sg g
    	tema	0		P	sg n
Peeter	Peeter	0		H	sg n
Erso	####				
käest	käest	0		K	
     	käsi	st		S	sg el
Haslava	####				
Veski	veski	0		S	sg g
     	veski	0		S	sg n
pealt	pea	lt		S	sg abl
     	pealt	0		D	
     	pealt	0		K	
5	5	0		N	?
vakka	vakk	0		S	adt
     	vakk	0		S	sg p
     	vakka	0		D	
ruki	####				
ostnud	ost	nud		V	nud
      	ost=nu	d		S	pl n
      	ost=nud	0		A	
      	ost=nud	0		A	sg n
      	ost=nud	d		A	pl n
ja	ja	0		J	
nende	see	de		P	pl g
     	tema	de		P	pl g
eest	eest	0		D	
    	eest	0		K	
    	esi	st		S	sg el
11	11	0		N	?
rubl	####				
25	25	0		N	?
kop	kop	0		Y	?
ära	ära	0		D	
   	ära	0		V	neg o
maksnud	maks	nud		V	nud
       	maks=nu	d		S	pl n
       	maks=nud	0		A	
       	maks=nud	0		A	sg n
       	maks=nud	d		A	pl n
,	,			Z	
ent	ent	0		J	
nüüd	nüüd	0		D	
olevat	ole	vat		V	vat
      	olev	t		A	sg p
      	olev	t		S	sg p
need	see	d		P	pl n
ruki	####				
kinni	kinni	0		D	
pandud	pan=du	d		S	pl n
      	pan=dud	0		A	
      	pan=dud	0		A	sg n
      	pan=dud	d		A	pl n
      	pane	dud		V	tud
ja	ja	0		J	
tema	tema	0		P	sg g
    	tema	0		P	sg n
ei	ei	0		D	
  	ei	0		V	neg
sa	sina	0		P	sg n
neid	neid	0		S	sg n
    	see	d		P	pl p
    	tema	d		P	pl p
kätte	kätte	0		K	
     	käsi	tte		S	adt
ja	ja	0		J	
palus	palu	s		S	sg in
     	palu	s		V	s
,	,			Z	
et	et	0		J	
kohus	kohu	s		V	s
     	kohus	0		S	sg n
temale	tema	le		P	sg all
neid	neid	0		S	sg n
    	see	d		P	pl p
    	tema	d		P	pl p
ruki	####				
kätte	kätte	0		K	
     	käsi	tte		S	adt
anda	and	a		V	da
kunis	####				
.	.			Z	
Mihkel	Mihkel	0		H	sg n
      	mihkel	0		A	sg n
      	mihkel	0		S	sg n
Taari	taar	0		S	adt
     	taar	0		S	sg g
     	taar	0		S	sg p
ei	ei	0		D	
  	ei	0		V	neg
mõista	mõist	0		V	o
      	mõist	a		V	da
kirjutada	kirjuta	da		V	da
.	.			Z	
Peeter	Peeter	0		H	sg n
Ers	####				
vastutas	vastuta	s		V	s
selle	see	0		P	sg g
     	sell	e		S	pl p
peale	pea	le		S	sg all
     	peale	0		D	
     	peale	0		K	
,	,			Z	
et	et	0		J	
tema	tema	0		P	sg g
    	tema	0		P	sg n
need	see	d		P	pl n
rukid	####				
Mihkel	Mihkel	0		H	sg n
      	mihkel	0		A	sg n
      	mihkel	0		S	sg n
Taarile	taar	le		S	sg all
müinud	####				
ent	ent	0		J	
ei	ei	0		D	
  	ei	0		V	neg
mäleta	mäleta	0		V	o
kas	kas	0		D	
tema	tema	0		P	sg g
    	tema	0		P	sg n
nende	see	de		P	pl g
     	tema	de		P	pl g
eest	eest	0		D	
    	eest	0		K	
    	esi	st		S	sg el
raha	raha	0		S	sg g
    	raha	0		S	sg n
    	raha	0		S	sg p
on	ole	0		V	b
  	ole	0		V	vad
saanud	saa	nud		V	nud
      	saa=nud	0		A	
      	saa=nud	0		A	sg n
      	saa=nud	d		A	pl n
      	saanu	d		S	pl n
ehk	ehk	0		D	
   	ehk	0		J	
mitte	mitte	0		D	
sest	see	st		P	sg el
    	sest	0		J	
tema	tema	0		P	sg g
    	tema	0		P	sg n
olnud	ol=nud	0		A	
     	ol=nud	0		A	sg n
     	ol=nud	d		A	pl n
     	ole	nud		V	nud
     	olnu	d		S	pl n
purjus	purjus	0		A	
      	purjus	0		D	
.	.			Z	
Need	see	d		P	pl n
rukkit	####				
olnud	ol=nud	0		A	
     	ol=nud	0		A	sg n
     	ol=nud	d		A	pl n
     	ole	nud		V	nud
     	olnu	d		S	pl n
peremehe	pere_mees	0		S	sg g
ruki	####				
.	.			Z	
Peeter	Peeter	0		H	sg n
Ers	####				
isi	####				
mõista	mõist	0		V	o
      	mõist	a		V	da
kirjutada	kirjuta	da		V	da
.	.			Z	
isa	isa	0		S	sg g
   	isa	0		S	sg n
   	isa	0		S	sg p
Johan	Johan	0		H	sg n
Ers	####				
andis	and	is		V	s
üles	üles	0		D	
,	,			Z	
et	et	0		J	
tema	tema	0		P	sg g
    	tema	0		P	sg n
saatnud	saat	nud		V	nud
       	saat=nu	d		S	pl n
       	saat=nud	0		A	
       	saat=nud	0		A	sg n
       	saat=nud	d		A	pl n
Peeter	Peeter	0		H	sg n
Ers	####				
nende	see	de		P	pl g
     	tema	de		P	pl g
rukistega	rukis	tega		S	pl kom
veskile	veski	le		S	sg all
ja	ja	0		J	
Peeter	Peeter	0		H	sg n
Erkul	####				
ei	ei	0		D	
  	ei	0		V	neg
ole	ole	0		V	o
õigus	õigus	0		S	sg n
neid	neid	0		S	sg n
    	see	d		P	pl p
    	tema	d		P	pl p
müia	####				
.	.			Z	
Johan	Johan	0		H	sg n
Ers	####				
ei	ei	0		D	
  	ei	0		V	neg
mõista	mõist	0		V	o
      	mõist	a		V	da
kirjutada	kirjuta	da		V	da
.	.			Z	
Mõistetud	mõist	tud		V	tud
         	mõiste=tu	d		S	pl n
         	mõiste=tud	0		A	
         	mõiste=tud	0		A	sg n
         	mõiste=tud	d		A	pl n
:	:			Z	
et	et	0		J	
Mihkel	Mihkel	0		H	sg n
      	mihkel	0		A	sg n
      	mihkel	0		S	sg n
Taari	taar	0		S	adt
     	taar	0		S	sg g
     	taar	0		S	sg p
saab	saa	b		V	b
oma	oma	0		A	sg g
   	oma	0		D	
   	oma	0		P	sg g
   	oma	0		S	sg g
   	oma	0		V	o
   	oma	0		A	sg n
   	oma	0		A	sg p
   	oma	0		P	sg n
   	oma	0		P	sg p
   	oma	0		S	sg n
   	oma	0		S	sg p
ostetud	ost	tud		V	tud
       	oste=tu	d		S	pl n
       	oste=tud	0		A	
       	oste=tud	0		A	sg n
       	oste=tud	d		A	pl n
ruki	####				
kätte	kätte	0		K	
     	käsi	tte		S	adt
kui	kui	0		D	
   	kui	0		J	
Johan	Johan	0		H	sg n
ehk	ehk	0		D	
   	ehk	0		J	
Mihkel	Mihkel	0		H	sg n
      	mihkel	0		A	sg n
      	mihkel	0		S	sg n
Ers	####				
kuni	kuni	0		J	
    	kuni	0		K	
7	7	0		N	?
maini	maa	ini		S	pl ter
     	mai	ni		S	sg ter
     	maini	0		V	o
see	see	0		P	sg n
11	11	0		N	?
rub	####				
25	25	0		N	?
kop	kop	0		Y	?
Mihkel	Mihkel	0		H	sg n
      	mihkel	0		A	sg n
      	mihkel	0		S	sg n
Taarile	taar	le		S	sg all
ära	ära	0		D	
   	ära	0		V	neg o
ei	ei	0		D	
  	ei	0		V	neg
ole	ole	0		V	o
maksnud	maks	nud		V	nud
       	maks=nu	d		S	pl n
       	maks=nud	0		A	
       	maks=nud	0		A	sg n
       	maks=nud	d		A	pl n
kuni	kuni	0		J	
    	kuni	0		K	
7	7	0		N	?
maini	maa	ini		S	pl ter
     	mai	ni		S	sg ter
     	maini	0		V	o
peab	pida	b		V	b
Mihkel	Mihkel	0		H	sg n
      	mihkel	0		A	sg n
      	mihkel	0		S	sg n
Taari	taar	0		S	adt
     	taar	0		S	sg g
     	taar	0		S	sg p
ootama	oota	ma		V	ma
.	.			Z	
Johan	Johan	0		H	sg n
ehk	ehk	0		D	
   	ehk	0		J	
Mihkel	Mihkel	0		H	sg n
      	mihkel	0		A	sg n
      	mihkel	0		S	sg n
Erkul	####				
jääb	jää	b		V	b
õigus	õigus	0		S	sg n
seda	see	da		P	sg p
raha	raha	0		S	sg g
    	raha	0		S	sg n
    	raha	0		S	sg p
Peeter	Peeter	0		H	sg n
Erkul	####				
ära	ära	0		D	
   	ära	0		V	neg o
teenida	teeni	da		V	da
lasta	lask	ta		V	da
     	lask	ta		V	ta
.	.			Z	
see	see	0		P	sg n
mõistus	mõistus	0		S	sg n
sai	saa	i		V	s
   	sai	0		S	sg n
kuulutatud	kuuluta	tud		V	tud
          	kuuluta=tu	d		S	pl n
          	kuuluta=tud	0		A	
          	kuuluta=tud	0		A	sg n
          	kuuluta=tud	d		A	pl n
.	.			Z	
Mihkel	Mihkel	0		H	sg n
      	mihkel	0		A	sg n
      	mihkel	0		S	sg n
Taari	taar	0		S	adt
     	taar	0		S	sg g
     	taar	0		S	sg p
Peeter	Peeter	0		H	sg n
Ers	####				
ja	ja	0		J	
Johan	Johan	0		H	sg n
Ers	####				
peakohtumees	pea_kohtu_mees	0		S	sg n
Jaan	Jaan	0		H	sg n
    	jaan	0		S	sg n
    	jaan	0		Y	?
Virro	####				
XXX	XXX	0		O	?
   	XXX	0		Y	?
kohtumees	kohtu_mees	0		S	sg n
:	:			Z	
Jakob	Jakob	0		H	sg n
saks	saks	0		S	sg n
/	/			Z	
allkiri	all_kiri	0		S	sg n
/	/			Z	
""""	""""			Z	
Peeter	Peeter	0		H	sg n
Hansen	Hansen	0		H	sg n
XXX	XXX	0		O	?
   	XXX	0		Y	?
