ette	ette	0		D	
    	ette	0		K	
    	esi	tte		S	adt
tuli	tuli	0		S	sg n
    	tule	i		V	s
Palla	####				
valla	vald	0		S	sg g
     	valla	0		D	
Mäeotsa	mäe_ots	0		S	adt
       	mäe_ots	0		S	sg g
       	mäe_ots	0		S	sg p
tallo	####				
Nr	Nr	0		Y	?
10.	10.	0		O	?
rentnik	rentnik	0		S	sg n
,	,			Z	
kes	kes	0		P	pl n
   	kes	0		P	sg n
seda	see	da		P	sg p
nimetud	nimetu	d		A	pl n
tallo	####				
Palla	####				
valla	vald	0		S	sg g
     	valla	0		D	
valitsuse	valitsus	0		S	sg g
käest	käest	0		K	
     	käsi	st		S	sg el
ommale	####				
Jüri	Jüri	0		H	sg g
    	Jüri	0		H	sg n
pävast	####				
1882	1882	0		N	?
,	,			Z	
ütles	ütle	s		V	s
rentinud	renti	nud		V	nud
        	renti=nu	d		S	pl n
        	renti=nud	0		A	
        	renti=nud	0		A	sg n
        	renti=nud	d		A	pl n
olla	ole	a		V	da
kue	####				
aasta	aasta	0		S	sg g
     	aasta	0		S	sg n
peale	pea	le		S	sg all
     	peale	0		D	
     	peale	0		K	
ning	ning	0		J	
näitas	näita	s		V	s
ka	ka	0		D	
selle	see	0		P	sg g
     	sell	e		S	pl p
peale	pea	le		S	sg all
     	peale	0		D	
     	peale	0		K	
kontrahtid	####				
ette	ette	0		D	
    	ette	0		K	
    	esi	tte		S	adt
.	.			Z	
Ni	####				
kui	kui	0		D	
   	kui	0		J	
kaebaja	kaebaja	0		S	sg g
       	kaebaja	0		S	sg n
nüüd	nüüd	0		D	
olla	ole	a		V	da
kuulda	kuul	da		V	da
      	kuul	da		V	ta
saanud	saa	nud		V	nud
      	saa=nud	0		A	
      	saa=nud	0		A	sg n
      	saa=nud	d		A	pl n
      	saanu	d		S	pl n
olla	ole	a		V	da
se	####				
koht	koht	0		S	sg n
teisele	teine	le		O	sg all
       	teine	le		P	sg all
kohtu	kohtu	0		V	o
     	kohus	0		S	sg g
poolt	pool	t		N	sg p
     	pool	t		S	sg p
     	poolt	0		D	
     	poolt	0		K	
mõistetud	mõist	tud		V	tud
         	mõiste=tu	d		S	pl n
         	mõiste=tud	0		A	
         	mõiste=tud	0		A	sg n
         	mõiste=tud	d		A	pl n
.	.			Z	
kaebaja	kaebaja	0		S	sg g
       	kaebaja	0		S	sg n
pärib	päri	b		V	b
et	et	0		J	
Vallavalitsus	valla_valitsus	0		S	sg n
temale	tema	le		P	sg all
peaks	pea	ks		S	sg tr
     	pida	ks		V	ks
otsust	otsus	t		S	sg p
andma	and	ma		V	ma
,	,			Z	
kas	kas	0		D	
se	####				
koht	koht	0		S	sg n
ilma	ilm	0		S	adt
    	ilm	0		S	sg g
    	ilma	0		D	
    	ilma	0		K	
    	ilm	0		S	sg p
seia	####				
aeani	####				
uvve	####				
rentnikkule	####				
teada	tead	a		V	da
andmatta	####				
saaks	saa	ks		V	ks
temale	tema	le		P	sg all
andmatta	####				
jäma	####				
ja	ja	0		J	
nõvvab	####				
nime	nimi	0		S	sg g
    	nimi	0		S	sg p
seda	see	da		P	sg p
renditud	renti	tud		V	tud
        	rendi=tu	d		S	pl n
        	rendi=tud	0		A	
        	rendi=tud	0		A	sg n
        	rendi=tud	d		A	pl n
Mäeotsa	mäe_ots	0		S	adt
       	mäe_ots	0		S	sg g
       	mäe_ots	0		S	sg p
kohta	koht	0		S	adt
     	kohta	0		K	
     	kohta	0		V	o
     	koht	0		S	sg p
Jüripävast	####				
1882	1882	0		N	?
kätte	kätte	0		K	
     	käsi	tte		S	adt
,	,			Z	
vastasel	vastane	l		A	sg ad
        	vastane	l		S	sg ad
korral	kord	l		S	sg ad
      	korral	0		D	
      	korral	0		K	
kolmtuhat	kolm_tuhat	0		N	sg n
ükssada	üks_sada	0		N	sg n
rubla	rubla	0		S	sg g
     	rubla	0		S	sg n
     	rubla	0		S	sg p
kahjo	####				
tasumist	tasumine	t		S	sg p
kui	kui	0		D	
   	kui	0		J	
mitte	mitte	0		D	
se	####				
rentitud	####				
kohta	koht	0		S	adt
     	kohta	0		K	
     	kohta	0		V	o
     	koht	0		S	sg p
ei	ei	0		D	
  	ei	0		V	neg
sa	sina	0		P	sg n
.	.			Z	
Aastus	####				
ette	ette	0		D	
    	ette	0		K	
    	esi	tte		S	adt
endine	endine	0		A	sg n
valla	vald	0		S	sg g
     	valla	0		D	
vanem	vanem	0		C	sg n
     	vanem	0		S	sg n
,	,			Z	
Otto	Otto	0		H	sg g
    	Otto	0		H	sg n
Kangru	kangur	0		S	sg g
ja	ja	0		J	
vastas	vasta	s		V	s
      	vastas	0		D	
      	vastas	0		K	
,	,			Z	
et	et	0		J	
tema	tema	0		P	sg g
    	tema	0		P	sg n
esiteks	esiteks	0		D	
20.	20.	0		O	?
Juunil	juuni	l		S	sg ad
1881.	1881.	0		O	?
Nõukogule	nõu_kogu	le		S	sg all
on	ole	0		V	b
  	ole	0		V	vad
ette	ette	0		D	
    	ette	0		K	
    	esi	tte		S	adt
pandnud	####				
et	et	0		J	
se	####				
nimetud	nimetu	d		A	pl n
koht	koht	0		S	sg n
kallima	kallim	0		C	sg g
       	kallim	0		S	sg g
rendi	rent	0		S	sg g
     	renti	0		V	o
eest	eest	0		D	
    	eest	0		K	
    	esi	st		S	sg el
peab	pida	b		V	b
sama	sama	0		P	sg g
    	sama	0		P	sg n
    	sama	0		P	sg p
välja	välja	0		D	
     	välja	0		V	o
     	väli	0		S	adt
     	väli	0		S	sg g
     	väli	0		S	sg p
renditud	renti	tud		V	tud
        	rendi=tu	d		S	pl n
        	rendi=tud	0		A	
        	rendi=tud	0		A	sg n
        	rendi=tud	d		A	pl n
,	,			Z	
ja	ja	0		J	
Nõumeestel	nõu_mees	tel		S	pl ad
ei	ei	0		D	
  	ei	0		V	neg
olnud	ol=nud	0		A	
     	ol=nud	0		A	sg n
     	ol=nud	d		A	pl n
     	ole	nud		V	nud
     	olnu	d		S	pl n
sel	see	l		P	sg ad
   	sel	0		Y	?
vasto	####				
ütlemist	ütlemine	t		S	sg p
,	,			Z	
et	et	0		J	
kallimad	kallim	d		C	pl n
        	kallim	d		S	pl n
renti	rent	0		S	adt
     	rent	0		S	sg p
ei	ei	0		D	
  	ei	0		V	neg
pea	pea	0		D	
   	pea	0		S	sg g
   	pida	0		V	o
   	pea	0		S	sg n
võtma	võt	ma		V	ma
vaid	vaid	0		D	
    	vaid	0		J	
olid	ole	id		V	sid
peri	####				
sellega	see	ga		P	sg kom
.	.			Z	
ja	ja	0		J	
teiseks	teine	ks		O	sg tr
       	teine	ks		P	sg tr
       	teiseks	0		D	
25.	25.	0		O	?
juulil	juuli	l		S	sg ad
1881.	1881.	0		O	?
on	ole	0		V	b
  	ole	0		V	vad
tema	tema	0		P	sg g
    	tema	0		P	sg n
täie	täis	0		A	sg g
    	täis	0		S	sg g
nõukogole	####				
kus	kus	0		D	
ka	ka	0		D	
kohtomehed	####				
juures	juur	s		S	sg in
      	juures	0		D	
      	juures	0		K	
on	ole	0		V	b
  	ole	0		V	vad
olnud	ol=nud	0		A	
     	ol=nud	0		A	sg n
     	ol=nud	d		A	pl n
     	ole	nud		V	nud
     	olnu	d		S	pl n
valamajas	####				
vana	vana	0		A	sg g
    	vana	0		A	sg n
    	vana	0		A	sg p
    	vana	0		S	sg g
    	vana	0		S	sg n
    	vana	0		S	sg p
rentniku	rentnik	0		S	sg g
Toomas	Toomas	0		H	sg n
      	Toomas	s		H	sg in
      	too	mas		V	mas
Veldile	####				
ülesüttelnud	####				
et	et	0		J	
renti	rent	0		S	adt
     	rent	0		S	sg p
on	ole	0		V	b
  	ole	0		V	vad
enam	enam	0		C	sg n
    	enam	0		D	
50.	50.	0		O	?
rubla	rubla	0		S	sg g
     	rubla	0		S	sg n
     	rubla	0		S	sg p
pakkutud	####				
,	,			Z	
ja	ja	0		J	
nõu	nõu	0		S	sg g
   	nõu	0		S	sg n
   	nõu	0		S	sg p
Veltile	####				
nõue	nõue	0		S	sg n
nagu	nagu	0		D	
    	nagu	0		J	
ees	ees	0		D	
   	ees	0		K	
   	esi	s		S	sg in
üttelnud	####				
et	et	0		J	
sa	sina	0		P	sg n
mitte	mitte	0		D	
oma	oma	0		A	sg g
   	oma	0		D	
   	oma	0		P	sg g
   	oma	0		S	sg g
   	oma	0		V	o
   	oma	0		A	sg n
   	oma	0		A	sg p
   	oma	0		P	sg n
   	oma	0		P	sg p
   	oma	0		S	sg n
   	oma	0		S	sg p
renti	rent	0		S	adt
     	rent	0		S	sg p
kunagi	kunagi	0		D	
tärminis	tärmin	s		S	sg in
ei	ei	0		D	
  	ei	0		V	neg
maksa	maks	0		S	adt
     	maks	0		S	sg g
     	maks	0		V	o
     	maks	0		S	sg p
,	,			Z	
ja	ja	0		J	
kas	kas	0		D	
sa	sina	0		P	sg n
tahad	taht	d		V	d
nüüd	nüüd	0		D	
siis	siis	0		D	
    	siis	0		J	
kest	kest	0		S	sg n
edasi	edasi	0		D	
     	edasi	0		K	
rendi	rent	0		S	sg g
     	renti	0		V	o
peale	pea	le		S	sg all
     	peale	0		D	
     	peale	0		K	
võtta	võt	a		V	da
se	####				
juure	juur	0		S	sg g
pakkutud	####				
rent	rent	0		S	sg n
ka	ka	0		D	
juure	juur	0		S	sg g
iga	iga	0		P	sg g
   	iga	0		P	sg n
   	iga	0		P	sg p
   	iga	0		S	sg n
   	iga	0		S	sg p
aasta	aasta	0		S	sg g
     	aasta	0		S	sg n
maksa	maks	0		S	adt
     	maks	0		S	sg g
     	maks	0		V	o
     	maks	0		S	sg p
ja	ja	0		J	
tärminist	tärmin	st		S	sg el
just	just	0		D	
    	just	0		I	
nimelt	nimelt	0		D	
      	nimi	lt		S	sg abl
.	.			Z	
kostis	kost	s		S	sg in
      	kost	is		V	s
Toomas	Toomas	0		H	sg n
      	Toomas	s		H	sg in
      	too	mas		V	mas
Velt	####				
,	,			Z	
et	et	0		J	
tema	tema	0		P	sg g
    	tema	0		P	sg n
seda	see	da		P	sg p
kohta	koht	0		S	adt
     	kohta	0		K	
     	kohta	0		V	o
     	koht	0		S	sg p
surema	sure	ma		V	ma
rendi	rent	0		S	sg g
     	renti	0		V	o
eest	eest	0		D	
    	eest	0		K	
    	esi	st		S	sg el
ei	ei	0		D	
  	ei	0		V	neg
või	või	0		S	sg g
   	või	0		V	o
   	või	0		D	
   	või	0		J	
   	või	0		S	sg n
piddada	####				
.	.			Z	
kui	kui	0		D	
   	kui	0		J	
mis	mis	0		P	pl n
   	mis	0		P	sg n
ta	tema	0		P	sg g
  	tema	0		P	sg n
praegu	praegu	0		D	
maksnud	maks	nud		V	nud
       	maks=nu	d		S	pl n
       	maks=nud	0		A	
       	maks=nud	0		A	sg n
       	maks=nud	d		A	pl n
seni	seni	0		D	
,	,			Z	
ajani	aeg	ni		S	sg ter
on	ole	0		V	b
  	ole	0		V	vad
,	,			Z	
ega	ega	0		D	
   	ega	0		J	
tema	tema	0		P	sg g
    	tema	0		P	sg n
nõuanest	####				
kulada	####				
ei	ei	0		D	
  	ei	0		V	neg
tea	tead	0		V	o
kuski	kuski	0		D	
kaevata	kaeba	ta		V	da
       	kaeba	ta		V	ta
       	kaeva	ta		V	da
       	kaeva	ta		V	ta
kellega	kes	ga		P	pl kom
       	kes	ga		P	sg kom
suremat	####				
renti	rent	0		S	adt
     	rent	0		S	sg p
maksta	maks	ta		V	da
      	maks	ta		V	ta
.	.			Z	
Vallavalitsusus	####				
andis	and	is		V	s
Toomas	Toomas	0		H	sg n
      	Toomas	s		H	sg in
      	too	mas		V	mas
Veldile	####				
neli	neli	0		N	sg n
nädalad	nädal	d		S	pl n
edasi	edasi	0		D	
     	edasi	0		K	
aega	aeg	0		S	adt
    	aeg	0		S	sg p
    	aega	0		K	
veel	veel	0		D	
    	vesi	l		S	sg ad
selle	see	0		P	sg g
     	sell	e		S	pl p
kohaga	koht	ga		S	sg kom
      	koha	ga		S	sg kom
uut	uus	t		A	sg p
rendi	rent	0		S	sg g
     	renti	0		V	o
kaupa	kaup	0		S	adt
     	kaup	0		S	sg p
     	kaupa	0		K	
teha	tege	a		V	da
,	,			Z	
kui	kui	0		D	
   	kui	0		J	
ei	ei	0		D	
  	ei	0		V	neg
ole	ole	0		V	o
nelja	neli	0		N	adt
     	neli	0		N	sg g
     	neli	0		N	sg p
nädala	nädal	0		S	sg g
sees	sees	0		D	
    	sees	0		K	
Velt	####				
kaupa	kaup	0		S	adt
     	kaup	0		S	sg p
     	kaupa	0		K	
teinud	tege	nud		V	nud
      	tei=nud	0		A	
      	tei=nud	0		A	sg n
      	tei=nud	d		A	pl n
      	teinu	d		S	pl n
saab	saa	b		V	b
uele	####				
rentnikkule	####				
välja	välja	0		D	
     	välja	0		V	o
     	väli	0		S	adt
     	väli	0		S	sg g
     	väli	0		S	sg p
renditud	renti	tud		V	tud
        	rendi=tu	d		S	pl n
        	rendi=tud	0		A	
        	rendi=tud	0		A	sg n
        	rendi=tud	d		A	pl n
,	,			Z	
ja	ja	0		J	
sai	saa	i		V	s
   	sai	0		S	sg n
koos	koos	0		D	
    	koos	0		K	
    	koos	0		S	sg n
    	kubu	s		S	sg in
olijatte	####				
poolt	pool	t		N	sg p
     	pool	t		S	sg p
     	poolt	0		D	
     	poolt	0		K	
otsuseks	otsus	ks		S	sg tr
tehtud	tehtu	d		S	pl n
      	tehtud	0		A	
      	tehtud	0		A	sg n
      	tehtud	d		A	pl n
      	tege	tud		V	tud
,	,			Z	
et	et	0		J	
30	30	0		N	?
juulil	juuli	l		S	sg ad
kogukonna	kogukond	0		S	sg g
kohus	kohu	s		V	s
     	kohus	0		S	sg n
saab	saa	b		V	b
veel	veel	0		D	
    	vesi	l		S	sg ad
Veldi	####				
käest	käest	0		K	
     	käsi	st		S	sg el
kulama	####				
järel	järel	0		D	
     	järel	0		K	
,	,			Z	
kas	kas	0		D	
ta	tema	0		P	sg g
  	tema	0		P	sg n
seda	see	da		P	sg p
kohta	koht	0		S	adt
     	kohta	0		K	
     	kohta	0		V	o
     	koht	0		S	sg p
võttab	####				
,	,			Z	
aga	aga	0		J	
Velt	####				
on	ole	0		V	b
  	ole	0		V	vad
kohtu	kohtu	0		V	o
     	kohus	0		S	sg g
kulamise	####				
päval	####				
üttelnud	####				
et	et	0		J	
ta	tema	0		P	sg g
  	tema	0		P	sg n
ei	ei	0		D	
  	ei	0		V	neg
võtta	võt	a		V	da
.	.			Z	
kui	kui	0		D	
   	kui	0		J	
nüüd	nüüd	0		D	
vallavalitsuse	valla_valitsus	0		S	sg g
ja	ja	0		J	
kogukonna	kogukond	0		S	sg g
kohtu	kohtu	0		V	o
     	kohus	0		S	sg g
üles	üles	0		D	
ütlemise	ütlemine	0		S	sg g
peale	pea	le		S	sg all
     	peale	0		D	
     	peale	0		K	
vana	vana	0		A	sg g
    	vana	0		A	sg n
    	vana	0		A	sg p
    	vana	0		S	sg g
    	vana	0		S	sg n
    	vana	0		S	sg p
rentnik	rentnik	0		S	sg n
seda	see	da		P	sg p
kohta	koht	0		S	adt
     	kohta	0		K	
     	kohta	0		V	o
     	koht	0		S	sg p
pole	ole	0		V	neg o
võtnud	võt	nud		V	nud
      	võt=nu	d		S	pl n
      	võt=nud	0		A	
      	võt=nud	0		A	sg n
      	võt=nud	d		A	pl n
ega	ega	0		D	
   	ega	0		J	
õigel	õige	l		A	sg ad
aeal	####				
edasi	edasi	0		D	
     	edasi	0		K	
kaebanud	####				
,	,			Z	
on	ole	0		V	b
  	ole	0		V	vad
tema	tema	0		P	sg g
    	tema	0		P	sg n
seda	see	da		P	sg p
kui	kui	0		D	
   	kui	0		J	
vallavalitsus	valla_valitsus	0		S	sg n
uele	####				
rentnikule	rentnik	le		S	sg all
Karel	####				
Fuchsile	####				
ära	ära	0		D	
   	ära	0		V	neg o
andnud	and	nud		V	nud
      	and=nu	d		S	pl n
      	and=nud	0		A	
      	and=nud	0		A	sg n
      	and=nud	d		A	pl n
sada	sada	0		N	sg n
    	sada	0		N	sg p
kaheks	kaks	ks		N	sg tr
kümne	kümme	0		N	sg g
rubla	rubla	0		S	sg g
     	rubla	0		S	sg n
     	rubla	0		S	sg p
hõb	####				
eest	eest	0		D	
    	eest	0		K	
    	esi	st		S	sg el
iga	iga	0		P	sg g
   	iga	0		P	sg n
   	iga	0		P	sg p
   	iga	0		S	sg n
   	iga	0		S	sg p
aasta	aasta	0		S	sg g
     	aasta	0		S	sg n
renti	rent	0		S	adt
     	rent	0		S	sg p
maksta	maks	ta		V	da
      	maks	ta		V	ta
,	,			Z	
ja	ja	0		J	
ütles	ütle	s		V	s
veel	veel	0		D	
    	vesi	l		S	sg ad
endine	endine	0		A	sg n
vallavanem	valla_vanem	0		S	sg n
et	et	0		J	
tema	tema	0		P	sg g
    	tema	0		P	sg n
ei	ei	0		D	
  	ei	0		V	neg
taha	taht	0		V	o
    	taha	0		D	
    	taha	0		K	
midagi	miski	dagi		P	sg p
kahjo	####				
tasuda	tasu	da		V	da
vaid	vaid	0		D	
    	vaid	0		J	
peab	pida	b		V	b
se	####				
koht	koht	0		S	sg n
ue	####				
rentnikule	rentnik	le		S	sg all
antud	an=tu	d		S	pl n
     	and	tud		V	tud
     	antud	0		A	
     	antud	0		A	sg n
     	antud	d		A	pl n
sama	sama	0		P	sg g
    	sama	0		P	sg n
    	sama	0		P	sg p
.	.			Z	
Nisama	####				
ütles	ütle	s		V	s
,	,			Z	
võõrmünder	####				
;	;			Z	
Reinhold	####				
Stam	####				
,	,			Z	
et	et	0		J	
tema	tema	0		P	sg g
    	tema	0		P	sg n
ei	ei	0		D	
  	ei	0		V	neg
tea	tead	0		V	o
midagi	miski	dagi		P	sg p
sest	see	st		P	sg el
    	sest	0		J	
koha	koht	0		S	sg g
    	koha	0		S	sg g
    	koha	0		V	o
    	koha	0		S	sg n
    	koha	0		S	sg p
välja	välja	0		D	
     	välja	0		V	o
     	väli	0		S	adt
     	väli	0		S	sg g
     	väli	0		S	sg p
rentimisest	rentimine	st		S	sg el
.	.			Z	
ette	ette	0		D	
    	ette	0		K	
    	esi	tte		S	adt
astus	astu	s		V	s
praegune	praegune	0		A	sg n
Vallavanem	valla_vanem	0		S	sg n
,	,			Z	
Gustav	Gustav	0		H	sg n
kokka	kokk	0		S	adt
     	kokka	0		V	o
     	kokk	0		S	sg p
,	,			Z	
ja	ja	0		J	
ütles	ütle	s		V	s
et	et	0		J	
Reinhold	####				
Stam	####				
on	ole	0		V	b
  	ole	0		V	vad
temale	tema	le		P	sg all
valla	vald	0		S	sg g
     	valla	0		D	
kohtumajas	kohtu_maja	s		S	sg in
üttelnud	####				
,	,			Z	
et	et	0		J	
Toomas	Toomas	0		H	sg n
      	Toomas	s		H	sg in
      	too	mas		V	mas
Veldile	####				
on	ole	0		V	b
  	ole	0		V	vad
külalt	küla	lt		S	sg abl
üles	üles	0		D	
ütteltud	####				
,	,			Z	
ja	ja	0		J	
mis	mis	0		P	pl n
   	mis	0		P	sg n
ta	tema	0		P	sg g
  	tema	0		P	sg n
veel	veel	0		D	
    	vesi	l		S	sg ad
tahab	taht	b		V	b
,	,			Z	
renti	rent	0		S	adt
     	rent	0		S	sg p
tema	tema	0		P	sg g
    	tema	0		P	sg n
ei	ei	0		D	
  	ei	0		V	neg
ole	ole	0		V	o
tärminist	tärmin	st		S	sg el
maksnud	maks	nud		V	nud
       	maks=nu	d		S	pl n
       	maks=nud	0		A	
       	maks=nud	0		A	sg n
       	maks=nud	d		A	pl n
,	,			Z	
ja	ja	0		J	
kes	kes	0		P	pl n
   	kes	0		P	sg n
ei	ei	0		D	
  	ei	0		V	neg
ole	ole	0		V	o
rentinud	renti	nud		V	nud
        	renti=nu	d		S	pl n
        	renti=nud	0		A	
        	renti=nud	0		A	sg n
        	renti=nud	d		A	pl n
,	,			Z	
peab	pida	b		V	b
kohast	koht	st		S	sg el
      	koha	st		S	sg el
      	kohane	t		A	sg p
välja	välja	0		D	
     	välja	0		V	o
     	väli	0		S	adt
     	väli	0		S	sg g
     	väli	0		S	sg p
minema	mine	ma		V	ma
.	.			Z	
kohtu	kohtu	0		V	o
     	kohus	0		S	sg g
otsus	otsus	0		S	sg n
;	;			Z	
kui	kui	0		D	
   	kui	0		J	
kirjotaja	####				
Karel	####				
Vuks	####				
,	,			Z	
seda	see	da		P	sg p
Mäeotsa	mäe_ots	0		S	adt
       	mäe_ots	0		S	sg g
       	mäe_ots	0		S	sg p
kohta	koht	0		S	adt
     	kohta	0		K	
     	kohta	0		V	o
     	koht	0		S	sg p
mitte	mitte	0		D	
sel	see	l		P	sg ad
   	sel	0		Y	?
23.	23.	0		O	?
Aaprilil	####				
1882.	1882.	0		O	?
aastal	aasta	l		S	sg ad
oma	oma	0		A	sg g
   	oma	0		D	
   	oma	0		P	sg g
   	oma	0		S	sg g
   	oma	0		V	o
   	oma	0		A	sg n
   	oma	0		A	sg p
   	oma	0		P	sg n
   	oma	0		P	sg p
   	oma	0		S	sg n
   	oma	0		S	sg p
kätte	kätte	0		K	
     	käsi	tte		S	adt
ei	ei	0		D	
  	ei	0		V	neg
peaks	pea	ks		S	sg tr
     	pida	ks		V	ks
sama	sama	0		P	sg g
    	sama	0		P	sg n
    	sama	0		P	sg p
siis	siis	0		D	
    	siis	0		J	
maksab	maks	b		V	b
endine	endine	0		A	sg n
vallavanem	valla_vanem	0		S	sg n
Otto	Otto	0		H	sg g
    	Otto	0		H	sg n
Kangro	Kangro	0		H	sg g
      	Kangro	0		H	sg n
Karel	####				
Vuksile	####				
sada	sada	0		N	sg n
    	sada	0		N	sg p
kaheksakümend	####				
rubla	rubla	0		S	sg g
     	rubla	0		S	sg n
     	rubla	0		S	sg p
kahju	kahi	0		S	adt
     	kahi	0		S	sg g
     	kahi	0		S	sg p
     	kahju	0		S	sg g
     	kahju	0		S	sg n
     	kahju	0		S	sg p
tagasi	tagasi	0		D	
      	tagasi	0		K	
ära	ära	0		D	
   	ära	0		V	neg o
se	####				
on	ole	0		V	b
  	ole	0		V	vad
kahju	kahi	0		S	adt
     	kahi	0		S	sg g
     	kahi	0		S	sg p
     	kahju	0		S	sg g
     	kahju	0		S	sg n
     	kahju	0		S	sg p
tasumist	tasumine	t		S	sg p
.	.			Z	
Kohtukäiad	kohtu_käi	d		S	pl n
ei	ei	0		D	
  	ei	0		V	neg
olnud	ol=nud	0		A	
     	ol=nud	0		A	sg n
     	ol=nud	d		A	pl n
     	ole	nud		V	nud
     	olnu	d		S	pl n
kumbki	kumbki	0		P	sg n
rahul	rahu	l		S	sg ad
     	rahul	0		D	
,	,			Z	
sai	saa	i		V	s
   	sai	0		S	sg n
Aapelatsion	####				
lubatud	luba	tud		V	tud
       	luba=tu	d		S	pl n
       	lubatu	d		A	pl n
       	lubatud	0		A	
       	lubatud	0		A	sg n
       	lubatud	d		A	pl n
.	.			Z	
päe	####				
kohtomees	####				
Hendrek	####				
Horn	####				
kohtomees	####				
Josep	####				
Soieva	####				
kohtomees	####				
Tavet	####				
Villemson	####				
