Protokoll	protokoll	0		S	sg n
Aavvinurme	####				
Vallakohtus	valla_kohus	s		S	sg in
sel	see	l		P	sg ad
   	sel	0		Y	?
.	.			Z	
13	13	0		N	?
Märtsil	märts	l		S	sg ad
1889	1889	0		N	?
juures	juur	s		S	sg in
      	juures	0		D	
      	juures	0		K	
olid	ole	id		V	sid
eesistuja	ees_istuja	0		S	sg g
         	ees_istuja	0		S	sg n
Mihkel	Mihkel	0		H	sg n
      	mihkel	0		A	sg n
      	mihkel	0		S	sg n
Pihlak	####				
kohtumees	kohtu_mees	0		S	sg n
Aandres	####				
kalaus	####				
kohtumees	kohtu_mees	0		S	sg n
Josep	####				
Aambos	####				
Tuli	tuli	0		S	sg n
    	tule	i		V	s
ette	ette	0		D	
    	ette	0		K	
    	esi	tte		S	adt
Aavvinurme	####				
valla	vald	0		S	sg g
     	valla	0		D	
ja	ja	0		J	
Piilsiküla	####				
talukoha	talu_koht	0		S	sg g
omanik	omanik	0		S	sg n
Maddis	####				
Jagu	jagu	0		S	sg n
    	jagu	0		V	o
    	jagu	0		S	sg p
Jakobi	Jakob	0		H	sg g
poeg	poeg	0		S	sg n
ja	ja	0		J	
palus	palu	s		S	sg in
     	palu	s		V	s
Vallakohut	valla_kohus	t		S	sg p
et	et	0		J	
tema	tema	0		P	sg g
    	tema	0		P	sg n
tahab	taht	b		V	b
oma	oma	0		A	sg g
   	oma	0		D	
   	oma	0		P	sg g
   	oma	0		S	sg g
   	oma	0		V	o
   	oma	0		A	sg n
   	oma	0		A	sg p
   	oma	0		P	sg n
   	oma	0		P	sg p
   	oma	0		S	sg n
   	oma	0		S	sg p
.	.			Z	
oma	oma	0		A	sg g
   	oma	0		D	
   	oma	0		P	sg g
   	oma	0		S	sg g
   	oma	0		V	o
   	oma	0		A	sg n
   	oma	0		A	sg p
   	oma	0		P	sg n
   	oma	0		P	sg p
   	oma	0		S	sg n
   	oma	0		S	sg p
liikuva	liikuv	0		A	sg g
ja	ja	0		J	
liikumatta	####				
vara	vara	0		D	
    	vara	0		S	sg g
    	vara	0		S	sg n
    	vara	0		S	sg p
parimise	####				
pärast	pära	st		S	sg el
      	pärane	t		A	sg p
      	pärast	0		D	
      	pärast	0		K	
üks	üks	0		N	sg n
   	üks	0		P	sg n
testament	testament	0		S	sg n
ehk	ehk	0		D	
   	ehk	0		J	
pärimise	pärimine	0		S	sg g
lepping	####				
oma	oma	0		A	sg g
   	oma	0		D	
   	oma	0		P	sg g
   	oma	0		S	sg g
   	oma	0		V	o
   	oma	0		A	sg n
   	oma	0		A	sg p
   	oma	0		P	sg n
   	oma	0		P	sg p
   	oma	0		S	sg n
   	oma	0		S	sg p
laste	laps	te		S	pl g
     	last	e		S	pl p
vahel	vahe	l		S	sg ad
     	vahel	0		D	
     	vahel	0		K	
teha	tege	a		V	da
et	et	0		J	
kudaviisi	####				
tema	tema	0		P	sg g
    	tema	0		P	sg n
lapsed	laps	d		S	pl n
peale	pea	le		S	sg all
     	peale	0		D	
     	peale	0		K	
tema	tema	0		P	sg g
    	tema	0		P	sg n
surma	surm	0		S	adt
     	surm	0		S	sg g
     	surma	0		V	o
     	surm	0		S	sg p
tema	tema	0		P	sg g
    	tema	0		P	sg n
vara	vara	0		D	
    	vara	0		S	sg g
    	vara	0		S	sg n
    	vara	0		S	sg p
pärivad	päri	vad		V	vad
       	päri=v	d		A	pl n
.	.			Z	
Testament	testament	0		S	sg n
.	.			Z	
Mina	mina	0		P	sg n
    	mina	0		S	sg g
    	mina	0		S	sg n
    	mina	0		S	sg p
Maddis	####				
Jagu	jagu	0		S	sg n
    	jagu	0		V	o
    	jagu	0		S	sg p
Jakobi	Jakob	0		H	sg g
poeg	poeg	0		S	sg n
Piilsi	####				
küla	küla	0		S	sg g
    	küla	0		S	sg n
    	küla	0		S	sg p
N 86	N86	0		Y	?
talu	talu	0		S	sg g
    	talu	0		V	o
    	talu	0		S	sg n
    	talu	0		S	sg p
krundi	krunt	0		S	sg g
      	krunti	0		V	o
omanik	omanik	0		S	sg n
luban	luba	n		V	n
ja	ja	0		J	
tõutan	####				
et	et	0		J	
kui	kui	0		D	
   	kui	0		J	
Jumal	jumal	0		S	sg n
on	ole	0		V	b
  	ole	0		V	vad
mind	mina	d		P	sg p
siit	siit	0		D	
ilmast	ilm	st		S	sg el
ajalikku	ajalik	0		A	adt
        	ajalik	0		A	sg p
surma	surm	0		S	adt
     	surm	0		S	sg g
     	surma	0		V	o
     	surm	0		S	sg p
läbbi	####				
ära	ära	0		D	
   	ära	0		V	neg o
kutsunud	kutsu	nud		V	nud
        	kutsu=nu	d		S	pl n
        	kutsu=nud	0		A	
        	kutsu=nud	0		A	sg n
        	kutsu=nud	d		A	pl n
,	,			Z	
siis	siis	0		D	
    	siis	0		J	
pärid	päri	d		V	d
minu	mina	0		P	sg g
lapsed	laps	d		S	pl n
minu	mina	0		P	sg g
järel	järel	0		D	
     	järel	0		K	
jadad	jada	d		S	pl n
vara	vara	0		D	
    	vara	0		S	sg g
    	vara	0		S	sg n
    	vara	0		S	sg p
järgmisel	järgmine	l		A	sg ad
viisil	viis	l		S	sg ad
      	viisil	0		K	
1	1	0		N	?
)	)			Z	
kõik	kõik	0		P	pl n
    	kõik	0		S	sg n
    	kõik	0		P	sg n
minu	mina	0		P	sg g
liikuv	liiku	v		V	v
      	liikuv	0		A	sg n
ja	ja	0		J	
liikumatta	####				
vara	vara	0		D	
    	vara	0		S	sg g
    	vara	0		S	sg n
    	vara	0		S	sg p
pärib	päri	b		V	b
minu	mina	0		P	sg g
üksi	üksi	0		D	
lihane	lihane	0		A	sg n
poeg	poeg	0		S	sg n
Jakob	Jakob	0		H	sg n
Jagu	jagu	0		S	sg n
    	jagu	0		V	o
    	jagu	0		S	sg p
Madise	Madis	0		H	sg g
      	madis	0		S	sg g
poeg	poeg	0		S	sg n
ja	ja	0		J	
jäeb	####				
se	####				
veikene	####				
krund	####				
mis	mis	0		P	pl n
   	mis	0		P	sg n
mina	mina	0		P	sg n
    	mina	0		S	sg g
    	mina	0		S	sg n
    	mina	0		S	sg p
oma	oma	0		A	sg g
   	oma	0		D	
   	oma	0		P	sg g
   	oma	0		S	sg g
   	oma	0		V	o
   	oma	0		A	sg n
   	oma	0		A	sg p
   	oma	0		P	sg n
   	oma	0		P	sg p
   	oma	0		S	sg n
   	oma	0		S	sg p
tüttre	####				
Lenale	####				
oma	oma	0		A	sg g
   	oma	0		D	
   	oma	0		P	sg g
   	oma	0		S	sg g
   	oma	0		V	o
   	oma	0		A	sg n
   	oma	0		A	sg p
   	oma	0		P	sg n
   	oma	0		P	sg p
   	oma	0		S	sg n
   	oma	0		S	sg p
krundi	krunt	0		S	sg g
      	krunti	0		V	o
küllest	####				
olen	ole	n		V	n
andnud	and	nud		V	nud
      	and=nu	d		S	pl n
      	and=nud	0		A	
      	and=nud	0		A	sg n
      	and=nud	d		A	pl n
viis	vii	s		V	s
    	viis	0		N	sg n
    	viis	0		S	sg n
vakkamaad	####				
suur	suur	0		A	sg n
.	.			Z	
temale	tema	le		P	sg all
igaveseks	igavene	ks		A	sg tr
         	igaveseks	0		D	
päranduseks	pärandus	ks		S	sg tr
ja	ja	0		J	
ei	ei	0		D	
  	ei	0		V	neg
voi	####				
minu	mina	0		P	sg g
poeg	poeg	0		S	sg n
Jakob	Jakob	0		H	sg n
se	####				
maatük	####				
mis	mis	0		P	pl n
   	mis	0		P	sg n
mina	mina	0		P	sg n
    	mina	0		S	sg g
    	mina	0		S	sg n
    	mina	0		S	sg p
tüttre	####				
Lenale	####				
andnud	and	nud		V	nud
      	and=nu	d		S	pl n
      	and=nud	0		A	
      	and=nud	0		A	sg n
      	and=nud	d		A	pl n
tema	tema	0		P	sg g
    	tema	0		P	sg n
käest	käest	0		K	
     	käsi	st		S	sg el
ära	ära	0		D	
   	ära	0		V	neg o
võtta	võt	a		V	da
,	,			Z	
liikuvast	liikuv	st		A	sg el
varandusest	varandus	st		S	sg el
peab	pida	b		V	b
minu	mina	0		P	sg g
poeg	poeg	0		S	sg n
oma	oma	0		A	sg g
   	oma	0		D	
   	oma	0		P	sg g
   	oma	0		S	sg g
   	oma	0		V	o
   	oma	0		A	sg n
   	oma	0		A	sg p
   	oma	0		P	sg n
   	oma	0		P	sg p
   	oma	0		S	sg n
   	oma	0		S	sg p
sosara	####				
Lenale	####				
veel	veel	0		D	
    	vesi	l		S	sg ad
üks	üks	0		N	sg n
   	üks	0		P	sg n
noor	noor	0		A	sg n
    	noor	0		S	sg n
õhv	õhv	0		S	sg n
andma	and	ma		V	ma
,	,			Z	
kui	kui	0		D	
   	kui	0		J	
mina	mina	0		P	sg n
    	mina	0		S	sg g
    	mina	0		S	sg n
    	mina	0		S	sg p
ei	ei	0		D	
  	ei	0		V	neg
ole	ole	0		V	o
seda	see	da		P	sg p
juba	juba	0		D	
oma	oma	0		A	sg g
   	oma	0		D	
   	oma	0		P	sg g
   	oma	0		S	sg g
   	oma	0		V	o
   	oma	0		A	sg n
   	oma	0		A	sg p
   	oma	0		P	sg n
   	oma	0		P	sg p
   	oma	0		S	sg n
   	oma	0		S	sg p
elu	elu	0		S	sg g
   	elu	0		S	sg n
   	elu	0		S	sg p
ajal	aeg	l		S	sg ad
    	ajal	0		K	
temale	tema	le		P	sg all
kätte	kätte	0		K	
     	käsi	tte		S	adt
andnud	and	nud		V	nud
      	and=nu	d		S	pl n
      	and=nud	0		A	
      	and=nud	0		A	sg n
      	and=nud	d		A	pl n
.	.			Z	
ja	ja	0		J	
ei	ei	0		D	
  	ei	0		V	neg
ole	ole	0		V	o
minu	mina	0		P	sg g
tüttre	####				
Lenal	####				
minu	mina	0		P	sg g
varandusest	varandus	st		S	sg el
enamb	####				
jagu	jagu	0		S	sg n
    	jagu	0		V	o
    	jagu	0		S	sg p
saada	saa	da		V	da
     	saat	0		V	o
     	saa	da		V	ta
sest	see	st		P	sg el
    	sest	0		J	
et	et	0		J	
tema	tema	0		P	sg g
    	tema	0		P	sg n
mehele	mees	le		S	sg all
minnes	mine	es		V	des
on	ole	0		V	b
  	ole	0		V	vad
oma	oma	0		A	sg g
   	oma	0		D	
   	oma	0		P	sg g
   	oma	0		S	sg g
   	oma	0		V	o
   	oma	0		A	sg n
   	oma	0		A	sg p
   	oma	0		P	sg n
   	oma	0		P	sg p
   	oma	0		S	sg n
   	oma	0		S	sg p
jagu	jagu	0		S	sg n
    	jagu	0		V	o
    	jagu	0		S	sg p
kätte	kätte	0		K	
     	käsi	tte		S	adt
saanud	saa	nud		V	nud
      	saa=nud	0		A	
      	saa=nud	0		A	sg n
      	saa=nud	d		A	pl n
      	saanu	d		S	pl n
2	2	0		N	?
)	)			Z	
.	.			Z	
Mina	mina	0		P	sg n
    	mina	0		S	sg g
    	mina	0		S	sg n
    	mina	0		S	sg p
olen	ole	n		V	n
oma	oma	0		A	sg g
   	oma	0		D	
   	oma	0		P	sg g
   	oma	0		S	sg g
   	oma	0		V	o
   	oma	0		A	sg n
   	oma	0		A	sg p
   	oma	0		P	sg n
   	oma	0		P	sg p
   	oma	0		S	sg n
   	oma	0		S	sg p
minia	minia	0		S	sg g
     	minia	0		S	sg n
Liisa	Liisa	0		H	sg g
     	Liisa	0		H	sg n
Jagu	jagu	0		S	sg n
    	jagu	0		V	o
    	jagu	0		S	sg p
käest	käest	0		K	
     	käsi	st		S	sg el
68	68	0		N	?
rubla	rubla	0		S	sg g
     	rubla	0		S	sg n
     	rubla	0		S	sg p
raha	raha	0		S	sg g
    	raha	0		S	sg n
    	raha	0		S	sg p
laenanud	laena	nud		V	nud
        	laena=nu	d		S	pl n
        	laena=nud	0		A	
        	laena=nud	0		A	sg n
        	laena=nud	d		A	pl n
talu	talu	0		S	sg g
    	talu	0		V	o
    	talu	0		S	sg n
    	talu	0		S	sg p
ulespidamiseks	####				
,	,			Z	
kui	kui	0		D	
   	kui	0		J	
mina	mina	0		P	sg n
    	mina	0		S	sg g
    	mina	0		S	sg n
    	mina	0		S	sg p
ei	ei	0		D	
  	ei	0		V	neg
ole	ole	0		V	o
se	####				
võlg	võlg	0		S	sg n
oma	oma	0		A	sg g
   	oma	0		D	
   	oma	0		P	sg g
   	oma	0		S	sg g
   	oma	0		V	o
   	oma	0		A	sg n
   	oma	0		A	sg p
   	oma	0		P	sg n
   	oma	0		P	sg p
   	oma	0		S	sg n
   	oma	0		S	sg p
elu	elu	0		S	sg g
   	elu	0		S	sg n
   	elu	0		S	sg p
ajal	aeg	l		S	sg ad
    	ajal	0		K	
oma	oma	0		A	sg g
   	oma	0		D	
   	oma	0		P	sg g
   	oma	0		S	sg g
   	oma	0		V	o
   	oma	0		A	sg n
   	oma	0		A	sg p
   	oma	0		P	sg n
   	oma	0		P	sg p
   	oma	0		S	sg n
   	oma	0		S	sg p
miniale	minia	le		S	sg all
ära	ära	0		D	
   	ära	0		V	neg o
maksnud	maks	nud		V	nud
       	maks=nu	d		S	pl n
       	maks=nud	0		A	
       	maks=nud	0		A	sg n
       	maks=nud	d		A	pl n
.	.			Z	
siis	siis	0		D	
    	siis	0		J	
peab	pida	b		V	b
se	####				
võlg	võlg	0		S	sg n
peale	pea	le		S	sg all
     	peale	0		D	
     	peale	0		K	
minu	mina	0		P	sg g
surma	surm	0		S	adt
     	surm	0		S	sg g
     	surma	0		V	o
     	surm	0		S	sg p
minu	mina	0		P	sg g
liikuvast	liikuv	st		A	sg el
varandusest	varandus	st		S	sg el
ära	ära	0		D	
   	ära	0		V	neg o
maksetud	makse=tu	d		A	pl n
saama	saa	ma		V	ma
     	saam	0		S	adt
     	saam	0		S	sg g
     	saam	0		S	sg p
;	;			Z	
ja	ja	0		J	
peab	pida	b		V	b
minu	mina	0		P	sg g
poeg	poeg	0		S	sg n
minu	mina	0		P	sg g
minu	mina	0		P	sg g
Naist	naine	t		S	sg p
ja	ja	0		J	
oma	oma	0		A	sg g
   	oma	0		D	
   	oma	0		P	sg g
   	oma	0		S	sg g
   	oma	0		V	o
   	oma	0		A	sg n
   	oma	0		A	sg p
   	oma	0		P	sg n
   	oma	0		P	sg p
   	oma	0		S	sg n
   	oma	0		S	sg p
emada	####				
Aan	####				
Jaguda	jagu	da		V	da
ausaste	aus_aste	0		S	sg g
       	aus_aste	0		S	sg n
toitma	toit	ma		V	ma
kui	kui	0		D	
   	kui	0		J	
se	####				
peale	pea	le		S	sg all
     	peale	0		D	
     	peale	0		K	
minu	mina	0		P	sg g
elama	ela	ma		V	ma
jäeb	####				
.	.			Z	
Viimaks	vii	maks		V	maks
       	viimaks	0		D	
palun	palu	n		V	n
mina	mina	0		P	sg n
    	mina	0		S	sg g
    	mina	0		S	sg n
    	mina	0		S	sg p
kõiki	kõik	0		P	pl p
kohtusid	kohtu	sid		V	sid
ja	ja	0		J	
kohtu	kohtu	0		V	o
     	kohus	0		S	sg g
ametnikkusid	ametnik	sid		S	pl p
seda	see	da		P	sg p
minu	mina	0		P	sg g
testament	testament	0		S	sg n
keda	kes	da		P	pl p
    	kes	da		P	sg p
mina	mina	0		P	sg n
    	mina	0		S	sg g
    	mina	0		S	sg n
    	mina	0		S	sg p
olen	ole	n		V	n
oma	oma	0		A	sg g
   	oma	0		D	
   	oma	0		P	sg g
   	oma	0		S	sg g
   	oma	0		V	o
   	oma	0		A	sg n
   	oma	0		A	sg p
   	oma	0		P	sg n
   	oma	0		P	sg p
   	oma	0		S	sg n
   	oma	0		S	sg p
parema	parem	0		C	sg g
sudame	####				
tundmise	tundmine	0		S	sg g
ja	ja	0		J	
teadmise	teadmine	0		S	sg g
ning	ning	0		J	
selge	selge	0		A	sg g
     	selge	0		A	sg n
meele	meel	0		S	sg g
     	mesi	le		S	sg all
mõistuse	mõistus	0		S	sg g
juures	juur	s		S	sg in
      	juures	0		D	
      	juures	0		K	
tehnud	####				
selle	see	0		P	sg g
     	sell	e		S	pl p
jõuu	####				
juures	juur	s		S	sg in
      	juures	0		D	
      	juures	0		K	
hoida	hoid	a		V	da
kuda	####				
viisi	viis	0		S	adt
     	viis	0		S	sg g
     	viis	i		N	pl p
     	viisi	0		K	
     	viis	0		S	sg p
mina	mina	0		P	sg n
    	mina	0		S	sg g
    	mina	0		S	sg n
    	mina	0		S	sg p
olen	ole	n		V	n
üleskirjutada	####				
lasknud	lask	nud		V	nud
       	lask=nu	d		S	pl n
       	lask=nud	0		A	
       	lask=nud	0		A	sg n
       	lask=nud	d		A	pl n
ja	ja	0		J	
et	et	0		J	
se	####				
muutmatta	####				
jäeb	####				
.	.			Z	
Maddis	####				
Jagu	jagu	0		S	sg n
    	jagu	0		V	o
    	jagu	0		S	sg p
ei	ei	0		D	
  	ei	0		V	neg
moista	####				
kirjutada	kirjuta	da		V	da
tema	tema	0		P	sg g
    	tema	0		P	sg n
palve	palve	0		S	sg g
     	palve	0		S	sg n
peale	pea	le		S	sg all
     	peale	0		D	
     	peale	0		K	
kirjutas	kirjuta	s		V	s
alla	alla	0		D	
    	alla	0		K	
.	.			Z	
Joosep	Joosep	0		H	sg n
Lodu	lodu	0		S	sg g
    	lodu	0		S	sg n
    	lodu	0		S	sg p
(	(			Z	
allkiri	all_kiri	0		S	sg n
)	)			Z	
Maddis	####				
Jagu	jagu	0		S	sg n
    	jagu	0		V	o
    	jagu	0		S	sg p
poeg	poeg	0		S	sg n
ei	ei	0		D	
  	ei	0		V	neg
taha	taht	0		V	o
    	taha	0		D	
    	taha	0		K	
allakirjutada	####				
Lena	####				
Pommi	pomm	0		S	adt
     	pomm	0		S	sg g
     	pommi	0		D	
     	pommi	0		V	o
     	pomm	0		S	sg p
eest	eest	0		D	
    	eest	0		K	
    	esi	st		S	sg el
tema	tema	0		P	sg g
    	tema	0		P	sg n
mees	mees	0		S	sg n
    	mesi	s		S	sg in
.	.			Z	
Madis	Madis	0		H	sg n
     	madis	0		S	sg n
Poom	poom	0		S	sg n
(	(			Z	
allkiri	all_kiri	0		S	sg n
)	)			Z	
Otsus	otsus	0		S	sg n
Valla	vald	0		S	sg g
     	valla	0		D	
kohus	kohu	s		V	s
     	kohus	0		S	sg n
on	ole	0		V	b
  	ole	0		V	vad
Maddis	####				
Jagu	jagu	0		S	sg n
    	jagu	0		V	o
    	jagu	0		S	sg p
suusana	suusk	na		S	sg es
testament	testament	0		S	sg n
Protokoli	####				
üles	üles	0		D	
kirjutanud	kirjuta	nud		V	nud
          	kirjutanu	d		S	pl n
          	kirjutanud	0		A	
          	kirjutanud	0		A	sg n
          	kirjutanud	d		A	pl n
.	.			Z	
et	et	0		J	
se	####				
peale	pea	le		S	sg all
     	peale	0		D	
     	peale	0		K	
tema	tema	0		P	sg g
    	tema	0		P	sg n
surma	surm	0		S	adt
     	surm	0		S	sg g
     	surma	0		V	o
     	surm	0		S	sg p
saab	saa	b		V	b
tema	tema	0		P	sg g
    	tema	0		P	sg n
pärijatele	pärija	tele		S	pl all
ette	ette	0		D	
    	ette	0		K	
    	esi	tte		S	adt
loetud	loetu	d		S	pl n
      	loetud	0		A	
      	loetud	0		A	sg n
      	loetud	d		A	pl n
      	luge	tud		V	tud
ja	ja	0		J	
teada	tead	a		V	da
antud	an=tu	d		S	pl n
     	and	tud		V	tud
     	antud	0		A	
     	antud	0		A	sg n
     	antud	d		A	pl n
.	.			Z	
M. Pihlak	####				
.	.			Z	
(	(			Z	
allkiri	all_kiri	0		S	sg n
)	)			Z	
A	A	0		Y	?
.	.			Z	
_	_			Z	
kalaus	####				
.	.			Z	
(	(			Z	
allkiri	all_kiri	0		S	sg n
)	)			Z	
J. Aambus	####				
(	(			Z	
allkiri	all_kiri	0		S	sg n
)	)			Z	
Kirjutaja	kirjutaja	0		S	sg g
         	kirjutaja	0		S	sg n
Schulbach	####				
(	(			Z	
allkiri	all_kiri	0		S	sg n
)	)			Z	
