Haslava	####				
kogukonna	kogukond	0		S	sg g
kohus	kohu	s		V	s
     	kohus	0		S	sg n
sel	see	l		P	sg ad
   	sel	0		Y	?
29	29	0		N	?
juulil	juuli	l		S	sg ad
1885	1885	0		N	?
man	man	0		D	
   	man	0		K	
olid	ole	id		V	sid
:	:			Z	
peakohtumees	pea_kohtu_mees	0		S	sg n
:	:			Z	
Jaan	Jaan	0		H	sg n
    	jaan	0		S	sg n
    	jaan	0		Y	?
Ling	ling	0		S	sg n
kohtumees	kohtu_mees	0		S	sg n
:	:			Z	
Johan	Johan	0		H	sg n
Klausin	####				
""""	""""			Z	
Peeter	Peeter	0		H	sg n
Ivan	Ivan	0		H	sg n
tulivad	####				
ette	ette	0		D	
    	ette	0		K	
    	esi	tte		S	adt
Ropka	####				
kogukonna	kogukond	0		S	sg g
saadiku	saadik	0		S	sg g
Hans	Hans	0		H	sg n
Laus	laug	s		S	sg in
ja	ja	0		J	
Annus	annus	0		S	sg n
Lukas	Lukas	0		H	sg n
,	,			Z	
kes	kes	0		P	pl n
   	kes	0		P	sg n
,	,			Z	
peale	pea	le		S	sg all
     	peale	0		D	
     	peale	0		K	
selle	see	0		P	sg g
     	sell	e		S	pl p
kui	kui	0		D	
   	kui	0		J	
nemad	tema	d		P	pl n
oma	oma	0		A	sg g
   	oma	0		D	
   	oma	0		P	sg g
   	oma	0		S	sg g
   	oma	0		V	o
   	oma	0		A	sg n
   	oma	0		A	sg p
   	oma	0		P	sg n
   	oma	0		P	sg p
   	oma	0		S	sg n
   	oma	0		S	sg p
vöölmachti	####				
sest	see	st		P	sg el
    	sest	0		J	
23	23	0		N	?
Januarist	####				
1879	1879	0		N	?
astust	####				
ette	ette	0		D	
    	ette	0		K	
    	esi	tte		S	adt
olid	ole	id		V	sid
näidanud	näita	nud		V	nud
        	näida=nu	d		S	pl n
        	näida=nud	0		A	
        	näida=nud	0		A	sg n
        	näida=nud	d		A	pl n
,	,			Z	
selle	see	0		P	sg g
     	sell	e		S	pl p
esitse	####				
Ropka	####				
vallavanema	valla_vanem	0		S	sg g
praeguse	praegune	0		A	sg g
Iljamõisa	####				
rentniku	rentnik	0		S	sg g
Johan	Johan	0		H	sg n
jänese	jänes	0		S	sg g
vastu	vastu	0		D	
     	vastu	0		K	
järelseisva	järel_seisev	0		A	sg g
nõudmise	nõudmine	0		S	sg g
kaebuse	kaebus	0		S	sg g
tõstsid	tõst	sid		V	sid
:	:			Z	
see	see	0		P	sg n
Johan	Johan	0		H	sg n
Jänes	jänes	0		S	sg n
olevat	ole	vat		V	vat
      	olev	t		A	sg p
      	olev	t		S	sg p
oma	oma	0		A	sg g
   	oma	0		D	
   	oma	0		P	sg g
   	oma	0		S	sg g
   	oma	0		V	o
   	oma	0		A	sg n
   	oma	0		A	sg p
   	oma	0		P	sg n
   	oma	0		P	sg p
   	oma	0		S	sg n
   	oma	0		S	sg p
vallavanema	valla_vanem	0		S	sg g
ameti	amet	0		S	sg g
pidamise	pidamine	0		S	sg g
ajal	aeg	l		S	sg ad
    	ajal	0		K	
Ropkan	####				
järelseisva	järel_seisev	0		A	sg g
kogukonna	kogukond	0		S	sg g
raha	raha	0		S	sg g
    	raha	0		S	sg n
    	raha	0		S	sg p
summat	summa	t		S	sg p
oma	oma	0		A	sg g
   	oma	0		D	
   	oma	0		P	sg g
   	oma	0		S	sg g
   	oma	0		V	o
   	oma	0		A	sg n
   	oma	0		A	sg p
   	oma	0		P	sg n
   	oma	0		P	sg p
   	oma	0		S	sg n
   	oma	0		S	sg p
tarvituse	tarvitus	0		S	sg g
peale	pea	le		S	sg all
     	peale	0		D	
     	peale	0		K	
ära	ära	0		D	
   	ära	0		V	neg o
pruukinud	pruuki	nud		V	nud
         	pruuki=nu	d		S	pl n
         	pruuki=nud	0		A	
         	pruuki=nud	0		A	sg n
         	pruuki=nud	d		A	pl n
ja	ja	0		J	
neid	neid	0		S	sg n
    	see	d		P	pl p
    	tema	d		P	pl p
veel	veel	0		D	
    	vesi	l		S	sg ad
seni	seni	0		D	
ajani	aeg	ni		S	sg ter
mitte	mitte	0		D	
Ropka	####				
kogukonnale	kogukond	le		S	sg all
tagasi	tagasi	0		D	
      	tagasi	0		K	
maksnud	maks	nud		V	nud
       	maks=nu	d		S	pl n
       	maks=nud	0		A	
       	maks=nud	0		A	sg n
       	maks=nud	d		A	pl n
,	,			Z	
nii	nii	0		D	
kui	kui	0		D	
   	kui	0		J	
tema	tema	0		P	sg g
    	tema	0		P	sg n
keiserliku	keiserlik	0		A	sg g
teise	teine	0		O	adt
     	teine	0		O	sg g
     	teine	0		P	adt
     	teine	0		P	sg g
Tartu	Tartu	0		H	adt
     	Tartu	0		H	sg g
     	Tartu	0		H	sg n
     	tartu	0		G	
Kihelkonna	Kihelkonna	0		H	sg g
          	kihelkond	0		S	sg g
          	Kihelkonna	0		H	sg n
kohtu	kohtu	0		V	o
     	kohus	0		S	sg g
ees	ees	0		D	
   	ees	0		K	
   	esi	s		S	sg in
seda	see	da		P	sg p
on	ole	0		V	b
  	ole	0		V	vad
lubanud	luba	nud		V	nud
       	luba=nu	d		S	pl n
       	luba=nud	0		A	
       	luba=nud	0		A	sg n
       	luba=nud	d		A	pl n
,	,			Z	
mis	mis	0		P	pl n
   	mis	0		P	sg n
Ahin	ahki	n		V	n
seisab	seis	b		V	b
,	,			Z	
sest	see	st		P	sg el
    	sest	0		J	
see	see	0		P	sg n
asi	asi	0		S	sg n
   	asi	0		V	o
on	ole	0		V	b
  	ole	0		V	vad
keiserliku	keiserlik	0		A	sg g
teise	teine	0		O	adt
     	teine	0		O	sg g
     	teine	0		P	adt
     	teine	0		P	sg g
Tartu	Tartu	0		H	adt
     	Tartu	0		H	sg g
     	Tartu	0		H	sg n
     	tartu	0		G	
Kihelkonna	Kihelkonna	0		H	sg g
          	kihelkond	0		S	sg g
          	Kihelkonna	0		H	sg n
kohtu	kohtu	0		V	o
     	kohus	0		S	sg g
,	,			Z	
keiserliku	keiserlik	0		A	sg g
Tartu	Tartu	0		H	adt
     	Tartu	0		H	sg g
     	Tartu	0		H	sg n
     	tartu	0		G	
Landrade	####				
kohtu	kohtu	0		V	o
     	kohus	0		S	sg g
ja	ja	0		J	
keiserliku	keiserlik	0		A	sg g
Tartu	Tartu	0		H	adt
     	Tartu	0		H	sg g
     	Tartu	0		H	sg n
     	tartu	0		G	
Kreiskohtu	kreis_kohus	0		S	sg g
läbi	läbi	0		D	
    	läbi	0		K	
    	läbi	0		V	o
ära	ära	0		D	
   	ära	0		V	neg o
seletado	####				
ja	ja	0		J	
järelseisva	järel_seisev	0		A	sg g
puuduset	####				
leitud	leid	tud		V	tud
      	leitu	d		S	pl n
      	leitud	0		A	
      	leitud	0		A	sg n
      	leitud	d		A	pl n
.	.			Z	
kaebaja	kaebaja	0		S	sg g
       	kaebaja	0		S	sg n
palusivad	####				
Johan	Johan	0		H	sg n
Jänest	jänes	t		S	sg p
neid	neid	0		S	sg n
    	see	d		P	pl p
    	tema	d		P	pl p
puuduvat	puudu	vat		V	vat
        	puuduv	t		A	sg p
summat	summa	t		S	sg p
maksma	maks	ma		V	ma
sundi	sund	0		S	adt
     	sund	0		S	sg p
ja	ja	0		J	
nimelt	nimelt	0		D	
      	nimi	lt		S	sg abl
:	:			Z	
1.	1.	0		O	?
on	ole	0		V	b
  	ole	0		V	vad
Johan	Johan	0		H	sg n
Jänes	jänes	0		S	sg n
1876	1876	0		N	?
,	,			Z	
1877	1877	0		N	?
,	,			Z	
1878	1878	0		N	?
astu	astu	0		V	o
jooksul	jooks	l		S	sg ad
       	jooksul	0		K	
Ropka	####				
kohtumaja	kohtu_maja	0		S	sg g
         	kohtu_maja	0		S	sg n
         	kohtu_maja	0		S	sg p
ehituse	ehitus	0		S	sg g
tarvis	tarvis	0		D	
      	tarvis	0		K	
rohkem	rohkem	0		D	
välja	välja	0		D	
     	välja	0		V	o
     	väli	0		S	adt
     	väli	0		S	sg g
     	väli	0		S	sg p
kirjutanud	kirjuta	nud		V	nud
          	kirjutanu	d		S	pl n
          	kirjutanud	0		A	
          	kirjutanud	0		A	sg n
          	kirjutanud	d		A	pl n
kui	kui	0		D	
   	kui	0		J	
see	see	0		P	sg n
ehitud	ehti	tud		V	tud
      	ehi=tu	d		S	pl n
      	ehitu	d		V	d
      	ehitud	0		A	
      	ehitud	0		A	sg n
      	ehitud	d		A	pl n
maksnud	maks	nud		V	nud
       	maks=nu	d		S	pl n
       	maks=nud	0		A	
       	maks=nud	0		A	sg n
       	maks=nud	d		A	pl n
:	:			Z	
pearaha	pea_raha	0		S	sg g
       	pea_raha	0		S	sg n
       	pea_raha	0		S	sg p
kasast	####				
852	852	0		N	?
rubl	####				
5	5	0		N	?
kop	kop	0		Y	?
magatsi	####				
vilja	vili	0		S	adt
     	vili	0		S	sg g
     	vili	0		S	sg p
rahast	raha	st		S	sg el
100	100	0		N	?
rubl	####				
kelle	kes	0		P	pl g
     	kes	0		P	sg g
õigust	õigus	t		S	sg p
pearaha	pea_raha	0		S	sg g
       	pea_raha	0		S	sg n
       	pea_raha	0		S	sg p
,	,			Z	
magatsi	####				
vilja	vili	0		S	adt
     	vili	0		S	sg g
     	vili	0		S	sg p
raha	raha	0		S	sg g
    	raha	0		S	sg n
    	raha	0		S	sg p
ja	ja	0		J	
nõumeste	nõu_mest	e		S	pl p
protokolli	protokoll	0		S	adt
          	protokoll	0		S	sg g
          	protokolli	0		V	o
          	protokoll	0		S	sg p
nöri	####				
raamatu	raamat	0		S	sg g
välja	välja	0		D	
     	välja	0		V	o
     	väli	0		S	adt
     	väli	0		S	sg g
     	väli	0		S	sg p
näitavad	näita	vad		V	vad
        	näitav	d		A	pl n
.	.			Z	
2.	2.	0		O	?
on	ole	0		V	b
  	ole	0		V	vad
Johan	Johan	0		H	sg n
Jänes	jänes	0		S	sg n
kogukonna	kogukond	0		S	sg g
vaestele	vaene	tele		A	pl all
        	vaene	tele		S	pl all
abi	abi	0		S	sg g
   	abi	0		S	sg n
   	abi	0		S	sg p
andmise	andmine	0		S	sg g
juures	juur	s		S	sg in
      	juures	0		D	
      	juures	0		K	
taubeld	####				
välja	välja	0		D	
     	välja	0		V	o
     	väli	0		S	adt
     	väli	0		S	sg g
     	väli	0		S	sg p
kirjutanud	kirjuta	nud		V	nud
          	kirjutanu	d		S	pl n
          	kirjutanud	0		A	
          	kirjutanud	0		A	sg n
          	kirjutanud	d		A	pl n
see	see	0		P	sg n
on	ole	0		V	b
  	ole	0		V	vad
vaeste	vaene	te		A	pl g
      	vaene	te		S	pl g
kasast	####				
ja	ja	0		J	
pearaha	pea_raha	0		S	sg g
       	pea_raha	0		S	sg n
       	pea_raha	0		S	sg p
kasast	####				
,	,			Z	
mis	mis	0		P	pl n
   	mis	0		P	sg n
läbi	läbi	0		D	
    	läbi	0		K	
    	läbi	0		V	o
tema	tema	0		P	sg g
    	tema	0		P	sg n
kasuks	kasu	ks		S	sg tr
on	ole	0		V	b
  	ole	0		V	vad
jäänud	jää	nud		V	nud
      	jäänu	d		S	pl n
      	jäänud	0		A	
      	jäänud	0		A	sg n
      	jäänud	d		A	pl n
75	75	0		N	?
rubl	####				
nii	nii	0		D	
kui	kui	0		D	
   	kui	0		J	
ka	ka	0		D	
nöri	####				
raamatu	raamat	0		S	sg g
selle	see	0		P	sg g
     	sell	e		S	pl p
üle	üle	0		D	
   	üle	0		K	
välja	välja	0		D	
     	välja	0		V	o
     	väli	0		S	adt
     	väli	0		S	sg g
     	väli	0		S	sg p
näitavad	näita	vad		V	vad
        	näitav	d		A	pl n
.	.			Z	
3.	3.	0		O	?
magatsi	####				
õled	õlg	d		S	pl n
katuse	katus	0		S	sg g
eest	eest	0		D	
    	eest	0		K	
    	esi	st		S	sg el
on	ole	0		V	b
  	ole	0		V	vad
Johan	Johan	0		H	sg n
Jänes	jänes	0		S	sg n
oma	oma	0		A	sg g
   	oma	0		D	
   	oma	0		P	sg g
   	oma	0		S	sg g
   	oma	0		V	o
   	oma	0		A	sg n
   	oma	0		A	sg p
   	oma	0		P	sg n
   	oma	0		P	sg p
   	oma	0		S	sg n
   	oma	0		S	sg p
kätte	kätte	0		K	
     	käsi	tte		S	adt
saanud	saa	nud		V	nud
      	saa=nud	0		A	
      	saa=nud	0		A	sg n
      	saa=nud	d		A	pl n
      	saanu	d		S	pl n
25	25	0		N	?
rubl	####				
ja	ja	0		J	
ei	ei	0		D	
  	ei	0		V	neg
ole	ole	0		V	o
seda	see	da		P	sg p
raha	raha	0		S	sg g
    	raha	0		S	sg n
    	raha	0		S	sg p
mitte	mitte	0		D	
kogukonnale	kogukond	le		S	sg all
tagasi	tagasi	0		D	
      	tagasi	0		K	
annud	####				
.	.			Z	
4.	4.	0		O	?
Ühte	ühte	0		D	
    	üks	0		N	adt
    	üks	0		P	adt
    	ühe	0		S	sg g
    	üks	0		N	sg p
    	üks	0		P	sg p
vakka	vakk	0		S	adt
     	vakk	0		S	sg p
     	vakka	0		D	
eest	eest	0		D	
    	eest	0		K	
    	esi	st		S	sg el
on	ole	0		V	b
  	ole	0		V	vad
Johan	Johan	0		H	sg n
Jänes	jänes	0		S	sg n
saanud	saa	nud		V	nud
      	saa=nud	0		A	
      	saa=nud	0		A	sg n
      	saa=nud	d		A	pl n
      	saanu	d		S	pl n
3	3	0		N	?
rubl	####				
5.	5.	0		O	?
on	ole	0		V	b
  	ole	0		V	vad
Johan	Johan	0		H	sg n
Jänes	jänes	0		S	sg n
nöri	####				
raamatu	raamat	0		S	sg g
vähem	vähem	0		C	sg n
     	vähem	0		D	
sisse	siss	e		S	pl p
     	sisse	0		D	
     	sisse	0		K	
kirjutanud	kirjuta	nud		V	nud
          	kirjutanu	d		S	pl n
          	kirjutanud	0		A	
          	kirjutanud	0		A	sg n
          	kirjutanud	d		A	pl n
kui	kui	0		D	
   	kui	0		J	
tema	tema	0		P	sg g
    	tema	0		P	sg n
Kihelkonna	Kihelkonna	0		H	sg g
          	kihelkond	0		S	sg g
          	Kihelkonna	0		H	sg n
kohtust	kohtune	t		A	sg p
       	kohus	st		S	sg el
saanud	saa	nud		V	nud
      	saa=nud	0		A	
      	saa=nud	0		A	sg n
      	saa=nud	d		A	pl n
      	saanu	d		S	pl n
on	ole	0		V	b
  	ole	0		V	vad
.	.			Z	
71	71	0		N	?
kop	kop	0		Y	?
6.	6.	0		O	?
on	ole	0		V	b
  	ole	0		V	vad
Johan	Johan	0		H	sg n
Jänes	jänes	0		S	sg n
pearaha	pea_raha	0		S	sg g
       	pea_raha	0		S	sg n
       	pea_raha	0		S	sg p
vasta	vasta	0		V	o
võtnud	võt	nud		V	nud
      	võt=nu	d		S	pl n
      	võt=nud	0		A	
      	võt=nud	0		A	sg n
      	võt=nud	d		A	pl n
ent	ent	0		J	
neid	neid	0		S	sg n
    	see	d		P	pl p
    	tema	d		P	pl p
mitte	mitte	0		D	
sisse	siss	e		S	pl p
     	sisse	0		D	
     	sisse	0		K	
tullegi	tull	e	gi	S	pl p
       	tuli	0	gi	S	adt
summa	summ	0		S	adt
     	summ	0		S	sg g
     	summ	0		S	sg p
     	summa	0		S	sg g
     	summa	0		S	sg n
sisse	siss	e		S	pl p
     	sisse	0		D	
     	sisse	0		K	
kirjutanud	kirjuta	nud		V	nud
          	kirjutanu	d		S	pl n
          	kirjutanud	0		A	
          	kirjutanud	0		A	sg n
          	kirjutanud	d		A	pl n
nii	nii	0		D	
kui	kui	0		D	
   	kui	0		J	
pearaha	pea_raha	0		S	sg g
       	pea_raha	0		S	sg n
       	pea_raha	0		S	sg p
raamat	raamat	0		S	sg n
seda	see	da		P	sg p
välja	välja	0		D	
     	välja	0		V	o
     	väli	0		S	adt
     	väli	0		S	sg g
     	väli	0		S	sg p
näitab	näita	b		V	b
7.	7.	0		O	?
on	ole	0		V	b
  	ole	0		V	vad
1874	1874	0		N	?
/	/			Z	
85	85	0		N	?
aastal	aasta	l		S	sg ad
kinnitatud	kinnita	tud		V	tud
          	kinnita=tu	d		S	pl n
          	kinnita=tud	0		A	
          	kinnita=tud	0		A	sg n
          	kinnita=tud	d		A	pl n
pearaha	pea_raha	0		S	sg g
       	pea_raha	0		S	sg n
       	pea_raha	0		S	sg p
lasti	last	0		S	adt
     	last	0		S	sg g
     	lasti	0		V	o
     	lask	ti		V	ti
     	last	0		S	sg p
järgi	järg	i		S	pl p
     	järgi	0		D	
     	järgi	0		K	
     	järgi	0		V	o
tagavara	taga_vara	0		S	sg g
        	taga_vara	0		S	sg n
        	taga_vara	0		S	sg p
kasid	kasi	d		V	d
sisse	siss	e		S	pl p
     	sisse	0		D	
     	sisse	0		K	
võetud	võe=tu	d		S	pl n
      	võetud	0		A	
      	võetud	0		A	sg n
      	võetud	d		A	pl n
      	võt	tud		V	tud
,	,			Z	
seda	see	da		P	sg p
raha	raha	0		S	sg g
    	raha	0		S	sg n
    	raha	0		S	sg p
ei	ei	0		D	
  	ei	0		V	neg
ole	ole	0		V	o
laadikus	laadik	s		S	sg in
,	,			Z	
ei	ei	0		D	
  	ei	0		V	neg
ka	ka	0		D	
ära	ära	0		D	
   	ära	0		V	neg o
pruukita	####				
kogukonna	kogukond	0		S	sg g
tarvitusse	tarvitus	se		S	adt
peale	pea	le		S	sg all
     	peale	0		D	
     	peale	0		K	
,	,			Z	
sellepärast	selle_pärast	0		D	
nõuab	nõud	b		V	b
kogukond	kogukond	0		S	sg n
seda	see	da		P	sg p
Johan	Johan	0		H	sg n
jänese	jänes	0		S	sg g
käest	käest	0		K	
     	käsi	st		S	sg el
,	,			Z	
kes	kes	0		P	pl n
   	kes	0		P	sg n
selle	see	0		P	sg g
     	sell	e		S	pl p
raha	raha	0		S	sg g
    	raha	0		S	sg n
    	raha	0		S	sg p
sisse	siss	e		S	pl p
     	sisse	0		D	
     	sisse	0		K	
võttis	võt	is		V	s
67	67	0		N	?
rubl	####				
20	20	0		N	?
kop	kop	0		Y	?
.	.			Z	
8.	8.	0		O	?
selle	see	0		P	sg g
     	sell	e		S	pl p
et	et	0		J	
Johan	Johan	0		H	sg n
Jänes	jänes	0		S	sg n
niisugused	nii_sugune	d		P	pl n
raha	raha	0		S	sg g
    	raha	0		S	sg n
    	raha	0		S	sg p
sumat	####				
oma	oma	0		A	sg g
   	oma	0		D	
   	oma	0		P	sg g
   	oma	0		S	sg g
   	oma	0		V	o
   	oma	0		A	sg n
   	oma	0		A	sg p
   	oma	0		P	sg n
   	oma	0		P	sg p
   	oma	0		S	sg n
   	oma	0		S	sg p
tarvis	tarvis	0		D	
      	tarvis	0		K	
ära	ära	0		D	
   	ära	0		V	neg o
pruukid	####				
on	ole	0		V	b
  	ole	0		V	vad
kogukond	kogukond	0		S	sg n
raha	raha	0		S	sg g
    	raha	0		S	sg n
    	raha	0		S	sg p
kõrge	kõrge	0		A	sg g
     	kõrge	0		A	sg n
protsendi	protsent	0		S	sg g
all	all	0		D	
   	all	0		K	
lainamaa	####				
pidanud	pida	nud		V	nud
       	pida=nu	d		S	pl n
       	pida=nud	0		A	
       	pida=nud	0		A	sg n
       	pida=nud	d		A	pl n
ja	ja	0		J	
on	ole	0		V	b
  	ole	0		V	vad
1	1	0		N	?
Januar	####				
1877	1877	0		N	?
kuni	kuni	0		J	
    	kuni	0		K	
1	1	0		N	?
Januar	####				
1879	1879	0		N	?
astani	####				
protsendi	protsent	0		S	sg g
135	135	0		N	?
rubl	####				
maksnud	maks	nud		V	nud
       	maks=nu	d		S	pl n
       	maks=nud	0		A	
       	maks=nud	0		A	sg n
       	maks=nud	d		A	pl n
,	,			Z	
seda	see	da		P	sg p
raha	raha	0		S	sg g
    	raha	0		S	sg n
    	raha	0		S	sg p
nõuab	nõud	b		V	b
kogukond	kogukond	0		S	sg n
ka	ka	0		D	
Johan	Johan	0		H	sg n
jänese	jänes	0		S	sg g
käest	käest	0		K	
     	käsi	st		S	sg el
,	,			Z	
selle	see	0		P	sg g
     	sell	e		S	pl p
õigust	õigus	t		S	sg p
näitab	näita	b		V	b
Ropka	####				
kogukonna	kogukond	0		S	sg g
nöriraamat	####				
välja	välja	0		D	
     	välja	0		V	o
     	väli	0		S	adt
     	väli	0		S	sg g
     	väli	0		S	sg p
.	.			Z	
9.	9.	0		O	?
on	ole	0		V	b
  	ole	0		V	vad
kogukonna	kogukond	0		S	sg g
nöri	####				
raamatu	raamat	0		S	sg g
perra	####				
Ropka	####				
kogukond	kogukond	0		S	sg n
Tartu	Tartu	0		H	adt
     	Tartu	0		H	sg g
     	Tartu	0		H	sg n
     	tartu	0		G	
Panga	pank	0		S	sg g
5	5	0		N	?
protsendi	protsent	0		S	sg g
eest	eest	0		D	
    	eest	0		K	
    	esi	st		S	sg el
intressi	intress	0		S	adt
        	intress	0		S	sg g
        	intress	0		S	sg p
peale	pea	le		S	sg all
     	peale	0		D	
     	peale	0		K	
pannud	pan=nu	d		S	pl n
      	pan=nud	0		A	
      	pan=nud	0		A	sg n
      	pan=nud	d		A	pl n
      	pane	nud		V	nud
:	:			Z	
a	a	0		Y	?
)	)			Z	
sel	see	l		P	sg ad
   	sel	0		Y	?
16	16	0		N	?
Novembri	november	0		S	sg g
1873	1873	0		N	?
aastal	aasta	l		S	sg ad
900	900	0		N	?
rubl	####				
,	,			Z	
mis	mis	0		P	pl n
   	mis	0		P	sg n
kuni	kuni	0		J	
    	kuni	0		K	
16	16	0		N	?
November	november	0		S	sg n
1878	1878	0		N	?
astani	####				
intressidega	intress	dega		S	pl kom
kokku	kokku	0		D	
     	kogu	0		S	adt
suur	suur	0		A	sg n
pidi	pida	i		V	s
    	pidi	0		K	
olema	ole	ma		V	ma
1147	1147	0		N	?
rubla	rubla	0		S	sg g
     	rubla	0		S	sg n
     	rubla	0		S	sg p
.	.			Z	
b	b	0		Y	?
)	)			Z	
sel	see	l		P	sg ad
   	sel	0		Y	?
2	2	0		N	?
juulil	juuli	l		S	sg ad
1874	1874	0		N	?
niisama	nii_sama	0		D	
intressi	intress	0		S	adt
        	intress	0		S	sg g
        	intress	0		S	sg p
peale	pea	le		S	sg all
     	peale	0		D	
     	peale	0		K	
pandud	pan=du	d		S	pl n
      	pan=dud	0		A	
      	pan=dud	0		A	sg n
      	pan=dud	d		A	pl n
      	pane	dud		V	tud
202	202	0		N	?
rubl	####				
,	,			Z	
mis	mis	0		P	pl n
   	mis	0		P	sg n
2	2	0		N	?
juulil	juuli	l		S	sg ad
1879	1879	0		N	?
aastal	aasta	l		S	sg ad
intressidega	intress	dega		S	pl kom
kokku	kokku	0		D	
     	kogu	0		S	adt
suur	suur	0		A	sg n
pidi	pida	i		V	s
    	pidi	0		K	
olema	ole	ma		V	ma
244	244	0		N	?
rubl	####				
.	.			Z	
c	c	0		Y	?
)	)			Z	
sel	see	l		P	sg ad
   	sel	0		Y	?
13	13	0		N	?
Augustil	august	l		S	sg ad
        	August	l		H	sg ad
1874	1874	0		N	?
on	ole	0		V	b
  	ole	0		V	vad
1300	1300	0		N	?
rubl	####				
intressi	intress	0		S	adt
        	intress	0		S	sg g
        	intress	0		S	sg p
peale	pea	le		S	sg all
     	peale	0		D	
     	peale	0		K	
pandud	pan=du	d		S	pl n
      	pan=dud	0		A	
      	pan=dud	0		A	sg n
      	pan=dud	d		A	pl n
      	pane	dud		V	tud
,	,			Z	
mis	mis	0		P	pl n
   	mis	0		P	sg n
13	13	0		N	?
Augusti	august	0		S	sg g
       	August	0		H	sg g
1878	1878	0		N	?
intressidega	intress	dega		S	pl kom
koku	####				
suur	suur	0		A	sg n
pidi	pida	i		V	s
    	pidi	0		K	
olema	ole	ma		V	ma
1579	1579	0		N	?
rubl	####				
.	.			Z	
ta	tema	0		P	sg g
  	tema	0		P	sg n
)	)			Z	
sel	see	l		P	sg ad
   	sel	0		Y	?
10	10	0		N	?
Märtsil	märts	l		S	sg ad
1875	1875	0		N	?
aastal	aasta	l		S	sg ad
on	ole	0		V	b
  	ole	0		V	vad
100	100	0		N	?
rubl	####				
intresse	intress	e		S	pl p
peale	pea	le		S	sg all
     	peale	0		D	
     	peale	0		K	
pandud	pan=du	d		S	pl n
      	pan=dud	0		A	
      	pan=dud	0		A	sg n
      	pan=dud	d		A	pl n
      	pane	dud		V	tud
,	,			Z	
mis	mis	0		P	pl n
   	mis	0		P	sg n
10	10	0		N	?
Märtsi	märts	0		S	adt
      	märts	0		S	sg g
      	märts	0		S	sg p
1878	1878	0		N	?
intressidega	intress	dega		S	pl kom
kokku	kokku	0		D	
     	kogu	0		S	adt
suur	suur	0		A	sg n
pidi	pida	i		V	s
    	pidi	0		K	
olema	ole	ma		V	ma
115	115	0		N	?
rubl	####				
teeb	tege	b		V	b
välja	välja	0		D	
     	välja	0		V	o
     	väli	0		S	adt
     	väli	0		S	sg g
     	väli	0		S	sg p
1573	1573	0		N	?
rubl	####				
58	58	0		N	?
kop	kop	0		Y	?
.	.			Z	
1	1	0		N	?
Januar	####				
1879	1879	0		N	?
pidi	pida	i		V	s
    	pidi	0		K	
olema	ole	ma		V	ma
summa	summ	0		S	adt
     	summ	0		S	sg g
     	summ	0		S	sg p
     	summa	0		S	sg g
     	summa	0		S	sg n
3085	3085	0		N	?
rubl	####				
.	.			Z	
oli	ole	i		V	s
aga	aga	0		J	
1	1	0		N	?
Januaril	####				
1879	1879	0		N	?
aastal	aasta	l		S	sg ad
intressi	intress	0		S	adt
        	intress	0		S	sg g
        	intress	0		S	sg p
peal	pea	l		S	sg ad
    	peal	0		D	
    	peal	0		K	
2789	2789	0		N	?
rubl	####				
jäeb	####				
perra	####				
296	296	0		N	?
rubl	####				
intressi	intress	0		S	adt
        	intress	0		S	sg g
        	intress	0		S	sg p
on	ole	0		V	b
  	ole	0		V	vad
ära	ära	0		D	
   	ära	0		V	neg o
pruukita	####				
nöörraamatu	nöör_raamat	0		S	sg g
perra	####				
243	243	0		N	?
rubl	####				
55	55	0		N	?
kop	kop	0		Y	?
sellepärra	####				
puudub	puudu	b		V	b
intressi	intress	0		S	adt
        	intress	0		S	sg g
        	intress	0		S	sg p
52	52	0		N	?
rubl	####				
45	45	0		N	?
kop	kop	0		Y	?
keda	kes	da		P	pl p
    	kes	da		P	sg p
kogukond	kogukond	0		S	sg n
Johan	Johan	0		H	sg n
Jänes	jänes	0		S	sg n
kes	kes	0		P	pl n
   	kes	0		P	sg n
seda	see	da		P	sg p
intressi	intress	0		S	adt
        	intress	0		S	sg g
        	intress	0		S	sg p
raha	raha	0		S	sg g
    	raha	0		S	sg n
    	raha	0		S	sg p
ise	ise	0		A	
   	ise	0		D	
   	ise	0		P	pl n
   	ise	0		P	sg n
ära	ära	0		D	
   	ära	0		V	neg o
võttis	võt	is		V	s
ehk	ehk	0		D	
   	ehk	0		J	
aga	aga	0		J	
kogukonna	kogukond	0		S	sg g
raha	raha	0		S	sg g
    	raha	0		S	sg n
    	raha	0		S	sg p
vahel	vahe	l		S	sg ad
     	vahel	0		D	
     	vahel	0		K	
omale	oma	le		A	sg all
     	oma	le		P	sg all
     	oma	le		S	sg all
kauplemiseks	kauplemine	ks		S	sg tr
pruukid	####				
ja	ja	0		J	
siis	siis	0		D	
    	siis	0		J	
sugugi	sugugi	0		D	
intressi	intress	0		S	adt
        	intress	0		S	sg g
        	intress	0		S	sg p
peal	pea	l		S	sg ad
    	peal	0		D	
    	peal	0		K	
ei	ei	0		D	
  	ei	0		V	neg
ole	ole	0		V	o
sest	see	st		P	sg el
    	sest	0		J	
Tartu	Tartu	0		H	adt
     	Tartu	0		H	sg g
     	Tartu	0		H	sg n
     	tartu	0		G	
Pang	pang	0		S	sg n
alati	alga	ti		V	ti
     	alati	0		D	
seni	seni	0		D	
ajani	aeg	ni		S	sg ter
5	5	0		N	?
protsendi	protsent	0		S	sg g
intressi	intress	0		S	adt
        	intress	0		S	sg g
        	intress	0		S	sg p
astu	astu	0		V	o
pealt	pea	lt		S	sg abl
     	pealt	0		D	
     	pealt	0		K	
maksnud	maks	nud		V	nud
       	maks=nu	d		S	pl n
       	maks=nud	0		A	
       	maks=nud	0		A	sg n
       	maks=nud	d		A	pl n
kui	kui	0		D	
   	kui	0		J	
raha	raha	0		S	sg g
    	raha	0		S	sg n
    	raha	0		S	sg p
sumat	####				
astu	astu	0		V	o
peale	pea	le		S	sg all
     	peale	0		D	
     	peale	0		K	
ehk	ehk	0		D	
   	ehk	0		J	
kauem	kauem	0		C	sg n
     	kauem	0		D	
sisse	siss	e		S	pl p
     	sisse	0		D	
     	sisse	0		K	
panna	pand	0		S	sg g
     	pane	a		V	da
     	panna	0		S	sg g
     	panna	0		S	sg n
.	.			Z	
sellepärast	selle_pärast	0		D	
see	see	0		P	sg n
puuduv	puudu	v		V	v
      	puuduv	0		A	sg n
summa	summ	0		S	adt
     	summ	0		S	sg g
     	summ	0		S	sg p
     	summa	0		S	sg g
     	summa	0		S	sg n
,	,			Z	
mis	mis	0		P	pl n
   	mis	0		P	sg n
kogukond	kogukond	0		S	sg n
nõuab	nõud	b		V	b
1626	1626	0		N	?
rubl	####				
3	3	0		N	?
kop	kop	0		Y	?
10.	10.	0		O	?
nõuab	nõud	b		V	b
kogukond	kogukond	0		S	sg n
selle	see	0		P	sg g
     	sell	e		S	pl p
1883	1883	0		N	?
aastal	aasta	l		S	sg ad
Liivima	####				
Kubermangu	kubermang	0		S	adt
          	kubermang	0		S	sg g
          	kubermang	0		S	sg p
valitsuse	valitsus	0		S	sg g
poolt	pool	t		N	sg p
     	pool	t		S	sg p
     	poolt	0		D	
     	poolt	0		K	
välja	välja	0		D	
     	välja	0		V	o
     	väli	0		S	adt
     	väli	0		S	sg g
     	väli	0		S	sg p
antud	an=tu	d		S	pl n
     	and	tud		V	tud
     	antud	0		A	
     	antud	0		A	sg n
     	antud	d		A	pl n
patendi	patent	0		S	sg g
       	patenti	0		V	o
№	№	0		Y	?
16	16	0		N	?
põhja	põhja	0		V	o
     	põhi	0		S	adt
     	põhi	0		S	sg g
     	põhi	0		S	sg p
peal	pea	l		S	sg ad
    	peal	0		D	
    	peal	0		K	
6	6	0		N	?
protsendi	protsent	0		S	sg g
intressi	intress	0		S	adt
        	intress	0		S	sg g
        	intress	0		S	sg p
selle	see	0		P	sg g
     	sell	e		S	pl p
1626	1626	0		N	?
rubl	####				
3	3	0		N	?
kop	kop	0		Y	?
eest	eest	0		D	
    	eest	0		K	
    	esi	st		S	sg el
ja	ja	0		J	
intressi	intress	0		S	adt
        	intress	0		S	sg g
        	intress	0		S	sg p
intressi	intress	0		S	adt
        	intress	0		S	sg g
        	intress	0		S	sg p
sest	see	st		P	sg el
    	sest	0		J	
9	9	0		N	?
Aprilist	####				
1879	1879	0		N	?
astust	####				
saadik	saadik	0		K	
      	saadik	0		S	sg n
,	,			Z	
kunas	kunas	0		D	
see	see	0		P	sg n
kaebus	kaebus	0		S	sg n
kohtu	kohtu	0		V	o
     	kohus	0		S	sg g
ette	ette	0		D	
    	ette	0		K	
    	esi	tte		S	adt
on	ole	0		V	b
  	ole	0		V	vad
veetud	vee=tu	d		S	pl n
      	vee=tud	0		A	
      	vee=tud	0		A	sg n
      	vee=tud	d		A	pl n
      	veetu	d		A	pl n
      	veda	tud		V	tud
,	,			Z	
kuni	kuni	0		J	
    	kuni	0		K	
selle	see	0		P	sg g
     	sell	e		S	pl p
raha	raha	0		S	sg g
    	raha	0		S	sg n
    	raha	0		S	sg p
summa	summ	0		S	adt
     	summ	0		S	sg g
     	summ	0		S	sg p
     	summa	0		S	sg g
     	summa	0		S	sg n
välja	välja	0		D	
     	välja	0		V	o
     	väli	0		S	adt
     	väli	0		S	sg g
     	väli	0		S	sg p
maksmise	maksmine	0		S	sg g
päevani	päev	ni		S	sg ter
,	,			Z	
sest	see	st		P	sg el
    	sest	0		J	
kogukonna	kogukond	0		S	sg g
on	ole	0		V	b
  	ole	0		V	vad
10	10	0		N	?
protsendi	protsent	0		S	sg g
astu	astu	0		V	o
pealt	pea	lt		S	sg abl
     	pealt	0		D	
     	pealt	0		K	
maksma	maks	ma		V	ma
pidanud	pida	nud		V	nud
       	pida=nu	d		S	pl n
       	pida=nud	0		A	
       	pida=nud	0		A	sg n
       	pida=nud	d		A	pl n
.	.			Z	
11.	11.	0		O	?
nõusid	nõu	sid		S	pl p
kaebaja	kaebaja	0		S	sg g
       	kaebaja	0		S	sg n
kohtu	kohtu	0		V	o
     	kohus	0		S	sg g
kulu	kulg	0		S	sg g
    	kulu	0		S	sg g
    	kulu	0		V	o
    	kulu	0		S	sg n
    	kulu	0		S	sg p
,	,			Z	
mis	mis	0		P	pl n
   	mis	0		P	sg n
Ahi	ahki	0		V	o
   	ahi	0		S	sg n
välja	välja	0		D	
     	välja	0		V	o
     	väli	0		S	adt
     	väli	0		S	sg g
     	väli	0		S	sg p
võtmise	võtmine	0		S	sg g
läbi	läbi	0		D	
    	läbi	0		K	
    	läbi	0		V	o
on	ole	0		V	b
  	ole	0		V	vad
tõusnud	tõus	nud		V	nud
       	tõus=nu	d		S	pl n
       	tõus=nud	0		A	
       	tõus=nud	0		A	sg n
       	tõus=nud	d		A	pl n
4	4	0		N	?
rubl	####				
60	60	0		N	?
kop	kop	0		Y	?
ja	ja	0		J	
oma	oma	0		A	sg g
   	oma	0		D	
   	oma	0		P	sg g
   	oma	0		S	sg g
   	oma	0		V	o
   	oma	0		A	sg n
   	oma	0		A	sg p
   	oma	0		P	sg n
   	oma	0		P	sg p
   	oma	0		S	sg n
   	oma	0		S	sg p
sõidu	sõit	0		S	sg g
raha	raha	0		S	sg g
    	raha	0		S	sg n
    	raha	0		S	sg p
seja	####				
kohtu	kohtu	0		V	o
     	kohus	0		S	sg g
juurde	juur	de		S	adt
      	juurde	0		D	
      	juurde	0		K	
Johan	Johan	0		H	sg n
jänese	jänes	0		S	sg g
käest	käest	0		K	
     	käsi	st		S	sg el
,	,			Z	
see	see	0		P	sg n
on	ole	0		V	b
  	ole	0		V	vad
8	8	0		N	?
juulil	juuli	l		S	sg ad
s	s	0		Y	?
.	.			Z	
a.	a	0		Y	?
on	ole	0		V	b
  	ole	0		V	vad
a.	a	0		Y	?
Lukas	Lukas	0		H	sg n
kaebamas	kaeba	mas		V	mas
käinud	käi	nud		V	nud
      	käi=nud	0		A	
      	käi=nud	0		A	sg n
      	käi=nud	d		A	pl n
      	käinu	d		S	pl n
,	,			Z	
mis	mis	0		P	pl n
   	mis	0		P	sg n
eest	eest	0		D	
    	eest	0		K	
    	esi	st		S	sg el
1	1	0		N	?
rubl	####				
50	50	0		N	?
kop	kop	0		Y	?
nõudis	nõud	is		V	s
,	,			Z	
15	15	0		N	?
juulil	juuli	l		S	sg ad
s	s	0		Y	?
.	.			Z	
a.	a	0		Y	?
on	ole	0		V	b
  	ole	0		V	vad
mõlema	mõlema	0		P	sg g
käinud	käi	nud		V	nud
      	käi=nud	0		A	
      	käi=nud	0		A	sg n
      	käi=nud	d		A	pl n
      	käinu	d		S	pl n
Lukas	Lukas	0		H	sg n
ja	ja	0		J	
Laur	Laur	0		H	sg n
,	,			Z	
kelle	kes	0		P	pl g
     	kes	0		P	sg g
eest	eest	0		D	
    	eest	0		K	
    	esi	st		S	sg el
3	3	0		N	?
rubl	####				
sõidu	sõit	0		S	sg g
raha	raha	0		S	sg g
    	raha	0		S	sg n
    	raha	0		S	sg p
nõudsid	nõud	sid		V	sid
ja	ja	0		J	
tänase	tänane	0		A	sg g
sõidu	sõit	0		S	sg g
eest	eest	0		D	
    	eest	0		K	
    	esi	st		S	sg el
nõudis	nõud	is		V	s
a.	a	0		Y	?
Lukas	Lukas	0		H	sg n
üksind	üks_ind	0		S	sg n
1	1	0		N	?
rubl	####				
50	50	0		N	?
kop	kop	0		Y	?
sest	see	st		P	sg el
    	sest	0		J	
Laur	Laur	0		H	sg n
olevat	ole	vat		V	vat
      	olev	t		A	sg p
      	olev	t		S	sg p
haigeks	haige	ks		A	sg tr
       	haige	ks		S	sg tr
jäänud	jää	nud		V	nud
      	jäänu	d		S	pl n
      	jäänud	0		A	
      	jäänud	0		A	sg n
      	jäänud	d		A	pl n
ja	ja	0		J	
nii	nii	0		D	
edesi	####				
3	3	0		N	?
rubl	####				
ega	ega	0		D	
   	ega	0		J	
sõidu	sõit	0		S	sg g
eest	eest	0		D	
    	eest	0		K	
    	esi	st		S	sg el
selle	see	0		P	sg g
     	sell	e		S	pl p
kohtu	kohtu	0		V	o
     	kohus	0		S	sg g
juurde	juur	de		S	adt
      	juurde	0		D	
      	juurde	0		K	
kui	kui	0		D	
   	kui	0		J	
mõlema	mõlema	0		P	sg g
käinud	käi	nud		V	nud
      	käi=nud	0		A	
      	käi=nud	0		A	sg n
      	käi=nud	d		A	pl n
      	käinu	d		S	pl n
ja	ja	0		J	
1	1	0		N	?
rubl	####				
50	50	0		N	?
kop	kop	0		Y	?
sõidu	sõit	0		S	sg g
eest	eest	0		D	
    	eest	0		K	
    	esi	st		S	sg el
kui	kui	0		D	
   	kui	0		J	
neist	see	st		P	pl el
     	tema	st		P	pl el
üks	üks	0		N	sg n
   	üks	0		P	sg n
käib	käi	b		V	b
.	.			Z	
otsus	otsus	0		S	sg n
:	:			Z	
et	et	0		J	
Johan	Johan	0		H	sg n
Jänes	jänes	0		S	sg n
5	5	0		N	?
Augustis	august	s		S	sg in
        	August	s		H	sg in
s	s	0		Y	?
.	.			Z	
a	a	0		Y	?
kell	kell	0		S	sg n
11	11	0		N	?
enne	enne	0		D	
    	enne	0		K	
    	enne	0		S	sg n
lõunat	lõuna	t		S	sg p
ette	ette	0		D	
    	ette	0		K	
    	esi	tte		S	adt
kutsuta	kutsu	ta		V	ta
       	kutsu	ta		S	sg ab
on	ole	0		V	b
  	ole	0		V	vad
,	,			Z	
kui	kui	0		D	
   	kui	0		J	
tema	tema	0		P	sg g
    	tema	0		P	sg n
siis	siis	0		D	
    	siis	0		J	
ei	ei	0		D	
  	ei	0		V	neg
tule	tuli	0		S	sg g
    	tule	0		V	o
saab	saa	b		V	b
kohus	kohu	s		V	s
     	kohus	0		S	sg n
ära	ära	0		D	
   	ära	0		V	neg o
mõistma	mõist	ma		V	ma
,	,			Z	
selle	see	0		P	sg g
     	sell	e		S	pl p
et	et	0		J	
tema	tema	0		P	sg g
    	tema	0		P	sg n
15	15	0		N	?
juulil	juuli	l		S	sg ad
s	s	0		Y	?
.	.			Z	
a.	a	0		Y	?
ja	ja	0		J	
ka	ka	0		D	
tänasel	tänane	l		A	sg ad
päeval	päev	l		S	sg ad
kutsumise	kutsumine	0		S	sg g
peale	pea	le		S	sg all
     	peale	0		D	
     	peale	0		K	
vabandamata	vabanda	mata		V	mata
           	vabanda=mata	0		A	
tulemata	tule	mata		V	mata
        	tulemata	0		A	
on	ole	0		V	b
  	ole	0		V	vad
jäänud	jää	nud		V	nud
      	jäänu	d		S	pl n
      	jäänud	0		A	
      	jäänud	0		A	sg n
      	jäänud	d		A	pl n
.	.			Z	
peakohtumees	pea_kohtu_mees	0		S	sg n
:	:			Z	
J. Ling	####				
/	/			Z	
allkiri	all_kiri	0		S	sg n
/	/			Z	
kohtumees	kohtu_mees	0		S	sg n
:	:			Z	
Johan	Johan	0		H	sg n
Klaosen	####				
XXX	XXX	0		O	?
   	XXX	0		Y	?
Peeter	Peeter	0		H	sg n
Ivan	Ivan	0		H	sg n
/	/			Z	
allkiri	all_kiri	0		S	sg n
/	/			Z	
