Pallavala	pall_aval	0		A	sg g
Peremees	pere_mees	0		S	sg n
Toomas	Toomas	0		H	sg n
      	Toomas	s		H	sg in
      	too	mas		V	mas
Velt	####				
kaebas	kaeba	s		V	s
:	:			Z	
Tema	tema	0		P	sg g
    	tema	0		P	sg n
olnu	olnu	0		S	sg g
    	olnu	0		S	sg n
Jakob	Jakob	0		H	sg n
Tuha	tuhk	0		S	sg g
juures	juur	s		S	sg in
      	juures	0		D	
      	juures	0		K	
7	7	0		N	?
aastat	aasta	t		S	sg p
Polemees	####				
,	,			Z	
et	et	0		J	
kül	####				
Tuha	tuhk	0		S	sg g
sele	####				
Vabadiko	####				
talo	####				
peremees	pere_mees	0		S	sg n
olnu	olnu	0		S	sg g
    	olnu	0		S	sg n
.	.			Z	
Tema	tema	0		P	sg g
    	tema	0		P	sg n
ehitanu	ehita=nu	0		S	sg g
       	ehita=nu	0		S	sg n
vimase	####				
aasta	aasta	0		S	sg g
     	aasta	0		S	sg n
sees	sees	0		D	
    	sees	0		K	
seal	seal	0		D	
    	siga	l		A	sg ad
    	siga	l		S	sg ad
talus	talu	s		S	sg in
     	talu	s		V	s
hoonit	####				
ja	ja	0		J	
olnu	olnu	0		S	sg g
    	olnu	0		S	sg n
temal	tema	l		P	sg ad
ka	ka	0		D	
muud	muu	d		P	pl n
    	muu	d		S	pl n
    	muu	d		V	d
    	muu	d		P	sg p
    	muu	d		S	sg p
kulud	kulg	d		S	pl n
     	kulu	d		S	pl n
     	kulu	d		V	d
,	,			Z	
et	et	0		J	
Tuha	tuhk	0		S	sg g
teda	tema	da		P	sg p
veel	veel	0		D	
    	vesi	l		S	sg ad
edesi	####				
pidada	pida	da		V	da
lubanu	luba=nu	0		S	sg g
      	luba=nu	0		S	sg n
aga	aga	0		J	
Tuha	tuhk	0		S	sg g
ütelnu	ütel=nu	0		S	sg g
      	ütel=nu	0		S	sg n
temal	tema	l		P	sg ad
mineva	minev	0		A	sg g
talvel	talv	l		S	sg ad
      	tali	l		S	sg ad
üles	üles	0		D	
ja	ja	0		J	
ajanu	aja=nu	0		S	sg g
     	aja=nu	0		S	sg n
välja	välja	0		D	
     	välja	0		V	o
     	väli	0		S	adt
     	väli	0		S	sg g
     	väli	0		S	sg p
,	,			Z	
ni	####				
et	et	0		J	
temal	tema	l		P	sg ad
nüüd	nüüd	0		D	
ühtegi	ühte	0	gi	D	
      	üks	0	gi	N	adt
      	üks	0	gi	P	adt
      	ühe	0	gi	S	sg g
      	üks	0	gi	N	sg p
      	üks	0	gi	P	sg p
kasu	kasu	0		S	sg g
    	kasu	0		S	sg n
    	kasu	0		S	sg p
omast	oma	st		A	sg el
     	oma	st		P	sg el
     	oma	st		S	sg el
     	omane	t		A	sg p
vaevast	vaev	st		S	sg el
       	vaevane	t		A	sg p
ei	ei	0		D	
  	ei	0		V	neg
ole	ole	0		V	o
.	.			Z	
Tema	tema	0		P	sg g
    	tema	0		P	sg n
palunu	palu=nu	0		S	sg g
      	palu=nu	0		S	sg n
ka	ka	0		D	
Mõisahära	####				
käest	käest	0		K	
     	käsi	st		S	sg el
oma	oma	0		A	sg g
   	oma	0		D	
   	oma	0		P	sg g
   	oma	0		S	sg g
   	oma	0		V	o
   	oma	0		A	sg n
   	oma	0		A	sg p
   	oma	0		P	sg n
   	oma	0		P	sg p
   	oma	0		S	sg n
   	oma	0		S	sg p
ehituse	ehitus	0		S	sg g
eest	eest	0		D	
    	eest	0		K	
    	esi	st		S	sg el
tasumist	tasumine	t		S	sg p
,	,			Z	
aga	aga	0		J	
Perishära	####				
ütelnu	ütel=nu	0		S	sg g
      	ütel=nu	0		S	sg n
,	,			Z	
et	et	0		J	
Jakob	Jakob	0		H	sg n
Tuha	tuhk	0		S	sg g
kui	kui	0		D	
   	kui	0		J	
peremees	pere_mees	0		S	sg n
aga	aga	0		J	
üksi	üksi	0		D	
tasumist	tasumine	t		S	sg p
nõuda	nõud	a		V	da
võib	või	b		V	b
,	,			Z	
kui	kui	0		D	
   	kui	0		J	
talust	talu	st		S	sg el
väljalähab	####				
,	,			Z	
nüüd	nüüd	0		D	
aga	aga	0		J	
Tuha	tuhk	0		S	sg g
,	,			Z	
tema	tema	0		P	sg g
    	tema	0		P	sg n
kaebaja	kaebaja	0		S	sg g
       	kaebaja	0		S	sg n
vasto	####				
vastab	vasta	b		V	b
,	,			Z	
sele	####				
et	et	0		J	
se	####				
temal	tema	l		P	sg ad
politi	####				
ehitada	ehita	da		V	da
käsku	käsk	0		S	adt
     	käsk	0		S	sg p
,	,			Z	
nimelt	nimelt	0		D	
      	nimi	lt		S	sg abl
ola	####				
temal	tema	l		P	sg ad
nõuda	nõud	a		V	da
,	,			Z	
mis	mis	0		P	pl n
   	mis	0		P	sg n
ka	ka	0		D	
kohtumees	kohtu_mees	0		S	sg n
Paul	Paul	0		H	sg n
Villemson	####				
ja	ja	0		J	
võrmünder	####				
Otoo	####				
Kangro	Kangro	0		H	sg g
      	Kangro	0		H	sg n
ülevatanu	üleva_tanu	0		S	sg g
         	üleva_tanu	0		S	sg n
         	üleva_tanu	0		S	sg p
:	:			Z	
165.	165.	0		O	?
palki	palk	0		S	adt
     	palk	0		S	sg p
eest	eest	0		D	
    	eest	0		K	
    	esi	st		S	sg el
lauda	laud	0		S	adt
     	laut	0		S	sg g
     	laud	0		S	sg p
juurde	juur	de		S	adt
      	juurde	0		D	
      	juurde	0		K	
vedo	####				
raha	raha	0		S	sg g
    	raha	0		S	sg n
    	raha	0		S	sg p
mõisa	mõis	0		S	sg g
metsast	mets	st		S	sg el
       	metsane	t		A	sg p
13	13	0		N	?
rubla	rubla	0		S	sg g
     	rubla	0		S	sg n
     	rubla	0		S	sg p
2.	2.	0		O	?
Palkide	palk	de		S	pl g
raiumine	raiumine	0		S	sg n
lauda	laud	0		S	adt
     	laut	0		S	sg g
     	laud	0		S	sg p
juures	juur	s		S	sg in
      	juures	0		D	
      	juures	0		K	
20	20	0		N	?
rubla	rubla	0		S	sg g
     	rubla	0		S	sg n
     	rubla	0		S	sg p
3.	3.	0		O	?
16	16	0		N	?
vaka	vakk	0		S	sg g
luba	luba	0		S	sg n
    	luba	0		V	o
    	luba	0		S	sg p
vedu	vedu	0		S	sg n
    	vedu	0		S	sg p
9	9	0		N	?
virnavist	####				
4rubla	####				
4.	4.	0		O	?
kivide	kivi	de		S	pl g
vedo	####				
5	5	0		N	?
süla	####				
eest	eest	0		D	
    	eest	0		K	
    	esi	st		S	sg el
20	20	0		N	?
rubla	rubla	0		S	sg g
     	rubla	0		S	sg n
     	rubla	0		S	sg p
5.	5.	0		O	?
tailei	####				
raiumine	raiumine	0		S	sg n
10	10	0		N	?
rubla	rubla	0		S	sg g
     	rubla	0		S	sg n
     	rubla	0		S	sg p
6.	6.	0		O	?
tailei	####				
juurde	juur	de		S	adt
      	juurde	0		D	
      	juurde	0		K	
4	4	0		N	?
sülda	süld	0		S	adt
     	süld	0		S	sg p
kivide	kivi	de		S	pl g
vedo	####				
16	16	0		N	?
rubla	rubla	0		S	sg g
     	rubla	0		S	sg n
     	rubla	0		S	sg p
7.	7.	0		O	?
Tailei	####				
juurde	juur	de		S	adt
      	juurde	0		D	
      	juurde	0		K	
23	23	0		N	?
vaka	vakk	0		S	sg g
luba	luba	0		S	sg n
    	luba	0		V	o
    	luba	0		S	sg p
vedo	####				
mõisast	mõis	st		S	sg el
1	1	0		N	?
rubla	rubla	0		S	sg g
     	rubla	0		S	sg n
     	rubla	0		S	sg p
8.	8.	0		O	?
Tailei	####				
kattuse	####				
tegemine	tegemine	0		S	sg n
taili	####				
ja	ja	0		J	
lauda	laud	0		S	adt
     	laut	0		S	sg g
     	laud	0		S	sg p
juures	juur	s		S	sg in
      	juures	0		D	
      	juures	0		K	
47	47	0		N	?
päeva	päev	0		S	adt
     	päev	0		S	sg g
     	päev	0		S	sg p
8	8	0		N	?
rubla	rubla	0		S	sg g
     	rubla	0		S	sg n
     	rubla	0		S	sg p
70	70	0		N	?
kop	kop	0		Y	?
.	.			Z	
9.	9.	0		O	?
Oini	####				
juures	juur	s		S	sg in
      	juures	0		D	
      	juures	0		K	
politi	####				
tegemineni	####				
kui	kui	0		D	
   	kui	0		J	
ka	ka	0		D	
aganiku	aganik	0		S	sg g
tegemine	tegemine	0		S	sg n
10	10	0		N	?
rubla	rubla	0		S	sg g
     	rubla	0		S	sg n
     	rubla	0		S	sg p
10.	10.	0		O	?
Sele	####				
katuse	katus	0		S	sg g
tegemine	tegemine	0		S	sg n
4	4	0		N	?
rubla	rubla	0		S	sg g
     	rubla	0		S	sg n
     	rubla	0		S	sg p
11.	11.	0		O	?
Tema	tema	0		P	sg g
    	tema	0		P	sg n
3	3	0		N	?
lauda	laud	0		S	adt
     	laut	0		S	sg g
     	laud	0		S	sg p
lauda	laud	0		S	adt
     	laut	0		S	sg g
     	laud	0		S	sg p
juurde	juur	de		S	adt
      	juurde	0		D	
      	juurde	0		K	
1	1	0		N	?
rubla	rubla	0		S	sg g
     	rubla	0		S	sg n
     	rubla	0		S	sg p
50	50	0		N	?
kop	kop	0		Y	?
.	.			Z	
12.	12.	0		O	?
kambre	####				
ahjo	####				
tegemine	tegemine	0		S	sg n
3	3	0		N	?
rubla	rubla	0		S	sg g
     	rubla	0		S	sg n
     	rubla	0		S	sg p
132.	132.	0		O	?
küini	####				
politi	####				
tegemine	tegemine	0		S	sg n
10	10	0		N	?
rubla	rubla	0		S	sg g
     	rubla	0		S	sg n
     	rubla	0		S	sg p
141.	141.	0		O	?
süld	süld	0		S	sg n
kaevo	####				
teinu	teinu	0		S	sg g
     	teinu	0		S	sg n
5	5	0		N	?
rubla	rubla	0		S	sg g
     	rubla	0		S	sg n
     	rubla	0		S	sg p
15.	15.	0		O	?
Peale	pea	le		S	sg all
     	peale	0		D	
     	peale	0		K	
sele	####				
teinu	teinu	0		S	sg g
     	teinu	0		S	sg n
tema	tema	0		P	sg g
    	tema	0		P	sg n
ukset	####				
kambrile	kamber	le		S	sg all
ja	ja	0		J	
võrusele	####				
,	,			Z	
2	2	0		N	?
reialuse	####				
väratet	####				
,	,			Z	
klaastõõ	####				
ja	ja	0		J	
raudtõõ	####				
oma	oma	0		A	sg g
   	oma	0		D	
   	oma	0		P	sg g
   	oma	0		S	sg g
   	oma	0		V	o
   	oma	0		A	sg n
   	oma	0		A	sg p
   	oma	0		P	sg n
   	oma	0		P	sg p
   	oma	0		S	sg n
   	oma	0		S	sg p
kuluga	kulg	ga		S	sg kom
      	kulu	ga		S	sg kom
15	15	0		N	?
rubla	rubla	0		S	sg g
     	rubla	0		S	sg n
     	rubla	0		S	sg p
Summa	summ	0		S	adt
     	summ	0		S	sg g
     	summ	0		S	sg p
     	summa	0		S	sg g
     	summa	0		S	sg n
140	140	0		N	?
rbl	rbl	0		Y	?
90	90	0		N	?
kop	kop	0		Y	?
.	.			Z	
16.	16.	0		O	?
katuses	katus	s		S	sg in
õlgi	õlg	i		S	pl p
toonu	too=nu	0		S	sg g
     	too=nu	0		S	sg n
tema	tema	0		P	sg g
    	tema	0		P	sg n
valgotala	####				
tarvis	tarvis	0		D	
      	tarvis	0		K	
1	1	0		N	?
/	/			Z	
2	2	0		N	?
kubu	kubu	0		S	sg g
    	kubu	0		S	sg n
    	kubu	0		S	sg p
Jakob	Jakob	0		H	sg n
Tuha	tuhk	0		S	sg g
andis	and	is		V	s
selepeale	####				
vastust	vastus	t		S	sg p
.	.			Z	
Tema	tema	0		P	sg g
    	tema	0		P	sg n
ütelnu	ütel=nu	0		S	sg g
      	ütel=nu	0		S	sg n
mineva	minev	0		A	sg g
talvel	talv	l		S	sg ad
      	tali	l		S	sg ad
kül	####				
kohtu	kohtu	0		V	o
     	kohus	0		S	sg g
ees	ees	0		D	
   	ees	0		K	
   	esi	s		S	sg in
Toomas	Toomas	0		H	sg n
      	Toomas	s		H	sg in
      	too	mas		V	mas
Veltile	####				
üles	üles	0		D	
,	,			Z	
aga	aga	0		J	
lepinu	####				
pärast	pära	st		S	sg el
      	pärane	t		A	sg p
      	pärast	0		D	
      	pärast	0		K	
temaga	tema	ga		P	sg kom
Josep	####				
Rosenbergi	Rosenberg	0		H	adt
          	Rosenberg	0		H	sg g
          	Rosenberg	0		H	sg p
ni	####				
kui	kui	0		D	
   	kui	0		J	
Juhan	Juhan	0		H	sg n
Havakivi	####				
,	,			Z	
Karel	####				
Vayd	####				
,	,			Z	
Kusta	Kusta	0		H	sg g
     	Kusta	0		H	sg n
     	kuse	ta		V	da
     	kuse	ta		V	ta
ja	ja	0		J	
Josep	####				
eperi	####				
juures	juur	s		S	sg in
      	juures	0		D	
      	juures	0		K	
olemises	olemine	s		S	sg in
ära	ära	0		D	
   	ära	0		V	neg o
,	,			Z	
nida	####				
,	,			Z	
et	et	0		J	
Velt	####				
pidanu	pida=nu	0		S	sg g
      	pida=nu	0		S	sg n
taluse	####				
tagasi	tagasi	0		D	
      	tagasi	0		K	
jäma	####				
,	,			Z	
aga	aga	0		J	
Velt	####				
läinu	läinu	0		S	sg g
     	läinu	0		S	sg n
     	läinud	0		A	sg g
isi	####				
ära	ära	0		D	
   	ära	0		V	neg o
.	.			Z	
Pealeselle	peale_sell	e		S	pl p
andis	and	is		V	s
Tuha	tuhk	0		S	sg g
vastust	vastus	t		S	sg p
.	.			Z	
1.	1.	0		O	?
Velt	####				
toonu	too=nu	0		S	sg g
     	too=nu	0		S	sg n
aga	aga	0		J	
42	42	0		N	?
palki	palk	0		S	adt
     	palk	0		S	sg p
metsast	mets	st		S	sg el
       	metsane	t		A	sg p
.	.			Z	
2.	2.	0		O	?
palkide	palk	de		S	pl g
raiumine	raiumine	0		S	sg n
olnu	olnu	0		S	sg g
    	olnu	0		S	sg n
politi	####				
3.	3.	0		O	?
15	15	0		N	?
vaka	vakk	0		S	sg g
luba	luba	0		S	sg n
    	luba	0		V	o
    	luba	0		S	sg p
toonu	too=nu	0		S	sg g
     	too=nu	0		S	sg n
Velt	####				
Purmannist	####				
4.	4.	0		O	?
4	4	0		N	?
sülda	süld	0		S	adt
     	süld	0		S	sg p
toonu	too=nu	0		S	sg g
     	too=nu	0		S	sg n
Velt	####				
kiva	####				
10	10	0		N	?
sama	sama	0		P	sg g
    	sama	0		P	sg n
    	sama	0		P	sg p
järelt	järelt	0		K	
5.	5.	0		O	?
tail	tai	l		S	sg ad
teinu	teinu	0		S	sg g
     	teinu	0		S	sg n
Velt	####				
üksi	üksi	0		D	
vanast	vana	st		A	sg el
      	vana	st		S	sg el
materialist	materialist	0		S	sg n
üles	üles	0		D	
6.	6.	0		O	?
Taili	####				
juurde	juur	de		S	adt
      	juurde	0		D	
      	juurde	0		K	
toonu	too=nu	0		S	sg g
     	too=nu	0		S	sg n
kaebaja	kaebaja	0		S	sg g
       	kaebaja	0		S	sg n
2	2	0		N	?
põlde	põld	e		S	pl p
kiva	####				
7.	7.	0		O	?
Tema	tema	0		P	sg g
    	tema	0		P	sg n
ei	ei	0		D	
  	ei	0		V	neg
tea	tead	0		V	o
seda	see	da		P	sg p
,	,			Z	
vait	vait	0		D	
    	vait	0		I	
Mõisavalitsus	mõisa_valitsus	0		S	sg n
.	.			Z	
8.	8.	0		O	?
kaebaja	kaebaja	0		S	sg g
       	kaebaja	0		S	sg n
teinu	teinu	0		S	sg g
     	teinu	0		S	sg n
aga	aga	0		J	
25	25	0		N	?
sülda	süld	0		S	adt
     	süld	0		S	sg p
katust	katt	st		S	sg el
      	katus	t		S	sg p
.	.			Z	
9.	9.	0		O	?
Politi	####				
mõlemist	####				
vanast	vana	st		A	sg el
      	vana	st		S	sg el
materialist	materialist	0		S	sg n
tehtud	tehtu	d		S	pl n
      	tehtud	0		A	
      	tehtud	0		A	sg n
      	tehtud	d		A	pl n
      	tege	tud		V	tud
10.	10.	0		O	?
Nisama	####				
politi	####				
11.	11.	0		O	?
et	et	0		J	
Mõisast	mõis	st		S	sg el
sekõrd	####				
laudu	laud	u		S	pl p
ei	ei	0		D	
  	ei	0		V	neg
ole	ole	0		V	o
sanu	####				
,	,			Z	
või	või	0		S	sg g
   	või	0		V	o
   	või	0		D	
   	või	0		J	
   	või	0		S	sg n
need	see	d		P	pl n
3	3	0		N	?
Velt	####				
omad	oma	d		A	pl n
    	oma	d		P	pl n
    	oma	d		S	pl n
    	oma	d		V	d
ola	####				
mis	mis	0		P	pl n
   	mis	0		P	sg n
tema	tema	0		P	sg g
    	tema	0		P	sg n
aga	aga	0		J	
keelmata	####				
tagasi	tagasi	0		D	
      	tagasi	0		K	
anab	####				
.	.			Z	
12	12	0		N	?
kaebaja	kaebaja	0		S	sg g
       	kaebaja	0		S	sg n
teinu	teinu	0		S	sg g
     	teinu	0		S	sg n
aga	aga	0		J	
üks	üks	0		N	sg n
   	üks	0		P	sg n
jagu	jagu	0		S	sg n
    	jagu	0		V	o
    	jagu	0		S	sg p
ahjost	####				
,	,			Z	
ni	####				
et	et	0		J	
200	200	0		N	?
ploni	####				
pandnu	####				
.	.			Z	
13.	13.	0		O	?
Ühel	üks	l		N	sg ad
    	üks	l		P	sg ad
küinil	####				
sanu	####				
aga	aga	0		J	
uelt	####				
kattus	kattu	s		V	s
vanast	vana	st		A	sg el
      	vana	st		S	sg el
õledest	####				
ja	ja	0		J	
teine	teine	0		O	sg n
     	teine	0		P	sg n
sanu	####				
teise	teine	0		O	adt
     	teine	0		O	sg g
     	teine	0		P	adt
     	teine	0		P	sg g
koha	koht	0		S	sg g
    	koha	0		S	sg g
    	koha	0		V	o
    	koha	0		S	sg n
    	koha	0		S	sg p
peale	pea	le		S	sg all
     	peale	0		D	
     	peale	0		K	
tõstetud	tõst	tud		V	tud
        	tõste=tu	d		S	pl n
        	tõste=tud	0		A	
        	tõste=tud	0		A	sg n
        	tõste=tud	d		A	pl n
14.	14.	0		O	?
kaebaja	kaebaja	0		S	sg g
       	kaebaja	0		S	sg n
teinu	teinu	0		S	sg g
     	teinu	0		S	sg n
kaevo	####				
juures	juur	s		S	sg in
      	juures	0		D	
      	juures	0		K	
aga	aga	0		J	
2	2	0		N	?
sõkivahet	####				
15.	15.	0		O	?
Ola	####				
viga	viga	0		S	sg n
    	viga	0		S	sg p
,	,			Z	
a	a	0		Y	?
ga	####				
tema	tema	0		P	sg g
    	tema	0		P	sg n
andva	andev	0		A	sg g
seda	see	da		P	sg p
tagasi	tagasi	0		D	
      	tagasi	0		K	
,	,			Z	
kui	kui	0		D	
   	kui	0		J	
kaebaja	kaebaja	0		S	sg g
       	kaebaja	0		S	sg n
neid	neid	0		S	sg n
    	see	d		P	pl p
    	tema	d		P	pl p
vanad	vana	d		A	pl n
     	vana	d		S	pl n
uksed	uks	d		S	pl n
tagasi	tagasi	0		D	
      	tagasi	0		K	
viib	vii	b		V	b
.	.			Z	
16	16	0		N	?
Sele	####				
tema	tema	0		P	sg g
    	tema	0		P	sg n
ei	ei	0		D	
  	ei	0		V	neg
tea	tead	0		V	o
ei	ei	0		D	
  	ei	0		V	neg
tahtva	tahtev	0		A	sg g
tema	tema	0		P	sg g
    	tema	0		P	sg n
Veltile	####				
midagi	miski	dagi		P	sg p
maksa	maks	0		S	adt
     	maks	0		S	sg g
     	maks	0		V	o
     	maks	0		S	sg p
et	et	0		J	
Velt	####				
äraläinu	ära_läinu	0		S	sg g
        	ära_läinu	0		S	sg n
        	ära_läinud	0		A	sg g
ja	ja	0		J	
se	####				
ka	ka	0		D	
mõisa	mõis	0		S	sg g
asi	asi	0		S	sg n
   	asi	0		V	o
ola	####				
,	,			Z	
et	et	0		J	
tema	tema	0		P	sg g
    	tema	0		P	sg n
talorentnik	####				
on	ole	0		V	b
  	ole	0		V	vad
.	.			Z	
Jakob	Jakob	0		H	sg n
Tuha	tuhk	0		S	sg g
nõudis	nõud	is		V	s
aga	aga	0		J	
Velt	####				
käest	käest	0		K	
     	käsi	st		S	sg el
.	.			Z	
150.	150.	0		O	?
sülda	süld	0		S	adt
     	süld	0		S	sg p
puuaida	puu_ait	0		S	sg g
,	,			Z	
mis	mis	0		P	pl n
   	mis	0		P	sg n
kaebaja	kaebaja	0		S	sg g
       	kaebaja	0		S	sg n
tegemata	tege	mata		V	mata
        	tegemata	0		A	
jätnu	jät=nu	0		S	sg g
     	jät=nu	0		S	sg n
25	25	0		N	?
rubla	rubla	0		S	sg g
     	rubla	0		S	sg n
     	rubla	0		S	sg p
215.	215.	0		O	?
sülda	süld	0		S	adt
     	süld	0		S	sg p
kiviaida	kivi_ait	0		S	sg g
äralõhkunu	ära_lõhku=nu	0		S	sg g
          	ära_lõhku=nu	0		S	sg n
ja	ja	0		J	
vinu	vinu	0		S	sg g
    	vinu	0		S	sg n
    	vinu	0		S	sg p
150rubla	####				
3.	3.	0		O	?
küini	####				
katust	katt	st		S	sg el
      	katus	t		S	sg p
pool	pool	0		K	
    	pool	0		N	sg n
    	pool	0		S	sg n
pudus	pudu	s		S	sg in
2	2	0		N	?
rubla	rubla	0		S	sg g
     	rubla	0		S	sg n
     	rubla	0		S	sg p
4.	4.	0		O	?
Oni	####				
katust	katt	st		S	sg el
      	katus	t		S	sg p
ära	ära	0		D	
   	ära	0		V	neg o
tuul	tuul	0		S	sg n
vinu	vinu	0		S	sg g
    	vinu	0		S	sg n
    	vinu	0		S	sg p
2	2	0		N	?
rubla	rubla	0		S	sg g
     	rubla	0		S	sg n
     	rubla	0		S	sg p
5.	5.	0		O	?
koda	koda	0		S	sg n
    	koda	0		S	sg p
katus	katt	s		S	sg in
     	katus	0		S	sg n
pudus	pudu	s		S	sg in
1	1	0		N	?
rubla	rubla	0		S	sg g
     	rubla	0		S	sg n
     	rubla	0		S	sg p
56.	56.	0		O	?
2	2	0		N	?
/	/			Z	
3	3	0		N	?
vakamaad	vaka_maa	d		S	pl n
        	vaka_maa	d		S	sg p
ristheinamaad	rist_heina_maa	d		S	pl n
             	rist_heina_maa	d		S	sg p
äestamata	äesta	mata		V	mata
         	äesta=mata	0		A	
5	5	0		N	?
rubla	rubla	0		S	sg g
     	rubla	0		S	sg n
     	rubla	0		S	sg p
Summa	summ	0		S	adt
     	summ	0		S	sg g
     	summ	0		S	sg p
     	summa	0		S	sg g
     	summa	0		S	sg n
185	185	0		N	?
rbl	rbl	0		Y	?
P. Villemson	####				
+	+			Z	
+	+			Z	
+	+			Z	
J.Havakivi	####				
+	+			Z	
+	+			Z	
+	+			Z	
J. Roseberg	####				
+	+			Z	
+	+			Z	
+	+			Z	
