Protokoll	protokoll	0		S	sg n
N	N	0		Y	?
:	:			Z	
210	210	0		N	?
pooleli	pooleli	0		D	
jäänud	jää	nud		V	nud
      	jäänu	d		S	pl n
      	jäänud	0		A	
      	jäänud	0		A	sg n
      	jäänud	d		A	pl n
asjus	asi	us		S	pl in
tuli	tuli	0		S	sg n
    	tule	i		V	s
ette	ette	0		D	
    	ette	0		K	
    	esi	tte		S	adt
Karel	####				
Märtin	####				
ja	ja	0		J	
näitas	näita	s		V	s
,	,			Z	
Tartu	Tartu	0		H	adt
     	Tartu	0		H	sg g
     	Tartu	0		H	sg n
     	tartu	0		G	
Kreiskohtu	kreis_kohus	0		S	sg g
poolt	pool	t		N	sg p
     	pool	t		S	sg p
     	poolt	0		D	
     	poolt	0		K	
24	24	0		N	?
Märtsil	märts	l		S	sg ad
1889	1889	0		N	?
a.	a	0		Y	?
välja	välja	0		D	
     	välja	0		V	o
     	väli	0		S	adt
     	väli	0		S	sg g
     	väli	0		S	sg p
antud	an=tu	d		S	pl n
     	and	tud		V	tud
     	antud	0		A	
     	antud	0		A	sg n
     	antud	d		A	pl n
tunnistus	tunnistus	0		S	sg n
ette	ette	0		D	
    	ette	0		K	
    	esi	tte		S	adt
,	,			Z	
et	et	0		J	
tema	tema	0		P	sg g
    	tema	0		P	sg n
kaebtuse	####				
asi	asi	0		S	sg n
   	asi	0		V	o
mõisavalitsusega	mõisa_valitsus	ga		S	sg kom
teenistuse	teenistus	0		S	sg g
pärast	pära	st		S	sg el
      	pärane	t		A	sg p
      	pärast	0		D	
      	pärast	0		K	
Riias	Riia	s		H	sg in
Hofgerichtis	####				
seletuse	seletus	0		S	sg g
all	all	0		D	
   	all	0		K	
seisab	seis	b		V	b
.	.			Z	
Otsus	otsus	0		S	sg n
:	:			Z	
asi	asi	0		S	sg n
   	asi	0		V	o
kogukonnakohtus	kogukonna_kohus	s		S	sg in
pooleli	pooleli	0		D	
jätta	jät	a		V	da
kuni	kuni	0		J	
    	kuni	0		K	
Riiast	Riia	st		H	sg el
otsus	otsus	0		S	sg n
tuleb	tule	b		V	b
.	.			Z	
Peakohtumees	pea_kohtu_mees	0		S	sg n
J. Sarvi	####				
.	.			Z	
kohtumees	kohtu_mees	0		S	sg n
V. Oksa	####				
.	.			Z	
kohtumees	kohtu_mees	0		S	sg n
K. Havakivi	####				
.	.			Z	
Kirjutaja	kirjutaja	0		S	sg g
         	kirjutaja	0		S	sg n
O. Seidenbach	####				
.	.			Z	
(	(			Z	
allkiri	all_kiri	0		S	sg n
)	)			Z	
