Aastus	####				
ette	ette	0		D	
    	ette	0		K	
    	esi	tte		S	adt
Palla	####				
valla	vald	0		S	sg g
     	valla	0		D	
Jaagu	Jaak	0		H	sg g
     	jaak	0		S	sg g
Reinu	Rein	0		H	adt
     	Rein	0		H	sg g
     	Rein	0		H	sg p
N	N	0		Y	?
:	:			Z	
13	13	0		N	?
talu	talu	0		S	sg g
    	talu	0		V	o
    	talu	0		S	sg n
    	talu	0		S	sg p
omanik	omanik	0		S	sg n
Karel	####				
Vadi	vadi	0		S	sg g
    	vadi	0		V	o
    	vadi	0		S	sg n
    	vadi	0		S	sg p
ja	ja	0		J	
palus	palu	s		S	sg in
     	palu	s		V	s
protokoli	####				
üles	üles	0		D	
panna	pand	0		S	sg g
     	pane	a		V	da
     	panna	0		S	sg g
     	panna	0		S	sg n
,	,			Z	
et	et	0		J	
tema	tema	0		P	sg g
    	tema	0		P	sg n
oma	oma	0		A	sg g
   	oma	0		D	
   	oma	0		P	sg g
   	oma	0		S	sg g
   	oma	0		V	o
   	oma	0		A	sg n
   	oma	0		A	sg p
   	oma	0		P	sg n
   	oma	0		P	sg p
   	oma	0		S	sg n
   	oma	0		S	sg p
9.	9.	0		O	?
Novembrit	november	t		S	sg p
1891	1891	0		N	?
N	N	0		Y	?
:	:			Z	
2	2	0		N	?
alla	alla	0		D	
    	alla	0		K	
tehtud	tehtu	d		S	pl n
      	tehtud	0		A	
      	tehtud	0		A	sg n
      	tehtud	d		A	pl n
      	tege	tud		V	tud
protokoli	####				
sel	see	l		P	sg ad
   	sel	0		Y	?
moodil	####				
ümber	ümber	0		D	
     	ümber	0		K	
teeb	tege	b		V	b
,	,			Z	
et	et	0		J	
tema	tema	0		P	sg g
    	tema	0		P	sg n
poeg	poeg	0		S	sg n
Jakob	Jakob	0		H	sg n
pääle	####				
tema	tema	0		P	sg g
    	tema	0		P	sg n
ja	ja	0		J	
tema	tema	0		P	sg g
    	tema	0		P	sg n
naese	####				
katta	kat	a		V	da
surma	surm	0		S	adt
     	surm	0		S	sg g
     	surma	0		V	o
     	surm	0		S	sg p
mitte	mitte	0		D	
enam	enam	0		C	sg n
    	enam	0		D	
ema	ema	0		S	sg g
   	ema	0		S	sg n
   	ema	0		S	sg p
katta	kat	a		V	da
ma	mina	0		P	sg n
jaost	jaos	t		S	sg p
     	jagu	st		S	sg el
kedagi	keegi	dagi		P	sg p
osa	osa	0		S	sg g
   	osa	0		S	sg n
   	osa	0		S	sg p
ei	ei	0		D	
  	ei	0		V	neg
saa	saa	0		V	o
,	,			Z	
sest	see	st		P	sg el
    	sest	0		J	
et	et	0		J	
,	,			Z	
tema	tema	0		P	sg g
    	tema	0		P	sg n
Jakobi	Jakob	0		H	sg g
jaoks	jaoks	0		D	
     	jaoks	0		K	
     	jagu	ks		S	sg tr
ühe	üks	0		N	sg g
   	üks	0		P	sg g
   	ühe	0		S	sg n
tuuleveski	tuule_veski	0		S	sg g
          	tuule_veski	0		S	sg n
ehitanud	ehita	nud		V	nud
        	ehita=nu	d		S	pl n
        	ehita=nud	0		A	
        	ehita=nud	0		A	sg n
        	ehita=nud	d		A	pl n
,	,			Z	
nii	nii	0		D	
et	et	0		J	
,	,			Z	
siis	siis	0		D	
    	siis	0		J	
Jakobil	Jakob	l		H	sg ad
juba	juba	0		D	
oma	oma	0		A	sg g
   	oma	0		D	
   	oma	0		P	sg g
   	oma	0		S	sg g
   	oma	0		V	o
   	oma	0		A	sg n
   	oma	0		A	sg p
   	oma	0		P	sg n
   	oma	0		P	sg p
   	oma	0		S	sg n
   	oma	0		S	sg p
osa	osa	0		S	sg g
   	osa	0		S	sg n
   	osa	0		S	sg p
jagu	jagu	0		S	sg n
    	jagu	0		V	o
    	jagu	0		S	sg p
üks	üks	0		N	sg n
   	üks	0		P	sg n
tuuleveski	tuule_veski	0		S	sg g
          	tuule_veski	0		S	sg n
ja	ja	0		J	
8½	####				
taadrid	####				
maad	maa	d		S	pl n
    	maa	d		S	sg p
käes	käes	0		K	
    	käsi	s		S	sg in
on	ole	0		V	b
  	ole	0		V	vad
ja	ja	0		J	
tema	tema	0		P	sg g
    	tema	0		P	sg n
rohkem	rohkem	0		D	
maad	maa	d		S	pl n
    	maa	d		S	sg p
ei	ei	0		D	
  	ei	0		V	neg
saa	saa	0		V	o
,	,			Z	
sellegi	see	0	gi	P	sg g
       	sell	e	gi	S	pl p
pärast	pära	st		S	sg el
      	pärane	t		A	sg p
      	pärast	0		D	
      	pärast	0		K	
,	,			Z	
aga	aga	0		J	
sõsar	sõsar	0		S	sg n
Marile	Mari	le		H	sg all
      	mari	le		S	sg all
ka	ka	0		D	
100	100	0		N	?
rubla	rubla	0		S	sg g
     	rubla	0		S	sg n
     	rubla	0		S	sg p
maksma	maks	ma		V	ma
peab	pida	b		V	b
,	,			Z	
kui	kui	0		D	
   	kui	0		J	
Mari	Mari	0		H	sg g
    	mari	0		S	sg g
    	mari	0		S	sg n
    	Mari	0		H	sg n
    	mari	0		S	sg p
mehele	mees	le		S	sg all
lähab	####				
.	.			Z	
Mari	Mari	0		H	sg g
    	mari	0		S	sg g
    	mari	0		S	sg n
    	Mari	0		H	sg n
    	mari	0		S	sg p
jagu	jagu	0		S	sg n
    	jagu	0		V	o
    	jagu	0		S	sg p
jääb	jää	b		V	b
,	,			Z	
pääle	####				
mehele	mees	le		S	sg all
minekud	minek	d		S	pl n
kõik	kõik	0		P	pl n
    	kõik	0		S	sg n
    	kõik	0		P	sg n
tervelt	tervelt	0		D	
       	terve	lt		A	sg abl
       	terve	lt		S	sg abl
Paul	Paul	0		H	sg n
Vadi	vadi	0		S	sg g
    	vadi	0		V	o
    	vadi	0		S	sg n
    	vadi	0		S	sg p
omanduseks	omandus	ks		S	sg tr
.	.			Z	
Karel	####				
Vadi	vadi	0		S	sg g
    	vadi	0		V	o
    	vadi	0		S	sg n
    	vadi	0		S	sg p
ei	ei	0		D	
  	ei	0		V	neg
oska	oska	0		V	o
kirjutada	kirjuta	da		V	da
.	.			Z	
Otsus	otsus	0		S	sg n
:	:			Z	
seda	see	da		P	sg p
,	,			Z	
kui	kui	0		D	
   	kui	0		J	
sündinud	sündi	nud		V	nud
        	sündinu	d		S	pl n
        	sündinud	0		A	
        	sündinud	0		A	sg n
        	sündinud	d		A	pl n
,	,			Z	
ülestähentada	####				
.	.			Z	
kohtu	kohtu	0		V	o
     	kohus	0		S	sg g
eesistuja	ees_istuja	0		S	sg g
         	ees_istuja	0		S	sg n
Aabram	Aabram	0		H	sg n
Saar	saar	0		S	sg n
kohtumees	kohtu_mees	0		S	sg n
Josep	####				
Rosenberg	Rosenberg	0		H	sg n
kohtumees	kohtu_mees	0		S	sg n
Jakob	Jakob	0		H	sg n
Reinman	####				
Kirjutaja	kirjutaja	0		S	sg g
         	kirjutaja	0		S	sg n
O. Seidenbach	####				
.	.			Z	
