Aavvinurme	####				
koggo	####				
konna	konn	0		S	adt
     	konn	0		S	sg g
     	konn	0		S	sg p
kohtus	kohtu	s		V	s
      	kohus	s		S	sg in
Sel	see	l		P	sg ad
   	sel	0		Y	?
14mal	####				
Novembri	november	0		S	sg g
kuupäval	####				
astusid	astu	sid		V	sid
ette	ette	0		D	
    	ette	0		K	
    	esi	tte		S	adt
nimega	nimi	ga		S	sg kom
Mart	Mart	0		H	sg n
    	mart	0		S	sg n
kaunissar	####				
ja	ja	0		J	
Kristjan	Kristjan	0		H	sg n
Pajo	####				
ja	ja	0		J	
Mart	Mart	0		H	sg n
    	mart	0		S	sg n
Mattisen	####				
et	et	0		J	
nemad	tema	d		P	pl n
oma	oma	0		A	sg g
   	oma	0		D	
   	oma	0		P	sg g
   	oma	0		S	sg g
   	oma	0		V	o
   	oma	0		A	sg n
   	oma	0		A	sg p
   	oma	0		P	sg n
   	oma	0		P	sg p
   	oma	0		S	sg n
   	oma	0		S	sg p
Magasini	magas	ni		S	sg ter
        	magasin	0		S	adt
        	magasin	0		S	sg g
        	magasin	0		S	sg p
ja	ja	0		J	
pea	pea	0		D	
   	pea	0		S	sg g
   	pida	0		V	o
   	pea	0		S	sg n
raha	raha	0		S	sg g
    	raha	0		S	sg n
    	raha	0		S	sg p
maksmise	maksmine	0		S	sg g
juures	juur	s		S	sg in
      	juures	0		D	
      	juures	0		K	
väga	väga	0		D	
alatumad	ala=tum	d		C	pl n
on	ole	0		V	b
  	ole	0		V	vad
olnud	ol=nud	0		A	
     	ol=nud	0		A	sg n
     	ol=nud	d		A	pl n
     	ole	nud		V	nud
     	olnu	d		S	pl n
.	.			Z	
siis	siis	0		D	
    	siis	0		J	
võttis	võt	is		V	s
koggo	####				
konna	konn	0		S	adt
     	konn	0		S	sg g
     	konn	0		S	sg p
kohhus	####				
ette	ette	0		D	
    	ette	0		K	
    	esi	tte		S	adt
ja	ja	0		J	
mõistis	mõist	is		V	s
neile	see	le		P	pl all
     	tema	le		P	pl all
iga	iga	0		P	sg g
   	iga	0		P	sg n
   	iga	0		P	sg p
   	iga	0		S	sg n
   	iga	0		S	sg p
ühele	üks	le		N	sg all
     	üks	le		P	sg all
kaks	kaks	0		N	sg n
kümend	####				
upi	####				
vitsu	vits	u		S	pl p
mis	mis	0		P	pl n
   	mis	0		P	sg n
tunnistad	tunnista	d		V	d
.	.			Z	
koggo	####				
konna	konn	0		S	adt
     	konn	0		S	sg g
     	konn	0		S	sg p
kohtomehed	####				
Aandres	####				
Tamm	tamm	0		S	sg n
X	X	0		O	?
 	X	0		Y	?
Maddis	####				
Kadak	####				
X	X	0		O	?
 	X	0		Y	?
Mihkel	Mihkel	0		H	sg n
      	mihkel	0		A	sg n
      	mihkel	0		S	sg n
Laurison	####				
X	X	0		O	?
 	X	0		Y	?
