sel	see	l		P	sg ad
   	sel	0		Y	?
16nel	####				
nobr	####				
1879	1879	0		N	?
man	man	0		D	
   	man	0		K	
istujad	istuja	d		S	pl n
peakohtum	####				
J. Kulberg	####				
kohtum	####				
J	J	0		Y	?
.	.			Z	
palubbas	####				
abi	abi	0		S	sg g
   	abi	0		S	sg n
   	abi	0		S	sg p
-	-			Z	
""""	""""			Z	
-	-			Z	
J. Andruvits	####				
.	.			Z	
Karstmõisa	karst_mõis	0		S	sg g
vallast	vald	st		S	sg el
Jaan	Jaan	0		H	sg n
    	jaan	0		S	sg n
    	jaan	0		Y	?
Linna	linn	0		S	adt
     	linn	0		S	sg g
     	linn	0		S	sg p
tuli	tuli	0		S	sg n
    	tule	i		V	s
ette	ette	0		D	
    	ette	0		K	
    	esi	tte		S	adt
,	,			Z	
ja	ja	0		J	
ütles	ütle	s		V	s
et	et	0		J	
selle	see	0		P	sg g
     	sell	e		S	pl p
Veskemõisa	####				
kogukonna	kogukond	0		S	sg g
kohtumehe	kohtu_mees	0		S	sg g
J	J	0		Y	?
.	.			Z	
kituse	####				
vend	vend	0		S	sg n
Jüri	Jüri	0		H	sg g
    	Jüri	0		H	sg n
Kihtud	####				
,	,			Z	
ja	ja	0		J	
Kähri	####				
valla	vald	0		S	sg g
     	valla	0		D	
pea-	pea	0		D	
    	pea	0		S	sg g
    	pea	0		S	sg n
kohtumees	kohtu_mees	0		S	sg n
Jaan	Jaan	0		H	sg n
    	jaan	0		S	sg n
    	jaan	0		Y	?
Luik	luik	0		S	sg n
omad	oma	d		A	pl n
    	oma	d		P	pl n
    	oma	d		S	pl n
    	oma	d		V	d
kahekeste	kahe=ke	te		N	pl g
minu	mina	0		P	sg g
raha	raha	0		S	sg g
    	raha	0		S	sg n
    	raha	0		S	sg p
32	32	0		N	?
1	1	0		N	?
/	/			Z	
2	2	0		N	?
rbl	rbl	0		Y	?
mis	mis	0		P	pl n
   	mis	0		P	sg n
Kähri	####				
valla	vald	0		S	sg g
     	valla	0		D	
soldat	soldat	0		S	sg n
Jaan	Jaan	0		H	sg n
    	jaan	0		S	sg n
    	jaan	0		Y	?
Vesberg	####				
sel	see	l		P	sg ad
   	sel	0		Y	?
15nel	####				
oktbr	####				
sa	sina	0		P	sg n
.	.			Z	
a.	a	0		Y	?
Oriku	####				
laada	laat	0		S	sg g
kõrtsin	####				
ära	ära	0		D	
   	ära	0		V	neg o
varastas	varasta	s		V	s
otsman	####				
käinud	käi	nud		V	nud
      	käi=nud	0		A	
      	käi=nud	0		A	sg n
      	käi=nud	d		A	pl n
      	käinu	d		S	pl n
laada	laat	0		S	sg g
kohtumajas	kohtu_maja	s		S	sg in
,	,			Z	
kus	kus	0		D	
J	J	0		Y	?
Vesberg	####				
seda	see	da		P	sg p
neile	see	le		P	pl all
     	tema	le		P	pl all
oli	ole	i		V	s
juhatanud	juhata	nud		V	nud
         	juhata=nu	d		S	pl n
         	juhata=nud	0		A	
         	juhata=nud	0		A	sg n
         	juhata=nud	d		A	pl n
,	,			Z	
pärast	pära	st		S	sg el
      	pärane	t		A	sg p
      	pärast	0		D	
      	pärast	0		K	
seda	see	da		P	sg p
kui	kui	0		D	
   	kui	0		J	
kohtumees	kohtu_mees	0		S	sg n
Johan	Johan	0		H	sg n
Kihtud	####				
teda	tema	da		P	sg p
oli	ole	i		V	s
lahti	laht	i		S	pl p
     	lahti	0		D	
lasknud	lask	nud		V	nud
       	lask=nu	d		S	pl n
       	lask=nud	0		A	
       	lask=nud	0		A	sg n
       	lask=nud	d		A	pl n
,	,			Z	
sest	see	st		P	sg el
    	sest	0		J	
asjast	asi	st		S	sg el
teevad	tege	vad		V	vad
tunnistust	tunnistus	t		S	sg p
anda	and	a		V	da
,	,			Z	
1.	1.	0		O	?
Jaan	Jaan	0		H	sg n
    	jaan	0		S	sg n
    	jaan	0		Y	?
Mutik	####				
2.	2.	0		O	?
Jakob	Jakob	0		H	sg n
Vilman	####				
3.	3.	0		O	?
Karl	Karl	0		H	sg n
Seek	seek	0		S	sg n
4.	4.	0		O	?
Peeter	Peeter	0		H	sg n
Tinusk	####				
.	.			Z	
kõik	kõik	0		P	pl n
    	kõik	0		S	sg n
    	kõik	0		P	sg n
4	4	0		N	?
Veski	veski	0		S	sg g
     	veski	0		S	sg n
mõisa	mõis	0		S	sg g
vallast	vald	st		S	sg el
.	.			Z	
Veskemõisa	####				
vallast	vald	st		S	sg el
Jüri	Jüri	0		H	sg g
    	Jüri	0		H	sg n
Kihtud	####				
tuli	tuli	0		S	sg n
    	tule	i		V	s
ette	ette	0		D	
    	ette	0		K	
    	esi	tte		S	adt
,	,			Z	
ja	ja	0		J	
ütles	ütle	s		V	s
et	et	0		J	
tema	tema	0		P	sg g
    	tema	0		P	sg n
sest	see	st		P	sg el
    	sest	0		J	
raha	raha	0		S	sg g
    	raha	0		S	sg n
    	raha	0		S	sg p
otsimiseks	otsimine	ks		S	sg tr
ei	ei	0		D	
  	ei	0		V	neg
tea	tead	0		V	o
midagi	miski	dagi		P	sg p
,	,			Z	
temale	tema	le		P	sg all
ei	ei	0		D	
  	ei	0		V	neg
ole	ole	0		V	o
keegi	kee	0	gi	S	sg g
     	kee	0	gi	V	o
     	keegi	0		P	sg n
     	kee	0	gi	S	sg n
raha	raha	0		S	sg g
    	raha	0		S	sg n
    	raha	0		S	sg p
kuskile	kuskile	0		D	
juhatanud	juhata	nud		V	nud
         	juhata=nu	d		S	pl n
         	juhata=nud	0		A	
         	juhata=nud	0		A	sg n
         	juhata=nud	d		A	pl n
ja	ja	0		J	
ei	ei	0		D	
  	ei	0		V	neg
ole	ole	0		V	o
ka	ka	0		D	
kuskil	kuskil	0		D	
otsman	####				
käinud	käi	nud		V	nud
      	käi=nud	0		A	
      	käi=nud	0		A	sg n
      	käi=nud	d		A	pl n
      	käinu	d		S	pl n
,	,			Z	
ei	ei	0		D	
  	ei	0		V	neg
üksinda	üksinda	0		D	
ei	ei	0		D	
  	ei	0		V	neg
ka	ka	0		D	
Jaan	Jaan	0		H	sg n
    	jaan	0		S	sg n
    	jaan	0		Y	?
Luigaga	####				
,	,			Z	
käinud	käi	nud		V	nud
      	käi=nud	0		A	
      	käi=nud	0		A	sg n
      	käi=nud	d		A	pl n
      	käinu	d		S	pl n
Kähri	####				
peakohtumees	pea_kohtu_mees	0		S	sg n
J. Luik	####				
ei	ei	0		D	
  	ei	0		V	neg
ole	ole	0		V	o
selle	see	0		P	sg g
     	sell	e		S	pl p
kohtu	kohtu	0		V	o
     	kohus	0		S	sg g
kutsumise	kutsumine	0		S	sg g
järele	järele	0		D	
      	järele	0		K	
selle	see	0		P	sg g
     	sell	e		S	pl p
kohtu	kohtu	0		V	o
     	kohus	0		S	sg g
ette	ette	0		D	
    	ette	0		K	
    	esi	tte		S	adt
tulnud	tul=nud	0		A	
      	tul=nud	0		A	sg n
      	tul=nud	d		A	pl n
      	tule	nud		V	nud
      	tulnu	d		S	pl n
.	.			Z	
1.	1.	0		O	?
tunnistaja	tunnistaja	0		S	sg g
          	tunnistaja	0		S	sg n
Veskemõisa	####				
vallast	vald	st		S	sg el
Jaan	Jaan	0		H	sg n
    	jaan	0		S	sg n
    	jaan	0		Y	?
Mutik	####				
tuli	tuli	0		S	sg n
    	tule	i		V	s
ette	ette	0		D	
    	ette	0		K	
    	esi	tte		S	adt
ja	ja	0		J	
ütles	ütle	s		V	s
,	,			Z	
Jüri	Jüri	0		H	sg g
    	Jüri	0		H	sg n
Kihtud	####				
on	ole	0		V	b
  	ole	0		V	vad
temale	tema	le		P	sg all
sel	see	l		P	sg ad
   	sel	0		Y	?
samal	sama	l		P	sg ad
päeval	päev	l		S	sg ad
(	(			Z	
15nel	####				
oktibril	####				
see	see	0		P	sg n
.	.			Z	
a.	a	0		Y	?
)	)			Z	
kui	kui	0		D	
   	kui	0		J	
Karstmõisa	karst_mõis	0		S	sg g
val	####				
mehe	mees	0		S	sg g
J. Linna	####				
raha	raha	0		S	sg g
    	raha	0		S	sg n
    	raha	0		S	sg p
vargus	vargus	0		S	sg n
oli	ole	i		V	s
,	,			Z	
oma	oma	0		A	sg g
   	oma	0		D	
   	oma	0		P	sg g
   	oma	0		S	sg g
   	oma	0		V	o
   	oma	0		A	sg n
   	oma	0		A	sg p
   	oma	0		P	sg n
   	oma	0		P	sg p
   	oma	0		S	sg n
   	oma	0		S	sg p
suuga	suu	ga		S	sg kom
laadalt	laat	lt		S	sg abl
koju	kodu	0		S	adt
poole	pool	0		N	sg g
     	pool	0		S	sg g
     	pool	e		S	pl p
     	poole	0		K	
     	poole	0		S	sg n
minnes	mine	es		V	des
tee	tee	0		S	sg g
   	tege	0		V	o
   	tee	0		S	sg n
peal	pea	l		S	sg ad
    	peal	0		D	
    	peal	0		K	
kõnelnud	kõnel=nu	d		S	pl n
        	kõnel=nud	0		A	
        	kõnel=nud	0		A	sg n
        	kõnel=nud	d		A	pl n
        	kõnele	nud		V	nud
,	,			Z	
et	et	0		J	
see	see	0		P	sg n
Kähri	####				
soldat	soldat	0		S	sg n
.	.			Z	
J. Vesberg	####				
oli	ole	i		V	s
siis	siis	0		D	
    	siis	0		J	
kui	kui	0		D	
   	kui	0		J	
ta	tema	0		P	sg g
  	tema	0		P	sg n
lahti	laht	i		S	pl p
     	lahti	0		D	
oli	ole	i		V	s
kohtu	kohtu	0		V	o
     	kohus	0		S	sg g
tarest	tare	st		S	sg el
lastud	las=tu	d		S	pl n
      	las=tud	0		A	
      	las=tud	0		A	sg n
      	las=tud	d		A	pl n
      	lask	tud		V	tud
,	,			Z	
selle	see	0		P	sg g
     	sell	e		S	pl p
Kähri	####				
pakohtum	####				
,	,			Z	
Jaan	Jaan	0		H	sg n
    	jaan	0		S	sg n
    	jaan	0		Y	?
Luigale	####				
seda	see	da		P	sg p
raha	raha	0		S	sg g
    	raha	0		S	sg n
    	raha	0		S	sg p
laada	laat	0		S	sg g
kohtu	kohtu	0		V	o
     	kohus	0		S	sg g
maja	maja	0		S	sg g
    	maja	0		S	sg n
    	maja	0		S	sg p
nurga	nurk	0		S	sg g
juhatanud	juhata	nud		V	nud
         	juhata=nu	d		S	pl n
         	juhata=nud	0		A	
         	juhata=nud	0		A	sg n
         	juhata=nud	d		A	pl n
,	,			Z	
ja	ja	0		J	
selle	see	0		P	sg g
     	sell	e		S	pl p
juhatamise	juhatamine	0		S	sg g
järele	järele	0		D	
      	järele	0		K	
ütles	ütle	s		V	s
Jüri	Jüri	0		H	sg g
    	Jüri	0		H	sg n
Kihtud	####				
,	,			Z	
enda	ise	0		P	sg g
kohtumehe	kohtu_mees	0		S	sg g
Jaan	Jaan	0		H	sg n
    	jaan	0		S	sg n
    	jaan	0		Y	?
Luigaga	####				
seda	see	da		P	sg p
raha	raha	0		S	sg g
    	raha	0		S	sg n
    	raha	0		S	sg p
laada	laat	0		S	sg g
kohtumajas	kohtu_maja	s		S	sg in
otsman	####				
olevat	ole	vat		V	vat
      	olev	t		A	sg p
      	olev	t		S	sg p
käinud	käi	nud		V	nud
      	käi=nud	0		A	
      	käi=nud	0		A	sg n
      	käi=nud	d		A	pl n
      	käinu	d		S	pl n
,	,			Z	
ja	ja	0		J	
ütles	ütle	s		V	s
et	et	0		J	
nemad	tema	d		P	pl n
ei	ei	0		D	
  	ei	0		V	neg
olevat	ole	vat		V	vat
      	olev	t		A	sg p
      	olev	t		S	sg p
raha	raha	0		S	sg g
    	raha	0		S	sg n
    	raha	0		S	sg p
kätte	kätte	0		K	
     	käsi	tte		S	adt
mitte	mitte	0		D	
saanud	saa	nud		V	nud
      	saa=nud	0		A	
      	saa=nud	0		A	sg n
      	saa=nud	d		A	pl n
      	saanu	d		S	pl n
ja	ja	0		J	
arvas	arva	s		V	s
et	et	0		J	
keegi	kee	0	gi	S	sg g
     	kee	0	gi	V	o
     	keegi	0		P	sg n
     	kee	0	gi	S	sg n
oli	ole	i		V	s
juba	juba	0		D	
enne	enne	0		D	
    	enne	0		K	
    	enne	0		S	sg n
nende	see	de		P	pl g
     	tema	de		P	pl g
sinna	sinna	0		D	
saamist	saam	st		S	sg el
       	saamine	t		S	sg p
see	see	0		P	sg n
raha	raha	0		S	sg g
    	raha	0		S	sg n
    	raha	0		S	sg p
ära	ära	0		D	
   	ära	0		V	neg o
leidnud	leid	nud		V	nud
       	leid=nu	d		S	pl n
       	leid=nud	0		A	
       	leid=nud	0		A	sg n
       	leid=nud	d		A	pl n
ja	ja	0		J	
ka	ka	0		D	
võtnud	võt	nud		V	nud
      	võt=nu	d		S	pl n
      	võt=nud	0		A	
      	võt=nud	0		A	sg n
      	võt=nud	d		A	pl n
,	,			Z	
ja	ja	0		J	
seda	see	da		P	sg p
juttu	jutt	0		S	adt
     	jutt	0		S	sg p
teab	tead	b		V	b
ka	ka	0		D	
Jakob	Jakob	0		H	sg n
Vilman	####				
Veskin	####				
.	.			Z	
vallas	vald	s		S	sg in
.	.			Z	
2.	2.	0		O	?
tun	####				
.	.			Z	
Veski	veski	0		S	sg g
     	veski	0		S	sg n
m	m	0		Y	?
.	.			Z	
val	####				
.	.			Z	
Jakob	Jakob	0		H	sg n
Vilman	####				
tuli	tuli	0		S	sg n
    	tule	i		V	s
ette	ette	0		D	
    	ette	0		K	
    	esi	tte		S	adt
,	,			Z	
ja	ja	0		J	
ütles	ütle	s		V	s
et	et	0		J	
Jüri	Jüri	0		H	sg g
    	Jüri	0		H	sg n
Kihtud	####				
,	,			Z	
on	ole	0		V	b
  	ole	0		V	vad
temale	tema	le		P	sg all
peale	pea	le		S	sg all
     	peale	0		D	
     	peale	0		K	
laada	laat	0		S	sg g
kolmandal	kolmas	l		O	sg ad
päeval	päev	l		S	sg ad
,	,			Z	
(	(			Z	
17nel	####				
oktbr	####				
.	.			Z	
see	see	0		P	sg n
.	.			Z	
a	a	0		Y	?
)	)			Z	
tee--	tee	0		S	sg g
     	tege	0		V	o
     	tee	0		S	sg n
tega	####				
mise	####				
man	man	0		D	
   	man	0		K	
kruusa	kruus	0		S	adt
      	kruus	0		S	sg g
      	kruus	0		S	sg p
laua	laud	0		S	sg g
kõnelnud	kõnel=nu	d		S	pl n
        	kõnel=nud	0		A	
        	kõnel=nud	0		A	sg n
        	kõnel=nud	d		A	pl n
        	kõnele	nud		V	nud
,	,			Z	
et	et	0		J	
Kähri	####				
soldat	soldat	0		S	sg n
J. Vesberg	####				
on	ole	0		V	b
  	ole	0		V	vad
talle	tall	e		S	pl p
     	tall	0		S	adt
     	tall	0		S	sg g
     	tema	lle		P	sg all
     	tall	0		S	sg p
raha	raha	0		S	sg g
    	raha	0		S	sg n
    	raha	0		S	sg p
laada	laat	0		S	sg g
kohtu	kohtu	0		V	o
     	kohus	0		S	sg g
tare	tare	0		S	sg g
    	tare	0		S	sg n
nurga	nurk	0		S	sg g
juhatanud	juhata	nud		V	nud
         	juhata=nu	d		S	pl n
         	juhata=nud	0		A	
         	juhata=nud	0		A	sg n
         	juhata=nud	d		A	pl n
ja	ja	0		J	
ütles	ütle	s		V	s
enda	ise	0		P	sg g
otsman	####				
ole-	####				
vat	####				
käinud	käi	nud		V	nud
      	käi=nud	0		A	
      	käi=nud	0		A	sg n
      	käi=nud	d		A	pl n
      	käinu	d		S	pl n
,	,			Z	
aga	aga	0		J	
ei	ei	0		D	
  	ei	0		V	neg
ütle	ütle	0		V	o
raha	raha	0		S	sg g
    	raha	0		S	sg n
    	raha	0		S	sg p
olevat	ole	vat		V	vat
      	olev	t		A	sg p
      	olev	t		S	sg p
kätte	kätte	0		K	
     	käsi	tte		S	adt
saanud	saa	nud		V	nud
      	saa=nud	0		A	
      	saa=nud	0		A	sg n
      	saa=nud	d		A	pl n
      	saanu	d		S	pl n
,	,			Z	
seda	see	da		P	sg p
juttu	jutt	0		S	adt
     	jutt	0		S	sg p
kuulis	kuul	is		V	s
      	kuul	s		S	sg in
ka	ka	0		D	
sel	see	l		P	sg ad
   	sel	0		Y	?
samal	sama	l		P	sg ad
kõrral	####				
Karl	Karl	0		H	sg n
Seek	seek	0		S	sg n
Veski	veski	0		S	sg g
     	veski	0		S	sg n
.	.			Z	
m	m	0		Y	?
.	.			Z	
vallast	vald	st		S	sg el
.	.			Z	
3.	3.	0		O	?
tun	####				
.	.			Z	
Veski	veski	0		S	sg g
     	veski	0		S	sg n
.	.			Z	
val	####				
,	,			Z	
Karl	Karl	0		H	sg n
Seek	seek	0		S	sg n
tuli	tuli	0		S	sg n
    	tule	i		V	s
ette	ette	0		D	
    	ette	0		K	
    	esi	tte		S	adt
,	,			Z	
ja	ja	0		J	
ütles	ütle	s		V	s
et	et	0		J	
Jüri	Jüri	0		H	sg g
    	Jüri	0		H	sg n
Kihtud	####				
on	ole	0		V	b
  	ole	0		V	vad
talle	tall	e		S	pl p
     	tall	0		S	adt
     	tall	0		S	sg g
     	tema	lle		P	sg all
     	tall	0		S	sg p
sel	see	l		P	sg ad
   	sel	0		Y	?
17nel	####				
oktbr	####				
.	.			Z	
see	see	0		P	sg n
.	.			Z	
a.	a	0		Y	?
tesiteggemise	####				
man	man	0		D	
   	man	0		K	
kõnelnud	kõnel=nu	d		S	pl n
        	kõnel=nud	0		A	
        	kõnel=nud	0		A	sg n
        	kõnel=nud	d		A	pl n
        	kõnele	nud		V	nud
,	,			Z	
et	et	0		J	
Jaan	Jaan	0		H	sg n
    	jaan	0		S	sg n
    	jaan	0		Y	?
Vesberg	####				
on	ole	0		V	b
  	ole	0		V	vad
talle	tall	e		S	pl p
     	tall	0		S	adt
     	tall	0		S	sg g
     	tema	lle		P	sg all
     	tall	0		S	sg p
laada	laat	0		S	sg g
kohtumaja	kohtu_maja	0		S	sg g
         	kohtu_maja	0		S	sg n
         	kohtu_maja	0		S	sg p
nurga	nurk	0		S	sg g
juhatanud	juhata	nud		V	nud
         	juhata=nu	d		S	pl n
         	juhata=nud	0		A	
         	juhata=nud	0		A	sg n
         	juhata=nud	d		A	pl n
,	,			Z	
ja	ja	0		J	
tema	tema	0		P	sg g
    	tema	0		P	sg n
olevat	ole	vat		V	vat
      	olev	t		A	sg p
      	olev	t		S	sg p
ka	ka	0		D	
selle	see	0		P	sg g
     	sell	e		S	pl p
juhatamise	juhatamine	0		S	sg g
perra	####				
otsman	####				
käinud	käi	nud		V	nud
      	käi=nud	0		A	
      	käi=nud	0		A	sg n
      	käi=nud	d		A	pl n
      	käinu	d		S	pl n
laada	laat	0		S	sg g
kohtumajas	kohtu_maja	s		S	sg in
,	,			Z	
aga	aga	0		J	
ei	ei	0		D	
  	ei	0		V	neg
olevat	ole	vat		V	vat
      	olev	t		A	sg p
      	olev	t		S	sg p
raha	raha	0		S	sg g
    	raha	0		S	sg n
    	raha	0		S	sg p
mitte	mitte	0		D	
seal	seal	0		D	
    	siga	l		A	sg ad
    	siga	l		S	sg ad
leidnud	leid	nud		V	nud
       	leid=nu	d		S	pl n
       	leid=nud	0		A	
       	leid=nud	0		A	sg n
       	leid=nud	d		A	pl n
.	.			Z	
4.	4.	0		O	?
tun	####				
.	.			Z	
Veski	veski	0		S	sg g
     	veski	0		S	sg n
.	.			Z	
m	m	0		Y	?
.	.			Z	
val	####				
.	.			Z	
Peeter	Peeter	0		H	sg n
Tinusk	####				
tuli	tuli	0		S	sg n
    	tule	i		V	s
ette	ette	0		D	
    	ette	0		K	
    	esi	tte		S	adt
,	,			Z	
ja	ja	0		J	
ütles	ütle	s		V	s
,	,			Z	
et	et	0		J	
tema	tema	0		P	sg g
    	tema	0		P	sg n
ei	ei	0		D	
  	ei	0		V	neg
tea	tead	0		V	o
sest	see	st		P	sg el
    	sest	0		J	
Jüri	Jüri	0		H	sg g
    	Jüri	0		H	sg n
kituse	####				
raha	raha	0		S	sg g
    	raha	0		S	sg n
    	raha	0		S	sg p
otsman	####				
käimiseks	käimine	ks		S	sg tr
midagi	miski	dagi		P	sg p
,	,			Z	
ja	ja	0		J	
ütles	ütle	s		V	s
,	,			Z	
et	et	0		J	
tema	tema	0		P	sg g
    	tema	0		P	sg n
on	ole	0		V	b
  	ole	0		V	vad
küll	küll	0		D	
    	küll	0		S	sg n
selle	see	0		P	sg g
     	sell	e		S	pl p
Karstmõisa	karst_mõis	0		S	sg g
valla	vald	0		S	sg g
     	valla	0		D	
mehele	mees	le		S	sg all
Jaan	Jaan	0		H	sg n
    	jaan	0		S	sg n
    	jaan	0		Y	?
Linnale	linn	le		S	sg all
peale	pea	le		S	sg all
     	peale	0		D	
     	peale	0		K	
laada	laat	0		S	sg g
sel	see	l		P	sg ad
   	sel	0		Y	?
17nel	####				
oktibril	####				
see	see	0		P	sg n
.	.			Z	
a.	a	0		Y	?
tesiteggemise	####				
man	man	0		D	
   	man	0		K	
,	,			Z	
tee	tee	0		S	sg g
   	tege	0		V	o
   	tee	0		S	sg n
peal	pea	l		S	sg ad
    	peal	0		D	
    	peal	0		K	
kõnelnud	kõnel=nu	d		S	pl n
        	kõnel=nud	0		A	
        	kõnel=nud	0		A	sg n
        	kõnel=nud	d		A	pl n
        	kõnele	nud		V	nud
raha	raha	0		S	sg g
    	raha	0		S	sg n
    	raha	0		S	sg p
otsimise	otsimine	0		S	sg g
lugust	####				
,	,			Z	
aga	aga	0		J	
mitte	mitte	0		D	
Jaan	Jaan	0		H	sg n
    	jaan	0		S	sg n
    	jaan	0		Y	?
Linna	linn	0		S	adt
     	linn	0		S	sg g
     	linn	0		S	sg p
raha	raha	0		S	sg g
    	raha	0		S	sg n
    	raha	0		S	sg p
otsimiseks	otsimine	ks		S	sg tr
,	,			Z	
vaid	vaid	0		D	
    	vaid	0		J	
kohtumehe	kohtu_mees	0		S	sg g
Johan	Johan	0		H	sg n
kituse	####				
ameti	amet	0		S	sg g
kala-raha	kala-raha	0		S	sg g
         	kala-raha	0		S	sg n
         	kala-raha	0		S	sg p
otsimise	otsimine	0		S	sg g
lugust	####				
on	ole	0		V	b
  	ole	0		V	vad
see	see	0		P	sg n
kõne	kõne	0		S	sg g
    	kõne	0		S	sg n
olnud	ol=nud	0		A	
     	ol=nud	0		A	sg n
     	ol=nud	d		A	pl n
     	ole	nud		V	nud
     	olnu	d		S	pl n
.	.			Z	
selle	see	0		P	sg g
     	sell	e		S	pl p
peale	pea	le		S	sg all
     	peale	0		D	
     	peale	0		K	
ütles	ütle	s		V	s
Karstmõisa	karst_mõis	0		S	sg g
val	####				
.	.			Z	
mees	mees	0		S	sg n
    	mesi	s		S	sg in
Jaan	Jaan	0		H	sg n
    	jaan	0		S	sg n
    	jaan	0		Y	?
Linna	linn	0		S	adt
     	linn	0		S	sg g
     	linn	0		S	sg p
et	et	0		J	
mõlemist	####				
raha	raha	0		S	sg g
    	raha	0		S	sg n
    	raha	0		S	sg p
otsimise	otsimine	0		S	sg g
lugust	####				
on	ole	0		V	b
  	ole	0		V	vad
Peeter	Peeter	0		H	sg n
Tinusk	####				
talle	tall	e		S	pl p
     	tall	0		S	adt
     	tall	0		S	sg g
     	tema	lle		P	sg all
     	tall	0		S	sg p
kõnelnud	kõnel=nu	d		S	pl n
        	kõnel=nud	0		A	
        	kõnel=nud	0		A	sg n
        	kõnel=nud	d		A	pl n
        	kõnele	nud		V	nud
.	.			Z	
kohus	kohu	s		V	s
     	kohus	0		S	sg n
on	ole	0		V	b
  	ole	0		V	vad
mõistnud	mõist	nud		V	nud
        	mõist=nu	d		S	pl n
        	mõist=nud	0		A	
        	mõist=nud	0		A	sg n
        	mõist=nud	d		A	pl n
,	,			Z	
et	et	0		J	
see	see	0		P	sg n
siin	siin	0		D	
    	siin	0		S	sg n
üles	üles	0		D	
võetud	võe=tu	d		S	pl n
      	võetud	0		A	
      	võetud	0		A	sg n
      	võetud	d		A	pl n
      	võt	tud		V	tud
protokoll	protokoll	0		S	sg n
peab	pida	b		V	b
keiserliku	keiserlik	0		A	sg g
Tartu	Tartu	0		H	adt
     	Tartu	0		H	sg g
     	Tartu	0		H	sg n
     	tartu	0		G	
Makohtul	####				
sisse	siss	e		S	pl p
     	sisse	0		D	
     	sisse	0		K	
saata	saat	a		V	da
peakohtumees	pea_kohtu_mees	0		S	sg n
Jakob	Jakob	0		H	sg n
Kulberg	####				
XXX	XXX	0		O	?
   	XXX	0		Y	?
kohtumees	kohtu_mees	0		S	sg n
Jaan	Jaan	0		H	sg n
    	jaan	0		S	sg n
    	jaan	0		Y	?
palubbas	####				
XXX	XXX	0		O	?
   	XXX	0		Y	?
abi	abi	0		S	sg g
   	abi	0		S	sg n
   	abi	0		S	sg p
-	-			Z	
do	####				
-	-			Z	
Johan	Johan	0		H	sg n
Andruvits	####				
XXX	XXX	0		O	?
   	XXX	0		Y	?
