Palla	####				
kohtus	kohtu	s		V	s
      	kohus	s		S	sg in
sel	see	l		P	sg ad
   	sel	0		Y	?
13.	13.	0		O	?
Novbr	####				
.	.			Z	
1876.	1876.	0		O	?
Männi	mänd	0		S	sg g
vasto	####				
Kriiska	kriiska	0		V	o
.	.			Z	
Aabram	Aabram	0		H	sg n
Vilk	vilk	0		S	sg n
tunnistas	tunnista	s		V	s
:	:			Z	
äraläinud	ära_läinu	d		S	pl n
         	ära_läinud	0		A	
         	ära_läinud	0		A	sg n
         	ära_läinud	d		A	pl n
kaevaja	kaeva=ja	0		S	sg g
       	kaeva=ja	0		S	sg n
on	ole	0		V	b
  	ole	0		V	vad
Lena	####				
Männi	mänd	0		S	sg g
ükskõrd	####				
nutnu	nut=nu	0		S	sg g
     	nut=nu	0		S	sg n
ja	ja	0		J	
tema	tema	0		P	sg g
    	tema	0		P	sg n
küsimise	küsimine	0		S	sg g
peale	pea	le		S	sg all
     	peale	0		D	
     	peale	0		K	
ütelnu	ütel=nu	0		S	sg g
      	ütel=nu	0		S	sg n
,	,			Z	
et	et	0		J	
Josep	####				
Kriiska	kriiska	0		V	o
teda	tema	da		P	sg p
ärarikuu	####				
,	,			Z	
palus	palu	s		S	sg in
     	palu	s		V	s
kaebaja	kaebaja	0		S	sg g
       	kaebaja	0		S	sg n
Otto	Otto	0		H	sg g
    	Otto	0		H	sg n
Mõisa	mõis	0		S	sg g
ülekuulata	####				
.	.			Z	
Josep	####				
Vilk	vilk	0		S	sg n
tunnistas	tunnista	s		V	s
:	:			Z	
tema	tema	0		P	sg g
    	tema	0		P	sg n
ei	ei	0		D	
  	ei	0		V	neg
tea	tead	0		V	o
sest	see	st		P	sg el
    	sest	0		J	
asjast	asi	st		S	sg el
midagi	miski	dagi		P	sg p
tunnistada	tunnista	da		V	da
.	.			Z	
Simon	Simon	0		H	sg n
Sirg	####				
es	es			H	?
tea	tead	0		V	o
midagi	miski	dagi		P	sg p
rääkida	rääki	da		V	da
.	.			Z	
Lena	####				
Männi	mänd	0		S	sg g
oma	oma	0		A	sg g
   	oma	0		D	
   	oma	0		P	sg g
   	oma	0		S	sg g
   	oma	0		V	o
   	oma	0		A	sg n
   	oma	0		A	sg p
   	oma	0		P	sg n
   	oma	0		P	sg p
   	oma	0		S	sg n
   	oma	0		S	sg p
isaga	isa	ga		S	sg kom
oli	ole	i		V	s
seietulnu	####				
,	,			Z	
Josep	####				
Kriiska	kriiska	0		V	o
ja	ja	0		J	
Kusta	Kusta	0		H	sg g
     	Kusta	0		H	sg n
     	kuse	ta		V	da
     	kuse	ta		V	ta
Õunap	####				
väljajäänu	välja_jäänu	0		S	sg g
          	välja_jäänu	0		S	sg n
          	välja_jäänud	0		A	sg g
.	.			Z	
Otto	Otto	0		H	sg g
    	Otto	0		H	sg n
Mõisa	mõis	0		S	sg g
rääkis	rääki	s		V	s
:	:			Z	
Tema	tema	0		P	sg g
    	tema	0		P	sg n
nüüd	nüüd	0		D	
ei	ei	0		D	
  	ei	0		V	neg
tea	tead	0		V	o
,	,			Z	
et	et	0		J	
aga	aga	0		J	
Josep	####				
Kriiska	kriiska	0		V	o
mõni	mõni	0		P	sg n
kõrd	####				
õhtu	õhtu	0		S	sg g
    	õhtu	0		S	sg n
hiljem	hiljem	0		D	
kõõgi	####				
sõõma	####				
tulnu	tulnu	0		S	sg g
     	tulnu	0		S	sg n
ja	ja	0		J	
ka	ka	0		D	
,	,			Z	
hiljem	hiljem	0		D	
äraläinu	ära_läinu	0		S	sg g
        	ära_läinu	0		S	sg n
        	ära_läinud	0		A	sg g
,	,			Z	
mõnikõrd	####				
kül	####				
ka	ka	0		D	
kõgi	####				
kõrvale	kõrv	le		S	sg all
       	kõrvale	0		D	
       	kõrvale	0		K	
tuppa	tuba	0		S	adt
läinu	läinu	0		S	sg g
     	läinu	0		S	sg n
     	läinud	0		A	sg g
ja	ja	0		J	
ukse	uks	0		S	sg g
kinni	kinni	0		D	
pandnu	####				
.	.			Z	
Teises	teine	s		O	sg in
      	teine	s		P	sg in
kohtupäevas	kohtu_päev	s		S	sg in
Kusta	Kusta	0		H	sg g
     	Kusta	0		H	sg n
     	kuse	ta		V	da
     	kuse	ta		V	ta
Õunap	####				
ja	ja	0		J	
Joosep	Joosep	0		H	sg n
Kriiska	kriiska	0		V	o
seije	####				
kutsu	kutsu	0		V	o
     	kutsu	0		S	sg g
     	kutsu	0		S	sg n
.	.			Z	
Peakohtumees	pea_kohtu_mees	0		S	sg n
:	:			Z	
Paul	Paul	0		H	sg n
Villemson	####				
xxx	####				
kohtum	####				
:	:			Z	
J. Havakivi	####				
xxx	####				
abi	abi	0		S	sg g
   	abi	0		S	sg n
   	abi	0		S	sg p
kohtum	####				
:	:			Z	
T. Velt	####				
xxx	####				
