kaibas	####				
Joosep	Joosep	0		H	sg n
Kask	kask	0		S	sg n
,	,			Z	
et	et	0		J	
Pusi	puski	0		V	o
    	pusi	0		V	o
kõrtsinaine	kõrtsi_naine	0		S	sg n
on	ole	0		V	b
  	ole	0		V	vad
tema	tema	0		P	sg g
    	tema	0		P	sg n
õde	õde	0		S	sg n
   	õde	0		S	sg p
teotanud	teota	nud		V	nud
        	teota=nu	d		S	pl n
        	teota=nud	0		A	
        	teota=nud	0		A	sg n
        	teota=nud	d		A	pl n
,	,			Z	
sõimates	sõima	tes		V	des
:	:			Z	
""""	""""			Z	
soldat	soldat	0		S	sg n
Martin	Martin	0		H	sg n
Õunapuu	õuna_puu	0		S	sg g
       	õuna_puu	0		S	sg n
on	ole	0		V	b
  	ole	0		V	vad
õõlnud	####				
:	:			Z	
mina	mina	0		P	sg n
    	mina	0		S	sg g
    	mina	0		S	sg n
    	mina	0		S	sg p
või	või	0		S	sg g
   	või	0		V	o
   	või	0		D	
   	või	0		J	
   	või	0		S	sg n
Paarl	####				
Kase	kask	0		S	sg g
maja	maja	0		S	sg g
    	maja	0		S	sg n
    	maja	0		S	sg p
lakas	lakk	s		S	sg in
kos	####				
tüdrukud	tüdruk	d		S	pl n
magavad	maga	vad		V	vad
       	magav	d		A	pl n
,	,			Z	
halva	halb	0		A	sg g
     	halva	0		V	o
tõõd	####				
teha	tege	a		V	da
.	.			Z	
Martin	Martin	0		H	sg n
Õunapuu	õuna_puu	0		S	sg g
       	õuna_puu	0		S	sg n
astus	astu	s		V	s
ette	ette	0		D	
    	ette	0		K	
    	esi	tte		S	adt
,	,			Z	
salgas	salga	s		V	s
      	salk	s		S	sg in
seda	see	da		P	sg p
hoopis	hoopis	0		D	
ära	ära	0		D	
   	ära	0		V	neg o
ja	ja	0		J	
tunnistas	tunnista	s		V	s
,	,			Z	
et	et	0		J	
noormees	noor_mees	0		S	sg n
Paul	Paul	0		H	sg n
Ala	ala	0		S	sg g
   	ala	0		S	sg n
   	ala	0		S	sg p
on	ole	0		V	b
  	ole	0		V	vad
Kase	kask	0		S	sg g
tütre	tütar	0		S	sg g
juures	juur	s		S	sg in
      	juures	0		D	
      	juures	0		K	
käinud	käi	nud		V	nud
      	käi=nud	0		A	
      	käi=nud	0		A	sg n
      	käi=nud	d		A	pl n
      	käinu	d		S	pl n
ja	ja	0		J	
et	et	0		J	
Pusi	puski	0		V	o
    	pusi	0		V	o
kõrtsinaine	kõrtsi_naine	0		S	sg n
Joosep	Joosep	0		H	sg n
Kase	kask	0		S	sg g
peret	pere	t		S	sg p
aga	aga	0		J	
on	ole	0		V	b
  	ole	0		V	vad
manitsenud	manitse	nud		V	nud
          	manitse=nu	d		S	pl n
          	manitse=nud	0		A	
          	manitse=nud	0		A	sg n
          	manitse=nud	d		A	pl n
,	,			Z	
oma	oma	0		A	sg g
   	oma	0		D	
   	oma	0		P	sg g
   	oma	0		S	sg g
   	oma	0		V	o
   	oma	0		A	sg n
   	oma	0		A	sg p
   	oma	0		P	sg n
   	oma	0		P	sg p
   	oma	0		S	sg n
   	oma	0		S	sg p
tütrid	####				
Paul	Paul	0		H	sg n
Ala	ala	0		S	sg g
   	ala	0		S	sg n
   	ala	0		S	sg p
eest	eest	0		D	
    	eest	0		K	
    	esi	st		S	sg el
hoita	hoid	ta		V	ta
,	,			Z	
et	et	0		J	
neile	see	le		P	pl all
     	tema	le		P	pl all
mitte	mitte	0		D	
halva	halb	0		A	sg g
     	halva	0		V	o
nime	nimi	0		S	sg g
    	nimi	0		S	sg p
ei	ei	0		D	
  	ei	0		V	neg
saaks	saa	ks		V	ks
.	.			Z	
Selle	see	0		P	sg g
     	sell	e		S	pl p
tunnistuse	tunnistus	0		S	sg g
pärast	pära	st		S	sg el
      	pärane	t		A	sg p
      	pärast	0		D	
      	pärast	0		K	
mõistis	mõist	is		V	s
kogokonna	####				
kohus	kohu	s		V	s
     	kohus	0		S	sg n
Pusi	puski	0		V	o
    	pusi	0		V	o
kõrtsinaise	kõrtsi_naine	0		S	sg g
suust	suu	st		S	sg el
lahti	laht	i		S	pl p
     	lahti	0		D	
.	.			Z	
