Hendrik	Hendrik	0		H	sg n
Laar	laar	0		S	sg n
kaebas	kaeba	s		V	s
et	et	0		J	
Johan	Johan	0		H	sg n
Suurman	####				
,	,			Z	
kui	kui	0		D	
   	kui	0		J	
kahe	kaks	0		N	sg g
aasta	aasta	0		S	sg g
     	aasta	0		S	sg n
eest	eest	0		D	
    	eest	0		K	
    	esi	st		S	sg el
tema	tema	0		P	sg g
    	tema	0		P	sg n
juures	juur	s		S	sg in
      	juures	0		D	
      	juures	0		K	
teenimas	teeni	mas		V	mas
on	ole	0		V	b
  	ole	0		V	vad
olnud	ol=nud	0		A	
     	ol=nud	0		A	sg n
     	ol=nud	d		A	pl n
     	ole	nud		V	nud
     	olnu	d		S	pl n
,	,			Z	
ühe	üks	0		N	sg g
   	üks	0		P	sg g
   	ühe	0		S	sg n
hobuse	hobune	0		S	sg g
hooletuse	hooletus	0		S	sg g
läbi	läbi	0		D	
    	läbi	0		K	
    	läbi	0		V	o
otsa	ots	0		S	adt
    	ots	0		S	sg g
    	otsa	0		D	
    	otsa	0		K	
    	otsa	0		V	o
    	ots	0		S	sg p
on	ole	0		V	b
  	ole	0		V	vad
teinud	tege	nud		V	nud
      	tei=nud	0		A	
      	tei=nud	0		A	sg n
      	tei=nud	d		A	pl n
      	teinu	d		S	pl n
-	-			Z	
nõuab	nõud	b		V	b
180	180	0		N	?
rubla	rubla	0		S	sg g
     	rubla	0		S	sg n
     	rubla	0		S	sg p
kahjutasumist	kahju_tasumine	t		S	sg p
ja	ja	0		J	
selle	see	0		P	sg g
     	sell	e		S	pl p
kahe	kaks	0		N	sg g
aasta	aasta	0		S	sg g
     	aasta	0		S	sg n
protsent	protsent	0		S	sg n
.	.			Z	
Johan	Johan	0		H	sg n
Suurman	####				
ütles	ütle	s		V	s
,	,			Z	
et	et	0		J	
Anna	and	0		V	o
    	Anna	0		H	sg g
    	Anna	0		H	sg n
    	anna	0		S	sg g
    	anna	0		S	sg n
Nerot	Nero	t		H	sg p
hobusele	hobune	le		S	sg all
vett	vesi	tt		S	sg p
visanud	viska	nud		V	nud
       	visa=nu	d		S	pl n
       	visa=nud	0		A	
       	visa=nud	0		A	sg n
       	visa=nud	d		A	pl n
ja	ja	0		J	
ei	ei	0		D	
  	ei	0		V	neg
ole	ole	0		V	o
tema	tema	0		P	sg g
    	tema	0		P	sg n
siis	siis	0		D	
    	siis	0		J	
enam	enam	0		C	sg n
    	enam	0		D	
hobust	hobu	st		S	sg el
      	hobune	t		S	sg p
pidada	pida	da		V	da
jõudnud	jõud	nud		V	nud
       	jõud=nu	d		S	pl n
       	jõud=nud	0		A	
       	jõud=nud	0		A	sg n
       	jõud=nud	d		A	pl n
,	,			Z	
vaid	vaid	0		D	
    	vaid	0		J	
on	ole	0		V	b
  	ole	0		V	vad
hobune	hobune	0		S	sg n
teda	tema	da		P	sg p
adra	ader	0		S	sg g
tagan	taga	n		V	n
edasi	edasi	0		D	
     	edasi	0		K	
vedanud	veda	nud		V	nud
       	veda=nu	d		S	pl n
       	veda=nud	0		A	
       	veda=nud	0		A	sg n
       	veda=nud	d		A	pl n
.	.			Z	
Hendrik	Hendrik	0		H	sg n
Laar	laar	0		S	sg n
ütles	ütle	s		V	s
,	,			Z	
et	et	0		J	
Johan	Johan	0		H	sg n
Suurman	####				
Anna	and	0		V	o
    	Anna	0		H	sg g
    	Anna	0		H	sg n
    	anna	0		S	sg g
    	anna	0		S	sg n
Neerotiga	neer_ott	ga		S	sg kom
ulanud	ula	nud		V	nud
      	ula=nu	d		S	pl n
      	ula=nud	0		A	
      	ula=nud	0		A	sg n
      	ula=nud	d		A	pl n
ja	ja	0		J	
on	ole	0		V	b
  	ole	0		V	vad
tema	tema	0		P	sg g
    	tema	0		P	sg n
ikka	ikka	0		D	
    	iga	0		S	adt
selle	see	0		P	sg g
     	sell	e		S	pl p
pärast	pära	st		S	sg el
      	pärane	t		A	sg p
      	pärast	0		D	
      	pärast	0		K	
süüdlane	süüdlane	0		S	sg n
.	.			Z	
Anna	and	0		V	o
    	Anna	0		H	sg g
    	Anna	0		H	sg n
    	anna	0		S	sg g
    	anna	0		S	sg n
Nerot	Nero	t		H	sg p
ütles	ütle	s		V	s
,	,			Z	
et	et	0		J	
tema	tema	0		P	sg g
    	tema	0		P	sg n
küll	küll	0		D	
    	küll	0		S	sg n
Johan	Johan	0		H	sg n
Suurmannile	suur_mann	le		S	sg all
aga	aga	0		J	
mitte	mitte	0		D	
hobuse	hobune	0		S	sg g
peale	pea	le		S	sg all
     	peale	0		D	
     	peale	0		K	
vett	vesi	tt		S	sg p
visanud	viska	nud		V	nud
       	visa=nu	d		S	pl n
       	visa=nud	0		A	
       	visa=nud	0		A	sg n
       	visa=nud	d		A	pl n
.	.			Z	
Johan	Johan	0		H	sg n
maksin	maks	in		V	sin
tunnistas	tunnista	s		V	s
,	,			Z	
et	et	0		J	
hobune	hobune	0		S	sg n
jooksnud	jooks	nud		V	nud
        	jooks=nu	d		S	pl n
        	jooks=nud	0		A	
        	jooks=nud	0		A	sg n
        	jooks=nud	d		A	pl n
ja	ja	0		J	
adraraha	adra_raha	0		S	sg g
        	adra_raha	0		S	sg n
        	adra_raha	0		S	sg p
läbi	läbi	0		D	
    	läbi	0		K	
    	läbi	0		V	o
jala	jalg	0		S	sg g
    	jala	0		D	
katki	katki	0		D	
murdnud	murd	nud		V	nud
       	murd=nu	d		S	pl n
       	murd=nud	0		A	
       	murd=nud	0		A	sg n
       	murd=nud	d		A	pl n
.	.			Z	
kogukonna	kogukond	0		S	sg g
kohus	kohu	s		V	s
     	kohus	0		S	sg n
arvab	arva	b		V	b
hobuse	hobune	0		S	sg g
väärtuse	väärtus	0		S	sg g
130	130	0		N	?
rubla	rubla	0		S	sg g
     	rubla	0		S	sg n
     	rubla	0		S	sg p
.	.			Z	
Mõiste	mõiste	0		S	sg g
      	mõiste	0		S	sg n
:	:			Z	
Johan	Johan	0		H	sg n
Suurman	####				
maksab	maks	b		V	b
pool	pool	0		K	
    	pool	0		N	sg n
    	pool	0		S	sg n
hobuse	hobune	0		S	sg g
raha	raha	0		S	sg g
    	raha	0		S	sg n
    	raha	0		S	sg p
see	see	0		P	sg n
on	ole	0		V	b
  	ole	0		V	vad
65	65	0		N	?
rubla	rubla	0		S	sg g
     	rubla	0		S	sg n
     	rubla	0		S	sg p
Hendrik	Hendrik	0		H	sg n
Laari	laar	0		S	adt
     	laar	0		S	sg g
     	laar	0		S	sg p
hääks	####				
8	8	0		N	?
päeva	päev	0		S	adt
     	päev	0		S	sg g
     	päev	0		S	sg p
sees	sees	0		D	
    	sees	0		K	
välja	välja	0		D	
     	välja	0		V	o
     	väli	0		S	adt
     	väli	0		S	sg g
     	väli	0		S	sg p
.	.			Z	
Peakohtumees	pea_kohtu_mees	0		S	sg n
:	:			Z	
P. Kripson	####				
XXX	XXX	0		O	?
   	XXX	0		Y	?
kohtumees	kohtu_mees	0		S	sg n
:	:			Z	
P. Hendrikson	####				
XXX	XXX	0		O	?
   	XXX	0		Y	?
kohtumees	kohtu_mees	0		S	sg n
:	:			Z	
K. Ivanthal	####				
XXX	XXX	0		O	?
   	XXX	0		Y	?
kohtumees	kohtu_mees	0		S	sg n
:	:			Z	
K. Vosman	####				
XXX	XXX	0		O	?
   	XXX	0		Y	?
Mõiste	mõiste	0		S	sg g
      	mõiste	0		S	sg n
sai	saa	i		V	s
   	sai	0		S	sg n
kohtukäijatele	kohtu_käija	tele		S	pl all
kuulutatud	kuuluta	tud		V	tud
          	kuuluta=tu	d		S	pl n
          	kuuluta=tud	0		A	
          	kuuluta=tud	0		A	sg n
          	kuuluta=tud	d		A	pl n
T	T	0		Y	?
.	.			Z	
S	S	0		Y	?
.	.			Z	
R	R	0		Y	?
.	.			Z	
§	§	0		Y	?
772	772	0		N	?
-	-			Z	
774	774	0		N	?
järele	järele	0		D	
      	järele	0		K	
aastast	aasta	st		S	sg el
       	aastane	t		A	sg p
1860	1860	0		N	?
ja	ja	0		J	
õpus	####				
antud	an=tu	d		S	pl n
     	and	tud		V	tud
     	antud	0		A	
     	antud	0		A	sg n
     	antud	d		A	pl n
mis	mis	0		P	pl n
   	mis	0		P	sg n
tähele	täht	le		S	sg all
      	tähele	0		X	
panna	pand	0		S	sg g
     	pane	a		V	da
     	panna	0		S	sg g
     	panna	0		S	sg n
tuleb	tule	b		V	b
kui	kui	0		D	
   	kui	0		J	
keegi	kee	0	gi	S	sg g
     	kee	0	gi	V	o
     	keegi	0		P	sg n
     	kee	0	gi	S	sg n
kõrgemat	kõrgem	t		C	sg p
        	kõrgem	t		S	sg p
kohut	kohus	t		S	sg p
nõuab	nõud	b		V	b
ning	ning	0		J	
ei	ei	0		D	
  	ei	0		V	neg
olnud	ol=nud	0		A	
     	ol=nud	0		A	sg n
     	ol=nud	d		A	pl n
     	ole	nud		V	nud
     	olnu	d		S	pl n
kohtukäijad	kohtu_käija	d		S	pl n
rahul	rahu	l		S	sg ad
     	rahul	0		D	
.	.			Z	
kirjutaja	kirjutaja	0		S	sg g
         	kirjutaja	0		S	sg n
:	:			Z	
Ch	####				
Kapp	kapp	0		S	sg n
allkiri	all_kiri	0		S	sg n
Ärakiri	ära_kiri	0		S	sg n
Hendr	####				
.	.			Z	
Laarile	laar	le		S	sg all
antud	an=tu	d		S	pl n
     	and	tud		V	tud
     	antud	0		A	
     	antud	0		A	sg n
     	antud	d		A	pl n
12.11.1890	12.11.1890	0		N	?
