Astus	astu	s		V	s
ette	ette	0		D	
    	ette	0		K	
    	esi	tte		S	adt
Nuutimäe	####				
talu	talu	0		S	sg g
    	talu	0		V	o
    	talu	0		S	sg n
    	talu	0		S	sg p
perenaene	####				
Ann	Ann	0		H	sg n
Paju	paju	0		S	sg g
    	paju	0		S	sg n
    	paju	0		S	sg p
oma	oma	0		A	sg g
   	oma	0		D	
   	oma	0		P	sg g
   	oma	0		S	sg g
   	oma	0		V	o
   	oma	0		A	sg n
   	oma	0		A	sg p
   	oma	0		P	sg n
   	oma	0		P	sg p
   	oma	0		S	sg n
   	oma	0		S	sg p
venna	vend	0		S	sg g
Peeter	Peeter	0		H	sg n
Endriksoni	####				
juures	juur	s		S	sg in
      	juures	0		D	
      	juures	0		K	
oleks	ole	ks		V	ks
ja	ja	0		J	
palus	palu	s		S	sg in
     	palu	s		V	s
Aakre	####				
kog	####				
.	.			Z	
kohut	kohus	t		S	sg p
,	,			Z	
tema	tema	0		P	sg g
    	tema	0		P	sg n
nõdrameelesse	nõdra_meel	sse		S	sg ill
mehe	mees	0		S	sg g
Hans	Hans	0		H	sg n
Paju	paju	0		S	sg g
    	paju	0		S	sg n
    	paju	0		S	sg p
ja	ja	0		J	
tema	tema	0		P	sg g
    	tema	0		P	sg n
Ann	Ann	0		H	sg n
Paju	paju	0		S	sg g
    	paju	0		S	sg n
    	paju	0		S	sg p
,	,			Z	
päralt	pära	lt		S	sg abl
      	päralt	0		K	
olevat	ole	vat		V	vat
      	olev	t		A	sg p
      	olev	t		S	sg p
Aakre	####				
vallas	vald	s		S	sg in
olevat	ole	vat		V	vat
      	olev	t		A	sg p
      	olev	t		S	sg p
Nuutimäe	####				
talu	talu	0		S	sg g
    	talu	0		V	o
    	talu	0		S	sg n
    	talu	0		S	sg p
priitahtlikult	prii_tahtlik	lt		A	sg abl
              	prii_tahtlikult	0		D	
mõnele	mõni	le		P	sg all
ära	ära	0		D	
   	ära	0		V	neg o
müia	####				
,	,			Z	
kes	kes	0		P	pl n
   	kes	0		P	sg n
jõukas	jõukas	0		A	sg n
      	jõukas	s		A	sg in
inimene	inimene	0		S	sg n
on	ole	0		V	b
  	ole	0		V	vad
,	,			Z	
sest	see	st		P	sg el
    	sest	0		J	
muidu	muidu	0		D	
ei	ei	0		D	
  	ei	0		V	neg
ole	ole	0		V	o
võimalik	võimalik	0		A	sg n
nendel	see	del		P	pl ad
      	tema	del		P	pl ad
seda	see	da		P	sg p
talu	talu	0		S	sg g
    	talu	0		V	o
    	talu	0		S	sg n
    	talu	0		S	sg p
enam	enam	0		C	sg n
    	enam	0		D	
edasi	edasi	0		D	
     	edasi	0		K	
pidada	pida	da		V	da
,	,			Z	
kuna	kuna	0		D	
    	kuna	0		J	
palju	palju	0		D	
     	palju	0		P	sg g
     	palju	0		P	sg n
võlgasi	võlg_asi	0		S	sg n
maksa	maks	0		S	adt
     	maks	0		S	sg g
     	maks	0		V	o
     	maks	0		S	sg p
on	ole	0		V	b
  	ole	0		V	vad
ja	ja	0		J	
nad	tema	d		P	pl n
seda	see	da		P	sg p
võlga	võlg	0		S	adt
     	võlg	0		S	sg p
ära	ära	0		D	
   	ära	0		V	neg o
maksa	maks	0		S	adt
     	maks	0		S	sg g
     	maks	0		V	o
     	maks	0		S	sg p
ei	ei	0		D	
  	ei	0		V	neg
jõua	jõud	0		V	o
,	,			Z	
aga	aga	0		J	
Hans	Hans	0		H	sg n
Paju	paju	0		S	sg g
    	paju	0		S	sg n
    	paju	0		S	sg p
sugulastele	sugulane	tele		S	pl all
nagu	nagu	0		D	
    	nagu	0		J	
Hans	Hans	0		H	sg n
Kõrgemägi	kõrge_mägi	0		S	sg n
ja	ja	0		J	
Hans	Hans	0		H	sg n
Timsele	####				
ei	ei	0		D	
  	ei	0		V	neg
loa	luba	0		S	sg g
   	luga	0		S	sg g
nad	tema	d		P	pl n
seda	see	da		P	sg p
Nuutimäe	####				
talu	talu	0		S	sg g
    	talu	0		V	o
    	talu	0		S	sg n
    	talu	0		S	sg p
mitte	mitte	0		D	
äramüüa	####				
,	,			Z	
kui	kui	0		D	
   	kui	0		J	
160rbl	####				
.	.			Z	
taalri	taaler	0		S	sg g
eest	eest	0		D	
    	eest	0		K	
    	esi	st		S	sg el
,	,			Z	
see	see	0		P	sg n
on	ole	0		V	b
  	ole	0		V	vad
25taalri	####				
eest	eest	0		D	
    	eest	0		K	
    	esi	st		S	sg el
summa	summ	0		S	adt
     	summ	0		S	sg g
     	summ	0		S	sg p
     	summa	0		S	sg g
     	summa	0		S	sg n
4000rbl	####				
.	.			Z	
ja	ja	0		J	
kuna	kuna	0		D	
    	kuna	0		J	
nad	tema	d		P	pl n
varanduseta	varandus	ta		S	sg ab
inimesed	inimene	d		S	pl n
on	ole	0		V	b
  	ole	0		V	vad
,	,			Z	
siis	siis	0		D	
    	siis	0		J	
peavad	pida	vad		V	vad
neeedsamad	####				
ka	ka	0		D	
veel	veel	0		D	
    	vesi	l		S	sg ad
kindmata	####				
ja	ja	0		J	
varandusega	varandus	ga		S	sg kom
kuuendid	####				
enese	ise	0		P	sg g
eest	eest	0		D	
    	eest	0		K	
    	esi	st		S	sg el
ette	ette	0		D	
    	ette	0		K	
    	esi	tte		S	adt
tooma	too	ma		V	ma
kes	kes	0		P	pl n
   	kes	0		P	sg n
kõik	kõik	0		P	pl n
    	kõik	0		S	sg n
    	kõik	0		P	sg n
tingimused	tingimus	d		S	pl n
puudumata	puudu	mata		V	mata
         	puudu=mata	0		A	
ääratäitavad	####				
,	,			Z	
kuiaga	####				
nendest	see	dest		P	pl el
       	tema	dest		P	pl el
seda	see	da		P	sg p
tegiad	####				
ei	ei	0		D	
  	ei	0		V	neg
saa	saa	0		V	o
,	,			Z	
siis	siis	0		D	
    	siis	0		J	
ei	ei	0		D	
  	ei	0		V	neg
saa	saa	0		V	o
nad	tema	d		P	pl n
ka	ka	0		D	
seda	see	da		P	sg p
talu	talu	0		S	sg g
    	talu	0		V	o
    	talu	0		S	sg n
    	talu	0		S	sg p
mitte	mitte	0		D	
omale	oma	le		A	sg all
     	oma	le		P	sg all
     	oma	le		S	sg all
,	,			Z	
vaid	vaid	0		D	
    	vaid	0		J	
saab	saa	b		V	b
mõnele	mõni	le		P	sg all
muule	muu	le		P	sg all
     	muu	le		S	sg all
     	muul	e		S	pl p
kindma	####				
ja	ja	0		J	
varandusega	varandus	ga		S	sg kom
inimesele	inimene	le		S	sg all
priitahtlikult	prii_tahtlik	lt		A	sg abl
              	prii_tahtlikult	0		D	
ära	ära	0		D	
   	ära	0		V	neg o
müüdud	müü	dud		V	tud
      	müü=du	d		S	pl n
      	müü=dud	0		A	
      	müü=dud	0		A	sg n
      	müü=dud	d		A	pl n
,	,			Z	
kellega	kes	ga		P	pl kom
       	kes	ga		P	sg kom
kõige	kõik	0		P	sg g
     	kõige	0		D	
kulusaam	kulu_saam	0		S	sg n
kaup	kaup	0		S	sg n
saab	saa	b		V	b
.	.			Z	
Ettekutsutud	ette_kutsutu	d		S	pl n
            	ette_kutsutud	0		A	
            	ette_kutsutud	0		A	sg n
            	ette_kutsutud	d		A	pl n
Hans	Hans	0		H	sg n
Kõrgemägi	kõrge_mägi	0		S	sg n
ja	ja	0		J	
Hans	Hans	0		H	sg n
Timse	####				
ja	ja	0		J	
sai	saa	i		V	s
   	sai	0		S	sg n
nõndale	####				
need	see	d		P	pl n
eespool	ees_pool	0		D	
       	ees_pool	0		K	
tõentatud	####				
tingimused	tingimus	d		S	pl n
ettpantud	####				
,	,			Z	
mis-peale	mis-pea	le		S	sg all
         	mis-peale	0		D	
         	mis-peale	0		K	
nad	tema	d		P	pl n
vastasid	vasta	sid		V	sid
,	,			Z	
et	et	0		J	
nad	tema	d		P	pl n
ei	ei	0		D	
  	ei	0		V	neg
võtta	võt	a		V	da
seda	see	da		P	sg p
Nuutimäe	####				
talu	talu	0		S	sg g
    	talu	0		V	o
    	talu	0		S	sg n
    	talu	0		S	sg p
mitte	mitte	0		D	
nende	see	de		P	pl g
     	tema	de		P	pl g
tingimustega	tingimus	tega		S	pl kom
enestele	ise	tele		P	pl all
ära	ära	0		D	
   	ära	0		V	neg o
osta	ost	0		V	o
    	ost	a		V	da
,	,			Z	
vaid	vaid	0		D	
    	vaid	0		J	
tahavad	taht	vad		V	vad
nad	tema	d		P	pl n
seda	see	da		P	sg p
Nuutimäe	####				
talu	talu	0		S	sg g
    	talu	0		V	o
    	talu	0		S	sg n
    	talu	0		S	sg p
niiviisi	nii_viisi	0		D	
osta	ost	0		V	o
    	ost	a		V	da
nagu	nagu	0		D	
    	nagu	0		J	
ta	tema	0		P	sg g
  	tema	0		P	sg n
Hans	Hans	0		H	sg n
Paju	paju	0		S	sg g
    	paju	0		S	sg n
    	paju	0		S	sg p
poolt	pool	t		N	sg p
     	pool	t		S	sg p
     	poolt	0		D	
     	poolt	0		K	
ostetud	ost	tud		V	tud
       	oste=tu	d		S	pl n
       	oste=tud	0		A	
       	oste=tud	0		A	sg n
       	oste=tud	d		A	pl n
on	ole	0		V	b
  	ole	0		V	vad
saanud	saa	nud		V	nud
      	saa=nud	0		A	
      	saa=nud	0		A	sg n
      	saa=nud	d		A	pl n
      	saanu	d		S	pl n
;	;			Z	
Ann	Ann	0		H	sg n
Paju	paju	0		S	sg g
    	paju	0		S	sg n
    	paju	0		S	sg p
ja	ja	0		J	
Peeter	Peeter	0		H	sg n
Endrikson	####				
ei	ei	0		D	
  	ei	0		V	neg
annud	####				
aga	aga	0		J	
seda	see	da		P	sg p
mitte	mitte	0		D	
järgi	järg	i		S	pl p
     	järgi	0		D	
     	järgi	0		K	
     	järgi	0		V	o
,	,			Z	
vaid	vaid	0		D	
    	vaid	0		J	
pidasid	pida	sid		V	sid
eespool	ees_pool	0		D	
       	ees_pool	0		K	
ülesandust	üles_and_uks	t		S	sg p
tingimistest	tingimine	test		S	pl el
kinni	kinni	0		D	
.	.			Z	
otsus	otsus	0		S	sg n
:	:			Z	
seda	see	da		P	sg p
nagu	nagu	0		D	
    	nagu	0		J	
sündinud	sündi	nud		V	nud
        	sündinu	d		S	pl n
        	sündinud	0		A	
        	sündinud	0		A	sg n
        	sündinud	d		A	pl n
protokolli	protokoll	0		S	adt
          	protokoll	0		S	sg g
          	protokolli	0		V	o
          	protokoll	0		S	sg p
kirjutada	kirjuta	da		V	da
.	.			Z	
