Jaan	Jaan	0		H	sg n
    	jaan	0		S	sg n
    	jaan	0		Y	?
raja	rada	0		S	sg g
    	raja	0		S	sg g
    	raja	0		V	o
    	raja	0		S	sg n
    	raja	0		S	sg p
sai	saa	i		V	s
   	sai	0		S	sg n
ette	ette	0		D	
    	ette	0		K	
    	esi	tte		S	adt
kutsutud	kutsu	tud		V	tud
        	kutsutu	d		S	pl n
        	kutsutud	0		A	
        	kutsutud	0		A	sg n
        	kutsutud	d		A	pl n
ning	ning	0		J	
tema	tema	0		P	sg g
    	tema	0		P	sg n
käest	käest	0		K	
     	käsi	st		S	sg el
järel	järel	0		D	
     	järel	0		K	
küsitud	küsi	tud		V	tud
       	küsi=tu	d		S	pl n
       	küsi=tud	0		A	
       	küsi=tud	0		A	sg n
       	küsi=tud	d		A	pl n
mikspärast	miks_pära	st		S	sg el
          	miks_pärane	t		A	sg p
tema	tema	0		P	sg g
    	tema	0		P	sg n
mineva	minev	0		A	sg g
kohtu	kohtu	0		V	o
     	kohus	0		S	sg g
päeval	päev	l		S	sg ad
ilma	ilm	0		S	adt
    	ilm	0		S	sg g
    	ilma	0		D	
    	ilma	0		K	
    	ilm	0		S	sg p
lubata	luba	ta		V	ta
ära	ära	0		D	
   	ära	0		V	neg o
lähud	####				
.	.			Z	
Jaan	Jaan	0		H	sg n
    	jaan	0		S	sg n
    	jaan	0		Y	?
raja	rada	0		S	sg g
    	raja	0		S	sg g
    	raja	0		V	o
    	raja	0		S	sg n
    	raja	0		S	sg p
räkis	####				
et	et	0		J	
tema	tema	0		P	sg g
    	tema	0		P	sg n
ei	ei	0		D	
  	ei	0		V	neg
ole	ole	0		V	o
teadnud	tead	nud		V	nud
       	tead=nu	d		S	pl n
       	tead=nud	0		A	
       	tead=nud	0		A	sg n
       	tead=nud	d		A	pl n
et	et	0		J	
temada	####				
veel	veel	0		D	
    	vesi	l		S	sg ad
kohtu	kohtu	0		V	o
     	kohus	0		S	sg g
ees	ees	0		D	
   	ees	0		K	
   	esi	s		S	sg in
vaia	vai	0		S	adt
    	vai	0		S	sg g
    	vaia	0		V	o
    	vai	0		S	sg p
on	ole	0		V	b
  	ole	0		V	vad
.	.			Z	
Mõistus	mõistus	0		S	sg n
.	.			Z	
et	et	0		J	
Jaan	Jaan	0		H	sg n
    	jaan	0		S	sg n
    	jaan	0		Y	?
raja	rada	0		S	sg g
    	raja	0		S	sg g
    	raja	0		V	o
    	raja	0		S	sg n
    	raja	0		S	sg p
ilma	ilm	0		S	adt
    	ilm	0		S	sg g
    	ilma	0		D	
    	ilma	0		K	
    	ilm	0		S	sg p
lubata	luba	ta		V	ta
oma	oma	0		A	sg g
   	oma	0		D	
   	oma	0		P	sg g
   	oma	0		S	sg g
   	oma	0		V	o
   	oma	0		A	sg n
   	oma	0		A	sg p
   	oma	0		P	sg n
   	oma	0		P	sg p
   	oma	0		S	sg n
   	oma	0		S	sg p
kanguse	kangune	0		A	sg g
       	kangus	0		S	sg g
peale	pea	le		S	sg all
     	peale	0		D	
     	peale	0		K	
ära	ära	0		D	
   	ära	0		V	neg o
lähud	####				
maksab	maks	b		V	b
tema	tema	0		P	sg g
    	tema	0		P	sg n
selle	see	0		P	sg g
     	sell	e		S	pl p
eest	eest	0		D	
    	eest	0		K	
    	esi	st		S	sg el
1	1	0		N	?
rubla	rubla	0		S	sg g
     	rubla	0		S	sg n
     	rubla	0		S	sg p
valla	vald	0		S	sg g
     	valla	0		D	
laeka	laegas	0		S	adt
     	laegas	0		S	sg g
trahvi	trahv	0		S	adt
      	trahv	0		S	sg g
      	trahvi	0		V	o
      	trahv	0		S	sg p
.	.			Z	
Maddis	####				
Tamm	tamm	0		S	sg n
XXX	XXX	0		O	?
   	XXX	0		Y	?
Josep	####				
Reisenpuk	####				
XXX	XXX	0		O	?
   	XXX	0		Y	?
Aadam	Aadam	0		H	sg n
Ninepu	####				
XXX	XXX	0		O	?
   	XXX	0		Y	?
