Palla	####				
mõisa	mõis	0		S	sg g
valitseja	valitseja	0		S	sg g
         	valitseja	0		S	sg n
Christani	####				
kaibas	####				
,	,			Z	
Davet	####				
Vadi	vadi	0		S	sg g
    	vadi	0		V	o
    	vadi	0		S	sg n
    	vadi	0		S	sg p
olla	ole	a		V	da
mõisa	mõis	0		S	sg g
metsast	mets	st		S	sg el
       	metsane	t		A	sg p
kaks	kaks	0		N	sg n
kaske	kask	0		S	adt
     	kask	0		S	sg p
4	4	0		N	?
sülda	süld	0		S	adt
     	süld	0		S	sg p
pitkad	####				
ja	ja	0		J	
3½	####				
toli	####				
paksud	paks	d		A	pl n
      	paks	d		S	pl n
varastanud	varasta	nud		V	nud
          	varasta=nu	d		S	pl n
          	varasta=nud	0		A	
          	varasta=nud	0		A	sg n
          	varasta=nud	d		A	pl n
.	.			Z	
Karel	####				
Vaht	vaht	0		S	sg n
vanutud	vanu	tud		V	tud
       	vanu=tu	d		S	pl n
       	vanu=tud	0		A	
       	vanu=tud	0		A	sg n
       	vanu=tud	d		A	pl n
Metsavaht	metsa_vaht	0		S	sg n
ütles	ütle	s		V	s
välja	välja	0		D	
     	välja	0		V	o
     	väli	0		S	adt
     	väli	0		S	sg g
     	väli	0		S	sg p
,	,			Z	
et	et	0		J	
se	####				
tõsi	tõsi	0		S	pl p
    	tõsi	0		S	sg n
olla	ole	a		V	da
.	.			Z	
Davet	####				
Vadi	vadi	0		S	sg g
    	vadi	0		V	o
    	vadi	0		S	sg n
    	vadi	0		S	sg p
,	,			Z	
ütles	ütle	s		V	s
tema	tema	0		P	sg g
    	tema	0		P	sg n
olla	ole	a		V	da
kül	####				
toonud	too	nud		V	nud
      	too=nu	d		S	pl n
      	too=nud	0		A	
      	too=nud	0		A	sg n
      	too=nud	d		A	pl n
aga	aga	0		J	
peremehe	pere_mees	0		S	sg g
käsu	käsk	0		S	sg g
peale	pea	le		S	sg all
     	peale	0		D	
     	peale	0		K	
;	;			Z	
Mõisa	mõis	0		S	sg g
valitsus	valitsus	0		S	sg n
nõudis	nõud	is		V	s
3	3	0		N	?
rubla	rubla	0		S	sg g
     	rubla	0		S	sg n
     	rubla	0		S	sg p
.	.			Z	
kohtu	kohtu	0		V	o
     	kohus	0		S	sg g
Otsus	otsus	0		S	sg n
:	:			Z	
et	et	0		J	
Davet	####				
Vadi	vadi	0		S	sg g
    	vadi	0		V	o
    	vadi	0		S	sg n
    	vadi	0		S	sg p
mitte	mitte	0		D	
ei	ei	0		D	
  	ei	0		V	neg
salga	salga	0		V	o
     	salk	0		S	sg g
peale	pea	le		S	sg all
     	peale	0		D	
     	peale	0		K	
tema	tema	0		P	sg g
    	tema	0		P	sg n
8	8	0		N	?
päeva	päev	0		S	adt
     	päev	0		S	sg g
     	päev	0		S	sg p
sees	sees	0		D	
    	sees	0		K	
se	####				
trahvi	trahv	0		S	adt
      	trahv	0		S	sg g
      	trahvi	0		V	o
      	trahv	0		S	sg p
raha	raha	0		S	sg g
    	raha	0		S	sg n
    	raha	0		S	sg p
3	3	0		N	?
rubla	rubla	0		S	sg g
     	rubla	0		S	sg n
     	rubla	0		S	sg p
ära	ära	0		D	
   	ära	0		V	neg o
maksma	maks	ma		V	ma
,	,			Z	
kui	kui	0		D	
   	kui	0		J	
aga	aga	0		J	
peremees	pere_mees	0		S	sg n
teda	tema	da		P	sg p
suntinud	####				
on	ole	0		V	b
  	ole	0		V	vad
võib	või	b		V	b
tema	tema	0		P	sg g
    	tema	0		P	sg n
selle	see	0		P	sg g
     	sell	e		S	pl p
peale	pea	le		S	sg all
     	peale	0		D	
     	peale	0		K	
kaebata	####				
.	.			Z	
Pea	pea	0		D	
   	pea	0		S	sg g
   	pida	0		V	o
   	pea	0		S	sg n
kohtumees	kohtu_mees	0		S	sg n
Kusta	Kusta	0		H	sg g
     	Kusta	0		H	sg n
     	kuse	ta		V	da
     	kuse	ta		V	ta
kokka	kokk	0		S	adt
     	kokka	0		V	o
     	kokk	0		S	sg p
xxx	####				
kohtumees	kohtu_mees	0		S	sg n
Kusta	Kusta	0		H	sg g
     	Kusta	0		H	sg n
     	kuse	ta		V	da
     	kuse	ta		V	ta
Nukka	nukk	0		S	adt
     	nukk	0		S	sg p
xxx	####				
Aabbi	####				
Toomas	Toomas	0		H	sg n
      	Toomas	s		H	sg in
      	too	mas		V	mas
Velt	####				
xxx	####				
