№	№	0		Y	?
63	63	0		N	?
sel	see	l		P	sg ad
   	sel	0		Y	?
28	28	0		N	?
Mail	Mai	l		H	sg ad
    	maa	il		S	pl ad
    	mai	l		S	sg ad
    	mail	0		S	sg n
1890.	1890.	0		O	?
selle	see	0		P	sg g
     	sell	e		S	pl p
et	et	0		J	
praegune	praegune	0		A	sg n
peakohtumees	pea_kohtu_mees	0		S	sg n
haige	haige	0		A	sg g
     	haige	0		A	sg n
     	haige	0		S	sg g
     	haige	0		S	sg n
on	ole	0		V	b
  	ole	0		V	vad
,	,			Z	
sai	saa	i		V	s
   	sai	0		S	sg n
kohtumees	kohtu_mees	0		S	sg n
Jaan	Jaan	0		H	sg n
    	jaan	0		S	sg n
    	jaan	0		Y	?
pruuks	####				
tõistest	####				
kohtumesteks	####				
pääkohtumees	####				
valitsu	####				
seni	seni	0		D	
kui	kui	0		D	
   	kui	0		J	
peakohtumees	pea_kohtu_mees	0		S	sg n
terveks	terve	ks		A	sg tr
       	terve	ks		S	sg tr
saab	saa	b		V	b
.	.			Z	
otsus	otsus	0		S	sg n
:	:			Z	
seda	see	da		P	sg p
protokolli	protokoll	0		S	adt
          	protokoll	0		S	sg g
          	protokolli	0		V	o
          	protokoll	0		S	sg p
üles	üles	0		D	
panna	pand	0		S	sg g
     	pane	a		V	da
     	panna	0		S	sg g
     	panna	0		S	sg n
.	.			Z	
kohtumees	kohtu_mees	0		S	sg n
:	:			Z	
Jaan	Jaan	0		H	sg n
    	jaan	0		S	sg n
    	jaan	0		Y	?
pruuks	####				
/	/			Z	
allkiri	all_kiri	0		S	sg n
/	/			Z	
""""	""""			Z	
Jakob	Jakob	0		H	sg n
saks	saks	0		S	sg n
/	/			Z	
allkiri	all_kiri	0		S	sg n
/	/			Z	
""""	""""			Z	
Jaan	Jaan	0		H	sg n
    	jaan	0		S	sg n
    	jaan	0		Y	?
Treial	treial	0		S	sg n
/	/			Z	
allkiri	all_kiri	0		S	sg n
/	/			Z	
""""	""""			Z	
Peeter	Peeter	0		H	sg n
Hansen	Hansen	0		H	sg n
XXX	XXX	0		O	?
   	XXX	0		Y	?
