Moisavalitsus	####				
kaebab	kaeba	b		V	b
kogokonna	####				
kohtu	kohtu	0		V	o
     	kohus	0		S	sg g
ees	ees	0		D	
   	ees	0		K	
   	esi	s		S	sg in
,	,			Z	
et	et	0		J	
Jaan	Jaan	0		H	sg n
    	jaan	0		S	sg n
    	jaan	0		Y	?
Plauet	####				
on	ole	0		V	b
  	ole	0		V	vad
moisa	####				
vilja	vili	0		S	adt
     	vili	0		S	sg g
     	vili	0		S	sg p
sõõtmise	####				
pärast	pära	st		S	sg el
      	pärane	t		A	sg p
      	pärast	0		D	
      	pärast	0		K	
2	2	0		N	?
rubl	####				
.	.			Z	
trahvi	trahv	0		S	adt
      	trahv	0		S	sg g
      	trahvi	0		V	o
      	trahv	0		S	sg p
maksa	maks	0		S	adt
     	maks	0		S	sg g
     	maks	0		V	o
     	maks	0		S	sg p
on	ole	0		V	b
  	ole	0		V	vad
selle	see	0		P	sg g
     	sell	e		S	pl p
äramaksmise	ära_maksmine	0		S	sg g
pärast	pära	st		S	sg el
      	pärane	t		A	sg p
      	pärast	0		D	
      	pärast	0		K	
mittu	####				
korda	kord	0		S	adt
     	korda	0		V	o
     	kord	0		S	sg p
jo	####				
käsko	####				
saanud	saa	nud		V	nud
      	saa=nud	0		A	
      	saa=nud	0		A	sg n
      	saa=nud	d		A	pl n
      	saanu	d		S	pl n
aga	aga	0		J	
mitte	mitte	0		D	
ei	ei	0		D	
  	ei	0		V	neg
ole	ole	0		V	o
kogokonna	####				
kohtu	kohtu	0		V	o
     	kohus	0		S	sg g
ette	ette	0		D	
    	ette	0		K	
    	esi	tte		S	adt
tulnud	tul=nud	0		A	
      	tul=nud	0		A	sg n
      	tul=nud	d		A	pl n
      	tule	nud		V	nud
      	tulnu	d		S	pl n
nüüd	nüüd	0		D	
sel	see	l		P	sg ad
   	sel	0		Y	?
tänasel	tänane	l		A	sg ad
päval	####				
sai	saa	i		V	s
   	sai	0		S	sg n
tema	tema	0		P	sg g
    	tema	0		P	sg n
jälle	jälle	0		D	
käsko	####				
kohtu	kohtu	0		V	o
     	kohus	0		S	sg g
ette	ette	0		D	
    	ette	0		K	
    	esi	tte		S	adt
tulla	tule	a		V	da
aga	aga	0		J	
et	et	0		J	
tema	tema	0		P	sg g
    	tema	0		P	sg n
jälle	jälle	0		D	
vasto	####				
pandlik	pand=lik	0		A	sg n
oli	ole	i		V	s
sai	saa	i		V	s
   	sai	0		S	sg n
temale	tema	le		P	sg all
kogokonna	####				
kohtu	kohtu	0		V	o
     	kohus	0		S	sg g
poolt	pool	t		N	sg p
     	pool	t		S	sg p
     	poolt	0		D	
     	poolt	0		K	
kassak	####				
järel	järel	0		D	
     	järel	0		K	
satetud	####				
,	,			Z	
selle	see	0		P	sg g
     	sell	e		S	pl p
peale	pea	le		S	sg all
     	peale	0		D	
     	peale	0		K	
tuli	tuli	0		S	sg n
    	tule	i		V	s
siis	siis	0		D	
    	siis	0		J	
Jaan	Jaan	0		H	sg n
    	jaan	0		S	sg n
    	jaan	0		Y	?
Plauet	####				
ette	ette	0		D	
    	ette	0		K	
    	esi	tte		S	adt
.	.			Z	
kogokonna	####				
kohus	kohu	s		V	s
     	kohus	0		S	sg n
moistis	####				
selle	see	0		P	sg g
     	sell	e		S	pl p
vasta	vasta	0		V	o
panemise	panemine	0		S	sg g
eest	eest	0		D	
    	eest	0		K	
    	esi	st		S	sg el
temale	tema	le		P	sg all
30	30	0		N	?
kop	kop	0		Y	?
.	.			Z	
h	h	0		Y	?
.	.			Z	
trahvi	trahv	0		S	adt
      	trahv	0		S	sg g
      	trahvi	0		V	o
      	trahv	0		S	sg p
ja	ja	0		J	
ka	ka	0		D	
se	####				
2	2	0		N	?
rubl	####				
.	.			Z	
hobbese	####				
pantimise	panti=mine	0		S	sg g
raha	raha	0		S	sg g
    	raha	0		S	sg n
    	raha	0		S	sg p
peäb	####				
tema	tema	0		P	sg g
    	tema	0		P	sg n
teisest	teine	st		O	sg el
       	teine	st		P	sg el
       	teisene	t		A	sg p
pävast	####				
,	,			Z	
seon	sidu	n		V	n
sest	see	st		P	sg el
    	sest	0		J	
28tast	####				
Augustist	august	st		S	sg el
         	August	st		H	sg el
ära	ära	0		D	
   	ära	0		V	neg o
maksma	maks	ma		V	ma
.	.			Z	
kogokonna	####				
kohus	kohu	s		V	s
     	kohus	0		S	sg n
:	:			Z	
Mart	Mart	0		H	sg n
    	mart	0		S	sg n
Nigul	####				
Peakohtumees	pea_kohtu_mees	0		S	sg n
XXX	XXX	0		O	?
   	XXX	0		Y	?
Jüri	Jüri	0		H	sg g
    	Jüri	0		H	sg n
Täht	täht	0		S	sg n
kohtumees	kohtu_mees	0		S	sg n
XXX	XXX	0		O	?
   	XXX	0		Y	?
Johan	Johan	0		H	sg n
Peeterson	####				
kohtumees	kohtu_mees	0		S	sg n
XXX	XXX	0		O	?
   	XXX	0		Y	?
kogokonna	####				
kirjutaja	kirjutaja	0		S	sg g
         	kirjutaja	0		S	sg n
G	G	0		Y	?
.	.			Z	
elmi	####				
[	[			Z	
allkiri	all_kiri	0		S	sg n
]	]			Z	
