sel	see	l		P	sg ad
   	sel	0		Y	?
10ndal	10=s	l		O	sg ad
mai	mai	0		S	sg g
   	mai	0		S	sg n
1826.	1826.	0		O	?
mõisa	mõis	0		S	sg g
vallavalitseja	valla_valitseja	0		S	sg g
              	valla_valitseja	0		S	sg n
poolest	pool	st		N	sg el
       	pool	st		S	sg el
       	poolene	t		A	sg p
       	poolest	0		K	
sai	saa	i		V	s
   	sai	0		S	sg n
tänasel	tänane	l		A	sg ad
päeval	päev	l		S	sg ad
selle	see	0		P	sg g
     	sell	e		S	pl p
Undi	Unt	0		H	sg g
    	und	i		S	pl p
mõisa	mõis	0		S	sg g
kortli	kortel	0		S	sg g
Oona	####				
maja	maja	0		S	sg g
    	maja	0		S	sg n
    	maja	0		S	sg p
vahi	vaht	0		S	sg g
    	vahti	0		V	o
Tots	tots	0		S	sg n
Praakli	####				
see	see	0		P	sg n
kontraht	kontraht	0		S	sg n
kahe	kaks	0		N	sg g
aasta	aasta	0		S	sg g
     	aasta	0		S	sg n
peale	pea	le		S	sg all
     	peale	0		D	
     	peale	0		K	
tehtud	tehtu	d		S	pl n
      	tehtud	0		A	
      	tehtud	0		A	sg n
      	tehtud	d		A	pl n
      	tege	tud		V	tud
,	,			Z	
see	see	0		P	sg n
on	ole	0		V	b
  	ole	0		V	vad
Jüripäevaks	jüri_päev	ks		S	sg tr
1826	1826	0		N	?
teenis	teeni	s		V	s
kui	kui	0		D	
   	kui	0		J	
Jüripäeval	jüri_päev	l		S	sg ad
1828mal	####				
aasta	aasta	0		S	sg g
     	aasta	0		S	sg n
.	.			Z	
Tots	tots	0		S	sg n
Praakli	####				
peab	pida	b		V	b
selle	see	0		P	sg g
     	sell	e		S	pl p
kortle	####				
Oona	####				
truuiste	####				
perra	####				
käema	####				
,	,			Z	
et	et	0		J	
neist	see	st		P	pl el
     	tema	st		P	pl el
asjust	asi	ust		S	pl el
mitte	mitte	0		D	
midagi	miski	dagi		P	sg p
ei	ei	0		D	
  	ei	0		V	neg
kau	####				
iga	iga	0		P	sg g
   	iga	0		P	sg n
   	iga	0		P	sg p
   	iga	0		S	sg n
   	iga	0		S	sg p
hukka	hukka	0		D	
     	hukka	0		V	o
leheb	####				
;	;			Z	
ning	ning	0		J	
kui	kui	0		D	
   	kui	0		J	
midagi	miski	dagi		P	sg p
selle	see	0		P	sg g
     	sell	e		S	pl p
man	man	0		D	
   	man	0		K	
tarvis	tarvis	0		D	
      	tarvis	0		K	
leeeb	####				
,	,			Z	
siis	siis	0		D	
    	siis	0		J	
tema	tema	0		P	sg g
    	tema	0		P	sg n
nimetab	nimeta	b		V	b
mõisa	mõis	0		S	sg g
,	,			Z	
et	et	0		J	
võiks	või	ks		S	sg tr
     	või	ks		V	ks
seda	see	da		P	sg p
siis	siis	0		D	
    	siis	0		J	
teha	tege	a		V	da
;	;			Z	
ning	ning	0		J	
kaeb	kae	b		V	b
selle	see	0		P	sg g
     	sell	e		S	pl p
mõisa	mõis	0		S	sg g
väljade	väli	de		S	pl g
perra	####				
,	,			Z	
ning	ning	0		J	
vaheb	####				
metsa	mets	0		S	adt
     	mets	0		S	sg g
     	mets	0		S	sg p
,	,			Z	
mis	mis	0		P	pl n
   	mis	0		P	sg n
tema	tema	0		P	sg g
    	tema	0		P	sg n
ligidal	ligida	l		A	sg ad
       	ligidal	0		D	
       	ligidal	0		K	
on	ole	0		V	b
  	ole	0		V	vad
,	,			Z	
et	et	0		J	
mitte	mitte	0		D	
üks	üks	0		N	sg n
   	üks	0		P	sg n
tohib	tohti	b		V	b
neist	see	st		P	pl el
     	tema	st		P	pl el
kasse	kass	e		S	pl p
puud	puu	d		S	pl n
    	puud	0		S	sg n
    	puu	d		S	sg p
raiuda	raiu	da		V	da
;	;			Z	
ning	ning	0		J	
kui	kui	0		D	
   	kui	0		J	
seda	see	da		P	sg p
leitakse	leid	takse		V	takse
siis	siis	0		D	
    	siis	0		J	
peab	pida	b		V	b
tema	tema	0		P	sg g
    	tema	0		P	sg n
selle	see	0		P	sg g
     	sell	e		S	pl p
kahju	kahi	0		S	adt
     	kahi	0		S	sg g
     	kahi	0		S	sg p
     	kahju	0		S	sg g
     	kahju	0		S	sg n
     	kahju	0		S	sg p
maksma	maks	ma		V	ma
,	,			Z	
kui	kui	0		D	
   	kui	0		J	
tema	tema	0		P	sg g
    	tema	0		P	sg n
metsa	mets	0		S	adt
     	mets	0		S	sg g
     	mets	0		S	sg p
varas	vara	s		S	sg in
     	varas	0		S	sg n
mitte	mitte	0		D	
kinni	kinni	0		D	
võtnud	võt	nud		V	nud
      	võt=nu	d		S	pl n
      	võt=nud	0		A	
      	võt=nud	0		A	sg n
      	võt=nud	d		A	pl n
,	,			Z	
ning	ning	0		J	
mõisale	mõis	le		S	sg all
täust	####				
annud	####				
.	.			Z	
mõisa	mõis	0		S	sg g
einamaa	####				
peab	pida	b		V	b
tema	tema	0		P	sg g
    	tema	0		P	sg n
ka	ka	0		D	
perra	####				
käema	####				
,	,			Z	
ning	ning	0		J	
peab	pida	b		V	b
perra	####				
kaema	kae	ma		V	ma
,	,			Z	
et	et	0		J	
enzelise	####				
ei	ei	0		D	
  	ei	0		V	neg
Anamaa	####				
,	,			Z	
iga	iga	0		P	sg g
   	iga	0		P	sg n
   	iga	0		P	sg p
   	iga	0		S	sg n
   	iga	0		S	sg p
mõtsa	####				
alla	alla	0		D	
    	alla	0		K	
ei	ei	0		D	
  	ei	0		V	neg
tule	tuli	0		S	sg g
    	tule	0		V	o
söötma	sööt	ma		V	ma
.	.			Z	
selle	see	0		P	sg g
     	sell	e		S	pl p
orjuse	orjus	0		S	sg g
eest	eest	0		D	
    	eest	0		K	
    	esi	st		S	sg el
,	,			Z	
saab	saa	b		V	b
tema	tema	0		P	sg g
    	tema	0		P	sg n
mõisa	mõis	0		S	sg g
poolt	pool	t		N	sg p
     	pool	t		S	sg p
     	poolt	0		D	
     	poolt	0		K	
andatud	####				
,	,			Z	
see	see	0		P	sg n
ajamaa	aja_maa	0		S	sg g
      	aja_maa	0		S	sg n
Lauta	laug	ta		S	sg ab
     	laut	0		S	adt
     	laut	0		S	sg p
taga	taga	0		D	
    	taga	0		K	
    	taga	0		V	o
nii	nii	0		D	
suur	suur	0		A	sg n
kui	kui	0		D	
   	kui	0		J	
see	see	0		P	sg n
prüla	####				
on	ole	0		V	b
  	ole	0		V	vad
,	,			Z	
ning	ning	0		J	
need	see	d		P	pl n
kaks	kaks	0		N	sg n
välja	välja	0		D	
     	välja	0		V	o
     	väli	0		S	adt
     	väli	0		S	sg g
     	väli	0		S	sg p
tükki	tükk	0		S	adt
     	tükk	0		S	sg p
     	tükki	0		D	
,	,			Z	
mis	mis	0		P	pl n
   	mis	0		P	sg n
vastu	vastu	0		D	
     	vastu	0		K	
Rõngu	Rõngu	0		H	adt
     	Rõngu	0		H	sg g
     	Rõngu	0		H	sg n
Raja	Raja	0		H	sg g
    	rada	0		S	sg g
    	raja	0		S	sg g
    	raja	0		V	o
    	Raja	0		H	sg n
    	raja	0		S	sg n
    	raja	0		S	sg p
ning	ning	0		J	
tee	tee	0		S	sg g
   	tege	0		V	o
   	tee	0		S	sg n
äärene	####				
on	ole	0		V	b
  	ole	0		V	vad
,	,			Z	
ja	ja	0		J	
see	see	0		P	sg n
heinamaa	heina_maa	0		S	sg g
        	heina_maa	0		S	sg n
tükki	tükk	0		S	adt
     	tükk	0		S	sg p
     	tükki	0		D	
mis	mis	0		P	pl n
   	mis	0		P	sg n
kaevu	kaev	0		S	adt
     	kaev	0		S	sg g
     	kaevu	0		V	o
     	kaev	0		S	sg p
man	man	0		D	
   	man	0		K	
läheb	mine	b		V	b
vastu	vastu	0		D	
     	vastu	0		K	
Rõngu	Rõngu	0		H	adt
     	Rõngu	0		H	sg g
     	Rõngu	0		H	sg n
Raja	Raja	0		H	sg g
    	rada	0		S	sg g
    	raja	0		S	sg g
    	raja	0		V	o
    	Raja	0		H	sg n
    	raja	0		S	sg n
    	raja	0		S	sg p
.	.			Z	
XXX	XXX	0		O	?
   	XXX	0		Y	?
(	(			Z	
Praakli	####				
Tots	tots	0		S	sg n
)	)			Z	
G	G	0		Y	?
L	L	0		O	?
 	L	0		Y	?
Keisenberg	####				
(	(			Z	
mõisavalitseja	mõisa_valitseja	0		S	sg g
              	mõisa_valitseja	0		S	sg n
allkiri	all_kiri	0		S	sg n
)	)			Z	
