Aavvinurme	####				
Mets	mets	0		S	sg n
kogokonna	####				
kohtus	kohtu	s		V	s
      	kohus	s		S	sg in
sel	see	l		P	sg ad
   	sel	0		Y	?
20	20	0		N	?
Aapril	####				
1873	1873	0		N	?
koos	koos	0		D	
    	koos	0		K	
    	koos	0		S	sg n
    	kubu	s		S	sg in
olid	ole	id		V	sid
teine	teine	0		O	sg n
     	teine	0		P	sg n
kohtumees	kohtu_mees	0		S	sg n
Josep	####				
Reisenpuk	####				
kolmas	kolmas	0		O	sg n
kohtumees	kohtu_mees	0		S	sg n
Josep	####				
kalaus	####				
""""	""""			Z	
kohtumees	kohtu_mees	0		S	sg n
Maddis	####				
kalaus	####				
Aastahvki	####				
soltat	####				
Josep	####				
Paas	paa	s		A	sg in
    	paa	s		S	sg in
    	paas	0		S	sg n
sai	saa	i		V	s
   	sai	0		S	sg n
jomise	####				
ja	ja	0		J	
taplemise	taple=mine	0		S	sg g
eest	eest	0		D	
    	eest	0		K	
    	esi	st		S	sg el
1	1	0		N	?
1	1	0		N	?
/	/			Z	
2	2	0		N	?
päeva	päev	0		S	adt
     	päev	0		S	sg g
     	päev	0		S	sg p
peale	pea	le		S	sg all
     	peale	0		D	
     	peale	0		K	
kinni	kinni	0		D	
moistetud	####				
.	.			Z	
Josep	####				
Reisenpuk	####				
XXX	XXX	0		O	?
   	XXX	0		Y	?
Josep	####				
kalaus	####				
XXX	XXX	0		O	?
   	XXX	0		Y	?
Maddis	####				
kalaus	####				
XXX	XXX	0		O	?
   	XXX	0		Y	?
