Tulid	tule	id		V	sid
ette	ette	0		D	
    	ette	0		K	
    	esi	tte		S	adt
Aavinurme	####				
valla	vald	0		S	sg g
     	valla	0		D	
ja	ja	0		J	
Maetsma	####				
küla	küla	0		S	sg g
    	küla	0		S	sg n
    	küla	0		S	sg p
inimesed	inimene	d		S	pl n
taluperemees	talu_pere_mees	0		S	sg n
Mart	Mart	0		H	sg n
    	mart	0		S	sg n
Kask	kask	0		S	sg n
Josepi	####				
poeg	poeg	0		S	sg n
ja	ja	0		J	
Pobo	####				
Josep	####				
Loddu	####				
Mart	Mart	0		H	sg n
    	mart	0		S	sg n
p	p	0		Y	?
ja	ja	0		J	
palusid	palu	sid		S	pl p
       	palu	sid		V	sid
vallakohut	valla_kohus	t		S	sg p
nende	see	de		P	pl g
     	tema	de		P	pl g
leppingu	####				
kohtu	kohtu	0		V	o
     	kohus	0		S	sg g
aktiramatuse	####				
üleskirjutada	####				
mis	mis	0		P	pl n
   	mis	0		P	sg n
nemad	tema	d		P	pl n
enda	ise	0		P	sg g
vahel	vahe	l		S	sg ad
     	vahel	0		D	
     	vahel	0		K	
maja	maja	0		S	sg g
    	maja	0		S	sg n
    	maja	0		S	sg p
platsi	plats	0		S	adt
      	plats	0		S	sg g
      	plats	0		S	sg p
andmise	andmine	0		S	sg g
pärast	pära	st		S	sg el
      	pärane	t		A	sg p
      	pärast	0		D	
      	pärast	0		K	
on	ole	0		V	b
  	ole	0		V	vad
kokku	kokku	0		D	
     	kogu	0		S	adt
leppinud	leppi	nud		V	nud
        	leppi=nu	d		S	pl n
        	leppi=nud	0		A	
        	leppi=nud	0		A	sg n
        	leppi=nud	d		A	pl n
järelseisva	järel_seisev	0		A	sg g
tingimistega	tingimine	tega		S	pl kom
Taluperemees	talu_pere_mees	0		S	sg n
Mart	Mart	0		H	sg n
    	mart	0		S	sg n
Kask	kask	0		S	sg n
Josepi	####				
poeg	poeg	0		S	sg n
annab	and	b		V	b
oma	oma	0		A	sg g
   	oma	0		D	
   	oma	0		P	sg g
   	oma	0		S	sg g
   	oma	0		V	o
   	oma	0		A	sg n
   	oma	0		A	sg p
   	oma	0		P	sg n
   	oma	0		P	sg p
   	oma	0		S	sg n
   	oma	0		S	sg p
talumaade	talu_maa	de		S	pl g
küllest	####				
Josep	####				
Loddu	####				
Mart	Mart	0		H	sg n
    	mart	0		S	sg n
pojale	poeg	le		S	sg all
      	poja	le		S	sg all
üks	üks	0		N	sg n
   	üks	0		P	sg n
maja	maja	0		S	sg g
    	maja	0		S	sg n
    	maja	0		S	sg p
plats	plats	0		S	sg n
     	plats	0		I	
õueruumiga	õue_ruum	ga		S	sg kom
ja	ja	0		J	
nimelt	nimelt	0		D	
      	nimi	lt		S	sg abl
se	####				
maatük	####				
mis	mis	0		P	pl n
   	mis	0		P	sg n
Kai	Kai	0		H	sg g
   	Kai	0		H	sg n
   	kai	0		S	sg g
   	kai	0		S	sg n
Loddu	####				
ja	ja	0		J	
Mihkel	Mihkel	0		H	sg n
      	mihkel	0		A	sg n
      	mihkel	0		S	sg n
Õunapu	####				
majade	maja	de		S	pl g
vahel	vahe	l		S	sg ad
     	vahel	0		D	
     	vahel	0		K	
.	.			Z	
ja	ja	0		J	
üheltpoolt	ühelt_poolt	0		D	
          	ühelt_poolt	0		K	
taluperemehe	talu_pere_mees	0		S	sg g
Karel	####				
Haava	haab	0		S	sg g
     	haav	0		S	adt
     	haav	0		S	sg g
     	haava	0		V	o
     	haav	0		S	sg p
talu	talu	0		S	sg g
    	talu	0		V	o
    	talu	0		S	sg n
    	talu	0		S	sg p
piirest	piir	est		S	pl el
ja	ja	0		J	
teiselt	teine	lt		O	sg abl
       	teine	lt		P	sg abl
poolt	pool	t		N	sg p
     	pool	t		S	sg p
     	poolt	0		D	
     	poolt	0		K	
Mihkel	Mihkel	0		H	sg n
      	mihkel	0		A	sg n
      	mihkel	0		S	sg n
Õunapu	####				
teest	tee	st		S	sg el
piiratud	piira	tud		V	tud
        	piira=tu	d		S	pl n
        	piiratud	0		A	
        	piiratud	0		A	sg n
        	piiratud	d		A	pl n
saab	saa	b		V	b
,	,			Z	
ja	ja	0		J	
käib	käi	b		V	b
sellest	see	st		P	sg el
maatükkist	####				
üks	üks	0		N	sg n
   	üks	0		P	sg n
tee	tee	0		S	sg g
   	tege	0		V	o
   	tee	0		S	sg n
läbbi	####				
Kai	Kai	0		H	sg g
   	Kai	0		H	sg n
   	kai	0		S	sg g
   	kai	0		S	sg n
Loddu	####				
maja	maja	0		S	sg g
    	maja	0		S	sg n
    	maja	0		S	sg p
tagast	####				
.	.			Z	
Josep	####				
Loddu	####				
maksab	maks	b		V	b
selle	see	0		P	sg g
     	sell	e		S	pl p
platsi	plats	0		S	adt
      	plats	0		S	sg g
      	plats	0		S	sg p
eest	eest	0		D	
    	eest	0		K	
    	esi	st		S	sg el
Mart	Mart	0		H	sg n
    	mart	0		S	sg n
kasele	kask	le		S	sg all
iga	iga	0		P	sg g
   	iga	0		P	sg n
   	iga	0		P	sg p
   	iga	0		S	sg n
   	iga	0		S	sg p
Aaasta	####				
kolm	kolm	0		N	sg n
rubla	rubla	0		S	sg g
     	rubla	0		S	sg n
     	rubla	0		S	sg p
(	(			Z	
3	3	0		N	?
rubl	####				
)	)			Z	
renti	rent	0		S	adt
     	rent	0		S	sg p
ja	ja	0		J	
peab	pida	b		V	b
Josep	####				
Loddu	####				
oma	oma	0		A	sg g
   	oma	0		D	
   	oma	0		P	sg g
   	oma	0		S	sg g
   	oma	0		V	o
   	oma	0		A	sg n
   	oma	0		A	sg p
   	oma	0		P	sg n
   	oma	0		P	sg p
   	oma	0		S	sg n
   	oma	0		S	sg p
vana	vana	0		A	sg g
    	vana	0		A	sg n
    	vana	0		A	sg p
    	vana	0		S	sg g
    	vana	0		S	sg n
    	vana	0		S	sg p
maja	maja	0		S	sg g
    	maja	0		S	sg n
    	maja	0		S	sg p
mis	mis	0		P	pl n
   	mis	0		P	sg n
Mart	Mart	0		H	sg n
    	mart	0		S	sg n
Kase	kask	0		S	sg g
heinamaa	heina_maa	0		S	sg g
        	heina_maa	0		S	sg n
sees	sees	0		D	
    	sees	0		K	
kahe	kaks	0		N	sg g
Aaasta	####				
pärast	pära	st		S	sg el
      	pärane	t		A	sg p
      	pärast	0		D	
      	pärast	0		K	
äralahutama	####				
ja	ja	0		J	
ära	ära	0		D	
   	ära	0		V	neg o
veema	####				
.	.			Z	
Mart	Mart	0		H	sg n
    	mart	0		S	sg n
Kask	kask	0		S	sg n
(	(			Z	
Allkiri	all_kiri	0		S	sg n
)	)			Z	
Josep	####				
Loddu	####				
räkis	####				
et	et	0		J	
tema	tema	0		P	sg g
    	tema	0		P	sg n
nende	see	de		P	pl g
     	tema	de		P	pl g
eespool	ees_pool	0		D	
       	ees_pool	0		K	
nimetud	nimetu	d		A	pl n
tingimistega	tingimine	tega		S	pl kom
on	ole	0		V	b
  	ole	0		V	vad
taluperemehe	talu_pere_mees	0		S	sg g
Mart	Mart	0		H	sg n
    	mart	0		S	sg n
Kase	kask	0		S	sg g
käest	käest	0		K	
     	käsi	st		S	sg el
omale	oma	le		A	sg all
     	oma	le		P	sg all
     	oma	le		S	sg all
maja	maja	0		S	sg g
    	maja	0		S	sg n
    	maja	0		S	sg p
platsi	plats	0		S	adt
      	plats	0		S	sg g
      	plats	0		S	sg p
rentinud	renti	nud		V	nud
        	renti=nu	d		S	pl n
        	renti=nud	0		A	
        	renti=nud	0		A	sg n
        	renti=nud	d		A	pl n
kuhu	kuhu	0		D	
tema	tema	0		P	sg g
    	tema	0		P	sg n
uus	uus	0		A	sg n
maja	maja	0		S	sg g
    	maja	0		S	sg n
    	maja	0		S	sg p
üles	üles	0		D	
ehitab	ehita	b		V	b
,	,			Z	
ja	ja	0		J	
lubab	luba	b		V	b
tema	tema	0		P	sg g
    	tema	0		P	sg n
need	see	d		P	pl n
tingimised	tingimine	d		S	pl n
täita	täi	ta		S	sg ab
     	täi	ta		V	ta
     	täit	a		V	da
     	täita	0		V	o
.	.			Z	
Joosep	Joosep	0		H	sg n
Lodu	lodu	0		S	sg g
    	lodu	0		S	sg n
    	lodu	0		S	sg p
(	(			Z	
Allkiri	all_kiri	0		S	sg n
)	)			Z	
Josep	####				
Loddu	####				
ema	ema	0		S	sg g
   	ema	0		S	sg n
   	ema	0		S	sg p
Kadri	Kadri	0		H	sg g
     	Kadri	0		H	sg n
     	kadri	0		S	sg g
     	kadri	0		S	sg n
Loddu	####				
räkis	####				
et	et	0		J	
tema	tema	0		P	sg g
    	tema	0		P	sg n
poolt	pool	t		N	sg p
     	pool	t		S	sg p
     	poolt	0		D	
     	poolt	0		K	
selle	see	0		P	sg g
     	sell	e		S	pl p
vastu	vastu	0		D	
     	vastu	0		K	
keelmist	####				
ei	ei	0		D	
  	ei	0		V	neg
ole	ole	0		V	o
et	et	0		J	
tema	tema	0		P	sg g
    	tema	0		P	sg n
poeg	poeg	0		S	sg n
Josep	####				
Loddu	####				
tema	tema	0		P	sg g
    	tema	0		P	sg n
vana	vana	0		A	sg g
    	vana	0		A	sg n
    	vana	0		A	sg p
    	vana	0		S	sg g
    	vana	0		S	sg n
    	vana	0		S	sg p
maja	maja	0		S	sg g
    	maja	0		S	sg n
    	maja	0		S	sg p
kahe	kaks	0		N	sg g
Aaasta	####				
pärast	pära	st		S	sg el
      	pärane	t		A	sg p
      	pärast	0		D	
      	pärast	0		K	
ära	ära	0		D	
   	ära	0		V	neg o
lahutab	lahuta	b		V	b
ja	ja	0		J	
omale	oma	le		A	sg all
     	oma	le		P	sg all
     	oma	le		S	sg all
uus	uus	0		A	sg n
maja	maja	0		S	sg g
    	maja	0		S	sg n
    	maja	0		S	sg p
teise	teine	0		O	adt
     	teine	0		O	sg g
     	teine	0		P	adt
     	teine	0		P	sg g
koha	koht	0		S	sg g
    	koha	0		S	sg g
    	koha	0		V	o
    	koha	0		S	sg n
    	koha	0		S	sg p
peale	pea	le		S	sg all
     	peale	0		D	
     	peale	0		K	
üles	üles	0		D	
ehitab	ehita	b		V	b
kuhu	kuhu	0		D	
tema	tema	0		P	sg g
    	tema	0		P	sg n
ka	ka	0		D	
elama	ela	ma		V	ma
laheb	####				
,	,			Z	
Kadri	Kadri	0		H	sg g
     	Kadri	0		H	sg n
     	kadri	0		S	sg g
     	kadri	0		S	sg n
Loddu	####				
ei	ei	0		D	
  	ei	0		V	neg
moista	####				
kirjutada	kirjuta	da		V	da
tema	tema	0		P	sg g
    	tema	0		P	sg n
palve	palve	0		S	sg g
     	palve	0		S	sg n
peale	pea	le		S	sg all
     	peale	0		D	
     	peale	0		K	
kirjutas	kirjuta	s		V	s
Karel	####				
Kask	kask	0		S	sg n
(	(			Z	
Allkiri	all_kiri	0		S	sg n
)	)			Z	
1904	1904	0		N	?
Aaastal	####				
Aaprilikuu	####				
16	16	0		N	?
päeval	päev	l		S	sg ad
on	ole	0		V	b
  	ole	0		V	vad
Aavinurme	####				
Vallakohus	valla_kohus	0		S	sg n
Aavinurme	####				
Vallamajas	valla_maja	s		S	sg in
taluperemehe	talu_pere_mees	0		S	sg g
Mart	Mart	0		H	sg n
    	mart	0		S	sg n
Kase	kask	0		S	sg g
Josepi	####				
poja	poeg	0		S	sg g
    	poja	0		S	sg g
    	poja	0		S	sg n
    	poja	0		S	sg p
ja	ja	0		J	
Josep	####				
Loddu	####				
Mart	Mart	0		H	sg n
    	mart	0		S	sg n
poja	poeg	0		S	sg g
    	poja	0		S	sg g
    	poja	0		S	sg n
    	poja	0		S	sg p
lepping	####				
maja	maja	0		S	sg g
    	maja	0		S	sg n
    	maja	0		S	sg p
platsi	plats	0		S	adt
      	plats	0		S	sg g
      	plats	0		S	sg p
andmise	andmine	0		S	sg g
pärast	pära	st		S	sg el
      	pärane	t		A	sg p
      	pärast	0		D	
      	pärast	0		K	
üle	üle	0		D	
   	üle	0		K	
kuulanud	kuula	nud		V	nud
        	kuula=nu	d		S	pl n
        	kuula=nud	0		A	
        	kuula=nud	0		A	sg n
        	kuula=nud	d		A	pl n
ja	ja	0		J	
leidnud	leid	nud		V	nud
       	leid=nu	d		S	pl n
       	leid=nud	0		A	
       	leid=nud	0		A	sg n
       	leid=nud	d		A	pl n
;	;			Z	
et	et	0		J	
leppingutegijad	####				
Vallakohtule	valla_kohus	le		S	sg all
tuntud	tund	tud		V	tud
      	tuntu	d		S	pl n
      	tuntud	0		A	
      	tuntud	0		A	sg n
      	tuntud	d		A	pl n
ja	ja	0		J	
teatud	tea=tu	d		S	pl n
      	tead	tud		V	tud
      	teatud	0		A	
      	teatud	0		A	sg n
      	teatud	d		A	pl n
ja	ja	0		J	
nemad	tema	d		P	pl n
õiguse	õigus	0		S	sg g
voimelised	####				
enda	ise	0		P	sg g
vahel	vahe	l		S	sg ad
     	vahel	0		D	
     	vahel	0		K	
leppingud	####				
teha	tege	a		V	da
,	,			Z	
misparast	####				
nende	see	de		P	pl g
     	tema	de		P	pl g
lepping	####				
on	ole	0		V	b
  	ole	0		V	vad
tänasel	tänane	l		A	sg ad
paäval	####				
Vallakohtu	valla_kohus	0		S	sg g
Aakt	####				
ramatuse	####				
N 4	N4	0		Y	?
all	all	0		D	
   	all	0		K	
üles	üles	0		D	
kirjutud	####				
ja	ja	0		J	
kohtu	kohtu	0		V	o
     	kohus	0		S	sg g
poolest	pool	st		N	sg el
       	pool	st		S	sg el
       	poolene	t		A	sg p
       	poolest	0		K	
kinnitud	kinnitu	d		V	d
saanud	saa	nud		V	nud
      	saa=nud	0		A	
      	saa=nud	0		A	sg n
      	saa=nud	d		A	pl n
      	saanu	d		S	pl n
ja	ja	0		J	
saab	saa	b		V	b
kohtupoolest	kohtu_pool	st		S	sg el
            	kohtu_poolene	t		A	sg p
tõeks	tõde	ks		S	sg tr
     	tõsi	ks		S	sg tr
tunnistud	####				
et	et	0		J	
leppingutegijad	####				
on	ole	0		V	b
  	ole	0		V	vad
oma	oma	0		A	sg g
   	oma	0		D	
   	oma	0		P	sg g
   	oma	0		S	sg g
   	oma	0		V	o
   	oma	0		A	sg n
   	oma	0		A	sg p
   	oma	0		P	sg n
   	oma	0		P	sg p
   	oma	0		S	sg n
   	oma	0		S	sg p
käega	käsi	ga		S	sg kom
omad	oma	d		A	pl n
    	oma	d		P	pl n
    	oma	d		S	pl n
    	oma	d		V	d
nimed	nimi	d		S	pl n
alla	alla	0		D	
    	alla	0		K	
kirjutanud	kirjuta	nud		V	nud
          	kirjutanu	d		S	pl n
          	kirjutanud	0		A	
          	kirjutanud	0		A	sg n
          	kirjutanud	d		A	pl n
Kadri	Kadri	0		H	sg g
     	Kadri	0		H	sg n
     	kadri	0		S	sg g
     	kadri	0		S	sg n
Loddu	####				
eest	eest	0		D	
    	eest	0		K	
    	esi	st		S	sg el
kes	kes	0		P	pl n
   	kes	0		P	sg n
kirjutada	kirjuta	da		V	da
ei	ei	0		D	
  	ei	0		V	neg
moista	####				
on	ole	0		V	b
  	ole	0		V	vad
aga	aga	0		J	
tema	tema	0		P	sg g
    	tema	0		P	sg n
palve	palve	0		S	sg g
     	palve	0		S	sg n
peale	pea	le		S	sg all
     	peale	0		D	
     	peale	0		K	
Aavinurme	####				
valla	vald	0		S	sg g
     	valla	0		D	
ja	ja	0		J	
Maetsma	####				
küla	küla	0		S	sg g
    	küla	0		S	sg n
    	küla	0		S	sg p
inimene	inimene	0		S	sg n
Karel	####				
Kask	kask	0		S	sg n
Josepi	####				
poeg	poeg	0		S	sg n
alla	alla	0		D	
    	alla	0		K	
kirjutanud	kirjuta	nud		V	nud
          	kirjutanu	d		S	pl n
          	kirjutanud	0		A	
          	kirjutanud	0		A	sg n
          	kirjutanud	d		A	pl n
T	T	0		Y	?
Kiik	kiik	0		S	sg n
(	(			Z	
Allkiri	all_kiri	0		S	sg n
)	)			Z	
A	A	0		Y	?
Liis	Liis	0		H	sg n
    	Lii	s		H	sg in
(	(			Z	
Allkiri	all_kiri	0		S	sg n
)	)			Z	
J	J	0		Y	?
Toomi	toom	0		S	adt
     	toom	0		S	sg g
     	toom	i		S	pl p
     	toom	0		S	sg p
(	(			Z	
Allkiri	all_kiri	0		S	sg n
)	)			Z	
Kirjutaja	kirjutaja	0		S	sg g
         	kirjutaja	0		S	sg n
Schulbach	####				
(	(			Z	
Allkiri	all_kiri	0		S	sg n
)	)			Z	
26	26	0		N	?
Aaprillil	####				
1906	1906	0		N	?
a	a	0		Y	?
Mart	Mart	0		H	sg n
    	mart	0		S	sg n
kasele	kask	le		S	sg all
ära	ära	0		D	
   	ära	0		V	neg o
välja	välja	0		D	
     	välja	0		V	o
     	väli	0		S	adt
     	väli	0		S	sg g
     	väli	0		S	sg p
antud	an=tu	d		S	pl n
     	and	tud		V	tud
     	antud	0		A	
     	antud	0		A	sg n
     	antud	d		A	pl n
ja	ja	0		J	
15	15	0		N	?
k	k	0		Y	?
.	.			Z	
mark	mark	0		S	sg n
peale	pea	le		S	sg all
     	peale	0		D	
     	peale	0		K	
pandnud	####				
.	.			Z	
Kirjutaja	kirjutaja	0		S	sg g
         	kirjutaja	0		S	sg n
Tõldsep	####				
(	(			Z	
Allkiri	all_kiri	0		S	sg n
)	)			Z	
