Toomas	Toomas	0		H	sg n
      	Toomas	s		H	sg in
      	too	mas		V	mas
Juhkam	juhkam	0		S	sg n
kaibab	####				
:	:			Z	
""""	""""			Z	
Toomas	Toomas	0		H	sg n
      	Toomas	s		H	sg in
      	too	mas		V	mas
Träsa	####				
14.	14.	0		O	?
aastaline	aasta=line	0		A	sg n
poeg	poeg	0		S	sg n
Karl	Karl	0		H	sg n
oleva	olev	0		A	sg g
     	olev	0		S	sg g
metsas	mets	s		S	sg in
puuraiumise	puu_raiumine	0		S	sg g
juures	juur	s		S	sg in
      	juures	0		D	
      	juures	0		K	
ühe	üks	0		N	sg g
   	üks	0		P	sg g
   	ühe	0		S	sg n
puu	puu	0		S	sg g
   	puu	0		S	sg n
tema	tema	0		P	sg g
    	tema	0		P	sg n
hobuse	hobune	0		S	sg g
päha	####				
lasknud	lask	nud		V	nud
       	lask=nu	d		S	pl n
       	lask=nud	0		A	
       	lask=nud	0		A	sg n
       	lask=nud	d		A	pl n
,	,			Z	
mispääle	####				
hobune	hobune	0		S	sg n
äralõpnud	ära_lõpnu	d		S	pl n
         	ära_lõpnud	0		A	
         	ära_lõpnud	0		A	sg n
         	ära_lõpnud	d		A	pl n
.	.			Z	
""""	""""			Z	
Pois	poi	s		S	sg in
ja	ja	0		J	
tema	tema	0		P	sg g
    	tema	0		P	sg n
isa	isa	0		S	sg g
   	isa	0		S	sg n
   	isa	0		S	sg p
annad	and	d		V	d
     	anna	d		S	pl n
seda	see	da		P	sg p
kaibust	####				
ka	ka	0		D	
tõeks	tõde	ks		S	sg tr
     	tõsi	ks		S	sg tr
,	,			Z	
ütled	ütle	d		V	d
aga	aga	0		J	
:	:			Z	
""""	""""			Z	
Toomas	Toomas	0		H	sg n
      	Toomas	s		H	sg in
      	too	mas		V	mas
Juhkami	juhkam	0		S	sg g
poeg	poeg	0		S	sg n
Jüri	Jüri	0		H	sg g
    	Jüri	0		H	sg n
oleva	olev	0		A	sg g
     	olev	0		S	sg g
teed	tee	d		S	pl n
    	tege	d		V	d
    	tee	d		S	sg p
pite	####				
kahe	kaks	0		N	sg g
puukoormaga	puu_koorem	ga		S	sg kom
sõitnud	sõit	nud		V	nud
       	sõit=nu	d		S	pl n
       	sõit=nud	0		A	
       	sõit=nud	0		A	sg n
       	sõit=nud	d		A	pl n
ja	ja	0		J	
ise	ise	0		A	
   	ise	0		D	
   	ise	0		P	pl n
   	ise	0		P	sg n
esimese	esimene	0		O	sg g
       	esimene	0		P	sg g
koorma	koorem	0		S	sg g
      	koorma	0		V	o
taga	taga	0		D	
    	taga	0		K	
    	taga	0		V	o
kõndinud	kõndi	nud		V	nud
        	kõndi=nu	d		S	pl n
        	kõndi=nud	0		A	
        	kõndi=nud	0		A	sg n
        	kõndi=nud	d		A	pl n
kus	kus	0		D	
hobune	hobune	0		S	sg n
sai	saa	i		V	s
   	sai	0		S	sg n
tapetud	tap	tud		V	tud
       	tapetu	d		S	pl n
       	tapetud	0		A	
       	tapetud	0		A	sg n
       	tapetud	d		A	pl n
,	,			Z	
nii	nii	0		D	
et	et	0		J	
tema	tema	0		P	sg g
    	tema	0		P	sg n
kül	####				
oleks	ole	ks		V	ks
võinud	või	nud		V	nud
      	või=nu	d		S	pl n
      	või=nud	0		A	
      	või=nud	0		A	sg n
      	või=nud	d		A	pl n
hobust	hobu	st		S	sg el
      	hobune	t		S	sg p
kinni	kinni	0		D	
pidada	pida	da		V	da
,	,			Z	
kui	kui	0		D	
   	kui	0		J	
poisi	poiss	0		S	sg g
raiuvat	raiu	vat		V	vat
       	raiuv	t		A	sg p
nägi	näge	i		V	s
.	.			Z	
""""	""""			Z	
Poisi	poiss	0		S	sg g
raiumise	raiumine	0		S	sg g
kohast	koht	st		S	sg el
      	koha	st		S	sg el
      	kohane	t		A	sg p
on	ole	0		V	b
  	ole	0		V	vad
Tõnnis	Tõnn	s		H	sg in
Träs	####				
,	,			Z	
Aabram	Aabram	0		H	sg n
Träs	####				
ja	ja	0		J	
Taavet	taavet	0		S	sg n
Põltsam	####				
kõik	kõik	0		P	pl n
    	kõik	0		S	sg n
    	kõik	0		P	sg n
4	4	0		N	?
süld	süld	0		S	sg n
kaugel	kauge	l		A	sg ad
      	kaugel	0		D	
olnud	ol=nud	0		A	
     	ol=nud	0		A	sg n
     	ol=nud	d		A	pl n
     	ole	nud		V	nud
     	olnu	d		S	pl n
,	,			Z	
kes	kes	0		P	pl n
   	kes	0		P	sg n
seda	see	da		P	sg p
lugu	lugu	0		S	sg n
    	lugu	0		S	sg p
selgest	selge	st		A	sg el
näinud	näi	nud		V	nud
      	näge	nud		V	nud
      	näi=nud	0		A	
      	näi=nud	0		A	sg n
      	näi=nud	d		A	pl n
      	näinu	d		S	pl n
.	.			Z	
Juhkam	juhkam	0		S	sg n
on	ole	0		V	b
  	ole	0		V	vad
hobuse	hobune	0		S	sg g
,	,			Z	
kui	kui	0		D	
   	kui	0		J	
ta	tema	0		P	sg g
  	tema	0		P	sg n
2.	2.	0		O	?
aastane	aastane	0		A	sg n
vars	vars	0		S	sg n
oli	ole	i		V	s
,	,			Z	
17.	17.	0		O	?
rubla	rubla	0		S	sg g
     	rubla	0		S	sg n
     	rubla	0		S	sg p
eest	eest	0		D	
    	eest	0		K	
    	esi	st		S	sg el
ostnud	ost	nud		V	nud
      	ost=nu	d		S	pl n
      	ost=nud	0		A	
      	ost=nud	0		A	sg n
      	ost=nud	d		A	pl n
;	;			Z	
nüüd	nüüd	0		D	
aga	aga	0		J	
oli	ole	i		V	s
hobune	hobune	0		S	sg n
5.	5.	0		O	?
aastane	aastane	0		A	sg n
ja	ja	0		J	
arvatakse	arva	takse		V	takse
35	35	0		N	?
rubla	rubla	0		S	sg g
     	rubla	0		S	sg n
     	rubla	0		S	sg p
väärt	väärt	0		A	
     	väärt	0		D	
olnud	ol=nud	0		A	
     	ol=nud	0		A	sg n
     	ol=nud	d		A	pl n
     	ole	nud		V	nud
     	olnu	d		S	pl n
.	.			Z	
Mõistetud	mõist	tud		V	tud
         	mõiste=tu	d		S	pl n
         	mõiste=tud	0		A	
         	mõiste=tud	0		A	sg n
         	mõiste=tud	d		A	pl n
:	:			Z	
et	et	0		J	
õnnetus	õnnetu	s		A	sg in
       	õnnetus	0		S	sg n
poisi	poiss	0		S	sg g
läbi	läbi	0		D	
    	läbi	0		K	
    	läbi	0		V	o
on	ole	0		V	b
  	ole	0		V	vad
juhtunud	juhtu	nud		V	nud
        	juhtunu	d		S	pl n
        	juhtunud	0		A	
        	juhtunud	0		A	sg n
        	juhtunud	d		A	pl n
,	,			Z	
siis	siis	0		D	
    	siis	0		J	
poisi	poiss	0		S	sg g
isa	isa	0		S	sg g
   	isa	0		S	sg n
   	isa	0		S	sg p
ei	ei	0		D	
  	ei	0		V	neg
maksa	maks	0		S	adt
     	maks	0		S	sg g
     	maks	0		V	o
     	maks	0		S	sg p
mite	####				
täit	täis	t		A	sg p
    	täis	t		S	sg p
kahju	kahi	0		S	adt
     	kahi	0		S	sg g
     	kahi	0		S	sg p
     	kahju	0		S	sg g
     	kahju	0		S	sg n
     	kahju	0		S	sg p
,	,			Z	
vaid	vaid	0		D	
    	vaid	0		J	
kõiges	kõik	s		P	sg in
20	20	0		N	?
rubla	rubla	0		S	sg g
     	rubla	0		S	sg n
     	rubla	0		S	sg p
hõbedat	hõbe	t		S	sg p
.	.			Z	
Kumgi	####				
pool	pool	0		K	
    	pool	0		N	sg n
    	pool	0		S	sg n
ei	ei	0		D	
  	ei	0		V	neg
ole	ole	0		V	o
selle	see	0		P	sg g
     	sell	e		S	pl p
otsusega	otsus	ga		S	sg kom
rahul	rahu	l		S	sg ad
     	rahul	0		D	
,	,			Z	
mispärast	mis_pärast	0		D	
Juhkamile	juhkam	le		S	sg all
protokoll	protokoll	0		S	sg n
välja	välja	0		D	
     	välja	0		V	o
     	väli	0		S	adt
     	väli	0		S	sg g
     	väli	0		S	sg p
antakse	and	takse		V	takse
.	.			Z	
27mal	####				
Vebr	####				
.	.			Z	
