August	august	0		S	sg n
      	auk	st		S	sg el
      	August	0		H	sg n
Kuusik	kuusik	0		S	sg n
kaebas	kaeba	s		V	s
,	,			Z	
et	et	0		J	
temal	tema	l		P	sg ad
lepingu	leping	0		S	sg g
perra	####				
5	5	0		N	?
rbl	rbl	0		Y	?
.	.			Z	
Jakob	Jakob	0		H	sg n
Konussaari	####				
käest	käest	0		K	
     	käsi	st		S	sg el
saada	saa	da		V	da
     	saat	0		V	o
     	saa	da		V	ta
,	,			Z	
mis	mis	0		P	pl n
   	mis	0		P	sg n
peale	pea	le		S	sg all
     	peale	0		D	
     	peale	0		K	
tema	tema	0		P	sg g
    	tema	0		P	sg n
3	3	0		N	?
rbl	rbl	0		Y	?
.	.			Z	
P. Torga	####				
käest	käest	0		K	
     	käsi	st		S	sg el
kätte	kätte	0		K	
     	käsi	tte		S	adt
saanud	saa	nud		V	nud
      	saa=nud	0		A	
      	saa=nud	0		A	sg n
      	saa=nud	d		A	pl n
      	saanu	d		S	pl n
,	,			Z	
aga	aga	0		J	
2	2	0		N	?
rbl	rbl	0		Y	?
.	.			Z	
saamata	saa	mata		V	mata
       	saam	ta		S	sg ab
       	saamata	0		A	
jäänud	jää	nud		V	nud
      	jäänu	d		S	pl n
      	jäänud	0		A	
      	jäänud	0		A	sg n
      	jäänud	d		A	pl n
ja	ja	0		J	
nõuab	nõud	b		V	b
seda	see	da		P	sg p
kätte	kätte	0		K	
     	käsi	tte		S	adt
.	.			Z	
Jakob	Jakob	0		H	sg n
Konussaar	####				
vastutas	vastuta	s		V	s
kaebuse	kaebus	0		S	sg g
peale	pea	le		S	sg all
     	peale	0		D	
     	peale	0		K	
et	et	0		J	
tema	tema	0		P	sg g
    	tema	0		P	sg n
valla	vald	0		S	sg g
     	valla	0		D	
vöörmündri	vöörmünder	0		S	sg g
P. Torga	####				
kätte	kätte	0		K	
     	käsi	tte		S	adt
kõik	kõik	0		P	pl n
    	kõik	0		S	sg n
    	kõik	0		P	sg n
leppitud	####				
raha	raha	0		S	sg g
    	raha	0		S	sg n
    	raha	0		S	sg p
5	5	0		N	?
rbl	rbl	0		Y	?
.	.			Z	
ära	ära	0		D	
   	ära	0		V	neg o
maksnud	maks	nud		V	nud
       	maks=nu	d		S	pl n
       	maks=nud	0		A	
       	maks=nud	0		A	sg n
       	maks=nud	d		A	pl n
ja	ja	0		J	
oma	oma	0		A	sg g
   	oma	0		D	
   	oma	0		P	sg g
   	oma	0		S	sg g
   	oma	0		V	o
   	oma	0		A	sg n
   	oma	0		A	sg p
   	oma	0		P	sg n
   	oma	0		P	sg p
   	oma	0		S	sg n
   	oma	0		S	sg p
kinni	kinni	0		D	
kasti	kast	0		S	adt
     	kast	0		S	sg g
     	kast	0		S	sg p
kätte	kätte	0		K	
     	käsi	tte		S	adt
saanud	saa	nud		V	nud
      	saa=nud	0		A	
      	saa=nud	0		A	sg n
      	saa=nud	d		A	pl n
      	saanu	d		S	pl n
.	.			Z	
Karl	Karl	0		H	sg n
Parvei	####				
tunnistas	tunnista	s		V	s
,	,			Z	
et	et	0		J	
Peeter	Peeter	0		H	sg n
Tork	####				
5	5	0		N	?
rbl	rbl	0		Y	?
.	.			Z	
ütlend	####				
Jakob	Jakob	0		H	sg n
Konussaari	####				
käest	käest	0		K	
     	käsi	st		S	sg el
kätte	kätte	0		K	
     	käsi	tte		S	adt
saanud	saa	nud		V	nud
      	saa=nud	0		A	
      	saa=nud	0		A	sg n
      	saa=nud	d		A	pl n
      	saanu	d		S	pl n
olevat	ole	vat		V	vat
      	olev	t		A	sg p
      	olev	t		S	sg p
.	.			Z	
otsus	otsus	0		S	sg n
:	:			Z	
Peeter	Peeter	0		H	sg n
Tork	####				
saab	saa	b		V	b
6	6	0		N	?
Novembri	november	0		S	sg g
ette	ette	0		D	
    	ette	0		K	
    	esi	tte		S	adt
tallitatud	####				
,	,			Z	
sest	see	st		P	sg el
    	sest	0		J	
et	et	0		J	
tema	tema	0		P	sg g
    	tema	0		P	sg n
välja	välja	0		D	
     	välja	0		V	o
     	väli	0		S	adt
     	väli	0		S	sg g
     	väli	0		S	sg p
jäänud	jää	nud		V	nud
      	jäänu	d		S	pl n
      	jäänud	0		A	
      	jäänud	0		A	sg n
      	jäänud	d		A	pl n
oli	ole	i		V	s
.	.			Z	
