Tuli	tuli	0		S	sg n
    	tule	i		V	s
ette	ette	0		D	
    	ette	0		K	
    	esi	tte		S	adt
Jakob	Jakob	0		H	sg n
Aanask	####				
Kadrinalt	Kadrina	lt		H	sg abl
ja	ja	0		J	
palus	palu	s		S	sg in
     	palu	s		V	s
kohut	kohus	t		S	sg p
Josep	####				
eberi	####				
käest	käest	0		K	
     	käsi	st		S	sg el
21	21	0		N	?
rubla	rubla	0		S	sg g
     	rubla	0		S	sg n
     	rubla	0		S	sg p
sisse	siss	e		S	pl p
     	sisse	0		D	
     	sisse	0		K	
nõuda	nõud	a		V	da
.	.			Z	
Josep	####				
eber	####				
palus	palu	s		S	sg in
     	palu	s		V	s
omal	oma	l		A	sg ad
    	oma	l		P	sg ad
    	oma	l		S	sg ad
ühte	ühte	0		D	
    	üks	0		N	adt
    	üks	0		P	adt
    	ühe	0		S	sg g
    	üks	0		N	sg p
    	üks	0		P	sg p
termini	term	ni		S	sg ter
       	termin	0		S	sg g
kuni	kuni	0		J	
    	kuni	0		K	
küinla	####				
päevani	päev	ni		S	sg ter
s	s	0		Y	?
.	.			Z	
a.	a	0		Y	?
2	2	0		N	?
Vebruarini	####				
1886.	1886.	0		O	?
Jakob	Jakob	0		H	sg n
Aanask	####				
oli	ole	i		V	s
sellega	see	ga		P	sg kom
rahul	rahu	l		S	sg ad
     	rahul	0		D	
.	.			Z	
Pääkohtumees	####				
O. Kangro	####				
kohtumees	kohtu_mees	0		S	sg n
J. Soieva	####				
kohtumees	kohtu_mees	0		S	sg n
O. Mõisa	####				
Kirjutaja	kirjutaja	0		S	sg g
         	kirjutaja	0		S	sg n
allkiri	all_kiri	0		S	sg n
.	.			Z	
