Lesk	lesk	0		S	sg n
Mari	Mari	0		H	sg g
    	mari	0		S	sg g
    	mari	0		S	sg n
    	Mari	0		H	sg n
    	mari	0		S	sg p
Mihkelson	####				
kaebas	kaeba	s		V	s
et	et	0		J	
temal	tema	l		P	sg ad
Mihkel	Mihkel	0		H	sg n
      	mihkel	0		A	sg n
      	mihkel	0		S	sg n
Mülleri	Müller	0		H	sg g
käest	käest	0		K	
     	käsi	st		S	sg el
saada	saa	da		V	da
     	saat	0		V	o
     	saa	da		V	ta
olla	ole	a		V	da
,	,			Z	
oma	oma	0		A	sg g
   	oma	0		D	
   	oma	0		P	sg g
   	oma	0		S	sg g
   	oma	0		V	o
   	oma	0		A	sg n
   	oma	0		A	sg p
   	oma	0		P	sg n
   	oma	0		P	sg p
   	oma	0		S	sg n
   	oma	0		S	sg p
kadunud	kadu	nud		V	nud
       	kadunu	d		S	pl n
       	kadunud	0		A	
       	kadunud	0		A	sg n
       	kadunud	d		A	pl n
mehe	mees	0		S	sg g
võlgu	võlg	u		S	pl p
     	võlgu	0		D	
:	:			Z	
1	1	0		N	?
,	,			Z	
21	21	0		N	?
vakka	vakk	0		S	adt
     	vakk	0		S	sg p
     	vakka	0		D	
lupja	lupja	0		V	o
     	lubi	0		S	adt
     	lubi	0		S	sg p
,	,			Z	
-	-			Z	
2	2	0		N	?
,	,			Z	
2	2	0		N	?
koormat	koorem	t		S	sg p
loe	loe	0		S	sg n
   	lood	0		S	sg g
   	luge	0		V	o
kivve	####				
,	,			Z	
-	-			Z	
3	3	0		N	?
,	,			Z	
3	3	0		N	?
rubla	rubla	0		S	sg g
     	rubla	0		S	sg n
     	rubla	0		S	sg p
raha	raha	0		S	sg g
    	raha	0		S	sg n
    	raha	0		S	sg p
,	,			Z	
posti	post	0		S	adt
     	post	0		S	sg g
     	post	0		S	sg p
tee	tee	0		S	sg g
   	tege	0		V	o
   	tee	0		S	sg n
tegemise	tegemine	0		S	sg g
eest	eest	0		D	
    	eest	0		K	
    	esi	st		S	sg el
makstud	maks	tud		V	tud
       	maks=tu	d		S	pl n
       	maks=tud	0		A	
       	maks=tud	0		A	sg n
       	maks=tud	d		A	pl n
kevadel	kevad	l		S	sg ad
       	kevade	l		S	sg ad
1884.	1884.	0		O	?
kaebaja	kaebaja	0		S	sg g
       	kaebaja	0		S	sg n
nõuab	nõud	b		V	b
seda	see	da		P	sg p
kätte	kätte	0		K	
     	käsi	tte		S	adt
saada	saa	da		V	da
     	saat	0		V	o
     	saa	da		V	ta
.	.			Z	
Mihkel	Mihkel	0		H	sg n
      	mihkel	0		A	sg n
      	mihkel	0		S	sg n
Mülleri	Müller	0		H	sg g
vastas	vasta	s		V	s
      	vastas	0		D	
      	vastas	0		K	
:	:			Z	
ad	####				
1	1	0		N	?
,	,			Z	
lupja	lupja	0		V	o
     	lubi	0		S	adt
     	lubi	0		S	sg p
saanud	saa	nud		V	nud
      	saa=nud	0		A	
      	saa=nud	0		A	sg n
      	saa=nud	d		A	pl n
      	saanu	d		S	pl n
19	19	0		N	?
vakka	vakk	0		S	adt
     	vakk	0		S	sg p
     	vakka	0		D	
seda	see	da		P	sg p
olla	ole	a		V	da
tema	tema	0		P	sg g
    	tema	0		P	sg n
äramaksnud	ära_maks=nu	d		S	pl n
          	ära_maks=nud	0		A	
          	ära_maks=nud	0		A	sg n
          	ära_maks=nud	d		A	pl n
10	10	0		N	?
rubla	rubla	0		S	sg g
     	rubla	0		S	sg n
     	rubla	0		S	sg p
rahaga	raha	ga		S	sg kom
,	,			Z	
Kustav	kus=tav	0		A	sg n
      	kuse	tav		V	tav
Mihkelsonile	mihkel_soni	le		S	sg all
.	.			Z	
ad	####				
2	2	0		N	?
,	,			Z	
lupja	lupja	0		V	o
     	lubi	0		S	adt
     	lubi	0		S	sg p
kivest	####				
ei	ei	0		D	
  	ei	0		V	neg
teada	tead	a		V	da
midagi	miski	dagi		P	sg p
.	.			Z	
ad	####				
3	3	0		N	?
,	,			Z	
posti	post	0		S	adt
     	post	0		S	sg g
     	post	0		S	sg p
tee	tee	0		S	sg g
   	tege	0		V	o
   	tee	0		S	sg n
tegemise	tegemine	0		S	sg g
käsku	käsk	0		S	adt
     	käsk	0		S	sg p
ei	ei	0		D	
  	ei	0		V	neg
olla	ole	a		V	da
mitte	mitte	0		D	
saanud	saa	nud		V	nud
      	saa=nud	0		A	
      	saa=nud	0		A	sg n
      	saa=nud	d		A	pl n
      	saanu	d		S	pl n
.	.			Z	
Mari	Mari	0		H	sg g
    	mari	0		S	sg g
    	mari	0		S	sg n
    	Mari	0		H	sg n
    	mari	0		S	sg p
Mihkelson	####				
andis	and	is		V	s
tunnistajateks	tunnistaja	teks		S	pl tr
et	et	0		J	
tee	tee	0		S	sg g
   	tege	0		V	o
   	tee	0		S	sg n
tegemise	tegemine	0		S	sg g
käsk	käsk	0		S	sg n
saanud	saa	nud		V	nud
      	saa=nud	0		A	
      	saa=nud	0		A	sg n
      	saa=nud	d		A	pl n
      	saanu	d		S	pl n
Mihkel	Mihkel	0		H	sg n
      	mihkel	0		A	sg n
      	mihkel	0		S	sg n
Mülleri	Müller	0		H	sg g
poja	poeg	0		S	sg g
    	poja	0		S	sg g
    	poja	0		S	sg n
    	poja	0		S	sg p
Karl	Karl	0		H	sg n
Müllerile	Müller	le		H	sg all
,	,			Z	
Jaan	Jaan	0		H	sg n
    	jaan	0		S	sg n
    	jaan	0		Y	?
Tiit	Tiit	0		H	sg n
ja	ja	0		J	
Johann	Johann	0		H	sg n
püss	püss	0		S	sg n
.	.			Z	
otsus	otsus	0		S	sg n
:	:			Z	
Ette	ette	0		D	
    	ette	0		K	
    	esi	tte		S	adt
kutsuda	kutsu	da		V	da
Karl	Karl	0		H	sg n
Müller	Müller	0		H	sg n
,	,			Z	
Jaan	Jaan	0		H	sg n
    	jaan	0		S	sg n
    	jaan	0		Y	?
Tiit	Tiit	0		H	sg n
,	,			Z	
Johann	Johann	0		H	sg n
püss	püss	0		S	sg n
.	.			Z	
