1898	1898	0		N	?
a.	a	0		Y	?
Januari	####				
kuu	kuu	0		S	sg g
   	kuu	0		S	sg n
15	15	0		N	?
p	p	0		Y	?
.	.			Z	
sai	saa	i		V	s
   	sai	0		S	sg n
Ahja	Ahja	0		H	sg g
    	Ahja	0		H	sg n
vallakohtu	valla_kohus	0		S	sg g
poolt	pool	t		N	sg p
     	pool	t		S	sg p
     	poolt	0		D	
     	poolt	0		K	
kinnitatud	kinnita	tud		V	tud
          	kinnita=tu	d		S	pl n
          	kinnita=tud	0		A	
          	kinnita=tud	0		A	sg n
          	kinnita=tud	d		A	pl n
kirjalik	kirjalik	0		A	sg n
mõisamaa	mõisa_maa	0		S	sg g
        	mõisa_maa	0		S	sg n
sulase	sulane	0		S	sg g
kontraht	kontraht	0		S	sg n
kolmes	kolm	s		N	sg in
eksemplaris	eksemplar	s		S	sg in
,	,			Z	
mis	mis	0		P	pl n
   	mis	0		P	sg n
8.	8.	0		O	?
Januaril	####				
s	s	0		Y	?
.	.			Z	
a.	a	0		Y	?
Ahjamõisa	####				
omaniku	omanik	0		S	sg g
A	A	0		Y	?
von	####				
Braschi	####				
ja	ja	0		J	
talup	####				
.	.			Z	
Hendrik	Hendrik	0		H	sg n
Must	must	0		A	sg n
    	must	0		S	sg n
    	mina	st		P	sg el
vahel	vahe	l		S	sg ad
     	vahel	0		D	
     	vahel	0		K	
on	ole	0		V	b
  	ole	0		V	vad
kokku	kokku	0		D	
     	kogu	0		S	adt
lepitud	leppi	tud		V	tud
       	lepi=tu	d		S	pl n
       	lepi=tud	0		A	
       	lepi=tud	0		A	sg n
       	lepi=tud	d		A	pl n
ja	ja	0		J	
lammik	####				
järel	järel	0		D	
     	järel	0		K	
esimene	esimene	0		O	sg n
       	esimene	0		P	sg n
viimasele	viimane	le		A	sg all
pruukida	pruuki	da		V	da
annab	and	b		V	b
Aramäe	ara_mägi	0		S	sg g
No	no	0		I	
XXXVIII	XXXVIII	0		O	?
       	XXXVIII	0		Y	?
mõisamaasulase	mõisa_maa_sulane	0		S	sg g
koha	koht	0		S	sg g
    	koha	0		S	sg g
    	koha	0		V	o
    	koha	0		S	sg n
    	koha	0		S	sg p
Jüripäevast	jüri_päev	st		S	sg el
1898	1898	0		N	?
a.	a	0		Y	?
Jüripäevani	jüri_päev	ni		S	sg ter
1899	1899	0		N	?
a.	a	0		Y	?
-	-			Z	
osalt	osa	lt		S	sg abl
     	osalt	0		D	
orjuse	orjus	0		S	sg g
eest	eest	0		D	
    	eest	0		K	
    	esi	st		S	sg el
ja	ja	0		J	
osalt	osa	lt		S	sg abl
     	osalt	0		D	
maksab	maks	b		V	b
Must	must	0		A	sg n
    	must	0		S	sg n
    	mina	st		P	sg el
raha	raha	0		S	sg g
    	raha	0		S	sg n
    	raha	0		S	sg p
s.o.	s.o	0		Y	?
nimelt	nimelt	0		D	
      	nimi	lt		S	sg abl
52	52	0		N	?
rubl	####				
.	.			Z	
aastas	aasta	s		S	sg in
.	.			Z	
Eesistuja	ees_istuja	0		S	sg g
         	ees_istuja	0		S	sg n
:	:			Z	
J	J	0		Y	?
Vilipson	####				
allkiri	all_kiri	0		S	sg n
kirjutaja	kirjutaja	0		S	sg g
         	kirjutaja	0		S	sg n
:	:			Z	
Puusepp	puu_sepp	0		S	sg n
allkiri	all_kiri	0		S	sg n
