sel	see	l		P	sg ad
   	sel	0		Y	?
.	.			Z	
9.	9.	0		O	?
Septembril	september	l		S	sg ad
187.7	187.7	0		N	?
koos	koos	0		D	
    	koos	0		K	
    	koos	0		S	sg n
    	kubu	s		S	sg in
olid	ole	id		V	sid
peakohtumees	pea_kohtu_mees	0		S	sg n
Josep	####				
Laurison	####				
teine	teine	0		O	sg n
     	teine	0		P	sg n
kohtomees	####				
Aandres	####				
Kiik	kiik	0		S	sg n
kolmas	kolmas	0		O	sg n
kohtomees	####				
Jüri	Jüri	0		H	sg g
    	Jüri	0		H	sg n
Tomi	Tom	0		H	adt
    	Tom	0		H	sg g
    	Tom	0		H	sg p
kogukonnakohhus	####				
moistab	####				
et	et	0		J	
Aandres	####				
Pihkva	Pihkva	0		H	sg g
      	Pihkva	0		H	sg n
      	pihkva	0		G	
peab	pida	b		V	b
Aandres	####				
Lepikule	lepik	le		S	sg all
ühe	üks	0		N	sg g
   	üks	0		P	sg g
   	ühe	0		S	sg n
nisu	nisu	0		S	sg g
    	nisu	0		S	sg n
    	nisu	0		S	sg p
pilla	pilla	0		V	o
eest	eest	0		D	
    	eest	0		K	
    	esi	st		S	sg el
2	2	0		N	?
rubla	rubla	0		S	sg g
     	rubla	0		S	sg n
     	rubla	0		S	sg p
maksma	maks	ma		V	ma
,	,			Z	
ning	ning	0		J	
elaja	elajas	0		S	sg g
pantimise	panti=mine	0		S	sg g
eest	eest	0		D	
    	eest	0		K	
    	esi	st		S	sg el
1	1	0		N	?
rubla	rubla	0		S	sg g
     	rubla	0		S	sg n
     	rubla	0		S	sg p
,	,			Z	
ülepea	üle_pea	0		D	
3	3	0		N	?
rubla	rubla	0		S	sg g
     	rubla	0		S	sg n
     	rubla	0		S	sg p
.	.			Z	
Josep	####				
Laurison	####				
XXX	XXX	0		O	?
   	XXX	0		Y	?
Aandres	####				
Kiik	kiik	0		S	sg n
XXX	XXX	0		O	?
   	XXX	0		Y	?
Jüri	Jüri	0		H	sg g
    	Jüri	0		H	sg n
Tomi	Tom	0		H	adt
    	Tom	0		H	sg g
    	Tom	0		H	sg p
.	.			Z	
XXX	XXX	0		O	?
   	XXX	0		Y	?
