Johan	Johan	0		H	sg n
Luheaar	####				
Suure	suur	0		A	sg g
Ulidlast	####				
annud	####				
kirjaliku	kirjalik	0		A	sg g
kaebuse	kaebus	0		S	sg g
selle	see	0		P	sg g
     	sell	e		S	pl p
kogu	kogu	0		A	
    	kogu	0		S	sg g
    	kogu	0		V	o
    	kogu	0		S	sg n
    	kogu	0		S	sg p
kuna	kuna	0		D	
    	kuna	0		J	
kohtule	kohus	le		S	sg all
sisse	siss	e		S	pl p
     	sisse	0		D	
     	sisse	0		K	
ning	ning	0		J	
palus	palu	s		S	sg in
     	palu	s		V	s
seda	see	da		P	sg p
protokolli	protokoll	0		S	adt
          	protokoll	0		S	sg g
          	protokolli	0		V	o
          	protokoll	0		S	sg p
kirjutada	kirjuta	da		V	da
,	,			Z	
kui	kui	0		D	
   	kui	0		J	
järgis	järgi	s		V	s
seisab	seis	b		V	b
:	:			Z	
Auustatud	####				
Aru	aru	0		S	sg g
   	aru	0		S	sg n
   	aru	0		S	sg p
kogu	kogu	0		A	
    	kogu	0		S	sg g
    	kogu	0		V	o
    	kogu	0		S	sg n
    	kogu	0		S	sg p
kuna	kuna	0		D	
    	kuna	0		J	
kohtule	kohus	le		S	sg all
1889	1889	0		N	?
aastal	aasta	l		S	sg ad
25	25	0		N	?
Detsembril	detsember	l		S	sg ad
(	(			Z	
Jõulu	####				
esimisel	####				
pühal	püha	l		A	sg ad
     	püha	l		S	sg ad
)	)			Z	
õhtal	####				
läksin	mine	sin		V	sin
mina	mina	0		P	sg n
    	mina	0		S	sg g
    	mina	0		S	sg n
    	mina	0		S	sg p
Karijärve	kari_järv	0		S	adt
         	kari_järv	0		S	sg g
         	kari_järv	0		S	sg p
koolimaja	kooli_maja	0		S	sg g
         	kooli_maja	0		S	sg n
         	kooli_maja	0		S	sg p
juurde	juur	de		S	adt
      	juurde	0		D	
      	juurde	0		K	
,	,			Z	
peale	pea	le		S	sg all
     	peale	0		D	
     	peale	0		K	
Jumala	jumal	0		S	sg g
teenistuse	teenistus	0		S	sg g
lõpmist	lõpmine	t		S	sg p
,	,			Z	
kutsus	kutsu	s		V	s
      	kutsu	s		S	sg in
mind	mina	d		P	sg p
Kaarli	Kaarel	0		H	sg g
      	Kaarli	0		H	sg g
      	Kaarli	0		H	sg n
Johanson	Johanson	0		H	sg n
kõrtsi	kõrts	0		S	adt
      	kõrts	0		S	sg g
      	kõrts	0		S	sg p
,	,			Z	
eesmaalt	ees_maa	lt		S	sg abl
panin	pane	in		V	sin
mina	mina	0		P	sg n
    	mina	0		S	sg g
    	mina	0		S	sg n
    	mina	0		S	sg p
tema	tema	0		P	sg g
    	tema	0		P	sg n
kutsumisele	kutsumine	le		S	sg all
vastu	vastu	0		D	
     	vastu	0		K	
,	,			Z	
aga	aga	0		J	
kui	kui	0		D	
   	kui	0		J	
ta	tema	0		P	sg g
  	tema	0		P	sg n
oma	oma	0		A	sg g
   	oma	0		D	
   	oma	0		P	sg g
   	oma	0		S	sg g
   	oma	0		V	o
   	oma	0		A	sg n
   	oma	0		A	sg p
   	oma	0		P	sg n
   	oma	0		P	sg p
   	oma	0		S	sg n
   	oma	0		S	sg p
kõne	kõne	0		S	sg g
    	kõne	0		S	sg n
ja	ja	0		J	
kutsumisega	kutsumine	ga		S	sg kom
väga	väga	0		D	
peale	pea	le		S	sg all
     	peale	0		D	
     	peale	0		K	
käis	käi	s		V	s
    	käis	0		S	sg n
läksin	mine	sin		V	sin
mina	mina	0		P	sg n
    	mina	0		S	sg g
    	mina	0		S	sg n
    	mina	0		S	sg p
ilma	ilm	0		S	adt
    	ilm	0		S	sg g
    	ilma	0		D	
    	ilma	0		K	
    	ilm	0		S	sg p
mingisugu	mingi_sugu	0		S	sg n
         	mingi_sugu	0		S	sg p
sala	sala	0		D	
    	sala	0		S	sg g
    	sala	0		S	sg n
    	sala	0		S	sg p
nõu	nõu	0		S	sg g
   	nõu	0		S	sg n
   	nõu	0		S	sg p
ehk	ehk	0		D	
   	ehk	0		J	
kaeluse	kaelus	0		S	sg g
märkumata	####				
temaga	tema	ga		P	sg kom
kõrtsi	kõrts	0		S	adt
      	kõrts	0		S	sg g
      	kõrts	0		S	sg p
.	.			Z	
ühes	üks	s		N	sg in
    	üks	s		P	sg in
    	ühes	0		D	
    	ühes	0		K	
meiega	mina	ga		P	pl kom
tulivad	####				
veel	veel	0		D	
    	vesi	l		S	sg ad
Peeter	Peeter	0		H	sg n
Johanson	Johanson	0		H	sg n
ja	ja	0		J	
Villem	Villem	0		H	sg n
Muhk	muhk	0		S	sg n
.	.			Z	
Villem	Villem	0		H	sg n
Muhuga	Muhu	ga		H	sg kom
      	muhk	ga		S	sg kom
küsisime	küsi	sime		V	sime
meie	mina	0		P	pl g
    	mina	0		P	pl n
kõrtsimese	####				
käest	käest	0		K	
     	käsi	st		S	sg el
endile	ise	le		P	pl all
tua	####				
ja	ja	0		J	
korv	korv	0		S	sg n
õlut	õlu	t		S	sg p
seltsi	selts	0		S	adt
      	selts	0		S	sg g
      	seltsi	0		D	
      	seltsi	0		K	
      	seltsi	0		V	o
      	selts	0		S	sg p
peale	pea	le		S	sg all
     	peale	0		D	
     	peale	0		K	
,	,			Z	
meie	mina	0		P	pl g
    	mina	0		P	pl n
seltsi	selts	0		S	adt
      	selts	0		S	sg g
      	seltsi	0		D	
      	seltsi	0		K	
      	seltsi	0		V	o
      	selts	0		S	sg p
tulid	tule	id		V	sid
veel	veel	0		D	
    	vesi	l		S	sg ad
Märt	Märt	0		H	sg n
Dobru	####				
ja	ja	0		J	
Johan	Johan	0		H	sg n
Maalmann	maal_mann	0		S	sg n
.	.			Z	
viimaks	vii	maks		V	maks
       	viimaks	0		D	
laskis	lask	is		V	s
veel	veel	0		D	
    	vesi	l		S	sg ad
Kaarli	Kaarel	0		H	sg g
      	Kaarli	0		H	sg g
      	Kaarli	0		H	sg n
JohansonJohan	####				
MaalmannilJohan	####				
Untereinult	####				
sinna	sinna	0		D	
kutsuda	kutsu	da		V	da
ja	ja	0		J	
ostis	ost	is		V	s
     	ost	s		S	sg in
pool	pool	0		K	
    	pool	0		N	sg n
    	pool	0		S	sg n
toopi	toop	0		S	adt
     	toop	0		S	sg p
viina	viin	0		S	adt
     	viin	0		S	sg g
     	viin	0		S	sg p
.	.			Z	
viinast	viin	st		S	sg el
       	viinane	t		A	sg p
ei	ei	0		D	
  	ei	0		V	neg
saanud	saa	nud		V	nud
      	saa=nud	0		A	
      	saa=nud	0		A	sg n
      	saa=nud	d		A	pl n
      	saanu	d		S	pl n
meie	mina	0		P	pl g
    	mina	0		P	pl n
poolt	pool	t		N	sg p
     	pool	t		S	sg p
     	poolt	0		D	
     	poolt	0		K	
ära	ära	0		D	
   	ära	0		V	neg o
pruukida	pruuki	da		V	da
õllest	õllene	t		A	sg p
      	õlu	st		S	sg el
aga	aga	0		J	
15	15	0		N	?
pudelit	pudel	t		S	sg p
kui	kui	0		D	
   	kui	0		J	
ukse	uks	0		S	sg g
pihta	piht	0		S	adt
     	pihta	0		D	
     	pihta	0		K	
     	pihta	0		V	o
     	piht	0		S	sg p
hakkati	####				
peksma	peks	ma		V	ma
.	.			Z	
Eesmaalt	ees_maa	lt		S	sg abl
läks	mine	s		V	s
Kaarli	Kaarel	0		H	sg g
      	Kaarli	0		H	sg g
      	Kaarli	0		H	sg n
Johanson	Johanson	0		H	sg n
vaatama	vaata	ma		V	ma
kes	kes	0		P	pl n
   	kes	0		P	sg n
ust	uks	t		S	sg p
   	ust	0		I	
lõhub	lõhku	b		V	b
ütles	ütle	s		V	s
et	et	0		J	
Johan	Johan	0		H	sg n
kaup	kaup	0		S	sg n
olnud	ol=nud	0		A	
     	ol=nud	0		A	sg n
     	ol=nud	d		A	pl n
     	ole	nud		V	nud
     	olnu	d		S	pl n
;	;			Z	
sai	saa	i		V	s
   	sai	0		S	sg n
aga	aga	0		J	
Kaarli	Kaarel	0		H	sg g
      	Kaarli	0		H	sg g
      	Kaarli	0		H	sg n
Johanson	Johanson	0		H	sg n
ukse	uks	0		S	sg g
kinni	kinni	0		D	
panna	pand	0		S	sg g
     	pane	a		V	da
     	panna	0		S	sg g
     	panna	0		S	sg n
hakkati	####				
uueste	####				
ja	ja	0		J	
kõvemine	####				
ust	uks	t		S	sg p
   	ust	0		I	
lõhkuma	lõhku	ma		V	ma
.	.			Z	
Johan	Johan	0		H	sg n
Uintreinult	####				
ütles	ütle	s		V	s
et	et	0		J	
täna	täna	0		D	
    	täna	0		V	o
õhta	####				
tulla	tule	a		V	da
tuli	tuli	0		S	sg n
    	tule	i		V	s
,	,			Z	
mis	mis	0		P	pl n
   	mis	0		P	sg n
kaa	####				
nendes	see	des		P	pl in
      	tema	des		P	pl in
juttudes	jutt	des		S	pl in
kuulnud	kuul	nud		V	nud
       	kuul=nud	0		A	
       	kuul=nud	0		A	sg n
       	kuul=nud	d		A	pl n
       	kuulnu	d		S	pl n
.	.			Z	
seda	see	da		P	sg p
kuuldes	kuul	des		V	des
       	kuule	s		S	sg in
üles	üles	0		D	
tõusin	tõus	in		V	sin
et	et	0		J	
oma	oma	0		A	sg g
   	oma	0		D	
   	oma	0		P	sg g
   	oma	0		S	sg g
   	oma	0		V	o
   	oma	0		A	sg n
   	oma	0		A	sg p
   	oma	0		P	sg n
   	oma	0		P	sg p
   	oma	0		S	sg n
   	oma	0		S	sg p
palitu	palitu	0		S	sg g
      	palitu	0		S	sg n
naela	nael	0		S	adt
     	nael	0		S	sg g
     	nael	0		S	sg p
otsast	ots	st		S	sg el
      	otsast	0		K	
võtta	võt	a		V	da
ja	ja	0		J	
ära	ära	0		D	
   	ära	0		V	neg o
nina	nina	0		S	sg g
    	nina	0		S	sg n
    	nina	0		S	sg p
,	,			Z	
kus	kus	0		D	
ukse	uks	0		S	sg g
lõhkumise	lõhkumine	0		S	sg g
peale	pea	le		S	sg all
     	peale	0		D	
     	peale	0		K	
üks	üks	0		N	sg n
   	üks	0		P	sg n
(	(			Z	
lahti	laht	i		S	pl p
     	lahti	0		D	
)	)			Z	
haagist	haak	st		S	sg el
       	haagis	t		S	sg p
lahti	laht	i		S	pl p
     	lahti	0		D	
murtude	####				
;	;			Z	
kõige	kõik	0		P	sg g
     	kõige	0		D	
ees	ees	0		D	
   	ees	0		K	
   	esi	s		S	sg in
sisse	siss	e		S	pl p
     	sisse	0		D	
     	sisse	0		K	
astud	astu	d		V	d
Johan	Johan	0		H	sg n
Uint	####				
,	,			Z	
need	see	d		P	pl n
sõnad	sõna	d		S	pl n
     	sõna	d		V	d
ütles	ütle	s		V	s
:	:			Z	
kas	kas	0		D	
teil	sina	l		P	pl ad
    	tee	il		S	pl ad
kuradidel	####				
üksinda	üksinda	0		D	
raha	raha	0		S	sg g
    	raha	0		S	sg n
    	raha	0		S	sg p
on	ole	0		V	b
  	ole	0		V	vad
,	,			Z	
et	et	0		J	
siin	siin	0		D	
    	siin	0		S	sg n
juua	joo	a		V	da
võite	või	te		V	te
     	võit	e		S	pl p
,	,			Z	
ja	ja	0		J	
mulle	mull	e		S	pl p
     	mina	lle		P	sg all
     	mulle	0		S	sg n
ligides	####				
.	.			Z	
Mina	mina	0		P	sg n
    	mina	0		S	sg g
    	mina	0		S	sg n
    	mina	0		S	sg p
ei	ei	0		D	
  	ei	0		V	neg
vastanud	vasta	nud		V	nud
        	vasta=nud	0		A	
        	vasta=nud	0		A	sg n
        	vasta=nud	d		A	pl n
        	vastanu	d		S	pl n
selle	see	0		P	sg g
     	sell	e		S	pl p
peale	pea	le		S	sg all
     	peale	0		D	
     	peale	0		K	
midagi	miski	dagi		P	sg p
vaid	vaid	0		D	
    	vaid	0		J	
taganeesin	####				
nurga	nurk	0		S	sg g
,	,			Z	
sest	see	st		P	sg el
    	sest	0		J	
välja	välja	0		D	
     	välja	0		V	o
     	väli	0		S	adt
     	väli	0		S	sg g
     	väli	0		S	sg p
pagenemine	####				
oli	ole	i		V	s
võimata	või	mata		V	mata
       	või=mata	0		A	
.	.			Z	
tõised	####				
minuga	mina	ga		P	sg kom
oliad	####				
läksivad	####				
ilma	ilm	0		S	adt
    	ilm	0		S	sg g
    	ilma	0		D	
    	ilma	0		K	
    	ilm	0		S	sg p
et	et	0		J	
neid	neid	0		S	sg n
    	see	d		P	pl p
    	tema	d		P	pl p
keegi	kee	0	gi	S	sg g
     	kee	0	gi	V	o
     	keegi	0		P	sg n
     	kee	0	gi	S	sg n
oleks	ole	ks		V	ks
puutnud	####				
ehk	ehk	0		D	
   	ehk	0		J	
peale	pea	le		S	sg all
     	peale	0		D	
     	peale	0		K	
tungijad	tungi=ja	d		S	pl n
oleks	ole	ks		V	ks
keelanud	keela	nud		V	nud
        	keela=nu	d		S	pl n
        	keela=nud	0		A	
        	keela=nud	0		A	sg n
        	keela=nud	d		A	pl n
välja	välja	0		D	
     	välja	0		V	o
     	väli	0		S	adt
     	väli	0		S	sg g
     	väli	0		S	sg p
.	.			Z	
selle	see	0		P	sg g
     	sell	e		S	pl p
armita	arm	ta		S	sg ab
teo	tegu	0		S	sg g
   	tigu	0		S	sg g
pärast	pära	st		S	sg el
      	pärane	t		A	sg p
      	pärast	0		D	
      	pärast	0		K	
palus	palu	s		S	sg in
     	palu	s		V	s
neid	neid	0		S	sg n
    	see	d		P	pl p
    	tema	d		P	pl p
Liivi	Liivi	0		H	sg g
     	Liivi	0		H	sg n
talu	talu	0		S	sg g
    	talu	0		V	o
    	talu	0		S	sg n
    	talu	0		S	sg p
rahva	rahvas	0		S	sg g
seaduse	seadus	0		S	sg g
§	§	0		Y	?
1052	1052	0		N	?
järgi	järg	i		S	pl p
     	järgi	0		D	
     	järgi	0		K	
     	järgi	0		V	o
kohtu	kohtu	0		V	o
     	kohus	0		S	sg g
alla	alla	0		D	
    	alla	0		K	
(	(			Z	
tõmmata	tõmba	ta		V	da
       	tõmba	ta		V	ta
)	)			Z	
võtta	võt	a		V	da
.	.			Z	
teised	teine	d		O	pl n
      	teine	d		P	pl n
kes	kes	0		P	pl n
   	kes	0		P	sg n
Johan	Johan	0		H	sg n
Undiga	Unt	ga		H	sg kom
sisse	siss	e		S	pl p
     	sisse	0		D	
     	sisse	0		K	
tulid	tule	id		V	sid
,	,			Z	
olevad	olev	d		A	pl n
      	olev	d		S	pl n
Peeter	Peeter	0		H	sg n
soo	soo	0		I	
   	soo	0		S	sg g
   	sugu	0		S	sg g
   	soo	0		S	sg n
,	,			Z	
Jaan	Jaan	0		H	sg n
    	jaan	0		S	sg n
    	jaan	0		Y	?
Krõõtmann	krõõt_mann	0		S	sg n
,	,			Z	
Jaan	Jaan	0		H	sg n
    	jaan	0		S	sg n
    	jaan	0		Y	?
Jakobsonistastel	####				
,	,			Z	
Mihkel	Mihkel	0		H	sg n
      	mihkel	0		A	sg n
      	mihkel	0		S	sg n
TootsmannJohan	####				
kaupJohan	####				
Andresson	####				
,	,			Z	
Mihkel	Mihkel	0		H	sg n
      	mihkel	0		A	sg n
      	mihkel	0		S	sg n
prügi	prügi	0		S	sg g
     	prügi	0		S	sg n
     	prügi	0		S	sg p
ja	ja	0		J	
Jaan	Jaan	0		H	sg n
    	jaan	0		S	sg n
    	jaan	0		Y	?
Jakobsonkõglilt	####				
.	.			Z	
neid	neid	0		S	sg n
    	see	d		P	pl p
    	tema	d		P	pl p
inimesi	inimene	i		S	pl p
ei	ei	0		D	
  	ei	0		V	neg
teadnud	tead	nud		V	nud
       	tead=nu	d		S	pl n
       	tead=nud	0		A	
       	tead=nud	0		A	sg n
       	tead=nud	d		A	pl n
ma	mina	0		P	sg n
kõiki	kõik	0		P	pl p
aga	aga	0		J	
mõned	mõni	d		P	pl n
selle	see	0		P	sg g
     	sell	e		S	pl p
asja	asi	0		S	adt
    	asi	0		S	sg g
    	asi	0		S	sg p
pealt	pea	lt		S	sg abl
     	pealt	0		D	
     	pealt	0		K	
nägijad	nägija	d		S	pl n
on	ole	0		V	b
  	ole	0		V	vad
mulle	mull	e		S	pl p
     	mina	lle		P	sg all
     	mulle	0		S	sg n
neid	neid	0		S	sg n
    	see	d		P	pl p
    	tema	d		P	pl p
üles	üles	0		D	
andnud	and	nud		V	nud
      	and=nu	d		S	pl n
      	and=nud	0		A	
      	and=nud	0		A	sg n
      	and=nud	d		A	pl n
.	.			Z	
nurka	nurk	0		S	adt
     	nurk	0		S	sg p
taganatud	####				
keelasin	keela	sin		V	sin
ma	mina	0		P	sg n
peale	pea	le		S	sg all
     	peale	0		D	
     	peale	0		K	
tungimist	tungimine	t		S	sg p
,	,			Z	
aga	aga	0		J	
sellest	see	st		P	sg el
hoolimata	hooli	mata		V	mata
         	hooli=mata	0		A	
         	hoolimata	0		D	
         	hoolimata	0		K	
vägi	vägi	0		S	sg n
valtselt	####				
Johan	Johan	0		H	sg n
Uint	####				
mulle	mull	e		S	pl p
     	mina	lle		P	sg all
     	mulle	0		S	sg n
peale	pea	le		S	sg all
     	peale	0		D	
     	peale	0		K	
tungid	tung	d		S	pl n
      	tungi	d		V	d
teistega	teine	tega		O	pl kom
        	teine	tega		P	pl kom
,	,			Z	
löömist	löömine	t		S	sg p
kinni	kinni	0		D	
võttis	võt	is		V	s
ja	ja	0		J	
rusikaga	rusikas	ga		S	sg kom
pähä	####				
peksma	peks	ma		V	ma
hakkas	hakka	s		V	s
.	.			Z	
Mihkel	Mihkel	0		H	sg n
      	mihkel	0		A	sg n
      	mihkel	0		S	sg n
prügi	prügi	0		S	sg g
     	prügi	0		S	sg n
     	prügi	0		S	sg p
hõigas	####				
:	:			Z	
löögi	löö	0	gi	V	o
     	löök	0		S	sg g
tuli	tuli	0		S	sg n
    	tule	i		V	s
maha	maha	0		D	
mille	mis	0		P	pl g
     	mis	0		P	sg g
peale	pea	le		S	sg all
     	peale	0		D	
     	peale	0		K	
ka	ka	0		D	
Jaan	Jaan	0		H	sg n
    	jaan	0		S	sg n
    	jaan	0		Y	?
Krõõtmann	krõõt_mann	0		S	sg n
tule	tuli	0		S	sg g
    	tule	0		V	o
pudeliga	pudel	ga		S	sg kom
maha	maha	0		D	
lõi	loo	i		V	s
   	löö	i		V	s
,	,			Z	
võttis	võt	is		V	s
mull	mull	0		S	sg n
juuksteks	####				
kinni	kinni	0		D	
ja	ja	0		J	
tõmbas	tõmba	s		V	s
nurgast	nurk	st		S	sg el
välja	välja	0		D	
     	välja	0		V	o
     	väli	0		S	adt
     	väli	0		S	sg g
     	väli	0		S	sg p
;	;			Z	
nüüd	nüüd	0		D	
ei	ei	0		D	
  	ei	0		V	neg
tea	tead	0		V	o
ma	mina	0		P	sg n
palju	palju	0		D	
     	palju	0		P	sg g
     	palju	0		P	sg n
sain	saa	in		V	sin
rusikaga	rusikas	ga		S	sg kom
pangidega	####				
,	,			Z	
pinkega	####				
ja	ja	0		J	
pudelidega	####				
.	.			Z	
seda	see	da		P	sg p
ma	mina	0		P	sg n
ei	ei	0		D	
  	ei	0		V	neg
tea	tead	0		V	o
kuidas	kuidas	0		D	
see	see	0		P	sg n
ometi	ometi	0		D	
tuli	tuli	0		S	sg n
    	tule	i		V	s
et	et	0		J	
viimaks	vii	maks		V	maks
       	viimaks	0		D	
kõrtsi	kõrts	0		S	adt
      	kõrts	0		S	sg g
      	kõrts	0		S	sg p
mehe	mees	0		S	sg g
magamise	magamine	0		S	sg g
tuast	####				
ennast	ise	t		P	sg p
leidsin	leid	sin		V	sin
.	.			Z	
Siin	siin	0		D	
    	siin	0		S	sg n
aga	aga	0		J	
puudeli	####				
tükkid	####				
maha	maha	0		D	
rapputada	####				
siis	siis	0		D	
    	siis	0		J	
olid	ole	id		V	sid
jälle	jälle	0		D	
järel	järel	0		D	
     	järel	0		K	
Johan	Johan	0		H	sg n
UintJooralt	####				
kõige	kõik	0		P	sg g
     	kõige	0		D	
ees	ees	0		D	
   	ees	0		K	
   	esi	s		S	sg in
Peeter	Peeter	0		H	sg n
Uint	####				
,	,			Z	
Jaan	Jaan	0		H	sg n
    	jaan	0		S	sg n
    	jaan	0		Y	?
ja	ja	0		J	
Kaarli	Kaarel	0		H	sg g
      	Kaarli	0		H	sg g
      	Kaarli	0		H	sg n
Krõõtmann	krõõt_mann	0		S	sg n
ja	ja	0		J	
Mihkel	Mihkel	0		H	sg n
      	mihkel	0		A	sg n
      	mihkel	0		S	sg n
Tootsmann	####				
puud	puu	d		S	pl n
    	puud	0		S	sg n
    	puu	d		S	sg p
aluga	alg	ga		S	sg kom
ja	ja	0		J	
Johan	Johan	0		H	sg n
Andersoon	####				
visas	visa	s		A	sg in
pinkega	####				
mind	mina	d		P	sg p
rindu	rind	u		S	pl p
     	rindu	0		D	
.	.			Z	
Mihkel	Mihkel	0		H	sg n
      	mihkel	0		A	sg n
      	mihkel	0		S	sg n
Tootsmann	####				
ütelnud	ütle	nud		V	nud
       	ütel=nu	d		S	pl n
       	ütel=nud	0		A	
       	ütel=nud	0		A	sg n
       	ütel=nud	d		A	pl n
isi	####				
ees	ees	0		D	
   	ees	0		K	
   	esi	s		S	sg in
kõrtsis	kõrts	s		S	sg in
,	,			Z	
et	et	0		J	
ta	tema	0		P	sg g
  	tema	0		P	sg n
seitse	seitse	0		N	sg n
korda	kord	0		S	adt
     	korda	0		V	o
     	kord	0		S	sg p
puudaluga	puuda_luga	0		S	sg n
         	puuda_luga	0		S	sg p
olla	ole	a		V	da
pähe	pea	0		S	adt
    	pähe	0		K	
löönud	löö	nud		V	nud
      	löö=nu	d		S	pl n
      	löö=nud	0		A	
      	löö=nud	0		A	sg n
      	löö=nud	d		A	pl n
,	,			Z	
mida	mis	da		P	pl p
    	mis	da		P	sg p
kõrtsimees	kõrtsi_mees	0		S	sg n
Jaan	Jaan	0		H	sg n
    	jaan	0		S	sg n
    	jaan	0		Y	?
ja	ja	0		J	
naene	####				
Mari	Mari	0		H	sg g
    	mari	0		S	sg g
    	mari	0		S	sg n
    	Mari	0		H	sg n
    	mari	0		S	sg p
LaurissonKarl	####				
Ruber	####				
ja	ja	0		J	
Karl	Karl	0		H	sg n
Jõnson	####				
kes	kes	0		P	pl n
   	kes	0		P	sg n
tal	tema	l		P	sg ad
puualu	puu_ala	u		S	pl p
käest	käest	0		K	
     	käsi	st		S	sg el
ära	ära	0		D	
   	ära	0		V	neg o
võtnud	võt	nud		V	nud
      	võt=nu	d		S	pl n
      	võt=nud	0		A	
      	võt=nud	0		A	sg n
      	võt=nud	d		A	pl n
kuulnud	kuul	nud		V	nud
       	kuul=nud	0		A	
       	kuul=nud	0		A	sg n
       	kuul=nud	d		A	pl n
       	kuulnu	d		S	pl n
.	.			Z	
kuidas	kuidas	0		D	
ehk	ehk	0		D	
   	ehk	0		J	
kes	kes	0		P	pl n
   	kes	0		P	sg n
,	,			Z	
mind	mina	d		P	sg p
sahvrisse	sahver	sse		S	sg ill
viinud	vii	nud		V	nud
      	vii=nu	d		S	pl n
      	vii=nud	0		A	
      	vii=nud	0		A	sg n
      	vii=nud	d		A	pl n
,	,			Z	
seda	see	da		P	sg p
ma	mina	0		P	sg n
ei	ei	0		D	
  	ei	0		V	neg
tean	tead	n		V	n
,	,			Z	
aga	aga	0		J	
kui	kui	0		D	
   	kui	0		J	
ma	mina	0		P	sg n
vähe	vähe	0		D	
kaebusin	####				
tunden	####				
,	,			Z	
et	et	0		J	
veri	veri	0		S	sg n
mööda	mööda	0		A	
     	mööda	0		D	
     	mööda	0		K	
pead	pea	d		S	pl n
    	pida	d		V	d
    	pea	d		S	sg p
ja	ja	0		J	
nagu	nagu	0		D	
    	nagu	0		J	
olla	ole	a		V	da
jooksnud	jooks	nud		V	nud
        	jooks=nu	d		S	pl n
        	jooks=nud	0		A	
        	jooks=nud	0		A	sg n
        	jooks=nud	d		A	pl n
ja	ja	0		J	
pea	pea	0		D	
   	pea	0		S	sg g
   	pida	0		V	o
   	pea	0		S	sg n
kangesti	kangesti	0		D	
valutas	valuta	s		V	s
.	.			Z	
kintsu	kints	0		S	adt
      	kints	0		S	sg g
      	kints	0		S	sg p
oli	ole	i		V	s
üks	üks	0		N	sg n
   	üks	0		P	sg n
nuaga	####				
heavanud	####				
ja	ja	0		J	
kaks	kaks	0		N	sg n
sõrme	sõrm	0		S	adt
     	sõrm	0		S	sg g
     	sõrm	0		S	sg p
olid	ole	id		V	sid
vigastud	vigastu	d		V	d
.	.			Z	
teistes	teine	tes		O	pl in
       	teine	tes		P	pl in
selle	see	0		P	sg g
     	sell	e		S	pl p
asja	asi	0		S	adt
    	asi	0		S	sg g
    	asi	0		S	sg p
peale	pea	le		S	sg all
     	peale	0		D	
     	peale	0		K	
nägasteks	####				
annan	and	n		V	n
mina	mina	0		P	sg n
    	mina	0		S	sg g
    	mina	0		S	sg n
    	mina	0		S	sg p
:	:			Z	
kõrtsimese	####				
ja	ja	0		J	
naese	####				
kõrtsi	kõrts	0		S	adt
      	kõrts	0		S	sg g
      	kõrts	0		S	sg p
tüdruku	tüdruk	0		S	sg g
Kaarli	Kaarel	0		H	sg g
      	Kaarli	0		H	sg g
      	Kaarli	0		H	sg n
Ruuper	####				
,	,			Z	
Kaarli	Kaarel	0		H	sg g
      	Kaarli	0		H	sg g
      	Kaarli	0		H	sg n
Jõnsoni	####				
,	,			Z	
Johan	Johan	0		H	sg n
Undireinult	####				
,	,			Z	
Peeter	Peeter	0		H	sg n
Johansoni	Johanson	0		H	adt
         	Johanson	0		H	sg g
         	Johanson	0		H	sg p
,	,			Z	
Märt	Märt	0		H	sg n
Dobru	####				
ja	ja	0		J	
villem	####				
Muhu	Muhu	0		H	sg g
    	muhk	0		S	sg g
    	Muhu	0		H	sg n
kes	kes	0		P	pl n
   	kes	0		P	sg n
kord	kord	0		D	
    	kord	0		S	sg n
Johan	Johan	0		H	sg n
Andersoni	####				
käest	käest	0		K	
     	käsi	st		S	sg el
pingi	pink	0		S	sg g
ära	ära	0		D	
   	ära	0		V	neg o
võtnud	võt	nud		V	nud
      	võt=nu	d		S	pl n
      	võt=nud	0		A	
      	võt=nud	0		A	sg n
      	võt=nud	d		A	pl n
kui	kui	0		D	
   	kui	0		J	
see	see	0		P	sg n
mulle	mull	e		S	pl p
     	mina	lle		P	sg all
     	mulle	0		S	sg n
lööma	löö	ma		V	ma
     	lööm	0		S	adt
     	lööm	0		S	sg g
     	lööm	0		S	sg p
tulnud	tul=nud	0		A	
      	tul=nud	0		A	sg n
      	tul=nud	d		A	pl n
      	tule	nud		V	nud
      	tulnu	d		S	pl n
.	.			Z	
peksmise	peksmine	0		S	sg g
aja	aeg	0		S	sg g
   	aja	0		V	o
sees	sees	0		D	
    	sees	0		K	
olid	ole	id		V	sid
mõned	mõni	d		P	pl n
peksjadest	####				
meie	mina	0		P	pl g
    	mina	0		P	pl n
korviks	korv	ks		S	sg tr
täis	täi	s		S	sg in
    	täi	s		V	s
    	täis	0		A	
    	täis	0		A	sg n
    	täis	0		D	
    	täis	0		S	sg n
õled	õlg	d		S	pl n
pudelit	pudel	t		S	sg p
ära	ära	0		D	
   	ära	0		V	neg o
viinud	vii	nud		V	nud
      	vii=nu	d		S	pl n
      	vii=nud	0		A	
      	vii=nud	0		A	sg n
      	vii=nud	d		A	pl n
ja	ja	0		J	
tühjad	tühi	d		A	pl n
puruks	puru	ks		S	sg tr
      	puruks	0		D	
peksnud	peks	nud		V	nud
       	peks=nu	d		S	pl n
       	peks=nud	0		A	
       	peks=nud	0		A	sg n
       	peks=nud	d		A	pl n
,	,			Z	
ka	ka	0		D	
viina	viin	0		S	adt
     	viin	0		S	sg g
     	viin	0		S	sg p
puudeli	####				
on	ole	0		V	b
  	ole	0		V	vad
naad	####				
ära	ära	0		D	
   	ära	0		V	neg o
viinud	vii	nud		V	nud
      	vii=nu	d		S	pl n
      	vii=nud	0		A	
      	vii=nud	0		A	sg n
      	vii=nud	d		A	pl n
mis	mis	0		P	pl n
   	mis	0		P	sg n
neid	neid	0		S	sg n
    	see	d		P	pl p
    	tema	d		P	pl p
täitsa	täitsa	0		D	
röövimise	röövimine	0		S	sg g
himuliseks	himuline	ks		A	sg tr
tunnistab	tunnista	b		V	b
.	.			Z	
Peeter	Peeter	0		H	sg n
Johanson	Johanson	0		H	sg n
teab	tead	b		V	b
veel	veel	0		D	
    	vesi	l		S	sg ad
tunnistada	tunnista	da		V	da
et	et	0		J	
üks	üks	0		N	sg n
   	üks	0		P	sg n
täis	täi	s		S	sg in
    	täi	s		V	s
    	täis	0		A	
    	täis	0		A	sg n
    	täis	0		D	
    	täis	0		S	sg n
pudel	pudel	0		S	sg n
olnud	ol=nud	0		A	
     	ol=nud	0		A	sg n
     	ol=nud	d		A	pl n
     	ole	nud		V	nud
     	olnu	d		S	pl n
Jaan	Jaan	0		H	sg n
    	jaan	0		S	sg n
    	jaan	0		Y	?
Krõõtmanni	krõõt_mann	0		S	adt
          	krõõt_mann	0		S	sg g
          	krõõt_mann	0		S	sg p
taskus	tasku	s		S	sg in
.	.			Z	
keldres	####				
oleks	ole	ks		V	ks
jooksis	jooks	is		V	s
mull	mull	0		S	sg n
palju	palju	0		D	
     	palju	0		P	sg g
     	palju	0		P	sg n
verd	veri	0		S	sg p
paast	paa	st		A	sg el
     	paa	st		S	sg el
     	paast	0		S	sg n
nii	nii	0		D	
et	et	0		J	
ma	mina	0		P	sg n
kohalt	koht	lt		S	sg abl
      	koha	lt		S	sg abl
      	kohalt	0		K	
nõrk	nõrk	0		A	sg n
olen	ole	n		V	n
.	.			Z	
vallaametnik	valla_ametnik	0		S	sg n
Kaarli	Kaarel	0		H	sg g
      	Kaarli	0		H	sg g
      	Kaarli	0		H	sg n
pant	pant	0		S	sg n
teab	tead	b		V	b
ütelda	ütle	da		V	da
      	ütle	da		V	ta
,	,			Z	
et	et	0		J	
rohkem	rohkem	0		D	
poolt	pool	t		N	sg p
     	pool	t		S	sg p
     	poolt	0		D	
     	poolt	0		K	
toopi	toop	0		S	adt
     	toop	0		S	sg p
olla	ole	a		V	da
jooksnud	jooks	nud		V	nud
        	jooks=nu	d		S	pl n
        	jooks=nud	0		A	
        	jooks=nud	0		A	sg n
        	jooks=nud	d		A	pl n
.	.			Z	
kui	kui	0		D	
   	kui	0		J	
valla	vald	0		S	sg g
     	valla	0		D	
ametnik	ametnik	0		S	sg n
Karl	Karl	0		H	sg n
pant	pant	0		S	sg n
tuli	tuli	0		S	sg n
    	tule	i		V	s
tahdusivad	####				
mind	mina	d		P	sg p
veel	veel	0		D	
    	vesi	l		S	sg ad
kinni	kinni	0		D	
keita	####				
Kaarli	Kaarel	0		H	sg g
      	Kaarli	0		H	sg g
      	Kaarli	0		H	sg n
Krõõtmann	krõõt_mann	0		S	sg n
ja	ja	0		J	
Peeter	Peeter	0		H	sg n
Uint	####				
tulid	tule	id		V	sid
ühes	üks	s		N	sg in
    	üks	s		P	sg in
    	ühes	0		D	
    	ühes	0		K	
valla	vald	0		S	sg g
     	valla	0		D	
ametnikuga	ametnik	ga		S	sg kom
senna	senna	0		S	sg g
     	senna	0		S	sg n
aga	aga	0		J	
teise	teine	0		O	adt
     	teine	0		O	sg g
     	teine	0		P	adt
     	teine	0		P	sg g
peksjad	peks=ja	d		S	pl n
tõmbasid	tõmba	sid		V	sid
jälle	jälle	0		D	
ukse	uks	0		S	sg g
lahti	laht	i		S	pl p
     	lahti	0		D	
ja	ja	0		J	
tulevad	tule	vad		V	vad
       	tulev	d		A	pl n
sisse	siss	e		S	pl p
     	sisse	0		D	
     	sisse	0		K	
,	,			Z	
nii	nii	0		D	
oleks	ole	ks		V	ks
vist	vist	0		S	sg n
    	vist	0		D	
jälle	jälle	0		D	
uuesti	uuesti	0		D	
peksmine	peksmine	0		S	sg n
alganud	####				
,	,			Z	
kui	kui	0		D	
   	kui	0		J	
mitte	mitte	0		D	
Jaan	Jaan	0		H	sg n
    	jaan	0		S	sg n
    	jaan	0		Y	?
ja	ja	0		J	
Johan	Johan	0		H	sg n
Laan	####				
,	,			Z	
Hendrik	Hendrik	0		H	sg n
,	,			Z	
Hans	Hans	0		H	sg n
,	,			Z	
Märt	Märt	0		H	sg n
ja	ja	0		J	
Peeter	Peeter	0		H	sg n
Mitt	Mitt	0		H	sg n
ja	ja	0		J	
üks	üks	0		N	sg n
   	üks	0		P	sg n
linna	linn	0		S	adt
     	linn	0		S	sg g
     	linn	0		S	sg p
mees	mees	0		S	sg n
    	mesi	s		S	sg in
senna	senna	0		S	sg g
     	senna	0		S	sg n
ei	ei	0		D	
  	ei	0		V	neg
oleks	ole	ks		V	ks
tulnud	tul=nud	0		A	
      	tul=nud	0		A	sg n
      	tul=nud	d		A	pl n
      	tule	nud		V	nud
      	tulnu	d		S	pl n
,	,			Z	
keda	kes	da		P	pl p
    	kes	da		P	sg p
kõrtsimees	kõrtsi_mees	0		S	sg n
omale	oma	le		A	sg all
     	oma	le		P	sg all
     	oma	le		S	sg all
abiks	abi	ks		S	sg tr
oli	ole	i		V	s
lasknud	lask	nud		V	nud
       	lask=nu	d		S	pl n
       	lask=nud	0		A	
       	lask=nud	0		A	sg n
       	lask=nud	d		A	pl n
kutsuda	kutsu	da		V	da
.	.			Z	
Mihkel	Mihkel	0		H	sg n
      	mihkel	0		A	sg n
      	mihkel	0		S	sg n
Tootsmann	####				
olla	ole	a		V	da
kahetsenud	kahetse	nud		V	nud
          	kahetse=nu	d		S	pl n
          	kahetse=nud	0		A	
          	kahetse=nud	0		A	sg n
          	kahetse=nud	d		A	pl n
et	et	0		J	
mina	mina	0		P	sg n
    	mina	0		S	sg g
    	mina	0		S	sg n
    	mina	0		S	sg p
ei	ei	0		D	
  	ei	0		V	neg
olla	ole	a		V	da
saanud	saa	nud		V	nud
      	saa=nud	0		A	
      	saa=nud	0		A	sg n
      	saa=nud	d		A	pl n
      	saanu	d		S	pl n
ära	ära	0		D	
   	ära	0		V	neg o
tapetus	tapetu	s		S	sg in
       	tapetud	s		A	sg in
ja	ja	0		J	
lubanud	luba	nud		V	nud
       	luba=nu	d		S	pl n
       	luba=nud	0		A	
       	luba=nud	0		A	sg n
       	luba=nud	d		A	pl n
kui	kui	0		D	
   	kui	0		J	
vähegi	vähegi	0		D	
kätte	kätte	0		K	
     	käsi	tte		S	adt
saab	saa	b		V	b
ära	ära	0		D	
   	ära	0		V	neg o
tappa	tap	a		V	da
     	tapp	0		S	adt
     	tapp	0		S	sg p
,	,			Z	
seda	see	da		P	sg p
võivad	või	vad		V	vad
      	võiv	d		A	pl n
kõrtsimees	kõrtsi_mees	0		S	sg n
ja	ja	0		J	
naene	####				
ja	ja	0		J	
kõrtsi	kõrts	0		S	adt
      	kõrts	0		S	sg g
      	kõrts	0		S	sg p
tüdruk	tüdruk	0		S	sg n
,	,			Z	
Kaarli	Kaarel	0		H	sg g
      	Kaarli	0		H	sg g
      	Kaarli	0		H	sg n
Ruuples	####				
ja	ja	0		J	
Kaarli	Kaarel	0		H	sg g
      	Kaarli	0		H	sg g
      	Kaarli	0		H	sg n
Johanson	Johanson	0		H	sg n
tunnistada	tunnista	da		V	da
.	.			Z	
Johan	Johan	0		H	sg n
Anderson	####				
ähvardanud	ähvarda	nud		V	nud
          	ähvarda=nu	d		S	pl n
          	ähvarda=nud	0		A	
          	ähvarda=nud	0		A	sg n
          	ähvarda=nud	d		A	pl n
niisamuti	nii_samuti	0		D	
,	,			Z	
mida	mis	da		P	pl p
    	mis	da		P	sg p
Jaan	Jaan	0		H	sg n
    	jaan	0		S	sg n
    	jaan	0		Y	?
Sutt	sutt	0		S	sg n
    	susi	tt		S	sg p
Suure	suur	0		A	sg g
Ulidlast	####				
,	,			Z	
Johan	Johan	0		H	sg n
Laan	####				
kõrtsimees	kõrtsi_mees	0		S	sg n
ja	ja	0		J	
naene	####				
tunnistada	tunnista	da		V	da
.	.			Z	
Johan	Johan	0		H	sg n
Uintreinult	####				
teab	tead	b		V	b
veel	veel	0		D	
    	vesi	l		S	sg ad
ütelda	ütle	da		V	da
      	ütle	da		V	ta
et	et	0		J	
mind	mina	d		P	sg p
olla	ole	a		V	da
veel	veel	0		D	
    	vesi	l		S	sg ad
teised	teine	d		O	pl n
      	teine	d		P	pl n
ähvardanud	ähvarda	nud		V	nud
          	ähvarda=nu	d		S	pl n
          	ähvarda=nud	0		A	
          	ähvarda=nud	0		A	sg n
          	ähvarda=nud	d		A	pl n
ja	ja	0		J	
ütles	ütle	s		V	s
minule	mina	le		P	sg all
et	et	0		J	
mina	mina	0		P	sg n
    	mina	0		S	sg g
    	mina	0		S	sg n
    	mina	0		S	sg p
nende	see	de		P	pl g
     	tema	de		P	pl g
ähvardamiste	ähvardamine	te		S	pl g
järgi	järg	i		S	pl p
     	järgi	0		D	
     	järgi	0		K	
     	järgi	0		V	o
ei	ei	0		D	
  	ei	0		V	neg
tusivad	####				
Aru	aru	0		S	sg g
   	aru	0		S	sg n
   	aru	0		S	sg p
maale	maa	le		S	sg all
     	maal	e		S	pl p
tulla	tule	a		V	da
.	.			Z	
neid	neid	0		S	sg n
    	see	d		P	pl p
    	tema	d		P	pl p
ähvardajad	ähvarda=ja	d		S	pl n
palus	palu	s		S	sg in
     	palu	s		V	s
ma	mina	0		P	sg n
rahu	rahu	0		S	sg g
    	rahu	0		S	sg n
    	rahu	0		S	sg p
kohtu	kohtu	0		V	o
     	kohus	0		S	sg g
nuhtlus	nuhtlus	0		S	sg n
seaduse	seadus	0		S	sg g
§	§	0		Y	?
140	140	0		N	?
järgi	järg	i		S	pl p
     	järgi	0		D	
     	järgi	0		K	
     	järgi	0		V	o
vastutamise	vastutamine	0		S	sg g
alla	alla	0		D	
    	alla	0		K	
võtta	võt	a		V	da
ja	ja	0		J	
tervise	tervis	0		S	sg g
rikkumise	rikkumine	0		S	sg g
eest	eest	0		D	
    	eest	0		K	
    	esi	st		S	sg el
Liivi	Liivi	0		H	sg g
     	Liivi	0		H	sg n
maa	maa	0		S	sg g
   	maa	0		S	sg n
talu	talu	0		S	sg g
    	talu	0		V	o
    	talu	0		S	sg n
    	talu	0		S	sg p
rahva	rahvas	0		S	sg g
seaduse	seadus	0		S	sg g
§	§	0		Y	?
1038	1038	0		N	?
põhjusel	põhjus	l		S	sg ad
peksjade	####				
käest	käest	0		K	
     	käsi	st		S	sg el
1000	1000	0		N	?
rubla	rubla	0		S	sg g
     	rubla	0		S	sg n
     	rubla	0		S	sg p
tasumist	tasumine	t		S	sg p
ja	ja	0		J	
neid	neid	0		S	sg n
    	see	d		P	pl p
    	tema	d		P	pl p
vastutamise	vastutamine	0		S	sg g
alla	alla	0		D	
    	alla	0		K	
rahu	rahu	0		S	sg g
    	rahu	0		S	sg n
    	rahu	0		S	sg p
kohtu	kohtu	0		V	o
     	kohus	0		S	sg g
nuhtluse	nuhtlus	0		S	sg g
seaduse	seadus	0		S	sg g
paraakrahv	####				
28	28	0		N	?
järgi	järg	i		S	pl p
     	järgi	0		D	
     	järgi	0		K	
     	järgi	0		V	o
võtta	võt	a		V	da
.	.			Z	
Allikat	allikas	t		S	sg p
kaebaja	kaebaja	0		S	sg g
       	kaebaja	0		S	sg n
J. Luhaäär	####				
1890	1890	0		N	?
a.	a	0		Y	?
17	17	0		N	?
Januaril	####				
.	.			Z	
järel	järel	0		D	
     	järel	0		K	
tulev	tule	v		V	v
     	tulev	0		A	sg n
leht	leht	0		S	sg n
43.	43.	0		O	?
