Peeter	Peeter	0		H	sg n
Grossberg'i	####				
kaebduses	####				
Hans	Hans	0		H	sg n
Englase	####				
vasta	vasta	0		V	o
,	,			Z	
nõudmise	nõudmine	0		S	sg g
pärast	pära	st		S	sg el
      	pärane	t		A	sg p
      	pärast	0		D	
      	pärast	0		K	
,	,			Z	
protokoll	protokoll	0		S	sg n
N93	N93	0		Y	?
,	,			Z	
olevad	olev	d		A	pl n
      	olev	d		S	pl n
tulnud	tul=nud	0		A	
      	tul=nud	0		A	sg n
      	tul=nud	d		A	pl n
      	tule	nud		V	nud
      	tulnu	d		S	pl n
Peeter	Peeter	0		H	sg n
Grossberg	####				
ja	ja	0		J	
Hans	Hans	0		H	sg n
Englas	####				
eestkostjaga	eest_kostja	ga		S	sg kom
oma	oma	0		A	sg g
   	oma	0		D	
   	oma	0		P	sg g
   	oma	0		S	sg g
   	oma	0		V	o
   	oma	0		A	sg n
   	oma	0		A	sg p
   	oma	0		P	sg n
   	oma	0		P	sg p
   	oma	0		S	sg n
   	oma	0		S	sg p
vanemad	vanem	d		C	pl n
       	vanem	d		S	pl n
vennaga	vend	ga		S	sg kom
Karl	Karl	0		H	sg n
Englas	####				
'	’			Z	
ega	ega	0		D	
   	ega	0		J	
.	.			Z	
Nemad	tema	d		P	pl n
,	,			Z	
Peeter	Peeter	0		H	sg n
Grossberg	####				
ja	ja	0		J	
Hans	Hans	0		H	sg n
Englas	####				
eestkostjaga	eest_kostja	ga		S	sg kom
Karl	Karl	0		H	sg n
Englas	####				
'	’			Z	
ega	ega	0		D	
   	ega	0		J	
leppisivad	####				
kokku	kokku	0		D	
     	kogu	0		S	adt
,	,			Z	
et	et	0		J	
Hans	Hans	0		H	sg n
Englas	####				
maksab	maks	b		V	b
Peeter	Peeter	0		H	sg n
Grossbergile	####				
13	13	0		N	?
rubla	rubla	0		S	sg g
     	rubla	0		S	sg n
     	rubla	0		S	sg p
tasumist	tasumine	t		S	sg p
ja	ja	0		J	
sellega	see	ga		P	sg kom
on	ole	0		V	b
  	ole	0		V	vad
nemad	tema	d		P	pl n
eesseisvas	ees_seisev	s		A	sg in
kohtu	kohtu	0		V	o
     	kohus	0		S	sg g
asjas	asi	s		S	sg in
rahul	rahu	l		S	sg ad
     	rahul	0		D	
ja	ja	0		J	
tasa	tasa	0		D	
.	.			Z	
See	see	0		P	sg n
raha	raha	0		S	sg g
    	raha	0		S	sg n
    	raha	0		S	sg p
saab	saa	b		V	b
14	14	0		N	?
päeva	päev	0		S	adt
     	päev	0		S	sg g
     	päev	0		S	sg p
sees	sees	0		D	
    	sees	0		K	
äramakstud	ära_maks=tu	d		S	pl n
          	ära_maks=tud	0		A	
          	ära_maks=tud	0		A	sg n
          	ära_maks=tud	d		A	pl n
.	.			Z	
