sell	sell	0		S	sg n
summal	summ	l		S	sg ad
      	summa	l		S	sg ad
päeval	päev	l		S	sg ad
tulevad	tule	vad		V	vad
       	tulev	d		A	pl n
ette	ette	0		D	
    	ette	0		K	
    	esi	tte		S	adt
Jaan	Jaan	0		H	sg n
    	jaan	0		S	sg n
    	jaan	0		Y	?
ja	ja	0		J	
Johan	Johan	0		H	sg n
Must	must	0		A	sg n
    	must	0		S	sg n
    	mina	st		P	sg el
ja	ja	0		J	
kaebasivad	####				
üle	üle	0		D	
   	üle	0		K	
Peeter	Peeter	0		H	sg n
Rüütli	rüütel	0		S	sg g
,	,			Z	
kellega	kes	ga		P	pl kom
       	kes	ga		P	sg kom
neil	see	l		P	pl ad
    	tema	l		P	pl ad
maa	maa	0		S	sg g
   	maa	0		S	sg n
pooleks	pool	ks		N	sg tr
       	pool	ks		S	sg tr
       	pooleks	0		D	
on	ole	0		V	b
  	ole	0		V	vad
,	,			Z	
et	et	0		J	
see	see	0		P	sg n
olevat	ole	vat		V	vat
      	olev	t		A	sg p
      	olev	t		S	sg p
neid	neid	0		S	sg n
    	see	d		P	pl p
    	tema	d		P	pl p
löönud	löö	nud		V	nud
      	löö=nu	d		S	pl n
      	löö=nud	0		A	
      	löö=nud	0		A	sg n
      	löö=nud	d		A	pl n
,	,			Z	
kui	kui	0		D	
   	kui	0		J	
nemad	tema	d		P	pl n
tahtnuvad	####				
oma	oma	0		A	sg g
   	oma	0		D	
   	oma	0		P	sg g
   	oma	0		S	sg g
   	oma	0		V	o
   	oma	0		A	sg n
   	oma	0		A	sg p
   	oma	0		P	sg n
   	oma	0		P	sg p
   	oma	0		S	sg n
   	oma	0		S	sg p
vana	vana	0		A	sg g
    	vana	0		A	sg n
    	vana	0		A	sg p
    	vana	0		S	sg g
    	vana	0		S	sg n
    	vana	0		S	sg p
heinakuhja	heina_kuhi	0		S	adt
          	heina_kuhi	0		S	sg g
          	heina_kuhi	0		S	sg p
aseme	ase	0		S	sg g
peale	pea	le		S	sg all
     	peale	0		D	
     	peale	0		K	
kah	kah	0		D	
temassavesed	####				
heinu	hein	u		S	pl p
panna	pand	0		S	sg g
     	pane	a		V	da
     	panna	0		S	sg g
     	panna	0		S	sg n
;	;			Z	
palusivad	####				
Peeter	Peeter	0		H	sg n
Rüütlid	rüütel	d		S	pl n
trahvida	trahvi	da		V	da
.	.			Z	
Peeter	Peeter	0		H	sg n
Rüütli	rüütel	0		S	sg g
ettekutsutud	ette_kutsutu	d		S	pl n
            	ette_kutsutud	0		A	
            	ette_kutsutud	0		A	sg n
            	ette_kutsutud	d		A	pl n
,	,			Z	
vastutas	vastuta	s		V	s
,	,			Z	
et	et	0		J	
nende	see	de		P	pl g
     	tema	de		P	pl g
vahel	vahe	l		S	sg ad
     	vahel	0		D	
     	vahel	0		K	
see	see	0		P	sg n
leping	leping	0		S	sg n
on	ole	0		V	b
  	ole	0		V	vad
tehtud	tehtu	d		S	pl n
      	tehtud	0		A	
      	tehtud	0		A	sg n
      	tehtud	d		A	pl n
      	tege	tud		V	tud
,	,			Z	
et	et	0		J	
""""	""""			Z	
heinamaa	heina_maa	0		S	sg g
        	heina_maa	0		S	sg n
ja	ja	0		J	
heinakuhja	heina_kuhi	0		S	adt
          	heina_kuhi	0		S	sg g
          	heina_kuhi	0		S	sg p
asemed	ase	d		S	pl n
""""	""""			Z	
peavad	pida	vad		V	vad
iga	iga	0		P	sg g
   	iga	0		P	sg n
   	iga	0		P	sg p
   	iga	0		S	sg n
   	iga	0		S	sg p
aasta	aasta	0		S	sg g
     	aasta	0		S	sg n
vahetud	vahetu	d		A	pl n
       	vahetu	d		V	d
saama	saa	ma		V	ma
     	saam	0		S	adt
     	saam	0		S	sg g
     	saam	0		S	sg p
,	,			Z	
ja	ja	0		J	
kui	kui	0		D	
   	kui	0		J	
näinud	näi	nud		V	nud
      	näge	nud		V	nud
      	näi=nud	0		A	
      	näi=nud	0		A	sg n
      	näi=nud	d		A	pl n
      	näinu	d		S	pl n
,	,			Z	
et	et	0		J	
Jaan	Jaan	0		H	sg n
    	jaan	0		S	sg n
    	jaan	0		Y	?
Must	must	0		A	sg n
    	must	0		S	sg n
    	mina	st		P	sg el
siiski	siiski	0		D	
omade	oma	de		A	pl g
     	oma	de		P	pl g
     	oma	de		S	pl g
heinu	hein	u		S	pl p
tahtnud	taht	nud		V	nud
       	taht=nu	d		S	pl n
       	taht=nud	0		A	
       	taht=nud	0		A	sg n
       	taht=nud	d		A	pl n
see	see	0		P	sg n
kuhja	kuhja	0		V	o
     	kuhi	0		S	adt
     	kuhi	0		S	sg g
     	kuhi	0		S	sg p
aseme	ase	0		S	sg g
peale	pea	le		S	sg all
     	peale	0		D	
     	peale	0		K	
panna	pand	0		S	sg g
     	pane	a		V	da
     	panna	0		S	sg g
     	panna	0		S	sg n
kes	kes	0		P	pl n
   	kes	0		P	sg n
temassaavad	####				
temal	tema	l		P	sg ad
pruukid	####				
on	ole	0		V	b
  	ole	0		V	vad
,	,			Z	
on	ole	0		V	b
  	ole	0		V	vad
tema	tema	0		P	sg g
    	tema	0		P	sg n
Jaani	Jaan	0		H	adt
     	Jaan	0		H	sg g
     	Jaani	0		H	sg g
     	jaan	0		S	adt
     	jaan	0		S	sg g
     	Jaan	0		H	sg p
     	Jaani	0		H	sg n
     	jaan	0		S	sg p
manu	manu	0		D	
    	manu	0		K	
läinud	läinu	d		S	pl n
      	läinud	0		A	
      	läinud	0		A	sg n
      	läinud	d		A	pl n
      	mine	nud		V	nud
ja	ja	0		J	
temale	tema	le		P	sg all
ütelnud	ütle	nud		V	nud
       	ütel=nu	d		S	pl n
       	ütel=nud	0		A	
       	ütel=nud	0		A	sg n
       	ütel=nud	d		A	pl n
,	,			Z	
et	et	0		J	
tema	tema	0		P	sg g
    	tema	0		P	sg n
ei	ei	0		D	
  	ei	0		V	neg
tohi	tohti	0		V	o
mitte	mitte	0		D	
omade	oma	de		A	pl g
     	oma	de		P	pl g
     	oma	de		S	pl g
heinu	hein	u		S	pl p
see	see	0		P	sg n
nimetatud	nimeta	tud		V	tud
         	nimetatu	d		S	pl n
         	nimetatud	0		A	
         	nimetatud	0		A	sg n
         	nimetatud	d		A	pl n
kuhja	kuhja	0		V	o
     	kuhi	0		S	adt
     	kuhi	0		S	sg g
     	kuhi	0		S	sg p
aseme	ase	0		S	sg g
peale	pea	le		S	sg all
     	peale	0		D	
     	peale	0		K	
panna	pand	0		S	sg g
     	pane	a		V	da
     	panna	0		S	sg g
     	panna	0		S	sg n
;	;			Z	
kui	kui	0		D	
   	kui	0		J	
Jaan	Jaan	0		H	sg n
    	jaan	0		S	sg n
    	jaan	0		Y	?
ei	ei	0		D	
  	ei	0		V	neg
tahtnud	taht	nud		V	nud
       	taht=nu	d		S	pl n
       	taht=nud	0		A	
       	taht=nud	0		A	sg n
       	taht=nud	d		A	pl n
omast	oma	st		A	sg el
     	oma	st		P	sg el
     	oma	st		S	sg el
     	omane	t		A	sg p
Neidest	####				
maha	maha	0		D	
jäta	jät	0		V	o
,	,			Z	
on	ole	0		V	b
  	ole	0		V	vad
tema	tema	0		P	sg g
    	tema	0		P	sg n
teda	tema	da		P	sg p
mant	mant	0		D	
    	mant	0		K	
    	mant	0		S	sg n
ärakadunud	ära_kadunu	d		S	pl n
          	ära_kadunud	0		A	
          	ära_kadunud	0		A	sg n
          	ära_kadunud	d		A	pl n
,	,			Z	
se	####				
sama	sama	0		P	sg g
    	sama	0		P	sg n
    	sama	0		P	sg p
tulnud	tul=nud	0		A	
      	tul=nud	0		A	sg n
      	tul=nud	d		A	pl n
      	tule	nud		V	nud
      	tulnu	d		S	pl n
Jaani	Jaan	0		H	adt
     	Jaan	0		H	sg g
     	Jaani	0		H	sg g
     	jaan	0		S	adt
     	jaan	0		S	sg g
     	Jaan	0		H	sg p
     	Jaani	0		H	sg n
     	jaan	0		S	sg p
poeg	poeg	0		S	sg n
Johan	Johan	0		H	sg n
nende	see	de		P	pl g
     	tema	de		P	pl g
manud	####				
ja	ja	0		J	
on	ole	0		V	b
  	ole	0		V	vad
se	####				
rublesimene	####				
juhtunud	juhtu	nud		V	nud
        	juhtunu	d		S	pl n
        	juhtunud	0		A	
        	juhtunud	0		A	sg n
        	juhtunud	d		A	pl n
.	.			Z	
Jaan	Jaan	0		H	sg n
    	jaan	0		S	sg n
    	jaan	0		Y	?
ja	ja	0		J	
Johan	Johan	0		H	sg n
Must	must	0		A	sg n
    	must	0		S	sg n
    	mina	st		P	sg el
tunnistavad	tunnista	vad		V	vad
           	tunnista=v	d		A	pl n
kah	kah	0		D	
,	,			Z	
et	et	0		J	
neil	see	l		P	pl ad
    	tema	l		P	pl ad
niisugune	nii_sugune	0		P	sg n
leping	leping	0		S	sg n
heinamaa	heina_maa	0		S	sg g
        	heina_maa	0		S	sg n
ja	ja	0		J	
kuhja	kuhja	0		V	o
     	kuhi	0		S	adt
     	kuhi	0		S	sg g
     	kuhi	0		S	sg p
asemede	####				
pärast	pära	st		S	sg el
      	pärane	t		A	sg p
      	pärast	0		D	
      	pärast	0		K	
tehtud	tehtu	d		S	pl n
      	tehtud	0		A	
      	tehtud	0		A	sg n
      	tehtud	d		A	pl n
      	tege	tud		V	tud
on	ole	0		V	b
  	ole	0		V	vad
,	,			Z	
nii	nii	0		D	
kui	kui	0		D	
   	kui	0		J	
et	et	0		J	
kah	kah	0		D	
nemad	tema	d		P	pl n
on	ole	0		V	b
  	ole	0		V	vad
endat	####				
natukene	natukene	0		D	
        	natukene	0		S	sg n
Peeter	Peeter	0		H	sg n
Rüütli	rüütel	0		S	sg g
vastu	vastu	0		D	
     	vastu	0		K	
katsinud	####				
,	,			Z	
kui	kui	0		D	
   	kui	0		J	
see	see	0		P	sg n
neile	see	le		P	pl all
     	tema	le		P	pl all
käed	käsi	d		S	pl n
külge	külg	0		S	adt
     	külg	0		S	sg p
     	külge	0		D	
     	külge	0		K	
pannud	pan=nu	d		S	pl n
      	pan=nud	0		A	
      	pan=nud	0		A	sg n
      	pan=nud	d		A	pl n
      	pane	nud		V	nud
,	,			Z	
nimelt	nimelt	0		D	
      	nimi	lt		S	sg abl
ütles	ütle	s		V	s
Johan	Johan	0		H	sg n
Must	must	0		A	sg n
    	must	0		S	sg n
    	mina	st		P	sg el
,	,			Z	
et	et	0		J	
tema	tema	0		P	sg g
    	tema	0		P	sg n
sisale	####				
Api	####				
läinud	läinu	d		S	pl n
      	läinud	0		A	
      	läinud	0		A	sg n
      	läinud	d		A	pl n
      	mine	nud		V	nud
,	,			Z	
kui	kui	0		D	
   	kui	0		J	
tema	tema	0		P	sg g
    	tema	0		P	sg n
näinud	näi	nud		V	nud
      	näge	nud		V	nud
      	näi=nud	0		A	
      	näi=nud	0		A	sg n
      	näi=nud	d		A	pl n
      	näinu	d		S	pl n
,	,			Z	
et	et	0		J	
Peeter	Peeter	0		H	sg n
Rüütli	rüütel	0		S	sg g
tahtnud	taht	nud		V	nud
       	taht=nu	d		S	pl n
       	taht=nud	0		A	
       	taht=nud	0		A	sg n
       	taht=nud	d		A	pl n
tema	tema	0		P	sg g
    	tema	0		P	sg n
sisale	####				
liiga	liig	0		S	adt
     	liig	0		S	sg p
     	liiga	0		D	
     	liiga	0		S	sg g
     	liiga	0		S	sg n
teha	tege	a		V	da
;	;			Z	
se	####				
võtnud	võt	nud		V	nud
      	võt=nu	d		S	pl n
      	võt=nud	0		A	
      	võt=nud	0		A	sg n
      	võt=nud	d		A	pl n
Rüütli	rüütel	0		S	sg g
kah	kah	0		D	
Johan	Johan	0		H	sg n
Must	must	0		A	sg n
    	must	0		S	sg n
    	mina	st		P	sg el
Hüssüüst	####				
kinni	kinni	0		D	
ja	ja	0		J	
kakkus	kakku	s		V	s
seda	see	da		P	sg p
hirmsaste	####				
.	.			Z	
sai	saa	i		V	s
   	sai	0		S	sg n
mõistetud	mõist	tud		V	tud
         	mõiste=tu	d		S	pl n
         	mõiste=tud	0		A	
         	mõiste=tud	0		A	sg n
         	mõiste=tud	d		A	pl n
Peeter	Peeter	0		H	sg n
Rüütli	rüütel	0		S	sg g
peab	pida	b		V	b
1	1	0		N	?
rubl	####				
.	.			Z	
trahvi	trahv	0		S	adt
      	trahv	0		S	sg g
      	trahvi	0		V	o
      	trahv	0		S	sg p
vaestelaadiku	vaes+te_laadik	0		S	sg g
sisse	siss	e		S	pl p
     	sisse	0		D	
     	sisse	0		K	
ja	ja	0		J	
1	1	0		N	?
rubl	####				
Jaan	Jaan	0		H	sg n
    	jaan	0		S	sg n
    	jaan	0		Y	?
Mustale	must	le		A	sg all
       	must	le		S	sg all
valurahaks	valu_raha	ks		S	sg tr
maksma	maks	ma		V	ma
:	:			Z	
""""	""""			Z	
vastastiku	vastas_tikk	0		S	sg g
kaklemise	kaklemine	0		S	sg g
pärast	pära	st		S	sg el
      	pärane	t		A	sg p
      	pärast	0		D	
      	pärast	0		K	
.	.			Z	
""""	""""			Z	
see	see	0		P	sg n
mõistmine	mõistmine	0		S	sg n
sai	saa	i		V	s
   	sai	0		S	sg n
§	§	0		Y	?
772	772	0		N	?
&	&	0		J	
&	&	0		J	
&	&	0		J	
773	773	0		N	?
järele	järele	0		D	
      	järele	0		K	
kuulutud	kuulu	tud		V	tud
        	kuulu=tu	d		S	pl n
        	kuulu=tud	0		A	
        	kuulu=tud	0		A	sg n
        	kuulu=tud	d		A	pl n
.	.			Z	
Hendrik	Hendrik	0		H	sg n
Torg	####				
XXX	XXX	0		O	?
   	XXX	0		Y	?
Joh	####				
.	.			Z	
Klaosoon	####				
XXX	XXX	0		O	?
   	XXX	0		Y	?
Joosep	Joosep	0		H	sg n
Adoson	####				
XXX	XXX	0		O	?
   	XXX	0		Y	?
Jakob	Jakob	0		H	sg n
Hanson	####				
XXX	XXX	0		O	?
   	XXX	0		Y	?
Peeter	Peeter	0		H	sg n
Kulp	kulp	0		S	sg n
XXX	XXX	0		O	?
   	XXX	0		Y	?
