sel	see	l		P	sg ad
   	sel	0		Y	?
19.	19.	0		O	?
neel	neel	0		S	sg n
januaril	####				
1879.	1879.	0		O	?
peakohtumehe	pea_kohtu_mees	0		S	sg g
abi	abi	0		S	sg g
   	abi	0		S	sg n
   	abi	0		S	sg p
Johan	Johan	0		H	sg n
Kihtud	####				
kohtumees	kohtu_mees	0		S	sg n
Jaan	Jaan	0		H	sg n
    	jaan	0		S	sg n
    	jaan	0		Y	?
palubbas	####				
.	.			Z	
abi	abi	0		S	sg g
   	abi	0		S	sg n
   	abi	0		S	sg p
-	-			Z	
""""	""""			Z	
-	-			Z	
Peeter	Peeter	0		H	sg n
Kulberg	####				
.	.			Z	
Vekumõisa	####				
mölder	mölder	0		S	sg n
J. Terneerf	####				
kaebab	kaeba	b		V	b
et	et	0		J	
pois	poi	s		S	sg in
Reinu	Rein	0		H	adt
     	Rein	0		H	sg g
     	Rein	0		H	sg p
poeg	poeg	0		S	sg n
Kusta	Kusta	0		H	sg g
     	Kusta	0		H	sg n
     	kuse	ta		V	da
     	kuse	ta		V	ta
Kruse	####				
18.	18.	0		O	?
a	a	0		Y	?
vana	vana	0		A	sg g
    	vana	0		A	sg n
    	vana	0		A	sg p
    	vana	0		S	sg g
    	vana	0		S	sg n
    	vana	0		S	sg p
kaeraski	kaer	s	ki	S	sg in
kogu	kogu	0		A	
    	kogu	0		S	sg g
    	kogu	0		V	o
    	kogu	0		S	sg n
    	kogu	0		S	sg p
kunas	kunas	0		D	
Liismeti	####				
talu	talu	0		S	sg g
    	talu	0		V	o
    	talu	0		S	sg n
    	talu	0		S	sg p
,	,			Z	
on	ole	0		V	b
  	ole	0		V	vad
tal	tema	l		P	sg ad
2	2	0		N	?
päeva	päev	0		S	adt
     	päev	0		S	sg g
     	päev	0		S	sg p
teenis-	####				
tudest	####				
ära	ära	0		D	
   	ära	0		V	neg o
olnud	ol=nud	0		A	
     	ol=nud	0		A	sg n
     	ol=nud	d		A	pl n
     	ole	nud		V	nud
     	olnu	d		S	pl n
a	a	0		Y	?
´	’			Z	
30	30	0		N	?
kop	kop	0		Y	?
teeb	tege	b		V	b
kokku	kokku	0		D	
     	kogu	0		S	adt
60.	60.	0		O	?
kop	kop	0		Y	?
ja	ja	0		J	
1.	1.	0		O	?
kivi	kivi	0		S	sg g
    	kivi	0		S	sg n
    	kivi	0		S	sg p
saamise	saamine	0		S	sg g
vassar	####				
ära	ära	0		D	
   	ära	0		V	neg o
kautanud	####				
60.	60.	0		O	?
kop	kop	0		Y	?
.	.			Z	
kokku	kokku	0		D	
     	kogu	0		S	adt
120.	120.	0		O	?
kop	kop	0		Y	?
.	.			Z	
ja	ja	0		J	
peale	pea	le		S	sg all
     	peale	0		D	
     	peale	0		K	
möldri	mölder	0		S	sg g
poisil	poiss	l		S	sg ad
Johan	Johan	0		H	sg n
Alev	alev	0		S	sg n
.	.			Z	
käest	käest	0		K	
     	käsi	st		S	sg el
peenese	peen_ese	0		S	sg n
viisi	viis	0		S	adt
     	viis	0		S	sg g
     	viis	i		N	pl p
     	viisi	0		K	
     	viis	0		S	sg p
laenanud	laena	nud		V	nud
        	laena=nu	d		S	pl n
        	laena=nud	0		A	
        	laena=nud	0		A	sg n
        	laena=nud	d		A	pl n
7.	7.	0		O	?
rbl	rbl	0		Y	?
20.	20.	0		O	?
kop	kop	0		Y	?
(	(			Z	
24.	24.	0		O	?
jusi	####				
1880.	1880.	0		O	?
on	ole	0		V	b
  	ole	0		V	vad
Joh	####				
Alev	alev	0		S	sg n
.	.			Z	
kätte	kätte	0		K	
     	käsi	tte		S	adt
saanud	saa	nud		V	nud
      	saa=nud	0		A	
      	saa=nud	0		A	sg n
      	saa=nud	d		A	pl n
      	saanu	d		S	pl n
280.	280.	0		O	?
kop	kop	0		Y	?
.	.			Z	
Kusta	Kusta	0		H	sg g
     	Kusta	0		H	sg n
     	kuse	ta		V	da
     	kuse	ta		V	ta
Kruse	####				
käest	käest	0		K	
     	käsi	st		S	sg el
,	,			Z	
440.	440.	0		O	?
kop	kop	0		Y	?
veel	veel	0		D	
    	vesi	l		S	sg ad
puudus	puudu	s		V	s
      	puudus	0		S	sg n
.	.			Z	
ja	ja	0		J	
Mustemõisa	####				
kõrtsimehe	kõrtsi_mees	0		S	sg g
käest	käest	0		K	
     	käsi	st		S	sg el
välja	välja	0		D	
     	välja	0		V	o
     	väli	0		S	adt
     	väli	0		S	sg g
     	väli	0		S	sg p
võtnud	võt	nud		V	nud
      	võt=nu	d		S	pl n
      	võt=nud	0		A	
      	võt=nud	0		A	sg n
      	võt=nud	d		A	pl n
1.	1.	0		O	?
rbl	rbl	0		Y	?
30.	30.	0		O	?
Mihkel	Mihkel	0		H	sg n
      	mihkel	0		A	sg n
      	mihkel	0		S	sg n
Peetsa	####				
käest	käest	0		K	
     	käsi	st		S	sg el
kõrtsimees	kõrtsi_mees	0		S	sg n
.	.			Z	
see	see	0		P	sg n
on	ole	0		V	b
  	ole	0		V	vad
kõik	kõik	0		P	pl n
    	kõik	0		S	sg n
    	kõik	0		P	sg n
ühe	üks	0		N	sg g
   	üks	0		P	sg g
   	ühe	0		S	sg n
suma	suma	0		S	sg g
    	suma	0		V	o
    	suma	0		S	sg n
    	suma	0		S	sg p
9.	9.	0		O	?
rbl	rbl	0		Y	?
70.	70.	0		O	?
kop	kop	0		Y	?
võlg	võlg	0		S	sg n
mis	mis	0		P	pl n
   	mis	0		P	sg n
pois	poi	s		S	sg in
Kusta	Kusta	0		H	sg g
     	Kusta	0		H	sg n
     	kuse	ta		V	da
     	kuse	ta		V	ta
kuuse	kuune	0		A	sg g
     	kuusk	0		S	sg g
õigeks	õige	ks		A	sg tr
ütles	ütle	s		V	s
,	,			Z	
ja	ja	0		J	
kindmalt	####				
palve	palve	0		S	sg g
     	palve	0		S	sg n
kolmapäevaks	kolma_päev	ks		S	sg tr
kõik	kõik	0		P	pl n
    	kõik	0		S	sg n
    	kõik	0		P	sg n
ära	ära	0		D	
   	ära	0		V	neg o
maksta	maks	ta		V	da
      	maks	ta		V	ta
lubas	luba	s		V	s
ilma	ilm	0		S	adt
    	ilm	0		S	sg g
    	ilma	0		D	
    	ilma	0		K	
    	ilm	0		S	sg p
kellegi	keegi	gi		P	sg g
nõudmata	nõud	mata		V	mata
        	nõud=mata	0		A	
.	.			Z	
seda	see	da		P	sg p
kinnitas	kinnita	s		V	s
ta	tema	0		P	sg g
  	tema	0		P	sg n
on	ole	0		V	b
  	ole	0		V	vad
käega	käsi	ga		S	sg kom
alla	alla	0		D	
    	alla	0		K	
kirjutas	kirjuta	s		V	s
.	.			Z	
Kusta	Kusta	0		H	sg g
     	Kusta	0		H	sg n
     	kuse	ta		V	da
     	kuse	ta		V	ta
Kruse	####				
kohus	kohu	s		V	s
     	kohus	0		S	sg n
kuulutas	kuuluta	s		V	s
mõistuse	mõistus	0		S	sg g
et	et	0		J	
,	,			Z	
kui	kui	0		D	
   	kui	0		J	
tärminil	tärmin	l		S	sg ad
ära	ära	0		D	
   	ära	0		V	neg o
makstud	maks	tud		V	tud
       	maks=tu	d		S	pl n
       	maks=tud	0		A	
       	maks=tud	0		A	sg n
       	maks=tud	d		A	pl n
ei	ei	0		D	
  	ei	0		V	neg
ole	ole	0		V	o
siis	siis	0		D	
    	siis	0		J	
peab	pida	b		V	b
iga	iga	0		P	sg g
   	iga	0		P	sg n
   	iga	0		P	sg p
   	iga	0		S	sg n
   	iga	0		S	sg p
üle	üle	0		D	
   	üle	0		K	
tärmile	####				
nädala	nädal	0		S	sg g
pealt	pea	lt		S	sg abl
     	pealt	0		D	
     	pealt	0		K	
50.	50.	0		O	?
kop	kop	0		Y	?
vallavaeste	valla_vaene	te		A	pl g
           	valla_vaene	te		S	pl g
laengu	laeng	0		S	adt
      	laeng	0		S	sg g
hääks	####				
maksma	maks	ma		V	ma
.	.			Z	
see	see	0		P	sg n
raha	raha	0		S	sg g
    	raha	0		S	sg n
    	raha	0		S	sg p
440.	440.	0		O	?
kop	kop	0		Y	?
peab	pida	b		V	b
Kusta	Kusta	0		H	sg g
     	Kusta	0		H	sg n
     	kuse	ta		V	da
     	kuse	ta		V	ta
Kruse	####				
käest	käest	0		K	
     	käsi	st		S	sg el
siia	siia	0		D	
    	siig	0		S	sg g
varsti	varsti	0		D	
sisse	siss	e		S	pl p
     	sisse	0		D	
     	sisse	0		K	
nõutud	nõu=tu	d		S	pl n
      	nõu=tud	0		A	
      	nõu=tud	0		A	sg n
      	nõu=tud	d		A	pl n
      	nõud	tud		V	tud
      	nõutu	d		A	pl n
saama	saa	ma		V	ma
     	saam	0		S	adt
     	saam	0		S	sg g
     	saam	0		S	sg p
,	,			Z	
ja	ja	0		J	
sest	see	st		P	sg el
    	sest	0		J	
Erastvere	Erast_vere	0		H	sg g
         	Erast_vere	0		H	sg n
valda	vald	0		S	adt
     	valda	0		V	o
     	vald	0		S	sg p
Paali	paal	0		S	adt
     	paal	0		S	sg g
     	paal	0		S	sg p
talule	talu	le		S	sg all
Aadam	Aadam	0		H	sg n
Alevi	alev	0		S	sg g
kätte	kätte	0		K	
     	käsi	tte		S	adt
naha	nahk	0		S	sg g
küla	küla	0		S	sg g
    	küla	0		S	sg n
    	küla	0		S	sg p
.	.			Z	
Kusta	Kusta	0		H	sg g
     	Kusta	0		H	sg n
     	kuse	ta		V	da
     	kuse	ta		V	ta
Kruse	####				
elab	ela	b		V	b
Sereste	####				
Vaega	vaag	ga		S	sg kom
,	,			Z	
vesi	vesi	0		S	pl p
    	vesi	0		S	sg n
veski	veski	0		S	sg g
     	veski	0		S	sg n
peal	pea	l		S	sg ad
    	peal	0		D	
    	peal	0		K	
,	,			Z	
Mihkli	Mihkel	0		H	sg g
      	Mihkli	0		H	sg g
      	mihkel	0		A	sg g
      	mihkel	0		S	sg g
      	Mihkli	0		H	sg n
kuuse	kuune	0		A	sg g
     	kuusk	0		S	sg g
man	man	0		D	
   	man	0		K	
.	.			Z	
peakohtumehe	pea_kohtu_mees	0		S	sg g
abi	abi	0		S	sg g
   	abi	0		S	sg n
   	abi	0		S	sg p
Joh	####				
.	.			Z	
Kihtud	####				
XXX	XXX	0		O	?
   	XXX	0		Y	?
kohtumees	kohtu_mees	0		S	sg n
-	-			Z	
Jaan	Jaan	0		H	sg n
    	jaan	0		S	sg n
    	jaan	0		Y	?
palubbas	####				
XXX	XXX	0		O	?
   	XXX	0		Y	?
abi	abi	0		S	sg g
   	abi	0		S	sg n
   	abi	0		S	sg p
-	-			Z	
""""	""""			Z	
-	-			Z	
Peeter	Peeter	0		H	sg n
Kulberg	####				
XXX	XXX	0		O	?
   	XXX	0		Y	?
