Tõnnis	Tõnn	s		H	sg in
Kusik	kusik	0		S	sg n
ja	ja	0		J	
elias	####				
Vilde	Vilde	0		H	sg g
     	Vilde	0		H	sg n
kokkoralt	kokk_ora	lt		S	sg abl
,	,			Z	
Semen	####				
Ivanov	Ivanov	0		H	sg n
koslohvi	####				
vasto	####				
,	,			Z	
võlgo	####				
jäänud	jää	nud		V	nud
      	jäänu	d		S	pl n
      	jäänud	0		A	
      	jäänud	0		A	sg n
      	jäänud	d		A	pl n
voori	voor	0		S	adt
     	voor	0		S	sg g
     	voor	i		S	pl p
     	voori	0		V	o
     	voor	0		S	sg p
raha	raha	0		S	sg g
    	raha	0		S	sg n
    	raha	0		S	sg p
pärast	pära	st		S	sg el
      	pärane	t		A	sg p
      	pärast	0		D	
      	pärast	0		K	
.	.			Z	
Tõnnis	Tõnn	s		H	sg in
Kusik	kusik	0		S	sg n
ja	ja	0		J	
elias	####				
Vilde	Vilde	0		H	sg g
     	Vilde	0		H	sg n
tõstsid	tõst	sid		V	sid
kaibust	####				
Semen	####				
Ivanov	Ivanov	0		H	sg n
koslohvi	####				
peale	pea	le		S	sg all
     	peale	0		D	
     	peale	0		K	
,	,			Z	
kes	kes	0		P	pl n
   	kes	0		P	sg n
neid	neid	0		S	sg n
    	see	d		P	pl p
    	tema	d		P	pl p
palkanud	####				
venne	####				
maale	maa	le		S	sg all
     	maal	e		S	pl p
kala	kala	0		S	sg g
    	kala	0		S	sg n
    	kala	0		S	sg p
voori	voor	0		S	adt
     	voor	0		S	sg g
     	voor	i		S	pl p
     	voori	0		V	o
     	voor	0		S	sg p
vedama	veda	ma		V	ma
ja	ja	0		J	
vooro	####				
rahast	raha	st		S	sg el
3	3	0		N	?
rubla	rubla	0		S	sg g
     	rubla	0		S	sg n
     	rubla	0		S	sg p
88	88	0		N	?
k	k	0		Y	?
.	.			Z	
hõb	####				
.	.			Z	
võlgo	####				
janud	janu	d		S	pl n
     	janu	d		V	d
,	,			Z	
mis	mis	0		P	pl n
   	mis	0		P	sg n
seia	####				
maale	maa	le		S	sg all
     	maal	e		S	pl p
maksmatta	####				
.	.			Z	
Semen	####				
Ivanov	Ivanov	0		H	sg n
annab	and	b		V	b
tõeks	tõde	ks		S	sg tr
     	tõsi	ks		S	sg tr
,	,			Z	
et	et	0		J	
3	3	0		N	?
r	r	0		Y	?
88	88	0		N	?
k	k	0		Y	?
ei	ei	0		D	
  	ei	0		V	neg
ole	ole	0		V	o
välja	välja	0		D	
     	välja	0		V	o
     	väli	0		S	adt
     	väli	0		S	sg g
     	väli	0		S	sg p
maksnud	maks	nud		V	nud
       	maks=nu	d		S	pl n
       	maks=nud	0		A	
       	maks=nud	0		A	sg n
       	maks=nud	d		A	pl n
i	i	0		Y	?
seda	see	da		P	sg p
raha	raha	0		S	sg g
    	raha	0		S	sg n
    	raha	0		S	sg p
tõmbab	tõmba	b		V	b
tema	tema	0		P	sg g
    	tema	0		P	sg n
aga	aga	0		J	
varguse	vargus	0		S	sg g
pärast	pära	st		S	sg el
      	pärane	t		A	sg p
      	pärast	0		D	
      	pärast	0		K	
maha	maha	0		D	
.	.			Z	
_	_			Z	
Sel	see	l		P	sg ad
   	sel	0		Y	?
õsel	####				
kui	kui	0		D	
   	kui	0		J	
Tõnnis	Tõnn	s		H	sg in
ja	ja	0		J	
elias	####				
oma	oma	0		A	sg g
   	oma	0		D	
   	oma	0		P	sg g
   	oma	0		S	sg g
   	oma	0		V	o
   	oma	0		A	sg n
   	oma	0		A	sg p
   	oma	0		P	sg n
   	oma	0		P	sg p
   	oma	0		S	sg n
   	oma	0		S	sg p
hobbestega	####				
Ninal	Nina	l		H	sg ad
     	nina	l		S	sg ad
olnud	ol=nud	0		A	
     	ol=nud	0		A	sg n
     	ol=nud	d		A	pl n
     	ole	nud		V	nud
     	olnu	d		S	pl n
,	,			Z	
varastud	####				
temal	tema	l		P	sg ad
Semenil	####				
kaks	kaks	0		N	sg n
vakka	vakk	0		S	adt
     	vakk	0		S	sg p
     	vakka	0		D	
linased	linane	d		A	pl n
ära	ära	0		D	
   	ära	0		V	neg o
,	,			Z	
mis	mis	0		P	pl n
   	mis	0		P	sg n
kvasi	####				
tarvis	tarvis	0		D	
      	tarvis	0		K	
jämedaste	####				
tambitud	tampi	tud		V	tud
        	tambi=tu	d		S	pl n
        	tambi=tud	0		A	
        	tambi=tud	0		A	sg n
        	tambi=tud	d		A	pl n
olid	ole	id		V	sid
.	.			Z	
Need	see	d		P	pl n
mõlemad	mõlema	d		P	pl n
mehed	mees	d		S	pl n
ei	ei	0		D	
  	ei	0		V	neg
olnud	ol=nud	0		A	
     	ol=nud	0		A	sg n
     	ol=nud	d		A	pl n
     	ole	nud		V	nud
     	olnu	d		S	pl n
õõmajal	####				
mitte	mitte	0		D	
Semeni	####				
juures	juur	s		S	sg in
      	juures	0		D	
      	juures	0		K	
,	,			Z	
vais	####				
läksid	mine	sid		V	sid
Ivan	Ivan	0		H	sg n
Tofimov	####				
Skorohodovi	####				
juure	juur	0		S	sg g
.	.			Z	
kui	kui	0		D	
   	kui	0		J	
nüüd	nüüd	0		D	
Semen	####				
ommiko	####				
näggi	####				
et	et	0		J	
tema	tema	0		P	sg g
    	tema	0		P	sg n
juures	juur	s		S	sg in
      	juures	0		D	
      	juures	0		K	
linasid	lina	sid		S	pl p
varastud	####				
,	,			Z	
arvas	arva	s		V	s
tema	tema	0		P	sg g
    	tema	0		P	sg n
seda	see	da		P	sg p
Tõnise	Tõnis	0		H	sg g
ja	ja	0		J	
elia	####				
peale	pea	le		S	sg all
     	peale	0		D	
     	peale	0		K	
,	,			Z	
läks	mine	s		V	s
sepärast	####				
ka	ka	0		D	
Kulla	kuld	0		S	sg g
     	kulla	0		A	
sotskiga	####				
Skorohodovi	####				
maijase	####				
ja	ja	0		J	
leidsid	leid	sid		V	sid
siis	siis	0		D	
    	siis	0		J	
seal	seal	0		D	
    	siga	l		A	sg ad
    	siga	l		S	sg ad
kohas	koht	s		S	sg in
     	koha	s		S	sg in
     	koha	s		V	s
,	,			Z	
kus	kus	0		D	
kokkora	kokk_ora	0		S	sg g
       	kokk_ora	0		S	sg n
       	kokk_ora	0		S	sg p
meeste	meene	te		A	pl g
      	mees	te		S	pl g
hobesed	####				
seisnud	seis	nud		V	nud
       	seis=nu	d		S	pl n
       	seis=nud	0		A	
       	seis=nud	0		A	sg n
       	seis=nud	d		A	pl n
,	,			Z	
jämedaste	####				
tougatud	####				
linaseid	linane	id		A	pl p
maas	maa	s		S	sg in
    	maas	0		D	
,	,			Z	
kelles	kes	s		P	pl in
      	kes	s		P	sg in
Sotski	sots	0	ki	S	sg n
provi	####				
võttis	võt	is		V	s
ja	ja	0		J	
ühte	ühte	0		D	
    	üks	0		N	adt
    	üks	0		P	adt
    	ühe	0		S	sg g
    	üks	0		N	sg p
    	üks	0		P	sg p
kottiko	####				
pani	pan	0		S	adt
    	pani	0		S	sg g
    	pane	i		V	s
    	pan	0		S	sg g
    	pan	0		S	sg p
    	pani	0		S	sg n
.	.			Z	
Ivan	Ivan	0		H	sg n
Trohvimov	####				
Skorohodov	####				
,	,			Z	
Semen	####				
koslohvi	####				
naine	naine	0		S	sg n
ning	ning	0		J	
Fekla	####				
Ivanovna	####				
tunnistad	tunnista	d		V	d
et	et	0		J	
leidnud	leid	nud		V	nud
       	leid=nu	d		S	pl n
       	leid=nud	0		A	
       	leid=nud	0		A	sg n
       	leid=nud	d		A	pl n
selle	see	0		P	sg g
     	sell	e		S	pl p
pangi	pang	i		S	pl p
     	pan	0	gi	S	sg n
küllest	####				
,	,			Z	
kellega	kes	ga		P	pl kom
       	kes	ga		P	sg kom
Tõnnis	Tõnn	s		H	sg in
ja	ja	0		J	
elias	####				
hobbestele	####				
vet	####				
vinud	vinu	d		S	pl n
linaste	linane	te		A	pl g
itmid	####				
.	.			Z	
_	_			Z	
Ivan	Ivan	0		H	sg n
Trofimov	Trofimov	0		H	sg n
annab	and	b		V	b
peale	pea	le		S	sg all
     	peale	0		D	
     	peale	0		K	
seda	see	da		P	sg p
ülesse	ülesse	0		D	
,	,			Z	
et	et	0		J	
tema	tema	0		P	sg g
    	tema	0		P	sg n
juures	juur	s		S	sg in
      	juures	0		D	
      	juures	0		K	
hobbosid	####				
ehk	ehk	0		D	
   	ehk	0		J	
muud	muu	d		P	pl n
    	muu	d		S	pl n
    	muu	d		V	d
    	muu	d		P	sg p
    	muu	d		S	sg p
ellajid	####				
ei	ei	0		D	
  	ei	0		V	neg
ole	ole	0		V	o
seismas	seis	mas		V	mas
olnud	ol=nud	0		A	
     	ol=nud	0		A	sg n
     	ol=nud	d		A	pl n
     	ole	nud		V	nud
     	olnu	d		S	pl n
,	,			Z	
kui	kui	0		D	
   	kui	0		J	
aga	aga	0		J	
ükspäinis	üks_päinis	0		D	
kokkora	kokk_ora	0		S	sg g
       	kokk_ora	0		S	sg n
       	kokk_ora	0		S	sg p
meeste	meene	te		A	pl g
      	mees	te		S	pl g
hobesed	####				
.	.			Z	
Nina	Nina	0		H	sg g
    	Nina	0		H	sg n
    	nina	0		S	sg g
    	nina	0		S	sg n
    	nina	0		S	sg p
küla	küla	0		S	sg g
    	küla	0		S	sg n
    	küla	0		S	sg p
kohtumees	kohtu_mees	0		S	sg n
pani	pan	0		S	adt
    	pani	0		S	sg g
    	pane	i		V	s
    	pan	0		S	sg g
    	pan	0		S	sg p
    	pani	0		S	sg n
selle	see	0		P	sg g
     	sell	e		S	pl p
provi	####				
,	,			Z	
mis	mis	0		P	pl n
   	mis	0		P	sg n
koslohviga	####				
korjanud	korja	nud		V	nud
        	korja=nu	d		S	pl n
        	korja=nud	0		A	
        	korja=nud	0		A	sg n
        	korja=nud	d		A	pl n
kohtu	kohtu	0		V	o
     	kohus	0		S	sg g
lauale	laud	le		S	sg all
ja	ja	0		J	
tunnistas	tunnista	s		V	s
oma	oma	0		A	sg g
   	oma	0		D	
   	oma	0		P	sg g
   	oma	0		S	sg g
   	oma	0		V	o
   	oma	0		A	sg n
   	oma	0		A	sg p
   	oma	0		P	sg n
   	oma	0		P	sg p
   	oma	0		S	sg n
   	oma	0		S	sg p
ammeti	amme=ti	0		D	
vande	vanne	0		S	sg g
peale	pea	le		S	sg all
     	peale	0		D	
     	peale	0		K	
,	,			Z	
et	et	0		J	
proov	proov	0		S	sg n
visiste	####				
see	see	0		P	sg n
samo	####				
on	ole	0		V	b
  	ole	0		V	vad
mis	mis	0		P	pl n
   	mis	0		P	sg n
sai	saa	i		V	s
   	sai	0		S	sg n
korjatud	korja	tud		V	tud
        	korja=tu	d		S	pl n
        	korja=tud	0		A	
        	korja=tud	0		A	sg n
        	korja=tud	d		A	pl n
sealt	sealt	0		D	
     	siga	lt		A	sg abl
     	siga	lt		S	sg abl
kohast	koht	st		S	sg el
      	koha	st		S	sg el
      	kohane	t		A	sg p
kus	kus	0		D	
kokkora	kokk_ora	0		S	sg g
       	kokk_ora	0		S	sg n
       	kokk_ora	0		S	sg p
meeste	meene	te		A	pl g
      	mees	te		S	pl g
hobesed	####				
seisid	seis	id		V	sid
.	.			Z	
_	_			Z	
kohus	kohu	s		V	s
     	kohus	0		S	sg n
kaes	kae	s		S	sg in
    	kae	s		V	s
provi	####				
läbbi	####				
ja	ja	0		J	
leidis	leid	is		V	s
      	leidis	0		S	sg n
et	et	0		J	
jämedaste	####				
tambitud	tampi	tud		V	tud
        	tambi=tu	d		S	pl n
        	tambi=tud	0		A	
        	tambi=tud	0		A	sg n
        	tambi=tud	d		A	pl n
linased	linane	d		A	pl n
on	ole	0		V	b
  	ole	0		V	vad
,	,			Z	
nisugused	####				
kui	kui	0		D	
   	kui	0		J	
aga	aga	0		J	
venelassed	####				
aino	####				
üksi	üksi	0		D	
prukid	####				
kvasi	####				
tarvis	tarvis	0		D	
      	tarvis	0		K	
.	.			Z	
Tõnnis	Tõnn	s		H	sg in
Kusik	kusik	0		S	sg n
ja	ja	0		J	
elias	####				
Vilde	Vilde	0		H	sg g
     	Vilde	0		H	sg n
ei	ei	0		D	
  	ei	0		V	neg
võinud	või	nud		V	nud
      	või=nu	d		S	pl n
      	või=nud	0		A	
      	või=nud	0		A	sg n
      	või=nud	d		A	pl n
valeks	vale	ks		A	sg tr
      	vale	ks		S	sg tr
aiada	####				
et	et	0		J	
hobesid	####				
linastega	linane	tega		A	pl kom
sõtnud	####				
,	,			Z	
ütlesid	ütle	sid		V	sid
aga	aga	0		J	
et	et	0		J	
mitte	mitte	0		D	
ei	ei	0		D	
  	ei	0		V	neg
ole	ole	0		V	o
koslohvi	####				
käest	käest	0		K	
     	käsi	st		S	sg el
neid	neid	0		S	sg n
    	see	d		P	pl p
    	tema	d		P	pl p
varastanud	varasta	nud		V	nud
          	varasta=nu	d		S	pl n
          	varasta=nud	0		A	
          	varasta=nud	0		A	sg n
          	varasta=nud	d		A	pl n
.	.			Z	
et	et	0		J	
kül	####				
mehed	mees	d		S	pl n
vargust	vargus	t		S	sg p
tagasi	tagasi	0		D	
      	tagasi	0		K	
aijad	####				
,	,			Z	
sai	saa	i		V	s
   	sai	0		S	sg n
siiski	siiski	0		D	
selle	see	0		P	sg g
     	sell	e		S	pl p
tunnistuse	tunnistus	0		S	sg g
peale	pea	le		S	sg all
     	peale	0		D	
     	peale	0		K	
moistetud	####				
,	,			Z	
et	et	0		J	
koslohv	####				
varastud	####				
2	2	0		N	?
vakka	vakk	0		S	adt
     	vakk	0		S	sg p
     	vakka	0		D	
linaste	linane	te		A	pl g
eest	eest	0		D	
    	eest	0		K	
    	esi	st		S	sg el
2	2	0		N	?
rubla	rubla	0		S	sg g
     	rubla	0		S	sg n
     	rubla	0		S	sg p
ommale	####				
peab	pida	b		V	b
ning	ning	0		J	
neist	see	st		P	pl el
     	tema	st		P	pl el
3	3	0		N	?
r	r	0		Y	?
88	88	0		N	?
k	k	0		Y	?
h	h	0		Y	?
.	.			Z	
nüüd	nüüd	0		D	
järele	järele	0		D	
      	järele	0		K	
jäänud	jää	nud		V	nud
      	jäänu	d		S	pl n
      	jäänud	0		A	
      	jäänud	0		A	sg n
      	jäänud	d		A	pl n
1	1	0		N	?
r	r	0		Y	?
.	.			Z	
88	88	0		N	?
k	k	0		Y	?
.	.			Z	
kaibajattele	####				
kätte	kätte	0		K	
     	käsi	tte		S	adt
annab	and	b		V	b
.	.			Z	
_	_			Z	
