Krahvihärra	krahvi_härra	0		S	sg g
           	krahvi_härra	0		S	sg n
a.	a	0		Y	?
Igöström	####				
on	ole	0		V	b
  	ole	0		V	vad
üles	üles	0		D	
ütelnud	ütle	nud		V	nud
       	ütel=nu	d		S	pl n
       	ütel=nud	0		A	
       	ütel=nud	0		A	sg n
       	ütel=nud	d		A	pl n
krooni	kroon	0		S	adt
      	kroon	0		S	sg g
      	krooni	0		V	o
      	kroon	0		S	sg p
kõrtsimehele	kõrtsi_mees	le		S	sg all
et	et	0		J	
do	####				
tema	tema	0		P	sg g
    	tema	0		P	sg n
käest	käest	0		K	
     	käsi	st		S	sg el
jüri	####				
päeval	päev	l		S	sg ad
kõrtsi	kõrts	0		S	adt
      	kõrts	0		S	sg g
      	kõrts	0		S	sg p
ära	ära	0		D	
   	ära	0		V	neg o
võttab	####				
.	.			Z	
Johan	Johan	0		H	sg n
Pirna	####				
üles	üles	0		D	
ütelnud	ütle	nud		V	nud
       	ütel=nu	d		S	pl n
       	ütel=nud	0		A	
       	ütel=nud	0		A	sg n
       	ütel=nud	d		A	pl n
on	ole	0		V	b
  	ole	0		V	vad
jaakobi	####				
päeval	päev	l		S	sg ad
,	,			Z	
tolad	tola	d		S	pl n
käest	käest	0		K	
     	käsi	st		S	sg el
ära	ära	0		D	
   	ära	0		V	neg o
enda	ise	0		P	sg g
elama	ela	ma		V	ma
nimetatud	nimeta	tud		V	tud
         	nimetatu	d		S	pl n
         	nimetatud	0		A	
         	nimetatud	0		A	sg n
         	nimetatud	d		A	pl n
peremehed	pere_mees	d		S	pl n
.	.			Z	
1	1	0		N	?
piiri	piir	0		S	adt
     	piir	0		S	sg g
     	piir	0		S	sg p
jaari	####				
Puurson	####				
2	2	0		N	?
pikkamatsi	####				
Jaan	Jaan	0		H	sg n
    	jaan	0		S	sg n
    	jaan	0		Y	?
Kikmann	####				
3	3	0		N	?
Lolmas	####				
Jaan	Jaan	0		H	sg n
    	jaan	0		S	sg n
    	jaan	0		Y	?
mõisas	mõis	s		S	sg in
4	4	0		N	?
Krasti	####				
Jaan	Jaan	0		H	sg n
    	jaan	0		S	sg n
    	jaan	0		Y	?
Nigul	####				
5	5	0		N	?
Remmeli	Remmel	0		H	sg g
Margus	Margus	0		H	sg n
Lõhmus	lõhmus	0		S	sg n
