Aadam	Aadam	0		H	sg n
Adamsoni	Adamson	0		H	adt
        	Adamson	0		H	sg g
        	Adamson	0		H	sg p
kaebduseks	####				
Peedo	####				
Peetersoni	####				
vasta	vasta	0		V	o
,	,			Z	
kahju	kahi	0		S	adt
     	kahi	0		S	sg g
     	kahi	0		S	sg p
     	kahju	0		S	sg g
     	kahju	0		S	sg n
     	kahju	0		S	sg p
tasumise	tasumine	0		S	sg g
pärast	pära	st		S	sg el
      	pärane	t		A	sg p
      	pärast	0		D	
      	pärast	0		K	
,	,			Z	
protokoll	protokoll	0		S	sg n
Nr	Nr	0		Y	?
3	3	0		N	?
,	,			Z	
oli	ole	i		V	s
Peedo	####				
Peeterson	####				
Ilmajärvest	ilma_järv	st		S	sg el
,	,			Z	
ette	ette	0		D	
    	ette	0		K	
    	esi	tte		S	adt
kutsutud	kutsu	tud		V	tud
        	kutsutu	d		S	pl n
        	kutsutud	0		A	
        	kutsutud	0		A	sg n
        	kutsutud	d		A	pl n
kohtu	kohtu	0		V	o
     	kohus	0		S	sg g
mõistust	mõistus	t		S	sg p
kuulma	kuul	ma		V	ma
,	,			Z	
aga	aga	0		J	
on	ole	0		V	b
  	ole	0		V	vad
vabandamata	vabanda	mata		V	mata
           	vabanda=mata	0		A	
välja	välja	0		D	
     	välja	0		V	o
     	väli	0		S	adt
     	väli	0		S	sg g
     	väli	0		S	sg p
jäänud	jää	nud		V	nud
      	jäänu	d		S	pl n
      	jäänud	0		A	
      	jäänud	0		A	sg n
      	jäänud	d		A	pl n
.	.			Z	
