Aavvinurme	####				
kogokonna	####				
kohtus	kohtu	s		V	s
      	kohus	s		S	sg in
sel	see	l		P	sg ad
   	sel	0		Y	?
.	.			Z	
13mal	####				
Aapril	####				
1886.	1886.	0		O	?
Kohtu	kohtu	0		V	o
     	kohus	0		S	sg g
juures	juur	s		S	sg in
      	juures	0		D	
      	juures	0		K	
olid	ole	id		V	sid
.	.			Z	
Vallavanemb	####				
Maddis	####				
Tamm	tamm	0		S	sg n
.	.			Z	
peakohtumees	pea_kohtu_mees	0		S	sg n
Jakob	Jakob	0		H	sg n
Liis	Liis	0		H	sg n
    	Lii	s		H	sg in
teine	teine	0		O	sg n
     	teine	0		P	sg n
kohtumees	kohtu_mees	0		S	sg n
Juhan	Juhan	0		H	sg n
Halik	####				
kolmas	kolmas	0		O	sg n
kohtumees	kohtu_mees	0		S	sg n
Karel	####				
raja	rada	0		S	sg g
    	raja	0		S	sg g
    	raja	0		V	o
    	raja	0		S	sg n
    	raja	0		S	sg p
Selle	see	0		P	sg g
     	sell	e		S	pl p
Valla	vald	0		S	sg g
     	valla	0		D	
peremees	pere_mees	0		S	sg n
Josep	####				
Kasik	####				
astus	astu	s		V	s
kogukonna	kogukond	0		S	sg g
kohtu	kohtu	0		V	o
     	kohus	0		S	sg g
ette	ette	0		D	
    	ette	0		K	
    	esi	tte		S	adt
selle	see	0		P	sg g
     	sell	e		S	pl p
palvega	palve	ga		S	sg kom
et	et	0		J	
tema	tema	0		P	sg g
    	tema	0		P	sg n
ei	ei	0		D	
  	ei	0		V	neg
jõua	jõud	0		V	o
seda	see	da		P	sg p
peret	pere	t		S	sg p
toita	toit	a		V	da
mis	mis	0		P	pl n
   	mis	0		P	sg n
tema	tema	0		P	sg g
    	tema	0		P	sg n
jaust	####				
nende	see	de		P	pl g
     	tema	de		P	pl g
tallo	####				
maade	maa	de		S	pl g
küllest	####				
mis	mis	0		P	pl n
   	mis	0		P	sg n
N	N	0		Y	?
11.	11.	0		O	?
järel	järel	0		D	
     	järel	0		K	
ja	ja	0		J	
4	4	0		N	?
Thaldrid	####				
ja	ja	0		J	
44	44	0		N	?
Grosi	####				
suured	suur	d		A	pl n
üles	üles	0		D	
pida	####				
tuleb	tule	b		V	b
,	,			Z	
ja	ja	0		J	
et	et	0		J	
tema	tema	0		P	sg g
    	tema	0		P	sg n
jo	####				
võlgade	võlg	de		S	pl g
sisse	siss	e		S	pl p
     	sisse	0		D	
     	sisse	0		K	
langenud	lange	nud		V	nud
        	langenu	d		S	pl n
        	langenud	0		A	
        	langenud	0		A	sg n
        	langenud	d		A	pl n
.	.			Z	
ning	ning	0		J	
palus	palu	s		S	sg in
     	palu	s		V	s
et	et	0		J	
kui	kui	0		D	
   	kui	0		J	
kogokonna	####				
kohus	kohu	s		V	s
     	kohus	0		S	sg n
seda	see	da		P	sg p
tema	tema	0		P	sg g
    	tema	0		P	sg n
noorema	noorem	0		C	sg g
venna	vend	0		S	sg g
Jaani	Jaan	0		H	adt
     	Jaan	0		H	sg g
     	Jaani	0		H	sg g
     	jaan	0		S	adt
     	jaan	0		S	sg g
     	Jaan	0		H	sg p
     	Jaani	0		H	sg n
     	jaan	0		S	sg p
kätte	kätte	0		K	
     	käsi	tte		S	adt
annaks	and	ks		V	ks
      	anna	ks		S	sg tr
,	,			Z	
kes	kes	0		P	pl n
   	kes	0		P	sg n
seda	see	da		P	sg p
koormad	koorem	d		S	pl n
       	koorma	d		V	d
lubbab	####				
oma	oma	0		A	sg g
   	oma	0		D	
   	oma	0		P	sg g
   	oma	0		S	sg g
   	oma	0		V	o
   	oma	0		A	sg n
   	oma	0		A	sg p
   	oma	0		P	sg n
   	oma	0		P	sg p
   	oma	0		S	sg n
   	oma	0		S	sg p
peale	pea	le		S	sg all
     	peale	0		D	
     	peale	0		K	
võtta	võt	a		V	da
,	,			Z	
ja	ja	0		J	
muist	muist	0		P	
     	muu	ist		P	pl el
tema	tema	0		P	sg g
    	tema	0		P	sg n
võlgatest	####				
tasuda	tasu	da		V	da
.	.			Z	
Aastus	####				
ette	ette	0		D	
    	ette	0		K	
    	esi	tte		S	adt
Jaan	Jaan	0		H	sg n
    	jaan	0		S	sg n
    	jaan	0		Y	?
Kasik	####				
ja	ja	0		J	
räkis	####				
et	et	0		J	
tema	tema	0		P	sg g
    	tema	0		P	sg n
tahab	taht	b		V	b
need	see	d		P	pl n
tallo	####				
maasid	maa	sid		S	pl p
oma	oma	0		A	sg g
   	oma	0		D	
   	oma	0		P	sg g
   	oma	0		S	sg g
   	oma	0		V	o
   	oma	0		A	sg n
   	oma	0		A	sg p
   	oma	0		P	sg n
   	oma	0		P	sg p
   	oma	0		S	sg n
   	oma	0		S	sg p
venna	vend	0		S	sg g
Josepi	####				
käest	käest	0		K	
     	käsi	st		S	sg el
vasto	####				
võtta	võt	a		V	da
,	,			Z	
keige	####				
pere	pere	0		S	sg g
    	pere	0		S	sg n
ja	ja	0		J	
Maja	maja	0		S	sg g
    	maja	0		S	sg n
    	maja	0		S	sg p
kramiga	####				
ja	ja	0		J	
ka	ka	0		D	
muist	muist	0		P	
     	muu	ist		P	pl el
tema	tema	0		P	sg g
    	tema	0		P	sg n
võlgasid	võlg	sid		S	pl p
tasuda	tasu	da		V	da
aidata	ait	ta		S	sg ab
      	aita	ta		V	da
      	aita	ta		V	ta
,	,			Z	
ning	ning	0		J	
peale	pea	le		S	sg all
     	peale	0		D	
     	peale	0		K	
kauba	kaup	0		S	sg g
igalt	iga	lt		P	sg abl
väljalt	väli	lt		S	sg abl
temale	tema	le		P	sg all
ühe	üks	0		N	sg g
   	üks	0		P	sg g
   	ühe	0		S	sg n
vakka	vakk	0		S	adt
     	vakk	0		S	sg p
     	vakka	0		D	
alla	alla	0		D	
    	alla	0		K	
põllu	põld	0		S	sg g
maad	maa	d		S	pl n
    	maa	d		S	sg p
,	,			Z	
ja	ja	0		J	
kaks	kaks	0		N	sg n
heinamaad	heina_maa	d		S	pl n
         	heina_maa	d		S	sg p
anda	and	a		V	da
ni	####				
kaua	kaua	0		D	
kui	kui	0		D	
   	kui	0		J	
tema	tema	0		P	sg g
    	tema	0		P	sg n
kui	kui	0		D	
   	kui	0		J	
pere	pere	0		S	sg g
    	pere	0		S	sg n
mees	mees	0		S	sg n
    	mesi	s		S	sg in
nende	see	de		P	pl g
     	tema	de		P	pl g
maade	maa	de		S	pl g
peal	pea	l		S	sg ad
    	peal	0		D	
    	peal	0		K	
voib	####				
elada	ela	da		V	da
.	.			Z	
Josep	####				
Kasik	####				
lubbas	####				
oma	oma	0		A	sg g
   	oma	0		D	
   	oma	0		P	sg g
   	oma	0		S	sg g
   	oma	0		V	o
   	oma	0		A	sg n
   	oma	0		A	sg p
   	oma	0		P	sg n
   	oma	0		P	sg p
   	oma	0		S	sg n
   	oma	0		S	sg p
vennale	vend	le		S	sg all
selle	see	0		P	sg g
     	sell	e		S	pl p
eest	eest	0		D	
    	eest	0		K	
    	esi	st		S	sg el
Aaastas	####				
5	5	0		N	?
rubla	rubla	0		S	sg g
     	rubla	0		S	sg n
     	rubla	0		S	sg p
renti	rent	0		S	adt
     	rent	0		S	sg p
ja	ja	0		J	
pool	pool	0		K	
    	pool	0		N	sg n
    	pool	0		S	sg n
teetego	####				
aidata	ait	ta		S	sg ab
      	aita	ta		V	da
      	aita	ta		V	ta
teha	tege	a		V	da
.	.			Z	
Moistis	####				
kogukonna	kogukond	0		S	sg g
kohus	kohu	s		V	s
     	kohus	0		S	sg n
et	et	0		J	
Josep	####				
Kasik	####				
peab	pida	b		V	b
oma	oma	0		A	sg g
   	oma	0		D	
   	oma	0		P	sg g
   	oma	0		S	sg g
   	oma	0		V	o
   	oma	0		A	sg n
   	oma	0		A	sg p
   	oma	0		P	sg n
   	oma	0		P	sg p
   	oma	0		S	sg n
   	oma	0		S	sg p
venna	vend	0		S	sg g
Jani	Jan	0		H	adt
    	Jan	0		H	sg g
    	Jan	0		H	sg p
kätte	kätte	0		K	
     	käsi	tte		S	adt
kõik	kõik	0		P	pl n
    	kõik	0		S	sg n
    	kõik	0		P	sg n
Maja	maja	0		S	sg g
    	maja	0		S	sg n
    	maja	0		S	sg p
kraam	kraam	0		S	sg n
ning	ning	0		J	
nende	see	de		P	pl g
     	tema	de		P	pl g
noorema	noorem	0		C	sg g
vendade	vend	de		S	pl g
osa	osa	0		S	sg g
   	osa	0		S	sg n
   	osa	0		S	sg p
,	,			Z	
miska	####				
tema	tema	0		P	sg g
    	tema	0		P	sg n
seda	see	da		P	sg p
tallo	####				
oma	oma	0		A	sg g
   	oma	0		D	
   	oma	0		P	sg g
   	oma	0		S	sg g
   	oma	0		V	o
   	oma	0		A	sg n
   	oma	0		A	sg p
   	oma	0		P	sg n
   	oma	0		P	sg p
   	oma	0		S	sg n
   	oma	0		S	sg p
kätte	kätte	0		K	
     	käsi	tte		S	adt
oli	ole	i		V	s
saanud	saa	nud		V	nud
      	saa=nud	0		A	
      	saa=nud	0		A	sg n
      	saa=nud	d		A	pl n
      	saanu	d		S	pl n
tervelt	tervelt	0		D	
       	terve	lt		A	sg abl
       	terve	lt		S	sg abl
tagasi	tagasi	0		D	
      	tagasi	0		K	
andma	and	ma		V	ma
ning	ning	0		J	
et	et	0		J	
Josep	####				
Kasik	####				
muist	muist	0		P	
     	muu	ist		P	pl el
Magasi	magas	0		S	sg g
võlga	võlg	0		S	adt
     	võlg	0		S	sg p
peab	pida	b		V	b
isi	####				
tasuma	tasu	ma		V	ma
,	,			Z	
mis	mis	0		P	pl n
   	mis	0		P	sg n
ta	tema	0		P	sg g
  	tema	0		P	sg n
sel	see	l		P	sg ad
   	sel	0		Y	?
ajal	aeg	l		S	sg ad
    	ajal	0		K	
oli	ole	i		V	s
teinud	tege	nud		V	nud
      	tei=nud	0		A	
      	tei=nud	0		A	sg n
      	tei=nud	d		A	pl n
      	teinu	d		S	pl n
kui	kui	0		D	
   	kui	0		J	
tema	tema	0		P	sg g
    	tema	0		P	sg n
peremees	pere_mees	0		S	sg n
oli	ole	i		V	s
Mis	mis	0		P	pl n
   	mis	0		P	sg n
tunnistad	tunnista	d		V	d
kohtumehed	kohtu_mees	d		S	pl n
.	.			Z	
Jakob	Jakob	0		H	sg n
Liis	Liis	0		H	sg n
    	Lii	s		H	sg in
XXX	XXX	0		O	?
   	XXX	0		Y	?
Juhan	Juhan	0		H	sg n
Halik	####				
XXX	XXX	0		O	?
   	XXX	0		Y	?
Karel	####				
raja	rada	0		S	sg g
    	raja	0		S	sg g
    	raja	0		V	o
    	raja	0		S	sg n
    	raja	0		S	sg p
XXX	XXX	0		O	?
   	XXX	0		Y	?
