Aastusid	####				
ette	ette	0		D	
    	ette	0		K	
    	esi	tte		S	adt
ja	ja	0		J	
palusid	palu	sid		S	pl p
       	palu	sid		V	sid
Tartu	Tartu	0		H	adt
     	Tartu	0		H	sg g
     	Tartu	0		H	sg n
     	tartu	0		G	
ja	ja	0		J	
Paide	Paide	0		H	adt
     	pai	de		A	pl g
     	pai	de		S	pl g
     	Paide	0		H	sg g
     	Paide	0		H	sg n
Lina	lina	0		S	sg g
    	lina	0		S	sg n
    	lina	0		S	sg p
Priid	prii	d		A	pl n
     	prii	d		A	sg p
et	et	0		J	
nad	tema	d		P	pl n
Aavvinurme	####				
hing	hing	0		S	sg n
kirja	kirja	0		A	
     	kirja	0		V	o
     	kiri	0		S	adt
     	kiri	0		S	sg g
     	kiri	0		S	sg p
revisoni	####				
üles	üles	0		D	
võtta	võt	a		V	da
ja	ja	0		J	
lubasid	luba	sid		S	pl p
       	luba	sid		V	sid
kogokonna	####				
vasto	####				
esimise	####				
Nekruti	nekrut	0		S	sg g
andmise	andmine	0		S	sg g
ajal	aeg	l		S	sg ad
    	ajal	0		K	
iga	iga	0		P	sg g
   	iga	0		P	sg n
   	iga	0		P	sg p
   	iga	0		S	sg n
   	iga	0		S	sg p
nelja	neli	0		N	adt
     	neli	0		N	sg g
     	neli	0		N	sg p
mehe	mees	0		S	sg g
pealt	pea	lt		S	sg abl
     	pealt	0		D	
     	pealt	0		K	
üks	üks	0		N	sg n
   	üks	0		P	sg n
Nekrut	nekrut	0		S	sg n
välja	välja	0		D	
     	välja	0		V	o
     	väli	0		S	adt
     	väli	0		S	sg g
     	väli	0		S	sg p
anda	and	a		V	da
need	see	d		P	pl n
noremad	####				
ja	ja	0		J	
need	see	d		P	pl n
vanad	vana	d		A	pl n
     	vana	d		S	pl n
kaurila	####				
Sanin	####				
Fro	####				
Aahvanasi	####				
Vasili	####				
Ivanov	Ivanov	0		H	sg n
Jojoon	####				
Vasili	####				
Jegor	####				
Jakolev	####				
need	see	d		P	pl n
nimetud	nimetu	d		A	pl n
vanemad	vanem	d		C	pl n
       	vanem	d		S	pl n
annad	and	d		V	d
     	anna	d		S	pl n
kae	kae	0		I	
   	kae	0		S	sg g
   	kae	0		V	o
   	kae	0		S	sg n
mehe	mees	0		S	sg g
pealt	pea	lt		S	sg abl
     	pealt	0		D	
     	pealt	0		K	
üks	üks	0		N	sg n
   	üks	0		P	sg n
mees	mees	0		S	sg n
    	mesi	s		S	sg in
essimis	####				
Nekruti	nekrut	0		S	sg g
andmise	andmine	0		S	sg g
ajal	aeg	l		S	sg ad
    	ajal	0		K	
välja	välja	0		D	
     	välja	0		V	o
     	väli	0		S	adt
     	väli	0		S	sg g
     	väli	0		S	sg p
ja	ja	0		J	
lubasid	luba	sid		S	pl p
       	luba	sid		V	sid
ja	ja	0		J	
tutasid	####				
kõik	kõik	0		P	pl n
    	kõik	0		S	sg n
    	kõik	0		P	sg n
maksa	maks	0		S	adt
     	maks	0		S	sg g
     	maks	0		V	o
     	maks	0		S	sg p
mis	mis	0		P	pl n
   	mis	0		P	sg n
kogokonna	####				
hingede	hing	de		S	pl g
pealt	pea	lt		S	sg abl
     	pealt	0		D	
     	pealt	0		K	
Säduse	####				
järele	järele	0		D	
      	järele	0		K	
tuleb	tule	b		V	b
maksa	maks	0		S	adt
     	maks	0		S	sg g
     	maks	0		V	o
     	maks	0		S	sg p
neie	####				
nimed	nimi	d		S	pl n
on	ole	0		V	b
  	ole	0		V	vad
Levont	####				
Jacovlev	####				
korpov	####				
Sergei	Sergei	0		H	sg g
      	Sergei	0		H	sg n
Jacovlev	####				
korpov	####				
,	,			Z	
Aandrei	####				
Gavrilov	####				
Schani	####				
,	,			Z	
Ivan	Ivan	0		H	sg n
Gavrilov	####				
Schani	####				
,	,			Z	
Michaele	####				
Gavrilov	####				
Schani	####				
,	,			Z	
Nicolai	####				
Gavrilov	####				
Schani	####				
,	,			Z	
Aleksei	Aleksei	0		H	sg g
       	Aleksei	0		H	sg n
Frolov	####				
,	,			Z	
Nicolai	####				
Frolov	####				
Michaile	####				
Frolov	####				
,	,			Z	
Pavel	Pavel	0		H	sg n
Frolov	####				
,	,			Z	
Ivan	Ivan	0		H	sg n
Frolov	####				
,	,			Z	
Michaile	####				
Vasiljev	####				
,	,			Z	
Jefim	####				
Jonov	####				
,	,			Z	
Aantp	####				
Jonov	####				
,	,			Z	
Ilja	Ilja	0		H	sg g
    	Ilja	0		H	sg n
Jonov	####				
Michaile	####				
Jonov	####				
,	,			Z	
Mikifer	####				
Jonov	####				
,	,			Z	
Martin	Martin	0		H	sg n
Grigori	Grigori	0		H	sg g
       	Grigori	0		H	sg n
Vasili	####				
Martinov	####				
käemees	käe_mees	0		S	sg n
Kresjan	####				
Trelin	####				
XXX	XXX	0		O	?
   	XXX	0		Y	?
Lemeljan	####				
Gusev	####				
XXX	XXX	0		O	?
   	XXX	0		Y	?
