Krimanni	####				
kogukonna	kogukond	0		S	sg g
kohtus	kohtu	s		V	s
      	kohus	s		S	sg in
3	3	0		N	?
Apr.	Apr	0		Y	?
1870.	1870.	0		O	?
Johan	Johan	0		H	sg n
kuuse	kuune	0		A	sg g
     	kuusk	0		S	sg g
tuli	tuli	0		S	sg n
    	tule	i		V	s
ette	ette	0		D	
    	ette	0		K	
    	esi	tte		S	adt
ja	ja	0		J	
kaebas	kaeba	s		V	s
et	et	0		J	
mina	mina	0		P	sg n
    	mina	0		S	sg g
    	mina	0		S	sg n
    	mina	0		S	sg p
olen	ole	n		V	n
Mihkel	Mihkel	0		H	sg n
      	mihkel	0		A	sg n
      	mihkel	0		S	sg n
kärikkule	####				
emis	emis	0		S	sg n
siga	siga	0		A	sg n
    	siga	0		A	sg p
    	siga	0		S	sg n
    	siga	0		S	sg p
7	7	0		N	?
pojaga	poeg	ga		S	sg kom
      	poja	ga		S	sg kom
müinud	####				
7	7	0		N	?
rubla	rubla	0		S	sg g
     	rubla	0		S	sg n
     	rubla	0		S	sg p
eest	eest	0		D	
    	eest	0		K	
    	esi	st		S	sg el
ja	ja	0		J	
olin	ole	in		V	sin
3	3	0		N	?
rubla	rubla	0		S	sg g
     	rubla	0		S	sg n
     	rubla	0		S	sg p
kätte	kätte	0		K	
     	käsi	tte		S	adt
saanud	saa	nud		V	nud
      	saa=nud	0		A	
      	saa=nud	0		A	sg n
      	saa=nud	d		A	pl n
      	saanu	d		S	pl n
ja	ja	0		J	
4	4	0		N	?
rubla	rubla	0		S	sg g
     	rubla	0		S	sg n
     	rubla	0		S	sg p
pidi	pida	i		V	s
    	pidi	0		K	
tema	tema	0		P	sg g
    	tema	0		P	sg n
ka	ka	0		D	
mineva	minev	0		A	sg g
Jüripäevast	jüri_päev	st		S	sg el
ära	ära	0		D	
   	ära	0		V	neg o
maksma	maks	ma		V	ma
ja	ja	0		J	
palus	palu	s		S	sg in
     	palu	s		V	s
et	et	0		J	
nüüd	nüüd	0		D	
see	see	0		P	sg n
raha	raha	0		S	sg g
    	raha	0		S	sg n
    	raha	0		S	sg p
tema	tema	0		P	sg g
    	tema	0		P	sg n
käest	käest	0		K	
     	käsi	st		S	sg el
kätte	kätte	0		K	
     	käsi	tte		S	adt
saan	saa	n		V	n
    	saan	0		S	sg n
.	.			Z	
Mihkel	Mihkel	0		H	sg n
      	mihkel	0		A	sg n
      	mihkel	0		S	sg n
kärik	####				
tuli	tuli	0		S	sg n
    	tule	i		V	s
ette	ette	0		D	
    	ette	0		K	
    	esi	tte		S	adt
ja	ja	0		J	
ütles	ütle	s		V	s
:	:			Z	
et	et	0		J	
mina	mina	0		P	sg n
    	mina	0		S	sg g
    	mina	0		S	sg n
    	mina	0		S	sg p
olin	ole	in		V	sin
küll	küll	0		D	
    	küll	0		S	sg n
7	7	0		N	?
rubla	rubla	0		S	sg g
     	rubla	0		S	sg n
     	rubla	0		S	sg p
eest	eest	0		D	
    	eest	0		K	
    	esi	st		S	sg el
see	see	0		P	sg n
emis	emis	0		S	sg n
9	9	0		N	?
pojaga	poeg	ga		S	sg kom
      	poja	ga		S	sg kom
ostnud	ost	nud		V	nud
      	ost=nu	d		S	pl n
      	ost=nud	0		A	
      	ost=nud	0		A	sg n
      	ost=nud	d		A	pl n
ja	ja	0		J	
andsin	and	sin		V	sin
3	3	0		N	?
rublad	rubla	d		S	pl n
kätte	kätte	0		K	
     	käsi	tte		S	adt
ja	ja	0		J	
kui	kui	0		D	
   	kui	0		J	
enda	ise	0		P	sg g
Äia	äi	0		S	adt
   	äi	0		S	sg g
   	äi	0		S	sg p
see	see	0		P	sg n
emisele	emis	le		S	sg all
perra	####				
saaksin	saa	ksin		V	ksin
oli	ole	i		V	s
ta	tema	0		P	sg g
  	tema	0		P	sg n
2	2	0		N	?
põrsast	põrsas	st		S	sg el
       	põrsas	t		S	sg p
mitte	mitte	0		D	
annud	####				
ja	ja	0		J	
selle	see	0		P	sg g
     	sell	e		S	pl p
2	2	0		N	?
põrsa	põrsas	0		S	sg g
eest	eest	0		D	
    	eest	0		K	
    	esi	st		S	sg el
pean	pida	n		V	n
mina	mina	0		P	sg n
    	mina	0		S	sg g
    	mina	0		S	sg n
    	mina	0		S	sg p
kinni	kinni	0		D	
2	2	0		N	?
rublad	rubla	d		S	pl n
ja	ja	0		J	
see	see	0		P	sg n
emis	emis	0		S	sg n
oli	ole	i		V	s
marjas	mari	s		S	sg in
      	marjas	0		S	sg n
ja	ja	0		J	
suri	sure	i		V	s
peale	pea	le		S	sg all
     	peale	0		D	
     	peale	0		K	
see	see	0		P	sg n
4	4	0		N	?
nädala	nädal	0		S	sg g
tagant	tagant	0		D	
      	tagant	0		K	
ära	ära	0		D	
   	ära	0		V	neg o
kui	kui	0		D	
   	kui	0		J	
tema	tema	0		P	sg g
    	tema	0		P	sg n
käest	käest	0		K	
     	käsi	st		S	sg el
tõin	too	in		V	sin
.	.			Z	
Johan	Johan	0		H	sg n
kuuse	kuune	0		A	sg g
     	kuusk	0		S	sg g
tuli	tuli	0		S	sg n
    	tule	i		V	s
ette	ette	0		D	
    	ette	0		K	
    	esi	tte		S	adt
ja	ja	0		J	
ütles	ütle	s		V	s
:	:			Z	
siis	siis	0		D	
    	siis	0		J	
oli	ole	i		V	s
küll	küll	0		D	
    	küll	0		S	sg n
9	9	0		N	?
põrsast	põrsas	st		S	sg el
       	põrsas	t		S	sg p
kui	kui	0		D	
   	kui	0		J	
ma	mina	0		P	sg n
kaupa	kaup	0		S	adt
     	kaup	0		S	sg p
     	kaupa	0		K	
tegin	tege	in		V	sin
ja	ja	0		J	
ära	ära	0		D	
   	ära	0		V	neg o
müisin	####				
aga	aga	0		J	
2	2	0		N	?
põrsast	põrsas	st		S	sg el
       	põrsas	t		S	sg p
lõppisivad	####				
ära	ära	0		D	
   	ära	0		V	neg o
ja	ja	0		J	
kust	kusi	t		S	sg p
    	kust	0		D	
ma	mina	0		P	sg n
siis	siis	0		D	
    	siis	0		J	
enam	enam	0		C	sg n
    	enam	0		D	
temale	tema	le		P	sg all
9	9	0		N	?
põrsast	põrsas	st		S	sg el
       	põrsas	t		S	sg p
sain	saa	in		V	sin
anda	and	a		V	da
,	,			Z	
ja	ja	0		J	
siis	siis	0		D	
    	siis	0		J	
oli	ole	i		V	s
vana	vana	0		A	sg g
    	vana	0		A	sg n
    	vana	0		A	sg p
    	vana	0		S	sg g
    	vana	0		S	sg n
    	vana	0		S	sg p
siga	siga	0		A	sg n
    	siga	0		A	sg p
    	siga	0		S	sg n
    	siga	0		S	sg p
terve	terve	0		A	sg g
     	terve	0		A	sg n
     	terve	0		S	sg g
     	terve	0		S	sg n
kui	kui	0		D	
   	kui	0		J	
temale	tema	le		P	sg all
müisin	####				
.	.			Z	
mõistus	mõistus	0		S	sg n
:	:			Z	
3	3	0		N	?
Aprilil	####				
1870	1870	0		N	?
kogukonna	kogukond	0		S	sg g
kohus	kohu	s		V	s
     	kohus	0		S	sg n
mõistis	mõist	is		V	s
et	et	0		J	
Johan	Johan	0		H	sg n
kuuse	kuune	0		A	sg g
     	kuusk	0		S	sg g
peab	pida	b		V	b
nende	see	de		P	pl g
     	tema	de		P	pl g
2	2	0		N	?
põrsa	põrsas	0		S	sg g
eest	eest	0		D	
    	eest	0		K	
    	esi	st		S	sg el
1	1	0		N	?
rubla	rubla	0		S	sg g
     	rubla	0		S	sg n
     	rubla	0		S	sg p
kaotama	kaota	ma		V	ma
       	kadu	tama		V	tama
ja	ja	0		J	
Mihkel	Mihkel	0		H	sg n
      	mihkel	0		A	sg n
      	mihkel	0		S	sg n
kärik	####				
peab	pida	b		V	b
2	2	0		N	?
nädala	nädal	0		S	sg g
aja	aeg	0		S	sg g
   	aja	0		V	o
sees	sees	0		D	
    	sees	0		K	
see	see	0		P	sg n
3	3	0		N	?
rublad	rubla	d		S	pl n
Johan	Johan	0		H	sg n
kuusele	kuune	le		A	sg all
       	kuusk	le		S	sg all
ära	ära	0		D	
   	ära	0		V	neg o
maksma	maks	ma		V	ma
.	.			Z	
kohtu	kohtu	0		V	o
     	kohus	0		S	sg g
lauas	laud	s		S	sg in
olid	ole	id		V	sid
:	:			Z	
peakohtumees	pea_kohtu_mees	0		S	sg n
:	:			Z	
Jüri	Jüri	0		H	sg g
    	Jüri	0		H	sg n
Braili	####				
XXX	XXX	0		O	?
   	XXX	0		Y	?
abikohtumees	abi_kohtu_mees	0		S	sg n
Villem	Villem	0		H	sg n
Steinberg	####				
XXX	XXX	0		O	?
   	XXX	0		Y	?
kirjutaja	kirjutaja	0		S	sg g
         	kirjutaja	0		S	sg n
asemel	ase	l		S	sg ad
      	asemel	0		K	
M. Paumann	####				
/	/			Z	
allkiri	all_kiri	0		S	sg n
/	/			Z	
