sel	see	l		P	sg ad
   	sel	0		Y	?
30	30	0		N	?
Januaril	####				
1889.	1889.	0		O	?
Daniel	Daniel	0		H	sg n
Luha	luht	0		S	sg g
kaebas	kaeba	s		V	s
,	,			Z	
et	et	0		J	
peremees	pere_mees	0		S	sg n
Eduard	Eduard	0		H	sg n
Laber	####				
teda	tema	da		P	sg p
mineva	minev	0		A	sg g
astu	astu	0		V	o
2	2	0		N	?
kuud	kuu	d		S	pl n
    	kuu	d		S	sg p
enne	enne	0		D	
    	enne	0		K	
    	enne	0		S	sg n
aega	aeg	0		S	adt
    	aeg	0		S	sg p
    	aega	0		K	
teenistuseks	teenistus	ks		S	sg tr
ära	ära	0		D	
   	ära	0		V	neg o
on	ole	0		V	b
  	ole	0		V	vad
ajanud	aja	nud		V	nud
      	aja=nu	d		S	pl n
      	aja=nud	0		A	
      	aja=nud	0		A	sg n
      	aja=nud	d		A	pl n
,	,			Z	
palka	palk	0		S	adt
     	palka	0		V	o
     	palk	0		S	sg p
selle	see	0		P	sg g
     	sell	e		S	pl p
aja	aeg	0		S	sg g
   	aja	0		V	o
eest	eest	0		D	
    	eest	0		K	
    	esi	st		S	sg el
on	ole	0		V	b
  	ole	0		V	vad
tema	tema	0		P	sg g
    	tema	0		P	sg n
kohtu	kohtu	0		V	o
     	kohus	0		S	sg g
mõistuse	mõistus	0		S	sg g
perra	####				
kätte	kätte	0		K	
     	käsi	tte		S	adt
saanud	saa	nud		V	nud
      	saa=nud	0		A	
      	saa=nud	0		A	sg n
      	saa=nud	d		A	pl n
      	saanu	d		S	pl n
,	,			Z	
ent	ent	0		J	
tema	tema	0		P	sg g
    	tema	0		P	sg n
on	ole	0		V	b
  	ole	0		V	vad
selle	see	0		P	sg g
     	sell	e		S	pl p
2	2	0		N	?
kuu	kuu	0		S	sg g
   	kuu	0		S	sg n
sees	sees	0		D	
    	sees	0		K	
15	15	0		N	?
rubl	####				
ära	ära	0		D	
   	ära	0		V	neg o
söönud	söö	nud		V	nud
      	söönu	d		S	pl n
      	söönud	0		A	
      	söönud	0		A	sg n
      	söönud	d		A	pl n
ja	ja	0		J	
nõuab	nõud	b		V	b
nüüd	nüüd	0		D	
seda	see	da		P	sg p
Eduard	Eduard	0		H	sg n
Laberi	####				
käest	käest	0		K	
     	käsi	st		S	sg el
.	.			Z	
Eduard	Eduard	0		H	sg n
Laber	####				
vastutas	vastuta	s		V	s
selle	see	0		P	sg g
     	sell	e		S	pl p
pale	pale	0		S	sg g
    	pale	0		S	sg n
,	,			Z	
et	et	0		J	
tema	tema	0		P	sg g
    	tema	0		P	sg n
seda	see	da		P	sg p
raha	raha	0		S	sg g
    	raha	0		S	sg n
    	raha	0		S	sg p
ei	ei	0		D	
  	ei	0		V	neg
maksta	maks	ta		V	da
      	maks	ta		V	ta
,	,			Z	
sest	see	st		P	sg el
    	sest	0		J	
tema	tema	0		P	sg g
    	tema	0		P	sg n
kutsunud	kutsu	nud		V	nud
        	kutsu=nu	d		S	pl n
        	kutsu=nud	0		A	
        	kutsu=nud	0		A	sg n
        	kutsu=nud	d		A	pl n
Daniel	Daniel	0		H	sg n
Luha	luht	0		S	sg g
mitu	mitu	0		P	sg n
kõrd	####				
tööle	töö	le		S	sg all
ent	ent	0		J	
see	see	0		P	sg n
ei	ei	0		D	
  	ei	0		V	neg
ole	ole	0		V	o
tulnud	tul=nud	0		A	
      	tul=nud	0		A	sg n
      	tul=nud	d		A	pl n
      	tule	nud		V	nud
      	tulnu	d		S	pl n
.	.			Z	
Mõistetud	mõist	tud		V	tud
         	mõiste=tu	d		S	pl n
         	mõiste=tud	0		A	
         	mõiste=tud	0		A	sg n
         	mõiste=tud	d		A	pl n
:	:			Z	
et	et	0		J	
Daniel	Daniel	0		H	sg n
Luha	luht	0		S	sg g
nõudmise	nõudmine	0		S	sg g
kaebus	kaebus	0		S	sg n
vastu	vastu	0		D	
     	vastu	0		K	
Eduard	Eduard	0		H	sg n
Laber	####				
tühjaks	tühi	ks		A	sg tr
on	ole	0		V	b
  	ole	0		V	vad
mõista	mõist	0		V	o
      	mõist	a		V	da
,	,			Z	
selle	see	0		P	sg g
     	sell	e		S	pl p
et	et	0		J	
see	see	0		P	sg n
asi	asi	0		S	sg n
   	asi	0		V	o
jubba	####				
keiserliku	keiserlik	0		A	sg g
Kihelkonna	Kihelkonna	0		H	sg g
          	kihelkond	0		S	sg g
          	Kihelkonna	0		H	sg n
kohtu	kohtu	0		V	o
     	kohus	0		S	sg g
ees	ees	0		D	
   	ees	0		K	
   	esi	s		S	sg in
ära	ära	0		D	
   	ära	0		V	neg o
on	ole	0		V	b
  	ole	0		V	vad
mõistetud	mõist	tud		V	tud
         	mõiste=tu	d		S	pl n
         	mõiste=tud	0		A	
         	mõiste=tud	0		A	sg n
         	mõiste=tud	d		A	pl n
.	.			Z	
see	see	0		P	sg n
mõistus	mõistus	0		S	sg n
sai	saa	i		V	s
   	sai	0		S	sg n
§	§	0		Y	?
773	773	0		N	?
ja	ja	0		J	
774	774	0		N	?
perra	####				
kuulutatud	kuuluta	tud		V	tud
          	kuuluta=tu	d		S	pl n
          	kuuluta=tud	0		A	
          	kuuluta=tud	0		A	sg n
          	kuuluta=tud	d		A	pl n
ja	ja	0		J	
õpetud	####				
leht	leht	0		S	sg n
välja	välja	0		D	
     	välja	0		V	o
     	väli	0		S	adt
     	väli	0		S	sg g
     	väli	0		S	sg p
antud	an=tu	d		S	pl n
     	and	tud		V	tud
     	antud	0		A	
     	antud	0		A	sg n
     	antud	d		A	pl n
.	.			Z	
peakohtumees	pea_kohtu_mees	0		S	sg n
:	:			Z	
Jaan	Jaan	0		H	sg n
    	jaan	0		S	sg n
    	jaan	0		Y	?
Virro	####				
XXX	XXX	0		O	?
   	XXX	0		Y	?
kohtumees	kohtu_mees	0		S	sg n
:	:			Z	
Jaan	Jaan	0		H	sg n
    	jaan	0		S	sg n
    	jaan	0		Y	?
pruuks	####				
/	/			Z	
allkiri	all_kiri	0		S	sg n
/	/			Z	
""""	""""			Z	
Jakob	Jakob	0		H	sg n
saks	saks	0		S	sg n
/	/			Z	
allkiri	all_kiri	0		S	sg n
/	/			Z	
""""	""""			Z	
Jaan	Jaan	0		H	sg n
    	jaan	0		S	sg n
    	jaan	0		Y	?
Treial	treial	0		S	sg n
/	/			Z	
allkiri	all_kiri	0		S	sg n
/	/			Z	
