selle	see	0		P	sg g
     	sell	e		S	pl p
ärakoolu	ära_koold	0		S	sg g
Sisaski	####				
talu	talu	0		S	sg g
    	talu	0		V	o
    	talu	0		S	sg n
    	talu	0		S	sg p
peremehe	pere_mees	0		S	sg g
Jüri	Jüri	0		H	sg g
    	Jüri	0		H	sg n
Kroomanni	kroom_and	0		S	sg g
varandus	varandus	0		S	sg n
on	ole	0		V	b
  	ole	0		V	vad
ülepeas	üle_pea	s		S	sg in
suur	suur	0		A	sg n
(	(			Z	
käi	käi	0		S	sg n
   	käi	0		V	o
protokoll	protokoll	0		S	sg n
s	s	0		Y	?
.	.			Z	
s	s	0		Y	?
.	.			Z	
15	15	0		N	?
Novembrist	november	st		S	sg el
1868	1868	0		N	?
No	no	0		I	
253	253	0		N	?
-	-			Z	
250	250	0		N	?
rub	####				
.	.			Z	
60	60	0		N	?
kop	kop	0		Y	?
.	.			Z	
Tost	too	st		P	sg el
varandusest	varandus	st		S	sg el
läheb	mine	b		V	b
aga	aga	0		J	
maha	maha	0		D	
:	:			Z	
1.	1.	0		O	?
,	,			Z	
Jaan	Jaan	0		H	sg n
    	jaan	0		S	sg n
    	jaan	0		Y	?
otsale	ots	le		S	sg all
1	1	0		N	?
ärg	####				
25	25	0		N	?
rub	####				
.	.			Z	
2.	2.	0		O	?
,	,			Z	
Jaan	Jaan	0		H	sg n
    	jaan	0		S	sg n
    	jaan	0		Y	?
otsale	ots	le		S	sg all
3	3	0		N	?
vak	####				
tatrik	####				
4	4	0		N	?
rub	####				
.	.			Z	
50	50	0		N	?
kop	kop	0		Y	?
.	.			Z	
3.	3.	0		O	?
,	,			Z	
pearaha	pea_raha	0		S	sg g
       	pea_raha	0		S	sg n
       	pea_raha	0		S	sg p
8	8	0		N	?
rub	####				
.	.			Z	
90	90	0		N	?
kop	kop	0		Y	?
.	.			Z	
4.	4.	0		O	?
,	,			Z	
sulaste	sulane	te		S	pl g
palk	palk	0		S	sg n
22	22	0		N	?
rub	####				
.	.			Z	
5.	5.	0		O	?
,	,			Z	
Ann	Ann	0		H	sg n
Kroomanil	####				
1	1	0		N	?
lehm	lehm	0		S	sg n
10	10	0		N	?
rub	####				
.	.			Z	
6.	6.	0		O	?
,	,			Z	
Ann	Ann	0		H	sg n
Kroomannil	kroom_and	l		S	sg ad
1	1	0		N	?
lammas	lammas	0		S	sg n
2	2	0		N	?
rub	####				
.	.			Z	
ning	ning	0		J	
jääb	jää	b		V	b
siis	siis	0		D	
    	siis	0		J	
veel	veel	0		D	
    	vesi	l		S	sg ad
varandus	varandus	0		S	sg n
perra	####				
178	178	0		N	?
rub	####				
.	.			Z	
28	28	0		N	?
kop	kop	0		Y	?
.	.			Z	
selle	see	0		P	sg g
     	sell	e		S	pl p
varanduse	varandus	0		S	sg g
pärandaja	päranda=ja	0		S	sg g
         	päranda=ja	0		S	sg n
omad	oma	d		A	pl n
    	oma	d		P	pl n
    	oma	d		S	pl n
    	oma	d		V	d
:	:			Z	
1.	1.	0		O	?
,	,			Z	
Liis	Liis	0		H	sg n
    	Lii	s		H	sg in
Klauses	####				
,	,			Z	
Jüri	Jüri	0		H	sg g
    	Jüri	0		H	sg n
Kroomanni	kroom_and	0		S	sg g
lesk	lesk	0		S	sg n
saab	saa	b		V	b
44	44	0		N	?
rub	####				
.	.			Z	
55	55	0		N	?
kop	kop	0		Y	?
.	.			Z	
2.	2.	0		O	?
,	,			Z	
tema	tema	0		P	sg g
    	tema	0		P	sg n
poeg	poeg	0		S	sg n
Karl	Karl	0		H	sg n
Kroomann	####				
saab	saa	b		V	b
44	44	0		N	?
rub	####				
.	.			Z	
55	55	0		N	?
kop	kop	0		Y	?
.	.			Z	
3.	3.	0		O	?
,	,			Z	
tema	tema	0		P	sg g
    	tema	0		P	sg n
tütar	tütar	0		S	sg n
Leena	Lee	na		H	sg es
     	Leena	0		H	sg g
     	Leena	0		H	sg n
Kroomann	####				
saab	saa	b		V	b
44	44	0		N	?
rub	####				
.	.			Z	
55	55	0		N	?
kop	kop	0		Y	?
.	.			Z	
4.	4.	0		O	?
,	,			Z	
tema	tema	0		P	sg g
    	tema	0		P	sg n
tütar	tütar	0		S	sg n
Anna	and	0		V	o
    	Anna	0		H	sg g
    	Anna	0		H	sg n
    	anna	0		S	sg g
    	anna	0		S	sg n
Kroomann	####				
saab	saa	b		V	b
44	44	0		N	?
rub	####				
.	.			Z	
55	55	0		N	?
kop	kop	0		Y	?
.	.			Z	
summa	summ	0		S	adt
     	summ	0		S	sg g
     	summ	0		S	sg p
     	summa	0		S	sg g
     	summa	0		S	sg n
178	178	0		N	?
rub	####				
.	.			Z	
20	20	0		N	?
k	k	0		Y	?
.	.			Z	
see	see	0		P	sg n
varandus	varandus	0		S	sg n
jääba	####				
aga	aga	0		J	
kõik	kõik	0		P	pl n
    	kõik	0		S	sg n
    	kõik	0		P	sg n
selle	see	0		P	sg g
     	sell	e		S	pl p
Jüri	Jüri	0		H	sg g
    	Jüri	0		H	sg n
Kroomanni	kroom_and	0		S	sg g
läheksa	####				
teise	teine	0		O	adt
     	teine	0		O	sg g
     	teine	0		P	adt
     	teine	0		P	sg g
mehe	mees	0		S	sg g
Jaan	Jaan	0		H	sg n
    	jaan	0		S	sg n
    	jaan	0		Y	?
Klaasseni	####				
kätte	kätte	0		K	
     	käsi	tte		S	adt
,	,			Z	
ning	ning	0		J	
piab	####				
see	see	0		P	sg n
Jaan	Jaan	0		H	sg n
    	jaan	0		S	sg n
    	jaan	0		Y	?
Klauses	####				
neid	neid	0		S	sg n
    	see	d		P	pl p
    	tema	d		P	pl p
kolm	kolm	0		N	sg n
laste	laps	te		S	pl g
     	last	e		S	pl p
hoitma	####				
,	,			Z	
toitma	toit	ma		V	ma
,	,			Z	
rietk	####				
iluste	####				
katma	kat	ma		V	ma
ja	ja	0		J	
kooli	kool	i		S	pl p
     	kool	0		S	adt
     	kool	0		S	sg g
     	kool	0		S	sg p
saatma	saat	ma		V	ma
,	,			Z	
ühe	üks	0		N	sg g
   	üks	0		P	sg g
   	ühe	0		S	sg n
sõnaga	sõna	ga		S	sg kom
ütelda	ütle	da		V	da
      	ütle	da		V	ta
,	,			Z	
neid	neid	0		S	sg n
    	see	d		P	pl p
    	tema	d		P	pl p
laste	laps	te		S	pl g
     	last	e		S	pl p
nõndaviisi	nõnda_viisi	0		D	
kasvatada	kasvata	da		V	da
nagu	nagu	0		D	
    	nagu	0		J	
oleks	ole	ks		V	ks
nemad	tema	d		P	pl n
tema	tema	0		P	sg g
    	tema	0		P	sg n
enda	ise	0		P	sg g
lapse	laps	0		S	sg g
olnuvat	ole	nuvat		V	nuvat
.	.			Z	
niipia	####				
kui	kui	0		D	
   	kui	0		J	
üks	üks	0		N	sg n
   	üks	0		P	sg n
neist	see	st		P	pl el
     	tema	st		P	pl el
latsidest	####				
piaks	####				
ealiseks	ealine	ks		A	sg tr
saama	saa	ma		V	ma
     	saam	0		S	adt
     	saam	0		S	sg g
     	saam	0		S	sg p
siis	siis	0		D	
    	siis	0		J	
piab	####				
Jaan	Jaan	0		H	sg n
    	jaan	0		S	sg n
    	jaan	0		Y	?
Klauses	####				
varsti	varsti	0		D	
tol	too	l		P	sg ad
lapsel	laps	l		S	sg ad
osajagu	osa_jagu	0		S	sg n
       	osa_jagu	0		S	sg p
44	44	0		N	?
rubla	rubla	0		S	sg g
     	rubla	0		S	sg n
     	rubla	0		S	sg p
55	55	0		N	?
kop	kop	0		Y	?
.	.			Z	
kätte	kätte	0		K	
     	käsi	tte		S	adt
andma	and	ma		V	ma
.	.			Z	
niisamuti	nii_samuti	0		D	
kah	kah	0		D	
jälle	jälle	0		D	
kui	kui	0		D	
   	kui	0		J	
üks	üks	0		N	sg n
   	üks	0		P	sg n
neist	see	st		P	pl el
     	tema	st		P	pl el
tütredest	####				
mehele	mees	le		S	sg all
piaks	####				
minema	mine	ma		V	ma
,	,			Z	
piab	####				
see	see	0		P	sg n
Jaan	Jaan	0		H	sg n
    	jaan	0		S	sg n
    	jaan	0		Y	?
Klauses	####				
varsti	varsti	0		D	
neil	see	l		P	pl ad
    	tema	l		P	pl ad
osa	osa	0		S	sg g
   	osa	0		S	sg n
   	osa	0		S	sg p
jagu	jagu	0		S	sg n
    	jagu	0		V	o
    	jagu	0		S	sg p
44	44	0		N	?
rubla	rubla	0		S	sg g
     	rubla	0		S	sg n
     	rubla	0		S	sg p
55	55	0		N	?
kop	kop	0		Y	?
.	.			Z	
välja	välja	0		D	
     	välja	0		V	o
     	väli	0		S	adt
     	väli	0		S	sg g
     	väli	0		S	sg p
maksma	maks	ma		V	ma
.	.			Z	
Jaan	Jaan	0		H	sg n
    	jaan	0		S	sg n
    	jaan	0		Y	?
Klauses	####				
oll	####				
sellega	see	ga		P	sg kom
rahul	rahu	l		S	sg ad
     	rahul	0		D	
.	.			Z	
otsus	otsus	0		S	sg n
:	:			Z	
saab	saa	b		V	b
protokolli	protokoll	0		S	adt
          	protokoll	0		S	sg g
          	protokolli	0		V	o
          	protokoll	0		S	sg p
ülespandud	üles_pandud	0		A	
          	üles_pandud	0		A	sg n
          	üles_pandud	d		A	pl n
.	.			Z	
ning	ning	0		J	
säeti	####				
võöörmündriks	####				
Leppiko	####				
Märt	Märt	0		H	sg n
Toom	toom	0		S	sg n
ja	ja	0		J	
sepa	sepp	0		S	sg g
Märt	Märt	0		H	sg n
Laberi	####				
üle	üle	0		D	
   	üle	0		K	
neid	neid	0		S	sg n
    	see	d		P	pl p
    	tema	d		P	pl p
laste	laps	te		S	pl g
     	last	e		S	pl p
.	.			Z	
Peakohtumees	pea_kohtu_mees	0		S	sg n
Johan	Johan	0		H	sg n
Toom	toom	0		S	sg n
XXX	XXX	0		O	?
   	XXX	0		Y	?
kohtumees	kohtu_mees	0		S	sg n
Jüri	Jüri	0		H	sg g
    	Jüri	0		H	sg n
Luha	luht	0		S	sg g
XXX	XXX	0		O	?
   	XXX	0		Y	?
abi-kohtumees	abi-kohtu_mees	0		S	sg n
Märt	Märt	0		H	sg n
Laber	####				
XXX	XXX	0		O	?
   	XXX	0		Y	?
