Haslava	####				
kogukonna	kogukond	0		S	sg g
kohus	kohu	s		V	s
     	kohus	0		S	sg n
20	20	0		N	?
Augustil	august	l		S	sg ad
        	August	l		H	sg ad
1880	1880	0		N	?
juures	juur	s		S	sg in
      	juures	0		D	
      	juures	0		K	
istus	ist	s		S	sg in
     	istu	s		V	s
:	:			Z	
peakohtumees	pea_kohtu_mees	0		S	sg n
Mihkel	Mihkel	0		H	sg n
      	mihkel	0		A	sg n
      	mihkel	0		S	sg n
Klaos	####				
kohtumees	kohtu_mees	0		S	sg n
Joh	####				
.	.			Z	
Ling	ling	0		S	sg n
dito	####				
Joh	####				
.	.			Z	
Udel	####				
dito	####				
Rein	Rein	0		H	sg n
Anku	####				
tüli	tüli	0		S	sg g
    	tüli	0		S	sg n
    	tüli	0		S	sg p
ette	ette	0		D	
    	ette	0		K	
    	esi	tte		S	adt
Johan	Johan	0		H	sg n
Klaossen	####				
ja	ja	0		J	
kaebas	kaeba	s		V	s
Johan	Johan	0		H	sg n
tüüri	tüür	0		A	adt
     	tüür	0		A	sg g
     	tüür	0		S	adt
     	tüür	0		S	sg g
     	tüüri	0		V	o
     	tüür	0		A	sg p
     	tüür	0		S	sg p
peale	pea	le		S	sg all
     	peale	0		D	
     	peale	0		K	
:	:			Z	
1.	1.	0		O	?
on	ole	0		V	b
  	ole	0		V	vad
Joh	####				
.	.			Z	
tüüri	tüür	0		A	adt
     	tüür	0		A	sg g
     	tüür	0		S	adt
     	tüür	0		S	sg g
     	tüüri	0		V	o
     	tüür	0		A	sg p
     	tüür	0		S	sg p
hobused	hobune	d		S	pl n
tema	tema	0		P	sg g
    	tema	0		P	sg n
tõuvilja	tõu_vili	0		S	adt
        	tõu_vili	0		S	sg g
        	tõu_vili	0		S	sg p
söötnud	sööt	nud		V	nud
       	sööt=nu	d		S	pl n
       	sööt=nud	0		A	
       	sööt=nud	0		A	sg n
       	sööt=nud	d		A	pl n
ning	ning	0		J	
nõuab	nõud	b		V	b
selle	see	0		P	sg g
     	sell	e		S	pl p
eest	eest	0		D	
    	eest	0		K	
    	esi	st		S	sg el
5	5	0		N	?
rubl	####				
.	.			Z	
2.	2.	0		O	?
tõiseks	####				
on	ole	0		V	b
  	ole	0		V	vad
tüür	tüür	0		A	sg n
    	tüür	0		S	sg n
teda	tema	da		P	sg p
loomavargaks	looma_varas	ks		S	sg tr
sõimann	####				
ning	ning	0		J	
nõuab	nõud	b		V	b
tema	tema	0		P	sg g
    	tema	0		P	sg n
trahvimist	trahvimine	t		S	sg p
.	.			Z	
3.	3.	0		O	?
kaupa	kaup	0		S	adt
     	kaup	0		S	sg p
     	kaupa	0		K	
järel	järel	0		D	
     	järel	0		K	
ei	ei	0		D	
  	ei	0		V	neg
ole	ole	0		V	o
tüür	tüür	0		A	sg n
    	tüür	0		S	sg n
hoonet	hoone	t		S	sg p
pärandanud	päranda	nud		V	nud
          	päranda=nu	d		S	pl n
          	päranda=nud	0		A	
          	päranda=nud	0		A	sg n
          	päranda=nud	d		A	pl n
ei	ei	0		D	
  	ei	0		V	neg
ka	ka	0		D	
aeda	aed	0		S	adt
    	aed	0		S	sg p
ning	ning	0		J	
nõuab	nõud	b		V	b
selle	see	0		P	sg g
     	sell	e		S	pl p
eest	eest	0		D	
    	eest	0		K	
    	esi	st		S	sg el
25	25	0		N	?
rubl	####				
.	.			Z	
4.	4.	0		O	?
13	13	0		N	?
vakamaad	vaka_maa	d		S	pl n
        	vaka_maa	d		S	sg p
on	ole	0		V	b
  	ole	0		V	vad
tüür	tüür	0		A	sg n
    	tüür	0		S	sg n
pidanud	pida	nud		V	nud
       	pida=nu	d		S	pl n
       	pida=nud	0		A	
       	pida=nud	0		A	sg n
       	pida=nud	d		A	pl n
tõeks	tõde	ks		S	sg tr
     	tõsi	ks		S	sg tr
[	[			Z	
?	?			Z	
]	]			Z	
tegema	tege	ma		V	ma
ning	ning	0		J	
on	ole	0		V	b
  	ole	0		V	vad
tegemata	tege	mata		V	mata
        	tegemata	0		A	
jätnud	jät	nud		V	nud
      	jät=nu	d		S	pl n
      	jät=nud	0		A	
      	jät=nud	0		A	sg n
      	jät=nud	d		A	pl n
à	####				
vakamaa	vaka_maa	0		S	sg g
       	vaka_maa	0		S	sg n
20	20	0		N	?
rubl	####				
.	.			Z	
-	-			Z	
260	260	0		N	?
rubl	####				
.	.			Z	
5.	5.	0		O	?
heina	hein	0		S	adt
     	hein	0		S	sg g
     	hein	0		S	sg p
on	ole	0		V	b
  	ole	0		V	vad
lasknud	lask	nud		V	nud
       	lask=nu	d		S	pl n
       	lask=nud	0		A	
       	lask=nud	0		A	sg n
       	lask=nud	d		A	pl n
ära	ära	0		D	
   	ära	0		V	neg o
mädaneda	mädane	da		V	da
,	,			Z	
sest	see	st		P	sg el
    	sest	0		J	
et	et	0		J	
õigel	õige	l		A	sg ad
aeal	####				
ei	ei	0		D	
  	ei	0		V	neg
ole	ole	0		V	o
tehtud	tehtu	d		S	pl n
      	tehtud	0		A	
      	tehtud	0		A	sg n
      	tehtud	d		A	pl n
      	tege	tud		V	tud
.	.			Z	
-	-			Z	
60	60	0		N	?
rubl	####				
.	.			Z	
sai	saa	i		V	s
   	sai	0		S	sg n
Johan	Johan	0		H	sg n
tüür	tüür	0		A	sg n
    	tüür	0		S	sg n
selle	see	0		P	sg g
     	sell	e		S	pl p
üle	üle	0		D	
   	üle	0		K	
küsitud	küsi	tud		V	tud
       	küsi=tu	d		S	pl n
       	küsi=tud	0		A	
       	küsi=tud	0		A	sg n
       	küsi=tud	d		A	pl n
ning	ning	0		J	
vastutas	vastuta	s		V	s
:	:			Z	
ad	####				
1.	1.	0		O	?
ei	ei	0		D	
  	ei	0		V	neg
salga	salga	0		V	o
     	salk	0		S	sg g
,	,			Z	
et	et	0		J	
üks	üks	0		N	sg n
   	üks	0		P	sg n
kõrd	####				
hobune	hobune	0		S	sg n
on	ole	0		V	b
  	ole	0		V	vad
viljas	vili	s		S	sg in
olnud	ol=nud	0		A	
     	ol=nud	0		A	sg n
     	ol=nud	d		A	pl n
     	ole	nud		V	nud
     	olnu	d		S	pl n
.	.			Z	
ad	####				
2.	2.	0		O	?
salgab	salga	b		V	b
Joh	####				
.	.			Z	
Klaosseni	####				
loomavargaks	looma_varas	ks		S	sg tr
sõimanud	sõima	nud		V	nud
        	sõima=nu	d		S	pl n
        	sõima=nud	0		A	
        	sõima=nud	0		A	sg n
        	sõima=nud	d		A	pl n
;	;			Z	
ad	####				
3.	3.	0		O	?
ei	ei	0		D	
  	ei	0		V	neg
ole	ole	0		V	o
hoonet	hoone	t		S	sg p
pärandanud	päranda	nud		V	nud
          	päranda=nu	d		S	pl n
          	päranda=nud	0		A	
          	päranda=nud	0		A	sg n
          	päranda=nud	d		A	pl n
ei	ei	0		D	
  	ei	0		V	neg
ka	ka	0		D	
aeda	aed	0		S	adt
    	aed	0		S	sg p
ad	####				
4.	4.	0		O	?
ütleb	ütle	b		V	b
,	,			Z	
et	et	0		J	
temale	tema	le		P	sg all
ei	ei	0		D	
  	ei	0		V	neg
ole	ole	0		V	o
peremees	pere_mees	0		S	sg n
näidanud	näita	nud		V	nud
        	näida=nu	d		S	pl n
        	näida=nud	0		A	
        	näida=nud	0		A	sg n
        	näida=nud	d		A	pl n
aga	aga	0		J	
tegemata	tege	mata		V	mata
        	tegemata	0		A	
on	ole	0		V	b
  	ole	0		V	vad
jäänud	jää	nud		V	nud
      	jäänu	d		S	pl n
      	jäänud	0		A	
      	jäänud	0		A	sg n
      	jäänud	d		A	pl n
.	.			Z	
ad	####				
5.	5.	0		O	?
heinad	hein	d		S	pl n
on	ole	0		V	b
  	ole	0		V	vad
vihma	vihm	0		S	adt
     	vihm	0		S	sg g
     	vihm	0		S	sg p
saanud	saa	nud		V	nud
      	saa=nud	0		A	
      	saa=nud	0		A	sg n
      	saa=nud	d		A	pl n
      	saanu	d		S	pl n
,	,			Z	
aga	aga	0		J	
ei	ei	0		D	
  	ei	0		V	neg
ole	ole	0		V	o
mitte	mitte	0		D	
midad	####				
.	.			Z	
