Peeter	Peeter	0		H	sg n
Kripson	####				
endine	endine	0		A	sg n
peakohtumees	pea_kohtu_mees	0		S	sg n
kaebas	kaeba	s		V	s
,	,			Z	
et	et	0		J	
tema	tema	0		P	sg g
    	tema	0		P	sg n
ameti	amet	0		S	sg g
talitsuse	tali=tsus	0		S	sg g
ajal	aeg	l		S	sg ad
    	ajal	0		K	
ei	ei	0		D	
  	ei	0		V	neg
ole	ole	0		V	o
Johan	Johan	0		H	sg n
Kuruk	####				
tema	tema	0		P	sg g
    	tema	0		P	sg n
käsu	käsk	0		S	sg g
peale	pea	le		S	sg all
     	peale	0		D	
     	peale	0		K	
Johan	Johan	0		H	sg n
Johansoni	Johanson	0		H	adt
         	Johanson	0		H	sg g
         	Johanson	0		H	sg p
käest	käest	0		K	
     	käsi	st		S	sg el
tema	tema	0		P	sg g
    	tema	0		P	sg n
karjuse	karjus	0		S	sg g
trahvi	trahv	0		S	adt
      	trahv	0		S	sg g
      	trahvi	0		V	o
      	trahv	0		S	sg p
sisse	siss	e		S	pl p
     	sisse	0		D	
     	sisse	0		K	
nõudnud	nõud	nud		V	nud
       	nõud=nu	d		S	pl n
       	nõud=nud	0		A	
       	nõud=nud	0		A	sg n
       	nõud=nud	d		A	pl n
,	,			Z	
mille	mis	0		P	pl g
     	mis	0		P	sg g
eest	eest	0		D	
    	eest	0		K	
    	esi	st		S	sg el
tema	tema	0		P	sg g
    	tema	0		P	sg n
kihelkonna	kihelkond	0		S	sg g
kohtu	kohtu	0		V	o
     	kohus	0		S	sg g
poolt	pool	t		N	sg p
     	pool	t		S	sg p
     	poolt	0		D	
     	poolt	0		K	
vasta	vasta	0		V	o
paneku	panek	0		S	sg g
eest	eest	0		D	
    	eest	0		K	
    	esi	st		S	sg el
5	5	0		N	?
rublaga	rubla	ga		S	sg kom
trahvitud	trahvi	tud		V	tud
         	trahvi=tu	d		S	pl n
         	trahvi=tud	0		A	
         	trahvi=tud	0		A	sg n
         	trahvi=tud	d		A	pl n
saanud	saa	nud		V	nud
      	saa=nud	0		A	
      	saa=nud	0		A	sg n
      	saa=nud	d		A	pl n
      	saanu	d		S	pl n
-	-			Z	
tema	tema	0		P	sg g
    	tema	0		P	sg n
nõuab	nõud	b		V	b
kuruke	kuru=ke	0		S	sg n
käest	käest	0		K	
     	käsi	st		S	sg el
5	5	0		N	?
rubl	####				
.	.			Z	
Johan	Johan	0		H	sg n
Kuruk	####				
vastutas	vastuta	s		V	s
kaebuse	kaebus	0		S	sg g
peale	pea	le		S	sg all
     	peale	0		D	
     	peale	0		K	
et	et	0		J	
ta	tema	0		P	sg g
  	tema	0		P	sg n
käsu	käsk	0		S	sg g
peale	pea	le		S	sg all
     	peale	0		D	
     	peale	0		K	
kohe	kohe	0		A	sg n
    	kohe	0		D	
Johan	Johan	0		H	sg n
Johansoni	Johanson	0		H	adt
         	Johanson	0		H	sg g
         	Johanson	0		H	sg p
poole	pool	0		N	sg g
     	pool	0		S	sg g
     	pool	e		S	pl p
     	poole	0		K	
     	poole	0		S	sg n
ühes	üks	s		N	sg in
    	üks	s		P	sg in
    	ühes	0		D	
    	ühes	0		K	
Kusta	Kusta	0		H	sg g
     	Kusta	0		H	sg n
     	kuse	ta		V	da
     	kuse	ta		V	ta
Karuga	karu	ga		S	sg kom
läinud	läinu	d		S	pl n
      	läinud	0		A	
      	läinud	0		A	sg n
      	läinud	d		A	pl n
      	mine	nud		V	nud
trahvi	trahv	0		S	adt
      	trahv	0		S	sg g
      	trahvi	0		V	o
      	trahv	0		S	sg p
sisse	siss	e		S	pl p
     	sisse	0		D	
     	sisse	0		K	
nõudma	nõud	ma		V	ma
,	,			Z	
aga	aga	0		J	
et	et	0		J	
Johan	Johan	0		H	sg n
Johansoon	####				
sell	sell	0		S	sg n
korral	kord	l		S	sg ad
      	korral	0		D	
      	korral	0		K	
maksa	maks	0		S	adt
     	maks	0		S	sg g
     	maks	0		V	o
     	maks	0		S	sg p
ei	ei	0		D	
  	ei	0		V	neg
võinud	või	nud		V	nud
      	või=nu	d		S	pl n
      	või=nud	0		A	
      	või=nud	0		A	sg n
      	või=nud	d		A	pl n
lubas	luba	s		V	s
ta	tema	0		P	sg g
  	tema	0		P	sg n
ise	ise	0		A	
   	ise	0		D	
   	ise	0		P	pl n
   	ise	0		P	sg n
seda	see	da		P	sg p
kohtu	kohtu	0		V	o
     	kohus	0		S	sg g
maja	maja	0		S	sg g
    	maja	0		S	sg n
    	maja	0		S	sg p
juure	juur	0		S	sg g
ära	ära	0		D	
   	ära	0		V	neg o
tuua	too	a		V	da
,	,			Z	
et	et	0		J	
Johansoon	####				
ei	ei	0		D	
  	ei	0		V	neg
toonud	too	nud		V	nud
      	too=nu	d		S	pl n
      	too=nud	0		A	
      	too=nud	0		A	sg n
      	too=nud	d		A	pl n
,	,			Z	
olla	ole	a		V	da
see	see	0		P	sg n
Johansooni	####				
süid	####				
.	.			Z	
Kusta	Kusta	0		H	sg g
     	Kusta	0		H	sg n
     	kuse	ta		V	da
     	kuse	ta		V	ta
Karu	karu	0		S	sg g
    	karu	0		S	sg n
    	karu	0		S	sg p
,	,			Z	
valla	vald	0		S	sg g
     	valla	0		D	
vöölmöldri	####				
,	,			Z	
ütles	ütle	s		V	s
,	,			Z	
et	et	0		J	
ta	tema	0		P	sg g
  	tema	0		P	sg n
Johan	Johan	0		H	sg n
kurukega	####				
ühes	üks	s		N	sg in
    	üks	s		P	sg in
    	ühes	0		D	
    	ühes	0		K	
on	ole	0		V	b
  	ole	0		V	vad
olnud	ol=nud	0		A	
     	ol=nud	0		A	sg n
     	ol=nud	d		A	pl n
     	ole	nud		V	nud
     	olnu	d		S	pl n
Johansooni	####				
pool	pool	0		K	
    	pool	0		N	sg n
    	pool	0		S	sg n
ja	ja	0		J	
kuulnud	kuul	nud		V	nud
       	kuul=nud	0		A	
       	kuul=nud	0		A	sg n
       	kuul=nud	d		A	pl n
       	kuulnu	d		S	pl n
et	et	0		J	
Johan	Johan	0		H	sg n
Johansoon	####				
lubanud	luba	nud		V	nud
       	luba=nu	d		S	pl n
       	luba=nud	0		A	
       	luba=nud	0		A	sg n
       	luba=nud	d		A	pl n
ise	ise	0		A	
   	ise	0		D	
   	ise	0		P	pl n
   	ise	0		P	sg n
teisel	teine	l		O	sg ad
      	teine	l		P	sg ad
teisipäeval	teisi_päev	l		S	sg ad
raha	raha	0		S	sg g
    	raha	0		S	sg n
    	raha	0		S	sg p
kohtu	kohtu	0		V	o
     	kohus	0		S	sg g
maja	maja	0		S	sg g
    	maja	0		S	sg n
    	maja	0		S	sg p
juure	juur	0		S	sg g
ära	ära	0		D	
   	ära	0		V	neg o
tuua	too	a		V	da
.	.			Z	
Mõiste	mõiste	0		S	sg g
      	mõiste	0		S	sg n
:	:			Z	
et	et	0		J	
Johan	Johan	0		H	sg n
Kuruk	####				
peakohtumehe	pea_kohtu_mees	0		S	sg g
käsku	käsk	0		S	adt
     	käsk	0		S	sg p
poole	pool	0		N	sg g
     	pool	0		S	sg g
     	pool	e		S	pl p
     	poole	0		K	
     	poole	0		S	sg n
kuulnud	kuul	nud		V	nud
       	kuul=nud	0		A	
       	kuul=nud	0		A	sg n
       	kuul=nud	d		A	pl n
       	kuulnu	d		S	pl n
peab	pida	b		V	b
tema	tema	0		P	sg g
    	tema	0		P	sg n
5	5	0		N	?
rubla	rubla	0		S	sg g
     	rubla	0		S	sg n
     	rubla	0		S	sg p
8	8	0		N	?
päeva	päev	0		S	adt
     	päev	0		S	sg g
     	päev	0		S	sg p
sees	sees	0		D	
    	sees	0		K	
Peeter	Peeter	0		H	sg n
Kripsooni	####				
hääks	####				
välja	välja	0		D	
     	välja	0		V	o
     	väli	0		S	adt
     	väli	0		S	sg g
     	väli	0		S	sg p
maksma	maks	ma		V	ma
.	.			Z	
Mõiste	mõiste	0		S	sg g
      	mõiste	0		S	sg n
kuulutadi	####				
kohtus	kohtu	s		V	s
      	kohus	s		S	sg in
käiatele	####				
T	T	0		Y	?
.	.			Z	
R	R	0		Y	?
.	.			Z	
S	S	0		Y	?
.	.			Z	
§	§	0		Y	?
772	772	0		N	?
-	-			Z	
774	774	0		N	?
seletusega	seletus	ga		S	sg kom
.	.			Z	
peakohtumees	pea_kohtu_mees	0		S	sg n
:	:			Z	
koha	koht	0		S	sg g
    	koha	0		S	sg g
    	koha	0		V	o
    	koha	0		S	sg n
    	koha	0		S	sg p
Piir	piir	0		S	sg n
allkiri	all_kiri	0		S	sg n
kohtumees	kohtu_mees	0		S	sg n
:	:			Z	
Kusta	Kusta	0		H	sg g
     	Kusta	0		H	sg n
     	kuse	ta		V	da
     	kuse	ta		V	ta
Saarva	####				
allkiri	all_kiri	0		S	sg n
kohtumees	kohtu_mees	0		S	sg n
:	:			Z	
P. Pedosoon	####				
XXX	XXX	0		O	?
   	XXX	0		Y	?
kohtumees	kohtu_mees	0		S	sg n
:	:			Z	
J. Rootslane	####				
XXX	XXX	0		O	?
   	XXX	0		Y	?
kohutumees	####				
:	:			Z	
Johan	Johan	0		H	sg n
vastal	####				
XXX	XXX	0		O	?
   	XXX	0		Y	?
kirjutaja	kirjutaja	0		S	sg g
         	kirjutaja	0		S	sg n
Karl	Karl	0		H	sg n
Veske	Veske	0		H	sg g
     	Veske	0		H	sg n
allkiri	all_kiri	0		S	sg n
