Ahja	Ahja	0		H	sg g
    	Ahja	0		H	sg n
metsavalitsus	metsa_valitsus	0		S	sg n
kaebas	kaeba	s		V	s
et	et	0		J	
Jaan	Jaan	0		H	sg n
    	jaan	0		S	sg n
    	jaan	0		Y	?
Joonas	Joona	s		H	sg in
      	Joonas	0		H	sg n
kari	kari	0		S	sg g
    	kari	0		S	sg n
    	kari	0		S	sg p
7	7	0		N	?
suur	suur	0		A	sg n
elajat	elajas	t		S	sg p
3	3	0		N	?
vasikat	vasikas	t		S	sg p
ja	ja	0		J	
20	20	0		N	?
lammast	lammas	t		S	sg p
mõisa	mõis	0		S	sg g
metsas	mets	s		S	sg in
olnud	ol=nud	0		A	
     	ol=nud	0		A	sg n
     	ol=nud	d		A	pl n
     	ole	nud		V	nud
     	olnu	d		S	pl n
nõuab	nõud	b		V	b
seaduslik	seaduslik	0		A	sg n
trahv	trahv	0		S	sg n
.	.			Z	
Jaan	Jaan	0		H	sg n
    	jaan	0		S	sg n
    	jaan	0		Y	?
Joonas	Joona	s		H	sg in
      	Joonas	0		H	sg n
vastutas	vastuta	s		V	s
kaebuse	kaebus	0		S	sg g
peale	pea	le		S	sg all
     	peale	0		D	
     	peale	0		K	
et	et	0		J	
mõtsavaht	####				
Joosep	Joosep	0		H	sg n
Zakas	####				
on	ole	0		V	b
  	ole	0		V	vad
tema	tema	0		P	sg g
    	tema	0		P	sg n
karja	kari	0		S	adt
     	kari	0		S	sg g
     	kari	0		S	sg p
mõisa	mõis	0		S	sg g
metsa	mets	0		S	adt
     	mets	0		S	sg g
     	mets	0		S	sg p
ajanud	aja	nud		V	nud
      	aja=nu	d		S	pl n
      	aja=nud	0		A	
      	aja=nud	0		A	sg n
      	aja=nud	d		A	pl n
,	,			Z	
kari	kari	0		S	sg g
    	kari	0		S	sg n
    	kari	0		S	sg p
olnud	ol=nud	0		A	
     	ol=nud	0		A	sg n
     	ol=nud	d		A	pl n
     	ole	nud		V	nud
     	olnu	d		S	pl n
tema	tema	0		P	sg g
    	tema	0		P	sg n
oma	oma	0		A	sg g
   	oma	0		D	
   	oma	0		P	sg g
   	oma	0		S	sg g
   	oma	0		V	o
   	oma	0		A	sg n
   	oma	0		A	sg p
   	oma	0		P	sg n
   	oma	0		P	sg p
   	oma	0		S	sg n
   	oma	0		S	sg p
metsas	mets	s		S	sg in
.	.			Z	
metsavaht	metsa_vaht	0		S	sg n
salas	sala	s		S	sg in
ja	ja	0		J	
ütles	ütle	s		V	s
et	et	0		J	
ta	tema	0		P	sg g
  	tema	0		P	sg n
ise	ise	0		A	
   	ise	0		D	
   	ise	0		P	pl n
   	ise	0		P	sg n
ei	ei	0		D	
  	ei	0		V	neg
ole	ole	0		V	o
ajanud	aja	nud		V	nud
      	aja=nu	d		S	pl n
      	aja=nud	0		A	
      	aja=nud	0		A	sg n
      	aja=nud	d		A	pl n
vaid	vaid	0		D	
    	vaid	0		J	
on	ole	0		V	b
  	ole	0		V	vad
elajat	elajas	t		S	sg p
kinni	kinni	0		D	
võtnud	võt	nud		V	nud
      	võt=nu	d		S	pl n
      	võt=nud	0		A	
      	võt=nud	0		A	sg n
      	võt=nud	d		A	pl n
mõisa	mõis	0		S	sg g
metsast	mets	st		S	sg el
       	metsane	t		A	sg p
.	.			Z	
Mõiste	mõiste	0		S	sg g
      	mõiste	0		S	sg n
:	:			Z	
et	et	0		J	
tunnistust	tunnistus	t		S	sg p
ei	ei	0		D	
  	ei	0		V	neg
ole	ole	0		V	o
saab	saa	b		V	b
metsavalitsuse	metsa_valitsus	0		S	sg g
kaebus	kaebus	0		S	sg n
tühas	####				
mõistetud	mõist	tud		V	tud
         	mõiste=tu	d		S	pl n
         	mõiste=tud	0		A	
         	mõiste=tud	0		A	sg n
         	mõiste=tud	d		A	pl n
.	.			Z	
Mõiste	mõiste	0		S	sg g
      	mõiste	0		S	sg n
kuulutadi	####				
kohtus	kohtu	s		V	s
      	kohus	s		S	sg in
käiatele	####				
T	T	0		Y	?
.	.			Z	
R	R	0		Y	?
.	.			Z	
S	S	0		Y	?
.	.			Z	
a.	a	0		Y	?
1860	1860	0		N	?
§	§	0		Y	?
772	772	0		N	?
-	-			Z	
774	774	0		N	?
järele	järele	0		D	
      	järele	0		K	
ja	ja	0		J	
et	et	0		J	
metsavalitsus	metsa_valitsus	0		S	sg n
rahul	rahu	l		S	sg ad
     	rahul	0		D	
ei	ei	0		D	
  	ei	0		V	neg
olnud	ol=nud	0		A	
     	ol=nud	0		A	sg n
     	ol=nud	d		A	pl n
     	ole	nud		V	nud
     	olnu	d		S	pl n
andi	and	0		S	adt
    	and	0		S	sg p
õppusleht	õppus_leht	0		S	sg n
.	.			Z	
