Aastus	####				
ette	ette	0		D	
    	ette	0		K	
    	esi	tte		S	adt
Toomas	Toomas	0		H	sg n
      	Toomas	s		H	sg in
      	too	mas		V	mas
Õunapu	####				
ja	ja	0		J	
andis	and	is		V	s
üles	üles	0		D	
et	et	0		J	
tahab	taht	b		V	b
teise	teine	0		O	adt
     	teine	0		O	sg g
     	teine	0		P	adt
     	teine	0		P	sg g
abieluse	####				
mina	mina	0		P	sg n
    	mina	0		S	sg g
    	mina	0		S	sg n
    	mina	0		S	sg p
ja	ja	0		J	
andis	and	is		V	s
oma	oma	0		A	sg g
   	oma	0		D	
   	oma	0		P	sg g
   	oma	0		S	sg g
   	oma	0		V	o
   	oma	0		A	sg n
   	oma	0		A	sg p
   	oma	0		P	sg n
   	oma	0		P	sg p
   	oma	0		S	sg n
   	oma	0		S	sg p
essimis	####				
naese	####				
lapse	laps	0		S	sg g
varandust	varandus	t		S	sg p
üles	üles	0		D	
nimega	nimi	ga		S	sg kom
Poeg	poeg	0		S	sg n
Jaan	Jaan	0		H	sg n
    	jaan	0		S	sg n
    	jaan	0		Y	?
Õunapu	####				
15	15	0		N	?
rubla	rubla	0		S	sg g
     	rubla	0		S	sg n
     	rubla	0		S	sg p
jätavast	####				
varandust	varandus	t		S	sg p
Mis	mis	0		P	pl n
   	mis	0		P	sg n
tunnistab	tunnista	b		V	b
kohtomees	####				
Maddis	####				
Allik	Allik	0		H	sg n
XXX	XXX	0		O	?
   	XXX	0		Y	?
