sel	see	l		P	sg ad
   	sel	0		Y	?
27	27	0		N	?
juulil	juuli	l		S	sg ad
1873.	1873.	0		O	?
koos	koos	0		D	
    	koos	0		K	
    	koos	0		S	sg n
    	kubu	s		S	sg in
olid	ole	id		V	sid
kõik	kõik	0		P	pl n
    	kõik	0		S	sg n
    	kõik	0		P	sg n
ees	ees	0		D	
   	ees	0		K	
   	esi	s		S	sg in
nimetud	nimetu	d		A	pl n
kohtumehed	kohtu_mees	d		S	pl n
Mihkel	Mihkel	0		H	sg n
      	mihkel	0		A	sg n
      	mihkel	0		S	sg n
Sildnik	####				
kaebas	kaeba	s		V	s
et	et	0		J	
tema	tema	0		P	sg g
    	tema	0		P	sg n
võtnud	võt	nud		V	nud
      	võt=nu	d		S	pl n
      	võt=nud	0		A	
      	võt=nud	0		A	sg n
      	võt=nud	d		A	pl n
Metsa	mets	0		S	adt
     	mets	0		S	sg g
     	mets	0		S	sg p
vaht	vaht	0		S	sg n
Aandres	####				
raja	rada	0		S	sg g
    	raja	0		S	sg g
    	raja	0		V	o
    	raja	0		S	sg n
    	raja	0		S	sg p
hobbose	####				
kinni	kinni	0		D	
omast	oma	st		A	sg el
     	oma	st		P	sg el
     	oma	st		S	sg el
     	omane	t		A	sg p
rukkist	rukkine	t		A	sg p
       	rukis	st		S	sg el
,	,			Z	
ja	ja	0		J	
aitanud	####				
Mihkel	Mihkel	0		H	sg n
      	mihkel	0		A	sg n
      	mihkel	0		S	sg n
ja	ja	0		J	
Jaan	Jaan	0		H	sg n
    	jaan	0		S	sg n
    	jaan	0		Y	?
Pom	####				
seda	see	da		P	sg p
hobbost	####				
kinni	kinni	0		D	
võtta	võt	a		V	da
ja	ja	0		J	
nõuab	nõud	b		V	b
tema	tema	0		P	sg g
    	tema	0		P	sg n
selle	see	0		P	sg g
     	sell	e		S	pl p
eest	eest	0		D	
    	eest	0		K	
    	esi	st		S	sg el
seaduse	seadus	0		S	sg g
järel	järel	0		D	
     	järel	0		K	
trahv	trahv	0		S	sg n
.	.			Z	
Metsavaht	metsa_vaht	0		S	sg n
Aandres	####				
raja	rada	0		S	sg g
    	raja	0		S	sg g
    	raja	0		V	o
    	raja	0		S	sg n
    	raja	0		S	sg p
räkis	####				
et	et	0		J	
tema	tema	0		P	sg g
    	tema	0		P	sg n
seda	see	da		P	sg p
ei	ei	0		D	
  	ei	0		V	neg
tea	tead	0		V	o
kust	kusi	t		S	sg p
    	kust	0		D	
se	####				
hobbone	####				
kinni	kinni	0		D	
voetud	voe=tu	d		A	pl n
,	,			Z	
ja	ja	0		J	
on	ole	0		V	b
  	ole	0		V	vad
tema	tema	0		P	sg g
    	tema	0		P	sg n
seda	see	da		P	sg p
taga	taga	0		D	
    	taga	0		K	
    	taga	0		V	o
otsinud	otsi	nud		V	nud
       	otsi=nu	d		S	pl n
       	otsi=nud	0		A	
       	otsi=nud	0		A	sg n
       	otsi=nud	d		A	pl n
ning	ning	0		J	
teine	teine	0		O	sg n
     	teine	0		P	sg n
päev	päev	0		S	sg n
seda	see	da		P	sg p
kätte	kätte	0		K	
     	käsi	tte		S	adt
saanud	saa	nud		V	nud
      	saa=nud	0		A	
      	saa=nud	0		A	sg n
      	saa=nud	d		A	pl n
      	saanu	d		S	pl n
.	.			Z	
Jaan	Jaan	0		H	sg n
    	jaan	0		S	sg n
    	jaan	0		Y	?
Pom	####				
tunnistas	tunnista	s		V	s
et	et	0		J	
tema	tema	0		P	sg g
    	tema	0		P	sg n
nähud	näht	d		S	pl n
kui	kui	0		D	
   	kui	0		J	
tema	tema	0		P	sg g
    	tema	0		P	sg n
vend	vend	0		S	sg n
Mihkel	Mihkel	0		H	sg n
      	mihkel	0		A	sg n
      	mihkel	0		S	sg n
ja	ja	0		J	
Mihkel	Mihkel	0		H	sg n
      	mihkel	0		A	sg n
      	mihkel	0		S	sg n
Sildnik	####				
on	ole	0		V	b
  	ole	0		V	vad
seda	see	da		P	sg p
Metsa	mets	0		S	adt
     	mets	0		S	sg g
     	mets	0		S	sg p
vahi	vaht	0		S	sg g
    	vahti	0		V	o
hobbost	####				
rukkist	rukkine	t		A	sg p
       	rukis	st		S	sg el
kinni	kinni	0		D	
võtnud	võt	nud		V	nud
      	võt=nu	d		S	pl n
      	võt=nud	0		A	
      	võt=nud	0		A	sg n
      	võt=nud	d		A	pl n
.	.			Z	
Moistus	####				
Aandres	####				
raja	rada	0		S	sg g
    	raja	0		S	sg g
    	raja	0		V	o
    	raja	0		S	sg n
    	raja	0		S	sg p
maksab	maks	b		V	b
Mihkel	Mihkel	0		H	sg n
      	mihkel	0		A	sg n
      	mihkel	0		S	sg n
Sildnikule	####				
1	1	0		N	?
rubla	rubla	0		S	sg g
     	rubla	0		S	sg n
     	rubla	0		S	sg p
kinni	kinni	0		D	
võtmist	võtmine	t		S	sg p
ja	ja	0		J	
12	12	0		N	?
tunni	tund	0		S	sg g
hobbose	####				
toit	toit	0		S	sg n
10.	10.	0		O	?
kop	kop	0		Y	?
Maddis	####				
Tamm	tamm	0		S	sg n
XXX	XXX	0		O	?
   	XXX	0		Y	?
Josep	####				
Reisenpuk	####				
XXX	XXX	0		O	?
   	XXX	0		Y	?
Josep	####				
kalaus	####				
XXX	XXX	0		O	?
   	XXX	0		Y	?
