Testament	testament	0		S	sg n
(	(			Z	
Leping	leping	0		S	sg n
)	)			Z	
Luukse	####				
Peeter	Peeter	0		H	sg n
Luts	luts	0		S	sg n
on	ole	0		V	b
  	ole	0		V	vad
oma	oma	0		A	sg g
   	oma	0		D	
   	oma	0		P	sg g
   	oma	0		S	sg g
   	oma	0		V	o
   	oma	0		A	sg n
   	oma	0		A	sg p
   	oma	0		P	sg n
   	oma	0		P	sg p
   	oma	0		S	sg n
   	oma	0		S	sg p
varanduse	varandus	0		S	sg g
jagamise	jagamine	0		S	sg g
kohta	koht	0		S	adt
     	kohta	0		K	
     	kohta	0		V	o
     	koht	0		S	sg p
järgmine	järgmine	0		A	sg n
leping	leping	0		S	sg n
teinud	tege	nud		V	nud
      	tei=nud	0		A	
      	tei=nud	0		A	sg n
      	tei=nud	d		A	pl n
      	teinu	d		S	pl n
:	:			Z	
I.	I.	0		Y	?
  	j	0		Y	?
jääb	jää	b		V	b
Luukse	####				
maja	maja	0		S	sg g
    	maja	0		S	sg n
    	maja	0		S	sg p
(	(			Z	
talu	talu	0		S	sg g
    	talu	0		V	o
    	talu	0		S	sg n
    	talu	0		S	sg p
)	)			Z	
tema	tema	0		P	sg g
    	tema	0		P	sg n
poeg	poeg	0		S	sg n
Mats	Mats	0		H	sg n
    	mats	0		A	sg n
    	mats	0		S	sg n
Lutsule	luts	le		S	sg all
kõiges	kõik	s		P	sg in
varanduse	varandus	0		S	sg g
ja	ja	0		J	
võlgadega	võlg	dega		S	pl kom
,	,			Z	
mis	mis	0		P	pl n
   	mis	0		P	sg n
mitte	mitte	0		D	
allpool	all_pool	0		D	
       	all_pool	0		K	
juurest	juur	st		S	sg el
       	juurest	0		K	
ära	ära	0		D	
   	ära	0		V	neg o
kirjutatud	kirjuta	tud		V	tud
          	kirjutatu	d		S	pl n
          	kirjutatud	0		A	
          	kirjutatud	0		A	sg n
          	kirjutatud	d		A	pl n
ei	ei	0		D	
  	ei	0		V	neg
ole	ole	0		V	o
.	.			Z	
II.	II	0		O	?
   	II	0		Y	?
   	jj	0		Y	?
peab	pida	b		V	b
Mats	Mats	0		H	sg n
    	mats	0		A	sg n
    	mats	0		S	sg n
Luts	luts	0		S	sg n
toitma	toit	ma		V	ma
oma	oma	0		A	sg g
   	oma	0		D	
   	oma	0		P	sg g
   	oma	0		S	sg g
   	oma	0		V	o
   	oma	0		A	sg n
   	oma	0		A	sg p
   	oma	0		P	sg n
   	oma	0		P	sg p
   	oma	0		S	sg n
   	oma	0		S	sg p
isa	isa	0		S	sg g
   	isa	0		S	sg n
   	isa	0		S	sg p
ja	ja	0		J	
ema	ema	0		S	sg g
   	ema	0		S	sg n
   	ema	0		S	sg p
,	,			Z	
nii	nii	0		D	
kaua	kaua	0		D	
kui	kui	0		D	
   	kui	0		J	
nad	tema	d		P	pl n
elavad	ela	vad		V	vad
      	elav	d		A	pl n
      	elav	d		S	pl n
.	.			Z	
kui	kui	0		D	
   	kui	0		J	
see	see	0		P	sg n
toitmise	toitmine	0		S	sg g
asi	asi	0		S	sg n
   	asi	0		V	o
oma	oma	0		A	sg g
   	oma	0		D	
   	oma	0		P	sg g
   	oma	0		S	sg g
   	oma	0		V	o
   	oma	0		A	sg n
   	oma	0		A	sg p
   	oma	0		P	sg n
   	oma	0		P	sg p
   	oma	0		S	sg n
   	oma	0		S	sg p
vahel	vahe	l		S	sg ad
     	vahel	0		D	
     	vahel	0		K	
ei	ei	0		D	
  	ei	0		V	neg
sünni	sünd	0		S	sg g
     	sündi	0		V	o
,	,			Z	
siis	siis	0		D	
    	siis	0		J	
saab	saa	b		V	b
Peeter	Peeter	0		H	sg n
Luts	luts	0		S	sg n
ja	ja	0		J	
tema	tema	0		P	sg g
    	tema	0		P	sg n
naene	####				
Luukse	####				
talult	talu	lt		S	sg abl
iga	iga	0		P	sg g
   	iga	0		P	sg n
   	iga	0		P	sg p
   	iga	0		S	sg n
   	iga	0		S	sg p
aasta	aasta	0		S	sg g
     	aasta	0		S	sg n
20	20	0		N	?
vakka	vakk	0		S	adt
     	vakk	0		S	sg p
     	vakka	0		D	
vilja	vili	0		S	adt
     	vili	0		S	sg g
     	vili	0		S	sg p
,	,			Z	
üks	üks	0		N	sg n
   	üks	0		P	sg n
nuumata	nuum	ta		S	sg ab
       	nuuma	ta		V	da
       	nuuma	ta		V	ta
siga	siga	0		A	sg n
    	siga	0		A	sg p
    	siga	0		S	sg n
    	siga	0		S	sg p
,	,			Z	
peab	pida	b		V	b
üks	üks	0		N	sg n
   	üks	0		P	sg n
lehm	lehm	0		S	sg n
ja	ja	0		J	
2	2	0		N	?
lammast	lammas	t		S	sg p
ja	ja	0		J	
maksab	maks	b		V	b
50rbl	####				
.	.			Z	
raha	raha	0		S	sg g
    	raha	0		S	sg n
    	raha	0		S	sg p
iga	iga	0		P	sg g
   	iga	0		P	sg n
   	iga	0		P	sg p
   	iga	0		S	sg n
   	iga	0		S	sg p
aastal	aasta	l		S	sg ad
;	;			Z	
annab	and	b		V	b
iga	iga	0		P	sg g
   	iga	0		P	sg n
   	iga	0		P	sg p
   	iga	0		S	sg n
   	iga	0		S	sg p
aastal	aasta	l		S	sg ad
poole	pool	0		N	sg g
     	pool	0		S	sg g
     	pool	e		S	pl p
     	poole	0		K	
     	poole	0		S	sg n
vakamaa	vaka_maa	0		S	sg g
       	vaka_maa	0		S	sg n
kartuhvli	####				
ja	ja	0		J	
kapsta	####				
maad	maa	d		S	pl n
    	maa	d		S	sg p
ja	ja	0		J	
peab	pida	b		V	b
üks	üks	0		N	sg n
   	üks	0		P	sg n
hobune	hobune	0		S	sg n
isale	isa	le		S	sg all
.	.			Z	
III.	III	0		O	?
    	III	0		Y	?
saab	saa	b		V	b
tütar	tütar	0		S	sg n
el	####				
250rbl	####				
.	.			Z	
raha	raha	0		S	sg g
    	raha	0		S	sg n
    	raha	0		S	sg p
(	(			Z	
kaks	kaks	0		N	sg n
saada	saa	da		V	da
     	saat	0		V	o
     	saa	da		V	ta
viiskümmend	viis_kümmend	0		N	sg n
rbl	rbl	0		Y	?
.	.			Z	
)	)			Z	
.	.			Z	
Jaan	Jaan	0		H	sg n
    	jaan	0		S	sg n
    	jaan	0		Y	?
Ehrmanni	####				
naene	####				
.	.			Z	
IV.	IV	0		O	?
   	IV	0		Y	?
saab	saa	b		V	b
tütar	tütar	0		S	sg n
Eeva	Eeva	0		H	sg g
    	Eeva	0		H	sg n
,	,			Z	
kes	kes	0		P	pl n
   	kes	0		P	sg n
sepp	sepp	0		S	sg n
Jakob	Jakob	0		H	sg n
Kampus	####				
abikaasa	abi_kaasa	0		S	sg g
        	abi_kaasa	0		S	sg n
on	ole	0		V	b
  	ole	0		V	vad
,	,			Z	
raha	raha	0		S	sg g
    	raha	0		S	sg n
    	raha	0		S	sg p
asemel	ase	l		S	sg ad
      	asemel	0		K	
üks	üks	0		N	sg n
   	üks	0		P	sg n
vakamaa	vaka_maa	0		S	sg g
       	vaka_maa	0		S	sg n
maad	maa	d		S	pl n
    	maa	d		S	sg p
Luukse	####				
karja	kari	0		S	adt
     	kari	0		S	sg g
     	kari	0		S	sg p
maalt	maa	lt		S	sg abl
elumaja	elu_maja	0		S	sg g
       	elu_maja	0		S	sg n
       	elu_maja	0		S	sg p
ja	ja	0		J	
sepikoa	sepik_uba	0		S	sg g
asemeks	ase	ks		S	sg tr
,	,			Z	
kus	kus	0		D	
ka	ka	0		D	
hooned	hoone	d		S	pl n
juba	juba	0		D	
ülesehitatud	üles_ehitatu	d		S	pl n
            	üles_ehitatud	0		A	
            	üles_ehitatud	0		A	sg n
            	üles_ehitatud	d		A	pl n
on	ole	0		V	b
  	ole	0		V	vad
ja	ja	0		J	
Luukse	####				
nurmest	nurm	st		S	sg el
kaks	kaks	0		N	sg n
vakamaad	vaka_maa	d		S	pl n
        	vaka_maa	d		S	sg p
põldu	põld	0		S	adt
     	põld	0		S	sg p
,	,			Z	
talu	talu	0		S	sg g
    	talu	0		V	o
    	talu	0		S	sg n
    	talu	0		S	sg p
otsa	ots	0		S	adt
    	ots	0		S	sg g
    	otsa	0		D	
    	otsa	0		K	
    	otsa	0		V	o
    	ots	0		S	sg p
pealt	pea	lt		S	sg abl
     	pealt	0		D	
     	pealt	0		K	
,	,			Z	
vastu	vastu	0		D	
     	vastu	0		K	
Miku	Mikk	0		H	sg g
talu	talu	0		S	sg g
    	talu	0		V	o
    	talu	0		S	sg n
    	talu	0		S	sg p
piiri	piir	0		S	adt
     	piir	0		S	sg g
     	piir	0		S	sg p
,	,			Z	
põlluks	põld	ks		S	sg tr
pruukida	pruuki	da		V	da
ja	ja	0		J	
kolm	kolm	0		N	sg n
vakamaad	vaka_maa	d		S	pl n
        	vaka_maa	d		S	sg p
heinamaad	heina_maa	d		S	pl n
         	heina_maa	d		S	sg p
Rootsi-mäelt	Rootsi-mägi	lt		S	sg abl
,	,			Z	
vastu	vastu	0		D	
     	vastu	0		K	
Hindu	hind	u		S	pl p
     	hindu	0		S	sg g
     	hindu	0		S	sg n
talu	talu	0		S	sg g
    	talu	0		V	o
    	talu	0		S	sg n
    	talu	0		S	sg p
piiri	piir	0		S	adt
     	piir	0		S	sg g
     	piir	0		S	sg p
,	,			Z	
lehmakarjas	lehma_kari	s		S	sg in
käik	käik	0		S	sg n
on	ole	0		V	b
  	ole	0		V	vad
prii	prii	0		A	sg g
    	prii	0		A	sg n
.	.			Z	
V.	V.	0		Y	?
saab	saa	b		V	b
tütar	tütar	0		S	sg n
Annik	####				
250rbl	####				
.	.			Z	
(	(			Z	
kaks	kaks	0		N	sg n
saada	saa	da		V	da
     	saat	0		V	o
     	saa	da		V	ta
viiskümmend	viis_kümmend	0		N	sg n
rbl	rbl	0		Y	?
.	.			Z	
)	)			Z	
raha	raha	0		S	sg g
    	raha	0		S	sg n
    	raha	0		S	sg p
,	,			Z	
kaks	kaks	0		N	sg n
lehma	lehm	0		S	adt
     	lehm	0		S	sg g
     	lehm	0		S	sg p
,	,			Z	
üks	üks	0		N	sg n
   	üks	0		P	sg n
siga	siga	0		A	sg n
    	siga	0		A	sg p
    	siga	0		S	sg n
    	siga	0		S	sg p
ja	ja	0		J	
üks	üks	0		N	sg n
   	üks	0		P	sg n
lammas	lammas	0		S	sg n
;	;			Z	
Annik	####				
on	ole	0		V	b
  	ole	0		V	vad
praegu	praegu	0		D	
tüdruk	tüdruk	0		S	sg n
.	.			Z	
Vi	####				
.	.			Z	
Margus	Margus	0		H	sg n
Luts	luts	0		S	sg n
,	,			Z	
tütar	tütar	0		S	sg n
Liisu	liisk	0		S	sg g
     	liisu	0		V	o
poeg	poeg	0		S	sg n
,	,			Z	
saab	saa	b		V	b
200rbl	####				
.	.			Z	
raha	raha	0		S	sg g
    	raha	0		S	sg n
    	raha	0		S	sg p
(	(			Z	
kakssada-	kaks_sada	0		N	sg n
rbl	rbl	0		Y	?
.	.			Z	
)	)			Z	
.	.			Z	
VII.	vii	0		V	o
    	vii	0		O	?
tütar	tütar	0		S	sg n
Mari	Mari	0		H	sg g
    	mari	0		S	sg g
    	mari	0		S	sg n
    	Mari	0		H	sg n
    	mari	0		S	sg p
,	,			Z	
kes	kes	0		P	pl n
   	kes	0		P	sg n
Margus	Margus	0		H	sg n
Grünfeldti	####				
abikaasa	abi_kaasa	0		S	sg g
        	abi_kaasa	0		S	sg n
on	ole	0		V	b
  	ole	0		V	vad
,	,			Z	
on	ole	0		V	b
  	ole	0		V	vad
saanud	saa	nud		V	nud
      	saa=nud	0		A	
      	saa=nud	0		A	sg n
      	saa=nud	d		A	pl n
      	saanu	d		S	pl n
150rbl	####				
.	.			Z	
äramakstud	ära_maks=tu	d		S	pl n
          	ära_maks=tud	0		A	
          	ära_maks=tud	0		A	sg n
          	ära_maks=tud	d		A	pl n
ja	ja	0		J	
saab	saa	b		V	b
veel	veel	0		D	
    	vesi	l		S	sg ad
juure	juur	0		S	sg g
makstud	maks	tud		V	tud
       	maks=tu	d		S	pl n
       	maks=tud	0		A	
       	maks=tud	0		A	sg n
       	maks=tud	d		A	pl n
50rbl	####				
.	.			Z	
(	(			Z	
viiskümmend	viis_kümmend	0		N	sg n
rbl	rbl	0		Y	?
.	.			Z	
)	)			Z	
.	.			Z	
VIII.	VIII	0		O	?
     	VIII	0		Y	?
tütar	tütar	0		S	sg n
Liisu	liisk	0		S	sg g
     	liisu	0		V	o
,	,			Z	
kes	kes	0		P	pl n
   	kes	0		P	sg n
Endrik	Endrik	0		H	sg n
paluda	palu	da		V	da
abikaasa	abi_kaasa	0		S	sg g
        	abi_kaasa	0		S	sg n
on	ole	0		V	b
  	ole	0		V	vad
,	,			Z	
saab	saa	b		V	b
veel	veel	0		D	
    	vesi	l		S	sg ad
50rbl	####				
.	.			Z	
(	(			Z	
viiskümmend	viis_kümmend	0		N	sg n
rbl	rbl	0		Y	?
.	.			Z	
)	)			Z	
aga	aga	0		J	
muidu	muidu	0		D	
on	ole	0		V	b
  	ole	0		V	vad
kõik	kõik	0		P	pl n
    	kõik	0		S	sg n
    	kõik	0		P	sg n
juba	juba	0		D	
ära	ära	0		D	
   	ära	0		V	neg o
õientud	####				
.	.			Z	
IX.	IX	0		O	?
   	IX	0		Y	?
tütar	tütar	0		S	sg n
Ann	Ann	0		H	sg n
,	,			Z	
kes	kes	0		P	pl n
   	kes	0		P	sg n
Simon	Simon	0		H	sg n
paluda	palu	da		V	da
abikaasa	abi_kaasa	0		S	sg g
        	abi_kaasa	0		S	sg n
on	ole	0		V	b
  	ole	0		V	vad
,	,			Z	
ei	ei	0		D	
  	ei	0		V	neg
saa	saa	0		V	o
enam	enam	0		C	sg n
    	enam	0		D	
midagi	miski	dagi		P	sg p
;	;			Z	
seal	seal	0		D	
    	siga	l		A	sg ad
    	siga	l		S	sg ad
et	et	0		J	
sellesama	see_sama	0		P	sg g
oma	oma	0		A	sg g
   	oma	0		D	
   	oma	0		P	sg g
   	oma	0		S	sg g
   	oma	0		V	o
   	oma	0		A	sg n
   	oma	0		A	sg p
   	oma	0		P	sg n
   	oma	0		P	sg p
   	oma	0		S	sg n
   	oma	0		S	sg p
jagu	jagu	0		S	sg n
    	jagu	0		V	o
    	jagu	0		S	sg p
kõik	kõik	0		P	pl n
    	kõik	0		S	sg n
    	kõik	0		P	sg n
juba	juba	0		D	
kätte	kätte	0		K	
     	käsi	tte		S	adt
saanud	saa	nud		V	nud
      	saa=nud	0		A	
      	saa=nud	0		A	sg n
      	saa=nud	d		A	pl n
      	saanu	d		S	pl n
on	ole	0		V	b
  	ole	0		V	vad
.	.			Z	
X. See	####				
raha	raha	0		S	sg g
    	raha	0		S	sg n
    	raha	0		S	sg p
eest	eest	0		D	
    	eest	0		K	
    	esi	st		S	sg el
mis	mis	0		P	pl n
   	mis	0		P	sg n
Mats	Mats	0		H	sg n
    	mats	0		A	sg n
    	mats	0		S	sg n
Lutsul	luts	l		S	sg ad
nüüd	nüüd	0		D	
tõistele	####				
ees	ees	0		D	
   	ees	0		K	
   	esi	s		S	sg in
pool	pool	0		K	
    	pool	0		N	sg n
    	pool	0		S	sg n
tähendud	####				
osasikadale	####				
välja	välja	0		D	
     	välja	0		V	o
     	väli	0		S	adt
     	väli	0		S	sg g
     	väli	0		S	sg p
maksa	maks	0		S	adt
     	maks	0		S	sg g
     	maks	0		V	o
     	maks	0		S	sg p
jääb	jää	b		V	b
,	,			Z	
ei	ei	0		D	
  	ei	0		V	neg
või	või	0		S	sg g
   	või	0		V	o
   	või	0		D	
   	või	0		J	
   	või	0		S	sg n
keegi	kee	0	gi	S	sg g
     	kee	0	gi	V	o
     	keegi	0		P	sg n
     	kee	0	gi	S	sg n
enne	enne	0		D	
    	enne	0		K	
    	enne	0		S	sg n
kümmend	####				
aastat	aasta	t		S	sg p
protsendi	protsent	0		S	sg g
nõuda	nõud	a		V	da
.	.			Z	
Xi	####				
.	.			Z	
Mats	Mats	0		H	sg n
    	mats	0		A	sg n
    	mats	0		S	sg n
Luts	luts	0		S	sg n
peab	pida	b		V	b
kõik	kõik	0		P	pl n
    	kõik	0		S	sg n
    	kõik	0		P	sg n
need	see	d		P	pl n
punktid	punkt	d		S	pl n
       	punkti	d		V	d
ja	ja	0		J	
tingimused	tingimus	d		S	pl n
täielikult	täielik	lt		A	sg abl
          	täielikult	0		D	
täitma	täit	ma		V	ma
.	.			Z	
sellega	see	ga		P	sg kom
allpool	all_pool	0		D	
       	all_pool	0		K	
tähendud	####				
pärandajat	päranda=ja	t		S	sg p
ja	ja	0		J	
osasikud	osa_sikk	d		S	pl n
,	,			Z	
kui	kui	0		D	
   	kui	0		J	
ka	ka	0		D	
Peeter	Peeter	0		H	sg n
Luts	luts	0		S	sg n
ja	ja	0		J	
poeg	poeg	0		S	sg n
Mats	Mats	0		H	sg n
    	mats	0		A	sg n
    	mats	0		S	sg n
Luts	luts	0		S	sg n
rahul	rahu	l		S	sg ad
     	rahul	0		D	
olnud	ol=nud	0		A	
     	ol=nud	0		A	sg n
     	ol=nud	d		A	pl n
     	ole	nud		V	nud
     	olnu	d		S	pl n
,	,			Z	
mida	mis	da		P	pl p
    	mis	da		P	sg p
nad	tema	d		P	pl n
oma	oma	0		A	sg g
   	oma	0		D	
   	oma	0		P	sg g
   	oma	0		S	sg g
   	oma	0		V	o
   	oma	0		A	sg n
   	oma	0		A	sg p
   	oma	0		P	sg n
   	oma	0		P	sg p
   	oma	0		S	sg n
   	oma	0		S	sg p
nimeta	nimeta	0		V	o
      	nimi	ta		S	sg ab
allkirjastamisega	all_kirjastamine	ga		S	sg kom
tõeks	tõde	ks		S	sg tr
     	tõsi	ks		S	sg tr
ja	ja	0		J	
kindlaks	kindel	ks		A	sg tr
tunnistavad	tunnista	vad		V	vad
           	tunnista=v	d		A	pl n
.	.			Z	
Peeter	Peeter	0		H	sg n
Luts	luts	0		S	sg n
XXX	XXX	0		O	?
   	XXX	0		Y	?
Mats	Mats	0		H	sg n
    	mats	0		A	sg n
    	mats	0		S	sg n
Luts	luts	0		S	sg n
XXX	XXX	0		O	?
   	XXX	0		Y	?
Jakob	Jakob	0		H	sg n
Kampus	####				
XXX	XXX	0		O	?
   	XXX	0		Y	?
Jaan	Jaan	0		H	sg n
    	jaan	0		S	sg n
    	jaan	0		Y	?
Ehrmann	####				
XXX	XXX	0		O	?
   	XXX	0		Y	?
Endrik	Endrik	0		H	sg n
Palu	pala	u		S	pl p
    	palu	0		S	sg g
    	palu	0		V	o
    	palu	0		S	sg n
    	palu	0		S	sg p
XXX	XXX	0		O	?
   	XXX	0		Y	?
Margus	Margus	0		H	sg n
Grünfeldt	####				
(	(			Z	
allkiri	all_kiri	0		S	sg n
)	)			Z	
otsus	otsus	0		S	sg n
:	:			Z	
protokolli	protokoll	0		S	adt
          	protokoll	0		S	sg g
          	protokolli	0		V	o
          	protokoll	0		S	sg p
kirjutada	kirjuta	da		V	da
.	.			Z	
Peakohtumees	pea_kohtu_mees	0		S	sg n
M	M	0		O	?
 	M	0		Y	?
Roth	####				
(	(			Z	
allkiri	all_kiri	0		S	sg n
)	)			Z	
kohtumees	kohtu_mees	0		S	sg n
J	J	0		Y	?
Järlov	####				
(	(			Z	
allkiri	all_kiri	0		S	sg n
)	)			Z	
kohtumees	kohtu_mees	0		S	sg n
p	p	0		Y	?
Leverdand	####				
(	(			Z	
allkiri	all_kiri	0		S	sg n
)	)			Z	
Kirjut	kirju	t		A	sg p
.	.			Z	
(	(			Z	
allkiri	all_kiri	0		S	sg n
)	)			Z	
