Aastus	####				
ette	ette	0		D	
    	ette	0		K	
    	esi	tte		S	adt
Mihkel	Mihkel	0		H	sg n
      	mihkel	0		A	sg n
      	mihkel	0		S	sg n
Kukk	kukk	0		S	sg n
ja	ja	0		J	
kaebas	kaeba	s		V	s
et	et	0		J	
Jüri	Jüri	0		H	sg g
    	Jüri	0		H	sg n
Kukk	kukk	0		S	sg n
ei	ei	0		D	
  	ei	0		V	neg
maksa	maks	0		S	adt
     	maks	0		S	sg g
     	maks	0		V	o
     	maks	0		S	sg p
tema	tema	0		P	sg g
    	tema	0		P	sg n
jagu	jagu	0		S	sg n
    	jagu	0		V	o
    	jagu	0		S	sg p
15	15	0		N	?
rubal	####				
ära	ära	0		D	
   	ära	0		V	neg o
siis	siis	0		D	
    	siis	0		J	
sai	saa	i		V	s
   	sai	0		S	sg n
Kohtu	kohtu	0		V	o
     	kohus	0		S	sg g
polest	####				
moistetud	####				
et	et	0		J	
Jüri	Jüri	0		H	sg g
    	Jüri	0		H	sg n
maksab	maks	b		V	b
Mihkli	Mihkel	0		H	sg g
      	Mihkli	0		H	sg g
      	mihkel	0		A	sg g
      	mihkel	0		S	sg g
      	Mihkli	0		H	sg n
pävast	####				
pool	pool	0		K	
    	pool	0		N	sg n
    	pool	0		S	sg n
raha	raha	0		S	sg g
    	raha	0		S	sg n
    	raha	0		S	sg p
ja	ja	0		J	
Küünla	küünal	0		S	sg g
pävast	####				
pool	pool	0		K	
    	pool	0		N	sg n
    	pool	0		S	sg n
raha	raha	0		S	sg g
    	raha	0		S	sg n
    	raha	0		S	sg p
ära	ära	0		D	
   	ära	0		V	neg o
mis	mis	0		P	pl n
   	mis	0		P	sg n
tunnistab	tunnista	b		V	b
kohtomees	####				
Jaan	Jaan	0		H	sg n
    	jaan	0		S	sg n
    	jaan	0		Y	?
Venne	####				
XXX	XXX	0		O	?
   	XXX	0		Y	?
