sesama	####				
kord	kord	0		D	
    	kord	0		S	sg n
.	.			Z	
Rudolf	Rudolf	0		H	sg n
Obram	####				
kaebab	kaeba	b		V	b
,	,			Z	
Savi	savi	0		S	sg g
    	savi	0		S	sg n
    	savi	0		S	sg p
Tõnu	Tõnu	0		H	sg g
    	Tõnu	0		H	sg n
om	####				
oma	oma	0		A	sg g
   	oma	0		D	
   	oma	0		P	sg g
   	oma	0		S	sg g
   	oma	0		V	o
   	oma	0		A	sg n
   	oma	0		A	sg p
   	oma	0		P	sg n
   	oma	0		P	sg p
   	oma	0		S	sg n
   	oma	0		S	sg p
karjapoistel	karja_poiss	tel		S	pl ad
luhast	luht	st		S	sg el
linu	lina	u		S	pl p
lasknud	lask	nud		V	nud
       	lask=nu	d		S	pl n
       	lask=nud	0		A	
       	lask=nud	0		A	sg n
       	lask=nud	d		A	pl n
varastada	varasta	da		V	da
ning	ning	0		J	
nemad	tema	d		P	pl n
on	ole	0		V	b
  	ole	0		V	vad
ise	ise	0		A	
   	ise	0		D	
   	ise	0		P	pl n
   	ise	0		P	sg n
kätte	kätte	0		K	
     	käsi	tte		S	adt
saanud	saa	nud		V	nud
      	saa=nud	0		A	
      	saa=nud	0		A	sg n
      	saa=nud	d		A	pl n
      	saanu	d		S	pl n
ja	ja	0		J	
linad	lina	d		S	pl n
on	ole	0		V	b
  	ole	0		V	vad
keldris	kelder	s		S	sg in
olnud	ol=nud	0		A	
     	ol=nud	0		A	sg n
     	ol=nud	d		A	pl n
     	ole	nud		V	nud
     	olnu	d		S	pl n
50	50	0		N	?
peo	peo	0		S	sg g
   	pidu	0		S	sg g
   	peo	0		S	sg n
kui	kui	0		D	
   	kui	0		J	
nad	tema	d		P	pl n
kohtu	kohtu	0		V	o
     	kohus	0		S	sg g
mehega	mees	ga		S	sg kom
järgi	järg	i		S	pl p
     	järgi	0		D	
     	järgi	0		K	
     	järgi	0		V	o
läinud	läinu	d		S	pl n
      	läinud	0		A	
      	läinud	0		A	sg n
      	läinud	d		A	pl n
      	mine	nud		V	nud
ja	ja	0		J	
temal	tema	l		P	sg ad
on	ole	0		V	b
  	ole	0		V	vad
iga	iga	0		P	sg g
   	iga	0		P	sg n
   	iga	0		P	sg p
   	iga	0		S	sg n
   	iga	0		S	sg p
aasta	aasta	0		S	sg g
     	aasta	0		S	sg n
palju	palju	0		D	
     	palju	0		P	sg g
     	palju	0		P	sg n
lina	lina	0		S	sg g
    	lina	0		S	sg n
    	lina	0		S	sg p
ära	ära	0		D	
   	ära	0		V	neg o
kadunud	kadu	nud		V	nud
       	kadunu	d		S	pl n
       	kadunud	0		A	
       	kadunud	0		A	sg n
       	kadunud	d		A	pl n
.	.			Z	
ninng	####				
kohtumees	kohtu_mees	0		S	sg n
on	ole	0		V	b
  	ole	0		V	vad
leidnud	leid	nud		V	nud
       	leid=nu	d		S	pl n
       	leid=nud	0		A	
       	leid=nud	0		A	sg n
       	leid=nud	d		A	pl n
peale	pea	le		S	sg all
     	peale	0		D	
     	peale	0		K	
30	30	0		N	?
linna	linn	0		S	adt
     	linn	0		S	sg g
     	linn	0		S	sg p
kubu	kubu	0		S	sg g
    	kubu	0		S	sg n
    	kubu	0		S	sg p
sida	####				
et	et	0		J	
nad	tema	d		P	pl n
olla	ole	a		V	da
ka	ka	0		D	
karjatsed	####				
kesk	kesk	0		K	
päeva	päev	0		S	adt
     	päev	0		S	sg g
     	päev	0		S	sg p
ajal	aeg	l		S	sg ad
    	ajal	0		K	
kätte	kätte	0		K	
     	käsi	tte		S	adt
saanud	saa	nud		V	nud
      	saa=nud	0		A	
      	saa=nud	0		A	sg n
      	saa=nud	d		A	pl n
      	saanu	d		S	pl n
kui	kui	0		D	
   	kui	0		J	
se	####				
parajast	paras	st		A	sg el
lina	lina	0		S	sg g
    	lina	0		S	sg n
    	lina	0		S	sg p
viinud	vii	nud		V	nud
      	vii=nu	d		S	pl n
      	vii=nud	0		A	
      	vii=nud	0		A	sg n
      	vii=nud	d		A	pl n
.	.			Z	
Savi	savi	0		S	sg g
    	savi	0		S	sg n
    	savi	0		S	sg p
Tõnu	Tõnu	0		H	sg g
    	Tõnu	0		H	sg n
vastas	vasta	s		V	s
      	vastas	0		D	
      	vastas	0		K	
vib	####				
olla	ole	a		V	da
,	,			Z	
et	et	0		J	
noid	too	d		P	pl p
on	ole	0		V	b
  	ole	0		V	vad
toodud	too	dud		V	tud
      	toodu	d		S	pl n
      	toodud	0		A	
      	toodud	0		A	sg n
      	toodud	d		A	pl n
aga	aga	0		J	
tema	tema	0		P	sg g
    	tema	0		P	sg n
ei	ei	0		D	
  	ei	0		V	neg
tea	tead	0		V	o
mis	mis	0		P	pl n
   	mis	0		P	sg n
lapsed	laps	d		S	pl n
tevat	####				
ning	ning	0		J	
karjatsed	####				
olla	ole	a		V	da
temale	tema	le		P	sg all
öelnud	öel=nu	d		S	pl n
      	öel=nud	0		A	
      	öel=nud	0		A	sg n
      	öel=nud	d		A	pl n
      	ütle	nud		V	nud
nad	tema	d		P	pl n
olla	ole	a		V	da
leu	leu	0		S	sg g
   	leu	0		S	sg n
äärest	äär	st		S	sg el
      	äärest	0		K	
korjanud	korja	nud		V	nud
        	korja=nu	d		S	pl n
        	korja=nud	0		A	
        	korja=nud	0		A	sg n
        	korja=nud	d		A	pl n
.	.			Z	
ette	ette	0		D	
    	ette	0		K	
    	esi	tte		S	adt
kutsutud	kutsu	tud		V	tud
        	kutsutu	d		S	pl n
        	kutsutud	0		A	
        	kutsutud	0		A	sg n
        	kutsutud	d		A	pl n
karjaudruk	####				
Mai	Mai	0		H	sg g
   	Mai	0		H	sg n
   	mai	0		S	sg g
   	mai	0		S	sg n
Teimann	####				
ja	ja	0		J	
ütles	ütle	s		V	s
ta	tema	0		P	sg g
  	tema	0		P	sg n
olla	ole	a		V	da
tigi	####				
korjanud	korja	nud		V	nud
        	korja=nu	d		S	pl n
        	korja=nud	0		A	
        	korja=nud	0		A	sg n
        	korja=nud	d		A	pl n
ja	ja	0		J	
pole	ole	0		V	neg o
rohkem	rohkem	0		D	
toonud	too	nud		V	nud
      	too=nu	d		S	pl n
      	too=nud	0		A	
      	too=nud	0		A	sg n
      	too=nud	d		A	pl n
kui	kui	0		D	
   	kui	0		J	
5	5	0		N	?
pea	pea	0		D	
   	pea	0		S	sg g
   	pida	0		V	o
   	pea	0		S	sg n
.	.			Z	
astus	astu	s		V	s
ette	ette	0		D	
    	ette	0		K	
    	esi	tte		S	adt
Mari	Mari	0		H	sg g
    	mari	0		S	sg g
    	mari	0		S	sg n
    	Mari	0		H	sg n
    	mari	0		S	sg p
Laus	laug	s		S	sg in
ja	ja	0		J	
vastas	vasta	s		V	s
      	vastas	0		D	
      	vastas	0		K	
need	see	d		P	pl n
olla	ole	a		V	da
ta	tema	0		P	sg g
  	tema	0		P	sg n
omad	oma	d		A	pl n
    	oma	d		P	pl n
    	oma	d		S	pl n
    	oma	d		V	d
linad	lina	d		S	pl n
olnud	ol=nud	0		A	
     	ol=nud	0		A	sg n
     	ol=nud	d		A	pl n
     	ole	nud		V	nud
     	olnu	d		S	pl n
,	,			Z	
mis	mis	0		P	pl n
   	mis	0		P	sg n
Kelris	####				
olnud	ol=nud	0		A	
     	ol=nud	0		A	sg n
     	ol=nud	d		A	pl n
     	ole	nud		V	nud
     	olnu	d		S	pl n
aga	aga	0		J	
se	####				
olla	ole	a		V	da
tema	tema	0		P	sg g
    	tema	0		P	sg n
rumalus	rumalus	0		S	sg n
et	et	0		J	
ta	tema	0		P	sg g
  	tema	0		P	sg n
neid	neid	0		S	sg n
    	see	d		P	pl p
    	tema	d		P	pl p
keldri	kelder	0		S	sg g
kannud	kann	d		S	pl n
.	.			Z	
olla	ole	a		V	da
ka	ka	0		D	
teadnud	tead	nud		V	nud
       	tead=nu	d		S	pl n
       	tead=nud	0		A	
       	tead=nud	0		A	sg n
       	tead=nud	d		A	pl n
et	et	0		J	
tüdruk	tüdruk	0		S	sg n
25	25	0		N	?
peo	peo	0		S	sg g
   	pidu	0		S	sg g
   	peo	0		S	sg n
Rehtniku	####				
linu	lina	u		S	pl p
toonud	too	nud		V	nud
      	too=nu	d		S	pl n
      	too=nud	0		A	
      	too=nud	0		A	sg n
      	too=nud	d		A	pl n
ning	ning	0		J	
tema	tema	0		P	sg g
    	tema	0		P	sg n
andnud	and	nud		V	nud
      	and=nu	d		S	pl n
      	and=nud	0		A	
      	and=nud	0		A	sg n
      	and=nud	d		A	pl n
neid	neid	0		S	sg n
    	see	d		P	pl p
    	tema	d		P	pl p
sulase	sulane	0		S	sg g
kätte	kätte	0		K	
     	käsi	tte		S	adt
tagasi	tagasi	0		D	
      	tagasi	0		K	
.	.			Z	
astus	astu	s		V	s
ette	ette	0		D	
    	ette	0		K	
    	esi	tte		S	adt
Jaan	Jaan	0		H	sg n
    	jaan	0		S	sg n
    	jaan	0		Y	?
Liivak	liivak	0		S	sg n
kes	kes	0		P	pl n
   	kes	0		P	sg n
ise	ise	0		A	
   	ise	0		D	
   	ise	0		P	pl n
   	ise	0		P	sg n
karjatüdrukuid	karja_tüdruk	id		S	pl p
kinni	kinni	0		D	
oli	ole	i		V	s
võtnud	võt	nud		V	nud
      	võt=nu	d		S	pl n
      	võt=nud	0		A	
      	võt=nud	0		A	sg n
      	võt=nud	d		A	pl n
kui	kui	0		D	
   	kui	0		J	
se	####				
tema	tema	0		P	sg g
    	tema	0		P	sg n
linadega	lina	dega		S	pl kom
läinud	läinu	d		S	pl n
      	läinud	0		A	
      	läinud	0		A	sg n
      	läinud	d		A	pl n
      	mine	nud		V	nud
ninng	####				
otsinud	otsi	nud		V	nud
       	otsi=nu	d		S	pl n
       	otsi=nud	0		A	
       	otsi=nud	0		A	sg n
       	otsi=nud	d		A	pl n
omad	oma	d		A	pl n
    	oma	d		P	pl n
    	oma	d		S	pl n
    	oma	d		V	d
peud	####				
välja	välja	0		D	
     	välja	0		V	o
     	väli	0		S	adt
     	väli	0		S	sg g
     	väli	0		S	sg p
kohtumehe	kohtu_mees	0		S	sg g
Jüri	Jüri	0		H	sg g
    	Jüri	0		H	sg n
Luha	luht	0		S	sg g
ülevatamise	####				
al	####				
ninng	####				
neid	neid	0		S	sg n
    	see	d		P	pl p
    	tema	d		P	pl p
olnud	ol=nud	0		A	
     	ol=nud	0		A	sg n
     	ol=nud	d		A	pl n
     	ole	nud		V	nud
     	olnu	d		S	pl n
40	40	0		N	?
peo	peo	0		S	sg g
   	pidu	0		S	sg g
   	peo	0		S	sg n
ning	ning	0		J	
rentniku	rentnik	0		S	sg g
linu	lina	u		S	pl p
jäänud	jää	nud		V	nud
      	jäänu	d		S	pl n
      	jäänud	0		A	
      	jäänud	0		A	sg n
      	jäänud	d		A	pl n
arvata	arva	ta		V	da
      	arva	ta		V	ta
      	arvata	0		D	
4	4	0		N	?
kubu	kubu	0		S	sg g
    	kubu	0		S	sg n
    	kubu	0		S	sg p
rentnik	rentnik	0		S	sg n
nõuab	nõud	b		V	b
se	####				
eest	eest	0		D	
    	eest	0		K	
    	esi	st		S	sg el
10	10	0		N	?
rubl	####				
.	.			Z	
ja	ja	0		J	
Jaak	Jaak	0		H	sg n
    	jaak	0		S	sg n
Lvak	####				
kohtuotsus	kohtu_otsus	0		S	sg n
.	.			Z	
Mari	Mari	0		H	sg g
    	mari	0		S	sg g
    	mari	0		S	sg n
    	Mari	0		H	sg n
    	mari	0		S	sg p
Laus	laug	s		S	sg in
,	,			Z	
sab	####				
salgamise	salga=mine	0		S	sg g
eest	eest	0		D	
    	eest	0		K	
    	esi	st		S	sg el
24	24	0		N	?
tunnis	tund	s		S	sg in
kinnipandud	kinni_pan=du	d		S	pl n
           	kinni_pan=dud	0		A	
           	kinni_pan=dud	0		A	sg n
           	kinni_pan=dud	d		A	pl n
,	,			Z	
ning	ning	0		J	
ka	ka	0		D	
veel	veel	0		D	
    	vesi	l		S	sg ad
vargust	vargus	t		S	sg p
kõrvale	kõrv	le		S	sg all
       	kõrvale	0		D	
       	kõrvale	0		K	
võtnud	võt	nud		V	nud
      	võt=nu	d		S	pl n
      	võt=nud	0		A	
      	võt=nud	0		A	sg n
      	võt=nud	d		A	pl n
.	.			Z	
et	et	0		J	
aga	aga	0		J	
mitte	mitte	0		D	
selgeste	####				
teda	tema	da		P	sg p
ei	ei	0		D	
  	ei	0		V	neg
ole	ole	0		V	o
kui	kui	0		D	
   	kui	0		J	
palju	palju	0		D	
     	palju	0		P	sg g
     	palju	0		P	sg n
rentnikul	rentnik	l		S	sg ad
vaja	vaja	0		D	
    	vaja	0		V	o
on	ole	0		V	b
  	ole	0		V	vad
siis	siis	0		D	
    	siis	0		J	
mõistab	mõist	b		V	b
kohus	kohu	s		V	s
     	kohus	0		S	sg n
2	2	0		N	?
R 50	R50	0		Y	?
kop	kop	0		Y	?
.	.			Z	
nendest	see	dest		P	pl el
       	tema	dest		P	pl el
mis	mis	0		P	pl n
   	mis	0		P	sg n
leitud	leid	tud		V	tud
      	leitu	d		S	pl n
      	leitud	0		A	
      	leitud	0		A	sg n
      	leitud	d		A	pl n
sai	saa	i		V	s
   	sai	0		S	sg n
.	.			Z	
Jaan	Jaan	0		H	sg n
    	jaan	0		S	sg n
    	jaan	0		Y	?
Liivak	liivak	0		S	sg n
peab	pida	b		V	b
omad	oma	d		A	pl n
    	oma	d		P	pl n
    	oma	d		S	pl n
    	oma	d		V	d
linad	lina	d		S	pl n
katte	katt	e		S	pl p
     	kate	0		S	sg g
saama	saa	ma		V	ma
     	saam	0		S	adt
     	saam	0		S	sg g
     	saam	0		S	sg p
ja	ja	0		J	
karjatsed	####				
saavad	saa	vad		V	vad
      	saav	d		A	pl n
      	saav	d		S	pl n
saavad	saa	vad		V	vad
      	saav	d		A	pl n
      	saav	d		S	pl n
.	.			Z	
lugi	####				
Hans	Hans	0		H	sg n
pere	pere	0		S	sg g
    	pere	0		S	sg n
XXX	XXX	0		O	?
   	XXX	0		Y	?
Toonu	too=nu	0		S	sg g
     	too=nu	0		S	sg n
Bauer	####				
XXX	XXX	0		O	?
   	XXX	0		Y	?
Jüri	Jüri	0		H	sg g
    	Jüri	0		H	sg n
Luha	luht	0		S	sg g
XXX	XXX	0		O	?
   	XXX	0		Y	?
