№	№	0		Y	?
25	25	0		N	?
Krimanni	####				
kogukonna	kogukond	0		S	sg g
kohtus	kohtu	s		V	s
      	kohus	s		S	sg in
13	13	0		N	?
septembril	september	l		S	sg ad
1867.	1867.	0		O	?
Johan	Johan	0		H	sg n
Freyman	####				
tuli	tuli	0		S	sg n
    	tule	i		V	s
kogukonna	kogukond	0		S	sg g
kohtu	kohtu	0		V	o
     	kohus	0		S	sg g
ette	ette	0		D	
    	ette	0		K	
    	esi	tte		S	adt
ja	ja	0		J	
kaebas	kaeba	s		V	s
,	,			Z	
et	et	0		J	
tema	tema	0		P	sg g
    	tema	0		P	sg n
on	ole	0		V	b
  	ole	0		V	vad
6	6	0		N	?
punda	####				
ristik	ristik	0		S	sg n
heina	hein	0		S	adt
     	hein	0		S	sg g
     	hein	0		S	sg p
seemnid	####				
Pihlapuu	pihla_puu	0		S	sg g
        	pihla_puu	0		S	sg n
maja	maja	0		S	sg g
    	maja	0		S	sg n
    	maja	0		S	sg p
maa	maa	0		S	sg g
   	maa	0		S	sg n
peale	pea	le		S	sg all
     	peale	0		D	
     	peale	0		K	
külvanud	külva	nud		V	nud
        	külva=nu	d		S	pl n
        	külva=nud	0		A	
        	külva=nud	0		A	sg n
        	külva=nud	d		A	pl n
mineva	minev	0		A	sg g
aastal	aasta	l		S	sg ad
1866	1866	0		N	?
ja	ja	0		J	
Jaan	Jaan	0		H	sg n
    	jaan	0		S	sg n
    	jaan	0		Y	?
Põderson	####				
ostis	ost	is		V	s
     	ost	s		S	sg in
see	see	0		P	sg n
talu	talu	0		S	sg g
    	talu	0		V	o
    	talu	0		S	sg n
    	talu	0		S	sg p
koht	koht	0		S	sg n
ära	ära	0		D	
   	ära	0		V	neg o
ja	ja	0		J	
ei	ei	0		D	
  	ei	0		V	neg
taha	taht	0		V	o
    	taha	0		D	
    	taha	0		K	
mitte	mitte	0		D	
mulle	mull	e		S	pl p
     	mina	lle		P	sg all
     	mulle	0		S	sg n
ära	ära	0		D	
   	ära	0		V	neg o
maksta	maks	ta		V	da
      	maks	ta		V	ta
neid	neid	0		S	sg n
    	see	d		P	pl p
    	tema	d		P	pl p
ristikheina	ristik_hein	0		S	adt
           	ristik_hein	0		S	sg g
           	ristik_hein	0		S	sg p
seemnid	####				
mis	mis	0		P	pl n
   	mis	0		P	sg n
ma	mina	0		P	sg n
külvanud	külva	nud		V	nud
        	külva=nu	d		S	pl n
        	külva=nud	0		A	
        	külva=nud	0		A	sg n
        	külva=nud	d		A	pl n
olen	ole	n		V	n
sinna	sinna	0		D	
ma	mina	0		P	sg n
peale	pea	le		S	sg all
     	peale	0		D	
     	peale	0		K	
sai	saa	i		V	s
   	sai	0		S	sg n
Jaan	Jaan	0		H	sg n
    	jaan	0		S	sg n
    	jaan	0		Y	?
Põderson	####				
tuli	tuli	0		S	sg n
    	tule	i		V	s
ette	ette	0		D	
    	ette	0		K	
    	esi	tte		S	adt
ja	ja	0		J	
ütles	ütle	s		V	s
:	:			Z	
mina	mina	0		P	sg n
    	mina	0		S	sg g
    	mina	0		S	sg n
    	mina	0		S	sg p
olen	ole	n		V	n
need	see	d		P	pl n
maad	maa	d		S	pl n
    	maa	d		S	sg p
keige	####				
talu	talu	0		S	sg g
    	talu	0		V	o
    	talu	0		S	sg n
    	talu	0		S	sg p
viljaga	vili	ga		S	sg kom
ostnud	ost	nud		V	nud
      	ost=nu	d		S	pl n
      	ost=nud	0		A	
      	ost=nud	0		A	sg n
      	ost=nud	d		A	pl n
mis	mis	0		P	pl n
   	mis	0		P	sg n
sinna	sinna	0		D	
maha	maha	0		D	
peale	pea	le		S	sg all
     	peale	0		D	
     	peale	0		K	
tehtud	tehtu	d		S	pl n
      	tehtud	0		A	
      	tehtud	0		A	sg n
      	tehtud	d		A	pl n
      	tege	tud		V	tud
oli	ole	i		V	s
ja	ja	0		J	
minu	mina	0		P	sg g
käest	käest	0		K	
     	käsi	st		S	sg el
tema	tema	0		P	sg g
    	tema	0		P	sg n
küll	küll	0		D	
    	küll	0		S	sg n
seemende	####				
eest	eest	0		D	
    	eest	0		K	
    	esi	st		S	sg el
maksu	maks	0		S	adt
     	maks	0		S	sg g
     	maks	u		S	pl p
     	maks	0		S	sg p
ei	ei	0		D	
  	ei	0		V	neg
sa	sina	0		P	sg n
ja	ja	0		J	
seal	seal	0		D	
    	siga	l		A	sg ad
    	siga	l		S	sg ad
ei	ei	0		D	
  	ei	0		V	neg
ole	ole	0		V	o
ka	ka	0		D	
mitte	mitte	0		D	
nii	nii	0		D	
palju	palju	0		D	
     	palju	0		P	sg g
     	palju	0		P	sg n
maad	maa	d		S	pl n
    	maa	d		S	sg p
kuhu	kuhu	0		D	
tema	tema	0		P	sg g
    	tema	0		P	sg n
ristik	ristik	0		S	sg n
heina	hein	0		S	adt
     	hein	0		S	sg g
     	hein	0		S	sg p
seemnid	####				
külvanud	külva	nud		V	nud
        	külva=nu	d		S	pl n
        	külva=nud	0		A	
        	külva=nud	0		A	sg n
        	külva=nud	d		A	pl n
on	ole	0		V	b
  	ole	0		V	vad
.	.			Z	
Siis	siis	0		D	
    	siis	0		J	
sai	saa	i		V	s
   	sai	0		S	sg n
Johan	Johan	0		H	sg n
Freymanni	####				
käest	käest	0		K	
     	käsi	st		S	sg el
küsitud	küsi	tud		V	tud
       	küsi=tu	d		S	pl n
       	küsi=tud	0		A	
       	küsi=tud	0		A	sg n
       	küsi=tud	d		A	pl n
kui	kui	0		D	
   	kui	0		J	
palju	palju	0		D	
     	palju	0		P	sg g
     	palju	0		P	sg n
seda	see	da		P	sg p
maad	maa	d		S	pl n
    	maa	d		S	sg p
on	ole	0		V	b
  	ole	0		V	vad
ristik	ristik	0		S	sg n
heina	hein	0		S	adt
     	hein	0		S	sg g
     	hein	0		S	sg p
all	all	0		D	
   	all	0		K	
kus	kus	0		D	
sa	sina	0		P	sg n
külvanud	külva	nud		V	nud
        	külva=nu	d		S	pl n
        	külva=nud	0		A	
        	külva=nud	0		A	sg n
        	külva=nud	d		A	pl n
õled	õlg	d		S	pl n
see	see	0		P	sg n
peale	pea	le		S	sg all
     	peale	0		D	
     	peale	0		K	
kostis	kost	s		S	sg in
      	kost	is		V	s
Johan	Johan	0		H	sg n
Freyman	####				
iga	iga	0		P	sg g
   	iga	0		P	sg n
   	iga	0		P	sg p
   	iga	0		S	sg n
   	iga	0		S	sg p
mina	mina	0		P	sg n
    	mina	0		S	sg g
    	mina	0		S	sg n
    	mina	0		S	sg p
seda	see	da		P	sg p
maad	maa	d		S	pl n
    	maa	d		S	sg p
ei	ei	0		D	
  	ei	0		V	neg
ole	ole	0		V	o
mõetnud	####				
aga	aga	0		J	
see	see	0		P	sg n
läbi	läbi	0		D	
    	läbi	0		K	
    	läbi	0		V	o
on	ole	0		V	b
  	ole	0		V	vad
mul	mina	l		P	sg ad
nii	nii	0		D	
palju	palju	0		D	
     	palju	0		P	sg g
     	palju	0		P	sg n
seemet	seeme	t		S	sg p
teinud	tege	nud		V	nud
      	tei=nud	0		A	
      	tei=nud	0		A	sg n
      	tei=nud	d		A	pl n
      	teinu	d		S	pl n
et	et	0		J	
ma	mina	0		P	sg n
kahekõrdse	####				
seemne	seeme	0		S	sg g
olen	ole	n		V	n
külvanud	külva	nud		V	nud
        	külva=nu	d		S	pl n
        	külva=nud	0		A	
        	külva=nud	0		A	sg n
        	külva=nud	d		A	pl n
sest	see	st		P	sg el
    	sest	0		J	
esimine	####				
seeme	seeme	0		S	sg n
ei	ei	0		D	
  	ei	0		V	neg
kasunud	####				
ja	ja	0		J	
siis	siis	0		D	
    	siis	0		J	
külvasin	külva	sin		V	sin
jälle	jälle	0		D	
teist	sina	st		P	pl el
     	tee	ist		S	pl el
     	teist	0		D	
     	teine	t		O	sg p
     	teine	t		P	sg p
korda	kord	0		S	adt
     	korda	0		V	o
     	kord	0		S	sg p
selle	see	0		P	sg g
     	sell	e		S	pl p
seemnele	seeme	le		S	sg all
peale	pea	le		S	sg all
     	peale	0		D	
     	peale	0		K	
kuhu	kuhu	0		D	
esimelt	####				
olin	ole	in		V	sin
külvanud	külva	nud		V	nud
        	külva=nu	d		S	pl n
        	külva=nud	0		A	
        	külva=nud	0		A	sg n
        	külva=nud	d		A	pl n
.	.			Z	
kogukonna	kogukond	0		S	sg g
valitsuse	valitsus	0		S	sg g
polest	####				
sai	saa	i		V	s
   	sai	0		S	sg n
see	see	0		P	sg n
ristik	ristik	0		S	sg n
heina	hein	0		S	adt
     	hein	0		S	sg g
     	hein	0		S	sg p
ma	mina	0		P	sg n
ära	ära	0		D	
   	ära	0		V	neg o
mõedetud	####				
ja	ja	0		J	
seda	see	da		P	sg p
maad	maa	d		S	pl n
    	maa	d		S	sg p
oli	ole	i		V	s
ristik	ristik	0		S	sg n
heina	hein	0		S	adt
     	hein	0		S	sg g
     	hein	0		S	sg p
al	####				
4	4	0		N	?
vakka	vakk	0		S	adt
     	vakk	0		S	sg p
     	vakka	0		D	
alla	alla	0		D	
    	alla	0		K	
.	.			Z	
mõistus	mõistus	0		S	sg n
:	:			Z	
13	13	0		N	?
septbril	####				
1867	1867	0		N	?
kogukonna	kogukond	0		S	sg g
kohus	kohu	s		V	s
     	kohus	0		S	sg n
arvas	arva	s		V	s
et	et	0		J	
täiest	täis	st		A	sg el
      	täis	st		S	sg el
külvatud	külva	tud		V	tud
        	külva=tu	d		S	pl n
        	külva=tud	0		A	
        	külva=tud	0		A	sg n
        	külva=tud	d		A	pl n
oli	ole	i		V	s
iga	iga	0		P	sg g
   	iga	0		P	sg n
   	iga	0		P	sg p
   	iga	0		S	sg n
   	iga	0		S	sg p
vakka	vakk	0		S	adt
     	vakk	0		S	sg p
     	vakka	0		D	
ma	mina	0		P	sg n
peale	pea	le		S	sg all
     	peale	0		D	
     	peale	0		K	
15	15	0		N	?
naela	nael	0		S	adt
     	nael	0		S	sg g
     	nael	0		S	sg p
seemet	seeme	t		S	sg p
see	see	0		P	sg n
on	ole	0		V	b
  	ole	0		V	vad
üle	üle	0		D	
   	üle	0		K	
4	4	0		N	?
vakkamaa	####				
1½_	####				
Puna	puna	0		S	sg g
    	puna	0		V	o
    	puna	0		S	sg n
    	puna	0		S	sg p
ja	ja	0		J	
mineva	minev	0		A	sg g
astu	astu	0		V	o
arvu	arv	0		S	adt
    	arv	0		S	sg g
    	arv	0		S	sg p
perra	####				
maksis	maks	is		V	s
      	maksi	s		S	sg in
puud	puu	d		S	pl n
    	puud	0		S	sg n
    	puu	d		S	sg p
5	5	0		N	?
rubla	rubla	0		S	sg g
     	rubla	0		S	sg n
     	rubla	0		S	sg p
ning	ning	0		J	
peab	pida	b		V	b
siis	siis	0		D	
    	siis	0		J	
Jaan	Jaan	0		H	sg n
    	jaan	0		S	sg n
    	jaan	0		Y	?
Põderson	####				
Johan	Johan	0		H	sg n
Freymanile	####				
1½_	####				
puuda	puud	0		S	adt
     	puud	0		S	sg g
     	puud	0		S	sg p
eest	eest	0		D	
    	eest	0		K	
    	esi	st		S	sg el
maksma	maks	ma		V	ma
7	7	0		N	?
rubla	rubla	0		S	sg g
     	rubla	0		S	sg n
     	rubla	0		S	sg p
50	50	0		N	?
kop	kop	0		Y	?
sellepärast	selle_pärast	0		D	
et	et	0		J	
see	see	0		P	sg n
meie	mina	0		P	pl g
    	mina	0		P	pl n
kontrahis	kontraht	s		S	sg in
ei	ei	0		D	
  	ei	0		V	neg
seisa	seis	0		V	o
et	et	0		J	
ristik	ristik	0		S	sg n
heina	hein	0		S	adt
     	hein	0		S	sg g
     	hein	0		S	sg p
peab	pida	b		V	b
külvatud	külva	tud		V	tud
        	külva=tu	d		S	pl n
        	külva=tud	0		A	
        	külva=tud	0		A	sg n
        	külva=tud	d		A	pl n
olema	ole	ma		V	ma
.	.			Z	
man	man	0		D	
   	man	0		K	
olivad	####				
:	:			Z	
peakohtumees	pea_kohtu_mees	0		S	sg n
Joosep	Joosep	0		H	sg n
Kerge	kerge	0		A	sg g
     	kerge	0		S	sg n
     	kerge	0		A	sg n
XXX	XXX	0		O	?
   	XXX	0		Y	?
abikohtumees	abi_kohtu_mees	0		S	sg n
Peeter	Peeter	0		H	sg n
püür	püür	0		S	sg n
XXX	XXX	0		O	?
   	XXX	0		Y	?
abi	abi	0		S	sg g
   	abi	0		S	sg n
   	abi	0		S	sg p
""""	""""			Z	
Mihkel	Mihkel	0		H	sg n
      	mihkel	0		A	sg n
      	mihkel	0		S	sg n
Laeht	####				
XXX	XXX	0		O	?
   	XXX	0		Y	?
Jaan	Jaan	0		H	sg n
    	jaan	0		S	sg n
    	jaan	0		Y	?
Põderson	####				
on	ole	0		V	b
  	ole	0		V	vad
protokolli	protokoll	0		S	adt
          	protokoll	0		S	sg g
          	protokolli	0		V	o
          	protokoll	0		S	sg p
välja	välja	0		D	
     	välja	0		V	o
     	väli	0		S	adt
     	väli	0		S	sg g
     	väli	0		S	sg p
võtnud	võt	nud		V	nud
      	võt=nu	d		S	pl n
      	võt=nud	0		A	
      	võt=nud	0		A	sg n
      	võt=nud	d		A	pl n
15	15	0		N	?
septbr	####				
1867.	1867.	0		O	?
kirjutaja	kirjutaja	0		S	sg g
         	kirjutaja	0		S	sg n
asemel	ase	l		S	sg ad
      	asemel	0		K	
V. Baumann	####				
/	/			Z	
allkiri	all_kiri	0		S	sg n
/	/			Z	
