Aavvinurme	####				
Mets	mets	0		S	sg n
kogokona	####				
kohtus	kohtu	s		V	s
      	kohus	s		S	sg in
sel	see	l		P	sg ad
   	sel	0		Y	?
5	5	0		N	?
Oktobril	####				
187.4	187.4	0		N	?
koos	koos	0		D	
    	koos	0		K	
    	koos	0		S	sg n
    	kubu	s		S	sg in
olid	ole	id		V	sid
valla	vald	0		S	sg g
     	valla	0		D	
võõlmõnder	####				
Mart	Mart	0		H	sg n
    	mart	0		S	sg n
Tomi	Tom	0		H	adt
    	Tom	0		H	sg g
    	Tom	0		H	sg p
kohtumees	kohtu_mees	0		S	sg n
Maddis	####				
Sildnik	####				
Metsaülevataja	####				
Jürgenson	Jürgenson	0		H	sg n
.	.			Z	
Tänasel	tänane	l		A	sg ad
päval	####				
sai	saa	i		V	s
   	sai	0		S	sg n
Krono	####				
metsa	mets	0		S	adt
     	mets	0		S	sg g
     	mets	0		S	sg p
hära	####				
Gensi	####				
kirja	kirja	0		A	
     	kirja	0		V	o
     	kiri	0		S	adt
     	kiri	0		S	sg g
     	kiri	0		S	sg p
peale	pea	le		S	sg all
     	peale	0		D	
     	peale	0		K	
sel	see	l		P	sg ad
   	sel	0		Y	?
4tal	####				
Oktobril	####				
No	no	0		I	
221	221	0		N	?
all	all	0		D	
   	all	0		K	
,	,			Z	
selle	see	0		P	sg g
     	sell	e		S	pl p
valla	vald	0		S	sg g
     	valla	0		D	
kronometsa	####				
vahi	vaht	0		S	sg g
    	vahti	0		V	o
Aandres	####				
raja	rada	0		S	sg g
    	raja	0		S	sg g
    	raja	0		V	o
    	raja	0		S	sg n
    	raja	0		S	sg p
varandus	varandus	0		S	sg n
tema	tema	0		P	sg g
    	tema	0		P	sg n
majas	maja	s		S	sg in
üles	üles	0		D	
kirjotud	####				
ja	ja	0		J	
olid	ole	id		V	sid
järel	järel	0		D	
     	järel	0		K	
nimetud	nimetu	d		A	pl n
asjad	asi	d		S	pl n
leida	leid	a		V	da
.	.			Z	
Maja	maja	0		S	sg g
    	maja	0		S	sg n
    	maja	0		S	sg p
kraam	kraam	0		S	sg n
.	.			Z	
1	1	0		N	?
suur	suur	0		A	sg n
voodi	voodi	0		S	sg g
     	voodi	0		S	sg n
väärt	väärt	0		A	
     	väärt	0		D	
1	1	0		N	?
rubla	rubla	0		S	sg g
     	rubla	0		S	sg n
     	rubla	0		S	sg p
50	50	0		N	?
kop	kop	0		Y	?
.	.			Z	
1	1	0		N	?
laste	laps	te		S	pl g
     	last	e		S	pl p
voodi	voodi	0		S	sg g
     	voodi	0		S	sg n
""""	""""			Z	
50	50	0		N	?
1	1	0		N	?
laste	laps	te		S	pl g
     	last	e		S	pl p
voodi	voodi	0		S	sg g
     	voodi	0		S	sg n
""""	""""			Z	
50	50	0		N	?
1	1	0		N	?
suur	suur	0		A	sg n
voodi	voodi	0		S	sg g
     	voodi	0		S	sg n
""""	""""			Z	
50	50	0		N	?
1	1	0		N	?
leiva	leib	0		S	sg g
kapp	kapp	0		S	sg n
2	2	0		N	?
""""	""""			Z	
1	1	0		N	?
sõgi	####				
laud	laud	0		S	sg n
    	laug	d		S	pl n
1	1	0		N	?
""""	""""			Z	
2	2	0		N	?
pinki	pink	0		S	adt
     	pink	0		S	sg p
""""	""""			Z	
10	10	0		N	?
1	1	0		N	?
pink	pink	0		S	sg n
""""	""""			Z	
5	5	0		N	?
1	1	0		N	?
kangas	kangas	0		S	sg n
      	kangas	s		S	sg in
jalad	jalg	d		S	pl n
2	2	0		N	?
50	50	0		N	?
1	1	0		N	?
seina	sein	0		S	adt
     	sein	0		S	sg g
     	sein	0		S	sg p
kel	kes	l		P	sg ad
4	4	0		N	?
""""	""""			Z	
3	3	0		N	?
tündrid	tünder	d		S	pl n
1	1	0		N	?
5	5	0		N	?
1	1	0		N	?
Aadder	####				
1	1	0		N	?
""""	""""			Z	
2	2	0		N	?
vilja	vili	0		S	adt
     	vili	0		S	sg g
     	vili	0		S	sg p
tündrid	tünder	d		S	pl n
3	3	0		N	?
""""	""""			Z	
1	1	0		N	?
veike	####				
laud	laud	0		S	sg n
    	laug	d		S	pl n
""""	""""			Z	
50	50	0		N	?
1	1	0		N	?
Setverik	setverik	0		S	sg n
1	1	0		N	?
""""	""""			Z	
5	5	0		N	?
veikest	####				
Aastnad	####				
1	1	0		N	?
50	50	0		N	?
1	1	0		N	?
puuvanger	####				
2	2	0		N	?
50	50	0		N	?
1	1	0		N	?
vana	vana	0		A	sg g
    	vana	0		A	sg n
    	vana	0		A	sg p
    	vana	0		S	sg g
    	vana	0		S	sg n
    	vana	0		S	sg p
raud	raud	0		S	sg n
regi	regi	0		S	sg n
1	1	0		N	?
""""	""""			Z	
1	1	0		N	?
uus	uus	0		A	sg n
puu	puu	0		S	sg g
   	puu	0		S	sg n
regi	regi	0		S	sg n
1	1	0		N	?
""""	""""			Z	
1	1	0		N	?
rautud	####				
saan	saa	n		V	n
    	saan	0		S	sg n
1	1	0		N	?
50	50	0		N	?
5	5	0		N	?
kooti	koot	0		S	adt
     	kudu	ti		V	ti
     	koot	0		S	sg p
""""	""""			Z	
50	50	0		N	?
1	1	0		N	?
puk	####				
äkke	äke	0		S	sg g
väärt	väärt	0		A	
     	väärt	0		D	
1	1	0		N	?
""""	""""			Z	
1	1	0		N	?
look	look	0		S	sg n
""""	""""			Z	
10	10	0		N	?
1	1	0		N	?
rangid	rangid	d		S	pl n
võõrslemidega	####				
3	3	0		N	?
""""	""""			Z	
1	1	0		N	?
sädelg	####				
""""	""""			Z	
50	50	0		N	?
1	1	0		N	?
Nahk	nahk	0		S	sg n
Ohjad	ohja	d		V	d
     	ohi	d		S	pl n
""""	""""			Z	
50	50	0		N	?
1	1	0		N	?
riidkerst	####				
(	(			Z	
naise	naine	0		S	sg g
oma	oma	0		A	sg g
   	oma	0		D	
   	oma	0		P	sg g
   	oma	0		S	sg g
   	oma	0		V	o
   	oma	0		A	sg n
   	oma	0		A	sg p
   	oma	0		P	sg n
   	oma	0		P	sg p
   	oma	0		S	sg n
   	oma	0		S	sg p
)	)			Z	
2	2	0		N	?
50	50	0		N	?
1	1	0		N	?
kolmepangeline	kolme_pange=line	0		A	sg n
pada	pada	0		S	sg g
    	pada	0		S	sg n
    	pada	0		S	sg p
2	2	0		N	?
""""	""""			Z	
elajad	elajas	d		S	pl n
.	.			Z	
1	1	0		N	?
kõrb	kõrb	0		A	sg n
    	kõrb	0		S	sg n
mära	mära	0		S	sg g
    	mära	0		S	sg n
    	mära	0		S	sg p
hobbone	####				
väärt	väärt	0		A	
     	väärt	0		D	
25	25	0		N	?
""""	""""			Z	
1	1	0		N	?
Sinine	sinine	0		A	sg n
      	sinine	0		S	sg n
esi	esi	0		S	pl p
   	esi	0		S	sg n
kandja	kandja	0		S	sg g
      	kandja	0		S	sg n
lehm	lehm	0		S	sg n
(	(			Z	
Naise	naine	0		S	sg g
oma	oma	0		A	sg g
   	oma	0		D	
   	oma	0		P	sg g
   	oma	0		S	sg g
   	oma	0		V	o
   	oma	0		A	sg n
   	oma	0		A	sg p
   	oma	0		P	sg n
   	oma	0		P	sg p
   	oma	0		S	sg n
   	oma	0		S	sg p
)	)			Z	
13	13	0		N	?
""""	""""			Z	
1	1	0		N	?
vana	vana	0		A	sg g
    	vana	0		A	sg n
    	vana	0		A	sg p
    	vana	0		S	sg g
    	vana	0		S	sg n
    	vana	0		S	sg p
valge	valge	0		A	sg g
     	valge	0		A	sg n
     	valge	0		S	sg g
     	valge	0		S	sg n
lamas	lama	s		V	s
2	2	0		N	?
""""	""""			Z	
3	3	0		N	?
musta	must	0		A	adt
     	must	0		A	sg g
     	must	0		S	adt
     	must	0		S	sg g
     	musta	0		V	o
     	must	0		A	sg p
     	must	0		S	sg p
tale	####				
3	3	0		N	?
""""	""""			Z	
2	2	0		N	?
siga	siga	0		A	sg n
    	siga	0		A	sg p
    	siga	0		S	sg n
    	siga	0		S	sg p
kesikud	kesik	d		S	pl n
8	8	0		N	?
""""	""""			Z	
Summa	summ	0		S	adt
     	summ	0		S	sg g
     	summ	0		S	sg p
     	summa	0		S	sg g
     	summa	0		S	sg n
87	87	0		N	?
rubl	####				
.	.			Z	
80	80	0		N	?
kop	kop	0		Y	?
.	.			Z	
Mart	Mart	0		H	sg n
    	mart	0		S	sg n
Tomi	Tom	0		H	adt
    	Tom	0		H	sg g
    	Tom	0		H	sg p
XXX	XXX	0		O	?
   	XXX	0		Y	?
Maddis	####				
Sildnik	####				
XXX	XXX	0		O	?
   	XXX	0		Y	?
