ette	ette	0		D	
    	ette	0		K	
    	esi	tte		S	adt
tuli	tuli	0		S	sg n
    	tule	i		V	s
Leen	Leen	0		H	sg n
    	leen	0		S	sg n
Jõgi	jõgi	0		S	sg n
oma	oma	0		A	sg g
   	oma	0		D	
   	oma	0		P	sg g
   	oma	0		S	sg g
   	oma	0		V	o
   	oma	0		A	sg n
   	oma	0		A	sg p
   	oma	0		P	sg n
   	oma	0		P	sg p
   	oma	0		S	sg n
   	oma	0		S	sg p
isa	isa	0		S	sg g
   	isa	0		S	sg n
   	isa	0		S	sg p
Jüri	Jüri	0		H	sg g
    	Jüri	0		H	sg n
Jõgi	jõgi	0		S	sg n
kõrvas	kõrv	s		S	sg in
ja	ja	0		J	
kaibas	####				
temal	tema	l		P	sg ad
on	ole	0		V	b
  	ole	0		V	vad
Palla	####				
poisi	poiss	0		S	sg g
Karel	####				
Veltiga	####				
laps	laps	0		S	sg n
olnud	ol=nud	0		A	
     	ol=nud	0		A	sg n
     	ol=nud	d		A	pl n
     	ole	nud		V	nud
     	olnu	d		S	pl n
ja	ja	0		J	
nõuab	nõud	b		V	b
,	,			Z	
et	et	0		J	
see	see	0		P	sg n
selle	see	0		P	sg g
     	sell	e		S	pl p
lapsele	laps	le		S	sg all
ei	ei	0		D	
  	ei	0		V	neg
tahta	taht	a		V	da
üles	üles	0		D	
pidamist	pidamine	t		S	sg p
muretseda	muretse	da		V	da
ja	ja	0		J	
nõuab	nõud	b		V	b
seks	see	ks		P	sg tr
    	seks	0		S	sg n
12	12	0		N	?
aastad	aasta	d		S	pl n
iga	iga	0		P	sg g
   	iga	0		P	sg n
   	iga	0		P	sg p
   	iga	0		S	sg n
   	iga	0		S	sg p
aasta	aasta	0		S	sg g
     	aasta	0		S	sg n
10	10	0		N	?
rubla	rubla	0		S	sg g
     	rubla	0		S	sg n
     	rubla	0		S	sg p
.	.			Z	
Karel	####				
Velt	####				
vastas	vasta	s		V	s
      	vastas	0		D	
      	vastas	0		K	
tema	tema	0		P	sg g
    	tema	0		P	sg n
olla	ole	a		V	da
kül	####				
selle	see	0		P	sg g
     	sell	e		S	pl p
tüdrukuga	tüdruk	ga		S	sg kom
elanud	ela	nud		V	nud
      	ela=nu	d		S	pl n
      	ela=nud	0		A	
      	ela=nud	0		A	sg n
      	ela=nud	d		A	pl n
aga	aga	0		J	
see	see	0		P	sg n
laps	laps	0		S	sg n
ei	ei	0		D	
  	ei	0		V	neg
olla	ole	a		V	da
kül	####				
tema	tema	0		P	sg g
    	tema	0		P	sg n
oma	oma	0		A	sg g
   	oma	0		D	
   	oma	0		P	sg g
   	oma	0		S	sg g
   	oma	0		V	o
   	oma	0		A	sg n
   	oma	0		A	sg p
   	oma	0		P	sg n
   	oma	0		P	sg p
   	oma	0		S	sg n
   	oma	0		S	sg p
sest	see	st		P	sg el
    	sest	0		J	
selle	see	0		P	sg g
     	sell	e		S	pl p
tüdrukuga	tüdruk	ga		S	sg kom
olla	ole	a		V	da
veel	veel	0		D	
    	vesi	l		S	sg ad
palju	palju	0		D	
     	palju	0		P	sg g
     	palju	0		P	sg n
teisi	teine	0		O	pl p
     	teine	0		P	pl p
elanud	ela	nud		V	nud
      	ela=nu	d		S	pl n
      	ela=nud	0		A	
      	ela=nud	0		A	sg n
      	ela=nud	d		A	pl n
ja	ja	0		J	
nimelt	nimelt	0		D	
      	nimi	lt		S	sg abl
Jaan	Jaan	0		H	sg n
    	jaan	0		S	sg n
    	jaan	0		Y	?
Kiisli	kiisel	0		S	sg g
kokkora	kokk_ora	0		S	sg g
       	kokk_ora	0		S	sg n
       	kokk_ora	0		S	sg p
mõisast	mõis	st		S	sg el
ja	ja	0		J	
Jakob	Jakob	0		H	sg n
Allik	Allik	0		H	sg n
Pallalt	####				
.	.			Z	
kohtu	kohtu	0		V	o
     	kohus	0		S	sg g
otsus	otsus	0		S	sg n
:	:			Z	
Tuleva	tulev	0		A	sg g
kohtupäval	####				
saavad	saa	vad		V	vad
      	saav	d		A	pl n
      	saav	d		S	pl n
Jaan	Jaan	0		H	sg n
    	jaan	0		S	sg n
    	jaan	0		Y	?
Kiisli	kiisel	0		S	sg g
ja	ja	0		J	
Jakob	Jakob	0		H	sg n
Allik	Allik	0		H	sg n
tellitud	telli	tud		V	tud
        	telli=tu	d		S	pl n
        	telli=tud	0		A	
        	telli=tud	0		A	sg n
        	telli=tud	d		A	pl n
ja	ja	0		J	
saab	saa	b		V	b
edasi	edasi	0		D	
     	edasi	0		K	
talitud	tali=tu	d		A	pl n
.	.			Z	
