Moisavalitseja	####				
Funcke	####				
kaebab	kaeba	b		V	b
Liiso	####				
Peipsi	Peipsi	0		H	sg g
      	Peipsi	0		H	sg n
      	peipsi	0		G	
peale	pea	le		S	sg all
     	peale	0		D	
     	peale	0		K	
,	,			Z	
se	####				
olla	ole	a		V	da
moisa	####				
heinamaa	heina_maa	0		S	sg g
        	heina_maa	0		S	sg n
pealt	pea	lt		S	sg abl
     	pealt	0		D	
     	pealt	0		K	
1	1	0		N	?
1	1	0		N	?
/	/			Z	
2	2	0		N	?
saatu	####				
heina	hein	0		S	adt
     	hein	0		S	sg g
     	hein	0		S	sg p
varastanud	varasta	nud		V	nud
          	varasta=nu	d		S	pl n
          	varasta=nud	0		A	
          	varasta=nud	0		A	sg n
          	varasta=nud	d		A	pl n
,	,			Z	
ja	ja	0		J	
nõuab	nõud	b		V	b
heinad	hein	d		S	pl n
tagasi	tagasi	0		D	
      	tagasi	0		K	
Liiso	####				
Peipsi	Peipsi	0		H	sg g
      	Peipsi	0		H	sg n
      	peipsi	0		G	
oma	oma	0		A	sg g
   	oma	0		D	
   	oma	0		P	sg g
   	oma	0		S	sg g
   	oma	0		V	o
   	oma	0		A	sg n
   	oma	0		A	sg p
   	oma	0		P	sg n
   	oma	0		P	sg p
   	oma	0		S	sg n
   	oma	0		S	sg p
mehe	mees	0		S	sg g
juuresolemisel	juures_ole=mine	l		S	sg ad
kostab	kost	b		V	b
,	,			Z	
et	et	0		J	
tema	tema	0		P	sg g
    	tema	0		P	sg n
rüppega	####				
agu	agu	0		S	sg n
   	agu	0		S	sg p
toonud	too	nud		V	nud
      	too=nu	d		S	pl n
      	too=nud	0		A	
      	too=nud	0		A	sg n
      	too=nud	d		A	pl n
paar	paar	0		N	sg n
    	paar	0		S	sg n
korda	kord	0		S	adt
     	korda	0		V	o
     	kord	0		S	sg p
Josep	####				
Brongfeld	####				
tunnistab	tunnista	b		V	b
seda	see	da		P	sg p
õigeks	õige	ks		A	sg tr
et	et	0		J	
1	1	0		N	?
1	1	0		N	?
/	/			Z	
2	2	0		N	?
saado	####				
heinu	hein	u		S	pl p
tema	tema	0		P	sg g
    	tema	0		P	sg n
juurest	juur	st		S	sg el
       	juurest	0		K	
leitud	leid	tud		V	tud
      	leitu	d		S	pl n
      	leitud	0		A	
      	leitud	0		A	sg n
      	leitud	d		A	pl n
.	.			Z	
Moisavalitseja	####				
ei	ei	0		D	
  	ei	0		V	neg
nõua	nõud	0		V	o
enam	enam	0		C	sg n
    	enam	0		D	
neid	neid	0		S	sg n
    	see	d		P	pl p
    	tema	d		P	pl p
heinu	hein	u		S	pl p
vaid	vaid	0		D	
    	vaid	0		J	
seda	see	da		P	sg p
et	et	0		J	
tema	tema	0		P	sg g
    	tema	0		P	sg n
trahvitud	trahvi	tud		V	tud
         	trahvi=tu	d		S	pl n
         	trahvi=tud	0		A	
         	trahvi=tud	0		A	sg n
         	trahvi=tud	d		A	pl n
saaks	saa	ks		V	ks
vangistamisega	vangista=mine	ga		S	sg kom
kohtu	kohtu	0		V	o
     	kohus	0		S	sg g
otsus	otsus	0		S	sg n
et	et	0		J	
Liiso	####				
Peipsil	Peipsi	l		H	sg ad
veike	####				
laps	laps	0		S	sg n
olla	ole	a		V	da
peab	pida	b		V	b
tema	tema	0		P	sg g
    	tema	0		P	sg n
varguse	vargus	0		S	sg g
eest	eest	0		D	
    	eest	0		K	
    	esi	st		S	sg el
24.	24.	0		O	?
tundi	tund	0		S	adt
     	tund	0		S	sg p
vangistud	####				
saama	saa	ma		V	ma
     	saam	0		S	adt
     	saam	0		S	sg g
     	saam	0		S	sg p
tuleva	tulev	0		A	sg g
suvvel	####				
,	,			Z	
sel	see	l		P	sg ad
   	sel	0		Y	?
korral	kord	l		S	sg ad
      	korral	0		D	
      	korral	0		K	
siis	siis	0		D	
    	siis	0		J	
ka	ka	0		D	
kohtu	kohtu	0		V	o
     	kohus	0		S	sg g
vaeva	vaev	0		S	adt
     	vaev	0		S	sg g
     	vaeva	0		V	o
     	vaev	0		S	sg p
vaevamise	vaeva=mine	0		S	sg g
ka	ka	0		D	
24.	24.	0		O	?
tunniga	tund	ga		S	sg kom
vangistud	####				
aga	aga	0		J	
hein	hein	0		S	sg n
saab	saa	b		V	b
paevade	####				
peale	pea	le		S	sg all
     	peale	0		D	
     	peale	0		K	
äraarvatud	ära_arva=tu	d		S	pl n
          	ära_arva=tud	0		A	
          	ära_arva=tud	0		A	sg n
          	ära_arva=tud	d		A	pl n
A	A	0		Y	?
.	.			Z	
_	_			Z	
Krim	####				
[	[			Z	
allkiri	all_kiri	0		S	sg n
]	]			Z	
,	,			Z	
pea	pea	0		D	
   	pea	0		S	sg g
   	pida	0		V	o
   	pea	0		S	sg n
xxx	####				
Maddis	####				
,	,			Z	
khtm	####				
A	A	0		Y	?
.	.			Z	
_	_			Z	
Pärn	pärn	0		S	sg n
[	[			Z	
allkiri	all_kiri	0		S	sg n
]	]			Z	
,	,			Z	
""""	""""			Z	
xxx	####				
Josep	####				
Maddi	####				
,	,			Z	
""""	""""			Z	
