Tuli	tuli	0		S	sg n
    	tule	i		V	s
ette	ette	0		D	
    	ette	0		K	
    	esi	tte		S	adt
ärasurnud	ära_surnu	d		S	pl n
         	ära_surnud	0		A	
         	ära_surnud	0		A	sg n
         	ära_surnud	d		A	pl n
Bernhard	####				
Aadelsoni	aadel_soni	0		S	sg g
         	aadel_soni	0		S	sg n
         	aadel_soni	0		S	sg p
laste	laps	te		S	pl g
     	last	e		S	pl p
võõrmünder	####				
Mihkel	Mihkel	0		H	sg n
      	mihkel	0		A	sg n
      	mihkel	0		S	sg n
Lallo	####				
ja	ja	0		J	
vastas	vasta	s		V	s
      	vastas	0		D	
      	vastas	0		K	
küsimise	küsimine	0		S	sg g
pääle	####				
et	et	0		J	
se	####				
laste	laps	te		S	pl g
     	last	e		S	pl p
varandus	varandus	0		S	sg n
selle	see	0		P	sg g
     	sell	e		S	pl p
sama	sama	0		P	sg g
    	sama	0		P	sg n
    	sama	0		P	sg p
seisuse	seisus	0		S	sg g
pääl	####				
sai	saa	i		V	s
   	sai	0		S	sg n
protokollist	protokoll	st		S	sg el
N	N	0		Y	?
:	:			Z	
9	9	0		N	?
28	28	0		N	?
Vebruarist	####				
1885	1885	0		N	?
näha	näge	a		V	da
on	ole	0		V	b
  	ole	0		V	vad
.	.			Z	
Mihkel	Mihkel	0		H	sg n
      	mihkel	0		A	sg n
      	mihkel	0		S	sg n
Lallo	####				
+	+			Z	
+	+			Z	
+	+			Z	
Pääkohtumees	####				
O. Kangro	####				
kohtumees	kohtu_mees	0		S	sg n
J. Soieva	####				
kohtumees	kohtu_mees	0		S	sg n
O. Moisa	####				
kirjutaja	kirjutaja	0		S	sg g
         	kirjutaja	0		S	sg n
allkiri	all_kiri	0		S	sg n
mitteloetav	mitte_loetav	0		A	sg n
.	.			Z	
