XXI	XXI	0		O	?
   	XXI	0		Y	?
Aavvinurme	####				
Vallakohtus	valla_kohus	s		S	sg in
sel	see	l		P	sg ad
   	sel	0		Y	?
28	28	0		N	?
Januaril	####				
1849.	1849.	0		O	?
koos	koos	0		D	
    	koos	0		K	
    	koos	0		S	sg n
    	kubu	s		S	sg in
olid	ole	id		V	sid
peakohtumees	pea_kohtu_mees	0		S	sg n
Jaan	Jaan	0		H	sg n
    	jaan	0		S	sg n
    	jaan	0		Y	?
kalaus	####				
kohtumees	kohtu_mees	0		S	sg n
Jüri	Jüri	0		H	sg g
    	Jüri	0		H	sg n
Reisenpuk	####				
kohtumees	kohtu_mees	0		S	sg n
Mihkel	Mihkel	0		H	sg n
      	mihkel	0		A	sg n
      	mihkel	0		S	sg n
Pugri	####				
Aastus	####				
ette	ette	0		D	
    	ette	0		K	
    	esi	tte		S	adt
siitvalla	####				
ja	ja	0		J	
Ulvi	Ulvi	0		H	sg g
    	Ulvi	0		H	sg n
küla	küla	0		S	sg g
    	küla	0		S	sg n
    	küla	0		S	sg p
pobo	####				
inimene	inimene	0		S	sg n
Mihkel	Mihkel	0		H	sg n
      	mihkel	0		A	sg n
      	mihkel	0		S	sg n
Roode	rood	e		S	pl p
ja	ja	0		J	
palus	palu	s		S	sg in
     	palu	s		V	s
Vallakohut	valla_kohus	t		S	sg p
seda	see	da		P	sg p
Protokoli	####				
üleskirjutada	####				
et	et	0		J	
tema	tema	0		P	sg g
    	tema	0		P	sg n
on	ole	0		V	b
  	ole	0		V	vad
oma	oma	0		A	sg g
   	oma	0		D	
   	oma	0		P	sg g
   	oma	0		S	sg g
   	oma	0		V	o
   	oma	0		A	sg n
   	oma	0		A	sg p
   	oma	0		P	sg n
   	oma	0		P	sg p
   	oma	0		S	sg n
   	oma	0		S	sg p
pobo	####				
krund	####				
mis	mis	0		P	pl n
   	mis	0		P	sg n
Regulerimise	####				
aktis	akt	s		S	sg in
N 446	N446	0		Y	?
all	all	0		D	
   	all	0		K	
üles	üles	0		D	
kirjutud	####				
on	ole	0		V	b
  	ole	0		V	vad
.	.			Z	
Ulvi	Ulvi	0		H	sg g
    	Ulvi	0		H	sg n
küla	küla	0		S	sg g
    	küla	0		S	sg n
    	küla	0		S	sg p
inimese	inimene	0		S	sg g
Kusta	Kusta	0		H	sg g
     	Kusta	0		H	sg n
     	kuse	ta		V	da
     	kuse	ta		V	ta
Haliku	####				
Johani	Johan	0		H	sg g
poja	poeg	0		S	sg g
    	poja	0		S	sg g
    	poja	0		S	sg n
    	poja	0		S	sg p
k	k	0		Y	?
...	...			Z	
kolme	kolm	0		N	adt
     	kolm	0		N	sg g
     	kolm	0		N	sg p
Aaasta	####				
peale	pea	le		S	sg all
     	peale	0		D	
     	peale	0		K	
renti	rent	0		S	adt
     	rent	0		S	sg p
peale	pea	le		S	sg all
     	peale	0		D	
     	peale	0		K	
andnud	and	nud		V	nud
      	and=nu	d		S	pl n
      	and=nud	0		A	
      	and=nud	0		A	sg n
      	and=nud	d		A	pl n
.	.			Z	
nende	see	de		P	pl g
     	tema	de		P	pl g
järel	järel	0		D	
     	järel	0		K	
nimetud	nimetu	d		A	pl n
tingimistega	tingimine	tega		S	pl kom
1	1	0		N	?
)	)			Z	
1.	1.	0		O	?
tema	tema	0		P	sg g
    	tema	0		P	sg n
Mihkel	Mihkel	0		H	sg n
      	mihkel	0		A	sg n
      	mihkel	0		S	sg n
Roode	rood	e		S	pl p
annab	and	b		V	b
oma	oma	0		A	sg g
   	oma	0		D	
   	oma	0		P	sg g
   	oma	0		S	sg g
   	oma	0		V	o
   	oma	0		A	sg n
   	oma	0		A	sg p
   	oma	0		P	sg n
   	oma	0		P	sg p
   	oma	0		S	sg n
   	oma	0		S	sg p
krund	####				
N	N	0		Y	?
446.	446.	0		O	?
Kusta	Kusta	0		H	sg g
     	Kusta	0		H	sg n
     	kuse	ta		V	da
     	kuse	ta		V	ta
Haliku	####				
kätte	kätte	0		K	
     	käsi	tte		S	adt
renti	rent	0		S	adt
     	rent	0		S	sg p
peale	pea	le		S	sg all
     	peale	0		D	
     	peale	0		K	
kolme	kolm	0		N	adt
     	kolm	0		N	sg g
     	kolm	0		N	sg p
Aaasta	####				
peale	pea	le		S	sg all
     	peale	0		D	
     	peale	0		K	
se	####				
on	ole	0		V	b
  	ole	0		V	vad
Jüripävast	####				
1849.	1849.	0		O	?
kuni	kuni	0		J	
    	kuni	0		K	
Jüripavani	####				
1879	1879	0		N	?
Aaastani	####				
selle	see	0		P	sg g
     	sell	e		S	pl p
renti	rent	0		S	adt
     	rent	0		S	sg p
ette	ette	0		D	
    	ette	0		K	
    	esi	tte		S	adt
30	30	0		N	?
rubla	rubla	0		S	sg g
     	rubla	0		S	sg n
     	rubla	0		S	sg p
Aaastas	####				
renti	rent	0		S	adt
     	rent	0		S	sg p
,	,			Z	
ja	ja	0		J	
maksab	maks	b		V	b
Kusta	Kusta	0		H	sg g
     	Kusta	0		H	sg n
     	kuse	ta		V	da
     	kuse	ta		V	ta
Halik	####				
temale	tema	le		P	sg all
nõnda	nõnda	0		D	
viisi	viis	0		S	adt
     	viis	0		S	sg g
     	viis	i		N	pl p
     	viisi	0		K	
     	viis	0		S	sg p
renti	rent	0		S	adt
     	rent	0		S	sg p
nüid	####				
kohe	kohe	0		A	sg n
    	kohe	0		D	
kevade	kevad	0		S	sg g
      	kevade	0		S	sg g
      	kevade	0		S	sg n
1849	1849	0		N	?
,	,			Z	
tänavo	####				
Aaasta	####				
1849	1849	0		N	?
Aaasta	####				
ette	ette	0		D	
    	ette	0		K	
    	esi	tte		S	adt
30	30	0		N	?
rubla	rubla	0		S	sg g
     	rubla	0		S	sg n
     	rubla	0		S	sg p
,	,			Z	
sügise	sügis	0		S	sg g
1849	1849	0		N	?
Aaastal	####				
pool	pool	0		K	
    	pool	0		N	sg n
    	pool	0		S	sg n
renti	rent	0		S	adt
     	rent	0		S	sg p
15	15	0		N	?
rubla	rubla	0		S	sg g
     	rubla	0		S	sg n
     	rubla	0		S	sg p
1895	1895	0		N	?
Aaasta	####				
ette	ette	0		D	
    	ette	0		K	
    	esi	tte		S	adt
ja	ja	0		J	
teine	teine	0		O	sg n
     	teine	0		P	sg n
pool	pool	0		K	
    	pool	0		N	sg n
    	pool	0		S	sg n
renti	rent	0		S	adt
     	rent	0		S	sg p
1895	1895	0		N	?
Aaasta	####				
ette	ette	0		D	
    	ette	0		K	
    	esi	tte		S	adt
kevade	kevad	0		S	sg g
      	kevade	0		S	sg g
      	kevade	0		S	sg n
1895	1895	0		N	?
,	,			Z	
sügise	sügis	0		S	sg g
1895	1895	0		N	?
maksab	maks	b		V	b
Kadrinapäeva	####				
ajal	aeg	l		S	sg ad
    	ajal	0		K	
Kusta	Kusta	0		H	sg g
     	Kusta	0		H	sg n
     	kuse	ta		V	da
     	kuse	ta		V	ta
Halik	####				
30	30	0		N	?
rubla	rubla	0		S	sg g
     	rubla	0		S	sg n
     	rubla	0		S	sg p
1896.	1896.	0		O	?
Aaasta	####				
ette	ette	0		D	
    	ette	0		K	
    	esi	tte		S	adt
tervelt	tervelt	0		D	
       	terve	lt		A	sg abl
       	terve	lt		S	sg abl
ja	ja	0		J	
ühekoraga	####				
,	,			Z	
nõnda	nõnda	0		D	
et	et	0		J	
Kusta	Kusta	0		H	sg g
     	Kusta	0		H	sg n
     	kuse	ta		V	da
     	kuse	ta		V	ta
Halikul	####				
1869	1869	0		N	?
Aaastal	####				
enamb	####				
maksa	maks	0		S	adt
     	maks	0		S	sg g
     	maks	0		V	o
     	maks	0		S	sg p
ei	ei	0		D	
  	ei	0		V	neg
ole	ole	0		V	o
,	,			Z	
ja	ja	0		J	
maksab	maks	b		V	b
tema	tema	0		P	sg g
    	tema	0		P	sg n
Mihkel	Mihkel	0		H	sg n
      	mihkel	0		A	sg n
      	mihkel	0		S	sg n
Roode	rood	e		S	pl p
isi	####				
kronorent	####				
ja	ja	0		J	
kõik	kõik	0		P	pl n
    	kõik	0		S	sg n
    	kõik	0		P	sg n
teised	teine	d		O	pl n
      	teine	d		P	pl n
rahamaksud	raha_maks	d		S	pl n
;	;			Z	
Valla	vald	0		S	sg g
     	valla	0		D	
teed	tee	d		S	pl n
    	tege	d		V	d
    	tee	d		S	sg p
ja	ja	0		J	
tee	tee	0		S	sg g
   	tege	0		V	o
   	tee	0		S	sg n
parandamine	parandamine	0		S	sg n
on	ole	0		V	b
  	ole	0		V	vad
Kusta	Kusta	0		H	sg g
     	Kusta	0		H	sg n
     	kuse	ta		V	da
     	kuse	ta		V	ta
Haliku	####				
täita	täi	ta		S	sg ab
     	täi	ta		V	ta
     	täit	a		V	da
     	täita	0		V	o
.	.			Z	
2.	2.	0		O	?
kõik	kõik	0		P	pl n
    	kõik	0		S	sg n
    	kõik	0		P	sg n
majad	maja	d		S	pl n
elumaja	elu_maja	0		S	sg g
       	elu_maja	0		S	sg n
       	elu_maja	0		S	sg p
rehetoa	rehe_tuba	0		S	sg g
ja	ja	0		J	
reiaalusega	reia_alune	ga		A	sg kom
,	,			Z	
üks	üks	0		N	sg n
   	üks	0		P	sg n
laut	laut	0		S	sg n
,	,			Z	
Aait	####				
ja	ja	0		J	
saun	saun	0		S	sg n
ja	ja	0		J	
üks	üks	0		N	sg n
   	üks	0		P	sg n
heinaküin	####				
sad	####				
Kusta	Kusta	0		H	sg g
     	Kusta	0		H	sg n
     	kuse	ta		V	da
     	kuse	ta		V	ta
Haliku	####				
kätte	kätte	0		K	
     	käsi	tte		S	adt
prukimiseks	####				
ja	ja	0		J	
peab	pida	b		V	b
Kusta	Kusta	0		H	sg g
     	Kusta	0		H	sg n
     	kuse	ta		V	da
     	kuse	ta		V	ta
Halik	####				
nende	see	de		P	pl g
     	tema	de		P	pl g
eest	eest	0		D	
    	eest	0		K	
    	esi	st		S	sg el
holitsema	####				
ja	ja	0		J	
nende	see	de		P	pl g
     	tema	de		P	pl g
kattusid	katt	sid		S	pl p
        	kattu	sid		V	sid
parandama	paranda	ma		V	ma
kui	kui	0		D	
   	kui	0		J	
tuul	tuul	0		S	sg n
neid	neid	0		S	sg n
    	see	d		P	pl p
    	tema	d		P	pl p
rikkub	####				
.	.			Z	
nendasamuti	####				
ka	ka	0		D	
ahjusid	ahi	sid		S	pl p
parandama	paranda	ma		V	ma
,	,			Z	
ja	ja	0		J	
need	see	d		P	pl n
kolme	kolm	0		N	adt
     	kolm	0		N	sg g
     	kolm	0		N	sg p
Aaasta	####				
pärast	pära	st		S	sg el
      	pärane	t		A	sg p
      	pärast	0		D	
      	pärast	0		K	
korralikkult	####				
temale	tema	le		P	sg all
tagasi	tagasi	0		D	
      	tagasi	0		K	
andma	and	ma		V	ma
,	,			Z	
kui	kui	0		D	
   	kui	0		J	
peaks	pea	ks		S	sg tr
     	pida	ks		V	ks
tulekahju	tule_kahju	0		S	sg g
         	tule_kahju	0		S	sg n
         	tule_kahju	0		S	sg p
juhtuma	juhtu	ma		V	ma
pikse	pikne	0		S	sg g
läbbi	####				
siis	siis	0		D	
    	siis	0		J	
ei	ei	0		D	
  	ei	0		V	neg
vasta	vasta	0		V	o
seda	see	da		P	sg p
Kusta	Kusta	0		H	sg g
     	Kusta	0		H	sg n
     	kuse	ta		V	da
     	kuse	ta		V	ta
Halik	####				
,	,			Z	
kui	kui	0		D	
   	kui	0		J	
aga	aga	0		J	
tema	tema	0		P	sg g
    	tema	0		P	sg n
holetuse	####				
läbi	läbi	0		D	
    	läbi	0		K	
    	läbi	0		V	o
on	ole	0		V	b
  	ole	0		V	vad
tulekahju	tule_kahju	0		S	sg g
         	tule_kahju	0		S	sg n
         	tule_kahju	0		S	sg p
õnnetus	õnnetu	s		A	sg in
       	õnnetus	0		S	sg n
juhtunud	juhtu	nud		V	nud
        	juhtunu	d		S	pl n
        	juhtunud	0		A	
        	juhtunud	0		A	sg n
        	juhtunud	d		A	pl n
,	,			Z	
siis	siis	0		D	
    	siis	0		J	
kannab	kand	b		V	b
Kusta	Kusta	0		H	sg g
     	Kusta	0		H	sg n
     	kuse	ta		V	da
     	kuse	ta		V	ta
Halik	####				
pool	pool	0		K	
    	pool	0		N	sg n
    	pool	0		S	sg n
kahju	kahi	0		S	adt
     	kahi	0		S	sg g
     	kahi	0		S	sg p
     	kahju	0		S	sg g
     	kahju	0		S	sg n
     	kahju	0		S	sg p
3	3	0		N	?
)	)			Z	
Kusta	Kusta	0		H	sg g
     	Kusta	0		H	sg n
     	kuse	ta		V	da
     	kuse	ta		V	ta
Haliku	####				
kätte	kätte	0		K	
     	käsi	tte		S	adt
saab	saa	b		V	b
üks	üks	0		N	sg n
   	üks	0		P	sg n
rukki	rukis	0		S	adt
     	rukis	0		S	sg g
väljakülvatud	välja_külva=tu	d		S	pl n
             	välja_külva=tud	0		A	
             	välja_külva=tud	0		A	sg n
             	välja_külva=tud	d		A	pl n
põld	põld	0		S	sg n
kahe	kaks	0		N	sg g
vakka	vakk	0		S	adt
     	vakk	0		S	sg p
     	vakka	0		D	
külvi	külv	0		S	adt
     	külv	0		S	sg g
     	külv	0		S	sg p
alla	alla	0		D	
    	alla	0		K	
ja	ja	0		J	
peab	pida	b		V	b
tema	tema	0		P	sg g
    	tema	0		P	sg n
kevade	kevad	0		S	sg g
      	kevade	0		S	sg g
      	kevade	0		S	sg n
1879	1879	0		N	?
jälle	jälle	0		D	
nõnda	nõnda	0		D	
palju	palju	0		D	
     	palju	0		P	sg g
     	palju	0		P	sg n
välja	välja	0		D	
     	välja	0		V	o
     	väli	0		S	adt
     	väli	0		S	sg g
     	väli	0		S	sg p
külvatud	külva	tud		V	tud
        	külva=tu	d		S	pl n
        	külva=tud	0		A	
        	külva=tud	0		A	sg n
        	külva=tud	d		A	pl n
rukki	rukis	0		S	adt
     	rukis	0		S	sg g
põldu	põld	0		S	adt
     	põld	0		S	sg p
tagasi	tagasi	0		D	
      	tagasi	0		K	
andma	and	ma		V	ma
,	,			Z	
praegune	praegune	0		A	sg n
sõnik	####				
saab	saa	b		V	b
kõik	kõik	0		P	pl n
    	kõik	0		S	sg n
    	kõik	0		P	sg n
Kusta	Kusta	0		H	sg g
     	Kusta	0		H	sg n
     	kuse	ta		V	da
     	kuse	ta		V	ta
Halikule	####				
ja	ja	0		J	
peab	pida	b		V	b
tema	tema	0		P	sg g
    	tema	0		P	sg n
jälle	jälle	0		D	
selle	see	0		P	sg g
     	sell	e		S	pl p
ette	ette	0		D	
    	ette	0		K	
    	esi	tte		S	adt
kõik	kõik	0		P	pl n
    	kõik	0		S	sg n
    	kõik	0		P	sg n
sõnik	####				
mis	mis	0		P	pl n
   	mis	0		P	sg n
talvel	talv	l		S	sg ad
      	tali	l		S	sg ad
1869	1869	0		N	?
/	/			Z	
97	97	0		N	?
Aaastal	####				
tehtud	tehtu	d		S	pl n
      	tehtud	0		A	
      	tehtud	0		A	sg n
      	tehtud	d		A	pl n
      	tege	tud		V	tud
saab	saa	b		V	b
,	,			Z	
temale	tema	le		P	sg all
1879	1879	0		N	?
Aaastal	####				
kevade	kevad	0		S	sg g
      	kevade	0		S	sg g
      	kevade	0		S	sg n
andma	and	ma		V	ma
põllu	põld	0		S	sg g
põhku	põhk	0		S	adt
     	põhk	0		S	sg p
ja	ja	0		J	
heinu	hein	u		S	pl p
ei	ei	0		D	
  	ei	0		V	neg
tohi	tohti	0		V	o
müidud	####				
saada	saa	da		V	da
     	saat	0		V	o
     	saa	da		V	ta
,	,			Z	
kui	kui	0		D	
   	kui	0		J	
Kusta	Kusta	0		H	sg g
     	Kusta	0		H	sg n
     	kuse	ta		V	da
     	kuse	ta		V	ta
Halik	####				
tahab	taht	b		V	b
kuhugi	kuhugi	0		D	
kravi	####				
leigata	####				
vee	vesi	0		S	sg g
äralaskmise	ära_laskmine	0		S	sg g
pärast	pära	st		S	sg el
      	pärane	t		A	sg p
      	pärast	0		D	
      	pärast	0		K	
siis	siis	0		D	
    	siis	0		J	
voib	####				
tema	tema	0		P	sg g
    	tema	0		P	sg n
seda	see	da		P	sg p
teha	tege	a		V	da
aga	aga	0		J	
ei	ei	0		D	
  	ei	0		V	neg
saa	saa	0		V	o
selle	see	0		P	sg g
     	sell	e		S	pl p
eest	eest	0		D	
    	eest	0		K	
    	esi	st		S	sg el
ei	ei	0		D	
  	ei	0		V	neg
ühtegi	ühte	0	gi	D	
      	üks	0	gi	N	adt
      	üks	0	gi	P	adt
      	ühe	0	gi	S	sg g
      	üks	0	gi	N	sg p
      	üks	0	gi	P	sg p
tasumist	tasumine	t		S	sg p
.	.			Z	
ning	ning	0		J	
maksab	maks	b		V	b
Kusta	Kusta	0		H	sg g
     	Kusta	0		H	sg n
     	kuse	ta		V	da
     	kuse	ta		V	ta
Halik	####				
need	see	d		P	pl n
rentid	####				
seie	####				
Vallavalitsuse	valla_valitsus	0		S	sg g
juure	juur	0		S	sg g
sisse	siss	e		S	pl p
     	sisse	0		D	
     	sisse	0		K	
ja	ja	0		J	
palub	palu	b		V	b
tema	tema	0		P	sg g
    	tema	0		P	sg n
Vallakohut	valla_kohus	t		S	sg p
nende	see	de		P	pl g
     	tema	de		P	pl g
kaupa	kaup	0		S	adt
     	kaup	0		S	sg p
     	kaupa	0		K	
ja	ja	0		J	
kontrakt	####				
kinnitada	kinnita	da		V	da
Kusta	Kusta	0		H	sg g
     	Kusta	0		H	sg n
     	kuse	ta		V	da
     	kuse	ta		V	ta
Halik	####				
Juhani	Juhan	0		H	sg g
      	juha	ni		S	sg ter
poeg	poeg	0		S	sg n
räkis	####				
et	et	0		J	
se	####				
tõsi	tõsi	0		S	pl p
    	tõsi	0		S	sg n
et	et	0		J	
tema	tema	0		P	sg g
    	tema	0		P	sg n
on	ole	0		V	b
  	ole	0		V	vad
Mihkel	Mihkel	0		H	sg n
      	mihkel	0		A	sg n
      	mihkel	0		S	sg n
Roode	rood	e		S	pl p
krund	####				
N 446	N446	0		Y	?
nende	see	de		P	pl g
     	tema	de		P	pl g
eespool	ees_pool	0		D	
       	ees_pool	0		K	
nimetud	nimetu	d		A	pl n
tingimistega	tingimine	tega		S	pl kom
oma	oma	0		A	sg g
   	oma	0		D	
   	oma	0		P	sg g
   	oma	0		S	sg g
   	oma	0		V	o
   	oma	0		A	sg n
   	oma	0		A	sg p
   	oma	0		P	sg n
   	oma	0		P	sg p
   	oma	0		S	sg n
   	oma	0		S	sg p
kätte	kätte	0		K	
     	käsi	tte		S	adt
kolme	kolm	0		N	adt
     	kolm	0		N	sg g
     	kolm	0		N	sg p
Aaasta	####				
peale	pea	le		S	sg all
     	peale	0		D	
     	peale	0		K	
renti	rent	0		S	adt
     	rent	0		S	sg p
peale	pea	le		S	sg all
     	peale	0		D	
     	peale	0		K	
võtnud	võt	nud		V	nud
      	võt=nu	d		S	pl n
      	võt=nud	0		A	
      	võt=nud	0		A	sg n
      	võt=nud	d		A	pl n
ja	ja	0		J	
palub	palu	b		V	b
tema	tema	0		P	sg g
    	tema	0		P	sg n
ka	ka	0		D	
nende	see	de		P	pl g
     	tema	de		P	pl g
kaupa	kaup	0		S	adt
     	kaup	0		S	sg p
     	kaupa	0		K	
kinnitada	kinnita	da		V	da
Mihkel	Mihkel	0		H	sg n
      	mihkel	0		A	sg n
      	mihkel	0		S	sg n
Roode	rood	e		S	pl p
ei	ei	0		D	
  	ei	0		V	neg
moista	####				
kirjutada	kirjuta	da		V	da
tema	tema	0		P	sg g
    	tema	0		P	sg n
palve	palve	0		S	sg g
     	palve	0		S	sg n
peale	pea	le		S	sg all
     	peale	0		D	
     	peale	0		K	
kirjutas	kirjuta	s		V	s
alla	alla	0		D	
    	alla	0		K	
Alexander	Alexander	0		H	sg n
Säälik	####				
(	(			Z	
allkiri	all_kiri	0		S	sg n
)	)			Z	
Kusta	Kusta	0		H	sg g
     	Kusta	0		H	sg n
     	kuse	ta		V	da
     	kuse	ta		V	ta
Halik	####				
.	.			Z	
(	(			Z	
allkiri	all_kiri	0		S	sg n
)	)			Z	
Keiserlikku	keiserlik	0		A	adt
           	keiserlik	0		A	sg p
Majesteti	####				
käsu	käsk	0		S	sg g
peale	pea	le		S	sg all
     	peale	0		D	
     	peale	0		K	
Sel	see	l		P	sg ad
   	sel	0		Y	?
28	28	0		N	?
Januaril	####				
1849	1849	0		N	?
on	ole	0		V	b
  	ole	0		V	vad
XXI	XXI	0		O	?
   	XXI	0		Y	?
Aavvinurme	####				
Vallakohus	valla_kohus	0		S	sg n
I	I	0		O	?
 	I	0		Y	?
 	j	0		Y	?
Jürjevi	####				
Ülema	ülem	0		C	sg g
     	ülem	0		S	sg g
talurahvakohtu	talu_rahva_kohus	0		S	sg g
ringkonnas	ringkond	s		S	sg in
Mihkel	Mihkel	0		H	sg n
      	mihkel	0		A	sg n
      	mihkel	0		S	sg n
Roode	rood	e		S	pl p
ja	ja	0		J	
Kusta	Kusta	0		H	sg g
     	Kusta	0		H	sg n
     	kuse	ta		V	da
     	kuse	ta		V	ta
Haliku	####				
susana	####				
kauba	kaup	0		S	sg g
asi	asi	0		S	sg n
   	asi	0		V	o
krundi	krunt	0		S	sg g
      	krunti	0		V	o
rentimise	rentimine	0		S	sg g
pärast	pära	st		S	sg el
      	pärane	t		A	sg p
      	pärast	0		D	
      	pärast	0		K	
kolme	kolm	0		N	adt
     	kolm	0		N	sg g
     	kolm	0		N	sg p
Aaasta	####				
peale	pea	le		S	sg all
     	peale	0		D	
     	peale	0		K	
üle	üle	0		D	
   	üle	0		K	
kuulanud	kuula	nud		V	nud
        	kuula=nu	d		S	pl n
        	kuula=nud	0		A	
        	kuula=nud	0		A	sg n
        	kuula=nud	d		A	pl n
nende	see	de		P	pl g
     	tema	de		P	pl g
kaup	kaup	0		S	sg n
Protokoli	####				
üleskirjutanud	üles_kirjutanu	d		S	pl n
              	üles_kirjutanud	0		A	
              	üles_kirjutanud	0		A	sg n
              	üles_kirjutanud	d		A	pl n
ja	ja	0		J	
nendele	see	dele		P	pl all
       	tema	dele		P	pl all
ettelugenud	ette_luge=nu	d		S	pl n
           	ette_luge=nud	0		A	
           	ette_luge=nud	0		A	sg n
           	ette_luge=nud	d		A	pl n
.	.			Z	
ja	ja	0		J	
nemad	tema	d		P	pl n
seda	see	da		P	sg p
kaupa	kaup	0		S	adt
     	kaup	0		S	sg p
     	kaupa	0		K	
oma	oma	0		A	sg g
   	oma	0		D	
   	oma	0		P	sg g
   	oma	0		S	sg g
   	oma	0		V	o
   	oma	0		A	sg n
   	oma	0		A	sg p
   	oma	0		P	sg n
   	oma	0		P	sg p
   	oma	0		S	sg n
   	oma	0		S	sg p
nimeallkirjaga	nime_all_kiri	ga		S	sg kom
kinnitanud	kinnita	nud		V	nud
          	kinnita=nu	d		S	pl n
          	kinnita=nud	0		A	
          	kinnita=nud	0		A	sg n
          	kinnita=nud	d		A	pl n
,	,			Z	
siis	siis	0		D	
    	siis	0		J	
kinnitab	kinnita	b		V	b
Vallakohus	valla_kohus	0		S	sg n
nende	see	de		P	pl g
     	tema	de		P	pl g
kaupa	kaup	0		S	adt
     	kaup	0		S	sg p
     	kaupa	0		K	
et	et	0		J	
se	####				
kindlaks	kindel	ks		A	sg tr
jäeb	####				
Jaan	Jaan	0		H	sg n
    	jaan	0		S	sg n
    	jaan	0		Y	?
kalaus	####				
.	.			Z	
(	(			Z	
allkiri	all_kiri	0		S	sg n
)	)			Z	
Jüri	Jüri	0		H	sg g
    	Jüri	0		H	sg n
Reisenpuk	####				
(	(			Z	
allkiri	all_kiri	0		S	sg n
)	)			Z	
Mihkel	Mihkel	0		H	sg n
      	mihkel	0		A	sg n
      	mihkel	0		S	sg n
Pugri	####				
(	(			Z	
allkiri	all_kiri	0		S	sg n
)	)			Z	
kirjutaja	kirjutaja	0		S	sg g
         	kirjutaja	0		S	sg n
Schulbach	####				
(	(			Z	
allkiri	all_kiri	0		S	sg n
)	)			Z	
