sel	see	l		P	sg ad
   	sel	0		Y	?
.	.			Z	
3	3	0		N	?
Septembril	september	l		S	sg ad
1876.	1876.	0		O	?
koos	koos	0		D	
    	koos	0		K	
    	koos	0		S	sg n
    	kubu	s		S	sg in
olid	ole	id		V	sid
peakohtomees	####				
Josep	####				
Kask	kask	0		S	sg n
teine	teine	0		O	sg n
     	teine	0		P	sg n
kohtomees	####				
Josep	####				
Laurison	####				
kolmas	kolmas	0		O	sg n
kohtomees	####				
Jaan	Jaan	0		H	sg n
    	jaan	0		S	sg n
    	jaan	0		Y	?
Mänd	mänd	0		S	sg n
Jüri	Jüri	0		H	sg g
    	Jüri	0		H	sg n
Leppa	lepp	0		S	adt
     	lepp	0		S	sg p
kaeptuse	####				
peale	pea	le		S	sg all
     	peale	0		D	
     	peale	0		K	
et	et	0		J	
Jüri	Jüri	0		H	sg g
    	Jüri	0		H	sg n
kaunissar	####				
on	ole	0		V	b
  	ole	0		V	vad
tema	tema	0		P	sg g
    	tema	0		P	sg n
peale	pea	le		S	sg all
     	peale	0		D	
     	peale	0		K	
juttu	jutt	0		S	adt
     	jutt	0		S	sg p
tehnud	####				
et	et	0		J	
tema	tema	0		P	sg g
    	tema	0		P	sg n
peab	pida	b		V	b
üks	üks	0		N	sg n
   	üks	0		P	sg n
vikkat	####				
varastand	####				
olema	ole	ma		V	ma
mis	mis	0		P	pl n
   	mis	0		P	sg n
aga	aga	0		J	
Jüri	Jüri	0		H	sg g
    	Jüri	0		H	sg n
kaunissar	####				
ei	ei	0		D	
  	ei	0		V	neg
voi	####				
tõeks	tõde	ks		S	sg tr
     	tõsi	ks		S	sg tr
teha	tege	a		V	da
moistis	####				
kogukonna	kogukond	0		S	sg g
kohus	kohu	s		V	s
     	kohus	0		S	sg n
et	et	0		J	
Jüri	Jüri	0		H	sg g
    	Jüri	0		H	sg n
kaunissar	####				
selle	see	0		P	sg g
     	sell	e		S	pl p
teutuse	####				
eest	eest	0		D	
    	eest	0		K	
    	esi	st		S	sg el
1	1	0		N	?
rubla	rubla	0		S	sg g
     	rubla	0		S	sg n
     	rubla	0		S	sg p
valla	vald	0		S	sg g
     	valla	0		D	
laeka	laegas	0		S	adt
     	laegas	0		S	sg g
trahvi	trahv	0		S	adt
      	trahv	0		S	sg g
      	trahvi	0		V	o
      	trahv	0		S	sg p
maksab	maks	b		V	b
.	.			Z	
Josep	####				
Kask	kask	0		S	sg n
XXX	XXX	0		O	?
   	XXX	0		Y	?
Josep	####				
Laurison	####				
XXX	XXX	0		O	?
   	XXX	0		Y	?
Jaan	Jaan	0		H	sg n
    	jaan	0		S	sg n
    	jaan	0		Y	?
Mänd	mänd	0		S	sg n
XXX	XXX	0		O	?
   	XXX	0		Y	?
