Anu	Anu	0		H	sg g
   	anu	0		V	o
   	Anu	0		H	sg n
Tolmats	####				
-	-			Z	
Peeter	Peeter	0		H	sg n
Pehk	####				
.	.			Z	
Katri	Katri	0		H	sg g
     	Katri	0		H	sg n
Saar	saar	0		S	sg n
v	v	0		Y	?
.	.			Z	
usku	usk	0		S	adt
    	usk	0		S	sg p
,	,			Z	
Aakre	####				
mõisa	mõis	0		S	sg g
piirist	piir	st		S	sg el
tunnistas	tunnista	s		V	s
,	,			Z	
et	et	0		J	
ta	tema	0		P	sg g
  	tema	0		P	sg n
ei	ei	0		D	
  	ei	0		V	neg
tea	tead	0		V	o
Anu	Anu	0		H	sg g
   	anu	0		V	o
   	Anu	0		H	sg n
Tolmats	####				
ja	ja	0		J	
Peeter	Peeter	0		H	sg n
Pehk	####				
kaupa	kaup	0		S	adt
     	kaup	0		S	sg p
     	kaupa	0		K	
asjast	asi	st		S	sg el
,	,			Z	
ei	ei	0		D	
  	ei	0		V	neg
ka	ka	0		D	
lehma	lehm	0		S	adt
     	lehm	0		S	sg g
     	lehm	0		S	sg p
pidamiseks	pidamine	ks		S	sg tr
mitte	mitte	0		D	
midagi	miski	dagi		P	sg p
tunnistada	tunnista	da		V	da
.	.			Z	
elu	elu	0		S	sg g
   	elu	0		S	sg n
   	elu	0		S	sg p
Saar	saar	0		S	sg n
lut	####				
.	.			Z	
usku	usk	0		S	adt
    	usk	0		S	sg p
Aakre	####				
mõisa	mõis	0		S	sg g
piirist	piir	st		S	sg el
tunnistas	tunnista	s		V	s
,	,			Z	
niisama	nii_sama	0		D	
kui	kui	0		D	
   	kui	0		J	
Katri	Katri	0		H	sg g
     	Katri	0		H	sg n
Saar	saar	0		S	sg n
.	.			Z	
Mari	Mari	0		H	sg g
    	mari	0		S	sg g
    	mari	0		S	sg n
    	Mari	0		H	sg n
    	mari	0		S	sg p
Toska	####				
lut	####				
.	.			Z	
usku	usk	0		S	adt
    	usk	0		S	sg p
Aakre	####				
mõisa	mõis	0		S	sg g
piirist	piir	st		S	sg el
tunnistas	tunnista	s		V	s
niisama	nii_sama	0		D	
kui	kui	0		D	
   	kui	0		J	
mõlemad	mõlema	d		P	pl n
Saaret	Saare	t		H	sg p
.	.			Z	
Ann	Ann	0		H	sg n
Tolmats	####				
meesterahvaga	meeste_rahvas	ga		S	sg kom
Aakre	####				
mõisa	mõis	0		S	sg g
piirist	piir	st		S	sg el
kaebas	kaeba	s		V	s
,	,			Z	
et	et	0		J	
Peeter	Peeter	0		H	sg n
Pehk	####				
,	,			Z	
kelle	kes	0		P	pl g
     	kes	0		P	sg g
juures	juur	s		S	sg in
      	juures	0		D	
      	juures	0		K	
ta	tema	0		P	sg g
  	tema	0		P	sg n
tööd	töö	d		S	pl n
    	töö	d		S	sg p
tegemas	tege	mas		V	mas
on	ole	0		V	b
  	ole	0		V	vad
,	,			Z	
ei	ei	0		D	
  	ei	0		V	neg
taha	taht	0		V	o
    	taha	0		D	
    	taha	0		K	
mitte	mitte	0		D	
tema	tema	0		P	sg g
    	tema	0		P	sg n
lehma	lehm	0		S	adt
     	lehm	0		S	sg g
     	lehm	0		S	sg p
,	,			Z	
nagu	nagu	0		D	
    	nagu	0		J	
kaup	kaup	0		S	sg n
on	ole	0		V	b
  	ole	0		V	vad
olnud	ol=nud	0		A	
     	ol=nud	0		A	sg n
     	ol=nud	d		A	pl n
     	ole	nud		V	nud
     	olnu	d		S	pl n
,	,			Z	
talvel	talv	l		S	sg ad
      	tali	l		S	sg ad
üle-pidada	üle-pida	da		V	da
,	,			Z	
nõudis	nõud	is		V	s
,	,			Z	
et	et	0		J	
Pehk	####				
peab	pida	b		V	b
tema	tema	0		P	sg g
    	tema	0		P	sg n
lehm	lehm	0		S	sg n
lauta	laug	ta		S	sg ab
     	laut	0		S	adt
     	laut	0		S	sg p
panemad	####				
ja	ja	0		J	
talvel	talv	l		S	sg ad
      	tali	l		S	sg ad
üleppidama	####				
ehk	ehk	0		D	
   	ehk	0		J	
söötma	sööt	ma		V	ma
.	.			Z	
Peeter	Peeter	0		H	sg n
Pehk	####				
Aakre	####				
mõisa	mõis	0		S	sg g
piirist	piir	st		S	sg el
vastas	vasta	s		V	s
      	vastas	0		D	
      	vastas	0		K	
,	,			Z	
et	et	0		J	
kaup	kaup	0		S	sg n
ei	ei	0		D	
  	ei	0		V	neg
ole	ole	0		V	o
mitte	mitte	0		D	
niiviisi	nii_viisi	0		D	
tehtud	tehtu	d		S	pl n
      	tehtud	0		A	
      	tehtud	0		A	sg n
      	tehtud	d		A	pl n
      	tege	tud		V	tud
saanud	saa	nud		V	nud
      	saa=nud	0		A	
      	saa=nud	0		A	sg n
      	saa=nud	d		A	pl n
      	saanu	d		S	pl n
,	,			Z	
et	et	0		J	
ta	tema	0		P	sg g
  	tema	0		P	sg n
peab	pida	b		V	b
Anu	Anu	0		H	sg g
   	anu	0		V	o
   	Anu	0		H	sg n
Tolmatsi	####				
lehma	lehm	0		S	adt
     	lehm	0		S	sg g
     	lehm	0		S	sg p
lauta	laug	ta		S	sg ab
     	laut	0		S	adt
     	laut	0		S	sg p
panemad	####				
ja	ja	0		J	
talvel	talv	l		S	sg ad
      	tali	l		S	sg ad
toitma	toit	ma		V	ma
,	,			Z	
vaid	vaid	0		D	
    	vaid	0		J	
on	ole	0		V	b
  	ole	0		V	vad
ta	tema	0		P	sg g
  	tema	0		P	sg n
seda	see	da		P	sg p
üksi	üksi	0		D	
suvel	suvi	l		S	sg ad
teha	tege	a		V	da
lubanud	luba	nud		V	nud
       	luba=nu	d		S	pl n
       	luba=nud	0		A	
       	luba=nud	0		A	sg n
       	luba=nud	d		A	pl n
,	,			Z	
mis	mis	0		P	pl n
   	mis	0		P	sg n
ka	ka	0		D	
tehtud	tehtu	d		S	pl n
      	tehtud	0		A	
      	tehtud	0		A	sg n
      	tehtud	d		A	pl n
      	tege	tud		V	tud
saanud	saa	nud		V	nud
      	saa=nud	0		A	
      	saa=nud	0		A	sg n
      	saa=nud	d		A	pl n
      	saanu	d		S	pl n
.	.			Z	
Päärast	####				
seda	see	da		P	sg p
tegi	sina	0	gi	P	pl g
    	tege	i		V	s
    	sina	0	gi	P	pl n
kohus	kohu	s		V	s
     	kohus	0		S	sg n
mõistus	mõistus	0		S	sg n
:	:			Z	
Peeter	Peeter	0		H	sg n
Pehk	####				
peab	pida	b		V	b
Anu	Anu	0		H	sg g
   	anu	0		V	o
   	Anu	0		H	sg n
Tolmatsi	####				
lehma	lehm	0		S	adt
     	lehm	0		S	sg g
     	lehm	0		S	sg p
oma	oma	0		A	sg g
   	oma	0		D	
   	oma	0		P	sg g
   	oma	0		S	sg g
   	oma	0		V	o
   	oma	0		A	sg n
   	oma	0		A	sg p
   	oma	0		P	sg n
   	oma	0		P	sg p
   	oma	0		S	sg n
   	oma	0		S	sg p
lauta	laug	ta		S	sg ab
     	laut	0		S	adt
     	laut	0		S	sg p
panemad	####				
ja	ja	0		J	
seda	see	da		P	sg p
talvel	talv	l		S	sg ad
      	tali	l		S	sg ad
üle	üle	0		D	
   	üle	0		K	
toitma	toit	ma		V	ma
sellesama	see_sama	0		P	sg g
toiduga	toit	ga		S	sg kom
millega	mis	ga		P	pl kom
       	mis	ga		P	sg kom
ta	tema	0		P	sg g
  	tema	0		P	sg n
oma	oma	0		A	sg g
   	oma	0		D	
   	oma	0		P	sg g
   	oma	0		S	sg g
   	oma	0		V	o
   	oma	0		A	sg n
   	oma	0		A	sg p
   	oma	0		P	sg n
   	oma	0		P	sg p
   	oma	0		S	sg n
   	oma	0		S	sg p
lehmade	lehm	de		S	pl g
toidab	toit	b		V	b
,	,			Z	
aga	aga	0		J	
Anu	Anu	0		H	sg g
   	anu	0		V	o
   	Anu	0		H	sg n
Tolmats	####				
peab	pida	b		V	b
ise	ise	0		A	
   	ise	0		D	
   	ise	0		P	pl n
   	ise	0		P	sg n
ka	ka	0		D	
selle	see	0		P	sg g
     	sell	e		S	pl p
eest	eest	0		D	
    	eest	0		K	
    	esi	st		S	sg el
hoolt	hoog	lt		S	sg abl
     	hool	t		S	sg p
kandma	kand	ma		V	ma
,	,			Z	
et	et	0		J	
ta	tema	0		P	sg g
  	tema	0		P	sg n
mõni	mõni	0		P	sg n
jagu	jagu	0		S	sg n
    	jagu	0		V	o
    	jagu	0		S	sg p
penikest	peni=ke	t		S	sg p
põhku	põhk	0		S	adt
     	põhk	0		S	sg p
oma	oma	0		A	sg g
   	oma	0		D	
   	oma	0		P	sg g
   	oma	0		S	sg g
   	oma	0		V	o
   	oma	0		A	sg n
   	oma	0		A	sg p
   	oma	0		P	sg n
   	oma	0		P	sg p
   	oma	0		S	sg n
   	oma	0		S	sg p
lehma	lehm	0		S	adt
     	lehm	0		S	sg g
     	lehm	0		S	sg p
toiduks	toit	ks		S	sg tr
muretseb	muretse	b		V	b
.	.			Z	
mõistus	mõistus	0		S	sg n
sai	saa	i		V	s
   	sai	0		S	sg n
seadusl	####				
.	.			Z	
kuulutud	kuulu	tud		V	tud
        	kuulu=tu	d		S	pl n
        	kuulu=tud	0		A	
        	kuulu=tud	0		A	sg n
        	kuulu=tud	d		A	pl n
.	.			Z	
Peeter	Peeter	0		H	sg n
Pehk	####				
ei	ei	0		D	
  	ei	0		V	neg
olnud	ol=nud	0		A	
     	ol=nud	0		A	sg n
     	ol=nud	d		A	pl n
     	ole	nud		V	nud
     	olnu	d		S	pl n
rahul	rahu	l		S	sg ad
     	rahul	0		D	
