Sel	see	l		P	sg ad
   	sel	0		Y	?
21mal	####				
Juunil	juuni	l		S	sg ad
187.4	187.4	0		N	?
kaebas	kaeba	s		V	s
Palla	####				
mõisa	mõis	0		S	sg g
valitseja	valitseja	0		S	sg g
         	valitseja	0		S	sg n
metsavahi	metsa_vaht	0		S	sg g
Karel	####				
Vaht	vaht	0		S	sg n
läbbi	####				
,	,			Z	
et	et	0		J	
kui	kui	0		D	
   	kui	0		J	
kord	kord	0		D	
    	kord	0		S	sg n
metsavalitseja	metsa_valitseja	0		S	sg g
              	metsa_valitseja	0		S	sg n
metsa	mets	0		S	adt
     	mets	0		S	sg g
     	mets	0		S	sg p
läbbi	####				
vatama	####				
käenud	####				
,	,			Z	
siis	siis	0		D	
    	siis	0		J	
leidnud	leid	nud		V	nud
       	leid=nu	d		S	pl n
       	leid=nud	0		A	
       	leid=nud	0		A	sg n
       	leid=nud	d		A	pl n
,	,			Z	
et	et	0		J	
üks	üks	0		N	sg n
   	üks	0		P	sg n
ümber	ümber	0		D	
     	ümber	0		K	
langenud	lange	nud		V	nud
        	langenu	d		S	pl n
        	langenud	0		A	
        	langenud	0		A	sg n
        	langenud	d		A	pl n
puu	puu	0		S	sg g
   	puu	0		S	sg n
,	,			Z	
mis	mis	0		P	pl n
   	mis	0		P	sg n
metsavahi	metsa_vaht	0		S	sg g
Jakob	Jakob	0		H	sg n
Perametsa	####				
metsa	mets	0		S	adt
     	mets	0		S	sg g
     	mets	0		S	sg p
jaus	####				
sees	sees	0		D	
    	sees	0		K	
ärakadunud	ära_kadunu	d		S	pl n
          	ära_kadunud	0		A	
          	ära_kadunud	0		A	sg n
          	ära_kadunud	d		A	pl n
.	.			Z	
kui	kui	0		D	
   	kui	0		J	
valitseja	valitseja	0		S	sg g
         	valitseja	0		S	sg n
Jakob	Jakob	0		H	sg n
Perametsa	####				
käest	käest	0		K	
     	käsi	st		S	sg el
küsinud	küsi	nud		V	nud
       	küsi=nu	d		S	pl n
       	küsi=nud	0		A	
       	küsi=nud	0		A	sg n
       	küsi=nud	d		A	pl n
.	.			Z	
Kus	kus	0		D	
ta	tema	0		P	sg g
  	tema	0		P	sg n
puu	puu	0		S	sg g
   	puu	0		S	sg n
olla	ole	a		V	da
jäenud	####				
,	,			Z	
siis	siis	0		D	
    	siis	0		J	
metsavaht	metsa_vaht	0		S	sg n
Jakob	Jakob	0		H	sg n
Peramets	####				
kostnud	kost	nud		V	nud
       	kost=nu	d		S	pl n
       	kost=nud	0		A	
       	kost=nud	0		A	sg n
       	kost=nud	d		A	pl n
et	et	0		J	
enesele	ise	le		P	sg all
põletamise	põletamine	0		S	sg g
puu	puu	0		S	sg g
   	puu	0		S	sg n
tarvis	tarvis	0		D	
      	tarvis	0		K	
äraveenud	####				
:	:			Z	
seepeale	see_peale	0		D	
olla	ole	a		V	da
valitseja	valitseja	0		S	sg g
         	valitseja	0		S	sg n
Jakobi	Jakob	0		H	sg g
vasta	vasta	0		V	o
ütlenud	####				
,	,			Z	
et	et	0		J	
si	####				
õige	õige	0		A	sg g
    	õige	0		A	sg n
    	õige	0		D	
ei	ei	0		D	
  	ei	0		V	neg
olema	ole	ma		V	ma
,	,			Z	
siis	siis	0		D	
    	siis	0		J	
Jakob	Jakob	0		H	sg n
Peramets	####				
ütlenud	####				
,	,			Z	
et	et	0		J	
ta	tema	0		P	sg g
  	tema	0		P	sg n
üks	üks	0		N	sg n
   	üks	0		P	sg n
tük	####				
enesele	ise	le		P	sg all
põletamise	põletamine	0		S	sg g
puute	puude	0		S	sg g
tarvis	tarvis	0		D	
      	tarvis	0		K	
toonud	too	nud		V	nud
      	too=nu	d		S	pl n
      	too=nud	0		A	
      	too=nud	0		A	sg n
      	too=nud	d		A	pl n
,	,			Z	
ja	ja	0		J	
ladva	latv	0		S	sg g
ots	ots	0		S	sg n
olla	ole	a		V	da
seal	seal	0		D	
    	siga	l		A	sg ad
    	siga	l		S	sg ad
ära	ära	0		D	
   	ära	0		V	neg o
kadunud	kadu	nud		V	nud
       	kadunu	d		S	pl n
       	kadunud	0		A	
       	kadunud	0		A	sg n
       	kadunud	d		A	pl n
.	.			Z	
Sai	saa	i		V	s
   	sai	0		S	sg n
metsavaht	metsa_vaht	0		S	sg n
Jakob	Jakob	0		H	sg n
Perametsal	####				
se	####				
kaebus	kaebus	0		S	sg n
ette	ette	0		D	
    	ette	0		K	
    	esi	tte		S	adt
lugited	####				
mis	mis	0		P	pl n
   	mis	0		P	sg n
peale	pea	le		S	sg all
     	peale	0		D	
     	peale	0		K	
Jakob	Jakob	0		H	sg n
Peramets	####				
kostis	kost	s		S	sg in
      	kost	is		V	s
:	:			Z	
et	et	0		J	
tema	tema	0		P	sg g
    	tema	0		P	sg n
kül	####				
isi	####				
üks	üks	0		N	sg n
   	üks	0		P	sg n
1	1	0		N	?
1	1	0		N	?
/	/			Z	
2	2	0		N	?
Süld	süld	0		S	sg n
pitk	####				
tüvviku	####				
tükk	tükk	0		S	sg n
põletamise	põletamine	0		S	sg g
puu	puu	0		S	sg g
   	puu	0		S	sg n
tarvis	tarvis	0		D	
      	tarvis	0		K	
toonud	too	nud		V	nud
      	too=nu	d		S	pl n
      	too=nud	0		A	
      	too=nud	0		A	sg n
      	too=nud	d		A	pl n
,	,			Z	
ja	ja	0		J	
se	####				
ladvatük	####				
okstega	oks	tega		S	pl kom
seal	seal	0		D	
    	siga	l		A	sg ad
    	siga	l		S	sg ad
ärakadunud	ära_kadunu	d		S	pl n
          	ära_kadunud	0		A	
          	ära_kadunud	0		A	sg n
          	ära_kadunud	d		A	pl n
;	;			Z	
keda	kes	da		P	pl p
    	kes	da		P	sg p
tema	tema	0		P	sg g
    	tema	0		P	sg n
ei	ei	0		D	
  	ei	0		V	neg
ole	ole	0		V	o
leidnud	leid	nud		V	nud
       	leid=nu	d		S	pl n
       	leid=nud	0		A	
       	leid=nud	0		A	sg n
       	leid=nud	d		A	pl n
.	.			Z	
kohtu	kohtu	0		V	o
     	kohus	0		S	sg g
liiket	####				
olivat	####				
ühes	üks	s		N	sg in
    	üks	s		P	sg in
    	ühes	0		D	
    	ühes	0		K	
nõus	nõu	s		S	sg in
    	nõus	0		D	
,	,			Z	
siis	siis	0		D	
    	siis	0		J	
sai	saa	i		V	s
   	sai	0		S	sg n
mõistetud	mõist	tud		V	tud
         	mõiste=tu	d		S	pl n
         	mõiste=tud	0		A	
         	mõiste=tud	0		A	sg n
         	mõiste=tud	d		A	pl n
et	et	0		J	
Jakob	Jakob	0		H	sg n
Peramets	####				
mõisavalitsuse	mõisa_valitsus	0		S	sg g
vasta	vasta	0		V	o
tük	####				
valet	vale	t		A	sg p
     	vale	t		S	sg p
selle	see	0		P	sg g
     	sell	e		S	pl p
ärakadunud	ära_kadunu	d		S	pl n
          	ära_kadunud	0		A	
          	ära_kadunud	0		A	sg n
          	ära_kadunud	d		A	pl n
puu	puu	0		S	sg g
   	puu	0		S	sg n
pärast	pära	st		S	sg el
      	pärane	t		A	sg p
      	pärast	0		D	
      	pärast	0		K	
oli	ole	i		V	s
räginud	####				
südlaseks	####				
ja	ja	0		J	
12	12	0		N	?
tundi	tund	0		S	adt
     	tund	0		S	sg p
vangi	vang	0		S	adt
     	vang	0		S	sg g
     	vang	0		S	sg p
trahvi	trahv	0		S	adt
      	trahv	0		S	sg g
      	trahvi	0		V	o
      	trahv	0		S	sg p
trahvitud	trahvi	tud		V	tud
         	trahvi=tu	d		S	pl n
         	trahvi=tud	0		A	
         	trahvi=tud	0		A	sg n
         	trahvi=tud	d		A	pl n
.	.			Z	
Peakohtumees	pea_kohtu_mees	0		S	sg n
:	:			Z	
Paul	Paul	0		H	sg n
Villemson	####				
+	+			Z	
+	+			Z	
+	+			Z	
kohtumees	kohtu_mees	0		S	sg n
:	:			Z	
Josep	####				
Havakivvi	####				
+	+			Z	
+	+			Z	
+	+			Z	
kohtumees	kohtu_mees	0		S	sg n
:	:			Z	
Josep	####				
Rosenberg	Rosenberg	0		H	sg n
+	+			Z	
+	+			Z	
+	+			Z	
