Tuli	tuli	0		S	sg n
    	tule	i		V	s
Karel	####				
Tragun	tragun	0		S	sg n
ja	ja	0		J	
kaebas	kaeba	s		V	s
et	et	0		J	
endine	endine	0		A	sg n
pääkohtu	####				
mees	mees	0		S	sg n
    	mesi	s		S	sg in
Otto	Otto	0		H	sg g
    	Otto	0		H	sg n
Kangro	Kangro	0		H	sg g
      	Kangro	0		H	sg n
temale	tema	le		P	sg all
350	350	0		N	?
rubla	rubla	0		S	sg g
     	rubla	0		S	sg n
     	rubla	0		S	sg p
võlgu	võlg	u		S	pl p
     	võlgu	0		D	
olla	ole	a		V	da
.	.			Z	
Sest	see	st		P	sg el
    	sest	0		J	
29	29	0		N	?
Oktobril	####				
m	m	0		Y	?
.	.			Z	
a.	a	0		Y	?
oli	ole	i		V	s
Otto	Otto	0		H	sg g
    	Otto	0		H	sg n
Kangur	kangur	0		S	sg n
sel	see	l		P	sg ad
   	sel	0		Y	?
ajal	aeg	l		S	sg ad
    	ajal	0		K	
kui	kui	0		D	
   	kui	0		J	
Traguni	tragun	0		S	sg g
varandust	varandus	t		S	sg p
keelu	keeld	0		S	sg g
alt	alt	0		S	sg n
   	alt	0		D	
   	alt	0		K	
lahti	laht	i		S	pl p
     	lahti	0		D	
tehti	tege	ti		V	ti
seda	see	da		P	sg p
summad	summ	d		S	pl n
      	summa	d		S	pl n
temale	tema	le		P	sg all
maksa	maks	0		S	adt
     	maks	0		S	sg g
     	maks	0		V	o
     	maks	0		S	sg p
ja	ja	0		J	
ka	ka	0		D	
üks	üks	0		N	sg n
   	üks	0		P	sg n
käekiri	käe_kiri	0		S	sg n
selle	see	0		P	sg g
     	sell	e		S	pl p
peale	pea	le		S	sg all
     	peale	0		D	
     	peale	0		K	
väljakirjutada	####				
lubanud	luba	nud		V	nud
       	luba=nu	d		S	pl n
       	luba=nud	0		A	
       	luba=nud	0		A	sg n
       	luba=nud	d		A	pl n
.	.			Z	
Peale	pea	le		S	sg all
     	peale	0		D	
     	peale	0		K	
selle	see	0		P	sg g
     	sell	e		S	pl p
nõudis	nõud	is		V	s
veel	veel	0		D	
    	vesi	l		S	sg ad
3	3	0		N	?
rubla	rubla	0		S	sg g
     	rubla	0		S	sg n
     	rubla	0		S	sg p
selle	see	0		P	sg g
     	sell	e		S	pl p
eest	eest	0		D	
    	eest	0		K	
    	esi	st		S	sg el
,	,			Z	
mis	mis	0		P	pl n
   	mis	0		P	sg n
iired	####				
tema	tema	0		P	sg g
    	tema	0		P	sg n
poodis	####				
sel	see	l		P	sg ad
   	sel	0		Y	?
ajal	aeg	l		S	sg ad
    	ajal	0		K	
kui	kui	0		D	
   	kui	0		J	
pood	poo	d		V	d
    	pood	0		S	sg n
kohtu	kohtu	0		V	o
     	kohus	0		S	sg g
pitsat	pitsa	t		S	sg p
      	pitsat	0		S	sg n
all	all	0		D	
   	all	0		K	
kahju	kahi	0		S	adt
     	kahi	0		S	sg g
     	kahi	0		S	sg p
     	kahju	0		S	sg g
     	kahju	0		S	sg n
     	kahju	0		S	sg p
teinud	tege	nud		V	nud
      	tei=nud	0		A	
      	tei=nud	0		A	sg n
      	tei=nud	d		A	pl n
      	teinu	d		S	pl n
.	.			Z	
Summas	summ	s		S	sg in
      	summa	s		S	sg in
350	350	0		N	?
rubla	rubla	0		S	sg g
     	rubla	0		S	sg n
     	rubla	0		S	sg p
.	.			Z	
Tunnistajaks	tunnistaja	ks		S	sg tr
nimetas	nimeta	s		V	s
Josep	####				
Soieva	####				
Otto	Otto	0		H	sg g
    	Otto	0		H	sg n
Mõisa	mõis	0		S	sg g
ja	ja	0		J	
Kustav	kus=tav	0		A	sg n
      	kuse	tav		V	tav
Vipper	####				
nii	nii	0		D	
kui	kui	0		D	
   	kui	0		J	
ka	ka	0		D	
vallavanem	valla_vanem	0		S	sg n
.	.			Z	
ettekutsutud	ette_kutsutu	d		S	pl n
            	ette_kutsutud	0		A	
            	ette_kutsutud	0		A	sg n
            	ette_kutsutud	d		A	pl n
Josep	####				
Soieva	####				
ja	ja	0		J	
vastas	vasta	s		V	s
      	vastas	0		D	
      	vastas	0		K	
küsimise	küsimine	0		S	sg g
pääle	####				
et	et	0		J	
tema	tema	0		P	sg g
    	tema	0		P	sg n
seda	see	da		P	sg p
mitte	mitte	0		D	
kuulnud	kuul	nud		V	nud
       	kuul=nud	0		A	
       	kuul=nud	0		A	sg n
       	kuul=nud	d		A	pl n
       	kuulnu	d		S	pl n
ei	ei	0		D	
  	ei	0		V	neg
ole	ole	0		V	o
et	et	0		J	
Otto	Otto	0		H	sg g
    	Otto	0		H	sg n
Kangro	Kangro	0		H	sg g
      	Kangro	0		H	sg n
Tragunile	tragun	le		S	sg all
350	350	0		N	?
rubla	rubla	0		S	sg g
     	rubla	0		S	sg n
     	rubla	0		S	sg p
maksa	maks	0		S	adt
     	maks	0		S	sg g
     	maks	0		V	o
     	maks	0		S	sg p
lubanud	luba	nud		V	nud
       	luba=nu	d		S	pl n
       	luba=nud	0		A	
       	luba=nud	0		A	sg n
       	luba=nud	d		A	pl n
.	.			Z	
ette	ette	0		D	
    	ette	0		K	
    	esi	tte		S	adt
kutsutud	kutsu	tud		V	tud
        	kutsutu	d		S	pl n
        	kutsutud	0		A	
        	kutsutud	0		A	sg n
        	kutsutud	d		A	pl n
Otto	Otto	0		H	sg g
    	Otto	0		H	sg n
Mõisa	mõis	0		S	sg g
ja	ja	0		J	
tunnistas	tunnista	s		V	s
niisama	nii_sama	0		D	
kui	kui	0		D	
   	kui	0		J	
Josep	####				
Soieva	####				
.	.			Z	
ette	ette	0		D	
    	ette	0		K	
    	esi	tte		S	adt
kutsutud	kutsu	tud		V	tud
        	kutsutu	d		S	pl n
        	kutsutud	0		A	
        	kutsutud	0		A	sg n
        	kutsutud	d		A	pl n
vallavanem	valla_vanem	0		S	sg n
Gustav	Gustav	0		H	sg n
kokka	kokk	0		S	adt
     	kokka	0		V	o
     	kokk	0		S	sg p
ja	ja	0		J	
vastas	vasta	s		V	s
      	vastas	0		D	
      	vastas	0		K	
küsimise	küsimine	0		S	sg g
pääle	####				
nii	nii	0		D	
kui	kui	0		D	
   	kui	0		J	
Otto	Otto	0		H	sg g
    	Otto	0		H	sg n
Mõisa	mõis	0		S	sg g
.	.			Z	
Otto	Otto	0		H	sg g
    	Otto	0		H	sg n
Kangro	Kangro	0		H	sg g
      	Kangro	0		H	sg n
ei	ei	0		D	
  	ei	0		V	neg
olnud	ol=nud	0		A	
     	ol=nud	0		A	sg n
     	ol=nud	d		A	pl n
     	ole	nud		V	nud
     	olnu	d		S	pl n
tulnud	tul=nud	0		A	
      	tul=nud	0		A	sg n
      	tul=nud	d		A	pl n
      	tule	nud		V	nud
      	tulnu	d		S	pl n
.	.			Z	
Otsus	otsus	0		S	sg n
:	:			Z	
Otto	Otto	0		H	sg g
    	Otto	0		H	sg n
Kangro	Kangro	0		H	sg g
      	Kangro	0		H	sg n
tuleva	tulev	0		A	sg g
kohtupäevaks	kohtu_päev	ks		S	sg tr
ette	ette	0		D	
    	ette	0		K	
    	esi	tte		S	adt
tellida	telli	da		V	da
.	.			Z	
Pääkohtumees	####				
J. Havakivi	####				
.	.			Z	
kohtumees	kohtu_mees	0		S	sg n
M. Piiri	####				
.	.			Z	
abi	abi	0		S	sg g
   	abi	0		S	sg n
   	abi	0		S	sg p
kohtumees	kohtu_mees	0		S	sg n
J. Tagoma	####				
.	.			Z	
Kirjutaja	kirjutaja	0		S	sg g
         	kirjutaja	0		S	sg n
allkiri	all_kiri	0		S	sg n
.	.			Z	
