kaipas	####				
Mõisa	mõis	0		S	sg g
karjus	karju	s		V	s
      	karjus	0		S	sg n
Kustav	kus=tav	0		A	sg n
      	kuse	tav		V	tav
eber	####				
et	et	0		J	
ta	tema	0		P	sg g
  	tema	0		P	sg n
näinud	näi	nud		V	nud
      	näge	nud		V	nud
      	näi=nud	0		A	
      	näi=nud	0		A	sg n
      	näi=nud	d		A	pl n
      	näinu	d		S	pl n
Tagoma	####				
küla	küla	0		S	sg g
    	küla	0		S	sg n
    	küla	0		S	sg p
kari	kari	0		S	sg g
    	kari	0		S	sg n
    	kari	0		S	sg p
Mõisa	mõis	0		S	sg g
ristiko	####				
eina	####				
lähetal	####				
olid	ole	id		V	sid
.	.			Z	
Selle	see	0		P	sg g
     	sell	e		S	pl p
peäle	####				
olla	ole	a		V	da
tema	tema	0		P	sg g
    	tema	0		P	sg n
sina	sina	0		P	sg n
    	sina	0		S	sg g
    	sina	0		V	o
    	sina	0		S	sg n
    	sina	0		S	sg p
ruttanud	####				
.	.			Z	
kost	kost	0		S	sg n
ta	tema	0		P	sg g
  	tema	0		P	sg n
leitnud	####				
et	et	0		J	
kuus	kuu	s		S	sg in
    	kuus	0		N	sg n
Vana	vana	0		A	sg g
    	vana	0		A	sg n
    	vana	0		A	sg p
    	vana	0		S	sg g
    	vana	0		S	sg n
    	vana	0		S	sg p
elajad	elajas	d		S	pl n
ja	ja	0		J	
kaks	kaks	0		N	sg n
vasikat	vasikas	t		S	sg p
ristikeina	####				
sees	sees	0		D	
    	sees	0		K	
on	ole	0		V	b
  	ole	0		V	vad
olnud	ol=nud	0		A	
     	ol=nud	0		A	sg n
     	ol=nud	d		A	pl n
     	ole	nud		V	nud
     	olnu	d		S	pl n
aga	aga	0		J	
enne	enne	0		D	
    	enne	0		K	
    	enne	0		S	sg n
kui	kui	0		D	
   	kui	0		J	
ta	tema	0		P	sg g
  	tema	0		P	sg n
senna	senna	0		S	sg g
     	senna	0		S	sg n
jõudnud	jõud	nud		V	nud
       	jõud=nu	d		S	pl n
       	jõud=nud	0		A	
       	jõud=nud	0		A	sg n
       	jõud=nud	d		A	pl n
olla	ole	a		V	da
Tagoma	####				
küla	küla	0		S	sg g
    	küla	0		S	sg n
    	küla	0		S	sg p
karjus	karju	s		V	s
      	karjus	0		S	sg n
neid	neid	0		S	sg n
    	see	d		P	pl p
    	tema	d		P	pl p
elajaid	elajas	id		S	pl p
välja	välja	0		D	
     	välja	0		V	o
     	väli	0		S	adt
     	väli	0		S	sg g
     	väli	0		S	sg p
ajanud	aja	nud		V	nud
      	aja=nu	d		S	pl n
      	aja=nud	0		A	
      	aja=nud	0		A	sg n
      	aja=nud	d		A	pl n
.	.			Z	
See	see	0		P	sg n
peäle	####				
oleva	olev	0		A	sg g
     	olev	0		S	sg g
karjus	karju	s		V	s
      	karjus	0		S	sg n
üks	üks	0		N	sg n
   	üks	0		P	sg n
lehm	lehm	0		S	sg n
Mõisa	mõis	0		S	sg g
ma	mina	0		P	sg n
peält	####				
,	,			Z	
mis	mis	0		P	pl n
   	mis	0		P	sg n
küla	küla	0		S	sg g
    	küla	0		S	sg n
    	küla	0		S	sg p
karjamaks	karja_maks	0		S	sg n
on	ole	0		V	b
  	ole	0		V	vad
antud	an=tu	d		S	pl n
     	and	tud		V	tud
     	antud	0		A	
     	antud	0		A	sg n
     	antud	d		A	pl n
,	,			Z	
kinni	kinni	0		D	
võtnud	võt	nud		V	nud
      	võt=nu	d		S	pl n
      	võt=nud	0		A	
      	võt=nud	0		A	sg n
      	võt=nud	d		A	pl n
ja	ja	0		J	
kogokonna	####				
kohtu	kohtu	0		V	o
     	kohus	0		S	sg g
mehed	mees	d		S	pl n
,	,			Z	
Tõnnis	Tõnn	s		H	sg in
Soieva	####				
ja	ja	0		J	
Jaan	Jaan	0		H	sg n
    	jaan	0		S	sg n
    	jaan	0		Y	?
Kukk	kukk	0		S	sg n
kui	kui	0		D	
   	kui	0		J	
ka	ka	0		D	
Mõisa	mõis	0		S	sg g
poolt	pool	t		N	sg p
     	pool	t		S	sg p
     	poolt	0		D	
     	poolt	0		K	
Mõisa	mõis	0		S	sg g
kilter	kilter	0		S	sg n
Kustav	kus=tav	0		A	sg n
      	kuse	tav		V	tav
Nukka	nukk	0		S	adt
     	nukk	0		S	sg p
liggi	####				
võtnud	võt	nud		V	nud
      	võt=nu	d		S	pl n
      	võt=nud	0		A	
      	võt=nud	0		A	sg n
      	võt=nud	d		A	pl n
kes	kes	0		P	pl n
   	kes	0		P	sg n
seda	see	da		P	sg p
kahjo	####				
pidid	pida	id		V	sid
üle	üle	0		D	
   	üle	0		K	
vaatma	####				
.	.			Z	
Aaga	####				
leitsid	####				
kohtumehed	kohtu_mees	d		S	pl n
kui	kui	0		D	
   	kui	0		J	
ka	ka	0		D	
Mõisa	mõis	0		S	sg g
Kilter	kilter	0		S	sg n
et	et	0		J	
se	####				
nimetud	nimetu	d		A	pl n
kaipus	####				
selge	selge	0		A	sg g
     	selge	0		A	sg n
vale	vale	0		A	sg g
    	vale	0		A	sg n
    	vale	0		S	sg g
    	vale	0		S	sg n
on	ole	0		V	b
  	ole	0		V	vad
selle	see	0		P	sg g
     	sell	e		S	pl p
pärast	pära	st		S	sg el
      	pärane	t		A	sg p
      	pärast	0		D	
      	pärast	0		K	
et	et	0		J	
seäl	####				
mitte	mitte	0		D	
minki	mink	0		S	adt
     	mink	0		S	sg p
suggust	####				
sõõmist	####				
ega	ega	0		D	
   	ega	0		J	
praego	####				
läbbi	####				
käitud	käitu	d		V	d
jälki	jälk	0		A	adt
     	jälk	0		A	sg p
ei	ei	0		D	
  	ei	0		V	neg
olnud	ol=nud	0		A	
     	ol=nud	0		A	sg n
     	ol=nud	d		A	pl n
     	ole	nud		V	nud
     	olnu	d		S	pl n
näha	näge	a		V	da
.	.			Z	
kui	kui	0		D	
   	kui	0		J	
aga	aga	0		J	
üks	üks	0		N	sg n
   	üks	0		P	sg n
ammo	####				
ära	ära	0		D	
   	ära	0		V	neg o
sätitud	sätti	tud		V	tud
       	säti=tu	d		S	pl n
       	säti=tud	0		A	
       	säti=tud	0		A	sg n
       	säti=tud	d		A	pl n
paik	paik	0		S	sg n
mis	mis	0		P	pl n
   	mis	0		P	sg n
Mõisa	mõis	0		S	sg g
karjus	karju	s		V	s
      	karjus	0		S	sg n
isi	####				
Mõisa	mõis	0		S	sg g
elajattega	####				
on	ole	0		V	b
  	ole	0		V	vad
ära	ära	0		D	
   	ära	0		V	neg o
sõõtnud	####				
.	.			Z	
Sai	saa	i		V	s
   	sai	0		S	sg n
mõistetud	mõist	tud		V	tud
         	mõiste=tu	d		S	pl n
         	mõiste=tud	0		A	
         	mõiste=tud	0		A	sg n
         	mõiste=tud	d		A	pl n
et	et	0		J	
karjus	karju	s		V	s
      	karjus	0		S	sg n
otse	otse	0		D	
kui	kui	0		D	
   	kui	0		J	
kavvaluse	####				
pärast	pära	st		S	sg el
      	pärane	t		A	sg p
      	pärast	0		D	
      	pärast	0		K	
on	ole	0		V	b
  	ole	0		V	vad
kinni	kinni	0		D	
võtnud	võt	nud		V	nud
      	võt=nu	d		S	pl n
      	võt=nud	0		A	
      	võt=nud	0		A	sg n
      	võt=nud	d		A	pl n
ja	ja	0		J	
üsna	üsna	0		D	
ilma	ilm	0		S	adt
    	ilm	0		S	sg g
    	ilma	0		D	
    	ilma	0		K	
    	ilm	0		S	sg p
kurja	kuri	0		A	adt
     	kuri	0		A	sg g
     	kuri	0		S	adt
     	kuri	0		S	sg g
     	kuri	0		A	sg p
     	kuri	0		S	sg p
tegematta	####				
.	.			Z	
Maksab	maks	b		V	b
1.	1.	0		O	?
rubla	rubla	0		S	sg g
     	rubla	0		S	sg n
     	rubla	0		S	sg p
Vaeste	vaene	te		A	pl g
      	vaene	te		S	pl g
laega	laad	ga		S	sg kom
     	lagi	ga		S	sg kom
trahvi	trahv	0		S	adt
      	trahv	0		S	sg g
      	trahvi	0		V	o
      	trahv	0		S	sg p
.	.			Z	
Pea	pea	0		D	
   	pea	0		S	sg g
   	pida	0		V	o
   	pea	0		S	sg n
kohtumees	kohtu_mees	0		S	sg n
Jaan	Jaan	0		H	sg n
    	jaan	0		S	sg n
    	jaan	0		Y	?
Velt	####				
+	+			Z	
+	+			Z	
+	+			Z	
Tõnnis	Tõnn	s		H	sg in
Soieva	####				
+	+			Z	
+	+			Z	
+	+			Z	
Jaan	Jaan	0		H	sg n
    	jaan	0		S	sg n
    	jaan	0		Y	?
Kukk	kukk	0		S	sg n
+	+			Z	
+	+			Z	
+	+			Z	
