Johan	Johan	0		H	sg n
Klaosoon	####				
kaebas	kaeba	s		V	s
,	,			Z	
et	et	0		J	
Johan	Johan	0		H	sg n
Nerot	Nero	t		H	sg p
tema	tema	0		P	sg g
    	tema	0		P	sg n
maa	maa	0		S	sg g
   	maa	0		S	sg n
pealt	pea	lt		S	sg abl
     	pealt	0		D	
     	pealt	0		K	
kivid	kivi	d		S	pl n
,	,			Z	
mis	mis	0		P	pl n
   	mis	0		P	sg n
12	12	0		N	?
päeva	päev	0		S	adt
     	päev	0		S	sg g
     	päev	0		S	sg p
a	a	0		Y	?
'	’			Z	
50	50	0		N	?
kop	kop	0		Y	?
.	.			Z	
on	ole	0		V	b
  	ole	0		V	vad
kangutatud	kanguta	tud		V	tud
          	kanguta=tu	d		S	pl n
          	kanguta=tud	0		A	
          	kanguta=tud	0		A	sg n
          	kanguta=tud	d		A	pl n
,	,			Z	
teadmata	tead	mata		V	mata
        	tead=mata	0		A	
ja	ja	0		J	
ilma	ilm	0		S	adt
    	ilm	0		S	sg g
    	ilma	0		D	
    	ilma	0		K	
    	ilm	0		S	sg p
loata	loata	0		A	
     	loata	0		D	
     	luba	ta		S	sg ab
     	luga	ta		S	sg ab
ära	ära	0		D	
   	ära	0		V	neg o
on	ole	0		V	b
  	ole	0		V	vad
vedanud	veda	nud		V	nud
       	veda=nu	d		S	pl n
       	veda=nud	0		A	
       	veda=nud	0		A	sg n
       	veda=nud	d		A	pl n
-	-			Z	
nõuab	nõud	b		V	b
kautamise	####				
kulu	kulg	0		S	sg g
    	kulu	0		S	sg g
    	kulu	0		V	o
    	kulu	0		S	sg n
    	kulu	0		S	sg p
6	6	0		N	?
rubla	rubla	0		S	sg g
     	rubla	0		S	sg n
     	rubla	0		S	sg p
ja	ja	0		J	
kivide	kivi	de		S	pl g
eest	eest	0		D	
    	eest	0		K	
    	esi	st		S	sg el
25	25	0		N	?
rubla	rubla	0		S	sg g
     	rubla	0		S	sg n
     	rubla	0		S	sg p
see	see	0		P	sg n
on	ole	0		V	b
  	ole	0		V	vad
ülekõige	####				
31	31	0		N	?
rbl	rbl	0		Y	?
.	.			Z	
tasutud	tasu	tud		V	tud
       	tasu=tu	d		S	pl n
       	tasu=tud	0		A	
       	tasu=tud	0		A	sg n
       	tasu=tud	d		A	pl n
.	.			Z	
Kusta	Kusta	0		H	sg g
     	Kusta	0		H	sg n
     	kuse	ta		V	da
     	kuse	ta		V	ta
Nerot	Nero	t		H	sg p
salgab	salga	b		V	b
.	.			Z	
Jaan	Jaan	0		H	sg n
    	jaan	0		S	sg n
    	jaan	0		Y	?
Kilk	kilk	0		S	sg n
tunnistas	tunnista	s		V	s
,	,			Z	
et	et	0		J	
Kusta	Kusta	0		H	sg g
     	Kusta	0		H	sg n
     	kuse	ta		V	da
     	kuse	ta		V	ta
Nerot	Nero	t		H	sg p
Klaossoni	####				
maa	maa	0		S	sg g
   	maa	0		S	sg n
pealt	pea	lt		S	sg abl
     	pealt	0		D	
     	pealt	0		K	
kõva	kõva	0		A	sg g
    	kõva	0		A	sg n
    	kõva	0		A	sg p
on	ole	0		V	b
  	ole	0		V	vad
vedanud	veda	nud		V	nud
       	veda=nu	d		S	pl n
       	veda=nud	0		A	
       	veda=nud	0		A	sg n
       	veda=nud	d		A	pl n
;	;			Z	
tema	tema	0		P	sg g
    	tema	0		P	sg n
on	ole	0		V	b
  	ole	0		V	vad
ise	ise	0		A	
   	ise	0		D	
   	ise	0		P	pl n
   	ise	0		P	sg n
,	,			Z	
Kilk	kilk	0		S	sg n
,	,			Z	
Nerotiga	####				
,	,			Z	
kui	kui	0		D	
   	kui	0		J	
see	see	0		P	sg n
sealt	sealt	0		D	
     	siga	lt		A	sg abl
     	siga	lt		S	sg abl
kõva	kõva	0		A	sg g
    	kõva	0		A	sg n
    	kõva	0		A	sg p
vedanud	veda	nud		V	nud
       	veda=nu	d		S	pl n
       	veda=nud	0		A	
       	veda=nud	0		A	sg n
       	veda=nud	d		A	pl n
,	,			Z	
kõnelnud	kõnel=nu	d		S	pl n
        	kõnel=nud	0		A	
        	kõnel=nud	0		A	sg n
        	kõnel=nud	d		A	pl n
        	kõnele	nud		V	nud
ja	ja	0		J	
on	ole	0		V	b
  	ole	0		V	vad
see	see	0		P	sg n
temale	tema	le		P	sg all
siis	siis	0		D	
    	siis	0		J	
ütelnud	ütle	nud		V	nud
       	ütel=nu	d		S	pl n
       	ütel=nud	0		A	
       	ütel=nud	0		A	sg n
       	ütel=nud	d		A	pl n
,	,			Z	
et	et	0		J	
ta	tema	0		P	sg g
  	tema	0		P	sg n
ilma	ilm	0		S	adt
    	ilm	0		S	sg g
    	ilma	0		D	
    	ilma	0		K	
    	ilm	0		S	sg p
loata	loata	0		A	
     	loata	0		D	
     	luba	ta		S	sg ab
     	luga	ta		S	sg ab
veab	veda	b		V	b
.	.			Z	
Mõiste	mõiste	0		S	sg g
      	mõiste	0		S	sg n
:	:			Z	
Kusta	Kusta	0		H	sg g
     	Kusta	0		H	sg n
     	kuse	ta		V	da
     	kuse	ta		V	ta
Nerot	Nero	t		H	sg p
maksab	maks	b		V	b
Johan	Johan	0		H	sg n
Klaossoni	####				
hääks	####				
8	8	0		N	?
rubla	rubla	0		S	sg g
     	rubla	0		S	sg n
     	rubla	0		S	sg p
kivide	kivi	de		S	pl g
eest	eest	0		D	
    	eest	0		K	
    	esi	st		S	sg el
8	8	0		N	?
päeva	päev	0		S	adt
     	päev	0		S	sg g
     	päev	0		S	sg p
sees	sees	0		D	
    	sees	0		K	
välja	välja	0		D	
     	välja	0		V	o
     	väli	0		S	adt
     	väli	0		S	sg g
     	väli	0		S	sg p
.	.			Z	
Peakohtumees	pea_kohtu_mees	0		S	sg n
:	:			Z	
P. Kripson	####				
XXX	XXX	0		O	?
   	XXX	0		Y	?
kohtumees	kohtu_mees	0		S	sg n
:	:			Z	
P. Hendrikson	####				
XXX	XXX	0		O	?
   	XXX	0		Y	?
kohtumees	kohtu_mees	0		S	sg n
:	:			Z	
K. Ivanthal	####				
XXX	XXX	0		O	?
   	XXX	0		Y	?
kohtumees	kohtu_mees	0		S	sg n
:	:			Z	
J	J	0		Y	?
Klaosoon	####				
Mõiste	mõiste	0		S	sg g
      	mõiste	0		S	sg n
sai	saa	i		V	s
   	sai	0		S	sg n
kohtukäijatele	kohtu_käija	tele		S	pl all
kuulutatud	kuuluta	tud		V	tud
          	kuuluta=tu	d		S	pl n
          	kuuluta=tud	0		A	
          	kuuluta=tud	0		A	sg n
          	kuuluta=tud	d		A	pl n
T	T	0		Y	?
.	.			Z	
S	S	0		Y	?
.	.			Z	
R	R	0		Y	?
.	.			Z	
§	§	0		Y	?
772	772	0		N	?
-	-			Z	
774	774	0		N	?
järele	järele	0		D	
      	järele	0		K	
aastast	aasta	st		S	sg el
       	aastane	t		A	sg p
1860	1860	0		N	?
ja	ja	0		J	
õpus	####				
antud	an=tu	d		S	pl n
     	and	tud		V	tud
     	antud	0		A	
     	antud	0		A	sg n
     	antud	d		A	pl n
mis	mis	0		P	pl n
   	mis	0		P	sg n
tähele	täht	le		S	sg all
      	tähele	0		X	
panna	pand	0		S	sg g
     	pane	a		V	da
     	panna	0		S	sg g
     	panna	0		S	sg n
tuleb	tule	b		V	b
kui	kui	0		D	
   	kui	0		J	
keegi	kee	0	gi	S	sg g
     	kee	0	gi	V	o
     	keegi	0		P	sg n
     	kee	0	gi	S	sg n
kõrgemat	kõrgem	t		C	sg p
        	kõrgem	t		S	sg p
kohut	kohus	t		S	sg p
nõuab	nõud	b		V	b
ning	ning	0		J	
ei	ei	0		D	
  	ei	0		V	neg
olnud	ol=nud	0		A	
     	ol=nud	0		A	sg n
     	ol=nud	d		A	pl n
     	ole	nud		V	nud
     	olnu	d		S	pl n
kohtukäijad	kohtu_käija	d		S	pl n
rahul	rahu	l		S	sg ad
     	rahul	0		D	
.	.			Z	
kirjutaja	kirjutaja	0		S	sg g
         	kirjutaja	0		S	sg n
:	:			Z	
Ch	####				
Kapp	kapp	0		S	sg n
allkiri	all_kiri	0		S	sg n
16.	16.	0		O	?
Augustil	august	l		S	sg ad
        	August	l		H	sg ad
1885	1885	0		N	?
Kihelk	####				
.	.			Z	
koht	koht	0		S	sg n
.	.			Z	
saadetud	saat	tud		V	tud
        	saade=tu	d		S	pl n
        	saadetud	0		A	
        	saadetud	0		A	sg n
        	saadetud	d		A	pl n
.	.			Z	
