Järgmised	järgmine	d		A	pl n
asjad	asi	d		S	pl n
said	saa	id		V	sid
täna	täna	0		D	
    	täna	0		V	o
siin	siin	0		D	
    	siin	0		S	sg n
kohtu	kohtu	0		V	o
     	kohus	0		S	sg g
ees	ees	0		D	
   	ees	0		K	
   	esi	s		S	sg in
leppitud	####				
:	:			Z	
1	1	0		N	?
)	)			Z	
Gustav	Gustav	0		H	sg n
Päev	päev	0		S	sg n
,	,			Z	
mõisakolonist	mõisa_kolonist	0		S	sg n
,	,			Z	
kelle	kes	0		P	pl g
     	kes	0		P	sg g
hobuud	####				
metsaülevaata	####				
Grosi	####				
kaebuse	kaebus	0		S	sg g
pääle	####				
,	,			Z	
kiiks	kii	ks		S	sg tr
     	kiiks	0		S	sg n
suvel	suvi	l		S	sg ad
,	,			Z	
mõisa	mõis	0		S	sg g
metsas	mets	s		S	sg in
olid	ole	id		V	sid
käinud	käi	nud		V	nud
      	käi=nud	0		A	
      	käi=nud	0		A	sg n
      	käi=nud	d		A	pl n
      	käinu	d		S	pl n
,	,			Z	
maksab	maks	b		V	b
sella	####				
eest	eest	0		D	
    	eest	0		K	
    	esi	st		S	sg el
2	2	0		N	?
nädala	nädal	0		S	sg g
pärast	pära	st		S	sg el
      	pärane	t		A	sg p
      	pärast	0		D	
      	pärast	0		K	
mõisale	mõis	le		S	sg all
2	2	0		N	?
rubla	rubla	0		S	sg g
     	rubla	0		S	sg n
     	rubla	0		S	sg p
ja	ja	0		J	
1	1	0		N	?
rubla	rubla	0		S	sg g
     	rubla	0		S	sg n
     	rubla	0		S	sg p
trahvi	trahv	0		S	adt
      	trahv	0		S	sg g
      	trahvi	0		V	o
      	trahv	0		S	sg p
laadiku	laadik	0		S	sg g
.	.			Z	
2	2	0		N	?
)	)			Z	
Jaan	Jaan	0		H	sg n
    	jaan	0		S	sg n
    	jaan	0		Y	?
Kütt	kütt	0		S	sg n
,	,			Z	
taluomanik	talu_omanik	0		S	sg n
,	,			Z	
kelle	kes	0		P	pl g
     	kes	0		P	sg g
4	4	0		N	?
elajad	elajas	d		S	pl n
mõisa	mõis	0		S	sg g
metsas	mets	s		S	sg in
olid	ole	id		V	sid
käinud	käi	nud		V	nud
      	käi=nud	0		A	
      	käi=nud	0		A	sg n
      	käi=nud	d		A	pl n
      	käinu	d		S	pl n
,	,			Z	
maksab	maks	b		V	b
8	8	0		N	?
päeva	päev	0		S	adt
     	päev	0		S	sg g
     	päev	0		S	sg p
pärast	pära	st		S	sg el
      	pärane	t		A	sg p
      	pärast	0		D	
      	pärast	0		K	
mõisale	mõis	le		S	sg all
2	2	0		N	?
rubla	rubla	0		S	sg g
     	rubla	0		S	sg n
     	rubla	0		S	sg p
.	.			Z	
3	3	0		N	?
)	)			Z	
Aana	####				
Persitka	####				
Kavastust	####				
,	,			Z	
kelle	kes	0		P	pl g
     	kes	0		P	sg g
mees	mees	0		S	sg n
    	mesi	s		S	sg in
vangis	vang	s		S	sg in
,	,			Z	
käsiniku	käsinik	0		S	sg g
peremehe	pere_mees	0		S	sg g
Johan	Johan	0		H	sg n
Bringveldi	####				
all	all	0		D	
   	all	0		K	
,	,			Z	
kes	kes	0		P	pl n
   	kes	0		P	sg n
Allatskivvi-mõisa	####				
metsas	mets	s		S	sg in
tema	tema	0		P	sg g
    	tema	0		P	sg n
oma	oma	0		A	sg g
   	oma	0		D	
   	oma	0		P	sg g
   	oma	0		S	sg g
   	oma	0		V	o
   	oma	0		A	sg n
   	oma	0		A	sg p
   	oma	0		P	sg n
   	oma	0		P	sg p
   	oma	0		S	sg n
   	oma	0		S	sg p
tunnistuse	tunnistus	0		S	sg g
järele	järele	0		D	
      	järele	0		K	
rohtu	rohtu	0		D	
     	rohtu	0		V	o
     	rohi	0		S	adt
     	rohi	0		S	sg p
oli	ole	i		V	s
varastanud	varasta	nud		V	nud
          	varasta=nu	d		S	pl n
          	varasta=nud	0		A	
          	varasta=nud	0		A	sg n
          	varasta=nud	d		A	pl n
,	,			Z	
maksab	maks	b		V	b
selle	see	0		P	sg g
     	sell	e		S	pl p
eest	eest	0		D	
    	eest	0		K	
    	esi	st		S	sg el
1	1	0		N	?
rubla	rubla	0		S	sg g
     	rubla	0		S	sg n
     	rubla	0		S	sg p
mõisale	mõis	le		S	sg all
ja	ja	0		J	
50	50	0		N	?
kop	kop	0		Y	?
.	.			Z	
trahvi	trahv	0		S	adt
      	trahv	0		S	sg g
      	trahvi	0		V	o
      	trahv	0		S	sg p
laadiku	laadik	0		S	sg g
.	.			Z	
A	A	0		Y	?
.	.			Z	
_	_			Z	
Saul	Saul	0		H	sg n
M	M	0		O	?
 	M	0		Y	?
.	.			Z	
kook	kook	0		S	sg n
XXX	XXX	0		O	?
   	XXX	0		Y	?
(	(			Z	
kalev	kalev	0		S	sg n
)	)			Z	
