N	N	0		Y	?
96.	96.	0		O	?
Ette	ette	0		D	
    	ette	0		K	
    	esi	tte		S	adt
tulid	tule	id		V	sid
Lesk	lesk	0		S	sg n
Liis	Liis	0		H	sg n
    	Lii	s		H	sg in
Lomp	lomp	0		S	sg n
ja	ja	0		J	
Hans	Hans	0		H	sg n
Lomp	lomp	0		S	sg n
ja	ja	0		J	
andsid	and	sid		V	sid
ette	ette	0		D	
    	ette	0		K	
    	esi	tte		S	adt
,	,			Z	
ta	tema	0		P	sg g
  	tema	0		P	sg n
kui	kui	0		D	
   	kui	0		J	
kadund	####				
Jüri	Jüri	0		H	sg g
    	Jüri	0		H	sg n
Lomp	lomp	0		S	sg n
Liis	Liis	0		H	sg n
    	Lii	s		H	sg in
Lombiga	lomp	ga		S	sg kom
abieluse	####				
olla	ole	a		V	da
heitnud	heit	nud		V	nud
       	heit=nu	d		S	pl n
       	heit=nud	0		A	
       	heit=nud	0		A	sg n
       	heit=nud	d		A	pl n
siis	siis	0		D	
    	siis	0		J	
olla	ole	a		V	da
Jüri	Jüri	0		H	sg g
    	Jüri	0		H	sg n
Lomp	lomp	0		S	sg n
järgmise	järgmine	0		A	sg g
varanduse	varandus	0		S	sg g
enesega	ise	ga		P	sg kom
ühes	üks	s		N	sg in
    	üks	s		P	sg in
    	ühes	0		D	
    	ühes	0		K	
toonud	too	nud		V	nud
      	too=nu	d		S	pl n
      	too=nud	0		A	
      	too=nud	0		A	sg n
      	too=nud	d		A	pl n
.	.			Z	
1.	1.	0		O	?
üks	üks	0		N	sg n
   	üks	0		P	sg n
hobune	hobune	0		S	sg n
väärt	väärt	0		A	
     	väärt	0		D	
-1	-1	0		N	?
00	00	0		N	?
rubla	rubla	0		S	sg g
     	rubla	0		S	sg n
     	rubla	0		S	sg p
2.	2.	0		O	?
Üks	üks	0		N	sg n
   	üks	0		P	sg n
lehm	lehm	0		S	sg n
väärt	väärt	0		A	
     	väärt	0		D	
14	14	0		N	?
-	-			Z	
""""	""""			Z	
-	-			Z	
3.	3.	0		O	?
kaks	kaks	0		N	sg n
lammast	lammas	t		S	sg p
a	a	0		Y	?
,	,			Z	
2	2	0		N	?
1	1	0		N	?
/	/			Z	
2	2	0		N	?
5	5	0		N	?
-	-			Z	
""""	""""			Z	
-	-			Z	
4.	4.	0		O	?
Üks	üks	0		N	sg n
   	üks	0		P	sg n
siga	siga	0		A	sg n
    	siga	0		A	sg p
    	siga	0		S	sg n
    	siga	0		S	sg p
-	-			Z	
6	6	0		N	?
-	-			Z	
summa	summ	0		S	adt
     	summ	0		S	sg g
     	summ	0		S	sg p
     	summa	0		S	sg g
     	summa	0		S	sg n
125	125	0		N	?
rubla	rubla	0		S	sg g
     	rubla	0		S	sg n
     	rubla	0		S	sg p
.	.			Z	
ja	ja	0		J	
palusid	palu	sid		S	pl p
       	palu	sid		V	sid
seda	see	da		P	sg p
protokolli	protokoll	0		S	adt
          	protokoll	0		S	sg g
          	protokolli	0		V	o
          	protokoll	0		S	sg p
maha	maha	0		D	
kirjutada	kirjuta	da		V	da
.	.			Z	
otsus	otsus	0		S	sg n
:	:			Z	
et	et	0		J	
seda	see	da		P	sg p
maha	maha	0		D	
kirjutada	kirjuta	da		V	da
.	.			Z	
peakohtumees	pea_kohtu_mees	0		S	sg n
:	:			Z	
p	p	0		Y	?
.	.			Z	
Soonberg	####				
kohtumees	kohtu_mees	0		S	sg n
:	:			Z	
J. Asmus	####				
kohtumees	kohtu_mees	0		S	sg n
:	:			Z	
H. Pastak	####				
kirjutaja	kirjutaja	0		S	sg g
         	kirjutaja	0		S	sg n
Apsberg	####				
.	.			Z	
Ära	ära	0		D	
   	ära	0		V	neg o
kiri	kiri	0		S	sg n
Hans	Hans	0		H	sg n
Lombile	lomp	le		S	sg all
tehtud	tehtu	d		S	pl n
      	tehtud	0		A	
      	tehtud	0		A	sg n
      	tehtud	d		A	pl n
      	tege	tud		V	tud
18	18	0		N	?
VII	vii	0		V	o
   	vii	0		O	?
90	90	0		N	?
