Jüri	Jüri	0		H	sg g
    	Jüri	0		H	sg n
Kuusk	kuusk	0		S	sg n
kaebas	kaeba	s		V	s
et	et	0		J	
Jaan	Jaan	0		H	sg n
    	jaan	0		S	sg n
    	jaan	0		Y	?
Kimmel	kimmel	0		S	sg n
tema	tema	0		P	sg g
    	tema	0		P	sg n
käest	käest	0		K	
     	käsi	st		S	sg el
hobbose	####				
20	20	0		N	?
rubla	rubla	0		S	sg g
     	rubla	0		S	sg n
     	rubla	0		S	sg p
eest	eest	0		D	
    	eest	0		K	
    	esi	st		S	sg el
võtnud	võt	nud		V	nud
      	võt=nu	d		S	pl n
      	võt=nud	0		A	
      	võt=nud	0		A	sg n
      	võt=nud	d		A	pl n
nüid	####				
aga	aga	0		J	
se	####				
hobbone	####				
ära	ära	0		D	
   	ära	0		V	neg o
surnud	surnu	d		S	pl n
      	surnud	0		A	
      	surnud	0		A	sg n
      	surnud	d		A	pl n
      	sure	nud		V	nud
ja	ja	0		J	
et	et	0		J	
Jaan	Jaan	0		H	sg n
    	jaan	0		S	sg n
    	jaan	0		Y	?
Kimmel	kimmel	0		S	sg n
temale	tema	le		P	sg all
ühtegi	ühte	0	gi	D	
      	üks	0	gi	N	adt
      	üks	0	gi	P	adt
      	ühe	0	gi	S	sg g
      	üks	0	gi	N	sg p
      	üks	0	gi	P	sg p
anda	and	a		V	da
ei	ei	0		D	
  	ei	0		V	neg
taha	taht	0		V	o
    	taha	0		D	
    	taha	0		K	
.	.			Z	
Jaan	Jaan	0		H	sg n
    	jaan	0		S	sg n
    	jaan	0		Y	?
Kimmel	kimmel	0		S	sg n
räkis	####				
et	et	0		J	
tema	tema	0		P	sg g
    	tema	0		P	sg n
kül	####				
Jüri	Jüri	0		H	sg g
    	Jüri	0		H	sg n
Kuuse	kuune	0		A	sg g
     	kuusk	0		S	sg g
käest	käest	0		K	
     	käsi	st		S	sg el
hobbose	####				
võtnud	võt	nud		V	nud
      	võt=nu	d		S	pl n
      	võt=nud	0		A	
      	võt=nud	0		A	sg n
      	võt=nud	d		A	pl n
mis	mis	0		P	pl n
   	mis	0		P	sg n
tema	tema	0		P	sg g
    	tema	0		P	sg n
piddanud	####				
Tartu	Tartu	0		H	adt
     	Tartu	0		H	sg g
     	Tartu	0		H	sg n
     	tartu	0		G	
20	20	0		N	?
rubla	rubla	0		S	sg g
     	rubla	0		S	sg n
     	rubla	0		S	sg p
eest	eest	0		D	
    	eest	0		K	
    	esi	st		S	sg el
ära	ära	0		D	
   	ära	0		V	neg o
müima	####				
ja	ja	0		J	
et	et	0		J	
aga	aga	0		J	
Tartus	Tartu	s		H	sg in
enamb	####				
pakkutud	####				
ei	ei	0		D	
  	ei	0		V	neg
ole	ole	0		V	o
kui	kui	0		D	
   	kui	0		J	
15	15	0		N	?
rubla	rubla	0		S	sg g
     	rubla	0		S	sg n
     	rubla	0		S	sg p
.	.			Z	
siis	siis	0		D	
    	siis	0		J	
on	ole	0		V	b
  	ole	0		V	vad
tema	tema	0		P	sg g
    	tema	0		P	sg n
tahtnud	taht	nud		V	nud
       	taht=nu	d		S	pl n
       	taht=nud	0		A	
       	taht=nud	0		A	sg n
       	taht=nud	d		A	pl n
seda	see	da		P	sg p
hobbost	####				
tagasi	tagasi	0		D	
      	tagasi	0		K	
tuvva	####				
aga	aga	0		J	
vedu	vedu	0		S	sg n
    	vedu	0		S	sg p
kõrtsis	kõrts	s		S	sg in
ära	ära	0		D	
   	ära	0		V	neg o
surnud	surnu	d		S	pl n
      	surnud	0		A	
      	surnud	0		A	sg n
      	surnud	d		A	pl n
      	sure	nud		V	nud
mis	mis	0		P	pl n
   	mis	0		P	sg n
tema	tema	0		P	sg g
    	tema	0		P	sg n
lasknud	lask	nud		V	nud
       	lask=nu	d		S	pl n
       	lask=nud	0		A	
       	lask=nud	0		A	sg n
       	lask=nud	d		A	pl n
metsa	mets	0		S	adt
     	mets	0		S	sg g
     	mets	0		S	sg p
via	####				
.	.			Z	
Mõistus	mõistus	0		S	sg n
.	.			Z	
Jaan	Jaan	0		H	sg n
    	jaan	0		S	sg n
    	jaan	0		Y	?
Kimmel	kimmel	0		S	sg n
peab	pida	b		V	b
Jüri	Jüri	0		H	sg g
    	Jüri	0		H	sg n
Kuusele	kuune	le		A	sg all
       	kuusk	le		S	sg all
7	7	0		N	?
rubl	####				
50	50	0		N	?
Cop	####				
ja	ja	0		J	
et	et	0		J	
tema	tema	0		P	sg g
    	tema	0		P	sg n
ei	ei	0		D	
  	ei	0		V	neg
ole	ole	0		V	o
nakha	####				
võtnud	võt	nud		V	nud
      	võt=nu	d		S	pl n
      	võt=nud	0		A	
      	võt=nud	0		A	sg n
      	võt=nud	d		A	pl n
1	1	0		N	?
rubla	rubla	0		S	sg g
     	rubla	0		S	sg n
     	rubla	0		S	sg p
50	50	0		N	?
Cop	####				
.	.			Z	
ühte	ühte	0		D	
    	üks	0		N	adt
    	üks	0		P	adt
    	ühe	0		S	sg g
    	üks	0		N	sg p
    	üks	0		P	sg p
kokku	kokku	0		D	
     	kogu	0		S	adt
9	9	0		N	?
rubla	rubla	0		S	sg g
     	rubla	0		S	sg n
     	rubla	0		S	sg p
maksma	maks	ma		V	ma
ja	ja	0		J	
kannab	kand	b		V	b
Jüri	Jüri	0		H	sg g
    	Jüri	0		H	sg n
Kuusk	kuusk	0		S	sg n
sest	see	st		P	sg el
    	sest	0		J	
pool	pool	0		K	
    	pool	0		N	sg n
    	pool	0		S	sg n
kahjo	####				
selle	see	0		P	sg g
     	sell	e		S	pl p
järele	järele	0		D	
      	järele	0		K	
mis	mis	0		P	pl n
   	mis	0		P	sg n
Tartus	Tartu	s		H	sg in
oli	ole	i		V	s
pakkutud	####				
hobbose	####				
eest	eest	0		D	
    	eest	0		K	
    	esi	st		S	sg el
sest	see	st		P	sg el
    	sest	0		J	
et	et	0		J	
tema	tema	0		P	sg g
    	tema	0		P	sg n
väga	väga	0		D	
kõrge	kõrge	0		A	sg g
     	kõrge	0		A	sg n
hina	####				
eest	eest	0		D	
    	eest	0		K	
    	esi	st		S	sg el
Jaan	Jaan	0		H	sg n
    	jaan	0		S	sg n
    	jaan	0		Y	?
Kimli	kimmel	0		S	sg g
kätte	kätte	0		K	
     	käsi	tte		S	adt
andnud	and	nud		V	nud
      	and=nu	d		S	pl n
      	and=nud	0		A	
      	and=nud	0		A	sg n
      	and=nud	d		A	pl n
ära	ära	0		D	
   	ära	0		V	neg o
müia	####				
.	.			Z	
Maddis	####				
Tamm	tamm	0		S	sg n
XXX	XXX	0		O	?
   	XXX	0		Y	?
Josep	####				
Reisenpuk	####				
XXX	XXX	0		O	?
   	XXX	0		Y	?
Josep	####				
kalaus	####				
XXX	XXX	0		O	?
   	XXX	0		Y	?
