et	et	0		J	
maksa	maks	0		S	adt
     	maks	0		S	sg g
     	maks	0		V	o
     	maks	0		S	sg p
vallavalitsus	valla_valitsus	0		S	sg n
on	ole	0		V	b
  	ole	0		V	vad
Jaan	Jaan	0		H	sg n
    	jaan	0		S	sg n
    	jaan	0		Y	?
Kiltrile	kilter	le		S	sg all
,	,			Z	
kes	kes	0		P	pl n
   	kes	0		P	sg n
Haslaval	####				
elab	ela	b		V	b
,	,			Z	
pea	pea	0		D	
   	pea	0		S	sg g
   	pida	0		V	o
   	pea	0		S	sg n
raha	raha	0		S	sg g
    	raha	0		S	sg n
    	raha	0		S	sg p
maksuga	maks	ga		S	sg kom
kuni	kuni	0		J	
    	kuni	0		K	
20.	20.	0		O	?
septembrini	september	ni		S	sg ter
s	s	0		Y	?
.	.			Z	
a.	a	0		Y	?
aega	aeg	0		S	adt
    	aeg	0		S	sg p
    	aega	0		K	
annud	####				
,	,			Z	
millal	millal	0		D	
ta	tema	0		P	sg g
  	tema	0		P	sg n
peab	pida	b		V	b
ilma	ilm	0		S	adt
    	ilm	0		S	sg g
    	ilma	0		D	
    	ilma	0		K	
    	ilm	0		S	sg p
sundmata	####				
ära	ära	0		D	
   	ära	0		V	neg o
maksma	maks	ma		V	ma
,	,			Z	
tunistab	####				
maksa	maks	0		S	adt
     	maks	0		S	sg g
     	maks	0		V	o
     	maks	0		S	sg p
vallavalitsus	valla_valitsus	0		S	sg n
,	,			Z	
26.	26.	0		O	?
juulil	juuli	l		S	sg ad
1882.	1882.	0		O	?
vanema	vanem	0		C	sg g
      	vanem	0		S	sg g
nimel	nimel	0		K	
     	nimi	l		S	sg ad
:	:			Z	
Jakub	####				
mõõsel	####				
[	[			Z	
?	?			Z	
]	]			Z	
/	/			Z	
allkiri	all_kiri	0		S	sg n
/	/			Z	
Vöörmünder	vöörmünder	0		S	sg n
Pitsad	pitsa	d		S	pl n
/	/			Z	
maksa	maks	0		S	adt
     	maks	0		S	sg g
     	maks	0		V	o
     	maks	0		S	sg p
talurahva	talu_rahvas	0		S	sg g
kogukond	kogukond	0		S	sg n
/	/			Z	
