Jõe	jõgi	0		S	sg g
selle	see	0		P	sg g
     	sell	e		S	pl p
18	18	0		N	?
Juunil	juuni	l		S	sg ad
1875	1875	0		N	?
kohtulauas	kohtu_laud	s		S	sg in
:	:			Z	
kohtumees	kohtu_mees	0		S	sg n
Karel	####				
ernits	####				
""""	""""			Z	
Josep	####				
Gern	####				
""""	""""			Z	
Hans	Hans	0		H	sg n
Juur	juur	0		S	sg n
Märt	Märt	0		H	sg n
Päll	####				
tuli	tuli	0		S	sg n
    	tule	i		V	s
ette	ette	0		D	
    	ette	0		K	
    	esi	tte		S	adt
kaebas	kaeba	s		V	s
,	,			Z	
et	et	0		J	
koolmeister	kool_meister	0		S	sg n
Johan	Johan	0		H	sg n
Pärtelpoeg	####				
on	ole	0		V	b
  	ole	0		V	vad
tema	tema	0		P	sg g
    	tema	0		P	sg n
lehmad	lehm	d		S	pl n
sõdi	sõdi	0		V	o
pealt	pea	lt		S	sg abl
     	pealt	0		D	
     	pealt	0		K	
kinni	kinni	0		D	
ajanud	aja	nud		V	nud
      	aja=nu	d		S	pl n
      	aja=nud	0		A	
      	aja=nud	0		A	sg n
      	aja=nud	d		A	pl n
ja	ja	0		J	
tema	tema	0		P	sg g
    	tema	0		P	sg n
läinud	läinu	d		S	pl n
      	läinud	0		A	
      	läinud	0		A	sg n
      	läinud	d		A	pl n
      	mine	nud		V	nud
taga	taga	0		D	
    	taga	0		K	
    	taga	0		V	o
otsima	otsi	ma		V	ma
,	,			Z	
ja	ja	0		J	
tema	tema	0		P	sg g
    	tema	0		P	sg n
üttelnud	####				
et	et	0		J	
ei	ei	0		D	
  	ei	0		V	neg
ana	####				
enne	enne	0		D	
    	enne	0		K	
    	enne	0		S	sg n
kätte	kätte	0		K	
     	käsi	tte		S	adt
kui	kui	0		D	
   	kui	0		J	
kohtu	kohtu	0		V	o
     	kohus	0		S	sg g
päeval	päev	l		S	sg ad
nink	####				
üttelnud	####				
temale	tema	le		P	sg all
et	et	0		J	
tema	tema	0		P	sg g
    	tema	0		P	sg n
varas	vara	s		S	sg in
     	varas	0		S	sg n
ja	ja	0		J	
lubanud	luba	nud		V	nud
       	luba=nu	d		S	pl n
       	luba=nud	0		A	
       	luba=nud	0		A	sg n
       	luba=nud	d		A	pl n
oma	oma	0		A	sg g
   	oma	0		D	
   	oma	0		P	sg g
   	oma	0		S	sg g
   	oma	0		V	o
   	oma	0		A	sg n
   	oma	0		A	sg p
   	oma	0		P	sg n
   	oma	0		P	sg p
   	oma	0		S	sg n
   	oma	0		S	sg p
lehmad	lehm	d		S	pl n
ära	ära	0		D	
   	ära	0		V	neg o
via	####				
.	.			Z	
kui	kui	0		D	
   	kui	0		J	
tema	tema	0		P	sg g
    	tema	0		P	sg n
lauda	laud	0		S	adt
     	laut	0		S	sg g
     	laud	0		S	sg p
jurde	####				
läinud	läinu	d		S	pl n
      	läinud	0		A	
      	läinud	0		A	sg n
      	läinud	d		A	pl n
      	mine	nud		V	nud
lehmi	lehm	i		S	pl p
välja	välja	0		D	
     	välja	0		V	o
     	väli	0		S	adt
     	väli	0		S	sg g
     	väli	0		S	sg p
laskma	lask	ma		V	ma
tulnud	tul=nud	0		A	
      	tul=nud	0		A	sg n
      	tul=nud	d		A	pl n
      	tule	nud		V	nud
      	tulnu	d		S	pl n
koolmeister	kool_meister	0		S	sg n
kirvega	kirves	ga		S	sg kom
ja	ja	0		J	
lubanud	luba	nud		V	nud
       	luba=nu	d		S	pl n
       	luba=nud	0		A	
       	luba=nud	0		A	sg n
       	luba=nud	d		A	pl n
teda	tema	da		P	sg p
virutada	viruta	da		V	da
pealeselle	peale_sell	e		S	pl p
viskanud	####				
kirve	kirves	0		S	sg g
maha	maha	0		D	
võtnud	võt	nud		V	nud
      	võt=nu	d		S	pl n
      	võt=nud	0		A	
      	võt=nud	0		A	sg n
      	võt=nud	d		A	pl n
teiba	teivas	0		S	adt
     	teivas	0		S	sg g
lükkanud	####				
sellega	see	ga		P	sg kom
rindu	rind	u		S	pl p
     	rindu	0		D	
ja	ja	0		J	
kui	kui	0		D	
   	kui	0		J	
tema	tema	0		P	sg g
    	tema	0		P	sg n
lauda	laud	0		S	adt
     	laut	0		S	sg g
     	laud	0		S	sg p
kuse	kusi	0		S	sg g
    	kuse	0		V	o
tagad	taga	d		V	d
puu	puu	0		S	sg g
   	puu	0		S	sg n
võtnud	võt	nud		V	nud
      	võt=nu	d		S	pl n
      	võt=nud	0		A	
      	võt=nud	0		A	sg n
      	võt=nud	d		A	pl n
,	,			Z	
siis	siis	0		D	
    	siis	0		J	
on	ole	0		V	b
  	ole	0		V	vad
koolmeister	kool_meister	0		S	sg n
temale	tema	le		P	sg all
teibaga	teivas	ga		S	sg kom
käe	käsi	0		S	sg g
peale	pea	le		S	sg all
     	peale	0		D	
     	peale	0		K	
lõnud	####				
ja	ja	0		J	
tema	tema	0		P	sg g
    	tema	0		P	sg n
ajanud	aja	nud		V	nud
      	aja=nu	d		S	pl n
      	aja=nud	0		A	
      	aja=nud	0		A	sg n
      	aja=nud	d		A	pl n
2	2	0		N	?
lehma	lehm	0		S	adt
     	lehm	0		S	sg g
     	lehm	0		S	sg p
ja	ja	0		J	
1	1	0		N	?
siga	siga	0		A	sg n
    	siga	0		A	sg p
    	siga	0		S	sg n
    	siga	0		S	sg p
kodu	kodu	0		S	sg g
    	kodu	0		S	sg n
    	kodu	0		S	sg p
.	.			Z	
Johan	Johan	0		H	sg n
Pärtelpoeg	####				
tuli	tuli	0		S	sg n
    	tule	i		V	s
ette	ette	0		D	
    	ette	0		K	
    	esi	tte		S	adt
vastas	vasta	s		V	s
      	vastas	0		D	
      	vastas	0		K	
,	,			Z	
et	et	0		J	
on	ole	0		V	b
  	ole	0		V	vad
need	see	d		P	pl n
lehmad	lehm	d		S	pl n
tema	tema	0		P	sg g
    	tema	0		P	sg n
odra	oder	0		S	sg g
pealt	pea	lt		S	sg abl
     	pealt	0		D	
     	pealt	0		K	
kinni	kinni	0		D	
ajanud	aja	nud		V	nud
      	aja=nu	d		S	pl n
      	aja=nud	0		A	
      	aja=nud	0		A	sg n
      	aja=nud	d		A	pl n
ja	ja	0		J	
üttelnud	####				
ta	tema	0		P	sg g
  	tema	0		P	sg n
kohtumees	kohtu_mees	0		S	sg n
siis	siis	0		D	
    	siis	0		J	
annan	and	n		V	n
need	see	d		P	pl n
lehmad	lehm	d		S	pl n
ja	ja	0		J	
1	1	0		N	?
siga	siga	0		A	sg n
    	siga	0		A	sg p
    	siga	0		S	sg n
    	siga	0		S	sg p
kätte	kätte	0		K	
     	käsi	tte		S	adt
,	,			Z	
ei	ei	0		D	
  	ei	0		V	neg
ole	ole	0		V	o
teda	tema	da		P	sg p
vargaks	varas	ks		S	sg tr
üttelnud	####				
,	,			Z	
tema	tema	0		P	sg g
    	tema	0		P	sg n
on	ole	0		V	b
  	ole	0		V	vad
üttelnud	####				
sina	sina	0		P	sg n
    	sina	0		S	sg g
    	sina	0		V	o
    	sina	0		S	sg n
    	sina	0		S	sg p
ei	ei	0		D	
  	ei	0		V	neg
pea	pea	0		D	
   	pea	0		S	sg g
   	pida	0		V	o
   	pea	0		S	sg n
oma	oma	0		A	sg g
   	oma	0		D	
   	oma	0		P	sg g
   	oma	0		S	sg g
   	oma	0		V	o
   	oma	0		A	sg n
   	oma	0		A	sg p
   	oma	0		P	sg n
   	oma	0		P	sg p
   	oma	0		S	sg n
   	oma	0		S	sg p
lubaga	####				
lehmi	lehm	i		S	pl p
võtma	võt	ma		V	ma
,	,			Z	
temal	tema	l		P	sg ad
on	ole	0		V	b
  	ole	0		V	vad
enne	enne	0		D	
    	enne	0		K	
    	enne	0		S	sg n
kirves	kirves	0		S	sg n
      	kirves	s		S	sg in
juba	juba	0		D	
käes	käes	0		K	
    	käsi	s		S	sg in
olnud	ol=nud	0		A	
     	ol=nud	0		A	sg n
     	ol=nud	d		A	pl n
     	ole	nud		V	nud
     	olnu	d		S	pl n
,	,			Z	
ei	ei	0		D	
  	ei	0		V	neg
ole	ole	0		V	o
lubanud	luba	nud		V	nud
       	luba=nu	d		S	pl n
       	luba=nud	0		A	
       	luba=nud	0		A	sg n
       	luba=nud	d		A	pl n
teda	tema	da		P	sg p
virutada	viruta	da		V	da
,	,			Z	
ei	ei	0		D	
  	ei	0		V	neg
ole	ole	0		V	o
rindu	rind	u		S	pl p
     	rindu	0		D	
teibaga	teivas	ga		S	sg kom
lükkanud	####				
.	.			Z	
Märt	Märt	0		H	sg n
Päll	####				
on	ole	0		V	b
  	ole	0		V	vad
temale	tema	le		P	sg all
terava	terav	0		A	sg g
teibaga	teivas	ga		S	sg kom
sisse	siss	e		S	pl p
     	sisse	0		D	
     	sisse	0		K	
lüia	####				
tahtnud	taht	nud		V	nud
       	taht=nu	d		S	pl n
       	taht=nud	0		A	
       	taht=nud	0		A	sg n
       	taht=nud	d		A	pl n
ja	ja	0		J	
siis	siis	0		D	
    	siis	0		J	
on	ole	0		V	b
  	ole	0		V	vad
tema	tema	0		P	sg g
    	tema	0		P	sg n
teiba	teivas	0		S	adt
     	teivas	0		S	sg g
käest	käest	0		K	
     	käsi	st		S	sg el
ära	ära	0		D	
   	ära	0		V	neg o
lõnud	####				
,	,			Z	
ja	ja	0		J	
Märt	Märt	0		H	sg n
Päll	####				
on	ole	0		V	b
  	ole	0		V	vad
ühes	üks	s		N	sg in
    	üks	s		P	sg in
    	ühes	0		D	
    	ühes	0		K	
naesega	####				
tema	tema	0		P	sg g
    	tema	0		P	sg n
peale	pea	le		S	sg all
     	peale	0		D	
     	peale	0		K	
tulnud	tul=nud	0		A	
      	tul=nud	0		A	sg n
      	tul=nud	d		A	pl n
      	tule	nud		V	nud
      	tulnu	d		S	pl n
tema	tema	0		P	sg g
    	tema	0		P	sg n
õue	õu	0		S	adt
   	õu	0		S	sg g
   	õue	0		D	
   	õu	0		S	sg p
ja	ja	0		J	
tahtnud	taht	nud		V	nud
       	taht=nu	d		S	pl n
       	taht=nud	0		A	
       	taht=nud	0		A	sg n
       	taht=nud	d		A	pl n
teda	tema	da		P	sg p
peksta	peks	ta		V	da
      	peks	ta		V	ta
,	,			Z	
tema	tema	0		P	sg g
    	tema	0		P	sg n
saanud	saa	nud		V	nud
      	saa=nud	0		A	
      	saa=nud	0		A	sg n
      	saa=nud	d		A	pl n
      	saanu	d		S	pl n
jooksma	jooks	ma		V	ma
,	,			Z	
tema	tema	0		P	sg g
    	tema	0		P	sg n
seda	see	da		P	sg p
ei	ei	0		D	
  	ei	0		V	neg
tea	tead	0		V	o
kas	kas	0		D	
se	####				
teibas	teivas	s		S	sg in
on	ole	0		V	b
  	ole	0		V	vad
käe	käsi	0		S	sg g
külgi	külg	i		S	pl p
puutunud	puutu	nud		V	nud
        	puutu=nu	d		S	pl n
        	puutu=nud	0		A	
        	puutu=nud	0		A	sg n
        	puutu=nud	d		A	pl n
või	või	0		S	sg g
   	või	0		V	o
   	või	0		D	
   	või	0		J	
   	või	0		S	sg n
mitte	mitte	0		D	
kui	kui	0		D	
   	kui	0		J	
tema	tema	0		P	sg g
    	tema	0		P	sg n
se	####				
teiba	teivas	0		S	adt
     	teivas	0		S	sg g
käest	käest	0		K	
     	käsi	st		S	sg el
ära	ära	0		D	
   	ära	0		V	neg o
lõnud	####				
.	.			Z	
Tunnistust	tunnistus	t		S	sg p
neil	see	l		P	pl ad
    	tema	l		P	pl ad
kumbalgi	####				
ei	ei	0		D	
  	ei	0		V	neg
ole	ole	0		V	o
.	.			Z	
kohtu	kohtu	0		V	o
     	kohus	0		S	sg g
otsus	otsus	0		S	sg n
:	:			Z	
Märt	Märt	0		H	sg n
Päll	####				
maksab	maks	b		V	b
8	8	0		N	?
p	p	0		Y	?
perast	####				
vaeste	vaene	te		A	pl g
      	vaene	te		S	pl g
ladiko	####				
trahvi	trahv	0		S	adt
      	trahv	0		S	sg g
      	trahvi	0		V	o
      	trahv	0		S	sg p
1	1	0		N	?
rubla	rubla	0		S	sg g
     	rubla	0		S	sg n
     	rubla	0		S	sg p
,	,			Z	
sest	see	st		P	sg el
    	sest	0		J	
et	et	0		J	
panditud	panti	tud		V	tud
        	pandi=tu	d		S	pl n
        	pandi=tud	0		A	
        	pandi=tud	0		A	sg n
        	pandi=tud	d		A	pl n
elajad	elajas	d		S	pl n
ära	ära	0		D	
   	ära	0		V	neg o
ajanud	aja	nud		V	nud
      	aja=nu	d		S	pl n
      	aja=nud	0		A	
      	aja=nud	0		A	sg n
      	aja=nud	d		A	pl n
.	.			Z	
kohtumees	kohtu_mees	0		S	sg n
Karel	####				
ernits	####				
xxx	####				
""""	""""			Z	
Hans	Hans	0		H	sg n
Juur	juur	0		S	sg n
xxx	####				
""""	""""			Z	
abi	abi	0		S	sg g
   	abi	0		S	sg n
   	abi	0		S	sg p
Josep	####				
Gern	####				
