Aavvinurme	####				
Volimeeste	voli_mees	te		S	pl g
poolest	pool	st		N	sg el
       	pool	st		S	sg el
       	poolene	t		A	sg p
       	poolest	0		K	
volildud	####				
Juhan	Juhan	0		H	sg n
koppel	koppel	0		S	sg n
,	,			Z	
Josep	####				
Kukk	kukk	0		S	sg n
,	,			Z	
ja	ja	0		J	
Jaan	Jaan	0		H	sg n
    	jaan	0		S	sg n
    	jaan	0		Y	?
Mäggi	####				
astusid	astu	sid		V	sid
kogokonnakohtu	####				
ette	ette	0		D	
    	ette	0		K	
    	esi	tte		S	adt
ja	ja	0		J	
kaebasid	kaeba	sid		V	sid
et	et	0		J	
Aandres	####				
Liis	Liis	0		H	sg n
    	Lii	s		H	sg in
Aaastal	####				
1854	1854	0		N	?
ühe	üks	0		N	sg g
   	üks	0		P	sg g
   	ühe	0		S	sg n
Aavvinurme	####				
Maetsma	####				
küla	küla	0		S	sg g
    	küla	0		S	sg n
    	küla	0		S	sg p
peremehe	pere_mees	0		S	sg g
Karel	####				
Paasi	paas	0		S	adt
     	paas	0		S	sg p
ette	ette	0		D	
    	ette	0		K	
    	esi	tte		S	adt
käemeheks	käe_mees	ks		S	sg tr
hakkanud	####				
Magasi	magas	0		S	sg g
võlgade	võlg	de		S	pl g
pärast	pära	st		S	sg el
      	pärane	t		A	sg p
      	pärast	0		D	
      	pärast	0		K	
ja	ja	0		J	
olnud	ol=nud	0		A	
     	ol=nud	0		A	sg n
     	ol=nud	d		A	pl n
     	ole	nud		V	nud
     	olnu	d		S	pl n
Magasi	magas	0		S	sg g
võlg	võlg	0		S	sg n
20	20	0		N	?
Tschetverti	####				
59	59	0		N	?
karn	karn	0		S	sg n
rukkid	rukis	d		S	pl n
3	3	0		N	?
Tschetverti	####				
4	4	0		N	?
karnitsad	karnits	d		S	pl n
Odre	####				
ja	ja	0		J	
7	7	0		N	?
Tschetverti	####				
23	23	0		N	?
karnitsad	karnits	d		S	pl n
kaero	####				
võlgo	####				
,	,			Z	
mis	mis	0		P	pl n
   	mis	0		P	sg n
pärast	pära	st		S	sg el
      	pärane	t		A	sg p
      	pärast	0		D	
      	pärast	0		K	
siis	siis	0		D	
    	siis	0		J	
Karel	####				
Paas	paa	s		A	sg in
    	paa	s		S	sg in
    	paas	0		S	sg n
tallo	####				
pealt	pea	lt		S	sg abl
     	pealt	0		D	
     	pealt	0		K	
lahti	laht	i		S	pl p
     	lahti	0		D	
saanud	saa	nud		V	nud
      	saa=nud	0		A	
      	saa=nud	0		A	sg n
      	saa=nud	d		A	pl n
      	saanu	d		S	pl n
ja	ja	0		J	
Aandres	####				
Liis	Liis	0		H	sg n
    	Lii	s		H	sg in
seda	see	da		P	sg p
tallo	####				
oma	oma	0		A	sg g
   	oma	0		D	
   	oma	0		P	sg g
   	oma	0		S	sg g
   	oma	0		V	o
   	oma	0		A	sg n
   	oma	0		A	sg p
   	oma	0		P	sg n
   	oma	0		P	sg p
   	oma	0		S	sg n
   	oma	0		S	sg p
poja	poeg	0		S	sg g
    	poja	0		S	sg g
    	poja	0		S	sg n
    	poja	0		S	sg p
Josepile	####				
võtnud	võt	nud		V	nud
      	võt=nu	d		S	pl n
      	võt=nud	0		A	
      	võt=nud	0		A	sg n
      	võt=nud	d		A	pl n
aga	aga	0		J	
mitte	mitte	0		D	
seda	see	da		P	sg p
võlga	võlg	0		S	adt
     	võlg	0		S	sg p
kinni	kinni	0		D	
maksnud	maks	nud		V	nud
       	maks=nu	d		S	pl n
       	maks=nud	0		A	
       	maks=nud	0		A	sg n
       	maks=nud	d		A	pl n
,	,			Z	
mis	mis	0		P	pl n
   	mis	0		P	sg n
tänini	tänini	0		D	
võlas	võlg	s		S	sg in
ja	ja	0		J	
nõuavad	nõud	vad		V	vad
nemad	tema	d		P	pl n
et	et	0		J	
Aandres	####				
Liis	Liis	0		H	sg n
    	Lii	s		H	sg in
se	####				
võlg	võlg	0		S	sg n
peab	pida	b		V	b
kinni	kinni	0		D	
maksma	maks	ma		V	ma
Mõistus	mõistus	0		S	sg n
.	.			Z	
Seasi	####				
jäeb	####				
tuleva	tulev	0		A	sg g
kohtu	kohtu	0		V	o
     	kohus	0		S	sg g
päeva	päev	0		S	adt
     	päev	0		S	sg g
     	päev	0		S	sg p
peale	pea	le		S	sg all
     	peale	0		D	
     	peale	0		K	
