Tänasel	tänane	l		A	sg ad
päeval	päev	l		S	sg ad
sai	saa	i		V	s
   	sai	0		S	sg n
selle	see	0		P	sg g
     	sell	e		S	pl p
ärakoolu	ära_koold	0		S	sg g
peremehe	pere_mees	0		S	sg g
Jüri	Jüri	0		H	sg g
    	Jüri	0		H	sg n
Vassila	####				
pärajäänud	pära_jäänu	d		S	pl n
          	pära_jäänud	0		A	
          	pära_jäänud	0		A	sg n
          	pära_jäänud	d		A	pl n
lapsta	####				
võöörmündritel	####				
,	,			Z	
lapsta	####				
ülespidamise	üles_pidamine	0		S	sg g
tarbeks	tarve	ks		S	sg tr
oksjoni	oksjon	0		S	sg g
rahast	raha	st		S	sg el
välja	välja	0		D	
     	välja	0		V	o
     	väli	0		S	adt
     	väli	0		S	sg g
     	väli	0		S	sg p
andud	andu	d		V	d
:	:			Z	
1.	1.	0		O	?
,	,			Z	
1	1	0		N	?
vak	####				
jahu	jahu	0		S	sg g
    	jahu	0		V	o
    	jahu	0		S	sg n
    	jahu	0		S	sg p
4	4	0		N	?
rub	####				
.	.			Z	
30	30	0		N	?
kop	kop	0		Y	?
.	.			Z	
2.	2.	0		O	?
,	,			Z	
1	1	0		N	?
/	/			Z	
2	2	0		N	?
vak	####				
suurmit	####				
2	2	0		N	?
rub	####				
3.	3.	0		O	?
,	,			Z	
5	5	0		N	?
vak	####				
kartuflid	####				
6	6	0		N	?
rub	####				
.	.			Z	
5	5	0		N	?
kop	kop	0		Y	?
.	.			Z	
4.	4.	0		O	?
,	,			Z	
soola	sool	0		S	adt
     	sool	0		S	sg g
     	soola	0		V	o
     	sool	0		S	sg p
ja	ja	0		J	
väga	väga	0		D	
tarbeks	tarve	ks		S	sg tr
1	1	0		N	?
rub	####				
summa	summ	0		S	adt
     	summ	0		S	sg g
     	summ	0		S	sg p
     	summa	0		S	sg g
     	summa	0		S	sg n
13	13	0		N	?
rub	####				
.	.			Z	
35	35	0		N	?
kop	kop	0		Y	?
.	.			Z	
otsus	otsus	0		S	sg n
:	:			Z	
saab	saa	b		V	b
protokolli	protokoll	0		S	adt
          	protokoll	0		S	sg g
          	protokolli	0		V	o
          	protokoll	0		S	sg p
üles	üles	0		D	
pandud	pan=du	d		S	pl n
      	pan=dud	0		A	
      	pan=dud	0		A	sg n
      	pan=dud	d		A	pl n
      	pane	dud		V	tud
.	.			Z	
Peakohtumees	pea_kohtu_mees	0		S	sg n
Johan	Johan	0		H	sg n
Toom	toom	0		S	sg n
XXX	XXX	0		O	?
   	XXX	0		Y	?
kohtumees	kohtu_mees	0		S	sg n
Jaan	Jaan	0		H	sg n
    	jaan	0		S	sg n
    	jaan	0		Y	?
Virro	####				
XXX	XXX	0		O	?
   	XXX	0		Y	?
kohtumees	kohtu_mees	0		S	sg n
Jüri	Jüri	0		H	sg g
    	Jüri	0		H	sg n
Luha	luht	0		S	sg g
XXX	XXX	0		O	?
   	XXX	0		Y	?
kohtumees	kohtu_mees	0		S	sg n
Jüri	Jüri	0		H	sg g
    	Jüri	0		H	sg n
kärn	kärn	0		S	sg n
XXX	XXX	0		O	?
   	XXX	0		Y	?
