Protokoll	protokoll	0		S	sg n
Aavvinurme	####				
Vallakohtus	valla_kohus	s		S	sg in
sel	see	l		P	sg ad
   	sel	0		Y	?
.	.			Z	
25	25	0		N	?
Vebruaril	####				
1900.	1900.	0		O	?
juures	juur	s		S	sg in
      	juures	0		D	
      	juures	0		K	
olid	ole	id		V	sid
eesistuja	ees_istuja	0		S	sg g
         	ees_istuja	0		S	sg n
asemel	ase	l		S	sg ad
      	asemel	0		K	
Mihkel	Mihkel	0		H	sg n
      	mihkel	0		A	sg n
      	mihkel	0		S	sg n
Tomi	Tom	0		H	adt
    	Tom	0		H	sg g
    	Tom	0		H	sg p
kohtumees	kohtu_mees	0		S	sg n
Jaan	Jaan	0		H	sg n
    	jaan	0		S	sg n
    	jaan	0		Y	?
Laud	laud	0		S	sg n
    	laug	d		S	pl n
.	.			Z	
Aabikohtumes	####				
Jaan	Jaan	0		H	sg n
    	jaan	0		S	sg n
    	jaan	0		Y	?
Paju	paju	0		S	sg g
    	paju	0		S	sg n
    	paju	0		S	sg p
Tulid	tule	id		V	sid
ette	ette	0		D	
    	ette	0		K	
    	esi	tte		S	adt
Aavvinurme	####				
valla	vald	0		S	sg g
     	valla	0		D	
inimesed	inimene	d		S	pl n
Jüri	Jüri	0		H	sg g
    	Jüri	0		H	sg n
Halik	####				
Madise	Madis	0		H	sg g
      	madis	0		S	sg g
poeg	poeg	0		S	sg n
Västrikust	västrik	st		S	sg el
ja	ja	0		J	
Josep	####				
Saar	saar	0		S	sg n
Mihkli	Mihkel	0		H	sg g
      	Mihkli	0		H	sg g
      	mihkel	0		A	sg g
      	mihkel	0		S	sg g
      	Mihkli	0		H	sg n
poeg	poeg	0		S	sg n
Vastrikust	####				
ja	ja	0		J	
palusid	palu	sid		S	pl p
       	palu	sid		V	sid
Vallakohut	valla_kohus	t		S	sg p
nende	see	de		P	pl g
     	tema	de		P	pl g
kaupa	kaup	0		S	adt
     	kaup	0		S	sg p
     	kaupa	0		K	
ja	ja	0		J	
kontraht	kontraht	0		S	sg n
kinnitada	kinnita	da		V	da
mis	mis	0		P	pl n
   	mis	0		P	sg n
nemad	tema	d		P	pl n
krundi	krunt	0		S	sg g
      	krunti	0		V	o
rentimise	rentimine	0		S	sg g
pärast	pära	st		S	sg el
      	pärane	t		A	sg p
      	pärast	0		D	
      	pärast	0		K	
eneste	ise	te		P	pl g
vahel	vahe	l		S	sg ad
     	vahel	0		D	
     	vahel	0		K	
tehnud	####				
ja	ja	0		J	
kokku	kokku	0		D	
     	kogu	0		S	adt
leppinud	leppi	nud		V	nud
        	leppi=nu	d		S	pl n
        	leppi=nud	0		A	
        	leppi=nud	0		A	sg n
        	leppi=nud	d		A	pl n
.	.			Z	
Jüri	Jüri	0		H	sg g
    	Jüri	0		H	sg n
Halik	####				
annab	and	b		V	b
oma	oma	0		A	sg g
   	oma	0		D	
   	oma	0		P	sg g
   	oma	0		S	sg g
   	oma	0		V	o
   	oma	0		A	sg n
   	oma	0		A	sg p
   	oma	0		P	sg n
   	oma	0		P	sg p
   	oma	0		S	sg n
   	oma	0		S	sg p
Västriku	västrik	0		S	sg g
krund	####				
N 565	N565	0		Y	?
Josep	####				
Saare	Saare	0		H	sg g
     	saar	0		S	sg g
     	Saare	0		H	sg n
kätte	kätte	0		K	
     	käsi	tte		S	adt
viie	viis	0		N	sg g
Aaasta	####				
peale	pea	le		S	sg all
     	peale	0		D	
     	peale	0		K	
renti	rent	0		S	adt
     	rent	0		S	sg p
peale	pea	le		S	sg all
     	peale	0		D	
     	peale	0		K	
.	.			Z	
selle	see	0		P	sg g
     	sell	e		S	pl p
renti	rent	0		S	adt
     	rent	0		S	sg p
ette	ette	0		D	
    	ette	0		K	
    	esi	tte		S	adt
22	22	0		N	?
rubl	####				
50	50	0		N	?
kopikud	####				
Aaastas	####				
ja	ja	0		J	
saab	saa	b		V	b
Jüri	Jüri	0		H	sg g
    	Jüri	0		H	sg n
Allik	Allik	0		H	sg n
nüid	####				
kohe	kohe	0		A	sg n
    	kohe	0		D	
pooleteise	pool_teist	0		N	sg g
Aaasta	####				
rent	rent	0		S	sg n
kätte	kätte	0		K	
     	käsi	tte		S	adt
se	####				
on	ole	0		V	b
  	ole	0		V	vad
33	33	0		N	?
rubl	####				
75	75	0		N	?
kopikud	####				
,	,			Z	
ning	ning	0		J	
1901	1901	0		N	?
Aaastal	####				
sügise	sügis	0		S	sg g
Mihkli	Mihkel	0		H	sg g
      	Mihkli	0		H	sg g
      	mihkel	0		A	sg g
      	mihkel	0		S	sg g
      	Mihkli	0		H	sg n
päava	####				
ajal	aeg	l		S	sg ad
    	ajal	0		K	
11	11	0		N	?
rubl	####				
.	.			Z	
25	25	0		N	?
kopikud	####				
.	.			Z	
peale	pea	le		S	sg all
     	peale	0		D	
     	peale	0		K	
seda	see	da		P	sg p
1902	1902	0		N	?
-	-			Z	
1904	1904	0		N	?
Aaastatel	####				
maksab	maks	b		V	b
Josep	####				
Saar	saar	0		S	sg n
pool	pool	0		K	
    	pool	0		N	sg n
    	pool	0		S	sg n
renti	rent	0		S	adt
     	rent	0		S	sg p
kevade	kevad	0		S	sg g
      	kevade	0		S	sg g
      	kevade	0		S	sg n
Jüri	Jüri	0		H	sg g
    	Jüri	0		H	sg n
päeva	päev	0		S	adt
     	päev	0		S	sg g
     	päev	0		S	sg p
ajal	aeg	l		S	sg ad
    	ajal	0		K	
ja	ja	0		J	
pool	pool	0		K	
    	pool	0		N	sg n
    	pool	0		S	sg n
renti	rent	0		S	adt
     	rent	0		S	sg p
sugise	####				
Mihkli	Mihkel	0		H	sg g
      	Mihkli	0		H	sg g
      	mihkel	0		A	sg g
      	mihkel	0		S	sg g
      	Mihkli	0		H	sg n
päeva	päev	0		S	adt
     	päev	0		S	sg g
     	päev	0		S	sg p
ajal	aeg	l		S	sg ad
    	ajal	0		K	
,	,			Z	
ja	ja	0		J	
peab	pida	b		V	b
Jüri	Jüri	0		H	sg g
    	Jüri	0		H	sg n
Halik	####				
sellest	see	st		P	sg el
rentist	####				
isi	####				
krono	####				
ja	ja	0		J	
Vallamaksud	valla_maks	d		S	pl n
maksma	maks	ma		V	ma
.	.			Z	
mis	mis	0		P	pl n
   	mis	0		P	sg n
jagu	jagu	0		S	sg n
    	jagu	0		V	o
    	jagu	0		S	sg p
renti	rent	0		S	adt
     	rent	0		S	sg p
Josep	####				
Saar	saar	0		S	sg n
peab	pida	b		V	b
oma	oma	0		A	sg g
   	oma	0		D	
   	oma	0		P	sg g
   	oma	0		S	sg g
   	oma	0		V	o
   	oma	0		A	sg n
   	oma	0		A	sg p
   	oma	0		P	sg n
   	oma	0		P	sg p
   	oma	0		S	sg n
   	oma	0		S	sg p
kaes	kae	s		S	sg in
    	kae	s		V	s
hoidma	hoid	ma		V	ma
ning	ning	0		J	
seda	see	da		P	sg p
Vallavalitsuse	valla_valitsus	0		S	sg g
juure	juur	0		S	sg g
ära	ära	0		D	
   	ära	0		V	neg o
maksma	maks	ma		V	ma
kui	kui	0		D	
   	kui	0		J	
seda	see	da		P	sg p
nõutase	nõu_tase	0		S	sg n
;	;			Z	
See	see	0		P	sg n
maja	maja	0		S	sg g
    	maja	0		S	sg n
    	maja	0		S	sg p
mis	mis	0		P	pl n
   	mis	0		P	sg n
seal	seal	0		D	
    	siga	l		A	sg ad
    	siga	l		S	sg ad
krundi	krunt	0		S	sg g
      	krunti	0		V	o
peal	pea	l		S	sg ad
    	peal	0		D	
    	peal	0		K	
on	ole	0		V	b
  	ole	0		V	vad
.	.			Z	
üks	üks	0		N	sg n
   	üks	0		P	sg n
elumaja	elu_maja	0		S	sg g
       	elu_maja	0		S	sg n
       	elu_maja	0		S	sg p
ja	ja	0		J	
üks	üks	0		N	sg n
   	üks	0		P	sg n
laut	laut	0		S	sg n
jävad	####				
Josep	####				
Saare	Saare	0		H	sg g
     	saar	0		S	sg g
     	Saare	0		H	sg n
järele	järele	0		D	
      	järele	0		K	
vatamise	####				
alla	alla	0		D	
    	alla	0		K	
ja	ja	0		J	
ei	ei	0		D	
  	ei	0		V	neg
lähe	lähe	0		S	sg n
    	mine	0		V	neg o
selle	see	0		P	sg g
     	sell	e		S	pl p
sisse	siss	e		S	pl p
     	sisse	0		D	
     	sisse	0		K	
keski	kes	0	ki	P	pl n
     	kes	0	ki	P	sg n
elama	ela	ma		V	ma
.	.			Z	
sellepärast	selle_pärast	0		D	
ei	ei	0		D	
  	ei	0		V	neg
vastuta	vastuta	0		V	o
Josep	####				
Saar	saar	0		S	sg n
nende	see	de		P	pl g
     	tema	de		P	pl g
eest	eest	0		D	
    	eest	0		K	
    	esi	st		S	sg el
,	,			Z	
kui	kui	0		D	
   	kui	0		J	
torm	torm	0		A	sg n
    	torm	0		S	sg n
peaks	pea	ks		S	sg tr
     	pida	ks		V	ks
aga	aga	0		J	
kattused	####				
ära	ära	0		D	
   	ära	0		V	neg o
lõhkuma	lõhku	ma		V	ma
.	.			Z	
siis	siis	0		D	
    	siis	0		J	
peab	pida	b		V	b
Josep	####				
Saar	saar	0		S	sg n
seda	see	da		P	sg p
Jüri	Jüri	0		H	sg g
    	Jüri	0		H	sg n
Halikule	####				
teada	tead	a		V	da
andma	and	ma		V	ma
.	.			Z	
kes	kes	0		P	pl n
   	kes	0		P	sg n
siis	siis	0		D	
    	siis	0		J	
isi	####				
oma	oma	0		A	sg g
   	oma	0		D	
   	oma	0		P	sg g
   	oma	0		S	sg g
   	oma	0		V	o
   	oma	0		A	sg n
   	oma	0		A	sg p
   	oma	0		P	sg n
   	oma	0		P	sg p
   	oma	0		S	sg n
   	oma	0		S	sg p
maja	maja	0		S	sg g
    	maja	0		S	sg n
    	maja	0		S	sg p
parandab	paranda	b		V	b
.	.			Z	
Josep	####				
Saarel	Saare	l		H	sg ad
      	saar	l		S	sg ad
ei	ei	0		D	
  	ei	0		V	neg
ole	ole	0		V	o
ka	ka	0		D	
luba	luba	0		S	sg n
    	luba	0		V	o
    	luba	0		S	sg p
selle	see	0		P	sg g
     	sell	e		S	pl p
krundi	krunt	0		S	sg g
      	krunti	0		V	o
peale	pea	le		S	sg all
     	peale	0		D	
     	peale	0		K	
ei	ei	0		D	
  	ei	0		V	neg
mida	mis	da		P	pl p
    	mis	da		P	sg p
ehitada	ehita	da		V	da
,	,			Z	
ja	ja	0		J	
prugib	####				
põldu	põld	0		S	adt
     	põld	0		S	sg p
ja	ja	0		J	
ülepea	üle_pea	0		D	
seda	see	da		P	sg p
krundi	krunt	0		S	sg g
      	krunti	0		V	o
oma	oma	0		A	sg g
   	oma	0		D	
   	oma	0		P	sg g
   	oma	0		S	sg g
   	oma	0		V	o
   	oma	0		A	sg n
   	oma	0		A	sg p
   	oma	0		P	sg n
   	oma	0		P	sg p
   	oma	0		S	sg n
   	oma	0		S	sg p
tahtmise	tahtmine	0		S	sg g
järel	järel	0		D	
     	järel	0		K	
kas	kas	0		D	
heinamaast	heina_maa	st		S	sg el
ehk	ehk	0		D	
   	ehk	0		J	
karjamaast	karja_maa	st		S	sg el
;	;			Z	
Josep	####				
Saar	saar	0		S	sg n
saab	saa	b		V	b
nüid	####				
ühe	üks	0		N	sg g
   	üks	0		P	sg g
   	ühe	0		S	sg n
vakka	vakk	0		S	adt
     	vakk	0		S	sg p
     	vakka	0		D	
rukkiseemnekülvi	rukki_seemne_külv	0		S	adt
                	rukki_seemne_külv	0		S	sg g
                	rukki_seemne_külv	0		S	sg p
all	all	0		D	
   	all	0		K	
rukki	rukis	0		S	adt
     	rukis	0		S	sg g
põldu	põld	0		S	adt
     	põld	0		S	sg p
oma	oma	0		A	sg g
   	oma	0		D	
   	oma	0		P	sg g
   	oma	0		S	sg g
   	oma	0		V	o
   	oma	0		A	sg n
   	oma	0		A	sg p
   	oma	0		P	sg n
   	oma	0		P	sg p
   	oma	0		S	sg n
   	oma	0		S	sg p
kätte	kätte	0		K	
     	käsi	tte		S	adt
ja	ja	0		J	
peab	pida	b		V	b
kevade	kevad	0		S	sg g
      	kevade	0		S	sg g
      	kevade	0		S	sg n
1905	1905	0		N	?
Aaastal	####				
Jüri	Jüri	0		H	sg g
    	Jüri	0		H	sg n
Halikule	####				
jälle	jälle	0		D	
ühe	üks	0		N	sg g
   	üks	0		P	sg g
   	ühe	0		S	sg n
vakka	vakk	0		S	adt
     	vakk	0		S	sg p
     	vakka	0		D	
külvi	külv	0		S	adt
     	külv	0		S	sg g
     	külv	0		S	sg p
all	all	0		D	
   	all	0		K	
rukki	rukis	0		S	adt
     	rukis	0		S	sg g
põldu	põld	0		S	adt
     	põld	0		S	sg p
tagasi	tagasi	0		D	
      	tagasi	0		K	
andma	and	ma		V	ma
;	;			Z	
kummagil	####				
rentijal	renti=ja	l		S	sg ad
ja	ja	0		J	
rentnikkul	####				
ei	ei	0		D	
  	ei	0		V	neg
ole	ole	0		V	o
luba	luba	0		S	sg n
    	luba	0		V	o
    	luba	0		S	sg p
teise	teine	0		O	adt
     	teine	0		O	sg g
     	teine	0		P	adt
     	teine	0		P	sg g
käest	käest	0		K	
     	käsi	st		S	sg el
kahju	kahi	0		S	adt
     	kahi	0		S	sg g
     	kahi	0		S	sg p
     	kahju	0		S	sg g
     	kahju	0		S	sg n
     	kahju	0		S	sg p
tasumist	tasumine	t		S	sg p
nõuda	nõud	a		V	da
kas	kas	0		D	
krundi	krunt	0		S	sg g
      	krunti	0		V	o
paremaks	parem	ks		C	sg tr
tegemise	tegemine	0		S	sg g
ehk	ehk	0		D	
   	ehk	0		J	
alvemaks	####				
saamise	saamine	0		S	sg g
üle	üle	0		D	
   	üle	0		K	
.	.			Z	
kui	kui	0		D	
   	kui	0		J	
se	####				
peaks	pea	ks		S	sg tr
     	pida	ks		V	ks
olema	ole	ma		V	ma
et	et	0		J	
Jüri	Jüri	0		H	sg g
    	Jüri	0		H	sg n
Halik	####				
enne	enne	0		D	
    	enne	0		K	
    	enne	0		S	sg n
kokku	kokku	0		D	
     	kogu	0		S	adt
leppitud	####				
kontraktaega	####				
oma	oma	0		A	sg g
   	oma	0		D	
   	oma	0		P	sg g
   	oma	0		S	sg g
   	oma	0		V	o
   	oma	0		A	sg n
   	oma	0		A	sg p
   	oma	0		P	sg n
   	oma	0		P	sg p
   	oma	0		S	sg n
   	oma	0		S	sg p
krundi	krunt	0		S	sg g
      	krunti	0		V	o
oma	oma	0		A	sg g
   	oma	0		D	
   	oma	0		P	sg g
   	oma	0		S	sg g
   	oma	0		V	o
   	oma	0		A	sg n
   	oma	0		A	sg p
   	oma	0		P	sg n
   	oma	0		P	sg p
   	oma	0		S	sg n
   	oma	0		S	sg p
kätte	kätte	0		K	
     	käsi	tte		S	adt
tahab	taht	b		V	b
tagasi	tagasi	0		D	
      	tagasi	0		K	
saada	saa	da		V	da
     	saat	0		V	o
     	saa	da		V	ta
siis	siis	0		D	
    	siis	0		J	
maksab	maks	b		V	b
tema	tema	0		P	sg g
    	tema	0		P	sg n
iga	iga	0		P	sg g
   	iga	0		P	sg n
   	iga	0		P	sg p
   	iga	0		S	sg n
   	iga	0		S	sg p
Aaasta	####				
eest	eest	0		D	
    	eest	0		K	
    	esi	st		S	sg el
mis	mis	0		P	pl n
   	mis	0		P	sg n
Josep	####				
Saarel	Saare	l		H	sg ad
      	saar	l		S	sg ad
on	ole	0		V	b
  	ole	0		V	vad
pidamatta	####				
jäänud	jää	nud		V	nud
      	jäänu	d		S	pl n
      	jäänud	0		A	
      	jäänud	0		A	sg n
      	jäänud	d		A	pl n
sellele	see	le		P	sg all
5	5	0		N	?
rubla	rubla	0		S	sg g
     	rubla	0		S	sg n
     	rubla	0		S	sg p
kahju	kahi	0		S	adt
     	kahi	0		S	sg g
     	kahi	0		S	sg p
     	kahju	0		S	sg g
     	kahju	0		S	sg n
     	kahju	0		S	sg p
tasumist	tasumine	t		S	sg p
.	.			Z	
Peale	pea	le		S	sg all
     	peale	0		D	
     	peale	0		K	
selle	see	0		P	sg g
     	sell	e		S	pl p
lepisid	####				
Josep	####				
Saar	saar	0		S	sg n
ja	ja	0		J	
Tudulina	####				
valla	vald	0		S	sg g
     	valla	0		D	
inimene	inimene	0		S	sg n
kes	kes	0		P	pl n
   	kes	0		P	sg n
Västrikus	västrik	s		S	sg in
elab	ela	b		V	b
Reinhard	####				
Glasman	####				
kokku	kokku	0		D	
     	kogu	0		S	adt
et	et	0		J	
nemad	tema	d		P	pl n
Jüri	Jüri	0		H	sg g
    	Jüri	0		H	sg n
Haliku	####				
krundi	krunt	0		S	sg g
      	krunti	0		V	o
pooliti	pooli	ti		V	ti
       	pooliti	0		D	
pead	pea	d		S	pl n
    	pida	d		V	d
    	pea	d		S	sg p
ja	ja	0		J	
pooliti	pooli	ti		V	ti
       	pooliti	0		D	
ka	ka	0		D	
renti	rent	0		S	adt
     	rent	0		S	sg p
maksad	maks	d		S	pl n
      	maks	d		V	d
mille	mis	0		P	pl g
     	mis	0		P	sg g
vastu	vastu	0		D	
     	vastu	0		K	
Jüri	Jüri	0		H	sg g
    	Jüri	0		H	sg n
Halik	####				
oma	oma	0		A	sg g
   	oma	0		D	
   	oma	0		P	sg g
   	oma	0		S	sg g
   	oma	0		V	o
   	oma	0		A	sg n
   	oma	0		A	sg p
   	oma	0		P	sg n
   	oma	0		P	sg p
   	oma	0		S	sg n
   	oma	0		S	sg p
keeldu	keeld	0		S	adt
      	keeldu	0		V	o
      	keeld	0		S	sg p
ei	ei	0		D	
  	ei	0		V	neg
avaldanud	avalda	nud		V	nud
         	avalda=nu	d		S	pl n
         	avalda=nud	0		A	
         	avalda=nud	0		A	sg n
         	avalda=nud	d		A	pl n
.	.			Z	
Selle	see	0		P	sg g
     	sell	e		S	pl p
kauba	kaup	0		S	sg g
kinnitamiseks	kinnitamine	ks		S	sg tr
on	ole	0		V	b
  	ole	0		V	vad
kaubategijad	kauba_tegija	d		S	pl n
oma	oma	0		A	sg g
   	oma	0		D	
   	oma	0		P	sg g
   	oma	0		S	sg g
   	oma	0		V	o
   	oma	0		A	sg n
   	oma	0		A	sg p
   	oma	0		P	sg n
   	oma	0		P	sg p
   	oma	0		S	sg n
   	oma	0		S	sg p
nimed	nimi	d		S	pl n
oma	oma	0		A	sg g
   	oma	0		D	
   	oma	0		P	sg g
   	oma	0		S	sg g
   	oma	0		V	o
   	oma	0		A	sg n
   	oma	0		A	sg p
   	oma	0		P	sg n
   	oma	0		P	sg p
   	oma	0		S	sg n
   	oma	0		S	sg p
käega	käsi	ga		S	sg kom
allakirjutanud	alla_kirjutanu	d		S	pl n
              	alla_kirjutanud	0		A	
              	alla_kirjutanud	0		A	sg n
              	alla_kirjutanud	d		A	pl n
.	.			Z	
Jüri	Jüri	0		H	sg g
    	Jüri	0		H	sg n
Halik	####				
ei	ei	0		D	
  	ei	0		V	neg
moista	####				
kirjutada	kirjuta	da		V	da
tema	tema	0		P	sg g
    	tema	0		P	sg n
eest	eest	0		D	
    	eest	0		K	
    	esi	st		S	sg el
kirjutas	kirjuta	s		V	s
tema	tema	0		P	sg g
    	tema	0		P	sg n
poeg	poeg	0		S	sg n
Kusta	Kusta	0		H	sg g
     	Kusta	0		H	sg n
     	kuse	ta		V	da
     	kuse	ta		V	ta
Allik	Allik	0		H	sg n
(	(			Z	
allkiri	all_kiri	0		S	sg n
)	)			Z	
Josep	####				
Saar	saar	0		S	sg n
(	(			Z	
allkiri	all_kiri	0		S	sg n
)	)			Z	
Richard	Richard	0		H	sg n
Glasman	####				
(	(			Z	
allkiri	all_kiri	0		S	sg n
)	)			Z	
1900	1900	0		N	?
Aaastal	####				
Vebruari	####				
kuu	kuu	0		S	sg g
   	kuu	0		S	sg n
25	25	0		N	?
päeval	päev	l		S	sg ad
on	ole	0		V	b
  	ole	0		V	vad
se	####				
eesseisav	####				
suusana	suusk	na		S	sg es
lepping	####				
ja	ja	0		J	
kaup	kaup	0		S	sg n
Aavvinurme	####				
Vallakohtule	valla_kohus	le		S	sg all
Aavvinurme	####				
Valla	vald	0		S	sg g
     	valla	0		D	
majas	maja	s		S	sg in
kohtu	kohtu	0		V	o
     	kohus	0		S	sg g
protokoli	####				
üles	üles	0		D	
kirjutamiseks	kirjutamine	ks		S	sg tr
ja	ja	0		J	
kinnitamiseks	kinnitamine	ks		S	sg tr
ette	ette	0		D	
    	ette	0		K	
    	esi	tte		S	adt
kantud	kand	tud		V	tud
      	kantu	d		S	pl n
      	kantud	0		A	
      	kantud	0		A	sg n
      	kantud	d		A	pl n
Aavvinurme	####				
Valla	vald	0		S	sg g
     	valla	0		D	
inimeste	inimene	te		S	pl g
Poboli	####				
Jüri	Jüri	0		H	sg g
    	Jüri	0		H	sg n
Halik	####				
Madise	Madis	0		H	sg g
      	madis	0		S	sg g
poja	poeg	0		S	sg g
    	poja	0		S	sg g
    	poja	0		S	sg n
    	poja	0		S	sg p
ja	ja	0		J	
Josep	####				
Saare	Saare	0		H	sg g
     	saar	0		S	sg g
     	Saare	0		H	sg n
Mihkli	Mihkel	0		H	sg g
      	Mihkli	0		H	sg g
      	mihkel	0		A	sg g
      	mihkel	0		S	sg g
      	Mihkli	0		H	sg n
poja	poeg	0		S	sg g
    	poja	0		S	sg g
    	poja	0		S	sg n
    	poja	0		S	sg p
poolt	pool	t		N	sg p
     	pool	t		S	sg p
     	poolt	0		D	
     	poolt	0		K	
kes	kes	0		P	pl n
   	kes	0		P	sg n
molemad	####				
Västriku	västrik	0		S	sg g
külas	küla	s		S	sg in
elavad	ela	vad		V	vad
      	elav	d		A	pl n
      	elav	d		S	pl n
ja	ja	0		J	
on	ole	0		V	b
  	ole	0		V	vad
need	see	d		P	pl n
kaubategijad	kauba_tegija	d		S	pl n
Vallakohtule	valla_kohus	le		S	sg all
tuntud	tund	tud		V	tud
      	tuntu	d		S	pl n
      	tuntud	0		A	
      	tuntud	0		A	sg n
      	tuntud	d		A	pl n
ja	ja	0		J	
teatud	tea=tu	d		S	pl n
      	tead	tud		V	tud
      	teatud	0		A	
      	teatud	0		A	sg n
      	teatud	d		A	pl n
ning	ning	0		J	
nende	see	de		P	pl g
     	tema	de		P	pl g
kauba	kaup	0		S	sg g
kontrakt	####				
tänasel	tänane	l		A	sg ad
päeval	päev	l		S	sg ad
kohtu	kohtu	0		V	o
     	kohus	0		S	sg g
Aakt	####				
ramatuse	####				
N 3	N3	0		Y	?
all	all	0		D	
   	all	0		K	
ülesse	ülesse	0		D	
kirjutod	####				
ja	ja	0		J	
kohtu	kohtu	0		V	o
     	kohus	0		S	sg g
poolest	pool	st		N	sg el
       	pool	st		S	sg el
       	poolene	t		A	sg p
       	poolest	0		K	
kinnitud	kinnitu	d		V	d
saanud	saa	nud		V	nud
      	saa=nud	0		A	
      	saa=nud	0		A	sg n
      	saa=nud	d		A	pl n
      	saanu	d		S	pl n
ja	ja	0		J	
on	ole	0		V	b
  	ole	0		V	vad
need	see	d		P	pl n
kaubategijad	kauba_tegija	d		S	pl n
omad	oma	d		A	pl n
    	oma	d		P	pl n
    	oma	d		S	pl n
    	oma	d		V	d
nimed	nimi	d		S	pl n
oma	oma	0		A	sg g
   	oma	0		D	
   	oma	0		P	sg g
   	oma	0		S	sg g
   	oma	0		V	o
   	oma	0		A	sg n
   	oma	0		A	sg p
   	oma	0		P	sg n
   	oma	0		P	sg p
   	oma	0		S	sg n
   	oma	0		S	sg p
käega	käsi	ga		S	sg kom
alla	alla	0		D	
    	alla	0		K	
kirjutanud	kirjuta	nud		V	nud
          	kirjutanu	d		S	pl n
          	kirjutanud	0		A	
          	kirjutanud	0		A	sg n
          	kirjutanud	d		A	pl n
,	,			Z	
Jüri	Jüri	0		H	sg g
    	Jüri	0		H	sg n
Haliku	####				
eest	eest	0		D	
    	eest	0		K	
    	esi	st		S	sg el
kes	kes	0		P	pl n
   	kes	0		P	sg n
kirjutada	kirjuta	da		V	da
ei	ei	0		D	
  	ei	0		V	neg
moista	####				
tema	tema	0		P	sg g
    	tema	0		P	sg n
poeg	poeg	0		S	sg n
Kusta	Kusta	0		H	sg g
     	Kusta	0		H	sg n
     	kuse	ta		V	da
     	kuse	ta		V	ta
Halik	####				
M. Toming	####				
(	(			Z	
allkiri	all_kiri	0		S	sg n
)	)			Z	
Jaan	Jaan	0		H	sg n
    	jaan	0		S	sg n
    	jaan	0		Y	?
Laud	laud	0		S	sg n
    	laug	d		S	pl n
(	(			Z	
allkiri	all_kiri	0		S	sg n
)	)			Z	
Jaan	Jaan	0		H	sg n
    	jaan	0		S	sg n
    	jaan	0		Y	?
Pärn	pärn	0		S	sg n
(	(			Z	
allkiri	all_kiri	0		S	sg n
)	)			Z	
Kirjutaja	kirjutaja	0		S	sg g
         	kirjutaja	0		S	sg n
Schulbach	####				
(	(			Z	
allkiri	all_kiri	0		S	sg n
)	)			Z	
