Tulid	tule	id		V	sid
ette	ette	0		D	
    	ette	0		K	
    	esi	tte		S	adt
Jüri	Jüri	0		H	sg g
    	Jüri	0		H	sg n
Tep	####				
ja	ja	0		J	
Jaan	Jaan	0		H	sg n
    	jaan	0		S	sg n
    	jaan	0		Y	?
karjus	karju	s		V	s
      	karjus	0		S	sg n
ning	ning	0		J	
andsid	and	sid		V	sid
üles	üles	0		D	
et	et	0		J	
esimene	esimene	0		O	sg n
       	esimene	0		P	sg n
viimasele	viimane	le		A	sg all
ublõigationi	####				
mis	mis	0		P	pl n
   	mis	0		P	sg n
viimane	viimane	0		A	sg n
esimesele	esimene	le		O	sg all
         	esimene	le		P	sg all
annud	####				
250	250	0		N	?
rbl	rbl	0		Y	?
.	.			Z	
peale	pea	le		S	sg all
     	peale	0		D	
     	peale	0		K	
üles	üles	0		D	
ütleb	ütle	b		V	b
ning	ning	0		J	
peab	pida	b		V	b
karjus	karju	s		V	s
      	karjus	0		S	sg n
Tepile	####				
selle	see	0		P	sg g
     	sell	e		S	pl p
võla	võlg	0		S	sg g
kuue	kuub	0		S	sg g
    	kuus	0		N	sg g
kuu	kuu	0		S	sg g
   	kuu	0		S	sg n
jooksul	jooks	l		S	sg ad
       	jooksul	0		K	
ära	ära	0		D	
   	ära	0		V	neg o
maksma	maks	ma		V	ma
kõige	kõik	0		P	sg g
     	kõige	0		D	
hildam	####				
13.	13.	0		O	?
Märtsil	märts	l		S	sg ad
1894a	1894a	0		Y	?
.	.			Z	
Jüri	Jüri	0		H	sg g
    	Jüri	0		H	sg n
Tep	####				
allkiri	all_kiri	0		S	sg n
Jaan	Jaan	0		H	sg n
    	jaan	0		S	sg n
    	jaan	0		Y	?
karjas	kari	s		S	sg in
allkiri	all_kiri	0		S	sg n
et	et	0		J	
ülemal	ülem	l		C	sg ad
      	ülem	l		S	sg ad
nimetatatud	####				
isikud	isik	d		S	pl n
selle	see	0		P	sg g
     	sell	e		S	pl p
kohtule	kohus	le		S	sg all
tuntud	tund	tud		V	tud
      	tuntu	d		S	pl n
      	tuntud	0		A	
      	tuntud	0		A	sg n
      	tuntud	d		A	pl n
on	ole	0		V	b
  	ole	0		V	vad
saab	saa	b		V	b
sellega	see	ga		P	sg kom
tunnistatud	tunnista	tud		V	tud
           	tunnista=tu	d		S	pl n
           	tunnista=tud	0		A	
           	tunnista=tud	0		A	sg n
           	tunnista=tud	d		A	pl n
:	:			Z	
Eesistuja	ees_istuja	0		S	sg g
         	ees_istuja	0		S	sg n
Jaan	Jaan	0		H	sg n
    	jaan	0		S	sg n
    	jaan	0		Y	?
Lokku	lokk	0		S	adt
     	lokk	0		S	sg p
kirjut	kirju	t		A	sg p
Puusepp	puu_sepp	0		S	sg n
