Aastus	####				
ette	ette	0		D	
    	ette	0		K	
    	esi	tte		S	adt
Jaan	Jaan	0		H	sg n
    	jaan	0		S	sg n
    	jaan	0		Y	?
kohal	koht	l		S	sg ad
     	koha	l		S	sg ad
     	kohal	0		D	
     	kohal	0		K	
ja	ja	0		J	
kaebas	kaeba	s		V	s
et	et	0		J	
venne	####				
külast	küla	st		S	sg el
Saharka	####				
Mentunah	####				
on	ole	0		V	b
  	ole	0		V	vad
tema	tema	0		P	sg g
    	tema	0		P	sg n
hobbose	####				
