Aavvinurme	####				
Mets	mets	0		S	sg n
kogokona	####				
kohtus	kohtu	s		V	s
      	kohus	s		S	sg in
sel	see	l		P	sg ad
   	sel	0		Y	?
29	29	0		N	?
Juunil	juuni	l		S	sg ad
1874	1874	0		N	?
koos	koos	0		D	
    	koos	0		K	
    	koos	0		S	sg n
    	kubu	s		S	sg in
olid	ole	id		V	sid
.	.			Z	
pea	pea	0		D	
   	pea	0		S	sg g
   	pida	0		V	o
   	pea	0		S	sg n
kohtumees	kohtu_mees	0		S	sg n
Josep	####				
Kask	kask	0		S	sg n
teine	teine	0		O	sg n
     	teine	0		P	sg n
kohtumees	kohtu_mees	0		S	sg n
Juhan	Juhan	0		H	sg n
koppel	koppel	0		S	sg n
kolmas	kolmas	0		O	sg n
kohtumees	kohtu_mees	0		S	sg n
Jaan	Jaan	0		H	sg n
    	jaan	0		S	sg n
    	jaan	0		Y	?
Mänd	mänd	0		S	sg n
.	.			Z	
kui	kui	0		D	
   	kui	0		J	
kogokonna	####				
kohus	kohu	s		V	s
     	kohus	0		S	sg n
oli	ole	i		V	s
oma	oma	0		A	sg g
   	oma	0		D	
   	oma	0		P	sg g
   	oma	0		S	sg g
   	oma	0		V	o
   	oma	0		A	sg n
   	oma	0		A	sg p
   	oma	0		P	sg n
   	oma	0		P	sg p
   	oma	0		S	sg n
   	oma	0		S	sg p
moistuse	####				
polest	####				
sel	see	l		P	sg ad
   	sel	0		Y	?
7	7	0		N	?
Juunil	juuni	l		S	sg ad
No	no	0		I	
67	67	0		N	?
all	all	0		D	
   	all	0		K	
Mihkel	Mihkel	0		H	sg n
      	mihkel	0		A	sg n
      	mihkel	0		S	sg n
Väljale	väli	le		S	sg all
prottokoli	####				
keelnud	####				
,	,			Z	
ja	ja	0		J	
temale	tema	le		P	sg all
aga	aga	0		J	
üks	üks	0		N	sg n
   	üks	0		P	sg n
tunnistus	tunnistus	0		S	sg n
antud	an=tu	d		S	pl n
     	and	tud		V	tud
     	antud	0		A	
     	antud	0		A	sg n
     	antud	d		A	pl n
mis	mis	0		P	pl n
   	mis	0		P	sg n
tema	tema	0		P	sg g
    	tema	0		P	sg n
oma	oma	0		A	sg g
   	oma	0		D	
   	oma	0		P	sg g
   	oma	0		S	sg g
   	oma	0		V	o
   	oma	0		A	sg n
   	oma	0		A	sg p
   	oma	0		P	sg n
   	oma	0		P	sg p
   	oma	0		S	sg n
   	oma	0		S	sg p
tunnistuse	tunnistus	0		S	sg g
järel	järel	0		D	
     	järel	0		K	
on	ole	0		V	b
  	ole	0		V	vad
kihelkona	####				
kohtu	kohtu	0		V	o
     	kohus	0		S	sg g
venud	####				
ja	ja	0		J	
kohus	kohu	s		V	s
     	kohus	0		S	sg n
tema	tema	0		P	sg g
    	tema	0		P	sg n
kaebtuse	####				
vasto	####				
võtnud	võt	nud		V	nud
      	võt=nu	d		S	pl n
      	võt=nud	0		A	
      	võt=nud	0		A	sg n
      	võt=nud	d		A	pl n
et	et	0		J	
aga	aga	0		J	
Mihkel	Mihkel	0		H	sg n
      	mihkel	0		A	sg n
      	mihkel	0		S	sg n
Väli	väli	0		S	sg n
ei	ei	0		D	
  	ei	0		V	neg
ole	ole	0		V	o
selle	see	0		P	sg g
     	sell	e		S	pl p
üle	üle	0		D	
   	üle	0		K	
kohelkonna	####				
kohtu	kohtu	0		V	o
     	kohus	0		S	sg g
käest	käest	0		K	
     	käsi	st		S	sg el
tunnistust	tunnistus	t		S	sg p
palunud	palu	nud		V	nud
       	palu=nu	d		S	pl n
       	palu=nud	0		A	
       	palu=nud	0		A	sg n
       	palu=nud	d		A	pl n
et	et	0		J	
se	####				
moistus	####				
peab	pida	b		V	b
nõnda	nõnda	0		D	
kaua	kaua	0		D	
seisma	seis	ma		V	ma
jäma	####				
kui	kui	0		D	
   	kui	0		J	
suremb	####				
kohus	kohu	s		V	s
     	kohus	0		S	sg n
on	ole	0		V	b
  	ole	0		V	vad
seda	see	da		P	sg p
asja	asi	0		S	adt
    	asi	0		S	sg g
    	asi	0		S	sg p
järele	järele	0		D	
      	järele	0		K	
kulanud	####				
siis	siis	0		D	
    	siis	0		J	
saab	saa	b		V	b
Mihkel	Mihkel	0		H	sg n
      	mihkel	0		A	sg n
      	mihkel	0		S	sg n
Väljale	väli	le		S	sg all
se	####				
käsk	käsk	0		S	sg n
antud	an=tu	d		S	pl n
     	and	tud		V	tud
     	antud	0		A	
     	antud	0		A	sg n
     	antud	d		A	pl n
et	et	0		J	
tema	tema	0		P	sg g
    	tema	0		P	sg n
peab	pida	b		V	b
Kihelkona	####				
kohtu	kohtu	0		V	o
     	kohus	0		S	sg g
minema	mine	ma		V	ma
ja	ja	0		J	
sealt	sealt	0		D	
     	siga	lt		A	sg abl
     	siga	lt		S	sg abl
üks	üks	0		N	sg n
   	üks	0		P	sg n
tunistus	####				
paluma	palu	ma		V	ma
mis	mis	0		P	pl n
   	mis	0		P	sg n
tema	tema	0		P	sg g
    	tema	0		P	sg n
peab	pida	b		V	b
sel	see	l		P	sg ad
   	sel	0		Y	?
5tal	####				
juulil	juuli	l		S	sg ad
seie	####				
kogokona	####				
kohtole	####				
ette	ette	0		D	
    	ette	0		K	
    	esi	tte		S	adt
näitama	näita	ma		V	ma
vastasel	vastane	l		A	sg ad
        	vastane	l		S	sg ad
korral	kord	l		S	sg ad
      	korral	0		D	
      	korral	0		K	
saab	saa	b		V	b
tema	tema	0		P	sg g
    	tema	0		P	sg n
käsu	käsk	0		S	sg g
vasto	####				
panemise	panemine	0		S	sg g
eest	eest	0		D	
    	eest	0		K	
    	esi	st		S	sg el
trahvitud	trahvi	tud		V	tud
         	trahvi=tu	d		S	pl n
         	trahvi=tud	0		A	
         	trahvi=tud	0		A	sg n
         	trahvi=tud	d		A	pl n
ja	ja	0		J	
kogokona	####				
kohtu	kohtu	0		V	o
     	kohus	0		S	sg g
moistus	####				
astub	astu	b		V	b
oma	oma	0		A	sg g
   	oma	0		D	
   	oma	0		P	sg g
   	oma	0		S	sg g
   	oma	0		V	o
   	oma	0		A	sg n
   	oma	0		A	sg p
   	oma	0		P	sg n
   	oma	0		P	sg p
   	oma	0		S	sg n
   	oma	0		S	sg p
voimuse	####				
sisse	siss	e		S	pl p
     	sisse	0		D	
     	sisse	0		K	
.	.			Z	
Josep	####				
Kask	kask	0		S	sg n
XXX	XXX	0		O	?
   	XXX	0		Y	?
Juhan	Juhan	0		H	sg n
koppel	koppel	0		S	sg n
XXX	XXX	0		O	?
   	XXX	0		Y	?
Jaan	Jaan	0		H	sg n
    	jaan	0		S	sg n
    	jaan	0		Y	?
Mänd	mänd	0		S	sg n
XXX	XXX	0		O	?
   	XXX	0		Y	?
