Sel	see	l		P	sg ad
   	sel	0		Y	?
tänasel	tänane	l		A	sg ad
päval	####				
astus	astu	s		V	s
ette	ette	0		D	
    	ette	0		K	
    	esi	tte		S	adt
Lohoso	####				
Veneküla	vene_küla	0		S	sg g
        	vene_küla	0		S	sg n
        	vene_küla	0		S	sg p
inimene	inimene	0		S	sg n
Jehorka	####				
Saharov	####				
Tomonov	####				
ja	ja	0		J	
võttis	võt	is		V	s
Tartu	Tartu	0		H	adt
     	Tartu	0		H	sg g
     	Tartu	0		H	sg n
     	tartu	0		G	
lina	lina	0		S	sg g
    	lina	0		S	sg n
    	lina	0		S	sg p
prii	prii	0		A	sg g
    	prii	0		A	sg n
inimese	inimene	0		S	sg g
Aana	####				
rabina	rabi	na		S	sg es
      	rabin	0		S	sg g
käest	käest	0		K	
     	käsi	st		S	sg el
veikese	####				
Lapse	laps	0		S	sg g
ommale	####				
kasvantikkus	####				
ja	ja	0		J	
lubbab	####				
selle	see	0		P	sg g
     	sell	e		S	pl p
Lapse	laps	0		S	sg g
eest	eest	0		D	
    	eest	0		K	
    	esi	st		S	sg el
ni	####				
kui	kui	0		D	
   	kui	0		J	
oma	oma	0		A	sg g
   	oma	0		D	
   	oma	0		P	sg g
   	oma	0		S	sg g
   	oma	0		V	o
   	oma	0		A	sg n
   	oma	0		A	sg p
   	oma	0		P	sg n
   	oma	0		P	sg p
   	oma	0		S	sg n
   	oma	0		S	sg p
lihalikku	lihalik	0		A	adt
         	lihalik	0		A	sg p
Lapse	laps	0		S	sg g
eest	eest	0		D	
    	eest	0		K	
    	esi	st		S	sg el
hoolt	hoog	lt		S	sg abl
     	hool	t		S	sg p
ja	ja	0		J	
muret	mure	t		S	sg p
kanda	kand	0		S	adt
     	kand	a		V	da
     	kand	0		S	sg p
,	,			Z	
se	####				
Laps	laps	0		S	sg n
on	ole	0		V	b
  	ole	0		V	vad
Aasta	aasta	0		S	sg g
     	aasta	0		S	sg n
ja	ja	0		J	
kaks	kaks	0		N	sg n
kuud	kuu	d		S	pl n
    	kuu	d		S	sg p
vana	vana	0		A	sg g
    	vana	0		A	sg n
    	vana	0		A	sg p
    	vana	0		S	sg g
    	vana	0		S	sg n
    	vana	0		S	sg p
ja	ja	0		J	
tema	tema	0		P	sg g
    	tema	0		P	sg n
nimmi	####				
Alexei	####				
ja	ja	0		J	
sai	saa	i		V	s
   	sai	0		S	sg n
se	####				
asi	asi	0		S	sg n
   	asi	0		V	o
Kohtu	kohtu	0		V	o
     	kohus	0		S	sg g
polest	####				
kinnitud	kinnitu	d		V	d
.	.			Z	
Seda	see	da		P	sg p
tunnistab	tunnista	b		V	b
kohtomees	####				
Sergei	Sergei	0		H	sg g
      	Sergei	0		H	sg n
Saveliev	####				
