Jefim	####				
Schuravov	####				
on	ole	0		V	b
  	ole	0		V	vad
rechnungi	####				
järele	järele	0		D	
      	järele	0		K	
Tatjana	Tatjana	0		H	sg g
       	Tatjana	0		H	sg n
Sadovnikale	####				
3.	3.	0		O	?
rubla	rubla	0		S	sg g
     	rubla	0		S	sg n
     	rubla	0		S	sg p
palga	palk	0		S	sg g
raha	raha	0		S	sg g
    	raha	0		S	sg n
    	raha	0		S	sg p
võlgu	võlg	u		S	pl p
     	võlgu	0		D	
,	,			Z	
mis	mis	0		P	pl n
   	mis	0		P	sg n
peale	pea	le		S	sg all
     	peale	0		D	
     	peale	0		K	
kohus	kohu	s		V	s
     	kohus	0		S	sg n
Tatjana	Tatjana	0		H	sg g
       	Tatjana	0		H	sg n
Sadovnikova	####				
nõudmise	nõudmine	0		S	sg g
peale	pea	le		S	sg all
     	peale	0		D	
     	peale	0		K	
moistis	####				
:	:			Z	
et	et	0		J	
Jefim	####				
Schuravov	####				
peab	pida	b		V	b
8.	8.	0		O	?
paevaaea	####				
sees	sees	0		D	
    	sees	0		K	
3.	3.	0		O	?
rubla	rubla	0		S	sg g
     	rubla	0		S	sg n
     	rubla	0		S	sg p
äramaksma	####				
,	,			Z	
peale	pea	le		S	sg all
     	peale	0		D	
     	peale	0		K	
selle	see	0		P	sg g
     	sell	e		S	pl p
peab	pida	b		V	b
tema	tema	0		P	sg g
    	tema	0		P	sg n
3.	3.	0		O	?
rublaga	rubla	ga		S	sg kom
trahvitud	trahvi	tud		V	tud
         	trahvi=tu	d		S	pl n
         	trahvi=tud	0		A	
         	trahvi=tud	0		A	sg n
         	trahvi=tud	d		A	pl n
vaesteladiko	####				
heaks	hea	ks		A	sg tr
     	hea	ks		S	sg tr
     	heaks	0		D	
     	heaks	0		K	
et	et	0		J	
tema	tema	0		P	sg g
    	tema	0		P	sg n
ilmapasta	ilma_pasta	0		S	sg g
         	ilma_pasta	0		S	sg n
inimest	inimene	t		S	sg p
maale	maa	le		S	sg all
     	maal	e		S	pl p
tõõle	####				
ära	ära	0		D	
   	ära	0		V	neg o
on	ole	0		V	b
  	ole	0		V	vad
viinud	vii	nud		V	nud
      	vii=nu	d		S	pl n
      	vii=nud	0		A	
      	vii=nud	0		A	sg n
      	vii=nud	d		A	pl n
/	/			Z	
:	:			Z	
Otsus	otsus	0		S	sg n
kulutud	kulu	tud		V	tud
       	kulu=tu	d		S	pl n
       	kulu=tud	0		A	
       	kulu=tud	0		A	sg n
       	kulu=tud	d		A	pl n
10.	10.	0		O	?
Januaril	####				
.	.			Z	
c	c	0		Y	?
.	.			Z	
Tallorahva	####				
seaduse	seadus	0		S	sg g
juhatusel	juhatus	l		S	sg ad
,	,			Z	
ja	ja	0		J	
rahul	rahu	l		S	sg ad
     	rahul	0		D	
oldut	ol=du	t		S	sg p
.	.			Z	
:/	:			Z	
A	A	0		Y	?
.	.			Z	
_	_			Z	
Krim	####				
[	[			Z	
allkiri	all_kiri	0		S	sg n
]	]			Z	
,	,			Z	
pea	pea	0		D	
   	pea	0		S	sg g
   	pida	0		V	o
   	pea	0		S	sg n
xxx	####				
Maddis	####				
erm	####				
,	,			Z	
kohtumees	kohtu_mees	0		S	sg n
A	A	0		Y	?
.	.			Z	
_	_			Z	
Pärn	pärn	0		S	sg n
[	[			Z	
allkiri	all_kiri	0		S	sg n
]	]			Z	
,	,			Z	
""""	""""			Z	
