Mari	Mari	0		H	sg g
    	mari	0		S	sg g
    	mari	0		S	sg n
    	Mari	0		H	sg n
    	mari	0		S	sg p
Salub	####				
Joosep	Joosep	0		H	sg n
Mägi	Mägi	0		H	sg g
    	mägi	0		S	sg n
    	Mägi	0		H	sg n
juures	juur	s		S	sg in
      	juures	0		D	
      	juures	0		K	
seistis	####				
kaebas	kaeba	s		V	s
,	,			Z	
et	et	0		J	
H. Kleinschmidti	####				
,	,			Z	
Mihkel	Mihkel	0		H	sg n
      	mihkel	0		A	sg n
      	mihkel	0		S	sg n
Nepo	####				
ja	ja	0		J	
Jaan	Jaan	0		H	sg n
    	jaan	0		S	sg n
    	jaan	0		Y	?
Kiisla	####				
kari	kari	0		S	sg g
    	kari	0		S	sg n
    	kari	0		S	sg p
tema	tema	0		P	sg g
    	tema	0		P	sg n
kesvad	kesv	d		S	pl n
ära	ära	0		D	
   	ära	0		V	neg o
söötnud	sööt	nud		V	nud
       	sööt=nu	d		S	pl n
       	sööt=nud	0		A	
       	sööt=nud	0		A	sg n
       	sööt=nud	d		A	pl n
ning	ning	0		J	
nõuab	nõud	b		V	b
4	4	0		N	?
vakka	vakk	0		S	adt
     	vakk	0		S	sg p
     	vakka	0		D	
kesvi	kesv	i		S	pl p
ehk	ehk	0		D	
   	ehk	0		J	
12	12	0		N	?
rbl	rbl	0		Y	?
.	.			Z	
H. Kleinschmidti	####				
karjus	karju	s		V	s
      	karjus	0		S	sg n
,	,			Z	
Mihkel	Mihkel	0		H	sg n
      	mihkel	0		A	sg n
      	mihkel	0		S	sg n
Nepo	####				
ja	ja	0		J	
Jaan	Jaan	0		H	sg n
    	jaan	0		S	sg n
    	jaan	0		Y	?
Kiisla	####				
ei	ei	0		D	
  	ei	0		V	neg
või	või	0		S	sg g
   	või	0		V	o
   	või	0		D	
   	või	0		J	
   	või	0		S	sg n
salata	salga	ta		V	da
      	sala	ta		S	sg ab
      	salga	ta		V	ta
.	.			Z	
Vöörmünder	vöörmünder	0		S	sg n
Jaan	Jaan	0		H	sg n
    	jaan	0		S	sg n
    	jaan	0		Y	?
Hansing	####				
on	ole	0		V	b
  	ole	0		V	vad
kahju	kahi	0		S	adt
     	kahi	0		S	sg g
     	kahi	0		S	sg p
     	kahju	0		S	sg g
     	kahju	0		S	sg n
     	kahju	0		S	sg p
ülekaenud	üle_kae=nu	d		S	pl n
         	üle_kae=nud	0		A	
         	üle_kae=nud	0		A	sg n
         	üle_kae=nud	d		A	pl n
ja	ja	0		J	
arvab	arva	b		V	b
kahju	kahi	0		S	adt
     	kahi	0		S	sg g
     	kahi	0		S	sg p
     	kahju	0		S	sg g
     	kahju	0		S	sg n
     	kahju	0		S	sg p
4	4	0		N	?
1	1	0		N	?
/	/			Z	
2	2	0		N	?
rbl	rbl	0		Y	?
.	.			Z	
suure	suur	0		A	sg g
olevat	ole	vat		V	vat
      	olev	t		A	sg p
      	olev	t		S	sg p
.	.			Z	
Mõiste	mõiste	0		S	sg g
      	mõiste	0		S	sg n
:	:			Z	
H. Kleinschmidt	####				
,	,			Z	
Mihkel	Mihkel	0		H	sg n
      	mihkel	0		A	sg n
      	mihkel	0		S	sg n
Nepo	####				
ja	ja	0		J	
Jaan	Jaan	0		H	sg n
    	jaan	0		S	sg n
    	jaan	0		Y	?
Kiisla	####				
peavad	pida	vad		V	vad
oma	oma	0		A	sg g
   	oma	0		D	
   	oma	0		P	sg g
   	oma	0		S	sg g
   	oma	0		V	o
   	oma	0		A	sg n
   	oma	0		A	sg p
   	oma	0		P	sg n
   	oma	0		P	sg p
   	oma	0		S	sg n
   	oma	0		S	sg p
karjuste	karjus	te		S	pl g
eest	eest	0		D	
    	eest	0		K	
    	esi	st		S	sg el
iga	iga	0		P	sg g
   	iga	0		P	sg n
   	iga	0		P	sg p
   	iga	0		S	sg n
   	iga	0		S	sg p
üks	üks	0		N	sg n
   	üks	0		P	sg n
1	1	0		N	?
rbl	rbl	0		Y	?
.	.			Z	
50	50	0		N	?
kop	kop	0		Y	?
.	.			Z	
välja	välja	0		D	
     	välja	0		V	o
     	väli	0		S	adt
     	väli	0		S	sg g
     	väli	0		S	sg p
maksma	maks	ma		V	ma
8	8	0		N	?
peavad	pida	vad		V	vad
sees	sees	0		D	
    	sees	0		K	
Mari	Mari	0		H	sg g
    	mari	0		S	sg g
    	mari	0		S	sg n
    	Mari	0		H	sg n
    	mari	0		S	sg p
Salopi	####				
hääks	####				
.	.			Z	
Mõiste	mõiste	0		S	sg g
      	mõiste	0		S	sg n
sai	saa	i		V	s
   	sai	0		S	sg n
kohtukäijatele	kohtu_käija	tele		S	pl all
T	T	0		Y	?
.	.			Z	
S	S	0		Y	?
.	.			Z	
R	R	0		Y	?
järel	järel	0		D	
     	järel	0		K	
a.	a	0		Y	?
1860	1860	0		N	?
§	§	0		Y	?
772	772	0		N	?
-	-			Z	
774	774	0		N	?
kuulutud	kuulu	tud		V	tud
        	kuulu=tu	d		S	pl n
        	kuulu=tud	0		A	
        	kuulu=tud	0		A	sg n
        	kuulu=tud	d		A	pl n
.	.			Z	
peakohtumees	pea_kohtu_mees	0		S	sg n
:	:			Z	
Peeter	Peeter	0		H	sg n
Kripsoon	####				
XXX	XXX	0		O	?
   	XXX	0		Y	?
kohtumees	kohtu_mees	0		S	sg n
:	:			Z	
P. Pedosoon	####				
XXX	XXX	0		O	?
   	XXX	0		Y	?
kohtumees	kohtu_mees	0		S	sg n
:	:			Z	
Jaan	Jaan	0		H	sg n
    	jaan	0		S	sg n
    	jaan	0		Y	?
Ottan	####				
XXX	XXX	0		O	?
   	XXX	0		Y	?
koha	koht	0		S	sg g
    	koha	0		S	sg g
    	koha	0		V	o
    	koha	0		S	sg n
    	koha	0		S	sg p
Piir	piir	0		S	sg n
allkiri	all_kiri	0		S	sg n
Kusta	Kusta	0		H	sg g
     	Kusta	0		H	sg n
     	kuse	ta		V	da
     	kuse	ta		V	ta
Saarva	####				
allkiri	all_kiri	0		S	sg n
kirjutaja	kirjutaja	0		S	sg g
         	kirjutaja	0		S	sg n
:	:			Z	
Chr	Chr	0		Y	?
Kapp	kapp	0		S	sg n
allkiri	all_kiri	0		S	sg n
