Protokoll	protokoll	0		S	sg n
.	.			Z	
XXI	XXI	0		O	?
   	XXI	0		Y	?
Aavvinurme	####				
Vallakohtus	valla_kohus	s		S	sg in
sel	see	l		P	sg ad
   	sel	0		Y	?
.	.			Z	
25	25	0		N	?
Aaprilil	####				
1879.	1879.	0		O	?
koos	koos	0		D	
    	koos	0		K	
    	koos	0		S	sg n
    	kubu	s		S	sg in
olid	ole	id		V	sid
kohtueesistuja	kohtu_ees_istuja	0		S	sg g
              	kohtu_ees_istuja	0		S	sg n
Mihkel	Mihkel	0		H	sg n
      	mihkel	0		A	sg n
      	mihkel	0		S	sg n
Pihlak	####				
kohtumees	kohtu_mees	0		S	sg n
Aandres	####				
kalaus	####				
kohtumees	kohtu_mees	0		S	sg n
Jaan	Jaan	0		H	sg n
    	jaan	0		S	sg n
    	jaan	0		Y	?
Pärn	pärn	0		S	sg n
Aastus	####				
ette	ette	0		D	
    	ette	0		K	
    	esi	tte		S	adt
Liisa	Liisa	0		H	sg g
     	Liisa	0		H	sg n
Tomi	Tom	0		H	adt
    	Tom	0		H	sg g
    	Tom	0		H	sg p
Josepi	####				
naine	naine	0		S	sg n
kes	kes	0		P	pl n
   	kes	0		P	sg n
Aavvinurme	####				
Metsvalla	mets_vald	0		S	sg g
inimene	inimene	0		S	sg n
ja	ja	0		J	
palus	palu	s		S	sg in
     	palu	s		V	s
Vallakohut	valla_kohus	t		S	sg p
seda	see	da		P	sg p
aktiramatuse	####				
üles	üles	0		D	
kirjutada	kirjuta	da		V	da
et	et	0		J	
tema	tema	0		P	sg g
    	tema	0		P	sg n
oma	oma	0		A	sg g
   	oma	0		D	
   	oma	0		P	sg g
   	oma	0		S	sg g
   	oma	0		V	o
   	oma	0		A	sg n
   	oma	0		A	sg p
   	oma	0		P	sg n
   	oma	0		P	sg p
   	oma	0		S	sg n
   	oma	0		S	sg p
krundi	krunt	0		S	sg g
      	krunti	0		V	o
külest	####				
keda	kes	da		P	pl p
    	kes	da		P	sg p
tema	tema	0		P	sg g
    	tema	0		P	sg n
oma	oma	0		A	sg g
   	oma	0		D	
   	oma	0		P	sg g
   	oma	0		S	sg g
   	oma	0		V	o
   	oma	0		A	sg n
   	oma	0		A	sg p
   	oma	0		P	sg n
   	oma	0		P	sg p
   	oma	0		S	sg n
   	oma	0		S	sg p
ära	ära	0		D	
   	ära	0		V	neg o
surnud	surnu	d		S	pl n
      	surnud	0		A	
      	surnud	0		A	sg n
      	surnud	d		A	pl n
      	sure	nud		V	nud
isast	isa	st		S	sg el
     	isane	t		A	sg p
     	isane	t		S	sg p
Madis	Madis	0		H	sg n
     	madis	0		S	sg n
Kadakalt	kadakas	lt		S	sg abl
pärinud	päri	nud		V	nud
       	päri=nu	d		S	pl n
       	päri=nud	0		A	
       	päri=nud	0		A	sg n
       	päri=nud	d		A	pl n
ja	ja	0		J	
mis	mis	0		P	pl n
   	mis	0		P	sg n
Ulviküla	####				
talumaade	talu_maa	de		S	pl g
piirites	####				
seisab	seis	b		V	b
N 431	N431	0		Y	?
üks	üks	0		N	sg n
   	üks	0		P	sg n
maja	maja	0		S	sg g
    	maja	0		S	sg n
    	maja	0		S	sg p
asse	ass	e		S	pl p
oma	oma	0		A	sg g
   	oma	0		D	
   	oma	0		P	sg g
   	oma	0		S	sg g
   	oma	0		V	o
   	oma	0		A	sg n
   	oma	0		A	sg p
   	oma	0		P	sg n
   	oma	0		P	sg p
   	oma	0		S	sg n
   	oma	0		S	sg p
ärasurnud	ära_surnu	d		S	pl n
         	ära_surnud	0		A	
         	ära_surnud	0		A	sg n
         	ära_surnud	d		A	pl n
venna	vend	0		S	sg g
Juhan	Juhan	0		H	sg n
Kadaka	kadakas	0		S	sg g
tüttrele	####				
Liisa	Liisa	0		H	sg g
     	Liisa	0		H	sg n
Kadakale	kadakas	le		S	sg all
kes	kes	0		P	pl n
   	kes	0		P	sg n
10	10	0		N	?
Aaastad	####				
vana	vana	0		A	sg g
    	vana	0		A	sg n
    	vana	0		A	sg p
    	vana	0		S	sg g
    	vana	0		S	sg n
    	vana	0		S	sg p
anda	and	a		V	da
lubab	luba	b		V	b
,	,			Z	
kuhu	kuhu	0		D	
juure	juur	0		S	sg g
ka	ka	0		D	
tema	tema	0		P	sg g
    	tema	0		P	sg n
veel	veel	0		D	
    	vesi	l		S	sg ad
,	,			Z	
maja	maja	0		S	sg g
    	maja	0		S	sg n
    	maja	0		S	sg p
juure	juur	0		S	sg g
,	,			Z	
üks	üks	0		N	sg n
   	üks	0		P	sg n
veike	####				
ajama	aja	ma		V	ma
plats	plats	0		S	sg n
     	plats	0		I	
annab	and	b		V	b
igaveseks	igavene	ks		A	sg tr
         	igaveseks	0		D	
prukimiseks	####				
,	,			Z	
mis	mis	0		P	pl n
   	mis	0		P	sg n
eest	eest	0		D	
    	eest	0		K	
    	esi	st		S	sg el
tema	tema	0		P	sg g
    	tema	0		P	sg n
siis	siis	0		D	
    	siis	0		J	
jälle	jälle	0		D	
Liisa	Liisa	0		H	sg g
     	Liisa	0		H	sg n
Kadakale	kadakas	le		S	sg all
seda	see	da		P	sg p
pärantuse	####				
jagu	jagu	0		S	sg n
    	jagu	0		V	o
    	jagu	0		S	sg p
mis	mis	0		P	pl n
   	mis	0		P	sg n
sellel	see	l		P	sg ad
ärasurnud	ära_surnu	d		S	pl n
         	ära_surnud	0		A	
         	ära_surnud	0		A	sg n
         	ära_surnud	d		A	pl n
Maddis	####				
Kadaka	kadakas	0		S	sg g
pärandusest	pärandus	st		S	sg el
saada	saa	da		V	da
     	saat	0		V	o
     	saa	da		V	ta
15	15	0		N	?
rubl	####				
32	32	0		N	?
kop	kop	0		Y	?
.	.			Z	
ei	ei	0		D	
  	ei	0		V	neg
prugi	####				
maksa	maks	0		S	adt
     	maks	0		S	sg g
     	maks	0		V	o
     	maks	0		S	sg p
;	;			Z	
ja	ja	0		J	
palub	palu	b		V	b
tema	tema	0		P	sg g
    	tema	0		P	sg n
Vallakohut	valla_kohus	t		S	sg p
nende	see	de		P	pl g
     	tema	de		P	pl g
leppitust	####				
kinnitada	kinnita	da		V	da
.	.			Z	
,	,			Z	
Liisa	Liisa	0		H	sg g
     	Liisa	0		H	sg n
Tomi	Tom	0		H	adt
    	Tom	0		H	sg g
    	Tom	0		H	sg p
ei	ei	0		D	
  	ei	0		V	neg
moista	####				
kirjutada	kirjuta	da		V	da
Joosep	Joosep	0		H	sg n
Tooming	Tooming	0		H	sg n
(	(			Z	
allkiri	all_kiri	0		S	sg n
)	)			Z	
Mari	Mari	0		H	sg g
    	mari	0		S	sg g
    	mari	0		S	sg n
    	Mari	0		H	sg n
    	mari	0		S	sg p
Kadak	####				
Liisa	Liisa	0		H	sg g
     	Liisa	0		H	sg n
Kadaka	kadakas	0		S	sg g
ema	ema	0		S	sg g
   	ema	0		S	sg n
   	ema	0		S	sg p
räkis	####				
et	et	0		J	
se	####				
tõsi	tõsi	0		S	pl p
    	tõsi	0		S	sg n
et	et	0		J	
tema	tema	0		P	sg g
    	tema	0		P	sg n
on	ole	0		V	b
  	ole	0		V	vad
Liisa	Liisa	0		H	sg g
     	Liisa	0		H	sg n
Tomikuga	####				
nendaviisi	####				
kokkuleppinud	kokku_leppi=nu	d		S	pl n
             	kokku_leppi=nud	0		A	
             	kokku_leppi=nud	0		A	sg n
             	kokku_leppi=nud	d		A	pl n
et	et	0		J	
se	####				
oma	oma	0		A	sg g
   	oma	0		D	
   	oma	0		P	sg g
   	oma	0		S	sg g
   	oma	0		V	o
   	oma	0		A	sg n
   	oma	0		A	sg p
   	oma	0		P	sg n
   	oma	0		P	sg p
   	oma	0		S	sg n
   	oma	0		S	sg p
krundi	krunt	0		S	sg g
      	krunti	0		V	o
küllest	####				
temale	tema	le		P	sg all
ja	ja	0		J	
tema	tema	0		P	sg g
    	tema	0		P	sg n
tüttre	####				
Liisale	Liisa	le		H	sg all
üks	üks	0		N	sg n
   	üks	0		P	sg n
maja	maja	0		S	sg g
    	maja	0		S	sg n
    	maja	0		S	sg p
plats	plats	0		S	sg n
     	plats	0		I	
ning	ning	0		J	
nattukene	####				
ajamaad	aja_maa	d		S	pl n
       	aja_maa	d		S	sg p
annab	and	b		V	b
igavese	igavene	0		A	sg g
aja	aeg	0		S	sg g
   	aja	0		V	o
peale	pea	le		S	sg all
     	peale	0		D	
     	peale	0		K	
mis	mis	0		P	pl n
   	mis	0		P	sg n
ette	ette	0		D	
    	ette	0		K	
    	esi	tte		S	adt
tema	tema	0		P	sg g
    	tema	0		P	sg n
oma	oma	0		A	sg g
   	oma	0		D	
   	oma	0		P	sg g
   	oma	0		S	sg g
   	oma	0		V	o
   	oma	0		A	sg n
   	oma	0		A	sg p
   	oma	0		P	sg n
   	oma	0		P	sg p
   	oma	0		S	sg n
   	oma	0		S	sg p
tüttre	####				
pärantuse	####				
jagu	jagu	0		S	sg n
    	jagu	0		V	o
    	jagu	0		S	sg p
mis	mis	0		P	pl n
   	mis	0		P	sg n
selle	see	0		P	sg g
     	sell	e		S	pl p
oma	oma	0		A	sg g
   	oma	0		D	
   	oma	0		P	sg g
   	oma	0		S	sg g
   	oma	0		V	o
   	oma	0		A	sg n
   	oma	0		A	sg p
   	oma	0		P	sg n
   	oma	0		P	sg p
   	oma	0		S	sg n
   	oma	0		S	sg p
ärasurnud	ära_surnu	d		S	pl n
         	ära_surnud	0		A	
         	ära_surnud	0		A	sg n
         	ära_surnud	d		A	pl n
Äia	äi	0		S	adt
   	äi	0		S	sg g
   	äi	0		S	sg p
Maddis	####				
Kadaka	kadakas	0		S	sg g
varandusest	varandus	st		S	sg el
saada	saa	da		V	da
     	saat	0		V	o
     	saa	da		V	ta
15	15	0		N	?
rubl	####				
32	32	0		N	?
kop	kop	0		Y	?
Liisa	Liisa	0		H	sg g
     	Liisa	0		H	sg n
Tomikule	####				
jättab	####				
ja	ja	0		J	
palub	palu	b		V	b
tema	tema	0		P	sg g
    	tema	0		P	sg n
ka	ka	0		D	
nende	see	de		P	pl g
     	tema	de		P	pl g
leppitust	####				
kinnitada	kinnita	da		V	da
.	.			Z	
Mari	Mari	0		H	sg g
    	mari	0		S	sg g
    	mari	0		S	sg n
    	Mari	0		H	sg n
    	mari	0		S	sg p
Kadak	####				
.	.			Z	
(	(			Z	
allkiri	all_kiri	0		S	sg n
)	)			Z	
1879	1879	0		N	?
Aaastal	####				
Aaprilikuu	####				
25	25	0		N	?
päeval	päev	l		S	sg ad
on	ole	0		V	b
  	ole	0		V	vad
se	####				
eesseisav	####				
susana	####				
lepping	####				
kinnitamiseks	kinnitamine	ks		S	sg tr
XXI	XXI	0		O	?
   	XXI	0		Y	?
Aavvinurme	####				
Vallakohtule	valla_kohus	le		S	sg all
I	I	0		O	?
 	I	0		Y	?
 	j	0		Y	?
Jürjevi	####				
Ülema	ülem	0		C	sg g
     	ülem	0		S	sg g
talurahvakohtu	talu_rahva_kohus	0		S	sg g
ringkonnas	ringkond	s		S	sg in
Aavvinurme	####				
Vallakohtumajas	valla_kohtu_maja	s		S	sg in
Jurjevi	####				
kreisis	kreis	s		S	sg in
kinnitamiseks	kinnitamine	ks		S	sg tr
ette	ette	0		D	
    	ette	0		K	
    	esi	tte		S	adt
kantud	kand	tud		V	tud
      	kantu	d		S	pl n
      	kantud	0		A	
      	kantud	0		A	sg n
      	kantud	d		A	pl n
Aavvinurme	####				
Valla	vald	0		S	sg g
     	valla	0		D	
ja	ja	0		J	
Ulviküla	####				
inimeste	inimene	te		S	pl g
Liisa	Liisa	0		H	sg g
     	Liisa	0		H	sg n
Tomiku	####				
Josepi	####				
naise	naine	0		S	sg g
ja	ja	0		J	
Mari	Mari	0		H	sg g
    	mari	0		S	sg g
    	mari	0		S	sg n
    	Mari	0		H	sg n
    	mari	0		S	sg p
Kadaka	kadakas	0		S	sg g
Juhani	Juhan	0		H	sg g
      	juha	ni		S	sg ter
lese	lesk	0		S	sg g
poolest	pool	st		N	sg el
       	pool	st		S	sg el
       	poolene	t		A	sg p
       	poolest	0		K	
maja	maja	0		S	sg g
    	maja	0		S	sg n
    	maja	0		S	sg p
platsi	plats	0		S	adt
      	plats	0		S	sg g
      	plats	0		S	sg p
andmise	andmine	0		S	sg g
pärast	pära	st		S	sg el
      	pärane	t		A	sg p
      	pärast	0		D	
      	pärast	0		K	
.	.			Z	
ja	ja	0		J	
on	ole	0		V	b
  	ole	0		V	vad
nende	see	de		P	pl g
     	tema	de		P	pl g
lepping	####				
tänasel	tänane	l		A	sg ad
päeval	päev	l		S	sg ad
Aakt	####				
ramatuse	####				
N 9	N9	0		Y	?
all	all	0		D	
   	all	0		K	
üleskirjutud	####				
ja	ja	0		J	
on	ole	0		V	b
  	ole	0		V	vad
needsamad	see_sama	d		P	pl n
omakäega	oma_käsi	ga		S	sg kom
omad	oma	d		A	pl n
    	oma	d		P	pl n
    	oma	d		S	pl n
    	oma	d		V	d
nimed	nimi	d		S	pl n
allakirjutanud	alla_kirjutanu	d		S	pl n
              	alla_kirjutanud	0		A	
              	alla_kirjutanud	0		A	sg n
              	alla_kirjutanud	d		A	pl n
ja	ja	0		J	
kohus	kohu	s		V	s
     	kohus	0		S	sg n
nende	see	de		P	pl g
     	tema	de		P	pl g
leppingud	####				
kinnitanud	kinnita	nud		V	nud
          	kinnita=nu	d		S	pl n
          	kinnita=nud	0		A	
          	kinnita=nud	0		A	sg n
          	kinnita=nud	d		A	pl n
,	,			Z	
M. Pihlak	####				
(	(			Z	
allkiri	all_kiri	0		S	sg n
)	)			Z	
A	A	0		Y	?
kalaus	####				
(	(			Z	
allkiri	all_kiri	0		S	sg n
)	)			Z	
J	J	0		Y	?
Pärn	pärn	0		S	sg n
(	(			Z	
allkiri	all_kiri	0		S	sg n
)	)			Z	
Kirjutaja	kirjutaja	0		S	sg g
         	kirjutaja	0		S	sg n
Schulbach	####				
(	(			Z	
allkiri	all_kiri	0		S	sg n
)	)			Z	
Ärakiri	ära_kiri	0		S	sg n
Mari	Mari	0		H	sg g
    	mari	0		S	sg g
    	mari	0		S	sg n
    	Mari	0		H	sg n
    	mari	0		S	sg p
Kadakale	kadakas	le		S	sg all
välja	välja	0		D	
     	välja	0		V	o
     	väli	0		S	adt
     	väli	0		S	sg g
     	väli	0		S	sg p
antud	an=tu	d		S	pl n
     	and	tud		V	tud
     	antud	0		A	
     	antud	0		A	sg n
     	antud	d		A	pl n
sel	see	l		P	sg ad
   	sel	0		Y	?
5	5	0		N	?
Septembrl	####				
1902.	1902.	0		O	?
ja	ja	0		J	
15	15	0		N	?
kop	kop	0		Y	?
mark	mark	0		S	sg n
peale	pea	le		S	sg all
     	peale	0		D	
     	peale	0		K	
pantud	####				
Kirjutaja	kirjutaja	0		S	sg g
         	kirjutaja	0		S	sg n
Schulbach	####				
(	(			Z	
allkiri	all_kiri	0		S	sg n
)	)			Z	
