vallavanema	valla_vanem	0		S	sg g
kaemise	kae=mine	0		S	sg g
all	all	0		D	
   	all	0		K	
.	.			Z	
Hans	Hans	0		H	sg n
Nõlg	####				
.	.			Z	
sel	see	l		P	sg ad
   	sel	0		Y	?
tänasel	tänane	l		A	sg ad
päeval	päev	l		S	sg ad
sai	saa	i		V	s
   	sai	0		S	sg n
hofidrichti	####				
mõistus	mõistus	0		S	sg n
ette	ette	0		D	
    	ette	0		K	
    	esi	tte		S	adt
pantud	####				
Johan	Johan	0		H	sg n
Thomsoni	####				
üle	üle	0		D	
   	üle	0		K	
,	,			Z	
et	et	0		J	
kas	kas	0		D	
võtavad	võt	vad		V	vad
vangist	vang	st		S	sg el
vastu	vastu	0		D	
     	vastu	0		K	
vaid	vaid	0		D	
    	vaid	0		J	
ei	ei	0		D	
  	ei	0		V	neg
.	.			Z	
see	see	0		P	sg n
kogukond	kogukond	0		S	sg n
seisab	seis	b		V	b
84	84	0		N	?
vaiega	####				
kust	kusi	t		S	sg p
    	kust	0		D	
60	60	0		N	?
koos	koos	0		D	
    	koos	0		K	
    	koos	0		S	sg n
    	kubu	s		S	sg in
olivad	####				
:	:			Z	
ja	ja	0		J	
kõik	kõik	0		P	pl n
    	kõik	0		S	sg n
    	kõik	0		P	sg n
nime	nimi	0		S	sg g
    	nimi	0		S	sg p
järgi	järg	i		S	pl p
     	järgi	0		D	
     	järgi	0		K	
     	järgi	0		V	o
küsitud	küsi	tud		V	tud
       	küsi=tu	d		S	pl n
       	küsi=tud	0		A	
       	küsi=tud	0		A	sg n
       	küsi=tud	d		A	pl n
sai	saa	i		V	s
   	sai	0		S	sg n
,	,			Z	
kes	kes	0		P	pl n
   	kes	0		P	sg n
võtavad	võt	vad		V	vad
seda	see	da		P	sg p
vangi	vang	0		S	adt
     	vang	0		S	sg g
     	vang	0		S	sg p
Johan	Johan	0		H	sg n
Thomsoni	####				
vastu	vastu	0		D	
     	vastu	0		K	
vaid	vaid	0		D	
    	vaid	0		J	
ei	ei	0		D	
  	ei	0		V	neg
,	,			Z	
kelle	kes	0		P	pl g
     	kes	0		P	sg g
naine	naine	0		S	sg n
ja	ja	0		J	
lapsed	laps	d		S	pl n
Mari	Mari	0		H	sg g
    	mari	0		S	sg g
    	mari	0		S	sg n
    	Mari	0		H	sg n
    	mari	0		S	sg p
revisjoni	revisjon	0		S	adt
         	revisjon	0		S	sg g
         	revisjon	0		S	sg p
on	ole	0		V	b
  	ole	0		V	vad
ja	ja	0		J	
revisjoni	revisjon	0		S	adt
         	revisjon	0		S	sg g
         	revisjon	0		S	sg p
perra	####				
31	31	0		N	?
1	1	0		N	?
/	/			Z	
2	2	0		N	?
aastat	aasta	t		S	sg p
vanad	vana	d		A	pl n
     	vana	d		S	pl n
,	,			Z	
lutteri	####				
usku	usk	0		S	adt
    	usk	0		S	sg p
ümber	ümber	0		D	
     	ümber	0		K	
kirjutud	####				
lahtis	####				
1867.	1867.	0		O	?
naiseks	naine	ks		S	sg tr
ja	ja	0		J	
lastest	laps	test		S	pl el
ei	ei	0		D	
  	ei	0		V	neg
tea	tead	0		V	o
midagi	miski	dagi		P	sg p
see	see	0		P	sg n
kogukonna	kogukond	0		S	sg g
valitsus	valitsus	0		S	sg n
tunistada	####				
aga	aga	0		J	
kõik	kõik	0		P	pl n
    	kõik	0		S	sg n
    	kõik	0		P	sg n
60	60	0		N	?
seald	####				
on	ole	0		V	b
  	ole	0		V	vad
ütelnud	ütle	nud		V	nud
       	ütel=nu	d		S	pl n
       	ütel=nud	0		A	
       	ütel=nud	0		A	sg n
       	ütel=nud	d		A	pl n
et	et	0		J	
vastu	vastu	0		D	
     	vastu	0		K	
ei	ei	0		D	
  	ei	0		V	neg
võtta	võt	a		V	da
.	.			Z	
vallavanem	valla_vanem	0		S	sg n
Hans	Hans	0		H	sg n
Nolk	nolk	0		S	sg n
pea	pea	0		D	
   	pea	0		S	sg g
   	pida	0		V	o
   	pea	0		S	sg n
kohtumees	kohtu_mees	0		S	sg n
Kaarel	Kaarel	0		H	sg n
      	kaar	l		S	sg ad
      	kaarel	0		S	sg n
Lassman	####				
juuresistuja	juures_istu=ja	0		S	sg g
            	juures_istu=ja	0		S	sg n
Peeter	Peeter	0		H	sg n
Lestmann	lest_mann	0		S	sg n
""""	""""			Z	
Jaan	Jaan	0		H	sg n
    	jaan	0		S	sg n
    	jaan	0		Y	?
Hagel	####				
