sel	see	l		P	sg ad
   	sel	0		Y	?
16	16	0		N	?
nobr	####				
1879.	1879.	0		O	?
peakohtumees	pea_kohtu_mees	0		S	sg n
Jakob	Jakob	0		H	sg n
Kulberg	####				
.	.			Z	
kohtumees	kohtu_mees	0		S	sg n
Joh	####				
Kihtud	####				
-	-			Z	
""""	""""			Z	
-	-			Z	
Jaan	Jaan	0		H	sg n
    	jaan	0		S	sg n
    	jaan	0		Y	?
palubbas	####				
Veskemõisa	####				
valitsus	valitsus	0		S	sg n
kaebab	kaeba	b		V	b
,	,			Z	
et	et	0		J	
vastse	vastne	0		A	sg g
      	vastne	0		S	sg g
Piigastest	####				
Aadam	Aadam	0		H	sg n
Lill	lill	0		S	sg n
on	ole	0		V	b
  	ole	0		V	vad
suvel	suvi	l		S	sg ad
1879.	1879.	0		O	?
üks	üks	0		N	sg n
   	üks	0		P	sg n
pedaja	pedajas	0		S	sg g
kand	kand	0		S	sg n
8.	8.	0		O	?
tol	too	l		P	sg ad
jäme	jäme	0		A	sg n
6.	6.	0		O	?
sülda	süld	0		S	adt
     	süld	0		S	sg p
pik	####				
maha	maha	0		D	
raiunud	raiu	nud		V	nud
       	raiu=nu	d		S	pl n
       	raiu=nud	0		A	
       	raiu=nud	0		A	sg n
       	raiu=nud	d		A	pl n
.	.			Z	
Aadam	Aadam	0		H	sg n
Lill	lill	0		S	sg n
ütles	ütle	s		V	s
et	et	0		J	
ta	tema	0		P	sg g
  	tema	0		P	sg n
ei	ei	0		D	
  	ei	0		V	neg
ole	ole	0		V	o
Veskemõisa	####				
mõtsas	####				
käinud	käi	nud		V	nud
      	käi=nud	0		A	
      	käi=nud	0		A	sg n
      	käi=nud	d		A	pl n
      	käinu	d		S	pl n
,	,			Z	
ja	ja	0		J	
kõige	kõik	0		P	sg g
     	kõige	0		D	
vähem	vähem	0		C	sg n
     	vähem	0		D	
seal	seal	0		D	
    	siga	l		A	sg ad
    	siga	l		S	sg ad
midagi	miski	dagi		P	sg p
raiunud	raiu	nud		V	nud
       	raiu=nu	d		S	pl n
       	raiu=nud	0		A	
       	raiu=nud	0		A	sg n
       	raiu=nud	d		A	pl n
,	,			Z	
aga	aga	0		J	
üks	üks	0		N	sg n
   	üks	0		P	sg n
kirves	kirves	0		S	sg n
      	kirves	s		S	sg in
on	ole	0		V	b
  	ole	0		V	vad
tal	tema	l		P	sg ad
suvel	suvi	l		S	sg ad
küll	küll	0		D	
    	küll	0		S	sg n
kodust	kodu	st		S	sg el
      	kodune	t		A	sg p
maja	maja	0		S	sg g
    	maja	0		S	sg n
    	maja	0		S	sg p
ehituse	ehitus	0		S	sg g
töö	töö	0		S	sg g
   	töö	0		S	sg n
mant	mant	0		D	
    	mant	0		K	
    	mant	0		S	sg n
ära	ära	0		D	
   	ära	0		V	neg o
kadunud	kadu	nud		V	nud
       	kadunu	d		S	pl n
       	kadunud	0		A	
       	kadunud	0		A	sg n
       	kadunud	d		A	pl n
,	,			Z	
aga	aga	0		J	
mitte	mitte	0		D	
mõtsavaht	####				
ei	ei	0		D	
  	ei	0		V	neg
ole	ole	0		V	o
mul	mina	l		P	sg ad
ühtegi	ühte	0	gi	D	
      	üks	0	gi	N	adt
      	üks	0	gi	P	adt
      	ühe	0	gi	S	sg g
      	üks	0	gi	N	sg p
      	üks	0	gi	P	sg p
kirvest	kirves	st		S	sg el
       	kirves	t		S	sg p
mõtsas	####				
võtnud	võt	nud		V	nud
      	võt=nu	d		S	pl n
      	võt=nud	0		A	
      	võt=nud	0		A	sg n
      	võt=nud	d		A	pl n
.	.			Z	
kohus	kohu	s		V	s
     	kohus	0		S	sg n
mõistis	mõist	is		V	s
,	,			Z	
et	et	0		J	
Aadam	Aadam	0		H	sg n
Lill	lill	0		S	sg n
peab	pida	b		V	b
1	1	0		N	?
1	1	0		N	?
/	/			Z	
2	2	0		N	?
rbl	rbl	0		Y	?
trahvi	trahv	0		S	adt
      	trahv	0		S	sg g
      	trahvi	0		V	o
      	trahv	0		S	sg p
maksma	maks	ma		V	ma
.	.			Z	
