Haslava	####				
kogukonna	kogukond	0		S	sg g
kohus	kohu	s		V	s
     	kohus	0		S	sg n
sel	see	l		P	sg ad
   	sel	0		Y	?
25	25	0		N	?
Juunil	juuni	l		S	sg ad
1884.	1884.	0		O	?
man	man	0		D	
   	man	0		K	
olid	ole	id		V	sid
:	:			Z	
peakohtumees	pea_kohtu_mees	0		S	sg n
:	:			Z	
Jaan	Jaan	0		H	sg n
    	jaan	0		S	sg n
    	jaan	0		Y	?
Ling	ling	0		S	sg n
kohtumees	kohtu_mees	0		S	sg n
:	:			Z	
Johan	Johan	0		H	sg n
Klaosen	####				
""""	""""			Z	
Peeter	Peeter	0		H	sg n
Ivan	Ivan	0		H	sg n
selle	see	0		P	sg g
     	sell	e		S	pl p
otsuse	otsus	0		S	sg g
peale	pea	le		S	sg all
     	peale	0		D	
     	peale	0		K	
sest	see	st		P	sg el
    	sest	0		J	
16	16	0		N	?
Junist	####				
s	s	0		Y	?
.	.			Z	
a.	a	0		Y	?
Johan	Johan	0		H	sg n
Vuksi	####				
kaebuse	kaebus	0		S	sg g
asja	asi	0		S	adt
    	asi	0		S	sg g
    	asi	0		S	sg p
vasta	vasta	0		V	o
Peeter	Peeter	0		H	sg n
Duberg	####				
oli	ole	i		V	s
kutsumise	kutsumine	0		S	sg g
põle	põle	0		V	o
ette	ette	0		D	
    	ette	0		K	
    	esi	tte		S	adt
tullus	####				
Ado	Ado	0		H	sg g
   	Ado	0		H	sg n
Einman	####				
tunistas	####				
et	et	0		J	
tema	tema	0		P	sg g
    	tema	0		P	sg n
ähvardust	ähvardus	t		S	sg p
kuulnud	kuul	nud		V	nud
       	kuul=nud	0		A	
       	kuul=nud	0		A	sg n
       	kuul=nud	d		A	pl n
       	kuulnu	d		S	pl n
ei	ei	0		D	
  	ei	0		V	neg
ole	ole	0		V	o
,	,			Z	
niisama	nii_sama	0		D	
tunistas	####				
Johan	Johan	0		H	sg n
opman	opman	0		S	sg n
.	.			Z	
Mõistetud	mõist	tud		V	tud
         	mõiste=tu	d		S	pl n
         	mõiste=tud	0		A	
         	mõiste=tud	0		A	sg n
         	mõiste=tud	d		A	pl n
,	,			Z	
et	et	0		J	
Johan	Johan	0		H	sg n
Vuksi	####				
nõudmise	nõudmine	0		S	sg g
kaebus	kaebus	0		S	sg n
tühjaks	tühi	ks		A	sg tr
mõista	mõist	0		V	o
      	mõist	a		V	da
on	ole	0		V	b
  	ole	0		V	vad
,	,			Z	
selle	see	0		P	sg g
     	sell	e		S	pl p
et	et	0		J	
tunistust	####				
ei	ei	0		D	
  	ei	0		V	neg
ole	ole	0		V	o
.	.			Z	
see	see	0		P	sg n
mõistus	mõistus	0		S	sg n
sai	saa	i		V	s
   	sai	0		S	sg n
kuulutada	kuuluta	da		V	da
ja	ja	0		J	
õpetud	####				
leht	leht	0		S	sg n
välja	välja	0		D	
     	välja	0		V	o
     	väli	0		S	adt
     	väli	0		S	sg g
     	väli	0		S	sg p
antud	an=tu	d		S	pl n
     	and	tud		V	tud
     	antud	0		A	
     	antud	0		A	sg n
     	antud	d		A	pl n
.	.			Z	
peakohtumees	pea_kohtu_mees	0		S	sg n
J. Ling	####				
/	/			Z	
allkiri	all_kiri	0		S	sg n
/	/			Z	
kohtumees	kohtu_mees	0		S	sg n
Johan	Johan	0		H	sg n
Klaosen	####				
XXX	XXX	0		O	?
   	XXX	0		Y	?
""""	""""			Z	
Peeter	Peeter	0		H	sg n
Ivan	Ivan	0		H	sg n
/	/			Z	
allkiri	all_kiri	0		S	sg n
/	/			Z	
kirjutaja	kirjutaja	0		S	sg g
         	kirjutaja	0		S	sg n
:	:			Z	
J. Veber	####				
/	/			Z	
allkiri	all_kiri	0		S	sg n
/	/			Z	
