protokolli	protokoll	0		S	adt
          	protokoll	0		S	sg g
          	protokolli	0		V	o
          	protokoll	0		S	sg p
põhjusel	põhjus	l		S	sg ad
10	10	0		N	?
Novembrist	november	st		S	sg el
s	s	0		Y	?
.	.			Z	
a.	a	0		Y	?
No	no	0		I	
279	279	0		N	?
sai	saa	i		V	s
   	sai	0		S	sg n
Jaan	Jaan	0		H	sg n
    	jaan	0		S	sg n
    	jaan	0		Y	?
Mägi	Mägi	0		H	sg g
    	mägi	0		S	sg n
    	Mägi	0		H	sg n
ja	ja	0		J	
Peep	Peep	0		H	sg n
Klaosse	####				
asjus	asi	us		S	pl in
tunnistajaid	tunnistaja	id		S	pl p
üle	üle	0		D	
   	üle	0		K	
kuulmiseks	kuulmine	ks		S	sg tr
ette	ette	0		D	
    	ette	0		K	
    	esi	tte		S	adt
kutsutud	kutsu	tud		V	tud
        	kutsutu	d		S	pl n
        	kutsutud	0		A	
        	kutsutud	0		A	sg n
        	kutsutud	d		A	pl n
.	.			Z	
Hendrik	Hendrik	0		H	sg n
Kolastgi	####				
ei	ei	0		D	
  	ei	0		V	neg
ole	ole	0		V	o
tulnud	tul=nud	0		A	
      	tul=nud	0		A	sg n
      	tul=nud	d		A	pl n
      	tule	nud		V	nud
      	tulnu	d		S	pl n
.	.			Z	
Johan	Johan	0		H	sg n
Lokk	lokk	0		S	sg n
ütles	ütle	s		V	s
et	et	0		J	
tema	tema	0		P	sg g
    	tema	0		P	sg n
sest	see	st		P	sg el
    	sest	0		J	
nõudmiseks	nõudmine	ks		S	sg tr
midagi	miski	dagi		P	sg p
ei	ei	0		D	
  	ei	0		V	neg
tea	tead	0		V	o
.	.			Z	
Kusta	Kusta	0		H	sg g
     	Kusta	0		H	sg n
     	kuse	ta		V	da
     	kuse	ta		V	ta
Lodesoon	####				
ei	ei	0		D	
  	ei	0		V	neg
ole	ole	0		V	o
tulnud	tul=nud	0		A	
      	tul=nud	0		A	sg n
      	tul=nud	d		A	pl n
      	tule	nud		V	nud
      	tulnu	d		S	pl n
.	.			Z	
otsus	otsus	0		S	sg n
:	:			Z	
Hendrik	Hendrik	0		H	sg n
Kolastgi	####				
ja	ja	0		J	
Kusta	Kusta	0		H	sg g
     	Kusta	0		H	sg n
     	kuse	ta		V	da
     	kuse	ta		V	ta
Lutesson	####				
1	1	0		N	?
Decem	####				
ette	ette	0		D	
    	ette	0		K	
    	esi	tte		S	adt
tallitada	####				
.	.			Z	
