ühe	üks	0		N	sg g
   	üks	0		P	sg g
   	ühe	0		S	sg n
keiserliku	keiserlik	0		A	sg g
Tartu	Tartu	0		H	adt
     	Tartu	0		H	sg g
     	Tartu	0		H	sg n
     	tartu	0		G	
Makohtu	####				
kirja	kirja	0		A	
     	kirja	0		V	o
     	kiri	0		S	adt
     	kiri	0		S	sg g
     	kiri	0		S	sg p
järel	järel	0		D	
     	järel	0		K	
sel	see	l		P	sg ad
   	sel	0		Y	?
2.	2.	0		O	?
Marts	####				
No	no	0		I	
4620	4620	0		N	?
sai	saa	i		V	s
   	sai	0		S	sg n
see	see	0		P	sg n
Mai	Mai	0		H	sg g
   	Mai	0		H	sg n
   	mai	0		S	sg g
   	mai	0		S	sg n
Truus	truu	s		A	sg in
ette	ette	0		D	
    	ette	0		K	
    	esi	tte		S	adt
kutsutud	kutsu	tud		V	tud
        	kutsutu	d		S	pl n
        	kutsutud	0		A	
        	kutsutud	0		A	sg n
        	kutsutud	d		A	pl n
kelle	kes	0		P	pl g
     	kes	0		P	sg g
lapse	laps	0		S	sg g
vallavanem	valla_vanem	0		S	sg n
sel	see	l		P	sg ad
   	sel	0		Y	?
13	13	0		N	?
Augustil	august	l		S	sg ad
        	August	l		H	sg ad
1873	1873	0		N	?
keiserliku	keiserlik	0		A	sg g
Tartu	Tartu	0		H	adt
     	Tartu	0		H	sg g
     	Tartu	0		H	sg n
     	tartu	0		G	
Makohtu	####				
surnust	surnu	st		S	sg el
       	surnud	st		A	sg el
pääst	####				
ees	ees	0		D	
   	ees	0		K	
   	esi	s		S	sg in
,	,			Z	
kes	kes	0		P	pl n
   	kes	0		P	sg n
siin	siin	0		D	
    	siin	0		S	sg n
kogukonnakohtu	kogukonna_kohus	0		S	sg g
ees	ees	0		D	
   	ees	0		K	
   	esi	s		S	sg in
tunnistas	tunnista	s		V	s
et	et	0		J	
tema	tema	0		P	sg g
    	tema	0		P	sg n
on	ole	0		V	b
  	ole	0		V	vad
mõisa	mõis	0		S	sg g
rehhel	####				
olnud	ol=nud	0		A	
     	ol=nud	0		A	sg n
     	ol=nud	d		A	pl n
     	ole	nud		V	nud
     	olnu	d		S	pl n
,	,			Z	
ja	ja	0		J	
seal	seal	0		D	
    	siga	l		A	sg ad
    	siga	l		S	sg ad
juba	juba	0		D	
haigeks	haige	ks		A	sg tr
       	haige	ks		S	sg tr
jäänud	jää	nud		V	nud
      	jäänu	d		S	pl n
      	jäänud	0		A	
      	jäänud	0		A	sg n
      	jäänud	d		A	pl n
,	,			Z	
ja	ja	0		J	
teepeal	tee_pea	l		S	sg ad
olema	ole	ma		V	ma
temal	tema	l		P	sg ad
laps	laps	0		S	sg n
ära	ära	0		D	
   	ära	0		V	neg o
sündinud	sündi	nud		V	nud
        	sündinu	d		S	pl n
        	sündinud	0		A	
        	sündinud	0		A	sg n
        	sündinud	d		A	pl n
.	.			Z	
sai	saa	i		V	s
   	sai	0		S	sg n
Keriku	####				
vöörmünder	vöörmünder	0		S	sg n
Jüri	Jüri	0		H	sg g
    	Jüri	0		H	sg n
Rebane	rebane	0		S	sg n
ette	ette	0		D	
    	ette	0		K	
    	esi	tte		S	adt
kutsutud	kutsu	tud		V	tud
        	kutsutu	d		S	pl n
        	kutsutud	0		A	
        	kutsutud	0		A	sg n
        	kutsutud	d		A	pl n
kes	kes	0		P	pl n
   	kes	0		P	sg n
tunnistas	tunnista	s		V	s
,	,			Z	
et	et	0		J	
see	see	0		P	sg n
Maii	####				
Truus	truu	s		A	sg in
olema	ole	ma		V	ma
temal	tema	l		P	sg ad
tunnistanud	tunnista	nud		V	nud
           	tunnista=nu	d		S	pl n
           	tunnista=nud	0		A	
           	tunnista=nud	0		A	sg n
           	tunnista=nud	d		A	pl n
,	,			Z	
et	et	0		J	
sellel	see	l		P	sg ad
lapsel	laps	l		S	sg ad
ikka	ikka	0		D	
    	iga	0		S	adt
eluvaimu	elu_vaim	0		S	adt
        	elu_vaim	0		S	sg g
        	elu_vaim	0		S	sg p
juures	juur	s		S	sg in
      	juures	0		D	
      	juures	0		K	
on	ole	0		V	b
  	ole	0		V	vad
olnud	ol=nud	0		A	
     	ol=nud	0		A	sg n
     	ol=nud	d		A	pl n
     	ole	nud		V	nud
     	olnu	d		S	pl n
,	,			Z	
ja	ja	0		J	
see	see	0		P	sg n
perenaine	pere_naine	0		S	sg n
Juula	####				
Kirna	####				
kelle	kes	0		P	pl g
     	kes	0		P	sg g
juures	juur	s		S	sg in
      	juures	0		D	
      	juures	0		K	
see	see	0		P	sg n
tüdruk	tüdruk	0		S	sg n
on	ole	0		V	b
  	ole	0		V	vad
olnud	ol=nud	0		A	
     	ol=nud	0		A	sg n
     	ol=nud	d		A	pl n
     	ole	nud		V	nud
     	olnu	d		S	pl n
,	,			Z	
on	ole	0		V	b
  	ole	0		V	vad
Jüri	Jüri	0		H	sg g
    	Jüri	0		H	sg n
Rebasel	rebane	l		S	sg ad
rääkinud	rääki	nud		V	nud
        	rääki=nu	d		S	pl n
        	rääki=nud	0		A	
        	rääki=nud	0		A	sg n
        	rääki=nud	d		A	pl n
,	,			Z	
et	et	0		J	
laps	laps	0		S	sg n
on	ole	0		V	b
  	ole	0		V	vad
verist	verine	t		A	sg p
No	no	0		I	
suust	suu	st		S	sg el
välja	välja	0		D	
     	välja	0		V	o
     	väli	0		S	adt
     	väli	0		S	sg g
     	väli	0		S	sg p
ajanud	aja	nud		V	nud
      	aja=nu	d		S	pl n
      	aja=nud	0		A	
      	aja=nud	0		A	sg n
      	aja=nud	d		A	pl n
.	.			Z	
sai	saa	i		V	s
   	sai	0		S	sg n
vallavöörmünder	valla_vöörmünder	0		S	sg n
Hans	Hans	0		H	sg n
Saes_är	####				
ette	ette	0		D	
    	ette	0		K	
    	esi	tte		S	adt
kutsutud	kutsu	tud		V	tud
        	kutsutu	d		S	pl n
        	kutsutud	0		A	
        	kutsutud	0		A	sg n
        	kutsutud	d		A	pl n
,	,			Z	
kes	kes	0		P	pl n
   	kes	0		P	sg n
niisama	nii_sama	0		D	
tunnistas	tunnista	s		V	s
kui	kui	0		D	
   	kui	0		J	
see	see	0		P	sg n
Jüri	Jüri	0		H	sg g
    	Jüri	0		H	sg n
Rebane	rebane	0		S	sg n
.	.			Z	
