Josep	####				
Kusik	kusik	0		S	sg n
kokkoralt	kokk_ora	lt		S	sg abl
kaebab	kaeba	b		V	b
Jaan	Jaan	0		H	sg n
    	jaan	0		S	sg n
    	jaan	0		Y	?
Peetso	####				
peale	pea	le		S	sg all
     	peale	0		D	
     	peale	0		K	
,	,			Z	
se	####				
olla	ole	a		V	da
teda	tema	da		P	sg p
kolm	kolm	0		N	sg n
korda	kord	0		S	adt
     	korda	0		V	o
     	kord	0		S	sg p
lõõnud	####				
,	,			Z	
kelle	kes	0		P	pl g
     	kes	0		P	sg g
eest	eest	0		D	
    	eest	0		K	
    	esi	st		S	sg el
tema	tema	0		P	sg g
    	tema	0		P	sg n
75.	75.	0		O	?
rubla	rubla	0		S	sg g
     	rubla	0		S	sg n
     	rubla	0		S	sg p
nõuab	nõud	b		V	b
.	.			Z	
Jaan	Jaan	0		H	sg n
    	jaan	0		S	sg n
    	jaan	0		Y	?
Peetso	####				
kostab	kost	b		V	b
kaebduse	####				
peale	pea	le		S	sg all
     	peale	0		D	
     	peale	0		K	
et	et	0		J	
Josep	####				
Kusik	kusik	0		S	sg n
tulnud	tul=nud	0		A	
      	tul=nud	0		A	sg n
      	tul=nud	d		A	pl n
      	tule	nud		V	nud
      	tulnu	d		S	pl n
ilma	ilm	0		S	adt
    	ilm	0		S	sg g
    	ilma	0		D	
    	ilma	0		K	
    	ilm	0		S	sg p
lubata	luba	ta		V	ta
tema	tema	0		P	sg g
    	tema	0		P	sg n
maease	####				
,	,			Z	
ja	ja	0		J	
mänginud	mängi	nud		V	nud
        	mängi=nu	d		S	pl n
        	mängi=nud	0		A	
        	mängi=nud	0		A	sg n
        	mängi=nud	d		A	pl n
harmoonikad	harmoonika	d		S	pl n
mis	mis	0		P	pl n
   	mis	0		P	sg n
peale	pea	le		S	sg all
     	peale	0		D	
     	peale	0		K	
tema	tema	0		P	sg g
    	tema	0		P	sg n
teda	tema	da		P	sg p
väljaaeanud	####				
,	,			Z	
aga	aga	0		J	
lõõnud	####				
ei	ei	0		D	
  	ei	0		V	neg
ole	ole	0		V	o
Karel	####				
Ilves	ilves	0		S	sg n
,	,			Z	
19.	19.	0		O	?
a.	a	0		Y	?
vana	vana	0		A	sg g
    	vana	0		A	sg n
    	vana	0		A	sg p
    	vana	0		S	sg g
    	vana	0		S	sg n
    	vana	0		S	sg p
tunnistab	tunnista	b		V	b
,	,			Z	
et	et	0		J	
tema	tema	0		P	sg g
    	tema	0		P	sg n
lähud	####				
Josep	####				
Kusikuga	kusik	ga		S	sg kom
ja	ja	0		J	
teistega	teine	tega		O	pl kom
        	teine	tega		P	pl kom
Jaan	Jaan	0		H	sg n
    	jaan	0		S	sg n
    	jaan	0		Y	?
Peetso	####				
maease	####				
ja	ja	0		J	
olla	ole	a		V	da
Jaan	Jaan	0		H	sg n
    	jaan	0		S	sg n
    	jaan	0		Y	?
Peetso	####				
Josep	####				
Kusikuga	kusik	ga		S	sg kom
3.	3.	0		O	?
korda	kord	0		S	adt
     	korda	0		V	o
     	kord	0		S	sg p
lõõnud	####				
.	.			Z	
/	/			Z	
:	:			Z	
jääb	jää	b		V	b
poolele	pool	le		N	sg all
       	pool	le		S	sg all
:/	:			Z	
J. Bringfeld	####				
[	[			Z	
allkiri	all_kiri	0		S	sg n
]	]			Z	
,	,			Z	
pea	pea	0		D	
   	pea	0		S	sg g
   	pida	0		V	o
   	pea	0		S	sg n
J	J	0		Y	?
.	.			Z	
kokka	kokk	0		S	adt
     	kokka	0		V	o
     	kokk	0		S	sg p
[	[			Z	
allkiri	all_kiri	0		S	sg n
]	]			Z	
kohtumees	kohtu_mees	0		S	sg n
Karel	####				
Kadak	####				
[	[			Z	
allkiri	all_kiri	0		S	sg n
]	]			Z	
-	-			Z	
""""	""""			Z	
-	-			Z	
Karel	####				
Tõruvere	tõru_veri	0		S	sg g
[	[			Z	
allkiri	all_kiri	0		S	sg n
]	]			Z	
-	-			Z	
""""	""""			Z	
-	-			Z	
