Krimani	####				
kogukonna	kogukond	0		S	sg g
kohtus	kohtu	s		V	s
      	kohus	s		S	sg in
sel	see	l		P	sg ad
   	sel	0		Y	?
9mal	####				
juuli	juuli	0		S	sg g
     	juuli	0		S	sg n
1871.	1871.	0		O	?
Jüri	Jüri	0		H	sg g
    	Jüri	0		H	sg n
Klaos	####				
tuli	tuli	0		S	sg n
    	tule	i		V	s
sel	see	l		P	sg ad
   	sel	0		Y	?
30mal	####				
Aprillil	aprill	l		S	sg ad
kohtu	kohtu	0		V	o
     	kohus	0		S	sg g
ette	ette	0		D	
    	ette	0		K	
    	esi	tte		S	adt
ja	ja	0		J	
kaebas	kaeba	s		V	s
mina	mina	0		P	sg n
    	mina	0		S	sg g
    	mina	0		S	sg n
    	mina	0		S	sg p
olin	ole	in		V	sin
Vio	####				
rusikuga	####				
Tolpoolt	####				
aasta	aasta	0		S	sg g
     	aasta	0		S	sg n
kaup	kaup	0		S	sg n
teinud	tege	nud		V	nud
      	tei=nud	0		A	
      	tei=nud	0		A	sg n
      	tei=nud	d		A	pl n
      	teinu	d		S	pl n
et	et	0		J	
minu	mina	0		P	sg g
masnu	####				
teenima	teeni	ma		V	ma
pidi	pida	i		V	s
    	pidi	0		K	
tulema	tule	ma		V	ma
ja	ja	0		J	
ta	tema	0		P	sg g
  	tema	0		P	sg n
ei	ei	0		D	
  	ei	0		V	neg
ole	ole	0		V	o
senni	####				
ajani	aeg	ni		S	sg ter
veel	veel	0		D	
    	vesi	l		S	sg ad
mitte	mitte	0		D	
tulnud	tul=nud	0		A	
      	tul=nud	0		A	sg n
      	tul=nud	d		A	pl n
      	tule	nud		V	nud
      	tulnu	d		S	pl n
,	,			Z	
sest	see	st		P	sg el
    	sest	0		J	
ta	tema	0		P	sg g
  	tema	0		P	sg n
pidi	pida	i		V	s
    	pidi	0		K	
Jüripäeva	jüri_päev	0		S	adt
         	jüri_päev	0		S	sg g
         	jüri_päev	0		S	sg p
sisse	siss	e		S	pl p
     	sisse	0		D	
     	sisse	0		K	
tulema	tule	ma		V	ma
ja	ja	0		J	
minul	mina	l		P	sg ad
on	ole	0		V	b
  	ole	0		V	vad
hädaste	####				
tüdrukud	tüdruk	d		S	pl n
vaia	vai	0		S	adt
    	vai	0		S	sg g
    	vaia	0		V	o
    	vai	0		S	sg p
.	.			Z	
tema	tema	0		P	sg g
    	tema	0		P	sg n
kaubeldud	kauple	dud		V	tud
         	kaubel=du	d		S	pl n
         	kaubel=dud	0		A	
         	kaubel=dud	0		A	sg n
         	kaubel=dud	d		A	pl n
palk	palk	0		S	sg n
oli	ole	i		V	s
18	18	0		N	?
rubla	rubla	0		S	sg g
     	rubla	0		S	sg n
     	rubla	0		S	sg p
h	h	0		Y	?
.	.			Z	
raha	raha	0		S	sg g
    	raha	0		S	sg n
    	raha	0		S	sg p
ja	ja	0		J	
1.	1.	0		O	?
rubla	rubla	0		S	sg g
     	rubla	0		S	sg n
     	rubla	0		S	sg p
andsin	and	sin		V	sin
ma	mina	0		P	sg n
temale	tema	le		P	sg all
õkva	õkva	0		D	
käe	käsi	0		S	sg g
raha	raha	0		S	sg g
    	raha	0		S	sg n
    	raha	0		S	sg p
kätte	kätte	0		K	
     	käsi	tte		S	adt
.	.			Z	
Tolpoolt	####				
Vio	####				
rusik	####				
sai	saa	i		V	s
   	sai	0		S	sg n
sest	see	st		P	sg el
    	sest	0		J	
28	28	0		N	?
maist	maa	ist		S	pl el
     	mai	st		S	sg el
     	maine	t		A	sg p
siia	siia	0		D	
    	siig	0		S	sg g
kohtu	kohtu	0		V	o
     	kohus	0		S	sg g
ette	ette	0		D	
    	ette	0		K	
    	esi	tte		S	adt
tallitud	talli=tu	d		A	pl n
ja	ja	0		J	
ta	tema	0		P	sg g
  	tema	0		P	sg n
ei	ei	0		D	
  	ei	0		V	neg
ole	ole	0		V	o
mitte	mitte	0		D	
tulnud	tul=nud	0		A	
      	tul=nud	0		A	sg n
      	tul=nud	d		A	pl n
      	tule	nud		V	nud
      	tulnu	d		S	pl n
.	.			Z	
Tolpoolt	####				
Vio	####				
rusik	####				
sai	saa	i		V	s
   	sai	0		S	sg n
sest	see	st		P	sg el
    	sest	0		J	
11.	11.	0		O	?
Juuni	juuni	0		S	sg g
     	juuni	0		S	sg n
siia	siia	0		D	
    	siig	0		S	sg g
kohtu	kohtu	0		V	o
     	kohus	0		S	sg g
ette	ette	0		D	
    	ette	0		K	
    	esi	tte		S	adt
tallitud	talli=tu	d		A	pl n
ja	ja	0		J	
ta	tema	0		P	sg g
  	tema	0		P	sg n
ei	ei	0		D	
  	ei	0		V	neg
ole	ole	0		V	o
mitte	mitte	0		D	
tulnud	tul=nud	0		A	
      	tul=nud	0		A	sg n
      	tul=nud	d		A	pl n
      	tule	nud		V	nud
      	tulnu	d		S	pl n
.	.			Z	
Tolpoolt	####				
Vio	####				
rusik	####				
sai	saa	i		V	s
   	sai	0		S	sg n
sest	see	st		P	sg el
    	sest	0		J	
25.	25.	0		O	?
Juuni	juuni	0		S	sg g
     	juuni	0		S	sg n
siia	siia	0		D	
    	siig	0		S	sg g
kohtu	kohtu	0		V	o
     	kohus	0		S	sg g
ette	ette	0		D	
    	ette	0		K	
    	esi	tte		S	adt
tallitud	talli=tu	d		A	pl n
ja	ja	0		J	
ta	tema	0		P	sg g
  	tema	0		P	sg n
ei	ei	0		D	
  	ei	0		V	neg
ole	ole	0		V	o
mitte	mitte	0		D	
tulnud	tul=nud	0		A	
      	tul=nud	0		A	sg n
      	tul=nud	d		A	pl n
      	tule	nud		V	nud
      	tulnu	d		S	pl n
.	.			Z	
Tolpoolt	####				
Vio	####				
rusik	####				
sai	saa	i		V	s
   	sai	0		S	sg n
sest	see	st		P	sg el
    	sest	0		J	
9.	9.	0		O	?
juuli	juuli	0		S	sg g
     	juuli	0		S	sg n
siia	siia	0		D	
    	siig	0		S	sg g
kohtu	kohtu	0		V	o
     	kohus	0		S	sg g
ette	ette	0		D	
    	ette	0		K	
    	esi	tte		S	adt
tallitud	talli=tu	d		A	pl n
ja	ja	0		J	
ta	tema	0		P	sg g
  	tema	0		P	sg n
ei	ei	0		D	
  	ei	0		V	neg
ole	ole	0		V	o
mitte	mitte	0		D	
tulnud	tul=nud	0		A	
      	tul=nud	0		A	sg n
      	tul=nud	d		A	pl n
      	tule	nud		V	nud
      	tulnu	d		S	pl n
.	.			Z	
see	see	0		P	sg n
peale	pea	le		S	sg all
     	peale	0		D	
     	peale	0		K	
küsis	küsi	s		V	s
kogukonna	kogukond	0		S	sg g
kohus	kohu	s		V	s
     	kohus	0		S	sg n
Jüri	Jüri	0		H	sg g
    	Jüri	0		H	sg n
Klaose	####				
käest	käest	0		K	
     	käsi	st		S	sg el
et	et	0		J	
kes	kes	0		P	pl n
   	kes	0		P	sg n
sul	sina	l		P	sg ad
tunnistab	tunnista	b		V	b
kui	kui	0		D	
   	kui	0		J	
sa	sina	0		P	sg n
Vio	####				
rusikuga	####				
kaup	kaup	0		S	sg n
tegid	tege	id		V	sid
?	?			Z	
Jüri	Jüri	0		H	sg g
    	Jüri	0		H	sg n
Klaos	####				
tuli	tuli	0		S	sg n
    	tule	i		V	s
ette	ette	0		D	
    	ette	0		K	
    	esi	tte		S	adt
ja	ja	0		J	
ütles	ütle	s		V	s
:	:			Z	
Vio	####				
rusikul	####				
on	ole	0		V	b
  	ole	0		V	vad
minu	mina	0		P	sg g
käest	käest	0		K	
     	käsi	st		S	sg el
Contrach	####				
kui	kui	0		D	
   	kui	0		J	
ma	mina	0		P	sg n
kaupa	kaup	0		S	adt
     	kaup	0		S	sg p
     	kaupa	0		K	
tegime	tege	ime		V	sime
ja	ja	0		J	
nüüd	nüüd	0		D	
olen	ole	n		V	n
mina	mina	0		P	sg n
    	mina	0		S	sg g
    	mina	0		S	sg n
    	mina	0		S	sg p
siia	siia	0		D	
    	siig	0		S	sg g
nii	nii	0		D	
palju	palju	0		D	
     	palju	0		P	sg g
     	palju	0		P	sg n
kord	kord	0		D	
    	kord	0		S	sg n
käinud	käi	nud		V	nud
      	käi=nud	0		A	
      	käi=nud	0		A	sg n
      	käi=nud	d		A	pl n
      	käinu	d		S	pl n
,	,			Z	
aga	aga	0		J	
Vio	####				
ei	ei	0		D	
  	ei	0		V	neg
ole	ole	0		V	o
kunagi	kunagi	0		D	
tulnud	tul=nud	0		A	
      	tul=nud	0		A	sg n
      	tul=nud	d		A	pl n
      	tule	nud		V	nud
      	tulnu	d		S	pl n
,	,			Z	
nüüd	nüüd	0		D	
palus	palu	s		S	sg in
     	palu	s		V	s
mina	mina	0		P	sg n
    	mina	0		S	sg g
    	mina	0		S	sg n
    	mina	0		S	sg p
protocolli	####				
.	.			Z	
mõistus	mõistus	0		S	sg n
:	:			Z	
Krimani	####				
kogukonna	kogukond	0		S	sg g
kohtus	kohtu	s		V	s
      	kohus	s		S	sg in
sel	see	l		P	sg ad
   	sel	0		Y	?
9	9	0		N	?
juuli	juuli	0		S	sg g
     	juuli	0		S	sg n
71.	71.	0		O	?
kogukonna	kogukond	0		S	sg g
kohus	kohu	s		V	s
     	kohus	0		S	sg n
mõistis	mõist	is		V	s
et	et	0		J	
Vio	####				
rusik	####				
peab	pida	b		V	b
Jüri	Jüri	0		H	sg g
    	Jüri	0		H	sg n
Klaosele	####				
oma	oma	0		A	sg g
   	oma	0		D	
   	oma	0		P	sg g
   	oma	0		S	sg g
   	oma	0		V	o
   	oma	0		A	sg n
   	oma	0		A	sg p
   	oma	0		P	sg n
   	oma	0		P	sg p
   	oma	0		S	sg n
   	oma	0		S	sg p
kaubeldud	kauple	dud		V	tud
         	kaubel=du	d		S	pl n
         	kaubel=dud	0		A	
         	kaubel=dud	0		A	sg n
         	kaubel=dud	d		A	pl n
palk	palk	0		S	sg n
summa	summ	0		S	adt
     	summ	0		S	sg g
     	summ	0		S	sg p
     	summa	0		S	sg g
     	summa	0		S	sg n
19	19	0		N	?
rubla	rubla	0		S	sg g
     	rubla	0		S	sg n
     	rubla	0		S	sg p
tagasi	tagasi	0		D	
      	tagasi	0		K	
kahe	kaks	0		N	sg g
nädala	nädal	0		S	sg g
pärast	pära	st		S	sg el
      	pärane	t		A	sg p
      	pärast	0		D	
      	pärast	0		K	
maksma	maks	ma		V	ma
.	.			Z	
kohtu	kohtu	0		V	o
     	kohus	0		S	sg g
lauas	laud	s		S	sg in
olid	ole	id		V	sid
:	:			Z	
peakohtumees	pea_kohtu_mees	0		S	sg n
Johan	Johan	0		H	sg n
Mina	mina	0		P	sg n
    	mina	0		S	sg g
    	mina	0		S	sg n
    	mina	0		S	sg p
abi	abi	0		S	sg g
   	abi	0		S	sg n
   	abi	0		S	sg p
""""	""""			Z	
Johan	Johan	0		H	sg n
rasva	rasv	0		S	adt
     	rasv	0		S	sg g
     	rasva	0		D	
     	rasva	0		V	o
     	rasv	0		S	sg p
abi	abi	0		S	sg g
   	abi	0		S	sg n
   	abi	0		S	sg p
""""	""""			Z	
Jaan	Jaan	0		H	sg n
    	jaan	0		S	sg n
    	jaan	0		Y	?
poeadderson	####				
Jüri	Jüri	0		H	sg g
    	Jüri	0		H	sg n
Klaos	####				
võttis	võt	is		V	s
protocol	####				
sel	see	l		P	sg ad
   	sel	0		Y	?
14mal	####				
juulil	juuli	l		S	sg ad
kogukonna	kogukond	0		S	sg g
kohtust	kohtune	t		A	sg p
       	kohus	st		S	sg el
välja	välja	0		D	
     	välja	0		V	o
     	väli	0		S	adt
     	väli	0		S	sg g
     	väli	0		S	sg p
.	.			Z	
kogukonna	kogukond	0		S	sg g
kohtu	kohtu	0		V	o
     	kohus	0		S	sg g
kirjutaja	kirjutaja	0		S	sg g
         	kirjutaja	0		S	sg n
V. Kogi	####				
/	/			Z	
allkiri	all_kiri	0		S	sg n
/	/			Z	
