Hendrik	Hendrik	0		H	sg n
Must	must	0		A	sg n
    	must	0		S	sg n
    	mina	st		P	sg el
kaebas	kaeba	s		V	s
,	,			Z	
et	et	0		J	
temal	tema	l		P	sg ad
Jaan	Jaan	0		H	sg n
    	jaan	0		S	sg n
    	jaan	0		Y	?
Nagla	####				
käest	käest	0		K	
     	käsi	st		S	sg el
6	6	0		N	?
rubla	rubla	0		S	sg g
     	rubla	0		S	sg n
     	rubla	0		S	sg p
saada	saa	da		V	da
     	saat	0		V	o
     	saa	da		V	ta
on	ole	0		V	b
  	ole	0		V	vad
,	,			Z	
mis	mis	0		P	pl n
   	mis	0		P	sg n
see	see	0		P	sg n
palga	palk	0		S	sg g
seletamise	seletamine	0		S	sg g
juures	juur	s		S	sg in
      	juures	0		D	
      	juures	0		K	
tema	tema	0		P	sg g
    	tema	0		P	sg n
võlgade	võlg	de		S	pl g
tasumiseks	tasumine	ks		S	sg tr
palgaks	palk	ks		S	sg tr
maksmata	maks	mata		V	mata
        	maks=mata	0		A	
on	ole	0		V	b
  	ole	0		V	vad
jätnud	jät	nud		V	nud
      	jät=nu	d		S	pl n
      	jät=nud	0		A	
      	jät=nud	0		A	sg n
      	jät=nud	d		A	pl n
;	;			Z	
et	et	0		J	
aga	aga	0		J	
Nagel	####				
midagi	miski	dagi		P	sg p
tema	tema	0		P	sg g
    	tema	0		P	sg n
võlgadest	võlg	dest		S	pl el
tasunud	tasu	nud		V	nud
       	tasu=nu	d		S	pl n
       	tasu=nud	0		A	
       	tasu=nud	0		A	sg n
       	tasu=nud	d		A	pl n
ei	ei	0		D	
  	ei	0		V	neg
ole	ole	0		V	o
,	,			Z	
nõuab	nõud	b		V	b
tema	tema	0		P	sg g
    	tema	0		P	sg n
seda	see	da		P	sg p
raha	raha	0		S	sg g
    	raha	0		S	sg n
    	raha	0		S	sg p
kätte	kätte	0		K	
     	käsi	tte		S	adt
.	.			Z	
Jaan	Jaan	0		H	sg n
    	jaan	0		S	sg n
    	jaan	0		Y	?
Nagel	####				
,	,			Z	
Rasinalt	####				
,	,			Z	
salgab	salga	b		V	b
Hendrik	Hendrik	0		H	sg n
Musta	must	0		A	adt
     	must	0		A	sg g
     	must	0		S	adt
     	must	0		S	sg g
     	musta	0		V	o
     	must	0		A	sg p
     	must	0		S	sg p
palka	palk	0		S	adt
     	palka	0		V	o
     	palk	0		S	sg p
kinni	kinni	0		D	
pidanud	pida	nud		V	nud
       	pida=nu	d		S	pl n
       	pida=nud	0		A	
       	pida=nud	0		A	sg n
       	pida=nud	d		A	pl n
olevat	ole	vat		V	vat
      	olev	t		A	sg p
      	olev	t		S	sg p
.	.			Z	
Mõiste	mõiste	0		S	sg g
      	mõiste	0		S	sg n
:	:			Z	
Hendrik	Hendrik	0		H	sg n
Mustal	must	l		A	sg ad
      	must	l		S	sg ad
ei	ei	0		D	
  	ei	0		V	neg
ole	ole	0		V	o
Jaan	Jaan	0		H	sg n
    	jaan	0		S	sg n
    	jaan	0		Y	?
Nagla	####				
käest	käest	0		K	
     	käsi	st		S	sg el
midagi	miski	dagi		P	sg p
nõudmist	nõudmine	t		S	sg p
.	.			Z	
kohtumees	kohtu_mees	0		S	sg n
:	:			Z	
P. Hendrikson	####				
XXX	XXX	0		O	?
   	XXX	0		Y	?
kohtumees	kohtu_mees	0		S	sg n
:	:			Z	
K. Vosmann	####				
XXX	XXX	0		O	?
   	XXX	0		Y	?
kohtumees	kohtu_mees	0		S	sg n
:	:			Z	
J. Klaosoon	####				
kohtumees	kohtu_mees	0		S	sg n
:	:			Z	
mõiste	mõiste	0		S	sg g
      	mõiste	0		S	sg n
sai	saa	i		V	s
   	sai	0		S	sg n
kohtukäijatele	kohtu_käija	tele		S	pl all
kuulutatud	kuuluta	tud		V	tud
          	kuuluta=tu	d		S	pl n
          	kuuluta=tud	0		A	
          	kuuluta=tud	0		A	sg n
          	kuuluta=tud	d		A	pl n
T	T	0		Y	?
.	.			Z	
S	S	0		Y	?
.	.			Z	
R	R	0		Y	?
.	.			Z	
§	§	0		Y	?
772	772	0		N	?
-	-			Z	
774	774	0		N	?
järele	järele	0		D	
      	järele	0		K	
aastast	aasta	st		S	sg el
       	aastane	t		A	sg p
1860	1860	0		N	?
ja	ja	0		J	
õpus	####				
antud	an=tu	d		S	pl n
     	and	tud		V	tud
     	antud	0		A	
     	antud	0		A	sg n
     	antud	d		A	pl n
,	,			Z	
mis	mis	0		P	pl n
   	mis	0		P	sg n
tähele	täht	le		S	sg all
      	tähele	0		X	
panna	pand	0		S	sg g
     	pane	a		V	da
     	panna	0		S	sg g
     	panna	0		S	sg n
tuleb	tule	b		V	b
,	,			Z	
kui	kui	0		D	
   	kui	0		J	
keegi	kee	0	gi	S	sg g
     	kee	0	gi	V	o
     	keegi	0		P	sg n
     	kee	0	gi	S	sg n
kõrgemat	kõrgem	t		C	sg p
        	kõrgem	t		S	sg p
kohut	kohus	t		S	sg p
nõuab	nõud	b		V	b
ja	ja	0		J	
ei	ei	0		D	
  	ei	0		V	neg
olnud	ol=nud	0		A	
     	ol=nud	0		A	sg n
     	ol=nud	d		A	pl n
     	ole	nud		V	nud
     	olnu	d		S	pl n
Hendrik	Hendrik	0		H	sg n
Must	must	0		A	sg n
    	must	0		S	sg n
    	mina	st		P	sg el
rahul	rahu	l		S	sg ad
     	rahul	0		D	
.	.			Z	
kirjutaja	kirjutaja	0		S	sg g
         	kirjutaja	0		S	sg n
:	:			Z	
Ch	####				
Kapp	kapp	0		S	sg n
allkiri	all_kiri	0		S	sg n
12	12	0		N	?
Juunil	juuni	l		S	sg ad
k	k	0		Y	?
.	.			Z	
k	k	0		Y	?
.	.			Z	
sisse	siss	e		S	pl p
     	sisse	0		D	
     	sisse	0		K	
saada	saa	da		V	da
     	saat	0		V	o
     	saa	da		V	ta
.	.			Z	
