Tänasel	tänane	l		A	sg ad
päeval	päev	l		S	sg ad
sai	saa	i		V	s
   	sai	0		S	sg n
ärasurnud	ära_surnu	d		S	pl n
         	ära_surnud	0		A	
         	ära_surnud	0		A	sg n
         	ära_surnud	d		A	pl n
Hendrik	Hendrik	0		H	sg n
Sarviku	sarvik	0		S	sg g
lastele	laps	tele		S	pl all
Josep	####				
ja	ja	0		J	
Liisa	Liisa	0		H	sg g
     	Liisa	0		H	sg n
Sarvikule	sarvik	le		S	sg all
nii	nii	0		D	
kui	kui	0		D	
   	kui	0		J	
ka	ka	0		D	
lesele	lesk	le		S	sg all
Kadri	Kadri	0		H	sg g
     	Kadri	0		H	sg n
     	kadri	0		S	sg g
     	kadri	0		S	sg n
võõrmündriks	####				
säetud	####				
Hendrik	Hendrik	0		H	sg n
Horn	####				
nagu	nagu	0		D	
    	nagu	0		J	
laste	laps	te		S	pl g
     	last	e		S	pl p
ja	ja	0		J	
Josep	####				
Sarvi	sarv	i		S	pl p
nagu	nagu	0		D	
    	nagu	0		J	
lesele	lesk	le		S	sg all
.	.			Z	
Varandust	varandus	t		S	sg p
ei	ei	0		D	
  	ei	0		V	neg
ole	ole	0		V	o
seal	seal	0		D	
    	siga	l		A	sg ad
    	siga	l		S	sg ad
mitte	mitte	0		D	
.	.			Z	
Otsus	otsus	0		S	sg n
.	.			Z	
Seda	see	da		P	sg p
protokoli	####				
ülestähentud	####				
.	.			Z	
Peakohtumees	pea_kohtu_mees	0		S	sg n
J. Sarvi	####				
.	.			Z	
kohtumees	kohtu_mees	0		S	sg n
J. Stam	####				
.	.			Z	
kohtumees	kohtu_mees	0		S	sg n
M. Piiri	####				
.	.			Z	
Kirjutaja	kirjutaja	0		S	sg g
         	kirjutaja	0		S	sg n
allkiri	all_kiri	0		S	sg n
mitteloetav	mitte_loetav	0		A	sg n
.	.			Z	
