sel	see	l		P	sg ad
   	sel	0		Y	?
11	11	0		N	?
juulil	juuli	l		S	sg ad
1875	1875	0		N	?
koos	koos	0		D	
    	koos	0		K	
    	koos	0		S	sg n
    	kubu	s		S	sg in
olid	ole	id		V	sid
peakohtumees	pea_kohtu_mees	0		S	sg n
Josep	####				
Kask	kask	0		S	sg n
teine	teine	0		O	sg n
     	teine	0		P	sg n
kohtumees	kohtu_mees	0		S	sg n
Maddis	####				
Sildnik	####				
kolmas	kolmas	0		O	sg n
kohtumees	kohtu_mees	0		S	sg n
Jaan	Jaan	0		H	sg n
    	jaan	0		S	sg n
    	jaan	0		Y	?
Mänd	mänd	0		S	sg n
Metsavaht	metsa_vaht	0		S	sg n
Josep	####				
kalaus	####				
kaebas	kaeba	s		V	s
et	et	0		J	
tema	tema	0		P	sg g
    	tema	0		P	sg n
karjapois	karja_poi	s		S	sg in
Jaan	Jaan	0		H	sg n
    	jaan	0		S	sg n
    	jaan	0		Y	?
Paas	paa	s		A	sg in
    	paa	s		S	sg in
    	paas	0		S	sg n
on	ole	0		V	b
  	ole	0		V	vad
oma	oma	0		A	sg g
   	oma	0		D	
   	oma	0		P	sg g
   	oma	0		S	sg g
   	oma	0		V	o
   	oma	0		A	sg n
   	oma	0		A	sg p
   	oma	0		P	sg n
   	oma	0		P	sg p
   	oma	0		S	sg n
   	oma	0		S	sg p
voliga	voli	ga		S	sg kom
ära	ära	0		D	
   	ära	0		V	neg o
lähud	####				
ning	ning	0		J	
et	et	0		J	
selle	see	0		P	sg g
     	sell	e		S	pl p
poisi	poiss	0		S	sg g
ema	ema	0		S	sg g
   	ema	0		S	sg n
   	ema	0		S	sg p
Liisu	liisk	0		S	sg g
     	liisu	0		V	o
Paas	paa	s		A	sg in
    	paa	s		S	sg in
    	paas	0		S	sg n
seda	see	da		P	sg p
poisi	poiss	0		S	sg g
enamb	####				
tagasi	tagasi	0		D	
      	tagasi	0		K	
ei	ei	0		D	
  	ei	0		V	neg
sada	sada	0		N	sg n
    	sada	0		N	sg p
.	.			Z	
siis	siis	0		D	
    	siis	0		J	
palub	palu	b		V	b
tema	tema	0		P	sg g
    	tema	0		P	sg n
kogukonnakohut	kogukonna_kohus	t		S	sg p
et	et	0		J	
tema	tema	0		P	sg g
    	tema	0		P	sg n
tahab	taht	b		V	b
se	####				
karja	kari	0		S	adt
     	kari	0		S	sg g
     	kari	0		S	sg p
pois	poi	s		S	sg in
tagasi	tagasi	0		D	
      	tagasi	0		K	
saada	saa	da		V	da
     	saat	0		V	o
     	saa	da		V	ta
.	.			Z	
Jaan	Jaan	0		H	sg n
    	jaan	0		S	sg n
    	jaan	0		Y	?
Paas	paa	s		A	sg in
    	paa	s		S	sg in
    	paas	0		S	sg n
räkis	####				
oma	oma	0		A	sg g
   	oma	0		D	
   	oma	0		P	sg g
   	oma	0		S	sg g
   	oma	0		V	o
   	oma	0		A	sg n
   	oma	0		A	sg p
   	oma	0		P	sg n
   	oma	0		P	sg p
   	oma	0		S	sg n
   	oma	0		S	sg p
ema	ema	0		S	sg g
   	ema	0		S	sg n
   	ema	0		S	sg p
ja	ja	0		J	
Toomas	Toomas	0		H	sg n
      	Toomas	s		H	sg in
      	too	mas		V	mas
Leppa	lepp	0		S	adt
     	lepp	0		S	sg p
kostmise	kostmine	0		S	sg g
all	all	0		D	
   	all	0		K	
;	;			Z	
et	et	0		J	
tema	tema	0		P	sg g
    	tema	0		P	sg n
ei	ei	0		D	
  	ei	0		V	neg
ole	ole	0		V	o
süia	####				
saanud	saa	nud		V	nud
      	saa=nud	0		A	
      	saa=nud	0		A	sg n
      	saa=nud	d		A	pl n
      	saanu	d		S	pl n
ning	ning	0		J	
on	ole	0		V	b
  	ole	0		V	vad
perenaine	pere_naine	0		S	sg n
alat	####				
temaga	tema	ga		P	sg kom
taplenud	####				
ja	ja	0		J	
ära	ära	0		D	
   	ära	0		V	neg o
ajanud	aja	nud		V	nud
      	aja=nu	d		S	pl n
      	aja=nud	0		A	
      	aja=nud	0		A	sg n
      	aja=nud	d		A	pl n
ja	ja	0		J	
et	et	0		J	
tema	tema	0		P	sg g
    	tema	0		P	sg n
koer	koer	0		A	sg n
    	koer	0		S	sg n
on	ole	0		V	b
  	ole	0		V	vad
seal	seal	0		D	
    	siga	l		A	sg ad
    	siga	l		S	sg ad
ära	ära	0		D	
   	ära	0		V	neg o
tappetud	tappe=tu	d		A	pl n
,	,			Z	
siis	siis	0		D	
    	siis	0		J	
on	ole	0		V	b
  	ole	0		V	vad
tema	tema	0		P	sg g
    	tema	0		P	sg n
ära	ära	0		D	
   	ära	0		V	neg o
tulnud	tul=nud	0		A	
      	tul=nud	0		A	sg n
      	tul=nud	d		A	pl n
      	tule	nud		V	nud
      	tulnu	d		S	pl n
.	.			Z	
Liisu	liisk	0		S	sg g
     	liisu	0		V	o
Paas	paa	s		A	sg in
    	paa	s		S	sg in
    	paas	0		S	sg n
tunnistas	tunnista	s		V	s
et	et	0		J	
tema	tema	0		P	sg g
    	tema	0		P	sg n
oma	oma	0		A	sg g
   	oma	0		D	
   	oma	0		P	sg g
   	oma	0		S	sg g
   	oma	0		V	o
   	oma	0		A	sg n
   	oma	0		A	sg p
   	oma	0		P	sg n
   	oma	0		P	sg p
   	oma	0		S	sg n
   	oma	0		S	sg p
poega	poeg	0		S	adt
     	pood	ga		S	sg kom
     	poeg	0		S	sg p
ei	ei	0		D	
  	ei	0		V	neg
lase	lask	0		V	o
    	lase	0		S	sg n
enamb	####				
Josep	####				
kalause	####				
juure	juur	0		S	sg g
karja	kari	0		S	adt
     	kari	0		S	sg g
     	kari	0		S	sg p
mina	mina	0		P	sg n
    	mina	0		S	sg g
    	mina	0		S	sg n
    	mina	0		S	sg p
ja	ja	0		J	
tehku	tege	ku		V	gu
kogukonnakohus	kogukonna_kohus	0		S	sg n
mis	mis	0		P	pl n
   	mis	0		P	sg n
tahab	taht	b		V	b
,	,			Z	
ja	ja	0		J	
kisendas	kisenda	s		V	s
kohtu	kohtu	0		V	o
     	kohus	0		S	sg g
toas	tuba	s		S	sg in
valjuste	valjus	te		S	pl g
.	.			Z	
Josep	####				
kalaus	####				
räkis	####				
et	et	0		J	
se	####				
koer	koer	0		A	sg n
    	koer	0		S	sg n
on	ole	0		V	b
  	ole	0		V	vad
haigest	haige	st		A	sg el
       	haige	st		S	sg el
saanud	saa	nud		V	nud
      	saa=nud	0		A	
      	saa=nud	0		A	sg n
      	saa=nud	d		A	pl n
      	saanu	d		S	pl n
ja	ja	0		J	
siis	siis	0		D	
    	siis	0		J	
ära	ära	0		D	
   	ära	0		V	neg o
surnud	surnu	d		S	pl n
      	surnud	0		A	
      	surnud	0		A	sg n
      	surnud	d		A	pl n
      	sure	nud		V	nud
.	.			Z	
ning	ning	0		J	
on	ole	0		V	b
  	ole	0		V	vad
se	####				
koer	koer	0		A	sg n
    	koer	0		S	sg n
kõik	kõik	0		P	pl n
    	kõik	0		S	sg n
    	kõik	0		P	sg n
tema	tema	0		P	sg g
    	tema	0		P	sg n
elajad	elajas	d		S	pl n
verisest	verine	st		A	sg el
kiskunud	kisku	nud		V	nud
        	kisku=nu	d		S	pl n
        	kisku=nud	0		A	
        	kisku=nud	0		A	sg n
        	kisku=nud	d		A	pl n
.	.			Z	
ja	ja	0		J	
ei	ei	0		D	
  	ei	0		V	neg
tahagi	taht	0	gi	V	o
      	taha	0	gi	D	
      	taha	0	gi	K	
tema	tema	0		P	sg g
    	tema	0		P	sg n
enamb	####				
seda	see	da		P	sg p
poisi	poiss	0		S	sg g
tagasi	tagasi	0		D	
      	tagasi	0		K	
.	.			Z	
kui	kui	0		D	
   	kui	0		J	
ema	ema	0		S	sg g
   	ema	0		S	sg n
   	ema	0		S	sg p
temale	tema	le		P	sg all
nõnda	nõnda	0		D	
suure	suur	0		A	sg g
õiguse	õigus	0		S	sg g
annab	and	b		V	b
.	.			Z	
Moistus	####				
et	et	0		J	
Liisu	liisk	0		S	sg g
     	liisu	0		V	o
Paas	paa	s		A	sg in
    	paa	s		S	sg in
    	paas	0		S	sg n
kohtu	kohtu	0		V	o
     	kohus	0		S	sg g
toas	tuba	s		S	sg in
kisendanud	kisenda	nud		V	nud
          	kisenda=nu	d		S	pl n
          	kisenda=nud	0		A	
          	kisenda=nud	0		A	sg n
          	kisenda=nud	d		A	pl n
ja	ja	0		J	
ütlenud	####				
et	et	0		J	
tema	tema	0		P	sg g
    	tema	0		P	sg n
oma	oma	0		A	sg g
   	oma	0		D	
   	oma	0		P	sg g
   	oma	0		S	sg g
   	oma	0		V	o
   	oma	0		A	sg n
   	oma	0		A	sg p
   	oma	0		P	sg n
   	oma	0		P	sg p
   	oma	0		S	sg n
   	oma	0		S	sg p
poega	poeg	0		S	adt
     	pood	ga		S	sg kom
     	poeg	0		S	sg p
enamb	####				
tenima	####				
mina	mina	0		P	sg n
    	mina	0		S	sg g
    	mina	0		S	sg n
    	mina	0		S	sg p
ei	ei	0		D	
  	ei	0		V	neg
lase	lask	0		V	o
    	lase	0		S	sg n
ja	ja	0		J	
selle	see	0		P	sg g
     	sell	e		S	pl p
viisi	viis	0		S	adt
     	viis	0		S	sg g
     	viis	i		N	pl p
     	viisi	0		K	
     	viis	0		S	sg p
peal	pea	l		S	sg ad
    	peal	0		D	
    	peal	0		K	
oma	oma	0		A	sg g
   	oma	0		D	
   	oma	0		P	sg g
   	oma	0		S	sg g
   	oma	0		V	o
   	oma	0		A	sg n
   	oma	0		A	sg p
   	oma	0		P	sg n
   	oma	0		P	sg p
   	oma	0		S	sg n
   	oma	0		S	sg p
last	laps	t		S	sg p
    	last	0		S	sg n
veltsima	####				
õppab	õppa	b		V	b
,	,			Z	
siis	siis	0		D	
    	siis	0		J	
saab	saa	b		V	b
tema	tema	0		P	sg g
    	tema	0		P	sg n
selle	see	0		P	sg g
     	sell	e		S	pl p
kangekaelsuse	kange_kaelsus	0		S	sg g
eest	eest	0		D	
    	eest	0		K	
    	esi	st		S	sg el
24	24	0		N	?
tunni	tund	0		S	sg g
peale	pea	le		S	sg all
     	peale	0		D	
     	peale	0		K	
trahvist	trahv	st		S	sg el
kinni	kinni	0		D	
moistetud	####				
.	.			Z	
ja	ja	0		J	
peab	pida	b		V	b
8	8	0		N	?
päeva	päev	0		S	adt
     	päev	0		S	sg g
     	päev	0		S	sg p
pärast	pära	st		S	sg el
      	pärane	t		A	sg p
      	pärast	0		D	
      	pärast	0		K	
seie	####				
teada	tead	a		V	da
andma	and	ma		V	ma
kas	kas	0		D	
tema	tema	0		P	sg g
    	tema	0		P	sg n
oma	oma	0		A	sg g
   	oma	0		D	
   	oma	0		P	sg g
   	oma	0		S	sg g
   	oma	0		V	o
   	oma	0		A	sg n
   	oma	0		A	sg p
   	oma	0		P	sg n
   	oma	0		P	sg p
   	oma	0		S	sg n
   	oma	0		S	sg p
pojale	poeg	le		S	sg all
      	poja	le		S	sg all
uus	uus	0		A	sg n
tenistus	####				
muretsenud	muretse	nud		V	nud
          	muretse=nu	d		S	pl n
          	muretse=nud	0		A	
          	muretse=nud	0		A	sg n
          	muretse=nud	d		A	pl n
Josep	####				
Kask	kask	0		S	sg n
XXX	XXX	0		O	?
   	XXX	0		Y	?
Maddis	####				
Sildnik	####				
XXX	XXX	0		O	?
   	XXX	0		Y	?
Jaan	Jaan	0		H	sg n
    	jaan	0		S	sg n
    	jaan	0		Y	?
Mand	####				
XXX	XXX	0		O	?
   	XXX	0		Y	?
