see	see	0		P	sg n
nekrut	nekrut	0		S	sg n
Jaan	Jaan	0		H	sg n
    	jaan	0		S	sg n
    	jaan	0		Y	?
Tenn	####				
nõuab	nõud	b		V	b
selle	see	0		P	sg g
     	sell	e		S	pl p
peremehe	pere_mees	0		S	sg g
Kondi	kont	0		S	sg g
Kusta	Kusta	0		H	sg g
     	Kusta	0		H	sg n
     	kuse	ta		V	da
     	kuse	ta		V	ta
Vassila	####				
käest	käest	0		K	
     	käsi	st		S	sg el
5	5	0		N	?
vikatid	vikat	d		S	pl n
.	.			Z	
Kusta	Kusta	0		H	sg g
     	Kusta	0		H	sg n
     	kuse	ta		V	da
     	kuse	ta		V	ta
Vassila	####				
vastutab	vastuta	b		V	b
,	,			Z	
et	et	0		J	
tema	tema	0		P	sg g
    	tema	0		P	sg n
ei	ei	0		D	
  	ei	0		V	neg
olevat	ole	vat		V	vat
      	olev	t		A	sg p
      	olev	t		S	sg p
kunagi	kunagi	0		D	
Jaan	Jaan	0		H	sg n
    	jaan	0		S	sg n
    	jaan	0		Y	?
Tenni	####				
käest	käest	0		K	
     	käsi	st		S	sg el
vikatid	vikat	d		S	pl n
saanud	saa	nud		V	nud
      	saa=nud	0		A	
      	saa=nud	0		A	sg n
      	saa=nud	d		A	pl n
      	saanu	d		S	pl n
.	.			Z	
mõistus	mõistus	0		S	sg n
:	:			Z	
Jaan	Jaan	0		H	sg n
    	jaan	0		S	sg n
    	jaan	0		Y	?
Tenn	####				
ei	ei	0		D	
  	ei	0		V	neg
või	või	0		S	sg g
   	või	0		V	o
   	või	0		D	
   	või	0		J	
   	või	0		S	sg n
selgeks	selge	ks		A	sg tr
teha	tege	a		V	da
,	,			Z	
et	et	0		J	
tema	tema	0		P	sg g
    	tema	0		P	sg n
vikatid	vikat	d		S	pl n
Kusta	Kusta	0		H	sg g
     	Kusta	0		H	sg n
     	kuse	ta		V	da
     	kuse	ta		V	ta
Vassila	####				
kätte	kätte	0		K	
     	käsi	tte		S	adt
andnut	and=nu	t		S	sg p
,	,			Z	
ei	ei	0		D	
  	ei	0		V	neg
või	või	0		S	sg g
   	või	0		V	o
   	või	0		D	
   	või	0		J	
   	või	0		S	sg n
tema	tema	0		P	sg g
    	tema	0		P	sg n
kah	kah	0		D	
sellepärast	selle_pärast	0		D	
kedagi	keegi	dagi		P	sg p
näida	näi	da		V	da
     	näi	da		V	ta
,	,			Z	
vaid	vaid	0		D	
    	vaid	0		J	
piab	####				
rahul	rahu	l		S	sg ad
     	rahul	0		D	
jääma	jää	ma		V	ma
     	jääm	0		S	adt
     	jääm	0		S	sg g
     	jääm	0		S	sg p
.	.			Z	
kohtumees	kohtu_mees	0		S	sg n
Jaan	Jaan	0		H	sg n
    	jaan	0		S	sg n
    	jaan	0		Y	?
Virro	####				
XXX	XXX	0		O	?
   	XXX	0		Y	?
kohtumees	kohtu_mees	0		S	sg n
Jüri	Jüri	0		H	sg g
    	Jüri	0		H	sg n
Luha	luht	0		S	sg g
XXX	XXX	0		O	?
   	XXX	0		Y	?
kohtumees	kohtu_mees	0		S	sg n
Jüri	Jüri	0		H	sg g
    	Jüri	0		H	sg n
kärn	kärn	0		S	sg n
XXX	XXX	0		O	?
   	XXX	0		Y	?
mõistus	mõistus	0		S	sg n
sai	saa	i		V	s
   	sai	0		S	sg n
kuulutud	kuulu	tud		V	tud
        	kuulu=tu	d		S	pl n
        	kuulu=tud	0		A	
        	kuulu=tud	0		A	sg n
        	kuulu=tud	d		A	pl n
ning	ning	0		J	
suurema	suurem	0		C	sg g
kohtukäimise	kohtu_käimine	0		S	sg g
õppetuse	õppe=tus	0		S	sg g
kiri	kiri	0		S	sg n
välja	välja	0		D	
     	välja	0		V	o
     	väli	0		S	adt
     	väli	0		S	sg g
     	väli	0		S	sg p
andud	andu	d		V	d
.	.			Z	
