sel	see	l		P	sg ad
   	sel	0		Y	?
.	.			Z	
15	15	0		N	?
Dcmbril	####				
187.8	187.8	0		N	?
koos	koos	0		D	
    	koos	0		K	
    	koos	0		S	sg n
    	kubu	s		S	sg in
olid	ole	id		V	sid
peakohtumees	pea_kohtu_mees	0		S	sg n
Josep	####				
Laurison	####				
teine	teine	0		O	sg n
     	teine	0		P	sg n
kohtomees	####				
Jaan	Jaan	0		H	sg n
    	jaan	0		S	sg n
    	jaan	0		Y	?
Mänd	mänd	0		S	sg n
kolmas	kolmas	0		O	sg n
kohtomees	####				
Jüri	Jüri	0		H	sg g
    	Jüri	0		H	sg n
Tomi	Tom	0		H	adt
    	Tom	0		H	sg g
    	Tom	0		H	sg p
Toomas	Toomas	0		H	sg n
      	Toomas	s		H	sg in
      	too	mas		V	mas
Müür	müür	0		S	sg n
ja	ja	0		J	
Mihkel	Mihkel	0		H	sg n
      	mihkel	0		A	sg n
      	mihkel	0		S	sg n
Müür	müür	0		S	sg n
maksid	maks	id		V	sid
      	maksi	d		S	pl n
õesi	####				
ümber	ümber	0		D	
     	ümber	0		K	
hulkumise	hulkumine	0		S	sg g
eest	eest	0		D	
    	eest	0		K	
    	esi	st		S	sg el
kumbki	kumbki	0		P	sg n
2	2	0		N	?
rubla	rubla	0		S	sg g
     	rubla	0		S	sg n
     	rubla	0		S	sg p
.	.			Z	
Summa	summ	0		S	adt
     	summ	0		S	sg g
     	summ	0		S	sg p
     	summa	0		S	sg g
     	summa	0		S	sg n
4	4	0		N	?
rubla	rubla	0		S	sg g
     	rubla	0		S	sg n
     	rubla	0		S	sg p
valla	vald	0		S	sg g
     	valla	0		D	
laeka	laegas	0		S	adt
     	laegas	0		S	sg g
trahvi	trahv	0		S	adt
      	trahv	0		S	sg g
      	trahvi	0		V	o
      	trahv	0		S	sg p
.	.			Z	
Josep	####				
Laurison	####				
XXX	XXX	0		O	?
   	XXX	0		Y	?
Jaan	Jaan	0		H	sg n
    	jaan	0		S	sg n
    	jaan	0		Y	?
Mänd	mänd	0		S	sg n
XXX	XXX	0		O	?
   	XXX	0		Y	?
Jüri	Jüri	0		H	sg g
    	Jüri	0		H	sg n
Tomi	Tom	0		H	adt
    	Tom	0		H	sg g
    	Tom	0		H	sg p
XXX	XXX	0		O	?
   	XXX	0		Y	?
