Prigoshinide	####				
päranduse	pärandus	0		S	sg g
asi	asi	0		S	sg n
   	asi	0		V	o
.	.			Z	
Keiserlikko	####				
I	I	0		O	?
 	I	0		Y	?
 	j	0		Y	?
Tartu	Tartu	0		H	adt
     	Tartu	0		H	sg g
     	Tartu	0		H	sg n
     	tartu	0		G	
Kihelkonna	Kihelkonna	0		H	sg g
          	kihelkond	0		S	sg g
          	Kihelkonna	0		H	sg n
Kohtu	kohtu	0		V	o
     	kohus	0		S	sg g
käsu	käsk	0		S	sg g
peale	pea	le		S	sg all
     	peale	0		D	
     	peale	0		K	
,	,			Z	
mis	mis	0		P	pl n
   	mis	0		P	sg n
moisa	####				
valitsusele	valitsus	le		S	sg all
13.	13.	0		O	?
vebruari	####				
s	s	0		Y	?
.	.			Z	
a	a	0		Y	?
N 298	N298	0		Y	?
al	####				
on	ole	0		V	b
  	ole	0		V	vad
antud	an=tu	d		S	pl n
     	and	tud		V	tud
     	antud	0		A	
     	antud	0		A	sg n
     	antud	d		A	pl n
,	,			Z	
kutsuti	kutsu	ti		V	ti
pärimise	pärimine	0		S	sg g
asja	asi	0		S	adt
    	asi	0		S	sg g
    	asi	0		S	sg p
pärast	pära	st		S	sg el
      	pärane	t		A	sg p
      	pärast	0		D	
      	pärast	0		K	
ette	ette	0		D	
    	ette	0		K	
    	esi	tte		S	adt
edokevia	####				
Ivanovna	####				
,	,			Z	
kes	kes	0		P	pl n
   	kes	0		P	sg n
1854	1854	0		N	?
aastal	aasta	l		S	sg ad
surnud	surnu	d		S	pl n
      	surnud	0		A	
      	surnud	0		A	sg n
      	surnud	d		A	pl n
      	sure	nud		V	nud
Mitau	####				
lina	lina	0		S	sg g
    	lina	0		S	sg n
    	lina	0		S	sg p
antvergiga	####				
,	,			Z	
raskolnik	raskolnik	0		S	sg n
Aaverjan	####				
Alesejev	####				
Prigoshiniga	####				
kous	####				
elanud	ela	nud		V	nud
      	ela=nu	d		S	pl n
      	ela=nud	0		A	
      	ela=nud	0		A	sg n
      	ela=nud	d		A	pl n
,	,			Z	
oma	oma	0		A	sg g
   	oma	0		D	
   	oma	0		P	sg g
   	oma	0		S	sg g
   	oma	0		V	o
   	oma	0		A	sg n
   	oma	0		A	sg p
   	oma	0		P	sg n
   	oma	0		P	sg p
   	oma	0		S	sg n
   	oma	0		S	sg p
eestkostja	eest_kostja	0		S	sg g
          	eest_kostja	0		S	sg n
Ivan	Ivan	0		H	sg n
Aarsemjehvega	####				
ühelt	üks	lt		N	sg abl
     	üks	lt		P	sg abl
poolt	pool	t		N	sg p
     	pool	t		S	sg p
     	poolt	0		D	
     	poolt	0		K	
,	,			Z	
ja	ja	0		J	
tema	tema	0		P	sg g
    	tema	0		P	sg n
surnud	surnu	d		S	pl n
      	surnud	0		A	
      	surnud	0		A	sg n
      	surnud	d		A	pl n
      	sure	nud		V	nud
kouselaja	####				
ema	ema	0		S	sg g
   	ema	0		S	sg n
   	ema	0		S	sg p
Maria	Maria	0		H	sg g
     	Maria	0		H	sg n
Ivanovna	####				
oma	oma	0		A	sg g
   	oma	0		D	
   	oma	0		P	sg g
   	oma	0		S	sg g
   	oma	0		V	o
   	oma	0		A	sg n
   	oma	0		A	sg p
   	oma	0		P	sg n
   	oma	0		P	sg p
   	oma	0		S	sg n
   	oma	0		S	sg p
eestkostja	eest_kostja	0		S	sg g
          	eest_kostja	0		S	sg n
Jegor	####				
Aleksejev	Aleksejev	0		H	sg n
Prigoshiniga	####				
,	,			Z	
kes	kes	0		P	pl n
   	kes	0		P	sg n
tema	tema	0		P	sg g
    	tema	0		P	sg n
poeg	poeg	0		S	sg n
,	,			Z	
teiselt	teine	lt		O	sg abl
       	teine	lt		P	sg abl
poolt	pool	t		N	sg p
     	pool	t		S	sg p
     	poolt	0		D	
     	poolt	0		K	
.	.			Z	
Jevdokija	####				
Ivanovna	####				
tõstis	tõst	is		V	s
kaibdust	####				
oma	oma	0		A	sg g
   	oma	0		D	
   	oma	0		P	sg g
   	oma	0		S	sg g
   	oma	0		V	o
   	oma	0		A	sg n
   	oma	0		A	sg p
   	oma	0		P	sg n
   	oma	0		P	sg p
   	oma	0		S	sg n
   	oma	0		S	sg p
kouselaja	####				
mehe	mees	0		S	sg g
ema	ema	0		S	sg g
   	ema	0		S	sg n
   	ema	0		S	sg p
vasto	####				
ja	ja	0		J	
andis	and	is		V	s
ulles	####				
.	.			Z	
Tema	tema	0		P	sg g
    	tema	0		P	sg n
,	,			Z	
Jevdokija	####				
,	,			Z	
ole	ole	0		V	o
kevvadel	####				
1854	1854	0		N	?
aastal	aasta	l		S	sg ad
Aaverjan	####				
Aleksejehviga	####				
kokku	kokku	0		D	
     	kogu	0		S	adt
elama	ela	ma		V	ma
läinud	läinu	d		S	pl n
      	läinud	0		A	
      	läinud	0		A	sg n
      	läinud	d		A	pl n
      	mine	nud		V	nud
.	.			Z	
Podrätshik	####				
Pavel	Pavel	0		H	sg n
Maksimov	####				
Kolkjast	####				
võtnud	võt	nud		V	nud
      	võt=nu	d		S	pl n
      	võt=nud	0		A	
      	võt=nud	0		A	sg n
      	võt=nud	d		A	pl n
Aaverjani	####				
suvvi	####				
peale	pea	le		S	sg all
     	peale	0		D	
     	peale	0		K	
enda	ise	0		P	sg g
juure	juur	0		S	sg g
tõõle	####				
ja	ja	0		J	
jäänud	jää	nud		V	nud
      	jäänu	d		S	pl n
      	jäänud	0		A	
      	jäänud	0		A	sg n
      	jäänud	d		A	pl n
tema	tema	0		P	sg g
    	tema	0		P	sg n
,	,			Z	
Jevdokija	####				
,	,			Z	
Aaverjani	####				
ema	ema	0		S	sg g
   	ema	0		S	sg n
   	ema	0		S	sg p
juure	juur	0		S	sg g
maije	####				
,	,			Z	
nõnda	nõnda	0		D	
kui	kui	0		D	
   	kui	0		J	
poea	####				
kouselaja	####				
.	.			Z	
_	_			Z	
Aaverjanil	####				
sadetud	####				
se	####				
õnnetus	õnnetu	s		A	sg in
       	õnnetus	0		S	sg n
et	et	0		J	
suur	suur	0		A	sg n
torm	torm	0		A	sg n
    	torm	0		S	sg n
teda	tema	da		P	sg p
Kurema	####				
mõisas	mõis	s		S	sg in
kõrge	kõrge	0		A	sg g
     	kõrge	0		A	sg n
katuselt	katus	lt		S	sg abl
maha	maha	0		D	
viskanud	####				
,	,			Z	
mis	mis	0		P	pl n
   	mis	0		P	sg n
läbbi	####				
ni	####				
suure	suur	0		A	sg g
viga	viga	0		S	sg n
    	viga	0		S	sg p
saanud	saa	nud		V	nud
      	saa=nud	0		A	
      	saa=nud	0		A	sg n
      	saa=nud	d		A	pl n
      	saanu	d		S	pl n
et	et	0		J	
pea	pea	0		D	
   	pea	0		S	sg g
   	pida	0		V	o
   	pea	0		S	sg n
selle	see	0		P	sg g
     	sell	e		S	pl p
järele	järele	0		D	
      	järele	0		K	
ära	ära	0		D	
   	ära	0		V	neg o
surnud	surnu	d		S	pl n
      	surnud	0		A	
      	surnud	0		A	sg n
      	surnud	d		A	pl n
      	sure	nud		V	nud
,	,			Z	
ilma	ilm	0		S	adt
    	ilm	0		S	sg g
    	ilma	0		D	
    	ilma	0		K	
    	ilm	0		S	sg p
et	et	0		J	
olles	ole	es		V	des
veel	veel	0		D	
    	vesi	l		S	sg ad
ni	####				
paljo-gi	####				
moistust	####				
tulnud	tul=nud	0		A	
      	tul=nud	0		A	sg n
      	tul=nud	d		A	pl n
      	tule	nud		V	nud
      	tulnu	d		S	pl n
oma	oma	0		A	sg g
   	oma	0		D	
   	oma	0		P	sg g
   	oma	0		S	sg g
   	oma	0		V	o
   	oma	0		A	sg n
   	oma	0		A	sg p
   	oma	0		P	sg n
   	oma	0		P	sg p
   	oma	0		S	sg n
   	oma	0		S	sg p
lapsele	laps	le		S	sg all
,	,			Z	
kellega	kes	ga		P	pl kom
       	kes	ga		P	sg kom
Jevdokija	####				
sel	see	l		P	sg ad
   	sel	0		Y	?
aijal	####				
käima	käi	ma		V	ma
     	käim	0		S	adt
     	käim	0		S	sg g
     	käim	0		S	sg p
peal	pea	l		S	sg ad
    	peal	0		D	
    	peal	0		K	
oli	ole	i		V	s
,	,			Z	
päranduse	pärandus	0		S	sg g
pärast	pära	st		S	sg el
      	pärane	t		A	sg p
      	pärast	0		D	
      	pärast	0		K	
viimse	viimne	0		A	sg g
lubamisega	lubamine	ga		S	sg kom
otsust	otsus	t		S	sg p
anda	and	a		V	da
.	.			Z	
Seda	see	da		P	sg p
pärandust	pärandus	t		S	sg p
nüüd	nüüd	0		D	
ole	ole	0		V	o
surnud	surnu	d		S	pl n
      	surnud	0		A	
      	surnud	0		A	sg n
      	surnud	d		A	pl n
      	sure	nud		V	nud
mehe	mees	0		S	sg g
ema	ema	0		S	sg g
   	ema	0		S	sg n
   	ema	0		S	sg p
oma	oma	0		A	sg g
   	oma	0		D	
   	oma	0		P	sg g
   	oma	0		S	sg g
   	oma	0		V	o
   	oma	0		A	sg n
   	oma	0		A	sg p
   	oma	0		P	sg n
   	oma	0		P	sg p
   	oma	0		S	sg n
   	oma	0		S	sg p
kätte	kätte	0		K	
     	käsi	tte		S	adt
võtnud	võt	nud		V	nud
      	võt=nu	d		S	pl n
      	võt=nud	0		A	
      	võt=nud	0		A	sg n
      	võt=nud	d		A	pl n
ja	ja	0		J	
ei	ei	0		D	
  	ei	0		V	neg
ole	ole	0		V	o
tema	tema	0		P	sg g
    	tema	0		P	sg n
oma	oma	0		A	sg g
   	oma	0		D	
   	oma	0		P	sg g
   	oma	0		S	sg g
   	oma	0		V	o
   	oma	0		A	sg n
   	oma	0		A	sg p
   	oma	0		P	sg n
   	oma	0		P	sg p
   	oma	0		S	sg n
   	oma	0		S	sg p
poea	####				
poea	####				
Aahvonasile	####				
,	,			Z	
kes	kes	0		P	pl n
   	kes	0		P	sg n
kolm	kolm	0		N	sg n
päeva	päev	0		S	adt
     	päev	0		S	sg g
     	päev	0		S	sg p
pärast	pära	st		S	sg el
      	pärane	t		A	sg p
      	pärast	0		D	
      	pärast	0		K	
issa	####				
koolmist	kool=mine	t		S	sg p
ilmale	ilm	le		S	sg all
veerenud	veere	nud		V	nud
        	veere=nu	d		S	pl n
        	veere=nud	0		A	
        	veere=nud	0		A	sg n
        	veere=nud	d		A	pl n
,	,			Z	
sest	see	st		P	sg el
    	sest	0		J	
varandusest	varandus	st		S	sg el
ei	ei	0		D	
  	ei	0		V	neg
midagi	miski	dagi		P	sg p
jätnud	jät	nud		V	nud
      	jät=nu	d		S	pl n
      	jät=nud	0		A	
      	jät=nud	0		A	sg n
      	jät=nud	d		A	pl n
,	,			Z	
aeanud	####				
peale	pea	le		S	sg all
     	peale	0		D	
     	peale	0		K	
seda	see	da		P	sg p
veel	veel	0		D	
    	vesi	l		S	sg ad
Jevdokijad	####				
keige	####				
lapsega	laps	ga		S	sg kom
maeast	####				
välja	välja	0		D	
     	välja	0		V	o
     	väli	0		S	adt
     	väli	0		S	sg g
     	väli	0		S	sg p
laia	lai	0		A	adt
    	lai	0		A	sg g
    	laia	0		V	o
    	lai	0		A	sg p
maailma	maa_ilm	0		S	adt
       	maa_ilm	0		S	sg g
       	maa_ilm	0		S	sg p
,	,			Z	
võtnud	võt	nud		V	nud
      	võt=nu	d		S	pl n
      	võt=nud	0		A	
      	võt=nud	0		A	sg n
      	võt=nud	d		A	pl n
tema	tema	0		P	sg g
    	tema	0		P	sg n
,	,			Z	
Jevdokija	####				
,	,			Z	
käest	käest	0		K	
     	käsi	st		S	sg el
ka	ka	0		D	
üks	üks	0		N	sg n
   	üks	0		P	sg n
kaela	kael	0		S	adt
     	kael	0		S	sg g
     	kaela	0		K	
     	kael	0		S	sg p
rättikukene-gi	####				
,	,			Z	
mis	mis	0		P	pl n
   	mis	0		P	sg n
Aaverjan	####				
enne	enne	0		D	
    	enne	0		K	
    	enne	0		S	sg n
kokku	kokku	0		D	
     	kogu	0		S	adt
elama	ela	ma		V	ma
