tüli	tüli	0		S	sg g
    	tüli	0		S	sg n
    	tüli	0		S	sg p
ette	ette	0		D	
    	ette	0		K	
    	esi	tte		S	adt
Mari	Mari	0		H	sg g
    	mari	0		S	sg g
    	mari	0		S	sg n
    	Mari	0		H	sg n
    	mari	0		S	sg p
Mollok	####				
ja	ja	0		J	
kaebas	kaeba	s		V	s
Aadam	Aadam	0		H	sg n
Matsoni	####				
man	man	0		D	
   	man	0		K	
seistes	seis	tes		V	des
:	:			Z	
Johan	Johan	0		H	sg n
Kotsar	####				
on	ole	0		V	b
  	ole	0		V	vad
tema	tema	0		P	sg g
    	tema	0		P	sg n
last	laps	t		S	sg p
    	last	0		S	sg n
piitsaga	piits	ga		S	sg kom
peksnud	peks	nud		V	nud
       	peks=nu	d		S	pl n
       	peks=nud	0		A	
       	peks=nud	0		A	sg n
       	peks=nud	d		A	pl n
,	,			Z	
ning	ning	0		J	
nõudis	nõud	is		V	s
10	10	0		N	?
rubl	####				
.	.			Z	
valu	valu	0		S	sg g
    	valu	0		V	o
    	valu	0		S	sg n
    	valu	0		S	sg p
raha	raha	0		S	sg g
    	raha	0		S	sg n
    	raha	0		S	sg p
kaebatava	####				
käest	käest	0		K	
     	käsi	st		S	sg el
.	.			Z	
ühelgi	üks	l	gi	N	sg ad
      	üks	l	gi	P	sg ad
kohtumehel	kohtu_mees	l		S	sg ad
ei	ei	0		D	
  	ei	0		V	neg
ole	ole	0		V	o
tema	tema	0		P	sg g
    	tema	0		P	sg n
oma	oma	0		A	sg g
   	oma	0		D	
   	oma	0		P	sg g
   	oma	0		S	sg g
   	oma	0		V	o
   	oma	0		A	sg n
   	oma	0		A	sg p
   	oma	0		P	sg n
   	oma	0		P	sg p
   	oma	0		S	sg n
   	oma	0		S	sg p
last	laps	t		S	sg p
    	last	0		S	sg n
üle	üle	0		D	
   	üle	0		K	
kaeda	kae	da		V	da
lasknud	lask	nud		V	nud
       	lask=nu	d		S	pl n
       	lask=nud	0		A	
       	lask=nud	0		A	sg n
       	lask=nud	d		A	pl n
.	.			Z	
Johan	Johan	0		H	sg n
Kotsar	####				
kaebuse	kaebus	0		S	sg g
üle	üle	0		D	
   	üle	0		K	
küsitud	küsi	tud		V	tud
       	küsi=tu	d		S	pl n
       	küsi=tud	0		A	
       	küsi=tud	0		A	sg n
       	küsi=tud	d		A	pl n
,	,			Z	
ütles	ütle	s		V	s
välja	välja	0		D	
     	välja	0		V	o
     	väli	0		S	adt
     	väli	0		S	sg g
     	väli	0		S	sg p
:	:			Z	
kaebaja	kaebaja	0		S	sg g
       	kaebaja	0		S	sg n
laps	laps	0		S	sg n
ei	ei	0		D	
  	ei	0		V	neg
ole	ole	0		V	o
mitte	mitte	0		D	
sõna	sõna	0		S	sg g
    	sõna	0		V	o
    	sõna	0		S	sg n
    	sõna	0		S	sg p
kuulnud	kuul	nud		V	nud
       	kuul=nud	0		A	
       	kuul=nud	0		A	sg n
       	kuul=nud	d		A	pl n
       	kuulnu	d		S	pl n
ja	ja	0		J	
mitte	mitte	0		D	
teinud	tege	nud		V	nud
      	tei=nud	0		A	
      	tei=nud	0		A	sg n
      	tei=nud	d		A	pl n
      	teinu	d		S	pl n
,	,			Z	
mis	mis	0		P	pl n
   	mis	0		P	sg n
temal	tema	l		P	sg ad
kästud	käs=tu	d		S	pl n
      	käs=tud	0		A	
      	käs=tud	0		A	sg n
      	käs=tud	d		A	pl n
      	käski	tud		V	tud
,	,			Z	
ja	ja	0		J	
lasknud	lask	nud		V	nud
       	lask=nu	d		S	pl n
       	lask=nud	0		A	
       	lask=nud	0		A	sg n
       	lask=nud	d		A	pl n
ka	ka	0		D	
ükskord	üks_kord	0		D	
ühe	üks	0		N	sg g
   	üks	0		P	sg g
   	ühe	0		S	sg n
tsida	####				
(	(			Z	
temal	tema	l		P	sg ad
enam	enam	0		C	sg n
    	enam	0		D	
tsiga	####				
ei	ei	0		D	
  	ei	0		V	neg
ole	ole	0		V	o
)	)			Z	
,	,			Z	
kelle	kes	0		P	pl g
     	kes	0		P	sg g
perra	####				
temal	tema	l		P	sg ad
kaeda	kae	da		V	da
kästud	käs=tu	d		S	pl n
      	käs=tud	0		A	
      	käs=tud	0		A	sg n
      	käs=tud	d		A	pl n
      	käski	tud		V	tud
,	,			Z	
vilja	vili	0		S	adt
     	vili	0		S	sg g
     	vili	0		S	sg p
,	,			Z	
siis	siis	0		D	
    	siis	0		J	
on	ole	0		V	b
  	ole	0		V	vad
tema	tema	0		P	sg g
    	tema	0		P	sg n
küll	küll	0		D	
    	küll	0		S	sg n
ühe	üks	0		N	sg g
   	üks	0		P	sg g
   	ühe	0		S	sg n
kublese	####				
piitsaga	piits	ga		S	sg kom
lapsele	laps	le		S	sg all
2	2	0		N	?
kord	kord	0		D	
    	kord	0		S	sg n
undruku	undruk	0		S	sg g
peale	pea	le		S	sg all
     	peale	0		D	
     	peale	0		K	
löönud	löö	nud		V	nud
      	löö=nu	d		S	pl n
      	löö=nud	0		A	
      	löö=nud	0		A	sg n
      	löö=nud	d		A	pl n
,	,			Z	
et	et	0		J	
seda	see	da		P	sg p
ennegi	ennegi	0		D	
hirmutada	hirmuta	da		V	da
,	,			Z	
mispeale	mis_peale	0		D	
aga	aga	0		J	
Mari	Mari	0		H	sg g
    	mari	0		S	sg g
    	mari	0		S	sg n
    	Mari	0		H	sg n
    	mari	0		S	sg p
Mollok	####				
sinna	sinna	0		D	
tulnud	tul=nud	0		A	
      	tul=nud	0		A	sg n
      	tul=nud	d		A	pl n
      	tule	nud		V	nud
      	tulnu	d		S	pl n
ja	ja	0		J	
oma	oma	0		A	sg g
   	oma	0		D	
   	oma	0		P	sg g
   	oma	0		S	sg g
   	oma	0		V	o
   	oma	0		A	sg n
   	oma	0		A	sg p
   	oma	0		P	sg n
   	oma	0		P	sg p
   	oma	0		S	sg n
   	oma	0		S	sg p
lapse	laps	0		S	sg g
tema	tema	0		P	sg g
    	tema	0		P	sg n
juurest	juur	st		S	sg el
       	juurest	0		K	
ära	ära	0		D	
   	ära	0		V	neg o
viinud	vii	nud		V	nud
      	vii=nu	d		S	pl n
      	vii=nud	0		A	
      	vii=nud	0		A	sg n
      	vii=nud	d		A	pl n
.	.			Z	
Jaan	Jaan	0		H	sg n
    	jaan	0		S	sg n
    	jaan	0		Y	?
Ossep	####				
tunnistas	tunnista	s		V	s
:	:			Z	
Johan	Johan	0		H	sg n
Kotsar	####				
löönud	löö	nud		V	nud
      	löö=nu	d		S	pl n
      	löö=nud	0		A	
      	löö=nud	0		A	sg n
      	löö=nud	d		A	pl n
ühe	üks	0		N	sg g
   	üks	0		P	sg g
   	ühe	0		S	sg n
kublese	####				
piitsaga	piits	ga		S	sg kom
2	2	0		N	?
kord	kord	0		D	
    	kord	0		S	sg n
Mari	Mari	0		H	sg g
    	mari	0		S	sg g
    	mari	0		S	sg n
    	Mari	0		H	sg n
    	mari	0		S	sg p
Mõlluka	####				
tütard	####				
undruku	undruk	0		S	sg g
peale	pea	le		S	sg all
     	peale	0		D	
     	peale	0		K	
,	,			Z	
selle	see	0		P	sg g
     	sell	e		S	pl p
et	et	0		J	
see	see	0		P	sg n
sõna	sõna	0		S	sg g
    	sõna	0		V	o
    	sõna	0		S	sg n
    	sõna	0		S	sg p
ei	ei	0		D	
  	ei	0		V	neg
kuula	kuula	0		V	o
ja	ja	0		J	
tsida	####				
vilja	vili	0		S	adt
     	vili	0		S	sg g
     	vili	0		S	sg p
lasknud	lask	nud		V	nud
       	lask=nu	d		S	pl n
       	lask=nud	0		A	
       	lask=nud	0		A	sg n
       	lask=nud	d		A	pl n
.	.			Z	
Ann	Ann	0		H	sg n
Kutsar	kutsar	0		S	sg n
tunnistas	tunnista	s		V	s
:	:			Z	
Mari	Mari	0		H	sg g
    	mari	0		S	sg g
    	mari	0		S	sg n
    	Mari	0		H	sg n
    	mari	0		S	sg p
Mõlluka	####				
tütar	tütar	0		S	sg n
on	ole	0		V	b
  	ole	0		V	vad
Akste	####				
orgo	####				
neile	see	le		P	pl all
     	tema	le		P	pl all
perra	####				
jooksnud	jooks	nud		V	nud
        	jooks=nu	d		S	pl n
        	jooks=nud	0		A	
        	jooks=nud	0		A	sg n
        	jooks=nud	d		A	pl n
ja	ja	0		J	
ütelnud	ütle	nud		V	nud
       	ütel=nu	d		S	pl n
       	ütel=nud	0		A	
       	ütel=nud	0		A	sg n
       	ütel=nud	d		A	pl n
,	,			Z	
et	et	0		J	
peremees	pere_mees	0		S	sg n
teda	tema	da		P	sg p
peksnud	peks	nud		V	nud
       	peks=nu	d		S	pl n
       	peks=nud	0		A	
       	peks=nud	0		A	sg n
       	peks=nud	d		A	pl n
ja	ja	0		J	
kui	kui	0		D	
   	kui	0		J	
ema	ema	0		S	sg g
   	ema	0		S	sg n
   	ema	0		S	sg p
undruukida	####				
ülesse	ülesse	0		D	
võtnud	võt	nud		V	nud
      	võt=nu	d		S	pl n
      	võt=nud	0		A	
      	võt=nud	0		A	sg n
      	võt=nud	d		A	pl n
,	,			Z	
siis	siis	0		D	
    	siis	0		J	
olnud	ol=nud	0		A	
     	ol=nud	0		A	sg n
     	ol=nud	d		A	pl n
     	ole	nud		V	nud
     	olnu	d		S	pl n
2	2	0		N	?
palmet	####				
perse	perse	0		S	adt
     	perse	0		S	sg n
     	perse	0		S	sg g
peal	pea	l		S	sg ad
    	peal	0		D	
    	peal	0		K	
tunda	tund	a		V	da
,	,			Z	
aga	aga	0		J	
tema	tema	0		P	sg g
    	tema	0		P	sg n
ei	ei	0		D	
  	ei	0		V	neg
tea	tead	0		V	o
,	,			Z	
kas	kas	0		D	
see	see	0		P	sg n
peksmise	peksmine	0		S	sg g
läbi	läbi	0		D	
    	läbi	0		K	
    	läbi	0		V	o
tulnud	tul=nud	0		A	
      	tul=nud	0		A	sg n
      	tul=nud	d		A	pl n
      	tule	nud		V	nud
      	tulnu	d		S	pl n
.	.			Z	
tunnistaja	tunnistaja	0		S	sg g
          	tunnistaja	0		S	sg n
Peeter	Peeter	0		H	sg n
Hendrikson	####				
ei	ei	0		D	
  	ei	0		V	neg
olnud	ol=nud	0		A	
     	ol=nud	0		A	sg n
     	ol=nud	d		A	pl n
     	ole	nud		V	nud
     	olnu	d		S	pl n
mitte	mitte	0		D	
kohtu	kohtu	0		V	o
     	kohus	0		S	sg g
ette	ette	0		D	
    	ette	0		K	
    	esi	tte		S	adt
tulnud	tul=nud	0		A	
      	tul=nud	0		A	sg n
      	tul=nud	d		A	pl n
      	tule	nud		V	nud
      	tulnu	d		S	pl n
.	.			Z	
mõistus	mõistus	0		S	sg n
:	:			Z	
et	et	0		J	
laps	laps	0		S	sg n
sõnakuulmata	sõna_kuul=mata	0		A	
olnud	ol=nud	0		A	
     	ol=nud	0		A	sg n
     	ol=nud	d		A	pl n
     	ole	nud		V	nud
     	olnu	d		S	pl n
ja	ja	0		J	
mitte	mitte	0		D	
see	see	0		P	sg n
ühe	üks	0		N	sg g
   	üks	0		P	sg g
   	ühe	0		S	sg n
tsida	####				
järele	järele	0		D	
      	järele	0		K	
ei	ei	0		D	
  	ei	0		V	neg
kaenud	kae	nud		V	nud
      	kae=nu	d		S	pl n
      	kae=nud	0		A	
      	kae=nud	0		A	sg n
      	kae=nud	d		A	pl n
,	,			Z	
vaid	vaid	0		D	
    	vaid	0		J	
sedagi	see	da	gi	P	sg p
vilja	vili	0		S	adt
     	vili	0		S	sg g
     	vili	0		S	sg p
laskis	lask	is		V	s
,	,			Z	
ja	ja	0		J	
et	et	0		J	
Mari	Mari	0		H	sg g
    	mari	0		S	sg g
    	mari	0		S	sg n
    	Mari	0		H	sg n
    	mari	0		S	sg p
Mollok	####				
ka	ka	0		D	
mitte	mitte	0		D	
oma	oma	0		A	sg g
   	oma	0		D	
   	oma	0		P	sg g
   	oma	0		S	sg g
   	oma	0		V	o
   	oma	0		A	sg n
   	oma	0		A	sg p
   	oma	0		P	sg n
   	oma	0		P	sg p
   	oma	0		S	sg n
   	oma	0		S	sg p
last	laps	t		S	sg p
    	last	0		S	sg n
kohtumehel	kohtu_mees	l		S	sg ad
üle	üle	0		D	
   	üle	0		K	
kaeda	kae	da		V	da
ei	ei	0		D	
  	ei	0		V	neg
ole	ole	0		V	o
lasknud	lask	nud		V	nud
       	lask=nu	d		S	pl n
       	lask=nud	0		A	
       	lask=nud	0		A	sg n
       	lask=nud	d		A	pl n
,	,			Z	
siis	siis	0		D	
    	siis	0		J	
ei	ei	0		D	
  	ei	0		V	neg
või	või	0		S	sg g
   	või	0		V	o
   	või	0		D	
   	või	0		J	
   	või	0		S	sg n
tema	tema	0		P	sg g
    	tema	0		P	sg n
midagi	miski	dagi		P	sg p
Johan	Johan	0		H	sg n
Kotsaare	####				
käest	käest	0		K	
     	käsi	st		S	sg el
nõuda	nõud	a		V	da
,	,			Z	
ja	ja	0		J	
et	et	0		J	
tema	tema	0		P	sg g
    	tema	0		P	sg n
ka	ka	0		D	
mitte	mitte	0		D	
kohtu	kohtu	0		V	o
     	kohus	0		S	sg g
käsu	käsk	0		S	sg g
peale	pea	le		S	sg all
     	peale	0		D	
     	peale	0		K	
oma	oma	0		A	sg g
   	oma	0		D	
   	oma	0		P	sg g
   	oma	0		S	sg g
   	oma	0		V	o
   	oma	0		A	sg n
   	oma	0		A	sg p
   	oma	0		P	sg n
   	oma	0		P	sg p
   	oma	0		S	sg n
   	oma	0		S	sg p
last	laps	t		S	sg p
    	last	0		S	sg n
peremehe	pere_mees	0		S	sg g
manud	####				
tagasi	tagasi	0		D	
      	tagasi	0		K	
ei	ei	0		D	
  	ei	0		V	neg
ole	ole	0		V	o
viinud	vii	nud		V	nud
      	vii=nu	d		S	pl n
      	vii=nud	0		A	
      	vii=nud	0		A	sg n
      	vii=nud	d		A	pl n
,	,			Z	
siis	siis	0		D	
    	siis	0		J	
on	ole	0		V	b
  	ole	0		V	vad
laps	laps	0		S	sg n
peremeest	pere_mees	t		S	sg p
lahti	laht	i		S	pl p
     	lahti	0		D	
ja	ja	0		J	
ei	ei	0		D	
  	ei	0		V	neg
või	või	0		S	sg g
   	või	0		V	o
   	või	0		D	
   	või	0		J	
   	või	0		S	sg n
midagi	miski	dagi		P	sg p
palka	palk	0		S	adt
     	palka	0		V	o
     	palk	0		S	sg p
nõuda	nõud	a		V	da
.	.			Z	
Peeter	Peeter	0		H	sg n
Kripson	####				
XXX	XXX	0		O	?
   	XXX	0		Y	?
Peeter	Peeter	0		H	sg n
Hendrikson	####				
XXX	XXX	0		O	?
   	XXX	0		Y	?
Hendrik	Hendrik	0		H	sg n
Piirsoon	piir_soon	0		S	sg n
XXX	XXX	0		O	?
   	XXX	0		Y	?
Kusta	Kusta	0		H	sg g
     	Kusta	0		H	sg n
     	kuse	ta		V	da
     	kuse	ta		V	ta
Ivanthal	####				
XXX	XXX	0		O	?
   	XXX	0		Y	?
mõistus	mõistus	0		S	sg n
sai	saa	i		V	s
   	sai	0		S	sg n
kohtukäijatele	kohtu_käija	tele		S	pl all
T	T	0		Y	?
.	.			Z	
S	S	0		Y	?
.	.			Z	
R	R	0		Y	?
.	.			Z	
perra	####				
a.	a	0		Y	?
1860.	1860.	0		O	?
§	§	0		Y	?
772	772	0		N	?
-	-			Z	
774	774	0		N	?
kuulutud	kuulu	tud		V	tud
        	kuulu=tu	d		S	pl n
        	kuulu=tud	0		A	
        	kuulu=tud	0		A	sg n
        	kuulu=tud	d		A	pl n
ja	ja	0		J	
õpus	####				
antud	an=tu	d		S	pl n
     	and	tud		V	tud
     	antud	0		A	
     	antud	0		A	sg n
     	antud	d		A	pl n
,	,			Z	
mis	mis	0		P	pl n
   	mis	0		P	sg n
tähele	täht	le		S	sg all
      	tähele	0		X	
tuleb	tule	b		V	b
panna	pand	0		S	sg g
     	pane	a		V	da
     	panna	0		S	sg g
     	panna	0		S	sg n
,	,			Z	
kui	kui	0		D	
   	kui	0		J	
keegi	kee	0	gi	S	sg g
     	kee	0	gi	V	o
     	keegi	0		P	sg n
     	kee	0	gi	S	sg n
kõrgemat	kõrgem	t		C	sg p
        	kõrgem	t		S	sg p
kohut	kohus	t		S	sg p
tahab	taht	b		V	b
käija	käija	0		S	sg g
     	käija	0		S	sg n
ja	ja	0		J	
ei	ei	0		D	
  	ei	0		V	neg
olnud	ol=nud	0		A	
     	ol=nud	0		A	sg n
     	ol=nud	d		A	pl n
     	ole	nud		V	nud
     	olnu	d		S	pl n
Mari	Mari	0		H	sg g
    	mari	0		S	sg g
    	mari	0		S	sg n
    	Mari	0		H	sg n
    	mari	0		S	sg p
Mollok	####				
mitte	mitte	0		D	
sellega	see	ga		P	sg kom
rahul	rahu	l		S	sg ad
     	rahul	0		D	
.	.			Z	
