Aan	####				
Lätt	####				
/	/			Z	
eestkostja	eest_kostja	0		S	sg g
          	eest_kostja	0		S	sg n
vallavanem	valla_vanem	0		S	sg n
Josep	####				
Lepik	lepik	0		S	sg n
)	)			Z	
kaebab	kaeba	b		V	b
elias	####				
Õun	õun	0		S	sg n
peale	pea	le		S	sg all
     	peale	0		D	
     	peale	0		K	
se	####				
olla	ole	a		V	da
elajatega	elajas	tega		S	pl kom
tema	tema	0		P	sg g
    	tema	0		P	sg n
rukki	rukis	0		S	adt
     	rukis	0		S	sg g
ärasõõtnud	####				
mis	mis	0		P	pl n
   	mis	0		P	sg n
eest	eest	0		D	
    	eest	0		K	
    	esi	st		S	sg el
tema	tema	0		P	sg g
    	tema	0		P	sg n
2.	2.	0		O	?
vakka	vakk	0		S	adt
     	vakk	0		S	sg p
     	vakka	0		D	
rukkid	rukis	d		S	pl n
tasumist	tasumine	t		S	sg p
nõuab	nõud	b		V	b
elias	####				
Õun	õun	0		S	sg n
tahab	taht	b		V	b
seda	see	da		P	sg p
ärasalata	ära_sala	ta		S	sg ab
ja	ja	0		J	
annab	and	b		V	b
lõppes	lõp	es		V	des
      	lõppe	s		V	s
      	lõpe	s		S	sg in
järele	järele	0		D	
      	järele	0		K	
,	,			Z	
et	et	0		J	
olla	ole	a		V	da
3	3	0		N	?
lammast	lammas	t		S	sg p
rukkis	rukis	s		S	sg in
käinud	käi	nud		V	nud
      	käi=nud	0		A	
      	käi=nud	0		A	sg n
      	käi=nud	d		A	pl n
      	käinu	d		S	pl n
,	,			Z	
lubbab	####				
1	1	0		N	?
/	/			Z	
2	2	0		N	?
v	v	0		Y	?
.	.			Z	
rukki	rukis	0		S	adt
     	rukis	0		S	sg g
Vallavõõrmõnder	####				
Karel	####				
kook	kook	0		S	sg n
on	ole	0		V	b
  	ole	0		V	vad
se	####				
kuri	kuri	0		A	sg n
    	kuri	0		S	sg n
ülevadanud	üle_vada=nu	d		S	pl n
          	üle_vada=nud	0		A	
          	üle_vada=nud	0		A	sg n
          	üle_vada=nud	d		A	pl n
,	,			Z	
ja	ja	0		J	
takseerib	takseeri	b		V	b
1.	1.	0		O	?
vakka	vakk	0		S	adt
     	vakk	0		S	sg p
     	vakka	0		D	
rukki	rukis	0		S	adt
     	rukis	0		S	sg g
alla	alla	0		D	
    	alla	0		K	
.	.			Z	
/	/			Z	
:	:			Z	
Lepisid	####				
1	1	0		N	?
/	/			Z	
2	2	0		N	?
vakka	vakk	0		S	adt
     	vakk	0		S	sg p
     	vakka	0		D	
rukkide	####				
peale	pea	le		S	sg all
     	peale	0		D	
     	peale	0		K	
ära	ära	0		D	
   	ära	0		V	neg o
ja	ja	0		J	
lubbab	####				
elias	####				
Õun	õun	0		S	sg n
homen	####				
paev	####				
se	####				
leppitud	####				
äratäita	ära_täi	ta		S	sg ab
:	:			Z	
/	/			Z	
A	A	0		Y	?
.	.			Z	
_	_			Z	
Krim	####				
[	[			Z	
allkiri	all_kiri	0		S	sg n
]	]			Z	
,	,			Z	
pea	pea	0		D	
   	pea	0		S	sg g
   	pida	0		V	o
   	pea	0		S	sg n
xxx	####				
Maddis	####				
erm	####				
,	,			Z	
kohtumees	kohtu_mees	0		S	sg n
A	A	0		Y	?
.	.			Z	
_	_			Z	
Pärn	pärn	0		S	sg n
[	[			Z	
allkiri	all_kiri	0		S	sg n
]	]			Z	
,	,			Z	
""""	""""			Z	
xxx	####				
Tavet	####				
kook	kook	0		S	sg n
,	,			Z	
""""	""""			Z	
