№	№	0		Y	?
10.	10.	0		O	?
2	2	0		N	?
Jurjevi	####				
Ülema	ülem	0		C	sg g
     	ülem	0		S	sg g
Talurahva	talu_rahvas	0		S	sg g
kohturingkonna	kohtu_ringkond	0		S	sg g
14	14	0		N	?
vallakohus	valla_kohus	0		S	sg n
Haslava	####				
vallamajas	valla_maja	s		S	sg in
29	29	0		N	?
Novembril	november	l		S	sg ad
1896	1896	0		N	?
aastal	aasta	l		S	sg ad
.	.			Z	
juures	juur	s		S	sg in
      	juures	0		D	
      	juures	0		K	
oli	ole	i		V	s
kohtu	kohtu	0		V	o
     	kohus	0		S	sg g
liige	liige	0		S	sg n
:	:			Z	
Johan	Johan	0		H	sg n
Klaos	####				
.	.			Z	
Tulid	tule	id		V	sid
ette	ette	0		D	
    	ette	0		K	
    	esi	tte		S	adt
Haslava	####				
valla	vald	0		S	sg g
     	valla	0		D	
Linkida	linki	da		V	da
Erso	####				
talu	talu	0		S	sg g
    	talu	0		V	o
    	talu	0		S	sg n
    	talu	0		S	sg p
omanik	omanik	0		S	sg n
Johan	Johan	0		H	sg n
Ling	ling	0		S	sg n
ja	ja	0		J	
selle	see	0		P	sg g
     	sell	e		S	pl p
valla	vald	0		S	sg g
     	valla	0		D	
vabadik	vabadik	0		S	sg n
Anna	and	0		V	o
    	Anna	0		H	sg g
    	Anna	0		H	sg n
    	anna	0		S	sg g
    	anna	0		S	sg n
Ers	####				
abielus	abi_elu	s		S	sg in
Udel	####				
ja	ja	0		J	
palusid	palu	sid		S	pl p
       	palu	sid		V	sid
järgmist	järgmine	t		A	sg p
leppingut	####				
protokolli	protokoll	0		S	adt
          	protokoll	0		S	sg g
          	protokolli	0		V	o
          	protokoll	0		S	sg p
võtta	võt	a		V	da
.	.			Z	
Johan	Johan	0		H	sg n
Ling	ling	0		S	sg n
andis	and	is		V	s
üles	üles	0		D	
,	,			Z	
et	et	0		J	
14	14	0		N	?
vallakohtu	valla_kohus	0		S	sg g
protokolli	protokoll	0		S	adt
          	protokoll	0		S	sg g
          	protokolli	0		V	o
          	protokoll	0		S	sg p
järele	järele	0		D	
      	järele	0		K	
sest	see	st		P	sg el
    	sest	0		J	
8	8	0		N	?
Märtsist	märts	st		S	sg el
1893	1893	0		N	?
aastast	aasta	st		S	sg el
       	aastane	t		A	sg p
tema	tema	0		P	sg g
    	tema	0		P	sg n
käest	käest	0		K	
     	käsi	st		S	sg el
isa	isa	0		S	sg g
   	isa	0		S	sg n
   	isa	0		S	sg p
Johan	Johan	0		H	sg n
Ers	####				
osa	osa	0		S	sg g
   	osa	0		S	sg n
   	osa	0		S	sg p
jagu	jagu	0		S	sg n
    	jagu	0		V	o
    	jagu	0		S	sg p
kolmsada	kolm_sada	0		N	sg n
/	/			Z	
300	300	0		N	?
rbl	rbl	0		Y	?
/	/			Z	
rubla	rubla	0		S	sg g
     	rubla	0		S	sg n
     	rubla	0		S	sg p
Anna	and	0		V	o
    	Anna	0		H	sg g
    	Anna	0		H	sg n
    	anna	0		S	sg g
    	anna	0		S	sg n
Ers	####				
abielus	abi_elu	s		S	sg in
Udel	####				
ära	ära	0		D	
   	ära	0		V	neg o
on	ole	0		V	b
  	ole	0		V	vad
maksnud	maks	nud		V	nud
       	maks=nu	d		S	pl n
       	maks=nud	0		A	
       	maks=nud	0		A	sg n
       	maks=nud	d		A	pl n
.	.			Z	
Anna	and	0		V	o
    	Anna	0		H	sg g
    	Anna	0		H	sg n
    	anna	0		S	sg g
    	anna	0		S	sg n
Ers	####				
abielus	abi_elu	s		S	sg in
Udel	####				
annab	and	b		V	b
üles	üles	0		D	
,	,			Z	
et	et	0		J	
eelpool	eel_pool	0		D	
nimetatud	nimeta	tud		V	tud
         	nimetatu	d		S	pl n
         	nimetatud	0		A	
         	nimetatud	0		A	sg n
         	nimetatud	d		A	pl n
osajagu	osa_jagu	0		S	sg n
       	osa_jagu	0		S	sg p
kolmsada	kolm_sada	0		N	sg n
/	/			Z	
300	300	0		N	?
/	/			Z	
rubla	rubla	0		S	sg g
     	rubla	0		S	sg n
     	rubla	0		S	sg p
Johan	Johan	0		H	sg n
Ling	ling	0		S	sg n
käest	käest	0		K	
     	käsi	st		S	sg el
on	ole	0		V	b
  	ole	0		V	vad
vasta	vasta	0		V	o
võtnud	võt	nud		V	nud
      	võt=nu	d		S	pl n
      	võt=nud	0		A	
      	võt=nud	0		A	sg n
      	võt=nud	d		A	pl n
.	.			Z	
Anna	and	0		V	o
    	Anna	0		H	sg g
    	Anna	0		H	sg n
    	anna	0		S	sg g
    	anna	0		S	sg n
Udel	####				
/	/			Z	
allkiri	all_kiri	0		S	sg n
/	/			Z	
J. Ling	####				
/	/			Z	
allkiri	all_kiri	0		S	sg n
/	/			Z	
et	et	0		J	
eelpool	eel_pool	0		D	
selle	see	0		P	sg g
     	sell	e		S	pl p
vallakohtule	valla_kohus	le		S	sg all
palelikult	pale=lik	lt		A	sg abl
          	pale=likult	0		D	
inimesed	inimene	d		S	pl n
tuntud	tund	tud		V	tud
      	tuntu	d		S	pl n
      	tuntud	0		A	
      	tuntud	0		A	sg n
      	tuntud	d		A	pl n
on	ole	0		V	b
  	ole	0		V	vad
ja	ja	0		J	
et	et	0		J	
neil	see	l		P	pl ad
    	tema	l		P	pl ad
seaduse	seadus	0		S	sg g
järele	järele	0		D	
      	järele	0		K	
leppingu	####				
tegemiseks	tegemine	ks		S	sg tr
õigus	õigus	0		S	sg n
on	ole	0		V	b
  	ole	0		V	vad
ja	ja	0		J	
et	et	0		J	
leppingud	####				
teha	tege	a		V	da
ja	ja	0		J	
et	et	0		J	
Anna	and	0		V	o
    	Anna	0		H	sg g
    	Anna	0		H	sg n
    	anna	0		S	sg g
    	anna	0		S	sg n
Ers	####				
abielus	abi_elu	s		S	sg in
Udel	####				
ja	ja	0		J	
Johan	Johan	0		H	sg n
Ling	ling	0		S	sg n
selle	see	0		P	sg g
     	sell	e		S	pl p
leppingule	####				
oma	oma	0		A	sg g
   	oma	0		D	
   	oma	0		P	sg g
   	oma	0		S	sg g
   	oma	0		V	o
   	oma	0		A	sg n
   	oma	0		A	sg p
   	oma	0		P	sg n
   	oma	0		P	sg p
   	oma	0		S	sg n
   	oma	0		S	sg p
käega	käsi	ga		S	sg kom
alla	alla	0		D	
    	alla	0		K	
on	ole	0		V	b
  	ole	0		V	vad
kirjutanud	kirjuta	nud		V	nud
          	kirjutanu	d		S	pl n
          	kirjutanud	0		A	
          	kirjutanud	0		A	sg n
          	kirjutanud	d		A	pl n
saab	saa	b		V	b
14	14	0		N	?
Haslava	####				
valla	vald	0		S	sg g
     	valla	0		D	
kohtu	kohtu	0		V	o
     	kohus	0		S	sg g
poolt	pool	t		N	sg p
     	pool	t		S	sg p
     	poolt	0		D	
     	poolt	0		K	
tõeks	tõde	ks		S	sg tr
     	tõsi	ks		S	sg tr
tunnistatud	tunnista	tud		V	tud
           	tunnista=tu	d		S	pl n
           	tunnista=tud	0		A	
           	tunnista=tud	0		A	sg n
           	tunnista=tud	d		A	pl n
.	.			Z	
kohtuliige	kohtu_liige	0		S	sg n
:	:			Z	
J. Klaos	####				
/	/			Z	
allkiri	all_kiri	0		S	sg n
/	/			Z	
kirjutaja	kirjutaja	0		S	sg g
         	kirjutaja	0		S	sg n
:	:			Z	
K. Laar	####				
/	/			Z	
allkiri	all_kiri	0		S	sg n
/	/			Z	
/	/			Z	
Pitser	pitser	0		S	sg n
/	/			Z	
