Karpa	karpa	0		D	
Nikitina	Nikitina	0		H	sg g
        	Nikitina	0		H	sg n
võla	võlg	0		S	sg g
asi	asi	0		S	sg n
   	asi	0		V	o
.	.			Z	
Jaan	Jaan	0		H	sg n
    	jaan	0		S	sg n
    	jaan	0		Y	?
Vilip	####				
tõstis	tõst	is		V	s
kaebduse	####				
Karpa	karpa	0		D	
Nikitina	Nikitina	0		H	sg g
        	Nikitina	0		H	sg n
üle	üle	0		D	
   	üle	0		K	
kailaste	kai_laps	te		S	pl g
        	kail_aste	0		S	sg n
külast	küla	st		S	sg el
,	,			Z	
et	et	0		J	
tema	tema	0		P	sg g
    	tema	0		P	sg n
võla	võlg	0		S	sg g
tähe	täht	0		S	sg g
järele	järele	0		D	
      	järele	0		K	
,	,			Z	
mis	mis	0		P	pl n
   	mis	0		P	sg n
jo	####				
ümber	ümber	0		D	
     	ümber	0		K	
on	ole	0		V	b
  	ole	0		V	vad
,	,			Z	
temale	tema	le		P	sg all
võlgo	####				
on	ole	0		V	b
  	ole	0		V	vad
57	57	0		N	?
rubla	rubla	0		S	sg g
     	rubla	0		S	sg n
     	rubla	0		S	sg p
80	80	0		N	?
kop	kop	0		Y	?
h	h	0		Y	?
.	.			Z	
,	,			Z	
ja	ja	0		J	
temale	tema	le		P	sg all
võlga	võlg	0		S	adt
     	võlg	0		S	sg p
ei	ei	0		D	
  	ei	0		V	neg
taha	taht	0		V	o
    	taha	0		D	
    	taha	0		K	
maksta	maks	ta		V	da
      	maks	ta		V	ta
.	.			Z	
Tõnnis	Tõnn	s		H	sg in
Saul	Saul	0		H	sg n
kaibas	####				
ni	####				
samoti	####				
Karpa	karpa	0		D	
Nikitina	Nikitina	0		H	sg g
        	Nikitina	0		H	sg n
üleh	####				
,	,			Z	
kes	kes	0		P	pl n
   	kes	0		P	sg n
temale	tema	le		P	sg all
8	8	0		N	?
rubla	rubla	0		S	sg g
     	rubla	0		S	sg n
     	rubla	0		S	sg p
hõb	####				
.	.			Z	
suure	suur	0		A	sg g
võla	võlg	0		S	sg g
ära	ära	0		D	
   	ära	0		V	neg o
ei	ei	0		D	
  	ei	0		V	neg
taha	taht	0		V	o
    	taha	0		D	
    	taha	0		K	
tasuda	tasu	da		V	da
.	.			Z	
Juhan	Juhan	0		H	sg n
kalev	kalev	0		S	sg n
ni	####				
samoti	####				
7	7	0		N	?
rubla	rubla	0		S	sg g
     	rubla	0		S	sg n
     	rubla	0		S	sg p
50	50	0		N	?
kop	kop	0		Y	?
h	h	0		Y	?
.	.			Z	
pärast	pära	st		S	sg el
      	pärane	t		A	sg p
      	pärast	0		D	
      	pärast	0		K	
ning	ning	0		J	
vimat	####				
moisa	####				
valitsus	valitsus	0		S	sg n
võlgo	####				
jäänud	jää	nud		V	nud
      	jäänu	d		S	pl n
      	jäänud	0		A	
      	jäänud	0		A	sg n
      	jäänud	d		A	pl n
obroki	obrok	0		S	sg g
pärast	pära	st		S	sg el
      	pärane	t		A	sg p
      	pärast	0		D	
      	pärast	0		K	
,	,			Z	
mis	mis	0		P	pl n
   	mis	0		P	sg n
7	7	0		N	?
rubla	rubla	0		S	sg g
     	rubla	0		S	sg n
     	rubla	0		S	sg p
77	77	0		N	?
kop	kop	0		Y	?
.	.			Z	
hob	####				
.	.			Z	
välja	välja	0		D	
     	välja	0		V	o
     	väli	0		S	adt
     	väli	0		S	sg g
     	väli	0		S	sg p
teeb	tege	b		V	b
.	.			Z	
Karpa	karpa	0		D	
Nikiti	####				
tunnistas	tunnista	s		V	s
need	see	d		P	pl n
üleval	ülev	l		A	sg ad
      	üleval	0		D	
nimetud	nimetu	d		A	pl n
võlad	võlg	d		S	pl n
õiged	õige	d		A	pl n
oled	ole	d		V	d
,	,			Z	
andes	and	es		V	des
     	anne	s		S	sg in
aga	aga	0		J	
üles	üles	0		D	
et	et	0		J	
temal	tema	l		P	sg ad
joudo	####				
ei	ei	0		D	
  	ei	0		V	neg
ole	ole	0		V	o
neid	neid	0		S	sg n
    	see	d		P	pl p
    	tema	d		P	pl p
tasuda	tasu	da		V	da
.	.			Z	
Moistetud	####				
.	.			Z	
Tallor	####				
.	.			Z	
Seaduste	seadus	te		S	pl g
ramatu	####				
1894	1894	0		N	?
a.	a	0		Y	?
järele	järele	0		D	
      	järele	0		K	
§	§	0		Y	?
944	944	0		N	?
Karpa	karpa	0		D	
Nikitina	Nikitina	0		H	sg g
        	Nikitina	0		H	sg n
vara	vara	0		D	
    	vara	0		S	sg g
    	vara	0		S	sg n
    	vara	0		S	sg p
Konkursi	konkurss	0		S	sg g
alla	alla	0		D	
    	alla	0		K	
panna	pand	0		S	sg g
     	pane	a		V	da
     	panna	0		S	sg g
     	panna	0		S	sg n
ja	ja	0		J	
kohtu	kohtu	0		V	o
     	kohus	0		S	sg g
poles	####				
seda	see	da		P	sg p
täita	täi	ta		S	sg ab
     	täi	ta		V	ta
     	täit	a		V	da
     	täita	0		V	o
mis	mis	0		P	pl n
   	mis	0		P	sg n
§	§	0		Y	?
495	495	0		N	?
ning	ning	0		J	
järgmised	järgmine	d		A	pl n
Konkursi	konkurss	0		S	sg g
asja	asi	0		S	adt
    	asi	0		S	sg g
    	asi	0		S	sg p
pärast	pära	st		S	sg el
      	pärane	t		A	sg p
      	pärast	0		D	
      	pärast	0		K	
õpetavad	õpeta	vad		V	vad
        	õpetav	d		A	pl n
.	.			Z	
_	_			Z	
