Akt	akt	0		S	sg n
on	ole	0		V	b
  	ole	0		V	vad
rasdele	####				
nasletstva	####				
.	.			Z	
Meždu	####				
nädalataminik	####				
pukoinaga	####				
kristjasina	####				
Joonaga	Joona	ga		H	sg kom
Gantsena	####				
,	,			Z	
a	a	0		Y	?
minu	mina	0		P	sg g
:	:			Z	
vdovoju	####				
jägu	####				
Mai	Mai	0		H	sg g
   	Mai	0		H	sg n
   	mai	0		S	sg g
   	mai	0		S	sg n
Gantsin	####				
urubžd	####				
.	.			Z	
Ljude	####				
i	i	0		Y	?
mitte	mitte	0		D	
jägu	####				
a	a	0		Y	?
)	)			Z	
Jurjem	####				
.	.			Z	
b	b	0		Y	?
)	)			Z	
Janum	####				
,	,			Z	
v	v	0		Y	?
)	)			Z	
Juunon	####				
,	,			Z	
g	g	0		Y	?
)	)			Z	
Kustaja	####				
,	,			Z	
Annoju	####				
v	v	0		Y	?
samužestve	####				
Kronna	####				
,	,			Z	
e	e	0		Y	?
)	)			Z	
Minoju	####				
i	i	0		Y	?
ž	ž	0		Y	?
)	)			Z	
Lisoju	####				
Juunovõm	####				
Gantsin	####				
s	s	0		Y	?
hoidnud	hoid	nud		V	nud
       	hoid=nu	d		S	pl n
       	hoid=nud	0		A	
       	hoid=nud	0		A	sg n
       	hoid=nud	d		A	pl n
,	,			Z	
i	i	0		Y	?
sõna	sõna	0		S	sg g
    	sõna	0		V	o
    	sõna	0		S	sg n
    	sõna	0		S	sg p
linasnikond	####				
jägu	####				
Petron	####				
Gantsin	####				
s	s	0		Y	?
truubi	truup	0		S	sg g
stunõru	####				
,	,			Z	
prii	prii	0		A	sg g
    	prii	0		A	sg n
söögiviiisid	####				
14	14	0		N	?
Kaslavskko	####				
Vollostnuga	voll_ost_nuga	0		S	sg n
           	voll_ost_nuga	0		S	sg p
suda	####				
,	,			Z	
saklšjuten	####				
i	i	0		Y	?
nabasin	####				
nižösledujuššiik	####				
,	,			Z	
oobujasatunõi	####				
talja	####				
naslednikov	####				
i	i	0		Y	?
pravobredemannikov	####				
dogovarjuseltsistuja	####				
ronsta	####				
ahta	ahas	0		A	sg g
on	ole	0		V	b
  	ole	0		V	vad
rasdedelini	####				
nasletstva	####				
.	.			Z	
§	§	0		Y	?
1.	1.	0		O	?
Võšeupoomjajetõnu	####				
litsa	####				
,	,			Z	
kakk	kakk	0		S	sg n
edestvenõe	####				
naslednigi	####				
ümeršagu	####				
Joonaga	Joona	ga		H	sg kom
Gantsena	####				
,	,			Z	
veruttenõž	####				
v	v	0		Y	?
pravas	####				
nasletstva	####				
obergilehem	####				
14	14	0		N	?
volostnuga	####				
suuda	suut	0		V	o
ukruga	####				
2	2	0		N	?
Jurjevskko	####				
Vernjagu	####				
Kristjasikaga	####				
suda	####				
et	et	0		J	
17	17	0		N	?
fevr	####				
.	.			Z	
1895	1895	0		N	?
g	g	0		Y	?
.	.			Z	
kakk	kakk	0		S	sg n
vaadalltsev	####				
õdbusa	####				
Simo	####				
№	№	0		Y	?
55	55	0		N	?
mina	mina	0		P	sg n
    	mina	0		S	sg g
    	mina	0		S	sg n
    	mina	0		S	sg p
Gazelau	####				
Jurjevskko	####				
uuest	uus	st		A	sg el
,	,			Z	
sööderžaštšei	####				
v	v	0		Y	?
kaebe	kaeve	0		S	sg g
28,64	28,64	0		N	?
desjanõttu	####				
,	,			Z	
semelnuju	####				
sõimostja	sõim_ostja	0		S	sg g
         	sõim_ostja	0		S	sg n
v	v	0		Y	?
16	16	0		N	?
talvera	####				
60	60	0		N	?
grošei	####				
,	,			Z	
need	see	d		P	pl n
želaja	####				
ostapsa	####				
v	v	0		Y	?
toobššem	####				
vöadeni	####				
ettega	####				
usadboju	####				
,	,			Z	
položili	####				
prekredit	####				
ette	ette	0		D	
    	ette	0		K	
    	esi	tte		S	adt
toobššije	####				
vladesjas	####				
puutjon	####				
toobravolnagu	####				
rasdele	####				
,	,			Z	
takim	####				
obratson	####				
,	,			Z	
tšto	####				
vduva	####				
Mai	Mai	0		H	sg g
   	Mai	0		H	sg n
   	mai	0		S	sg g
   	mai	0		S	sg n
Gantsin	####				
uur	uur	0		S	sg n
.	.			Z	
Ljude	####				
,	,			Z	
Juri	Juri	0		H	sg g
    	Juri	0		H	sg n
,	,			Z	
Jan	Jan	0		H	sg n
,	,			Z	
Joun	####				
,	,			Z	
Kusta	Kusta	0		H	sg g
     	Kusta	0		H	sg n
     	kuse	ta		V	da
     	kuse	ta		V	ta
,	,			Z	
Mina	mina	0		P	sg n
    	mina	0		S	sg g
    	mina	0		S	sg n
    	mina	0		S	sg p
i	i	0		Y	?
Lisa	lisa	0		S	sg g
    	lisa	0		V	o
    	lisa	0		S	sg n
    	lisa	0		S	sg p
Gantsin	####				
i	i	0		Y	?
Anna	and	0		V	o
    	Anna	0		H	sg g
    	Anna	0		H	sg n
    	anna	0		S	sg g
    	anna	0		S	sg n
Kroomas	####				
uur	uur	0		S	sg n
.	.			Z	
Gantsin	####				
,	,			Z	
prinadleštšžaije	####				
kaddož	####				
its	####				
sis	####				
prava	####				
ha	ha	0		Y	?
ümstvenuju	####				
devjutaja	####				
štjast	####				
puusad	puus	d		S	pl n
Simo	####				
№	№	0		Y	?
55	55	0		N	?
seem	####				
peretjut	####				
svojemi	####				
sonaseletaniku	####				
Peetru	####				
Joanovi	####				
Gantsin	####				
v	v	0		Y	?
polnudju	####				
jägu	####				
soobstvenust	####				
s	s	0		Y	?
svojegu	####				
stunõru	####				
Peetr	####				
Gantsin	####				
ubbatsudsja	####				
metsav	####				
pereussuplenõh	####				
jänud	####				
prav	####				
1	1	0		N	?
)	)			Z	
Peetsplatnud	####				
i	i	0		Y	?
kakk	kakk	0		S	sg n
nadležajetsja	####				
hoorošemu	####				
sõnu	sõna	u		S	pl p
    	sõnu	0		V	o
sööderžat	####				
on	ole	0		V	b
  	ole	0		V	vad
saab	saa	b		V	b
svoju	####				
mat	####				
,	,			Z	
vdovu	####				
Mai	Mai	0		H	sg g
   	Mai	0		H	sg n
   	mai	0		S	sg g
   	mai	0		S	sg n
Gantsin	####				
,	,			Z	
do	####				
jeja	####				
smerti	####				
,	,			Z	
tutt	tutt	0		S	sg n
ei	ei	0		D	
  	ei	0		V	neg
žduude	####				
i	i	0		Y	?
kvarruudi	####				
v	v	0		Y	?
ussedbe	####				
i	i	0		Y	?
.	.			Z	
et	et	0		J	
.	.			Z	
ta	tema	0		P	sg g
  	tema	0		P	sg n
.	.			Z	
a	a	0		Y	?
takže	####				
sööderžat	####				
ei	ei	0		D	
  	ei	0		V	neg
olnud	ol=nud	0		A	
     	ol=nud	0		A	sg n
     	ol=nud	d		A	pl n
     	ole	nud		V	nud
     	olnu	d		S	pl n
kuravu	####				
i	i	0		Y	?
võtsuda	####				
,	,			Z	
2	2	0		N	?
)	)			Z	
preadustavit	####				
svojemi	####				
bratud	####				
Jaanud	####				
Gantsin	####				
,	,			Z	
ronov	####				
kakk	kakk	0		S	sg n
i	i	0		Y	?
materi	####				
svojei	####				
besplatnud	####				
on	ole	0		V	b
  	ole	0		V	vad
saab	saa	b		V	b
ždersoni	####				
do	####				
jägu	####				
smerti	####				
.	.			Z	
3	3	0		N	?
)	)			Z	
Võplapit	####				
ostjanõm	####				
sonaseletasikam	####				
,	,			Z	
minu	mina	0		P	sg g
:	:			Z	
Jüriju	####				
,	,			Z	
Jounud	####				
,	,			Z	
Kusta	Kusta	0		H	sg g
     	Kusta	0		H	sg n
     	kuse	ta		V	da
     	kuse	ta		V	ta
,	,			Z	
Miine	miin	e		S	pl p
i	i	0		Y	?
liise	####				
Juunovõm	####				
Gantsin	####				
i	i	0		Y	?
Anne	Ann	e		H	pl p
    	Anne	0		H	sg g
    	anne	0		S	sg n
    	Anne	0		H	sg n
Kroomas	####				
uur	uur	0		S	sg n
.	.			Z	
Gantsin	####				
kadumuž	####				
svoju	####				
tööju	####				
v	v	0		Y	?
salatšnõh	####				
tangas	####				
et	et	0		J	
.	.			Z	
e	e	0		Y	?
.	.			Z	
tavesti	####				
rublegi	####				
.	.			Z	
Is	####				
võšeppõimenuvannes	####				
pod	####				
p	p	0		Y	?
3	3	0		N	?
[	[			Z	
ei	ei	0		D	
  	ei	0		V	neg
loe	loe	0		S	sg n
   	lood	0		S	sg g
   	luge	0		V	o
välja	välja	0		D	
     	välja	0		V	o
     	väli	0		S	adt
     	väli	0		S	sg g
     	väli	0		S	sg p
]	]			Z	
Kusta	Kusta	0		H	sg g
     	Kusta	0		H	sg n
     	kuse	ta		V	da
     	kuse	ta		V	ta
Gantsin	####				
uže	####				
polutšil	####				
svoju	####				
tööju	####				
i	i	0		Y	?
udostoverad	####				
v	v	0		Y	?
ommet	####				
svojeju	####				
põhjuspi	####				
pod	####				
siin	siin	0		D	
    	siin	0		S	sg n
ahton	####				
,	,			Z	
ostjanõm	####				
svoim	####				
sonaseletasikam	####				
Peetr	####				
Gantsin	####				
otsannab	####				
lapupšivat	####				
priitššjuitapsasja	####				
im	####				
tooli	tool	0		S	adt
     	tool	0		S	sg g
     	tool	0		S	sg p
a	a	0		Y	?
)	)			Z	
Jüriju	####				
Gantsin	####				
v	v	0		Y	?
tehšenii	####				
javarja	####				
1898	1898	0		N	?
g	g	0		Y	?
.	.			Z	
b	b	0		Y	?
)	)			Z	
Jounud	####				
Gantsin	####				
""""	""""			Z	
""""	""""			Z	
1901	1901	0		N	?
g	g	0		Y	?
.	.			Z	
v	v	0		Y	?
)	)			Z	
Anne	Ann	e		H	pl p
    	Anne	0		H	sg g
    	anne	0		S	sg n
    	Anne	0		H	sg n
Kroomas	####				
""""	""""			Z	
""""	""""			Z	
1904	1904	0		N	?
g	g	0		Y	?
.	.			Z	
g	g	0		Y	?
)	)			Z	
mine	mine	0		V	o
Gantsin	####				
""""	""""			Z	
""""	""""			Z	
1907	1907	0		N	?
g	g	0		Y	?
.	.			Z	
ta	tema	0		P	sg g
  	tema	0		P	sg n
)	)			Z	
liise	####				
Gantsin	####				
""""	""""			Z	
""""	""""			Z	
1910	1910	0		N	?
g	g	0		Y	?
.	.			Z	
Siim	Siim	0		H	sg n
rasdelon	####				
sev	####				
võšeupoomjajetõnu	####				
naslednigi	####				
poolnev	poolne	v		V	v
       	poolne=v	0		A	sg n
dovolne	####				
i	i	0		Y	?
on	ole	0		V	b
  	ole	0		V	vad
peredele	pere	dele		S	pl all
voprossov	####				
vozbužth	####				
need	see	d		P	pl n
v	v	0		Y	?
prave	####				
.	.			Z	
§	§	0		Y	?
2.	2.	0		O	?
Steimust	####				
seaduseb	####				
Simo	####				
s	s	0		Y	?
priižlenadnostjani	####				
dogovivaršuajajestsida	####				
litsa	####				
obredeljajut	####				
po	####				
suvesti	####				
tõrešet	####				
tõsijaste	####				
kstud	####				
vosemdesjad	####				
/	/			Z	
4180	4180	0		N	?
/	/			Z	
rub	####				
.	.			Z	
,	,			Z	
kakovõm	####				
summa	summ	0		S	adt
     	summ	0		S	sg g
     	summ	0		S	sg p
     	summa	0		S	sg g
     	summa	0		S	sg n
prevõšajetsa	####				
katsjonuju	####				
otsasku	####				
,	,			Z	
its	####				
tei	####				
summe	####				
polestunõh	####				
ootniku	####				
iskljutšõniku	####				
ukreppljunõi	####				
nad	tema	d		P	pl n
seadusbu	####				
Simo	####				
tuli	tuli	0		S	sg n
    	tule	i		V	s
po	####				
sakladnõm	####				
lastam	####				
Lifl	####				
.	.			Z	
Dvorjasikaga	####				
Kreditnuga	####				
Obštšestva	####				
v	v	0		Y	?
raismere	####				
hoidnud	hoid	nud		V	nud
       	hoid=nu	d		S	pl n
       	hoid=nud	0		A	
       	hoid=nud	0		A	sg n
       	hoid=nud	d		A	pl n
tõsijaste	####				
trjus	####				
sut	####				
rub	####				
/	/			Z	
1300	1300	0		N	?
rub	####				
.	.			Z	
/	/			Z	
i	i	0		Y	?
ukreppljunaja	####				
v	v	0		Y	?
pooltsu	####				
grafa	####				
Šeremehevad	####				
12	12	0		N	?
noujabrja	####				
1885	1885	0		N	?
g	g	0		Y	?
.	.			Z	
sakladnaja	####				
v	v	0		Y	?
olnud	ol=nud	0		A	
     	ol=nud	0		A	sg n
     	ol=nud	d		A	pl n
     	ole	nud		V	nud
     	olnu	d		S	pl n
tõstsuda	####				
voseemnesad	####				
rub	####				
/	/			Z	
1080	1080	0		N	?
r	r	0		Y	?
.	.			Z	
/	/			Z	
akt	akt	0		S	sg n
taks	taks	0		S	sg n
sennust	####				
preadmata	####				
rasdele	####				
kostovljajeksja	####				
summa	summ	0		S	adt
     	summ	0		S	sg g
     	summ	0		S	sg p
     	summa	0		S	sg g
     	summa	0		S	sg n
v	v	0		Y	?
olnud	ol=nud	0		A	
     	ol=nud	0		A	sg n
     	ol=nud	d		A	pl n
     	ole	nud		V	nud
     	olnu	d		S	pl n
tõsšujat	####				
vosem	####				
sut	####				
/	/			Z	
1800	1800	0		N	?
/	/			Z	
rublegi	####				
.	.			Z	
§	§	0		Y	?
3.	3.	0		O	?
Peetr	####				
Gantsin	####				
siin	siin	0		D	
    	siin	0		S	sg n
ubbatsudsja	####				
priistujad	####				
nad	tema	d		P	pl n
saab	saa	b		V	b
otsnapšenõuja	####				
v	v	0		Y	?
§	§	0		Y	?
2	2	0		N	?
ukreplanõe	####				
nad	tema	d		P	pl n
seadusbu	####				
Simo	####				
№	№	0		Y	?
55	55	0		N	?
töögi	töö	0	gi	S	sg g
     	töö	0	gi	S	sg n
,	,			Z	
v	v	0		Y	?
õsobennosti	####				
že	####				
tuli	tuli	0		S	sg n
    	tule	i		V	s
po	####				
sakladnõm	####				
lastam	####				
v	v	0		Y	?
1300	1300	0		N	?
rub	####				
.	.			Z	
Lifljanskonud	####				
Dvorjasmusko	####				
Obstšestvu	####				
;	;			Z	
osvobubžtja	####				
suveršenno	####				
i	i	0		Y	?
savisida	####				
protših	####				
svoih	####				
sonaselednikov	####				
et	et	0		J	
tõupla	####				
tagavoko	####				
i	i	0		Y	?
vneste	####				
siin	siin	0		D	
    	siin	0		S	sg n
sajavljad	####				
tšto	####				
etut	####				
tuli	tuli	0		S	sg n
    	tule	i		V	s
v	v	0		Y	?
1300	1300	0		N	?
rublegi	####				
i	i	0		Y	?
nõne	####				
i	i	0		Y	?
v	v	0		Y	?
puuduštšem	####				
[	[			Z	
ei	ei	0		D	
  	ei	0		V	neg
loe	loe	0		S	sg n
   	lood	0		S	sg g
   	luge	0		V	o
välja	välja	0		D	
     	välja	0		V	o
     	väli	0		S	adt
     	väli	0		S	sg g
     	väli	0		S	sg p
]	]			Z	
i	i	0		Y	?
ostaneeksja	####				
,	,			Z	
sööglasnu	####				
Ustavu	####				
toobššestva	####				
pervoju	####				
ipotkoju	####				
nad	tema	d		P	pl n
kristjanskoi	####				
ussedbe	####				
Simo	####				
№	№	0		Y	?
55	55	0		N	?
s	s	0		Y	?
inventaron	####				
i	i	0		Y	?
viime	vii	me		V	me
jeja	####				
priižlenadnostjani	####				
,	,			Z	
taks	taks	0		S	sg n
on	ole	0		V	b
  	ole	0		V	vad
ootzbegavorinu	####				
potšinjasjad	####				
i	i	0		Y	?
puudet	puude	t		S	sg p
potšinsjajat	####				
pod	####				
strasson	####				
vostrububvana	####				
aupongotanud	####				
tööga	töö	ga		S	sg kom
sakladnõmi	####				
miskami	####				
veisen	####				
nistujašksin	####				
i	i	0		Y	?
puudušksin	####				
nad	tema	d		P	pl n
sakonson	####				
osnovani	####				
kostojavismsja	####				
postanuvlejam	####				
i	i	0		Y	?
rasporjaženjam	####				
Lifljandikaga	####				
Dvorjasikaga	####				
Kreditnuga	####				
Obštšestva	####				
i	i	0		Y	?
taks	taks	0		S	sg n
on	ole	0		V	b
  	ole	0		V	vad
ubbatsudsja	####				
v	v	0		Y	?
tutšnosti	####				
võttakoss	####				
ispolnjat	####				
.	.			Z	
verst	verst	0		S	sg n
sellega	see	ga		P	sg kom
Peetr	####				
Gantsin	####				
siin	siin	0		D	
    	siin	0		S	sg n
pesuslonov	####				
ubbatsudsja	####				
niikogna	####				
need	see	d		P	pl n
preadpringemat	####				
nikussak	####				
teistvii	####				
liige	liige	0		S	sg n
sakljutšat	####				
nikussak	####				
vogodorov	####				
,	,			Z	
viletstvije	####				
koih	####				
po	####				
minnesiju	####				
Kreditsidi	####				
võšeotsnapšenagu	####				
Kreditnuga	####				
toobššestva	####				
,	,			Z	
sõimust	sõim	st		S	sg el
i	i	0		Y	?
tuude	####				
kasandi	####				
spätsidelnu	####				
saložendi	####				
seaduseb	####				
liikme	liige	0		S	sg g
põ	####				
põt	####				
uhenõšnut	####				
i	i	0		Y	?
umbenõšen	####				
i	i	0		Y	?
siin	siin	0		D	
    	siin	0		S	sg n
preadustavljad	####				
pesuslonov	####				
v	v	0		Y	?
protivnoom	####				
kalutšaje	####				
,	,			Z	
neispravnosti	####				
jägu	####				
v	v	0		Y	?
plateže	####				
protsentov	####				
i	i	0		Y	?
v	v	0		Y	?
drugih	####				
vznossas	####				
võšeotsnapšmuenno	####				
Kreditnonu	####				
Obštšestvu	####				
pravo	####				
,	,			Z	
neemedlend	neeme+d_lend	0		S	sg n
viis	vii	s		V	s
    	viis	0		N	sg n
    	viis	0		S	sg n
sakleidnud	####				
suude	suu	de		S	pl g
     	suude	0		S	sg n
liige	liige	0		S	sg n
naložitt	####				
nad	tema	d		P	pl n
priioobritjenuju	####				
im	####				
po	####				
seeme	seeme	0		S	sg n
dogovoru	####				
seadusbu	####				
Simo	####				
№	№	0		Y	?
55	55	0		N	?
sekversta	####				
,	,			Z	
a	a	0		Y	?
nad	tema	d		P	pl n
veise	veis	0		S	sg g
jägu	####				
ostulnud	####				
kimuššvoiks	####				
pohattastvovat	####				
položesid	####				
arasta	arasta	0		V	o
.	.			Z	
§	§	0		Y	?
4.	4.	0		O	?
Peetr	####				
Gantsin	####				
siin	siin	0		D	
    	siin	0		S	sg n
ubbatsudsja	####				
,	,			Z	
vabrid	####				
do	####				
ispuleannes	####				
im	####				
sev	####				
teks	####				
oobujasandiste	####				
po	####				
ootnošõniku	####				
k	k	0		Y	?
svoim	####				
sonaseletasikam	####				
kotorõh	####				
isenõžlo	####				
v	v	0		Y	?
parairafe	####				
pervon	####				
sellega	see	ga		P	sg kom
dogovora	####				
,	,			Z	
nii	nii	0		D	
prootavat	####				
nii	nii	0		D	
odšžutt	####				
uus	uus	0		A	sg n
.	.			Z	
Simo	####				
№	№	0		Y	?
55	55	0		N	?
nii	nii	0		D	
ubermejat	####				
jeju	####				
hulgami	####				
i	i	0		Y	?
asjavaldsja	####				
sööglasid	####				
nad	tema	d		P	pl n
vneeesid	####				
on	ole	0		V	b
  	ole	0		V	vad
seesin	####				
nadležaštšei	####				
saapissi	####				
v	v	0		Y	?
põhležštšiia	####				
ettel	####				
krepostnagu	####				
rajestra	####				
.	.			Z	
§	§	0		Y	?
5.	5.	0		O	?
päridatša	####				
seaduseb	####				
Simo	####				
v	v	0		Y	?
soobstvenusti	####				
Peetru	####				
Gantsin	####				
uže	####				
posledovalu	####				
do	####				
põhpisina	####				
nistujaššogoti	####				
dogovora	####				
.	.			Z	
Nakobivšiisja	####				
do	####				
peretaste	####				
v	v	0		Y	?
Lifljandikon	####				
Dvorjasskon	####				
Kreditnon	####				
Obšštveest	####				
poissitunõi	####				
fünd	####				
ha	ha	0		Y	?
raasreemendi	raas_ree_ment	0		S	sg g
ussedbe	####				
Simo	####				
sude	####				
sakladnõmi	####				
lastame	####				
ettega	####				
toobššestva	####				
,	,			Z	
postupad	####				
takže	####				
v	v	0		Y	?
soobstvenust	####				
Petra	Petra	0		H	sg g
     	Petra	0		H	sg n
Gantsin	####				
.	.			Z	
§	§	0		Y	?
6	6	0		N	?
Vis	####				
hoorased	####				
po	####				
suveršõniku	####				
i	i	0		Y	?
ukriplesiku	####				
nistujašštko	####				
ahta	ahas	0		A	sg g
on	ole	0		V	b
  	ole	0		V	vad
rasdele	####				
nasletstva	####				
neesjot	####				
Peetr	####				
Gantsin	####				
oden	####				
.	.			Z	
V	V	0		O	?
 	V	0		Y	?
udostovervahem	####				
veisega	veis	ga		S	sg kom
võenzlošženagu	####				
aht	####				
etut	####				
soobstvenurutsunud	####				
põhaisas	####				
viime	vii	me		V	me
dogovarivajšussimisja	####				
litsami	####				
.	.			Z	
Tak	####				
suveršeno	####				
v	v	0		Y	?
Kaslava	####				
17	17	0		N	?
feväljar	####				
1895	1895	0		N	?
nagu	nagu	0		D	
    	nagu	0		J	
.	.			Z	
Vduva	####				
Mai	Mai	0		H	sg g
   	Mai	0		H	sg n
   	mai	0		S	sg g
   	mai	0		S	sg n
Gantsin	####				
uur	uur	0		S	sg n
.	.			Z	
Ljude	####				
neegrametsa	####				
,	,			Z	
sa	sina	0		P	sg n
neeju	####				
po	####				
litšnoi	####				
jeja	####				
on	ole	0		V	b
  	ole	0		V	vad
tum	####				
prosbe	####				
rospissalsja	####				
:	:			Z	
Jaan	Jaan	0		H	sg n
    	jaan	0		S	sg n
    	jaan	0		Y	?
Meier	meier	0		S	sg n
/	/			Z	
allkiri	all_kiri	0		S	sg n
/	/			Z	
V	V	0		O	?
 	V	0		Y	?
katšestve	####				
suvetniku	####				
võdov	####				
Mai	Mai	0		H	sg g
   	Mai	0		H	sg n
   	mai	0		S	sg g
   	mai	0		S	sg n
Gantsin	####				
rospissalsja	####				
:	:			Z	
Peetr	####				
Mikelev	####				
Gantsin	####				
,	,			Z	
no	no	0		I	
po	####				
neegrametnosti	####				
Petra	Petra	0		H	sg g
     	Petra	0		H	sg n
Mikeleva	####				
Gantsin	####				
po	####				
litšnoi	####				
jägu	####				
ommet	####				
prosbe	####				
rospissalsja	####				
Johan	Johan	0		H	sg n
Ling	ling	0		S	sg n
/	/			Z	
allkiri	all_kiri	0		S	sg n
/	/			Z	
Jüri	Jüri	0		H	sg g
    	Jüri	0		H	sg n
Hansen	Hansen	0		H	sg n
/	/			Z	
allkiri	all_kiri	0		S	sg n
/	/			Z	
po	####				
neegrametnosti	####				
Jana	Jana	0		H	sg g
    	Jana	0		H	sg n
Joganuva	####				
Gantsin	####				
po	####				
litšnoi	####				
jägu	####				
on	ole	0		V	b
  	ole	0		V	vad
tum	####				
prosbe	####				
raspissalsja	####				
Jüri	Jüri	0		H	sg g
    	Jüri	0		H	sg n
Hansen	Hansen	0		H	sg n
/	/			Z	
allkiri	all_kiri	0		S	sg n
/	/			Z	
Peeter	Peeter	0		H	sg n
Hansen	Hansen	0		H	sg n
/	/			Z	
allkiri	all_kiri	0		S	sg n
Juun	####				
Hansen	Hansen	0		H	sg n
/	/			Z	
allkiri	all_kiri	0		S	sg n
/	/			Z	
Kusta	Kusta	0		H	sg g
     	Kusta	0		H	sg n
     	kuse	ta		V	da
     	kuse	ta		V	ta
Hansen	Hansen	0		H	sg n
/	/			Z	
allkiri	all_kiri	0		S	sg n
Anna	and	0		V	o
    	Anna	0		H	sg g
    	Anna	0		H	sg n
    	anna	0		S	sg g
    	anna	0		S	sg n
Kroomas	####				
sünd	sünd	0		S	sg n
    	sünd	0		Y	?
.	.			Z	
Hansen	Hansen	0		H	sg n
/	/			Z	
allkiri	all_kiri	0		S	sg n
/	/			Z	
Jüri	Jüri	0		H	sg g
    	Jüri	0		H	sg n
Kroomas	####				
/	/			Z	
allkiri	all_kiri	0		S	sg n
/	/			Z	
Miina	Miina	0		H	sg g
     	Miina	0		H	sg n
Hansen	Hansen	0		H	sg n
/	/			Z	
allkiri	all_kiri	0		S	sg n
/	/			Z	
Liisa	Liisa	0		H	sg g
     	Liisa	0		H	sg n
Hansen	Hansen	0		H	sg n
/	/			Z	
allkiri	all_kiri	0		S	sg n
/	/			Z	
Leena	Lee	na		H	sg es
     	Leena	0		H	sg g
     	Leena	0		H	sg n
Ausen	####				
/	/			Z	
allkiri	all_kiri	0		S	sg n
/	/			Z	
po	####				
neegrametnosti	####				
Petra	Petra	0		H	sg g
     	Petra	0		H	sg n
Mikeleva	####				
Gantsin	####				
po	####				
litšnoi	####				
jägu	####				
on	ole	0		V	b
  	ole	0		V	vad
tum	####				
prosbe	####				
rospissalsja	####				
Johan	Johan	0		H	sg n
Ling	ling	0		S	sg n
/	/			Z	
allkiri	all_kiri	0		S	sg n
/	/			Z	
sovetnik	####				
mine	mine	0		V	o
i	i	0		Y	?
Litse	lits	e		S	pl p
Gantsin	####				
:	:			Z	
Jüri	Jüri	0		H	sg g
    	Jüri	0		H	sg n
Hansen	Hansen	0		H	sg n
/	/			Z	
allkiri	all_kiri	0		S	sg n
/	/			Z	
Estenkija	####				
poisitab	####				
:	:			Z	
Johan	Johan	0		H	sg n
Ling	ling	0		S	sg n
,	,			Z	
Jüri	Jüri	0		H	sg g
    	Jüri	0		H	sg n
Hansen	Hansen	0		H	sg n
,	,			Z	
Peeter	Peeter	0		H	sg n
Hansen	Hansen	0		H	sg n
,	,			Z	
Anna	and	0		V	o
    	Anna	0		H	sg g
    	Anna	0		H	sg n
    	anna	0		S	sg g
    	anna	0		S	sg n
Kroomas	####				
sünd	sünd	0		S	sg n
    	sünd	0		Y	?
.	.			Z	
Hansen	Hansen	0		H	sg n
,	,			Z	
Jüri	Jüri	0		H	sg g
    	Jüri	0		H	sg n
Kroomas	####				
,	,			Z	
Mina	mina	0		P	sg n
    	mina	0		S	sg g
    	mina	0		S	sg n
    	mina	0		S	sg p
Hansen	Hansen	0		H	sg n
,	,			Z	
Liisa	Liisa	0		H	sg g
     	Liisa	0		H	sg n
Hansen	Hansen	0		H	sg n
,	,			Z	
Leena	Lee	na		H	sg es
     	Leena	0		H	sg g
     	Leena	0		H	sg n
Hansen	Hansen	0		H	sg n
,	,			Z	
Johan	Johan	0		H	sg n
Ling	ling	0		S	sg n
otsnapšautsja	####				
po	####				
ruski	####				
:	:			Z	
Joun	####				
Ling	ling	0		S	sg n
,	,			Z	
Jürii	####				
Hansen	Hansen	0		H	sg n
,	,			Z	
Peetr	####				
Hansen	Hansen	0		H	sg n
,	,			Z	
Anna	and	0		V	o
    	Anna	0		H	sg g
    	Anna	0		H	sg n
    	anna	0		S	sg g
    	anna	0		S	sg n
Kronna	####				
uur	uur	0		S	sg n
.	.			Z	
Hansen	Hansen	0		H	sg n
;	;			Z	
Juri	Juri	0		H	sg g
    	Juri	0		H	sg n
Kroomas	####				
,	,			Z	
Mina	mina	0		P	sg n
    	mina	0		S	sg g
    	mina	0		S	sg n
    	mina	0		S	sg p
Gantsena	####				
,	,			Z	
Lisa	lisa	0		S	sg g
    	lisa	0		V	o
    	lisa	0		S	sg n
    	lisa	0		S	sg p
Hansena	####				
,	,			Z	
Leena	Lee	na		H	sg es
     	Leena	0		H	sg g
     	Leena	0		H	sg n
Hansen	Hansen	0		H	sg n
,	,			Z	
Joun	####				
Ling	ling	0		S	sg n
,	,			Z	
Kusta	Kusta	0		H	sg g
     	Kusta	0		H	sg n
     	kuse	ta		V	da
     	kuse	ta		V	ta
Hansen	Hansen	0		H	sg n
.	.			Z	
Tõsšajat	####				
vosemsut	####				
devastanud	####				
pujatud	####				
nagu	nagu	0		D	
    	nagu	0		J	
Feväljar	####				
17	17	0		N	?
annud	####				
nistujaštsidi	####				
rasdelnõi	####				
aht	####				
vale	vale	0		A	sg g
    	vale	0		A	sg n
    	vale	0		S	sg g
    	vale	0		S	sg n
v	v	0		Y	?
14	14	0		N	?
Voldeostnud	####				
Sude	####				
ukruga	####				
2	2	0		N	?
Jurjevskoga	####				
Vernjagu	####				
Kristjasikaga	####				
suda	####				
vdovoju	####				
Mai	Mai	0		H	sg g
   	Mai	0		H	sg n
   	mai	0		S	sg g
   	mai	0		S	sg n
Gantsena	####				
uur	uur	0		S	sg n
.	.			Z	
Ljude	####				
,	,			Z	
i	i	0		Y	?
priglašõmen	####				
jeja	####				
assidenton	####				
Petra	Petra	0		H	sg g
     	Petra	0		H	sg n
Mikeleva	####				
Gantsena	####				
,	,			Z	
Annoju	####				
Juunovoju	####				
Kroomas	####				
uur	uur	0		S	sg n
.	.			Z	
Gantsin	####				
prii	prii	0		A	sg g
    	prii	0		A	sg n
assidentsii	####				
jeja	####				
muža	####				
Jurja	####				
Kronna	####				
,	,			Z	
Leenoju	####				
Gantsin	####				
prii	prii	0		A	sg g
    	prii	0		A	sg n
assidentsii	####				
jeja	####				
muža	####				
Petra	Petra	0		H	sg g
     	Petra	0		H	sg n
Miheleva	####				
Gantsin	####				
,	,			Z	
Minoju	####				
i	i	0		Y	?
Lisoju	####				
Juunovõmi	####				
Gantsin	####				
prii	prii	0		A	sg g
    	prii	0		A	sg n
assidentsii	####				
ih	ih	0		I	
priglanõhšen	####				
Jurja	####				
Gantsin	####				
,	,			Z	
Jurjem	####				
Janum	####				
,	,			Z	
Juunon	####				
,	,			Z	
Kustaja	####				
i	i	0		Y	?
Petron	####				
Juunovõm	####				
Gantsin	####				
,	,			Z	
šlitno	####				
vitsiksnõmi	####				
volostnoomi	####				
Sutud	####				
i	i	0		Y	?
imejuštšimi	####				
sakonjunud	####				
k	k	0		Y	?
suveršõniku	####				
öövaht	öö_vaht	0		S	sg n
pravosposoobnusti	####				
.	.			Z	
prii	prii	0		A	sg g
    	prii	0		A	sg n
ommet	####				
vöostnuid	####				
suud	suu	d		S	pl n
    	suu	d		S	sg p
udostoverad	####				
,	,			Z	
tšto	####				
Jürii	####				
Gantsin	####				
,	,			Z	
Joun	####				
Gantsin	####				
,	,			Z	
Anna	and	0		V	o
    	Anna	0		H	sg g
    	Anna	0		H	sg n
    	anna	0		S	sg g
    	anna	0		S	sg n
Kronna	####				
,	,			Z	
Juri	Juri	0		H	sg g
    	Juri	0		H	sg n
Kronna	####				
,	,			Z	
Mina	mina	0		P	sg n
    	mina	0		S	sg g
    	mina	0		S	sg n
    	mina	0		S	sg p
Gantsin	####				
,	,			Z	
Lisa	lisa	0		S	sg g
    	lisa	0		V	o
    	lisa	0		S	sg n
    	lisa	0		S	sg p
Gantsin	####				
,	,			Z	
Leena	Lee	na		H	sg es
     	Leena	0		H	sg g
     	Leena	0		H	sg n
Gantsin	####				
,	,			Z	
Peetr	####				
Juunov	####				
Gantsin	####				
põhaiskami	####				
soobstvenurutsunud	####				
,	,			Z	
i	i	0		Y	?
sa	sina	0		P	sg n
neegrametnõe	####				
Mai	Mai	0		H	sg g
   	Mai	0		H	sg n
   	mai	0		S	sg g
   	mai	0		S	sg n
Gantsin	####				
,	,			Z	
Jan	Jan	0		H	sg n
Gantsin	####				
i	i	0		Y	?
Petra	Petra	0		H	sg g
     	Petra	0		H	sg n
Mikeleva	####				
Gantsin	####				
po	####				
ih	ih	0		I	
on	ole	0		V	b
  	ole	0		V	vad
tum	####				
prosbe	####				
rospissalis	####				
:	:			Z	
Jan	Jan	0		H	sg n
Meier	meier	0		S	sg n
i	i	0		Y	?
Joun	####				
Ling	ling	0		S	sg n
,	,			Z	
Jürii	####				
Hansen	Hansen	0		H	sg n
Pratsedel	####				
vol	####				
.	.			Z	
suda	####				
:	:			Z	
J. Hansen	####				
/	/			Z	
allkiri	all_kiri	0		S	sg n
/	/			Z	
Pissar	####				
K. Laar	####				
/	/			Z	
allkiri	all_kiri	0		S	sg n
/	/			Z	
/	/			Z	
XIV	XIV	0		O	?
   	XIV	0		Y	?
vallakohtu	valla_kohus	0		S	sg g
piitser	####				
/	/			Z	
