Mõisa	mõis	0		S	sg g
karjus	karju	s		V	s
      	karjus	0		S	sg n
Hans	Hans	0		H	sg n
rattasep	####				
kaebab	kaeba	b		V	b
monaese	####				
Aan	####				
Pagoti	####				
,	,			Z	
Villemi	Villem	0		H	sg g
naese	####				
peale	pea	le		S	sg all
     	peale	0		D	
     	peale	0		K	
,	,			Z	
se	####				
olla	ole	a		V	da
teda	tema	da		P	sg p
üks	üks	0		N	sg n
   	üks	0		P	sg n
kord	kord	0		D	
    	kord	0		S	sg n
toovri	####				
puuga	puu	ga		S	sg kom
ja	ja	0		J	
teine	teine	0		O	sg n
     	teine	0		P	sg n
kord	kord	0		D	
    	kord	0		S	sg n
luua	loo	a		V	da
    	luud	0		S	sg g
varega	vare	ga		S	sg kom
lõõnud	####				
,	,			Z	
selle	see	0		P	sg g
     	sell	e		S	pl p
,	,			Z	
et	et	0		J	
ta	tema	0		P	sg g
  	tema	0		P	sg n
õõlnud	####				
,	,			Z	
""""	""""			Z	
Villemi	Villem	0		H	sg g
naine	naine	0		S	sg n
mis	mis	0		P	pl n
   	mis	0		P	sg n
sa	sina	0		P	sg n
jakki	jakk	0		S	adt
     	jakk	0		S	sg p
seie	####				
panned	####				
ja	ja	0		J	
seda	see	da		P	sg p
minule	mina	le		P	sg all
teed	tee	d		S	pl n
    	tege	d		V	d
    	tee	d		S	sg p
,	,			Z	
nõuab	nõud	b		V	b
selle	see	0		P	sg g
     	sell	e		S	pl p
eest	eest	0		D	
    	eest	0		K	
    	esi	st		S	sg el
10.	10.	0		O	?
rubla	rubla	0		S	sg g
     	rubla	0		S	sg n
     	rubla	0		S	sg p
.	.			Z	
Aan	####				
Pagot	Pago	t		H	sg p
oma	oma	0		A	sg g
   	oma	0		D	
   	oma	0		P	sg g
   	oma	0		S	sg g
   	oma	0		V	o
   	oma	0		A	sg n
   	oma	0		A	sg p
   	oma	0		P	sg n
   	oma	0		P	sg p
   	oma	0		S	sg n
   	oma	0		S	sg p
mehe	mees	0		S	sg g
Villemiga	Villem	ga		H	sg kom
kostab	kost	b		V	b
kaebduse	####				
peale	pea	le		S	sg all
     	peale	0		D	
     	peale	0		K	
,	,			Z	
et	et	0		J	
Hans	Hans	0		H	sg n
rattasep	####				
olla	ole	a		V	da
teda	tema	da		P	sg p
jakki	jakk	0		S	adt
     	jakk	0		S	sg p
vargaks	varas	ks		S	sg tr
tehnud	####				
,	,			Z	
lõõnud	####				
rusikaga	rusikas	ga		S	sg kom
rindu	rind	u		S	pl p
     	rindu	0		D	
ja	ja	0		J	
pandnud	####				
teda	tema	da		P	sg p
kambri	kamber	0		S	sg g
kinni	kinni	0		D	
,	,			Z	
pärast	pära	st		S	sg el
      	pärane	t		A	sg p
      	pärast	0		D	
      	pärast	0		K	
tükkinud	tükki	nud		V	nud
        	tükki=nu	d		S	pl n
        	tükki=nud	0		A	
        	tükki=nud	0		A	sg n
        	tükki=nud	d		A	pl n
jälle	jälle	0		D	
temale	tema	le		P	sg all
kallale	kalla	le		S	sg all
       	kallale	0		D	
       	kallale	0		K	
,	,			Z	
mis	mis	0		P	pl n
   	mis	0		P	sg n
peale	pea	le		S	sg all
     	peale	0		D	
     	peale	0		K	
tema	tema	0		P	sg g
    	tema	0		P	sg n
siis	siis	0		D	
    	siis	0		J	
Hans	Hans	0		H	sg n
rattaseppale	####				
toovri	####				
puuga	puu	ga		S	sg kom
,	,			Z	
ja	ja	0		J	
lõppes	lõp	es		V	des
      	lõppe	s		V	s
      	lõpe	s		S	sg in
tuhalabidaga	tuha_labidas	ga		S	sg kom
lõõnud	####				
.	.			Z	
Lena	####				
Allik	Allik	0		H	sg n
tunnistab	tunnista	b		V	b
,	,			Z	
et	et	0		J	
Hans	Hans	0		H	sg n
rattasep	####				
olla	ole	a		V	da
Aan	####				
Pagotile	####				
õõlnud	####				
:	:			Z	
""""	""""			Z	
sa	sina	0		P	sg n
varastasid	varasta	sid		V	sid
jakki	jakk	0		S	adt
     	jakk	0		S	sg p
ja	ja	0		J	
panid	pan	d		S	pl n
     	pani	d		S	pl n
     	pane	id		V	sid
minu	mina	0		P	sg g
kiusu	kius	0		S	adt
     	kius	0		S	sg g
     	kius	0		S	sg p
seie	####				
,	,			Z	
ja	ja	0		J	
siis	siis	0		D	
    	siis	0		J	
võtnud	võt	nud		V	nud
      	võt=nu	d		S	pl n
      	võt=nud	0		A	
      	võt=nud	0		A	sg n
      	võt=nud	d		A	pl n
Aan	####				
Pagoti	####				
lua	####				
vare	vare	0		S	sg g
    	vare	0		S	sg n
ja	ja	0		J	
lõõnud	####				
sellega	see	ga		P	sg kom
vars	vars	0		S	sg n
karanud	karga	nud		V	nud
       	kara=nu	d		S	pl n
       	kara=nud	0		A	
       	kara=nud	0		A	sg n
       	kara=nud	d		A	pl n
otsast	ots	st		S	sg el
      	otsast	0		K	
ära	ära	0		D	
   	ära	0		V	neg o
,	,			Z	
siis	siis	0		D	
    	siis	0		J	
lähud	####				
Aan	####				
Pagot	Pago	t		H	sg p
puu	puu	0		S	sg g
   	puu	0		S	sg n
halgu	halg	0		S	adt
     	halg	0		S	sg p
toast	tuba	st		S	sg el
võtma	võt	ma		V	ma
,	,			Z	
mes	####				
peale	pea	le		S	sg all
     	peale	0		D	
     	peale	0		K	
karjus	karju	s		V	s
      	karjus	0		S	sg n
ukse	uks	0		S	sg g
kinni	kinni	0		D	
pandnud	####				
.	.			Z	
els	####				
Sulla	sulla	0		D	
tunnistab	tunnista	b		V	b
,	,			Z	
et	et	0		J	
Aan	####				
Pagot	Pago	t		H	sg p
olla	ole	a		V	da
Hans	Hans	0		H	sg n
rattaseppa	ratta_sepp	0		S	adt
          	ratta_sepp	0		S	sg p
2.	2.	0		O	?
korda	kord	0		S	adt
     	korda	0		V	o
     	kord	0		S	sg p
toovri	####				
puuga	puu	ga		S	sg kom
lõõnud	####				
,	,			Z	
karjus	karju	s		V	s
      	karjus	0		S	sg n
tükkinud	tükki	nud		V	nud
        	tükki=nu	d		S	pl n
        	tükki=nud	0		A	
        	tükki=nud	0		A	sg n
        	tükki=nud	d		A	pl n
naese	####				
liggi	####				
ja	ja	0		J	
siis	siis	0		D	
    	siis	0		J	
lõõnud	####				
teda	tema	da		P	sg p
naine	naine	0		S	sg n
,	,			Z	
ni	####				
kui	kui	0		D	
   	kui	0		J	
tunnistud	####				
.	.			Z	
Tunnistus	tunnistus	0		S	sg n
sai	saa	i		V	s
   	sai	0		S	sg n
avvaldut	####				
.	.			Z	
kogukonna	kogukond	0		S	sg g
kohus	kohu	s		V	s
     	kohus	0		S	sg n
moistis	####				
:	:			Z	
On	ole	0		V	b
  	ole	0		V	vad
Aan	####				
Pagot	Pago	t		H	sg p
ja	ja	0		J	
Hans	Hans	0		H	sg n
rattasep	####				
vastastikku	vastastikku	0		D	
tüli	tüli	0		S	sg g
    	tüli	0		S	sg n
    	tüli	0		S	sg p
tõstnud	tõst	nud		V	nud
       	tõst=nu	d		S	pl n
       	tõst=nud	0		A	
       	tõst=nud	0		A	sg n
       	tõst=nud	d		A	pl n
,	,			Z	
s.o.	s.o	0		Y	?
teine	teine	0		O	sg n
     	teine	0		P	sg n
sõimanud	sõima	nud		V	nud
        	sõima=nu	d		S	pl n
        	sõima=nud	0		A	
        	sõima=nud	0		A	sg n
        	sõima=nud	d		A	pl n
ja	ja	0		J	
teine	teine	0		O	sg n
     	teine	0		P	sg n
lõõnud	####				
,	,			Z	
siis	siis	0		D	
    	siis	0		J	
maksad	maks	d		S	pl n
      	maks	d		V	d
kumbgi	####				
4.	4.	0		O	?
rubla	rubla	0		S	sg g
     	rubla	0		S	sg n
     	rubla	0		S	sg p
vaesteladiko	####				
trahviks	trahv	ks		S	sg tr
        	trahvi	ks		V	ks
8	8	0		N	?
paeva	####				
sees	sees	0		D	
    	sees	0		K	
/	/			Z	
:	:			Z	
Otsus	otsus	0		S	sg n
kulutud	kulu	tud		V	tud
       	kulu=tu	d		S	pl n
       	kulu=tud	0		A	
       	kulu=tud	0		A	sg n
       	kulu=tud	d		A	pl n
sel	see	l		P	sg ad
   	sel	0		Y	?
18.	18.	0		O	?
Augustil	august	l		S	sg ad
        	August	l		H	sg ad
.	.			Z	
c	c	0		Y	?
.	.			Z	
18.60	18.60	0		N	?
a.	a	0		Y	?
välja	välja	0		D	
     	välja	0		V	o
     	väli	0		S	adt
     	väli	0		S	sg g
     	väli	0		S	sg p
antud	an=tu	d		S	pl n
     	and	tud		V	tud
     	antud	0		A	
     	antud	0		A	sg n
     	antud	d		A	pl n
Tallorahva	####				
seaduse	seadus	0		S	sg g
ramatu	####				
§§	§§	0		Y	?
772	772	0		N	?
ja	ja	0		J	
773	773	0		N	?
juhatusel	juhatus	l		S	sg ad
,	,			Z	
ja	ja	0		J	
oppuse	####				
kirjad	kirja	d		V	d
      	kiri	d		S	pl n
väljaantud	välja_antud	0		A	
          	välja_antud	0		A	sg n
          	välja_antud	d		A	pl n
:	:			Z	
/	/			Z	
A	A	0		Y	?
.	.			Z	
_	_			Z	
Krim	####				
[	[			Z	
allkiri	all_kiri	0		S	sg n
]	]			Z	
,	,			Z	
pea	pea	0		D	
   	pea	0		S	sg g
   	pida	0		V	o
   	pea	0		S	sg n
xxx	####				
Josep	####				
Maddi	####				
,	,			Z	
kohtumees	kohtu_mees	0		S	sg n
xxx	####				
Tavet	####				
kook	kook	0		S	sg n
,	,			Z	
""""	""""			Z	
