Peeter	Peeter	0		H	sg n
Matson	####				
kaebas	kaeba	s		V	s
et	et	0		J	
tema	tema	0		P	sg g
    	tema	0		P	sg n
katud	katt	d		S	pl n
Matsonile	####				
31	31	0		N	?
päeva	päev	0		S	adt
     	päev	0		S	sg g
     	päev	0		S	sg p
orjanud	orja	nud		V	nud
       	orja=nu	d		S	pl n
       	orja=nud	0		A	
       	orja=nud	0		A	sg n
       	orja=nud	d		A	pl n
nõuab	nõud	b		V	b
40	40	0		N	?
kop	kop	0		Y	?
.	.			Z	
päeva	päev	0		S	adt
     	päev	0		S	sg g
     	päev	0		S	sg p
eest	eest	0		D	
    	eest	0		K	
    	esi	st		S	sg el
,	,			Z	
see	see	0		P	sg n
on	ole	0		V	b
  	ole	0		V	vad
12	12	0		N	?
rubla	rubla	0		S	sg g
     	rubla	0		S	sg n
     	rubla	0		S	sg p
40	40	0		N	?
kop	kop	0		Y	?
.	.			Z	
katud	katt	d		S	pl n
Matson	####				
,	,			Z	
eestkostja	eest_kostja	0		S	sg g
          	eest_kostja	0		S	sg n
man	man	0		D	
   	man	0		K	
seistis	####				
,	,			Z	
ütles	ütle	s		V	s
et	et	0		J	
kaebaja	kaebaja	0		S	sg g
       	kaebaja	0		S	sg n
küll	küll	0		D	
    	küll	0		S	sg n
temale	tema	le		P	sg all
söögivahete	####				
viisi	viis	0		S	adt
     	viis	0		S	sg g
     	viis	i		N	pl p
     	viisi	0		K	
     	viis	0		S	sg p
on	ole	0		V	b
  	ole	0		V	vad
tööd	töö	d		S	pl n
    	töö	d		S	sg p
teinud	tege	nud		V	nud
      	tei=nud	0		A	
      	tei=nud	0		A	sg n
      	tei=nud	d		A	pl n
      	teinu	d		S	pl n
aga	aga	0		J	
selle	see	0		P	sg g
     	sell	e		S	pl p
eest	eest	0		D	
    	eest	0		K	
    	esi	st		S	sg el
on	ole	0		V	b
  	ole	0		V	vad
kõik	kõik	0		P	pl n
    	kõik	0		S	sg n
    	kõik	0		P	sg n
ära	ära	0		D	
   	ära	0		V	neg o
tasutud	tasu	tud		V	tud
       	tasu=tu	d		S	pl n
       	tasu=tud	0		A	
       	tasu=tud	0		A	sg n
       	tasu=tud	d		A	pl n
suugu	####				
et	et	0		J	
hobust	hobu	st		S	sg el
      	hobune	t		S	sg p
on	ole	0		V	b
  	ole	0		V	vad
andnud	and	nud		V	nud
      	and=nu	d		S	pl n
      	and=nud	0		A	
      	and=nud	0		A	sg n
      	and=nud	d		A	pl n
ja	ja	0		J	
ka	ka	0		D	
üks	üks	0		N	sg n
   	üks	0		P	sg n
koorem	koorem	0		S	sg n
heina	hein	0		S	adt
     	hein	0		S	sg g
     	hein	0		S	sg p
ning	ning	0		J	
2	2	0		N	?
rubla	rubla	0		S	sg g
     	rubla	0		S	sg n
     	rubla	0		S	sg p
55	55	0		N	?
kop	kop	0		Y	?
.	.			Z	
raha	raha	0		S	sg g
    	raha	0		S	sg n
    	raha	0		S	sg p
.	.			Z	
tasumata	tasu	mata		V	mata
        	tasumata	0		A	
ei	ei	0		D	
  	ei	0		V	neg
ole	ole	0		V	o
midagi	miski	dagi		P	sg p
.	.			Z	
Mõiste	mõiste	0		S	sg g
      	mõiste	0		S	sg n
:	:			Z	
et	et	0		J	
ükstõist	####				
on	ole	0		V	b
  	ole	0		V	vad
avitanud	avita	nud		V	nud
        	avita=nu	d		S	pl n
        	avita=nud	0		A	
        	avita=nud	0		A	sg n
        	avita=nud	d		A	pl n
,	,			Z	
ei	ei	0		D	
  	ei	0		V	neg
ole	ole	0		V	o
Peeter	Peeter	0		H	sg n
Matsonil	####				
midagi	miski	dagi		P	sg p
katud	katt	d		S	pl n
Matsoni	####				
käest	käest	0		K	
     	käsi	st		S	sg el
nõuda	nõud	a		V	da
.	.			Z	
Peakohtumees	pea_kohtu_mees	0		S	sg n
:	:			Z	
Peeter	Peeter	0		H	sg n
Kripson	####				
XXX	XXX	0		O	?
   	XXX	0		Y	?
kohtumees	kohtu_mees	0		S	sg n
:	:			Z	
Peeter	Peeter	0		H	sg n
Hendrikson	####				
XXX	XXX	0		O	?
   	XXX	0		Y	?
kohtumees	kohtu_mees	0		S	sg n
:	:			Z	
kohta	koht	0		S	adt
     	kohta	0		K	
     	kohta	0		V	o
     	koht	0		S	sg p
Vosman	####				
XXX	XXX	0		O	?
   	XXX	0		Y	?
Mõiste	mõiste	0		S	sg g
      	mõiste	0		S	sg n
sai	saa	i		V	s
   	sai	0		S	sg n
kuulutatud	kuuluta	tud		V	tud
          	kuuluta=tu	d		S	pl n
          	kuuluta=tud	0		A	
          	kuuluta=tud	0		A	sg n
          	kuuluta=tud	d		A	pl n
T	T	0		Y	?
.	.			Z	
S	S	0		Y	?
.	.			Z	
R	R	0		Y	?
.	.			Z	
§	§	0		Y	?
772	772	0		N	?
-	-			Z	
774	774	0		N	?
järele	järele	0		D	
      	järele	0		K	
aastast	aasta	st		S	sg el
       	aastane	t		A	sg p
1860	1860	0		N	?
ja	ja	0		J	
õpus	####				
antud	an=tu	d		S	pl n
     	and	tud		V	tud
     	antud	0		A	
     	antud	0		A	sg n
     	antud	d		A	pl n
,	,			Z	
mis	mis	0		P	pl n
   	mis	0		P	sg n
tähele	täht	le		S	sg all
      	tähele	0		X	
panna	pand	0		S	sg g
     	pane	a		V	da
     	panna	0		S	sg g
     	panna	0		S	sg n
tuleb	tule	b		V	b
,	,			Z	
kui	kui	0		D	
   	kui	0		J	
keegi	kee	0	gi	S	sg g
     	kee	0	gi	V	o
     	keegi	0		P	sg n
     	kee	0	gi	S	sg n
kõrgemat	kõrgem	t		C	sg p
        	kõrgem	t		S	sg p
kohut	kohus	t		S	sg p
nõuab	nõud	b		V	b
ning	ning	0		J	
ei	ei	0		D	
  	ei	0		V	neg
olnud	ol=nud	0		A	
     	ol=nud	0		A	sg n
     	ol=nud	d		A	pl n
     	ole	nud		V	nud
     	olnu	d		S	pl n
Peeter	Peeter	0		H	sg n
Matson	####				
rahul	rahu	l		S	sg ad
     	rahul	0		D	
.	.			Z	
kirjutaja	kirjutaja	0		S	sg g
         	kirjutaja	0		S	sg n
:	:			Z	
Ch	####				
Kapp	kapp	0		S	sg n
allkiri	all_kiri	0		S	sg n
