1	1	0		N	?
)	)			Z	
endise	endine	0		A	sg g
Peesi	####				
kõrtsimehe	kõrtsi_mees	0		S	sg g
Jaan	Jaan	0		H	sg n
    	jaan	0		S	sg n
    	jaan	0		Y	?
Laane	laas	0		S	sg g
kaebuse	kaebus	0		S	sg g
pääle	####				
et	et	0		J	
Kõkkõra-kallaste	####				
majaperemees	maja_pere_mees	0		S	sg n
Timofei	####				
Ivanov	Ivanov	0		H	sg n
Voroni	####				
olla	ole	a		V	da
mineva	minev	0		A	sg g
suvel	suvi	l		S	sg ad
1	1	0		N	?
laua	laud	0		S	sg g
kõrtsid	kõrts	d		S	pl n
äravarastanud	ära_varasta=nu	d		S	pl n
             	ära_varasta=nud	0		A	
             	ära_varasta=nud	0		A	sg n
             	ära_varasta=nud	d		A	pl n
mis	mis	0		P	pl n
   	mis	0		P	sg n
ka	ka	0		D	
Voroni	####				
ei	ei	0		D	
  	ei	0		V	neg
salganud	####				
,	,			Z	
sai	saa	i		V	s
   	sai	0		S	sg n
leppitud	####				
ja	ja	0		J	
mainitud	maini	tud		V	tud
        	mainitu	d		S	pl n
        	mainitud	0		A	
        	mainitud	0		A	sg n
        	mainitud	d		A	pl n
Voroni	####				
maksab	maks	b		V	b
laua	laud	0		S	sg g
eest	eest	0		D	
    	eest	0		K	
    	esi	st		S	sg el
2	2	0		N	?
rubla	rubla	0		S	sg g
     	rubla	0		S	sg n
     	rubla	0		S	sg p
Jaan	Jaan	0		H	sg n
    	jaan	0		S	sg n
    	jaan	0		Y	?
Laanele	laas	le		S	sg all
ja	ja	0		J	
2	2	0		N	?
rubla	rubla	0		S	sg g
     	rubla	0		S	sg n
     	rubla	0		S	sg p
trahvi	trahv	0		S	adt
      	trahv	0		S	sg g
      	trahvi	0		V	o
      	trahv	0		S	sg p
vaeste	vaene	te		A	pl g
      	vaene	te		S	pl g
laadiku	laadik	0		S	sg g
.	.			Z	
jäid	jää	id		V	sid
rahule	rahu	le		S	sg all
      	rahule	0		D	
.	.			Z	
Voroni	####				
maksis	maks	is		V	s
      	maksi	s		S	sg in
raha	raha	0		S	sg g
    	raha	0		S	sg n
    	raha	0		S	sg p
kohe	kohe	0		A	sg n
    	kohe	0		D	
välja	välja	0		D	
     	välja	0		V	o
     	väli	0		S	adt
     	väli	0		S	sg g
     	väli	0		S	sg p
.	.			Z	
2.	2.	0		O	?
Rootsiküla	####				
majaperemees	maja_pere_mees	0		S	sg n
Ivan	Ivan	0		H	sg n
Aleksejev	Aleksejev	0		H	sg n
Kroch	####				
,	,			Z	
kes	kes	0		P	pl n
   	kes	0		P	sg n
ilma	ilm	0		S	adt
    	ilm	0		S	sg g
    	ilma	0		D	
    	ilma	0		K	
    	ilm	0		S	sg p
kutsumata	kutsu	mata		V	mata
         	kutsumata	0		A	
kohtu	kohtu	0		V	o
     	kohus	0		S	sg g
tuppa	tuba	0		S	adt
astus	astu	s		V	s
mõisteti	mõist	ti		V	ti
24	24	0		N	?
tunni	tund	0		S	sg g
pääle	####				
kinni-	kinni	0		D	
Istub	istu	b		V	b
tuleva	tulev	0		A	sg g
kord	kord	0		D	
    	kord	0		S	sg n
.	.			Z	
3.	3.	0		O	?
Peremees	pere_mees	0		S	sg n
Karel	####				
Vahi	vaht	0		S	sg g
    	vahti	0		V	o
lubab	luba	b		V	b
uut	uus	t		A	sg p
Lõmu-soo	####				
teed	tee	d		S	pl n
    	tege	d		V	d
    	tee	d		S	sg p
tuleva	tulev	0		A	sg g
kevade	kevad	0		S	sg g
      	kevade	0		S	sg g
      	kevade	0		S	sg n
nendasama	####				
parandada	paranda	da		V	da
,	,			Z	
kuidas	kuidas	0		D	
teised	teine	d		O	pl n
      	teine	d		P	pl n
peremehed	pere_mees	d		S	pl n
sügise	sügis	0		S	sg g
parandasid	paranda	sid		V	sid
.	.			Z	
4.	4.	0		O	?
Laht-ne	####				
mees	mees	0		S	sg n
    	mesi	s		S	sg in
Jakov	####				
Makarov	####				
rusov	####				
Ninalt	Nina	lt		H	sg abl
      	nina	lt		S	sg abl
,	,			Z	
kes	kes	0		P	pl n
   	kes	0		P	sg n
kohtu	kohtu	0		V	o
     	kohus	0		S	sg g
ees	ees	0		D	
   	ees	0		K	
   	esi	s		S	sg in
vale-nime	vale-nimi	0		S	sg g
         	vale-nimi	0		S	sg p
Ivan	Ivan	0		H	sg n
Kusovi	####				
omale	oma	le		A	sg all
     	oma	le		P	sg all
     	oma	le		S	sg all
andis	and	is		V	s
istub	istu	b		V	b
24	24	0		N	?
tundi	tund	0		S	adt
     	tund	0		S	sg p
kinni	kinni	0		D	
.	.			Z	
kohtumees	kohtu_mees	0		S	sg n
A	A	0		Y	?
Saul	Saul	0		H	sg n
kohtumees	kohtu_mees	0		S	sg n
M	M	0		O	?
 	M	0		Y	?
kook	kook	0		S	sg n
koihtumehe	####				
abi	abi	0		S	sg g
   	abi	0		S	sg n
   	abi	0		S	sg p
K	K	0		Y	?
Tõruvere	tõru_veri	0		S	sg g
xxx	####				
