Kusta	Kusta	0		H	sg g
     	Kusta	0		H	sg n
     	kuse	ta		V	da
     	kuse	ta		V	ta
Rihm	rihm	0		S	sg n
,	,			Z	
Kähri	####				
vallast	vald	st		S	sg el
,	,			Z	
kaebas	kaeba	s		V	s
et	et	0		J	
temal	tema	l		P	sg ad
Peeter	Peeter	0		H	sg n
häärani	####				
käest	käest	0		K	
     	käsi	st		S	sg el
50	50	0		N	?
rubl	####				
.	.			Z	
raha	raha	0		S	sg g
    	raha	0		S	sg n
    	raha	0		S	sg p
kviitungi	kviitung	0		S	sg g
perra	####				
,	,			Z	
selle	see	0		P	sg g
     	sell	e		S	pl p
raha	raha	0		S	sg g
    	raha	0		S	sg n
    	raha	0		S	sg p
2	2	0		N	?
1	1	0		N	?
/	/			Z	
2	2	0		N	?
aasta	aasta	0		S	sg g
     	aasta	0		S	sg n
protsent	protsent	0		S	sg n
ja	ja	0		J	
2	2	0		N	?
korra	kord	0		S	sg g
kohtus	kohtu	s		V	s
      	kohus	s		S	sg in
käimise	käimine	0		S	sg g
eest	eest	0		D	
    	eest	0		K	
    	esi	st		S	sg el
2	2	0		N	?
rubl	####				
.	.			Z	
saada	saa	da		V	da
     	saat	0		V	o
     	saa	da		V	ta
on	ole	0		V	b
  	ole	0		V	vad
-	-			Z	
mis	mis	0		P	pl n
   	mis	0		P	sg n
tema	tema	0		P	sg g
    	tema	0		P	sg n
kätte	kätte	0		K	
     	käsi	tte		S	adt
nõuab	nõud	b		V	b
.	.			Z	
Peeter	Peeter	0		H	sg n
hääran	####				
ei	ei	0		D	
  	ei	0		V	neg
salga	salga	0		V	o
     	salk	0		S	sg g
seda	see	da		P	sg p
.	.			Z	
Leppisid	leppi	sid		V	sid
:	:			Z	
Peeter	Peeter	0		H	sg n
hääran	####				
peab	pida	b		V	b
kuni	kuni	0		J	
    	kuni	0		K	
1	1	0		N	?
Detsembrini	detsember	ni		S	sg ter
s	s	0		Y	?
.	.			Z	
a.	a	0		Y	?
kõik	kõik	0		P	pl n
    	kõik	0		S	sg n
    	kõik	0		P	sg n
võlg	võlg	0		S	sg n
kviitungi	kviitung	0		S	sg g
perra	####				
Kusta	Kusta	0		H	sg g
     	Kusta	0		H	sg n
     	kuse	ta		V	da
     	kuse	ta		V	ta
Rihma	rihm	0		S	adt
     	rihm	0		S	sg g
     	rihma	0		V	o
     	rihm	0		S	sg p
hääks	####				
välja	välja	0		D	
     	välja	0		V	o
     	väli	0		S	adt
     	väli	0		S	sg g
     	väli	0		S	sg p
maksma	maks	ma		V	ma
.	.			Z	
peakohtumees	pea_kohtu_mees	0		S	sg n
:	:			Z	
P. Kripson	####				
XXX	XXX	0		O	?
   	XXX	0		Y	?
kohtumees	kohtu_mees	0		S	sg n
:	:			Z	
P. Hindrikson	####				
XXX	XXX	0		O	?
   	XXX	0		Y	?
kohtumees	kohtu_mees	0		S	sg n
:	:			Z	
K. Vosmann	####				
XXX	XXX	0		O	?
   	XXX	0		Y	?
kohtumees	kohtu_mees	0		S	sg n
:	:			Z	
Hansing	####				
kirjutaja	kirjutaja	0		S	sg g
         	kirjutaja	0		S	sg n
:	:			Z	
Ch	####				
Kapp	kapp	0		S	sg n
allkiri	all_kiri	0		S	sg n
