Tuli	tuli	0		S	sg n
    	tule	i		V	s
kohtu	kohtu	0		V	o
     	kohus	0		S	sg g
ette	ette	0		D	
    	ette	0		K	
    	esi	tte		S	adt
Allatskivvi	####				
valla	vald	0		S	sg g
     	valla	0		D	
tallo	####				
rentnik	rentnik	0		S	sg n
Mihkel	Mihkel	0		H	sg n
      	mihkel	0		A	sg n
      	mihkel	0		S	sg n
Pärn	pärn	0		S	sg n
ja	ja	0		J	
annab	and	b		V	b
ülesse	ülesse	0		D	
,	,			Z	
et	et	0		J	
temal	tema	l		P	sg ad
olla	ole	a		V	da
õõse	####				
sel	see	l		P	sg ad
   	sel	0		Y	?
21	21	0		N	?
/	/			Z	
22	22	0		N	?
Oktobril	####				
.	.			Z	
c	c	0		Y	?
.	.			Z	
õõse	####				
kodust	kodu	st		S	sg el
      	kodune	t		A	sg p
reia	reig	0		S	sg g
aluse	alune	0		A	sg g
     	alune	0		S	sg g
     	alus	0		S	sg g
otsast	ots	st		S	sg el
      	otsast	0		K	
kuuri	kuur	0		S	adt
     	kuur	0		S	sg g
     	kuur	0		S	sg p
alt	alt	0		S	sg n
   	alt	0		D	
   	alt	0		K	
must	must	0		A	sg n
    	must	0		S	sg n
    	mina	st		P	sg el
mära	mära	0		S	sg g
    	mära	0		S	sg n
    	mära	0		S	sg p
hobune	hobune	0		S	sg n
,	,			Z	
väärt	väärt	0		A	
     	väärt	0		D	
60.	60.	0		O	?
rubla	rubla	0		S	sg g
     	rubla	0		S	sg n
     	rubla	0		S	sg p
valjastega	valjad	tega		S	pl kom
ära	ära	0		D	
   	ära	0		V	neg o
olla	ole	a		V	da
varastud	####				
.	.			Z	
kui	kui	0		D	
   	kui	0		J	
tema	tema	0		P	sg g
    	tema	0		P	sg n
hommiko	####				
vara	vara	0		D	
    	vara	0		S	sg g
    	vara	0		S	sg n
    	vara	0		S	sg p
oma	oma	0		A	sg g
   	oma	0		D	
   	oma	0		P	sg g
   	oma	0		S	sg g
   	oma	0		V	o
   	oma	0		A	sg n
   	oma	0		A	sg p
   	oma	0		P	sg n
   	oma	0		P	sg p
   	oma	0		S	sg n
   	oma	0		S	sg p
väimehe	väi_mees	0		S	sg g
Jakob	Jakob	0		H	sg n
Tikkuga	####				
hobuse	hobune	0		S	sg g
puudus	puudu	s		V	s
      	puudus	0		S	sg n
leidnud	leid	nud		V	nud
       	leid=nu	d		S	pl n
       	leid=nud	0		A	
       	leid=nud	0		A	sg n
       	leid=nud	d		A	pl n
,	,			Z	
vadanud	vada	nud		V	nud
       	vada=nu	d		S	pl n
       	vada=nud	0		A	
       	vada=nud	0		A	sg n
       	vada=nud	d		A	pl n
nemad	tema	d		P	pl n
jälgi	jälg	i		S	pl p
     	jälgi	0		V	o
     	jälk	0		A	sg g
ja	ja	0		J	
leidnud	leid	nud		V	nud
       	leid=nu	d		S	pl n
       	leid=nud	0		A	
       	leid=nud	0		A	sg n
       	leid=nud	d		A	pl n
neist	see	st		P	pl el
     	tema	st		P	pl el
jälgedest	jälg	dest		S	pl el
et	et	0		J	
varas	vara	s		S	sg in
     	varas	0		S	sg n
hobuse	hobune	0		S	sg g
oma	oma	0		A	sg g
   	oma	0		D	
   	oma	0		P	sg g
   	oma	0		S	sg g
   	oma	0		V	o
   	oma	0		A	sg n
   	oma	0		A	sg p
   	oma	0		P	sg n
   	oma	0		P	sg p
   	oma	0		S	sg n
   	oma	0		S	sg p
käe	käsi	0		S	sg g
otsas	ots	s		S	sg in
     	otsa	s		V	s
     	otsas	0		D	
     	otsas	0		K	
maantee	maan_tee	0		S	sg g
       	maan_tee	0		S	sg n
peale	pea	le		S	sg all
     	peale	0		D	
     	peale	0		K	
välja	välja	0		D	
     	välja	0		V	o
     	väli	0		S	adt
     	väli	0		S	sg g
     	väli	0		S	sg p
on	ole	0		V	b
  	ole	0		V	vad
veenud	####				
ja	ja	0		J	
seal	seal	0		D	
    	siga	l		A	sg ad
    	siga	l		S	sg ad
oma	oma	0		A	sg g
   	oma	0		D	
   	oma	0		P	sg g
   	oma	0		S	sg g
   	oma	0		V	o
   	oma	0		A	sg n
   	oma	0		A	sg p
   	oma	0		P	sg n
   	oma	0		P	sg p
   	oma	0		S	sg n
   	oma	0		S	sg p
hobuse	hobune	0		S	sg g
kõrvu	kõrv	u		S	pl p
     	kõrvu	0		D	
,	,			Z	
mis	mis	0		P	pl n
   	mis	0		P	sg n
vankre	####				
ees	ees	0		D	
   	ees	0		K	
   	esi	s		S	sg in
on	ole	0		V	b
  	ole	0		V	vad
olnud	ol=nud	0		A	
     	ol=nud	0		A	sg n
     	ol=nud	d		A	pl n
     	ole	nud		V	nud
     	olnu	d		S	pl n
pandnud	####				
,	,			Z	
ja	ja	0		J	
kodavere	koda_veri	0		S	sg g
keriko	####				
poole	pool	0		N	sg g
     	pool	0		S	sg g
     	pool	e		S	pl p
     	poole	0		K	
     	poole	0		S	sg n
äralähud	####				
.	.			Z	
Tema	tema	0		P	sg g
    	tema	0		P	sg n
lähud	####				
oma	oma	0		A	sg g
   	oma	0		D	
   	oma	0		P	sg g
   	oma	0		S	sg g
   	oma	0		V	o
   	oma	0		A	sg n
   	oma	0		A	sg p
   	oma	0		P	sg n
   	oma	0		P	sg p
   	oma	0		S	sg n
   	oma	0		S	sg p
väimehega	väi_mees	ga		S	sg kom
mõda	####				
jälgi	jälg	i		S	pl p
     	jälgi	0		V	o
     	jälk	0		A	sg g
järele	järele	0		D	
      	järele	0		K	
,	,			Z	
ja	ja	0		J	
võtnud	võt	nud		V	nud
      	võt=nu	d		S	pl n
      	võt=nud	0		A	
      	võt=nud	0		A	sg n
      	võt=nud	d		A	pl n
tee	tee	0		S	sg g
   	tege	0		V	o
   	tee	0		S	sg n
peal	pea	l		S	sg ad
    	peal	0		D	
    	peal	0		K	
veel	veel	0		D	
    	vesi	l		S	sg ad
Mihkel	Mihkel	0		H	sg n
      	mihkel	0		A	sg n
      	mihkel	0		S	sg n
kook	kook	0		S	sg n
ommale	####				
liggi	####				
kuni	kuni	0		J	
    	kuni	0		K	
kodavere	koda_veri	0		S	sg g
kõrtsini	kõrts	ni		S	sg ter
.	.			Z	
Seal	seal	0		D	
    	siga	l		A	sg ad
    	siga	l		S	sg ad
keranud	####				
jäljed	jälg	d		S	pl n
kõrtsi	kõrts	0		S	adt
      	kõrts	0		S	sg g
      	kõrts	0		S	sg p
otsast	ots	st		S	sg el
      	otsast	0		K	
Simon	Simon	0		H	sg n
Linde	lind	e		S	pl p
     	linne	0		S	sg g
tallo	####				
maea	####				
juure	juur	0		S	sg g
,	,			Z	
mis	mis	0		P	pl n
   	mis	0		P	sg n
kerikomaantee	####				
pealt	pea	lt		S	sg abl
     	pealt	0		D	
     	pealt	0		K	
1	1	0		N	?
/	/			Z	
4	4	0		N	?
versta	verst	0		S	adt
      	verst	0		S	sg g
      	verst	0		S	sg p
ära	ära	0		D	
   	ära	0		V	neg o
olla	ole	a		V	da
.	.			Z	
Seal	seal	0		D	
    	siga	l		A	sg ad
    	siga	l		S	sg ad
võtnud	võt	nud		V	nud
      	võt=nu	d		S	pl n
      	võt=nud	0		A	
      	võt=nud	0		A	sg n
      	võt=nud	d		A	pl n
tema	tema	0		P	sg g
    	tema	0		P	sg n
Kadrina	Kadri	na		H	sg es
       	Kadrina	0		H	sg g
       	kadri	na		S	sg es
       	Kadrina	0		H	sg n
valla	vald	0		S	sg g
     	valla	0		D	
kohtumehe	kohtu_mees	0		S	sg g
Gustav	Gustav	0		H	sg n
Teras	tera	s		S	sg in
     	teras	0		S	sg n
ja	ja	0		J	
pärast	pära	st		S	sg el
      	pärane	t		A	sg p
      	pärast	0		D	
      	pärast	0		K	
ka	ka	0		D	
veel	veel	0		D	
    	vesi	l		S	sg ad
vallavanema	valla_vanem	0		S	sg g
Vidrik	####				
Rosneri	####				
ja	ja	0		J	
nende	see	de		P	pl g
     	tema	de		P	pl g
juuresolemisel	juures_ole=mine	l		S	sg ad
lähnud	####				
nemad	tema	d		P	pl n
kõik	kõik	0		P	pl n
    	kõik	0		S	sg n
    	kõik	0		P	sg n
ühes	üks	s		N	sg in
    	üks	s		P	sg in
    	ühes	0		D	
    	ühes	0		K	
nimetud	nimetu	d		A	pl n
tallo	####				
õue	õu	0		S	adt
   	õu	0		S	sg g
   	õue	0		D	
   	õu	0		S	sg p
peale	pea	le		S	sg all
     	peale	0		D	
     	peale	0		K	
jälgi	jälg	i		S	pl p
     	jälgi	0		V	o
     	jälk	0		A	sg g
mõda	####				
,	,			Z	
ja	ja	0		J	
on	ole	0		V	b
  	ole	0		V	vad
selgest	selge	st		A	sg el
tunda	tund	a		V	da
olnud	ol=nud	0		A	
     	ol=nud	0		A	sg n
     	ol=nud	d		A	pl n
     	ole	nud		V	nud
     	olnu	d		S	pl n
,	,			Z	
et	et	0		J	
se	####				
varas	vara	s		S	sg in
     	varas	0		S	sg n
hobuseid	hobune	id		S	pl p
õue	õu	0		S	adt
   	õu	0		S	sg g
   	õue	0		D	
   	õu	0		S	sg p
peal	pea	l		S	sg ad
    	peal	0		D	
    	peal	0		K	
on	ole	0		V	b
  	ole	0		V	vad
kinnitanud	kinnita	nud		V	nud
          	kinnita=nu	d		S	pl n
          	kinnita=nud	0		A	
          	kinnita=nud	0		A	sg n
          	kinnita=nud	d		A	pl n
,	,			Z	
ja	ja	0		J	
hobustele	hobune	tele		S	pl all
heinu	hein	u		S	pl p
ette	ette	0		D	
    	ette	0		K	
    	esi	tte		S	adt
andnud	and	nud		V	nud
      	and=nu	d		S	pl n
      	and=nud	0		A	
      	and=nud	0		A	sg n
      	and=nud	d		A	pl n
.	.			Z	
edasi	edasi	0		D	
     	edasi	0		K	
on	ole	0		V	b
  	ole	0		V	vad
praegu	praegu	0		D	
nimetud	nimetu	d		A	pl n
jäljed	jälg	d		S	pl n
Simon	Simon	0		H	sg n
Linde	lind	e		S	pl p
     	linne	0		S	sg g
õue	õu	0		S	adt
   	õu	0		S	sg g
   	õue	0		D	
   	õu	0		S	sg p
pealt	pea	lt		S	sg abl
     	pealt	0		D	
     	pealt	0		K	
tema	tema	0		P	sg g
    	tema	0		P	sg n
reia	reig	0		S	sg g
alla	alla	0		D	
    	alla	0		K	
lähnud	####				
,	,			Z	
kus	kus	0		D	
jälle	jälle	0		D	
hobustel	hobune	tel		S	pl ad
heinad	hein	d		S	pl n
ees	ees	0		D	
   	ees	0		K	
   	esi	s		S	sg in
on	ole	0		V	b
  	ole	0		V	vad
olnud	ol=nud	0		A	
     	ol=nud	0		A	sg n
     	ol=nud	d		A	pl n
     	ole	nud		V	nud
     	olnu	d		S	pl n
.	.			Z	
Ta	tema	0		P	sg g
  	tema	0		P	sg n
pole	ole	0		V	neg o
hobust	hobu	st		S	sg el
      	hobune	t		S	sg p
seal	seal	0		D	
    	siga	l		A	sg ad
    	siga	l		S	sg ad
kül	####				
kätte	kätte	0		K	
     	käsi	tte		S	adt
saanud	saa	nud		V	nud
      	saa=nud	0		A	
      	saa=nud	0		A	sg n
      	saa=nud	d		A	pl n
      	saanu	d		S	pl n
sest	see	st		P	sg el
    	sest	0		J	
jäljed	jälg	d		S	pl n
olla	ole	a		V	da
jälle	jälle	0		D	
tagast	####				
väravast	värav	st		S	sg el
välja	välja	0		D	
     	välja	0		V	o
     	väli	0		S	adt
     	väli	0		S	sg g
     	väli	0		S	sg p
lähud	####				
,	,			Z	
aga	aga	0		J	
tema	tema	0		P	sg g
    	tema	0		P	sg n
kaebab	kaeba	b		V	b
Simon	Simon	0		H	sg n
Linde	lind	e		S	pl p
     	linne	0		S	sg g
ja	ja	0		J	
tema	tema	0		P	sg g
    	tema	0		P	sg n
väimehe	väi_mees	0		S	sg g
Mihkel	Mihkel	0		H	sg n
      	mihkel	0		A	sg n
      	mihkel	0		S	sg n
reili	####				
peale	pea	le		S	sg all
     	peale	0		D	
     	peale	0		K	
,	,			Z	
kes	kes	0		P	pl n
   	kes	0		P	sg n
nimetud	nimetu	d		A	pl n
maeas	####				
ellad	####				
,	,			Z	
kes	kes	0		P	pl n
   	kes	0		P	sg n
ka	ka	0		D	
sellejärele	selle_järele	0		D	
tema	tema	0		P	sg g
    	tema	0		P	sg n
hobuse	hobune	0		S	sg g
vargad	varas	d		S	pl n
on	ole	0		V	b
  	ole	0		V	vad
,	,			Z	
kes	kes	0		P	pl n
   	kes	0		P	sg n
hobuse	hobune	0		S	sg g
kuni	kuni	0		J	
    	kuni	0		K	
sinamanni	sina_mann	0		S	adt
         	sina_mann	0		S	sg g
         	sina_mann	0		S	sg p
toonud	too	nud		V	nud
      	too=nu	d		S	pl n
      	too=nud	0		A	
      	too=nud	0		A	sg n
      	too=nud	d		A	pl n
ja	ja	0		J	
sealt	sealt	0		D	
     	siga	lt		A	sg abl
     	siga	lt		S	sg abl
edasi	edasi	0		D	
     	edasi	0		K	
on	ole	0		V	b
  	ole	0		V	vad
saatnud	saat	nud		V	nud
       	saat=nu	d		S	pl n
       	saat=nud	0		A	
       	saat=nud	0		A	sg n
       	saat=nud	d		A	pl n
.	.			Z	
Kadrina	Kadri	na		H	sg es
       	Kadrina	0		H	sg g
       	kadri	na		S	sg es
       	Kadrina	0		H	sg n
kogukonna	kogukond	0		S	sg g
valitsus	valitsus	0		S	sg n
oli	ole	i		V	s
sellepeale	selle_peale	0		D	
Simon	Simon	0		H	sg n
Linde	lind	e		S	pl p
     	linne	0		S	sg g
kes	kes	0		P	pl n
   	kes	0		P	sg n
küsimise	küsimine	0		S	sg g
peale	pea	le		S	sg all
     	peale	0		D	
     	peale	0		K	
väljaütleb	####				
,	,			Z	
et	et	0		J	
laupaevasse	####				
õõ	####				
vasta	vasta	0		V	o
pühapäeva	püha_päev	0		S	adt
         	püha_päev	0		S	sg g
         	püha_päev	0		S	sg p
olla	ole	a		V	da
tema	tema	0		P	sg g
    	tema	0		P	sg n
oma	oma	0		A	sg g
   	oma	0		D	
   	oma	0		P	sg g
   	oma	0		S	sg g
   	oma	0		V	o
   	oma	0		A	sg n
   	oma	0		A	sg p
   	oma	0		P	sg n
   	oma	0		P	sg p
   	oma	0		S	sg n
   	oma	0		S	sg p
väimehe	väi_mees	0		S	sg g
Mihke	####				
reiliga	####				
kõik	kõik	0		P	pl n
    	kõik	0		S	sg n
    	kõik	0		P	sg n
õõ	####				
kodu	kodu	0		S	sg g
    	kodu	0		S	sg n
    	kodu	0		S	sg p
olnud	ol=nud	0		A	
     	ol=nud	0		A	sg n
     	ol=nud	d		A	pl n
     	ole	nud		V	nud
     	olnu	d		S	pl n
,	,			Z	
pole	ole	0		V	neg o
kusagilgi	kusagil	0	gi	D	
käinud	käi	nud		V	nud
      	käi=nud	0		A	
      	käi=nud	0		A	sg n
      	käi=nud	d		A	pl n
      	käinu	d		S	pl n
ega	ega	0		D	
   	ega	0		J	
kedagi	keegi	dagi		P	sg p
voeraid	####				
inimeisi	####				
nähud	näht	d		S	pl n
õõsel	####				
seal	seal	0		D	
    	siga	l		A	sg ad
    	siga	l		S	sg ad
oma	oma	0		A	sg g
   	oma	0		D	
   	oma	0		P	sg g
   	oma	0		S	sg g
   	oma	0		V	o
   	oma	0		A	sg n
   	oma	0		A	sg p
   	oma	0		P	sg n
   	oma	0		P	sg p
   	oma	0		S	sg n
   	oma	0		S	sg p
maeas	####				
käima	käi	ma		V	ma
     	käim	0		S	adt
     	käim	0		S	sg g
     	käim	0		S	sg p
.	.			Z	
reia	reig	0		S	sg g
aluse	alune	0		A	sg g
     	alune	0		S	sg g
     	alus	0		S	sg g
väravad	värav	d		S	pl n
olla	ole	a		V	da
temal	tema	l		P	sg ad
sel	see	l		P	sg ad
   	sel	0		Y	?
õõl	####				
lahti	laht	i		S	pl p
     	lahti	0		D	
olnud	ol=nud	0		A	
     	ol=nud	0		A	sg n
     	ol=nud	d		A	pl n
     	ole	nud		V	nud
     	olnu	d		S	pl n
.	.			Z	
Väimees	väi_mees	0		S	sg n
Mihkel	Mihkel	0		H	sg n
      	mihkel	0		A	sg n
      	mihkel	0		S	sg n
reili	####				
olla	ole	a		V	da
õõse	####				
kello	####				
3	3	0		N	?
vai	vai	0		S	sg n
4.	4.	0		O	?
aeal	####				
õues	õu	s		S	sg in
    	õues	0		D	
käinud	käi	nud		V	nud
      	käi=nud	0		A	
      	käi=nud	0		A	sg n
      	käi=nud	d		A	pl n
      	käinu	d		S	pl n
oma	oma	0		A	sg g
   	oma	0		D	
   	oma	0		P	sg g
   	oma	0		S	sg g
   	oma	0		V	o
   	oma	0		A	sg n
   	oma	0		A	sg p
   	oma	0		P	sg n
   	oma	0		P	sg p
   	oma	0		S	sg n
   	oma	0		S	sg p
hobust	hobu	st		S	sg el
      	hobune	t		S	sg p
talitamas	talita	mas		V	mas
.	.			Z	
kohtumees	kohtu_mees	0		S	sg n
Kusta	Kusta	0		H	sg g
     	Kusta	0		H	sg n
     	kuse	ta		V	da
     	kuse	ta		V	ta
Teras	tera	s		S	sg in
     	teras	0		S	sg n
ja	ja	0		J	
vallavanem	valla_vanem	0		S	sg n
Vidrik	####				
Rosner	####				
pole	ole	0		V	neg o
temale	tema	le		P	sg all
kedagi	keegi	dagi		P	sg p
võõraid	võõras	id		A	pl p
       	võõras	id		S	pl p
jälgi	jälg	i		S	pl p
     	jälgi	0		V	o
     	jälk	0		A	sg g
näidanud	näita	nud		V	nud
        	näida=nu	d		S	pl n
        	näida=nud	0		A	
        	näida=nud	0		A	sg n
        	näida=nud	d		A	pl n
ja	ja	0		J	
ei	ei	0		D	
  	ei	0		V	neg
teada	tead	a		V	da
tema	tema	0		P	sg g
    	tema	0		P	sg n
neist	see	st		P	pl el
     	tema	st		P	pl el
kedagi	keegi	dagi		P	sg p
.	.			Z	
rõht-aid	####				
olnud	ol=nud	0		A	
     	ol=nud	0		A	sg n
     	ol=nud	d		A	pl n
     	ole	nud		V	nud
     	olnu	d		S	pl n
laupaeval	####				
nisama	####				
ülevel	####				
,	,			Z	
kui	kui	0		D	
   	kui	0		J	
pühapaevalgi	####				
.	.			Z	
Temal	tema	l		P	sg ad
olnud	ol=nud	0		A	
     	ol=nud	0		A	sg n
     	ol=nud	d		A	pl n
     	ole	nud		V	nud
     	olnu	d		S	pl n
just	just	0		D	
    	just	0		I	
vallaametnikudega	####				
nende	see	de		P	pl g
     	tema	de		P	pl g
jälgede	jälg	de		S	pl g
üle	üle	0		D	
   	üle	0		K	
,	,			Z	
aga	aga	0		J	
tema	tema	0		P	sg g
    	tema	0		P	sg n
ei	ei	0		D	
  	ei	0		V	neg
mäleta	mäleta	0		V	o
seda	see	da		P	sg p
juttu	jutt	0		S	adt
     	jutt	0		S	sg p
.	.			Z	
Tema	tema	0		P	sg g
    	tema	0		P	sg n
olla	ole	a		V	da
laupaeva	####				
õhtu	õhtu	0		S	sg g
    	õhtu	0		S	sg n
ise	ise	0		A	
   	ise	0		D	
   	ise	0		P	pl n
   	ise	0		P	sg n
reia	reig	0		S	sg g
aluse	alune	0		A	sg g
     	alune	0		S	sg g
     	alus	0		S	sg g
väravad	värav	d		S	pl n
,	,			Z	
kokku	kokku	0		D	
     	kogu	0		S	adt
tõmmanud	tõmba	nud		V	nud
        	tõmma=nu	d		S	pl n
        	tõmma=nud	0		A	
        	tõmma=nud	0		A	sg n
        	tõmma=nud	d		A	pl n
,	,			Z	
õhta	####				
hiljem	hiljem	0		D	
käsud	käsk	d		S	pl n
tema	tema	0		P	sg g
    	tema	0		P	sg n
väimehel	väi_mees	l		S	sg ad
hobune	hobune	0		S	sg n
äratalitada	####				
ja	ja	0		J	
väravad	värav	d		S	pl n
kinnipana	####				
.	.			Z	
Väravatel	värav	tel		S	pl ad
olla	ole	a		V	da
hagid	hagi	d		S	pl n
kellega	kes	ga		P	pl kom
       	kes	ga		P	sg kom
seestpoolt	seest_poolt	0		D	
          	seest_poolt	0		K	
kinnipana	####				
.	.			Z	
Sellepeale	selle_peale	0		D	
sai	saa	i		V	s
   	sai	0		S	sg n
Mihkel	Mihkel	0		H	sg n
      	mihkel	0		A	sg n
      	mihkel	0		S	sg n
reili	####				
kohtu	kohtu	0		V	o
     	kohus	0		S	sg g
ette	ette	0		D	
    	ette	0		K	
    	esi	tte		S	adt
kutsutud	kutsu	tud		V	tud
        	kutsutu	d		S	pl n
        	kutsutud	0		A	
        	kutsutud	0		A	sg n
        	kutsutud	d		A	pl n
,	,			Z	
kes	kes	0		P	pl n
   	kes	0		P	sg n
ennemalt	ennem	lt		C	sg abl
        	ennemalt	0		D	
kohtu	kohtu	0		V	o
     	kohus	0		S	sg g
al	####				
pole	ole	0		V	neg o
seisnud	seis	nud		V	nud
       	seis=nu	d		S	pl n
       	seis=nud	0		A	
       	seis=nud	0		A	sg n
       	seis=nud	d		A	pl n
,	,			Z	
vaid	vaid	0		D	
    	vaid	0		J	
mineval	minev	l		A	sg ad
aastal	aasta	l		S	sg ad
võetud	võe=tu	d		S	pl n
      	võetud	0		A	
      	võetud	0		A	sg n
      	võetud	d		A	pl n
      	võt	tud		V	tud
tema	tema	0		P	sg g
    	tema	0		P	sg n
kaest	kae	st		S	sg el
ühed	üks	d		N	pl n
    	üks	d		P	pl n
varastud	####				
vankri	vanker	0		S	sg g
teljed	telg	d		S	pl n
ära	ära	0		D	
   	ära	0		V	neg o
,	,			Z	
ja	ja	0		J	
ütleb	ütle	b		V	b
välja	välja	0		D	
     	välja	0		V	o
     	väli	0		S	adt
     	väli	0		S	sg g
     	väli	0		S	sg p
,	,			Z	
et	et	0		J	
tema	tema	0		P	sg g
    	tema	0		P	sg n
olla	ole	a		V	da
laupäeva	lau_päev	0		S	adt
        	lau_päev	0		S	sg g
        	lau_päev	0		S	sg p
õõse	####				
vasta	vasta	0		V	o
pühapäeva	püha_päev	0		S	adt
         	püha_päev	0		S	sg g
         	püha_päev	0		S	sg p
sel	see	l		P	sg ad
   	sel	0		Y	?
21	21	0		N	?
/	/			Z	
22	22	0		N	?
Oktobril	####				
kodu	kodu	0		S	sg g
    	kodu	0		S	sg n
    	kodu	0		S	sg p
olnud	ol=nud	0		A	
     	ol=nud	0		A	sg n
     	ol=nud	d		A	pl n
     	ole	nud		V	nud
     	olnu	d		S	pl n
,	,			Z	
pole	ole	0		V	neg o
aga	aga	0		J	
õõse	####				
keegi	kee	0	gi	S	sg g
     	kee	0	gi	V	o
     	keegi	0		P	sg n
     	kee	0	gi	S	sg n
seal	seal	0		D	
    	siga	l		A	sg ad
    	siga	l		S	sg ad
käinud	käi	nud		V	nud
      	käi=nud	0		A	
      	käi=nud	0		A	sg n
      	käi=nud	d		A	pl n
      	käinu	d		S	pl n
,	,			Z	
ega	ega	0		D	
   	ega	0		J	
ka	ka	0		D	
tema	tema	0		P	sg g
    	tema	0		P	sg n
ise	ise	0		A	
   	ise	0		D	
   	ise	0		P	pl n
   	ise	0		P	sg n
õõsel	####				
ka	ka	0		D	
kusailgi	####				
käinud	käi	nud		V	nud
      	käi=nud	0		A	
      	käi=nud	0		A	sg n
      	käi=nud	d		A	pl n
      	käinu	d		S	pl n
.	.			Z	
Uema	####				
talitanud	talita	nud		V	nud
         	talita=nu	d		S	pl n
         	talita=nud	0		A	
         	talita=nud	0		A	sg n
         	talita=nud	d		A	pl n
õhtu	õhtu	0		S	sg g
    	õhtu	0		S	sg n
hilja	hilja	0		D	
oma	oma	0		A	sg g
   	oma	0		D	
   	oma	0		P	sg g
   	oma	0		S	sg g
   	oma	0		V	o
   	oma	0		A	sg n
   	oma	0		A	sg p
   	oma	0		P	sg n
   	oma	0		P	sg p
   	oma	0		S	sg n
   	oma	0		S	sg p
hobuse	hobune	0		S	sg g
,	,			Z	
pole	ole	0		V	neg o
aga	aga	0		J	
väravaid	värav	id		S	pl p
haaki	haak	0		S	adt
     	haak	0		S	sg p
pandnud	####				
,	,			Z	
sest	see	st		P	sg el
    	sest	0		J	
temale	tema	le		P	sg all
pole	ole	0		V	neg o
äi	äi	0		S	sg n
seda	see	da		P	sg p
mitte	mitte	0		D	
käskinud	käski	nud		V	nud
        	käski=nu	d		S	pl n
        	käski=nud	0		A	
        	käski=nud	0		A	sg n
        	käski=nud	d		A	pl n
.	.			Z	
Homikust	####				
polt	polt	0		S	sg n
õõd	####				
olla	ole	a		V	da
tema	tema	0		P	sg g
    	tema	0		P	sg n
kord	kord	0		D	
    	kord	0		S	sg n
õues	õu	s		S	sg in
    	õues	0		D	
käinud	käi	nud		V	nud
      	käi=nud	0		A	
      	käi=nud	0		A	sg n
      	käi=nud	d		A	pl n
      	käinu	d		S	pl n
.	.			Z	
hommiko	####				
leidnud	leid	nud		V	nud
       	leid=nu	d		S	pl n
       	leid=nud	0		A	
       	leid=nud	0		A	sg n
       	leid=nud	d		A	pl n
ja	ja	0		J	
nähud	näht	d		S	pl n
tema	tema	0		P	sg g
    	tema	0		P	sg n
kohtumehega	kohtu_mees	ga		S	sg kom
need	see	d		P	pl n
värsked	värske	d		A	pl n
       	värske	d		S	pl n
jäljed	jälg	d		S	pl n
,	,			Z	
.	.			Z	
nie	####				
seda	see	da		P	sg p
,	,			Z	
kui	kui	0		D	
   	kui	0		J	
tema	tema	0		P	sg g
    	tema	0		P	sg n
õõse	####				
väljas	välja	s		V	s
      	väli	s		S	sg in
      	väljas	0		D	
käinud	käi	nud		V	nud
      	käi=nud	0		A	
      	käi=nud	0		A	sg n
      	käi=nud	d		A	pl n
      	käinu	d		S	pl n
,	,			Z	
haugutanud	hauguta	nud		V	nud
          	hauguta=nu	d		S	pl n
          	hauguta=nud	0		A	
          	hauguta=nud	0		A	sg n
          	hauguta=nud	d		A	pl n
nende	see	de		P	pl g
     	tema	de		P	pl g
koer	koer	0		A	sg n
    	koer	0		S	sg n
korda	kord	0		S	adt
     	korda	0		V	o
     	kord	0		S	sg p
3	3	0		N	?
vai	vai	0		S	sg n
4.	4.	0		O	?
Tema	tema	0		P	sg g
    	tema	0		P	sg n
olla	ole	a		V	da
laupaeval	####				
oma	oma	0		A	sg g
   	oma	0		D	
   	oma	0		P	sg g
   	oma	0		S	sg g
   	oma	0		V	o
   	oma	0		A	sg n
   	oma	0		A	sg p
   	oma	0		P	sg n
   	oma	0		P	sg p
   	oma	0		S	sg n
   	oma	0		S	sg p
venna	vend	0		S	sg g
Juhan	Juhan	0		H	sg n
reilile	####				
Tamme	tamm	0		S	adt
     	tamm	0		S	sg g
     	tamm	e		S	pl p
     	tamm	0		S	sg p
koha	koht	0		S	sg g
    	koha	0		S	sg g
    	koha	0		V	o
    	koha	0		S	sg n
    	koha	0		S	sg p
ostmise	ostmine	0		S	sg g
pärast	pära	st		S	sg el
      	pärane	t		A	sg p
      	pärast	0		D	
      	pärast	0		K	
kirjutanud	kirjuta	nud		V	nud
          	kirjutanu	d		S	pl n
          	kirjutanud	0		A	
          	kirjutanud	0		A	sg n
          	kirjutanud	d		A	pl n
,	,			Z	
ja	ja	0		J	
palunud	palu	nud		V	nud
       	palu=nu	d		S	pl n
       	palu=nud	0		A	
       	palu=nud	0		A	sg n
       	palu=nud	d		A	pl n
teda	tema	da		P	sg p
pühapäevaks	püha_päev	ks		S	sg tr
oma	oma	0		A	sg g
   	oma	0		D	
   	oma	0		P	sg g
   	oma	0		S	sg g
   	oma	0		V	o
   	oma	0		A	sg n
   	oma	0		A	sg p
   	oma	0		P	sg n
   	oma	0		P	sg p
   	oma	0		S	sg n
   	oma	0		S	sg p
juure	juur	0		S	sg g
seda	see	da		P	sg p
kohta	koht	0		S	adt
     	kohta	0		K	
     	kohta	0		V	o
     	koht	0		S	sg p
vatama	####				
.	.			Z	
,	,			Z	
andnud	and	nud		V	nud
      	and=nu	d		S	pl n
      	and=nud	0		A	
      	and=nud	0		A	sg n
      	and=nud	d		A	pl n
Peeter	Peeter	0		H	sg n
Paapu	####				
kätte	kätte	0		K	
     	käsi	tte		S	adt
se	####				
kiri	kiri	0		S	sg n
talitada	talita	da		V	da
,	,			Z	
lubanud	luba	nud		V	nud
       	luba=nu	d		S	pl n
       	luba=nud	0		A	
       	luba=nud	0		A	sg n
       	luba=nud	d		A	pl n
ruttulise	####				
talituse	talitus	0		S	sg g
ja	ja	0		J	
äravimise	####				
eest	eest	0		D	
    	eest	0		K	
    	esi	st		S	sg el
10.	10.	0		O	?
kopikad	kopikas	d		S	pl n
,	,			Z	
et	et	0		J	
aga	aga	0		J	
laupäeva	lau_päev	0		S	adt
        	lau_päev	0		S	sg g
        	lau_päev	0		S	sg p
õhtu	õhtu	0		S	sg g
    	õhtu	0		S	sg n
vend	vend	0		S	sg n
selle	see	0		P	sg g
     	sell	e		S	pl p
kirja	kirja	0		A	
     	kirja	0		V	o
     	kiri	0		S	adt
     	kiri	0		S	sg g
     	kiri	0		S	sg p
nimelt	nimelt	0		D	
      	nimi	lt		S	sg abl
kätte	kätte	0		K	
     	käsi	tte		S	adt
saaks	saa	ks		V	ks
.	.			Z	
,	,			Z	
lubanud	luba	nud		V	nud
       	luba=nu	d		S	pl n
       	luba=nud	0		A	
       	luba=nud	0		A	sg n
       	luba=nud	d		A	pl n
peale	pea	le		S	sg all
     	peale	0		D	
     	peale	0		K	
selle	see	0		P	sg g
     	sell	e		S	pl p
Peeter	Peeter	0		H	sg n
Paap	####				
´	’			Z	
ule	####				
head	hea	d		A	pl n
    	hea	d		A	sg p
    	hea	d		S	pl n
    	hea	d		S	sg p
liigud	liik	d		S	pl n
      	liiku	d		V	d
teha	tege	a		V	da
.	.			Z	
Juhan	Juhan	0		H	sg n
reili	####				
,	,			Z	
Kavasto	####				
vallast	vald	st		S	sg el
tuli	tuli	0		S	sg n
    	tule	i		V	s
kohtu	kohtu	0		V	o
     	kohus	0		S	sg g
ette	ette	0		D	
    	ette	0		K	
    	esi	tte		S	adt
ja	ja	0		J	
ütleb	ütle	b		V	b
,	,			Z	
et	et	0		J	
tema	tema	0		P	sg g
    	tema	0		P	sg n
olla	ole	a		V	da
pühapäeva	püha_päev	0		S	adt
         	püha_päev	0		S	sg g
         	püha_päev	0		S	sg p
hommiko	####				
selle	see	0		P	sg g
     	sell	e		S	pl p
venna	vend	0		S	sg g
kirja	kirja	0		A	
     	kirja	0		V	o
     	kiri	0		S	adt
     	kiri	0		S	sg g
     	kiri	0		S	sg p
kätte	kätte	0		K	
     	käsi	tte		S	adt
saanud	saa	nud		V	nud
      	saa=nud	0		A	
      	saa=nud	0		A	sg n
      	saa=nud	d		A	pl n
      	saanu	d		S	pl n
.	.			Z	
kirjaga	kiri	ga		S	sg kom
olla	ole	a		V	da
vend	vend	0		S	sg n
Mihkel	Mihkel	0		H	sg n
      	mihkel	0		A	sg n
      	mihkel	0		S	sg n
teda	tema	da		P	sg p
pühapäevaks	püha_päev	ks		S	sg tr
oma	oma	0		A	sg g
   	oma	0		D	
   	oma	0		P	sg g
   	oma	0		S	sg g
   	oma	0		V	o
   	oma	0		A	sg n
   	oma	0		A	sg p
   	oma	0		P	sg n
   	oma	0		P	sg p
   	oma	0		S	sg n
   	oma	0		S	sg p
juure	juur	0		S	sg g
kutsunud	kutsu	nud		V	nud
        	kutsu=nu	d		S	pl n
        	kutsu=nud	0		A	
        	kutsu=nud	0		A	sg n
        	kutsu=nud	d		A	pl n
,	,			Z	
ühe	üks	0		N	sg g
   	üks	0		P	sg g
   	ühe	0		S	sg n
koha	koht	0		S	sg g
    	koha	0		S	sg g
    	koha	0		V	o
    	koha	0		S	sg n
    	koha	0		S	sg p
ostmise	ostmine	0		S	sg g
pärast	pära	st		S	sg el
      	pärane	t		A	sg p
      	pärast	0		D	
      	pärast	0		K	
.	.			Z	
Tema	tema	0		P	sg g
    	tema	0		P	sg n
ise	ise	0		A	
   	ise	0		D	
   	ise	0		P	pl n
   	ise	0		P	sg n
ei	ei	0		D	
  	ei	0		V	neg
mõista	mõist	0		V	o
      	mõist	a		V	da
kirja	kirja	0		A	
     	kirja	0		V	o
     	kiri	0		S	adt
     	kiri	0		S	sg g
     	kiri	0		S	sg p
lugeda	luge	da		V	da
,	,			Z	
vaid	vaid	0		D	
    	vaid	0		J	
tema	tema	0		P	sg g
    	tema	0		P	sg n
lasnud	####				
Peeter	Peeter	0		H	sg n
Laanel	laas	l		S	sg ad
Kavastult	####				
kiri	kiri	0		S	sg n
ommale	####				
ettelugeda	####				
.	.			Z	
/	/			Z	
:	:			Z	
jääb	jää	b		V	b
poolele	pool	le		N	sg all
       	pool	le		S	sg all
:	:			Z	
/	/			Z	
A	A	0		Y	?
.	.			Z	
_	_			Z	
Krim	####				
[	[			Z	
allkiri	all_kiri	0		S	sg n
]	]			Z	
,	,			Z	
pea	pea	0		D	
   	pea	0		S	sg g
   	pida	0		V	o
   	pea	0		S	sg n
xxx	####				
Maddis	####				
erm	####				
,	,			Z	
kohtumees	kohtu_mees	0		S	sg n
xxx	####				
Tavet	####				
kook	kook	0		S	sg n
[	[			Z	
allkiri	all_kiri	0		S	sg n
]	]			Z	
,	,			Z	
""""	""""			Z	
xxx	####				
Jaan	Jaan	0		H	sg n
    	jaan	0		S	sg n
    	jaan	0		Y	?
Piiri	piir	0		S	adt
     	piir	0		S	sg g
     	piir	0		S	sg p
,	,			Z	
""""	""""			Z	
