1902	1902	0		N	?
aastal	aasta	l		S	sg ad
Jaanuari	jaanuar	0		S	adt
        	jaanuar	0		S	sg g
        	jaanuar	0		S	sg p
kuu	kuu	0		S	sg g
   	kuu	0		S	sg n
17	17	0		N	?
päeval	päev	l		S	sg ad
sai	saa	i		V	s
   	sai	0		S	sg n
Ahja	Ahja	0		H	sg g
    	Ahja	0		H	sg n
vallakohtu	valla_kohus	0		S	sg g
poolt	pool	t		N	sg p
     	pool	t		S	sg p
     	poolt	0		D	
     	poolt	0		K	
kirjalik	kirjalik	0		A	sg n
leping	leping	0		S	sg n
(	(			Z	
platsimeeste	platsi_mees	te		S	pl g
kontraht	kontraht	0		S	sg n
)	)			Z	
kinnitatud	kinnita	tud		V	tud
          	kinnita=tu	d		S	pl n
          	kinnita=tud	0		A	
          	kinnita=tud	0		A	sg n
          	kinnita=tud	d		A	pl n
,	,			Z	
mis	mis	0		P	pl n
   	mis	0		P	sg n
17.	17.	0		O	?
jaanuaril	jaanuar	l		S	sg ad
s	s	0		Y	?
.	.			Z	
a.	a	0		Y	?
kolmes	kolm	s		N	sg in
eksemplaris	eksemplar	s		S	sg in
Ahja	Ahja	0		H	sg g
    	Ahja	0		H	sg n
mõisa	mõis	0		S	sg g
omaniku	omanik	0		S	sg g
Arved	Arved	0		H	sg n
     	arve	d		S	pl n
von	####				
Braschi	####				
ja	ja	0		J	
talupoja	talu_poeg	0		S	sg g
Peeter	Peeter	0		H	sg n
narike	nari=ke	0		S	sg n
Passel	passe	l		S	sg ad
on	ole	0		V	b
  	ole	0		V	vad
maha	maha	0		D	
tehtud	tehtu	d		S	pl n
      	tehtud	0		A	
      	tehtud	0		A	sg n
      	tehtud	d		A	pl n
      	tege	tud		V	tud
ja	ja	0		J	
mille	mis	0		P	pl g
     	mis	0		P	sg g
järele	järele	0		D	
      	järele	0		K	
esimene	esimene	0		O	sg n
       	esimene	0		P	sg n
täisele	täine	le		A	sg all
Offikurmus	####				
7	7	0		N	?
vakkamaad	####				
6	6	0		N	?
kappa	kapp	0		S	adt
     	kappa	0		V	o
     	kapp	0		S	sg p
pruukida	pruuki	da		V	da
annab	and	b		V	b
Jüripäevaks	jüri_päev	ks		S	sg tr
1902a	1902a	0		Y	?
.	.			Z	
kuni	kuni	0		J	
    	kuni	0		K	
Jüripäevani	jüri_päev	ni		S	sg ter
1903a	1903a	0		Y	?
orjuse	orjus	0		S	sg g
eest	eest	0		D	
    	eest	0		K	
    	esi	st		S	sg el
.	.			Z	
