sel	see	l		P	sg ad
   	sel	0		Y	?
9	9	0		N	?
Januaril	####				
1876.	1876.	0		O	?
koos	koos	0		D	
    	koos	0		K	
    	koos	0		S	sg n
    	kubu	s		S	sg in
olid	ole	id		V	sid
peakohtumees	pea_kohtu_mees	0		S	sg n
Josep	####				
Kask	kask	0		S	sg n
teine	teine	0		O	sg n
     	teine	0		P	sg n
kohtumees	kohtu_mees	0		S	sg n
Maddis	####				
Sildnik	####				
kolmas	kolmas	0		O	sg n
kohtumees	kohtu_mees	0		S	sg n
Jaan	Jaan	0		H	sg n
    	jaan	0		S	sg n
    	jaan	0		Y	?
Mänd	mänd	0		S	sg n
Soldat	soldat	0		S	sg n
Aandres	####				
Pogri	pogri	0		S	sg g
     	pogri	0		S	sg n
sai	saa	i		V	s
   	sai	0		S	sg n
ette	ette	0		D	
    	ette	0		K	
    	esi	tte		S	adt
kutsutud	kutsu	tud		V	tud
        	kutsutu	d		S	pl n
        	kutsutud	0		A	
        	kutsutud	0		A	sg n
        	kutsutud	d		A	pl n
ja	ja	0		J	
tema	tema	0		P	sg g
    	tema	0		P	sg n
käest	käest	0		K	
     	käsi	st		S	sg el
küsitud	küsi	tud		V	tud
       	küsi=tu	d		S	pl n
       	küsi=tud	0		A	
       	küsi=tud	0		A	sg n
       	küsi=tud	d		A	pl n
kas	kas	0		D	
tema	tema	0		P	sg g
    	tema	0		P	sg n
on	ole	0		V	b
  	ole	0		V	vad
Krono	####				
metsast	mets	st		S	sg el
       	metsane	t		A	sg p
varastanud	varasta	nud		V	nud
          	varasta=nu	d		S	pl n
          	varasta=nud	0		A	
          	varasta=nud	0		A	sg n
          	varasta=nud	d		A	pl n
järel	järel	0		D	
     	järel	0		K	
nimetud	nimetu	d		A	pl n
puud	puu	d		S	pl n
    	puud	0		S	sg n
    	puu	d		S	sg p
mis	mis	0		P	pl n
   	mis	0		P	sg n
krono	####				
taksi	taks	0		S	adt
     	taks	0		S	sg g
     	taks	0		S	sg p
jarel	####				
maksad	maks	d		S	pl n
      	maks	d		V	d
.	.			Z	
1	1	0		N	?
kuusk	kuusk	0		S	sg n
48	48	0		N	?
jalga	jalg	0		S	adt
     	jalg	0		S	sg p
     	jalga	0		D	
pik	####				
6	6	0		N	?
toli	####				
kanu	kana	u		S	pl p
p	p	0		Y	?
.	.			Z	
1	1	0		N	?
rubl	####				
20	20	0		N	?
kop	kop	0		Y	?
1	1	0		N	?
kuusk	kuusk	0		S	sg n
50 10 1 96	5010196	0		N	?
.	.			Z	
Aandres	####				
Pogri	pogri	0		S	sg g
     	pogri	0		S	sg n
tunnistas	tunnista	s		V	s
et	et	0		J	
se	####				
oige	oie	0		S	sg g
on	ole	0		V	b
  	ole	0		V	vad
et	et	0		J	
tema	tema	0		P	sg g
    	tema	0		P	sg n
need	see	d		P	pl n
puud	puu	d		S	pl n
    	puud	0		S	sg n
    	puu	d		S	sg p
on	ole	0		V	b
  	ole	0		V	vad
varastanud	varasta	nud		V	nud
          	varasta=nu	d		S	pl n
          	varasta=nud	0		A	
          	varasta=nud	0		A	sg n
          	varasta=nud	d		A	pl n
aga	aga	0		J	
et	et	0		J	
temal	tema	l		P	sg ad
nüid	####				
voimalik	####				
seda	see	da		P	sg p
raha	raha	0		S	sg g
    	raha	0		S	sg n
    	raha	0		S	sg p
maksa	maks	0		S	adt
     	maks	0		S	sg g
     	maks	0		V	o
     	maks	0		S	sg p
ei	ei	0		D	
  	ei	0		V	neg
ole	ole	0		V	o
.	.			Z	
Moistus	####				
Aandres	####				
Pugri	####				
peab	pida	b		V	b
se	####				
trahvi	trahv	0		S	adt
      	trahv	0		S	sg g
      	trahvi	0		V	o
      	trahv	0		S	sg p
raha	raha	0		S	sg g
    	raha	0		S	sg n
    	raha	0		S	sg p
3	3	0		N	?
Rub	Rub			H	?
16	16	0		N	?
kop	kop	0		Y	?
14	14	0		N	?
pava	####				
sees	sees	0		D	
    	sees	0		K	
seie	####				
kogukonnakohtu	kogukonna_kohus	0		S	sg g
juure	juur	0		S	sg g
sisse	siss	e		S	pl p
     	sisse	0		D	
     	sisse	0		K	
maksma	maks	ma		V	ma
.	.			Z	
sel	see	l		P	sg ad
   	sel	0		Y	?
6	6	0		N	?
Marsil	Mars	l		H	sg ad
      	marss	l		S	sg ad
1876.	1876.	0		O	?
on	ole	0		V	b
  	ole	0		V	vad
Aandres	####				
Pugri	####				
se	####				
trahv	trahv	0		S	sg n
3	3	0		N	?
rubl	####				
16	16	0		N	?
kopikud	####				
ära	ära	0		D	
   	ära	0		V	neg o
maksnud	maks	nud		V	nud
       	maks=nu	d		S	pl n
       	maks=nud	0		A	
       	maks=nud	0		A	sg n
       	maks=nud	d		A	pl n
.	.			Z	
Josep	####				
Kask	kask	0		S	sg n
XXX	XXX	0		O	?
   	XXX	0		Y	?
Maddis	####				
Sildnik	####				
XXX	XXX	0		O	?
   	XXX	0		Y	?
Jaan	Jaan	0		H	sg n
    	jaan	0		S	sg n
    	jaan	0		Y	?
Mänd	mänd	0		S	sg n
XXX	XXX	0		O	?
   	XXX	0		Y	?
