Sai	saa	i		V	s
   	sai	0		S	sg n
Kohtu	kohtu	0		V	o
     	kohus	0		S	sg g
ette	ette	0		D	
    	ette	0		K	
    	esi	tte		S	adt
kutsutud	kutsu	tud		V	tud
        	kutsutu	d		S	pl n
        	kutsutud	0		A	
        	kutsutud	0		A	sg n
        	kutsutud	d		A	pl n
ja	ja	0		J	
maksis	maks	is		V	s
      	maksi	s		S	sg in
metsa	mets	0		S	adt
     	mets	0		S	sg g
     	mets	0		S	sg p
=	=			Z	
värguse	####				
pärast	pära	st		S	sg el
      	pärane	t		A	sg p
      	pärast	0		D	
      	pärast	0		K	
Josep	####				
Murd	murd	0		S	sg n
1	1	0		N	?
rubla	rubla	0		S	sg g
     	rubla	0		S	sg n
     	rubla	0		S	sg p
36	36	0		N	?
kop	kop	0		Y	?
.	.			Z	
ja	ja	0		J	
ihho	####				
trahvi	trahv	0		S	adt
      	trahv	0		S	sg g
      	trahvi	0		V	o
      	trahv	0		S	sg p
eest	eest	0		D	
    	eest	0		K	
    	esi	st		S	sg el
maksis	maks	is		V	s
      	maksi	s		S	sg in
2	2	0		N	?
rubla	rubla	0		S	sg g
     	rubla	0		S	sg n
     	rubla	0		S	sg p
50	50	0		N	?
kop	kop	0		Y	?
.	.			Z	
