tüli	tüli	0		S	sg g
    	tüli	0		S	sg n
    	tüli	0		S	sg p
ette	ette	0		D	
    	ette	0		K	
    	esi	tte		S	adt
Liis	Liis	0		H	sg n
    	Lii	s		H	sg in
kruus	kruus	0		S	sg n
,	,			Z	
peidlast	####				
,	,			Z	
eest	eest	0		D	
    	eest	0		K	
    	esi	st		S	sg el
kostja	kostja	0		S	sg g
      	kostja	0		S	sg n
Johan	Johan	0		H	sg n
kooruga	####				
ja	ja	0		J	
kaebas	kaeba	s		V	s
võla	võlg	0		S	sg g
tähega	täht	ga		S	sg kom
,	,			Z	
et	et	0		J	
Karl	Karl	0		H	sg n
mödud	####				
,	,			Z	
Nuustakult	nuustak	lt		S	sg abl
temale	tema	le		P	sg all
võlga	võlg	0		S	adt
     	võlg	0		S	sg p
15	15	0		N	?
rubla	rubla	0		S	sg g
     	rubla	0		S	sg n
     	rubla	0		S	sg p
raha	raha	0		S	sg g
    	raha	0		S	sg n
    	raha	0		S	sg p
,	,			Z	
mis	mis	0		P	pl n
   	mis	0		P	sg n
26	26	0		N	?
Aprillil	aprill	l		S	sg ad
1887	1887	0		N	?
laenatud	laena	tud		V	tud
        	laena=tu	d		S	pl n
        	laena=tud	0		A	
        	laena=tud	0		A	sg n
        	laena=tud	d		A	pl n
saanud	saa	nud		V	nud
      	saa=nud	0		A	
      	saa=nud	0		A	sg n
      	saa=nud	d		A	pl n
      	saanu	d		S	pl n
,	,			Z	
mitte	mitte	0		D	
ära	ära	0		D	
   	ära	0		V	neg o
ei	ei	0		D	
  	ei	0		V	neg
maksvat	maks	vat		V	vat
       	maksev	t		A	sg p
.	.			Z	
kaebaja	kaebaja	0		S	sg g
       	kaebaja	0		S	sg n
nõuab	nõud	b		V	b
seda	see	da		P	sg p
ühes	üks	s		N	sg in
    	üks	s		P	sg in
    	ühes	0		D	
    	ühes	0		K	
5	5	0		N	?
kopika	kopikas	0		S	sg g
rubla	rubla	0		S	sg g
     	rubla	0		S	sg n
     	rubla	0		S	sg p
pealt	pea	lt		S	sg abl
     	pealt	0		D	
     	pealt	0		K	
protsendiga	protsent	ga		S	sg kom
arvatud	arva	tud		V	tud
       	arva=tu	d		S	pl n
       	arva=tud	0		A	
       	arva=tud	0		A	sg n
       	arva=tud	d		A	pl n
sügisest	sügis	st		S	sg el
        	sügisene	t		A	sg p
1887	1887	0		N	?
aastast	aasta	st		S	sg el
       	aastane	t		A	sg p
,	,			Z	
mill	####				
raha	raha	0		S	sg g
    	raha	0		S	sg n
    	raha	0		S	sg p
äramakstud	ära_maks=tu	d		S	pl n
          	ära_maks=tud	0		A	
          	ära_maks=tud	0		A	sg n
          	ära_maks=tud	d		A	pl n
pidanud	pida	nud		V	nud
       	pida=nu	d		S	pl n
       	pida=nud	0		A	
       	pida=nud	0		A	sg n
       	pida=nud	d		A	pl n
saama	saa	ma		V	ma
     	saam	0		S	adt
     	saam	0		S	sg g
     	saam	0		S	sg p
,	,			Z	
kuni	kuni	0		J	
    	kuni	0		K	
maksud	maks	d		S	pl n
päevani	päev	ni		S	sg ter
kätte	kätte	0		K	
     	käsi	tte		S	adt
saada	saa	da		V	da
     	saat	0		V	o
     	saa	da		V	ta
.	.			Z	
Karl	Karl	0		H	sg n
mödud	####				
on	ole	0		V	b
  	ole	0		V	vad
kutsumise	kutsumine	0		S	sg g
peale	pea	le		S	sg all
     	peale	0		D	
     	peale	0		K	
välja	välja	0		D	
     	välja	0		V	o
     	väli	0		S	adt
     	väli	0		S	sg g
     	väli	0		S	sg p
jäänud	jää	nud		V	nud
      	jäänu	d		S	pl n
      	jäänud	0		A	
      	jäänud	0		A	sg n
      	jäänud	d		A	pl n
.	.			Z	
otsus	otsus	0		S	sg n
:	:			Z	
kaebaja	kaebaja	0		S	sg g
       	kaebaja	0		S	sg n
Liis	Liis	0		H	sg n
    	Lii	s		H	sg in
kruus	kruus	0		S	sg n
eestkostjaga	eest_kostja	ga		S	sg kom
peidla	####				
mõisa	mõis	0		S	sg g
poolitsei	####				
võkilkonnast	####				
ja	ja	0		J	
Karl	Karl	0		H	sg n
mödud	####				
Nuustakult	nuustak	lt		S	sg abl
,	,			Z	
teiseks	teine	ks		O	sg tr
       	teine	ks		P	sg tr
       	teiseks	0		D	
kohtu	kohtu	0		V	o
     	kohus	0		S	sg g
päevaks	päev	ks		S	sg tr
ette	ette	0		D	
    	ette	0		K	
    	esi	tte		S	adt
tallitada	####				
.	.			Z	
