Aandis	####				
Taved	####				
Villemsohn	####				
kohtu	kohtu	0		V	o
     	kohus	0		S	sg g
ette	ette	0		D	
    	ette	0		K	
    	esi	tte		S	adt
üles	üles	0		D	
et	et	0		J	
tema	tema	0		P	sg g
    	tema	0		P	sg n
oleva	olev	0		A	sg g
     	olev	0		S	sg g
7	7	0		N	?
,	,			Z	
aasta	aasta	0		S	sg g
     	aasta	0		S	sg n
eest	eest	0		D	
    	eest	0		K	
    	esi	st		S	sg el
lehma	lehm	0		S	adt
     	lehm	0		S	sg g
     	lehm	0		S	sg p
vasta	vasta	0		V	o
õhva	õhv	0		S	adt
    	õhv	0		S	sg g
    	õhv	0		S	sg p
vahetanud	vaheta	nud		V	nud
         	vaheta=nu	d		S	pl n
         	vaheta=nud	0		A	
         	vaheta=nud	0		A	sg n
         	vaheta=nud	d		A	pl n
,	,			Z	
Tõnnis	Tõnn	s		H	sg in
Soievaga	####				
ja	ja	0		J	
oleva	olev	0		A	sg g
     	olev	0		S	sg g
Tõnnis	Tõnn	s		H	sg in
Tavetile	####				
3	3	0		N	?
rubla	rubla	0		S	sg g
     	rubla	0		S	sg n
     	rubla	0		S	sg p
peäle	####				
pandnud	####				
,	,			Z	
nüid	####				
senniajani	####				
ei	ei	0		D	
  	ei	0		V	neg
oleva	olev	0		A	sg g
     	olev	0		S	sg g
maksnud	maks	nud		V	nud
       	maks=nu	d		S	pl n
       	maks=nud	0		A	
       	maks=nud	0		A	sg n
       	maks=nud	d		A	pl n
oleva	olev	0		A	sg g
     	olev	0		S	sg g
nüid	####				
Taved	####				
seda	see	da		P	sg p
raha	raha	0		S	sg g
    	raha	0		S	sg n
    	raha	0		S	sg p
noudnud	####				
,	,			Z	
ja	ja	0		J	
vastanud	vasta	nud		V	nud
        	vasta=nud	0		A	
        	vasta=nud	0		A	sg n
        	vasta=nud	d		A	pl n
        	vastanu	d		S	pl n
,	,			Z	
Tõnnis	Tõnn	s		H	sg in
tema	tema	0		P	sg g
    	tema	0		P	sg n
Tavet	####				
Venda	vend	0		S	adt
     	vend	0		S	sg p
oleva	olev	0		A	sg g
     	olev	0		S	sg g
koolmeistriks	kool_meister	ks		S	sg tr
seadnud	sead	nud		V	nud
       	sead=nu	d		S	pl n
       	sead=nud	0		A	
       	sead=nud	0		A	sg n
       	sead=nud	d		A	pl n
Mokku	####				
koli	koli	0		S	sg g
    	koli	0		V	o
    	koli	0		S	sg n
    	koli	0		S	sg p
peäle	####				
et	et	0		J	
Tavet	####				
selle	see	0		P	sg g
     	sell	e		S	pl p
eest	eest	0		D	
    	eest	0		K	
    	esi	st		S	sg el
seda	see	da		P	sg p
raha	raha	0		S	sg g
    	raha	0		S	sg n
    	raha	0		S	sg p
ei	ei	0		D	
  	ei	0		V	neg
noua	####				
,	,			Z	
ja	ja	0		J	
peäle	####				
seda	see	da		P	sg p
on	ole	0		V	b
  	ole	0		V	vad
neil	see	l		P	pl ad
    	tema	l		P	pl ad
tüli	tüli	0		S	sg g
    	tüli	0		S	sg n
    	tüli	0		S	sg p
tulnud	tul=nud	0		A	
      	tul=nud	0		A	sg n
      	tul=nud	d		A	pl n
      	tule	nud		V	nud
      	tulnu	d		S	pl n
ja	ja	0		J	
se	####				
tüli	tüli	0		S	sg g
    	tüli	0		S	sg n
    	tüli	0		S	sg p
juures	juur	s		S	sg in
      	juures	0		D	
      	juures	0		K	
lubanud	luba	nud		V	nud
       	luba=nu	d		S	pl n
       	luba=nud	0		A	
       	luba=nud	0		A	sg n
       	luba=nud	d		A	pl n
Tõnnis	Tõnn	s		H	sg in
Tavetile	####				
15	15	0		N	?
lõki	####				
nimetanud	nimeta	nud		V	nud
         	nimeta=nu	d		S	pl n
         	nimeta=nud	0		A	
         	nimeta=nud	0		A	sg n
         	nimeta=nud	d		A	pl n
veel	veel	0		D	
    	vesi	l		S	sg ad
Tavet	####				
Iissa	####				
ja	ja	0		J	
Vend	vend	0		S	sg n
kõik	kõik	0		P	pl n
    	kõik	0		S	sg n
    	kõik	0		P	sg n
Kuratte	####				
Suggu	####				
all	all	0		D	
   	all	0		K	
pead	pea	d		S	pl n
    	pida	d		V	d
    	pea	d		S	sg p
olema	ole	ma		V	ma
.	.			Z	
Vastas	vasta	s		V	s
      	vastas	0		D	
      	vastas	0		K	
Tõnnis	Tõnn	s		H	sg in
Soieva	####				
se	####				
oleva	olev	0		A	sg g
     	olev	0		S	sg g
kül	####				
õike	####				
et	et	0		J	
vahetanud	vaheta	nud		V	nud
         	vaheta=nu	d		S	pl n
         	vaheta=nud	0		A	
         	vaheta=nud	0		A	sg n
         	vaheta=nud	d		A	pl n
aga	aga	0		J	
tema	tema	0		P	sg g
    	tema	0		P	sg n
oleva	olev	0		A	sg g
     	olev	0		S	sg g
aga	aga	0		J	
25	25	0		N	?
rub	####				
50kop	####				
peäle	####				
pandnud	####				
ja	ja	0		J	
oleva	olev	0		A	sg g
     	olev	0		S	sg g
se	####				
raha	raha	0		S	sg g
    	raha	0		S	sg n
    	raha	0		S	sg p
Võlku	####				
,	,			Z	
aga	aga	0		J	
Tavid	####				
ja	ja	0		J	
Iissa	####				
lubanud	luba	nud		V	nud
       	luba=nu	d		S	pl n
       	luba=nud	0		A	
       	luba=nud	0		A	sg n
       	luba=nud	d		A	pl n
jätta	jät	a		V	da
kui	kui	0		D	
   	kui	0		J	
Villemid	Villem	d		H	pl n
Nekruti	nekrut	0		S	sg g
logist	logi	st		S	sg el
välja	välja	0		D	
     	välja	0		V	o
     	väli	0		S	adt
     	väli	0		S	sg g
     	väli	0		S	sg p
jättaks	####				
Oleva	olev	0		A	sg g
     	olev	0		S	sg g
ta	tema	0		P	sg g
  	tema	0		P	sg n
midaki	####				
noudjale	####				
üttelnud	####				
Tavet	####				
annab	and	b		V	b
siis	siis	0		D	
    	siis	0		J	
Tunnistajad	tunnistaja	d		S	pl n
ette	ette	0		D	
    	ette	0		K	
    	esi	tte		S	adt
,	,			Z	
Jaan	Jaan	0		H	sg n
    	jaan	0		S	sg n
    	jaan	0		Y	?
.	.			Z	
Müirisep	####				
,	,			Z	
Villem	Villem	0		H	sg n
Tamm	tamm	0		S	sg n
,	,			Z	
Hendrek	####				
Sirg	####				
.	.			Z	
Tuled	tuli	d		S	pl n
     	tule	d		V	d
tunnistajad	tunnistaja	d		S	pl n
ette	ette	0		D	
    	ette	0		K	
    	esi	tte		S	adt
ütleb	ütle	b		V	b
Jaan	Jaan	0		H	sg n
    	jaan	0		S	sg n
    	jaan	0		Y	?
Müirisep	####				
tema	tema	0		P	sg g
    	tema	0		P	sg n
oleva	olev	0		A	sg g
     	olev	0		S	sg g
kuulnud	kuul	nud		V	nud
       	kuul=nud	0		A	
       	kuul=nud	0		A	sg n
       	kuul=nud	d		A	pl n
       	kuulnu	d		S	pl n
et	et	0		J	
oleva	olev	0		A	sg g
     	olev	0		S	sg g
mõlemad	mõlema	d		P	pl n
sõnelemise	sõnele=mine	0		S	sg g
sees	sees	0		D	
    	sees	0		K	
olnud	ol=nud	0		A	
     	ol=nud	0		A	sg n
     	ol=nud	d		A	pl n
     	ole	nud		V	nud
     	olnu	d		S	pl n
ja	ja	0		J	
üttelnud	####				
Tõnis	Tõnis	0		H	sg n
kui	kui	0		D	
   	kui	0		J	
ka	ka	0		D	
13	13	0		N	?
rup	####				
maksan	maks	n		V	n
sa	sina	0		P	sg n
pead	pea	d		S	pl n
    	pida	d		V	d
    	pea	d		S	sg p
15	15	0		N	?
lõki	####				
sama	sama	0		P	sg g
    	sama	0		P	sg n
    	sama	0		P	sg p
.	.			Z	
Villem	Villem	0		H	sg n
Toom	toom	0		S	sg n
ütlep	####				
seda	see	da		P	sg p
sama	sama	0		P	sg g
    	sama	0		P	sg n
    	sama	0		P	sg p
ja	ja	0		J	
oleva	olev	0		A	sg g
     	olev	0		S	sg g
koolmeistri	kool_meister	0		S	sg g
panemise	panemine	0		S	sg g
eest	eest	0		D	
    	eest	0		K	
    	esi	st		S	sg el
se	####				
raha	raha	0		S	sg g
    	raha	0		S	sg n
    	raha	0		S	sg p
jäänud	jää	nud		V	nud
      	jäänu	d		S	pl n
      	jäänud	0		A	
      	jäänud	0		A	sg n
      	jäänud	d		A	pl n
Indrek	Indrek	0		H	sg n
Sirg	####				
ütlep	####				
et	et	0		J	
se	####				
raha	raha	0		S	sg g
    	raha	0		S	sg n
    	raha	0		S	sg p
jäänud	jää	nud		V	nud
      	jäänu	d		S	pl n
      	jäänud	0		A	
      	jäänud	0		A	sg n
      	jäänud	d		A	pl n
et	et	0		J	
Villemi	Villem	0		H	sg g
koolmeistriks	kool_meister	ks		S	sg tr
seädnud	####				
muud	muu	d		P	pl n
    	muu	d		S	pl n
    	muu	d		V	d
    	muu	d		P	sg p
    	muu	d		S	sg p
tema	tema	0		P	sg g
    	tema	0		P	sg n
midaki	####				
ei	ei	0		D	
  	ei	0		V	neg
teadva	teadev	0		A	sg g
Nouab	####				
kaepaja	kae_pada	0		S	sg g
       	kae_paja	0		S	sg g
       	kae_paja	0		S	sg n
       	kae_paja	0		S	sg p
jaTaved	####				
Villemson	####				
et	et	0		J	
kohus	kohu	s		V	s
     	kohus	0		S	sg n
temale	tema	le		P	sg all
se	####				
üle	üle	0		D	
   	üle	0		K	
otsust	otsus	t		S	sg p
ja	ja	0		J	
õikust	####				
annaksi	####				
.	.			Z	
Moistetud	####				
:	:			Z	
peab	pida	b		V	b
Tõnnis	Tõnn	s		H	sg in
Soieva	####				
Tavetid	####				
avvalikkult	####				
anteks	####				
paluma	palu	ma		V	ma
ja	ja	0		J	
2	2	0		N	?
rubla	rubla	0		S	sg g
     	rubla	0		S	sg n
     	rubla	0		S	sg p
hõbbetad	####				
Trahvi	trahv	0		S	adt
      	trahv	0		S	sg g
      	trahvi	0		V	o
      	trahv	0		S	sg p
maksma	maks	ma		V	ma
kogokonna	####				
trahvi	trahv	0		S	adt
      	trahv	0		S	sg g
      	trahvi	0		V	o
      	trahv	0		S	sg p
laeka	laegas	0		S	adt
     	laegas	0		S	sg g
ja	ja	0		J	
se	####				
entine	####				
3	3	0		N	?
rubla	rubla	0		S	sg g
     	rubla	0		S	sg n
     	rubla	0		S	sg p
ka	ka	0		D	
kätte	kätte	0		K	
     	käsi	tte		S	adt
Tavetile	####				
maksma	maks	ma		V	ma
.	.			Z	
