Aavvinurme	####				
kogokonnakohtus	####				
sel	see	l		P	sg ad
   	sel	0		Y	?
25	25	0		N	?
Januaril	####				
1873.	1873.	0		O	?
koos	koos	0		D	
    	koos	0		K	
    	koos	0		S	sg n
    	kubu	s		S	sg in
olid	ole	id		V	sid
peakohtumees	pea_kohtu_mees	0		S	sg n
Maddis	####				
Tamm	tamm	0		S	sg n
teine	teine	0		O	sg n
     	teine	0		P	sg n
kohtumees	kohtu_mees	0		S	sg n
Josep	####				
kalaus	####				
kolmas	kolmas	0		O	sg n
kohtumees	kohtu_mees	0		S	sg n
Maddis	####				
kalaus	####				
Said	saa	id		V	sid
ette	ette	0		D	
    	ette	0		K	
    	esi	tte		S	adt
kutsutud	kutsu	tud		V	tud
        	kutsutu	d		S	pl n
        	kutsutud	0		A	
        	kutsutud	0		A	sg n
        	kutsutud	d		A	pl n
Aabram	Aabram	0		H	sg n
Soo	soo	0		I	
   	soo	0		S	sg g
   	sugu	0		S	sg g
   	soo	0		S	sg n
,	,			Z	
elu	elu	0		S	sg g
   	elu	0		S	sg n
   	elu	0		S	sg p
Soo	soo	0		I	
   	soo	0		S	sg g
   	sugu	0		S	sg g
   	soo	0		S	sg n
ja	ja	0		J	
Jaan	Jaan	0		H	sg n
    	jaan	0		S	sg n
    	jaan	0		Y	?
Müür	müür	0		S	sg n
ning	ning	0		J	
nendele	see	dele		P	pl all
       	tema	dele		P	pl all
teada	tead	a		V	da
antud	an=tu	d		S	pl n
     	and	tud		V	tud
     	antud	0		A	
     	antud	0		A	sg n
     	antud	d		A	pl n
et	et	0		J	
Metsa	mets	0		S	adt
     	mets	0		S	sg g
     	mets	0		S	sg p
vaht	vaht	0		S	sg n
Aandres	####				
Traks	traks	0		A	sg n
     	traks	0		S	sg n
on	ole	0		V	b
  	ole	0		V	vad
üles	üles	0		D	
andnud	and	nud		V	nud
      	and=nu	d		S	pl n
      	and=nud	0		A	
      	and=nud	0		A	sg n
      	and=nud	d		A	pl n
,	,			Z	
et	et	0		J	
nemad	tema	d		P	pl n
on	ole	0		V	b
  	ole	0		V	vad
Krono	####				
metsast	mets	st		S	sg el
       	metsane	t		A	sg p
9	9	0		N	?
kase	kask	0		S	sg g
puud	puu	d		S	pl n
    	puud	0		S	sg n
    	puu	d		S	sg p
maha	maha	0		D	
raijunud	####				
ning	ning	0		J	
tohud	toht	d		S	pl n
ära	ära	0		D	
   	ära	0		V	neg o
kiskunud	kisku	nud		V	nud
        	kisku=nu	d		S	pl n
        	kisku=nud	0		A	
        	kisku=nud	0		A	sg n
        	kisku=nud	d		A	pl n
,	,			Z	
mis	mis	0		P	pl n
   	mis	0		P	sg n
Metsa	mets	0		S	adt
     	mets	0		S	sg g
     	mets	0		S	sg p
herra	####				
säduse	####				
jarel	####				
trahvi	trahv	0		S	adt
      	trahv	0		S	sg g
      	trahvi	0		V	o
      	trahv	0		S	sg p
alla	alla	0		D	
    	alla	0		K	
on	ole	0		V	b
  	ole	0		V	vad
pandnud	####				
3	3	0		N	?
rubl	####				
.	.			Z	
9	9	0		N	?
kopikud	####				
mis	mis	0		P	pl n
   	mis	0		P	sg n
nemad	tema	d		P	pl n
pead	pea	d		S	pl n
    	pida	d		V	d
    	pea	d		S	sg p
ära	ära	0		D	
   	ära	0		V	neg o
maksma	maks	ma		V	ma
.	.			Z	
Aabram	Aabram	0		H	sg n
Soo	soo	0		I	
   	soo	0		S	sg g
   	sugu	0		S	sg g
   	soo	0		S	sg n
räkis	####				
et	et	0		J	
tema	tema	0		P	sg g
    	tema	0		P	sg n
ei	ei	0		D	
  	ei	0		V	neg
ole	ole	0		V	o
neid	neid	0		S	sg n
    	see	d		P	pl p
    	tema	d		P	pl p
tohtusid	toht	sid		S	pl p
kiskunud	kisku	nud		V	nud
        	kisku=nu	d		S	pl n
        	kisku=nud	0		A	
        	kisku=nud	0		A	sg n
        	kisku=nud	d		A	pl n
,	,			Z	
sest	see	st		P	sg el
    	sest	0		J	
et	et	0		J	
tema	tema	0		P	sg g
    	tema	0		P	sg n
just	just	0		D	
    	just	0		I	
sel	see	l		P	sg ad
   	sel	0		Y	?
ajal	aeg	l		S	sg ad
    	ajal	0		K	
kodust	kodu	st		S	sg el
      	kodune	t		A	sg p
ära	ära	0		D	
   	ära	0		V	neg o
olnud	ol=nud	0		A	
     	ol=nud	0		A	sg n
     	ol=nud	d		A	pl n
     	ole	nud		V	nud
     	olnu	d		S	pl n
,	,			Z	
ja	ja	0		J	
kui	kui	0		D	
   	kui	0		J	
tema	tema	0		P	sg g
    	tema	0		P	sg n
kodu	kodu	0		S	sg g
    	kodu	0		S	sg n
    	kodu	0		S	sg p
tulnud	tul=nud	0		A	
      	tul=nud	0		A	sg n
      	tul=nud	d		A	pl n
      	tule	nud		V	nud
      	tulnu	d		S	pl n
kutsunud	kutsu	nud		V	nud
        	kutsu=nu	d		S	pl n
        	kutsu=nud	0		A	
        	kutsu=nud	0		A	sg n
        	kutsu=nud	d		A	pl n
Metsavaht	metsa_vaht	0		S	sg n
teda	tema	da		P	sg p
lähme	mine	me		V	me
üht	üks	0		N	sg p
   	üks	0		P	sg p
tohu	toht	0		S	sg g
hunnikud	hunnik	d		S	pl n
vatama	####				
,	,			Z	
ja	ja	0		J	
kui	kui	0		D	
   	kui	0		J	
nemad	tema	d		P	pl n
sina	sina	0		P	sg n
    	sina	0		S	sg g
    	sina	0		V	o
    	sina	0		S	sg n
    	sina	0		S	sg p
lähud	####				
ei	ei	0		D	
  	ei	0		V	neg
ole	ole	0		V	o
enamb	####				
tohu	toht	0		S	sg g
hunnikud	hunnik	d		S	pl n
alles	alles	0		D	
olnud	ol=nud	0		A	
     	ol=nud	0		A	sg n
     	ol=nud	d		A	pl n
     	ole	nud		V	nud
     	olnu	d		S	pl n
ning	ning	0		J	
ei	ei	0		D	
  	ei	0		V	neg
puudu	puudu	0		D	
     	puudu	0		V	o
se	####				
asi	asi	0		S	sg n
   	asi	0		V	o
temasse	tema	sse		P	sg ill
sugugi	sugugi	0		D	
.	.			Z	
elu	elu	0		S	sg g
   	elu	0		S	sg n
   	elu	0		S	sg p
Soo	soo	0		I	
   	soo	0		S	sg g
   	sugu	0		S	sg g
   	soo	0		S	sg n
räkis	####				
,	,			Z	
et	et	0		J	
tema	tema	0		P	sg g
    	tema	0		P	sg n
on	ole	0		V	b
  	ole	0		V	vad
kül	####				
nattukenne	####				
tõkkudid	####				
põletanud	põleta	nud		V	nud
         	põleta=nu	d		S	pl n
         	põleta=nud	0		A	
         	põleta=nud	0		A	sg n
         	põleta=nud	d		A	pl n
.	.			Z	
aga	aga	0		J	
kui	kui	0		D	
   	kui	0		J	
need	see	d		P	pl n
tohod	####				
varastud	####				
,	,			Z	
siis	siis	0		D	
    	siis	0		J	
ei	ei	0		D	
  	ei	0		V	neg
ole	ole	0		V	o
temal	tema	l		P	sg ad
neid	neid	0		S	sg n
    	see	d		P	pl p
    	tema	d		P	pl p
tohtusid	toht	sid		S	pl p
olnud	ol=nud	0		A	
     	ol=nud	0		A	sg n
     	ol=nud	d		A	pl n
     	ole	nud		V	nud
     	olnu	d		S	pl n
,	,			Z	
sest	see	st		P	sg el
    	sest	0		J	
et	et	0		J	
tema	tema	0		P	sg g
    	tema	0		P	sg n
tohud	toht	d		S	pl n
vanad	vana	d		A	pl n
     	vana	d		S	pl n
purud	puru	d		S	pl n
olnud	ol=nud	0		A	
     	ol=nud	0		A	sg n
     	ol=nud	d		A	pl n
     	ole	nud		V	nud
     	olnu	d		S	pl n
mis	mis	0		P	pl n
   	mis	0		P	sg n
tema	tema	0		P	sg g
    	tema	0		P	sg n
karjamametsast	####				
kandude	####				
küllest	####				
kiskunud	kisku	nud		V	nud
        	kisku=nu	d		S	pl n
        	kisku=nud	0		A	
        	kisku=nud	0		A	sg n
        	kisku=nud	d		A	pl n
.	.			Z	
Jaan	Jaan	0		H	sg n
    	jaan	0		S	sg n
    	jaan	0		Y	?
Müür	müür	0		S	sg n
räkis	####				
,	,			Z	
et	et	0		J	
tema	tema	0		P	sg g
    	tema	0		P	sg n
ei	ei	0		D	
  	ei	0		V	neg
ole	ole	0		V	o
sel	see	l		P	sg ad
   	sel	0		Y	?
ajal	aeg	l		S	sg ad
    	ajal	0		K	
sugugi	sugugi	0		D	
tõkkutud	####				
põletanud	põleta	nud		V	nud
         	põleta=nu	d		S	pl n
         	põleta=nud	0		A	
         	põleta=nud	0		A	sg n
         	põleta=nud	d		A	pl n
,	,			Z	
ja	ja	0		J	
on	ole	0		V	b
  	ole	0		V	vad
ka	ka	0		D	
metsa	mets	0		S	adt
     	mets	0		S	sg g
     	mets	0		S	sg p
vaht	vaht	0		S	sg n
teda	tema	da		P	sg p
läbbi	####				
otsinud	otsi	nud		V	nud
       	otsi=nu	d		S	pl n
       	otsi=nud	0		A	
       	otsi=nud	0		A	sg n
       	otsi=nud	d		A	pl n
,	,			Z	
ja	ja	0		J	
ei	ei	0		D	
  	ei	0		V	neg
ole	ole	0		V	o
õhtegi	####				
leidnud	leid	nud		V	nud
       	leid=nu	d		S	pl n
       	leid=nud	0		A	
       	leid=nud	0		A	sg n
       	leid=nud	d		A	pl n
.	.			Z	
ja	ja	0		J	
ei	ei	0		D	
  	ei	0		V	neg
taha	taht	0		V	o
    	taha	0		D	
    	taha	0		K	
tema	tema	0		P	sg g
    	tema	0		P	sg n
selle	see	0		P	sg g
     	sell	e		S	pl p
pärast	pära	st		S	sg el
      	pärane	t		A	sg p
      	pärast	0		D	
      	pärast	0		K	
seda	see	da		P	sg p
trahvi	trahv	0		S	adt
      	trahv	0		S	sg g
      	trahvi	0		V	o
      	trahv	0		S	sg p
maksta	maks	ta		V	da
      	maks	ta		V	ta
Metsavaht	metsa_vaht	0		S	sg n
Aandres	####				
Traks	traks	0		A	sg n
     	traks	0		S	sg n
tunnistas	tunnista	s		V	s
et	et	0		J	
tema	tema	0		P	sg g
    	tema	0		P	sg n
on	ole	0		V	b
  	ole	0		V	vad
peale	pea	le		S	sg all
     	peale	0		D	
     	peale	0		K	
selle	see	0		P	sg g
     	sell	e		S	pl p
kui	kui	0		D	
   	kui	0		J	
tema	tema	0		P	sg g
    	tema	0		P	sg n
se	####				
tohu	toht	0		S	sg g
hunni	hunn	0		S	adt
     	hunn	0		S	sg g
     	hunn	0		S	sg p
leid	leid	0		S	sg n
ning	ning	0		J	
se	####				
ühel	üks	l		N	sg ad
    	üks	l		P	sg ad
õesil	####				
jälle	jälle	0		D	
ära	ära	0		D	
   	ära	0		V	neg o
vedud	####				
need	see	d		P	pl n
ees	ees	0		D	
   	ees	0		K	
   	esi	s		S	sg in
nimetud	nimetu	d		A	pl n
inimesed	inimene	d		S	pl n
läbbi	####				
otsinud	otsi	nud		V	nud
       	otsi=nu	d		S	pl n
       	otsi=nud	0		A	
       	otsi=nud	0		A	sg n
       	otsi=nud	d		A	pl n
aga	aga	0		J	
ei	ei	0		D	
  	ei	0		V	neg
ole	ole	0		V	o
nende	see	de		P	pl g
     	tema	de		P	pl g
käest	käest	0		K	
     	käsi	st		S	sg el
neid	neid	0		S	sg n
    	see	d		P	pl p
    	tema	d		P	pl p
tohtusid	toht	sid		S	pl p
leidnud	leid	nud		V	nud
       	leid=nu	d		S	pl n
       	leid=nud	0		A	
       	leid=nud	0		A	sg n
       	leid=nud	d		A	pl n
.	.			Z	
ja	ja	0		J	
et	et	0		J	
need	see	d		P	pl n
inimesed	inimene	d		S	pl n
tõkkodid	####				
põletavad	põleta	vad		V	vad
         	põletav	d		A	pl n
,	,			Z	
siis	siis	0		D	
    	siis	0		J	
arvab	arva	b		V	b
tema	tema	0		P	sg g
    	tema	0		P	sg n
et	et	0		J	
need	see	d		P	pl n
ka	ka	0		D	
need	see	d		P	pl n
tohud	toht	d		S	pl n
on	ole	0		V	b
  	ole	0		V	vad
varastanud	varasta	nud		V	nud
          	varasta=nu	d		S	pl n
          	varasta=nud	0		A	
          	varasta=nud	0		A	sg n
          	varasta=nud	d		A	pl n
Moistus	####				
et	et	0		J	
Metsavaht	metsa_vaht	0		S	sg n
Aandres	####				
Traks	traks	0		A	sg n
     	traks	0		S	sg n
ei	ei	0		D	
  	ei	0		V	neg
voi	####				
tunnistust	tunnistus	t		S	sg p
anda	and	a		V	da
,	,			Z	
et	et	0		J	
tema	tema	0		P	sg g
    	tema	0		P	sg n
neid	neid	0		S	sg n
    	see	d		P	pl p
    	tema	d		P	pl p
tohtusid	toht	sid		S	pl p
on	ole	0		V	b
  	ole	0		V	vad
nende	see	de		P	pl g
     	tema	de		P	pl g
inimeste	inimene	te		S	pl g
käest	käest	0		K	
     	käsi	st		S	sg el
leidnud	leid	nud		V	nud
       	leid=nu	d		S	pl n
       	leid=nud	0		A	
       	leid=nud	0		A	sg n
       	leid=nud	d		A	pl n
,	,			Z	
ning	ning	0		J	
ka	ka	0		D	
mitte	mitte	0		D	
ei	ei	0		D	
  	ei	0		V	neg
ole	ole	0		V	o
nähud	näht	d		S	pl n
.	.			Z	
et	et	0		J	
nemad	tema	d		P	pl n
on	ole	0		V	b
  	ole	0		V	vad
need	see	d		P	pl n
kassepuud	####				
maha	maha	0		D	
raijunud	####				
.	.			Z	
siis	siis	0		D	
    	siis	0		J	
ei	ei	0		D	
  	ei	0		V	neg
voi	####				
kogokonnakohus	####				
neid	neid	0		S	sg n
    	see	d		P	pl p
    	tema	d		P	pl p
inimesi	inimene	i		S	pl p
süi	####				
aluseks	alune	ks		A	sg tr
       	alune	ks		S	sg tr
       	alus	ks		S	sg tr
moista	####				
,	,			Z	
ja	ja	0		J	
peab	pida	b		V	b
Metsavaht	metsa_vaht	0		S	sg n
Aandres	####				
Traks	traks	0		A	sg n
     	traks	0		S	sg n
üht	üks	0		N	sg p
   	üks	0		P	sg p
paremad	parem	d		C	pl n
tunnistust	tunnistus	t		S	sg p
tooma	too	ma		V	ma
.	.			Z	
Maddis	####				
Tamm	tamm	0		S	sg n
XXX	XXX	0		O	?
   	XXX	0		Y	?
Josep	####				
kalaus	####				
XXX	XXX	0		O	?
   	XXX	0		Y	?
Maddis	####				
kalaus	####				
XXX	XXX	0		O	?
   	XXX	0		Y	?
