Kohtokorra	O
parrast	O
ollid	O
kokko	O
tulnud	O
.	O
Kohtowannem	O
:	O
Tõnno	B-PER
Kirschman	I-PER
abbimees	O
:	O
Hans	B-PER
Lintberg	I-PER
wollimees	O
:	O
Jürri	B-PER
Ilwes	I-PER
.	O
Astus	O
ette	O
Kändast	B-LOC
Mart	B-PER
Pappiarro	I-PER
44	O
aastad	O
wanna	O
,	O
ja	O
kaebab	O
,	O
et	O
temma	O
on	O
krami	O
kotti	O
Tallinas	B-LOC
Punnase	B-LOC_ORG
kõrtso	I-LOC_ORG
howis	O
Leewrest	B-LOC
Jakob	B-PER
Piirfeldi	I-PER
wankre	O
peale	O
pannud	O
,	O
ja	O
nemmad	O
piddid	O
seltsis	O
linnast	O
koddo	O
tullema	O
.	O
Jakob	B-PER
Piirfeld	I-PER
tunnistab	O
sedda	O
tõe	O
ollewad	O
,	O
et	O
se	O
krami	O
kot	O
on	O
seal	O
temma	O
wankre	O
peale	O
saand	O
pandud	O
,	O
ja	O
siis	O
hakkand	O
sealt	O
mollemad	O
seltsis	O
tullema	O
ni	O
kaugele	O
kui	O
Karro	B-LOC_ORG
poe	I-LOC_ORG
jure	O
sealt	O
ostnud	O
weel	O
ommale	O
krami	O
jure	O
ja	O
tullewad	O
ikka	O
seltsis	O
ni	O
kaugele	O
kui	O
Raketka	B-LOC_ORG
kõrtso	I-LOC_ORG
jure	O
,	O
seal	O
on	O
nendel	O
tulli	O
läbbi	O
aeg	O
kauaks	O
wiibinud	O
.	O
Mart	B-PER
Pappiarro	I-PER
on	O
sealt	O
ärra	O
tulnud	O
Surest	B-LOC
Koljust	I-LOC
Jaan	B-PER
Hindreaga	I-PER
ja	O
polle	O
mitte	O
Jakub	B-PER
Piirfeldile	I-PER
üttelnud	O
,	O
et	O
temma	O
ärra	O
lähheb	O
.	O
Jakob	B-PER
ütleb	O
kui	O
temma	O
on	O
kõrtsust	O
wälja	O
tulnud	O
,	O
siis	O
põlle	O
mitte	O
krami	O
kot	O
ennam	O
temma	O
wankre	O
peal	O
olnud	O
,	O
se	O
olli	O
siis	O
jubba	O
ärra	O
kaddunud	O
.	O
Se	O
kraam	O
mis	O
wargusse	O
läbbi	O
on	O
kadduma	O
saand	O
on	O
Mart	B-PER
Pappiarro	I-PER
ülles	O
annud	O
34	O
Rbl	O
eest	O
.	O
Kohhus	O
küssis	O
Kas	O
Jakub	B-PER
piddis	O
pole	O
sest	O
kahjust	O
maksma	O
se	O
on	O
17	O
Rbl	O
agga	O
Jakub	B-PER
ei	O
tahha	O
mette	O
sedda	O
maksta	O
.	O
Nüüd	O
pärrast	O
seebla	O
kaddumist	O
on	O
Mart	B-PER
Pappiarro	I-PER
omma	O
krami	O
katte	O
sanud	O
Tallinast	B-LOC
Järmakohwi	B-LOC
aeast	I-LOC
arwata	O
4.	O
Rbl	O
ette	O
,	O
ja	O
üks	O
paar	O
pastlid	O
leidnud	O
Sakkolohwi	B-LOC
kõrtsmik	O
omma	O
kapsta	O
aeast	O
.	O
Sellepärrast	O
et	O
se	O
assi	O
wagga	O
seggane	O
on	O
saab	O
Auliko	O
kehhelkonna	O
kohto	O
Herrat	O
pallutud	O
sedda	O
asja	O
ärra	O
selletada	O
,	O
et	O
nemmad	O
rahhule	O
jäwad	O
.	O
Kohtowannem	O
:	O
Tönno	B-PER
Kirschmann	I-PER
XXX	O
abbimees	O
:	O
Hans	B-PER
Lintberg	I-PER
XXX	O
wollimees	O
:	O
Jürri	B-PER
Ilwes	I-PER
XXX	O
Kirjutaja	O
.	O
H	B-PER
Aunberg	I-PER
[	O
allkiri	O
]	O
