Redik	B-PER
Puu	I-PER
Kaibab	O
et	O
Kahhe	O
aasta	O
eest	O
temmal	O
Tua	O
ellu	O
räästa	O
alt	O
wanna	O
raud	O
rattas	O
on	O
ärra	O
Warrastud	O
,	O
ja	O
nüüd	O
sinnatse	O
Süggise	O
Warruli	B-LOC
Saddamas	I-LOC
on	O
Redika	B-PER
ouemees	O
Laes	B-PER
Puu	I-PER
omma	O
issa	O
pole	O
wenna	O
Ado	B-PER
Puuga	I-PER
rido	O
läinud	O
,	O
siis	O
on	O
Ado	B-PER
Sedda	O
Kaiband	O
Mihkel	B-PER
Mok	I-PER
ees	O
(	O
Kes	O
Redik	B-PER
Puu	I-PER
Perremees	O
)	O
ütteldes	O
Kas	O
sa	O
Tead	O
Kus	O
sinnu	O
rattas	O
on	O
mis	O
ärra	O
Kaddus	O
se	O
on	O
Sinnu	O
ouemihhe	O
Lasi	B-PER
Käes	O
.	O
Siis	O
Said	O
ette	O
Kutsutud	O
Kas	O
Keik	O
nenda	O
tössi	O
on	O
,	O
Agga	O
Ado	B-PER
Aiab	O
sedda	O
walleks	O
et	O
temma	O
ei	O
ole	O
Sedda	O
mitte	O
räkind	O
,	O
agga	O
Selle	O
Peale	O
tulli	O
Teine	O
tunnistus	O
Jaak	B-PER
Tarkind	I-PER
,	O
Kes	O
ütleb	O
et	O
Ado	B-PER
temma	O
ees	O
ka	O
on	O
Sedda	O
räkind	O
,	O
et	O
se	O
nüüd	O
tunnistuste	O
läbbi	O
tössi	O
on	O
,	O
ei	O
aiand	O
Ado	B-PER
ka	O
ennam	O
walleks	O
,	O
Waid	O
tunnistab	O
et	O
mullu	O
Sui	O
Kui	O
temma	O
Lasil	B-PER
Suilisseks	O
olnud	O
siis	O
on	O
temma	O
Seppa	O
Paijas	O
näinud	O
wannad	O
ratta	O
pussid	O
,	O
rummu	O
witsad	O
,	O
ja	O
ratta	O
witsa	O
tükkid	O
,	O
ning	O
ütleb	O
Ado	B-PER
et	O
temma	O
enne	O
Keik	O
Lasi	B-PER
ued	O
rattad	O
teind	O
,	O
ning	O
wannad	O
arrind	O
et	O
temma	O
Selgest	O
teab	O
,	O
et	O
lasil	O
mitte	O
nisuggust	O
wanna	O
ratta	O
Krami	O
ennesel	O
ei	O
olle	O
,	O
waid	O
sedda	O
on	O
temma	O
wäljast	O
noudand	O
ning	O
Sai	O
ka	O
Lasi	B-PER
Käest	O
Küssitud	O
Kas	O
temmal	O
on	O
nisuggust	O
wanna	O
ratta	O
Krami	O
Seppa	O
paias	O
Seismas	O
olnud	O
,	O
agga	O
temma	O
tunnistab	O
et	O
temmal	O
ei	O
olle	O
nisuggust	O
wanna	O
ratta	O
purru	O
paijas	O
seismas	O
olnud	O
,	O
waid	O
temma	O
ütleb	O
et	O
Ado	B-PER
Sedda	O
ülle	O
Kohtu	O
temma	O
peale	O
tunnistab	O
.	O
Et	O
seal	O
teist	O
tunnistust	O
ennam	O
ei	O
olnud	O
jäi	O
si	O
assi	O
weel	O
seisma	O
.	O
Pea	O
Kohtu	O
Mees	O
Jaen	B-PER
Kiks	I-PER
+	O
+	O
+	O
,	O
Kohtu	O
Mees	O
Roman	B-PER
Pehgme	I-PER
