Sel	O
päewal	O
sai	O
Mõisa	O
Herra	O
luaga	O
Lülle	B-LOC_ORG
Johan	B-PER
Wiimer	I-PER
,	O
ja	O
tema	O
abilise	O
Karl	B-PER
Punn	I-PER
puma	O
(	O
kraam	O
)	O
asjad	O
Renti	O
wõlla	O
ja	O
Magatsini	O
wõlla	O
ära	O
tasumise	O
tarwis	O
kõik	O
üles	O
kirjudud	O
ja	O
keelu	O
alla	O
pandud	O
,	O
nii	O
kui	O
siin	O
all	O
nimedud	O
saab	O
.	O
Oksjoni	O
pidamine	O
jäi	O
27	O
Pastukuupäwaks	O
ja	O
sai	O
Maha	O
kulutusele	O
kirjad	O
kiriku	O
juure	O
saadetud	O
.	O
1.	O
Lülle	B-LOC_ORG
Juhan	B-PER
Wiimer	I-PER
oksjoni	O
asjad	O
Loomade	O
ja	O
asjade	O
nimed	O
Ostjade	O
nimed	O
asjade	O
wäertus	O
1	O
Ruun	O
hobu	O
Raud	O
waraks	O
-	O
-	O
1	O
Ruun	O
hobu	O
Raud	O
waraks	O
-	O
-	O
1	O
Sõnn	O
Raud	O
waraks	O
-	O
-	O
1	O
Lehm	O
müimata	O
-	O
-	O
1	O
Lammas	O
Juhan	B-PER
Oga	I-PER
Elmelt	B-LOC
1	O
20	O
1	O
Lammas	O
Leena	B-PER
Maripuu	I-PER
Opalt	B-LOC
1	O
40	O
1	O
Lammas	O
Mihkel	B-PER
Awik	I-PER
Tahul	B-LOC
1	O
-	O
1	O
Lammas	O
müimata	O
-	O
-	O
1	O
Lammas	O
müimata	O
-	O
-	O
1	O
Lammas	O
Ei	O
ole	O
üles	O
kirjudud	O
,	O
ega	O
ka	O
mitte	O
olnud	O
kirjud	O
Summa	O
3	O
60	O
Rubel	O
kopp	O
1	O
Siga	O
Diedemann	B-PER
Kuresarest	B-LOC
3	O
5	O
1	O
Siga	O
Diedemann	B-PER
Kuuresarest	B-LOC
2	O
50	O
1	O
Koer	O
Müimata	O
1	O
wannad	O
puu	O
rattad	O
2	O
/	O
kana	O
/	O
hane	O
2	O
rege	O
puu	O
1	O
häge	O
1	O
hader	O
1	O
kala	O
kiha	O
1	O
Taari	O
törs	O
1	O
käi	O
1	O
kattel	O
kahe	O
raantana	O
1	O
Lähker	O
1	O
kast	O
2	O
wikatud	O
2	O
wikkatud	O
2	O
wikkatid	O
2	O
wikkatid	O
Summa	O
8	O
95	O
Lülle	B-LOC_ORG
Karl	B-PER
Punn	I-PER
oksjoni	O
asjad	O
on	O
1	O
Hobune	O
Jakob	B-PER
Hawik	I-PER
Tahul	B-LOC
9	O
11	O
1	O
Lehm	O
Müimata	O
jäenud	O
1	O
Lammas	O
1	O
Lammas	O
1	O
Lammas	O
Summa	O
9	O
11	O
Rbl	O
kopp	O
1	O
Lammas	O
Müimata	O
1	O
Lammas	O
1	O
põrsas	O
1	O
põrsas	O
1	O
raud	O
rattad	O
wanad	O
1	O
kerst	O
Juhan	B-PER
Timmas	I-PER
Medel	B-LOC
31	O
1	O
wakkane	O
kiha	O
I. Tohter	B-PER
Piilast	B-LOC
6	O
3	O
Rega	O
Müimata	O
1	O
Sõnniku	O
ark	O
1	O
ägge	O
1	O
Hader	O
4	O
wikkatid	O
Wisso	B-LOC_ORG
M. Paberits	B-PER
Kaa	B-LOC
38	O
1	O
uus	O
puuregi	O
müimata	O
1	O
ölle	O
kiha	O
M. Matson	B-PER
Kaarma	B-LOC
20	O
1	O
taari	O
kiha	O
Kirel	B-PER
Halik	I-PER
Medel	B-LOC
20	O
1	O
Sea	O
Tann	O
2	O
Tuhwli	O
kooku	O
Didemann	B-PER
Kuuresarest	B-LOC
12	O
3	O
wikkatid	O
,	O
venni	O
kapp	O
Riidu	B-PER
Saar	I-PER
Kaarma	B-LOC
23	O
1	O
Liha	O
keha	O
I. Tohter	B-PER
Piilast	B-LOC
17	O
1	O
Kalapang	O
ja	O
käi	O
I. Tohter	B-PER
Piilast	B-LOC
17	O
1	O
wann	O
müimata	O
1	O
Toower	O
Marie	B-PER
Hink	I-PER
Uduralt	B-LOC
7	O
1	O
venni	O
kapp	O
2	O
kattelt	O
Jakob	B-PER
Sepp	I-PER
Uduralt	B-LOC
20	O
1	O
kerwes	O
Jaen	B-PER
Reinfeld	I-PER
Kaarm	B-LOC
23	O
1	O
Tiibadega	O
ohert	O
Müimata	O
1	O
heina	O
ang	O
ja	O
sari	O
Summa	O
11	O
25	O
Rbl	O
kopp	O
2	O
wakka	O
3	O
küll	O
ja	O
1	O
matt	O
Rugidest	O
Riidu	B-PER
Hallikas	I-PER
Kaarm	B-LOC
3	O
5	O
Summa	O
14	O
30	O
Talitaja	O
Riidu	B-PER
Saar	I-PER
Peakohtumees	O
M. Matson	B-PER
Kohtumees	O
I. Wiskus	B-PER
Kohtumees	O
A. Wiskus	B-PER
