Ette	O
tulli	O
wallawannemb	O
J. Kuk	B-PER
ja	O
kaibas	O
et	O
Joh	B-PER
.	I-PER
Kukli	B-PER
ollewat	O
eilä	O
ladu	O
pääl	O
wäega	O
tappelnu	O
nink	O
kaui	O
wallawannemb	O
keeldmä	O
lännü	O
sis	O
üttelnü	O
et	O
mes	O
kurrat	O
sinna	O
ollet	O
nink	O
sis	O
ka	O
wallawannembale	O
lönü	O
ka	O
wallawannembale	O
nink	O
ei	O
olle	O
turru	O
kubbijid	O
nink	O
üttel	O
wenneläsel	O
hinset	O
mahha	O
kisknu	O
ja	O
ollewat	O
tunnistaja	O
Peter	B-PER
Tutt	I-PER
ja	O
Andre	B-PER
Prantz	I-PER
.	O
Peter	B-PER
Tutt	I-PER
tunnistas	O
et	O
Joh	B-PER
.	I-PER
Kukli	B-PER
larmitses	O
ja	O
taples	O
wäega	O
ja	O
leije	O
kelle	O
enne	O
saije	O
nink	O
üttel	O
wallawannembal	O
et	O
mes	O
kurrat	O
sinna	O
ollet	O
nink	O
tahtse	O
wallawannembat	O
ka	O
weel	O
lüwwa	O
ja	O
passis	O
mittmid	O
tõisi	O
.	O
Andre	B-PER
Prantz	I-PER
tunnistas	O
nisamma	O
et	O
Joh	B-PER
.	I-PER
Kukli	B-PER
wäega	O
tappelnu	O
om	O
nink	O
ka	O
weel	O
wallawannemba	O
sõnna	O
ei	O
olle	O
kuuldnu	O
,	O
tahtnu	O
tedda	O
lüwwä	O
ja	O
üttelnu	O
et	O
mes	O
kurrat	O
sinna	O
ollet	O
egga	O
sinna	O
turru	O
kubbijas	O
ei	O
olle	O
.	O
Jaan	B-PER
Org	I-PER
tunnistas	O
ka	O
et	O
Joh	B-PER
.	I-PER
Kukli	B-PER
rehkles	O
käega	O
ka	O
wallawannembale	O
nink	O
taples	O
ja	O
larmitses	O
wäega	O
.	O
Johann	B-PER
Kukli	I-PER
ütles	O
et	O
minna	O
naksi	O
leierkasti	O
Juudile	O
rahha	O
masma	O
,	O
sis	O
leijewä	O
wenneläse	O
minnol	O
rahha	O
kotti	O
mahha	O
nink	O
es	O
lasse	O
minnol	O
rahha	O
kotti	O
ülles	O
wõtta	O
nink	O
minna	O
wõtti	O
wennw	O
poisi	O
kübbari	O
ärra	O
ja	O
saal	O
tahtsewa	O
wenneläse	O
minno	O
pessä	O
nink	O
sis	O
minna	O
hoidse	O
enne	O
hennäst	O
nink	O
minna	O
es	O
tunne	O
et	O
wallawannemb	O
olli	O
.	O
Timofei	B-PER
Mikitawitsch	I-PER
Panikowitsast	B-LOC
and	O
ka	O
ülles	O
et	O
Johann	B-PER
Kukli	I-PER
ka	O
tedda	O
eila	O
russikuga	O
kõrwu	O
möda	O
om	O
pesnüd	O
nink	O
enne	O
temma	O
pesmist	O
ka	O
mahha	O
ei	O
olle	O
jätnu	O
kui	O
üts	O
soldat	O
mõgaga	O
abbis	O
tulnu	O
nink	O
tedda	O
käest	O
ärra	O
pästnü	O
.	O
Wallawannemb	O
nõwwap	O
Jaak	B-PER
Kukli	I-PER
trahwida	O
.	O
Kohtumees	O
Karl	B-PER
Lõhmus	I-PER
ütles	O
et	O
temma	O
ka	O
sedda	O
om	O
trotsnu	O
et	O
mes	O
kurrati	O
kohtumees	O
ollet	O
.	O
Otsus	O
:	O
Johann	B-PER
Kukli	I-PER
selle	O
sure	O
taplemise	O
perrast	O
Keiserliku	B-ORG
Wõrro	I-ORG
Maakohtuhe	I-ORG
saata	O
wahhi	O
all	O
et	O
Mirawoi	B-MISC
kohtu	I-MISC
sädüse	I-MISC
perra	O
saap	O
trahwitus	O
.	O
Pääkohtumees	O
A. Wähhi	B-PER
[	O
allkiri	O
]	O
Kohtumees	O
Kohtumees	O
Mihel	B-PER
Ugur	I-PER
[	O
allkiri	O
]	O
Kirjotaja	O
Jõggewa	B-PER
