Kokku olid tulnud, kohtuwanem : K.Koppel
                                           abiline: K.Laal
                                             -"-    : K.Partokowskij
                                      Kirjutaja: M.Redlich
Kohtu asja ei olnud toimetada, seepärast sai kohtu pääw lõpetud.
        kohtuwanem: Kustas Koppel                       XXX
                  abiline: Karel Laal                                XXX
                      -"-  : Karel Partokowskij                 XXX
                  Kirjutaja: M.Redlich
