Kokku olid tulnud, kohtuwanem: Kustas Koppel
                                           abiline: Karel Laal
                                             -"-     : Karel Partokowskij
                                         kirjutaja: M.Redlich
Et ühtegi asja toimetada ei olnud, sai kohtu pääw lõpetud.
                Kohtu wanem: Kustas Koppel              XXX
                            abiline: Karel Laal                       XXX
                               -"-    : Karel Partokowskij       XXX
                        Kirjutaja: M.Redlich
