kihelkonna	kihelkond	0		S	sg g
kohtu	kohtu	0		V	o
     	kohus	0		S	sg g
poolest	pool	st		N	sg el
       	pool	st		S	sg el
       	poolene	t		A	sg p
       	poolest	0		K	
läbivaadatud	läbi_vaadatud	0		A	
            	läbi_vaadatud	0		A	sg n
            	läbi_vaadatud	d		A	pl n
ja	ja	0		J	
leitud	leid	tud		V	tud
      	leitu	d		S	pl n
      	leitud	0		A	
      	leitud	0		A	sg n
      	leitud	d		A	pl n
et	et	0		J	
äraläinud	ära_läinu	d		S	pl n
         	ära_läinud	0		A	
         	ära_läinud	0		A	sg n
         	ära_läinud	d		A	pl n
viinakuupäeval	viina_kuu_päev	l		S	sg ad
No	no	0		I	
11	11	0		N	?
all	all	0		D	
   	all	0		K	
mõistetud	mõist	tud		V	tud
         	mõiste=tu	d		S	pl n
         	mõiste=tud	0		A	
         	mõiste=tud	0		A	sg n
         	mõiste=tud	d		A	pl n
Trahvi	trahv	0		S	adt
      	trahv	0		S	sg g
      	trahvi	0		V	o
      	trahv	0		S	sg p
raha	raha	0		S	sg g
    	raha	0		S	sg n
    	raha	0		S	sg p
Kaarel	Kaarel	0		H	sg n
      	kaar	l		S	sg ad
      	kaarel	0		S	sg n
Pirkeli	####				
käest	käest	0		K	
     	käsi	st		S	sg el
on	ole	0		V	b
  	ole	0		V	vad
veel	veel	0		D	
    	vesi	l		S	sg ad
maksmata	maks	mata		V	mata
        	maks=mata	0		A	
ja	ja	0		J	
annan	and	n		V	n
valla	vald	0		S	sg g
     	valla	0		D	
kohtumehele	kohtu_mees	le		S	sg all
seda	see	da		P	sg p
käsku	käsk	0		S	adt
     	käsk	0		S	sg p
et	et	0		J	
vibimata	####				
selle	see	0		P	sg g
     	sell	e		S	pl p
kohtu	kohtu	0		V	o
     	kohus	0		S	sg g
poolest	pool	st		N	sg el
       	pool	st		S	sg el
       	poolene	t		A	sg p
       	poolest	0		K	
mõistetud	mõist	tud		V	tud
         	mõiste=tu	d		S	pl n
         	mõiste=tud	0		A	
         	mõiste=tud	0		A	sg n
         	mõiste=tud	d		A	pl n
trahvi	trahv	0		S	adt
      	trahv	0		S	sg g
      	trahvi	0		V	o
      	trahv	0		S	sg p
raha	raha	0		S	sg g
    	raha	0		S	sg n
    	raha	0		S	sg p
välja	välja	0		D	
     	välja	0		V	o
     	väli	0		S	adt
     	väli	0		S	sg g
     	väli	0		S	sg p
pärib	päri	b		V	b
.	.			Z	
Voori	voor	0		S	adt
     	voor	0		S	sg g
     	voor	i		S	pl p
     	voori	0		V	o
     	voor	0		S	sg p
mõisas	mõis	s		S	sg in
27	27	0		N	?
???	???			Z	
1887	1887	0		N	?
k	k	0		Y	?
.	.			Z	
k	k	0		Y	?
.	.			Z	
_	_			Z	
k	k	0		Y	?
.	.			Z	
_	_			Z	
pea	pea	0		D	
   	pea	0		S	sg g
   	pida	0		V	o
   	pea	0		S	sg n
vanem	vanem	0		C	sg n
     	vanem	0		S	sg n
