sai	saa	i		V	s
   	sai	0		S	sg n
kohtu	kohtu	0		V	o
     	kohus	0		S	sg g
ette	ette	0		D	
    	ette	0		K	
    	esi	tte		S	adt
kutsutud	kutsu	tud		V	tud
        	kutsutu	d		S	pl n
        	kutsutud	0		A	
        	kutsutud	0		A	sg n
        	kutsutud	d		A	pl n
magasi	magas	0		S	sg g
võla	võlg	0		S	sg g
vaidleja	vaidleja	0		S	sg g
        	vaidleja	0		S	sg n
Kristjan	Kristjan	0		H	sg n
värviiman	####				
.	.			Z	
kohus	kohu	s		V	s
     	kohus	0		S	sg n
küsis	küsi	s		V	s
palju	palju	0		D	
     	palju	0		P	sg g
     	palju	0		P	sg n
temal	tema	l		P	sg ad
magasi	magas	0		S	sg g
võlga	võlg	0		S	adt
     	võlg	0		S	sg p
on	ole	0		V	b
  	ole	0		V	vad
?	?			Z	
Kristjan	Kristjan	0		H	sg n
värviiman	####				
ütles	ütle	s		V	s
et	et	0		J	
tal	tema	l		P	sg ad
magasi	magas	0		S	sg g
võlga	võlg	0		S	adt
     	võlg	0		S	sg p
ei	ei	0		D	
  	ei	0		V	neg
ole	ole	0		V	o
!	!			Z	
mullu	mullu	0		D	
kevade	kevad	0		S	sg g
      	kevade	0		S	sg g
      	kevade	0		S	sg n
olla	ole	a		V	da
tema	tema	0		P	sg g
    	tema	0		P	sg n
1	1	0		N	?
vak	####				
rukkid	rukis	d		S	pl n
laenanud	laena	nud		V	nud
        	laena=nu	d		S	pl n
        	laena=nud	0		A	
        	laena=nud	0		A	sg n
        	laena=nud	d		A	pl n
ja	ja	0		J	
sügise	sügis	0		S	sg g
ära	ära	0		D	
   	ära	0		V	neg o
maksnud	maks	nud		V	nud
       	maks=nu	d		S	pl n
       	maks=nud	0		A	
       	maks=nud	0		A	sg n
       	maks=nud	d		A	pl n
ja	ja	0		J	
tunamulu	####				
/	/			Z	
1868	1868	0		N	?
/	/			Z	
põlla	####				
tema	tema	0		P	sg g
    	tema	0		P	sg n
magasist	magas	st		S	sg el
laenanud	laena	nud		V	nud
        	laena=nu	d		S	pl n
        	laena=nud	0		A	
        	laena=nud	0		A	sg n
        	laena=nud	d		A	pl n
.	.			Z	
sai	saa	i		V	s
   	sai	0		S	sg n
Kristjan	Kristjan	0		H	sg n
Väärvimannile	####				
öeldud	öeldu	d		S	pl n
      	öeldud	0		A	
      	öeldud	0		A	sg n
      	öeldud	d		A	pl n
      	ütle	dud		V	tud
et	et	0		J	
tema	tema	0		P	sg g
    	tema	0		P	sg n
tunamulu	####				
/	/			Z	
1868	1868	0		N	?
/	/			Z	
kevade	kevad	0		S	sg g
      	kevade	0		S	sg g
      	kevade	0		S	sg n
on	ole	0		V	b
  	ole	0		V	vad
magasist	magas	st		S	sg el
1	1	0		N	?
vak	####				
rukkid	rukis	d		S	pl n
ja	ja	0		J	
1	1	0		N	?
/	/			Z	
2	2	0		N	?
vakka	vakk	0		S	adt
     	vakk	0		S	sg p
     	vakka	0		D	
otri	oder	i		S	pl p
laenanud	laena	nud		V	nud
        	laena=nu	d		S	pl n
        	laena=nud	0		A	
        	laena=nud	0		A	sg n
        	laena=nud	d		A	pl n
.	.			Z	
Kristjan	Kristjan	0		H	sg n
värviiman	####				
vaidles	vaidle	s		V	s
tagasi	tagasi	0		D	
      	tagasi	0		K	
tema	tema	0		P	sg g
    	tema	0		P	sg n
põlla	####				
mitte	mitte	0		D	
laenanud	laena	nud		V	nud
        	laena=nu	d		S	pl n
        	laena=nud	0		A	
        	laena=nud	0		A	sg n
        	laena=nud	d		A	pl n
.	.			Z	
kohtu	kohtu	0		V	o
     	kohus	0		S	sg g
otsus	otsus	0		S	sg n
.	.			Z	
kohus	kohu	s		V	s
     	kohus	0		S	sg n
tundis	tund	is		V	s
nüüd	nüüd	0		D	
selgeste	####				
ära	ära	0		D	
   	ära	0		V	neg o
et	et	0		J	
Kristjan	Kristjan	0		H	sg n
Väärvimann	####				
tühja	tühi	0		A	adt
     	tühi	0		A	sg g
     	tühi	0		A	sg p
vaidles	vaidle	s		V	s
sest	see	st		P	sg el
    	sest	0		J	
tema	tema	0		P	sg g
    	tema	0		P	sg n
oli	ole	i		V	s
se	####				
1	1	0		N	?
/	/			Z	
2	2	0		N	?
vakka	vakk	0		S	adt
     	vakk	0		S	sg p
     	vakka	0		D	
otri	oder	i		S	pl p
mis	mis	0		P	pl n
   	mis	0		P	sg n
tema	tema	0		P	sg g
    	tema	0		P	sg n
1868	1868	0		N	?
oli	ole	i		V	s
laenanud	laena	nud		V	nud
        	laena=nu	d		S	pl n
        	laena=nud	0		A	
        	laena=nud	0		A	sg n
        	laena=nud	d		A	pl n
sügise	sügis	0		S	sg g
ära	ära	0		D	
   	ära	0		V	neg o
tasunud	tasu	nud		V	nud
       	tasu=nu	d		S	pl n
       	tasu=nud	0		A	
       	tasu=nud	0		A	sg n
       	tasu=nud	d		A	pl n
ja	ja	0		J	
rukkid	rukis	d		S	pl n
võlgu	võlg	u		S	pl p
     	võlgu	0		D	
jätnud	jät	nud		V	nud
      	jät=nu	d		S	pl n
      	jät=nud	0		A	
      	jät=nud	0		A	sg n
      	jät=nud	d		A	pl n
.	.			Z	
kohus	kohu	s		V	s
     	kohus	0		S	sg n
mõistis	mõist	is		V	s
et	et	0		J	
tema	tema	0		P	sg g
    	tema	0		P	sg n
tuleva	tulev	0		A	sg g
sügise	sügis	0		S	sg g
se	####				
1	1	0		N	?
vak	####				
rukkid	rukis	d		S	pl n
magasisse	magas	sse		S	sg ill
ära	ära	0		D	
   	ära	0		V	neg o
maksab	maks	b		V	b
.	.			Z	
pea	pea	0		D	
   	pea	0		S	sg g
   	pida	0		V	o
   	pea	0		S	sg n
kohtu	kohtu	0		V	o
     	kohus	0		S	sg g
vanem	vanem	0		C	sg n
     	vanem	0		S	sg n
Jaan	Jaan	0		H	sg n
    	jaan	0		S	sg n
    	jaan	0		Y	?
Tiismann	####				
+	+			Z	
+	+			Z	
+	+			Z	
,	,			Z	
kõrvamehed	kõrva_mees	d		S	pl n
Jaan	Jaan	0		H	sg n
    	jaan	0		S	sg n
    	jaan	0		Y	?
Wingelmann	####				
+	+			Z	
+	+			Z	
+	+			Z	
,	,			Z	
Jaan	Jaan	0		H	sg n
    	jaan	0		S	sg n
    	jaan	0		Y	?
Villard	####				
+	+			Z	
+	+			Z	
+	+			Z	
