Ravila	ravila	0		S	sg g
      	ravila	0		S	sg n
kolimajas	koli_maja	s		S	sg in
20ndal	20=s	l		O	sg ad
märtsil	märts	l		S	sg ad
1867.	1867.	0		O	?
koos	koos	0		D	
    	koos	0		K	
    	koos	0		S	sg n
    	kubu	s		S	sg in
olid	ole	id		V	sid
:	:			Z	
peakohtumees	pea_kohtu_mees	0		S	sg n
Juhan	Juhan	0		H	sg n
Suursild	suur_sild	0		S	sg n
,	,			Z	
abimehed	abi_mees	d		S	pl n
Jaan	Jaan	0		H	sg n
    	jaan	0		S	sg n
    	jaan	0		Y	?
Sein	sein	0		S	sg n
ja	ja	0		J	
Hans	Hans	0		H	sg n
Kross	kross	0		S	sg n
.	.			Z	
vallakirjutaja	valla_kirjutaja	0		S	sg g
              	valla_kirjutaja	0		S	sg n
Hans	Hans	0		H	sg n
Siimson	####				
.	.			Z	
aga	aga	0		J	
tänasel	tänane	l		A	sg ad
päeval	päev	l		S	sg ad
ei	ei	0		D	
  	ei	0		V	neg
tulnud	tul=nud	0		A	
      	tul=nud	0		A	sg n
      	tul=nud	d		A	pl n
      	tule	nud		V	nud
      	tulnu	d		S	pl n
midagi	miski	dagi		P	sg p
mõistmist	mõistmine	t		S	sg p
ette	ette	0		D	
    	ette	0		K	
    	esi	tte		S	adt
.	.			Z	
