astus	astu	s		V	s
ette	ette	0		D	
    	ette	0		K	
    	esi	tte		S	adt
kaebaja	kaebaja	0		S	sg g
       	kaebaja	0		S	sg n
üüroH	####				
mõisa	mõis	0		S	sg g
teumehe	####				
naine	naine	0		S	sg n
Mari	Mari	0		H	sg g
    	mari	0		S	sg g
    	mari	0		S	sg n
    	Mari	0		H	sg n
    	mari	0		S	sg p
Pikver	####				
ja	ja	0		J	
kaebas	kaeba	s		V	s
,	,			Z	
et	et	0		J	
teumees	####				
Mihkel	Mihkel	0		H	sg n
      	mihkel	0		A	sg n
      	mihkel	0		S	sg n
Lepik	lepik	0		S	sg n
tulnud	tul=nud	0		A	
      	tul=nud	0		A	sg n
      	tul=nud	d		A	pl n
      	tule	nud		V	nud
      	tulnu	d		S	pl n
tema	tema	0		P	sg g
    	tema	0		P	sg n
tuppa	tuba	0		S	adt
sel	see	l		P	sg ad
   	sel	0		Y	?
14mal	####				
küündla	####				
kuu	kuu	0		S	sg g
   	kuu	0		S	sg n
päeval	päev	l		S	sg ad
,	,			Z	
ja	ja	0		J	
hakanud	hakka	nud		V	nud
       	haka=nu	d		S	pl n
       	haka=nud	0		A	
       	haka=nud	0		A	sg n
       	haka=nud	d		A	pl n
teda	tema	da		P	sg p
ilma	ilm	0		S	adt
    	ilm	0		S	sg g
    	ilma	0		D	
    	ilma	0		K	
    	ilm	0		S	sg p
süüta	süü	ta		S	sg ab
     	süüta	0		V	o
peksma	peks	ma		V	ma
ja	ja	0		J	
olla	ole	a		V	da
teda	tema	da		P	sg p
mitto	####				
korda	kord	0		S	adt
     	korda	0		V	o
     	kord	0		S	sg p
löönud	löö	nud		V	nud
      	löö=nu	d		S	pl n
      	löö=nud	0		A	
      	löö=nud	0		A	sg n
      	löö=nud	d		A	pl n
ja	ja	0		J	
põrmandale	####				
maha	maha	0		D	
lükanud	lükka	nud		V	nud
       	lüka=nu	d		S	pl n
       	lüka=nud	0		A	
       	lüka=nud	0		A	sg n
       	lüka=nud	d		A	pl n
Mihkel	Mihkel	0		H	sg n
      	mihkel	0		A	sg n
      	mihkel	0		S	sg n
Lepik	lepik	0		S	sg n
sai	saa	i		V	s
   	sai	0		S	sg n
ette	ette	0		D	
    	ette	0		K	
    	esi	tte		S	adt
kutsutud	kutsu	tud		V	tud
        	kutsutu	d		S	pl n
        	kutsutud	0		A	
        	kutsutud	0		A	sg n
        	kutsutud	d		A	pl n
ja	ja	0		J	
temale	tema	le		P	sg all
kaebtus	####				
ette	ette	0		D	
    	ette	0		K	
    	esi	tte		S	adt
loetud	loetu	d		S	pl n
      	loetud	0		A	
      	loetud	0		A	sg n
      	loetud	d		A	pl n
      	luge	tud		V	tud
ja	ja	0		J	
toonete	####				
järel	järel	0		D	
     	järel	0		K	
kuulatud	kuula	tud		V	tud
        	kuula=tu	d		S	pl n
        	kuula=tud	0		A	
        	kuula=tud	0		A	sg n
        	kuula=tud	d		A	pl n
mis	mis	0		P	pl n
   	mis	0		P	sg n
ta	tema	0		P	sg g
  	tema	0		P	sg n
seda	see	da		P	sg p
olla	ole	a		V	da
teinud	tege	nud		V	nud
      	tei=nud	0		A	
      	tei=nud	0		A	sg n
      	tei=nud	d		A	pl n
      	teinu	d		S	pl n
.	.			Z	
Tema	tema	0		P	sg g
    	tema	0		P	sg n
tunnistab	tunnista	b		V	b
kõik	kõik	0		P	pl n
    	kõik	0		S	sg n
    	kõik	0		P	sg n
Mari	Mari	0		H	sg g
    	mari	0		S	sg g
    	mari	0		S	sg n
    	Mari	0		H	sg n
    	mari	0		S	sg p
Pieveri	####				
kaebtuse	####				
valiks	vali	ks		V	ks
,	,			Z	
ja	ja	0		J	
ei	ei	0		D	
  	ei	0		V	neg
ütle	ütle	0		V	o
mitte	mitte	0		D	
teda	tema	da		P	sg p
löönud	löö	nud		V	nud
      	löö=nu	d		S	pl n
      	löö=nud	0		A	
      	löö=nud	0		A	sg n
      	löö=nud	d		A	pl n
olevat	ole	vat		V	vat
      	olev	t		A	sg p
      	olev	t		S	sg p
.	.			Z	
riid	riid	0		S	sg n
tulnud	tul=nud	0		A	
      	tul=nud	0		A	sg n
      	tul=nud	d		A	pl n
      	tule	nud		V	nud
      	tulnu	d		S	pl n
sell	sell	0		S	sg n
kombel	kombel	0		K	
      	komme	l		S	sg ad
:	:			Z	
Mari	Mari	0		H	sg g
    	mari	0		S	sg g
    	mari	0		S	sg n
    	Mari	0		H	sg n
    	mari	0		S	sg p
Pieveri	####				
poead	####				
käinud	käi	nud		V	nud
      	käi=nud	0		A	
      	käi=nud	0		A	sg n
      	käi=nud	d		A	pl n
      	käinu	d		S	pl n
päeval	päev	l		S	sg ad
,	,			Z	
kui	kui	0		D	
   	kui	0		J	
tema	tema	0		P	sg g
    	tema	0		P	sg n
oma	oma	0		A	sg g
   	oma	0		D	
   	oma	0		P	sg g
   	oma	0		S	sg g
   	oma	0		V	o
   	oma	0		A	sg n
   	oma	0		A	sg p
   	oma	0		P	sg n
   	oma	0		P	sg p
   	oma	0		S	sg n
   	oma	0		S	sg p
naisega	naine	ga		S	sg kom
linnas	linn	s		S	sg in
olnud	ol=nud	0		A	
     	ol=nud	0		A	sg n
     	ol=nud	d		A	pl n
     	ole	nud		V	nud
     	olnu	d		S	pl n
,	,			Z	
tema	tema	0		P	sg g
    	tema	0		P	sg n
toas	tuba	s		S	sg in
,	,			Z	
ja	ja	0		J	
seal	seal	0		D	
    	siga	l		A	sg ad
    	siga	l		S	sg ad
olla	ole	a		V	da
nemad	tema	d		P	pl n
Peetrlimeoni	####				
oli	ole	i		V	s
suhu	suu	0		S	adt
võtnud	võt	nud		V	nud
      	võt=nu	d		S	pl n
      	võt=nud	0		A	
      	võt=nud	0		A	sg n
      	võt=nud	d		A	pl n
ja	ja	0		J	
siis	siis	0		D	
    	siis	0		J	
tulise	tuline	0		A	sg g
purtsenud	####				
,	,			Z	
sel	see	l		P	sg ad
   	sel	0		Y	?
kombel	kombel	0		K	
      	komme	l		S	sg ad
olla	ole	a		V	da
tema	tema	0		P	sg g
    	tema	0		P	sg n
toas	tuba	s		S	sg in
õled	õlg	d		S	pl n
põrmandal	####				
põlema	põle	ma		V	ma
läinud	läinu	d		S	pl n
      	läinud	0		A	
      	läinud	0		A	sg n
      	läinud	d		A	pl n
      	mine	nud		V	nud
,	,			Z	
õhtu	õhtu	0		S	sg g
    	õhtu	0		S	sg n
koju	kodu	0		S	adt
tulles	tule	es		V	des
ola	####				
ta	tema	0		P	sg g
  	tema	0		P	sg n
seda	see	da		P	sg p
kuulda	kuul	da		V	da
      	kuul	da		V	ta
saanud	saa	nud		V	nud
      	saa=nud	0		A	
      	saa=nud	0		A	sg n
      	saa=nud	d		A	pl n
      	saanu	d		S	pl n
ja	ja	0		J	
ola	####				
ommi	####				
lapsi	laps	i		S	pl p
selle	see	0		P	sg g
     	sell	e		S	pl p
teu	####				
eest	eest	0		D	
    	eest	0		K	
    	esi	st		S	sg el
karistanud	karista	nud		V	nud
          	karista=nu	d		S	pl n
          	karista=nud	0		A	
          	karista=nud	0		A	sg n
          	karista=nud	d		A	pl n
,	,			Z	
ja	ja	0		J	
läinud	läinu	d		S	pl n
      	läinud	0		A	
      	läinud	0		A	sg n
      	läinud	d		A	pl n
      	mine	nud		V	nud
siis	siis	0		D	
    	siis	0		J	
Mari	Mari	0		H	sg g
    	mari	0		S	sg g
    	mari	0		S	sg n
    	Mari	0		H	sg n
    	mari	0		S	sg p
Pieveri	####				
poiste	poiss	te		S	pl g
kääst	####				
selgemat	selgem	t		C	sg p
teadust	teadus	t		S	sg p
nõudma	nõud	ma		V	ma
,	,			Z	
ja	ja	0		J	
keelama	keela	ma		V	ma
,	,			Z	
et	et	0		J	
ta	tema	0		P	sg g
  	tema	0		P	sg n
oma	oma	0		A	sg g
   	oma	0		D	
   	oma	0		P	sg g
   	oma	0		S	sg g
   	oma	0		V	o
   	oma	0		A	sg n
   	oma	0		A	sg p
   	oma	0		P	sg n
   	oma	0		P	sg p
   	oma	0		S	sg n
   	oma	0		S	sg p
lapsi	laps	i		S	pl p
edaspidi	edas_pidi	0		D	
mitte	mitte	0		D	
tema	tema	0		P	sg g
    	tema	0		P	sg n
tuppa	tuba	0		S	adt
ei	ei	0		D	
  	ei	0		V	neg
laseks	lask	ks		V	ks
,	,			Z	
kelle	kes	0		P	pl g
     	kes	0		P	sg g
läbi	läbi	0		D	
    	läbi	0		K	
    	läbi	0		V	o
suur	suur	0		A	sg n
õnnetus	õnnetu	s		A	sg in
       	õnnetus	0		S	sg n
võida	või	da		V	da
     	võid	a		V	da
     	võit	0		V	o
     	või	da		V	ta
tukka	tukk	0		S	adt
     	tukk	0		S	sg p
,	,			Z	
seal	seal	0		D	
    	siga	l		A	sg ad
    	siga	l		S	sg ad
hakanud	hakka	nud		V	nud
       	haka=nu	d		S	pl n
       	haka=nud	0		A	
       	haka=nud	0		A	sg n
       	haka=nud	d		A	pl n
Mari	Mari	0		H	sg g
    	mari	0		S	sg g
    	mari	0		S	sg n
    	Mari	0		H	sg n
    	mari	0		S	sg p
Pikver	####				
teda	tema	da		P	sg p
hirmsaste	####				
sõimama	sõima	ma		V	ma
,	,			Z	
ja	ja	0		J	
kui	kui	0		D	
   	kui	0		J	
tema	tema	0		P	sg g
    	tema	0		P	sg n
mõni	mõni	0		P	sg n
kõva	kõva	0		A	sg g
    	kõva	0		A	sg n
    	kõva	0		A	sg p
sõna	sõna	0		S	sg g
    	sõna	0		V	o
    	sõna	0		S	sg n
    	sõna	0		S	sg p
olla	ole	a		V	da
vastu	vastu	0		D	
     	vastu	0		K	
öelnud	öel=nu	d		S	pl n
      	öel=nud	0		A	
      	öel=nud	0		A	sg n
      	öel=nud	d		A	pl n
      	ütle	nud		V	nud
,	,			Z	
võtnud	võt	nud		V	nud
      	võt=nu	d		S	pl n
      	võt=nud	0		A	
      	võt=nud	0		A	sg n
      	võt=nud	d		A	pl n
Mari	Mari	0		H	sg g
    	mari	0		S	sg g
    	mari	0		S	sg n
    	Mari	0		H	sg n
    	mari	0		S	sg p
Pikver	####				
haukubust	####				
,	,			Z	
mis	mis	0		P	pl n
   	mis	0		P	sg n
parajatti	####				
toas	tuba	s		S	sg in
oli	ole	i		V	s
,	,			Z	
puu	puu	0		S	sg g
   	puu	0		S	sg n
ja	ja	0		J	
löönud	löö	nud		V	nud
      	löö=nu	d		S	pl n
      	löö=nud	0		A	
      	löö=nud	0		A	sg n
      	löö=nud	d		A	pl n
sellega	see	ga		P	sg kom
temale	tema	le		P	sg all
kolm	kolm	0		N	sg n
korda	kord	0		S	adt
     	korda	0		V	o
     	kord	0		S	sg p
vastu	vastu	0		D	
     	vastu	0		K	
õla	õlg	0		S	sg g
,	,			Z	
sele	####				
peale	pea	le		S	sg all
     	peale	0		D	
     	peale	0		K	
hakanud	hakka	nud		V	nud
       	haka=nu	d		S	pl n
       	haka=nud	0		A	
       	haka=nud	0		A	sg n
       	haka=nud	d		A	pl n
siis	siis	0		D	
    	siis	0		J	
tema	tema	0		P	sg g
    	tema	0		P	sg n
puu	puu	0		S	sg g
   	puu	0		S	sg n
otsast	ots	st		S	sg el
      	otsast	0		K	
kinni	kinni	0		D	
ja	ja	0		J	
tõmmanud	tõmba	nud		V	nud
        	tõmma=nu	d		S	pl n
        	tõmma=nud	0		A	
        	tõmma=nud	0		A	sg n
        	tõmma=nud	d		A	pl n
puu	puu	0		S	sg g
   	puu	0		S	sg n
Mari	Mari	0		H	sg g
    	mari	0		S	sg g
    	mari	0		S	sg n
    	Mari	0		H	sg n
    	mari	0		S	sg p
Pieveri	####				
kääst	####				
ära	ära	0		D	
   	ära	0		V	neg o
,	,			Z	
ta	tema	0		P	sg g
  	tema	0		P	sg n
lasknud	lask	nud		V	nud
       	lask=nu	d		S	pl n
       	lask=nud	0		A	
       	lask=nud	0		A	sg n
       	lask=nud	d		A	pl n
ennast	ise	t		P	sg p
siis	siis	0		D	
    	siis	0		J	
maha	maha	0		D	
kukkuda	kukku	da		V	da
ja	ja	0		J	
hakanud	hakka	nud		V	nud
       	haka=nu	d		S	pl n
       	haka=nud	0		A	
       	haka=nud	0		A	sg n
       	haka=nud	d		A	pl n
karjuma	karju	ma		V	ma
,	,			Z	
et	et	0		J	
tema	tema	0		P	sg g
    	tema	0		P	sg n
ola	####				
lüüa	löö	a		V	da
saanud	saa	nud		V	nud
      	saa=nud	0		A	
      	saa=nud	0		A	sg n
      	saa=nud	d		A	pl n
      	saanu	d		S	pl n
.	.			Z	
Mari	Mari	0		H	sg g
    	mari	0		S	sg g
    	mari	0		S	sg n
    	Mari	0		H	sg n
    	mari	0		S	sg p
Pieveri	####				
poeg	poeg	0		S	sg n
Villem	Villem	0		H	sg n
tunnistavad	tunnista	vad		V	vad
           	tunnista=v	d		A	pl n
,	,			Z	
et	et	0		J	
Lepik	lepik	0		S	sg n
ola	####				
tema	tema	0		P	sg g
    	tema	0		P	sg n
ema	ema	0		S	sg g
   	ema	0		S	sg n
   	ema	0		S	sg p
maha	maha	0		D	
tõuganud	tõuka	nud		V	nud
        	tõuga=nu	d		S	pl n
        	tõuga=nud	0		A	
        	tõuga=nud	0		A	sg n
        	tõuga=nud	d		A	pl n
.	.			Z	
kohtu	kohtu	0		V	o
     	kohus	0		S	sg g
otsus	otsus	0		S	sg n
:	:			Z	
Mihkel	Mihkel	0		H	sg n
      	mihkel	0		A	sg n
      	mihkel	0		S	sg n
Lepik	lepik	0		S	sg n
maksab	maks	b		V	b
kaks	kaks	0		N	sg n
rubla	rubla	0		S	sg g
     	rubla	0		S	sg n
     	rubla	0		S	sg p
trahvi	trahv	0		S	adt
      	trahv	0		S	sg g
      	trahvi	0		V	o
      	trahv	0		S	sg p
valla	vald	0		S	sg g
     	valla	0		D	
laeka	laegas	0		S	adt
     	laegas	0		S	sg g
,	,			Z	
mis	mis	0		P	pl n
   	mis	0		P	sg n
ta	tema	0		P	sg g
  	tema	0		P	sg n
teise	teine	0		O	adt
     	teine	0		O	sg g
     	teine	0		P	adt
     	teine	0		P	sg g
tuppa	tuba	0		S	adt
läks	mine	s		V	s
riidu	riid	0		S	adt
     	riid	0		S	sg p
     	riidu	0		D	
tegema	tege	ma		V	ma
,	,			Z	
ja	ja	0		J	
Mari	Mari	0		H	sg g
    	mari	0		S	sg g
    	mari	0		S	sg n
    	Mari	0		H	sg n
    	mari	0		S	sg p
Pikver	####				
maksab	maks	b		V	b
ühe	üks	0		N	sg g
   	üks	0		P	sg g
   	ühe	0		S	sg n
rupla	####				
trahvi	trahv	0		S	adt
      	trahv	0		S	sg g
      	trahvi	0		V	o
      	trahv	0		S	sg p
,	,			Z	
mis	mis	0		P	pl n
   	mis	0		P	sg n
ta	tema	0		P	sg g
  	tema	0		P	sg n
omad	oma	d		A	pl n
    	oma	d		P	pl n
    	oma	d		S	pl n
    	oma	d		V	d
lapsed	laps	d		S	pl n
mitte	mitte	0		D	
ei	ei	0		D	
  	ei	0		V	neg
valitse	valitse	0		V	o
ja	ja	0		J	
esiteks	esiteks	0		D	
puuga	puu	ga		S	sg kom
teise	teine	0		O	adt
     	teine	0		O	sg g
     	teine	0		P	adt
     	teine	0		P	sg g
peale	pea	le		S	sg all
     	peale	0		D	
     	peale	0		K	
jooksis	jooks	is		V	s
,	,			Z	
ja	ja	0		J	
sel	see	l		P	sg ad
   	sel	0		Y	?
kombel	kombel	0		K	
      	komme	l		S	sg ad
riidu	riid	0		S	adt
     	riid	0		S	sg p
     	riidu	0		D	
tegid	tege	id		V	sid
.	.			Z	
peakohtumees	pea_kohtu_mees	0		S	sg n
Jüri	Jüri	0		H	sg g
    	Jüri	0		H	sg n
Saarfeldt	####				
XXX	XXX	0		O	?
   	XXX	0		Y	?
kõrvamehed	kõrva_mees	d		S	pl n
Kaarel	Kaarel	0		H	sg n
      	kaar	l		S	sg ad
      	kaarel	0		S	sg n
Andermann	####				
XXX	XXX	0		O	?
   	XXX	0		Y	?
Juhan	Juhan	0		H	sg n
Humberg	####				
XXX	XXX	0		O	?
   	XXX	0		Y	?
kirjutaja	kirjutaja	0		S	sg g
         	kirjutaja	0		S	sg n
G	G	0		Y	?
.	.			Z	
_	_			Z	
kolip	####				
Mari	Mari	0		H	sg g
    	mari	0		S	sg g
    	mari	0		S	sg n
    	Mari	0		H	sg n
    	mari	0		S	sg p
Pikver	####				
ei	ei	0		D	
  	ei	0		V	neg
olnud	ol=nud	0		A	
     	ol=nud	0		A	sg n
     	ol=nud	d		A	pl n
     	ole	nud		V	nud
     	olnu	d		S	pl n
sellega	see	ga		P	sg kom
rahul	rahu	l		S	sg ad
     	rahul	0		D	
,	,			Z	
sai	saa	i		V	s
   	sai	0		S	sg n
protokoll	protokoll	0		S	sg n
Hakenriht	####				
kohtule	kohus	le		S	sg all
ära	ära	0		D	
   	ära	0		V	neg o
antud	an=tu	d		S	pl n
     	and	tud		V	tud
     	antud	0		A	
     	antud	0		A	sg n
     	antud	d		A	pl n
.	.			Z	
makstud	maks	tud		V	tud
       	maks=tu	d		S	pl n
       	maks=tud	0		A	
       	maks=tud	0		A	sg n
       	maks=tud	d		A	pl n
.	.			Z	
