tuli	tuli	0		S	sg n
    	tule	i		V	s
ette	ette	0		D	
    	ette	0		K	
    	esi	tte		S	adt
Kuusi	kuus	i		N	pl p
Jüri	Jüri	0		H	sg g
    	Jüri	0		H	sg n
Vauman	####				
ja	ja	0		J	
maksis	maks	is		V	s
      	maksi	s		S	sg in
Hans	Hans	0		H	sg n
sestvergi	####				
võlga	võlg	0		S	adt
     	võlg	0		S	sg p
viis	vii	s		V	s
    	viis	0		N	sg n
    	viis	0		S	sg n
rbl	rbl	0		Y	?
.	.			Z	
vaata	vaata	0		V	o
rtlp	####				
.	.			Z	
No	no	0		I	
5	5	0		N	?
aasta	aasta	0		S	sg g
     	aasta	0		S	sg n
1870.	1870.	0		O	?
võlga	võlg	0		S	adt
     	võlg	0		S	sg p
jäänud	jää	nud		V	nud
      	jäänu	d		S	pl n
      	jäänud	0		A	
      	jäänud	0		A	sg n
      	jäänud	d		A	pl n
5	5	0		N	?
rbl	rbl	0		Y	?
58	58	0		N	?
kop	kop	0		Y	?
palus	palu	s		S	sg in
     	palu	s		V	s
nimetatud	nimeta	tud		V	tud
         	nimetatu	d		S	pl n
         	nimetatud	0		A	
         	nimetatud	0		A	sg n
         	nimetatud	d		A	pl n
mees	mees	0		S	sg n
    	mesi	s		S	sg in
kannatada	kannata	da		V	da
,	,			Z	
ja	ja	0		J	
temale	tema	le		P	sg all
sai	saa	i		V	s
   	sai	0		S	sg n
selle	see	0		P	sg g
     	sell	e		S	pl p
maksmisega	maksmine	ga		S	sg kom
kase	kask	0		S	sg g
Maarjapäevani	maarja_päev	ni		S	sg ter
s	s	0		Y	?
.	.			Z	
a	a	0		Y	?
kohtu	kohtu	0		V	o
     	kohus	0		S	sg g
poolt	pool	t		N	sg p
     	pool	t		S	sg p
     	poolt	0		D	
     	poolt	0		K	
viimne	viimne	0		A	sg n
termin	termin	0		S	sg n
lubatud	luba	tud		V	tud
       	luba=tu	d		S	pl n
       	lubatu	d		A	pl n
       	lubatud	0		A	
       	lubatud	0		A	sg n
       	lubatud	d		A	pl n
.	.			Z	
kohtu	kohtu	0		V	o
     	kohus	0		S	sg g
vanem	vanem	0		C	sg n
     	vanem	0		S	sg n
J	J	0		Y	?
soosõrv	####				
[	[			Z	
allkiri	all_kiri	0		S	sg n
]	]			Z	
kohtu	kohtu	0		V	o
     	kohus	0		S	sg g
käemees	käe_mees	0		S	sg n
:	:			Z	
Juh	Juh	0		Y	?
.	.			Z	
tursmann	####				
XXX	XXX	0		O	?
   	XXX	0		Y	?
ka__	####				
Jaan	Jaan	0		H	sg n
    	jaan	0		S	sg n
    	jaan	0		Y	?
Velström	####				
XXX	XXX	0		O	?
   	XXX	0		Y	?
kirjutaja	kirjutaja	0		S	sg g
         	kirjutaja	0		S	sg n
H	H	0		Y	?
From	####				
[	[			Z	
allkiri	all_kiri	0		S	sg n
]	]			Z	
