ette	ette	0		D	
    	ette	0		K	
    	esi	tte		S	adt
tulnud	tul=nud	0		A	
      	tul=nud	0		A	sg n
      	tul=nud	d		A	pl n
      	tule	nud		V	nud
      	tulnu	d		S	pl n
lesk	lesk	0		S	sg n
Liisu	liisk	0		S	sg g
     	liisu	0		V	o
VilbüksKodasust	####				
ja	ja	0		J	
kaebas	kaeba	s		V	s
Jüri	Jüri	0		H	sg g
    	Jüri	0		H	sg n
Birkmanni	####				
peale	pea	le		S	sg all
     	peale	0		D	
     	peale	0		K	
,	,			Z	
kes	kes	0		P	pl n
   	kes	0		P	sg n
ka	ka	0		D	
Kodasust	####				
,	,			Z	
et	et	0		J	
se	####				
tema	tema	0		P	sg g
    	tema	0		P	sg n
raha	raha	0		S	sg g
    	raha	0		S	sg n
    	raha	0		S	sg p
89	89	0		N	?
rubla	rubla	0		S	sg g
     	rubla	0		S	sg n
     	rubla	0		S	sg p
kambrist	kamber	st		S	sg el
kirstust	kirst	st		S	sg el
lukku	lukk	0		S	adt
     	lukku	0		D	
     	lukku	0		V	o
     	lugu	0		S	adt
     	lukk	0		S	sg p
taga	taga	0		D	
    	taga	0		K	
    	taga	0		V	o
on	ole	0		V	b
  	ole	0		V	vad
äravarastanud	ära_varasta=nu	d		S	pl n
             	ära_varasta=nud	0		A	
             	ära_varasta=nud	0		A	sg n
             	ära_varasta=nud	d		A	pl n
.	.			Z	
Jüri	Jüri	0		H	sg g
    	Jüri	0		H	sg n
Birkmann	####				
sai	saa	i		V	s
   	sai	0		S	sg n
ette	ette	0		D	
    	ette	0		K	
    	esi	tte		S	adt
kutsutud	kutsu	tud		V	tud
        	kutsutu	d		S	pl n
        	kutsutud	0		A	
        	kutsutud	0		A	sg n
        	kutsutud	d		A	pl n
ja	ja	0		J	
küsitud	küsi	tud		V	tud
       	küsi=tu	d		S	pl n
       	küsi=tud	0		A	
       	küsi=tud	0		A	sg n
       	küsi=tud	d		A	pl n
:	:			Z	
esiteks	esiteks	0		D	
ütles	ütle	s		V	s
Jüri	Jüri	0		H	sg g
    	Jüri	0		H	sg n
et	et	0		J	
tema	tema	0		P	sg g
    	tema	0		P	sg n
üks	üks	0		N	sg n
   	üks	0		P	sg n
esmaspäev	esmas_päev	0		S	sg n
hommiku	hommik	0		S	sg g
seda	see	da		P	sg p
raha	raha	0		S	sg g
    	raha	0		S	sg n
    	raha	0		S	sg p
on	ole	0		V	b
  	ole	0		V	vad
võtnud	võt	nud		V	nud
      	võt=nu	d		S	pl n
      	võt=nud	0		A	
      	võt=nud	0		A	sg n
      	võt=nud	d		A	pl n
;	;			Z	
aga	aga	0		J	
pärast	pära	st		S	sg el
      	pärane	t		A	sg p
      	pärast	0		D	
      	pärast	0		K	
ütles	ütle	s		V	s
tema	tema	0		P	sg g
    	tema	0		P	sg n
,	,			Z	
et	et	0		J	
Luti	lutt	0		S	sg g
seda	see	da		P	sg p
on	ole	0		V	b
  	ole	0		V	vad
kirstust	kirst	st		S	sg el
äravõtnud	ära_võt=nu	d		S	pl n
         	ära_võt=nud	0		A	
         	ära_võt=nud	0		A	sg n
         	ära_võt=nud	d		A	pl n
,	,			Z	
ja	ja	0		J	
katuse	katus	0		S	sg g
sisse	siss	e		S	pl p
     	sisse	0		D	
     	sisse	0		K	
pannud	pan=nu	d		S	pl n
      	pan=nud	0		A	
      	pan=nud	0		A	sg n
      	pan=nud	d		A	pl n
      	pane	nud		V	nud
ja	ja	0		J	
Jürile	Jüri	le		H	sg all
näidanud	näita	nud		V	nud
        	näida=nu	d		S	pl n
        	näida=nud	0		A	
        	näida=nud	0		A	sg n
        	näida=nud	d		A	pl n
öeldes	ütle	des		V	des
:	:			Z	
kui	kui	0		D	
   	kui	0		J	
mina	mina	0		P	sg n
    	mina	0		S	sg g
    	mina	0		S	sg n
    	mina	0		S	sg p
küll	küll	0		D	
    	küll	0		S	sg n
suren	sure	n		V	n
,	,			Z	
siis	siis	0		D	
    	siis	0		J	
jääb	jää	b		V	b
se	####				
ikka	ikka	0		D	
    	iga	0		S	adt
sinule	sina	le		P	sg all
.	.			Z	
Luti	lutt	0		S	sg g
sai	saa	i		V	s
   	sai	0		S	sg n
kutsutud	kutsu	tud		V	tud
        	kutsutu	d		S	pl n
        	kutsutud	0		A	
        	kutsutud	0		A	sg n
        	kutsutud	d		A	pl n
ja	ja	0		J	
küsitud	küsi	tud		V	tud
       	küsi=tu	d		S	pl n
       	küsi=tud	0		A	
       	küsi=tud	0		A	sg n
       	küsi=tud	d		A	pl n
:	:			Z	
aga	aga	0		J	
Luti	lutt	0		S	sg g
vaidles	vaidle	s		V	s
esiteks	esiteks	0		D	
vastu	vastu	0		D	
     	vastu	0		K	
,	,			Z	
et	et	0		J	
tema	tema	0		P	sg g
    	tema	0		P	sg n
pole	ole	0		V	neg o
seda	see	da		P	sg p
raha	raha	0		S	sg g
    	raha	0		S	sg n
    	raha	0		S	sg p
mitte	mitte	0		D	
varastanud	varasta	nud		V	nud
          	varasta=nu	d		S	pl n
          	varasta=nud	0		A	
          	varasta=nud	0		A	sg n
          	varasta=nud	d		A	pl n
,	,			Z	
vaid	vaid	0		D	
    	vaid	0		J	
Jüri	Jüri	0		H	sg g
    	Jüri	0		H	sg n
olla	ole	a		V	da
seda	see	da		P	sg p
varastanud	varasta	nud		V	nud
          	varasta=nu	d		S	pl n
          	varasta=nud	0		A	
          	varasta=nud	0		A	sg n
          	varasta=nud	d		A	pl n
;	;			Z	
aga	aga	0		J	
viimaks	vii	maks		V	maks
       	viimaks	0		D	
ütles	ütle	s		V	s
ometigi	ometigi	0		D	
,	,			Z	
et	et	0		J	
tema	tema	0		P	sg g
    	tema	0		P	sg n
ole	ole	0		V	o
küll	küll	0		D	
    	küll	0		S	sg n
võtnud	võt	nud		V	nud
      	võt=nu	d		S	pl n
      	võt=nud	0		A	
      	võt=nud	0		A	sg n
      	võt=nud	d		A	pl n
,	,			Z	
aga	aga	0		J	
Jüri	Jüri	0		H	sg g
    	Jüri	0		H	sg n
ole	ole	0		V	o
temale	tema	le		P	sg all
nõu	nõu	0		S	sg g
   	nõu	0		S	sg n
   	nõu	0		S	sg p
andnud	and	nud		V	nud
      	and=nu	d		S	pl n
      	and=nud	0		A	
      	and=nud	0		A	sg n
      	and=nud	d		A	pl n
.	.			Z	
sest	see	st		P	sg el
    	sest	0		J	
varastatud	varasta	tud		V	tud
          	varastatu	d		S	pl n
          	varastatud	0		A	
          	varastatud	0		A	sg n
          	varastatud	d		A	pl n
rahast	raha	st		S	sg el
on	ole	0		V	b
  	ole	0		V	vad
Jüri	Jüri	0		H	sg g
    	Jüri	0		H	sg n
Birkmann	####				
Jagala	####				
meestele	meene	tele		A	pl all
        	mees	tele		S	pl all
,	,			Z	
Jaan	Jaan	0		H	sg n
    	jaan	0		S	sg n
    	jaan	0		Y	?
Remmeltile	####				
3	3	0		N	?
rubla	rubla	0		S	sg g
     	rubla	0		S	sg n
     	rubla	0		S	sg p
,	,			Z	
ja	ja	0		J	
Hans	Hans	0		H	sg n
Remmeltile	####				
3	3	0		N	?
rubla	rubla	0		S	sg g
     	rubla	0		S	sg n
     	rubla	0		S	sg p
andnud	and	nud		V	nud
      	and=nu	d		S	pl n
      	and=nud	0		A	
      	and=nud	0		A	sg n
      	and=nud	d		A	pl n
;	;			Z	
aga	aga	0		J	
Jaan	Jaan	0		H	sg n
    	jaan	0		S	sg n
    	jaan	0		Y	?
ja	ja	0		J	
Jüri	Jüri	0		H	sg g
    	Jüri	0		H	sg n
salgasid	salga	sid		V	sid
5	5	0		N	?
rubla	rubla	0		S	sg g
     	rubla	0		S	sg n
     	rubla	0		S	sg p
ära	ära	0		D	
   	ära	0		V	neg o
ja	ja	0		J	
ütlesid	ütle	sid		V	sid
aga	aga	0		J	
1	1	0		N	?
rubla	rubla	0		S	sg g
     	rubla	0		S	sg n
     	rubla	0		S	sg p
saanud	saa	nud		V	nud
      	saa=nud	0		A	
      	saa=nud	0		A	sg n
      	saa=nud	d		A	pl n
      	saanu	d		S	pl n
olevat	ole	vat		V	vat
      	olev	t		A	sg p
      	olev	t		S	sg p
.	.			Z	
aga	aga	0		J	
kui	kui	0		D	
   	kui	0		J	
Jüri	Jüri	0		H	sg g
    	Jüri	0		H	sg n
Birkmann	####				
ise	ise	0		A	
   	ise	0		D	
   	ise	0		P	pl n
   	ise	0		P	sg n
oma	oma	0		A	sg g
   	oma	0		D	
   	oma	0		P	sg g
   	oma	0		S	sg g
   	oma	0		V	o
   	oma	0		A	sg n
   	oma	0		A	sg p
   	oma	0		P	sg n
   	oma	0		P	sg p
   	oma	0		S	sg n
   	oma	0		S	sg p
suga	suga	0		S	sg n
    	suga	0		S	sg p
Jaan	Jaan	0		H	sg n
    	jaan	0		S	sg n
    	jaan	0		Y	?
Reemalt	####				
vastu	vastu	0		D	
     	vastu	0		K	
tunnistas	tunnista	s		V	s
et	et	0		J	
ta	tema	0		P	sg g
  	tema	0		P	sg n
neile	see	le		P	pl all
     	tema	le		P	pl all
6	6	0		N	?
rubla	rubla	0		S	sg g
     	rubla	0		S	sg n
     	rubla	0		S	sg p
oli	ole	i		V	s
andnud	and	nud		V	nud
      	and=nu	d		S	pl n
      	and=nud	0		A	
      	and=nud	0		A	sg n
      	and=nud	d		A	pl n
,	,			Z	
siis	siis	0		D	
    	siis	0		J	
tunnistas	tunnista	s		V	s
Jaan	Jaan	0		H	sg n
    	jaan	0		S	sg n
    	jaan	0		Y	?
Reemmalt	####				
ka	ka	0		D	
ise	ise	0		A	
   	ise	0		D	
   	ise	0		P	pl n
   	ise	0		P	sg n
,	,			Z	
et	et	0		J	
tema	tema	0		P	sg g
    	tema	0		P	sg n
olla	ole	a		V	da
sest	see	st		P	sg el
    	sest	0		J	
rahast	raha	st		S	sg el
3	3	0		N	?
rubla	rubla	0		S	sg g
     	rubla	0		S	sg n
     	rubla	0		S	sg p
saanud	saa	nud		V	nud
      	saa=nud	0		A	
      	saa=nud	0		A	sg n
      	saa=nud	d		A	pl n
      	saanu	d		S	pl n
ja	ja	0		J	
tema	tema	0		P	sg g
    	tema	0		P	sg n
olla	ole	a		V	da
Jürile	Jüri	le		H	sg all
2	2	0		N	?
rubla	rubla	0		S	sg g
     	rubla	0		S	sg n
     	rubla	0		S	sg p
23	23	0		N	?
1	1	0		N	?
/	/			Z	
2	2	0		N	?
kop	kop	0		Y	?
.	.			Z	
eest	eest	0		D	
    	eest	0		K	
    	esi	st		S	sg el
linnast	linn	st		S	sg el
kaupa	kaup	0		S	adt
     	kaup	0		S	sg p
     	kaupa	0		K	
toonud	too	nud		V	nud
      	too=nu	d		S	pl n
      	too=nud	0		A	
      	too=nud	0		A	sg n
      	too=nud	d		A	pl n
,	,			Z	
ja	ja	0		J	
tema	tema	0		P	sg g
    	tema	0		P	sg n
vend	vend	0		S	sg n
Hans	Hans	0		H	sg n
olla	ole	a		V	da
Jüri	Jüri	0		H	sg g
    	Jüri	0		H	sg n
käest	käest	0		K	
     	käsi	st		S	sg el
3	3	0		N	?
rubla	rubla	0		S	sg g
     	rubla	0		S	sg n
     	rubla	0		S	sg p
kartuliti	kartuli=ti	0		D	
peale	pea	le		S	sg all
     	peale	0		D	
     	peale	0		K	
võtnud	võt	nud		V	nud
      	võt=nu	d		S	pl n
      	võt=nud	0		A	
      	võt=nud	0		A	sg n
      	võt=nud	d		A	pl n
,	,			Z	
mis	mis	0		P	pl n
   	mis	0		P	sg n
ta	tema	0		P	sg g
  	tema	0		P	sg n
Jürile	Jüri	le		H	sg all
kevade	kevad	0		S	sg g
      	kevade	0		S	sg g
      	kevade	0		S	sg n
pidi	pida	i		V	s
    	pidi	0		K	
andma	and	ma		V	ma
.	.			Z	
sest	see	st		P	sg el
    	sest	0		J	
varastatud	varasta	tud		V	tud
          	varastatu	d		S	pl n
          	varastatud	0		A	
          	varastatud	0		A	sg n
          	varastatud	d		A	pl n
89	89	0		N	?
rubla	rubla	0		S	sg g
     	rubla	0		S	sg n
     	rubla	0		S	sg p
rahast	raha	st		S	sg el
pole	ole	0		V	neg o
Jüri	Jüri	0		H	sg g
    	Jüri	0		H	sg n
käest	käest	0		K	
     	käsi	st		S	sg el
mitte	mitte	0		D	
rohkem	rohkem	0		D	
kui	kui	0		D	
   	kui	0		J	
29	29	0		N	?
rubla	rubla	0		S	sg g
     	rubla	0		S	sg n
     	rubla	0		S	sg p
kätte	kätte	0		K	
     	käsi	tte		S	adt
saadud	saa	dud		V	tud
      	saadu	d		S	pl n
      	saadud	0		A	
      	saadud	0		A	sg n
      	saadud	d		A	pl n
,	,			Z	
mis	mis	0		P	pl n
   	mis	0		P	sg n
katuse	katus	0		S	sg g
seest	seest	0		D	
     	seest	0		K	
välja	välja	0		D	
     	välja	0		V	o
     	väli	0		S	adt
     	väli	0		S	sg g
     	väli	0		S	sg p
võetud	võe=tu	d		S	pl n
      	võetud	0		A	
      	võetud	0		A	sg n
      	võetud	d		A	pl n
      	võt	tud		V	tud
;	;			Z	
aga	aga	0		J	
selle	see	0		P	sg g
     	sell	e		S	pl p
väljandmise	####				
järel	järel	0		D	
     	järel	0		K	
puutub	puutu	b		V	b
veel	veel	0		D	
    	vesi	l		S	sg ad
24	24	0		N	?
rubla	rubla	0		S	sg g
     	rubla	0		S	sg n
     	rubla	0		S	sg p
sest	see	st		P	sg el
    	sest	0		J	
rahast	raha	st		S	sg el
.	.			Z	
Otsust	otsus	t		S	sg p
pole	ole	0		V	neg o
selle	see	0		P	sg g
     	sell	e		S	pl p
varguse	vargus	0		S	sg g
üle	üle	0		D	
   	üle	0		K	
kogukonna	kogukond	0		S	sg g
kohtus	kohtu	s		V	s
      	kohus	s		S	sg in
võinud	või	nud		V	nud
      	või=nu	d		S	pl n
      	või=nud	0		A	
      	või=nud	0		A	sg n
      	või=nud	d		A	pl n
mitte	mitte	0		D	
tehtud	tehtu	d		S	pl n
      	tehtud	0		A	
      	tehtud	0		A	sg n
      	tehtud	d		A	pl n
      	tege	tud		V	tud
saada	saa	da		V	da
     	saat	0		V	o
     	saa	da		V	ta
,	,			Z	
selle	see	0		P	sg g
     	sell	e		S	pl p
suuruse	suurune	0		A	sg g
       	suurus	0		S	sg g
pärast	pära	st		S	sg el
      	pärane	t		A	sg p
      	pärast	0		D	
      	pärast	0		K	
,	,			Z	
vaid	vaid	0		D	
    	vaid	0		J	
12	12	0		N	?
veebr.	veebr	0		Y	?
protokoll	protokoll	0		S	sg n
haakenrichtri	####				
juure	juur	0		S	sg g
antud	an=tu	d		S	pl n
     	and	tud		V	tud
     	antud	0		A	
     	antud	0		A	sg n
     	antud	d		A	pl n
No2	####				
.	.			Z	
