astus	astu	s		V	s
kohtu	kohtu	0		V	o
     	kohus	0		S	sg g
ette	ette	0		D	
    	ette	0		K	
    	esi	tte		S	adt
kaebaja	kaebaja	0		S	sg g
       	kaebaja	0		S	sg n
Ann	Ann	0		H	sg n
Tikkunberg	####				
ja	ja	0		J	
kaebas	kaeba	s		V	s
,	,			Z	
et	et	0		J	
Kurtnast	####				
Rehimäe	rehi_mägi	0		S	sg g
tunkel	####				
on	ole	0		V	b
  	ole	0		V	vad
suvel	suvi	l		S	sg ad
Teise	teine	0		O	adt
     	teine	0		O	sg g
     	teine	0		P	adt
     	teine	0		P	sg g
saalest	####				
tulnud	tul=nud	0		A	
      	tul=nud	0		A	sg n
      	tul=nud	d		A	pl n
      	tule	nud		V	nud
      	tulnu	d		S	pl n
lugemist	lugem	st		S	sg el
        	lugemine	t		S	sg p
pidamast	pida	mast		V	mast
se	####				
on	ole	0		V	b
  	ole	0		V	vad
üks	üks	0		N	sg n
   	üks	0		P	sg n
pühapäeva	püha_päev	0		S	adt
         	püha_päev	0		S	sg g
         	püha_päev	0		S	sg p
olnud	ol=nud	0		A	
     	ol=nud	0		A	sg n
     	ol=nud	d		A	pl n
     	ole	nud		V	nud
     	olnu	d		S	pl n
ja	ja	0		J	
õhtu	õhtu	0		S	sg g
    	õhtu	0		S	sg n
ajal	aeg	l		S	sg ad
    	ajal	0		K	
tulnud	tul=nud	0		A	
      	tul=nud	0		A	sg n
      	tul=nud	d		A	pl n
      	tule	nud		V	nud
      	tulnu	d		S	pl n
tunkel	####				
neile	see	le		P	pl all
     	tema	le		P	pl all
ja	ja	0		J	
ajanud	aja	nud		V	nud
      	aja=nu	d		S	pl n
      	aja=nud	0		A	
      	aja=nud	0		A	sg n
      	aja=nud	d		A	pl n
neil	see	l		P	pl ad
    	tema	l		P	pl ad
tük	####				
aega	aeg	0		S	adt
    	aeg	0		S	sg p
    	aega	0		K	
juttu	jutt	0		S	adt
     	jutt	0		S	sg p
,	,			Z	
siis	siis	0		D	
    	siis	0		J	
on	ole	0		V	b
  	ole	0		V	vad
aga	aga	0		J	
aeg	aeg	0		S	sg n
hiljas	####				
jäänud	jää	nud		V	nud
      	jäänu	d		S	pl n
      	jäänud	0		A	
      	jäänud	0		A	sg n
      	jäänud	d		A	pl n
ja	ja	0		J	
tema	tema	0		P	sg g
    	tema	0		P	sg n
pole	ole	0		V	neg o
enam	enam	0		C	sg n
    	enam	0		D	
mitte	mitte	0		D	
läbi	läbi	0		D	
    	läbi	0		K	
    	läbi	0		V	o
suitsu	suits	0		S	adt
      	suits	0		S	sg g
      	suitsu	0		V	o
      	suits	0		S	sg p
koja	koda	0		S	sg g
osanud	oska	nud		V	nud
      	osa=nu	d		S	pl n
      	osa=nud	0		A	
      	osa=nud	0		A	sg n
      	osa=nud	d		A	pl n
mina	mina	0		P	sg n
    	mina	0		S	sg g
    	mina	0		S	sg n
    	mina	0		S	sg p
ja	ja	0		J	
palunud	palu	nud		V	nud
       	palu=nu	d		S	pl n
       	palu=nud	0		A	
       	palu=nud	0		A	sg n
       	palu=nud	d		A	pl n
ennast	ise	t		P	sg p
sealt	sealt	0		D	
     	siga	lt		A	sg abl
     	siga	lt		S	sg abl
metsadest	mets	dest		S	pl el
läbi	läbi	0		D	
    	läbi	0		K	
    	läbi	0		V	o
juhatada	juhata	da		V	da
.	.			Z	
siis	siis	0		D	
    	siis	0		J	
on	ole	0		V	b
  	ole	0		V	vad
Ann	Ann	0		H	sg n
Tikkunberg	####				
temaga	tema	ga		P	sg kom
kaasa	kaasa	0		D	
     	kaasa	0		V	o
     	kaasa	0		S	sg g
     	kaasa	0		S	sg n
läinud	läinu	d		S	pl n
      	läinud	0		A	
      	läinud	0		A	sg n
      	läinud	d		A	pl n
      	mine	nud		V	nud
.	.			Z	
nii	nii	0		D	
kaua	kaua	0		D	
kui	kui	0		D	
   	kui	0		J	
Kurtna	####				
mõisa	mõis	0		S	sg g
põllu	põld	0		S	sg g
te	sina	0		P	pl g
  	sina	0		P	pl n
peal	pea	l		S	sg ad
    	peal	0		D	
    	peal	0		K	
olnud	ol=nud	0		A	
     	ol=nud	0		A	sg n
     	ol=nud	d		A	pl n
     	ole	nud		V	nud
     	olnu	d		S	pl n
ja	ja	0		J	
hommiku	hommik	0		S	sg g
tulnud	tul=nud	0		A	
      	tul=nud	0		A	sg n
      	tul=nud	d		A	pl n
      	tule	nud		V	nud
      	tulnu	d		S	pl n
Viliverese	vili_verene	0		A	sg g
pidanud	pida	nud		V	nud
       	pida=nu	d		S	pl n
       	pida=nud	0		A	
       	pida=nud	0		A	sg n
       	pida=nud	d		A	pl n
seal	seal	0		D	
    	siga	l		A	sg ad
    	siga	l		S	sg ad
päeval	päev	l		S	sg ad
sinna	sinna	0		D	
tööle	töö	le		S	sg all
jääma	jää	ma		V	ma
     	jääm	0		S	adt
     	jääm	0		S	sg g
     	jääm	0		S	sg p
aga	aga	0		J	
need	see	d		P	pl n
on	ole	0		V	b
  	ole	0		V	vad
kodu	kodu	0		S	sg g
    	kodu	0		S	sg n
    	kodu	0		S	sg p
ära	ära	0		D	
   	ära	0		V	neg o
olnud	ol=nud	0		A	
     	ol=nud	0		A	sg n
     	ol=nud	d		A	pl n
     	ole	nud		V	nud
     	olnu	d		S	pl n
,	,			Z	
siis	siis	0		D	
    	siis	0		J	
tulnud	tul=nud	0		A	
      	tul=nud	0		A	sg n
      	tul=nud	d		A	pl n
      	tule	nud		V	nud
      	tulnu	d		S	pl n
ta	tema	0		P	sg g
  	tema	0		P	sg n
sealt	sealt	0		D	
     	siga	lt		A	sg abl
     	siga	lt		S	sg abl
koju	kodu	0		S	adt
se	####				
läinud	läinu	d		S	pl n
      	läinud	0		A	
      	läinud	0		A	sg n
      	läinud	d		A	pl n
      	mine	nud		V	nud
siis	siis	0		D	
    	siis	0		J	
mõisa	mõis	0		S	sg g
vällale	####				
..........	..........			Z	
rahva	rahvas	0		S	sg g
juure	juur	0		S	sg g
ja	ja	0		J	
need	see	d		P	pl n
käskinud	käski	nud		V	nud
        	käski=nu	d		S	pl n
        	käski=nud	0		A	
        	käski=nud	0		A	sg n
        	käski=nud	d		A	pl n
teda	tema	da		P	sg p
lehma	lehm	0		S	adt
     	lehm	0		S	sg g
     	lehm	0		S	sg p
tulla	tule	a		V	da
ja	ja	0		J	
Liisu	liisk	0		S	sg g
     	liisu	0		V	o
Kant	Kant	0		H	sg n
    	kant	0		S	sg n
öelnud	öel=nu	d		S	pl n
      	öel=nud	0		A	
      	öel=nud	0		A	sg n
      	öel=nud	d		A	pl n
      	ütle	nud		V	nud
ja	ja	0		J	
.......	.......			Z	
öelnud	öel=nu	d		S	pl n
      	öel=nud	0		A	
      	öel=nud	0		A	sg n
      	öel=nud	d		A	pl n
      	ütle	nud		V	nud
nüüd	nüüd	0		D	
olen	ole	n		V	n
ma	mina	0		P	sg n
seeläbi	see_läbi	0		D	
hiljaks	hiljaks	0		D	
jäänud	jää	nud		V	nud
      	jäänu	d		S	pl n
      	jäänud	0		A	
      	jäänud	0		A	sg n
      	jäänud	d		A	pl n
et	et	0		J	
eile	eile	0		D	
õhtu	õhtu	0		S	sg g
    	õhtu	0		S	sg n
tunel	####				
isandatud	isanda=tu	d		A	pl n
.......	.......			Z	
koju	kodu	0		S	adt
saatmas	saat	mas		V	mas
siis	siis	0		D	
    	siis	0		J	
öelnud	öel=nu	d		S	pl n
      	öel=nud	0		A	
      	öel=nud	0		A	sg n
      	öel=nud	d		A	pl n
      	ütle	nud		V	nud
Kant	Kant	0		H	sg n
    	kant	0		S	sg n
sina	sina	0		P	sg n
    	sina	0		S	sg g
    	sina	0		V	o
    	sina	0		S	sg n
    	sina	0		S	sg p
käid	käi	d		V	d
alati	alga	ti		V	ti
     	alati	0		D	
.......	.......			Z	
ja	ja	0		J	
vargusega	vargus	ga		S	sg kom
ta	tema	0		P	sg g
  	tema	0		P	sg n
küsinud	küsi	nud		V	nud
       	küsi=nu	d		S	pl n
       	küsi=nud	0		A	
       	küsi=nud	0		A	sg n
       	küsi=nud	d		A	pl n
:	:			Z	
kus	kus	0		D	
ma	mina	0		P	sg n
siis	siis	0		D	
    	siis	0		J	
olen	ole	n		V	n
sellega	see	ga		P	sg kom
käinud	käi	nud		V	nud
      	käi=nud	0		A	
      	käi=nud	0		A	sg n
      	käi=nud	d		A	pl n
      	käinu	d		S	pl n
.	.			Z	
se	####				
öelnud	öel=nu	d		S	pl n
      	öel=nud	0		A	
      	öel=nud	0		A	sg n
      	öel=nud	d		A	pl n
      	ütle	nud		V	nud
sa	sina	0		P	sg n
käisid	käi	sid		V	sid
Tunglega	####				
hooramas	hoora	mas		V	mas
.	.			Z	
Ann	Ann	0		H	sg n
on	ole	0		V	b
  	ole	0		V	vad
nendel	see	del		P	pl ad
      	tema	del		P	pl ad
lähkrist	lähker	st		S	sg el
juua	joo	a		V	da
küsinud	küsi	nud		V	nud
       	küsi=nu	d		S	pl n
       	küsi=nud	0		A	
       	küsi=nud	0		A	sg n
       	küsi=nud	d		A	pl n
hakkanud	####				
juma	####				
.	.			Z	
siis	siis	0		D	
    	siis	0		J	
lükanud	lükka	nud		V	nud
       	lüka=nu	d		S	pl n
       	lüka=nud	0		A	
       	lüka=nud	0		A	sg n
       	lüka=nud	d		A	pl n
Liisa	Liisa	0		H	sg g
     	Liisa	0		H	sg n
Kant	Kant	0		H	sg n
    	kant	0		S	sg n
kuuliti	kuuli=ti	0		D	
ja	ja	0		J	
loonud	loo	nud		V	nud
      	loo=nu	d		S	pl n
      	loo=nud	0		A	
      	loo=nud	0		A	sg n
      	loo=nud	d		A	pl n
teda	tema	da		P	sg p
veel	veel	0		D	
    	vesi	l		S	sg ad
mõned	mõni	d		P	pl n
korrad	kord	d		S	pl n
ja	ja	0		J	
tema	tema	0		P	sg g
    	tema	0		P	sg n
lubanud	luba	nud		V	nud
       	luba=nu	d		S	pl n
       	luba=nud	0		A	
       	luba=nud	0		A	sg n
       	luba=nud	d		A	pl n
tunel	####				
emantalle	####				
kaebada	####				
,	,			Z	
et	et	0		J	
ta	tema	0		P	sg g
  	tema	0		P	sg n
temaga	tema	ga		P	sg kom
hoora	hoor	0		S	adt
     	hoor	0		S	sg g
     	hoora	0		V	o
     	hoor	0		S	sg p
ja	ja	0		J	
öelnud	öel=nu	d		S	pl n
      	öel=nud	0		A	
      	öel=nud	0		A	sg n
      	öel=nud	d		A	pl n
      	ütle	nud		V	nud
teda	tema	da		P	sg p
.......	.......			Z	
ratiku	####				
olevat	ole	vat		V	vat
      	olev	t		A	sg p
      	olev	t		S	sg p
.	.			Z	
ja	ja	0		J	
Tannikenberg	####				
on	ole	0		V	b
  	ole	0		V	vad
........	........			Z	
kohalolevat	kohal_olev	t		A	sg p
           	kohal_olev	t		S	sg p
.........	.........			Z	
ja	ja	0		J	
rääkinud	rääki	nud		V	nud
        	rääki=nu	d		S	pl n
        	rääki=nud	0		A	
        	rääki=nud	0		A	sg n
        	rääki=nud	d		A	pl n
seda	see	da		P	sg p
imeski	ime	s	ki	S	sg in
      	ime	s	ki	V	s
kuuldes	kuul	des		V	des
       	kuule	s		S	sg in
igal	iga	l		P	sg ad
pool	pool	0		K	
    	pool	0		N	sg n
    	pool	0		S	sg n
ja	ja	0		J	
välja	välja	0		D	
     	välja	0		V	o
     	väli	0		S	adt
     	väli	0		S	sg g
     	väli	0		S	sg p
selle	see	0		P	sg g
     	sell	e		S	pl p
pärast	pära	st		S	sg el
      	pärane	t		A	sg p
      	pärast	0		D	
      	pärast	0		K	
on	ole	0		V	b
  	ole	0		V	vad
tunel	####				
naine	naine	0		S	sg n
inväuikastanud	####				
ja	ja	0		J	
on	ole	0		V	b
  	ole	0		V	vad
abielu	abi_elu	0		S	sg g
      	abi_elu	0		S	sg n
      	abi_elu	0		S	sg p
rahvusvahele	rahvus_vahe	le		S	sg all
suurmist	####				
riidu	riid	0		S	adt
     	riid	0		S	sg p
     	riidu	0		D	
ja	ja	0		J	
viha	viht	0		S	sg g
    	viha	0		A	sg g
    	viha	0		A	sg n
    	viha	0		A	sg p
    	viha	0		S	sg g
    	viha	0		S	sg n
    	viha	0		S	sg p
tõstnud	tõst	nud		V	nud
       	tõst=nu	d		S	pl n
       	tõst=nud	0		A	
       	tõst=nud	0		A	sg n
       	tõst=nud	d		A	pl n
.	.			Z	
pärast	pära	st		S	sg el
      	pärane	t		A	sg p
      	pärast	0		D	
      	pärast	0		K	
läinud	läinu	d		S	pl n
      	läinud	0		A	
      	läinud	0		A	sg n
      	läinud	d		A	pl n
      	mine	nud		V	nud
Ann	Ann	0		H	sg n
Tikkunberg	####				
ja	ja	0		J	
Liisu	liisk	0		S	sg g
     	liisu	0		V	o
Kant	Kant	0		H	sg n
    	kant	0		S	sg n
Kirikuõpetaja	kiriku_õpetaja	0		S	sg g
             	kiriku_õpetaja	0		S	sg n
juure	juur	0		S	sg g
ja	ja	0		J	
Liisu	liisk	0		S	sg g
     	liisu	0		V	o
Kant	Kant	0		H	sg n
    	kant	0		S	sg n
on	ole	0		V	b
  	ole	0		V	vad
seal	seal	0		D	
    	siga	l		A	sg ad
    	siga	l		S	sg ad
kirikuõpetaja	kiriku_õpetaja	0		S	sg g
             	kiriku_õpetaja	0		S	sg n
ees	ees	0		D	
   	ees	0		K	
   	esi	s		S	sg in
väga	väga	0		D	
palunud	palu	nud		V	nud
       	palu=nu	d		S	pl n
       	palu=nud	0		A	
       	palu=nud	0		A	sg n
       	palu=nud	d		A	pl n
andeks	andeks	0		X	
      	anne	ks		S	sg tr
et	et	0		J	
tema	tema	0		P	sg g
    	tema	0		P	sg n
seda	see	da		P	sg p
kogemata	koge	mata		V	mata
        	koge=mata	0		A	
        	kogemata	0		D	
ja	ja	0		J	
naeru	naer	0		S	adt
     	naer	0		S	sg g
     	naer	0		S	sg p
pärast	pära	st		S	sg el
      	pärane	t		A	sg p
      	pärast	0		D	
      	pärast	0		K	
on	ole	0		V	b
  	ole	0		V	vad
teinud	tege	nud		V	nud
      	tei=nud	0		A	
      	tei=nud	0		A	sg n
      	tei=nud	d		A	pl n
      	teinu	d		S	pl n
siis	siis	0		D	
    	siis	0		J	
käskinud	käski	nud		V	nud
        	käski=nu	d		S	pl n
        	käski=nud	0		A	
        	käski=nud	0		A	sg n
        	käski=nud	d		A	pl n
õpetaja	õpetaja	0		S	sg g
       	õpetaja	0		S	sg n
neid	neid	0		S	sg n
    	see	d		P	pl p
    	tema	d		P	pl p
teisel	teine	l		O	sg ad
      	teine	l		P	sg ad
pühapäeval	püha_päev	l		S	sg ad
onel	####				
juure	juur	0		S	sg g
mina	mina	0		P	sg n
    	mina	0		S	sg g
    	mina	0		S	sg n
    	mina	0		S	sg p
ja	ja	0		J	
Liisu	liisk	0		S	sg g
     	liisu	0		V	o
öelnud	öel=nu	d		S	pl n
      	öel=nud	0		A	
      	öel=nud	0		A	sg n
      	öel=nud	d		A	pl n
      	ütle	nud		V	nud
,	,			Z	
et	et	0		J	
temal	tema	l		P	sg ad
ei	ei	0		D	
  	ei	0		V	neg
olla	ole	a		V	da
aega	aeg	0		S	adt
    	aeg	0		S	sg p
    	aega	0		K	
ennast	ise	t		P	sg p
nappu	napp	u		S	pl p
tööga	töö	ga		S	sg kom
.................	.................			Z	
pühapäeval	püha_päev	l		S	sg ad
mina	mina	0		P	sg n
    	mina	0		S	sg g
    	mina	0		S	sg n
    	mina	0		S	sg p
tema	tema	0		P	sg g
    	tema	0		P	sg n
pidada	pida	da		V	da
on	ole	0		V	b
  	ole	0		V	vad
ta	tema	0		P	sg g
  	tema	0		P	sg n
ergipäeval	ergi_päev	l		S	sg ad
sinna	sinna	0		D	
läinud	läinu	d		S	pl n
      	läinud	0		A	
      	läinud	0		A	sg n
      	läinud	d		A	pl n
      	mine	nud		V	nud
.	.			Z	
ja	ja	0		J	
Ann	Ann	0		H	sg n
Tikkunberg	####				
poole	pool	0		N	sg g
     	pool	0		S	sg g
     	pool	e		S	pl p
     	poole	0		K	
     	poole	0		S	sg n
olnud	ol=nud	0		A	
     	ol=nud	0		A	sg n
     	ol=nud	d		A	pl n
     	ole	nud		V	nud
     	olnu	d		S	pl n
.	.			Z	
ja	ja	0		J	
hakanud	hakka	nud		V	nud
       	haka=nu	d		S	pl n
       	haka=nud	0		A	
       	haka=nud	0		A	sg n
       	haka=nud	d		A	pl n
seal	seal	0		D	
    	siga	l		A	sg ad
    	siga	l		S	sg ad
sest	see	st		P	sg el
    	sest	0		J	
asjast	asi	st		S	sg el
rääkima	rääki	ma		V	ma
ja	ja	0		J	
andeks	andeks	0		X	
      	anne	ks		S	sg tr
paluma	palu	ma		V	ma
,	,			Z	
et	et	0		J	
tema	tema	0		P	sg g
    	tema	0		P	sg n
on	ole	0		V	b
  	ole	0		V	vad
seda	see	da		P	sg p
selle	see	0		P	sg g
     	sell	e		S	pl p
pärast	pära	st		S	sg el
      	pärane	t		A	sg p
      	pärast	0		D	
      	pärast	0		K	
rääkinud	rääki	nud		V	nud
        	rääki=nu	d		S	pl n
        	rääki=nud	0		A	
        	rääki=nud	0		A	sg n
        	rääki=nud	d		A	pl n
,	,			Z	
tema	tema	0		P	sg g
    	tema	0		P	sg n
olla	ole	a		V	da
Tunglega	####				
hooramas	hoora	mas		V	mas
käinud	käi	nud		V	nud
      	käi=nud	0		A	
      	käi=nud	0		A	sg n
      	käi=nud	d		A	pl n
      	käinu	d		S	pl n
.	.			Z	
Liisu	liisk	0		S	sg g
     	liisu	0		V	o
Kant	Kant	0		H	sg n
    	kant	0		S	sg n
sai	saa	i		V	s
   	sai	0		S	sg n
kohtu	kohtu	0		V	o
     	kohus	0		S	sg g
ette	ette	0		D	
    	ette	0		K	
    	esi	tte		S	adt
kutsutud	kutsu	tud		V	tud
        	kutsutu	d		S	pl n
        	kutsutud	0		A	
        	kutsutud	0		A	sg n
        	kutsutud	d		A	pl n
ja	ja	0		J	
se	####				
rääkis	rääki	s		V	s
,	,			Z	
et	et	0		J	
Ann	Ann	0		H	sg n
Tikkunberg	####				
on	ole	0		V	b
  	ole	0		V	vad
vällale	####				
nende	see	de		P	pl g
     	tema	de		P	pl g
juure	juur	0		S	sg g
tulnud	tul=nud	0		A	
      	tul=nud	0		A	sg n
      	tul=nud	d		A	pl n
      	tule	nud		V	nud
      	tulnu	d		S	pl n
ja	ja	0		J	
öelnud	öel=nu	d		S	pl n
      	öel=nud	0		A	
      	öel=nud	0		A	sg n
      	öel=nud	d		A	pl n
      	ütle	nud		V	nud
et	et	0		J	
tema	tema	0		P	sg g
    	tema	0		P	sg n
on	ole	0		V	b
  	ole	0		V	vad
neid	neid	0		S	sg n
    	see	d		P	pl p
    	tema	d		P	pl p
taga	taga	0		D	
    	taga	0		K	
    	taga	0		V	o
otsinud	otsi	nud		V	nud
       	otsi=nu	d		S	pl n
       	otsi=nud	0		A	
       	otsi=nud	0		A	sg n
       	otsi=nud	d		A	pl n
ja	ja	0		J	
Liisu	liisk	0		S	sg g
     	liisu	0		V	o
Kant	Kant	0		H	sg n
    	kant	0		S	sg n
öelnud	öel=nu	d		S	pl n
      	öel=nud	0		A	
      	öel=nud	0		A	sg n
      	öel=nud	d		A	pl n
      	ütle	nud		V	nud
alati	alga	ti		V	ti
     	alati	0		D	
sa	sina	0		P	sg n
käid	käi	d		V	d
valega	vale	ga		A	sg kom
      	vale	ga		S	sg kom
ja	ja	0		J	
vargusega	vargus	ga		S	sg kom
milla	####				
sa	sina	0		P	sg n
meid	mina	d		P	pl p
otsite	otsi	te		V	te
ja	ja	0		J	
käisid	käi	sid		V	sid
öösel	öösel	0		D	
Tunglega	####				
laperdamas	laperda	mas		V	mas
mis	mis	0		P	pl n
   	mis	0		P	sg n
se	####				
teed	tee	d		S	pl n
    	tege	d		V	d
    	tee	d		S	sg p
sa	sina	0		P	sg n
oled	ole	d		V	d
abielu	abi_elu	0		S	sg g
      	abi_elu	0		S	sg n
      	abi_elu	0		S	sg p
kurat	kurat	0		I	
     	kurat	0		S	sg n
siis	siis	0		D	
    	siis	0		J	
on	ole	0		V	b
  	ole	0		V	vad
Ann	Ann	0		H	sg n
sinna	sinna	0		D	
istunud	istu	nud		V	nud
       	istu=nu	d		S	pl n
       	istu=nud	0		A	
       	istu=nud	0		A	sg n
       	istu=nud	d		A	pl n
ja	ja	0		J	
hakanud	hakka	nud		V	nud
       	haka=nu	d		S	pl n
       	haka=nud	0		A	
       	haka=nud	0		A	sg n
       	haka=nud	d		A	pl n
nende	see	de		P	pl g
     	tema	de		P	pl g
lahkust	lahkus	t		S	sg p
,	,			Z	
Liisu	liisk	0		S	sg g
     	liisu	0		V	o
Kant	Kant	0		H	sg n
    	kant	0		S	sg n
lükanud	lükka	nud		V	nud
       	lüka=nu	d		S	pl n
       	lüka=nud	0		A	
       	lüka=nud	0		A	sg n
       	lüka=nud	d		A	pl n
teda	tema	da		P	sg p
nalja	nali	0		S	adt
     	nali	0		S	sg g
     	nali	0		S	sg p
pärast	pära	st		S	sg el
      	pärane	t		A	sg p
      	pärast	0		D	
      	pärast	0		K	
ja	ja	0		J	
nalja	nali	0		S	adt
     	nali	0		S	sg g
     	nali	0		S	sg p
pärast	pära	st		S	sg el
      	pärane	t		A	sg p
      	pärast	0		D	
      	pärast	0		K	
löönud	löö	nud		V	nud
      	löö=nu	d		S	pl n
      	löö=nud	0		A	
      	löö=nud	0		A	sg n
      	löö=nud	d		A	pl n
ta	tema	0		P	sg g
  	tema	0		P	sg n
teda	tema	da		P	sg p
ka	ka	0		D	
ja	ja	0		J	
lubanud	luba	nud		V	nud
       	luba=nu	d		S	pl n
       	luba=nud	0		A	
       	luba=nud	0		A	sg n
       	luba=nud	d		A	pl n
tunel	####				
naisele	naine	le		S	sg all
seda	see	da		P	sg p
rääkida	rääki	da		V	da
.	.			Z	
Ann	Ann	0		H	sg n
tulnud	tul=nud	0		A	
      	tul=nud	0		A	sg n
      	tul=nud	d		A	pl n
      	tule	nud		V	nud
      	tulnu	d		S	pl n
ühel	üks	l		N	sg ad
    	üks	l		P	sg ad
päeval	päev	l		S	sg ad
tunel	####				
juures	juur	s		S	sg in
      	juures	0		D	
      	juures	0		K	
käinud	käi	nud		V	nud
      	käi=nud	0		A	
      	käi=nud	0		A	sg n
      	käi=nud	d		A	pl n
      	käinu	d		S	pl n
ja	ja	0		J	
tulnud	tul=nud	0		A	
      	tul=nud	0		A	sg n
      	tul=nud	d		A	pl n
      	tule	nud		V	nud
      	tulnu	d		S	pl n
siis	siis	0		D	
    	siis	0		J	
neile	see	le		P	pl all
     	tema	le		P	pl all
ja	ja	0		J	
öelnud	öel=nu	d		S	pl n
      	öel=nud	0		A	
      	öel=nud	0		A	sg n
      	öel=nud	d		A	pl n
      	ütle	nud		V	nud
mis	mis	0		P	pl n
   	mis	0		P	sg n
sa	sina	0		P	sg n
minu	mina	0		P	sg g
peale	pea	le		S	sg all
     	peale	0		D	
     	peale	0		K	
oled	ole	d		V	d
valetanud	valeta	nud		V	nud
         	valeta=nu	d		S	pl n
         	valeta=nud	0		A	
         	valeta=nud	0		A	sg n
         	valeta=nud	d		A	pl n
sina	sina	0		P	sg n
    	sina	0		S	sg g
    	sina	0		V	o
    	sina	0		S	sg n
    	sina	0		S	sg p
valetad	valeta	d		V	d
kes	kes	0		P	pl n
   	kes	0		P	sg n
on	ole	0		V	b
  	ole	0		V	vad
seda	see	da		P	sg p
sinna	sinna	0		D	
rääkinud	rääki	nud		V	nud
        	rääki=nu	d		S	pl n
        	rääki=nud	0		A	
        	rääki=nud	0		A	sg n
        	rääki=nud	d		A	pl n
et	et	0		J	
ma	mina	0		P	sg n
Tunglega	####				
pead	pea	d		S	pl n
    	pida	d		V	d
    	pea	d		S	sg p
horaama	####				
.	.			Z	
Ann	Ann	0		H	sg n
on	ole	0		V	b
  	ole	0		V	vad
teda	tema	da		P	sg p
augutanud	augu_tanu	d		S	pl n
ja	ja	0		J	
öelnud	öel=nu	d		S	pl n
      	öel=nud	0		A	
      	öel=nud	0		A	sg n
      	öel=nud	d		A	pl n
      	ütle	nud		V	nud
mis	mis	0		P	pl n
   	mis	0		P	sg n
sa	sina	0		P	sg n
habemaks	habe_maks	0		S	sg n
koer	koer	0		A	sg n
    	koer	0		S	sg n
oled	ole	d		V	d
teinud	tege	nud		V	nud
      	tei=nud	0		A	
      	tei=nud	0		A	sg n
      	tei=nud	d		A	pl n
      	teinu	d		S	pl n
,	,			Z	
et	et	0		J	
sa	sina	0		P	sg n
minu	mina	0		P	sg g
peale	pea	le		S	sg all
     	peale	0		D	
     	peale	0		K	
seda	see	da		P	sg p
oled	ole	d		V	d
valetanud	valeta	nud		V	nud
         	valeta=nu	d		S	pl n
         	valeta=nud	0		A	
         	valeta=nud	0		A	sg n
         	valeta=nud	d		A	pl n
.	.			Z	
pärast	pära	st		S	sg el
      	pärane	t		A	sg p
      	pärast	0		D	
      	pärast	0		K	
öelnud	öel=nu	d		S	pl n
      	öel=nud	0		A	
      	öel=nud	0		A	sg n
      	öel=nud	d		A	pl n
      	ütle	nud		V	nud
Ann	Ann	0		H	sg n
Tikkunberg	####				
kui	kui	0		D	
   	kui	0		J	
sa	sina	0		P	sg n
tahad	taht	d		V	d
,	,			Z	
siis	siis	0		D	
    	siis	0		J	
pane	pan	e		S	pl p
    	pane	0		V	o
ka	ka	0		D	
enesel	ise	l		P	sg ad
keima	####				
nende	see	de		P	pl g
     	tema	de		P	pl g
kui	kui	0		D	
   	kui	0		J	
minu	mina	0		P	sg g
vaht	vaht	0		S	sg n
oled	ole	d		V	d
.	.			Z	
kuidas	kuidas	0		D	
mina	mina	0		P	sg n
    	mina	0		S	sg g
    	mina	0		S	sg n
    	mina	0		S	sg p
üles	üles	0		D	
pannud	pan=nu	d		S	pl n
      	pan=nud	0		A	
      	pan=nud	0		A	sg n
      	pan=nud	d		A	pl n
      	pane	nud		V	nud
,	,			Z	
mis	mis	0		P	pl n
   	mis	0		P	sg n
mul	mina	l		P	sg ad
muret	mure	t		S	sg p
on	ole	0		V	b
  	ole	0		V	vad
ma	mina	0		P	sg n
olen	ole	n		V	n
vana	vana	0		A	sg g
    	vana	0		A	sg n
    	vana	0		A	sg p
    	vana	0		S	sg g
    	vana	0		S	sg n
    	vana	0		S	sg p
ega	ega	0		D	
   	ega	0		J	
ma	mina	0		P	sg n
sest	see	st		P	sg el
    	sest	0		J	
ei	ei	0		D	
  	ei	0		V	neg
sa	sina	0		P	sg n
.	.			Z	
aga	aga	0		J	
Ann	Ann	0		H	sg n
Tikkunberg	####				
tunnistab	tunnista	b		V	b
kohtu	kohtu	0		V	o
     	kohus	0		S	sg g
ees	ees	0		D	
   	ees	0		K	
   	esi	s		S	sg in
,	,			Z	
et	et	0		J	
ta	tema	0		P	sg g
  	tema	0		P	sg n
ei	ei	0		D	
  	ei	0		V	neg
ole	ole	0		V	o
Liisu	liisk	0		S	sg g
     	liisu	0		V	o
Kantele	####				
muud	muu	d		P	pl n
    	muu	d		S	pl n
    	muu	d		V	d
    	muu	d		P	sg p
    	muu	d		S	sg p
öelnud	öel=nu	d		S	pl n
      	öel=nud	0		A	
      	öel=nud	0		A	sg n
      	öel=nud	d		A	pl n
      	ütle	nud		V	nud
,	,			Z	
kui	kui	0		D	
   	kui	0		J	
et	et	0		J	
ta	tema	0		P	sg g
  	tema	0		P	sg n
pidanud	pida	nud		V	nud
       	pida=nu	d		S	pl n
       	pida=nud	0		A	
       	pida=nud	0		A	sg n
       	pida=nud	d		A	pl n
selle	see	0		P	sg g
     	sell	e		S	pl p
se	####				
pärast	pära	st		S	sg el
      	pärane	t		A	sg p
      	pärast	0		D	
      	pärast	0		K	
andeks	andeks	0		X	
      	anne	ks		S	sg tr
paluma	palu	ma		V	ma
et	et	0		J	
teiste	teine	te		O	pl g
      	teine	te		P	pl g
inimeste	inimene	te		S	pl g
vahele	vahe	le		S	sg all
      	vahele	0		D	
      	vahele	0		K	
nii	nii	0		D	
puudanud	####				
ja	ja	0		J	
seda	see	da		P	sg p
teinud	tege	nud		V	nud
      	tei=nud	0		A	
      	tei=nud	0		A	sg n
      	tei=nud	d		A	pl n
      	teinu	d		S	pl n
.	.			Z	
ja	ja	0		J	
kui	kui	0		D	
   	kui	0		J	
nemad	tema	d		P	pl n
Kiriku	kirik	0		S	sg g
rahe	rahe	0		S	sg g
    	rahe	0		S	sg n
juures	juur	s		S	sg in
      	juures	0		D	
      	juures	0		K	
olnud	ol=nud	0		A	
     	ol=nud	0		A	sg n
     	ol=nud	d		A	pl n
     	ole	nud		V	nud
     	olnu	d		S	pl n
siis	siis	0		D	
    	siis	0		J	
käskinud	käski	nud		V	nud
        	käski=nu	d		S	pl n
        	käski=nud	0		A	
        	käski=nud	0		A	sg n
        	käski=nud	d		A	pl n
õpetaja	õpetaja	0		S	sg g
       	õpetaja	0		S	sg n
teda	tema	da		P	sg p
tunel	####				
juure	juur	0		S	sg g
mina	mina	0		P	sg n
    	mina	0		S	sg g
    	mina	0		S	sg n
    	mina	0		S	sg p
ja	ja	0		J	
paluda	palu	da		V	da
,	,			Z	
et	et	0		J	
tema	tema	0		P	sg g
    	tema	0		P	sg n
on	ole	0		V	b
  	ole	0		V	vad
seda	see	da		P	sg p
nalja	nali	0		S	adt
     	nali	0		S	sg g
     	nali	0		S	sg p
pärast	pära	st		S	sg el
      	pärane	t		A	sg p
      	pärast	0		D	
      	pärast	0		K	
teinud	tege	nud		V	nud
      	tei=nud	0		A	
      	tei=nud	0		A	sg n
      	tei=nud	d		A	pl n
      	teinu	d		S	pl n
.	.			Z	
ja	ja	0		J	
tema	tema	0		P	sg g
    	tema	0		P	sg n
on	ole	0		V	b
  	ole	0		V	vad
läinud	läinu	d		S	pl n
      	läinud	0		A	
      	läinud	0		A	sg n
      	läinud	d		A	pl n
      	mine	nud		V	nud
ja	ja	0		J	
õpetaja	õpetaja	0		S	sg g
       	õpetaja	0		S	sg n
öelnud	öel=nu	d		S	pl n
      	öel=nud	0		A	
      	öel=nud	0		A	sg n
      	öel=nud	d		A	pl n
      	ütle	nud		V	nud
,	,			Z	
et	et	0		J	
nemad	tema	d		P	pl n
mitte	mitte	0		D	
pühapäva	####				
sinna	sinna	0		D	
ei	ei	0		D	
  	ei	0		V	neg
lähe	lähe	0		S	sg n
    	mine	0		V	neg o
vaid	vaid	0		D	
    	vaid	0		J	
ergipäeval	ergi_päev	l		S	sg ad
ja	ja	0		J	
tema	tema	0		P	sg g
    	tema	0		P	sg n
on	ole	0		V	b
  	ole	0		V	vad
argipäeva	argi_päev	0		S	adt
         	argi_päev	0		S	sg g
         	argi_päev	0		S	sg p
seal	seal	0		D	
    	siga	l		A	sg ad
    	siga	l		S	sg ad
käinud	käi	nud		V	nud
      	käi=nud	0		A	
      	käi=nud	0		A	sg n
      	käi=nud	d		A	pl n
      	käinu	d		S	pl n
ja	ja	0		J	
palunud	palu	nud		V	nud
       	palu=nu	d		S	pl n
       	palu=nud	0		A	
       	palu=nud	0		A	sg n
       	palu=nud	d		A	pl n
seal	seal	0		D	
    	siga	l		A	sg ad
    	siga	l		S	sg ad
selle	see	0		P	sg g
     	sell	e		S	pl p
pärast	pära	st		S	sg el
      	pärane	t		A	sg p
      	pärast	0		D	
      	pärast	0		K	
andeks	andeks	0		X	
      	anne	ks		S	sg tr
sest	see	st		P	sg el
    	sest	0		J	
tema	tema	0		P	sg g
    	tema	0		P	sg n
ei	ei	0		D	
  	ei	0		V	neg
oleks	ole	ks		V	ks
muidu	muidu	0		D	
rääkinud	rääki	nud		V	nud
        	rääki=nu	d		S	pl n
        	rääki=nud	0		A	
        	rääki=nud	0		A	sg n
        	rääki=nud	d		A	pl n
vaid	vaid	0		D	
    	vaid	0		J	
Ann	Ann	0		H	sg n
on	ole	0		V	b
  	ole	0		V	vad
ise	ise	0		A	
   	ise	0		D	
   	ise	0		P	pl n
   	ise	0		P	sg n
talle	tall	e		S	pl p
     	tall	0		S	adt
     	tall	0		S	sg g
     	tema	lle		P	sg all
     	tall	0		S	sg p
kalnud	####				
ja	ja	0		J	
tunel	####				
emand	emand	0		S	sg n
on	ole	0		V	b
  	ole	0		V	vad
talle	tall	e		S	pl p
     	tall	0		S	adt
     	tall	0		S	sg g
     	tema	lle		P	sg all
     	tall	0		S	sg p
andeks	andeks	0		X	
      	anne	ks		S	sg tr
andnud	and	nud		V	nud
      	and=nu	d		S	pl n
      	and=nud	0		A	
      	and=nud	0		A	sg n
      	and=nud	d		A	pl n
ja	ja	0		J	
öelnud	öel=nu	d		S	pl n
      	öel=nud	0		A	
      	öel=nud	0		A	sg n
      	öel=nud	d		A	pl n
      	ütle	nud		V	nud
et	et	0		J	
nemad	tema	d		P	pl n
sest	see	st		P	sg el
    	sest	0		J	
ühtegi	ühte	0	gi	D	
      	üks	0	gi	N	adt
      	üks	0	gi	P	adt
      	ühe	0	gi	S	sg g
      	üks	0	gi	N	sg p
      	üks	0	gi	P	sg p
ei	ei	0		D	
  	ei	0		V	neg
panna	pand	0		S	sg g
     	pane	a		V	da
     	panna	0		S	sg g
     	panna	0		S	sg n
tähele	täht	le		S	sg all
      	tähele	0		X	
ja	ja	0		J	
nende	see	de		P	pl g
     	tema	de		P	pl g
elu	elu	0		S	sg g
   	elu	0		S	sg n
   	elu	0		S	sg p
olla	ole	a		V	da
selle	see	0		P	sg g
     	sell	e		S	pl p
poolest	pool	st		N	sg el
       	pool	st		S	sg el
       	poolene	t		A	sg p
       	poolest	0		K	
üsna	üsna	0		D	
hea	hea	0		A	sg g
   	hea	0		A	sg n
   	hea	0		S	sg g
   	hea	0		S	sg n
.	.			Z	
aga	aga	0		J	
Tunglel	####				
veel	veel	0		D	
    	vesi	l		S	sg ad
ise	ise	0		A	
   	ise	0		D	
   	ise	0		P	pl n
   	ise	0		P	sg n
öelnud	öel=nu	d		S	pl n
      	öel=nud	0		A	
      	öel=nud	0		A	sg n
      	öel=nud	d		A	pl n
      	ütle	nud		V	nud
,	,			Z	
et	et	0		J	
nende	see	de		P	pl g
     	tema	de		P	pl g
elamine	elamine	0		S	sg n
sai	saa	i		V	s
   	sai	0		S	sg n
läbi	läbi	0		D	
    	läbi	0		K	
    	läbi	0		V	o
......	......			Z	
huka	####				
on	ole	0		V	b
  	ole	0		V	vad
põrad	põra	d		S	pl n
     	põra	d		V	d
ja	ja	0		J	
.....	.....			Z	
alles	alles	0		D	
elu	elu	0		S	sg g
   	elu	0		S	sg n
   	elu	0		S	sg p
ammu	amb	0		S	sg g
    	ambu	0		V	o
    	ammu	0		D	
    	ammu	0		V	o
rikutud	rikku	tud		V	tud
       	riku=tu	d		S	pl n
       	rikutud	0		A	
       	rikutud	0		A	sg n
       	rikutud	d		A	pl n
.	.			Z	
Vilvere	####				
perenaine	pere_naine	0		S	sg n
kes	kes	0		P	pl n
   	kes	0		P	sg n
seda	see	da		P	sg p
oli	ole	i		V	s
pealt	pea	lt		S	sg abl
     	pealt	0		D	
     	pealt	0		K	
näinud	näi	nud		V	nud
      	näge	nud		V	nud
      	näi=nud	0		A	
      	näi=nud	0		A	sg n
      	näi=nud	d		A	pl n
      	näinu	d		S	pl n
sai	saa	i		V	s
   	sai	0		S	sg n
ka	ka	0		D	
kohtu	kohtu	0		V	o
     	kohus	0		S	sg g
ette	ette	0		D	
    	ette	0		K	
    	esi	tte		S	adt
kutsutud	kutsu	tud		V	tud
        	kutsutu	d		S	pl n
        	kutsutud	0		A	
        	kutsutud	0		A	sg n
        	kutsutud	d		A	pl n
ja	ja	0		J	
se	####				
rääkis	rääki	s		V	s
,	,			Z	
et	et	0		J	
tunklalt	####				
Tikkunberg	####				
on	ole	0		V	b
  	ole	0		V	vad
lõikuse	lõikus	0		S	sg g
ajal	aeg	l		S	sg ad
    	ajal	0		K	
nende	see	de		P	pl g
     	tema	de		P	pl g
juure	juur	0		S	sg g
tulnud	tul=nud	0		A	
      	tul=nud	0		A	sg n
      	tul=nud	d		A	pl n
      	tule	nud		V	nud
      	tulnu	d		S	pl n
ja	ja	0		J	
öelnud	öel=nu	d		S	pl n
      	öel=nud	0		A	
      	öel=nud	0		A	sg n
      	öel=nud	d		A	pl n
      	ütle	nud		V	nud
ma	mina	0		P	sg n
otsisin	otsi	sin		V	sin
teid	sina	d		P	pl p
    	tee	id		S	pl p
taga	taga	0		D	
    	taga	0		K	
    	taga	0		V	o
ja	ja	0		J	
Liisu	liisk	0		S	sg g
     	liisu	0		V	o
Kant	Kant	0		H	sg n
    	kant	0		S	sg n
öelnud	öel=nu	d		S	pl n
      	öel=nud	0		A	
      	öel=nud	0		A	sg n
      	öel=nud	d		A	pl n
      	ütle	nud		V	nud
mis	mis	0		P	pl n
   	mis	0		P	sg n
sa	sina	0		P	sg n
valetad	valeta	d		V	d
millal	millal	0		D	
se	####				
meid	mina	d		P	pl p
otsite	otsi	te		V	te
sa	sina	0		P	sg n
käisid	käi	sid		V	sid
öösel	öösel	0		D	
Tunglega	####				
laperdamas	laperda	mas		V	mas
.	.			Z	
ja	ja	0		J	
lubanud	luba	nud		V	nud
       	luba=nu	d		S	pl n
       	luba=nud	0		A	
       	luba=nud	0		A	sg n
       	luba=nud	d		A	pl n
seda	see	da		P	sg p
tunel	####				
naisele	naine	le		S	sg all
rääkida	rääki	da		V	da
et	et	0		J	
Ann	Ann	0		H	sg n
Tikkunberg	####				
olla	ole	a		V	da
abielu	abi_elu	0		S	sg g
      	abi_elu	0		S	sg n
      	abi_elu	0		S	sg p
Kurat	Kura	t		H	sg p
     	kurat	0		I	
     	kurat	0		S	sg n
.	.			Z	
ja	ja	0		J	
pärast	pära	st		S	sg el
      	pärane	t		A	sg p
      	pärast	0		D	
      	pärast	0		K	
on	ole	0		V	b
  	ole	0		V	vad
nad	tema	d		P	pl n
nälja	nälg	0		S	sg g
pärast	pära	st		S	sg el
      	pärane	t		A	sg p
      	pärast	0		D	
      	pärast	0		K	
teineteist	teine_teise	t		P	sg p
lükanud	lükka	nud		V	nud
       	lüka=nu	d		S	pl n
       	lüka=nud	0		A	
       	lüka=nud	0		A	sg n
       	lüka=nud	d		A	pl n
ja	ja	0		J	
pisut	pisut	0		D	
on	ole	0		V	b
  	ole	0		V	vad
Liisu	liisk	0		S	sg g
     	liisu	0		V	o
Anni	Ann	0		H	adt
    	Ann	0		H	sg g
    	Ann	0		H	sg p
    	and	0		S	sg g
    	Anni	0		H	sg g
    	Anni	0		H	sg n
nälja	nälg	0		S	sg g
pärast	pära	st		S	sg el
      	pärane	t		A	sg p
      	pärast	0		D	
      	pärast	0		K	
löönud	löö	nud		V	nud
      	löö=nu	d		S	pl n
      	löö=nud	0		A	
      	löö=nud	0		A	sg n
      	löö=nud	d		A	pl n
.	.			Z	
teine	teine	0		O	sg n
     	teine	0		P	sg n
kord	kord	0		D	
    	kord	0		S	sg n
tulnud	tul=nud	0		A	
      	tul=nud	0		A	sg n
      	tul=nud	d		A	pl n
      	tule	nud		V	nud
      	tulnu	d		S	pl n
Ann	Ann	0		H	sg n
Tikkunberg	####				
neile	see	le		P	pl all
     	tema	le		P	pl all
ja	ja	0		J	
öelnud	öel=nu	d		S	pl n
      	öel=nud	0		A	
      	öel=nud	0		A	sg n
      	öel=nud	d		A	pl n
      	ütle	nud		V	nud
Liisule	liisk	le		S	sg all
mis	mis	0		P	pl n
   	mis	0		P	sg n
sa	sina	0		P	sg n
minu	mina	0		P	sg g
peale	pea	le		S	sg all
     	peale	0		D	
     	peale	0		K	
oled	ole	d		V	d
valetanud	valeta	nud		V	nud
         	valeta=nu	d		S	pl n
         	valeta=nud	0		A	
         	valeta=nud	0		A	sg n
         	valeta=nud	d		A	pl n
ja	ja	0		J	
nii	nii	0		D	
et	et	0		J	
ma	mina	0		P	sg n
Tunglega	####				
hoorasin	hoora	sin		V	sin
.	.			Z	
Millal	millal	0		D	
sa	sina	0		P	sg n
minu	mina	0		P	sg g
vaht	vaht	0		S	sg n
oled	ole	d		V	d
pane	pan	e		S	pl p
    	pane	0		V	o
enesel	ise	l		P	sg ad
ka	ka	0		D	
nõnda	nõnda	0		D	
teenima	teeni	ma		V	ma
kui	kui	0		D	
   	kui	0		J	
minul	mina	l		P	sg ad
teenib	teeni	b		V	b
ma	mina	0		P	sg n
olen	ole	n		V	n
vana	vana	0		A	sg g
    	vana	0		A	sg n
    	vana	0		A	sg p
    	vana	0		S	sg g
    	vana	0		S	sg n
    	vana	0		S	sg p
ega	ega	0		D	
   	ega	0		J	
ma	mina	0		P	sg n
enam	enam	0		C	sg n
    	enam	0		D	
last	laps	t		S	sg p
    	last	0		S	sg n
ei	ei	0		D	
  	ei	0		V	neg
sa	sina	0		P	sg n
.	.			Z	
kohus	kohu	s		V	s
     	kohus	0		S	sg n
mõistis	mõist	is		V	s
,	,			Z	
et	et	0		J	
Liisu	liisk	0		S	sg g
     	liisu	0		V	o
Kant	Kant	0		H	sg n
    	kant	0		S	sg n
peab	pida	b		V	b
selle	see	0		P	sg g
     	sell	e		S	pl p
pärast	pära	st		S	sg el
      	pärane	t		A	sg p
      	pärast	0		D	
      	pärast	0		K	
1	1	0		N	?
rubl	####				
trahvi	trahv	0		S	adt
      	trahv	0		S	sg g
      	trahvi	0		V	o
      	trahv	0		S	sg p
maksma	maks	ma		V	ma
,	,			Z	
et	et	0		J	
ta	tema	0		P	sg g
  	tema	0		P	sg n
mõisa	mõis	0		S	sg g
välli	####				
palju	palju	0		D	
     	palju	0		P	sg g
     	palju	0		P	sg n
rahva	rahvas	0		S	sg g
kuuldes	kuul	des		V	des
       	kuule	s		S	sg in
,	,			Z	
nända	####				
on	ole	0		V	b
  	ole	0		V	vad
öelnud	öel=nu	d		S	pl n
      	öel=nud	0		A	
      	öel=nud	0		A	sg n
      	öel=nud	d		A	pl n
      	ütle	nud		V	nud
ja	ja	0		J	
niisusid	####				
saanud	saa	nud		V	nud
      	saa=nud	0		A	
      	saa=nud	0		A	sg n
      	saa=nud	d		A	pl n
      	saanu	d		S	pl n
suust	suu	st		S	sg el
välja	välja	0		D	
     	välja	0		V	o
     	väli	0		S	adt
     	väli	0		S	sg g
     	väli	0		S	sg p
öelnud	öel=nu	d		S	pl n
      	öel=nud	0		A	
      	öel=nud	0		A	sg n
      	öel=nud	d		A	pl n
      	ütle	nud		V	nud
ja	ja	0		J	
teistele	teine	tele		O	pl all
        	teine	tele		P	pl all
suurt	suur	t		A	sg p
riidu	riid	0		S	adt
     	riid	0		S	sg p
     	riidu	0		D	
ja	ja	0		J	
viha	viht	0		S	sg g
    	viha	0		A	sg g
    	viha	0		A	sg n
    	viha	0		A	sg p
    	viha	0		S	sg g
    	viha	0		S	sg n
    	viha	0		S	sg p
tüli	tüli	0		S	sg g
    	tüli	0		S	sg n
    	tüli	0		S	sg p
ja	ja	0		J	
pahandust	pahandus	t		S	sg p
oma	oma	0		A	sg g
   	oma	0		D	
   	oma	0		P	sg g
   	oma	0		S	sg g
   	oma	0		V	o
   	oma	0		A	sg n
   	oma	0		A	sg p
   	oma	0		P	sg n
   	oma	0		P	sg p
   	oma	0		S	sg n
   	oma	0		S	sg p
talitsema	talitse	ma		V	ma
suuga	suu	ga		S	sg kom
on	ole	0		V	b
  	ole	0		V	vad
teinud	tege	nud		V	nud
      	tei=nud	0		A	
      	tei=nud	0		A	sg n
      	tei=nud	d		A	pl n
      	teinu	d		S	pl n
.	.			Z	
ja	ja	0		J	
Ann	Ann	0		H	sg n
Tikkunberg	####				
peab	pida	b		V	b
ka	ka	0		D	
ühe	üks	0		N	sg g
   	üks	0		P	sg g
   	ühe	0		S	sg n
rubla	rubla	0		S	sg g
     	rubla	0		S	sg n
     	rubla	0		S	sg p
trahvi	trahv	0		S	adt
      	trahv	0		S	sg g
      	trahvi	0		V	o
      	trahv	0		S	sg p
valla	vald	0		S	sg g
     	valla	0		D	
laeka	laegas	0		S	adt
     	laegas	0		S	sg g
maksma	maks	ma		V	ma
et	et	0		J	
ta	tema	0		P	sg g
  	tema	0		P	sg n
Viluveres	vilu_veri	s		S	sg in
nii	nii	0		D	
habemata	####				
öelnud	öel=nu	d		S	pl n
      	öel=nud	0		A	
      	öel=nud	0		A	sg n
      	öel=nud	d		A	pl n
      	ütle	nud		V	nud
:	:			Z	
oled	ole	d		V	d
sa	sina	0		P	sg n
minu	mina	0		P	sg g
vaht	vaht	0		S	sg n
pane	pan	e		S	pl p
    	pane	0		V	o
enesel	ise	l		P	sg ad
ka	ka	0		D	
nõnda	nõnda	0		D	
teenima	teeni	ma		V	ma
kui	kui	0		D	
   	kui	0		J	
minul	mina	l		P	sg ad
teenib	teeni	b		V	b
.	.			Z	
