see	see	0		P	sg n
asi	asi	0		S	sg n
   	asi	0		V	o
mis	mis	0		P	pl n
   	mis	0		P	sg n
No	no	0		I	
.	.			Z	
23	23	0		N	?
al	####				
mõistetud	mõist	tud		V	tud
         	mõiste=tu	d		S	pl n
         	mõiste=tud	0		A	
         	mõiste=tud	0		A	sg n
         	mõiste=tud	d		A	pl n
sai	saa	i		V	s
   	sai	0		S	sg n
uuesti	uuesti	0		D	
ette	ette	0		D	
    	ette	0		K	
    	esi	tte		S	adt
võetud	võe=tu	d		S	pl n
      	võetud	0		A	
      	võetud	0		A	sg n
      	võetud	d		A	pl n
      	võt	tud		V	tud
seepärast	see_pärast	0		D	
et	et	0		J	
tüdruk	tüdruk	0		S	sg n
Mai	Mai	0		H	sg g
   	Mai	0		H	sg n
   	mai	0		S	sg g
   	mai	0		S	sg n
peegi	pee	0	gi	S	sg g
     	pee	0	gi	S	sg n
teine	teine	0		O	sg n
     	teine	0		P	sg n
laps	laps	0		S	sg n
oli	ole	i		V	s
ära	ära	0		D	
   	ära	0		V	neg o
surnud	surnu	d		S	pl n
      	surnud	0		A	
      	surnud	0		A	sg n
      	surnud	d		A	pl n
      	sure	nud		V	nud
.	.			Z	
kohus	kohu	s		V	s
     	kohus	0		S	sg n
mõistis	mõist	is		V	s
:	:			Z	
et	et	0		J	
Mai	Mai	0		H	sg g
   	Mai	0		H	sg n
   	mai	0		S	sg g
   	mai	0		S	sg n
peigil	####				
nüüd	nüüd	0		D	
üks	üks	0		N	sg n
   	üks	0		P	sg n
ainus	ainu	s		S	sg in
     	ainus	0		A	sg n
     	ainus	0		S	sg n
laps	laps	0		S	sg n
on	ole	0		V	b
  	ole	0		V	vad
,	,			Z	
ei	ei	0		D	
  	ei	0		V	neg
või	või	0		S	sg g
   	või	0		V	o
   	või	0		D	
   	või	0		J	
   	või	0		S	sg n
tema	tema	0		P	sg g
    	tema	0		P	sg n
lapse	laps	0		S	sg g
kasvatamise	kasvatamine	0		S	sg g
abi	abi	0		S	sg g
   	abi	0		S	sg n
   	abi	0		S	sg p
saada	saa	da		V	da
     	saat	0		V	o
     	saa	da		V	ta
,	,			Z	
vaid	vaid	0		D	
    	vaid	0		J	
Jüri	Jüri	0		H	sg g
    	Jüri	0		H	sg n
Vanatoa	vana_tuba	0		S	sg g
maksab	maks	b		V	b
lapse	laps	0		S	sg g
heaks	hea	ks		A	sg tr
     	hea	ks		S	sg tr
     	heaks	0		D	
     	heaks	0		K	
15	15	0		N	?
rubla	rubla	0		S	sg g
     	rubla	0		S	sg n
     	rubla	0		S	sg p
vaeste	vaene	te		A	pl g
      	vaene	te		S	pl g
laste	laps	te		S	pl g
     	last	e		S	pl p
kassasse	kassa	sse		S	sg ill
ja	ja	0		J	
6	6	0		N	?
rubla	rubla	0		S	sg g
     	rubla	0		S	sg n
     	rubla	0		S	sg p
trfi	####				
vallalaeka	valla_laegas	0		S	adt
          	valla_laegas	0		S	sg g
häbemata	häbemata	0		D	
elu	elu	0		S	sg g
   	elu	0		S	sg n
   	elu	0		S	sg p
pärast	pära	st		S	sg el
      	pärane	t		A	sg p
      	pärast	0		D	
      	pärast	0		K	
.	.			Z	
ja	ja	0		J	
Mai	Mai	0		H	sg g
   	Mai	0		H	sg n
   	mai	0		S	sg g
   	mai	0		S	sg n
Peek	####				
peab	pida	b		V	b
oma	oma	0		A	sg g
   	oma	0		D	
   	oma	0		P	sg g
   	oma	0		S	sg g
   	oma	0		V	o
   	oma	0		A	sg n
   	oma	0		A	sg p
   	oma	0		P	sg n
   	oma	0		P	sg p
   	oma	0		S	sg n
   	oma	0		S	sg p
lapse	laps	0		S	sg g
kasvatama	kasva	tama		V	tama
         	kasvata	ma		V	ma
ilma	ilm	0		S	adt
    	ilm	0		S	sg g
    	ilma	0		D	
    	ilma	0		K	
    	ilm	0		S	sg p
abita	abi	ta		S	sg ab
ja	ja	0		J	
3	3	0		N	?
päeva	päev	0		S	adt
     	päev	0		S	sg g
     	päev	0		S	sg p
vangi	vang	0		S	adt
     	vang	0		S	sg g
     	vang	0		S	sg p
puuris	puur	s		S	sg in
      	puuri	s		V	s
istuda	istu	da		V	da
häbemata	häbemata	0		D	
elu	elu	0		S	sg g
   	elu	0		S	sg n
   	elu	0		S	sg p
pärast	pära	st		S	sg el
      	pärane	t		A	sg p
      	pärast	0		D	
      	pärast	0		K	
.	.			Z	
