Uuemõisast	uue_mõis	st		S	sg el
.	.			Z	
Aabrami	Aabram	0		H	sg g
peremees	pere_mees	0		S	sg n
Johan	Johan	0		H	sg n
Jürgenson	Jürgenson	0		H	sg n
kaebab	kaeba	b		V	b
,	,			Z	
et	et	0		J	
tema	tema	0		P	sg g
    	tema	0		P	sg n
on	ole	0		V	b
  	ole	0		V	vad
Hindrek	####				
Tolmanni	tolm_and	0		S	sg g
naise	naine	0		S	sg g
Maiega	Maie	ga		H	sg kom
sigu	siga	u		A	pl p
    	siga	u		S	pl p
vahetanud	vaheta	nud		V	nud
         	vaheta=nu	d		S	pl n
         	vaheta=nud	0		A	
         	vaheta=nud	0		A	sg n
         	vaheta=nud	d		A	pl n
Jaanipäeva	jaani_päev	0		S	adt
          	jaani_päev	0		S	sg g
          	jaani_päev	0		S	sg p
ajal	aeg	l		S	sg ad
    	ajal	0		K	
ja	ja	0		J	
siga	siga	0		A	sg n
    	siga	0		A	sg p
    	siga	0		S	sg n
    	siga	0		S	sg p
on	ole	0		V	b
  	ole	0		V	vad
ikka	ikka	0		D	
    	iga	0		S	adt
ärajooksnud	ära_jooks=nu	d		S	pl n
           	ära_jooks=nud	0		A	
           	ära_jooks=nud	0		A	sg n
           	ära_jooks=nud	d		A	pl n
sellepeale	selle_peale	0		D	
on	ole	0		V	b
  	ole	0		V	vad
Mai	Mai	0		H	sg g
   	Mai	0		H	sg n
   	mai	0		S	sg g
   	mai	0		S	sg n
Tolmann	####				
selle	see	0		P	sg g
     	sell	e		S	pl p
sea	sead	0		V	o
   	siga	0		A	sg g
   	siga	0		S	sg g
jälle	jälle	0		D	
ühe	üks	0		N	sg g
   	üks	0		P	sg g
   	ühe	0		S	sg n
teisele	teine	le		O	sg all
       	teine	le		P	sg all
müünud	müü	nud		V	nud
      	müü=nu	d		S	pl n
      	müü=nud	0		A	
      	müü=nud	0		A	sg n
      	müü=nud	d		A	pl n
,	,			Z	
kui	kui	0		D	
   	kui	0		J	
Joh	####				
.	.			Z	
Jürgenson	Jürgenson	0		H	sg n
siga	siga	0		A	sg n
    	siga	0		A	sg p
    	siga	0		S	sg n
    	siga	0		S	sg p
oli	ole	i		V	s
juba	juba	0		D	
söötnud	sööt	nud		V	nud
       	sööt=nu	d		S	pl n
       	sööt=nud	0		A	
       	sööt=nud	0		A	sg n
       	sööt=nud	d		A	pl n
.	.			Z	
Mai	Mai	0		H	sg g
   	Mai	0		H	sg n
   	mai	0		S	sg g
   	mai	0		S	sg n
Tolmann	####				
vastab	vasta	b		V	b
:	:			Z	
et	et	0		J	
tema	tema	0		P	sg g
    	tema	0		P	sg n
on	ole	0		V	b
  	ole	0		V	vad
mitu	mitu	0		P	sg n
korda	kord	0		S	adt
     	korda	0		V	o
     	kord	0		S	sg p
siga	siga	0		A	sg n
    	siga	0		A	sg p
    	siga	0		S	sg n
    	siga	0		S	sg p
Aabrami	Aabram	0		H	sg g
peres	pere	s		S	sg in
ajanud	aja	nud		V	nud
      	aja=nu	d		S	pl n
      	aja=nud	0		A	
      	aja=nud	0		A	sg n
      	aja=nud	d		A	pl n
,	,			Z	
aga	aga	0		J	
se	####				
siga	siga	0		A	sg n
    	siga	0		A	sg p
    	siga	0		S	sg n
    	siga	0		S	sg p
ei	ei	0		D	
  	ei	0		V	neg
ole	ole	0		V	o
mitte	mitte	0		D	
seal	seal	0		D	
    	siga	l		A	sg ad
    	siga	l		S	sg ad
seisnud	seis	nud		V	nud
       	seis=nu	d		S	pl n
       	seis=nud	0		A	
       	seis=nud	0		A	sg n
       	seis=nud	d		A	pl n
ja	ja	0		J	
Aabrami	Aabram	0		H	sg g
pererahvas	pere_rahvas	0		S	sg n
          	pere_rahvas	s		S	sg in
ei	ei	0		D	
  	ei	0		V	neg
ole	ole	0		V	o
siga	siga	0		A	sg n
    	siga	0		A	sg p
    	siga	0		S	sg n
    	siga	0		S	sg p
mitte	mitte	0		D	
hoidnud	hoid	nud		V	nud
       	hoid=nu	d		S	pl n
       	hoid=nud	0		A	
       	hoid=nud	0		A	sg n
       	hoid=nud	d		A	pl n
,	,			Z	
se	####				
siga	siga	0		A	sg n
    	siga	0		A	sg p
    	siga	0		S	sg n
    	siga	0		S	sg p
on	ole	0		V	b
  	ole	0		V	vad
paha	pahk	0		S	sg g
    	paha	0		A	sg g
    	paha	0		A	sg n
    	paha	0		A	sg p
    	paha	0		S	sg g
    	paha	0		S	sg n
    	paha	0		S	sg p
peale	pea	le		S	sg all
     	peale	0		D	
     	peale	0		K	
läinud	läinu	d		S	pl n
      	läinud	0		A	
      	läinud	0		A	sg n
      	läinud	d		A	pl n
      	mine	nud		V	nud
ja	ja	0		J	
tema	tema	0		P	sg g
    	tema	0		P	sg n
(	(			Z	
Mai	Mai	0		H	sg g
   	Mai	0		H	sg n
   	mai	0		S	sg g
   	mai	0		S	sg n
Tolman	tolma	n		V	n
)	)			Z	
pidanud	pida	nud		V	nud
       	pida=nu	d		S	pl n
       	pida=nud	0		A	
       	pida=nud	0		A	sg n
       	pida=nud	d		A	pl n
sellepärast	selle_pärast	0		D	
mitu	mitu	0		P	sg n
korda	kord	0		S	adt
     	korda	0		V	o
     	kord	0		S	sg p
pahandust	pahandus	t		S	sg p
saama	saa	ma		V	ma
     	saam	0		S	adt
     	saam	0		S	sg g
     	saam	0		S	sg p
,	,			Z	
ja	ja	0		J	
se	####				
siga	siga	0		A	sg n
    	siga	0		A	sg p
    	siga	0		S	sg n
    	siga	0		S	sg p
kelle	kes	0		P	pl g
     	kes	0		P	sg g
vastu	vastu	0		D	
     	vastu	0		K	
tema	tema	0		P	sg g
    	tema	0		P	sg n
on	ole	0		V	b
  	ole	0		V	vad
vahetanud	vaheta	nud		V	nud
         	vaheta=nu	d		S	pl n
         	vaheta=nud	0		A	
         	vaheta=nud	0		A	sg n
         	vaheta=nud	d		A	pl n
on	ole	0		V	b
  	ole	0		V	vad
ka	ka	0		D	
Aabrami	Aabram	0		H	sg g
peress	####				
olnud	ol=nud	0		A	
     	ol=nud	0		A	sg n
     	ol=nud	d		A	pl n
     	ole	nud		V	nud
     	olnu	d		S	pl n
ja	ja	0		J	
ei	ei	0		D	
  	ei	0		V	neg
ole	ole	0		V	o
mitte	mitte	0		D	
sealt	sealt	0		D	
     	siga	lt		A	sg abl
     	siga	lt		S	sg abl
ära	ära	0		D	
   	ära	0		V	neg o
toonud	too	nud		V	nud
      	too=nu	d		S	pl n
      	too=nud	0		A	
      	too=nud	0		A	sg n
      	too=nud	d		A	pl n
,	,			Z	
siis	siis	0		D	
    	siis	0		J	
on	ole	0		V	b
  	ole	0		V	vad
tema	tema	0		P	sg g
    	tema	0		P	sg n
oma	oma	0		A	sg g
   	oma	0		D	
   	oma	0		P	sg g
   	oma	0		S	sg g
   	oma	0		V	o
   	oma	0		A	sg n
   	oma	0		A	sg p
   	oma	0		P	sg n
   	oma	0		P	sg p
   	oma	0		S	sg n
   	oma	0		S	sg p
sea	sead	0		V	o
   	siga	0		A	sg g
   	siga	0		S	sg g
kaugemale	kaugem	le		C	sg all
         	kaugemale	0		D	
jälle	jälle	0		D	
äramüünud	ära_müü=nu	d		S	pl n
         	ära_müü=nud	0		A	
         	ära_müü=nud	0		A	sg n
         	ära_müü=nud	d		A	pl n
.	.			Z	
kohus	kohu	s		V	s
     	kohus	0		S	sg n
mõistab	mõist	b		V	b
:	:			Z	
et	et	0		J	
Joh	####				
.	.			Z	
Jürgenson	Jürgenson	0		H	sg n
mitte	mitte	0		D	
ei	ei	0		D	
  	ei	0		V	neg
siga	siga	0		A	sg n
    	siga	0		A	sg p
    	siga	0		S	sg n
    	siga	0		S	sg p
sealt	sealt	0		D	
     	siga	lt		A	sg abl
     	siga	lt		S	sg abl
äratoonud	ära_too=nu	d		S	pl n
         	ära_too=nud	0		A	
         	ära_too=nud	0		A	sg n
         	ära_too=nud	d		A	pl n
ja	ja	0		J	
oma	oma	0		A	sg g
   	oma	0		D	
   	oma	0		P	sg g
   	oma	0		S	sg g
   	oma	0		V	o
   	oma	0		A	sg n
   	oma	0		A	sg p
   	oma	0		P	sg n
   	oma	0		P	sg p
   	oma	0		S	sg n
   	oma	0		S	sg p
siga	siga	0		A	sg n
    	siga	0		A	sg p
    	siga	0		S	sg n
    	siga	0		S	sg p
sinna	sinna	0		D	
viinud	vii	nud		V	nud
      	vii=nu	d		S	pl n
      	vii=nud	0		A	
      	vii=nud	0		A	sg n
      	vii=nud	d		A	pl n
,	,			Z	
sellepärast	selle_pärast	0		D	
peavad	pida	vad		V	vad
igaüks	iga_üks	0		P	sg n
oma	oma	0		A	sg g
   	oma	0		D	
   	oma	0		P	sg g
   	oma	0		S	sg g
   	oma	0		V	o
   	oma	0		A	sg n
   	oma	0		A	sg p
   	oma	0		P	sg n
   	oma	0		P	sg p
   	oma	0		S	sg n
   	oma	0		S	sg p
siga	siga	0		A	sg n
    	siga	0		A	sg p
    	siga	0		S	sg n
    	siga	0		S	sg p
pidama	pida	ma		V	ma
,	,			Z	
ja	ja	0		J	
ei	ei	0		D	
  	ei	0		V	neg
ole	ole	0		V	o
vahetamisest	vahetamine	st		S	sg el
ühtigi	ühtigi	0		D	
lugu	lugu	0		S	sg n
    	lugu	0		S	sg p
pidada	pida	da		V	da
.	.			Z	
peakohtumees	pea_kohtu_mees	0		S	sg n
XXX	XXX	0		O	?
   	XXX	0		Y	?
Hans	Hans	0		H	sg n
Sepper	####				
kõrvamehed	kõrva_mees	d		S	pl n
XXX	XXX	0		O	?
   	XXX	0		Y	?
Jüri	Jüri	0		H	sg g
    	Jüri	0		H	sg n
Jürgenson	Jürgenson	0		H	sg n
""""	""""			Z	
XXX	XXX	0		O	?
   	XXX	0		Y	?
Jaan	Jaan	0		H	sg n
    	jaan	0		S	sg n
    	jaan	0		Y	?
Rosenbaum	####				
kohtu	kohtu	0		V	o
     	kohus	0		S	sg g
kirjutaja	kirjutaja	0		S	sg g
         	kirjutaja	0		S	sg n
Friedrich	Friedrich	0		H	sg n
Schotter	####				
.	.			Z	
