Kochi	####				
härra	härra	0		S	sg g
     	härra	0		S	sg n
koojamees	####				
Juhan	Juhan	0		H	sg n
mõls	####				
tuli	tuli	0		S	sg n
    	tule	i		V	s
kohtu	kohtu	0		V	o
     	kohus	0		S	sg g
ette	ette	0		D	
    	ette	0		K	
    	esi	tte		S	adt
ja	ja	0		J	
kaebas	kaeba	s		V	s
Jerwe	####				
küla	küla	0		S	sg g
    	küla	0		S	sg n
    	küla	0		S	sg p
peremeeste	pere_mees	te		S	pl g
:	:			Z	
Kristjaan	####				
Jervan'i	####				
,	,			Z	
magnus	####				
Jervani	####				
ja	ja	0		J	
Juhan	Juhan	0		H	sg n
Jervani	####				
peale	pea	le		S	sg all
     	peale	0		D	
     	peale	0		K	
nõnda	nõnda	0		D	
:	:			Z	
Miinule	####				
ei	ei	0		D	
  	ei	0		V	neg
olnud	ol=nud	0		A	
     	ol=nud	0		A	sg n
     	ol=nud	d		A	pl n
     	ole	nud		V	nud
     	olnu	d		S	pl n
saste	####				
teenistuse	teenistus	0		S	sg g
pärast	pära	st		S	sg el
      	pärane	t		A	sg p
      	pärast	0		D	
      	pärast	0		K	
mitte	mitte	0		D	
võimalik	võimalik	0		A	sg n
kõik	kõik	0		P	pl n
    	kõik	0		S	sg n
    	kõik	0		P	sg n
heinamaad	heina_maa	d		S	pl n
         	heina_maa	d		S	sg p
ühes	üks	s		N	sg in
    	üks	s		P	sg in
    	ühes	0		D	
    	ühes	0		K	
järges	####				
ära	ära	0		D	
   	ära	0		V	neg o
teha	tege	a		V	da
.	.			Z	
arvata	arva	ta		V	da
      	arva	ta		V	ta
      	arvata	0		D	
vakamaa	vaka_maa	0		S	sg g
       	vaka_maa	0		S	sg n
jäi	jää	i		V	s
tegemata	tege	mata		V	mata
        	tegemata	0		A	
ja	ja	0		J	
see	see	0		P	sg n
oli	ole	i		V	s
mägi	mägi	0		S	sg n
heinamaa	heina_maa	0		S	sg g
        	heina_maa	0		S	sg n
.	.			Z	
pärast	pära	st		S	sg el
      	pärane	t		A	sg p
      	pärast	0		D	
      	pärast	0		K	
kui	kui	0		D	
   	kui	0		J	
aega	aeg	0		S	adt
    	aeg	0		S	sg p
    	aega	0		K	
sain	saa	in		V	sin
ja	ja	0		J	
tegema	tege	ma		V	ma
läksin	mine	sin		V	sin
,	,			Z	
leidsin	leid	sin		V	sin
,	,			Z	
et	et	0		J	
Jerwe	####				
küla	küla	0		S	sg g
    	küla	0		S	sg n
    	küla	0		S	sg p
loomad	loom	d		S	pl n
olid	ole	id		V	sid
kõik	kõik	0		P	pl n
    	kõik	0		S	sg n
    	kõik	0		P	sg n
rohu	rohi	0		S	sg g
ära	ära	0		D	
   	ära	0		V	neg o
söönud	söö	nud		V	nud
      	söönu	d		S	pl n
      	söönud	0		A	
      	söönud	0		A	sg n
      	söönud	d		A	pl n
ja	ja	0		J	
talunud	talu	nud		V	nud
       	talu=nu	d		S	pl n
       	talu=nud	0		A	
       	talu=nud	0		A	sg n
       	talu=nud	d		A	pl n
,	,			Z	
et	et	0		J	
enam	enam	0		C	sg n
    	enam	0		D	
midagi	miski	dagi		P	sg p
teha	tege	a		V	da
ei	ei	0		D	
  	ei	0		V	neg
olnud	ol=nud	0		A	
     	ol=nud	0		A	sg n
     	ol=nud	d		A	pl n
     	ole	nud		V	nud
     	olnu	d		S	pl n
.	.			Z	
arvan	arva	n		V	n
et	et	0		J	
30	30	0		N	?
puud	puu	d		S	pl n
    	puud	0		S	sg n
    	puu	d		S	sg p
.	.			Z	
heina	hein	0		S	adt
     	hein	0		S	sg g
     	hein	0		S	sg p
olen	ole	n		V	n
kahju	kahi	0		S	adt
     	kahi	0		S	sg g
     	kahi	0		S	sg p
     	kahju	0		S	sg g
     	kahju	0		S	sg n
     	kahju	0		S	sg p
saanud	saa	nud		V	nud
      	saa=nud	0		A	
      	saa=nud	0		A	sg n
      	saa=nud	d		A	pl n
      	saanu	d		S	pl n
,	,			Z	
ja	ja	0		J	
kui	kui	0		D	
   	kui	0		J	
ma	mina	0		P	sg n
seda	see	da		P	sg p
neile	see	le		P	pl all
     	tema	le		P	pl all
rääkisin	rääki	sin		V	sin
ja	ja	0		J	
kahjutasumist	kahju_tasumine	t		S	sg p
nõudsin	nõud	sin		V	sin
,	,			Z	
siis	siis	0		D	
    	siis	0		J	
ei	ei	0		D	
  	ei	0		V	neg
lubanud	luba	nud		V	nud
       	luba=nu	d		S	pl n
       	luba=nud	0		A	
       	luba=nud	0		A	sg n
       	luba=nud	d		A	pl n
nemad	tema	d		P	pl n
mitte	mitte	0		D	
maksta	maks	ta		V	da
      	maks	ta		V	ta
.	.			Z	
Miinul	####				
on	ole	0		V	b
  	ole	0		V	vad
kallis	kallis	0		A	sg n
      	kallis	s		A	sg in
      	kalli	s		S	sg in
rent	rent	0		S	sg n
ja	ja	0		J	
ma	mina	0		P	sg n
ei	ei	0		D	
  	ei	0		V	neg
või	või	0		S	sg g
   	või	0		V	o
   	või	0		D	
   	või	0		J	
   	või	0		S	sg n
seda	see	da		P	sg p
neile	see	le		P	pl all
     	tema	le		P	pl all
mitte	mitte	0		D	
kinkida	kinki	da		V	da
.	.			Z	
talitaja	talitaja	0		S	sg g
        	talitaja	0		S	sg n
abimees	abi_mees	0		S	sg n
vaatas	vaata	s		V	s
seda	see	da		P	sg p
kahju	kahi	0		S	adt
     	kahi	0		S	sg g
     	kahi	0		S	sg p
     	kahju	0		S	sg g
     	kahju	0		S	sg n
     	kahju	0		S	sg p
üle	üle	0		D	
   	üle	0		K	
.	.			Z	
2.	2.	0		O	?
Jerweküla	####				
peremehed	pere_mees	d		S	pl n
:	:			Z	
Kristjaan	####				
Jervan	####				
,	,			Z	
magnus	####				
Jervan	####				
ja	ja	0		J	
Juhan	Juhan	0		H	sg n
Jervan	####				
vastasid	vasta	sid		V	sid
Juhan	Juhan	0		H	sg n
mõn'i	####				
kaebtuse	####				
peale	pea	le		S	sg all
     	peale	0		D	
     	peale	0		K	
nõnda	nõnda	0		D	
:	:			Z	
ega	ega	0		D	
   	ega	0		J	
meie	mina	0		P	pl g
    	mina	0		P	pl n
loomad	loom	d		S	pl n
üksi	üksi	0		D	
põle	põle	0		V	o
söönud	söö	nud		V	nud
      	söönu	d		S	pl n
      	söönud	0		A	
      	söönud	0		A	sg n
      	söönud	d		A	pl n
.	.			Z	
seal	seal	0		D	
    	siga	l		A	sg ad
    	siga	l		S	sg ad
on	ole	0		V	b
  	ole	0		V	vad
teised	teine	d		O	pl n
      	teine	d		P	pl n
loomad	loom	d		S	pl n
peale	pea	le		S	sg all
     	peale	0		D	
     	peale	0		K	
meie	mina	0		P	pl g
    	mina	0		P	pl n
loomade	loom	de		S	pl g
ka	ka	0		D	
käinud	käi	nud		V	nud
      	käi=nud	0		A	
      	käi=nud	0		A	sg n
      	käi=nud	d		A	pl n
      	käinu	d		S	pl n
.	.			Z	
meie	mina	0		P	pl g
    	mina	0		P	pl n
heinamaad	heina_maa	d		S	pl n
         	heina_maa	d		S	sg p
on	ole	0		V	b
  	ole	0		V	vad
ka	ka	0		D	
ära	ära	0		D	
   	ära	0		V	neg o
söödud	söö	dud		V	tud
      	söödu	d		S	pl n
      	söödud	0		A	
      	söödud	0		A	sg n
      	söödud	d		A	pl n
      	sööt	d		S	pl n
,	,			Z	
kes	kes	0		P	pl n
   	kes	0		P	sg n
seda	see	da		P	sg p
meile	meil	e		S	pl p
     	mina	le		P	pl all
maksab	maks	b		V	b
ja	ja	0		J	
mis	mis	0		P	pl n
   	mis	0		P	sg n
tohtu	toht	0		S	adt
     	toht	0		S	sg p
seal	seal	0		D	
    	siga	l		A	sg ad
    	siga	l		S	sg ad
peal	pea	l		S	sg ad
    	peal	0		D	
    	peal	0		K	
oli	ole	i		V	s
,	,			Z	
ta	tema	0		P	sg g
  	tema	0		P	sg n
oli	ole	i		V	s
üsna	üsna	0		D	
paljas	paljas	0		A	sg n
      	paljas	s		A	sg in
.	.			Z	
mis	mis	0		P	pl n
   	mis	0		P	sg n
kahju	kahi	0		S	adt
     	kahi	0		S	sg g
     	kahi	0		S	sg p
     	kahju	0		S	sg g
     	kahju	0		S	sg n
     	kahju	0		S	sg p
tasumist	tasumine	t		S	sg p
sealt	sealt	0		D	
     	siga	lt		A	sg abl
     	siga	lt		S	sg abl
võib	või	b		V	b
nõuda	nõud	a		V	da
.	.			Z	
meie	mina	0		P	pl g
    	mina	0		P	pl n
ei	ei	0		D	
  	ei	0		V	neg
maksa	maks	0		S	adt
     	maks	0		S	sg g
     	maks	0		V	o
     	maks	0		S	sg p
.	.			Z	
talitaja	talitaja	0		S	sg g
        	talitaja	0		S	sg n
abimees	abi_mees	0		S	sg n
Otto	Otto	0		H	sg g
    	Otto	0		H	sg n
Kramann	####				
tunnistas	tunnista	s		V	s
Juhan	Juhan	0		H	sg n
mõls	####				
kutsus	kutsu	s		V	s
      	kutsu	s		S	sg in
mind	mina	d		P	sg p
oma	oma	0		A	sg g
   	oma	0		D	
   	oma	0		P	sg g
   	oma	0		S	sg g
   	oma	0		V	o
   	oma	0		A	sg n
   	oma	0		A	sg p
   	oma	0		P	sg n
   	oma	0		P	sg p
   	oma	0		S	sg n
   	oma	0		S	sg p
kahju	kahi	0		S	adt
     	kahi	0		S	sg g
     	kahi	0		S	sg p
     	kahju	0		S	sg g
     	kahju	0		S	sg n
     	kahju	0		S	sg p
vaatama	vaata	ma		V	ma
ja	ja	0		J	
ma	mina	0		P	sg n
arvan	arva	n		V	n
,	,			Z	
et	et	0		J	
10	10	0		N	?
puuda	puud	0		S	adt
     	puud	0		S	sg g
     	puud	0		S	sg p
heina	hein	0		S	adt
     	hein	0		S	sg g
     	hein	0		S	sg p
oleks	ole	ks		V	ks
sealt	sealt	0		D	
     	siga	lt		A	sg abl
     	siga	lt		S	sg abl
saanud	saa	nud		V	nud
      	saa=nud	0		A	
      	saa=nud	0		A	sg n
      	saa=nud	d		A	pl n
      	saanu	d		S	pl n
,	,			Z	
kui	kui	0		D	
   	kui	0		J	
selle	see	0		P	sg g
     	sell	e		S	pl p
tervelt	tervelt	0		D	
       	terve	lt		A	sg abl
       	terve	lt		S	sg abl
oleks	ole	ks		V	ks
kätte	kätte	0		K	
     	käsi	tte		S	adt
saanud	saa	nud		V	nud
      	saa=nud	0		A	
      	saa=nud	0		A	sg n
      	saa=nud	d		A	pl n
      	saanu	d		S	pl n
,	,			Z	
mis	mis	0		P	pl n
   	mis	0		P	sg n
loomad	loom	d		S	pl n
olid	ole	id		V	sid
ära	ära	0		D	
   	ära	0		V	neg o
söönud	söö	nud		V	nud
      	söönu	d		S	pl n
      	söönud	0		A	
      	söönud	0		A	sg n
      	söönud	d		A	pl n
;	;			Z	
aga	aga	0		J	
et	et	0		J	
nad	tema	d		P	pl n
seal	seal	0		D	
    	siga	l		A	sg ad
    	siga	l		S	sg ad
vaidlema	vaidle	ma		V	ma
läksid	mine	sid		V	sid
,	,			Z	
ega	ega	0		D	
   	ega	0		J	
lepitust	lepitus	t		S	sg p
ei	ei	0		D	
  	ei	0		V	neg
olnud	ol=nud	0		A	
     	ol=nud	0		A	sg n
     	ol=nud	d		A	pl n
     	ole	nud		V	nud
     	olnu	d		S	pl n
,	,			Z	
siis	siis	0		D	
    	siis	0		J	
ei	ei	0		D	
  	ei	0		V	neg
mõistnud	mõist	nud		V	nud
        	mõist=nu	d		S	pl n
        	mõist=nud	0		A	
        	mõist=nud	0		A	sg n
        	mõist=nud	d		A	pl n
ma	mina	0		P	sg n
mitte	mitte	0		D	
midagi	miski	dagi		P	sg p
.	.			Z	
kohus	kohu	s		V	s
     	kohus	0		S	sg n
mõistis	mõist	is		V	s
:	:			Z	
talitaja	talitaja	0		S	sg g
        	talitaja	0		S	sg n
abimehe	abi_mees	0		S	sg g
Otto	Otto	0		H	sg g
    	Otto	0		H	sg n
Kramann'i	####				
arvamise	arvamine	0		S	sg g
peale	pea	le		S	sg all
     	peale	0		D	
     	peale	0		K	
,	,			Z	
et	et	0		J	
Juhan	Juhan	0		H	sg n
mõls	####				
10	10	0		N	?
puuda	puud	0		S	adt
     	puud	0		S	sg g
     	puud	0		S	sg p
heinas	hein	s		S	sg in
on	ole	0		V	b
  	ole	0		V	vad
kahju	kahi	0		S	adt
     	kahi	0		S	sg g
     	kahi	0		S	sg p
     	kahju	0		S	sg g
     	kahju	0		S	sg n
     	kahju	0		S	sg p
saanud	saa	nud		V	nud
      	saa=nud	0		A	
      	saa=nud	0		A	sg n
      	saa=nud	d		A	pl n
      	saanu	d		S	pl n
,	,			Z	
peavad	pida	vad		V	vad
Jerwe	####				
küla	küla	0		S	sg g
    	küla	0		S	sg n
    	küla	0		S	sg p
peremehed	pere_mees	d		S	pl n
,	,			Z	
kelle	kes	0		P	pl g
     	kes	0		P	sg g
loomad	loom	d		S	pl n
seda	see	da		P	sg p
on	ole	0		V	b
  	ole	0		V	vad
teinud	tege	nud		V	nud
      	tei=nud	0		A	
      	tei=nud	0		A	sg n
      	tei=nud	d		A	pl n
      	teinu	d		S	pl n
,	,			Z	
üheskoos	ühes_koos	0		D	
selle	see	0		P	sg g
     	sell	e		S	pl p
kahju	kahi	0		S	adt
     	kahi	0		S	sg g
     	kahi	0		S	sg p
     	kahju	0		S	sg g
     	kahju	0		S	sg n
     	kahju	0		S	sg p
praeguse	praegune	0		A	sg g
heina	hein	0		S	adt
     	hein	0		S	sg g
     	hein	0		S	sg p
hinna	hind	0		S	sg g
järel	järel	0		D	
     	järel	0		K	
a	a	0		Y	?
'	’			Z	
,	,			Z	
50	50	0		N	?
kop	kop	0		Y	?
puud	puu	d		S	pl n
    	puud	0		S	sg n
    	puu	d		S	sg p
,	,			Z	
see	see	0		P	sg n
on	ole	0		V	b
  	ole	0		V	vad
5	5	0		N	?
rubla	rubla	0		S	sg g
     	rubla	0		S	sg n
     	rubla	0		S	sg p
Juhan	Juhan	0		H	sg n
mõn'ile	####				
ära	ära	0		D	
   	ära	0		V	neg o
tasuma	tasu	ma		V	ma
.	.			Z	
see	see	0		P	sg n
peab	pida	b		V	b
mihklipäevaks	mihkli_päev	ks		S	sg tr
makstud	maks	tud		V	tud
       	maks=tu	d		S	pl n
       	maks=tud	0		A	
       	maks=tud	0		A	sg n
       	maks=tud	d		A	pl n
olema	ole	ma		V	ma
.	.			Z	
lõpetatud	lõpeta	tud		V	tud
         	lõpeta=tu	d		S	pl n
         	lõpetatud	0		A	
         	lõpetatud	0		A	sg n
         	lõpetatud	d		A	pl n
.	.			Z	
