kohtu	kohtu	0		V	o
     	kohus	0		S	sg g
korra	kord	0		S	sg g
pärast	pära	st		S	sg el
      	pärane	t		A	sg p
      	pärast	0		D	
      	pärast	0		K	
olid	ole	id		V	sid
Kaiu	Kaiu	0		H	sg g
    	Kaiu	0		H	sg n
valla	vald	0		S	sg g
     	valla	0		D	
kohtusse	kohtune	se		A	adt
        	kohus	sse		S	sg ill
valla	vald	0		S	sg g
     	valla	0		D	
hoonesse	hoone	sse		S	sg ill
kokku	kokku	0		D	
     	kogu	0		S	adt
tulnud	tul=nud	0		A	
      	tul=nud	0		A	sg n
      	tul=nud	d		A	pl n
      	tule	nud		V	nud
      	tulnu	d		S	pl n
:	:			Z	
kohtu	kohtu	0		V	o
     	kohus	0		S	sg g
vanem	vanem	0		C	sg n
     	vanem	0		S	sg n
Jüri	Jüri	0		H	sg g
    	Jüri	0		H	sg n
Pärn	pärn	0		S	sg n
kohtu	kohtu	0		V	o
     	kohus	0		S	sg g
kõrvamees	kõrva_mees	0		S	sg n
Hans	Hans	0		H	sg n
Luige	luik	0		S	sg g
kohtu	kohtu	0		V	o
     	kohus	0		S	sg g
kõrvamees	kõrva_mees	0		S	sg n
Tõnu	Tõnu	0		H	sg g
    	Tõnu	0		H	sg n
Kütsen	####				
kirjutaja	kirjutaja	0		S	sg g
         	kirjutaja	0		S	sg n
Kaarel	Kaarel	0		H	sg n
      	kaar	l		S	sg ad
      	kaarel	0		S	sg n
Kaasik	kaasik	0		S	sg n
Tulid	tule	id		V	sid
kohtu	kohtu	0		V	o
     	kohus	0		S	sg g
ette	ette	0		D	
    	ette	0		K	
    	esi	tte		S	adt
Tooma	Toomas	0		H	sg g
     	too	ma		V	ma
küla	küla	0		S	sg g
    	küla	0		S	sg n
    	küla	0		S	sg p
peremehed	pere_mees	d		S	pl n
Mats	Mats	0		H	sg n
    	mats	0		A	sg n
    	mats	0		S	sg n
Leng	leng	0		S	sg n
Mats	Mats	0		H	sg n
    	mats	0		A	sg n
    	mats	0		S	sg n
Leinberg	####				
Tõnu	Tõnu	0		H	sg g
    	Tõnu	0		H	sg n
Rose	####				
,	,			Z	
ja	ja	0		J	
kaebasid	kaeba	sid		V	sid
;	;			Z	
Arostma	####				
Jüri	Jüri	0		H	sg g
    	Jüri	0		H	sg n
Kantre	####				
veised	veis	d		S	pl n
on	ole	0		V	b
  	ole	0		V	vad
meie	mina	0		P	pl g
    	mina	0		P	pl n
heinamaad	heina_maa	d		S	pl n
         	heina_maa	d		S	sg p
ära	ära	0		D	
   	ära	0		V	neg o
söönud	söö	nud		V	nud
      	söönu	d		S	pl n
      	söönud	0		A	
      	söönud	0		A	sg n
      	söönud	d		A	pl n
,	,			Z	
heina	hein	0		S	adt
     	hein	0		S	sg g
     	hein	0		S	sg p
aeg	aeg	0		S	sg n
iga	iga	0		P	sg g
   	iga	0		P	sg n
   	iga	0		P	sg p
   	iga	0		S	sg n
   	iga	0		S	sg p
kord	kord	0		D	
    	kord	0		S	sg n
kui	kui	0		D	
   	kui	0		J	
meie	mina	0		P	pl g
    	mina	0		P	pl n
heinamid	####				
vaatama	vaata	ma		V	ma
läksime	mine	sime		V	sime
,	,			Z	
leidsime	leid	sime		V	sime
tema	tema	0		P	sg g
    	tema	0		P	sg n
veised	veis	d		S	pl n
heinamast	heina_mast	0		S	sg n
,	,			Z	
ja	ja	0		J	
ka	ka	0		D	
peale	pea	le		S	sg all
     	peale	0		D	
     	peale	0		K	
selle	see	0		P	sg g
     	sell	e		S	pl p
kui	kui	0		D	
   	kui	0		J	
heinamaad	heina_maa	d		S	pl n
         	heina_maa	d		S	sg p
tehtud	tehtu	d		S	pl n
      	tehtud	0		A	
      	tehtud	0		A	sg n
      	tehtud	d		A	pl n
      	tege	tud		V	tud
olid	ole	id		V	sid
,	,			Z	
siis	siis	0		D	
    	siis	0		J	
sõkkud	####				
tema	tema	0		P	sg g
    	tema	0		P	sg n
veised	veis	d		S	pl n
meie	mina	0		P	pl g
    	mina	0		P	pl n
tümad	tüma	d		A	pl n
     	tüma	d		V	d
heinamaad	heina_maa	d		S	pl n
         	heina_maa	d		S	sg p
kõik	kõik	0		P	pl n
    	kõik	0		S	sg n
    	kõik	0		P	sg n
ära	ära	0		D	
   	ära	0		V	neg o
.	.			Z	
sai	saa	i		V	s
   	sai	0		S	sg n
küll	küll	0		D	
    	küll	0		S	sg n
temale	tema	le		P	sg all
üteldud	ütle	dud		V	tud
       	ütel=du	d		S	pl n
       	ütel=dud	0		A	
       	ütel=dud	0		A	sg n
       	ütel=dud	d		A	pl n
;	;			Z	
aga	aga	0		J	
siiski	siiski	0		D	
tema	tema	0		P	sg g
    	tema	0		P	sg n
ei	ei	0		D	
  	ei	0		V	neg
hoidnud	hoid	nud		V	nud
       	hoid=nu	d		S	pl n
       	hoid=nud	0		A	
       	hoid=nud	0		A	sg n
       	hoid=nud	d		A	pl n
mitte	mitte	0		D	
omad	oma	d		A	pl n
    	oma	d		P	pl n
    	oma	d		S	pl n
    	oma	d		V	d
veised	veis	d		S	pl n
kurja	kuri	0		A	adt
     	kuri	0		A	sg g
     	kuri	0		S	adt
     	kuri	0		S	sg g
     	kuri	0		A	sg p
     	kuri	0		S	sg p
tegemast	tege	mast		V	mast
.	.			Z	
sai	saa	i		V	s
   	sai	0		S	sg n
koha	koht	0		S	sg g
    	koha	0		S	sg g
    	koha	0		V	o
    	koha	0		S	sg n
    	koha	0		S	sg p
ette	ette	0		D	
    	ette	0		K	
    	esi	tte		S	adt
kutsutud	kutsu	tud		V	tud
        	kutsutu	d		S	pl n
        	kutsutud	0		A	
        	kutsutud	0		A	sg n
        	kutsutud	d		A	pl n
Arustmäe	####				
Jüri	Jüri	0		H	sg g
    	Jüri	0		H	sg n
Kanter	kanter	0		S	sg n
,	,			Z	
kohus	kohu	s		V	s
     	kohus	0		S	sg n
küsis	küsi	s		V	s
kõik	kõik	0		P	pl n
    	kõik	0		S	sg n
    	kõik	0		P	sg n
seda	see	da		P	sg p
nimetatud	nimeta	tud		V	tud
         	nimetatu	d		S	pl n
         	nimetatud	0		A	
         	nimetatud	0		A	sg n
         	nimetatud	d		A	pl n
kaebtust	####				
tema	tema	0		P	sg g
    	tema	0		P	sg n
käest	käest	0		K	
     	käsi	st		S	sg el
järel	järel	0		D	
     	järel	0		K	
Jüri	Jüri	0		H	sg g
    	Jüri	0		H	sg n
Kanter	kanter	0		S	sg n
ütles	ütle	s		V	s
:	:			Z	
minu	mina	0		P	sg g
veised	veis	d		S	pl n
ei	ei	0		D	
  	ei	0		V	neg
ole	ole	0		V	o
ni	####				
palju	palju	0		D	
     	palju	0		P	sg g
     	palju	0		P	sg n
mitte	mitte	0		D	
kurja	kuri	0		A	adt
     	kuri	0		A	sg g
     	kuri	0		S	adt
     	kuri	0		S	sg g
     	kuri	0		A	sg p
     	kuri	0		S	sg p
teinud	tege	nud		V	nud
      	tei=nud	0		A	
      	tei=nud	0		A	sg n
      	tei=nud	d		A	pl n
      	teinu	d		S	pl n
,	,			Z	
kui	kui	0		D	
   	kui	0		J	
teile	sina	le		P	pl all
     	tee	ile		S	pl all
kaebatud	####				
on	ole	0		V	b
  	ole	0		V	vad
,	,			Z	
minu	mina	0		P	sg g
veised	veis	d		S	pl n
on	ole	0		V	b
  	ole	0		V	vad
küll	küll	0		D	
    	küll	0		S	sg n
mõne	mõni	0		P	sg g
korra	kord	0		S	sg g
nende	see	de		P	pl g
     	tema	de		P	pl g
heinamas	####				
käinud	käi	nud		V	nud
      	käi=nud	0		A	
      	käi=nud	0		A	sg n
      	käi=nud	d		A	pl n
      	käinu	d		S	pl n
,	,			Z	
seda	see	da		P	sg p
mina	mina	0		P	sg n
    	mina	0		S	sg g
    	mina	0		S	sg n
    	mina	0		S	sg p
vastu	vastu	0		D	
     	vastu	0		K	
ei	ei	0		D	
  	ei	0		V	neg
aja	aeg	0		S	sg g
   	aja	0		V	o
,	,			Z	
se	####				
kuri	kuri	0		A	sg n
    	kuri	0		S	sg n
küll	küll	0		D	
    	küll	0		S	sg n
vist	vist	0		S	sg n
    	vist	0		D	
ni	####				
suur	suur	0		A	sg n
ei	ei	0		D	
  	ei	0		V	neg
ole	ole	0		V	o
,	,			Z	
kui	kui	0		D	
   	kui	0		J	
kaebatud	####				
on	ole	0		V	b
  	ole	0		V	vad
.	.			Z	
siis	siis	0		D	
    	siis	0		J	
mõistis	mõist	is		V	s
kohus	kohu	s		V	s
     	kohus	0		S	sg n
sinna	sinna	0		D	
maksad	maks	d		S	pl n
      	maks	d		V	d
3	3	0		N	?
rubla	rubla	0		S	sg g
     	rubla	0		S	sg n
     	rubla	0		S	sg p
trahvi	trahv	0		S	adt
      	trahv	0		S	sg g
      	trahvi	0		V	o
      	trahv	0		S	sg p
valla	vald	0		S	sg g
     	valla	0		D	
laekasse	laegas	sse		S	sg ill
,	,			Z	
et	et	0		J	
sinna	sinna	0		D	
nõnda	nõnda	0		D	
hooletu	hooletu	0		A	sg g
       	hooletu	0		A	sg n
oled	ole	d		V	d
olnud	ol=nud	0		A	
     	ol=nud	0		A	sg n
     	ol=nud	d		A	pl n
     	ole	nud		V	nud
     	olnu	d		S	pl n
ja	ja	0		J	
oma	oma	0		A	sg g
   	oma	0		D	
   	oma	0		P	sg g
   	oma	0		S	sg g
   	oma	0		V	o
   	oma	0		A	sg n
   	oma	0		A	sg p
   	oma	0		P	sg n
   	oma	0		P	sg p
   	oma	0		S	sg n
   	oma	0		S	sg p
veised	veis	d		S	pl n
ei	ei	0		D	
  	ei	0		V	neg
ole	ole	0		V	o
hoidnud	hoid	nud		V	nud
       	hoid=nu	d		S	pl n
       	hoid=nud	0		A	
       	hoid=nud	0		A	sg n
       	hoid=nud	d		A	pl n
.	.			Z	
kohtu	kohtu	0		V	o
     	kohus	0		S	sg g
vanem	vanem	0		C	sg n
     	vanem	0		S	sg n
Jüri	Jüri	0		H	sg g
    	Jüri	0		H	sg n
Pärn	pärn	0		S	sg n
kohtu	kohtu	0		V	o
     	kohus	0		S	sg g
kõrvamees	kõrva_mees	0		S	sg n
Hans	Hans	0		H	sg n
Luige	luik	0		S	sg g
kohtu	kohtu	0		V	o
     	kohus	0		S	sg g
kõrvamees	kõrva_mees	0		S	sg n
Tõnu	Tõnu	0		H	sg g
    	Tõnu	0		H	sg n
Kütsen	####				
kirjutaja	kirjutaja	0		S	sg g
         	kirjutaja	0		S	sg n
Kaarel	Kaarel	0		H	sg n
      	kaar	l		S	sg ad
      	kaarel	0		S	sg n
Kaasik	kaasik	0		S	sg n
(	(			Z	
mõistetud	mõist	tud		V	tud
         	mõiste=tu	d		S	pl n
         	mõiste=tud	0		A	
         	mõiste=tud	0		A	sg n
         	mõiste=tud	d		A	pl n
ja	ja	0		J	
mõistus	mõistus	0		S	sg n
taidetud	taide=tu	d		A	pl n
se	####				
13ndal	13=s	l		O	sg ad
Oktoobri	oktoober	0		S	sg g
kuu	kuu	0		S	sg g
   	kuu	0		S	sg n
päeval	päev	l		S	sg ad
1873.	1873.	0		O	?
)	)			Z	
