kohtu	kohtu	0		V	o
     	kohus	0		S	sg g
ette	ette	0		D	
    	ette	0		K	
    	esi	tte		S	adt
astus	astu	s		V	s
Uustalu	uus_talu	0		S	sg g
       	uus_talu	0		S	sg n
       	uus_talu	0		S	sg p
Tõnu	Tõnu	0		H	sg g
    	Tõnu	0		H	sg n
Karu	karu	0		S	sg g
    	karu	0		S	sg n
    	karu	0		S	sg p
ja	ja	0		J	
kaebas	kaeba	s		V	s
et	et	0		J	
Pahkla	####				
mõisa	mõis	0		S	sg g
valitseja	valitseja	0		S	sg g
         	valitseja	0		S	sg n
Villem	Villem	0		H	sg n
Vunder	####				
olla	ole	a		V	da
tema	tema	0		P	sg g
    	tema	0		P	sg n
poega	poeg	0		S	adt
     	pood	ga		S	sg kom
     	poeg	0		S	sg p
hirmsal	hirmus	l		A	sg ad
viisil	viis	l		S	sg ad
      	viisil	0		K	
peksnud	peks	nud		V	nud
       	peks=nu	d		S	pl n
       	peks=nud	0		A	
       	peks=nud	0		A	sg n
       	peks=nud	d		A	pl n
mööda	mööda	0		A	
     	mööda	0		D	
     	mööda	0		K	
pead	pea	d		S	pl n
    	pida	d		V	d
    	pea	d		S	sg p
nendet	####				
pois	poi	s		S	sg in
haigeks	haige	ks		A	sg tr
       	haige	ks		S	sg tr
ja	ja	0		J	
liluks	####				
jäänud	jää	nud		V	nud
      	jäänu	d		S	pl n
      	jäänud	0		A	
      	jäänud	0		A	sg n
      	jäänud	d		A	pl n
,	,			Z	
mis	mis	0		P	pl n
   	mis	0		P	sg n
ette	ette	0		D	
    	ette	0		K	
    	esi	tte		S	adt
ta	tema	0		P	sg g
  	tema	0		P	sg n
300	300	0		N	?
rbl	rbl	0		Y	?
loli	####				
poisi	poiss	0		S	sg g
parandamiseks	parandamine	ks		S	sg tr
ja	ja	0		J	
edaspidiseks	edas_pidine	ks		A	sg tr
toitmiseks	toitmine	ks		S	sg tr
pärib	päri	b		V	b
.	.			Z	
Tõnu	Tõnu	0		H	sg g
    	Tõnu	0		H	sg n
Karu	karu	0		S	sg g
    	karu	0		S	sg n
    	karu	0		S	sg p
poeg	poeg	0		S	sg n
Jaan	Jaan	0		H	sg n
    	jaan	0		S	sg n
    	jaan	0		Y	?
sai	saa	i		V	s
   	sai	0		S	sg n
ette	ette	0		D	
    	ette	0		K	
    	esi	tte		S	adt
kutsutud	kutsu	tud		V	tud
        	kutsutu	d		S	pl n
        	kutsutud	0		A	
        	kutsutud	0		A	sg n
        	kutsutud	d		A	pl n
ja	ja	0		J	
küsitud	küsi	tud		V	tud
       	küsi=tu	d		S	pl n
       	küsi=tud	0		A	
       	küsi=tud	0		A	sg n
       	küsi=tud	d		A	pl n
,	,			Z	
mis	mis	0		P	pl n
   	mis	0		P	sg n
pärast	pära	st		S	sg el
      	pärane	t		A	sg p
      	pärast	0		D	
      	pärast	0		K	
ta	tema	0		P	sg g
  	tema	0		P	sg n
oli	ole	i		V	s
peksta	peks	ta		V	da
      	peks	ta		V	ta
saanud	saa	nud		V	nud
      	saa=nud	0		A	
      	saa=nud	0		A	sg n
      	saa=nud	d		A	pl n
      	saanu	d		S	pl n
.	.			Z	
Pais	pai	s		A	sg in
    	pai	s		S	sg in
    	pais	0		S	sg n
kes	kes	0		P	pl n
   	kes	0		P	sg n
18	18	0		N	?
aastat	aasta	t		S	sg p
vana	vana	0		A	sg g
    	vana	0		A	sg n
    	vana	0		A	sg p
    	vana	0		S	sg g
    	vana	0		S	sg n
    	vana	0		S	sg p
tunnistas	tunnista	s		V	s
et	et	0		J	
;	;			Z	
et	et	0		J	
tema	tema	0		P	sg g
    	tema	0		P	sg n
olla	ole	a		V	da
härgi	härg	i		S	pl p
kündjate	kündja	te		S	pl g
käest	käest	0		K	
     	käsi	st		S	sg el
vastu	vastu	0		D	
     	vastu	0		K	
võtnud	võt	nud		V	nud
      	võt=nu	d		S	pl n
      	võt=nud	0		A	
      	võt=nud	0		A	sg n
      	võt=nud	d		A	pl n
tö	####				
hobuste	hobune	te		S	pl g
tali	tali	0		S	sg g
    	tali	0		S	sg n
    	tali	0		S	sg p
ees	ees	0		D	
   	ees	0		K	
   	esi	s		S	sg in
,	,			Z	
ja	ja	0		J	
Tõnu	Tõnu	0		H	sg g
    	Tõnu	0		H	sg n
Kunderknuppo	####				
,	,			Z	
Jüri	Jüri	0		H	sg g
    	Jüri	0		H	sg n
Levkot	####				
härjad	härg	d		S	pl n
olnud	ol=nud	0		A	
     	ol=nud	0		A	sg n
     	ol=nud	d		A	pl n
     	ole	nud		V	nud
     	olnu	d		S	pl n
veel	veel	0		D	
    	vesi	l		S	sg ad
tulemata	tule	mata		V	mata
        	tulemata	0		A	
ja	ja	0		J	
nimetatud	nimeta	tud		V	tud
         	nimetatu	d		S	pl n
         	nimetatud	0		A	
         	nimetatud	0		A	sg n
         	nimetatud	d		A	pl n
pois	poi	s		S	sg in
kes	kes	0		P	pl n
   	kes	0		P	sg n
harjude	####				
juures	juur	s		S	sg in
      	juures	0		D	
      	juures	0		K	
pidi	pida	i		V	s
    	pidi	0		K	
olema	ole	ma		V	ma
hoidanud	####				
neid	neid	0		S	sg n
    	see	d		P	pl p
    	tema	d		P	pl p
ka	ka	0		D	
tulevat	tule	vat		V	vat
       	tulev	t		A	sg p
.	.			Z	
ja	ja	0		J	
valitseja	valitseja	0		S	sg g
         	valitseja	0		S	sg n
tulnud	tul=nud	0		A	
      	tul=nud	0		A	sg n
      	tul=nud	d		A	pl n
      	tule	nud		V	nud
      	tulnu	d		S	pl n
heinama	####				
pealt	pea	lt		S	sg abl
     	pealt	0		D	
     	pealt	0		K	
ja	ja	0		J	
hüüdnud	hüüd	nud		V	nud
       	hüüd=nu	d		S	pl n
       	hüüd=nud	0		A	
       	hüüd=nud	0		A	sg n
       	hüüd=nud	d		A	pl n
oma	oma	0		A	sg g
   	oma	0		D	
   	oma	0		P	sg g
   	oma	0		S	sg g
   	oma	0		V	o
   	oma	0		A	sg n
   	oma	0		A	sg p
   	oma	0		P	sg n
   	oma	0		P	sg p
   	oma	0		S	sg n
   	oma	0		S	sg p
toa	tuba	0		S	sg g
ukse	uks	0		S	sg g
ees	ees	0		D	
   	ees	0		K	
   	esi	s		S	sg in
.	.			Z	
tule	tuli	0		S	sg g
    	tule	0		V	o
tuppa	tuba	0		S	adt
!	!			Z	
mis	mis	0		P	pl n
   	mis	0		P	sg n
peale	pea	le		S	sg all
     	peale	0		D	
     	peale	0		K	
teomees	teo_mees	0		S	sg n
Jaak	Jaak	0		H	sg n
    	jaak	0		S	sg n
Klaus	Klaus	0		H	sg n
küsinud	küsi	nud		V	nud
       	küsi=nu	d		S	pl n
       	küsi=nud	0		A	
       	küsi=nud	0		A	sg n
       	küsi=nud	d		A	pl n
:	:			Z	
""""	""""			Z	
kas	kas	0		D	
mina	mina	0		P	sg n
    	mina	0		S	sg g
    	mina	0		S	sg n
    	mina	0		S	sg p
.	.			Z	
valitseja	valitseja	0		S	sg g
         	valitseja	0		S	sg n
vastanud	vasta	nud		V	nud
        	vasta=nud	0		A	
        	vasta=nud	0		A	sg n
        	vasta=nud	d		A	pl n
        	vastanu	d		S	pl n
:	:			Z	
""""	""""			Z	
härja	härg	0		S	sg g
pois	poi	s		S	sg in
.	.			Z	
mis	mis	0		P	pl n
   	mis	0		P	sg n
peale	pea	le		S	sg all
     	peale	0		D	
     	peale	0		K	
pois	poi	s		S	sg in
siis	siis	0		D	
    	siis	0		J	
tuppa	tuba	0		S	adt
läinud	läinu	d		S	pl n
      	läinud	0		A	
      	läinud	0		A	sg n
      	läinud	d		A	pl n
      	mine	nud		V	nud
.	.			Z	
valitseja	valitseja	0		S	sg g
         	valitseja	0		S	sg n
küsinud	küsi	nud		V	nud
       	küsi=nu	d		S	pl n
       	küsi=nud	0		A	
       	küsi=nud	0		A	sg n
       	küsi=nud	d		A	pl n
.	.			Z	
Kus	kus	0		D	
härjad	härg	d		S	pl n
on	ole	0		V	b
  	ole	0		V	vad
.	.			Z	
Pais	pai	s		A	sg in
    	pai	s		S	sg in
    	pais	0		S	sg n
vastanud	vasta	nud		V	nud
        	vasta=nud	0		A	
        	vasta=nud	0		A	sg n
        	vasta=nud	d		A	pl n
        	vastanu	d		S	pl n
.	.			Z	
""""	""""			Z	
muist	muist	0		P	
     	muu	ist		P	pl el
on	ole	0		V	b
  	ole	0		V	vad
alles	alles	0		D	
tulemata	tule	mata		V	mata
        	tulemata	0		A	
,	,			Z	
ja	ja	0		J	
muist	muist	0		P	
     	muu	ist		P	pl el
lasin	lask	in		V	sin
seni	seni	0		D	
kopli	koppel	0		S	sg g
kui	kui	0		D	
   	kui	0		J	
kõik	kõik	0		P	pl n
    	kõik	0		S	sg n
    	kõik	0		P	sg n
koju	kodu	0		S	adt
tulevat	tule	vat		V	vat
       	tulev	t		A	sg p
""""	""""			Z	
.	.			Z	
selle	see	0		P	sg g
     	sell	e		S	pl p
peale	pea	le		S	sg all
     	peale	0		D	
     	peale	0		K	
valitseja	valitseja	0		S	sg g
         	valitseja	0		S	sg n
löönud	löö	nud		V	nud
      	löö=nu	d		S	pl n
      	löö=nud	0		A	
      	löö=nud	0		A	sg n
      	löö=nud	d		A	pl n
temal	tema	l		P	sg ad
teine	teine	0		O	sg n
     	teine	0		P	sg n
poole	pool	0		N	sg g
     	pool	0		S	sg g
     	pool	e		S	pl p
     	poole	0		K	
     	poole	0		S	sg n
ja	ja	0		J	
teine	teine	0		O	sg n
     	teine	0		P	sg n
poole	pool	0		N	sg g
     	pool	0		S	sg g
     	pool	e		S	pl p
     	poole	0		K	
     	poole	0		S	sg n
kõrva	kõrv	0		S	adt
     	kõrv	0		S	sg g
     	kõrv	0		S	sg p
ära	ära	0		D	
   	ära	0		V	neg o
ja	ja	0		J	
pärast	pära	st		S	sg el
      	pärane	t		A	sg p
      	pärast	0		D	
      	pärast	0		K	
mööda	mööda	0		A	
     	mööda	0		D	
     	mööda	0		K	
pead	pea	d		S	pl n
    	pida	d		V	d
    	pea	d		S	sg p
ja	ja	0		J	
kukla	kukal	0		S	sg g
taha	taht	0		V	o
    	taha	0		D	
    	taha	0		K	
nendet	####				
ta	tema	0		P	sg g
  	tema	0		P	sg n
maha	maha	0		D	
kukkunud	kukku	nud		V	nud
        	kukku=nu	d		S	pl n
        	kukku=nud	0		A	
        	kukku=nud	0		A	sg n
        	kukku=nud	d		A	pl n
ja	ja	0		J	
ühtigi	ühtigi	0		D	
enam	enam	0		C	sg n
    	enam	0		D	
ei	ei	0		D	
  	ei	0		V	neg
ole	ole	0		V	o
teadnud	tead	nud		V	nud
       	tead=nu	d		S	pl n
       	tead=nud	0		A	
       	tead=nud	0		A	sg n
       	tead=nud	d		A	pl n
.	.			Z	
astus	astu	s		V	s
ette	ette	0		D	
    	ette	0		K	
    	esi	tte		S	adt
vana	vana	0		A	sg g
    	vana	0		A	sg n
    	vana	0		A	sg p
    	vana	0		S	sg g
    	vana	0		S	sg n
    	vana	0		S	sg p
Pirgu	####				
talitaja	talitaja	0		S	sg g
        	talitaja	0		S	sg n
kes	kes	0		P	pl n
   	kes	0		P	sg n
nüüd	nüüd	0		D	
Tammiku	tammik	0		S	sg g
valdas	valda	s		V	s
peremees	pere_mees	0		S	sg n
Anton	Anton	0		H	sg n
Liiv	liiv	0		S	sg n
ja	ja	0		J	
tunnistas	tunnista	s		V	s
.	.			Z	
""""	""""			Z	
et	et	0		J	
tema	tema	0		P	sg g
    	tema	0		P	sg n
olla	ole	a		V	da
läinud	läinu	d		S	pl n
      	läinud	0		A	
      	läinud	0		A	sg n
      	läinud	d		A	pl n
      	mine	nud		V	nud
valitseja	valitseja	0		S	sg g
         	valitseja	0		S	sg n
kojasse	koda	sse		S	sg ill
ja	ja	0		J	
pidanud	pida	nud		V	nud
       	pida=nu	d		S	pl n
       	pida=nud	0		A	
       	pida=nud	0		A	sg n
       	pida=nud	d		A	pl n
tuppa	tuba	0		S	adt
minema	mine	ma		V	ma
ja	ja	0		J	
kuulnud	kuul	nud		V	nud
       	kuul=nud	0		A	
       	kuul=nud	0		A	sg n
       	kuul=nud	d		A	pl n
       	kuulnu	d		S	pl n
lops	lops	0		S	sg n
ja	ja	0		J	
lops	lops	0		S	sg n
üks	üks	0		N	sg n
   	üks	0		P	sg n
bauk	####				
teise	teine	0		O	adt
     	teine	0		O	sg g
     	teine	0		P	adt
     	teine	0		P	sg g
järele	järele	0		D	
      	järele	0		K	
ikka	ikka	0		D	
    	iga	0		S	adt
ruttust	rutt_uks	t		S	sg p
edasi	edasi	0		D	
     	edasi	0		K	
""""	""""			Z	
.	.			Z	
ja	ja	0		J	
poisi	poiss	0		S	sg g
palve	palve	0		S	sg g
     	palve	0		S	sg n
.	.			Z	
Pae	paas	0		S	sg g
valitseja	valitseja	0		S	sg g
         	valitseja	0		S	sg n
,	,			Z	
Pae	paas	0		S	sg g
valitseja	valitseja	0		S	sg g
         	valitseja	0		S	sg n
,	,			Z	
ma	mina	0		P	sg n
otasin	####				
härgi	härg	i		S	pl p
.	.			Z	
siis	siis	0		D	
    	siis	0		J	
olnud	ol=nud	0		A	
     	ol=nud	0		A	sg n
     	ol=nud	d		A	pl n
     	ole	nud		V	nud
     	olnu	d		S	pl n
suur	suur	0		A	sg n
obink	####				
arvata	arva	ta		V	da
      	arva	ta		V	ta
      	arvata	0		D	
et	et	0		J	
pois	poi	s		S	sg in
kukkunud	kukku	nud		V	nud
        	kukku=nu	d		S	pl n
        	kukku=nud	0		A	
        	kukku=nud	0		A	sg n
        	kukku=nud	d		A	pl n
maha	maha	0		D	
,	,			Z	
ja	ja	0		J	
valitseja	valitseja	0		S	sg g
         	valitseja	0		S	sg n
vandunud	vandu	nud		V	nud
        	vandu=nu	d		S	pl n
        	vandu=nud	0		A	
        	vandu=nud	0		A	sg n
        	vandu=nud	d		A	pl n
tulist	tuline	t		A	sg p
kurja	kuri	0		A	adt
     	kuri	0		A	sg g
     	kuri	0		S	adt
     	kuri	0		S	sg g
     	kuri	0		A	sg p
     	kuri	0		S	sg p
,	,			Z	
ja	ja	0		J	
akanud	####				
jälle	jälle	0		D	
uuesti	uuesti	0		D	
teist	sina	st		P	pl el
     	tee	ist		S	pl el
     	teist	0		D	
     	teine	t		O	sg p
     	teine	t		P	sg p
korda	kord	0		S	adt
     	korda	0		V	o
     	kord	0		S	sg p
andma	and	ma		V	ma
üks	üks	0		N	sg n
   	üks	0		P	sg n
lops	lops	0		S	sg n
teise	teine	0		O	adt
     	teine	0		O	sg g
     	teine	0		P	adt
     	teine	0		P	sg g
järel	järel	0		D	
     	järel	0		K	
,	,			Z	
siis	siis	0		D	
    	siis	0		J	
Tammiku	tammik	0		S	sg g
peremees	pere_mees	0		S	sg n
läinud	läinu	d		S	pl n
      	läinud	0		A	
      	läinud	0		A	sg n
      	läinud	d		A	pl n
      	mine	nud		V	nud
tisleri	tisler	0		S	sg g
järele	järele	0		D	
      	järele	0		K	
ja	ja	0		J	
kutsunud	kutsu	nud		V	nud
        	kutsu=nu	d		S	pl n
        	kutsu=nud	0		A	
        	kutsu=nud	0		A	sg n
        	kutsu=nud	d		A	pl n
tisleri	tisler	0		S	sg g
ka	ka	0		D	
kuulama	kuula	ma		V	ma
;	;			Z	
kui	kui	0		D	
   	kui	0		J	
nemad	tema	d		P	pl n
tisleriga	tisler	ga		S	sg kom
tagasi	tagasi	0		D	
      	tagasi	0		K	
tulnud	tul=nud	0		A	
      	tul=nud	0		A	sg n
      	tul=nud	d		A	pl n
      	tule	nud		V	nud
      	tulnu	d		S	pl n
peksnud	peks	nud		V	nud
       	peks=nu	d		S	pl n
       	peks=nud	0		A	
       	peks=nud	0		A	sg n
       	peks=nud	d		A	pl n
valitseja	valitseja	0		S	sg g
         	valitseja	0		S	sg n
ikka	ikka	0		D	
    	iga	0		S	adt
veel	veel	0		D	
    	vesi	l		S	sg ad
poissi	poiss	0		S	adt
      	poiss	0		S	sg p
.	.			Z	
astus	astu	s		V	s
ette	ette	0		D	
    	ette	0		K	
    	esi	tte		S	adt
Pahkla	####				
mõisa	mõis	0		S	sg g
tisler	tisler	0		S	sg n
ja	ja	0		J	
(	(			Z	
kaebas	kaeba	s		V	s
)	)			Z	
tunnistas	tunnista	s		V	s
et	et	0		J	
Tammiku	tammik	0		S	sg g
mees	mees	0		S	sg n
    	mesi	s		S	sg in
teda	tema	da		P	sg p
kutsunud	kutsu	nud		V	nud
        	kutsu=nu	d		S	pl n
        	kutsu=nud	0		A	
        	kutsu=nud	0		A	sg n
        	kutsu=nud	d		A	pl n
kuulama	kuula	ma		V	ma
ja	ja	0		J	
kui	kui	0		D	
   	kui	0		J	
tema	tema	0		P	sg g
    	tema	0		P	sg n
sinna	sinna	0		D	
läinud	läinu	d		S	pl n
      	läinud	0		A	
      	läinud	0		A	sg n
      	läinud	d		A	pl n
      	mine	nud		V	nud
kuulnud	kuul	nud		V	nud
       	kuul=nud	0		A	
       	kuul=nud	0		A	sg n
       	kuul=nud	d		A	pl n
       	kuulnu	d		S	pl n
veel	veel	0		D	
    	vesi	l		S	sg ad
kuus	kuu	s		S	sg in
    	kuus	0		N	sg n
paugu	pauk	0		S	sg g
     	pauku	0		V	o
mis	mis	0		P	pl n
   	mis	0		P	sg n
vastu	vastu	0		D	
     	vastu	0		K	
pallet	####				
plaksunud	plaksu	nud		V	nud
         	plaksu=nu	d		S	pl n
         	plaksu=nud	0		A	
         	plaksu=nud	0		A	sg n
         	plaksu=nud	d		A	pl n
.	.			Z	
