kohtu	kohtu	0		V	o
     	kohus	0		S	sg g
korra	kord	0		S	sg g
pärast	pära	st		S	sg el
      	pärane	t		A	sg p
      	pärast	0		D	
      	pärast	0		K	
olid	ole	id		V	sid
Ravila	ravila	0		S	sg g
      	ravila	0		S	sg n
ja	ja	0		J	
palvere	####				
valla	vald	0		S	sg g
     	valla	0		D	
kohtusse	kohtune	se		A	adt
        	kohus	sse		S	sg ill
valla	vald	0		S	sg g
     	valla	0		D	
hoones	hoone	s		S	sg in
kokku	kokku	0		D	
     	kogu	0		S	adt
tulnud	tul=nud	0		A	
      	tul=nud	0		A	sg n
      	tul=nud	d		A	pl n
      	tule	nud		V	nud
      	tulnu	d		S	pl n
:	:			Z	
kohtu	kohtu	0		V	o
     	kohus	0		S	sg g
vanem	vanem	0		C	sg n
     	vanem	0		S	sg n
Juhan	Juhan	0		H	sg n
Suursild	suur_sild	0		S	sg n
,	,			Z	
kohtu	kohtu	0		V	o
     	kohus	0		S	sg g
käemees	käe_mees	0		S	sg n
Juhan	Juhan	0		H	sg n
Kant	Kant	0		H	sg n
    	kant	0		S	sg n
ja	ja	0		J	
Hans	Hans	0		H	sg n
Härg	härg	0		S	sg n
,	,			Z	
kirjutaja	kirjutaja	0		S	sg g
         	kirjutaja	0		S	sg n
H	H	0		Y	?
.	.			Z	
_Siimson	####				
Joosep	Joosep	0		H	sg n
Võrk	võrk	0		S	sg n
Abraama	####				
peremees	pere_mees	0		S	sg n
kaebab	kaeba	b		V	b
:	:			Z	
Pearna	####				
peremehe	pere_mees	0		S	sg g
Kustas	Kusta	s		H	sg in
      	Kustas	0		H	sg n
Kingsepa	king_sepp	0		S	sg g
veised	veis	d		S	pl n
on	ole	0		V	b
  	ole	0		V	vad
sügise	sügis	0		S	sg g
tema	tema	0		P	sg g
    	tema	0		P	sg n
heina	hein	0		S	adt
     	hein	0		S	sg g
     	hein	0		S	sg p
kuhja	kuhja	0		V	o
     	kuhi	0		S	adt
     	kuhi	0		S	sg g
     	kuhi	0		S	sg p
ära	ära	0		D	
   	ära	0		V	neg o
rikkunud	rikku	nud		V	nud
        	rikku=nu	d		S	pl n
        	rikku=nud	0		A	
        	rikku=nud	0		A	sg n
        	rikku=nud	d		A	pl n
,	,			Z	
tema	tema	0		P	sg g
    	tema	0		P	sg n
on	ole	0		V	b
  	ole	0		V	vad
ise	ise	0		A	
   	ise	0		D	
   	ise	0		P	pl n
   	ise	0		P	sg n
Mihkli	Mihkel	0		H	sg g
      	Mihkli	0		H	sg g
      	mihkel	0		A	sg g
      	mihkel	0		S	sg g
      	Mihkli	0		H	sg n
päeval	päev	l		S	sg ad
veised	veis	d		S	pl n
sealt	sealt	0		D	
     	siga	lt		A	sg abl
     	siga	lt		S	sg abl
kallalt	kalla	lt		S	sg abl
       	kallalt	0		K	
ära	ära	0		D	
   	ära	0		V	neg o
ajanud	aja	nud		V	nud
      	aja=nu	d		S	pl n
      	aja=nud	0		A	
      	aja=nud	0		A	sg n
      	aja=nud	d		A	pl n
.	.			Z	
arvab	arva	b		V	b
üks	üks	0		N	sg n
   	üks	0		P	sg n
sao	saad	0		S	sg g
   	sagu	0		S	sg g
osa	osa	0		S	sg g
   	osa	0		S	sg n
   	osa	0		S	sg p
heina	hein	0		S	adt
     	hein	0		S	sg g
     	hein	0		S	sg p
ära	ära	0		D	
   	ära	0		V	neg o
raisatud	raiska	tud		V	tud
        	raisa=tu	d		S	pl n
        	raisa=tud	0		A	
        	raisa=tud	0		A	sg n
        	raisa=tud	d		A	pl n
olema	ole	ma		V	ma
.	.			Z	
Kustas	Kusta	s		H	sg in
      	Kustas	0		H	sg n
Kingsepp	king_sepp	0		S	sg n
ei	ei	0		D	
  	ei	0		V	neg
või	või	0		S	sg g
   	või	0		V	o
   	või	0		D	
   	või	0		J	
   	või	0		S	sg n
midagi	miski	dagi		P	sg p
selle	see	0		P	sg g
     	sell	e		S	pl p
tunnistuse	tunnistus	0		S	sg g
vastu	vastu	0		D	
     	vastu	0		K	
kosta	kost	0		V	o
     	kost	a		V	da
.	.			Z	
kohus	kohu	s		V	s
     	kohus	0		S	sg n
mõistis	mõist	is		V	s
:	:			Z	
Kingsepp	king_sepp	0		S	sg n
maksab	maks	b		V	b
Wõrgole	####				
10	10	0		N	?
Lm	####				
sesamasuguseid	####				
heinu	hein	u		S	pl p
.	.			Z	
