kohtu	kohtu	0		V	o
     	kohus	0		S	sg g
korra	kord	0		S	sg g
pärast	pära	st		S	sg el
      	pärane	t		A	sg p
      	pärast	0		D	
      	pärast	0		K	
oli	ole	i		V	s
nurme	nurm	0		S	adt
     	nurm	0		S	sg g
     	nurm	0		S	sg p
valla	vald	0		S	sg g
     	valla	0		D	
kohus	kohu	s		V	s
     	kohus	0		S	sg n
kokku	kokku	0		D	
     	kogu	0		S	adt
tulnud	tul=nud	0		A	
      	tul=nud	0		A	sg n
      	tul=nud	d		A	pl n
      	tule	nud		V	nud
      	tulnu	d		S	pl n
,	,			Z	
ja	ja	0		J	
kohtu	kohtu	0		V	o
     	kohus	0		S	sg g
ette	ette	0		D	
    	ette	0		K	
    	esi	tte		S	adt
ei	ei	0		D	
  	ei	0		V	neg
tulnud	tul=nud	0		A	
      	tul=nud	0		A	sg n
      	tul=nud	d		A	pl n
      	tule	nud		V	nud
      	tulnu	d		S	pl n
ei	ei	0		D	
  	ei	0		V	neg
mingisugust	mingi_sugune	t		P	sg p
kaebtust	####				
.	.			Z	
kohtu	kohtu	0		V	o
     	kohus	0		S	sg g
peavanem	pea_vanem	0		C	sg n
        	pea_vanem	0		S	sg n
Hans	Hans	0		H	sg n
Valtsnep	####				
XXX	XXX	0		O	?
   	XXX	0		Y	?
kõrvamehed	kõrva_mees	d		S	pl n
Jakob	Jakob	0		H	sg n
Lintmann	lint_mann	0		S	sg n
XXX	XXX	0		O	?
   	XXX	0		Y	?
Juhan	Juhan	0		H	sg n
Simson	####				
XXX	XXX	0		O	?
   	XXX	0		Y	?
kirjutaja	kirjutaja	0		S	sg g
         	kirjutaja	0		S	sg n
ArnakJ	####				
[	[			Z	
allkiri	all_kiri	0		S	sg n
]	]			Z	
