An	####				
Roodi	####				
astus	astu	s		V	s
kohtu	kohtu	0		V	o
     	kohus	0		S	sg g
ette	ette	0		D	
    	ette	0		K	
    	esi	tte		S	adt
ja	ja	0		J	
kaebas	kaeba	s		V	s
,	,			Z	
et	et	0		J	
temal	tema	l		P	sg ad
olla	ole	a		V	da
Kustas	Kusta	s		H	sg in
      	Kustas	0		H	sg n
Vesilõigu	vesi_lõik	0		S	sg g
käest	käest	0		K	
     	käsi	st		S	sg el
1	1	0		N	?
rubla	rubla	0		S	sg g
     	rubla	0		S	sg n
     	rubla	0		S	sg p
40	40	0		N	?
kopik	####				
saada	saa	da		V	da
     	saat	0		V	o
     	saa	da		V	ta
ja	ja	0		J	
Vesiloik	vesi_loik	0		S	sg n
ei	ei	0		D	
  	ei	0		V	neg
pea	pea	0		D	
   	pea	0		S	sg g
   	pida	0		V	o
   	pea	0		S	sg n
seda	see	da		P	sg p
temale	tema	le		P	sg all
mitte	mitte	0		D	
välja	välja	0		D	
     	välja	0		V	o
     	väli	0		S	adt
     	väli	0		S	sg g
     	väli	0		S	sg p
maksma	maks	ma		V	ma
,	,			Z	
ta	tema	0		P	sg g
  	tema	0		P	sg n
olla	ole	a		V	da
kolm	kolm	0		N	sg n
korda	kord	0		S	adt
     	korda	0		V	o
     	kord	0		S	sg p
tema	tema	0		P	sg g
    	tema	0		P	sg n
käest	käest	0		K	
     	käsi	st		S	sg el
küsinud	küsi	nud		V	nud
       	küsi=nu	d		S	pl n
       	küsi=nud	0		A	
       	küsi=nud	0		A	sg n
       	küsi=nud	d		A	pl n
,	,			Z	
aga	aga	0		J	
ilmaski	ilmaski	0		D	
ei	ei	0		D	
  	ei	0		V	neg
maksa	maks	0		S	adt
     	maks	0		S	sg g
     	maks	0		V	o
     	maks	0		S	sg p
Vesiloik	vesi_loik	0		S	sg n
temale	tema	le		P	sg all
välja	välja	0		D	
     	välja	0		V	o
     	väli	0		S	adt
     	väli	0		S	sg g
     	väli	0		S	sg p
.	.			Z	
Kustas	Kusta	s		H	sg in
      	Kustas	0		H	sg n
Vesiloik	vesi_loik	0		S	sg n
sai	saa	i		V	s
   	sai	0		S	sg n
kohtu	kohtu	0		V	o
     	kohus	0		S	sg g
ette	ette	0		D	
    	ette	0		K	
    	esi	tte		S	adt
kutsutud	kutsu	tud		V	tud
        	kutsutu	d		S	pl n
        	kutsutud	0		A	
        	kutsutud	0		A	sg n
        	kutsutud	d		A	pl n
temalt	tema	lt		P	sg abl
küsis	küsi	s		V	s
kohus	kohu	s		V	s
     	kohus	0		S	sg n
,	,			Z	
et	et	0		J	
mis	mis	0		P	pl n
   	mis	0		P	sg n
pärast	pära	st		S	sg el
      	pärane	t		A	sg p
      	pärast	0		D	
      	pärast	0		K	
ei	ei	0		D	
  	ei	0		V	neg
maksa	maks	0		S	adt
     	maks	0		S	sg g
     	maks	0		V	o
     	maks	0		S	sg p
sa	sina	0		P	sg n
An	####				
Roodi	####				
raha	raha	0		S	sg g
    	raha	0		S	sg n
    	raha	0		S	sg p
1	1	0		N	?
rubla	rubla	0		S	sg g
     	rubla	0		S	sg n
     	rubla	0		S	sg p
40	40	0		N	?
kopik	####				
välja	välja	0		D	
     	välja	0		V	o
     	väli	0		S	adt
     	väli	0		S	sg g
     	väli	0		S	sg p
?	?			Z	
Kustas	Kusta	s		H	sg in
      	Kustas	0		H	sg n
Vesiloik	vesi_loik	0		S	sg n
ütles	ütle	s		V	s
:	:			Z	
et	et	0		J	
kui	kui	0		D	
   	kui	0		J	
tema	tema	0		P	sg g
    	tema	0		P	sg n
mõisa	mõis	0		S	sg g
härja	härg	0		S	sg g
karjatse	####				
käest	käest	0		K	
     	käsi	st		S	sg el
raha	raha	0		S	sg g
    	raha	0		S	sg n
    	raha	0		S	sg p
kätte	kätte	0		K	
     	käsi	tte		S	adt
saab	saa	b		V	b
,	,			Z	
siis	siis	0		D	
    	siis	0		J	
tema	tema	0		P	sg g
    	tema	0		P	sg n
kohe	kohe	0		A	sg n
    	kohe	0		D	
maksa	maks	0		S	adt
     	maks	0		S	sg g
     	maks	0		V	o
     	maks	0		S	sg p
An	####				
Roodi	####				
raha	raha	0		S	sg g
    	raha	0		S	sg n
    	raha	0		S	sg p
välja	välja	0		D	
     	välja	0		V	o
     	väli	0		S	adt
     	väli	0		S	sg g
     	väli	0		S	sg p
.	.			Z	
kohus	kohu	s		V	s
     	kohus	0		S	sg n
mõistis	mõist	is		V	s
,	,			Z	
et	et	0		J	
Kustas	Kusta	s		H	sg in
      	Kustas	0		H	sg n
Vesiloik	vesi_loik	0		S	sg n
peab	pida	b		V	b
,	,			Z	
kahe	kaks	0		N	sg g
nädala	nädal	0		S	sg g
pärast	pära	st		S	sg el
      	pärane	t		A	sg p
      	pärast	0		D	
      	pärast	0		K	
An	####				
Roodi	####				
raha	raha	0		S	sg g
    	raha	0		S	sg n
    	raha	0		S	sg p
välja	välja	0		D	
     	välja	0		V	o
     	väli	0		S	adt
     	väli	0		S	sg g
     	väli	0		S	sg p
maksma	maks	ma		V	ma
.	.			Z	
see	see	0		P	sg n
on	ole	0		V	b
  	ole	0		V	vad
28ndal	28=s	l		O	sg ad
Januaril	####				
.	.			Z	
Kustas	Kusta	s		H	sg in
      	Kustas	0		H	sg n
Vesiloik	vesi_loik	0		S	sg n
lubas	luba	s		V	s
ka	ka	0		D	
sell	sell	0		S	sg n
nimetatud	nimeta	tud		V	tud
         	nimetatu	d		S	pl n
         	nimetatud	0		A	
         	nimetatud	0		A	sg n
         	nimetatud	d		A	pl n
päeval	päev	l		S	sg ad
An	####				
Roodele	####				
välja	välja	0		D	
     	välja	0		V	o
     	väli	0		S	adt
     	väli	0		S	sg g
     	väli	0		S	sg p
maksta	maks	ta		V	da
      	maks	ta		V	ta
.	.			Z	
