Uuemõisast	uue_mõis	st		S	sg el
.	.			Z	
astus	astu	s		V	s
ette	ette	0		D	
    	ette	0		K	
    	esi	tte		S	adt
kaebaja	kaebaja	0		S	sg g
       	kaebaja	0		S	sg n
I.	I.	0		Y	?
  	j	0		Y	?
kõhler	####				
,	,			Z	
renthärra	rent_härra	0		S	sg g
         	rent_härra	0		S	sg n
W	V	0		O	?
 	V	0		Y	?
 	W	0		Y	?
.	.			Z	
_	_			Z	
Güntheri	####				
nimel	nimel	0		K	
     	nimi	l		S	sg ad
,	,			Z	
ja	ja	0		J	
kaebas	kaeba	s		V	s
Tõnuküla	####				
peremehe	pere_mees	0		S	sg g
Toomas	Toomas	0		H	sg n
      	Toomas	s		H	sg in
      	too	mas		V	mas
Arjaseppa	####				
ja	ja	0		J	
tema	tema	0		P	sg g
    	tema	0		P	sg n
sulase	sulane	0		S	sg g
peale	pea	le		S	sg all
     	peale	0		D	
     	peale	0		K	
:	:			Z	
et	et	0		J	
nim	nim	0		Y	?
.	.			Z	
peremees	pere_mees	0		S	sg n
on	ole	0		V	b
  	ole	0		V	vad
lasknud	lask	nud		V	nud
       	lask=nu	d		S	pl n
       	lask=nud	0		A	
       	lask=nud	0		A	sg n
       	lask=nud	d		A	pl n
oma	oma	0		A	sg g
   	oma	0		D	
   	oma	0		P	sg g
   	oma	0		S	sg g
   	oma	0		V	o
   	oma	0		A	sg n
   	oma	0		A	sg p
   	oma	0		P	sg n
   	oma	0		P	sg p
   	oma	0		S	sg n
   	oma	0		S	sg p
sulase	sulane	0		S	sg g
,	,			Z	
renthärra	rent_härra	0		S	sg g
         	rent_härra	0		S	sg n
Krei	####				
koha	koht	0		S	sg g
    	koha	0		S	sg g
    	koha	0		V	o
    	koha	0		S	sg n
    	koha	0		S	sg p
,	,			Z	
kiviajast	kivi_aeg	st		S	sg el
         	kivi_ajane	t		A	sg p
kiva	####				
äravedada	####				
.	.			Z	
tunnistuse	tunnistus	0		S	sg g
mees	mees	0		S	sg n
    	mesi	s		S	sg in
,	,			Z	
Tõnu	Tõnu	0		H	sg g
    	Tõnu	0		H	sg n
Sander	Sander	0		H	sg n
,	,			Z	
renthärra	rent_härra	0		S	sg g
         	rent_härra	0		S	sg n
teomees	teo_mees	0		S	sg n
,	,			Z	
tunnistab	tunnista	b		V	b
et	et	0		J	
tema	tema	0		P	sg g
    	tema	0		P	sg n
on	ole	0		V	b
  	ole	0		V	vad
Tõnuküla	####				
peremehe	pere_mees	0		S	sg g
palgi	palk	0		S	sg g
vedamise	vedamine	0		S	sg g
pakku	pakk	0		S	adt
     	pakk	0		S	sg p
sealt	sealt	0		D	
     	siga	lt		A	sg abl
     	siga	lt		S	sg abl
kivi	kivi	0		S	sg g
    	kivi	0		S	sg n
    	kivi	0		S	sg p
aja	aeg	0		S	sg g
   	aja	0		V	o
äärest	äär	st		S	sg el
      	äärest	0		K	
maast	maa	st		S	sg el
leidnud	leid	nud		V	nud
       	leid=nu	d		S	pl n
       	leid=nud	0		A	
       	leid=nud	0		A	sg n
       	leid=nud	d		A	pl n
,	,			Z	
kus	kus	0		D	
se	####				
aed	aed	0		S	sg n
ära_lautatud	####				
on	ole	0		V	b
  	ole	0		V	vad
,	,			Z	
et	et	0		J	
se	####				
Tõnuküla	####				
pak	####				
on	ole	0		V	b
  	ole	0		V	vad
,	,			Z	
teab	tead	b		V	b
tema	tema	0		P	sg g
    	tema	0		P	sg n
selgeste	####				
tunnistada	tunnista	da		V	da
,	,			Z	
sest	see	st		P	sg el
    	sest	0		J	
ta	tema	0		P	sg g
  	tema	0		P	sg n
on	ole	0		V	b
  	ole	0		V	vad
seda	see	da		P	sg p
pakku	pakk	0		S	adt
     	pakk	0		S	sg p
teisel	teine	l		O	sg ad
      	teine	l		P	sg ad
päeval	päev	l		S	sg ad
enne	enne	0		D	
    	enne	0		K	
    	enne	0		S	sg n
nende	see	de		P	pl g
     	tema	de		P	pl g
käes	käes	0		K	
    	käsi	s		S	sg in
näinud	näi	nud		V	nud
      	näge	nud		V	nud
      	näi=nud	0		A	
      	näi=nud	0		A	sg n
      	näi=nud	d		A	pl n
      	näinu	d		S	pl n
.	.			Z	
tunnistuse	tunnistus	0		S	sg g
mees	mees	0		S	sg n
    	mesi	s		S	sg in
,	,			Z	
Hindrek	####				
Rebane	rebane	0		S	sg n
,	,			Z	
renthärra	rent_härra	0		S	sg g
         	rent_härra	0		S	sg n
teomees	teo_mees	0		S	sg n
,	,			Z	
tunnistab	tunnista	b		V	b
:	:			Z	
et	et	0		J	
Tõnuküla	####				
pere	pere	0		S	sg g
    	pere	0		S	sg n
sulane	sulane	0		S	sg n
      	sulane	0		V	o
on	ole	0		V	b
  	ole	0		V	vad
sel	see	l		P	sg ad
   	sel	0		Y	?
päeval	päev	l		S	sg ad
kahe	kaks	0		N	sg g
hobusega	hobune	ga		S	sg kom
palka	palk	0		S	adt
     	palka	0		V	o
     	palk	0		S	sg p
kiriku	kirik	0		S	sg g
juure	juur	0		S	sg g
viinud	vii	nud		V	nud
      	vii=nu	d		S	pl n
      	vii=nud	0		A	
      	vii=nud	0		A	sg n
      	vii=nud	d		A	pl n
,	,			Z	
ja	ja	0		J	
siis	siis	0		D	
    	siis	0		J	
tagasitulles	####				
Krei	####				
koha	koht	0		S	sg g
    	koha	0		S	sg g
    	koha	0		V	o
    	koha	0		S	sg n
    	koha	0		S	sg p
kiviajast	kivi_aeg	st		S	sg el
         	kivi_ajane	t		A	sg p
mis	mis	0		P	pl n
   	mis	0		P	sg n
te	sina	0		P	pl g
  	sina	0		P	pl n
ääres	äär	s		S	sg in
     	ääres	0		K	
on	ole	0		V	b
  	ole	0		V	vad
kiva	####				
viinud	vii	nud		V	nud
      	vii=nu	d		S	pl n
      	vii=nud	0		A	
      	vii=nud	0		A	sg n
      	vii=nud	d		A	pl n
.	.			Z	
tema	tema	0		P	sg g
    	tema	0		P	sg n
on	ole	0		V	b
  	ole	0		V	vad
ise	ise	0		A	
   	ise	0		D	
   	ise	0		P	pl n
   	ise	0		P	sg n
näinud	näi	nud		V	nud
      	näge	nud		V	nud
      	näi=nud	0		A	
      	näi=nud	0		A	sg n
      	näi=nud	d		A	pl n
      	näinu	d		S	pl n
kui	kui	0		D	
   	kui	0		J	
pois	poi	s		S	sg in
on	ole	0		V	b
  	ole	0		V	vad
kivikoormadega	####				
mõisa	mõis	0		S	sg g
juurest	juur	st		S	sg el
       	juurest	0		K	
läbi	läbi	0		D	
    	läbi	0		K	
    	läbi	0		V	o
tulnud	tul=nud	0		A	
      	tul=nud	0		A	sg n
      	tul=nud	d		A	pl n
      	tule	nud		V	nud
      	tulnu	d		S	pl n
.	.			Z	
Tõnuküla	####				
Toomas	Toomas	0		H	sg n
      	Toomas	s		H	sg in
      	too	mas		V	mas
Arjasep	####				
vastab	vasta	b		V	b
:	:			Z	
et	et	0		J	
tema	tema	0		P	sg g
    	tema	0		P	sg n
küll	küll	0		D	
    	küll	0		S	sg n
on	ole	0		V	b
  	ole	0		V	vad
palka	palk	0		S	adt
     	palka	0		V	o
     	palk	0		S	sg p
kahe	kaks	0		N	sg g
hobusega	hobune	ga		S	sg kom
kiriku	kirik	0		S	sg g
juure	juur	0		S	sg g
saatnud	saat	nud		V	nud
       	saat=nu	d		S	pl n
       	saat=nud	0		A	
       	saat=nud	0		A	sg n
       	saat=nud	d		A	pl n
,	,			Z	
ja	ja	0		J	
käskinud	käski	nud		V	nud
        	käski=nu	d		S	pl n
        	käski=nud	0		A	
        	käski=nud	0		A	sg n
        	käski=nud	d		A	pl n
poisi	poiss	0		S	sg g
kiva	####				
korjada	####				
kust	kusi	t		S	sg p
    	kust	0		D	
saada	saa	da		V	da
     	saat	0		V	o
     	saa	da		V	ta
on	ole	0		V	b
  	ole	0		V	vad
aga	aga	0		J	
mitte	mitte	0		D	
kiviaeda	kivi_aed	0		S	adt
        	kivi_aed	0		S	sg p
lõhkuda	lõhku	da		V	da
.	.			Z	
kohus	kohu	s		V	s
     	kohus	0		S	sg n
mõistab	mõist	b		V	b
:	:			Z	
Tõnuküla	####				
peremees	pere_mees	0		S	sg n
Toomas	Toomas	0		H	sg n
      	Toomas	s		H	sg in
      	too	mas		V	mas
Arjasepp	####				
,	,			Z	
kes	kes	0		P	pl n
   	kes	0		P	sg n
küll	küll	0		D	
    	küll	0		S	sg n
teadis	tead	is		V	s
      	teadis	0		S	sg n
,	,			Z	
et	et	0		J	
selle	see	0		P	sg g
     	sell	e		S	pl p
te	sina	0		P	pl g
  	sina	0		P	pl n
peal	pea	l		S	sg ad
    	peal	0		D	
    	peal	0		K	
ega	ega	0		D	
   	ega	0		J	
te	sina	0		P	pl g
  	sina	0		P	pl n
kõrval	kõrv	l		S	sg ad
      	kõrval	0		D	
      	kõrval	0		K	
kusgil	####				
kiva	####				
leida	leid	a		V	da
ei	ei	0		D	
  	ei	0		V	neg
ole	ole	0		V	o
,	,			Z	
peab	pida	b		V	b
trahvi	trahv	0		S	adt
      	trahv	0		S	sg g
      	trahvi	0		V	o
      	trahv	0		S	sg p
maksnud	maks	nud		V	nud
       	maks=nu	d		S	pl n
       	maks=nud	0		A	
       	maks=nud	0		A	sg n
       	maks=nud	d		A	pl n
niisugust	nii_sugune	t		P	sg p
rumala	rumal	0		A	sg g
käsu	käsk	0		S	sg g
pärast	pära	st		S	sg el
      	pärane	t		A	sg p
      	pärast	0		D	
      	pärast	0		K	
,	,			Z	
vallalaekasse	valla_laegas	sse		S	sg ill
25	25	0		N	?
kop	kop	0		Y	?
.	.			Z	
hõb	####				
.	.			Z	
ja	ja	0		J	
peab	pida	b		V	b
neid	neid	0		S	sg n
    	see	d		P	pl p
    	tema	d		P	pl p
kaks	kaks	0		N	sg n
koormat	koorem	t		S	sg p
kiva	####				
sinna	sinna	0		D	
aeda	aed	0		S	adt
    	aed	0		S	sg p
tagasi	tagasi	0		D	
      	tagasi	0		K	
viima	vii	ma		V	ma
.	.			Z	
kaebatav	####				
maksis	maks	is		V	s
      	maksi	s		S	sg in
kohe	kohe	0		A	sg n
    	kohe	0		D	
ära	ära	0		D	
   	ära	0		V	neg o
,	,			Z	
ja	ja	0		J	
on	ole	0		V	b
  	ole	0		V	vad
selle	see	0		P	sg g
     	sell	e		S	pl p
otsusega	otsus	ga		S	sg kom
kaebaja	kaebaja	0		S	sg g
       	kaebaja	0		S	sg n
ja	ja	0		J	
kaebatav	####				
rahul	rahu	l		S	sg ad
     	rahul	0		D	
.	.			Z	
