Kustas	Kusta	s		H	sg in
      	Kustas	0		H	sg n
Leukene	leu=kene	0		S	sg n
sai	saa	i		V	s
   	sai	0		S	sg n
kohtu	kohtu	0		V	o
     	kohus	0		S	sg g
ette	ette	0		D	
    	ette	0		K	
    	esi	tte		S	adt
kutsutud	kutsu	tud		V	tud
        	kutsutu	d		S	pl n
        	kutsutud	0		A	
        	kutsutud	0		A	sg n
        	kutsutud	d		A	pl n
et	et	0		J	
ta	tema	0		P	sg g
  	tema	0		P	sg n
mitte	mitte	0		D	
oma	oma	0		A	sg g
   	oma	0		D	
   	oma	0		P	sg g
   	oma	0		S	sg g
   	oma	0		V	o
   	oma	0		A	sg n
   	oma	0		A	sg p
   	oma	0		P	sg n
   	oma	0		P	sg p
   	oma	0		S	sg n
   	oma	0		S	sg p
vana	vana	0		A	sg g
    	vana	0		A	sg n
    	vana	0		A	sg p
    	vana	0		S	sg g
    	vana	0		S	sg n
    	vana	0		S	sg p
pearaha	pea_raha	0		S	sg g
       	pea_raha	0		S	sg n
       	pea_raha	0		S	sg p
70	70	0		N	?
kop	kop	0		Y	?
pole	ole	0		V	neg o
ära	ära	0		D	
   	ära	0		V	neg o
maksnud	maks	nud		V	nud
       	maks=nu	d		S	pl n
       	maks=nud	0		A	
       	maks=nud	0		A	sg n
       	maks=nud	d		A	pl n
ja	ja	0		J	
sai	saa	i		V	s
   	sai	0		S	sg n
tal	tema	l		P	sg ad
1	1	0		N	?
nädal	nädal	0		S	sg n
aega	aeg	0		S	adt
    	aeg	0		S	sg p
    	aega	0		K	
antud	an=tu	d		S	pl n
     	and	tud		V	tud
     	antud	0		A	
     	antud	0		A	sg n
     	antud	d		A	pl n
ja	ja	0		J	
peab	pida	b		V	b
siis	siis	0		D	
    	siis	0		J	
se	####				
nimetatud	nimeta	tud		V	tud
         	nimetatu	d		S	pl n
         	nimetatud	0		A	
         	nimetatud	0		A	sg n
         	nimetatud	d		A	pl n
pearaha	pea_raha	0		S	sg g
       	pea_raha	0		S	sg n
       	pea_raha	0		S	sg p
täiesti	täiesti	0		D	
makstud	maks	tud		V	tud
       	maks=tu	d		S	pl n
       	maks=tud	0		A	
       	maks=tud	0		A	sg n
       	maks=tud	d		A	pl n
olema	ole	ma		V	ma
.	.			Z	
