Triigi	triiki	0		V	o
mõisas	mõis	s		S	sg in
3ndal	3=s	l		O	sg ad
veebruaris	veebruar	s		S	sg in
1869.	1869.	0		O	?
koos	koos	0		D	
    	koos	0		K	
    	koos	0		S	sg n
    	kubu	s		S	sg in
olid	ole	id		V	sid
pea	pea	0		D	
   	pea	0		S	sg g
   	pida	0		V	o
   	pea	0		S	sg n
kohtumees	kohtu_mees	0		S	sg n
Jaak	Jaak	0		H	sg n
    	jaak	0		S	sg n
Eino	Eino	0		H	sg g
    	Eino	0		H	sg n
abimees	abi_mees	0		S	sg n
Jaan	Jaan	0		H	sg n
    	jaan	0		S	sg n
    	jaan	0		Y	?
Õunapuu	õuna_puu	0		S	sg g
       	õuna_puu	0		S	sg n
abimees	abi_mees	0		S	sg n
Jaan	Jaan	0		H	sg n
    	jaan	0		S	sg n
    	jaan	0		Y	?
Kauson	####				
kirjutaja	kirjutaja	0		S	sg g
         	kirjutaja	0		S	sg n
Mik	####				
Levet	####				
ette	ette	0		D	
    	ette	0		K	
    	esi	tte		S	adt
tuli	tuli	0		S	sg n
    	tule	i		V	s
Anu	Anu	0		H	sg g
   	anu	0		V	o
   	Anu	0		H	sg n
Pakalts	####				
,	,			Z	
ja	ja	0		J	
ütleb	ütle	b		V	b
et	et	0		J	
tema	tema	0		P	sg g
    	tema	0		P	sg n
tuli	tuli	0		S	sg n
    	tule	i		V	s
mullu	mullu	0		D	
Jüri	Jüri	0		H	sg g
    	Jüri	0		H	sg n
päeva	päev	0		S	adt
     	päev	0		S	sg g
     	päev	0		S	sg p
1868	1868	0		N	?
Triigi	triiki	0		V	o
valda	vald	0		S	adt
     	valda	0		V	o
     	vald	0		S	sg p
Eriki	####				
peres	pere	s		S	sg in
teenima	teeni	ma		V	ma
ja	ja	0		J	
oli	ole	i		V	s
kaubelnu	kaubel=nu	0		S	sg g
        	kaubel=nu	0		S	sg n
aasta	aasta	0		S	sg g
     	aasta	0		S	sg n
peale	pea	le		S	sg all
     	peale	0		D	
     	peale	0		K	
teenimise	teenimine	0		S	sg g
kauba	kaup	0		S	sg g
,	,			Z	
aga	aga	0		J	
nüüd	nüüd	0		D	
Eriki	####				
peremees	pere_mees	0		S	sg n
(	(			Z	
Tõnu	Tõnu	0		H	sg g
    	Tõnu	0		H	sg n
Kado	####				
)	)			Z	
on	ole	0		V	b
  	ole	0		V	vad
teda	tema	da		P	sg p
enne	enne	0		D	
    	enne	0		K	
    	enne	0		S	sg n
lahti	laht	i		S	pl p
     	lahti	0		D	
lasknud	lask	nud		V	nud
       	lask=nu	d		S	pl n
       	lask=nud	0		A	
       	lask=nud	0		A	sg n
       	lask=nud	d		A	pl n
kui	kui	0		D	
   	kui	0		J	
aasta	aasta	0		S	sg g
     	aasta	0		S	sg n
täis	täi	s		S	sg in
    	täi	s		V	s
    	täis	0		A	
    	täis	0		A	sg n
    	täis	0		D	
    	täis	0		S	sg n
sai	saa	i		V	s
   	sai	0		S	sg n
,	,			Z	
Eriki	####				
peremees	pere_mees	0		S	sg n
tunnistab	tunnista	b		V	b
et	et	0		J	
tema	tema	0		P	sg g
    	tema	0		P	sg n
pole	ole	0		V	neg o
mitte	mitte	0		D	
seda	see	da		P	sg p
kaupa	kaup	0		S	adt
     	kaup	0		S	sg p
     	kaupa	0		K	
teinud	tege	nud		V	nud
      	tei=nud	0		A	
      	tei=nud	0		A	sg n
      	tei=nud	d		A	pl n
      	teinu	d		S	pl n
et	et	0		J	
tema	tema	0		P	sg g
    	tema	0		P	sg n
Anu	Anu	0		H	sg g
   	anu	0		V	o
   	Anu	0		H	sg n
Pukaltsi	####				
Jüri	Jüri	0		H	sg g
    	Jüri	0		H	sg n
päevast	päev	st		S	sg el
       	päevane	t		A	sg p
Jüri	Jüri	0		H	sg g
    	Jüri	0		H	sg n
päevani	päev	ni		S	sg ter
pidi	pida	i		V	s
    	pidi	0		K	
pidama	pida	ma		V	ma
ta	tema	0		P	sg g
  	tema	0		P	sg n
on	ole	0		V	b
  	ole	0		V	vad
lubanud	luba	nud		V	nud
       	luba=nu	d		S	pl n
       	luba=nud	0		A	
       	luba=nud	0		A	sg n
       	luba=nud	d		A	pl n
küll	küll	0		D	
    	küll	0		S	sg n
temale	tema	le		P	sg all
täis	täi	s		S	sg in
    	täi	s		V	s
    	täis	0		A	
    	täis	0		A	sg n
    	täis	0		D	
    	täis	0		S	sg n
aasta	aasta	0		S	sg g
     	aasta	0		S	sg n
riide	riid	e		S	pl p
     	riie	0		S	adt
     	riie	0		S	sg g
ja	ja	0		J	
palka	palk	0		S	adt
     	palka	0		V	o
     	palk	0		S	sg p
maksa	maks	0		S	adt
     	maks	0		S	sg g
     	maks	0		V	o
     	maks	0		S	sg p
,	,			Z	
aga	aga	0		J	
teine	teine	0		O	sg n
     	teine	0		P	sg n
aasta	aasta	0		S	sg g
     	aasta	0		S	sg n
poole	pool	0		N	sg g
     	pool	0		S	sg g
     	pool	e		S	pl p
     	poole	0		K	
     	poole	0		S	sg n
talve	talv	0		S	adt
     	talv	0		S	sg g
     	tali	0		S	adt
     	tali	0		S	sg g
     	talv	0		S	sg p
     	tali	0		S	sg p
ajal	aeg	l		S	sg ad
    	ajal	0		K	
lahti	laht	i		S	pl p
     	lahti	0		D	
lasta	lask	ta		V	da
     	lask	ta		V	ta
ja	ja	0		J	
nüüd	nüüd	0		D	
Eriki	####				
peremees	pere_mees	0		S	sg n
on	ole	0		V	b
  	ole	0		V	vad
teda	tema	da		P	sg p
(	(			Z	
Anu	Anu	0		H	sg g
   	anu	0		V	o
   	Anu	0		H	sg n
Pukaltsi	####				
)	)			Z	
lahti	laht	i		S	pl p
     	lahti	0		D	
lasknud	lask	nud		V	nud
       	lask=nu	d		S	pl n
       	lask=nud	0		A	
       	lask=nud	0		A	sg n
       	lask=nud	d		A	pl n
poole	pool	0		N	sg g
     	pool	0		S	sg g
     	pool	e		S	pl p
     	poole	0		K	
     	poole	0		S	sg n
talve	talv	0		S	adt
     	talv	0		S	sg g
     	tali	0		S	adt
     	tali	0		S	sg g
     	talv	0		S	sg p
     	tali	0		S	sg p
ajal	aeg	l		S	sg ad
    	ajal	0		K	
,	,			Z	
ja	ja	0		J	
on	ole	0		V	b
  	ole	0		V	vad
Anu	Anu	0		H	sg g
   	anu	0		V	o
   	Anu	0		H	sg n
Pukaltsi	####				
täie	täis	0		A	sg g
    	täis	0		S	sg g
aasta	aasta	0		S	sg g
     	aasta	0		S	sg n
riide	riid	e		S	pl p
     	riie	0		S	adt
     	riie	0		S	sg g
ja	ja	0		J	
palga	palk	0		S	sg g
kätte	kätte	0		K	
     	käsi	tte		S	adt
maksnud	maks	nud		V	nud
       	maks=nu	d		S	pl n
       	maks=nud	0		A	
       	maks=nud	0		A	sg n
       	maks=nud	d		A	pl n
,	,			Z	
ja	ja	0		J	
Anu	Anu	0		H	sg g
   	anu	0		V	o
   	Anu	0		H	sg n
Pakalts	####				
tunnistab	tunnista	b		V	b
et	et	0		J	
se	####				
on	ole	0		V	b
  	ole	0		V	vad
käes	käes	0		K	
    	käsi	s		S	sg in
.	.			Z	
kohus	kohu	s		V	s
     	kohus	0		S	sg n
mõistis	mõist	is		V	s
et	et	0		J	
Anu	Anu	0		H	sg g
   	anu	0		V	o
   	Anu	0		H	sg n
Pakalts	####				
peab	pida	b		V	b
sellega	see	ga		P	sg kom
rahul	rahu	l		S	sg ad
     	rahul	0		D	
olema	ole	ma		V	ma
,	,			Z	
et	et	0		J	
neil	see	l		P	pl ad
    	tema	l		P	pl ad
ei	ei	0		D	
  	ei	0		V	neg
olnud	ol=nud	0		A	
     	ol=nud	0		A	sg n
     	ol=nud	d		A	pl n
     	ole	nud		V	nud
     	olnu	d		S	pl n
käemeest	käe_mees	t		S	sg p
kui	kui	0		D	
   	kui	0		J	
nemad	tema	d		P	pl n
kaupa	kaup	0		S	adt
     	kaup	0		S	sg p
     	kaupa	0		K	
tegid	tege	id		V	sid
,	,			Z	
ja	ja	0		J	
et	et	0		J	
Anu	Anu	0		H	sg g
   	anu	0		V	o
   	Anu	0		H	sg n
Pakalts	####				
on	ole	0		V	b
  	ole	0		V	vad
täie	täis	0		A	sg g
    	täis	0		S	sg g
aasta	aasta	0		S	sg g
     	aasta	0		S	sg n
riide	riid	e		S	pl p
     	riie	0		S	adt
     	riie	0		S	sg g
ja	ja	0		J	
palga	palk	0		S	sg g
kätte	kätte	0		K	
     	käsi	tte		S	adt
saanud	saa	nud		V	nud
      	saa=nud	0		A	
      	saa=nud	0		A	sg n
      	saa=nud	d		A	pl n
      	saanu	d		S	pl n
,	,			Z	
aga	aga	0		J	
et	et	0		J	
Anu	Anu	0		H	sg g
   	anu	0		V	o
   	Anu	0		H	sg n
Pakalts	####				
ei	ei	0		D	
  	ei	0		V	neg
olnud	ol=nud	0		A	
     	ol=nud	0		A	sg n
     	ol=nud	d		A	pl n
     	ole	nud		V	nud
     	olnu	d		S	pl n
selle	see	0		P	sg g
     	sell	e		S	pl p
mõistusega	mõistus	ga		S	sg kom
rahul	rahu	l		S	sg ad
     	rahul	0		D	
seepärast	see_pärast	0		D	
sai	saa	i		V	s
   	sai	0		S	sg n
se	####				
protokoll	protokoll	0		S	sg n
välja	välja	0		D	
     	välja	0		V	o
     	väli	0		S	adt
     	väli	0		S	sg g
     	väli	0		S	sg p
antud	an=tu	d		S	pl n
     	and	tud		V	tud
     	antud	0		A	
     	antud	0		A	sg n
     	antud	d		A	pl n
kihelkonna	kihelkond	0		S	sg g
kohtusse	kohtune	se		A	adt
        	kohus	sse		S	sg ill
.	.			Z	
