astusid	astu	sid		V	sid
kohtu	kohtu	0		V	o
     	kohus	0		S	sg g
ette	ette	0		D	
    	ette	0		K	
    	esi	tte		S	adt
õnsa	####				
pere	pere	0		S	sg g
    	pere	0		S	sg n
Mardi	Mart	0		H	sg g
     	mart	0		S	sg g
vanem	vanem	0		C	sg n
     	vanem	0		S	sg n
väimees	väi_mees	0		S	sg n
Jüri	Jüri	0		H	sg g
    	Jüri	0		H	sg n
Annus	annus	0		S	sg n
ja	ja	0		J	
noorem	noorem	0		C	sg n
väimees	väi_mees	0		S	sg n
Gustav	Gustav	0		H	sg n
Reindes	####				
ja	ja	0		J	
nõudsid	nõud	sid		V	sid
et	et	0		J	
pere	pere	0		S	sg g
    	pere	0		S	sg n
Mardi	Mart	0		H	sg g
     	mart	0		S	sg g
poeg	poeg	0		S	sg n
Kaarel	Kaarel	0		H	sg n
      	kaar	l		S	sg ad
      	kaarel	0		S	sg n
Andermann	####				
peab	pida	b		V	b
venna	vend	0		S	sg g
Jüri	Jüri	0		H	sg g
    	Jüri	0		H	sg n
Andermanni	####				
varanduse	varandus	0		S	sg g
,	,			Z	
mis	mis	0		P	pl n
   	mis	0		P	sg n
tema	tema	0		P	sg g
    	tema	0		P	sg n
kääs	####				
on	ole	0		V	b
  	ole	0		V	vad
83	83	0		N	?
rbl	rbl	0		Y	?
.	.			Z	
ja	ja	0		J	
7	7	0		N	?
aastat	aasta	t		S	sg p
ei	ei	0		D	
  	ei	0		V	neg
ole	ole	0		V	o
indresid	####				
kannud	kann	d		S	pl n
kõige	kõik	0		P	sg g
     	kõige	0		D	
indressitega	####				
ära	ära	0		D	
   	ära	0		V	neg o
tasuma	tasu	ma		V	ma
.	.			Z	
Kaarel	Kaarel	0		H	sg n
      	kaar	l		S	sg ad
      	kaarel	0		S	sg n
Andermann	####				
sai	saa	i		V	s
   	sai	0		S	sg n
ette	ette	0		D	
    	ette	0		K	
    	esi	tte		S	adt
kutsutud	kutsu	tud		V	tud
        	kutsutu	d		S	pl n
        	kutsutud	0		A	
        	kutsutud	0		A	sg n
        	kutsutud	d		A	pl n
tema	tema	0		P	sg g
    	tema	0		P	sg n
tunnistas	tunnista	s		V	s
,	,			Z	
et	et	0		J	
taal	####				
Juri	Juri	0		H	sg g
    	Juri	0		H	sg n
Andermanile	####				
maksta	maks	ta		V	da
      	maks	ta		V	ta
on	ole	0		V	b
  	ole	0		V	vad
,	,			Z	
ja	ja	0		J	
maksis	maks	is		V	s
      	maksi	s		S	sg in
indressidega	####				
köökku	####				
110	110	0		N	?
rbl	rbl	0		Y	?
.	.			Z	
valla	vald	0		S	sg g
     	valla	0		D	
kohtus	kohtu	s		V	s
      	kohus	s		S	sg in
ära	ära	0		D	
   	ära	0		V	neg o
.	.			Z	
10	10	0		N	?
rbl	rbl	0		Y	?
.	.			Z	
sai	saa	i		V	s
   	sai	0		S	sg n
Jüri	Jüri	0		H	sg g
    	Jüri	0		H	sg n
omale	oma	le		A	sg all
     	oma	le		P	sg all
     	oma	le		S	sg all
saaparahaks	saapa_raha	ks		S	sg tr
ja	ja	0		J	
100	100	0		N	?
rbl	rbl	0		Y	?
.	.			Z	
viis	vii	s		V	s
    	viis	0		N	sg n
    	viis	0		S	sg n
Kaarel	Kaarel	0		H	sg n
      	kaar	l		S	sg ad
      	kaarel	0		S	sg n
Andermann	####				
isi	####				
kihelkonna	kihelkond	0		S	sg g
kohtu	kohtu	0		V	o
     	kohus	0		S	sg g
teenima	teeni	ma		V	ma
Jüri	Jüri	0		H	sg g
    	Jüri	0		H	sg n
jaoks	jaoks	0		D	
     	jaoks	0		K	
     	jagu	ks		S	sg tr
.	.			Z	
nimelt	nimelt	0		D	
      	nimi	lt		S	sg abl
:	:			Z	
ühe	üks	0		N	sg g
   	üks	0		P	sg g
   	ühe	0		S	sg n
riidik	####				
kasa	####				
5%lise	5%=line	0		A	sg g
ekslev	eksle	v		V	v
      	ekslev	0		A	sg n
,	,			Z	
mis	mis	0		P	pl n
   	mis	0		P	sg n
pidi	pida	i		V	s
    	pidi	0		K	
esiteks	esiteks	0		D	
valla	vald	0		S	sg g
     	valla	0		D	
laekasse	laegas	sse		S	sg ill
jääma	jää	ma		V	ma
     	jääm	0		S	adt
     	jääm	0		S	sg g
     	jääm	0		S	sg p
.	.			Z	
peakohtumees	pea_kohtu_mees	0		S	sg n
:	:			Z	
Juhan	Juhan	0		H	sg n
Humberg	####				
XXX	XXX	0		O	?
   	XXX	0		Y	?
kirjutaja	kirjutaja	0		S	sg g
         	kirjutaja	0		S	sg n
G	G	0		Y	?
.	.			Z	
_	_			Z	
kolip	####				
