nr	nr	0		Y	?
1	1	0		N	?
Rannamõisas	ranna_mõis	s		S	sg in
sel	see	l		P	sg ad
   	sel	0		Y	?
23.	23.	0		O	?
Vebruaril	####				
1867	1867	0		N	?
koosolid	####				
p	p	0		Y	?
.	.			Z	
kohtumees	kohtu_mees	0		S	sg n
rauk	rauk	0		S	sg n
.	.			Z	
_Tberg	####				
abim	####				
.	.			Z	
J. Lipp	####				
,	,			Z	
k	k	0		Y	?
.	.			Z	
_	_			Z	
Luker	####				
.	.			Z	
ette	ette	0		D	
    	ette	0		K	
    	esi	tte		S	adt
tuli	tuli	0		S	sg n
    	tule	i		V	s
kaebaja	kaebaja	0		S	sg g
       	kaebaja	0		S	sg n
kirsk	####				
.	.			Z	
_eld	####				
(	(			Z	
metsavaht	metsa_vaht	0		S	sg n
)	)			Z	
ja	ja	0		J	
kaebas	kaeba	s		V	s
,	,			Z	
et	et	0		J	
Kaarel	Kaarel	0		H	sg n
      	kaar	l		S	sg ad
      	kaarel	0		S	sg n
Meremees	mere_mees	0		S	sg n
ja	ja	0		J	
Mihkel	Mihkel	0		H	sg n
      	mihkel	0		A	sg n
      	mihkel	0		S	sg n
Rammus	ramm	s		S	sg in
      	rammus	0		A	sg n
üks	üks	0		N	sg n
   	üks	0		P	sg n
koorm	####				
kasse	kass	e		S	pl p
ja	ja	0		J	
leppa	lepp	0		S	adt
     	lepp	0		S	sg p
agu	agu	0		S	sg n
   	agu	0		S	sg p
mõisa	mõis	0		S	sg g
metsast	mets	st		S	sg el
       	metsane	t		A	sg p
välja	välja	0		D	
     	välja	0		V	o
     	väli	0		S	adt
     	väli	0		S	sg g
     	väli	0		S	sg p
toonud	too	nud		V	nud
      	too=nu	d		S	pl n
      	too=nud	0		A	
      	too=nud	0		A	sg n
      	too=nud	d		A	pl n
ja	ja	0		J	
Arvartu	####				
heinamas	####				
tema	tema	0		P	sg g
    	tema	0		P	sg n
vastu	vastu	0		D	
     	vastu	0		K	
tulnud	tul=nud	0		A	
      	tul=nud	0		A	sg n
      	tul=nud	d		A	pl n
      	tule	nud		V	nud
      	tulnu	d		S	pl n
.	.			Z	
aga	aga	0		J	
nad	tema	d		P	pl n
tunnistavad	tunnista	vad		V	vad
           	tunnista=v	d		A	pl n
ka	ka	0		D	
,	,			Z	
et	et	0		J	
metsavaht	metsa_vaht	0		S	sg n
üks	üks	0		N	sg n
   	üks	0		P	sg n
teinekord	teine_kord	0		D	
enne	enne	0		D	
    	enne	0		K	
    	enne	0		S	sg n
nende	see	de		P	pl g
     	tema	de		P	pl g
vastu	vastu	0		D	
     	vastu	0		K	
tulnud	tul=nud	0		A	
      	tul=nud	0		A	sg n
      	tul=nud	d		A	pl n
      	tule	nud		V	nud
      	tulnu	d		S	pl n
üks	üks	0		N	sg n
   	üks	0		P	sg n
puu	puu	0		S	sg g
   	puu	0		S	sg n
peaostega	####				
tükkis	tükki	s		V	s
      	tükkis	0		A	
      	tükkis	0		D	
      	tükkis	0		K	
jõulu	####				
ja	ja	0		J	
Nääri	näär	0		S	adt
     	näär	0		S	sg g
     	näär	i		S	pl p
     	näär	0		S	sg p
vahel	vahe	l		S	sg ad
     	vahel	0		D	
     	vahel	0		K	
(	(			Z	
1866	1866	0		N	?
)	)			Z	
.	.			Z	
k	k	0		Y	?
.	.			Z	
_	_			Z	
kirseld	####				
ütleb	ütle	b		V	b
,	,			Z	
et	et	0		J	
neid	neid	0		S	sg n
    	see	d		P	pl p
    	tema	d		P	pl p
olla	ole	a		V	da
oma	oma	0		A	sg g
   	oma	0		D	
   	oma	0		P	sg g
   	oma	0		S	sg g
   	oma	0		V	o
   	oma	0		A	sg n
   	oma	0		A	sg p
   	oma	0		P	sg n
   	oma	0		P	sg p
   	oma	0		S	sg n
   	oma	0		S	sg p
ahju	ahi	0		S	adt
    	ahi	0		S	sg g
    	ahi	0		S	sg p
kütte	kütt	e		S	pl p
     	küte	0		S	adt
     	küte	0		S	sg g
tarvis	tarvis	0		D	
      	tarvis	0		K	
toonud	too	nud		V	nud
      	too=nu	d		S	pl n
      	too=nud	0		A	
      	too=nud	0		A	sg n
      	too=nud	d		A	pl n
ja	ja	0		J	
Baroon	####				
Pulbergi	pulber	0	gi	S	sg n
lubaga	####				
Jakob	Jakob	0		H	sg n
päeva	päev	0		S	adt
     	päev	0		S	sg g
     	päev	0		S	sg p
ja	ja	0		J	
Mihklipäeva	mihkli_päev	0		S	adt
           	mihkli_päev	0		S	sg g
           	mihkli_päev	0		S	sg p
vahel	vahe	l		S	sg ad
     	vahel	0		D	
     	vahel	0		K	
raiunud	raiu	nud		V	nud
       	raiu=nu	d		S	pl n
       	raiu=nud	0		A	
       	raiu=nud	0		A	sg n
       	raiu=nud	d		A	pl n
.	.			Z	
kohus	kohu	s		V	s
     	kohus	0		S	sg n
jättis	jät	is		V	s
teiseks	teine	ks		O	sg tr
       	teine	ks		P	sg tr
       	teiseks	0		D	
korraks	kord	ks		S	sg tr
       	korraks	0		D	
ette	ette	0		D	
    	ette	0		K	
    	esi	tte		S	adt
kutsuda	kutsu	da		V	da
,	,			Z	
kui	kui	0		D	
   	kui	0		J	
Baroon	####				
koeo	####				
tuleb	tule	b		V	b
.	.			Z	
aga	aga	0		J	
Baron	####				
andis	and	is		V	s
se	####				
kord	kord	0		D	
    	kord	0		S	sg n
andeks	andeks	0		X	
      	anne	ks		S	sg tr
ja	ja	0		J	
lubas	luba	s		V	s
kui	kui	0		D	
   	kui	0		J	
teine	teine	0		O	sg n
     	teine	0		P	sg n
kord	kord	0		D	
    	kord	0		S	sg n
veel	veel	0		D	
    	vesi	l		S	sg ad
peaks	pea	ks		S	sg tr
     	pida	ks		V	ks
ette	ette	0		D	
    	ette	0		K	
    	esi	tte		S	adt
tulema	tule	ma		V	ma
,	,			Z	
siis	siis	0		D	
    	siis	0		J	
kahevõra	kahe_võra	0		S	sg g
        	kahe_võra	0		S	sg n
        	kahe_võra	0		S	sg p
trahvipeale	trahvi_pea	le		S	sg all
panna	pand	0		S	sg g
     	pane	a		V	da
     	panna	0		S	sg g
     	panna	0		S	sg n
.	.			Z	
k	k	0		Y	?
.	.			Z	
_	_			Z	
Trauberg	####				
XXX	XXX	0		O	?
   	XXX	0		Y	?
k	k	0		Y	?
.	.			Z	
_	_			Z	
Luker	####				
XXX	XXX	0		O	?
   	XXX	0		Y	?
J. Lipp	####				
XXX	XXX	0		O	?
   	XXX	0		Y	?
kirjutaja	kirjutaja	0		S	sg g
         	kirjutaja	0		S	sg n
M	M	0		O	?
 	M	0		Y	?
.	.			Z	
_	_			Z	
Käärt	####				
