Araka	####				
Hans	Hans	0		H	sg n
Flus	####				
maksis	maks	is		V	s
      	maksi	s		S	sg in
2	2	0		N	?
(	(			Z	
kaks	kaks	0		N	sg n
rubla	rubla	0		S	sg g
     	rubla	0		S	sg n
     	rubla	0		S	sg p
)	)			Z	
trahvi	trahv	0		S	adt
      	trahv	0		S	sg g
      	trahvi	0		V	o
      	trahv	0		S	sg p
sele	####				
eest	eest	0		D	
    	eest	0		K	
    	esi	st		S	sg el
et	et	0		J	
tema	tema	0		P	sg g
    	tema	0		P	sg n
,	,			Z	
matsu	mats	0		S	adt
     	mats	0		S	sg g
     	matsu	0		V	o
     	mats	0		S	sg p
küüni	küün	0		S	adt
     	küün	0		S	sg g
     	küündi	0		V	o
     	küün	0		S	sg p
juurest	juur	st		S	sg el
       	juurest	0		K	
ühe	üks	0		N	sg g
   	üks	0		P	sg g
   	ühe	0		S	sg n
raud	raud	0		S	sg n
kangi	kang	0		S	adt
     	kang	0		S	sg g
     	kang	0		S	sg p
oli	ole	i		V	s
ära	ära	0		D	
   	ära	0		V	neg o
varastanud	varasta	nud		V	nud
          	varasta=nu	d		S	pl n
          	varasta=nud	0		A	
          	varasta=nud	0		A	sg n
          	varasta=nud	d		A	pl n
,	,			Z	
mis	mis	0		P	pl n
   	mis	0		P	sg n
nüüd	nüüd	0		D	
välja	välja	0		D	
     	välja	0		V	o
     	väli	0		S	adt
     	väli	0		S	sg g
     	väli	0		S	sg p
tulnud	tul=nud	0		A	
      	tul=nud	0		A	sg n
      	tul=nud	d		A	pl n
      	tule	nud		V	nud
      	tulnu	d		S	pl n
on	ole	0		V	b
  	ole	0		V	vad
.	.			Z	
