vassalemas	####				
30mal	####				
jaanuaris	jaanuar	s		S	sg in
1869.	1869.	0		O	?
koos	koos	0		D	
    	koos	0		K	
    	koos	0		S	sg n
    	kubu	s		S	sg in
olid	ole	id		V	sid
kohtumehed	kohtu_mees	d		S	pl n
Thomas	Thomas	0		H	sg n
Veimann	####				
ja	ja	0		J	
Madis	Madis	0		H	sg n
     	madis	0		S	sg n
Amman	Amman	0		H	sg n
.	.			Z	
sel	see	l		P	sg ad
   	sel	0		Y	?
päeval	päev	l		S	sg ad
ei	ei	0		D	
  	ei	0		V	neg
saanud	saa	nud		V	nud
      	saa=nud	0		A	
      	saa=nud	0		A	sg n
      	saa=nud	d		A	pl n
      	saanu	d		S	pl n
ühte	ühte	0		D	
    	üks	0		N	adt
    	üks	0		P	adt
    	ühe	0		S	sg g
    	üks	0		N	sg p
    	üks	0		P	sg p
mõistetud	mõist	tud		V	tud
         	mõiste=tu	d		S	pl n
         	mõiste=tud	0		A	
         	mõiste=tud	0		A	sg n
         	mõiste=tud	d		A	pl n
.	.			Z	
Thomas	Thomas	0		H	sg n
Veimann	####				
XXX	XXX	0		O	?
   	XXX	0		Y	?
,	,			Z	
Madis	Madis	0		H	sg n
     	madis	0		S	sg n
Amann	####				
XXX	XXX	0		O	?
   	XXX	0		Y	?
