kohtukorrapärast	kohtu_korra_pärane	t		A	sg p
olid	ole	id		V	sid
kokku	kokku	0		D	
     	kogu	0		S	adt
tulnud	tul=nud	0		A	
      	tul=nud	0		A	sg n
      	tul=nud	d		A	pl n
      	tule	nud		V	nud
      	tulnu	d		S	pl n
Rae	raad	0		S	sg g
ja	ja	0		J	
Jüri	Jüri	0		H	sg g
    	Jüri	0		H	sg n
kiriku	kirik	0		S	sg g
valla	vald	0		S	sg g
     	valla	0		D	
kohtusse	kohtune	se		A	adt
        	kohus	sse		S	sg ill
valla	vald	0		S	sg g
     	valla	0		D	
hoonesse	hoone	sse		S	sg ill
(	(			Z	
Raudsepa	raud_sepp	0		S	sg g
pere	pere	0		S	sg g
    	pere	0		S	sg n
tuppa	tuba	0		S	adt
)	)			Z	
:	:			Z	
kohtuvanem	kohtu_vanem	0		C	sg n
          	kohtu_vanem	0		S	sg n
:	:			Z	
Jaan	Jaan	0		H	sg n
    	jaan	0		S	sg n
    	jaan	0		Y	?
Vitismann	####				
,	,			Z	
abimees	abi_mees	0		S	sg n
Jaan	Jaan	0		H	sg n
    	jaan	0		S	sg n
    	jaan	0		Y	?
Rodemann	####				
""""	""""			Z	
Mihkel	Mihkel	0		H	sg n
      	mihkel	0		A	sg n
      	mihkel	0		S	sg n
Taneberg	####				
kirjutaja	kirjutaja	0		S	sg g
         	kirjutaja	0		S	sg n
H	H	0		Y	?
.	.			Z	
_	_			Z	
Siimberg	####				
.	.			Z	
Tänasel	tänane	l		A	sg ad
kohtu	kohtu	0		V	o
     	kohus	0		S	sg g
päeval	päev	l		S	sg ad
ei	ei	0		D	
  	ei	0		V	neg
tulnud	tul=nud	0		A	
      	tul=nud	0		A	sg n
      	tul=nud	d		A	pl n
      	tule	nud		V	nud
      	tulnu	d		S	pl n
kohtu	kohtu	0		V	o
     	kohus	0		S	sg g
asju	asi	u		S	pl p
ette	ette	0		D	
    	ette	0		K	
    	esi	tte		S	adt
seletada	seleta	da		V	da
.	.			Z	
kohtuvanem	kohtu_vanem	0		C	sg n
          	kohtu_vanem	0		S	sg n
:	:			Z	
J. Vitismann	####				
[	[			Z	
allkiri	all_kiri	0		S	sg n
]	]			Z	
Abimees	abi_mees	0		S	sg n
J. Rodemann	####				
[	[			Z	
allkiri	all_kiri	0		S	sg n
]	]			Z	
""""	""""			Z	
Mihkel	Mihkel	0		H	sg n
      	mihkel	0		A	sg n
      	mihkel	0		S	sg n
Taneberg	####				
XXX	XXX	0		O	?
   	XXX	0		Y	?
kirjutaja	kirjutaja	0		S	sg g
         	kirjutaja	0		S	sg n
Siimberg	####				
[	[			Z	
allkiri	all_kiri	0		S	sg n
]	]			Z	
