Nõmbra	####				
mõisa	mõis	0		S	sg g
Baroon	####				
takkelberg	####				
kaebab	kaeba	b		V	b
:	:			Z	
Palverest	palve_rest	0		S	sg n
Kangru	kangur	0		S	sg g
Hansu	Hans	0		H	adt
     	Hans	0		H	sg g
     	Hans	0		H	sg p
poeg	poeg	0		S	sg n
ja	ja	0		J	
kõrgevälja	kõrge_väli	0		S	adt
          	kõrge_väli	0		S	sg g
          	kõrge_väli	0		S	sg p
sepa	sepp	0		S	sg g
poeg	poeg	0		S	sg n
on	ole	0		V	b
  	ole	0		V	vad
Nõmbra	####				
mõisas	mõis	s		S	sg in
öösite	####				
käinud	käi	nud		V	nud
      	käi=nud	0		A	
      	käi=nud	0		A	sg n
      	käi=nud	d		A	pl n
      	käinu	d		S	pl n
ja	ja	0		J	
aknast	aken	st		S	sg el
sisse	siss	e		S	pl p
     	sisse	0		D	
     	sisse	0		K	
vahtinud	vahti	nud		V	nud
        	vahti=nu	d		S	pl n
        	vahti=nud	0		A	
        	vahti=nud	0		A	sg n
        	vahti=nud	d		A	pl n
,	,			Z	
kui	kui	0		D	
   	kui	0		J	
koerad	koer	d		A	pl n
      	koer	d		S	pl n
Baroni	####				
härra	härra	0		S	sg g
     	härra	0		S	sg n
nendele	see	dele		P	pl all
       	tema	dele		P	pl all
peale	pea	le		S	sg all
     	peale	0		D	
     	peale	0		K	
assitanud	assi_tanu	d		S	pl n
,	,			Z	
on	ole	0		V	b
  	ole	0		V	vad
püssiga	püss	ga		S	sg kom
ähvardanud	ähvarda	nud		V	nud
          	ähvarda=nu	d		S	pl n
          	ähvarda=nud	0		A	
          	ähvarda=nud	0		A	sg n
          	ähvarda=nud	d		A	pl n
ja	ja	0		J	
küli	küli	0		V	o
katki	katki	0		D	
murdnud	murd	nud		V	nud
       	murd=nu	d		S	pl n
       	murd=nud	0		A	
       	murd=nud	0		A	sg n
       	murd=nud	d		A	pl n
.	.			Z	
kõrgevälja	kõrge_väli	0		S	adt
          	kõrge_väli	0		S	sg g
          	kõrge_väli	0		S	sg p
sepa	sepp	0		S	sg g
poeg	poeg	0		S	sg n
Hans	Hans	0		H	sg n
Vors	####				
tunnistab	tunnista	b		V	b
,	,			Z	
tema	tema	0		P	sg g
    	tema	0		P	sg n
on	ole	0		V	b
  	ole	0		V	vad
kord	kord	0		D	
    	kord	0		S	sg n
küll	küll	0		D	
    	küll	0		S	sg n
Nõmbra	####				
mõisast	mõis	st		S	sg el
üks	üks	0		N	sg n
   	üks	0		P	sg n
laupäev	lau_päev	0		S	sg n
õhtu	õhtu	0		S	sg g
    	õhtu	0		S	sg n
läbi	läbi	0		D	
    	läbi	0		K	
    	läbi	0		V	o
käinud	käi	nud		V	nud
      	käi=nud	0		A	
      	käi=nud	0		A	sg n
      	käi=nud	d		A	pl n
      	käinu	d		S	pl n
Kivitsuse	####				
,	,			Z	
aga	aga	0		J	
mitte	mitte	0		D	
öösite	####				
.	.			Z	
Kangru	kangur	0		S	sg g
Hansu	Hans	0		H	adt
     	Hans	0		H	sg g
     	Hans	0		H	sg p
poeg	poeg	0		S	sg n
Hans	Hans	0		H	sg n
Wiso	####				
tunnistab	tunnista	b		V	b
tema	tema	0		P	sg g
    	tema	0		P	sg n
pole	ole	0		V	neg o
mitte	mitte	0		D	
koguni	kogu	ni		S	sg ter
      	koguni	0		D	
Nõmbra	####				
mõisas	mõis	s		S	sg in
käinud	käi	nud		V	nud
      	käi=nud	0		A	
      	käi=nud	0		A	sg n
      	käi=nud	d		A	pl n
      	käinu	d		S	pl n
.	.			Z	
et	et	0		J	
nende	see	de		P	pl g
     	tema	de		P	pl g
tunnistuste	tunnistus	te		S	pl g
mööda	mööda	0		A	
     	mööda	0		D	
     	mööda	0		K	
neid	neid	0		S	sg n
    	see	d		P	pl p
    	tema	d		P	pl p
süüaluseks	süü_alune	ks		A	sg tr
          	süü_alune	ks		S	sg tr
mõista	mõist	0		V	o
      	mõist	a		V	da
ei	ei	0		D	
  	ei	0		V	neg
või	või	0		S	sg g
   	või	0		V	o
   	või	0		D	
   	või	0		J	
   	või	0		S	sg n
,	,			Z	
võeti	võt	ti		V	ti
nõuks	nõu	ks		S	sg tr
Nõmbra	####				
härrale	härra	le		S	sg all
seda	see	da		P	sg p
teada	tead	a		V	da
anda	and	a		V	da
ja	ja	0		J	
paremad	parem	d		C	pl n
tunnistust	tunnistus	t		S	sg p
nõuda	nõud	a		V	da
.	.			Z	
kohtu	kohtu	0		V	o
     	kohus	0		S	sg g
vanem	vanem	0		C	sg n
     	vanem	0		S	sg n
Juhan	Juhan	0		H	sg n
Preimber	####				
XXX	XXX	0		O	?
   	XXX	0		Y	?
kohtu	kohtu	0		V	o
     	kohus	0		S	sg g
käemehed	käe_mees	d		S	pl n
Jüri	Jüri	0		H	sg g
    	Jüri	0		H	sg n
Allak	####				
XXX	XXX	0		O	?
   	XXX	0		Y	?
Jüri	Jüri	0		H	sg g
    	Jüri	0		H	sg n
Bom	####				
XXX	XXX	0		O	?
   	XXX	0		Y	?
kirjutaja	kirjutaja	0		S	sg g
         	kirjutaja	0		S	sg n
Hans	Hans	0		H	sg n
Siimson	####				
