kohtu	kohtu	0		V	o
     	kohus	0		S	sg g
korra	kord	0		S	sg g
pärast	pära	st		S	sg el
      	pärane	t		A	sg p
      	pärast	0		D	
      	pärast	0		K	
olid	ole	id		V	sid
Ravila	ravila	0		S	sg g
      	ravila	0		S	sg n
ja	ja	0		J	
palvere	####				
valla	vald	0		S	sg g
     	valla	0		D	
hoones	hoone	s		S	sg in
kokku	kokku	0		D	
     	kogu	0		S	adt
tulnud	tul=nud	0		A	
      	tul=nud	0		A	sg n
      	tul=nud	d		A	pl n
      	tule	nud		V	nud
      	tulnu	d		S	pl n
:	:			Z	
kohtu	kohtu	0		V	o
     	kohus	0		S	sg g
vanem	vanem	0		C	sg n
     	vanem	0		S	sg n
:	:			Z	
Jüri	Jüri	0		H	sg g
    	Jüri	0		H	sg n
Ummus	####				
kohtu	kohtu	0		V	o
     	kohus	0		S	sg g
käemehed	käe_mees	d		S	pl n
Hans	Hans	0		H	sg n
Härg	härg	0		S	sg n
Mik	####				
Elts	Elts	0		H	sg n
kirjutaja	kirjutaja	0		S	sg g
         	kirjutaja	0		S	sg n
H	H	0		Y	?
.	.			Z	
_Siimson	####				
kohtu	kohtu	0		V	o
     	kohus	0		S	sg g
käijaid	käija	id		S	pl p
ei	ei	0		D	
  	ei	0		V	neg
olnud	ol=nud	0		A	
     	ol=nud	0		A	sg n
     	ol=nud	d		A	pl n
     	ole	nud		V	nud
     	olnu	d		S	pl n
,	,			Z	
ega	ega	0		D	
   	ega	0		J	
olnud	ol=nud	0		A	
     	ol=nud	0		A	sg n
     	ol=nud	d		A	pl n
     	ole	nud		V	nud
     	olnu	d		S	pl n
mingisugust	mingi_sugune	t		P	sg p
asja	asi	0		S	adt
    	asi	0		S	sg g
    	asi	0		S	sg p
seletada	seleta	da		V	da
.	.			Z	
kohtu	kohtu	0		V	o
     	kohus	0		S	sg g
vanem	vanem	0		C	sg n
     	vanem	0		S	sg n
:	:			Z	
Jüri	Jüri	0		H	sg g
    	Jüri	0		H	sg n
Ummus	####				
kohtu	kohtu	0		V	o
     	kohus	0		S	sg g
käemehed	käe_mees	d		S	pl n
Hans	Hans	0		H	sg n
Härg	härg	0		S	sg n
Mik	####				
Elts	Elts	0		H	sg n
kirjutaja	kirjutaja	0		S	sg g
         	kirjutaja	0		S	sg n
H	H	0		Y	?
.	.			Z	
_Siimson	####				
