et	et	0		J	
Liisu	liisk	0		S	sg g
     	liisu	0		V	o
lehkot	####				
Madli	####				
Parna	####				
kolm	kolm	0		N	sg n
korda	kord	0		S	adt
     	korda	0		V	o
     	kord	0		S	sg p
löönud	löö	nud		V	nud
      	löö=nu	d		S	pl n
      	löö=nud	0		A	
      	löö=nud	0		A	sg n
      	löö=nud	d		A	pl n
on	ole	0		V	b
  	ole	0		V	vad
palja	paljas	0		A	sg g
käega	käsi	ga		S	sg kom
muda	muda	0		S	sg g
    	muda	0		S	sg n
    	muda	0		S	sg p
paljaid	paljas	id		A	pl p
Reisi	reis	0		S	adt
     	reis	0		S	sg g
     	reis	i		S	pl p
     	reisi	0		V	o
     	reis	0		S	sg p
,	,			Z	
on	ole	0		V	b
  	ole	0		V	vad
kohus	kohu	s		V	s
     	kohus	0		S	sg n
mõistnud	mõist	nud		V	nud
        	mõist=nu	d		S	pl n
        	mõist=nud	0		A	
        	mõist=nud	0		A	sg n
        	mõist=nud	d		A	pl n
Liisu	liisk	0		S	sg g
     	liisu	0		V	o
Lehtkot	####				
maksab	maks	b		V	b
Madli	####				
Pornile	####				
üks	üks	0		N	sg n
   	üks	0		P	sg n
rubl	####				
viiskümmend	viis_kümmend	0		N	sg n
kop	kop	0		Y	?
.	.			Z	
1	1	0		N	?
R 50	R50	0		Y	?
