3	3	0		N	?
)	)			Z	
a	a	0		Y	?
tuli	tuli	0		S	sg n
    	tule	i		V	s
ette	ette	0		D	
    	ette	0		K	
    	esi	tte		S	adt
jälle	jälle	0		D	
metsa	mets	0		S	adt
     	mets	0		S	sg g
     	mets	0		S	sg p
vahtide	vaht	de		S	pl g
üle	üle	0		D	
   	üle	0		K	
vaataja	vaataja	0		S	sg g
       	vaataja	0		S	sg n
Taneberg	####				
ja	ja	0		J	
kaebas	kaeba	s		V	s
et	et	0		J	
mõisa	mõis	0		S	sg g
teo	tegu	0		S	sg g
   	tigu	0		S	sg g
mehed	mees	d		S	pl n
on	ole	0		V	b
  	ole	0		V	vad
Vahanda	####				
arus	aru	s		S	sg in
kaks	kaks	0		N	sg n
linna	linn	0		S	adt
     	linn	0		S	sg g
     	linn	0		S	sg p
pert	####				
leidnud	leid	nud		V	nud
       	leid=nu	d		S	pl n
       	leid=nud	0		A	
       	leid=nud	0		A	sg n
       	leid=nud	d		A	pl n
üks	üks	0		N	sg n
   	üks	0		P	sg n
olnud	ol=nud	0		A	
     	ol=nud	0		A	sg n
     	ol=nud	d		A	pl n
     	ole	nud		V	nud
     	olnu	d		S	pl n
kuse	kusi	0		S	sg g
    	kuse	0		V	o
ja	ja	0		J	
teine	teine	0		O	sg n
     	teine	0		P	sg n
Tamme	tamm	0		S	adt
     	tamm	0		S	sg g
     	tamm	e		S	pl p
     	tamm	0		S	sg p
sees	sees	0		D	
    	sees	0		K	
ja	ja	0		J	
selle	see	0		P	sg g
     	sell	e		S	pl p
kuse	kusi	0		S	sg g
    	kuse	0		V	o
seest	seest	0		D	
     	seest	0		K	
on	ole	0		V	b
  	ole	0		V	vad
Aru	aru	0		S	sg g
   	aru	0		S	sg n
   	aru	0		S	sg p
Jaan	Jaan	0		H	sg n
    	jaan	0		S	sg n
    	jaan	0		Y	?
seda	see	da		P	sg p
magusad	magus	d		A	pl n
       	magus	d		S	pl n
juba	juba	0		D	
välja	välja	0		D	
     	välja	0		V	o
     	väli	0		S	adt
     	väli	0		S	sg g
     	väli	0		S	sg p
viinud	vii	nud		V	nud
      	vii=nu	d		S	pl n
      	vii=nud	0		A	
      	vii=nud	0		A	sg n
      	vii=nud	d		A	pl n
ja	ja	0		J	
siis	siis	0		D	
    	siis	0		J	
pärast	pära	st		S	sg el
      	pärane	t		A	sg p
      	pärast	0		D	
      	pärast	0		K	
on	ole	0		V	b
  	ole	0		V	vad
se	####				
kuusk	kuusk	0		S	sg n
põlema	põle	ma		V	ma
pandud	pan=du	d		S	pl n
      	pan=dud	0		A	
      	pan=dud	0		A	sg n
      	pan=dud	d		A	pl n
      	pane	dud		V	tud
kellest	kes	st		P	pl el
       	kes	st		P	sg el
juba	juba	0		D	
4	4	0		N	?
kuue	kuub	0		S	sg g
    	kuus	0		N	sg g
jala	jalg	0		S	sg g
    	jala	0		D	
sülda	süld	0		S	adt
     	süld	0		S	sg p
alt	alt	0		S	sg n
   	alt	0		D	
   	alt	0		K	
on	ole	0		V	b
  	ole	0		V	vad
ära	ära	0		D	
   	ära	0		V	neg o
põllenud	####				
ja	ja	0		J	
nüüd	nüüd	0		D	
veel	veel	0		D	
    	vesi	l		S	sg ad
13	13	0		N	?
tuli	tuli	0		S	sg n
    	tule	i		V	s
jämeon	####				
ja	ja	0		J	
se	####				
sama	sama	0		P	sg g
    	sama	0		P	sg n
    	sama	0		P	sg p
Aru	aru	0		S	sg g
   	aru	0		S	sg n
   	aru	0		S	sg p
Jaan	Jaan	0		H	sg n
    	jaan	0		S	sg n
    	jaan	0		Y	?
on	ole	0		V	b
  	ole	0		V	vad
teda	tema	da		P	sg p
käinud	käi	nud		V	nud
      	käi=nud	0		A	
      	käi=nud	0		A	sg n
      	käi=nud	d		A	pl n
      	käinu	d		S	pl n
kustutamas	kustuta	mas		V	mas
2	2	0		N	?
)	)			Z	
ja	ja	0		J	
selle	see	0		P	sg g
     	sell	e		S	pl p
Tammele	tamm	le		S	sg all
on	ole	0		V	b
  	ole	0		V	vad
se	####				
Aru	aru	0		S	sg g
   	aru	0		S	sg n
   	aru	0		S	sg p
Jaan	Jaan	0		H	sg n
    	jaan	0		S	sg n
    	jaan	0		Y	?
ja	ja	0		J	
Rabarehe	raba_rehi	0		S	sg g
Tõnu	Tõnu	0		H	sg g
    	Tõnu	0		H	sg n
Kruus	kruus	0		S	sg n
2	2	0		N	?
suurt	suur	t		A	sg p
augu	auk	0		S	sg g
sisse	siss	e		S	pl p
     	sisse	0		D	
     	sisse	0		K	
raiunud	raiu	nud		V	nud
       	raiu=nu	d		S	pl n
       	raiu=nud	0		A	
       	raiu=nud	0		A	sg n
       	raiu=nud	d		A	pl n
ja	ja	0		J	
on	ole	0		V	b
  	ole	0		V	vad
selle	see	0		P	sg g
     	sell	e		S	pl p
juurdes	####				
ka	ka	0		D	
katsunud	katsu	nud		V	nud
        	katsu=nu	d		S	pl n
        	katsu=nud	0		A	
        	katsu=nud	0		A	sg n
        	katsu=nud	d		A	pl n
tuld	tuli	0		S	sg p
teha	tege	a		V	da
aga	aga	0		J	
selle	see	0		P	sg g
     	sell	e		S	pl p
seest	seest	0		D	
     	seest	0		K	
ei	ei	0		D	
  	ei	0		V	neg
oleühtegid	####				
saadud	saa	dud		V	tud
      	saadu	d		S	pl n
      	saadud	0		A	
      	saadud	0		A	sg n
      	saadud	d		A	pl n
b	b	0		Y	?
sai	saa	i		V	s
   	sai	0		S	sg n
kohtu	kohtu	0		V	o
     	kohus	0		S	sg g
ette	ette	0		D	
    	ette	0		K	
    	esi	tte		S	adt
kutsutud	kutsu	tud		V	tud
        	kutsutu	d		S	pl n
        	kutsutud	0		A	
        	kutsutud	0		A	sg n
        	kutsutud	d		A	pl n
Aru	aru	0		S	sg g
   	aru	0		S	sg n
   	aru	0		S	sg p
Jaan	Jaan	0		H	sg n
    	jaan	0		S	sg n
    	jaan	0		Y	?
ja	ja	0		J	
tunnistas	tunnista	s		V	s
et	et	0		J	
tema	tema	0		P	sg g
    	tema	0		P	sg n
on	ole	0		V	b
  	ole	0		V	vad
ämbrega	####				
neid	neid	0		S	sg n
    	see	d		P	pl p
    	tema	d		P	pl p
kärga	kärk	0		S	sg g
koju	kodu	0		S	adt
viinud	vii	nud		V	nud
      	vii=nu	d		S	pl n
      	vii=nud	0		A	
      	vii=nud	0		A	sg n
      	vii=nud	d		A	pl n
mis	mis	0		P	pl n
   	mis	0		P	sg n
kõik	kõik	0		P	pl n
    	kõik	0		S	sg n
    	kõik	0		P	sg n
mädanenud	mädane	nud		V	nud
         	mädane=nu	d		S	pl n
         	mädanenud	0		A	
         	mädanenud	0		A	sg n
         	mädanenud	d		A	pl n
puu	puu	0		S	sg g
   	puu	0		S	sg n
puruga	puru	ga		S	sg kom
segamini	segamini	0		A	
        	segamini	0		D	
olnud	ol=nud	0		A	
     	ol=nud	0		A	sg n
     	ol=nud	d		A	pl n
     	ole	nud		V	nud
     	olnu	d		S	pl n
ja	ja	0		J	
Sopi	sopp	0		S	sg g
Tõnu	Tõnu	0		H	sg g
    	Tõnu	0		H	sg n
on	ole	0		V	b
  	ole	0		V	vad
ilma	ilm	0		S	adt
    	ilm	0		S	sg g
    	ilma	0		D	
    	ilma	0		K	
    	ilm	0		S	sg p
tema	tema	0		P	sg g
    	tema	0		P	sg n
nägemata	näge	mata		V	mata
        	nägemata	0		A	
tule	tuli	0		S	sg g
    	tule	0		V	o
selle	see	0		P	sg g
     	sell	e		S	pl p
kuse	kusi	0		S	sg g
    	kuse	0		V	o
sissepannud	sisse_pan=nu	d		S	pl n
           	sisse_pan=nud	0		A	
           	sisse_pan=nud	0		A	sg n
           	sisse_pan=nud	d		A	pl n
ja	ja	0		J	
teine	teine	0		O	sg n
     	teine	0		P	sg n
päeva	päev	0		S	adt
     	päev	0		S	sg g
     	päev	0		S	sg p
on	ole	0		V	b
  	ole	0		V	vad
tema	tema	0		P	sg g
    	tema	0		P	sg n
näinud	näi	nud		V	nud
      	näge	nud		V	nud
      	näi=nud	0		A	
      	näi=nud	0		A	sg n
      	näi=nud	d		A	pl n
      	näinu	d		S	pl n
et	et	0		J	
se	####				
kuusk	kuusk	0		S	sg n
on	ole	0		V	b
  	ole	0		V	vad
põlenud	põle	nud		V	nud
       	põlenu	d		S	pl n
       	põlenud	0		A	
       	põlenud	0		A	sg n
       	põlenud	d		A	pl n
ja	ja	0		J	
on	ole	0		V	b
  	ole	0		V	vad
vet	####				
peale	pea	le		S	sg all
     	peale	0		D	
     	peale	0		K	
viinud	vii	nud		V	nud
      	vii=nu	d		S	pl n
      	vii=nud	0		A	
      	vii=nud	0		A	sg n
      	vii=nud	d		A	pl n
ja	ja	0		J	
ära	ära	0		D	
   	ära	0		V	neg o
kustutanud	kustuta	nud		V	nud
          	kustuta=nu	d		S	pl n
          	kustuta=nud	0		A	
          	kustuta=nud	0		A	sg n
          	kustuta=nud	d		A	pl n
aga	aga	0		J	
selle	see	0		P	sg g
     	sell	e		S	pl p
Tamme	tamm	0		S	adt
     	tamm	0		S	sg g
     	tamm	e		S	pl p
     	tamm	0		S	sg p
seest	seest	0		D	
     	seest	0		K	
ei	ei	0		D	
  	ei	0		V	neg
ole	ole	0		V	o
tema	tema	0		P	sg g
    	tema	0		P	sg n
ühtegid	####				
saanud	saa	nud		V	nud
      	saa=nud	0		A	
      	saa=nud	0		A	sg n
      	saa=nud	d		A	pl n
      	saanu	d		S	pl n
ja	ja	0		J	
tema	tema	0		P	sg g
    	tema	0		P	sg n
olla	ole	a		V	da
selle	see	0		P	sg g
     	sell	e		S	pl p
Tammele	tamm	le		S	sg all
üks	üks	0		N	sg n
   	üks	0		P	sg n
väike	väike	0		A	sg n
auk	auk	0		S	sg n
alla	alla	0		D	
    	alla	0		K	
poole	pool	0		N	sg g
     	pool	0		S	sg g
     	pool	e		S	pl p
     	poole	0		K	
     	poole	0		S	sg n
raiend	####				
aga	aga	0		J	
rehe	rehi	0		S	sg g
Tõnu	Tõnu	0		H	sg g
    	Tõnu	0		H	sg n
raiinud	####				
üles	üles	0		D	
selle	see	0		P	sg g
     	sell	e		S	pl p
suure	suur	0		A	sg g
augu	auk	0		S	sg g
d	d	0		Y	?
kohus	kohu	s		V	s
     	kohus	0		S	sg n
mõistis	mõist	is		V	s
et	et	0		J	
peavad	pida	vad		V	vad
tuleval	tulev	l		A	sg ad
uballa	####				
tulema	tule	ma		V	ma
kõik	kõik	0		P	pl n
    	kõik	0		S	sg n
    	kõik	0		P	sg n
kes	kes	0		P	pl n
   	kes	0		P	sg n
selle	see	0		P	sg g
     	sell	e		S	pl p
raiumise	raiumine	0		S	sg g
ja	ja	0		J	
poletamise	####				
juurdes	####				
olnud	ol=nud	0		A	
     	ol=nud	0		A	sg n
     	ol=nud	d		A	pl n
     	ole	nud		V	nud
     	olnu	d		S	pl n
et	et	0		J	
ühes	üks	s		N	sg in
    	üks	s		P	sg in
    	ühes	0		D	
    	ühes	0		K	
koos	koos	0		D	
    	koos	0		K	
    	koos	0		S	sg n
    	kubu	s		S	sg in
selgeks	selge	ks		A	sg tr
tegevat	tege	vat		V	vat
       	tegev	t		A	sg p
ja	ja	0		J	
talitaja	talitaja	0		S	sg g
        	talitaja	0		S	sg n
peab	pida	b		V	b
käsku	käsk	0		S	adt
     	käsk	0		S	sg p
andma	and	ma		V	ma
pea	pea	0		D	
   	pea	0		S	sg g
   	pida	0		V	o
   	pea	0		S	sg n
vanem	vanem	0		C	sg n
     	vanem	0		S	sg n
Otto	Otto	0		H	sg g
    	Otto	0		H	sg n
Mändorf	####				
kõrva	kõrv	0		S	adt
     	kõrv	0		S	sg g
     	kõrv	0		S	sg p
mees	mees	0		S	sg n
    	mesi	s		S	sg in
Jüri	Jüri	0		H	sg g
    	Jüri	0		H	sg n
Kil	####				
XXX	XXX	0		O	?
   	XXX	0		Y	?
kõrva	kõrv	0		S	adt
     	kõrv	0		S	sg g
     	kõrv	0		S	sg p
mees	mees	0		S	sg n
    	mesi	s		S	sg in
Hans	Hans	0		H	sg n
Einbach	####				
XXX	XXX	0		O	?
   	XXX	0		Y	?
