laepi	####				
vaadetud	####				
6	6	0		N	?
Joulekuu	####				
päeval	päev	l		S	sg ad
1888.	1888.	0		O	?
kihelkonna	kihelkond	0		S	sg g
kohtuvanem	kohtu_vanem	0		C	sg n
          	kohtu_vanem	0		S	sg n
/	/			Z	
allkiri	all_kiri	0		S	sg n
/	/			Z	
