1	1	0		N	?
,	,			Z	
mõisa	mõis	0		S	sg g
sulane	sulane	0		S	sg n
      	sulane	0		V	o
Jaan	Jaan	0		H	sg n
    	jaan	0		S	sg n
    	jaan	0		Y	?
Reinvald	####				
tuli	tuli	0		S	sg n
    	tule	i		V	s
kohtu	kohtu	0		V	o
     	kohus	0		S	sg g
ette	ette	0		D	
    	ette	0		K	
    	esi	tte		S	adt
ja	ja	0		J	
kaebas	kaeba	s		V	s
,	,			Z	
et	et	0		J	
Villem	Villem	0		H	sg n
Petoffer	####				
teda	tema	da		P	sg p
üsna	üsna	0		D	
päevasi	päev_asi	0		S	sg n
päeva	päev	0		S	adt
     	päev	0		S	sg g
     	päev	0		S	sg p
ajal	aeg	l		S	sg ad
    	ajal	0		K	
tee	tee	0		S	sg g
   	tege	0		V	o
   	tee	0		S	sg n
peal	pea	l		S	sg ad
    	peal	0		D	
    	peal	0		K	
hobusega	hobune	ga		S	sg kom
maha	maha	0		D	
ajanud	aja	nud		V	nud
      	aja=nu	d		S	pl n
      	aja=nud	0		A	
      	aja=nud	0		A	sg n
      	aja=nud	d		A	pl n
ja	ja	0		J	
tema	tema	0		P	sg g
    	tema	0		P	sg n
sest	see	st		P	sg el
    	sest	0		J	
nii	nii	0		D	
rasket	raske	t		A	sg p
häda	häda	0		S	sg g
    	häda	0		S	sg n
    	häda	0		S	sg p
saanud	saa	nud		V	nud
      	saa=nud	0		A	
      	saa=nud	0		A	sg n
      	saa=nud	d		A	pl n
      	saanu	d		S	pl n
,	,			Z	
et	et	0		J	
kaks	kaks	0		N	sg n
päeva	päev	0		S	adt
     	päev	0		S	sg g
     	päev	0		S	sg p
selle	see	0		P	sg g
     	sell	e		S	pl p
järel	järel	0		D	
     	järel	0		K	
haige	haige	0		A	sg g
     	haige	0		A	sg n
     	haige	0		S	sg g
     	haige	0		S	sg n
olnud	ol=nud	0		A	
     	ol=nud	0		A	sg n
     	ol=nud	d		A	pl n
     	ole	nud		V	nud
     	olnu	d		S	pl n
.	.			Z	
2	2	0		N	?
,	,			Z	
Villem	Villem	0		H	sg n
Petoffer	####				
vaidles	vaidle	s		V	s
esiteks	esiteks	0		D	
vastu	vastu	0		D	
     	vastu	0		K	
et	et	0		J	
Jaan	Jaan	0		H	sg n
    	jaan	0		S	sg n
    	jaan	0		Y	?
Reinvald	####				
küll	küll	0		D	
    	küll	0		S	sg n
maha	maha	0		D	
kukkunud	kukku	nud		V	nud
        	kukku=nu	d		S	pl n
        	kukku=nud	0		A	
        	kukku=nud	0		A	sg n
        	kukku=nud	d		A	pl n
aga	aga	0		J	
mitte	mitte	0		D	
suurt	suur	t		A	sg p
häda	häda	0		S	sg g
    	häda	0		S	sg n
    	häda	0		S	sg p
põle	põle	0		V	o
saanud	saa	nud		V	nud
      	saa=nud	0		A	
      	saa=nud	0		A	sg n
      	saa=nud	d		A	pl n
      	saanu	d		S	pl n
.	.			Z	
pealegi	pealegi	0		D	
olla	ole	a		V	da
tema	tema	0		P	sg g
    	tema	0		P	sg n
mitu	mitu	0		P	sg n
kord	kord	0		D	
    	kord	0		S	sg n
eest	eest	0		D	
    	eest	0		K	
    	esi	st		S	sg el
ära	ära	0		D	
   	ära	0		V	neg o
hüüdnud	hüüd	nud		V	nud
       	hüüd=nu	d		S	pl n
       	hüüd=nud	0		A	
       	hüüd=nud	0		A	sg n
       	hüüd=nud	d		A	pl n
.	.			Z	
kohtu	kohtu	0		V	o
     	kohus	0		S	sg g
poolt	pool	t		N	sg p
     	pool	t		S	sg p
     	poolt	0		D	
     	poolt	0		K	
sai	saa	i		V	s
   	sai	0		S	sg n
kohtus	kohtu	s		V	s
      	kohus	s		S	sg in
käijatele	käija	tele		S	pl all
lepitust	lepitus	t		S	sg p
pakutud	pakku	tud		V	tud
       	pakutu	d		S	pl n
       	pakutud	0		A	
       	pakutud	0		A	sg n
       	pakutud	d		A	pl n
ja	ja	0		J	
nad	tema	d		P	pl n
leppisid	leppi	sid		V	sid
sellega	see	ga		P	sg kom
ära	ära	0		D	
   	ära	0		V	neg o
,	,			Z	
et	et	0		J	
Villem	Villem	0		H	sg n
Petoffer	####				
maksis	maks	is		V	s
      	maksi	s		S	sg in
Jaan	Jaan	0		H	sg n
    	jaan	0		S	sg n
    	jaan	0		Y	?
Reinvaldile	####				
2	2	0		N	?
rubla	rubla	0		S	sg g
     	rubla	0		S	sg n
     	rubla	0		S	sg p
lepituse	lepitus	0		S	sg g
raha	raha	0		S	sg g
    	raha	0		S	sg n
    	raha	0		S	sg p
.	.			Z	
lepitud	leppi	tud		V	tud
       	lepi=tu	d		S	pl n
       	lepi=tud	0		A	
       	lepi=tud	0		A	sg n
       	lepi=tud	d		A	pl n
.	.			Z	
