kohtu	kohtu	0		V	o
     	kohus	0		S	sg g
ette	ette	0		D	
    	ette	0		K	
    	esi	tte		S	adt
tuli	tuli	0		S	sg n
    	tule	i		V	s
,	,			Z	
et	et	0		J	
nurme	nurm	0		S	adt
     	nurm	0		S	sg g
     	nurm	0		S	sg p
mõisa	mõis	0		S	sg g
härra	härra	0		S	sg g
     	härra	0		S	sg n
annab	and	b		V	b
all	all	0		D	
   	all	0		K	
nimetatud	nimeta	tud		V	tud
         	nimetatu	d		S	pl n
         	nimetatud	0		A	
         	nimetatud	0		A	sg n
         	nimetatud	d		A	pl n
suurte	suur	te		A	pl g
ja	ja	0		J	
väikesti	väi_kest	i		S	pl p
nurme	nurm	0		S	adt
     	nurm	0		S	sg g
     	nurm	0		S	sg p
rentnikutele	####				
teada	tead	a		V	da
,	,			Z	
et	et	0		J	
nende	see	de		P	pl g
     	tema	de		P	pl g
kauba	kaup	0		S	sg g
ja	ja	0		J	
kontrahid	kontraht	d		S	pl n
tuleval	tulev	l		A	sg ad
Jüri	Jüri	0		H	sg g
    	Jüri	0		H	sg n
päeval	päev	l		S	sg ad
1877	1877	0		N	?
aastal	aasta	l		S	sg ad
lõpevad	lõp	vad		V	vad
       	lõppe	vad		V	vad
,	,			Z	
ja	ja	0		J	
sel	see	l		P	sg ad
   	sel	0		Y	?
samal	sama	l		P	sg ad
aeal	####				
uued	uus	d		A	pl n
kauba	kaup	0		S	sg g
hakavad	####				
,	,			Z	
siis	siis	0		D	
    	siis	0		J	
kui	kui	0		D	
   	kui	0		J	
rentnikut	####				
on	ole	0		V	b
  	ole	0		V	vad
mõisaga	mõis	ga		S	sg kom
uut	uus	t		A	sg p
kontrahti	kontraht	0		S	adt
         	kontraht	0		S	sg p
teinud	tege	nud		V	nud
      	tei=nud	0		A	
      	tei=nud	0		A	sg n
      	tei=nud	d		A	pl n
      	teinu	d		S	pl n
.	.			Z	
need	see	d		P	pl n
üles	üles	0		D	
eldud	####				
kohad	koht	d		S	pl n
     	koha	d		S	pl n
     	koha	d		V	d
on	ole	0		V	b
  	ole	0		V	vad
need	see	d		P	pl n
Suuremad	suurem	d		C	pl n
Jaanijüri	####				
Hansa	hansa	0		S	sg g
     	hansa	0		S	sg n
Suuritua	####				
Mikko	####				
Rätsepa	rätsep	0		S	sg g
keldrema	####				
Johani	Johan	0		H	sg g
Kivi	kivi	0		S	sg g
    	kivi	0		S	sg n
    	kivi	0		S	sg p
Vainu	vainu	0		S	sg g
     	vainu	0		S	sg n
Kivimatsu	kivi_mats	0		S	adt
         	kivi_mats	0		S	sg g
         	kivi_mats	0		S	sg p
Uuetoa	uue_tuba	0		S	sg g
Aru	aru	0		S	sg g
   	aru	0		S	sg n
   	aru	0		S	sg p
ääreJ	####				
Lusu	####				
Sõedi	####				
Kesknõmme	kesk_nõmm	0		S	adt
         	kesk_nõmm	0		S	sg g
         	kesk_nõmm	0		S	sg p
Lepiku	lepik	0		S	sg g
Koilo	####				
Mäe	mägi	0		S	sg g
kaldama	####				
ja	ja	0		J	
trahteri	trahter	0		S	sg g
Vääiksemad	####				
Uus	uus	0		A	sg n
saun	saun	0		S	sg n
Koilo	####				
vana	vana	0		A	sg g
    	vana	0		A	sg n
    	vana	0		A	sg p
    	vana	0		S	sg g
    	vana	0		S	sg n
    	vana	0		S	sg p
saun	saun	0		S	sg n
Rätsepa	rätsep	0		S	sg g
saun	saun	0		S	sg n
Koilo	####				
uus	uus	0		A	sg n
saun	saun	0		S	sg n
väljataguse	välja_tagune	0		A	sg g
           	välja_tagune	0		S	sg g
Pihu	pihk	0		S	sg g
    	pihu	0		S	sg g
    	pihu	0		S	sg n
    	pihu	0		S	sg p
saun	saun	0		S	sg n
Kopli	Kopli	0		H	sg g
     	koppel	0		S	sg g
     	Kopli	0		H	sg n
saun	saun	0		S	sg n
Saidapere	saida_pere	0		S	sg g
         	saida_pere	0		S	sg n
saun	saun	0		S	sg n
Lusu	####				
saun	saun	0		S	sg n
Sõedi	####				
saun	saun	0		S	sg n
kõrtlehoone	####				
Jaanijüri	####				
saun	saun	0		S	sg n
need	see	d		P	pl n
üleval	ülev	l		A	sg ad
      	üleval	0		D	
nimetatud	nimeta	tud		V	tud
         	nimetatu	d		S	pl n
         	nimetatud	0		A	
         	nimetatud	0		A	sg n
         	nimetatud	d		A	pl n
rentnikut	####				
võivad	või	vad		V	vad
      	võiv	d		A	pl n
kõik	kõik	0		P	pl n
    	kõik	0		S	sg n
    	kõik	0		P	sg n
uut	uus	t		A	sg p
kaupa	kaup	0		S	adt
     	kaup	0		S	sg p
     	kaupa	0		K	
mina	mina	0		P	sg n
    	mina	0		S	sg g
    	mina	0		S	sg n
    	mina	0		S	sg p
kahe	kaks	0		N	sg g
nädala	nädal	0		S	sg g
pärast	pära	st		S	sg el
      	pärane	t		A	sg p
      	pärast	0		D	
      	pärast	0		K	
mõisa	mõis	0		S	sg g
tegema	tege	ma		V	ma
.	.			Z	
aga	aga	0		J	
nende	see	de		P	pl g
     	tema	de		P	pl g
kohadega	koha	dega		S	pl kom
enam	enam	0		C	sg n
    	enam	0		D	
ei	ei	0		D	
  	ei	0		V	neg
sa	sina	0		P	sg n
kaupa	kaup	0		S	adt
     	kaup	0		S	sg p
     	kaupa	0		K	
tehtud	tehtu	d		S	pl n
      	tehtud	0		A	
      	tehtud	0		A	sg n
      	tehtud	d		A	pl n
      	tege	tud		V	tud
,	,			Z	
need	see	d		P	pl n
on	ole	0		V	b
  	ole	0		V	vad
Vainosauna	####				
{	{			Z	
Jakob	Jakob	0		H	sg n
Juhan	Juhan	0		H	sg n
karja	kari	0		S	adt
     	kari	0		S	sg g
     	kari	0		S	sg p
Mardi	Mart	0		H	sg g
     	mart	0		S	sg g
Kaie	Kaie	0		H	sg g
    	Kaie	0		H	sg n
maad	maa	d		S	pl n
    	maa	d		S	sg p
Pihu	pihk	0		S	sg g
    	pihu	0		S	sg g
    	pihu	0		S	sg n
    	pihu	0		S	sg p
Jüri	Jüri	0		H	sg g
    	Jüri	0		H	sg n
maad	maa	d		S	pl n
    	maa	d		S	sg p
mödara	####				
saun	saun	0		S	sg n
,	,			Z	
Soldat	soldat	0		S	sg n
Mats	Mats	0		H	sg n
    	mats	0		A	sg n
    	mats	0		S	sg n
muti	mutt	0		S	sg g
    	muti	0		S	sg g
    	muti	0		S	sg n
saun	saun	0		S	sg n
kaldama	####				
Jaani	Jaan	0		H	adt
     	Jaan	0		H	sg g
     	Jaani	0		H	sg g
     	jaan	0		S	adt
     	jaan	0		S	sg g
     	Jaan	0		H	sg p
     	Jaani	0		H	sg n
     	jaan	0		S	sg p
maa	maa	0		S	sg g
   	maa	0		S	sg n
tük	####				
need	see	d		P	pl n
saunade	saun	de		S	pl g
maad	maa	d		S	pl n
    	maa	d		S	sg p
on	ole	0		V	b
  	ole	0		V	vad
kõik	kõik	0		P	pl n
    	kõik	0		S	sg n
    	kõik	0		P	sg n
teiste	teine	te		O	pl g
      	teine	te		P	pl g
maade	maa	de		S	pl g
külge	külg	0		S	adt
     	külg	0		S	sg p
     	külge	0		D	
     	külge	0		K	
pandud	pan=du	d		S	pl n
      	pan=dud	0		A	
      	pan=dud	0		A	sg n
      	pan=dud	d		A	pl n
      	pane	dud		V	tud
ja	ja	0		J	
seepärast	see_pärast	0		D	
saavad	saa	vad		V	vad
      	saav	d		A	pl n
      	saav	d		S	pl n
need	see	d		P	pl n
üleval	ülev	l		A	sg ad
      	üleval	0		D	
nimetatud	nimeta	tud		V	tud
         	nimetatu	d		S	pl n
         	nimetatud	0		A	
         	nimetatud	0		A	sg n
         	nimetatud	d		A	pl n
saunad	saun	d		S	pl n
maha	maha	0		D	
kistud	kis=tu	d		S	pl n
      	kisku	tud		V	tud
      	kistud	0		A	
      	kistud	0		A	sg n
      	kistud	d		A	pl n
,	,			Z	
mis	mis	0		P	pl n
   	mis	0		P	sg n
pole	ole	0		V	neg o
mitte	mitte	0		D	
mõisal	mõis	l		S	sg ad
tarvis	tarvis	0		D	
      	tarvis	0		K	
.	.			Z	
nende	see	de		P	pl g
     	tema	de		P	pl g
kohade	koha	de		S	pl g
rent	rent	0		S	sg n
on	ole	0		V	b
  	ole	0		V	vad
nõnda	nõnda	0		D	
kuidas	kuidas	0		D	
siin	siin	0		D	
    	siin	0		S	sg n
allamal	####				
nimetatud	nimeta	tud		V	tud
         	nimetatu	d		S	pl n
         	nimetatud	0		A	
         	nimetatud	0		A	sg n
         	nimetatud	d		A	pl n
saab	saa	b		V	b
.	.			Z	
Jaanijüri	####				
,	,			Z	
rent	rent	0		S	sg n
on	ole	0		V	b
  	ole	0		V	vad
120rbl	####				
.	.			Z	
95	95	0		N	?
kop	kop	0		Y	?
.	.			Z	
4	4	0		N	?
tündremad	####				
lõikust	lõikus	t		S	sg p
3	3	0		N	?
rbl	rbl	0		Y	?
.	.			Z	
tündrima	####				
eest	eest	0		D	
    	eest	0		K	
    	esi	st		S	sg el
10	10	0		N	?
heinapäeva	heina_päev	0		S	adt
          	heina_päev	0		S	sg g
          	heina_päev	0		S	sg p
50	50	0		N	?
kop	kop	0		Y	?
päeva	päev	0		S	adt
     	päev	0		S	sg g
     	päev	0		S	sg p
eest	eest	0		D	
    	eest	0		K	
    	esi	st		S	sg el
summa	summ	0		S	adt
     	summ	0		S	sg g
     	summ	0		S	sg p
     	summa	0		S	sg g
     	summa	0		S	sg n
17	17	0		N	?
rbl	rbl	0		Y	?
.	.			Z	
tö	####				
eest	eest	0		D	
    	eest	0		K	
    	esi	st		S	sg el
selget	selge	t		A	sg p
raha	raha	0		S	sg g
    	raha	0		S	sg n
    	raha	0		S	sg p
103	103	0		N	?
rbl	rbl	0		Y	?
.	.			Z	
95	95	0		N	?
kop	kop	0		Y	?
.	.			Z	
summa	summ	0		S	adt
     	summ	0		S	sg g
     	summ	0		S	sg p
     	summa	0		S	sg g
     	summa	0		S	sg n
120	120	0		N	?
rbl	rbl	0		Y	?
.	.			Z	
95	95	0		N	?
kop	kop	0		Y	?
.	.			Z	
Suuretoa	suure_tuba	0		S	sg g
rent	rent	0		S	sg n
on	ole	0		V	b
  	ole	0		V	vad
121	121	0		N	?
rbl	rbl	0		Y	?
.	.			Z	
45	45	0		N	?
kop	kop	0		Y	?
.	.			Z	
tegu	tegu	0		S	sg n
    	tegu	0		S	sg p
17	17	0		N	?
rbl	rbl	0		Y	?
.	.			Z	
selget	selge	t		A	sg p
raha	raha	0		S	sg g
    	raha	0		S	sg n
    	raha	0		S	sg p
104	104	0		N	?
rbl	rbl	0		Y	?
.	.			Z	
45	45	0		N	?
kop	kop	0		Y	?
.	.			Z	
summa	summ	0		S	adt
     	summ	0		S	sg g
     	summ	0		S	sg p
     	summa	0		S	sg g
     	summa	0		S	sg n
121	121	0		N	?
rbl	rbl	0		Y	?
.	.			Z	
45	45	0		N	?
kop	kop	0		Y	?
.	.			Z	
Rätsepa	rätsep	0		S	sg g
.	.			Z	
rent	rent	0		S	sg n
on	ole	0		V	b
  	ole	0		V	vad
128	128	0		N	?
rbl	rbl	0		Y	?
.	.			Z	
45	45	0		N	?
kop	kop	0		Y	?
.	.			Z	
tegu	tegu	0		S	sg n
    	tegu	0		S	sg p
17	17	0		N	?
rubla	rubla	0		S	sg g
     	rubla	0		S	sg n
     	rubla	0		S	sg p
eest	eest	0		D	
    	eest	0		K	
    	esi	st		S	sg el
selget	selge	t		A	sg p
raha	raha	0		S	sg g
    	raha	0		S	sg n
    	raha	0		S	sg p
111	111	0		N	?
rbl	rbl	0		Y	?
.	.			Z	
45	45	0		N	?
kop	kop	0		Y	?
summa	summ	0		S	adt
     	summ	0		S	sg g
     	summ	0		S	sg p
     	summa	0		S	sg g
     	summa	0		S	sg n
128	128	0		N	?
rbl	rbl	0		Y	?
.	.			Z	
45	45	0		N	?
kop	kop	0		Y	?
.	.			Z	
Juhani	Juhan	0		H	sg g
      	juha	ni		S	sg ter
koha	koht	0		S	sg g
    	koha	0		S	sg g
    	koha	0		V	o
    	koha	0		S	sg n
    	koha	0		S	sg p
rent	rent	0		S	sg n
on	ole	0		V	b
  	ole	0		V	vad
121	121	0		N	?
bl	####				
.	.			Z	
95	95	0		N	?
kop	kop	0		Y	?
.	.			Z	
tegu	tegu	0		S	sg n
    	tegu	0		S	sg p
17	17	0		N	?
rubla	rubla	0		S	sg g
     	rubla	0		S	sg n
     	rubla	0		S	sg p
eest	eest	0		D	
    	eest	0		K	
    	esi	st		S	sg el
selget	selge	t		A	sg p
raha	raha	0		S	sg g
    	raha	0		S	sg n
    	raha	0		S	sg p
104	104	0		N	?
rbl	rbl	0		Y	?
.	.			Z	
95	95	0		N	?
kop	kop	0		Y	?
.	.			Z	
summa	summ	0		S	adt
     	summ	0		S	sg g
     	summ	0		S	sg p
     	summa	0		S	sg g
     	summa	0		S	sg n
121	121	0		N	?
rbl	rbl	0		Y	?
.	.			Z	
95	95	0		N	?
kop	kop	0		Y	?
.	.			Z	
Kiviste	kivine	te		A	pl g
(	(			Z	
Vainu	vainu	0		S	sg g
     	vainu	0		S	sg n
)	)			Z	
rent	rent	0		S	sg n
on	ole	0		V	b
  	ole	0		V	vad
80	80	0		N	?
rbl	rbl	0		Y	?
.	.			Z	
95	95	0		N	?
kop	kop	0		Y	?
.	.			Z	
3	3	0		N	?
tündremaad	####				
lõikust	lõikus	t		S	sg p
9	9	0		N	?
rbl	rbl	0		Y	?
.	.			Z	
10	10	0		N	?
heina	hein	0		S	adt
     	hein	0		S	sg g
     	hein	0		S	sg p
päeva	päev	0		S	adt
     	päev	0		S	sg g
     	päev	0		S	sg p
50	50	0		N	?
kop	kop	0		Y	?
.	.			Z	
5	5	0		N	?
""""	""""			Z	
selget	selge	t		A	sg p
raha	raha	0		S	sg g
    	raha	0		S	sg n
    	raha	0		S	sg p
66	66	0		N	?
_	_			Z	
95	95	0		N	?
summa	summ	0		S	adt
     	summ	0		S	sg g
     	summ	0		S	sg p
     	summa	0		S	sg g
     	summa	0		S	sg n
80	80	0		N	?
rbl	rbl	0		Y	?
.	.			Z	
95	95	0		N	?
kop_	####				
Nõmme	Nõmme	0		H	sg g
     	nõmm	0		S	adt
     	nõmm	0		S	sg g
     	Nõmme	0		H	sg n
     	nõmm	0		S	sg p
(	(			Z	
Uuetoa	uue_tuba	0		S	sg g
)	)			Z	
rent	rent	0		S	sg n
on	ole	0		V	b
  	ole	0		V	vad
90	90	0		N	?
rbl	rbl	0		Y	?
.	.			Z	
95	95	0		N	?
kop	kop	0		Y	?
.	.			Z	
3	3	0		N	?
tündermaad	tünder_maa	d		S	pl n
          	tünder_maa	d		S	sg p
lõikust	lõikus	t		S	sg p
9	9	0		N	?
rbl	rbl	0		Y	?
.	.			Z	
10	10	0		N	?
heina	hein	0		S	adt
     	hein	0		S	sg g
     	hein	0		S	sg p
päeva	päev	0		S	adt
     	päev	0		S	sg g
     	päev	0		S	sg p
50	50	0		N	?
kop_	####				
päeva	päev	0		S	adt
     	päev	0		S	sg g
     	päev	0		S	sg p
5	5	0		N	?
""""	""""			Z	
selget	selge	t		A	sg p
raha	raha	0		S	sg g
    	raha	0		S	sg n
    	raha	0		S	sg p
76	76	0		N	?
_	_			Z	
95	95	0		N	?
summa	summ	0		S	adt
     	summ	0		S	sg g
     	summ	0		S	sg p
     	summa	0		S	sg g
     	summa	0		S	sg n
90	90	0		N	?
rbl	rbl	0		Y	?
.	.			Z	
95	95	0		N	?
kop	kop	0		Y	?
.	.			Z	
otõlema	####				
küla	küla	0		S	sg g
    	küla	0		S	sg n
    	küla	0		S	sg p
Söödi	söö	di		V	ti
     	sööt	0		S	sg g
rent	rent	0		S	sg n
on	ole	0		V	b
  	ole	0		V	vad
75	75	0		N	?
rbl	rbl	0		Y	?
.	.			Z	
95	95	0		N	?
kop	kop	0		Y	?
.	.			Z	
tegu	tegu	0		S	sg n
    	tegu	0		S	sg p
on	ole	0		V	b
  	ole	0		V	vad
14	14	0		N	?
rubla	rubla	0		S	sg g
     	rubla	0		S	sg n
     	rubla	0		S	sg p
ette	ette	0		D	
    	ette	0		K	
    	esi	tte		S	adt
selget	selge	t		A	sg p
raha	raha	0		S	sg g
    	raha	0		S	sg n
    	raha	0		S	sg p
61	61	0		N	?
rbl	rbl	0		Y	?
.	.			Z	
95	95	0		N	?
kop	kop	0		Y	?
.	.			Z	
summa	summ	0		S	adt
     	summ	0		S	sg g
     	summ	0		S	sg p
     	summa	0		S	sg g
     	summa	0		S	sg n
75	75	0		N	?
rbl	rbl	0		Y	?
.	.			Z	
95	95	0		N	?
kop	kop	0		Y	?
.	.			Z	
Lepiku	lepik	0		S	sg g
rent	rent	0		S	sg n
on	ole	0		V	b
  	ole	0		V	vad
156	156	0		N	?
rbl	rbl	0		Y	?
.	.			Z	
45	45	0		N	?
kop	kop	0		Y	?
.	.			Z	
tegu	tegu	0		S	sg n
    	tegu	0		S	sg p
on	ole	0		V	b
  	ole	0		V	vad
17	17	0		N	?
rbl	rbl	0		Y	?
.	.			Z	
ette	ette	0		D	
    	ette	0		K	
    	esi	tte		S	adt
selget	selge	t		A	sg p
raha	raha	0		S	sg g
    	raha	0		S	sg n
    	raha	0		S	sg p
139	139	0		N	?
rbl	rbl	0		Y	?
.	.			Z	
45	45	0		N	?
kop	kop	0		Y	?
.	.			Z	
summa	summ	0		S	adt
     	summ	0		S	sg g
     	summ	0		S	sg p
     	summa	0		S	sg g
     	summa	0		S	sg n
156	156	0		N	?
rbl	rbl	0		Y	?
.	.			Z	
45	45	0		N	?
kop	kop	0		Y	?
.	.			Z	
Mäe	mägi	0		S	sg g
rent	rent	0		S	sg n
on	ole	0		V	b
  	ole	0		V	vad
151	151	0		N	?
rbl	rbl	0		Y	?
.	.			Z	
45	45	0		N	?
kop	kop	0		Y	?
.	.			Z	
tegu	tegu	0		S	sg n
    	tegu	0		S	sg p
on	ole	0		V	b
  	ole	0		V	vad
17	17	0		N	?
rubla	rubla	0		S	sg g
     	rubla	0		S	sg n
     	rubla	0		S	sg p
ette	ette	0		D	
    	ette	0		K	
    	esi	tte		S	adt
selget	selge	t		A	sg p
raha	raha	0		S	sg g
    	raha	0		S	sg n
    	raha	0		S	sg p
134	134	0		N	?
_	_			Z	
45	45	0		N	?
kop	kop	0		Y	?
.	.			Z	
summa	summ	0		S	adt
     	summ	0		S	sg g
     	summ	0		S	sg p
     	summa	0		S	sg g
     	summa	0		S	sg n
151	151	0		N	?
rbl	rbl	0		Y	?
.	.			Z	
45	45	0		N	?
kop	kop	0		Y	?
.	.			Z	
Hansu	Hans	0		H	adt
     	Hans	0		H	sg g
     	Hans	0		H	sg p
rent	rent	0		S	sg n
on	ole	0		V	b
  	ole	0		V	vad
75	75	0		N	?
rbl	rbl	0		Y	?
.	.			Z	
95	95	0		N	?
kop	kop	0		Y	?
.	.			Z	
tegu	tegu	0		S	sg n
    	tegu	0		S	sg p
on	ole	0		V	b
  	ole	0		V	vad
17	17	0		N	?
rbl	rbl	0		Y	?
.	.			Z	
ette	ette	0		D	
    	ette	0		K	
    	esi	tte		S	adt
selget	selge	t		A	sg p
raha	raha	0		S	sg g
    	raha	0		S	sg n
    	raha	0		S	sg p
61	61	0		N	?
_	_			Z	
95	95	0		N	?
kop	kop	0		Y	?
.	.			Z	
summa	summ	0		S	adt
     	summ	0		S	sg g
     	summ	0		S	sg p
     	summa	0		S	sg g
     	summa	0		S	sg n
75	75	0		N	?
rbl	rbl	0		Y	?
.	.			Z	
95	95	0		N	?
kop	kop	0		Y	?
.	.			Z	
Mikko	####				
rent	rent	0		S	sg n
on	ole	0		V	b
  	ole	0		V	vad
161	161	0		N	?
rbl	rbl	0		Y	?
.	.			Z	
45	45	0		N	?
kop	kop	0		Y	?
.	.			Z	
tegu	tegu	0		S	sg n
    	tegu	0		S	sg p
17	17	0		N	?
rubla	rubla	0		S	sg g
     	rubla	0		S	sg n
     	rubla	0		S	sg p
ette	ette	0		D	
    	ette	0		K	
    	esi	tte		S	adt
selget	selge	t		A	sg p
raha	raha	0		S	sg g
    	raha	0		S	sg n
    	raha	0		S	sg p
144	144	0		N	?
rbl	rbl	0		Y	?
.	.			Z	
45	45	0		N	?
kop	kop	0		Y	?
.	.			Z	
summa	summ	0		S	adt
     	summ	0		S	sg g
     	summ	0		S	sg p
     	summa	0		S	sg g
     	summa	0		S	sg n
161	161	0		N	?
rbl	rbl	0		Y	?
.	.			Z	
45	45	0		N	?
kop	kop	0		Y	?
.	.			Z	
keldrema	####				
rent	rent	0		S	sg n
on	ole	0		V	b
  	ole	0		V	vad
58	58	0		N	?
rbl	rbl	0		Y	?
.	.			Z	
70	70	0		N	?
kop	kop	0		Y	?
.	.			Z	
tegu	tegu	0		S	sg n
    	tegu	0		S	sg p
2	2	0		N	?
tündermaad	tünder_maa	d		S	pl n
          	tünder_maa	d		S	sg p
lõikust	lõikus	t		S	sg p
6	6	0		N	?
rbl	rbl	0		Y	?
.	.			Z	
""""	""""			Z	
8	8	0		N	?
heina	hein	0		S	adt
     	hein	0		S	sg g
     	hein	0		S	sg p
päeva	päev	0		S	adt
     	päev	0		S	sg g
     	päev	0		S	sg p
4	4	0		N	?
""""	""""			Z	
selget	selge	t		A	sg p
raha	raha	0		S	sg g
    	raha	0		S	sg n
    	raha	0		S	sg p
48	48	0		N	?
_	_			Z	
70	70	0		N	?
kop	kop	0		Y	?
.	.			Z	
summa	summ	0		S	adt
     	summ	0		S	sg g
     	summ	0		S	sg p
     	summa	0		S	sg g
     	summa	0		S	sg n
58	58	0		N	?
rbl	rbl	0		Y	?
.	.			Z	
70	70	0		N	?
kop	kop	0		Y	?
.	.			Z	
Kivi	kivi	0		S	sg g
    	kivi	0		S	sg n
    	kivi	0		S	sg p
rent	rent	0		S	sg n
on	ole	0		V	b
  	ole	0		V	vad
40	40	0		N	?
rbl	rbl	0		Y	?
.	.			Z	
70	70	0		N	?
kop	kop	0		Y	?
.	.			Z	
tegu	tegu	0		S	sg n
    	tegu	0		S	sg p
10	10	0		N	?
rubla	rubla	0		S	sg g
     	rubla	0		S	sg n
     	rubla	0		S	sg p
ette	ette	0		D	
    	ette	0		K	
    	esi	tte		S	adt
selget	selge	t		A	sg p
raha	raha	0		S	sg g
    	raha	0		S	sg n
    	raha	0		S	sg p
30	30	0		N	?
_	_			Z	
70	70	0		N	?
kop	kop	0		Y	?
.	.			Z	
summa	summ	0		S	adt
     	summ	0		S	sg g
     	summ	0		S	sg p
     	summa	0		S	sg g
     	summa	0		S	sg n
40	40	0		N	?
rbl	rbl	0		Y	?
.	.			Z	
70	70	0		N	?
kop	kop	0		Y	?
.	.			Z	
Kivimatsu	kivi_mats	0		S	adt
         	kivi_mats	0		S	sg g
         	kivi_mats	0		S	sg p
rent	rent	0		S	sg n
on	ole	0		V	b
  	ole	0		V	vad
80	80	0		N	?
rbl	rbl	0		Y	?
.	.			Z	
95	95	0		N	?
kop	kop	0		Y	?
.	.			Z	
3	3	0		N	?
tündermaad	tünder_maa	d		S	pl n
          	tünder_maa	d		S	sg p
lõikust	lõikus	t		S	sg p
9	9	0		N	?
rbl	rbl	0		Y	?
.	.			Z	
10	10	0		N	?
heina	hein	0		S	adt
     	hein	0		S	sg g
     	hein	0		S	sg p
päeva	päev	0		S	adt
     	päev	0		S	sg g
     	päev	0		S	sg p
50	50	0		N	?
kop	kop	0		Y	?
päeva	päev	0		S	adt
     	päev	0		S	sg g
     	päev	0		S	sg p
5	5	0		N	?
""""	""""			Z	
selget	selge	t		A	sg p
raha	raha	0		S	sg g
    	raha	0		S	sg n
    	raha	0		S	sg p
66	66	0		N	?
rbl	rbl	0		Y	?
.	.			Z	
95	95	0		N	?
kop	kop	0		Y	?
.	.			Z	
summa	summ	0		S	adt
     	summ	0		S	sg g
     	summ	0		S	sg p
     	summa	0		S	sg g
     	summa	0		S	sg n
80	80	0		N	?
rbl	rbl	0		Y	?
.	.			Z	
95	95	0		N	?
kop	kop	0		Y	?
.	.			Z	
Jõeäre	####				
rent	rent	0		S	sg n
on	ole	0		V	b
  	ole	0		V	vad
30	30	0		N	?
rbl	rbl	0		Y	?
.	.			Z	
70	70	0		N	?
kop	kop	0		Y	?
.	.			Z	
tegu	tegu	0		S	sg n
    	tegu	0		S	sg p
10	10	0		N	?
rbl	rbl	0		Y	?
.	.			Z	
ette	ette	0		D	
    	ette	0		K	
    	esi	tte		S	adt
selget	selge	t		A	sg p
raha	raha	0		S	sg g
    	raha	0		S	sg n
    	raha	0		S	sg p
20	20	0		N	?
rbl	rbl	0		Y	?
.	.			Z	
70	70	0		N	?
kop	kop	0		Y	?
.	.			Z	
summa	summ	0		S	adt
     	summ	0		S	sg g
     	summ	0		S	sg p
     	summa	0		S	sg g
     	summa	0		S	sg n
30	30	0		N	?
rbl	rbl	0		Y	?
.	.			Z	
70	70	0		N	?
kop	kop	0		Y	?
.	.			Z	
Aru	aru	0		S	sg g
   	aru	0		S	sg n
   	aru	0		S	sg p
rent	rent	0		S	sg n
on	ole	0		V	b
  	ole	0		V	vad
54	54	0		N	?
rbl	rbl	0		Y	?
.	.			Z	
70	70	0		N	?
kop	kop	0		Y	?
.	.			Z	
tegu	tegu	0		S	sg n
    	tegu	0		S	sg p
10	10	0		N	?
rbl	rbl	0		Y	?
.	.			Z	
ette	ette	0		D	
    	ette	0		K	
    	esi	tte		S	adt
selget	selge	t		A	sg p
raha	raha	0		S	sg g
    	raha	0		S	sg n
    	raha	0		S	sg p
44	44	0		N	?
_	_			Z	
70	70	0		N	?
kop	kop	0		Y	?
.	.			Z	
summa	summ	0		S	adt
     	summ	0		S	sg g
     	summ	0		S	sg p
     	summa	0		S	sg g
     	summa	0		S	sg n
54	54	0		N	?
rbl	rbl	0		Y	?
.	.			Z	
70	70	0		N	?
kop	kop	0		Y	?
.	.			Z	
Lusu	####				
rent	rent	0		S	sg n
on	ole	0		V	b
  	ole	0		V	vad
110	110	0		N	?
rbl	rbl	0		Y	?
.	.			Z	
95	95	0		N	?
kop	kop	0		Y	?
.	.			Z	
tegu	tegu	0		S	sg n
    	tegu	0		S	sg p
17	17	0		N	?
rbl	rbl	0		Y	?
.	.			Z	
selget	selge	t		A	sg p
raha	raha	0		S	sg g
    	raha	0		S	sg n
    	raha	0		S	sg p
93	93	0		N	?
rbl	rbl	0		Y	?
.	.			Z	
95	95	0		N	?
kop	kop	0		Y	?
.	.			Z	
summa	summ	0		S	adt
     	summ	0		S	sg g
     	summ	0		S	sg p
     	summa	0		S	sg g
     	summa	0		S	sg n
110	110	0		N	?
rbl	rbl	0		Y	?
.	.			Z	
95	95	0		N	?
kop	kop	0		Y	?
.	.			Z	
Kesknõmme	kesk_nõmm	0		S	adt
         	kesk_nõmm	0		S	sg g
         	kesk_nõmm	0		S	sg p
rent	rent	0		S	sg n
on	ole	0		V	b
  	ole	0		V	vad
52.	52.	0		O	?
rbl	rbl	0		Y	?
.	.			Z	
70	70	0		N	?
kop	kop	0		Y	?
.	.			Z	
tegu	tegu	0		S	sg n
    	tegu	0		S	sg p
10	10	0		N	?
rubla	rubla	0		S	sg g
     	rubla	0		S	sg n
     	rubla	0		S	sg p
ette	ette	0		D	
    	ette	0		K	
    	esi	tte		S	adt
selget	selge	t		A	sg p
raha	raha	0		S	sg g
    	raha	0		S	sg n
    	raha	0		S	sg p
42	42	0		N	?
rbl	rbl	0		Y	?
.	.			Z	
70	70	0		N	?
kop	kop	0		Y	?
.	.			Z	
summa	summ	0		S	adt
     	summ	0		S	sg g
     	summ	0		S	sg p
     	summa	0		S	sg g
     	summa	0		S	sg n
52.	52.	0		O	?
rbl	rbl	0		Y	?
.	.			Z	
70	70	0		N	?
kop	kop	0		Y	?
.	.			Z	
Koilo	####				
rent	rent	0		S	sg n
on	ole	0		V	b
  	ole	0		V	vad
107	107	0		N	?
rbl	rbl	0		Y	?
.	.			Z	
95	95	0		N	?
kop	kop	0		Y	?
.	.			Z	
tegu	tegu	0		S	sg n
    	tegu	0		S	sg p
17	17	0		N	?
rbl	rbl	0		Y	?
.	.			Z	
ette	ette	0		D	
    	ette	0		K	
    	esi	tte		S	adt
selget	selge	t		A	sg p
raha	raha	0		S	sg g
    	raha	0		S	sg n
    	raha	0		S	sg p
90	90	0		N	?
rbl	rbl	0		Y	?
.	.			Z	
95	95	0		N	?
kop	kop	0		Y	?
.	.			Z	
summa	summ	0		S	adt
     	summ	0		S	sg g
     	summ	0		S	sg p
     	summa	0		S	sg g
     	summa	0		S	sg n
107	107	0		N	?
rbl	rbl	0		Y	?
.	.			Z	
95	95	0		N	?
kop	kop	0		Y	?
.	.			Z	
kaldama	####				
(	(			Z	
kaldama	####				
ja	ja	0		J	
trahteri	trahter	0		S	sg g
)	)			Z	
.	.			Z	
rent	rent	0		S	sg n
on	ole	0		V	b
  	ole	0		V	vad
125	125	0		N	?
rbl	rbl	0		Y	?
.	.			Z	
40	40	0		N	?
kop	kop	0		Y	?
.	.			Z	
väikesed	väike	d		A	pl n
        	väikene	d		A	pl n
rentkohad	rent_koht	d		S	pl n
.	.			Z	
Uus	uus	0		A	sg n
saun	saun	0		S	sg n
rent	rent	0		S	sg n
on	ole	0		V	b
  	ole	0		V	vad
20	20	0		N	?
rbl	rbl	0		Y	?
.	.			Z	
20	20	0		N	?
kop	kop	0		Y	?
.	.			Z	
2	2	0		N	?
päeva	päev	0		S	adt
     	päev	0		S	sg g
     	päev	0		S	sg p
mõisa	mõis	0		S	sg g
nädalas	nädal	s		S	sg in
suvel	suvi	l		S	sg ad
üksi	üksi	0		D	
Rätsepa	rätsep	0		S	sg g
saun	saun	0		S	sg n
rent	rent	0		S	sg n
on	ole	0		V	b
  	ole	0		V	vad
20	20	0		N	?
rbl	rbl	0		Y	?
.	.			Z	
20	20	0		N	?
kop	kop	0		Y	?
.	.			Z	
2	2	0		N	?
päeva	päev	0		S	adt
     	päev	0		S	sg g
     	päev	0		S	sg p
koha	koht	0		S	sg g
    	koha	0		S	sg g
    	koha	0		V	o
    	koha	0		S	sg n
    	koha	0		S	sg p
eest	eest	0		D	
    	eest	0		K	
    	esi	st		S	sg el
ja	ja	0		J	
1	1	0		N	?
""""	""""			Z	
raha	raha	0		S	sg g
    	raha	0		S	sg n
    	raha	0		S	sg p
eest	eest	0		D	
    	eest	0		K	
    	esi	st		S	sg el
suvel	suvi	l		S	sg ad
3	3	0		N	?
päeva	päev	0		S	adt
     	päev	0		S	sg g
     	päev	0		S	sg p
nädalas	nädal	s		S	sg in
Sõedi	####				
saun	saun	0		S	sg n
rent	rent	0		S	sg n
on	ole	0		V	b
  	ole	0		V	vad
20	20	0		N	?
rbl	rbl	0		Y	?
.	.			Z	
20	20	0		N	?
kop	kop	0		Y	?
.	.			Z	
2	2	0		N	?
päeva	päev	0		S	adt
     	päev	0		S	sg g
     	päev	0		S	sg p
koha	koht	0		S	sg g
    	koha	0		S	sg g
    	koha	0		V	o
    	koha	0		S	sg n
    	koha	0		S	sg p
eest	eest	0		D	
    	eest	0		K	
    	esi	st		S	sg el
mõisa	mõis	0		S	sg g
ja	ja	0		J	
1	1	0		N	?
päeva	päev	0		S	adt
     	päev	0		S	sg g
     	päev	0		S	sg p
raha	raha	0		S	sg g
    	raha	0		S	sg n
    	raha	0		S	sg p
eest	eest	0		D	
    	eest	0		K	
    	esi	st		S	sg el
suvel	suvi	l		S	sg ad
3	3	0		N	?
päeva	päev	0		S	adt
     	päev	0		S	sg g
     	päev	0		S	sg p
nädalas	nädal	s		S	sg in
mõisa	mõis	0		S	sg g
väljataguse	välja_tagune	0		A	sg g
           	välja_tagune	0		S	sg g
saun	saun	0		S	sg n
rent	rent	0		S	sg n
on	ole	0		V	b
  	ole	0		V	vad
20	20	0		N	?
rbl	rbl	0		Y	?
.	.			Z	
20	20	0		N	?
kop	kop	0		Y	?
.	.			Z	
Loigu	loik	0		S	sg g
saun	saun	0		S	sg n
rent	rent	0		S	sg n
on	ole	0		V	b
  	ole	0		V	vad
20	20	0		N	?
rbl	rbl	0		Y	?
.	.			Z	
20	20	0		N	?
kop	kop	0		Y	?
.	.			Z	
2	2	0		N	?
päeva	päev	0		S	adt
     	päev	0		S	sg g
     	päev	0		S	sg p
koha	koht	0		S	sg g
    	koha	0		S	sg g
    	koha	0		V	o
    	koha	0		S	sg n
    	koha	0		S	sg p
eest	eest	0		D	
    	eest	0		K	
    	esi	st		S	sg el
suvel	suvi	l		S	sg ad
ja	ja	0		J	
1	1	0		N	?
päeva	päev	0		S	adt
     	päev	0		S	sg g
     	päev	0		S	sg p
raha	raha	0		S	sg g
    	raha	0		S	sg n
    	raha	0		S	sg p
pärast	pära	st		S	sg el
      	pärane	t		A	sg p
      	pärast	0		D	
      	pärast	0		K	
3	3	0		N	?
päeva	päev	0		S	adt
     	päev	0		S	sg g
     	päev	0		S	sg p
mõisa	mõis	0		S	sg g
Kopli	Kopli	0		H	sg g
     	koppel	0		S	sg g
     	Kopli	0		H	sg n
saun	saun	0		S	sg n
rent	rent	0		S	sg n
on	ole	0		V	b
  	ole	0		V	vad
20	20	0		N	?
rbl	rbl	0		Y	?
.	.			Z	
20	20	0		N	?
kop	kop	0		Y	?
.	.			Z	
2	2	0		N	?
päeva	päev	0		S	adt
     	päev	0		S	sg g
     	päev	0		S	sg p
nädalas	nädal	s		S	sg in
mõisa	mõis	0		S	sg g
Lusu	####				
saun	saun	0		S	sg n
rent	rent	0		S	sg n
on	ole	0		V	b
  	ole	0		V	vad
20	20	0		N	?
rbl	rbl	0		Y	?
.	.			Z	
20	20	0		N	?
kop	kop	0		Y	?
.	.			Z	
2	2	0		N	?
päeva	päev	0		S	adt
     	päev	0		S	sg g
     	päev	0		S	sg p
koha	koht	0		S	sg g
    	koha	0		S	sg g
    	koha	0		V	o
    	koha	0		S	sg n
    	koha	0		S	sg p
eest	eest	0		D	
    	eest	0		K	
    	esi	st		S	sg el
ja	ja	0		J	
1	1	0		N	?
päeva	päev	0		S	adt
     	päev	0		S	sg g
     	päev	0		S	sg p
raha	raha	0		S	sg g
    	raha	0		S	sg n
    	raha	0		S	sg p
pärast	pära	st		S	sg el
      	pärane	t		A	sg p
      	pärast	0		D	
      	pärast	0		K	
mõisa	mõis	0		S	sg g
3	3	0		N	?
päeva	päev	0		S	adt
     	päev	0		S	sg g
     	päev	0		S	sg p
mõisa	mõis	0		S	sg g
rajama	raja	ma		V	ma
S	S	0		Y	?
.	.			Z	
rent	rent	0		S	sg n
on	ole	0		V	b
  	ole	0		V	vad
20	20	0		N	?
rbl	rbl	0		Y	?
.	.			Z	
20	20	0		N	?
kop	kop	0		Y	?
.	.			Z	
2	2	0		N	?
päeva	päev	0		S	adt
     	päev	0		S	sg g
     	päev	0		S	sg p
nädalas	nädal	s		S	sg in
mõisa	mõis	0		S	sg g
Koilo	####				
vana	vana	0		A	sg g
    	vana	0		A	sg n
    	vana	0		A	sg p
    	vana	0		S	sg g
    	vana	0		S	sg n
    	vana	0		S	sg p
S	S	0		Y	?
.	.			Z	
rent	rent	0		S	sg n
on	ole	0		V	b
  	ole	0		V	vad
20	20	0		N	?
rbl	rbl	0		Y	?
.	.			Z	
20	20	0		N	?
kop	kop	0		Y	?
.	.			Z	
3	3	0		N	?
päeva	päev	0		S	adt
     	päev	0		S	sg g
     	päev	0		S	sg p
nädalas	nädal	s		S	sg in
mõisa	mõis	0		S	sg g
Koilo	####				
uus	uus	0		A	sg n
saun	saun	0		S	sg n
.	.			Z	
rent	rent	0		S	sg n
on	ole	0		V	b
  	ole	0		V	vad
20	20	0		N	?
rbl	rbl	0		Y	?
.	.			Z	
20	20	0		N	?
kop	kop	0		Y	?
.	.			Z	
3	3	0		N	?
päeva	päev	0		S	adt
     	päev	0		S	sg g
     	päev	0		S	sg p
nädalas	nädal	s		S	sg in
mõisa	mõis	0		S	sg g
Pihu	pihk	0		S	sg g
    	pihu	0		S	sg g
    	pihu	0		S	sg n
    	pihu	0		S	sg p
saun	saun	0		S	sg n
rent	rent	0		S	sg n
on	ole	0		V	b
  	ole	0		V	vad
20	20	0		N	?
rbl	rbl	0		Y	?
.	.			Z	
20	20	0		N	?
kop	kop	0		Y	?
.	.			Z	
3	3	0		N	?
päeva	päev	0		S	adt
     	päev	0		S	sg g
     	päev	0		S	sg p
nädalas	nädal	s		S	sg in
mõisa	mõis	0		S	sg g
Männiku	männik	0		S	sg g
saun	saun	0		S	sg n
.	.			Z	
rent	rent	0		S	sg n
on	ole	0		V	b
  	ole	0		V	vad
20	20	0		N	?
rbl	rbl	0		Y	?
.	.			Z	
20	20	0		N	?
kop	kop	0		Y	?
.	.			Z	
2	2	0		N	?
päeva	päev	0		S	adt
     	päev	0		S	sg g
     	päev	0		S	sg p
nädalas	nädal	s		S	sg in
mõisa	mõis	0		S	sg g
Saidapere	saida_pere	0		S	sg g
         	saida_pere	0		S	sg n
saun	saun	0		S	sg n
rent	rent	0		S	sg n
on	ole	0		V	b
  	ole	0		V	vad
20	20	0		N	?
rbl	rbl	0		Y	?
.	.			Z	
20	20	0		N	?
kop	kop	0		Y	?
.	.			Z	
3	3	0		N	?
päeva	päev	0		S	adt
     	päev	0		S	sg g
     	päev	0		S	sg p
nädalas	nädal	s		S	sg in
mõisa	mõis	0		S	sg g
Pakka	####				
saun	saun	0		S	sg n
.	.			Z	
rent	rent	0		S	sg n
on	ole	0		V	b
  	ole	0		V	vad
20	20	0		N	?
rbl	rbl	0		Y	?
.	.			Z	
20	20	0		N	?
kop	kop	0		Y	?
.	.			Z	
2	2	0		N	?
päeva	päev	0		S	adt
     	päev	0		S	sg g
     	päev	0		S	sg p
nädalas	nädal	s		S	sg in
mõisa	mõis	0		S	sg g
kohtu	kohtu	0		V	o
     	kohus	0		S	sg g
peavanem	pea_vanem	0		C	sg n
        	pea_vanem	0		S	sg n
Hans	Hans	0		H	sg n
Valtsnep	####				
XXX	XXX	0		O	?
   	XXX	0		Y	?
kõrvamehed	kõrva_mees	d		S	pl n
Juhan	Juhan	0		H	sg n
Simson	####				
XXX	XXX	0		O	?
   	XXX	0		Y	?
Jakob	Jakob	0		H	sg n
Lintmann	lint_mann	0		S	sg n
XXX	XXX	0		O	?
   	XXX	0		Y	?
kirjutaja	kirjutaja	0		S	sg g
         	kirjutaja	0		S	sg n
J.Arnak	####				
[	[			Z	
allkiri	all_kiri	0		S	sg n
]	]			Z	
