Uuemõisas	uue_mõis	s		S	sg in
sel	see	l		P	sg ad
   	sel	0		Y	?
3ndal	3=s	l		O	sg ad
Märtsis	märts	s		S	sg in
kogukonna	kogukond	0		S	sg g
kohtus	kohtu	s		V	s
      	kohus	s		S	sg in
koos	koos	0		D	
    	koos	0		K	
    	koos	0		S	sg n
    	kubu	s		S	sg in
olid	ole	id		V	sid
:	:			Z	
kohtumees	kohtu_mees	0		S	sg n
Jüri	Jüri	0		H	sg g
    	Jüri	0		H	sg n
Eldermann	####				
kõrvamehed	kõrva_mees	d		S	pl n
Jaan	Jaan	0		H	sg n
    	jaan	0		S	sg n
    	jaan	0		Y	?
Rosenbaum	####				
""""	""""			Z	
Jaan	Jaan	0		H	sg n
    	jaan	0		S	sg n
    	jaan	0		Y	?
Jaanson	Jaanson	0		H	sg n
Uuemõisast	uue_mõis	st		S	sg el
.	.			Z	
astus	astu	s		V	s
ette	ette	0		D	
    	ette	0		K	
    	esi	tte		S	adt
kaebaja	kaebaja	0		S	sg g
       	kaebaja	0		S	sg n
,	,			Z	
Johan	Johan	0		H	sg n
vette	vesi	tte		S	adt
naine	naine	0		S	sg n
Mari	Mari	0		H	sg g
    	mari	0		S	sg g
    	mari	0		S	sg n
    	Mari	0		H	sg n
    	mari	0		S	sg p
ja	ja	0		J	
kaebas	kaeba	s		V	s
Tõnu	Tõnu	0		H	sg g
    	Tõnu	0		H	sg n
Kruustüki	kruus_tükk	0		S	sg g
naise	naine	0		S	sg g
Anni	Ann	0		H	adt
    	Ann	0		H	sg g
    	Ann	0		H	sg p
    	and	0		S	sg g
    	Anni	0		H	sg g
    	Anni	0		H	sg n
ja	ja	0		J	
tema	tema	0		P	sg g
    	tema	0		P	sg n
tütre	tütar	0		S	sg g
Krööta	####				
peale	pea	le		S	sg all
     	peale	0		D	
     	peale	0		K	
,	,			Z	
et	et	0		J	
nimetatud	nimeta	tud		V	tud
         	nimetatu	d		S	pl n
         	nimetatud	0		A	
         	nimetatud	0		A	sg n
         	nimetatud	d		A	pl n
Krõõt	Krõõt	0		H	sg n
     	krõõt	0		S	sg n
Kruustük	####				
kes	kes	0		P	pl n
   	kes	0		P	sg n
6	6	0		N	?
aastane	aastane	0		A	sg n
,	,			Z	
on	ole	0		V	b
  	ole	0		V	vad
tema	tema	0		P	sg g
    	tema	0		P	sg n
aidast	ait	st		S	sg el
küünla	küünal	0		S	sg g
kuus	kuu	s		S	sg in
    	kuus	0		N	sg n
s	s	0		Y	?
.	.			Z	
a	a	0		Y	?
ühel	üks	l		N	sg ad
    	üks	l		P	sg ad
päeval	päev	l		S	sg ad
matel	mate	l		S	sg ad
tema	tema	0		P	sg g
    	tema	0		P	sg n
ise	ise	0		A	
   	ise	0		D	
   	ise	0		P	pl n
   	ise	0		P	sg n
aidas	ait	s		S	sg in
oma	oma	0		A	sg g
   	oma	0		D	
   	oma	0		P	sg g
   	oma	0		S	sg g
   	oma	0		V	o
   	oma	0		A	sg n
   	oma	0		A	sg p
   	oma	0		P	sg n
   	oma	0		P	sg p
   	oma	0		S	sg n
   	oma	0		S	sg p
kirstu	kirst	0		S	adt
      	kirst	0		S	sg g
      	kirst	0		S	sg p
juures	juur	s		S	sg in
      	juures	0		D	
      	juures	0		K	
on	ole	0		V	b
  	ole	0		V	vad
olnud	ol=nud	0		A	
     	ol=nud	0		A	sg n
     	ol=nud	d		A	pl n
     	ole	nud		V	nud
     	olnu	d		S	pl n
,	,			Z	
ühe	üks	0		N	sg g
   	üks	0		P	sg g
   	ühe	0		S	sg n
korvi	korv	0		S	adt
     	korv	0		S	sg g
     	korv	0		S	sg p
seest	seest	0		D	
     	seest	0		K	
,	,			Z	
ühe	üks	0		N	sg g
   	üks	0		P	sg g
   	ühe	0		S	sg n
kulatud	kula=tu	d		A	pl n
Kadrina	Kadri	na		H	sg es
       	Kadrina	0		H	sg g
       	kadri	na		S	sg es
       	Kadrina	0		H	sg n
rublatüki	rubla_tükk	0		S	sg g
,	,			Z	
kus	kus	0		D	
kand	kand	0		S	sg n
taga	taga	0		D	
    	taga	0		K	
    	taga	0		V	o
,	,			Z	
salaja	salaja	0		D	
ära	ära	0		D	
   	ära	0		V	neg o
võtnud	võt	nud		V	nud
      	võt=nu	d		S	pl n
      	võt=nud	0		A	
      	võt=nud	0		A	sg n
      	võt=nud	d		A	pl n
,	,			Z	
mis	mis	0		P	pl n
   	mis	0		P	sg n
kaebaja	kaebaja	0		S	sg g
       	kaebaja	0		S	sg n
enne	enne	0		D	
    	enne	0		K	
    	enne	0		S	sg n
ei	ei	0		D	
  	ei	0		V	neg
ole	ole	0		V	o
vaja	vaja	0		D	
    	vaja	0		V	o
leidnud	leid	nud		V	nud
       	leid=nu	d		S	pl n
       	leid=nud	0		A	
       	leid=nud	0		A	sg n
       	leid=nud	d		A	pl n
kui	kui	0		D	
   	kui	0		J	
ühe	üks	0		N	sg g
   	üks	0		P	sg g
   	ühe	0		S	sg n
nädali	####				
pärast	pära	st		S	sg el
      	pärane	t		A	sg p
      	pärast	0		D	
      	pärast	0		K	
,	,			Z	
kui	kui	0		D	
   	kui	0		J	
ta	tema	0		P	sg g
  	tema	0		P	sg n
jälle	jälle	0		D	
oma	oma	0		A	sg g
   	oma	0		D	
   	oma	0		P	sg g
   	oma	0		S	sg g
   	oma	0		V	o
   	oma	0		A	sg n
   	oma	0		A	sg p
   	oma	0		P	sg n
   	oma	0		P	sg p
   	oma	0		S	sg n
   	oma	0		S	sg p
kirstu	kirst	0		S	adt
      	kirst	0		S	sg g
      	kirst	0		S	sg p
juures	juur	s		S	sg in
      	juures	0		D	
      	juures	0		K	
on	ole	0		V	b
  	ole	0		V	vad
kraamidnud	####				
;	;			Z	
siis	siis	0		D	
    	siis	0		J	
on	ole	0		V	b
  	ole	0		V	vad
tema	tema	0		P	sg g
    	tema	0		P	sg n
selle	see	0		P	sg g
     	sell	e		S	pl p
lapse	laps	0		S	sg g
käest	käest	0		K	
     	käsi	st		S	sg el
hakanud	hakka	nud		V	nud
       	haka=nu	d		S	pl n
       	haka=nud	0		A	
       	haka=nud	0		A	sg n
       	haka=nud	d		A	pl n
pärima	päri	ma		V	ma
,	,			Z	
esiteks	esiteks	0		D	
on	ole	0		V	b
  	ole	0		V	vad
tema	tema	0		P	sg g
    	tema	0		P	sg n
salanud	salga	nud		V	nud
       	sala=nu	d		S	pl n
       	sala=nud	0		A	
       	sala=nud	0		A	sg n
       	sala=nud	d		A	pl n
,	,			Z	
pärast	pära	st		S	sg el
      	pärane	t		A	sg p
      	pärast	0		D	
      	pärast	0		K	
on	ole	0		V	b
  	ole	0		V	vad
tunnistanud	tunnista	nud		V	nud
           	tunnista=nu	d		S	pl n
           	tunnista=nud	0		A	
           	tunnista=nud	0		A	sg n
           	tunnista=nud	d		A	pl n
mündrihanso	####				
pere	pere	0		S	sg g
    	pere	0		S	sg n
naise	naine	0		S	sg g
Mari	Mari	0		H	sg g
    	mari	0		S	sg g
    	mari	0		S	sg n
    	Mari	0		H	sg n
    	mari	0		S	sg p
Söönormi	####				
ja	ja	0		J	
Mari	Mari	0		H	sg g
    	mari	0		S	sg g
    	mari	0		S	sg n
    	Mari	0		H	sg n
    	mari	0		S	sg p
veetu	veetu	0		A	sg g
     	veetu	0		A	sg n
vastu	vastu	0		D	
     	vastu	0		K	
et	et	0		J	
ta	tema	0		P	sg g
  	tema	0		P	sg n
selle	see	0		P	sg g
     	sell	e		S	pl p
raha	raha	0		S	sg g
    	raha	0		S	sg n
    	raha	0		S	sg p
mis	mis	0		P	pl n
   	mis	0		P	sg n
tema	tema	0		P	sg g
    	tema	0		P	sg n
roostetanud	roosteta	nud		V	nud
           	roosteta=nu	d		S	pl n
           	roostetanud	0		A	
           	roostetanud	0		A	sg n
           	roostetanud	d		A	pl n
raha	raha	0		S	sg g
    	raha	0		S	sg n
    	raha	0		S	sg p
arvanud	arva	nud		V	nud
       	arva=nu	d		S	pl n
       	arva=nud	0		A	
       	arva=nud	0		A	sg n
       	arva=nud	d		A	pl n
olevat	ole	vat		V	vat
      	olev	t		A	sg p
      	olev	t		S	sg p
on	ole	0		V	b
  	ole	0		V	vad
sealt	sealt	0		D	
     	siga	lt		A	sg abl
     	siga	lt		S	sg abl
korvi	korv	0		S	adt
     	korv	0		S	sg g
     	korv	0		S	sg p
seest	seest	0		D	
     	seest	0		K	
võtnud	võt	nud		V	nud
      	võt=nu	d		S	pl n
      	võt=nud	0		A	
      	võt=nud	0		A	sg n
      	võt=nud	d		A	pl n
ja	ja	0		J	
oma	oma	0		A	sg g
   	oma	0		D	
   	oma	0		P	sg g
   	oma	0		S	sg g
   	oma	0		V	o
   	oma	0		A	sg n
   	oma	0		A	sg p
   	oma	0		P	sg n
   	oma	0		P	sg p
   	oma	0		S	sg n
   	oma	0		S	sg p
ema	ema	0		S	sg g
   	ema	0		S	sg n
   	ema	0		S	sg p
Ann	Ann	0		H	sg n
Krustüki	####				
kätte	kätte	0		K	
     	käsi	tte		S	adt
andnud	and	nud		V	nud
      	and=nu	d		S	pl n
      	and=nud	0		A	
      	and=nud	0		A	sg n
      	and=nud	d		A	pl n
;	;			Z	
kus	kus	0		D	
ema	ema	0		S	sg g
   	ema	0		S	sg n
   	ema	0		S	sg p
seda	see	da		P	sg p
on	ole	0		V	b
  	ole	0		V	vad
pannud	pan=nu	d		S	pl n
      	pan=nud	0		A	
      	pan=nud	0		A	sg n
      	pan=nud	d		A	pl n
      	pane	nud		V	nud
ei	ei	0		D	
  	ei	0		V	neg
tea	tead	0		V	o
tema	tema	0		P	sg g
    	tema	0		P	sg n
mitte	mitte	0		D	
öölda	####				
.	.			Z	
mündrihanso	####				
perenaine	pere_naine	0		S	sg n
Mari	Mari	0		H	sg g
    	mari	0		S	sg g
    	mari	0		S	sg n
    	Mari	0		H	sg n
    	mari	0		S	sg p
Söönorm	####				
tunnistas	tunnista	s		V	s
et	et	0		J	
se	####				
sõna	sõna	0		S	sg g
    	sõna	0		V	o
    	sõna	0		S	sg n
    	sõna	0		S	sg p
sinnalt	####				
kõik	kõik	0		P	pl n
    	kõik	0		S	sg n
    	kõik	0		P	sg n
tõsi	tõsi	0		S	pl p
    	tõsi	0		S	sg n
on	ole	0		V	b
  	ole	0		V	vad
.	.			Z	
Krõõt	Krõõt	0		H	sg n
     	krõõt	0		S	sg n
Krustük	####				
,	,			Z	
kaebatav	####				
,	,			Z	
salgas	salga	s		V	s
      	salk	s		S	sg in
kohtu	kohtu	0		V	o
     	kohus	0		S	sg g
ees	ees	0		D	
   	ees	0		K	
   	esi	s		S	sg in
,	,			Z	
et	et	0		J	
tema	tema	0		P	sg g
    	tema	0		P	sg n
seda	see	da		P	sg p
raha	raha	0		S	sg g
    	raha	0		S	sg n
    	raha	0		S	sg p
on	ole	0		V	b
  	ole	0		V	vad
näinud	näi	nud		V	nud
      	näge	nud		V	nud
      	näi=nud	0		A	
      	näi=nud	0		A	sg n
      	näi=nud	d		A	pl n
      	näinu	d		S	pl n
:	:			Z	
kohtu	kohtu	0		V	o
     	kohus	0		S	sg g
pealekäimise	peale_käimine	0		S	sg g
peale	pea	le		S	sg all
     	peale	0		D	
     	peale	0		K	
tunnistas	tunnista	s		V	s
ometi	ometi	0		D	
viimaks	vii	maks		V	maks
       	viimaks	0		D	
et	et	0		J	
on	ole	0		V	b
  	ole	0		V	vad
selle	see	0		P	sg g
     	sell	e		S	pl p
raha	raha	0		S	sg g
    	raha	0		S	sg n
    	raha	0		S	sg p
sealt	sealt	0		D	
     	siga	lt		A	sg abl
     	siga	lt		S	sg abl
võtnud	võt	nud		V	nud
      	võt=nu	d		S	pl n
      	võt=nud	0		A	
      	võt=nud	0		A	sg n
      	võt=nud	d		A	pl n
ja	ja	0		J	
oma	oma	0		A	sg g
   	oma	0		D	
   	oma	0		P	sg g
   	oma	0		S	sg g
   	oma	0		V	o
   	oma	0		A	sg n
   	oma	0		A	sg p
   	oma	0		P	sg n
   	oma	0		P	sg p
   	oma	0		S	sg n
   	oma	0		S	sg p
ema	ema	0		S	sg g
   	ema	0		S	sg n
   	ema	0		S	sg p
Ann	Ann	0		H	sg n
Krustüki	####				
kätte	kätte	0		K	
     	käsi	tte		S	adt
andnud	and	nud		V	nud
      	and=nu	d		S	pl n
      	and=nud	0		A	
      	and=nud	0		A	sg n
      	and=nud	d		A	pl n
,	,			Z	
aga	aga	0		J	
kus	kus	0		D	
ema	ema	0		S	sg g
   	ema	0		S	sg n
   	ema	0		S	sg p
seda	see	da		P	sg p
on	ole	0		V	b
  	ole	0		V	vad
pannud	pan=nu	d		S	pl n
      	pan=nud	0		A	
      	pan=nud	0		A	sg n
      	pan=nud	d		A	pl n
      	pane	nud		V	nud
ei	ei	0		D	
  	ei	0		V	neg
tea	tead	0		V	o
tema	tema	0		P	sg g
    	tema	0		P	sg n
mitte	mitte	0		D	
öölda	####				
.	.			Z	
Ann	Ann	0		H	sg n
Krustük	####				
,	,			Z	
keda	kes	da		P	pl p
    	kes	da		P	sg p
kohus	kohu	s		V	s
     	kohus	0		S	sg n
küsis	küsi	s		V	s
,	,			Z	
kus	kus	0		D	
ta	tema	0		P	sg g
  	tema	0		P	sg n
selle	see	0		P	sg g
     	sell	e		S	pl p
raha	raha	0		S	sg g
    	raha	0		S	sg n
    	raha	0		S	sg p
on	ole	0		V	b
  	ole	0		V	vad
pannud	pan=nu	d		S	pl n
      	pan=nud	0		A	
      	pan=nud	0		A	sg n
      	pan=nud	d		A	pl n
      	pane	nud		V	nud
,	,			Z	
salgas	salga	s		V	s
      	salk	s		S	sg in
kõvaste	####				
et	et	0		J	
tema	tema	0		P	sg g
    	tema	0		P	sg n
laps	laps	0		S	sg n
tema	tema	0		P	sg g
    	tema	0		P	sg n
kätte	kätte	0		K	
     	käsi	tte		S	adt
on	ole	0		V	b
  	ole	0		V	vad
seda	see	da		P	sg p
raha	raha	0		S	sg g
    	raha	0		S	sg n
    	raha	0		S	sg p
toonud	too	nud		V	nud
      	too=nu	d		S	pl n
      	too=nud	0		A	
      	too=nud	0		A	sg n
      	too=nud	d		A	pl n
,	,			Z	
et	et	0		J	
küll	küll	0		D	
    	küll	0		S	sg n
Krõõt	Krõõt	0		H	sg n
     	krõõt	0		S	sg n
Krustük	####				
kohtu	kohtu	0		V	o
     	kohus	0		S	sg g
ees	ees	0		D	
   	ees	0		K	
   	esi	s		S	sg in
tema	tema	0		P	sg g
    	tema	0		P	sg n
vastu	vastu	0		D	
     	vastu	0		K	
ütles	ütle	s		V	s
et	et	0		J	
on	ole	0		V	b
  	ole	0		V	vad
seda	see	da		P	sg p
raha	raha	0		S	sg g
    	raha	0		S	sg n
    	raha	0		S	sg p
oma	oma	0		A	sg g
   	oma	0		D	
   	oma	0		P	sg g
   	oma	0		S	sg g
   	oma	0		V	o
   	oma	0		A	sg n
   	oma	0		A	sg p
   	oma	0		P	sg n
   	oma	0		P	sg p
   	oma	0		S	sg n
   	oma	0		S	sg p
ema	ema	0		S	sg g
   	ema	0		S	sg n
   	ema	0		S	sg p
kätte	kätte	0		K	
     	käsi	tte		S	adt
toas	tuba	s		S	sg in
andnud	and	nud		V	nud
      	and=nu	d		S	pl n
      	and=nud	0		A	
      	and=nud	0		A	sg n
      	and=nud	d		A	pl n
.	.			Z	
kohus	kohu	s		V	s
     	kohus	0		S	sg n
mõistab	mõist	b		V	b
:	:			Z	
tunnistaja	tunnistaja	0		S	sg g
          	tunnistaja	0		S	sg n
Mari	Mari	0		H	sg g
    	mari	0		S	sg g
    	mari	0		S	sg n
    	Mari	0		H	sg n
    	mari	0		S	sg p
Söönormi	####				
ja	ja	0		J	
selle	see	0		P	sg g
     	sell	e		S	pl p
lapse	laps	0		S	sg g
oma	oma	0		A	sg g
   	oma	0		D	
   	oma	0		P	sg g
   	oma	0		S	sg g
   	oma	0		V	o
   	oma	0		A	sg n
   	oma	0		A	sg p
   	oma	0		P	sg n
   	oma	0		P	sg p
   	oma	0		S	sg n
   	oma	0		S	sg p
tunnistuse	tunnistus	0		S	sg g
peale	pea	le		S	sg all
     	peale	0		D	
     	peale	0		K	
,	,			Z	
ja	ja	0		J	
veel	veel	0		D	
    	vesi	l		S	sg ad
et	et	0		J	
An	####				
Krustük	####				
ja	ja	0		J	
tema	tema	0		P	sg g
    	tema	0		P	sg n
mees	mees	0		S	sg n
    	mesi	s		S	sg in
Tõnu	Tõnu	0		H	sg g
    	Tõnu	0		H	sg n
Krustük	####				
kui	kui	0		D	
   	kui	0		J	
ammu	amb	0		S	sg g
    	ambu	0		V	o
    	ammu	0		D	
    	ammu	0		V	o
teatud	tea=tu	d		S	pl n
      	tead	tud		V	tud
      	teatud	0		A	
      	teatud	0		A	sg n
      	teatud	d		A	pl n
vargad	varas	d		S	pl n
on	ole	0		V	b
  	ole	0		V	vad
,	,			Z	
kes	kes	0		P	pl n
   	kes	0		P	sg n
ei	ei	0		D	
  	ei	0		V	neg
taha	taht	0		V	o
    	taha	0		D	
    	taha	0		K	
tõt	####				
tunnistada	tunnista	da		V	da
,	,			Z	
et	et	0		J	
se	####				
küll	küll	0		D	
    	küll	0		S	sg n
selgeste	####				
neist	see	st		P	pl el
     	tema	st		P	pl el
väljapaistab	####				
:	:			Z	
Ann	Ann	0		H	sg n
Kruustük	####				
peab	pida	b		V	b
seda	see	da		P	sg p
raha	raha	0		S	sg g
    	raha	0		S	sg n
    	raha	0		S	sg p
kahe	kaks	0		N	sg g
nädali	####				
ajal	aeg	l		S	sg ad
    	ajal	0		K	
kätte	kätte	0		K	
     	käsi	tte		S	adt
andma	and	ma		V	ma
ja	ja	0		J	
kui	kui	0		D	
   	kui	0		J	
se	####				
temal	tema	l		P	sg ad
mitte	mitte	0		D	
enam	enam	0		C	sg n
    	enam	0		D	
alles	alles	0		D	
ei	ei	0		D	
  	ei	0		V	neg
ole	ole	0		V	o
,	,			Z	
siis	siis	0		D	
    	siis	0		J	
veetu	veetu	0		A	sg g
     	veetu	0		A	sg n
pärimise	pärimine	0		S	sg g
peale	pea	le		S	sg all
     	peale	0		D	
     	peale	0		K	
1	1	0		N	?
rub	####				
.	.			Z	
15	15	0		N	?
kop	kop	0		Y	?
.	.			Z	
hõb	####				
.	.			Z	
selle	see	0		P	sg g
     	sell	e		S	pl p
eest	eest	0		D	
    	eest	0		K	
    	esi	st		S	sg el
maksma	maks	ma		V	ma
.	.			Z	
kui	kui	0		D	
   	kui	0		J	
mitte	mitte	0		D	
Ann	Ann	0		H	sg n
Krustük	####				
seksajaks	seks_aeg	ks		S	sg tr
seda	see	da		P	sg p
raha	raha	0		S	sg g
    	raha	0		S	sg n
    	raha	0		S	sg p
tagasi	tagasi	0		D	
      	tagasi	0		K	
ei	ei	0		D	
  	ei	0		V	neg
anna	and	0		V	o
    	anna	0		S	sg g
    	anna	0		S	sg n
,	,			Z	
ega	ega	0		D	
   	ega	0		J	
väljamaksa	välja_maks	0		S	adt
          	välja_maks	0		S	sg g
          	välja_maks	0		S	sg p
,	,			Z	
siis	siis	0		D	
    	siis	0		J	
saab	saa	b		V	b
tema	tema	0		P	sg g
    	tema	0		P	sg n
varast	vara	st		S	sg el
      	varane	t		A	sg p
      	varas	t		S	sg p
ni	####				
palju	palju	0		D	
     	palju	0		P	sg g
     	palju	0		P	sg n
äramüüdud	ära_müü=du	d		S	pl n
         	ära_müü=dud	0		A	
         	ära_müü=dud	0		A	sg n
         	ära_müü=dud	d		A	pl n
et	et	0		J	
se	####				
tasa	tasa	0		D	
saab	saa	b		V	b
.	.			Z	
kaebaja	kaebaja	0		S	sg g
       	kaebaja	0		S	sg n
on	ole	0		V	b
  	ole	0		V	vad
selle	see	0		P	sg g
     	sell	e		S	pl p
otsusega	otsus	ga		S	sg kom
rahul	rahu	l		S	sg ad
     	rahul	0		D	
.	.			Z	
kohtumees	kohtu_mees	0		S	sg n
XXX	XXX	0		O	?
   	XXX	0		Y	?
Jüri	Jüri	0		H	sg g
    	Jüri	0		H	sg n
Eldermann	####				
kõrvamehed	kõrva_mees	d		S	pl n
XXX	XXX	0		O	?
   	XXX	0		Y	?
Jaan	Jaan	0		H	sg n
    	jaan	0		S	sg n
    	jaan	0		Y	?
Rosenbaum	####				
""""	""""			Z	
XXX	XXX	0		O	?
   	XXX	0		Y	?
Jaan	Jaan	0		H	sg n
    	jaan	0		S	sg n
    	jaan	0		Y	?
Jaanson	Jaanson	0		H	sg n
kohtu	kohtu	0		V	o
     	kohus	0		S	sg g
kirjutaja	kirjutaja	0		S	sg g
         	kirjutaja	0		S	sg n
Friedrich	Friedrich	0		H	sg n
Schotter	####				
.	.			Z	
