esmaspää	####				
sel	see	l		P	sg ad
   	sel	0		Y	?
19.	19.	0		O	?
Augusti	august	0		S	sg g
       	August	0		H	sg g
kuu	kuu	0		S	sg g
   	kuu	0		S	sg n
päeval	päev	l		S	sg ad
1868	1868	0		N	?
oli	ole	i		V	s
kohtu	kohtu	0		V	o
     	kohus	0		S	sg g
peavanem	pea_vanem	0		C	sg n
        	pea_vanem	0		S	sg n
Hans	Hans	0		H	sg n
Herberger	####				
Attla	####				
mõisas	mõis	s		S	sg in
Mari	Mari	0		H	sg g
    	mari	0		S	sg g
    	mari	0		S	sg n
    	Mari	0		H	sg n
    	mari	0		S	sg p
Mührmanni	####				
tunnistust	tunnistus	t		S	sg p
uuesti	uuesti	0		D	
kuulmas	kuul	mas		V	mas
ja	ja	0		J	
tema	tema	0		P	sg g
    	tema	0		P	sg n
tunnistas	tunnista	s		V	s
:	:			Z	
""""	""""			Z	
pühapäe	####				
öösel	öösel	0		D	
ine	####				
vakand	####				
käisin	käi	sin		V	sin
vanakubja	####				
lauda	laud	0		S	adt
     	laut	0		S	sg g
     	laud	0		S	sg p
peal	pea	l		S	sg ad
    	peal	0		D	
    	peal	0		K	
,	,			Z	
ma	mina	0		P	sg n
teadsin	tead	sin		V	sin
kus	kus	0		D	
Mari	Mari	0		H	sg g
    	mari	0		S	sg g
    	mari	0		S	sg n
    	Mari	0		H	sg n
    	mari	0		S	sg p
oma	oma	0		A	sg g
   	oma	0		D	
   	oma	0		P	sg g
   	oma	0		S	sg g
   	oma	0		V	o
   	oma	0		A	sg n
   	oma	0		A	sg p
   	oma	0		P	sg n
   	oma	0		P	sg p
   	oma	0		S	sg n
   	oma	0		S	sg p
võitme	####				
pidas	pida	s		V	s
võidsin	võid	sin		V	sin
selle	see	0		P	sg g
     	sell	e		S	pl p
,	,			Z	
tegin	tege	in		V	sin
kirstu	kirst	0		S	adt
      	kirst	0		S	sg g
      	kirst	0		S	sg p
lahti	laht	i		S	pl p
     	lahti	0		D	
ja	ja	0		J	
viisin	vii	sin		V	sin
need	see	d		P	pl n
nimetatud	nimeta	tud		V	tud
         	nimetatu	d		S	pl n
         	nimetatud	0		A	
         	nimetatud	0		A	sg n
         	nimetatud	d		A	pl n
asjad	asi	d		S	pl n
ära	ära	0		D	
   	ära	0		V	neg o
;	;			Z	
ma	mina	0		P	sg n
pidasin	pida	sin		V	sin
nad	tema	d		P	pl n
toa	tuba	0		S	sg g
peal	pea	l		S	sg ad
    	peal	0		D	
    	peal	0		K	
vakka	vakk	0		S	adt
     	vakk	0		S	sg p
     	vakka	0		D	
sees	sees	0		D	
    	sees	0		K	
ja	ja	0		J	
sealt	sealt	0		D	
     	siga	lt		A	sg abl
     	siga	lt		S	sg abl
on	ole	0		V	b
  	ole	0		V	vad
üks	üks	0		N	sg n
   	üks	0		P	sg n
teine	teine	0		O	sg n
     	teine	0		P	sg n
nad	tema	d		P	pl n
jälle	jälle	0		D	
minu	mina	0		P	sg g
taga	taga	0		D	
    	taga	0		K	
    	taga	0		V	o
ära	ära	0		D	
   	ära	0		V	neg o
varastanud	varasta	nud		V	nud
          	varasta=nu	d		S	pl n
          	varasta=nud	0		A	
          	varasta=nud	0		A	sg n
          	varasta=nud	d		A	pl n
.	.			Z	
""""	""""			Z	
kohtumees	kohtu_mees	0		S	sg n
ütles	ütle	s		V	s
;	;			Z	
tuleva	tulev	0		A	sg g
kohtupäeval	kohtu_päev	l		S	sg ad
tuled	tuli	d		S	pl n
     	tule	d		V	d
sina	sina	0		P	sg n
    	sina	0		S	sg g
    	sina	0		V	o
    	sina	0		S	sg n
    	sina	0		S	sg p
jälle	jälle	0		D	
sõijä	####				
,	,			Z	
et	et	0		J	
sinal	sina	l		S	sg ad
kohus	kohu	s		V	s
     	kohus	0		S	sg n
selle	see	0		P	sg g
     	sell	e		S	pl p
peale	pea	le		S	sg all
     	peale	0		D	
     	peale	0		K	
mõistetud	mõist	tud		V	tud
         	mõiste=tu	d		S	pl n
         	mõiste=tud	0		A	
         	mõiste=tud	0		A	sg n
         	mõiste=tud	d		A	pl n
saab	saa	b		V	b
.	.			Z	
Hans	Hans	0		H	sg n
Herberger	####				
+	+			Z	
+	+			Z	
+	+			Z	
