ette	ette	0		D	
    	ette	0		K	
    	esi	tte		S	adt
tuli	tuli	0		S	sg n
    	tule	i		V	s
kaebaja	kaebaja	0		S	sg g
       	kaebaja	0		S	sg n
Hans	Hans	0		H	sg n
Nimann	####				
,	,			Z	
mõisa	mõis	0		S	sg g
rohuaea	####				
vaht	vaht	0		S	sg n
,	,			Z	
ja	ja	0		J	
kaebas	kaeba	s		V	s
,	,			Z	
et	et	0		J	
mõisa	mõis	0		S	sg g
talipois	tali_poi	s		S	sg in
Jakob	Jakob	0		H	sg n
Hutberg	####				
ja	ja	0		J	
mõisa	mõis	0		S	sg g
tüdrukut	tüdruk	t		S	sg p
Anna	and	0		V	o
    	Anna	0		H	sg g
    	Anna	0		H	sg n
    	anna	0		S	sg g
    	anna	0		S	sg n
käskiuril	####				
ja	ja	0		J	
Mari	Mari	0		H	sg g
    	mari	0		S	sg g
    	mari	0		S	sg n
    	Mari	0		H	sg n
    	mari	0		S	sg p
murdma	murd	ma		V	ma
rohu	rohi	0		S	sg g
aidas	ait	s		S	sg in
23	23	0		N	?
juulil	juuli	l		S	sg ad
vargas	varas	s		S	sg in
käinud	käi	nud		V	nud
      	käi=nud	0		A	
      	käi=nud	0		A	sg n
      	käi=nud	d		A	pl n
      	käinu	d		S	pl n
ka	ka	0		D	
kuka	####				
emanda	emand	0		S	sg g
lapse	laps	0		S	sg g
hoidja	hoidja	0		S	sg g
      	hoidja	0		S	sg n
Leenu	Leenu	0		H	sg g
     	Leenu	0		H	sg n
Pärn	pärn	0		S	sg n
on	ole	0		V	b
  	ole	0		V	vad
seda	see	da		P	sg p
näinud	näi	nud		V	nud
      	näge	nud		V	nud
      	näi=nud	0		A	
      	näi=nud	0		A	sg n
      	näi=nud	d		A	pl n
      	näinu	d		S	pl n
ja	ja	0		J	
temale	tema	le		P	sg all
üles	üles	0		D	
tunnistanud	tunnista	nud		V	nud
           	tunnista=nu	d		S	pl n
           	tunnista=nud	0		A	
           	tunnista=nud	0		A	sg n
           	tunnista=nud	d		A	pl n
.	.			Z	
ette	ette	0		D	
    	ette	0		K	
    	esi	tte		S	adt
sai	saa	i		V	s
   	sai	0		S	sg n
kutsutud	kutsu	tud		V	tud
        	kutsutu	d		S	pl n
        	kutsutud	0		A	
        	kutsutud	0		A	sg n
        	kutsutud	d		A	pl n
J. Hutberg	####				
ja	ja	0		J	
vaidles	vaidle	s		V	s
vastu	vastu	0		D	
     	vastu	0		K	
,	,			Z	
et	et	0		J	
ta	tema	0		P	sg g
  	tema	0		P	sg n
pole	ole	0		V	neg o
mitte	mitte	0		D	
käinud	käi	nud		V	nud
      	käi=nud	0		A	
      	käi=nud	0		A	sg n
      	käi=nud	d		A	pl n
      	käinu	d		S	pl n
siis	siis	0		D	
    	siis	0		J	
said	saa	id		V	sid
ette	ette	0		D	
    	ette	0		K	
    	esi	tte		S	adt
kutsutud	kutsu	tud		V	tud
        	kutsutu	d		S	pl n
        	kutsutud	0		A	
        	kutsutud	0		A	sg n
        	kutsutud	d		A	pl n
nimetatud	nimeta	tud		V	tud
         	nimetatu	d		S	pl n
         	nimetatud	0		A	
         	nimetatud	0		A	sg n
         	nimetatud	d		A	pl n
tüdrukut	tüdruk	t		S	sg p
,	,			Z	
ja	ja	0		J	
tunnistasid	tunnista	sid		V	sid
,	,			Z	
et	et	0		J	
nad	tema	d		P	pl n
on	ole	0		V	b
  	ole	0		V	vad
käinud	käi	nud		V	nud
      	käi=nud	0		A	
      	käi=nud	0		A	sg n
      	käi=nud	d		A	pl n
      	käinu	d		S	pl n
ja	ja	0		J	
mõned	mõni	d		P	pl n
õunat	####				
võtnud	võt	nud		V	nud
      	võt=nu	d		S	pl n
      	võt=nud	0		A	
      	võt=nud	0		A	sg n
      	võt=nud	d		A	pl n
.	.			Z	
sai	saa	i		V	s
   	sai	0		S	sg n
mõistetud	mõist	tud		V	tud
         	mõiste=tu	d		S	pl n
         	mõiste=tud	0		A	
         	mõiste=tud	0		A	sg n
         	mõiste=tud	d		A	pl n
et	et	0		J	
nimetatud	nimeta	tud		V	tud
         	nimetatu	d		S	pl n
         	nimetatud	0		A	
         	nimetatud	0		A	sg n
         	nimetatud	d		A	pl n
tüdrukut	tüdruk	t		S	sg p
peavad	pida	vad		V	vad
kumpki	####				
25	25	0		N	?
kop	kop	0		Y	?
.	.			Z	
trahvi	trahv	0		S	adt
      	trahv	0		S	sg g
      	trahvi	0		V	o
      	trahv	0		S	sg p
maksma	maks	ma		V	ma
ja	ja	0		J	
pois	poi	s		S	sg in
,	,			Z	
et	et	0		J	
püüdis	püüd	is		V	s
vargust	vargus	t		S	sg p
salgata	salk	ta		S	sg ab
peab	pida	b		V	b
50	50	0		N	?
kop	kop	0		Y	?
.	.			Z	
maksma	maks	ma		V	ma
.	.			Z	
50	50	0		N	?
kopik	####				
sest	see	st		P	sg el
    	sest	0		J	
rahast	raha	st		S	sg el
sai	saa	i		V	s
   	sai	0		S	sg n
rohuaea	####				
rentniku	rentnik	0		S	sg g
käte	käsi	te		S	pl g
saadetud	saat	tud		V	tud
        	saade=tu	d		S	pl n
        	saadetud	0		A	
        	saadetud	0		A	sg n
        	saadetud	d		A	pl n
ja	ja	0		J	
50	50	0		N	?
kop	kop	0		Y	?
.	.			Z	
jäi	jää	i		V	s
vallalaeka	valla_laegas	0		S	adt
          	valla_laegas	0		S	sg g
heaks	hea	ks		A	sg tr
     	hea	ks		S	sg tr
     	heaks	0		D	
     	heaks	0		K	
.	.			Z	
kohtuvanem	kohtu_vanem	0		C	sg n
          	kohtu_vanem	0		S	sg n
k	k	0		Y	?
Gutmann	####				
XXX	XXX	0		O	?
   	XXX	0		Y	?
kõrvamehed	kõrva_mees	d		S	pl n
O. Mänd	####				
XXX	XXX	0		O	?
   	XXX	0		Y	?
ja	ja	0		J	
W	V	0		O	?
 	V	0		Y	?
 	W	0		Y	?
.	.			Z	
_	_			Z	
Mänd	mänd	0		S	sg n
XXX	XXX	0		O	?
   	XXX	0		Y	?
kirjutaja	kirjutaja	0		S	sg g
         	kirjutaja	0		S	sg n
M	M	0		O	?
 	M	0		Y	?
.	.			Z	
_	_			Z	
Käärt	####				
mõistus	mõistus	0		S	sg n
täidetud	täit	tud		V	tud
        	täide=tu	d		S	pl n
        	täide=tud	0		A	
        	täide=tud	0		A	sg n
        	täide=tud	d		A	pl n
selsamal	see_sama	l		P	sg ad
päeval	päev	l		S	sg ad
