Keiserliku	keiserlik	0		A	sg g
nise	####				
kihelkuna	####				
kohtu	kohtu	0		V	o
     	kohus	0		S	sg g
pooles	pool	s		N	sg in
      	pool	s		S	sg in
vaadetud	####				
.	.			Z	
Pullis	pull	s		A	sg in
      	pull	s		S	sg in
      	pulli	s		V	s
19	19	0		N	?
dets	dets	0		Y	?
79.	79.	0		O	?
B	B	0		Y	?
.	.			Z	
v	v	0		Y	?
.	.			Z	
honek	####				
[	[			Z	
allkiri	all_kiri	0		S	sg n
]	]			Z	
