Toomas	Toomas	0		H	sg n
      	Toomas	s		H	sg in
      	too	mas		V	mas
Allik	Allik	0		H	sg n
kaebab	kaeba	b		V	b
et	et	0		J	
kohila	####				
mõisa	mõis	0		S	sg g
töömees	töö_mees	0		S	sg n
Mart	Mart	0		H	sg n
    	mart	0		S	sg n
Mühlberg	####				
Tooma	Toomas	0		H	sg g
     	too	ma		V	ma
Allika	allikas	0		S	sg g
käest	käest	0		K	
     	käsi	st		S	sg el
tütre	tütar	0		S	sg g
Leenad	####				
(	(			Z	
13	13	0		N	?
aasta	aasta	0		S	sg g
     	aasta	0		S	sg n
vana	vana	0		A	sg g
    	vana	0		A	sg n
    	vana	0		A	sg p
    	vana	0		S	sg g
    	vana	0		S	sg n
    	vana	0		S	sg p
)	)			Z	
lapseoitjaks	####				
oli	ole	i		V	s
aasta	aasta	0		S	sg g
     	aasta	0		S	sg n
peale	pea	le		S	sg all
     	peale	0		D	
     	peale	0		K	
palganud	palka	nud		V	nud
        	palga=nu	d		S	pl n
        	palga=nud	0		A	
        	palga=nud	0		A	sg n
        	palga=nud	d		A	pl n
ja	ja	0		J	
teinud	tege	nud		V	nud
      	tei=nud	0		A	
      	tei=nud	0		A	sg n
      	tei=nud	d		A	pl n
      	teinu	d		S	pl n
aasta	aasta	0		S	sg g
     	aasta	0		S	sg n
peale	pea	le		S	sg all
     	peale	0		D	
     	peale	0		K	
kaupa	kaup	0		S	adt
     	kaup	0		S	sg p
     	kaupa	0		K	
aga	aga	0		J	
Maarja	Maarja	0		H	sg g
      	maarjas	0		S	sg g
      	Maarja	0		H	sg n
päevast	päev	st		S	sg el
       	päevane	t		A	sg p
kadrini	kadri	ni		S	sg ter
oli	ole	i		V	s
pidanud	pida	nud		V	nud
       	pida=nu	d		S	pl n
       	pida=nud	0		A	
       	pida=nud	0		A	sg n
       	pida=nud	d		A	pl n
ja	ja	0		J	
siis	siis	0		D	
    	siis	0		J	
teda	tema	da		P	sg p
teenistusest	teenistus	st		S	sg el
lahti	laht	i		S	pl p
     	lahti	0		D	
lasknud	lask	nud		V	nud
       	lask=nu	d		S	pl n
       	lask=nud	0		A	
       	lask=nud	0		A	sg n
       	lask=nud	d		A	pl n
.	.			Z	
Toomas	Toomas	0		H	sg n
      	Toomas	s		H	sg in
      	too	mas		V	mas
Allik	Allik	0		H	sg n
,	,			Z	
lisab	lisa	b		V	b
veel	veel	0		D	
    	vesi	l		S	sg ad
juure	juur	0		S	sg g
,	,			Z	
oli	ole	i		V	s
Jaanipäeval	jaani_päev	l		S	sg ad
oma	oma	0		A	sg g
   	oma	0		D	
   	oma	0		P	sg g
   	oma	0		S	sg g
   	oma	0		V	o
   	oma	0		A	sg n
   	oma	0		A	sg p
   	oma	0		P	sg n
   	oma	0		P	sg p
   	oma	0		S	sg n
   	oma	0		S	sg p
last	laps	t		S	sg p
    	last	0		S	sg n
tagasi	tagasi	0		D	
      	tagasi	0		K	
pärinud	päri	nud		V	nud
       	päri=nu	d		S	pl n
       	päri=nud	0		A	
       	päri=nud	0		A	sg n
       	päri=nud	d		A	pl n
,	,			Z	
aga	aga	0		J	
Mart	Mart	0		H	sg n
    	mart	0		S	sg n
Mühlberg	####				
ei	ei	0		D	
  	ei	0		V	neg
ole	ole	0		V	o
tema	tema	0		P	sg g
    	tema	0		P	sg n
last	laps	t		S	sg p
    	last	0		S	sg n
kätte	kätte	0		K	
     	käsi	tte		S	adt
andnud	and	nud		V	nud
      	and=nu	d		S	pl n
      	and=nud	0		A	
      	and=nud	0		A	sg n
      	and=nud	d		A	pl n
,	,			Z	
sest	see	st		P	sg el
    	sest	0		J	
tema	tema	0		P	sg g
    	tema	0		P	sg n
lubanud	luba	nud		V	nud
       	luba=nu	d		S	pl n
       	luba=nud	0		A	
       	luba=nud	0		A	sg n
       	luba=nud	d		A	pl n
last	laps	t		S	sg p
    	last	0		S	sg n
aasta	aasta	0		S	sg g
     	aasta	0		S	sg n
läbi	läbi	0		D	
    	läbi	0		K	
    	läbi	0		V	o
pidada	pida	da		V	da
.	.			Z	
Mart	Mart	0		H	sg n
    	mart	0		S	sg n
Mühlberg	####				
vastab	vasta	b		V	b
et	et	0		J	
tema	tema	0		P	sg g
    	tema	0		P	sg n
oma	oma	0		A	sg g
   	oma	0		D	
   	oma	0		P	sg g
   	oma	0		S	sg g
   	oma	0		V	o
   	oma	0		A	sg n
   	oma	0		A	sg p
   	oma	0		P	sg n
   	oma	0		P	sg p
   	oma	0		S	sg n
   	oma	0		S	sg p
tudrukut	####				
Leenad	####				
selle	see	0		P	sg g
     	sell	e		S	pl p
pärast	pära	st		S	sg el
      	pärane	t		A	sg p
      	pärast	0		D	
      	pärast	0		K	
oli	ole	i		V	s
teenistusest	teenistus	st		S	sg el
lahti	laht	i		S	pl p
     	lahti	0		D	
lasknud	lask	nud		V	nud
       	lask=nu	d		S	pl n
       	lask=nud	0		A	
       	lask=nud	0		A	sg n
       	lask=nud	d		A	pl n
,	,			Z	
et	et	0		J	
tema	tema	0		P	sg g
    	tema	0		P	sg n
oletuse	oletus	0		S	sg g
läbi	läbi	0		D	
    	läbi	0		K	
    	läbi	0		V	o
kalja	kali	0		S	adt
     	kali	0		S	sg g
     	kali	0		S	sg p
astja	astja	0		S	sg g
     	astja	0		S	sg n
pulga	pulk	0		S	sg g
lahti	laht	i		S	pl p
     	lahti	0		D	
jätnud	jät	nud		V	nud
      	jät=nu	d		S	pl n
      	jät=nud	0		A	
      	jät=nud	0		A	sg n
      	jät=nud	d		A	pl n
ja	ja	0		J	
kalja	kali	0		S	adt
     	kali	0		S	sg g
     	kali	0		S	sg p
lasknud	lask	nud		V	nud
       	lask=nu	d		S	pl n
       	lask=nud	0		A	
       	lask=nud	0		A	sg n
       	lask=nud	d		A	pl n
maha	maha	0		D	
justa	####				
ja	ja	0		J	
teine	teine	0		O	sg n
     	teine	0		P	sg n
kord	kord	0		D	
    	kord	0		S	sg n
jätnud	jät	nud		V	nud
      	jät=nu	d		S	pl n
      	jät=nud	0		A	
      	jät=nud	0		A	sg n
      	jät=nud	d		A	pl n
kirstu	kirst	0		S	adt
      	kirst	0		S	sg g
      	kirst	0		S	sg p
käene	####				
lahti	laht	i		S	pl p
     	lahti	0		D	
ja	ja	0		J	
kas	kas	0		D	
söönud	söö	nud		V	nud
      	söönu	d		S	pl n
      	söönud	0		A	
      	söönud	0		A	sg n
      	söönud	d		A	pl n
käkkid	####				
ära	ära	0		D	
   	ära	0		V	neg o
mis	mis	0		P	pl n
   	mis	0		P	sg n
kirstu	kirst	0		S	adt
      	kirst	0		S	sg g
      	kirst	0		S	sg p
sees	sees	0		D	
    	sees	0		K	
olnud	ol=nud	0		A	
     	ol=nud	0		A	sg n
     	ol=nud	d		A	pl n
     	ole	nud		V	nud
     	olnu	d		S	pl n
.	.			Z	
kohus	kohu	s		V	s
     	kohus	0		S	sg n
mõistab	mõist	b		V	b
,	,			Z	
selle	see	0		P	sg g
     	sell	e		S	pl p
pärast	pära	st		S	sg el
      	pärane	t		A	sg p
      	pärast	0		D	
      	pärast	0		K	
,	,			Z	
et	et	0		J	
Mart	Mart	0		H	sg n
    	mart	0		S	sg n
Mühlberg	####				
mitte	mitte	0		D	
Jaani	Jaan	0		H	adt
     	Jaan	0		H	sg g
     	Jaani	0		H	sg g
     	jaan	0		S	adt
     	jaan	0		S	sg g
     	Jaan	0		H	sg p
     	Jaani	0		H	sg n
     	jaan	0		S	sg p
päeva	päev	0		S	adt
     	päev	0		S	sg g
     	päev	0		S	sg p
aigus	####				
pole	ole	0		V	neg o
seda	see	da		P	sg p
last	laps	t		S	sg p
    	last	0		S	sg n
tagasi	tagasi	0		D	
      	tagasi	0		K	
vanemate	vanem	te		C	pl g
        	vanem	te		S	pl g
juure	juur	0		S	sg g
lasknud	lask	nud		V	nud
       	lask=nu	d		S	pl n
       	lask=nud	0		A	
       	lask=nud	0		A	sg n
       	lask=nud	d		A	pl n
mina	mina	0		P	sg n
    	mina	0		S	sg g
    	mina	0		S	sg n
    	mina	0		S	sg p
,	,			Z	
kui	kui	0		D	
   	kui	0		J	
vanemad	vanem	d		C	pl n
       	vanem	d		S	pl n
seda	see	da		P	sg p
last	laps	t		S	sg p
    	last	0		S	sg n
isevõinud	ise_või=nu	d		S	pl n
         	ise_või=nud	0		A	
         	ise_või=nud	0		A	sg n
         	ise_või=nud	d		A	pl n
pruukida	pruuki	da		V	da
suvise	suvine	0		A	sg g
töö	töö	0		S	sg g
   	töö	0		S	sg n
juures	juur	s		S	sg in
      	juures	0		D	
      	juures	0		K	
,	,			Z	
peab	pida	b		V	b
Mart	Mart	0		H	sg n
    	mart	0		S	sg n
Mühlberg	####				
selle	see	0		P	sg g
     	sell	e		S	pl p
lapse	laps	0		S	sg g
talve	talv	0		S	adt
     	talv	0		S	sg g
     	tali	0		S	adt
     	tali	0		S	sg g
     	talv	0		S	sg p
     	tali	0		S	sg p
söötmise	söötmine	0		S	sg g
tarvis	tarvis	0		D	
      	tarvis	0		K	
1	1	0		N	?
Twk	####				
Rugid	####				
ja	ja	0		J	
1	1	0		N	?
Twk	####				
Odre	####				
maksma	maks	ma		V	ma
ja	ja	0		J	
täna	täna	0		D	
    	täna	0		V	o
2	2	0		N	?
nädala	nädal	0		S	sg g
pärast	pära	st		S	sg el
      	pärane	t		A	sg p
      	pärast	0		D	
      	pärast	0		K	
peab	pida	b		V	b
se	####				
vili	vili	0		S	sg n
makstud	maks	tud		V	tud
       	maks=tu	d		S	pl n
       	maks=tud	0		A	
       	maks=tud	0		A	sg n
       	maks=tud	d		A	pl n
olema	ole	ma		V	ma
.	.			Z	
