nise	####				
kihelkonna	kihelkond	0		S	sg g
Kohtu	kohtu	0		V	o
     	kohus	0		S	sg g
poolest	pool	st		N	sg el
       	pool	st		S	sg el
       	poolene	t		A	sg p
       	poolest	0		K	
läbi	läbi	0		D	
    	läbi	0		K	
    	läbi	0		V	o
detada	####				
sel	see	l		P	sg ad
   	sel	0		Y	?
10	10	0		N	?
jaanuar	jaanuar	0		S	sg n
1875	1875	0		N	?
Barun	####				
takkelberg	####				
[	[			Z	
allkiri	all_kiri	0		S	sg n
]	]			Z	
kohtu	kohtu	0		V	o
     	kohus	0		S	sg g
peavanem	pea_vanem	0		C	sg n
        	pea_vanem	0		S	sg n
