teiseks	teine	ks		O	sg tr
       	teine	ks		P	sg tr
       	teiseks	0		D	
kaebas	kaeba	s		V	s
Anu	Anu	0		H	sg g
   	anu	0		V	o
   	Anu	0		H	sg n
käes	käes	0		K	
    	käsi	s		S	sg in
,	,			Z	
et	et	0		J	
heinamavaht	####				
Jüri	Jüri	0		H	sg g
    	Jüri	0		H	sg n
prügi	prügi	0		S	sg g
     	prügi	0		S	sg n
     	prügi	0		S	sg p
on	ole	0		V	b
  	ole	0		V	vad
gedil	####				
hobuste	hobune	te		S	pl g
pealt	pea	lt		S	sg abl
     	pealt	0		D	
     	pealt	0		K	
se	####				
trahvi	trahv	0		S	adt
      	trahv	0		S	sg g
      	trahvi	0		V	o
      	trahv	0		S	sg p
raha	raha	0		S	sg g
    	raha	0		S	sg n
    	raha	0		S	sg p
omal	oma	l		A	sg ad
    	oma	l		P	sg ad
    	oma	l		S	sg ad
võtnud	võt	nud		V	nud
      	võt=nu	d		S	pl n
      	võt=nud	0		A	
      	võt=nud	0		A	sg n
      	võt=nud	d		A	pl n
,	,			Z	
mis	mis	0		P	pl n
   	mis	0		P	sg n
Anu	Anu	0		H	sg g
   	anu	0		V	o
   	Anu	0		H	sg n
käes	käes	0		K	
    	käsi	s		S	sg in
oma	oma	0		A	sg g
   	oma	0		D	
   	oma	0		P	sg g
   	oma	0		S	sg g
   	oma	0		V	o
   	oma	0		A	sg n
   	oma	0		A	sg p
   	oma	0		P	sg n
   	oma	0		P	sg p
   	oma	0		S	sg n
   	oma	0		S	sg p
heinama	####				
pealt	pea	lt		S	sg abl
     	pealt	0		D	
     	pealt	0		K	
on	ole	0		V	b
  	ole	0		V	vad
kinni	kinni	0		D	
ajanud	aja	nud		V	nud
      	aja=nu	d		S	pl n
      	aja=nud	0		A	
      	aja=nud	0		A	sg n
      	aja=nud	d		A	pl n
,	,			Z	
ja	ja	0		J	
tema	tema	0		P	sg g
    	tema	0		P	sg n
õiguse	õigus	0		S	sg g
pärast	pära	st		S	sg el
      	pärane	t		A	sg p
      	pärast	0		D	
      	pärast	0		K	
oleks	ole	ks		V	ks
pidanud	pida	nud		V	nud
       	pida=nu	d		S	pl n
       	pida=nud	0		A	
       	pida=nud	0		A	sg n
       	pida=nud	d		A	pl n
se	####				
trahviraha	trahvi_raha	0		S	sg g
          	trahvi_raha	0		S	sg n
          	trahvi_raha	0		S	sg p
omal	oma	l		A	sg ad
    	oma	l		P	sg ad
    	oma	l		S	sg ad
saama	saa	ma		V	ma
     	saam	0		S	adt
     	saam	0		S	sg g
     	saam	0		S	sg p
.	.			Z	
Jüri	Jüri	0		H	sg g
    	Jüri	0		H	sg n
prügi	prügi	0		S	sg g
     	prügi	0		S	sg n
     	prügi	0		S	sg p
astus	astu	s		V	s
ette	ette	0		D	
    	ette	0		K	
    	esi	tte		S	adt
ja	ja	0		J	
ütles	ütle	s		V	s
et	et	0		J	
Anna	and	0		V	o
    	Anna	0		H	sg g
    	Anna	0		H	sg n
    	anna	0		S	sg g
    	anna	0		S	sg n
käes	käes	0		K	
    	käsi	s		S	sg in
ei	ei	0		D	
  	ei	0		V	neg
ole	ole	0		V	o
mitte	mitte	0		D	
need	see	d		P	pl n
hobused	hobune	d		S	pl n
oma	oma	0		A	sg g
   	oma	0		D	
   	oma	0		P	sg g
   	oma	0		S	sg g
   	oma	0		V	o
   	oma	0		A	sg n
   	oma	0		A	sg p
   	oma	0		P	sg n
   	oma	0		P	sg p
   	oma	0		S	sg n
   	oma	0		S	sg p
heinamalt	####				
kinni	kinni	0		D	
ajanud	aja	nud		V	nud
      	aja=nu	d		S	pl n
      	aja=nud	0		A	
      	aja=nud	0		A	sg n
      	aja=nud	d		A	pl n
,	,			Z	
vaid	vaid	0		D	
    	vaid	0		J	
Otsa	ots	0		S	adt
    	ots	0		S	sg g
    	otsa	0		D	
    	otsa	0		K	
    	otsa	0		V	o
    	ots	0		S	sg p
ja	ja	0		J	
aanin	####				
pere	pere	0		S	sg g
    	pere	0		S	sg n
heinama	####				
pealt	pea	lt		S	sg abl
     	pealt	0		D	
     	pealt	0		K	
on	ole	0		V	b
  	ole	0		V	vad
Ann	Ann	0		H	sg n
käes	käes	0		K	
    	käsi	s		S	sg in
hobused	hobune	d		S	pl n
kinni	kinni	0		D	
ajanud	aja	nud		V	nud
      	aja=nu	d		S	pl n
      	aja=nud	0		A	
      	aja=nud	0		A	sg n
      	aja=nud	d		A	pl n
.	.			Z	
Jääb	jää	b		V	b
poolel	pool	l		N	sg ad
      	pool	l		S	sg ad
kuni	kuni	0		J	
    	kuni	0		K	
Anu	Anu	0		H	sg g
   	anu	0		V	o
   	Anu	0		H	sg n
käes	käes	0		K	
    	käsi	s		S	sg in
toop	toop	0		S	sg n
tunnistuse	tunnistus	0		S	sg g
mehed	mees	d		S	pl n
kes	kes	0		P	pl n
   	kes	0		P	sg n
seda	see	da		P	sg p
tunnistavad	tunnista	vad		V	vad
           	tunnista=v	d		A	pl n
et	et	0		J	
ta	tema	0		P	sg g
  	tema	0		P	sg n
need	see	d		P	pl n
hobused	hobune	d		S	pl n
oma	oma	0		A	sg g
   	oma	0		D	
   	oma	0		P	sg g
   	oma	0		S	sg g
   	oma	0		V	o
   	oma	0		A	sg n
   	oma	0		A	sg p
   	oma	0		P	sg n
   	oma	0		P	sg p
   	oma	0		S	sg n
   	oma	0		S	sg p
heinama	####				
pealt	pea	lt		S	sg abl
     	pealt	0		D	
     	pealt	0		K	
on	ole	0		V	b
  	ole	0		V	vad
kinni	kinni	0		D	
ajanud	aja	nud		V	nud
      	aja=nu	d		S	pl n
      	aja=nud	0		A	
      	aja=nud	0		A	sg n
      	aja=nud	d		A	pl n
.	.			Z	
kohtuvanem	kohtu_vanem	0		C	sg n
          	kohtu_vanem	0		S	sg n
Mart	Mart	0		H	sg n
    	mart	0		S	sg n
Reismann	reis_mann	0		S	sg n
XXX	XXX	0		O	?
   	XXX	0		Y	?
kohtukäemehed	kohtu_käe_mees	d		S	pl n
:	:			Z	
Hans	Hans	0		H	sg n
Land	####				
XXX	XXX	0		O	?
   	XXX	0		Y	?
Jakob	Jakob	0		H	sg n
kaer	kaer	0		S	sg n
XXX	XXX	0		O	?
   	XXX	0		Y	?
kirjutaja	kirjutaja	0		S	sg g
         	kirjutaja	0		S	sg n
:	:			Z	
