kaebatav	####				
Gustas	####				
Kuusman	####				
ütleb	ütle	b		V	b
,	,			Z	
et	et	0		J	
tema	tema	0		P	sg g
    	tema	0		P	sg n
on	ole	0		V	b
  	ole	0		V	vad
Andrei	Andrei	0		H	sg g
      	Andrei	0		H	sg n
Gardejevi	####				
käest	käest	0		K	
     	käsi	st		S	sg el
kuulnud	kuul	nud		V	nud
       	kuul=nud	0		A	
       	kuul=nud	0		A	sg n
       	kuul=nud	d		A	pl n
       	kuulnu	d		S	pl n
,	,			Z	
et	et	0		J	
Vassili	Vassili	0		H	sg g
       	Vassili	0		H	sg n
Toomingas	Tooming	s		H	sg in
         	toomingas	0		S	sg n
         	toomingas	s		S	sg in
on	ole	0		V	b
  	ole	0		V	vad
seda	see	da		P	sg p
Roküla	####				
meest	meene	t		A	sg p
     	mees	t		S	sg p
     	mesi	st		S	sg el
löönu	löö=nu	0		S	sg g
     	löö=nu	0		S	sg n
noaga	nuga	ga		S	sg kom
.	.			Z	
Andrei	Andrei	0		H	sg g
      	Andrei	0		H	sg n
Gardejev	####				
ütleb	ütle	b		V	b
seepeale	see_peale	0		D	
mis	mis	0		P	pl n
   	mis	0		P	sg n
Karitun	####				
Toomingas	Tooming	s		H	sg in
         	toomingas	0		S	sg n
         	toomingas	s		S	sg in
4.	4.	0		O	?
september	september	0		S	sg n
1881	1881	0		N	?
protokoll	protokoll	0		S	sg n
No	no	0		I	
10	10	0		N	?
tunnistas	tunnista	s		V	s
,	,			Z	
et	et	0		J	
temal	tema	l		P	sg ad
ei	ei	0		D	
  	ei	0		V	neg
ole	ole	0		V	o
mitte	mitte	0		D	
nuga	nuga	0		S	sg n
    	nuga	0		S	sg p
käes	käes	0		K	
    	käsi	s		S	sg in
ega	ega	0		D	
   	ega	0		J	
kivi	kivi	0		S	sg g
    	kivi	0		S	sg n
    	kivi	0		S	sg p
kinda	kinnas	0		S	sg g
sees	sees	0		D	
    	sees	0		K	
olnud	ol=nud	0		A	
     	ol=nud	0		A	sg n
     	ol=nud	d		A	pl n
     	ole	nud		V	nud
     	olnu	d		S	pl n
ja	ja	0		J	
kõrtsmiku	kõrtsmik	0		S	sg g
ei	ei	0		D	
  	ei	0		V	neg
ole	ole	0		V	o
tema	tema	0		P	sg g
    	tema	0		P	sg n
ka	ka	0		D	
mitte	mitte	0		D	
ähvartanud	####				
ja	ja	0		J	
selle	see	0		P	sg g
     	sell	e		S	pl p
Gustas	####				
Kuusmannile	kuus_mann	le		S	sg all
ei	ei	0		D	
  	ei	0		V	neg
ole	ole	0		V	o
tema	tema	0		P	sg g
    	tema	0		P	sg n
ka	ka	0		D	
mitte	mitte	0		D	
seda	see	da		P	sg p
ütelnud	ütle	nud		V	nud
       	ütel=nu	d		S	pl n
       	ütel=nud	0		A	
       	ütel=nud	0		A	sg n
       	ütel=nud	d		A	pl n
,	,			Z	
et	et	0		J	
Vassili	Vassili	0		H	sg g
       	Vassili	0		H	sg n
Toommingas	####				
on	ole	0		V	b
  	ole	0		V	vad
just	just	0		D	
    	just	0		I	
Roküla	####				
meest	meene	t		A	sg p
     	mees	t		S	sg p
     	mesi	st		S	sg el
löönud	löö	nud		V	nud
      	löö=nu	d		S	pl n
      	löö=nud	0		A	
      	löö=nud	0		A	sg n
      	löö=nud	d		A	pl n
seda	see	da		P	sg p
on	ole	0		V	b
  	ole	0		V	vad
ta	tema	0		P	sg g
  	tema	0		P	sg n
aga	aga	0		J	
näinud	näi	nud		V	nud
      	näge	nud		V	nud
      	näi=nud	0		A	
      	näi=nud	0		A	sg n
      	näi=nud	d		A	pl n
      	näinu	d		S	pl n
et	et	0		J	
se	####				
Vassili	Vassili	0		H	sg g
       	Vassili	0		H	sg n
Toomingas	Tooming	s		H	sg in
         	toomingas	0		S	sg n
         	toomingas	s		S	sg in
on	ole	0		V	b
  	ole	0		V	vad
selle	see	0		P	sg g
     	sell	e		S	pl p
Roküla	####				
mehe	mees	0		S	sg g
vankri	vanker	0		S	sg g
juure	juur	0		S	sg g
seisma	seis	ma		V	ma
jäänud	jää	nud		V	nud
      	jäänu	d		S	pl n
      	jäänud	0		A	
      	jäänud	0		A	sg n
      	jäänud	d		A	pl n
.	.			Z	
Priidik	####				
Kuusman	####				
Kaarel	Kaarel	0		H	sg n
      	kaar	l		S	sg ad
      	kaarel	0		S	sg n
Krood	####				
ja	ja	0		J	
Gustas	####				
Kuusman	####				
ütlevat	ütle	vat		V	vat
       	ütlev	t		A	sg p
,	,			Z	
et	et	0		J	
nemad	tema	d		P	pl n
sest	see	st		P	sg el
    	sest	0		J	
Roküla	####				
mehe	mees	0		S	sg g
noaga	nuga	ga		S	sg kom
löömisest	löömine	st		S	sg el
mitte	mitte	0		D	
sugugi	sugugi	0		D	
ei	ei	0		D	
  	ei	0		V	neg
tea	tead	0		V	o
.	.			Z	
Pawel	Pavel	0		H	sg n
Sillatu	silla=tu	0		S	sg g
       	silla=tu	0		S	sg n
ütleb	ütle	b		V	b
,	,			Z	
et	et	0		J	
tema	tema	0		P	sg g
    	tema	0		P	sg n
on	ole	0		V	b
  	ole	0		V	vad
juba	juba	0		D	
enemalt	####				
laada	laat	0		S	sg g
pealt	pea	lt		S	sg abl
     	pealt	0		D	
     	pealt	0		K	
ära	ära	0		D	
   	ära	0		V	neg o
läinud	läinu	d		S	pl n
      	läinud	0		A	
      	läinud	0		A	sg n
      	läinud	d		A	pl n
      	mine	nud		V	nud
,	,			Z	
seepärast	see_pärast	0		D	
tema	tema	0		P	sg g
    	tema	0		P	sg n
sest	see	st		P	sg el
    	sest	0		J	
riiust	riid	st		S	sg el
ei	ei	0		D	
  	ei	0		V	neg
tea	tead	0		V	o
.	.			Z	
kohus	kohu	s		V	s
     	kohus	0		S	sg n
arvas	arva	s		V	s
seda	see	da		P	sg p
kaebtust	####				
suurema	suurem	0		C	sg g
kohtu	kohtu	0		V	o
     	kohus	0		S	sg g
seletada	seleta	da		V	da
anda	and	a		V	da
,	,			Z	
sest	see	st		P	sg el
    	sest	0		J	
et	et	0		J	
siiamale	siia_male	0		S	sg g
        	siia_male	0		S	sg n
mitte	mitte	0		D	
selgemat	selgem	t		C	sg p
tunnistusi	tunnistus	i		S	pl p
ei	ei	0		D	
  	ei	0		V	neg
ole	ole	0		V	o
ootamise	ootamine	0		S	sg g
järel	järel	0		D	
     	järel	0		K	
välja	välja	0		D	
     	välja	0		V	o
     	väli	0		S	adt
     	väli	0		S	sg g
     	väli	0		S	sg p
tulnud	tul=nud	0		A	
      	tul=nud	0		A	sg n
      	tul=nud	d		A	pl n
      	tule	nud		V	nud
      	tulnu	d		S	pl n
.	.			Z	
vaata	vaata	0		V	o
sissekaebtust	####				
6.	6.	0		O	?
Novem	####				
.	.			Z	
protokoll	protokoll	0		S	sg n
No	no	0		I	
.	.			Z	
9.	9.	0		O	?
1881.	1881.	0		O	?
protokoll	protokoll	0		S	sg n
...	...			Z	
juure	juur	0		S	sg g
sel	see	l		P	sg ad
   	sel	0		Y	?
22.	22.	0		O	?
veebr.	veebr	0		Y	?
1882	1882	0		N	?
