17	17	0		N	?
kohtu	kohtu	0		V	o
     	kohus	0		S	sg g
ette	ette	0		D	
    	ette	0		K	
    	esi	tte		S	adt
astus	astu	s		V	s
Uue	uus	0		A	sg g
Riesepere	####				
mõisa	mõis	0		S	sg g
metsavaht	metsa_vaht	0		S	sg n
Kangru	kangur	0		S	sg g
Jüri	Jüri	0		H	sg g
    	Jüri	0		H	sg n
servalt	serv	lt		S	sg abl
.	.			Z	
ja	ja	0		J	
kaebas	kaeba	s		V	s
et	et	0		J	
ürjaste	####				
nõmme	nõmm	0		S	adt
     	nõmm	0		S	sg g
     	nõmm	0		S	sg p
peal	pea	l		S	sg ad
    	peal	0		D	
    	peal	0		K	
istutatud	istuta	tud		V	tud
         	istuta=tu	d		S	pl n
         	istuta=tud	0		A	
         	istuta=tud	0		A	sg n
         	istuta=tud	d		A	pl n
puuduseas	puudus_iga	s		S	sg in
on	ole	0		V	b
  	ole	0		V	vad
all	all	0		D	
   	all	0		K	
nimetatud	nimeta	tud		V	tud
         	nimetatu	d		S	pl n
         	nimetatud	0		A	
         	nimetatud	0		A	sg n
         	nimetatud	d		A	pl n
inimeste	inimene	te		S	pl g
sead	sead	d		V	d
    	siga	d		A	pl n
    	siga	d		S	pl n
palju	palju	0		D	
     	palju	0		P	sg g
     	palju	0		P	sg n
maad	maa	d		S	pl n
    	maa	d		S	sg p
üles	üles	0		D	
ustinud	####				
.	.			Z	
1	1	0		N	?
,	,			Z	
Reinu	Rein	0		H	adt
     	Rein	0		H	sg g
     	Rein	0		H	sg p
Villem	Villem	0		H	sg n
1	1	0		N	?
siga	siga	0		A	sg n
    	siga	0		A	sg p
    	siga	0		S	sg n
    	siga	0		S	sg p
ilma	ilm	0		S	adt
    	ilm	0		S	sg g
    	ilma	0		D	
    	ilma	0		K	
    	ilm	0		S	sg p
rõngadeta	####				
,	,			Z	
7	7	0		N	?
siga	siga	0		A	sg n
    	siga	0		A	sg p
    	siga	0		S	sg n
    	siga	0		S	sg p
rõngas	rõngas	0		S	sg n
      	rõngas	s		S	sg in
ninas	nina	s		S	sg in
2	2	0		N	?
,	,			Z	
Lepiku	lepik	0		S	sg g
Jakob	Jakob	0		H	sg n
1	1	0		N	?
siga	siga	0		A	sg n
    	siga	0		A	sg p
    	siga	0		S	sg n
    	siga	0		S	sg p
""""	""""			Z	
""""	""""			Z	
,	,			Z	
1	1	0		N	?
""""	""""			Z	
""""	""""			Z	
""""	""""			Z	
3	3	0		N	?
,	,			Z	
Lepiku	lepik	0		S	sg g
Jaan	Jaan	0		H	sg n
    	jaan	0		S	sg n
    	jaan	0		Y	?
2	2	0		N	?
""""	""""			Z	
""""	""""			Z	
""""	""""			Z	
4	4	0		N	?
,	,			Z	
Uustalu	uus_talu	0		S	sg g
       	uus_talu	0		S	sg n
       	uus_talu	0		S	sg p
Kaarel	Kaarel	0		H	sg n
      	kaar	l		S	sg ad
      	kaarel	0		S	sg n
1	1	0		N	?
""""	""""			Z	
""""	""""			Z	
""""	""""			Z	
5	5	0		N	?
,	,			Z	
onni	onn	0		S	adt
    	onn	0		S	sg g
    	onn	0		S	sg p
Mari	Mari	0		H	sg g
    	mari	0		S	sg g
    	mari	0		S	sg n
    	Mari	0		H	sg n
    	mari	0		S	sg p
1	1	0		N	?
""""	""""			Z	
""""	""""			Z	
""""	""""			Z	
6	6	0		N	?
,	,			Z	
Pritsi	prits	0		S	adt
      	prits	0		S	sg g
      	pritsi	0		V	o
      	prits	0		S	sg p
Liisu	liisk	0		S	sg g
     	liisu	0		V	o
1	1	0		N	?
""""	""""			Z	
""""	""""			Z	
""""	""""			Z	
7	7	0		N	?
,	,			Z	
Vahioni	####				
Mari	Mari	0		H	sg g
    	mari	0		S	sg g
    	mari	0		S	sg n
    	Mari	0		H	sg n
    	mari	0		S	sg p
1	1	0		N	?
""""	""""			Z	
""""	""""			Z	
""""	""""			Z	
8	8	0		N	?
,	,			Z	
Perna	####				
s	s	0		Y	?
.	.			Z	
Hans	Hans	0		H	sg n
1	1	0		N	?
""""	""""			Z	
""""	""""			Z	
""""	""""			Z	
9	9	0		N	?
,	,			Z	
Lesa	####				
peremees	pere_mees	0		S	sg n
3	3	0		N	?
""""	""""			Z	
""""	""""			Z	
""""	""""			Z	
kaebtuse	####				
Kandjad	kandja	d		S	pl n
Reinu	Rein	0		H	adt
     	Rein	0		H	sg g
     	Rein	0		H	sg p
Villem	Villem	0		H	sg n
,	,			Z	
Lepiku	lepik	0		S	sg g
Jakob	Jakob	0		H	sg n
,	,			Z	
Lepiku	lepik	0		S	sg g
Jaan	Jaan	0		H	sg n
    	jaan	0		S	sg n
    	jaan	0		Y	?
,	,			Z	
Anni	Ann	0		H	adt
    	Ann	0		H	sg g
    	Ann	0		H	sg p
    	and	0		S	sg g
    	Anni	0		H	sg g
    	Anni	0		H	sg n
Mari	Mari	0		H	sg g
    	mari	0		S	sg g
    	mari	0		S	sg n
    	Mari	0		H	sg n
    	mari	0		S	sg p
,	,			Z	
Pritso	####				
Liisu	liisk	0		S	sg g
     	liisu	0		V	o
,	,			Z	
ja	ja	0		J	
Vahioni	####				
Mari	Mari	0		H	sg g
    	mari	0		S	sg g
    	mari	0		S	sg n
    	Mari	0		H	sg n
    	mari	0		S	sg p
,	,			Z	
astusid	astu	sid		V	sid
kohtu	kohtu	0		V	o
     	kohus	0		S	sg g
ette	ette	0		D	
    	ette	0		K	
    	esi	tte		S	adt
,	,			Z	
ja	ja	0		J	
ütlesid	ütle	sid		V	sid
vastu	vastu	0		D	
     	vastu	0		K	
et	et	0		J	
nemad	tema	d		P	pl n
on	ole	0		V	b
  	ole	0		V	vad
oma	oma	0		A	sg g
   	oma	0		D	
   	oma	0		P	sg g
   	oma	0		S	sg g
   	oma	0		V	o
   	oma	0		A	sg n
   	oma	0		A	sg p
   	oma	0		P	sg n
   	oma	0		P	sg p
   	oma	0		S	sg n
   	oma	0		S	sg p
sigadele	siga	dele		A	pl all
        	siga	dele		S	pl all
kohe	kohe	0		A	sg n
    	kohe	0		D	
uued	uus	d		A	pl n
rõngad	rõngas	d		S	pl n
ninnase	####				
pannud	pan=nu	d		S	pl n
      	pan=nud	0		A	
      	pan=nud	0		A	sg n
      	pan=nud	d		A	pl n
      	pane	nud		V	nud
kui	kui	0		D	
   	kui	0		J	
vanad	vana	d		A	pl n
     	vana	d		S	pl n
on	ole	0		V	b
  	ole	0		V	vad
ära	ära	0		D	
   	ära	0		V	neg o
läinud	läinu	d		S	pl n
      	läinud	0		A	
      	läinud	0		A	sg n
      	läinud	d		A	pl n
      	mine	nud		V	nud
,	,			Z	
ja	ja	0		J	
seal	seal	0		D	
    	siga	l		A	sg ad
    	siga	l		S	sg ad
nõmme	nõmm	0		S	adt
     	nõmm	0		S	sg g
     	nõmm	0		S	sg p
peal	pea	l		S	sg ad
    	peal	0		D	
    	peal	0		K	
on	ole	0		V	b
  	ole	0		V	vad
ka	ka	0		D	
võõraid	võõras	id		A	pl p
       	võõras	id		S	pl p
sigu	siga	u		A	pl p
    	siga	u		S	pl p
käinud	käi	nud		V	nud
      	käi=nud	0		A	
      	käi=nud	0		A	sg n
      	käi=nud	d		A	pl n
      	käinu	d		S	pl n
.	.			Z	
kohus	kohu	s		V	s
     	kohus	0		S	sg n
mõistis	mõist	is		V	s
et	et	0		J	
need	see	d		P	pl n
kelle	kes	0		P	pl g
     	kes	0		P	sg g
sigadel	siga	del		A	pl ad
       	siga	del		S	pl ad
mitte	mitte	0		D	
õngarid	####				
ninas	nina	s		S	sg in
ei	ei	0		D	
  	ei	0		V	neg
ole	ole	0		V	o
olnud	ol=nud	0		A	
     	ol=nud	0		A	sg n
     	ol=nud	d		A	pl n
     	ole	nud		V	nud
     	olnu	d		S	pl n
peavad	pida	vad		V	vad
selle	see	0		P	sg g
     	sell	e		S	pl p
ma	mina	0		P	sg n
mis	mis	0		P	pl n
   	mis	0		P	sg n
sead	sead	d		V	d
    	siga	d		A	pl n
    	siga	d		S	pl n
on	ole	0		V	b
  	ole	0		V	vad
üles	üles	0		D	
ustinud	####				
hiljuste	####				
tasaseks	tasane	ks		A	sg tr
tegema	tege	ma		V	ma
,	,			Z	
ja	ja	0		J	
sellepärast	selle_pärast	0		D	
et	et	0		J	
oma	oma	0		A	sg g
   	oma	0		D	
   	oma	0		P	sg g
   	oma	0		S	sg g
   	oma	0		V	o
   	oma	0		A	sg n
   	oma	0		A	sg p
   	oma	0		P	sg n
   	oma	0		P	sg p
   	oma	0		S	sg n
   	oma	0		S	sg p
sigadele	siga	dele		A	pl all
        	siga	dele		S	pl all
mitte	mitte	0		D	
õngarid	####				
ninnase	####				
ei	ei	0		D	
  	ei	0		V	neg
ole	ole	0		V	o
pannud	pan=nu	d		S	pl n
      	pan=nud	0		A	
      	pan=nud	0		A	sg n
      	pan=nud	d		A	pl n
      	pane	nud		V	nud
,	,			Z	
peavad	pida	vad		V	vad
nemad	tema	d		P	pl n
seda	see	da		P	sg p
all	all	0		D	
   	all	0		K	
nimetatud	nimeta	tud		V	tud
         	nimetatu	d		S	pl n
         	nimetatud	0		A	
         	nimetatud	0		A	sg n
         	nimetatud	d		A	pl n
trahvi	trahv	0		S	adt
      	trahv	0		S	sg g
      	trahvi	0		V	o
      	trahv	0		S	sg p
Riesepere	####				
valla	vald	0		S	sg g
     	valla	0		D	
laeka	laegas	0		S	adt
     	laegas	0		S	sg g
maksma	maks	ma		V	ma
:	:			Z	
6	6	0		N	?
Reinu	Rein	0		H	adt
     	Rein	0		H	sg g
     	Rein	0		H	sg p
Villem	Villem	0		H	sg n
1	1	0		N	?
sea	sead	0		V	o
   	siga	0		A	sg g
   	siga	0		S	sg g
pealt	pea	lt		S	sg abl
     	pealt	0		D	
     	pealt	0		K	
40	40	0		N	?
kop	kop	0		Y	?
makstud	maks	tud		V	tud
       	maks=tu	d		S	pl n
       	maks=tud	0		A	
       	maks=tud	0		A	sg n
       	maks=tud	d		A	pl n
2	2	0		N	?
,	,			Z	
Lepiku	lepik	0		S	sg g
Jakob	Jakob	0		H	sg n
1	1	0		N	?
sea	sead	0		V	o
   	siga	0		A	sg g
   	siga	0		S	sg g
pealt	pea	lt		S	sg abl
     	pealt	0		D	
     	pealt	0		K	
40	40	0		N	?
kmop	####				
.	.			Z	
makstud	maks	tud		V	tud
       	maks=tu	d		S	pl n
       	maks=tud	0		A	
       	maks=tud	0		A	sg n
       	maks=tud	d		A	pl n
3	3	0		N	?
,	,			Z	
onni	onn	0		S	adt
    	onn	0		S	sg g
    	onn	0		S	sg p
Mari	Mari	0		H	sg g
    	mari	0		S	sg g
    	mari	0		S	sg n
    	Mari	0		H	sg n
    	mari	0		S	sg p
1	1	0		N	?
sea	sead	0		V	o
   	siga	0		A	sg g
   	siga	0		S	sg g
""""	""""			Z	
40	40	0		N	?
""""	""""			Z	
pooleli	pooleli	0		D	
4	4	0		N	?
,	,			Z	
Pritso	####				
Liisu	liisk	0		S	sg g
     	liisu	0		V	o
1	1	0		N	?
""""	""""			Z	
""""	""""			Z	
40	40	0		N	?
""""	""""			Z	
pooleli	pooleli	0		D	
5	5	0		N	?
,	,			Z	
Vahioni	####				
Mari	Mari	0		H	sg g
    	mari	0		S	sg g
    	mari	0		S	sg n
    	Mari	0		H	sg n
    	mari	0		S	sg p
1	1	0		N	?
""""	""""			Z	
""""	""""			Z	
40	40	0		N	?
""""	""""			Z	
makstud	maks	tud		V	tud
       	maks=tu	d		S	pl n
       	maks=tud	0		A	
       	maks=tud	0		A	sg n
       	maks=tud	d		A	pl n
Uustalu	uus_talu	0		S	sg g
       	uus_talu	0		S	sg n
       	uus_talu	0		S	sg p
Kaarel	Kaarel	0		H	sg n
      	kaar	l		S	sg ad
      	kaarel	0		S	sg n
,	,			Z	
Perna	####				
Hans	Hans	0		H	sg n
,	,			Z	
ja	ja	0		J	
Lesa	####				
peremees	pere_mees	0		S	sg n
kes	kes	0		P	pl n
   	kes	0		P	sg n
tulemata	tule	mata		V	mata
        	tulemata	0		A	
jäänud	jää	nud		V	nud
      	jäänu	d		S	pl n
      	jäänud	0		A	
      	jäänud	0		A	sg n
      	jäänud	d		A	pl n
peavad	pida	vad		V	vad
teiseks	teine	ks		O	sg tr
       	teine	ks		P	sg tr
       	teiseks	0		D	
kohtu	kohtu	0		V	o
     	kohus	0		S	sg g
päevaks	päev	ks		S	sg tr
kohtu	kohtu	0		V	o
     	kohus	0		S	sg g
ette	ette	0		D	
    	ette	0		K	
    	esi	tte		S	adt
kutsutud	kutsu	tud		V	tud
        	kutsutu	d		S	pl n
        	kutsutud	0		A	
        	kutsutud	0		A	sg n
        	kutsutud	d		A	pl n
saama	saa	ma		V	ma
     	saam	0		S	adt
     	saam	0		S	sg g
     	saam	0		S	sg p
.	.			Z	
