kohtu	kohtu	0		V	o
     	kohus	0		S	sg g
ette	ette	0		D	
    	ette	0		K	
    	esi	tte		S	adt
astus	astu	s		V	s
kaebaja	kaebaja	0		S	sg g
       	kaebaja	0		S	sg n
mõisa	mõis	0		S	sg g
metsa	mets	0		S	adt
     	mets	0		S	sg g
     	mets	0		S	sg p
vaht	vaht	0		S	sg n
Kustas	Kusta	s		H	sg in
      	Kustas	0		H	sg n
Kambarik	####				
ja	ja	0		J	
kaebas	kaeba	s		V	s
,	,			Z	
et	et	0		J	
tema	tema	0		P	sg g
    	tema	0		P	sg n
olla	ole	a		V	da
15ndal	15=s	l		O	sg ad
Septembril	september	l		S	sg ad
mõisa	mõis	0		S	sg g
loaga	luba	ga		S	sg kom
     	luga	ga		S	sg kom
mõisa	mõis	0		S	sg g
metsast	mets	st		S	sg el
       	metsane	t		A	sg p
,	,			Z	
mis	mis	0		P	pl n
   	mis	0		P	sg n
nüüd	nüüd	0		D	
maa	maa	0		S	sg g
   	maa	0		S	sg n
mõõdust	mõõt	st		S	sg el
küll	küll	0		D	
    	küll	0		S	sg n
tagadi	####				
krundi	krunt	0		S	sg g
      	krunti	0		V	o
jäänud	jää	nud		V	nud
      	jäänu	d		S	pl n
      	jäänud	0		A	
      	jäänud	0		A	sg n
      	jäänud	d		A	pl n
,	,			Z	
aga	aga	0		J	
siiski	siiski	0		D	
praegu	praegu	0		D	
veel	veel	0		D	
    	vesi	l		S	sg ad
mõisa	mõis	0		S	sg g
omandus	omandus	0		S	sg n
ja	ja	0		J	
metsa	mets	0		S	adt
     	mets	0		S	sg g
     	mets	0		S	sg p
vahi	vaht	0		S	sg g
    	vahti	0		V	o
üle	üle	0		D	
   	üle	0		K	
vaatamise	vaatamine	0		S	sg g
al	####				
,	,			Z	
sealt	sealt	0		D	
     	siga	lt		A	sg abl
     	siga	lt		S	sg abl
tuule	tuul	0		S	sg g
aetud	ae=tu	d		S	pl n
     	aetud	0		A	
     	aetud	0		A	sg n
     	aetud	d		A	pl n
     	aja	tud		V	tud
puid	puu	id		S	pl p
omale	oma	le		A	sg all
     	oma	le		P	sg all
     	oma	le		S	sg all
aja	aeg	0		S	sg g
   	aja	0		V	o
puudeks	puu	deks		S	pl tr
       	puue	ks		S	sg tr
raiuma	raiu	ma		V	ma
,	,			Z	
siis	siis	0		D	
    	siis	0		J	
tulnud	tul=nud	0		A	
      	tul=nud	0		A	sg n
      	tul=nud	d		A	pl n
      	tule	nud		V	nud
      	tulnu	d		S	pl n
tagadi	####				
peremees	pere_mees	0		S	sg n
Kustas	Kusta	s		H	sg in
      	Kustas	0		H	sg n
Mühlberg	####				
tema	tema	0		P	sg g
    	tema	0		P	sg n
kallale	kalla	le		S	sg all
       	kallale	0		D	
       	kallale	0		K	
,	,			Z	
ja	ja	0		J	
hakanud	hakka	nud		V	nud
       	haka=nu	d		S	pl n
       	haka=nud	0		A	
       	haka=nud	0		A	sg n
       	haka=nud	d		A	pl n
teda	tema	da		P	sg p
hirmsaste	####				
sõimama	sõima	ma		V	ma
:	:			Z	
sa	sina	0		P	sg n
tuline	tuline	0		A	sg n
kuradi	kurat	0		S	sg g
lits	lits	0		S	sg n
,	,			Z	
mis	mis	0		P	pl n
   	mis	0		P	sg n
sa	sina	0		P	sg n
minust	mina	st		P	sg el
hoorad	hoor	d		S	pl n
      	hoora	d		V	d
;	;			Z	
ood	ood	0		S	sg n
,	,			Z	
ood	ood	0		S	sg n
!	!			Z	
sa	sina	0		P	sg n
pead	pea	d		S	pl n
    	pida	d		V	d
    	pea	d		S	sg p
näha	näge	a		V	da
saama	saa	ma		V	ma
     	saam	0		S	adt
     	saam	0		S	sg g
     	saam	0		S	sg p
,	,			Z	
et	et	0		J	
sa	sina	0		P	sg n
igavesti	igavesti	0		D	
oled	ole	d		V	d
ära	ära	0		D	
   	ära	0		V	neg o
neetud	nee=tu	d		S	pl n
      	nee=tud	0		A	
      	nee=tud	0		A	sg n
      	nee=tud	d		A	pl n
      	need	tud		V	tud
,	,			Z	
saa	saa	0		V	o
oled	ole	d		V	d
mind	mina	d		P	sg p
juba	juba	0		D	
kaks	kaks	0		N	sg n
korda	kord	0		S	adt
     	korda	0		V	o
     	kord	0		S	sg p
hoorand	hoo_rand	0		S	sg n
,	,			Z	
ta	tema	0		P	sg g
  	tema	0		P	sg n
lubanud	luba	nud		V	nud
       	luba=nu	d		S	pl n
       	luba=nud	0		A	
       	luba=nud	0		A	sg n
       	luba=nud	d		A	pl n
kohe	kohe	0		A	sg n
    	kohe	0		D	
puud	puu	d		S	pl n
    	puud	0		S	sg n
    	puu	d		S	sg p
kätte	kätte	0		K	
     	käsi	tte		S	adt
anda	and	a		V	da
,	,			Z	
kui	kui	0		D	
   	kui	0		J	
sel	see	l		P	sg ad
   	sel	0		Y	?
õigust	õigus	t		S	sg p
oleks	ole	ks		V	ks
neid	neid	0		S	sg n
    	see	d		P	pl p
    	tema	d		P	pl p
pärida	päri	da		V	da
.	.			Z	
Tee	tee	0		S	sg g
   	tege	0		V	o
   	tee	0		S	sg n
peal	pea	l		S	sg ad
    	peal	0		D	
    	peal	0		K	
jooksnud	jooks	nud		V	nud
        	jooks=nu	d		S	pl n
        	jooks=nud	0		A	
        	jooks=nud	0		A	sg n
        	jooks=nud	d		A	pl n
veel	veel	0		D	
    	vesi	l		S	sg ad
Kustas	Kusta	s		H	sg in
      	Kustas	0		H	sg n
Mühlbergi	####				
naine	naine	0		S	sg n
tema	tema	0		P	sg g
    	tema	0		P	sg n
vastu	vastu	0		D	
     	vastu	0		K	
,	,			Z	
ja	ja	0		J	
käskinud	käski	nud		V	nud
        	käski=nu	d		S	pl n
        	käski=nud	0		A	
        	käski=nud	0		A	sg n
        	käski=nud	d		A	pl n
teda	tema	da		P	sg p
oma	oma	0		A	sg g
   	oma	0		D	
   	oma	0		P	sg g
   	oma	0		S	sg g
   	oma	0		V	o
   	oma	0		A	sg n
   	oma	0		A	sg p
   	oma	0		P	sg n
   	oma	0		P	sg p
   	oma	0		S	sg n
   	oma	0		S	sg p
vällalt	####				
kartulid	kartul	d		S	pl n
ka	ka	0		D	
talle	tall	e		S	pl p
     	tall	0		S	adt
     	tall	0		S	sg g
     	tema	lle		P	sg all
     	tall	0		S	sg p
ära	ära	0		D	
   	ära	0		V	neg o
vedama	veda	ma		V	ma
,	,			Z	
ta	tema	0		P	sg g
  	tema	0		P	sg n
küsinud	küsi	nud		V	nud
       	küsi=nu	d		S	pl n
       	küsi=nud	0		A	
       	küsi=nud	0		A	sg n
       	küsi=nud	d		A	pl n
:	:			Z	
mis	mis	0		P	pl n
   	mis	0		P	sg n
ma	mina	0		P	sg n
neist	see	st		P	pl el
     	tema	st		P	pl el
vean	veda	n		V	n
?	?			Z	
see	see	0		P	sg n
öelnud	öel=nu	d		S	pl n
      	öel=nud	0		A	
      	öel=nud	0		A	sg n
      	öel=nud	d		A	pl n
      	ütle	nud		V	nud
:	:			Z	
kui	kui	0		D	
   	kui	0		J	
sa	sina	0		P	sg n
oled	ole	d		V	d
mu	mina	0		P	sg g
metsa	mets	0		S	adt
     	mets	0		S	sg g
     	mets	0		S	sg p
ära	ära	0		D	
   	ära	0		V	neg o
rööviinud	####				
,	,			Z	
siis	siis	0		D	
    	siis	0		J	
tule	tuli	0		S	sg g
    	tule	0		V	o
ja	ja	0		J	
ööver	####				
mu	mina	0		P	sg g
väli	väli	0		S	sg n
ka	ka	0		D	
ära	ära	0		D	
   	ära	0		V	neg o
.	.			Z	
Kustas	Kusta	s		H	sg in
      	Kustas	0		H	sg n
Mühlberg	####				
sai	saa	i		V	s
   	sai	0		S	sg n
kohtu	kohtu	0		V	o
     	kohus	0		S	sg g
ette	ette	0		D	
    	ette	0		K	
    	esi	tte		S	adt
kutsutud	kutsu	tud		V	tud
        	kutsutu	d		S	pl n
        	kutsutud	0		A	
        	kutsutud	0		A	sg n
        	kutsutud	d		A	pl n
,	,			Z	
ja	ja	0		J	
se	####				
rääkis	rääki	s		V	s
välja	välja	0		D	
     	välja	0		V	o
     	väli	0		S	adt
     	väli	0		S	sg g
     	väli	0		S	sg p
,	,			Z	
et	et	0		J	
tema	tema	0		P	sg g
    	tema	0		P	sg n
olla	ole	a		V	da
selle	see	0		P	sg g
     	sell	e		S	pl p
pärast	pära	st		S	sg el
      	pärane	t		A	sg p
      	pärast	0		D	
      	pärast	0		K	
metsa	mets	0		S	adt
     	mets	0		S	sg g
     	mets	0		S	sg p
vahti	vaht	0		S	adt
     	vaht	0		S	sg p
sõimanud	sõima	nud		V	nud
        	sõima=nu	d		S	pl n
        	sõima=nud	0		A	
        	sõima=nud	0		A	sg n
        	sõima=nud	d		A	pl n
et	et	0		J	
se	####				
teda	tema	da		P	sg p
olla	ole	a		V	da
rinda	rind	0		S	adt
     	rind	0		S	sg p
pidi	pida	i		V	s
    	pidi	0		K	
kiskunud	kisku	nud		V	nud
        	kisku=nu	d		S	pl n
        	kisku=nud	0		A	
        	kisku=nud	0		A	sg n
        	kisku=nud	d		A	pl n
,	,			Z	
aga	aga	0		J	
metsa	mets	0		S	adt
     	mets	0		S	sg g
     	mets	0		S	sg p
vaht	vaht	0		S	sg n
Kustas	Kusta	s		H	sg in
      	Kustas	0		H	sg n
Kamerik	####				
kinnitab	kinnita	b		V	b
kohtu	kohtu	0		V	o
     	kohus	0		S	sg g
ees	ees	0		D	
   	ees	0		K	
   	esi	s		S	sg in
kes	kes	0		P	pl n
   	kes	0		P	sg n
selle	see	0		P	sg g
     	sell	e		S	pl p
ameti	amet	0		S	sg g
peale	pea	le		S	sg all
     	peale	0		D	
     	peale	0		K	
vanutud	vanu	tud		V	tud
       	vanu=tu	d		S	pl n
       	vanu=tud	0		A	
       	vanu=tud	0		A	sg n
       	vanu=tud	d		A	pl n
,	,			Z	
et	et	0		J	
ta	tema	0		P	sg g
  	tema	0		P	sg n
ei	ei	0		D	
  	ei	0		V	neg
olla	ole	a		V	da
teda	tema	da		P	sg p
mitte	mitte	0		D	
korda	kord	0		S	adt
     	korda	0		V	o
     	kord	0		S	sg p
käega	käsi	ga		S	sg kom
puutunud	puutu	nud		V	nud
        	puutu=nu	d		S	pl n
        	puutu=nud	0		A	
        	puutu=nud	0		A	sg n
        	puutu=nud	d		A	pl n
,	,			Z	
ja	ja	0		J	
tahtnud	taht	nud		V	nud
       	taht=nu	d		S	pl n
       	taht=nud	0		A	
       	taht=nud	0		A	sg n
       	taht=nud	d		A	pl n
temale	tema	le		P	sg all
heaga	hea	ga		A	sg kom
     	hea	ga		S	sg kom
rääkida	rääki	da		V	da
,	,			Z	
aga	aga	0		J	
se	####				
poole	pool	0		N	sg g
     	pool	0		S	sg g
     	pool	e		S	pl p
     	poole	0		K	
     	poole	0		S	sg n
seda	see	da		P	sg p
kuulda	kuul	da		V	da
      	kuul	da		V	ta
võtnud	võt	nud		V	nud
      	võt=nu	d		S	pl n
      	võt=nud	0		A	
      	võt=nud	0		A	sg n
      	võt=nud	d		A	pl n
,	,			Z	
vaid	vaid	0		D	
    	vaid	0		J	
sõimanud	sõima	nud		V	nud
        	sõima=nu	d		S	pl n
        	sõima=nud	0		A	
        	sõima=nud	0		A	sg n
        	sõima=nud	d		A	pl n
ja	ja	0		J	
andnud	and	nud		V	nud
      	and=nu	d		S	pl n
      	and=nud	0		A	
      	and=nud	0		A	sg n
      	and=nud	d		A	pl n
edasi	edasi	0		D	
     	edasi	0		K	
.	.			Z	
ja	ja	0		J	
kui	kui	0		D	
   	kui	0		J	
metsa	mets	0		S	adt
     	mets	0		S	sg g
     	mets	0		S	sg p
vaht	vaht	0		S	sg n
tahtnud	taht	nud		V	nud
       	taht=nu	d		S	pl n
       	taht=nud	0		A	
       	taht=nud	0		A	sg n
       	taht=nud	d		A	pl n
,	,			Z	
mõisa	mõis	0		S	sg g
valitseja	valitseja	0		S	sg g
         	valitseja	0		S	sg n
juure	juur	0		S	sg g
kuulama	kuula	ma		V	ma
mina	mina	0		P	sg n
    	mina	0		S	sg g
    	mina	0		S	sg n
    	mina	0		S	sg p
,	,			Z	
kelle	kes	0		P	pl g
     	kes	0		P	sg g
loaga	luba	ga		S	sg kom
     	luga	ga		S	sg kom
ta	tema	0		P	sg g
  	tema	0		P	sg n
sealt	sealt	0		D	
     	siga	lt		A	sg abl
     	siga	lt		S	sg abl
raiunud	raiu	nud		V	nud
       	raiu=nu	d		S	pl n
       	raiu=nud	0		A	
       	raiu=nud	0		A	sg n
       	raiu=nud	d		A	pl n
;	;			Z	
siis	siis	0		D	
    	siis	0		J	
poole	pool	0		N	sg g
     	pool	0		S	sg g
     	pool	e		S	pl p
     	poole	0		K	
     	poole	0		S	sg n
Kustas	Kusta	s		H	sg in
      	Kustas	0		H	sg n
Mühlberg	####				
mitte	mitte	0		D	
tulnud	tul=nud	0		A	
      	tul=nud	0		A	sg n
      	tul=nud	d		A	pl n
      	tule	nud		V	nud
      	tulnu	d		S	pl n
,	,			Z	
öeldes	ütle	des		V	des
:	:			Z	
ega	ega	0		D	
   	ega	0		J	
mõisas	mõis	s		S	sg in
poole	pool	0		N	sg g
     	pool	0		S	sg g
     	pool	e		S	pl p
     	poole	0		K	
     	poole	0		S	sg n
paremat	parem	t		C	sg p
härrat	härra	t		S	sg p
kui	kui	0		D	
   	kui	0		J	
tema	tema	0		P	sg g
    	tema	0		P	sg n
olla	ole	a		V	da
,	,			Z	
kelle	kes	0		P	pl g
     	kes	0		P	sg g
juure	juur	0		S	sg g
nad	tema	d		P	pl n
peavad	pida	vad		V	vad
kuulama	kuula	ma		V	ma
minema	mine	ma		V	ma
.	.			Z	
kohus	kohu	s		V	s
     	kohus	0		S	sg n
mõistis	mõist	is		V	s
,	,			Z	
et	et	0		J	
Kustas	Kusta	s		H	sg in
      	Kustas	0		H	sg n
Mühlberg	####				
peab	pida	b		V	b
3	3	0		N	?
rbl	rbl	0		Y	?
trahvi	trahv	0		S	adt
      	trahv	0		S	sg g
      	trahvi	0		V	o
      	trahv	0		S	sg p
valla	vald	0		S	sg g
     	valla	0		D	
laeka	laegas	0		S	adt
     	laegas	0		S	sg g
maksma	maks	ma		V	ma
,	,			Z	
et	et	0		J	
on	ole	0		V	b
  	ole	0		V	vad
julgenud	julge	nud		V	nud
        	julge=nu	d		S	pl n
        	julge=nud	0		A	
        	julge=nud	0		A	sg n
        	julge=nud	d		A	pl n
vanutud	vanu	tud		V	tud
       	vanu=tu	d		S	pl n
       	vanu=tud	0		A	
       	vanu=tud	0		A	sg n
       	vanu=tud	d		A	pl n
metsa	mets	0		S	adt
     	mets	0		S	sg g
     	mets	0		S	sg p
vahti	vaht	0		S	adt
     	vaht	0		S	sg p
ilma	ilm	0		S	adt
    	ilm	0		S	sg g
    	ilma	0		D	
    	ilma	0		K	
    	ilm	0		S	sg p
järel	järel	0		D	
     	järel	0		K	
kuulama	kuula	ma		V	ma
metsas	mets	s		S	sg in
nii	nii	0		D	
hirmsaste	####				
sõimata	sõima	ta		V	da
       	sõima	ta		V	ta
ja	ja	0		J	
neada	####				
kellel	kes	l		P	pl ad
      	kes	l		P	sg ad
täiesti	täiesti	0		D	
mõisa	mõis	0		S	sg g
luba	luba	0		S	sg n
    	luba	0		V	o
    	luba	0		S	sg p
ja	ja	0		J	
õigus	õigus	0		S	sg n
oli	ole	i		V	s
.	.			Z	
et	et	0		J	
Kustas	Kusta	s		H	sg in
      	Kustas	0		H	sg n
Mühlbergil	####				
kohe	kohe	0		A	sg n
    	kohe	0		D	
ei	ei	0		D	
  	ei	0		V	neg
olnud	ol=nud	0		A	
     	ol=nud	0		A	sg n
     	ol=nud	d		A	pl n
     	ole	nud		V	nud
     	olnu	d		S	pl n
raha	raha	0		S	sg g
    	raha	0		S	sg n
    	raha	0		S	sg p
ära	ära	0		D	
   	ära	0		V	neg o
maksta	maks	ta		V	da
      	maks	ta		V	ta
,	,			Z	
mõistis	mõist	is		V	s
kohus	kohu	s		V	s
     	kohus	0		S	sg n
seda	see	da		P	sg p
trahvi	trahv	0		S	adt
      	trahv	0		S	sg g
      	trahvi	0		V	o
      	trahv	0		S	sg p
kahe	kaks	0		N	sg g
nädala	nädal	0		S	sg g
pärast	pära	st		S	sg el
      	pärane	t		A	sg p
      	pärast	0		D	
      	pärast	0		K	
siin	siin	0		D	
    	siin	0		S	sg n
ära	ära	0		D	
   	ära	0		V	neg o
õiendada	õienda	da		V	da
.	.			Z	
detsembri	detsember	0		S	sg g
8.	8.	0		O	?
kohtu	kohtu	0		V	o
     	kohus	0		S	sg g
otsus	otsus	0		S	sg n
täidetud	täit	tud		V	tud
        	täide=tu	d		S	pl n
        	täide=tud	0		A	
        	täide=tud	0		A	sg n
        	täide=tud	d		A	pl n
ja	ja	0		J	
3	3	0		N	?
rubla	rubla	0		S	sg g
     	rubla	0		S	sg n
     	rubla	0		S	sg p
valla	vald	0		S	sg g
     	valla	0		D	
laeka	laegas	0		S	adt
     	laegas	0		S	sg g
välja	välja	0		D	
     	välja	0		V	o
     	väli	0		S	adt
     	väli	0		S	sg g
     	väli	0		S	sg p
makstud	maks	tud		V	tud
       	maks=tu	d		S	pl n
       	maks=tud	0		A	
       	maks=tud	0		A	sg n
       	maks=tud	d		A	pl n
.	.			Z	
