Jüri	Jüri	0		H	sg g
    	Jüri	0		H	sg n
oks	oks	0		S	sg n
astus	astu	s		V	s
ette	ette	0		D	
    	ette	0		K	
    	esi	tte		S	adt
nende	see	de		P	pl g
     	tema	de		P	pl g
päitsete	päitsed	te		S	pl g
pärast	pära	st		S	sg el
      	pärane	t		A	sg p
      	pärast	0		D	
      	pärast	0		K	
mis	mis	0		P	pl n
   	mis	0		P	sg n
No	no	0		I	
31pooleli	####				
jäid	jää	id		V	sid
.	.			Z	
Jüri	Jüri	0		H	sg g
    	Jüri	0		H	sg n
oks	oks	0		S	sg n
tunnistab	tunnista	b		V	b
:	:			Z	
tema	tema	0		P	sg g
    	tema	0		P	sg n
pole	ole	0		V	neg o
mitte	mitte	0		D	
üksi	üksi	0		D	
need	see	d		P	pl n
päevatsed	####				
varastanud	varasta	nud		V	nud
          	varasta=nu	d		S	pl n
          	varasta=nud	0		A	
          	varasta=nud	0		A	sg n
          	varasta=nud	d		A	pl n
,	,			Z	
vaid	vaid	0		D	
    	vaid	0		J	
Uhlbergiga	####				
seltsis	selts	s		S	sg in
       	seltsi	s		V	s
       	seltsis	0		D	
       	seltsis	0		K	
,	,			Z	
Uhlberg	####				
on	ole	0		V	b
  	ole	0		V	vad
enne	enne	0		D	
    	enne	0		K	
    	enne	0		S	sg n
juba	juba	0		D	
päitsa	####				
oheliku	ohelik	0		S	sg g
lahti	laht	i		S	pl p
     	lahti	0		D	
näppinud	näppi	nud		V	nud
        	näppi=nu	d		S	pl n
        	näppi=nud	0		A	
        	näppi=nud	0		A	sg n
        	näppi=nud	d		A	pl n
ja	ja	0		J	
ohjad	ohja	d		V	d
     	ohi	d		S	pl n
lahti	laht	i		S	pl p
     	lahti	0		D	
võtnud	võt	nud		V	nud
      	võt=nu	d		S	pl n
      	võt=nud	0		A	
      	võt=nud	0		A	sg n
      	võt=nud	d		A	pl n
olnud	ol=nud	0		A	
     	ol=nud	0		A	sg n
     	ol=nud	d		A	pl n
     	ole	nud		V	nud
     	olnu	d		S	pl n
ja	ja	0		J	
käskinud	käski	nud		V	nud
        	käski=nu	d		S	pl n
        	käski=nud	0		A	
        	käski=nud	0		A	sg n
        	käski=nud	d		A	pl n
teda	tema	da		P	sg p
aga	aga	0		J	
hobuse	hobune	0		S	sg g
peast	pea	st		S	sg el
     	peane	t		S	sg p
     	peast	0		K	
ära	ära	0		D	
   	ära	0		V	neg o
võtta	võt	a		V	da
,	,			Z	
ja	ja	0		J	
tema	tema	0		P	sg g
    	tema	0		P	sg n
on	ole	0		V	b
  	ole	0		V	vad
võtnud	võt	nud		V	nud
      	võt=nu	d		S	pl n
      	võt=nud	0		A	
      	võt=nud	0		A	sg n
      	võt=nud	d		A	pl n
ja	ja	0		J	
temale	tema	le		P	sg all
10	10	0		N	?
kop	kop	0		Y	?
.	.			Z	
andnud	and	nud		V	nud
      	and=nu	d		S	pl n
      	and=nud	0		A	
      	and=nud	0		A	sg n
      	and=nud	d		A	pl n
,	,			Z	
ja	ja	0		J	
öelnud	öel=nu	d		S	pl n
      	öel=nud	0		A	
      	öel=nud	0		A	sg n
      	öel=nud	d		A	pl n
      	ütle	nud		V	nud
nüüd	nüüd	0		D	
saan	saa	n		V	n
    	saan	0		S	sg n
ometi	ometi	0		D	
kubjast	kubjas	t		S	sg p
kiusaada	####				
,	,			Z	
on	ole	0		V	b
  	ole	0		V	vad
päevatsed	####				
kannabe	####				
Hinreku	####				
saani	saan	0		S	adt
     	saan	0		S	sg g
     	saan	0		S	sg p
pannud	pan=nu	d		S	pl n
      	pan=nud	0		A	
      	pan=nud	0		A	sg n
      	pan=nud	d		A	pl n
      	pane	nud		V	nud
ja	ja	0		J	
Hinrekuga	####				
laada	laat	0		S	sg g
pealt	pea	lt		S	sg abl
     	pealt	0		D	
     	pealt	0		K	
ärasõitnud	ära_sõit=nu	d		S	pl n
          	ära_sõit=nud	0		A	
          	ära_sõit=nud	0		A	sg n
          	ära_sõit=nud	d		A	pl n
.	.			Z	
kohus	kohu	s		V	s
     	kohus	0		S	sg n
mõistis	mõist	is		V	s
:	:			Z	
et	et	0		J	
Jüri	Jüri	0		H	sg g
    	Jüri	0		H	sg n
oks	oks	0		S	sg n
need	see	d		P	pl n
päevatsed	####				
aidanud	aita	nud		V	nud
       	aida=nu	d		S	pl n
       	aida=nud	0		A	
       	aida=nud	0		A	sg n
       	aida=nud	d		A	pl n
varasta	varasta	0		V	o
peab	pida	b		V	b
2	2	0		N	?
rubla	rubla	0		S	sg g
     	rubla	0		S	sg n
     	rubla	0		S	sg p
maksma	maks	ma		V	ma
,	,			Z	
enne	enne	0		D	
    	enne	0		K	
    	enne	0		S	sg n
Mihkli	Mihkel	0		H	sg g
      	Mihkli	0		H	sg g
      	mihkel	0		A	sg g
      	mihkel	0		S	sg g
      	Mihkli	0		H	sg n
päeva	päev	0		S	adt
     	päev	0		S	sg g
     	päev	0		S	sg p
väljamaksta	####				
,	,			Z	
ja	ja	0		J	
Jüri	Jüri	0		H	sg g
    	Jüri	0		H	sg n
Uhlberg	####				
kui	kui	0		D	
   	kui	0		J	
uut	uus	t		A	sg p
passi	pass	0		S	adt
     	pass	0		S	sg g
     	passi	0		V	o
     	pass	0		S	sg p
tuleb	tule	b		V	b
võtma	võt	ma		V	ma
peab	pida	b		V	b
päitsete	päitsed	te		S	pl g
hinna	hind	0		S	sg g
ära	ära	0		D	
   	ära	0		V	neg o
õiendama	õienda	ma		V	ma
ja	ja	0		J	
varguse	vargus	0		S	sg g
eest	eest	0		D	
    	eest	0		K	
    	esi	st		S	sg el
trahvitud	trahvi	tud		V	tud
         	trahvi=tu	d		S	pl n
         	trahvi=tud	0		A	
         	trahvi=tud	0		A	sg n
         	trahvi=tud	d		A	pl n
saama	saa	ma		V	ma
     	saam	0		S	adt
     	saam	0		S	sg g
     	saam	0		S	sg p
,	,			Z	
aga	aga	0		J	
enne	enne	0		D	
    	enne	0		K	
    	enne	0		S	sg n
peab	pida	b		V	b
Kennepä	####				
Hinrek	####				
rmuse	####				
ette	ette	0		D	
    	ette	0		K	
    	esi	tte		S	adt
kutsutud	kutsu	tud		V	tud
        	kutsutu	d		S	pl n
        	kutsutud	0		A	
        	kutsutud	0		A	sg n
        	kutsutud	d		A	pl n
saama	saa	ma		V	ma
     	saam	0		S	adt
     	saam	0		S	sg g
     	saam	0		S	sg p
asja	asi	0		S	adt
    	asi	0		S	sg g
    	asi	0		S	sg p
õiendama	õienda	ma		V	ma
.	.			Z	
kohtu	kohtu	0		V	o
     	kohus	0		S	sg g
vanem	vanem	0		C	sg n
     	vanem	0		S	sg n
Hinrek	####				
Nokkur	####				
XXX	XXX	0		O	?
   	XXX	0		Y	?
kohtu	kohtu	0		V	o
     	kohus	0		S	sg g
käemehed	käe_mees	d		S	pl n
:	:			Z	
Mihkel	Mihkel	0		H	sg n
      	mihkel	0		A	sg n
      	mihkel	0		S	sg n
Krusmend	####				
XXX	XXX	0		O	?
   	XXX	0		Y	?
Jakob	Jakob	0		H	sg n
Käit	käit	0		S	sg n
XXX	XXX	0		O	?
   	XXX	0		Y	?
kirjutaja	kirjutaja	0		S	sg g
         	kirjutaja	0		S	sg n
Hans	Hans	0		H	sg n
Siimson	####				
