II	II	0		O	?
  	II	0		Y	?
  	jj	0		Y	?
)	)			Z	
lesk	lesk	0		S	sg n
Hansu	Hans	0		H	adt
     	Hans	0		H	sg g
     	Hans	0		H	sg p
Ann	Ann	0		H	sg n
Kleberg	####				
kaebab	kaeba	b		V	b
et	et	0		J	
Mardi	Mart	0		H	sg g
     	mart	0		S	sg g
Leenu	Leenu	0		H	sg g
     	Leenu	0		H	sg n
Mühlberg	####				
teda	tema	da		P	sg p
kolm	kolm	0		N	sg n
neli	neli	0		N	sg n
korda	kord	0		S	adt
     	korda	0		V	o
     	kord	0		S	sg p
löönud	löö	nud		V	nud
      	löö=nu	d		S	pl n
      	löö=nud	0		A	
      	löö=nud	0		A	sg n
      	löö=nud	d		A	pl n
,	,			Z	
et	et	0		J	
tema	tema	0		P	sg g
    	tema	0		P	sg n
käsi	käski	0		V	o
    	käsi	0		S	pl p
    	käsi	0		S	sg n
    	käsi	0		D	
paistetanud	paisteta	nud		V	nud
           	paisteta=nu	d		S	pl n
           	paistetanud	0		A	
           	paistetanud	0		A	sg n
           	paistetanud	d		A	pl n
olnud	ol=nud	0		A	
     	ol=nud	0		A	sg n
     	ol=nud	d		A	pl n
     	ole	nud		V	nud
     	olnu	d		S	pl n
.	.			Z	
Mardi	Mart	0		H	sg g
     	mart	0		S	sg g
Leenu	Leenu	0		H	sg g
     	Leenu	0		H	sg n
tunnistab	tunnista	b		V	b
et	et	0		J	
tema	tema	0		P	sg g
    	tema	0		P	sg n
Annid	Ann	d		H	pl n
     	and	d		S	pl n
     	Anni	d		H	pl n
oli	ole	i		V	s
käest	käest	0		K	
     	käsi	st		S	sg el
kinni	kinni	0		D	
äkkanud	####				
.	.			Z	
Ann	Ann	0		H	sg n
Kleberg	####				
oli	ole	i		V	s
kogemata	koge	mata		V	mata
        	koge=mata	0		A	
        	kogemata	0		D	
Leena	Lee	na		H	sg es
     	Leena	0		H	sg g
     	Leena	0		H	sg n
last	laps	t		S	sg p
    	last	0		S	sg n
keeva	keev	0		A	adt
     	keev	0		A	sg g
     	keev	0		A	sg p
Lemega	####				
põletanud	põleta	nud		V	nud
         	põleta=nu	d		S	pl n
         	põleta=nud	0		A	
         	põleta=nud	0		A	sg n
         	põleta=nud	d		A	pl n
.	.			Z	
Hansu	Hans	0		H	adt
     	Hans	0		H	sg g
     	Hans	0		H	sg p
lesk	lesk	0		S	sg n
Ann	Ann	0		H	sg n
Kleberg	####				
ja	ja	0		J	
Mardi	Mart	0		H	sg g
     	mart	0		S	sg g
Leenu	Leenu	0		H	sg g
     	Leenu	0		H	sg n
Mühlberg	####				
lubanud	luba	nud		V	nud
       	luba=nu	d		S	pl n
       	luba=nud	0		A	
       	luba=nud	0		A	sg n
       	luba=nud	d		A	pl n
leppida	leppi	da		V	da
.	.			Z	
