11nd	####				
päriskohtupäev	päris_kohtu_päev	0		S	sg n
kõrvveskilt	kõrv_veski	lt		S	sg abl
Tõrepõhja	tõre_põhi	0		S	adt
         	tõre_põhi	0		S	sg g
         	tõre_põhi	0		S	sg p
Jaagupi	Jaagup	0		H	sg g
tütar	tütar	0		S	sg n
,	,			Z	
Anna	and	0		V	o
    	Anna	0		H	sg g
    	Anna	0		H	sg n
    	anna	0		S	sg g
    	anna	0		S	sg n
Robenrenberg	####				
22	22	0		N	?
a	a	0		Y	?
v	v	0		Y	?
.	.			Z	
tüdruk	tüdruk	0		S	sg n
,	,			Z	
kaebab	kaeba	b		V	b
,	,			Z	
et	et	0		J	
nende	see	de		P	pl g
     	tema	de		P	pl g
endine	endine	0		A	sg n
sulane	sulane	0		S	sg n
      	sulane	0		V	o
Gustav	Gustav	0		H	sg n
Krusberg	####				
,	,			Z	
kes	kes	0		P	pl n
   	kes	0		P	sg n
tänavu	tänavu	0		D	
kevadel	kevad	l		S	sg ad
       	kevade	l		S	sg ad
neilt	see	lt		P	pl abl
     	tema	lt		P	pl abl
ära	ära	0		D	
   	ära	0		V	neg o
läinud	läinu	d		S	pl n
      	läinud	0		A	
      	läinud	0		A	sg n
      	läinud	d		A	pl n
      	mine	nud		V	nud
,	,			Z	
temaga	tema	ga		P	sg kom
lihalikult	lihalik	lt		A	sg abl
          	lihaliku=lt	0		D	
kokku	kokku	0		D	
     	kogu	0		S	adt
eelanud	####				
;	;			Z	
sellest	see	st		P	sg el
on	ole	0		V	b
  	ole	0		V	vad
kaebajale	kaebaja	le		S	sg all
laps	laps	0		S	sg n
sündinud	sündi	nud		V	nud
        	sündinu	d		S	pl n
        	sündinud	0		A	
        	sündinud	0		A	sg n
        	sündinud	d		A	pl n
.	.			Z	
Mineval	minev	l		A	sg ad
sügisel	sügis	l		S	sg ad
maksnud	maks	nud		V	nud
       	maks=nu	d		S	pl n
       	maks=nud	0		A	
       	maks=nud	0		A	sg n
       	maks=nud	d		A	pl n
Gustav	Gustav	0		H	sg n
Krusberg	####				
temale	tema	le		P	sg all
20.	20.	0		O	?
kop	kop	0		Y	?
.	.			Z	
raha	raha	0		S	sg g
    	raha	0		S	sg n
    	raha	0		S	sg p
,	,			Z	
palunud	palu	nud		V	nud
       	palu=nu	d		S	pl n
       	palu=nud	0		A	
       	palu=nud	0		A	sg n
       	palu=nud	d		A	pl n
pileti	pilet	0		S	sg g
peal	pea	l		S	sg ad
    	peal	0		D	
    	peal	0		K	
soldati	soldat	0		S	sg g
Tõnu	Tõnu	0		H	sg g
    	Tõnu	0		H	sg n
Nõmbergi	####				
lapse	laps	0		S	sg g
isaks	isa	ks		S	sg tr
tunnistada	tunnista	da		V	da
ja	ja	0		J	
tõutanud	tõu_tanu	d		S	pl n
edaspidi	edas_pidi	0		D	
temale	tema	le		P	sg all
/	/			Z	
Annale	Anna	le		H	sg all
      	anna	le		S	sg all
/	/			Z	
rohkem	rohkem	0		D	
raha	raha	0		S	sg g
    	raha	0		S	sg n
    	raha	0		S	sg p
maksta	maks	ta		V	da
      	maks	ta		V	ta
.	.			Z	
nüüd	nüüd	0		D	
ei	ei	0		D	
  	ei	0		V	neg
loata	loata	0		A	
     	loata	0		D	
     	luba	ta		S	sg ab
     	luga	ta		S	sg ab
kaebatav	####				
lapse	laps	0		S	sg g
kasvatamiseks	kasvatamine	ks		S	sg tr
enam	enam	0		C	sg n
    	enam	0		D	
ühtegi	ühte	0	gi	D	
      	üks	0	gi	N	adt
      	üks	0	gi	P	adt
      	ühe	0	gi	S	sg g
      	üks	0	gi	N	sg p
      	üks	0	gi	P	sg p
maksta	maks	ta		V	da
      	maks	ta		V	ta
ja	ja	0		J	
tunnistada	tunnista	da		V	da
,	,			Z	
et	et	0		J	
tema	tema	0		P	sg g
    	tema	0		P	sg n
mitte	mitte	0		D	
lapse	laps	0		S	sg g
isa	isa	0		S	sg g
   	isa	0		S	sg n
   	isa	0		S	sg p
ei	ei	0		D	
  	ei	0		V	neg
olla	ole	a		V	da
,	,			Z	
aga	aga	0		J	
kaebaja	kaebaja	0		S	sg g
       	kaebaja	0		S	sg n
tunnistuse	tunnistus	0		S	sg g
järel	järel	0		D	
     	järel	0		K	
peab	pida	b		V	b
G	G	0		Y	?
.	.			Z	
_	_			Z	
Krusberg	####				
tõesti	tõesti	0		D	
lapse	laps	0		S	sg g
isa	isa	0		S	sg g
   	isa	0		S	sg n
   	isa	0		S	sg p
olema	ole	ma		V	ma
.	.			Z	
nõuuti	####				
ette	ette	0		D	
    	ette	0		K	
    	esi	tte		S	adt
kaebatav	####				
Gustav	Gustav	0		H	sg n
Krusberg	####				
18	18	0		N	?
a	a	0		Y	?
v	v	0		Y	?
.	.			Z	
kohtu	kohtu	0		V	o
     	kohus	0		S	sg g
nõudumise	####				
peale	pea	le		S	sg all
     	peale	0		D	
     	peale	0		K	
tunnistab	tunnista	b		V	b
Gust	####				
.	.			Z	
Krusberg	####				
,	,			Z	
et	et	0		J	
tema	tema	0		P	sg g
    	tema	0		P	sg n
tüdruk	tüdruk	0		S	sg n
Anna	and	0		V	o
    	Anna	0		H	sg g
    	Anna	0		H	sg n
    	anna	0		S	sg g
    	anna	0		S	sg n
enropReinbergi	####				
juures	juur	s		S	sg in
      	juures	0		D	
      	juures	0		K	
on	ole	0		V	b
  	ole	0		V	vad
magamas	maga	mas		V	mas
käinud	käi	nud		V	nud
      	käi=nud	0		A	
      	käi=nud	0		A	sg n
      	käi=nud	d		A	pl n
      	käinu	d		S	pl n
,	,			Z	
viimast	vii	mast		V	mast
       	viimane	t		A	sg p
korda	kord	0		S	adt
     	korda	0		V	o
     	kord	0		S	sg p
veel	veel	0		D	
    	vesi	l		S	sg ad
2	2	0		N	?
nad	tema	d		P	pl n
.	.			Z	
enne	enne	0		D	
    	enne	0		K	
    	enne	0		S	sg n
nelipühi	neli_püha	i		S	pl p
1887a	1887a	0		Y	?
.	.			Z	
aga	aga	0		J	
lapse	laps	0		S	sg g
isa	isa	0		S	sg g
   	isa	0		S	sg n
   	isa	0		S	sg p
tema	tema	0		P	sg g
    	tema	0		P	sg n
ei	ei	0		D	
  	ei	0		V	neg
olla	ole	a		V	da
;	;			Z	
veel	veel	0		D	
    	vesi	l		S	sg ad
on	ole	0		V	b
  	ole	0		V	vad
aga	aga	0		J	
peale	pea	le		S	sg all
     	peale	0		D	
     	peale	0		K	
tema	tema	0		P	sg g
    	tema	0		P	sg n
teise	teine	0		O	adt
     	teine	0		O	sg g
     	teine	0		P	adt
     	teine	0		P	sg g
nimetatud	nimeta	tud		V	tud
         	nimetatu	d		S	pl n
         	nimetatud	0		A	
         	nimetatud	0		A	sg n
         	nimetatud	d		A	pl n
tüdruku	tüdruk	0		S	sg g
juures	juur	s		S	sg in
      	juures	0		D	
      	juures	0		K	
käinud	käi	nud		V	nud
      	käi=nud	0		A	
      	käi=nud	0		A	sg n
      	käi=nud	d		A	pl n
      	käinu	d		S	pl n
,	,			Z	
nagu	nagu	0		D	
    	nagu	0		J	
nimelt	nimelt	0		D	
      	nimi	lt		S	sg abl
pileti	pilet	0		S	sg g
soldat	soldat	0		S	sg n
Tõnu	Tõnu	0		H	sg g
    	Tõnu	0		H	sg n
Nõmberg	####				
.	.			Z	
Gustav	Gustav	0		H	sg n
Krusbergil	####				
olla	ole	a		V	da
veel	veel	0		D	
    	vesi	l		S	sg ad
oma	oma	0		A	sg g
   	oma	0		D	
   	oma	0		P	sg g
   	oma	0		S	sg g
   	oma	0		V	o
   	oma	0		A	sg n
   	oma	0		A	sg p
   	oma	0		P	sg n
   	oma	0		P	sg p
   	oma	0		S	sg n
   	oma	0		S	sg p
endise	endine	0		A	sg g
peremehe	pere_mees	0		S	sg g
Jaagup	Jaagup	0		H	sg n
enropReinbergi	####				
käest	käest	0		K	
     	käsi	st		S	sg el
saada	saa	da		V	da
     	saat	0		V	o
     	saa	da		V	ta
üks	üks	0		N	sg n
   	üks	0		P	sg n
kuub	kuub	0		S	sg n
á	á			H	?
8	8	0		N	?
rbl	rbl	0		Y	?
.	.			Z	
ja	ja	0		J	
ühed	üks	d		N	pl n
    	üks	d		P	pl n
saapad	saabas	d		S	pl n
á	á			H	?
5	5	0		N	?
rbl	rbl	0		Y	?
.	.			Z	
summa	summ	0		S	adt
     	summ	0		S	sg g
     	summ	0		S	sg p
     	summa	0		S	sg g
     	summa	0		S	sg n
13	13	0		N	?
rbl	rbl	0		Y	?
.	.			Z	
_	_			Z	
tema	tema	0		P	sg g
    	tema	0		P	sg n
nõuab	nõud	b		V	b
neid	neid	0		S	sg n
    	see	d		P	pl p
    	tema	d		P	pl p
oma	oma	0		A	sg g
   	oma	0		D	
   	oma	0		P	sg g
   	oma	0		S	sg g
   	oma	0		V	o
   	oma	0		A	sg n
   	oma	0		A	sg p
   	oma	0		P	sg n
   	oma	0		P	sg p
   	oma	0		S	sg n
   	oma	0		S	sg p
peremehe	pere_mees	0		S	sg g
käest	käest	0		K	
     	käsi	st		S	sg el
välja	välja	0		D	
     	välja	0		V	o
     	väli	0		S	adt
     	väli	0		S	sg g
     	väli	0		S	sg p
.	.			Z	
tuli	tuli	0		S	sg n
    	tule	i		V	s
ette	ette	0		D	
    	ette	0		K	
    	esi	tte		S	adt
kaebaja	kaebaja	0		S	sg g
       	kaebaja	0		S	sg n
tüdruku	tüdruk	0		S	sg g
isa	isa	0		S	sg g
   	isa	0		S	sg n
   	isa	0		S	sg p
Jaagup	Jaagup	0		H	sg n
enropReinberg	####				
54	54	0		N	?
a	a	0		Y	?
v	v	0		Y	?
.	.			Z	
ja	ja	0		J	
tunnistab	tunnista	b		V	b
:	:			Z	
kui	kui	0		D	
   	kui	0		J	
ma	mina	0		P	sg n
aru	aru	0		S	sg g
   	aru	0		S	sg n
   	aru	0		S	sg p
sain	saa	in		V	sin
,	,			Z	
et	et	0		J	
mu	mina	0		P	sg g
tütre	tütar	0		S	sg g
Anna	and	0		V	o
    	Anna	0		H	sg g
    	Anna	0		H	sg n
    	anna	0		S	sg g
    	anna	0		S	sg n
ja	ja	0		J	
Gustav	Gustav	0		H	sg n
Krusbergi	####				
vahed	vahe	d		S	pl n
enam	enam	0		C	sg n
    	enam	0		D	
õiged	õige	d		A	pl n
ei	ei	0		D	
  	ei	0		V	neg
olnud	ol=nud	0		A	
     	ol=nud	0		A	sg n
     	ol=nud	d		A	pl n
     	ole	nud		V	nud
     	olnu	d		S	pl n
,	,			Z	
hakkasin	hakka	sin		V	sin
oma	oma	0		A	sg g
   	oma	0		D	
   	oma	0		P	sg g
   	oma	0		S	sg g
   	oma	0		V	o
   	oma	0		A	sg n
   	oma	0		A	sg p
   	oma	0		P	sg n
   	oma	0		P	sg p
   	oma	0		S	sg n
   	oma	0		S	sg p
lapse	laps	0		S	sg g
(	(			Z	
Anna	and	0		V	o
    	Anna	0		H	sg g
    	Anna	0		H	sg n
    	anna	0		S	sg g
    	anna	0		S	sg n
)	)			Z	
käest	käest	0		K	
     	käsi	st		S	sg el
kõvasti	kõvasti	0		D	
järel	järel	0		D	
     	järel	0		K	
küsima	küsi	ma		V	ma
,	,			Z	
kellest	kes	st		P	pl el
       	kes	st		P	sg el
tema	tema	0		P	sg g
    	tema	0		P	sg n
käima	käi	ma		V	ma
     	käim	0		S	adt
     	käim	0		S	sg g
     	käim	0		S	sg p
peale	pea	le		S	sg all
     	peale	0		D	
     	peale	0		K	
on	ole	0		V	b
  	ole	0		V	vad
saanud	saa	nud		V	nud
      	saa=nud	0		A	
      	saa=nud	0		A	sg n
      	saa=nud	d		A	pl n
      	saanu	d		S	pl n
,	,			Z	
ta	tema	0		P	sg g
  	tema	0		P	sg n
püüdis	püüd	is		V	s
esiteks	esiteks	0		D	
salgata	salk	ta		S	sg ab
,	,			Z	
aga	aga	0		J	
et	et	0		J	
ma	mina	0		P	sg n
seda	see	da		P	sg p
ikka	ikka	0		D	
    	iga	0		S	adt
nõudsin	nõud	sin		V	sin
,	,			Z	
siis	siis	0		D	
    	siis	0		J	
tunnistas	tunnista	s		V	s
,	,			Z	
et	et	0		J	
Gustav	Gustav	0		H	sg n
Krusberg	####				
,	,			Z	
minu	mina	0		P	sg g
oma	oma	0		A	sg g
   	oma	0		D	
   	oma	0		P	sg g
   	oma	0		S	sg g
   	oma	0		V	o
   	oma	0		A	sg n
   	oma	0		A	sg p
   	oma	0		P	sg n
   	oma	0		P	sg p
   	oma	0		S	sg n
   	oma	0		S	sg p
sulane	sulane	0		S	sg n
      	sulane	0		V	o
temaga	tema	ga		P	sg kom
süüdlane	süüdlane	0		S	sg n
olla	ole	a		V	da
.	.			Z	
ma	mina	0		P	sg n
noomisin	noomi	sin		V	sin
selle	see	0		P	sg g
     	sell	e		S	pl p
häbemata	häbemata	0		D	
teu	####				
pärast	pära	st		S	sg el
      	pärane	t		A	sg p
      	pärast	0		D	
      	pärast	0		K	
viimast	vii	mast		V	mast
       	viimane	t		A	sg p
ja	ja	0		J	
ütlesin	ütle	sin		V	sin
,	,			Z	
et	et	0		J	
ta	tema	0		P	sg g
  	tema	0		P	sg n
niikauaks	nii_kauaks	0		D	
mu	mina	0		P	sg g
juure	juur	0		S	sg g
peab	pida	b		V	b
jääma	jää	ma		V	ma
     	jääm	0		S	adt
     	jääm	0		S	sg g
     	jääm	0		S	sg p
,	,			Z	
kui	kui	0		D	
   	kui	0		J	
mu	mina	0		P	sg g
tütrele	tütar	le		S	sg all
(	(			Z	
Anna	and	0		V	o
    	Anna	0		H	sg g
    	Anna	0		H	sg n
    	anna	0		S	sg g
    	anna	0		S	sg n
)	)			Z	
laps	laps	0		S	sg n
juba	juba	0		D	
sündinud	sündi	nud		V	nud
        	sündinu	d		S	pl n
        	sündinud	0		A	
        	sündinud	0		A	sg n
        	sündinud	d		A	pl n
on	ole	0		V	b
  	ole	0		V	vad
;	;			Z	
kõige	kõik	0		P	sg g
     	kõige	0		D	
selle	see	0		P	sg g
     	sell	e		S	pl p
noomimise	noomimine	0		S	sg g
aja	aeg	0		S	sg g
   	aja	0		V	o
oli	ole	i		V	s
G	G	0		Y	?
.	.			Z	
_	_			Z	
Krusberg	####				
vaid	vaid	0		D	
    	vaid	0		J	
nagu	nagu	0		D	
    	nagu	0		J	
nui	nui	0		S	sg n
,	,			Z	
oleks	ole	ks		V	ks
ta	tema	0		P	sg g
  	tema	0		P	sg n
ühe	üks	0		N	sg g
   	üks	0		P	sg g
   	ühe	0		S	sg n
sõna	sõna	0		S	sg g
    	sõna	0		V	o
    	sõna	0		S	sg n
    	sõna	0		S	sg p
mulle	mull	e		S	pl p
     	mina	lle		P	sg all
     	mulle	0		S	sg n
miskisugust	miski_sugune	t		P	sg p
ütelnud	ütle	nud		V	nud
       	ütel=nu	d		S	pl n
       	ütel=nud	0		A	
       	ütel=nud	0		A	sg n
       	ütel=nud	d		A	pl n
,	,			Z	
läks	mine	s		V	s
aga	aga	0		J	
varsti	varsti	0		D	
selle	see	0		P	sg g
     	sell	e		S	pl p
peale	pea	le		S	sg all
     	peale	0		D	
     	peale	0		K	
üle	üle	0		D	
   	üle	0		K	
keelu	keeld	0		S	sg g
mu	mina	0		P	sg g
juurest	juur	st		S	sg el
       	juurest	0		K	
ära	ära	0		D	
   	ära	0		V	neg o
,	,			Z	
kõigist	kõik	st		P	pl el
sellest	see	st		P	sg el
on	ole	0		V	b
  	ole	0		V	vad
kindel	kindel	0		A	sg n
põhjus	põhjus	0		S	sg n
,	,			Z	
et	et	0		J	
tema	tema	0		P	sg g
    	tema	0		P	sg n
mu	mina	0		P	sg g
lapse	laps	0		S	sg g
on	ole	0		V	b
  	ole	0		V	vad
ära	ära	0		D	
   	ära	0		V	neg o
rikkunud	rikku	nud		V	nud
        	rikku=nu	d		S	pl n
        	rikku=nud	0		A	
        	rikku=nud	0		A	sg n
        	rikku=nud	d		A	pl n
.	.			Z	
mul	mina	l		P	sg ad
on	ole	0		V	b
  	ole	0		V	vad
veel	veel	0		D	
    	vesi	l		S	sg ad
Gustav	Gustav	0		H	sg n
Krusbergile	####				
lubatavad	lubatav	d		A	pl n
palka	palk	0		S	adt
     	palka	0		V	o
     	palk	0		S	sg p
maksta	maks	ta		V	da
      	maks	ta		V	ta
üks	üks	0		N	sg n
   	üks	0		P	sg n
kuub	kuub	0		S	sg n
ja	ja	0		J	
saapad	saabas	d		S	pl n
kokku	kokku	0		D	
     	kogu	0		S	adt
13	13	0		N	?
rbl	rbl	0		Y	?
.	.			Z	
väärta	####				
,	,			Z	
seda	see	da		P	sg p
ei	ei	0		D	
  	ei	0		V	neg
taha	taht	0		V	o
    	taha	0		D	
    	taha	0		K	
ma	mina	0		P	sg n
enam	enam	0		C	sg n
    	enam	0		D	
temale	tema	le		P	sg all
maksta	maks	ta		V	da
      	maks	ta		V	ta
,	,			Z	
sest	see	st		P	sg el
    	sest	0		J	
et	et	0		J	
ma	mina	0		P	sg n
tema	tema	0		P	sg g
    	tema	0		P	sg n
pärast	pära	st		S	sg el
      	pärane	t		A	sg p
      	pärast	0		D	
      	pärast	0		K	
järgmised	järgmine	d		A	pl n
kulud	kulg	d		S	pl n
     	kulu	d		S	pl n
     	kulu	d		V	d
olen	ole	n		V	n
kannatanud	kannata	nud		V	nud
          	kannatanu	d		S	pl n
          	kannatanud	0		A	
          	kannatanud	0		A	sg n
          	kannatanud	d		A	pl n
:	:			Z	
ämmaemandale	ämma_emand	le		S	sg all
maksin	maks	in		V	sin
lapse	laps	0		S	sg g
sünnitamise	sünnitamine	0		S	sg g
ajal	aeg	l		S	sg ad
    	ajal	0		K	
3	3	0		N	?
rbl	rbl	0		Y	?
.	.			Z	
lapse	laps	0		S	sg g
ristimise	risti=mine	0		S	sg g
kulud	kulg	d		S	pl n
     	kulu	d		S	pl n
     	kulu	d		V	d
läksid	mine	sid		V	sid
5	5	0		N	?
""""	""""			Z	
summa	summ	0		S	adt
     	summ	0		S	sg g
     	summ	0		S	sg p
     	summa	0		S	sg g
     	summa	0		S	sg n
18	18	0		N	?
rbl	rbl	0		Y	?
.	.			Z	
ja	ja	0		J	
praegu	praegu	0		D	
pean	pida	n		V	n
ma	mina	0		P	sg n
igapäev	iga_päev	0		S	sg n
lapse	laps	0		S	sg g
ülespidamise	üles_pidamine	0		S	sg g
pärast	pära	st		S	sg el
      	pärane	t		A	sg p
      	pärast	0		D	
      	pärast	0		K	
kulusid	kulu	sid		S	pl p
       	kulu	sid		V	sid
kandma	kand	ma		V	ma
.	.			Z	
veel	veel	0		D	
    	vesi	l		S	sg ad
tuli	tuli	0		S	sg n
    	tule	i		V	s
kohtu	kohtu	0		V	o
     	kohus	0		S	sg g
nõudumise	####				
peale	pea	le		S	sg all
     	peale	0		D	
     	peale	0		K	
tunnistajaks	tunnistaja	ks		S	sg tr
kõrvveski	kõrv_veski	0		S	sg g
         	kõrv_veski	0		S	sg n
sulane	sulane	0		S	sg n
      	sulane	0		V	o
pil	####				
.	.			Z	
sool	soo	l		S	sg ad
    	sool	0		S	sg n
    	sugu	l		S	sg ad
.	.			Z	
Peeter	Peeter	0		H	sg n
Areel	####				
29	29	0		N	?
a	a	0		Y	?
v	v	0		Y	?
.	.			Z	
tema	tema	0		P	sg g
    	tema	0		P	sg n
tunnistab	tunnista	b		V	b
:	:			Z	
G	G	0		Y	?
.	.			Z	
_	_			Z	
Krusberg	####				
tunnistas	tunnista	s		V	s
mulle	mull	e		S	pl p
     	mina	lle		P	sg all
     	mulle	0		S	sg n
töö	töö	0		S	sg g
   	töö	0		S	sg n
juures	juur	s		S	sg in
      	juures	0		D	
      	juures	0		K	
,	,			Z	
et	et	0		J	
tema	tema	0		P	sg g
    	tema	0		P	sg n
tüdruk	tüdruk	0		S	sg n
Anna	and	0		V	o
    	Anna	0		H	sg g
    	Anna	0		H	sg n
    	anna	0		S	sg g
    	anna	0		S	sg n
R_	####				
.	.			Z	
Reinbergi	####				
juures	juur	s		S	sg in
      	juures	0		D	
      	juures	0		K	
on	ole	0		V	b
  	ole	0		V	vad
magamas	maga	mas		V	mas
käinud	käi	nud		V	nud
      	käi=nud	0		A	
      	käi=nud	0		A	sg n
      	käi=nud	d		A	pl n
      	käinu	d		S	pl n
ja	ja	0		J	
keelas	keela	s		V	s
mind	mina	d		P	sg p
seda	see	da		P	sg p
teistele	teine	tele		O	pl all
        	teine	tele		P	pl all
rääkimast	rääki	mast		V	mast
.	.			Z	
Ma	mina	0		P	sg n
rääkisin	rääki	sin		V	sin
seda	see	da		P	sg p
oma	oma	0		A	sg g
   	oma	0		D	
   	oma	0		P	sg g
   	oma	0		S	sg g
   	oma	0		V	o
   	oma	0		A	sg n
   	oma	0		A	sg p
   	oma	0		P	sg n
   	oma	0		P	sg p
   	oma	0		S	sg n
   	oma	0		S	sg p
äia	äi	0		S	adt
   	äi	0		S	sg g
   	äi	0		S	sg p
Hans	Hans	0		H	sg n
Toomp	####				
'	’			Z	
vaile	####				
ja	ja	0		J	
ta	tema	0		P	sg g
  	tema	0		P	sg n
sai	saa	i		V	s
   	sai	0		S	sg n
sellest	see	st		P	sg el
kuulda	kuul	da		V	da
      	kuul	da		V	ta
siis	siis	0		D	
    	siis	0		J	
oli	ole	i		V	s
minuga	mina	ga		P	sg kom
pahane	pahane	0		A	sg n
      	pahane	0		V	o
.	.			Z	
teine	teine	0		O	sg n
     	teine	0		P	sg n
kord	kord	0		D	
    	kord	0		S	sg n
ütles	ütle	s		V	s
:	:			Z	
ma	mina	0		P	sg n
saan	saa	n		V	n
    	saan	0		S	sg n
sest	see	st		P	sg el
    	sest	0		J	
lapse	laps	0		S	sg g
asjast	asi	st		S	sg el
ja	ja	0		J	
tüdrukust	tüdruk	st		S	sg el
hõlpsaste	####				
lahti	laht	i		S	pl p
     	lahti	0		D	
,	,			Z	
luban	luba	n		V	n
aga	aga	0		J	
tüdruku	tüdruk	0		S	sg g
omale	oma	le		A	sg all
     	oma	le		P	sg all
     	oma	le		S	sg all
võtta	võt	a		V	da
ja	ja	0		J	
teda	tema	da		P	sg p
mulle	mull	e		S	pl p
     	mina	lle		P	sg all
     	mulle	0		S	sg n
naiseks	naine	ks		S	sg tr
ei	ei	0		D	
  	ei	0		V	neg
anda	and	a		V	da
,	,			Z	
siis	siis	0		D	
    	siis	0		J	
on	ole	0		V	b
  	ole	0		V	vad
üsna	üsna	0		D	
iluste	####				
sellega	see	ga		P	sg kom
otsas	ots	s		S	sg in
     	otsa	s		V	s
     	otsas	0		D	
     	otsas	0		K	
.	.			Z	
ükskord	üks_kord	0		D	
ma	mina	0		P	sg n
ütlesin	ütle	sin		V	sin
temale	tema	le		P	sg all
töö	töö	0		S	sg g
   	töö	0		S	sg n
juures	juur	s		S	sg in
      	juures	0		D	
      	juures	0		K	
;	;			Z	
tüdruk	tüdruk	0		S	sg n
kurtnud	kurt	nud		V	nud
       	kurt=nu	d		S	pl n
       	kurt=nud	0		A	
       	kurt=nud	0		A	sg n
       	kurt=nud	d		A	pl n
mu	mina	0		P	sg g
naise	naine	0		S	sg g
vastu	vastu	0		D	
     	vastu	0		K	
,	,			Z	
et	et	0		J	
tema	tema	0		P	sg g
    	tema	0		P	sg n
päevad	päev	d		S	pl n
üsna	üsna	0		D	
pahaste	pahane	te		A	pl g
olla	ole	a		V	da
ja	ja	0		J	
sina	sina	0		P	sg n
    	sina	0		S	sg g
    	sina	0		V	o
    	sina	0		S	sg n
    	sina	0		S	sg p
olla	ole	a		V	da
käessüüdlane	####				
,	,			Z	
siis	siis	0		D	
    	siis	0		J	
ütles	ütle	s		V	s
G	G	0		Y	?
.	.			Z	
_	_			Z	
Krusberg	####				
""""	""""			Z	
oh	oh	0		I	
mädanud	####				
,	,			Z	
peaks	pea	ks		S	sg tr
     	pida	ks		V	ks
nüüd	nüüd	0		D	
keegi	kee	0	gi	S	sg g
     	kee	0	gi	V	o
     	keegi	0		P	sg n
     	kee	0	gi	S	sg n
tüdruku	tüdruk	0		S	sg g
omale	oma	le		A	sg all
     	oma	le		P	sg all
     	oma	le		S	sg all
võtma	võt	ma		V	ma
,	,			Z	
siis	siis	0		D	
    	siis	0		J	
ma	mina	0		P	sg n
pääseksin	pääse	ksin		V	ksin
sellest	see	st		P	sg el
asjast	asi	st		S	sg el
lahti	laht	i		S	pl p
     	lahti	0		D	
.	.			Z	
otsus	otsus	0		S	sg n
:	:			Z	
tunnistuste	tunnistus	te		S	pl g
läbi	läbi	0		D	
    	läbi	0		K	
    	läbi	0		V	o
on	ole	0		V	b
  	ole	0		V	vad
asi	asi	0		S	sg n
   	asi	0		V	o
selginud	selgi	nud		V	nud
        	selgi=nu	d		S	pl n
        	selgi=nud	0		A	
        	selgi=nud	0		A	sg n
        	selgi=nud	d		A	pl n
,	,			Z	
et	et	0		J	
Gustav	Gustav	0		H	sg n
Krusberg	####				
Anna	and	0		V	o
    	Anna	0		H	sg g
    	Anna	0		H	sg n
    	anna	0		S	sg g
    	anna	0		S	sg n
enropReinbergi	####				
lapse	laps	0		S	sg g
isa	isa	0		S	sg g
   	isa	0		S	sg n
   	isa	0		S	sg p
on	ole	0		V	b
  	ole	0		V	vad
,	,			Z	
siis	siis	0		D	
    	siis	0		J	
peab	pida	b		V	b
tema	tema	0		P	sg g
    	tema	0		P	sg n
osalt	osa	lt		S	sg abl
     	osalt	0		D	
lapse	laps	0		S	sg g
kasvamist	kasvamine	t		S	sg p
aitama	aita	ma		V	ma
kanda	kand	0		S	adt
     	kand	a		V	da
     	kand	0		S	sg p
ja	ja	0		J	
selleks	see	ks		P	sg tr
25	25	0		N	?
rbl	rbl	0		Y	?
.	.			Z	
maksma	maks	ma		V	ma
;	;			Z	
viimase	viimane	0		A	sg g
summa	summ	0		S	adt
     	summ	0		S	sg g
     	summ	0		S	sg p
     	summa	0		S	sg g
     	summa	0		S	sg n
juure	juur	0		S	sg g
tuleb	tule	b		V	b
se	####				
raha	raha	0		S	sg g
    	raha	0		S	sg n
    	raha	0		S	sg p
arvata	arva	ta		V	da
      	arva	ta		V	ta
      	arvata	0		D	
,	,			Z	
mis	mis	0		P	pl n
   	mis	0		P	sg n
tema	tema	0		P	sg g
    	tema	0		P	sg n
5	5	0		N	?
rbl	rbl	0		Y	?
.	.			Z	
Jaagup	Jaagup	0		H	sg n
enropReinbergi	####				
käes	käes	0		K	
    	käsi	s		S	sg in
veel	veel	0		D	
    	vesi	l		S	sg ad
üle	üle	0		D	
   	üle	0		K	
jäänud	jää	nud		V	nud
      	jäänu	d		S	pl n
      	jäänud	0		A	
      	jäänud	0		A	sg n
      	jäänud	d		A	pl n
palka	palk	0		S	adt
     	palka	0		V	o
     	palk	0		S	sg p
sees	sees	0		D	
    	sees	0		K	
on	ole	0		V	b
  	ole	0		V	vad
ja	ja	0		J	
20	20	0		N	?
rbl	rbl	0		Y	?
.	.			Z	
peab	pida	b		V	b
ta	tema	0		P	sg g
  	tema	0		P	sg n
pärast	pära	st		S	sg el
      	pärane	t		A	sg p
      	pärast	0		D	
      	pärast	0		K	
tasuma	tasu	ma		V	ma
.	.			Z	
üleval	ülev	l		A	sg ad
      	üleval	0		D	
nimetatud	nimeta	tud		V	tud
         	nimetatu	d		S	pl n
         	nimetatud	0		A	
         	nimetatud	0		A	sg n
         	nimetatud	d		A	pl n
ämmaemanda	ämma_emand	0		S	sg g
ja	ja	0		J	
lapse	laps	0		S	sg g
ristimise	risti=mine	0		S	sg g
kulud	kulg	d		S	pl n
     	kulu	d		S	pl n
     	kulu	d		V	d
8	8	0		N	?
rbl	rbl	0		Y	?
.	.			Z	
jäävad	jää	vad		V	vad
      	jääv	d		A	pl n
ka	ka	0		D	
Gustav	Gustav	0		H	sg n
Krusbergi	####				
kanda	kand	0		S	adt
     	kand	a		V	da
     	kand	0		S	sg p
.	.			Z	
see	see	0		P	sg n
protokoll	protokoll	0		S	sg n
saab	saa	b		V	b
veel	veel	0		D	
    	vesi	l		S	sg ad
keiserliku	keiserlik	0		A	sg g
üle	üle	0		D	
   	üle	0		K	
vaataja	vaataja	0		S	sg g
       	vaataja	0		S	sg n
kohtu	kohtu	0		V	o
     	kohus	0		S	sg g
ette	ette	0		D	
    	ette	0		K	
    	esi	tte		S	adt
saadetud	saat	tud		V	tud
        	saade=tu	d		S	pl n
        	saadetud	0		A	
        	saadetud	0		A	sg n
        	saadetud	d		A	pl n
läbi	läbi	0		D	
    	läbi	0		K	
    	läbi	0		V	o
vaatamiseks	vaatamine	ks		S	sg tr
ja	ja	0		J	
kinnitamiseks	kinnitamine	ks		S	sg tr
.	.			Z	
25	25	0		N	?
rbl	rbl	0		Y	?
.	.			Z	
see	see	0		P	sg n
protokoll	protokoll	0		S	sg n
Kuusalu	Kuu_salu	0		H	sg g
       	Kuu_salu	0		H	sg n
kihelk	kihelk	0		Y	?
kohtule	kohus	le		S	sg all
saadetud	saat	tud		V	tud
        	saade=tu	d		S	pl n
        	saadetud	0		A	
        	saadetud	0		A	sg n
        	saadetud	d		A	pl n
.	.			Z	
