Mai	Mai	0		H	sg g
   	Mai	0		H	sg n
   	mai	0		S	sg g
   	mai	0		S	sg n
pere	pere	0		S	sg g
    	pere	0		S	sg n
omanik	omanik	0		S	sg n
palub	palu	b		V	b
valla	vald	0		S	sg g
     	valla	0		D	
poolt	pool	t		N	sg p
     	pool	t		S	sg p
     	poolt	0		D	
     	poolt	0		K	
ühe	üks	0		N	sg g
   	üks	0		P	sg g
   	ühe	0		S	sg n
tunnistuse	tunnistus	0		S	sg g
täht	täht	0		S	sg n
et	et	0		J	
ta	tema	0		P	sg g
  	tema	0		P	sg n
oma	oma	0		A	sg g
   	oma	0		D	
   	oma	0		P	sg g
   	oma	0		S	sg g
   	oma	0		V	o
   	oma	0		A	sg n
   	oma	0		A	sg p
   	oma	0		P	sg n
   	oma	0		P	sg p
   	oma	0		S	sg n
   	oma	0		S	sg p
krundi	krunt	0		S	sg g
      	krunti	0		V	o
pealt	pea	lt		S	sg abl
     	pealt	0		D	
     	pealt	0		K	
200	200	0		N	?
□	□	0		Y	?
sülda	süld	0		S	adt
     	süld	0		S	sg p
oma	oma	0		A	sg g
   	oma	0		D	
   	oma	0		P	sg g
   	oma	0		S	sg g
   	oma	0		V	o
   	oma	0		A	sg n
   	oma	0		A	sg p
   	oma	0		P	sg n
   	oma	0		P	sg p
   	oma	0		S	sg n
   	oma	0		S	sg p
venale	####				
Jaan	Jaan	0		H	sg n
    	jaan	0		S	sg n
    	jaan	0		Y	?
Meinvaldil	####				
on	ole	0		V	b
  	ole	0		V	vad
ära	ära	0		D	
   	ära	0		V	neg o
müüünud	####				
Mai	Mai	0		H	sg g
   	Mai	0		H	sg n
   	mai	0		S	sg g
   	mai	0		S	sg n
pere	pere	0		S	sg g
    	pere	0		S	sg n
omanik	omanik	0		S	sg n
Jüri	Jüri	0		H	sg g
    	Jüri	0		H	sg n
Meinvald	####				
XXX	XXX	0		O	?
   	XXX	0		Y	?
tunismehed	####				
.	.			Z	
Jacob	Jacob	0		H	sg n
sesmin	####				
XXX	XXX	0		O	?
   	XXX	0		Y	?
kohtu	kohtu	0		V	o
     	kohus	0		S	sg g
peavanem	pea_vanem	0		C	sg n
        	pea_vanem	0		S	sg n
.	.			Z	
Mart	Mart	0		H	sg n
    	mart	0		S	sg n
Meinvald	####				
XXX	XXX	0		O	?
   	XXX	0		Y	?
kirjutaja	kirjutaja	0		S	sg g
         	kirjutaja	0		S	sg n
s	s	0		Y	?
.	.			Z	
Mathiesen	####				
[	[			Z	
allkiri	all_kiri	0		S	sg n
]	]			Z	
kohtu	kohtu	0		V	o
     	kohus	0		S	sg g
peavanem	pea_vanem	0		C	sg n
        	pea_vanem	0		S	sg n
:	:			Z	
Mart	Mart	0		H	sg n
    	mart	0		S	sg n
Meinvald	####				
XXX	XXX	0		O	?
   	XXX	0		Y	?
kohtu	kohtu	0		V	o
     	kohus	0		S	sg g
kõrvamehed	kõrva_mees	d		S	pl n
:	:			Z	
Jaan	Jaan	0		H	sg n
    	jaan	0		S	sg n
    	jaan	0		Y	?
Aru	aru	0		S	sg g
   	aru	0		S	sg n
   	aru	0		S	sg p
XXX	XXX	0		O	?
   	XXX	0		Y	?
Tõnu	Tõnu	0		H	sg g
    	Tõnu	0		H	sg n
Leismann	####				
XXX	XXX	0		O	?
   	XXX	0		Y	?
kirjutaja	kirjutaja	0		S	sg g
         	kirjutaja	0		S	sg n
s	s	0		Y	?
.	.			Z	
Mathiesen	####				
[	[			Z	
allkiri	all_kiri	0		S	sg n
]	]			Z	
