20.	20.	0		O	?
tuli	tuli	0		S	sg n
    	tule	i		V	s
ette	ette	0		D	
    	ette	0		K	
    	esi	tte		S	adt
:	:			Z	
Lohult	lohk	lt		S	sg abl
      	loht	lt		S	sg abl
Novere	####				
sauna	saun	0		S	adt
     	saun	0		S	sg g
     	saun	0		S	sg p
Hans	Hans	0		H	sg n
vali	vali	0		A	sg n
    	vali	0		V	o
ja	ja	0		J	
kaebas	kaeba	s		V	s
et	et	0		J	
Lohult	lohk	lt		S	sg abl
      	loht	lt		S	sg abl
Madise	Madis	0		H	sg g
      	madis	0		S	sg g
Hans	Hans	0		H	sg n
evarda	####				
olla	ole	a		V	da
4ja	####				
aasta	aasta	0		S	sg g
     	aasta	0		S	sg n
eest	eest	0		D	
    	eest	0		K	
    	esi	st		S	sg el
tema	tema	0		P	sg g
    	tema	0		P	sg n
käest	käest	0		K	
     	käsi	st		S	sg el
20½	####				
rbl	rbl	0		Y	?
.	.			Z	
raha	raha	0		S	sg g
    	raha	0		S	sg n
    	raha	0		S	sg p
laenanud	laena	nud		V	nud
        	laena=nu	d		S	pl n
        	laena=nud	0		A	
        	laena=nud	0		A	sg n
        	laena=nud	d		A	pl n
ja	ja	0		J	
lubanud	luba	nud		V	nud
       	luba=nu	d		S	pl n
       	luba=nud	0		A	
       	luba=nud	0		A	sg n
       	luba=nud	d		A	pl n
pea	pea	0		D	
   	pea	0		S	sg g
   	pida	0		V	o
   	pea	0		S	sg n
jälle	jälle	0		D	
ära	ära	0		D	
   	ära	0		V	neg o
maksta	maks	ta		V	da
      	maks	ta		V	ta
.	.			Z	
Tema	tema	0		P	sg g
    	tema	0		P	sg n
olla	ole	a		V	da
juba	juba	0		D	
mitto	####				
kord	kord	0		D	
    	kord	0		S	sg n
seda	see	da		P	sg p
küsinud	küsi	nud		V	nud
       	küsi=nu	d		S	pl n
       	küsi=nud	0		A	
       	küsi=nud	0		A	sg n
       	küsi=nud	d		A	pl n
,	,			Z	
aga	aga	0		J	
ei	ei	0		D	
  	ei	0		V	neg
olevat	ole	vat		V	vat
      	olev	t		A	sg p
      	olev	t		S	sg p
veel	veel	0		D	
    	vesi	l		S	sg ad
tänini	tänini	0		D	
maksnud	maks	nud		V	nud
       	maks=nu	d		S	pl n
       	maks=nud	0		A	
       	maks=nud	0		A	sg n
       	maks=nud	d		A	pl n
.	.			Z	
Hans	Hans	0		H	sg n
evarda	####				
sai	saa	i		V	s
   	sai	0		S	sg n
kohtu	kohtu	0		V	o
     	kohus	0		S	sg g
ette	ette	0		D	
    	ette	0		K	
    	esi	tte		S	adt
kutsutud	kutsu	tud		V	tud
        	kutsutu	d		S	pl n
        	kutsutud	0		A	
        	kutsutud	0		A	sg n
        	kutsutud	d		A	pl n
ja	ja	0		J	
temale	tema	le		P	sg all
see	see	0		P	sg n
kaebus	kaebus	0		S	sg n
ette	ette	0		D	
    	ette	0		K	
    	esi	tte		S	adt
loetud	loetu	d		S	pl n
      	loetud	0		A	
      	loetud	0		A	sg n
      	loetud	d		A	pl n
      	luge	tud		V	tud
.	.			Z	
Tema	tema	0		P	sg g
    	tema	0		P	sg n
tunnistas	tunnista	s		V	s
seda	see	da		P	sg p
tõeks	tõde	ks		S	sg tr
     	tõsi	ks		S	sg tr
et	et	0		J	
ta	tema	0		P	sg g
  	tema	0		P	sg n
Hans	Hans	0		H	sg n
vali	vali	0		A	sg n
    	vali	0		V	o
käest	käest	0		K	
     	käsi	st		S	sg el
20½	####				
rubl	####				
.	.			Z	
raha	raha	0		S	sg g
    	raha	0		S	sg n
    	raha	0		S	sg p
on	ole	0		V	b
  	ole	0		V	vad
laenanud	laena	nud		V	nud
        	laena=nu	d		S	pl n
        	laena=nud	0		A	
        	laena=nud	0		A	sg n
        	laena=nud	d		A	pl n
,	,			Z	
aga	aga	0		J	
tema	tema	0		P	sg g
    	tema	0		P	sg n
ei	ei	0		D	
  	ei	0		V	neg
tahta	taht	a		V	da
enne	enne	0		D	
    	enne	0		K	
    	enne	0		S	sg n
kätte	kätte	0		K	
     	käsi	tte		S	adt
maksta	maks	ta		V	da
      	maks	ta		V	ta
,	,			Z	
kui	kui	0		D	
   	kui	0		J	
Hans	Hans	0		H	sg n
vali	vali	0		A	sg n
    	vali	0		V	o
naine	naine	0		S	sg n
,	,			Z	
kes	kes	0		P	pl n
   	kes	0		P	sg n
oma	oma	0		A	sg g
   	oma	0		D	
   	oma	0		P	sg g
   	oma	0		S	sg g
   	oma	0		V	o
   	oma	0		A	sg n
   	oma	0		A	sg p
   	oma	0		P	sg n
   	oma	0		P	sg p
   	oma	0		S	sg n
   	oma	0		S	sg p
tühja	tühi	0		A	adt
     	tühi	0		A	sg g
     	tühi	0		A	sg p
jutatudega	####				
teda	tema	da		P	sg p
oma	oma	0		A	sg g
   	oma	0		D	
   	oma	0		P	sg g
   	oma	0		S	sg g
   	oma	0		V	o
   	oma	0		A	sg n
   	oma	0		A	sg p
   	oma	0		P	sg n
   	oma	0		P	sg p
   	oma	0		S	sg n
   	oma	0		S	sg p
naisega	naine	ga		S	sg kom
riidu	riid	0		S	adt
     	riid	0		S	sg p
     	riidu	0		D	
ajanud	aja	nud		V	nud
      	aja=nu	d		S	pl n
      	aja=nud	0		A	
      	aja=nud	0		A	sg n
      	aja=nud	d		A	pl n
,	,			Z	
omad	oma	d		A	pl n
    	oma	d		P	pl n
    	oma	d		S	pl n
    	oma	d		V	d
asjad	asi	d		S	pl n
on	ole	0		V	b
  	ole	0		V	vad
kohtu	kohtu	0		V	o
     	kohus	0		S	sg g
ees	ees	0		D	
   	ees	0		K	
   	esi	s		S	sg in
ära	ära	0		D	
   	ära	0		V	neg o
seletanud	seleta	nud		V	nud
         	seleta=nu	d		S	pl n
         	seleta=nud	0		A	
         	seleta=nud	0		A	sg n
         	seleta=nud	d		A	pl n
.	.			Z	
et	et	0		J	
nende	see	de		P	pl g
     	tema	de		P	pl g
naiste	naine	te		S	pl g
tüli	tüli	0		S	sg g
    	tüli	0		S	sg n
    	tüli	0		S	sg p
juba	juba	0		D	
tänavao	####				
kord	kord	0		D	
    	kord	0		S	sg n
kohtu	kohtu	0		V	o
     	kohus	0		S	sg g
ees	ees	0		D	
   	ees	0		K	
   	esi	s		S	sg in
seletud	seletu	d		V	d
saanud	saa	nud		V	nud
      	saa=nud	0		A	
      	saa=nud	0		A	sg n
      	saa=nud	d		A	pl n
      	saanu	d		S	pl n
ja	ja	0		J	
see	see	0		P	sg n
raha	raha	0		S	sg g
    	raha	0		S	sg n
    	raha	0		S	sg p
laenamine	laenamine	0		S	sg n
midagi	miski	dagi		P	sg p
naiste	naine	te		S	pl g
tüli	tüli	0		S	sg g
    	tüli	0		S	sg n
    	tüli	0		S	sg p
asjus	asi	us		S	pl in
ei	ei	0		D	
  	ei	0		V	neg
puutu	puutu	0		V	o
,	,			Z	
seepärast	see_pärast	0		D	
ühendasid	ühenda	sid		V	sid
kohtu	kohtu	0		V	o
     	kohus	0		S	sg g
liikmed	liige	d		S	pl n
ja	ja	0		J	
tegid	tege	id		V	sid
see	see	0		P	sg n
mõistus	mõistus	0		S	sg n
:	:			Z	
Hans	Hans	0		H	sg n
evarda	####				
maksab	maks	b		V	b
Hans	Hans	0		H	sg n
valile	####				
see	see	0		P	sg n
laenatud	laena	tud		V	tud
        	laena=tu	d		S	pl n
        	laena=tud	0		A	
        	laena=tud	0		A	sg n
        	laena=tud	d		A	pl n
raha	raha	0		S	sg g
    	raha	0		S	sg n
    	raha	0		S	sg p
20	20	0		N	?
rubla	rubla	0		S	sg g
     	rubla	0		S	sg n
     	rubla	0		S	sg p
ja	ja	0		J	
50	50	0		N	?
kop	kop	0		Y	?
.	.			Z	
siin	siin	0		D	
    	siin	0		S	sg n
kohtu	kohtu	0		V	o
     	kohus	0		S	sg g
ees	ees	0		D	
   	ees	0		K	
   	esi	s		S	sg in
kahe	kaks	0		N	sg g
nädali	####				
pärast	pära	st		S	sg el
      	pärane	t		A	sg p
      	pärast	0		D	
      	pärast	0		K	
välja	välja	0		D	
     	välja	0		V	o
     	väli	0		S	adt
     	väli	0		S	sg g
     	väli	0		S	sg p
.	.			Z	
seega	seega	0		D	
olid	ole	id		V	sid
kohtu	kohtu	0		V	o
     	kohus	0		S	sg g
käijad	käija	d		S	pl n
rahul	rahu	l		S	sg ad
     	rahul	0		D	
.	.			Z	
