_üks	####				
tuhat	tuhat	0		N	sg n
     	tuhat	0		N	sg p
üheksa	üheksa	0		N	sg g
      	üheksa	0		N	sg n
saada	saa	da		V	da
     	saat	0		V	o
     	saa	da		V	ta
viiendamal	####				
aastal	aasta	l		S	sg ad
Vebruari	####				
kuu	kuu	0		S	sg g
   	kuu	0		S	sg n
kuueteistkümndal	####				
päeval	päev	l		S	sg ad
ilmus	ilmu	s		V	s
Harku	Harku	0		H	sg g
     	Harku	0		H	sg n
     	harku	0		G	
valla	vald	0		S	sg g
     	valla	0		D	
kohtusse	kohtune	se		A	adt
        	kohus	sse		S	sg ill
kohtule	kohus	le		S	sg all
isiklikult	isiklik	lt		A	sg abl
          	isiklikult	0		D	
tuntud	tund	tud		V	tud
      	tuntu	d		S	pl n
      	tuntud	0		A	
      	tuntud	0		A	sg n
      	tuntud	d		A	pl n
lesk	lesk	0		S	sg n
Mari	Mari	0		H	sg g
    	mari	0		S	sg g
    	mari	0		S	sg n
    	Mari	0		H	sg n
    	mari	0		S	sg p
Anderman	####				
84	84	0		N	?
a	a	0		Y	?
vana	vana	0		A	sg g
    	vana	0		A	sg n
    	vana	0		A	sg p
    	vana	0		S	sg g
    	vana	0		S	sg n
    	vana	0		S	sg p
,	,			Z	
elab	ela	b		V	b
Harku	Harku	0		H	sg g
     	Harku	0		H	sg n
     	harku	0		G	
vallas	vald	s		S	sg in
,	,			Z	
ja	ja	0		J	
palus	palu	s		S	sg in
     	palu	s		V	s
järgmist	järgmine	t		A	sg p
suu	suu	0		S	sg g
   	suu	0		S	sg n
sõnalist	sõnaline	t		A	sg p
testamenti	testament	0		S	adt
          	testament	0		S	sg p
kohtu	kohtu	0		V	o
     	kohus	0		S	sg g
akti	akt	0		S	adt
    	akt	0		S	sg g
    	akt	0		S	sg p
raamatuse	raa_matus	0		S	sg g
sisse	siss	e		S	pl p
     	sisse	0		D	
     	sisse	0		K	
kirjutada	kirjuta	da		V	da
:	:			Z	
Minu	mina	0		P	sg g
varandus	varandus	0		S	sg n
on	ole	0		V	b
  	ole	0		V	vad
praegusel	praegune	l		A	sg ad
ajal	aeg	l		S	sg ad
    	ajal	0		K	
veel	veel	0		D	
    	vesi	l		S	sg ad
üks	üks	0		N	sg n
   	üks	0		P	sg n
väike	väike	0		A	sg n
elumaja	elu_maja	0		S	sg g
       	elu_maja	0		S	sg n
       	elu_maja	0		S	sg p
lehma	lehm	0		S	adt
     	lehm	0		S	sg g
     	lehm	0		S	sg p
mõisa	mõis	0		S	sg g
krundi	krunt	0		S	sg g
      	krunti	0		V	o
peal	pea	l		S	sg ad
    	peal	0		D	
    	peal	0		K	
,	,			Z	
umbes	umbes	0		A	
     	umbes	0		D	
     	umme	s		S	sg in
50	50	0		N	?
rub	####				
väärtuses	väärtus	s		S	sg in
/	/			Z	
viiskümmend	viis_kümmend	0		N	sg n
rub	####				
/	/			Z	
selle	see	0		P	sg g
     	sell	e		S	pl p
maja	maja	0		S	sg g
    	maja	0		S	sg n
    	maja	0		S	sg p
tõutan	####				
ja	ja	0		J	
luban	luba	n		V	n
pärast	pära	st		S	sg el
      	pärane	t		A	sg p
      	pärast	0		D	
      	pärast	0		K	
minu	mina	0		P	sg g
surma	surm	0		S	adt
     	surm	0		S	sg g
     	surma	0		V	o
     	surm	0		S	sg p
minu	mina	0		P	sg g
tütri	####				
Mari	Mari	0		H	sg g
    	mari	0		S	sg g
    	mari	0		S	sg n
    	Mari	0		H	sg n
    	mari	0		S	sg p
Suudile	####				
(	(			Z	
sünd	sünd	0		S	sg n
    	sünd	0		Y	?
.	.			Z	
Anderman	####				
)	)			Z	
,	,			Z	
kes	kes	0		P	pl n
   	kes	0		P	sg n
minu	mina	0		P	sg g
eest	eest	0		D	
    	eest	0		K	
    	esi	st		S	sg el
vanaduses	vanadus	s		S	sg in
on	ole	0		V	b
  	ole	0		V	vad
hoolitsenud	hoolitse	nud		V	nud
           	hoolitse=nu	d		S	pl n
           	hoolitse=nud	0		A	
           	hoolitse=nud	0		A	sg n
           	hoolitse=nud	d		A	pl n
ja	ja	0		J	
naerit	####				
pidanud	pida	nud		V	nud
       	pida=nu	d		S	pl n
       	pida=nud	0		A	
       	pida=nud	0		A	sg n
       	pida=nud	d		A	pl n
,	,			Z	
kuna	kuna	0		D	
    	kuna	0		J	
minu	mina	0		P	sg g
tütre	tütar	0		S	sg g
Leenal	Leena	l		H	sg ad
,	,			Z	
kes	kes	0		P	pl n
   	kes	0		P	sg n
sündimisest	sündimine	st		S	sg el
saadik	saadik	0		K	
      	saadik	0		S	sg n
tumm	tumm	0		A	sg n
    	tumm	0		S	sg n
on	ole	0		V	b
  	ole	0		V	vad
,	,			Z	
õigus	õigus	0		S	sg n
jääb	jää	b		V	b
selles	see	s		P	sg in
majas	maja	s		S	sg in
tema	tema	0		P	sg g
    	tema	0		P	sg n
surmani	surm	ni		S	sg ter
korteri	korter	0		S	sg g
saada	saa	da		V	da
     	saat	0		V	o
     	saa	da		V	ta
.	.			Z	
Minu	mina	0		P	sg g
poeg	poeg	0		S	sg n
Ado	Ado	0		H	sg g
   	Ado	0		H	sg n
kes	kes	0		P	pl n
   	kes	0		P	sg n
Tallinnas	Tallinn	s		H	sg in
elab	ela	b		V	b
eo	idu	0		S	sg g
või	või	0		S	sg g
   	või	0		V	o
   	või	0		D	
   	või	0		J	
   	või	0		S	sg n
pärast	pära	st		S	sg el
      	pärane	t		A	sg p
      	pärast	0		D	
      	pärast	0		K	
minu	mina	0		P	sg g
surma	surm	0		S	adt
     	surm	0		S	sg g
     	surma	0		V	o
     	surm	0		S	sg p
sellest	see	st		P	sg el
majast	maja	st		S	sg el
midagi	miski	dagi		P	sg p
pärida	päri	da		V	da
sest	see	st		P	sg el
    	sest	0		J	
et	et	0		J	
tema	tema	0		P	sg g
    	tema	0		P	sg n
minu	mina	0		P	sg g
eest	eest	0		D	
    	eest	0		K	
    	esi	st		S	sg el
ei	ei	0		D	
  	ei	0		V	neg
ole	ole	0		V	o
hoolitsnud	####				
.	.			Z	
Mari	Mari	0		H	sg g
    	mari	0		S	sg g
    	mari	0		S	sg n
    	Mari	0		H	sg n
    	mari	0		S	sg p
Aderman	####				
ei	ei	0		D	
  	ei	0		V	neg
oska	oska	0		V	o
kirja	kirja	0		A	
     	kirja	0		V	o
     	kiri	0		S	adt
     	kiri	0		S	sg g
     	kiri	0		S	sg p
tema	tema	0		P	sg g
    	tema	0		P	sg n
palve	palve	0		S	sg g
     	palve	0		S	sg n
peale	pea	le		S	sg all
     	peale	0		D	
     	peale	0		K	
kirjutas	kirjuta	s		V	s
alla	alla	0		D	
    	alla	0		K	
heinrich	####				
multer	####				
eel	eel	0		D	
   	eel	0		K	
   	esi	l		S	sg ad
seisav	####				
testament	testament	0		S	sg n
on	ole	0		V	b
  	ole	0		V	vad
pärast	pära	st		S	sg el
      	pärane	t		A	sg p
      	pärast	0		D	
      	pärast	0		K	
akti	akt	0		S	adt
    	akt	0		S	sg g
    	akt	0		S	sg p
raamatuse	raa_matus	0		S	sg g
kirjutamist	kirjutamine	t		S	sg p
Mari	Mari	0		H	sg g
    	mari	0		S	sg g
    	mari	0		S	sg n
    	Mari	0		H	sg n
    	mari	0		S	sg p
Andermannile	####				
ette	ette	0		D	
    	ette	0		K	
    	esi	tte		S	adt
loetud	loetu	d		S	pl n
      	loetud	0		A	
      	loetud	0		A	sg n
      	loetud	d		A	pl n
      	luge	tud		V	tud
,	,			Z	
kes	kes	0		P	pl n
   	kes	0		P	sg n
terve	terve	0		A	sg g
     	terve	0		A	sg n
     	terve	0		S	sg g
     	terve	0		S	sg n
mõistuse	mõistus	0		S	sg g
juures	juur	s		S	sg in
      	juures	0		D	
      	juures	0		K	
oli	ole	i		V	s
ja	ja	0		J	
tema	tema	0		P	sg g
    	tema	0		P	sg n
palve	palve	0		S	sg g
     	palve	0		S	sg n
peale	pea	le		S	sg all
     	peale	0		D	
     	peale	0		K	
kirja	kirja	0		A	
     	kirja	0		V	o
     	kiri	0		S	adt
     	kiri	0		S	sg g
     	kiri	0		S	sg p
mitte	mitte	0		D	
oskamise	oska=mine	0		S	sg g
pärast	pära	st		S	sg el
      	pärane	t		A	sg p
      	pärast	0		D	
      	pärast	0		K	
Harku	Harku	0		H	sg g
     	Harku	0		H	sg n
     	harku	0		G	
valla	vald	0		S	sg g
     	valla	0		D	
talupoja	talu_poeg	0		S	sg g
Heinrich	Heinrich	0		H	sg n
multeri	####				
poolt	pool	t		N	sg p
     	pool	t		S	sg p
     	poolt	0		D	
     	poolt	0		K	
allakirjutud	####				
.	.			Z	
kohtu	kohtu	0		V	o
     	kohus	0		S	sg g
president	president	0		S	sg n
M	M	0		O	?
 	M	0		Y	?
.	.			Z	
_	_			Z	
Jervan	####				
Liikmed	liige	d		S	pl n
J	J	0		Y	?
.	.			Z	
väljamäe	välja_mägi	0		S	sg g
O. Reinde	####				
H	H	0		Y	?
.	.			Z	
_	_			Z	
Märi	####				
kirjutaja	kirjutaja	0		S	sg g
         	kirjutaja	0		S	sg n
J. Rammus	####				
