Tammisult	tamm_isu	lt		S	sg abl
Mardi	Mart	0		H	sg g
     	mart	0		S	sg g
peremees	pere_mees	0		S	sg n
Jaan	Jaan	0		H	sg n
    	jaan	0		S	sg n
    	jaan	0		Y	?
empank	####				
21	21	0		N	?
a	a	0		Y	?
v	v	0		Y	?
.	.			Z	
kaebab	kaeba	b		V	b
,	,			Z	
et	et	0		J	
tema	tema	0		P	sg g
    	tema	0		P	sg n
märtsi	märts	0		S	adt
      	märts	0		S	sg g
      	märts	0		S	sg p
kuus	kuu	s		S	sg in
    	kuus	0		N	sg n
oma	oma	0		A	sg g
   	oma	0		D	
   	oma	0		P	sg g
   	oma	0		S	sg g
   	oma	0		V	o
   	oma	0		A	sg n
   	oma	0		A	sg p
   	oma	0		P	sg n
   	oma	0		P	sg p
   	oma	0		S	sg n
   	oma	0		S	sg p
hobuse	hobune	0		S	sg g
Leesi	Leesi	0		H	sg g
     	Leesi	0		H	sg n
küla	küla	0		S	sg g
    	küla	0		S	sg n
    	küla	0		S	sg p
mehe	mees	0		S	sg g
Jaagup	Jaagup	0		H	sg n
Palmbroos'i	####				
kätte	kätte	0		K	
     	käsi	tte		S	adt
andnud	and	nud		V	nud
      	and=nu	d		S	pl n
      	and=nud	0		A	
      	and=nud	0		A	sg n
      	and=nud	d		A	pl n
Silgu	silk	0		S	sg g
Järvamaale	Järva_maa	le		H	sg all
viia	vii	a		V	da
ja	ja	0		J	
selle	see	0		P	sg g
     	sell	e		S	pl p
tee	tee	0		S	sg g
   	tege	0		V	o
   	tee	0		S	sg n
peal	pea	l		S	sg ad
    	peal	0		D	
    	peal	0		K	
on	ole	0		V	b
  	ole	0		V	vad
viimase	viimane	0		A	sg g
käest	käest	0		K	
     	käsi	st		S	sg el
hobune	hobune	0		S	sg n
kaduma	kadu	ma		V	ma
saanud	saa	nud		V	nud
      	saa=nud	0		A	
      	saa=nud	0		A	sg n
      	saa=nud	d		A	pl n
      	saanu	d		S	pl n
,	,			Z	
nüüd	nüüd	0		D	
ei	ei	0		D	
  	ei	0		V	neg
saada	saa	da		V	da
     	saat	0		V	o
     	saa	da		V	ta
nemad	tema	d		P	pl n
oma	oma	0		A	sg g
   	oma	0		D	
   	oma	0		P	sg g
   	oma	0		S	sg g
   	oma	0		V	o
   	oma	0		A	sg n
   	oma	0		A	sg p
   	oma	0		P	sg n
   	oma	0		P	sg p
   	oma	0		S	sg n
   	oma	0		S	sg p
koju	kodu	0		S	adt
selle	see	0		P	sg g
     	sell	e		S	pl p
kahju	kahi	0		S	adt
     	kahi	0		S	sg g
     	kahi	0		S	sg p
     	kahju	0		S	sg g
     	kahju	0		S	sg n
     	kahju	0		S	sg p
tegemisega	tegemine	ga		S	sg kom
ühes	üks	s		N	sg in
    	üks	s		P	sg in
    	ühes	0		D	
    	ühes	0		K	
kuus	kuu	s		S	sg in
    	kuus	0		N	sg n
korda	kord	0		S	adt
     	korda	0		V	o
     	kord	0		S	sg p
.	.			Z	
palub	palu	b		V	b
kohut	kohus	t		S	sg p
nende	see	de		P	pl g
     	tema	de		P	pl g
asja	asi	0		S	adt
    	asi	0		S	sg g
    	asi	0		S	sg p
seletada	seleta	da		V	da
ja	ja	0		J	
leppitada	####				
.	.			Z	
tuli	tuli	0		S	sg n
    	tule	i		V	s
ette	ette	0		D	
    	ette	0		K	
    	esi	tte		S	adt
Jaagup	Jaagup	0		H	sg n
Palmbroos	####				
42	42	0		N	?
av	####				
.	.			Z	
ja	ja	0		J	
tunnistab	tunnista	b		V	b
:	:			Z	
8ndal	8=s	l		O	sg ad
märtsil	märts	l		S	sg ad
tulin	tule	in		V	sin
ma	mina	0		P	sg n
Järvast	Järva	st		H	sg el
vilja	vili	0		S	adt
     	vili	0		S	sg g
     	vili	0		S	sg p
koormaga	koorem	ga		S	sg kom
,	,			Z	
läksin	mine	sin		V	sin
Männiku	männik	0		S	sg g
kõrtsi	kõrts	0		S	adt
      	kõrts	0		S	sg g
      	kõrts	0		S	sg p
öösel	öösel	0		D	
sisse	siss	e		S	pl p
     	sisse	0		D	
     	sisse	0		K	
ja	ja	0		J	
panin	pane	in		V	sin
hobuse	hobune	0		S	sg g
kõrtsi	kõrts	0		S	adt
      	kõrts	0		S	sg g
      	kõrts	0		S	sg p
ette	ette	0		D	
    	ette	0		K	
    	esi	tte		S	adt
aja	aeg	0		S	sg g
   	aja	0		V	o
äärde	äär	de		S	adt
     	äärde	0		K	
sööma	söö	ma		V	ma
     	sööm	0		S	adt
     	sööm	0		S	sg g
     	sööm	0		S	sg p
,	,			Z	
sealt	sealt	0		D	
     	siga	lt		A	sg abl
     	siga	lt		S	sg abl
varastati	varasta	ti		V	ti
hobune	hobune	0		S	sg n
kõige	kõik	0		P	sg g
     	kõige	0		D	
vilja	vili	0		S	adt
     	vili	0		S	sg g
     	vili	0		S	sg p
koormaga	koorem	ga		S	sg kom
ära	ära	0		D	
   	ära	0		V	neg o
,	,			Z	
3	3	0		N	?
1	1	0		N	?
/	/			Z	
2	2	0		N	?
l	l	0		Y	?
oli	ole	i		V	s
vilja	vili	0		S	adt
     	vili	0		S	sg g
     	vili	0		S	sg p
ree	regi	0		S	sg g
peal	pea	l		S	sg ad
    	peal	0		D	
    	peal	0		K	
.	.			Z	
kohtu	kohtu	0		V	o
     	kohus	0		S	sg g
leppitamisel	####				
saavad	saa	vad		V	vad
      	saav	d		A	pl n
      	saav	d		S	pl n
mõlemad	mõlema	d		P	pl n
mehed	mees	d		S	pl n
korda	kord	0		S	adt
     	korda	0		V	o
     	kord	0		S	sg p
,	,			Z	
et	et	0		J	
Jaan	Jaan	0		H	sg n
    	jaan	0		S	sg n
    	jaan	0		Y	?
Kempmann	####				
omahobuse	oma_hobune	0		S	sg g
ree	regi	0		S	sg g
ja	ja	0		J	
riistad	riist	d		S	pl n
jätab	jät	b		V	b
63	63	0		N	?
/	/			Z	
kuuskümmend	kuus_kümmend	0		N	sg n
kolm	kolm	0		N	sg n
/	/			Z	
rbl	rbl	0		Y	?
alla	alla	0		D	
    	alla	0		K	
ja	ja	0		J	
Jaagup	Jaagup	0		H	sg n
Palmros	####				
maksab	maks	b		V	b
sellest	see	st		P	sg el
rahast	raha	st		S	sg el
täna	täna	0		D	
    	täna	0		V	o
kohtu	kohtu	0		V	o
     	kohus	0		S	sg g
ees	ees	0		D	
   	ees	0		K	
   	esi	s		S	sg in
50	50	0		N	?
rbl	rbl	0		Y	?
.	.			Z	
välja	välja	0		D	
     	välja	0		V	o
     	väli	0		S	adt
     	väli	0		S	sg g
     	väli	0		S	sg p
ja	ja	0		J	
lubab	luba	b		V	b
ühe	üks	0		N	sg g
   	üks	0		P	sg g
   	ühe	0		S	sg n
nädala	nädal	0		S	sg g
pärast	pära	st		S	sg el
      	pärane	t		A	sg p
      	pärast	0		D	
      	pärast	0		K	
veel	veel	0		D	
    	vesi	l		S	sg ad
13	13	0		N	?
rbl	rbl	0		Y	?
.	.			Z	
maksta	maks	ta		V	da
      	maks	ta		V	ta
,	,			Z	
sellega	see	ga		P	sg kom
on	ole	0		V	b
  	ole	0		V	vad
asi	asi	0		S	sg n
   	asi	0		V	o
lepitud	leppi	tud		V	tud
       	lepi=tu	d		S	pl n
       	lepi=tud	0		A	
       	lepi=tud	0		A	sg n
       	lepi=tud	d		A	pl n
ja	ja	0		J	
lõpetatud	lõpeta	tud		V	tud
         	lõpeta=tu	d		S	pl n
         	lõpetatud	0		A	
         	lõpetatud	0		A	sg n
         	lõpetatud	d		A	pl n
.	.			Z	
63	63	0		N	?
rbl	rbl	0		Y	?
.	.			Z	
makstud	maks	tud		V	tud
       	maks=tu	d		S	pl n
       	maks=tud	0		A	
       	maks=tud	0		A	sg n
       	maks=tud	d		A	pl n
kõik	kõik	0		P	pl n
    	kõik	0		S	sg n
    	kõik	0		P	sg n
ja	ja	0		J	
Jaan	Jaan	0		H	sg n
    	jaan	0		S	sg n
    	jaan	0		Y	?
empkmanni	####				
kätte	kätte	0		K	
     	käsi	tte		S	adt
antud	an=tu	d		S	pl n
     	and	tud		V	tud
     	antud	0		A	
     	antud	0		A	sg n
     	antud	d		A	pl n
ehkuil	####				
