Harmist	####				
.	.			Z	
Uuemõisast	uue_mõis	st		S	sg el
.	.			Z	
Nekruti	nekrut	0		S	sg g
naine	naine	0		S	sg n
Ann	Ann	0		H	sg n
Ling	ling	0		S	sg n
kaebab	kaeba	b		V	b
Uuemõisa	uue_mõis	0		S	sg g
renthärra	rent_härra	0		S	sg g
         	rent_härra	0		S	sg n
tüdruku	tüdruk	0		S	sg g
Leenu	Leenu	0		H	sg g
     	Leenu	0		H	sg n
UndiVilja	####				
peale	pea	le		S	sg all
     	peale	0		D	
     	peale	0		K	
,	,			Z	
et	et	0		J	
nimetatud	nimeta	tud		V	tud
         	nimetatu	d		S	pl n
         	nimetatud	0		A	
         	nimetatud	0		A	sg n
         	nimetatud	d		A	pl n
tüdruk	tüdruk	0		S	sg n
Leenu	Leenu	0		H	sg g
     	Leenu	0		H	sg n
Undivill	####				
kelle	kes	0		P	pl g
     	kes	0		P	sg g
kirstu	kirst	0		S	adt
      	kirst	0		S	sg g
      	kirst	0		S	sg p
se	####				
nekruti	nekrut	0		S	sg g
naine	naine	0		S	sg n
An	####				
Ling	ling	0		S	sg n
oma	oma	0		A	sg g
   	oma	0		D	
   	oma	0		P	sg g
   	oma	0		S	sg g
   	oma	0		V	o
   	oma	0		A	sg n
   	oma	0		A	sg p
   	oma	0		P	sg n
   	oma	0		P	sg p
   	oma	0		S	sg n
   	oma	0		S	sg p
raha	raha	0		S	sg g
    	raha	0		S	sg n
    	raha	0		S	sg p
on	ole	0		V	b
  	ole	0		V	vad
hoida	hoid	a		V	da
andnud	and	nud		V	nud
      	and=nu	d		S	pl n
      	and=nud	0		A	
      	and=nud	0		A	sg n
      	and=nud	d		A	pl n
,	,			Z	
ühe	üks	0		N	sg g
   	üks	0		P	sg g
   	ühe	0		S	sg n
on	ole	0		V	b
  	ole	0		V	vad
peale	pea	le		S	sg all
     	peale	0		D	
     	peale	0		K	
,	,			Z	
seda	see	da		P	sg p
raha	raha	0		S	sg g
    	raha	0		S	sg n
    	raha	0		S	sg p
ütleb	ütle	b		V	b
kadunud	kadu	nud		V	nud
       	kadunu	d		S	pl n
       	kadunud	0		A	
       	kadunud	0		A	sg n
       	kadunud	d		A	pl n
olevat	ole	vat		V	vat
      	olev	t		A	sg p
      	olev	t		S	sg p
,	,			Z	
ja	ja	0		J	
pakub	pakku	b		V	b
nüüd	nüüd	0		D	
poole	pool	0		N	sg g
     	pool	0		S	sg g
     	pool	e		S	pl p
     	poole	0		K	
     	poole	0		S	sg n
sest	see	st		P	sg el
    	sest	0		J	
rahast	raha	st		S	sg el
temal	tema	l		P	sg ad
mis	mis	0		P	pl n
   	mis	0		P	sg n
ta	tema	0		P	sg g
  	tema	0		P	sg n
omast	oma	st		A	sg el
     	oma	st		P	sg el
     	oma	st		S	sg el
     	omane	t		A	sg p
taskust	tasku	st		S	sg el
ütleb	ütle	b		V	b
maksvad	maksev	d		A	pl n
.	.			Z	
Leenu	Leenu	0		H	sg g
     	Leenu	0		H	sg n
Undivill	####				
vastab	vasta	b		V	b
selle	see	0		P	sg g
     	sell	e		S	pl p
peale	pea	le		S	sg all
     	peale	0		D	
     	peale	0		K	
:	:			Z	
et	et	0		J	
tema	tema	0		P	sg g
    	tema	0		P	sg n
kõrso	####				
on	ole	0		V	b
  	ole	0		V	vad
se	####				
naine	naine	0		S	sg n
Ann	Ann	0		H	sg n
Ling	ling	0		S	sg n
küll	küll	0		D	
    	küll	0		S	sg n
oma	oma	0		A	sg g
   	oma	0		D	
   	oma	0		P	sg g
   	oma	0		S	sg g
   	oma	0		V	o
   	oma	0		A	sg n
   	oma	0		A	sg p
   	oma	0		P	sg n
   	oma	0		P	sg p
   	oma	0		S	sg n
   	oma	0		S	sg p
raha	raha	0		S	sg g
    	raha	0		S	sg n
    	raha	0		S	sg p
hoida	hoid	a		V	da
andnud	and	nud		V	nud
      	and=nu	d		S	pl n
      	and=nud	0		A	
      	and=nud	0		A	sg n
      	and=nud	d		A	pl n
,	,			Z	
aga	aga	0		J	
se	####				
olla	ole	a		V	da
tõesti	tõesti	0		D	
sel	see	l		P	sg ad
   	sel	0		Y	?
öösel	öösel	0		D	
sealt	sealt	0		D	
     	siga	lt		A	sg abl
     	siga	lt		S	sg abl
just	just	0		D	
    	just	0		I	
ärakadunud	ära_kadunu	d		S	pl n
          	ära_kadunud	0		A	
          	ära_kadunud	0		A	sg n
          	ära_kadunud	d		A	pl n
,	,			Z	
nüüd	nüüd	0		D	
aga	aga	0		J	
lubab	luba	b		V	b
tema	tema	0		P	sg g
    	tema	0		P	sg n
Ann	Ann	0		H	sg n
Linkile	####				
seda	see	da		P	sg p
raha	raha	0		S	sg g
    	raha	0		S	sg n
    	raha	0		S	sg p
,	,			Z	
sellepärast	selle_pärast	0		D	
et	et	0		J	
se	####				
tema	tema	0		P	sg g
    	tema	0		P	sg n
kirstust	kirst	st		S	sg el
lukku	lukk	0		S	adt
     	lukku	0		D	
     	lukku	0		V	o
     	lugu	0		S	adt
     	lukk	0		S	sg p
taga	taga	0		D	
    	taga	0		K	
    	taga	0		V	o
on	ole	0		V	b
  	ole	0		V	vad
ärakadunud	ära_kadunu	d		S	pl n
          	ära_kadunud	0		A	
          	ära_kadunud	0		A	sg n
          	ära_kadunud	d		A	pl n
,	,			Z	
omast	oma	st		A	sg el
     	oma	st		P	sg el
     	oma	st		S	sg el
     	omane	t		A	sg p
käest	käest	0		K	
     	käsi	st		S	sg el
kõik	kõik	0		P	pl n
    	kõik	0		S	sg n
    	kõik	0		P	sg n
väljamaksta	####				
.	.			Z	
Ann	Ann	0		H	sg n
Ling	ling	0		S	sg n
on	ole	0		V	b
  	ole	0		V	vad
sellega	see	ga		P	sg kom
rahul	rahu	l		S	sg ad
     	rahul	0		D	
.	.			Z	
