kogu	kogu	0		A	
    	kogu	0		S	sg g
    	kogu	0		V	o
    	kogu	0		S	sg n
    	kogu	0		S	sg p
konna	konn	0		S	adt
     	konn	0		S	sg g
     	konn	0		S	sg p
kohus	kohu	s		V	s
     	kohus	0		S	sg n
koos	koos	0		D	
    	koos	0		K	
    	koos	0		S	sg n
    	kubu	s		S	sg in
vana	vana	0		A	sg g
    	vana	0		A	sg n
    	vana	0		A	sg p
    	vana	0		S	sg g
    	vana	0		S	sg n
    	vana	0		S	sg p
Riesepere	####				
mõisas	mõis	s		S	sg in
sel	see	l		P	sg ad
   	sel	0		Y	?
20ndal	20=s	l		O	sg ad
mail	maa	il		S	pl ad
    	mai	l		S	sg ad
    	mail	0		S	sg n
1867	1867	0		N	?
Lepiku	lepik	0		S	sg g
sauna	saun	0		S	adt
     	saun	0		S	sg g
     	saun	0		S	sg p
kae	kae	0		I	
   	kae	0		S	sg g
   	kae	0		V	o
   	kae	0		S	sg n
Lembert	####				
kaebab	kaeba	b		V	b
et	et	0		J	
Kärva	kärva	0		V	o
Jakobi	Jakob	0		H	sg g
naine	naine	0		S	sg n
ei	ei	0		D	
  	ei	0		V	neg
maksa	maks	0		S	adt
     	maks	0		S	sg g
     	maks	0		V	o
     	maks	0		S	sg p
tema	tema	0		P	sg g
    	tema	0		P	sg n
võlga	võlg	0		S	adt
     	võlg	0		S	sg p
ära	ära	0		D	
   	ära	0		V	neg o
mis	mis	0		P	pl n
   	mis	0		P	sg n
juba	juba	0		D	
üksteist	üks_teist	0		N	sg n
        	üks_teise	t		P	sg p
kümne	kümme	0		N	sg g
aasta	aasta	0		S	sg g
     	aasta	0		S	sg n
eest	eest	0		D	
    	eest	0		K	
    	esi	st		S	sg el
oli	ole	i		V	s
laenanud	laena	nud		V	nud
        	laena=nu	d		S	pl n
        	laena=nud	0		A	
        	laena=nud	0		A	sg n
        	laena=nud	d		A	pl n
50	50	0		N	?
kop	kop	0		Y	?
kui	kui	0		D	
   	kui	0		J	
Soldatid	soldat	d		S	pl n
on	ole	0		V	b
  	ole	0		V	vad
kordlesolnud	####				
ja	ja	0		J	
sellepärast	selle_pärast	0		D	
saikohtu	sai_kohus	0		S	sg g
ettekutsutud	ette_kutsutu	d		S	pl n
            	ette_kutsutud	0		A	
            	ette_kutsutud	0		A	sg n
            	ette_kutsutud	d		A	pl n
Kärva	kärva	0		V	o
Jakobi	Jakob	0		H	sg g
naine	naine	0		S	sg n
An	####				
ja	ja	0		J	
tema	tema	0		P	sg g
    	tema	0		P	sg n
tunnistas	tunnista	s		V	s
et	et	0		J	
se	####				
Lepiku	lepik	0		S	sg g
sauna	saun	0		S	adt
     	saun	0		S	sg g
     	saun	0		S	sg p
Kai	Kai	0		H	sg g
   	Kai	0		H	sg n
   	kai	0		S	sg g
   	kai	0		S	sg n
on	ole	0		V	b
  	ole	0		V	vad
seda	see	da		P	sg p
võlga	võlg	0		S	adt
     	võlg	0		S	sg p
juba	juba	0		D	
mitto	####				
korda	kord	0		S	adt
     	korda	0		V	o
     	kord	0		S	sg p
tasa	tasa	0		D	
teinud	tege	nud		V	nud
      	tei=nud	0		A	
      	tei=nud	0		A	sg n
      	tei=nud	d		A	pl n
      	teinu	d		S	pl n
aga	aga	0		J	
on	ole	0		V	b
  	ole	0		V	vad
ikka	ikka	0		D	
    	iga	0		S	adt
jälle	jälle	0		D	
pärima	päri	ma		V	ma
akanud	####				
ja	ja	0		J	
üks	üks	0		N	sg n
   	üks	0		P	sg n
sügise	sügis	0		S	sg g
on	ole	0		V	b
  	ole	0		V	vad
selle	see	0		P	sg g
     	sell	e		S	pl p
Lepiku	lepik	0		S	sg g
sauna	saun	0		S	adt
     	saun	0		S	sg g
     	saun	0		S	sg p
Kaiel	Kaie	l		H	sg ad
heade	hea	de		A	pl g
     	hea	de		S	pl g
seni	seni	0		D	
olnud	ol=nud	0		A	
     	ol=nud	0		A	sg n
     	ol=nud	d		A	pl n
     	ole	nud		V	nud
     	olnu	d		S	pl n
ja	ja	0		J	
siis	siis	0		D	
    	siis	0		J	
on	ole	0		V	b
  	ole	0		V	vad
se	####				
Jakobi	Jakob	0		H	sg g
naine	naine	0		S	sg n
Ann	Ann	0		H	sg n
lina	lina	0		S	sg g
    	lina	0		S	sg n
    	lina	0		S	sg p
läinud	läinu	d		S	pl n
      	läinud	0		A	
      	läinud	0		A	sg n
      	läinud	d		A	pl n
      	mine	nud		V	nud
ja	ja	0		J	
Kai	Kai	0		H	sg g
   	Kai	0		H	sg n
   	kai	0		S	sg g
   	kai	0		S	sg n
on	ole	0		V	b
  	ole	0		V	vad
tellinud	telli	nud		V	nud
        	telli=nu	d		S	pl n
        	telli=nud	0		A	
        	telli=nud	0		A	sg n
        	telli=nud	d		A	pl n
vii	vii	0		V	o
   	vii	0		O	?
minu	mina	0		P	sg g
seened	seen	d		S	pl n
ja	ja	0		J	
ka	ka	0		D	
mind	mina	d		P	sg p
ennast	ise	t		P	sg p
lina	lina	0		S	sg g
    	lina	0		S	sg n
    	lina	0		S	sg p
selle	see	0		P	sg g
     	sell	e		S	pl p
poole	pool	0		N	sg g
     	pool	0		S	sg g
     	pool	e		S	pl p
     	poole	0		K	
     	poole	0		S	sg n
rubbla	####				
eest	eest	0		D	
    	eest	0		K	
    	esi	st		S	sg el
ja	ja	0		J	
An	####				
on	ole	0		V	b
  	ole	0		V	vad
ka	ka	0		D	
seda	see	da		P	sg p
viinud	vii	nud		V	nud
      	vii=nu	d		S	pl n
      	vii=nud	0		A	
      	vii=nud	0		A	sg n
      	vii=nud	d		A	pl n
ja	ja	0		J	
ka	ka	0		D	
Kaie	Kaie	0		H	sg g
    	Kaie	0		H	sg n
ja	ja	0		J	
kõik	kõik	0		P	pl n
    	kõik	0		S	sg n
    	kõik	0		P	sg n
ta	tema	0		P	sg g
  	tema	0		P	sg n
kraami	kraam	0		S	adt
      	kraam	0		S	sg g
      	kraami	0		V	o
      	kraam	0		S	sg p
linnast	linn	st		S	sg el
tagasi	tagasi	0		D	
      	tagasi	0		K	
toonudja	####				
siis	siis	0		D	
    	siis	0		J	
on	ole	0		V	b
  	ole	0		V	vad
pidanud	pida	nud		V	nud
       	pida=nu	d		S	pl n
       	pida=nud	0		A	
       	pida=nud	0		A	sg n
       	pida=nud	d		A	pl n
õige	õige	0		A	sg g
    	õige	0		A	sg n
    	õige	0		D	
olema	ole	ma		V	ma
ja	ja	0		J	
Kai	Kai	0		H	sg g
   	Kai	0		H	sg n
   	kai	0		S	sg g
   	kai	0		S	sg n
tunnistas	tunnista	s		V	s
et	et	0		J	
tema	tema	0		P	sg g
    	tema	0		P	sg n
on	ole	0		V	b
  	ole	0		V	vad
Annile	Ann	le		H	sg all
      	and	le		S	sg all
      	Anni	le		H	sg all
vilja	vili	0		S	adt
     	vili	0		S	sg g
     	vili	0		S	sg p
lõikamas	lõika	mas		V	mas
olnud	ol=nud	0		A	
     	ol=nud	0		A	sg n
     	ol=nud	d		A	pl n
     	ole	nud		V	nud
     	olnu	d		S	pl n
ja	ja	0		J	
An	####				
ütleb	ütle	b		V	b
et	et	0		J	
se	####				
on	ole	0		V	b
  	ole	0		V	vad
kohe	kohe	0		A	sg n
    	kohe	0		D	
leiva	leib	0		S	sg g
ja	ja	0		J	
jahudega	jahu	dega		S	pl kom
ära	ära	0		D	
   	ära	0		V	neg o
tasutud	tasu	tud		V	tud
       	tasu=tu	d		S	pl n
       	tasu=tud	0		A	
       	tasu=tud	0		A	sg n
       	tasu=tud	d		A	pl n
ni	####				
kui	kui	0		D	
   	kui	0		J	
Talupojadel	talu_poja	del		S	pl ad
se	####				
moodon	####				
päevalistele	päeva=line	tele		A	pl all
maksta	maks	ta		V	da
      	maks	ta		V	ta
ja	ja	0		J	
kohus	kohu	s		V	s
     	kohus	0		S	sg n
mõistis	mõist	is		V	s
et	et	0		J	
An	####				
peab	pida	b		V	b
Kaiele	Kaie	le		H	sg all
maksma	maks	ma		V	ma
25	25	0		N	?
kopikase	kopikane	0		A	sg g
        	kopikane	0		S	sg g
selle	see	0		P	sg g
     	sell	e		S	pl p
pärast	pära	st		S	sg el
      	pärane	t		A	sg p
      	pärast	0		D	
      	pärast	0		K	
et	et	0		J	
se	####				
kõik	kõik	0		P	pl n
    	kõik	0		S	sg n
    	kõik	0		P	sg n
väga	väga	0		D	
kauaks	kauaks	0		D	
on	ole	0		V	b
  	ole	0		V	vad
jäänud	jää	nud		V	nud
      	jäänu	d		S	pl n
      	jäänud	0		A	
      	jäänud	0		A	sg n
      	jäänud	d		A	pl n
ja	ja	0		J	
ühtigi	ühtigi	0		D	
selget	selge	t		A	sg p
tunnistust	tunnistus	t		S	sg p
ei	ei	0		D	
  	ei	0		V	neg
või	või	0		S	sg g
   	või	0		V	o
   	või	0		D	
   	või	0		J	
   	või	0		S	sg n
saada	saa	da		V	da
     	saat	0		V	o
     	saa	da		V	ta
ja	ja	0		J	
keegi	kee	0	gi	S	sg g
     	kee	0	gi	V	o
     	keegi	0		P	sg n
     	kee	0	gi	S	sg n
nende	see	de		P	pl g
     	tema	de		P	pl g
kauba	kaup	0		S	sg g
juures	juur	s		S	sg in
      	juures	0		D	
      	juures	0		K	
ei	ei	0		D	
  	ei	0		V	neg
ole	ole	0		V	o
olnud	ol=nud	0		A	
     	ol=nud	0		A	sg n
     	ol=nud	d		A	pl n
     	ole	nud		V	nud
     	olnu	d		S	pl n
pealt	pea	lt		S	sg abl
     	pealt	0		D	
     	pealt	0		K	
kuulamas	kuula	mas		V	mas
;	;			Z	
kohtu	kohtu	0		V	o
     	kohus	0		S	sg g
peavanem	pea_vanem	0		C	sg n
        	pea_vanem	0		S	sg n
Otto	Otto	0		H	sg g
    	Otto	0		H	sg n
Meorwelt	####				
[	[			Z	
allkiri	all_kiri	0		S	sg n
]	]			Z	
kõrva	kõrv	0		S	adt
     	kõrv	0		S	sg g
     	kõrv	0		S	sg p
mees	mees	0		S	sg n
    	mesi	s		S	sg in
Jüri	Jüri	0		H	sg g
    	Jüri	0		H	sg n
Kil	####				
XXX	XXX	0		O	?
   	XXX	0		Y	?
kõrva	kõrv	0		S	adt
     	kõrv	0		S	sg g
     	kõrv	0		S	sg p
mees	mees	0		S	sg n
    	mesi	s		S	sg in
Hans	Hans	0		H	sg n
Einbach	####				
XXX	XXX	0		O	?
   	XXX	0		Y	?
