sell	sell	0		S	sg n
päeval	päev	l		S	sg ad
ei	ei	0		D	
  	ei	0		V	neg
olnud	ol=nud	0		A	
     	ol=nud	0		A	sg n
     	ol=nud	d		A	pl n
     	ole	nud		V	nud
     	olnu	d		S	pl n
kohtumõistmist	kohtu_mõistmine	t		S	sg p
.	.			Z	
