kohtu	kohtu	0		V	o
     	kohus	0		S	sg g
kurapärast	kura_pära	st		S	sg el
          	kura_pärane	t		A	sg p
olid	ole	id		V	sid
Triigi	triiki	0		V	o
valla	vald	0		S	sg g
     	valla	0		D	
kohtu	kohtu	0		V	o
     	kohus	0		S	sg g
majase	####				
koku	####				
tulnud	tul=nud	0		A	
      	tul=nud	0		A	sg n
      	tul=nud	d		A	pl n
      	tule	nud		V	nud
      	tulnu	d		S	pl n
:	:			Z	
kohtu	kohtu	0		V	o
     	kohus	0		S	sg g
vanem	vanem	0		C	sg n
     	vanem	0		S	sg n
Mihkel	Mihkel	0		H	sg n
      	mihkel	0		A	sg n
      	mihkel	0		S	sg n
Kauman	####				
kohtu	kohtu	0		V	o
     	kohus	0		S	sg g
käemees	käe_mees	0		S	sg n
Juhan	Juhan	0		H	sg n
Lehtmets	leht_mets	0		S	sg n
kohtu	kohtu	0		V	o
     	kohus	0		S	sg g
käemees	käe_mees	0		S	sg n
Jüri	Jüri	0		H	sg g
    	Jüri	0		H	sg n
Warmann	####				
kirjutaja	kirjutaja	0		S	sg g
         	kirjutaja	0		S	sg n
Mik	####				
Levet	####				
.	.			Z	
kohtu	kohtu	0		V	o
     	kohus	0		S	sg g
ette	ette	0		D	
    	ette	0		K	
    	esi	tte		S	adt
tuli	tuli	0		S	sg n
    	tule	i		V	s
kõrvehindreki	kõrve_hind_rekk	0		A	sg g
peremees	pere_mees	0		S	sg n
Jaak	Jaak	0		H	sg n
    	jaak	0		S	sg n
Allik	Allik	0		H	sg n
,	,			Z	
ja	ja	0		J	
kaebab	kaeba	b		V	b
et	et	0		J	
tema	tema	0		P	sg g
    	tema	0		P	sg n
on	ole	0		V	b
  	ole	0		V	vad
omale	oma	le		A	sg all
     	oma	le		P	sg all
     	oma	le		S	sg all
sulase	sulane	0		S	sg g
kaubelt	####				
Jaak	Jaak	0		H	sg n
    	jaak	0		S	sg n
Parsak	####				
Purdi	####				
vallast	vald	st		S	sg el
ja	ja	0		J	
aasta	aasta	0		S	sg g
     	aasta	0		S	sg n
peale	pea	le		S	sg all
     	peale	0		D	
     	peale	0		K	
kauba	kaup	0		S	sg g
teinud	tege	nud		V	nud
      	tei=nud	0		A	
      	tei=nud	0		A	sg n
      	tei=nud	d		A	pl n
      	teinu	d		S	pl n
,	,			Z	
aga	aga	0		J	
Jaak	Jaak	0		H	sg n
    	jaak	0		S	sg n
Parsak	####				
on	ole	0		V	b
  	ole	0		V	vad
aasta	aasta	0		S	sg g
     	aasta	0		S	sg n
pooleli	pooleli	0		D	
jätnud	jät	nud		V	nud
      	jät=nu	d		S	pl n
      	jät=nud	0		A	
      	jät=nud	0		A	sg n
      	jät=nud	d		A	pl n
ja	ja	0		J	
ära	ära	0		D	
   	ära	0		V	neg o
läinud	läinu	d		S	pl n
      	läinud	0		A	
      	läinud	0		A	sg n
      	läinud	d		A	pl n
      	mine	nud		V	nud
ja	ja	0		J	
Jaak	Jaak	0		H	sg n
    	jaak	0		S	sg n
Parsak	####				
sai	saa	i		V	s
   	sai	0		S	sg n
ette	ette	0		D	
    	ette	0		K	
    	esi	tte		S	adt
kutsutud	kutsu	tud		V	tud
        	kutsutu	d		S	pl n
        	kutsutud	0		A	
        	kutsutud	0		A	sg n
        	kutsutud	d		A	pl n
ja	ja	0		J	
küsitud	küsi	tud		V	tud
       	küsi=tu	d		S	pl n
       	küsi=tud	0		A	
       	küsi=tud	0		A	sg n
       	küsi=tud	d		A	pl n
et	et	0		J	
mis	mis	0		P	pl n
   	mis	0		P	sg n
ta	tema	0		P	sg g
  	tema	0		P	sg n
ära	ära	0		D	
   	ära	0		V	neg o
läinud	läinu	d		S	pl n
      	läinud	0		A	
      	läinud	0		A	sg n
      	läinud	d		A	pl n
      	mine	nud		V	nud
aga	aga	0		J	
temal	tema	l		P	sg ad
polnud	ole	nud		V	neg nud
midagi	miski	dagi		P	sg p
kaebdust	####				
peremehe	pere_mees	0		S	sg g
peale	pea	le		S	sg all
     	peale	0		D	
     	peale	0		K	
seepärast	see_pärast	0		D	
mõistis	mõist	is		V	s
kohus	kohu	s		V	s
     	kohus	0		S	sg n
et	et	0		J	
tema	tema	0		P	sg g
    	tema	0		P	sg n
peab	pida	b		V	b
tagasi	tagasi	0		D	
      	tagasi	0		K	
tulema	tule	ma		V	ma
peremehe	pere_mees	0		S	sg g
juure	juur	0		S	sg g
ja	ja	0		J	
Jaak	Jaak	0		H	sg n
    	jaak	0		S	sg n
Parsak	####				
lubas	luba	s		V	s
tagasi	tagasi	0		D	
      	tagasi	0		K	
tulla	tule	a		V	da
peremehe	pere_mees	0		S	sg g
juure	juur	0		S	sg g
kohe	kohe	0		A	sg n
    	kohe	0		D	
sel	see	l		P	sg ad
   	sel	0		Y	?
kohtu	kohtu	0		V	o
     	kohus	0		S	sg g
päeval	päev	l		S	sg ad
.	.			Z	
kohtu	kohtu	0		V	o
     	kohus	0		S	sg g
vanem	vanem	0		C	sg n
     	vanem	0		S	sg n
Mihkel	Mihkel	0		H	sg n
      	mihkel	0		A	sg n
      	mihkel	0		S	sg n
Kauman	####				
+	+			Z	
+	+			Z	
+	+			Z	
kohtu	kohtu	0		V	o
     	kohus	0		S	sg g
käemees	käe_mees	0		S	sg n
Jüri	Jüri	0		H	sg g
    	Jüri	0		H	sg n
Warman	####				
xxx	####				
kohtu	kohtu	0		V	o
     	kohus	0		S	sg g
käemees	käe_mees	0		S	sg n
Juhan	Juhan	0		H	sg n
Lehtmets	leht_mets	0		S	sg n
kirjutaja	kirjutaja	0		S	sg g
         	kirjutaja	0		S	sg n
M	M	0		O	?
 	M	0		Y	?
.	.			Z	
_	_			Z	
Levet	####				
.	.			Z	
