kohtu	kohtu	0		V	o
     	kohus	0		S	sg g
ette	ette	0		D	
    	ette	0		K	
    	esi	tte		S	adt
astusid	astu	sid		V	sid
Juhan	Juhan	0		H	sg n
kirsalt	kirsa	lt		S	sg abl
ja	ja	0		J	
Tamme	tamm	0		S	adt
     	tamm	0		S	sg g
     	tamm	e		S	pl p
     	tamm	0		S	sg p
Otsa	ots	0		S	adt
    	ots	0		S	sg g
    	otsa	0		D	
    	otsa	0		K	
    	otsa	0		V	o
    	ots	0		S	sg p
koha	koht	0		S	sg g
    	koha	0		S	sg g
    	koha	0		V	o
    	koha	0		S	sg n
    	koha	0		S	sg p
omanik	omanik	0		S	sg n
Kaarel	Kaarel	0		H	sg n
      	kaar	l		S	sg ad
      	kaarel	0		S	sg n
Reinde	####				
.	.			Z	
Kaarel	Kaarel	0		H	sg n
      	kaar	l		S	sg ad
      	kaarel	0		S	sg n
Reinde	####				
tunnistas	tunnista	s		V	s
,	,			Z	
et	et	0		J	
tema	tema	0		P	sg g
    	tema	0		P	sg n
on	ole	0		V	b
  	ole	0		V	vad
oma	oma	0		A	sg g
   	oma	0		D	
   	oma	0		P	sg g
   	oma	0		S	sg g
   	oma	0		V	o
   	oma	0		A	sg n
   	oma	0		A	sg p
   	oma	0		P	sg n
   	oma	0		P	sg p
   	oma	0		S	sg n
   	oma	0		S	sg p
Tame	####				
Otsa	ots	0		S	adt
    	ots	0		S	sg g
    	otsa	0		D	
    	otsa	0		K	
    	otsa	0		V	o
    	ots	0		S	sg p
Koha	koht	0		S	sg g
    	koha	0		S	sg g
    	koha	0		V	o
    	koha	0		S	sg n
    	koha	0		S	sg p
krundist	krunt	st		S	sg el
Juhan	Juhan	0		H	sg n
kirseldile	####				
müinud	####				
pool	pool	0		K	
    	pool	0		N	sg n
    	pool	0		S	sg n
vakamaad	vaka_maa	d		S	pl n
        	vaka_maa	d		S	sg p
maad	maa	d		S	pl n
    	maa	d		S	sg p
,	,			Z	
kus	kus	0		D	
J	J	0		Y	?
kirsalt	kirsa	lt		S	sg abl
omale	oma	le		A	sg all
     	oma	le		P	sg all
     	oma	le		S	sg all
on	ole	0		V	b
  	ole	0		V	vad
ühe	üks	0		N	sg g
   	üks	0		P	sg g
   	ühe	0		S	sg n
maea	####				
peale	pea	le		S	sg all
     	peale	0		D	
     	peale	0		K	
ehitanud	ehita	nud		V	nud
        	ehita=nu	d		S	pl n
        	ehita=nud	0		A	
        	ehita=nud	0		A	sg n
        	ehita=nud	d		A	pl n
see	see	0		P	sg n
jääb	jää	b		V	b
J	J	0		Y	?
kirseldile	####				
jäädavaks	jäädav	ks		A	sg tr
päranduseks	pärandus	ks		S	sg tr
ja	ja	0		J	
ta	tema	0		P	sg g
  	tema	0		P	sg n
on	ole	0		V	b
  	ole	0		V	vad
Kaarel	Kaarel	0		H	sg n
      	kaar	l		S	sg ad
      	kaarel	0		S	sg n
Reindele	####				
selle	see	0		P	sg g
     	sell	e		S	pl p
eest	eest	0		D	
    	eest	0		K	
    	esi	st		S	sg el
maksnud	maks	nud		V	nud
       	maks=nu	d		S	pl n
       	maks=nud	0		A	
       	maks=nud	0		A	sg n
       	maks=nud	d		A	pl n
4	4	0		N	?
rubla	rubla	0		S	sg g
     	rubla	0		S	sg n
     	rubla	0		S	sg p
(	(			Z	
neli	neli	0		N	sg n
rubla	rubla	0		S	sg g
     	rubla	0		S	sg n
     	rubla	0		S	sg p
)	)			Z	
