sel	see	l		P	sg ad
   	sel	0		Y	?
tänasel	tänane	l		A	sg ad
päeval	päev	l		S	sg ad
tulid	tule	id		V	sid
kokku	kokku	0		D	
     	kogu	0		S	adt
Leheta	leht	ta		S	sg ab
valla	vald	0		S	sg g
     	valla	0		D	
saadikud	saadik	d		S	pl n
,	,			Z	
ja	ja	0		J	
kõik	kõik	0		P	pl n
    	kõik	0		S	sg n
    	kõik	0		P	sg n
perekoha	pere_koht	0		S	sg g
rentnikut	####				
,	,			Z	
ja	ja	0		J	
valitsisid	####				
valla	vald	0		S	sg g
     	valla	0		D	
politsei	politsei	0		S	sg g
        	politsei	0		S	sg n
ülevatamise	####				
al	####				
,	,			Z	
perekoharennikkude	####				
sead	sead	d		V	d
    	siga	d		A	pl n
    	siga	d		S	pl n
,	,			Z	
ühe	üks	0		N	sg g
   	üks	0		P	sg g
   	ühe	0		S	sg n
uue	uus	0		A	sg g
talitaja	talitaja	0		S	sg g
        	talitaja	0		S	sg n
Vainu	vainu	0		S	sg g
     	vainu	0		S	sg n
perekoha	pere_koht	0		S	sg g
rentniku	rentnik	0		S	sg g
Andres	Andre	s		H	sg in
      	Andres	0		H	sg n
Simsoni	####				
asemele	ase	le		S	sg all
       	asemele	0		D	
       	asemele	0		K	
kes	kes	0		P	pl n
   	kes	0		P	sg n
haiguse	haigus	0		S	sg g
pärast	pära	st		S	sg el
      	pärane	t		A	sg p
      	pärast	0		D	
      	pärast	0		K	
saab	saa	b		V	b
talitajast	talitaja	st		S	sg el
lahti	laht	i		S	pl p
     	lahti	0		D	
mõistetud	mõist	tud		V	tud
         	mõiste=tu	d		S	pl n
         	mõiste=tud	0		A	
         	mõiste=tud	0		A	sg n
         	mõiste=tud	d		A	pl n
et	et	0		J	
tema	tema	0		P	sg g
    	tema	0		P	sg n
enam	enam	0		C	sg n
    	enam	0		D	
ei	ei	0		D	
  	ei	0		V	neg
või	või	0		S	sg g
   	või	0		V	o
   	või	0		D	
   	või	0		J	
   	või	0		S	sg n
mitte	mitte	0		D	
valla	vald	0		S	sg g
     	valla	0		D	
asjad	asi	d		S	pl n
toimetada	toimeta	da		V	da
.	.			Z	
