Vaata	vaata	0		V	o
protokolle	protokoll	e		S	pl p
N 30	N30	0		Y	?
s	s	0		Y	?
.	.			Z	
a	a	0		Y	?
sai	saa	i		V	s
   	sai	0		S	sg n
ette	ette	0		D	
    	ette	0		K	
    	esi	tte		S	adt
kutsutud	kutsu	tud		V	tud
        	kutsutu	d		S	pl n
        	kutsutud	0		A	
        	kutsutud	0		A	sg n
        	kutsutud	d		A	pl n
Vasjale	Vasja	le		H	sg all
kõrtsi	kõrts	0		S	adt
      	kõrts	0		S	sg g
      	kõrts	0		S	sg p
naine	naine	0		S	sg n
Leenu	Leenu	0		H	sg g
     	Leenu	0		H	sg n
Reinap	####				
,	,			Z	
astus	astu	s		V	s
aga	aga	0		J	
ette	ette	0		D	
    	ette	0		K	
    	esi	tte		S	adt
kõrtsmik	kõrtsmik	0		S	sg n
Kaarel	Kaarel	0		H	sg n
      	kaar	l		S	sg ad
      	kaarel	0		S	sg n
Reinap	####				
oma	oma	0		A	sg g
   	oma	0		D	
   	oma	0		P	sg g
   	oma	0		S	sg g
   	oma	0		V	o
   	oma	0		A	sg n
   	oma	0		A	sg p
   	oma	0		P	sg n
   	oma	0		P	sg p
   	oma	0		S	sg n
   	oma	0		S	sg p
naise	naine	0		S	sg g
asemele	ase	le		S	sg all
       	asemele	0		D	
       	asemele	0		K	
,	,			Z	
sest	see	st		P	sg el
    	sest	0		J	
naine	naine	0		S	sg n
on	ole	0		V	b
  	ole	0		V	vad
haiglane	haiglane	0		A	sg n
olnud	ol=nud	0		A	
     	ol=nud	0		A	sg n
     	ol=nud	d		A	pl n
     	ole	nud		V	nud
     	olnu	d		S	pl n
.	.			Z	
kõrtsmik	kõrtsmik	0		S	sg n
Kaarel	Kaarel	0		H	sg n
      	kaar	l		S	sg ad
      	kaarel	0		S	sg n
Reinap	####				
ütles	ütle	s		V	s
,	,			Z	
et	et	0		J	
tema	tema	0		P	sg g
    	tema	0		P	sg n
on	ole	0		V	b
  	ole	0		V	vad
seda	see	da		P	sg p
tüli	tüli	0		S	sg g
    	tüli	0		S	sg n
    	tüli	0		S	sg p
niisamuti	nii_samuti	0		D	
näinud	näi	nud		V	nud
      	näge	nud		V	nud
      	näi=nud	0		A	
      	näi=nud	0		A	sg n
      	näi=nud	d		A	pl n
      	näinu	d		S	pl n
ja	ja	0		J	
kuulnud	kuul	nud		V	nud
       	kuul=nud	0		A	
       	kuul=nud	0		A	sg n
       	kuul=nud	d		A	pl n
       	kuulnu	d		S	pl n
kui	kui	0		D	
   	kui	0		J	
tema	tema	0		P	sg g
    	tema	0		P	sg n
naine	naine	0		S	sg n
,	,			Z	
sest	see	st		P	sg el
    	sest	0		J	
se	####				
tüli	tüli	0		S	sg g
    	tüli	0		S	sg n
    	tüli	0		S	sg p
olnud	ol=nud	0		A	
     	ol=nud	0		A	sg n
     	ol=nud	d		A	pl n
     	ole	nud		V	nud
     	olnu	d		S	pl n
nõnda	nõnda	0		D	
:	:			Z	
Aruküla	aru_küla	0		S	sg g
       	aru_küla	0		S	sg n
       	aru_küla	0		S	sg p
vallast	vald	st		S	sg el
Jaan	Jaan	0		H	sg n
    	jaan	0		S	sg n
    	jaan	0		Y	?
Solbruk	####				
on	ole	0		V	b
  	ole	0		V	vad
lasknud	lask	nud		V	nud
       	lask=nu	d		S	pl n
       	lask=nud	0		A	
       	lask=nud	0		A	sg n
       	lask=nud	d		A	pl n
omale	oma	le		A	sg all
     	oma	le		P	sg all
     	oma	le		S	sg all
üks	üks	0		N	sg n
   	üks	0		P	sg n
pudel	pudel	0		S	sg n
õlut	õlu	t		S	sg p
tuua	too	a		V	da
tema	tema	0		P	sg g
    	tema	0		P	sg n
(	(			Z	
kõrtsmiku	kõrtsmik	0		S	sg g
)	)			Z	
elu	elu	0		S	sg g
   	elu	0		S	sg n
   	elu	0		S	sg p
kambri	kamber	0		S	sg g
ja	ja	0		J	
Arukülast	aru_küla	st		S	sg el
Mart	Mart	0		H	sg n
    	mart	0		S	sg n
Kaar	kaar	0		S	sg n
olnud	ol=nud	0		A	
     	ol=nud	0		A	sg n
     	ol=nud	d		A	pl n
     	ole	nud		V	nud
     	olnu	d		S	pl n
ka	ka	0		D	
seal	seal	0		D	
    	siga	l		A	sg ad
    	siga	l		S	sg ad
Solbrukki	####				
seltsis	selts	s		S	sg in
       	seltsi	s		V	s
       	seltsis	0		D	
       	seltsis	0		K	
,	,			Z	
aga	aga	0		J	
Arukülast	aru_küla	st		S	sg el
Andrei	Andrei	0		H	sg g
      	Andrei	0		H	sg n
Rosenberg	Rosenberg	0		H	sg n
on	ole	0		V	b
  	ole	0		V	vad
õuest	õu	st		S	sg el
     	õuest	0		D	
täis	täi	s		S	sg in
    	täi	s		V	s
    	täis	0		A	
    	täis	0		A	sg n
    	täis	0		D	
    	täis	0		S	sg n
joobnud	joobnu	d		S	pl n
       	joobnud	0		A	
       	joobnud	0		A	sg n
       	joobnud	d		A	pl n
kõrtsi	kõrts	0		S	adt
      	kõrts	0		S	sg g
      	kõrts	0		S	sg p
tuppa	tuba	0		S	adt
tulnud	tul=nud	0		A	
      	tul=nud	0		A	sg n
      	tul=nud	d		A	pl n
      	tule	nud		V	nud
      	tulnu	d		S	pl n
ja	ja	0		J	
läinud	läinu	d		S	pl n
      	läinud	0		A	
      	läinud	0		A	sg n
      	läinud	d		A	pl n
      	mine	nud		V	nud
kohe	kohe	0		A	sg n
    	kohe	0		D	
sinna	sinna	0		D	
kambri	kamber	0		S	sg g
kus	kus	0		D	
Solbruk	####				
ja	ja	0		J	
kääs	####				
olnud	ol=nud	0		A	
     	ol=nud	0		A	sg n
     	ol=nud	d		A	pl n
     	ole	nud		V	nud
     	olnu	d		S	pl n
;	;			Z	
Rosenberg	Rosenberg	0		H	sg n
on	ole	0		V	b
  	ole	0		V	vad
kohe	kohe	0		A	sg n
    	kohe	0		D	
laualt	laud	lt		S	sg abl
selle	see	0		P	sg g
     	sell	e		S	pl p
ole	ole	0		V	o
pudeli	pudel	0		S	sg g
võtnud	võt	nud		V	nud
      	võt=nu	d		S	pl n
      	võt=nud	0		A	
      	võt=nud	0		A	sg n
      	võt=nud	d		A	pl n
mis	mis	0		P	pl n
   	mis	0		P	sg n
Solbruk	####				
omale	oma	le		A	sg all
     	oma	le		P	sg all
     	oma	le		S	sg all
tellis	telli	s		V	s
      	tellis	0		S	sg n
ja	ja	0		J	
kaldanud	####				
klaasi	klaas	0		S	adt
      	klaas	0		S	sg g
      	klaasi	0		V	o
      	klaas	0		S	sg p
ja	ja	0		J	
joonud	joo	nud		V	nud
      	joo=nu	d		S	pl n
      	joo=nud	0		A	
      	joo=nud	0		A	sg n
      	joo=nud	d		A	pl n
välja	välja	0		D	
     	välja	0		V	o
     	väli	0		S	adt
     	väli	0		S	sg g
     	väli	0		S	sg p
,	,			Z	
aga	aga	0		J	
Solbruk	####				
öelnud	öel=nu	d		S	pl n
      	öel=nud	0		A	
      	öel=nud	0		A	sg n
      	öel=nud	d		A	pl n
      	ütle	nud		V	nud
siis	siis	0		D	
    	siis	0		J	
Rosenbergile	Rosenberg	le		H	sg all
kui	kui	0		D	
   	kui	0		J	
sa	sina	0		P	sg n
oled	ole	d		V	d
oma	oma	0		A	sg g
   	oma	0		D	
   	oma	0		P	sg g
   	oma	0		S	sg g
   	oma	0		V	o
   	oma	0		A	sg n
   	oma	0		A	sg p
   	oma	0		P	sg n
   	oma	0		P	sg p
   	oma	0		S	sg n
   	oma	0		S	sg p
volika	####				
välja	välja	0		D	
     	välja	0		V	o
     	väli	0		S	adt
     	väli	0		S	sg g
     	väli	0		S	sg p
kaldanud	####				
,	,			Z	
siis	siis	0		D	
    	siis	0		J	
pead	pea	d		S	pl n
    	pida	d		V	d
    	pea	d		S	sg p
selle	see	0		P	sg g
     	sell	e		S	pl p
pudeli	pudel	0		S	sg g
välja	välja	0		D	
     	välja	0		V	o
     	väli	0		S	adt
     	väli	0		S	sg g
     	väli	0		S	sg p
maksma	maks	ma		V	ma
ja	ja	0		J	
Solbruk	####				
lasknud	lask	nud		V	nud
       	lask=nu	d		S	pl n
       	lask=nud	0		A	
       	lask=nud	0		A	sg n
       	lask=nud	d		A	pl n
omale	oma	le		A	sg all
     	oma	le		P	sg all
     	oma	le		S	sg all
teise	teine	0		O	adt
     	teine	0		O	sg g
     	teine	0		P	adt
     	teine	0		P	sg g
ole	ole	0		V	o
pudeli	pudel	0		S	sg g
tuua	too	a		V	da
.	.			Z	
ja	ja	0		J	
kõrtsmik	kõrtsmik	0		S	sg n
on	ole	0		V	b
  	ole	0		V	vad
ka	ka	0		D	
nõudnud	nõud	nud		V	nud
       	nõud=nu	d		S	pl n
       	nõud=nud	0		A	
       	nõud=nud	0		A	sg n
       	nõud=nud	d		A	pl n
et	et	0		J	
Rosenberg	Rosenberg	0		H	sg n
peab	pida	b		V	b
se	####				
ole	ole	0		V	o
pudel	pudel	0		S	sg n
välja	välja	0		D	
     	välja	0		V	o
     	väli	0		S	adt
     	väli	0		S	sg g
     	väli	0		S	sg p
maksma	maks	ma		V	ma
aga	aga	0		J	
tema	tema	0		P	sg g
    	tema	0		P	sg n
ei	ei	0		D	
  	ei	0		V	neg
ole	ole	0		V	o
maksnud	maks	nud		V	nud
       	maks=nu	d		S	pl n
       	maks=nud	0		A	
       	maks=nud	0		A	sg n
       	maks=nud	d		A	pl n
,	,			Z	
mis	mis	0		P	pl n
   	mis	0		P	sg n
praegu	praegu	0		D	
veel	veel	0		D	
    	vesi	l		S	sg ad
võlga	võlg	0		S	adt
     	võlg	0		S	sg p
on	ole	0		V	b
  	ole	0		V	vad
.	.			Z	
ja	ja	0		J	
Rae	raad	0		S	sg g
vallast	vald	st		S	sg el
Kesa	kesa	0		S	sg g
    	kesa	0		S	sg n
    	kesa	0		S	sg p
peremees	pere_mees	0		S	sg n
Hans	Hans	0		H	sg n
Lenkmann	####				
istunud	istu	nud		V	nud
       	istu=nu	d		S	pl n
       	istu=nud	0		A	
       	istu=nud	0		A	sg n
       	istu=nud	d		A	pl n
ka	ka	0		D	
seal	seal	0		D	
    	siga	l		A	sg ad
    	siga	l		S	sg ad
kambris	kamber	s		S	sg in
ja	ja	0		J	
ajanud	aja	nud		V	nud
      	aja=nu	d		S	pl n
      	aja=nud	0		A	
      	aja=nud	0		A	sg n
      	aja=nud	d		A	pl n
kõrtsi	kõrts	0		S	adt
      	kõrts	0		S	sg g
      	kõrts	0		S	sg p
naisega	naine	ga		S	sg kom
juttu	jutt	0		S	adt
     	jutt	0		S	sg p
ja	ja	0		J	
Lenkmann	####				
öönud	####				
ka	ka	0		D	
Andrei	Andrei	0		H	sg g
      	Andrei	0		H	sg n
Rosenbergile	Rosenberg	le		H	sg all
:	:			Z	
""""	""""			Z	
sa	sina	0		P	sg n
pead	pea	d		S	pl n
    	pida	d		V	d
    	pea	d		S	sg p
ikka	ikka	0		D	
    	iga	0		S	adt
selle	see	0		P	sg g
     	sell	e		S	pl p
pudeli	pudel	0		S	sg g
õlut	õlu	t		S	sg p
välja	välja	0		D	
     	välja	0		V	o
     	väli	0		S	adt
     	väli	0		S	sg g
     	väli	0		S	sg p
maksma	maks	ma		V	ma
mis	mis	0		P	pl n
   	mis	0		P	sg n
sa	sina	0		P	sg n
oled	ole	d		V	d
ära	ära	0		D	
   	ära	0		V	neg o
joonud	joo	nud		V	nud
      	joo=nu	d		S	pl n
      	joo=nud	0		A	
      	joo=nud	0		A	sg n
      	joo=nud	d		A	pl n
,	,			Z	
selle	see	0		P	sg g
     	sell	e		S	pl p
peale	pea	le		S	sg all
     	peale	0		D	
     	peale	0		K	
on	ole	0		V	b
  	ole	0		V	vad
Rosenberg	Rosenberg	0		H	sg n
öönud	####				
Hans	Hans	0		H	sg n
Lenkmann'ile	####				
ah	ah	0		D	
  	ah	0		I	
so	so	0		Y	?
""""	""""			Z	
Sinul	sina	l		P	sg ad
on	ole	0		V	b
  	ole	0		V	vad
tüdrukuga	tüdruk	ga		S	sg kom
laps	laps	0		S	sg n
ja	ja	0		J	
ei	ei	0		D	
  	ei	0		V	neg
ole	ole	0		V	o
seda	see	da		P	sg p
välja	välja	0		D	
     	välja	0		V	o
     	väli	0		S	adt
     	väli	0		S	sg g
     	väli	0		S	sg p
maksnud	maks	nud		V	nud
       	maks=nu	d		S	pl n
       	maks=nud	0		A	
       	maks=nud	0		A	sg n
       	maks=nud	d		A	pl n
,	,			Z	
ja	ja	0		J	
mina	mina	0		P	sg n
    	mina	0		S	sg g
    	mina	0		S	sg n
    	mina	0		S	sg p
pean	pida	n		V	n
se	####				
pudel	pudel	0		S	sg n
õlust	õlg	ust		S	pl el
välja	välja	0		D	
     	välja	0		V	o
     	väli	0		S	adt
     	väli	0		S	sg g
     	väli	0		S	sg p
maksma	maks	ma		V	ma
.	.			Z	
selle	see	0		P	sg g
     	sell	e		S	pl p
üle	üle	0		D	
   	üle	0		K	
kohtu	kohtu	0		V	o
     	kohus	0		S	sg g
laimamise	laimamine	0		S	sg g
peale	pea	le		S	sg all
     	peale	0		D	
     	peale	0		K	
on	ole	0		V	b
  	ole	0		V	vad
pärinud	päri	nud		V	nud
       	päri=nu	d		S	pl n
       	päri=nud	0		A	
       	päri=nud	0		A	sg n
       	päri=nud	d		A	pl n
Hans	Hans	0		H	sg n
Lenkmann	####				
Rosenberg	Rosenberg	0		H	sg n
kääst	####				
tõeks	tõde	ks		S	sg tr
     	tõsi	ks		S	sg tr
tegemist	tegemine	t		S	sg p
kus	kus	0		D	
se	####				
tüdruk	tüdruk	0		S	sg n
on	ole	0		V	b
  	ole	0		V	vad
kellega	kes	ga		P	pl kom
       	kes	ga		P	sg kom
temal	tema	l		P	sg ad
se	####				
laps	laps	0		S	sg n
on	ole	0		V	b
  	ole	0		V	vad
,	,			Z	
siis	siis	0		D	
    	siis	0		J	
võtnud	võt	nud		V	nud
      	võt=nu	d		S	pl n
      	võt=nud	0		A	
      	võt=nud	0		A	sg n
      	võt=nud	d		A	pl n
Hans	Hans	0		H	sg n
Lenkmann	####				
Rosenberg	Rosenberg	0		H	sg n
küljest	külg	st		S	sg el
       	küljest	0		D	
       	küljest	0		K	
kinni	kinni	0		D	
ja	ja	0		J	
lükanud	lükka	nud		V	nud
       	lüka=nu	d		S	pl n
       	lüka=nud	0		A	
       	lüka=nud	0		A	sg n
       	lüka=nud	d		A	pl n
teda	tema	da		P	sg p
kambrist	kamber	st		S	sg el
ja	ja	0		J	
leti	lett	0		S	sg g
taga	taga	0		D	
    	taga	0		K	
    	taga	0		V	o
välja	välja	0		D	
     	välja	0		V	o
     	väli	0		S	adt
     	väli	0		S	sg g
     	väli	0		S	sg p
kõrtsi	kõrts	0		S	adt
      	kõrts	0		S	sg g
      	kõrts	0		S	sg p
ette	ette	0		D	
    	ette	0		K	
    	esi	tte		S	adt
rahva	rahvas	0		S	sg g
tuppa	tuba	0		S	adt
,	,			Z	
aga	aga	0		J	
löönud	löö	nud		V	nud
      	löö=nu	d		S	pl n
      	löö=nud	0		A	
      	löö=nud	0		A	sg n
      	löö=nud	d		A	pl n
ei	ei	0		D	
  	ei	0		V	neg
ole	ole	0		V	o
Hans	Hans	0		H	sg n
Lenkmann	####				
Roosenbergi	####				
mitte	mitte	0		D	
üht	üks	0		N	sg p
   	üks	0		P	sg p
verist	verine	t		A	sg p
hoopi	hoop	0		S	adt
     	hoop	0		S	sg p
löönud	löö	nud		V	nud
      	löö=nu	d		S	pl n
      	löö=nud	0		A	
      	löö=nud	0		A	sg n
      	löö=nud	d		A	pl n
.	.			Z	
Andrei	Andrei	0		H	sg g
      	Andrei	0		H	sg n
Roosenberg	####				
on	ole	0		V	b
  	ole	0		V	vad
kõrtsi	kõrts	0		S	adt
      	kõrts	0		S	sg g
      	kõrts	0		S	sg p
suures	suur	s		A	sg in
rahva	rahvas	0		S	sg g
tuas	####				
ise	ise	0		A	
   	ise	0		D	
   	ise	0		P	pl n
   	ise	0		P	sg n
ennast	ise	t		P	sg p
põrandale	põrand	le		S	sg all
maha	maha	0		D	
lasknud	lask	nud		V	nud
       	lask=nu	d		S	pl n
       	lask=nud	0		A	
       	lask=nud	0		A	sg n
       	lask=nud	d		A	pl n
,	,			Z	
ja	ja	0		J	
tõosnud	####				
sealt	sealt	0		D	
     	siga	lt		A	sg abl
     	siga	lt		S	sg abl
ülesse	ülesse	0		D	
ja	ja	0		J	
hoidnud	hoid	nud		V	nud
       	hoid=nu	d		S	pl n
       	hoid=nud	0		A	
       	hoid=nud	0		A	sg n
       	hoid=nud	d		A	pl n
siis	siis	0		D	
    	siis	0		J	
oma	oma	0		A	sg g
   	oma	0		D	
   	oma	0		P	sg g
   	oma	0		S	sg g
   	oma	0		V	o
   	oma	0		A	sg n
   	oma	0		A	sg p
   	oma	0		P	sg n
   	oma	0		P	sg p
   	oma	0		S	sg n
   	oma	0		S	sg p
ninast	nina	st		S	sg el
kinni	kinni	0		D	
,	,			Z	
ise	ise	0		A	
   	ise	0		D	
   	ise	0		P	pl n
   	ise	0		P	sg n
oma	oma	0		A	sg g
   	oma	0		D	
   	oma	0		P	sg g
   	oma	0		S	sg g
   	oma	0		V	o
   	oma	0		A	sg n
   	oma	0		A	sg p
   	oma	0		P	sg n
   	oma	0		P	sg p
   	oma	0		S	sg n
   	oma	0		S	sg p
nina	nina	0		S	sg g
    	nina	0		S	sg n
    	nina	0		S	sg p
venades	####				
ja	ja	0		J	
nina	nina	0		S	sg g
    	nina	0		S	sg n
    	nina	0		S	sg p
olnud	ol=nud	0		A	
     	ol=nud	0		A	sg n
     	ol=nud	d		A	pl n
     	ole	nud		V	nud
     	olnu	d		S	pl n
verine	verine	0		A	sg n
,	,			Z	
ja	ja	0		J	
läinud	läinu	d		S	pl n
      	läinud	0		A	
      	läinud	0		A	sg n
      	läinud	d		A	pl n
      	mine	nud		V	nud
kõrtsist	kõrts	st		S	sg el
välja	välja	0		D	
     	välja	0		V	o
     	väli	0		S	adt
     	väli	0		S	sg g
     	väli	0		S	sg p
ja	ja	0		J	
jätnudki	jät	nud	ki	V	nud
se	####				
pudel	pudel	0		S	sg n
õlut	õlu	t		S	sg p
maksmata	maks	mata		V	mata
        	maks=mata	0		A	
mis	mis	0		P	pl n
   	mis	0		P	sg n
ära	ära	0		D	
   	ära	0		V	neg o
joonud	joo	nud		V	nud
      	joo=nu	d		S	pl n
      	joo=nud	0		A	
      	joo=nud	0		A	sg n
      	joo=nud	d		A	pl n
.	.			Z	
astus	astu	s		V	s
ette	ette	0		D	
    	ette	0		K	
    	esi	tte		S	adt
Arukülast	aru_küla	st		S	sg el
Jaan	Jaan	0		H	sg n
    	jaan	0		S	sg n
    	jaan	0		Y	?
obruks	####				
ja	ja	0		J	
ütles	ütle	s		V	s
et	et	0		J	
tema	tema	0		P	sg g
    	tema	0		P	sg n
on	ole	0		V	b
  	ole	0		V	vad
lasknud	lask	nud		V	nud
       	lask=nu	d		S	pl n
       	lask=nud	0		A	
       	lask=nud	0		A	sg n
       	lask=nud	d		A	pl n
se	####				
pudel	pudel	0		S	sg n
õlut	õlu	t		S	sg p
tuua	too	a		V	da
oma	oma	0		A	sg g
   	oma	0		D	
   	oma	0		P	sg g
   	oma	0		S	sg g
   	oma	0		V	o
   	oma	0		A	sg n
   	oma	0		A	sg p
   	oma	0		P	sg n
   	oma	0		P	sg p
   	oma	0		S	sg n
   	oma	0		S	sg p
sõbra	sõber	0		S	sg g
Mart	Mart	0		H	sg n
    	mart	0		S	sg n
Kääs'ile	####				
,	,			Z	
aga	aga	0		J	
Andrei	Andrei	0		H	sg g
      	Andrei	0		H	sg n
Rosenberg	Rosenberg	0		H	sg n
tulnud	tul=nud	0		A	
      	tul=nud	0		A	sg n
      	tul=nud	d		A	pl n
      	tule	nud		V	nud
      	tulnu	d		S	pl n
täis	täi	s		S	sg in
    	täi	s		V	s
    	täis	0		A	
    	täis	0		A	sg n
    	täis	0		D	
    	täis	0		S	sg n
joobnud	joobnu	d		S	pl n
       	joobnud	0		A	
       	joobnud	0		A	sg n
       	joobnud	d		A	pl n
peaga	pea	ga		S	sg kom
sinna	sinna	0		D	
ja	ja	0		J	
võtnud	võt	nud		V	nud
      	võt=nu	d		S	pl n
      	võt=nud	0		A	
      	võt=nud	0		A	sg n
      	võt=nud	d		A	pl n
oma	oma	0		A	sg g
   	oma	0		D	
   	oma	0		P	sg g
   	oma	0		S	sg g
   	oma	0		V	o
   	oma	0		A	sg n
   	oma	0		A	sg p
   	oma	0		P	sg n
   	oma	0		P	sg p
   	oma	0		S	sg n
   	oma	0		S	sg p
volika	####				
selle	see	0		P	sg g
     	sell	e		S	pl p
ole	ole	0		V	o
pudeli	pudel	0		S	sg g
tühjaks	tühi	ks		A	sg tr
,	,			Z	
ja	ja	0		J	
tema	tema	0		P	sg g
    	tema	0		P	sg n
on	ole	0		V	b
  	ole	0		V	vad
siis	siis	0		D	
    	siis	0		J	
lasknud	lask	nud		V	nud
       	lask=nu	d		S	pl n
       	lask=nud	0		A	
       	lask=nud	0		A	sg n
       	lask=nud	d		A	pl n
omale	oma	le		A	sg all
     	oma	le		P	sg all
     	oma	le		S	sg all
uue	uus	0		A	sg g
pudeli	pudel	0		S	sg g
tuua	too	a		V	da
ja	ja	0		J	
joonud	joo	nud		V	nud
      	joo=nu	d		S	pl n
      	joo=nud	0		A	
      	joo=nud	0		A	sg n
      	joo=nud	d		A	pl n
Käesega	####				
seda	see	da		P	sg p
ära	ära	0		D	
   	ära	0		V	neg o
ja	ja	0		J	
läi	####				
siis	siis	0		D	
    	siis	0		J	
sealt	sealt	0		D	
     	siga	lt		A	sg abl
     	siga	lt		S	sg abl
kambrist	kamber	st		S	sg el
välja	välja	0		D	
     	välja	0		V	o
     	väli	0		S	adt
     	väli	0		S	sg g
     	väli	0		S	sg p
ja	ja	0		J	
Rosenberg	Rosenberg	0		H	sg n
jäänud	jää	nud		V	nud
      	jäänu	d		S	pl n
      	jäänud	0		A	
      	jäänud	0		A	sg n
      	jäänud	d		A	pl n
sinna	sinna	0		D	
istuma	istu	ma		V	ma
ja	ja	0		J	
Hans	Hans	0		H	sg n
Lenkmann	####				
jäänud	jää	nud		V	nud
      	jäänu	d		S	pl n
      	jäänud	0		A	
      	jäänud	0		A	sg n
      	jäänud	d		A	pl n
ka	ka	0		D	
sinna	sinna	0		D	
kõrtsi	kõrts	0		S	adt
      	kõrts	0		S	sg g
      	kõrts	0		S	sg p
naisega	naine	ga		S	sg kom
rääkima	rääki	ma		V	ma
ja	ja	0		J	
pisut	pisut	0		D	
aja	aeg	0		S	sg g
   	aja	0		V	o
pärast	pära	st		S	sg el
      	pärane	t		A	sg p
      	pärast	0		D	
      	pärast	0		K	
tõosnud	####				
kära	kära	0		S	sg g
    	kära	0		V	o
    	kära	0		S	sg n
    	kära	0		S	sg p
seal	seal	0		D	
    	siga	l		A	sg ad
    	siga	l		S	sg ad
kambris	kamber	s		S	sg in
ja	ja	0		J	
Hans	Hans	0		H	sg n
Lenkmann	####				
on	ole	0		V	b
  	ole	0		V	vad
lükanud	lükka	nud		V	nud
       	lüka=nu	d		S	pl n
       	lüka=nud	0		A	
       	lüka=nud	0		A	sg n
       	lüka=nud	d		A	pl n
Rosenberg	Rosenberg	0		H	sg n
sealt	sealt	0		D	
     	siga	lt		A	sg abl
     	siga	lt		S	sg abl
kambrist	kamber	st		S	sg el
ja	ja	0		J	
leti	lett	0		S	sg g
taga	taga	0		D	
    	taga	0		K	
    	taga	0		V	o
välja	välja	0		D	
     	välja	0		V	o
     	väli	0		S	adt
     	väli	0		S	sg g
     	väli	0		S	sg p
kõrtsi	kõrts	0		S	adt
      	kõrts	0		S	sg g
      	kõrts	0		S	sg p
ette	ette	0		D	
    	ette	0		K	
    	esi	tte		S	adt
tuppa	tuba	0		S	adt
ja	ja	0		J	
küsinud	küsi	nud		V	nud
       	küsi=nu	d		S	pl n
       	küsi=nud	0		A	
       	küsi=nud	0		A	sg n
       	küsi=nud	d		A	pl n
Rosenbergi	Rosenberg	0		H	adt
          	Rosenberg	0		H	sg g
          	Rosenberg	0		H	sg p
kääst	####				
ütle	ütle	0		V	o
kus	kus	0		D	
on	ole	0		V	b
  	ole	0		V	vad
minul	mina	l		P	sg ad
hoora	hoor	0		S	adt
     	hoor	0		S	sg g
     	hoora	0		V	o
     	hoor	0		S	sg p
lapsed	laps	d		S	pl n
,	,			Z	
aga	aga	0		J	
löömist	löömine	t		S	sg p
ei	ei	0		D	
  	ei	0		V	neg
ole	ole	0		V	o
tema	tema	0		P	sg g
    	tema	0		P	sg n
mitte	mitte	0		D	
näinud	näi	nud		V	nud
      	näge	nud		V	nud
      	näi=nud	0		A	
      	näi=nud	0		A	sg n
      	näi=nud	d		A	pl n
      	näinu	d		S	pl n
.	.			Z	
astus	astu	s		V	s
ette	ette	0		D	
    	ette	0		K	
    	esi	tte		S	adt
Arukülast	aru_küla	st		S	sg el
Mart	Mart	0		H	sg n
    	mart	0		S	sg n
kääs	####				
ja	ja	0		J	
tunnistas	tunnista	s		V	s
niisamuti	nii_samuti	0		D	
et	et	0		J	
Lenkmann	####				
küsinud	küsi	nud		V	nud
       	küsi=nu	d		S	pl n
       	küsi=nud	0		A	
       	küsi=nud	0		A	sg n
       	küsi=nud	d		A	pl n
Rosenbergi	Rosenberg	0		H	adt
          	Rosenberg	0		H	sg g
          	Rosenberg	0		H	sg p
kääst	####				
too	too	0		P	sg n
   	too	0		V	o
se	####				
tüdruk	tüdruk	0		S	sg n
siia	siia	0		D	
    	siig	0		S	sg g
kellega	kes	ga		P	pl kom
       	kes	ga		P	sg kom
minul	mina	l		P	sg ad
on	ole	0		V	b
  	ole	0		V	vad
hoora	hoor	0		S	adt
     	hoor	0		S	sg g
     	hoora	0		V	o
     	hoor	0		S	sg p
laps	laps	0		S	sg n
,	,			Z	
ja	ja	0		J	
Rosenberg	Rosenberg	0		H	sg n
küsinud	küsi	nud		V	nud
       	küsi=nu	d		S	pl n
       	küsi=nud	0		A	
       	küsi=nud	0		A	sg n
       	küsi=nud	d		A	pl n
jälle	jälle	0		D	
Lenkmanni	####				
kääst	####				
mis	mis	0		P	pl n
   	mis	0		P	sg n
sa	sina	0		P	sg n
mind	mina	d		P	sg p
lööd	löö	d		V	d
,	,			Z	
vaid	vaid	0		D	
    	vaid	0		J	
siis	siis	0		D	
    	siis	0		J	
on	ole	0		V	b
  	ole	0		V	vad
Lenkmann	####				
Rosenberg	Rosenberg	0		H	sg n
ukse	uks	0		S	sg g
vahel	vahe	l		S	sg ad
     	vahel	0		D	
     	vahel	0		K	
kaks	kaks	0		N	sg n
korda	kord	0		S	adt
     	korda	0		V	o
     	kord	0		S	sg p
löönud	löö	nud		V	nud
      	löö=nu	d		S	pl n
      	löö=nud	0		A	
      	löö=nud	0		A	sg n
      	löö=nud	d		A	pl n
,	,			Z	
sest	see	st		P	sg el
    	sest	0		J	
Andrei	Andrei	0		H	sg g
      	Andrei	0		H	sg n
Rosenberg	Rosenberg	0		H	sg n
on	ole	0		V	b
  	ole	0		V	vad
joobnud	joobnu	d		S	pl n
       	joobnud	0		A	
       	joobnud	0		A	sg n
       	joobnud	d		A	pl n
olnud	ol=nud	0		A	
     	ol=nud	0		A	sg n
     	ol=nud	d		A	pl n
     	ole	nud		V	nud
     	olnu	d		S	pl n
.	.			Z	
selle	see	0		P	sg g
     	sell	e		S	pl p
peale	pea	le		S	sg all
     	peale	0		D	
     	peale	0		K	
astus	astu	s		V	s
tunnistuseks	tunnistus	ks		S	sg tr
ette	ette	0		D	
    	ette	0		K	
    	esi	tte		S	adt
kingsepp	king_sepp	0		S	sg n
Leerweld	####				
ja	ja	0		J	
tunnistas	tunnista	s		V	s
et	et	0		J	
Andrei	Andrei	0		H	sg g
      	Andrei	0		H	sg n
Rosenberg	Rosenberg	0		H	sg n
on	ole	0		V	b
  	ole	0		V	vad
Sobrükil	####				
ole	ole	0		V	o
pudeli	pudel	0		S	sg g
tühjaks	tühi	ks		A	sg tr
joonud	joo	nud		V	nud
      	joo=nu	d		S	pl n
      	joo=nud	0		A	
      	joo=nud	0		A	sg n
      	joo=nud	d		A	pl n
ja	ja	0		J	
Hans	Hans	0		H	sg n
Lenkmann	####				
öelnud	öel=nu	d		S	pl n
      	öel=nud	0		A	
      	öel=nud	0		A	sg n
      	öel=nud	d		A	pl n
      	ütle	nud		V	nud
:	:			Z	
eks	eks	0		D	
   	eks	0		S	sg n
   	eks	0		Y	?
sa	sina	0		P	sg n
maksa	maks	0		S	adt
     	maks	0		S	sg g
     	maks	0		V	o
     	maks	0		S	sg p
se	####				
pudel	pudel	0		S	sg n
õlut	õlu	t		S	sg p
välja	välja	0		D	
     	välja	0		V	o
     	väli	0		S	adt
     	väli	0		S	sg g
     	väli	0		S	sg p
ja	ja	0		J	
Rosenberg	Rosenberg	0		H	sg n
öelnud	öel=nu	d		S	pl n
      	öel=nud	0		A	
      	öel=nud	0		A	sg n
      	öel=nud	d		A	pl n
      	ütle	nud		V	nud
siis	siis	0		D	
    	siis	0		J	
Lenkmann'ile	####				
:	:			Z	
sul	sina	l		P	sg ad
on	ole	0		V	b
  	ole	0		V	vad
tüdrukuga	tüdruk	ga		S	sg kom
laps	laps	0		S	sg n
olnud	ol=nud	0		A	
     	ol=nud	0		A	sg n
     	ol=nud	d		A	pl n
     	ole	nud		V	nud
     	olnu	d		S	pl n
ja	ja	0		J	
ei	ei	0		D	
  	ei	0		V	neg
ole	ole	0		V	o
sedagi	see	da	gi	P	sg p
välja	välja	0		D	
     	välja	0		V	o
     	väli	0		S	adt
     	väli	0		S	sg g
     	väli	0		S	sg p
maksnud	maks	nud		V	nud
       	maks=nu	d		S	pl n
       	maks=nud	0		A	
       	maks=nud	0		A	sg n
       	maks=nud	d		A	pl n
ja	ja	0		J	
nüüd	nüüd	0		D	
sunnid	sund	d		S	pl n
      	sundi	d		V	d
mind	mina	d		P	sg p
pudel	pudel	0		S	sg n
õlut	õlu	t		S	sg p
välja	välja	0		D	
     	välja	0		V	o
     	väli	0		S	adt
     	väli	0		S	sg g
     	väli	0		S	sg p
maksma	maks	ma		V	ma
.	.			Z	
siis	siis	0		D	
    	siis	0		J	
võtnud	võt	nud		V	nud
      	võt=nu	d		S	pl n
      	võt=nud	0		A	
      	võt=nud	0		A	sg n
      	võt=nud	d		A	pl n
Lenkmann	####				
tema	tema	0		P	sg g
    	tema	0		P	sg n
rinnust	rind	ust		S	pl el
       	rinnus	t		S	sg p
kinni	kinni	0		D	
ja	ja	0		J	
lükanud	lükka	nud		V	nud
       	lüka=nu	d		S	pl n
       	lüka=nud	0		A	
       	lüka=nud	0		A	sg n
       	lüka=nud	d		A	pl n
kambrist	kamber	st		S	sg el
välja	välja	0		D	
     	välja	0		V	o
     	väli	0		S	adt
     	väli	0		S	sg g
     	väli	0		S	sg p
küsides	küsi	des		V	des
:	:			Z	
ütle	ütle	0		V	o
kus	kus	0		D	
on	ole	0		V	b
  	ole	0		V	vad
minu	mina	0		P	sg g
hoora	hoor	0		S	adt
     	hoor	0		S	sg g
     	hoora	0		V	o
     	hoor	0		S	sg p
laps	laps	0		S	sg n
?	?			Z	
ja	ja	0		J	
pead	pea	d		S	pl n
    	pida	d		V	d
    	pea	d		S	sg p
seda	see	da		P	sg p
tõeks	tõde	ks		S	sg tr
     	tõsi	ks		S	sg tr
tegema	tege	ma		V	ma
kas	kas	0		D	
minul	mina	l		P	sg ad
on	ole	0		V	b
  	ole	0		V	vad
hoora	hoor	0		S	adt
     	hoor	0		S	sg g
     	hoora	0		V	o
     	hoor	0		S	sg p
laps	laps	0		S	sg n
?	?			Z	
selle	see	0		P	sg g
     	sell	e		S	pl p
peale	pea	le		S	sg all
     	peale	0		D	
     	peale	0		K	
astus	astu	s		V	s
ette	ette	0		D	
    	ette	0		K	
    	esi	tte		S	adt
Jaan	Jaan	0		H	sg n
    	jaan	0		S	sg n
    	jaan	0		Y	?
õpik	õpik	0		S	sg n
ja	ja	0		J	
tunnistas	tunnista	s		V	s
,	,			Z	
et	et	0		J	
tuli	tuli	0		S	sg n
    	tule	i		V	s
hakatust	hakatus	t		S	sg p
tema	tema	0		P	sg g
    	tema	0		P	sg n
ei	ei	0		D	
  	ei	0		V	neg
ole	ole	0		V	o
näinud	näi	nud		V	nud
      	näge	nud		V	nud
      	näi=nud	0		A	
      	näi=nud	0		A	sg n
      	näi=nud	d		A	pl n
      	näinu	d		S	pl n
ega	ega	0		D	
   	ega	0		J	
kuulnud	kuul	nud		V	nud
       	kuul=nud	0		A	
       	kuul=nud	0		A	sg n
       	kuul=nud	d		A	pl n
       	kuulnu	d		S	pl n
,	,			Z	
aga	aga	0		J	
seda	see	da		P	sg p
ei	ei	0		D	
  	ei	0		V	neg
ole	ole	0		V	o
tema	tema	0		P	sg g
    	tema	0		P	sg n
mitte	mitte	0		D	
näinud	näi	nud		V	nud
      	näge	nud		V	nud
      	näi=nud	0		A	
      	näi=nud	0		A	sg n
      	näi=nud	d		A	pl n
      	näinu	d		S	pl n
,	,			Z	
et	et	0		J	
Hans	Hans	0		H	sg n
Lenkmann	####				
Rosenbergid	Rosenberg	d		H	pl n
ukse	uks	0		S	sg g
vahel	vahe	l		S	sg ad
     	vahel	0		D	
     	vahel	0		K	
kaks	kaks	0		N	sg n
korda	kord	0		S	adt
     	korda	0		V	o
     	kord	0		S	sg p
on	ole	0		V	b
  	ole	0		V	vad
löönud	löö	nud		V	nud
      	löö=nu	d		S	pl n
      	löö=nud	0		A	
      	löö=nud	0		A	sg n
      	löö=nud	d		A	pl n
nõnda	nõnda	0		D	
kuidas	kuidas	0		D	
Mart	Mart	0		H	sg n
    	mart	0		S	sg n
ütleb	ütle	b		V	b
näinud	näi	nud		V	nud
      	näge	nud		V	nud
      	näi=nud	0		A	
      	näi=nud	0		A	sg n
      	näi=nud	d		A	pl n
      	näinu	d		S	pl n
olevat	ole	vat		V	vat
      	olev	t		A	sg p
      	olev	t		S	sg p
.	.			Z	
selle	see	0		P	sg g
     	sell	e		S	pl p
peale	pea	le		S	sg all
     	peale	0		D	
     	peale	0		K	
kohus	kohu	s		V	s
     	kohus	0		S	sg n
kutsus	kutsu	s		V	s
      	kutsu	s		S	sg in
kõik	kõik	0		P	pl n
    	kõik	0		S	sg n
    	kõik	0		P	sg n
käemehed	käe_mees	d		S	pl n
kohtu	kohtu	0		V	o
     	kohus	0		S	sg g
tuppa	tuba	0		S	adt
et	et	0		J	
iga	iga	0		P	sg g
   	iga	0		P	sg n
   	iga	0		P	sg p
   	iga	0		S	sg n
   	iga	0		S	sg p
mehe	mees	0		S	sg g
tunnistused	tunnistus	d		S	pl n
saavad	saa	vad		V	vad
      	saav	d		A	pl n
      	saav	d		S	pl n
protokolist	####				
ette	ette	0		D	
    	ette	0		K	
    	esi	tte		S	adt
loetud	loetu	d		S	pl n
      	loetud	0		A	
      	loetud	0		A	sg n
      	loetud	d		A	pl n
      	luge	tud		V	tud
et	et	0		J	
kõikide	kõik	de		P	pl g
jutud	jutt	d		S	pl n
ja	ja	0		J	
tunnistused	tunnistus	d		S	pl n
õiged	õige	d		A	pl n
on	ole	0		V	b
  	ole	0		V	vad
aga	aga	0		J	
Rosenberg	Rosenberg	0		H	sg n
oli	ole	i		V	s
kohtu	kohtu	0		V	o
     	kohus	0		S	sg g
ees	ees	0		D	
   	ees	0		K	
   	esi	s		S	sg in
jäme	jäme	0		A	sg n
ja	ja	0		J	
käratas	kärata	s		V	s
,	,			Z	
et	et	0		J	
tema	tema	0		P	sg g
    	tema	0		P	sg n
tahab	taht	b		V	b
aga	aga	0		J	
protokolli	protokoll	0		S	adt
          	protokoll	0		S	sg g
          	protokolli	0		V	o
          	protokoll	0		S	sg p
kohtust	kohtune	t		A	sg p
       	kohus	st		S	sg el
välja	välja	0		D	
     	välja	0		V	o
     	väli	0		S	adt
     	väli	0		S	sg g
     	väli	0		S	sg p
saada	saa	da		V	da
     	saat	0		V	o
     	saa	da		V	ta
suurema	suurem	0		C	sg g
kohtu	kohtu	0		V	o
     	kohus	0		S	sg g
seletada	seleta	da		V	da
vaid	vaid	0		D	
    	vaid	0		J	
kohus	kohu	s		V	s
     	kohus	0		S	sg n
pakkus	pakku	s		V	s
neile	see	le		P	pl all
     	tema	le		P	pl all
lepitust	lepitus	t		S	sg p
mis	mis	0		P	pl n
   	mis	0		P	sg n
Rosenberg	Rosenberg	0		H	sg n
ei	ei	0		D	
  	ei	0		V	neg
ole	ole	0		V	o
vastu	vastu	0		D	
     	vastu	0		K	
võtnud	võt	nud		V	nud
      	võt=nu	d		S	pl n
      	võt=nud	0		A	
      	võt=nud	0		A	sg n
      	võt=nud	d		A	pl n
ja	ja	0		J	
läks	mine	s		V	s
kohtu	kohtu	0		V	o
     	kohus	0		S	sg g
tuuasat	####				
välja	välja	0		D	
     	välja	0		V	o
     	väli	0		S	adt
     	väli	0		S	sg g
     	väli	0		S	sg p
suure	suur	0		A	sg g
ärakak	####				
.	.			Z	
ja	ja	0		J	
kohus	kohu	s		V	s
     	kohus	0		S	sg n
jättis	jät	is		V	s
selle	see	0		P	sg g
     	sell	e		S	pl p
asja	asi	0		S	adt
    	asi	0		S	sg g
    	asi	0		S	sg p
niikauaks	nii_kauaks	0		D	
poolele	pool	le		N	sg all
       	pool	le		S	sg all
kase	kask	0		S	sg g
Rosenberg	Rosenberg	0		H	sg n
saab	saa	b		V	b
ette	ette	0		D	
    	ette	0		K	
    	esi	tte		S	adt
kutsutud	kutsu	tud		V	tud
        	kutsutu	d		S	pl n
        	kutsutud	0		A	
        	kutsutud	0		A	sg n
        	kutsutud	d		A	pl n
,	,			Z	
sest	see	st		P	sg el
    	sest	0		J	
Rosenberg	Rosenberg	0		H	sg n
pani	pan	0		S	adt
    	pani	0		S	sg g
    	pane	i		V	s
    	pan	0		S	sg g
    	pan	0		S	sg p
    	pani	0		S	sg n
se	####				
kord	kord	0		D	
    	kord	0		S	sg n
kohtu	kohtu	0		V	o
     	kohus	0		S	sg g
majast	maja	st		S	sg el
ajama	aja	ma		V	ma
ratshobusega	rats_hobune	ga		S	sg kom
ja	ja	0		J	
jättis	jät	is		V	s
teised	teine	d		O	pl n
      	teine	d		P	pl n
oma	oma	0		A	sg g
   	oma	0		D	
   	oma	0		P	sg g
   	oma	0		S	sg g
   	oma	0		V	o
   	oma	0		A	sg n
   	oma	0		A	sg p
   	oma	0		P	sg n
   	oma	0		P	sg p
   	oma	0		S	sg n
   	oma	0		S	sg p
valdalised	####				
kohtu	kohtu	0		V	o
     	kohus	0		S	sg g
majase	####				
.	.			Z	
Jääb	jää	b		V	b
poolele	pool	le		N	sg all
       	pool	le		S	sg all
.	.			Z	
