astus	astu	s		V	s
kohtu	kohtu	0		V	o
     	kohus	0		S	sg g
ette	ette	0		D	
    	ette	0		K	
    	esi	tte		S	adt
Mari	Mari	0		H	sg g
    	mari	0		S	sg g
    	mari	0		S	sg n
    	Mari	0		H	sg n
    	mari	0		S	sg p
Sut	####				
ja	ja	0		J	
kaebas	kaeba	s		V	s
,	,			Z	
et	et	0		J	
Hindrik	####				
Kurlil	####				
,	,			Z	
kes	kes	0		P	pl n
   	kes	0		P	sg n
temale	tema	le		P	sg all
lapse	laps	0		S	sg g
muretses	muretse	s		V	s
,	,			Z	
ja	ja	0		J	
nüüd	nüüd	0		D	
ei	ei	0		D	
  	ei	0		V	neg
taha	taht	0		V	o
    	taha	0		D	
    	taha	0		K	
taale	####				
lapse	laps	0		S	sg g
matuse	matus	0		S	sg g
kulusid	kulu	sid		S	pl p
       	kulu	sid		V	sid
ära	ära	0		D	
   	ära	0		V	neg o
kanda	kand	0		S	adt
     	kand	a		V	da
     	kand	0		S	sg p
,	,			Z	
mis	mis	0		P	pl n
   	mis	0		P	sg n
ta	tema	0		P	sg g
  	tema	0		P	sg n
esiteks	esiteks	0		D	
olla	ole	a		V	da
lubanud	luba	nud		V	nud
       	luba=nu	d		S	pl n
       	luba=nud	0		A	
       	luba=nud	0		A	sg n
       	luba=nud	d		A	pl n
.	.			Z	
Hindrik	####				
Kurlil	####				
sai	saa	i		V	s
   	sai	0		S	sg n
ette	ette	0		D	
    	ette	0		K	
    	esi	tte		S	adt
kutsutud	kutsu	tud		V	tud
        	kutsutu	d		S	pl n
        	kutsutud	0		A	
        	kutsutud	0		A	sg n
        	kutsutud	d		A	pl n
tema	tema	0		P	sg g
    	tema	0		P	sg n
tunnistas	tunnista	s		V	s
,	,			Z	
et	et	0		J	
Mari	Mari	0		H	sg g
    	mari	0		S	sg g
    	mari	0		S	sg n
    	Mari	0		H	sg n
    	mari	0		S	sg p
Sut	####				
olla	ole	a		V	da
tema	tema	0		P	sg g
    	tema	0		P	sg n
maha	maha	0		D	
jätnud	jät	nud		V	nud
      	jät=nu	d		S	pl n
      	jät=nud	0		A	
      	jät=nud	0		A	sg n
      	jät=nud	d		A	pl n
ja	ja	0		J	
läinud	läinu	d		S	pl n
      	läinud	0		A	
      	läinud	0		A	sg n
      	läinud	d		A	pl n
      	mine	nud		V	nud
teiste	teine	te		O	pl g
      	teine	te		P	pl g
poistega	poiss	tega		S	pl kom
ümber	ümber	0		D	
     	ümber	0		K	
jooksema	jooks_ema	0		S	sg g
        	jooks_ema	0		S	sg n
        	jooks_ema	0		S	sg p
,	,			Z	
siis	siis	0		D	
    	siis	0		J	
olla	ole	a		V	da
tema	tema	0		P	sg g
    	tema	0		P	sg n
seda	see	da		P	sg p
maha	maha	0		D	
jätnud	jät	nud		V	nud
      	jät=nu	d		S	pl n
      	jät=nud	0		A	
      	jät=nud	0		A	sg n
      	jät=nud	d		A	pl n
ja	ja	0		J	
ei	ei	0		D	
  	ei	0		V	neg
taha	taht	0		V	o
    	taha	0		D	
    	taha	0		K	
teda	tema	da		P	sg p
ka	ka	0		D	
omale	oma	le		A	sg all
     	oma	le		P	sg all
     	oma	le		S	sg all
kosida	kosi	da		V	da
.	.			Z	
kohtu	kohtu	0		V	o
     	kohus	0		S	sg g
otsus	otsus	0		S	sg n
:	:			Z	
et	et	0		J	
Mari	Mari	0		H	sg g
    	mari	0		S	sg g
    	mari	0		S	sg n
    	Mari	0		H	sg n
    	mari	0		S	sg p
Sut	####				
laps	laps	0		S	sg n
ära	ära	0		D	
   	ära	0		V	neg o
suri	sure	i		V	s
,	,			Z	
siis	siis	0		D	
    	siis	0		J	
mõistis	mõist	is		V	s
kohus	kohu	s		V	s
     	kohus	0		S	sg n
,	,			Z	
et	et	0		J	
Hindrik	####				
Kurlil	####				
peab	pida	b		V	b
temale	tema	le		P	sg all
3	3	0		N	?
rbl	rbl	0		Y	?
.	.			Z	
matmise	matmine	0		S	sg g
kuulu	kuuld	0		S	sg g
     	kuulu	0		V	o
tasuma	tasu	ma		V	ma
,	,			Z	
et	et	0		J	
see	see	0		P	sg n
laps	laps	0		S	sg n
saab	saa	b		V	b
maha	maha	0		D	
maetud	mae=tu	d		S	pl n
      	maetud	0		A	
      	maetud	0		A	sg n
      	maetud	d		A	pl n
      	mat	tud		V	tud
.	.			Z	
kohtumees	kohtu_mees	0		S	sg n
:	:			Z	
Juhan	Juhan	0		H	sg n
Humberg	####				
XXX	XXX	0		O	?
   	XXX	0		Y	?
kõrva	kõrv	0		S	adt
     	kõrv	0		S	sg g
     	kõrv	0		S	sg p
mehed	mees	d		S	pl n
Gustav	Gustav	0		H	sg n
Reindes	####				
XXX	XXX	0		O	?
   	XXX	0		Y	?
ja	ja	0		J	
Hind	hind	0		S	sg n
Sarapuu	sara_puu	0		S	sg g
       	sara_puu	0		S	sg n
XXX	XXX	0		O	?
   	XXX	0		Y	?
lepitud	leppi	tud		V	tud
       	lepi=tu	d		S	pl n
       	lepi=tud	0		A	
       	lepi=tud	0		A	sg n
       	lepi=tud	d		A	pl n
ja	ja	0		J	
makstud	maks	tud		V	tud
       	maks=tu	d		S	pl n
       	maks=tud	0		A	
       	maks=tud	0		A	sg n
       	maks=tud	d		A	pl n
.	.			Z	
