Kota	kott	0		S	sg g
küla	küla	0		S	sg g
    	küla	0		S	sg n
    	küla	0		S	sg p
saunamees	sauna_mees	0		S	sg n
Jakob	Jakob	0		H	sg n
Pirker	####				
andis	and	is		V	s
teada	tead	a		V	da
,	,			Z	
et	et	0		J	
tema	tema	0		P	sg g
    	tema	0		P	sg n
poeg	poeg	0		S	sg n
Jaan	Jaan	0		H	sg n
    	jaan	0		S	sg n
    	jaan	0		Y	?
,	,			Z	
koolist	kool	st		S	sg el
koju	kodu	0		S	adt
tulles	tule	es		V	des
tee	tee	0		S	sg g
   	tege	0		V	o
   	tee	0		S	sg n
pealt	pea	lt		S	sg abl
     	pealt	0		D	
     	pealt	0		K	
4.	4.	0		O	?
selle	see	0		P	sg g
     	sell	e		S	pl p
kuu	kuu	0		S	sg g
   	kuu	0		S	sg n
päeval	päev	l		S	sg ad
on	ole	0		V	b
  	ole	0		V	vad
25	25	0		N	?
rubla	rubla	0		S	sg g
     	rubla	0		S	sg n
     	rubla	0		S	sg p
raha	raha	0		S	sg g
    	raha	0		S	sg n
    	raha	0		S	sg p
leidnud	leid	nud		V	nud
       	leid=nu	d		S	pl n
       	leid=nud	0		A	
       	leid=nud	0		A	sg n
       	leid=nud	d		A	pl n
.	.			Z	
raha	raha	0		S	sg g
    	raha	0		S	sg n
    	raha	0		S	sg p
olnud	ol=nud	0		A	
     	ol=nud	0		A	sg n
     	ol=nud	d		A	pl n
     	ole	nud		V	nud
     	olnu	d		S	pl n
lahti	laht	i		S	pl p
     	lahti	0		D	
ilma	ilm	0		S	adt
    	ilm	0		S	sg g
    	ilma	0		D	
    	ilma	0		K	
    	ilm	0		S	sg p
kottida	kotti	da		V	da
,	,			Z	
ega	ega	0		D	
   	ega	0		J	
ka	ka	0		D	
mitte	mitte	0		D	
mingi	mingi	0		P	sg g
     	mink	0		S	sg g
     	minki	0		V	o
     	mingi	0		P	sg n
asja	asi	0		S	adt
    	asi	0		S	sg g
    	asi	0		S	sg p
sees	sees	0		D	
    	sees	0		K	
olnud	ol=nud	0		A	
     	ol=nud	0		A	sg n
     	ol=nud	d		A	pl n
     	ole	nud		V	nud
     	olnu	d		S	pl n
.	.			Z	
see	see	0		P	sg n
asi	asi	0		S	sg n
   	asi	0		V	o
,	,			Z	
raha	raha	0		S	sg g
    	raha	0		S	sg n
    	raha	0		S	sg p
pärast	pära	st		S	sg el
      	pärane	t		A	sg p
      	pärast	0		D	
      	pärast	0		K	
,	,			Z	
saab	saa	b		V	b
esiotsa	esi_otsa	0		D	
sõitungi	####				
kuulutud	kuulu	tud		V	tud
        	kuulu=tu	d		S	pl n
        	kuulu=tud	0		A	
        	kuulu=tud	0		A	sg n
        	kuulu=tud	d		A	pl n
,	,			Z	
ja	ja	0		J	
kui	kui	0		D	
   	kui	0		J	
keegi	kee	0	gi	S	sg g
     	kee	0	gi	V	o
     	keegi	0		P	sg n
     	kee	0	gi	S	sg n
järel	järel	0		D	
     	järel	0		K	
ei	ei	0		D	
  	ei	0		V	neg
tule	tuli	0		S	sg g
    	tule	0		V	o
,	,			Z	
siis	siis	0		D	
    	siis	0		J	
selle	see	0		P	sg g
     	sell	e		S	pl p
üle	üle	0		D	
   	üle	0		K	
haakenrihteri	####				
härrale	härra	le		S	sg all
teada	tead	a		V	da
antud	an=tu	d		S	pl n
     	and	tud		V	tud
     	antud	0		A	
     	antud	0		A	sg n
     	antud	d		A	pl n
,	,			Z	
nagu	nagu	0		D	
    	nagu	0		J	
seadus	seadu	s		V	s
      	seadus	0		A	sg n
      	seadus	0		S	sg n
nõuab	nõud	b		V	b
.	.			Z	
Täna	täna	0		D	
    	täna	0		V	o
27	27	0		N	?
Novembril	november	l		S	sg ad
tuli	tuli	0		S	sg n
    	tule	i		V	s
Rannavalla	ranna_vald	0		S	sg g
mees	mees	0		S	sg n
    	mesi	s		S	sg in
Kaarel	Kaarel	0		H	sg n
      	kaar	l		S	sg ad
      	kaarel	0		S	sg n
Tui	tui	0		S	sg g
   	tui	0		S	sg n
,	,			Z	
ja	ja	0		J	
andis	and	is		V	s
teada	tead	a		V	da
,	,			Z	
et	et	0		J	
temal	tema	l		P	sg ad
4.	4.	0		O	?
novembr	####				
.	.			Z	
s	s	0		Y	?
.	.			Z	
a	a	0		Y	?
oli	ole	i		V	s
25	25	0		N	?
ära	ära	0		D	
   	ära	0		V	neg o
kaotanud	kaota	nud		V	nud
        	kaota=nu	d		S	pl n
        	kaota=nud	0		A	
        	kaota=nud	0		A	sg n
        	kaota=nud	d		A	pl n
ja	ja	0		J	
rahad	raha	d		S	pl n
olnud	ol=nud	0		A	
     	ol=nud	0		A	sg n
     	ol=nud	d		A	pl n
     	ole	nud		V	nud
     	olnu	d		S	pl n
2	2	0		N	?
kümmne	####				
rublast	rubla	st		S	sg el
       	rublane	t		A	sg p
       	rublane	t		S	sg p
ja	ja	0		J	
üks	üks	0		N	sg n
   	üks	0		P	sg n
5	5	0		N	?
rublane	rublane	0		A	sg n
       	rublane	0		S	sg n
.	.			Z	
niisugust	nii_sugune	t		P	sg p
raha	raha	0		S	sg g
    	raha	0		S	sg n
    	raha	0		S	sg p
oli	ole	i		V	s
ka	ka	0		D	
Jakob	Jakob	0		H	sg n
Pirkeri	####				
poeg	poeg	0		S	sg n
leidnud	leid	nud		V	nud
       	leid=nu	d		S	pl n
       	leid=nud	0		A	
       	leid=nud	0		A	sg n
       	leid=nud	d		A	pl n
.	.			Z	
Kaarel	Kaarel	0		H	sg n
      	kaar	l		S	sg ad
      	kaarel	0		S	sg n
Tui	tui	0		S	sg g
   	tui	0		S	sg n
maksis	maks	is		V	s
      	maksi	s		S	sg in
sõitungi	####				
kuulutuse	kuulutus	0		S	sg g
raha	raha	0		S	sg g
    	raha	0		S	sg n
    	raha	0		S	sg p
80	80	0		N	?
kop	kop	0		Y	?
.	.			Z	
välja	välja	0		D	
     	välja	0		V	o
     	väli	0		S	adt
     	väli	0		S	sg g
     	väli	0		S	sg p
ja	ja	0		J	
andis	and	is		V	s
Jakob	Jakob	0		H	sg n
Pirkeri	####				
pojale	poeg	le		S	sg all
      	poja	le		S	sg all
5	5	0		N	?
rbl	rbl	0		Y	?
.	.			Z	
leidust	leidus	t		S	sg p
.	.			Z	
sellega	see	ga		P	sg kom
oli	ole	i		V	s
asi	asi	0		S	sg n
   	asi	0		V	o
lõpetatud	lõpeta	tud		V	tud
         	lõpeta=tu	d		S	pl n
         	lõpetatud	0		A	
         	lõpetatud	0		A	sg n
         	lõpetatud	d		A	pl n
.	.			Z	
lõpetatud	lõpeta	tud		V	tud
         	lõpeta=tu	d		S	pl n
         	lõpetatud	0		A	
         	lõpetatud	0		A	sg n
         	lõpetatud	d		A	pl n
.	.			Z	
