Uuemõisas	uue_mõis	s		S	sg in
sel	see	l		P	sg ad
   	sel	0		Y	?
19ndal	19=s	l		O	sg ad
aprillis	aprill	s		S	sg in
1867.	1867.	0		O	?
kogukonna	kogukond	0		S	sg g
kohtus	kohtu	s		V	s
      	kohus	s		S	sg in
kohtumehed	kohtu_mees	d		S	pl n
olid	ole	id		V	sid
peakohtumees	pea_kohtu_mees	0		S	sg n
Hans	Hans	0		H	sg n
Sepper	####				
kõrvamehed	kõrva_mees	d		S	pl n
Jüri	Jüri	0		H	sg g
    	Jüri	0		H	sg n
Eldermann	####				
""""	""""			Z	
Jaan	Jaan	0		H	sg n
    	jaan	0		S	sg n
    	jaan	0		Y	?
Rosenbaum	####				
No	no	0		I	
26.	26.	0		O	?
Krusiaugu	####				
Pearu	Pearu	0		H	sg g
     	Pearu	0		H	sg n
Pik	####				
,	,			Z	
kes	kes	0		P	pl n
   	kes	0		P	sg n
2	2	0		N	?
nädalid	####				
aega	aeg	0		S	adt
    	aeg	0		S	sg p
    	aega	0		K	
palus	palu	s		S	sg in
     	palu	s		V	s
selle	see	0		P	sg g
     	sell	e		S	pl p
otsuse	otsus	0		S	sg g
peale	pea	le		S	sg all
     	peale	0		D	
     	peale	0		K	
mis	mis	0		P	pl n
   	mis	0		P	sg n
temale	tema	le		P	sg all
sel	see	l		P	sg ad
   	sel	0		Y	?
5ndal	5=s	l		O	sg ad
aprillis	aprill	s		S	sg in
sai	saa	i		V	s
   	sai	0		S	sg n
mõistetud	mõist	tud		V	tud
         	mõiste=tu	d		S	pl n
         	mõiste=tud	0		A	
         	mõiste=tud	0		A	sg n
         	mõiste=tud	d		A	pl n
,	,			Z	
ei	ei	0		D	
  	ei	0		V	neg
ole	ole	0		V	o
selle	see	0		P	sg g
     	sell	e		S	pl p
kohtu	kohtu	0		V	o
     	kohus	0		S	sg g
otsusega	otsus	ga		S	sg kom
mitte	mitte	0		D	
rahul	rahu	l		S	sg ad
     	rahul	0		D	
,	,			Z	
vaid	vaid	0		D	
    	vaid	0		J	
tahab	taht	b		V	b
suurema	suurem	0		C	sg g
kohtu	kohtu	0		V	o
     	kohus	0		S	sg g
kaebada	####				
.	.			Z	
sai	saa	i		V	s
   	sai	0		S	sg n
protokoll	protokoll	0		S	sg n
väljakirjutud	####				
.	.			Z	
peakohtumees	pea_kohtu_mees	0		S	sg n
XXX	XXX	0		O	?
   	XXX	0		Y	?
Hans	Hans	0		H	sg n
Sepper	####				
1ne	####				
kõrvamees	kõrva_mees	0		S	sg n
XXX	XXX	0		O	?
   	XXX	0		Y	?
Jüri	Jüri	0		H	sg g
    	Jüri	0		H	sg n
Eldermann	####				
2ne	####				
kõrvamees	kõrva_mees	0		S	sg n
XXX	XXX	0		O	?
   	XXX	0		Y	?
Jaan	Jaan	0		H	sg n
    	jaan	0		S	sg n
    	jaan	0		Y	?
Rosenbaum	####				
kohtu	kohtu	0		V	o
     	kohus	0		S	sg g
kirjutaja	kirjutaja	0		S	sg g
         	kirjutaja	0		S	sg n
Friedrich	Friedrich	0		H	sg n
Schotter	####				
enneuhof	####				
dem	####				
te28	####				
april	####				
1867	1867	0		N	?
[	[			Z	
allkiri	all_kiri	0		S	sg n
]	]			Z	
