1	1	0		N	?
)	)			Z	
a	a	0		Y	?
ette	ette	0		D	
    	ette	0		K	
    	esi	tte		S	adt
tuli	tuli	0		S	sg n
    	tule	i		V	s
,	,			Z	
mõisa	mõis	0		S	sg g
härra	härra	0		S	sg g
     	härra	0		S	sg n
käsu	käsk	0		S	sg g
peale	pea	le		S	sg all
     	peale	0		D	
     	peale	0		K	
Saida	saida	0		S	sg g
     	saida	0		S	sg n
kõrtsi	kõrts	0		S	adt
      	kõrts	0		S	sg g
      	kõrts	0		S	sg p
metsavaht	metsa_vaht	0		S	sg n
Juhan	Juhan	0		H	sg n
Rosvalt	####				
ja	ja	0		J	
kaebab	kaeba	b		V	b
,	,			Z	
et	et	0		J	
mõisahärra	mõisa_härra	0		S	sg g
          	mõisa_härra	0		S	sg n
metsast	mets	st		S	sg el
       	metsane	t		A	sg p
(	(			Z	
Hingoarvust	####				
)	)			Z	
on	ole	0		V	b
  	ole	0		V	vad
varastatud	varasta	tud		V	tud
          	varastatu	d		S	pl n
          	varastatud	0		A	
          	varastatud	0		A	sg n
          	varastatud	d		A	pl n
(	(			Z	
2	2	0		N	?
)	)			Z	
kaks	kaks	0		N	sg n
mände	mänd	e		S	pl p
a	a	0		Y	?
)	)			Z	
11	11	0		N	?
1	1	0		N	?
/	/			Z	
2	2	0		N	?
tuli	tuli	0		S	sg n
    	tule	i		V	s
käind	####				
jäme	jäme	0		A	sg n
b	b	0		Y	?
)	)			Z	
6	6	0		N	?
1	1	0		N	?
/	/			Z	
2	2	0		N	?
tuli	tuli	0		S	sg n
    	tule	i		V	s
käind	####				
jääma	jää	ma		V	ma
     	jääm	0		S	adt
     	jääm	0		S	sg g
     	jääm	0		S	sg p
;	;			Z	
ja	ja	0		J	
jälgi	jälg	i		S	pl p
     	jälgi	0		V	o
     	jälk	0		A	sg g
mõõda	mõõt	0		V	o
on	ole	0		V	b
  	ole	0		V	vad
nemad	tema	d		P	pl n
Jõeäre	####				
Juhaniga	Juhan	ga		H	sg kom
järele	järele	0		D	
      	järele	0		K	
läinud	läinu	d		S	pl n
      	läinud	0		A	
      	läinud	0		A	sg n
      	läinud	d		A	pl n
      	mine	nud		V	nud
,	,			Z	
ni	####				
kaugele	kauge	le		A	sg all
       	kaugele	0		D	
,	,			Z	
kui	kui	0		D	
   	kui	0		J	
laitsese	####				
kaelapulga	kaela_pulk	0		S	sg g
peres	pere	s		S	sg in
.	.			Z	
ja	ja	0		J	
sealt	sealt	0		D	
     	siga	lt		A	sg abl
     	siga	lt		S	sg abl
leidnud	leid	nud		V	nud
       	leid=nu	d		S	pl n
       	leid=nud	0		A	
       	leid=nud	0		A	sg n
       	leid=nud	d		A	pl n
need	see	d		P	pl n
puud	puu	d		S	pl n
    	puud	0		S	sg n
    	puu	d		S	sg p
,	,			Z	
muist	muist	0		P	
     	muu	ist		P	pl el
olnud	ol=nud	0		A	
     	ol=nud	0		A	sg n
     	ol=nud	d		A	pl n
     	ole	nud		V	nud
     	olnu	d		S	pl n
rupeeks	####				
kistud	kis=tu	d		S	pl n
      	kisku	tud		V	tud
      	kistud	0		A	
      	kistud	0		A	sg n
      	kistud	d		A	pl n
ja	ja	0		J	
muist	muist	0		P	
     	muu	ist		P	pl el
veel	veel	0		D	
    	vesi	l		S	sg ad
olnud	ol=nud	0		A	
     	ol=nud	0		A	sg n
     	ol=nud	d		A	pl n
     	ole	nud		V	nud
     	olnu	d		S	pl n
õues	õu	s		S	sg in
    	õues	0		D	
maas	maa	s		S	sg in
    	maas	0		D	
.	.			Z	
b	b	0		Y	?
)	)			Z	
kohtu	kohtu	0		V	o
     	kohus	0		S	sg g
ette	ette	0		D	
    	ette	0		K	
    	esi	tte		S	adt
sai	saa	i		V	s
   	sai	0		S	sg n
kutsutud	kutsu	tud		V	tud
        	kutsutu	d		S	pl n
        	kutsutud	0		A	
        	kutsutud	0		A	sg n
        	kutsutud	d		A	pl n
laitsast	####				
kaelapulga	kaela_pulk	0		S	sg g
Hans	Hans	0		H	sg n
,	,			Z	
ja	ja	0		J	
tema	tema	0		P	sg g
    	tema	0		P	sg n
tunnistab	tunnista	b		V	b
,	,			Z	
et	et	0		J	
tema	tema	0		P	sg g
    	tema	0		P	sg n
on	ole	0		V	b
  	ole	0		V	vad
need	see	d		P	pl n
(	(			Z	
2	2	0		N	?
)	)			Z	
kaks	kaks	0		N	sg n
mände	mänd	e		S	pl p
sealt	sealt	0		D	
     	siga	lt		A	sg abl
     	siga	lt		S	sg abl
Hink	hink	0		S	sg n
arvust	arv	st		S	sg el
raiunud	raiu	nud		V	nud
       	raiu=nu	d		S	pl n
       	raiu=nud	0		A	
       	raiu=nud	0		A	sg n
       	raiu=nud	d		A	pl n
.	.			Z	
kohus	kohu	s		V	s
     	kohus	0		S	sg n
mõistis	mõist	is		V	s
:	:			Z	
et	et	0		J	
ta	tema	0		P	sg g
  	tema	0		P	sg n
peab	pida	b		V	b
maksma	maks	ma		V	ma
esimise	####				
puu	puu	0		S	sg g
   	puu	0		S	sg n
pealt	pea	lt		S	sg abl
     	pealt	0		D	
     	pealt	0		K	
,	,			Z	
mis	mis	0		P	pl n
   	mis	0		P	sg n
11	11	0		N	?
1	1	0		N	?
/	/			Z	
2	2	0		N	?
tuli	tuli	0		S	sg n
    	tule	i		V	s
käind	####				
jäme	jäme	0		A	sg n
a	a	0		Y	?
)	)			Z	
80	80	0		N	?
kop	kop	0		Y	?
.	.			Z	
ja	ja	0		J	
teise	teine	0		O	adt
     	teine	0		O	sg g
     	teine	0		P	adt
     	teine	0		P	sg g
pealt	pea	lt		S	sg abl
     	pealt	0		D	
     	pealt	0		K	
,	,			Z	
mis	mis	0		P	pl n
   	mis	0		P	sg n
6	6	0		N	?
1	1	0		N	?
/	/			Z	
2	2	0		N	?
=	=			Z	
käind	####				
jäme	jäme	0		A	sg n
b	b	0		Y	?
)	)			Z	
40	40	0		N	?
kop	kop	0		Y	?
ja	ja	0		J	
peale	pea	le		S	sg all
     	peale	0		D	
     	peale	0		K	
seda	see	da		P	sg p
seaduse	seadus	0		S	sg g
raamatu	raamat	0		S	sg g
pärrawak	####				
1121	1121	0		N	?
järel	järel	0		D	
     	järel	0		K	
1	1	0		N	?
rbl	rbl	0		Y	?
.	.			Z	
valla	vald	0		S	sg g
     	valla	0		D	
laekasse	laegas	sse		S	sg ill
mis	mis	0		P	pl n
   	mis	0		P	sg n
ühte	ühte	0		D	
    	üks	0		N	adt
    	üks	0		P	adt
    	ühe	0		S	sg g
    	üks	0		N	sg p
    	üks	0		P	sg p
kokku	kokku	0		D	
     	kogu	0		S	adt
teeb	tege	b		V	b
2	2	0		N	?
rbl	rbl	0		Y	?
.	.			Z	
20	20	0		N	?
kop	kop	0		Y	?
.	.			Z	
ja	ja	0		J	
seda	see	da		P	sg p
maksis	maks	is		V	s
      	maksi	s		S	sg in
kohtu	kohtu	0		V	o
     	kohus	0		S	sg g
ees	ees	0		D	
   	ees	0		K	
   	esi	s		S	sg in
välja	välja	0		D	
     	välja	0		V	o
     	väli	0		S	adt
     	väli	0		S	sg g
     	väli	0		S	sg p
.	.			Z	
kogukonnapeavanem	kogukonna_pea_vanem	0		S	sg n
Juhan	Juhan	0		H	sg n
Meinvald	####				
XXX	XXX	0		O	?
   	XXX	0		Y	?
kõrvamees	kõrva_mees	0		S	sg n
Villem	Villem	0		H	sg n
Petoffer	####				
XXX	XXX	0		O	?
   	XXX	0		Y	?
kõrvamees	kõrva_mees	0		S	sg n
Jacob	Jacob	0		H	sg n
sesmin	####				
XXX	XXX	0		O	?
   	XXX	0		Y	?
