ette	ette	0		D	
    	ette	0		K	
    	esi	tte		S	adt
astus	astu	s		V	s
kaebaja	kaebaja	0		S	sg g
       	kaebaja	0		S	sg n
sõrwekülast	####				
Hindrik	####				
Krum	####				
ja	ja	0		J	
kaebas	kaeba	s		V	s
,	,			Z	
et	et	0		J	
tema	tema	0		P	sg g
    	tema	0		P	sg n
laenas	laena	s		V	s
,	,			Z	
kahe	kaks	0		N	sg g
aasta	aasta	0		S	sg g
     	aasta	0		S	sg n
eest	eest	0		D	
    	eest	0		K	
    	esi	st		S	sg el
oma	oma	0		A	sg g
   	oma	0		D	
   	oma	0		P	sg g
   	oma	0		S	sg g
   	oma	0		V	o
   	oma	0		A	sg n
   	oma	0		A	sg p
   	oma	0		P	sg n
   	oma	0		P	sg p
   	oma	0		S	sg n
   	oma	0		S	sg p
venna	vend	0		S	sg g
Kaarel	Kaarel	0		H	sg n
      	kaar	l		S	sg ad
      	kaarel	0		S	sg n
Krumile	####				
Keila	Keila	0		H	sg g
     	Keila	0		H	sg n
laadal	laat	l		S	sg ad
27	27	0		N	?
rbl	rbl	0		Y	?
raha	raha	0		S	sg g
    	raha	0		S	sg n
    	raha	0		S	sg p
,	,			Z	
kellega	kes	ga		P	pl kom
       	kes	ga		P	sg kom
ta	tema	0		P	sg g
  	tema	0		P	sg n
omale	oma	le		A	sg all
     	oma	le		P	sg all
     	oma	le		S	sg all
härja	härg	0		S	sg g
ostis	ost	is		V	s
     	ost	s		S	sg in
,	,			Z	
ja	ja	0		J	
nüüd	nüüd	0		D	
,	,			Z	
kui	kui	0		D	
   	kui	0		J	
tema	tema	0		P	sg g
    	tema	0		P	sg n
haige	haige	0		A	sg g
     	haige	0		A	sg n
     	haige	0		S	sg g
     	haige	0		S	sg n
oli	ole	i		V	s
,	,			Z	
siis	siis	0		D	
    	siis	0		J	
saatis	saat	is		V	s
oma	oma	0		A	sg g
   	oma	0		D	
   	oma	0		P	sg g
   	oma	0		S	sg g
   	oma	0		V	o
   	oma	0		A	sg n
   	oma	0		A	sg p
   	oma	0		P	sg n
   	oma	0		P	sg p
   	oma	0		S	sg n
   	oma	0		S	sg p
naisterahva	naiste_rahvas	0		S	sg g
seda	see	da		P	sg p
raha	raha	0		S	sg g
    	raha	0		S	sg n
    	raha	0		S	sg p
,	,			Z	
ära	ära	0		D	
   	ära	0		V	neg o
tooma	too	ma		V	ma
Kaarel	Kaarel	0		H	sg n
      	kaar	l		S	sg ad
      	kaarel	0		S	sg n
Krum	####				
,	,			Z	
hakanud	hakka	nud		V	nud
       	haka=nu	d		S	pl n
       	haka=nud	0		A	
       	haka=nud	0		A	sg n
       	haka=nud	d		A	pl n
tema	tema	0		P	sg g
    	tema	0		P	sg n
naist	naine	t		S	sg p
sõimama	sõima	ma		V	ma
ja	ja	0		J	
ei	ei	0		D	
  	ei	0		V	neg
ola	####				
lubanudseda	####				
raha	raha	0		S	sg g
    	raha	0		S	sg n
    	raha	0		S	sg p
mitte	mitte	0		D	
maksta	maks	ta		V	da
      	maks	ta		V	ta
selle	see	0		P	sg g
     	sell	e		S	pl p
pärast	pära	st		S	sg el
      	pärane	t		A	sg p
      	pärast	0		D	
      	pärast	0		K	
,	,			Z	
et	et	0		J	
Hindrik	####				
Krum	####				
olla	ole	a		V	da
tema	tema	0		P	sg g
    	tema	0		P	sg n
õnsa	####				
õe	õe	0		I	
  	õde	0		S	sg g
varanduse	varandus	0		S	sg g
omal	oma	l		A	sg ad
    	oma	l		P	sg ad
    	oma	l		S	sg ad
pidanud	pida	nud		V	nud
       	pida=nu	d		S	pl n
       	pida=nud	0		A	
       	pida=nud	0		A	sg n
       	pida=nud	d		A	pl n
ja	ja	0		J	
ei	ei	0		D	
  	ei	0		V	neg
ole	ole	0		V	o
temaga	tema	ga		P	sg kom
mitte	mitte	0		D	
õigel	õige	l		A	sg ad
viisil	viis	l		S	sg ad
      	viisil	0		K	
jäganud	####				
,	,			Z	
siis	siis	0		D	
    	siis	0		J	
püüab	püüd	b		V	b
ta	tema	0		P	sg g
  	tema	0		P	sg n
nüüd	nüüd	0		D	
neid	neid	0		S	sg n
    	see	d		P	pl p
    	tema	d		P	pl p
27	27	0		N	?
rbl	rbl	0		Y	?
omale	oma	le		A	sg all
     	oma	le		P	sg all
     	oma	le		S	sg all
saada	saa	da		V	da
     	saat	0		V	o
     	saa	da		V	ta
.	.			Z	
Kaarel	Kaarel	0		H	sg n
      	kaar	l		S	sg ad
      	kaarel	0		S	sg n
Krum	####				
sai	saa	i		V	s
   	sai	0		S	sg n
ette	ette	0		D	
    	ette	0		K	
    	esi	tte		S	adt
kutsutud	kutsu	tud		V	tud
        	kutsutu	d		S	pl n
        	kutsutud	0		A	
        	kutsutud	0		A	sg n
        	kutsutud	d		A	pl n
ja	ja	0		J	
kaebtus	####				
ette	ette	0		D	
    	ette	0		K	
    	esi	tte		S	adt
loetud	loetu	d		S	pl n
      	loetud	0		A	
      	loetud	0		A	sg n
      	loetud	d		A	pl n
      	luge	tud		V	tud
,	,			Z	
tema	tema	0		P	sg g
    	tema	0		P	sg n
tunnistas	tunnista	s		V	s
seda	see	da		P	sg p
tõeks	tõde	ks		S	sg tr
     	tõsi	ks		S	sg tr
,	,			Z	
et	et	0		J	
ta	tema	0		P	sg g
  	tema	0		P	sg n
olla	ole	a		V	da
oma	oma	0		A	sg g
   	oma	0		D	
   	oma	0		P	sg g
   	oma	0		S	sg g
   	oma	0		V	o
   	oma	0		A	sg n
   	oma	0		A	sg p
   	oma	0		P	sg n
   	oma	0		P	sg p
   	oma	0		S	sg n
   	oma	0		S	sg p
venna	vend	0		S	sg g
kääst	####				
27	27	0		N	?
rbl	rbl	0		Y	?
.	.			Z	
laenanud	laena	nud		V	nud
        	laena=nu	d		S	pl n
        	laena=nud	0		A	
        	laena=nud	0		A	sg n
        	laena=nud	d		A	pl n
,	,			Z	
ja	ja	0		J	
,	,			Z	
et	et	0		J	
vend	vend	0		S	sg n
raskesti	raskesti	0		D	
haige	haige	0		A	sg g
     	haige	0		A	sg n
     	haige	0		S	sg g
     	haige	0		S	sg n
,	,			Z	
oli	ole	i		V	s
ja	ja	0		J	
arvata	arva	ta		V	da
      	arva	ta		V	ta
      	arvata	0		D	
,	,			Z	
et	et	0		J	
ta	tema	0		P	sg g
  	tema	0		P	sg n
suurema	suurem	0		C	sg g
saab	saa	b		V	b
siis	siis	0		D	
    	siis	0		J	
ola	####				
tema	tema	0		P	sg g
    	tema	0		P	sg n
venna	vend	0		S	sg g
naise	naine	0		S	sg g
vastu	vastu	0		D	
     	vastu	0		K	
ütelnud	ütle	nud		V	nud
       	ütel=nu	d		S	pl n
       	ütel=nud	0		A	
       	ütel=nud	0		A	sg n
       	ütel=nud	d		A	pl n
,	,			Z	
et	et	0		J	
ta	tema	0		P	sg g
  	tema	0		P	sg n
selle	see	0		P	sg g
     	sell	e		S	pl p
raha	raha	0		S	sg g
    	raha	0		S	sg n
    	raha	0		S	sg p
oma	oma	0		A	sg g
   	oma	0		D	
   	oma	0		P	sg g
   	oma	0		S	sg g
   	oma	0		V	o
   	oma	0		A	sg n
   	oma	0		A	sg p
   	oma	0		P	sg n
   	oma	0		P	sg p
   	oma	0		S	sg n
   	oma	0		S	sg p
õnsa	####				
õe	õe	0		I	
  	õde	0		S	sg g
varanduse	varandus	0		S	sg g
eest	eest	0		D	
    	eest	0		K	
    	esi	st		S	sg el
omale	oma	le		A	sg all
     	oma	le		P	sg all
     	oma	le		S	sg all
tahab	taht	b		V	b
võtta	võt	a		V	da
,	,			Z	
aga	aga	0		J	
,	,			Z	
et	et	0		J	
vend	vend	0		S	sg n
pole	ole	0		V	neg o
terveks	terve	ks		A	sg tr
       	terve	ks		S	sg tr
on	ole	0		V	b
  	ole	0		V	vad
saanud	saa	nud		V	nud
      	saa=nud	0		A	
      	saa=nud	0		A	sg n
      	saa=nud	d		A	pl n
      	saanu	d		S	pl n
,	,			Z	
siis	siis	0		D	
    	siis	0		J	
saab	saa	b		V	b
tema	tema	0		P	sg g
    	tema	0		P	sg n
seda	see	da		P	sg p
võlga	võlg	0		S	adt
     	võlg	0		S	sg p
,	,			Z	
ära	ära	0		D	
   	ära	0		V	neg o
maksma	maks	ma		V	ma
,	,			Z	
siis	siis	0		D	
    	siis	0		J	
kui	kui	0		D	
   	kui	0		J	
ta	tema	0		P	sg g
  	tema	0		P	sg n
omale	oma	le		A	sg all
     	oma	le		P	sg all
     	oma	le		S	sg all
raha	raha	0		S	sg g
    	raha	0		S	sg n
    	raha	0		S	sg p
on	ole	0		V	b
  	ole	0		V	vad
niipalju	nii_palju	0		D	
korjanud	korja	nud		V	nud
        	korja=nu	d		S	pl n
        	korja=nud	0		A	
        	korja=nud	0		A	sg n
        	korja=nud	d		A	pl n
,	,			Z	
ja	ja	0		J	
nõudis	nõud	is		V	s
,	,			Z	
et	et	0		J	
kohus	kohu	s		V	s
     	kohus	0		S	sg n
peaks	pea	ks		S	sg tr
     	pida	ks		V	ks
tema	tema	0		P	sg g
    	tema	0		P	sg n
õnsa	####				
õe	õe	0		I	
  	õde	0		S	sg g
varast	vara	st		S	sg el
      	varane	t		A	sg p
      	varas	t		S	sg p
,	,			Z	
ka	ka	0		D	
temale	tema	le		P	sg all
osa	osa	0		S	sg g
   	osa	0		S	sg n
   	osa	0		S	sg p
mõistma	mõist	ma		V	ma
,	,			Z	
niisama	nii_sama	0		D	
palju	palju	0		D	
     	palju	0		P	sg g
     	palju	0		P	sg n
,	,			Z	
kui	kui	0		D	
   	kui	0		J	
ta	tema	0		P	sg g
  	tema	0		P	sg n
vend	vend	0		S	sg n
seda	see	da		P	sg p
sai	saa	i		V	s
   	sai	0		S	sg n
,	,			Z	
kohus	kohu	s		V	s
     	kohus	0		S	sg n
ei	ei	0		D	
  	ei	0		V	neg
võtnud	võt	nud		V	nud
      	võt=nu	d		S	pl n
      	võt=nud	0		A	
      	võt=nud	0		A	sg n
      	võt=nud	d		A	pl n
seda	see	da		P	sg p
kaebtust	####				
enam	enam	0		C	sg n
    	enam	0		D	
ette	ette	0		D	
    	ette	0		K	
    	esi	tte		S	adt
,	,			Z	
sest	see	st		P	sg el
    	sest	0		J	
se	####				
juba	juba	0		D	
kaheksa	kaheksa	0		N	sg g
       	kaheksa	0		N	sg n
aasta	aasta	0		S	sg g
     	aasta	0		S	sg n
eest	eest	0		D	
    	eest	0		K	
    	esi	st		S	sg el
kohtu	kohtu	0		V	o
     	kohus	0		S	sg g
poolt	pool	t		N	sg p
     	pool	t		S	sg p
     	poolt	0		D	
     	poolt	0		K	
sai	saa	i		V	s
   	sai	0		S	sg n
seletud	seletu	d		V	d
,	,			Z	
ja	ja	0		J	
,	,			Z	
et	et	0		J	
õde	õde	0		S	sg n
   	õde	0		S	sg p
Hindrik	####				
Krummi	####				
toita	toit	a		V	da
oli	ole	i		V	s
,	,			Z	
ja	ja	0		J	
maha	maha	0		D	
mattis	mat	is		V	s
,	,			Z	
siis	siis	0		D	
    	siis	0		J	
lubas	luba	s		V	s
õde	õde	0		S	sg n
   	õde	0		S	sg p
isi	####				
need	see	d		P	pl n
riided	riie	d		S	pl n
mis	mis	0		P	pl n
   	mis	0		P	sg n
taal	####				
järel	järel	0		D	
     	järel	0		K	
jäid	jää	id		V	sid
venna	vend	0		S	sg g
Hindrikule	####				
oma	oma	0		A	sg g
   	oma	0		D	
   	oma	0		P	sg g
   	oma	0		S	sg g
   	oma	0		V	o
   	oma	0		A	sg n
   	oma	0		A	sg p
   	oma	0		P	sg n
   	oma	0		P	sg p
   	oma	0		S	sg n
   	oma	0		S	sg p
surma	surm	0		S	adt
     	surm	0		S	sg g
     	surma	0		V	o
     	surm	0		S	sg p
voodi	voodi	0		S	sg g
     	voodi	0		S	sg n
peal	pea	l		S	sg ad
    	peal	0		D	
    	peal	0		K	
.	.			Z	
kohus	kohu	s		V	s
     	kohus	0		S	sg n
mõistis	mõist	is		V	s
,	,			Z	
et	et	0		J	
Kaarel	Kaarel	0		H	sg n
      	kaar	l		S	sg ad
      	kaarel	0		S	sg n
Krum	####				
peab	pida	b		V	b
oma	oma	0		A	sg g
   	oma	0		D	
   	oma	0		P	sg g
   	oma	0		S	sg g
   	oma	0		V	o
   	oma	0		A	sg n
   	oma	0		A	sg p
   	oma	0		P	sg n
   	oma	0		P	sg p
   	oma	0		S	sg n
   	oma	0		S	sg p
venna	vend	0		S	sg g
Hindrikule	####				
selle	see	0		P	sg g
     	sell	e		S	pl p
laenatud	laena	tud		V	tud
        	laena=tu	d		S	pl n
        	laena=tud	0		A	
        	laena=tud	0		A	sg n
        	laena=tud	d		A	pl n
raha	raha	0		S	sg g
    	raha	0		S	sg n
    	raha	0		S	sg p
1884	1884	0		N	?
a	a	0		Y	?
sees	sees	0		D	
    	sees	0		K	
ära	ära	0		D	
   	ära	0		V	neg o
tasuma	tasu	ma		V	ma
.	.			Z	
peakohtumees	pea_kohtu_mees	0		S	sg n
Jüri	Jüri	0		H	sg g
    	Jüri	0		H	sg n
Saarfeldt	####				
XXX	XXX	0		O	?
   	XXX	0		Y	?
kõrvamehed	kõrva_mees	d		S	pl n
Kaarel	Kaarel	0		H	sg n
      	kaar	l		S	sg ad
      	kaarel	0		S	sg n
Andermann	####				
XXX	XXX	0		O	?
   	XXX	0		Y	?
ja	ja	0		J	
Juhan	Juhan	0		H	sg n
Humberg	####				
XXX	XXX	0		O	?
   	XXX	0		Y	?
kirjutaja	kirjutaja	0		S	sg g
         	kirjutaja	0		S	sg n
G	G	0		Y	?
.	.			Z	
_	_			Z	
kolip	####				
makstud	maks	tud		V	tud
       	maks=tu	d		S	pl n
       	maks=tud	0		A	
       	maks=tud	0		A	sg n
       	maks=tud	d		A	pl n
.	.			Z	
