läbi	läbi	0		D	
    	läbi	0		K	
    	läbi	0		V	o
vaadatud	vaata	tud		V	tud
        	vaada=tu	d		S	pl n
        	vaadatud	0		A	
        	vaadatud	0		A	sg n
        	vaadatud	d		A	pl n
12ndal	12=s	l		O	sg ad
jaanuaris	jaanuar	s		S	sg in
1873.	1873.	0		O	?
kihelkonna	kihelkond	0		S	sg g
kohtuhärra	kohtu_härra	0		S	sg g
          	kohtu_härra	0		S	sg n
(	(			Z	
allkiri	all_kiri	0		S	sg n
)	)			Z	
