kohtu	kohtu	0		V	o
     	kohus	0		S	sg g
korra	kord	0		S	sg g
pärast	pära	st		S	sg el
      	pärane	t		A	sg p
      	pärast	0		D	
      	pärast	0		K	
olid	ole	id		V	sid
Kaiu	Kaiu	0		H	sg g
    	Kaiu	0		H	sg n
valla	vald	0		S	sg g
     	valla	0		D	
kohtusse	kohtune	se		A	adt
        	kohus	sse		S	sg ill
valla	vald	0		S	sg g
     	valla	0		D	
hoonesse	hoone	sse		S	sg ill
kokku	kokku	0		D	
     	kogu	0		S	adt
tulnud	tul=nud	0		A	
      	tul=nud	0		A	sg n
      	tul=nud	d		A	pl n
      	tule	nud		V	nud
      	tulnu	d		S	pl n
:	:			Z	
kohtu	kohtu	0		V	o
     	kohus	0		S	sg g
vanem	vanem	0		C	sg n
     	vanem	0		S	sg n
:	:			Z	
Jaan	Jaan	0		H	sg n
    	jaan	0		S	sg n
    	jaan	0		Y	?
Viiroon	####				
1	1	0		N	?
,	,			Z	
kohtu	kohtu	0		V	o
     	kohus	0		S	sg g
kõrvamees	kõrva_mees	0		S	sg n
:	:			Z	
Toomas	Toomas	0		H	sg n
      	Toomas	s		H	sg in
      	too	mas		V	mas
Rasu	rask	0		S	sg g
    	rasu	0		S	sg g
    	rasu	0		S	sg n
    	rasu	0		S	sg p
2	2	0		N	?
,	,			Z	
kohtu	kohtu	0		V	o
     	kohus	0		S	sg g
kõrvamees	kõrva_mees	0		S	sg n
:	:			Z	
Mart	Mart	0		H	sg n
    	mart	0		S	sg n
Pauls	####				
kirjutaja	kirjutaja	0		S	sg g
         	kirjutaja	0		S	sg n
:	:			Z	
Kaarel	Kaarel	0		H	sg n
      	kaar	l		S	sg ad
      	kaarel	0		S	sg n
Kaasik	kaasik	0		S	sg n
kohtu	kohtu	0		V	o
     	kohus	0		S	sg g
käiaid	####				
ei	ei	0		D	
  	ei	0		V	neg
olnud	ol=nud	0		A	
     	ol=nud	0		A	sg n
     	ol=nud	d		A	pl n
     	ole	nud		V	nud
     	olnu	d		S	pl n
ja	ja	0		J	
ei	ei	0		D	
  	ei	0		V	neg
olnud	ol=nud	0		A	
     	ol=nud	0		A	sg n
     	ol=nud	d		A	pl n
     	ole	nud		V	nud
     	olnu	d		S	pl n
mingisugust	mingi_sugune	t		P	sg p
asja	asi	0		S	adt
    	asi	0		S	sg g
    	asi	0		S	sg p
seletada	seleta	da		V	da
.	.			Z	
kohtu	kohtu	0		V	o
     	kohus	0		S	sg g
vanem	vanem	0		C	sg n
     	vanem	0		S	sg n
:	:			Z	
Jaan	Jaan	0		H	sg n
    	jaan	0		S	sg n
    	jaan	0		Y	?
Viiroon	####				
XXX	XXX	0		O	?
   	XXX	0		Y	?
1	1	0		N	?
,	,			Z	
kohtu	kohtu	0		V	o
     	kohus	0		S	sg g
kõrvamees	kõrva_mees	0		S	sg n
:	:			Z	
Toomas	Toomas	0		H	sg n
      	Toomas	s		H	sg in
      	too	mas		V	mas
Rasu	rask	0		S	sg g
    	rasu	0		S	sg g
    	rasu	0		S	sg n
    	rasu	0		S	sg p
XXX	XXX	0		O	?
   	XXX	0		Y	?
2	2	0		N	?
,	,			Z	
kohtu	kohtu	0		V	o
     	kohus	0		S	sg g
kõrvamees	kõrva_mees	0		S	sg n
:	:			Z	
Mart	Mart	0		H	sg n
    	mart	0		S	sg n
Pauls	####				
XXX	XXX	0		O	?
   	XXX	0		Y	?
kirjutaja	kirjutaja	0		S	sg g
         	kirjutaja	0		S	sg n
:	:			Z	
Kaarel	Kaarel	0		H	sg n
      	kaar	l		S	sg ad
      	kaarel	0		S	sg n
Kaasik	kaasik	0		S	sg n
