1911	1911	0		N	?
aastal	aasta	l		S	sg ad
Augusti	august	0		S	sg g
       	August	0		H	sg g
kuu	kuu	0		S	sg g
   	kuu	0		S	sg n
24	24	0		N	?
päeval	päev	l		S	sg ad
ilmusivad	####				
Harku	Harku	0		H	sg g
     	Harku	0		H	sg n
     	harku	0		G	
valla	vald	0		S	sg g
     	valla	0		D	
kohtusse	kohtune	se		A	adt
        	kohus	sse		S	sg ill
kohtule	kohus	le		S	sg all
isiklikult	isiklik	lt		A	sg abl
          	isiklikult	0		D	
tuntud	tund	tud		V	tud
      	tuntu	d		S	pl n
      	tuntud	0		A	
      	tuntud	0		A	sg n
      	tuntud	d		A	pl n
Harku	Harku	0		H	sg g
     	Harku	0		H	sg n
     	harku	0		G	
valla	vald	0		S	sg g
     	valla	0		D	
liikmed	liige	d		S	pl n
Johannes	Johannes	0		H	sg n
        	Johann	es		H	pl in
Peetri	Peeter	0		H	sg g
      	Peetri	0		H	sg g
      	Peetri	0		H	sg n
p	p	0		Y	?
.	.			Z	
riku	rikku	0		V	o
ja	ja	0		J	
Kaarel	Kaarel	0		H	sg n
      	kaar	l		S	sg ad
      	kaarel	0		S	sg n
Juhani	Juhan	0		H	sg g
      	juha	ni		S	sg ter
p	p	0		Y	?
.	.			Z	
sõrmus	sõrmus	0		S	sg n
panivad	####				
kohtule	kohus	le		S	sg all
kirjaliku	kirjalik	0		A	sg g
lepingu	leping	0		S	sg g
ette	ette	0		D	
    	ette	0		K	
    	esi	tte		S	adt
ning	ning	0		J	
palusivad	####				
seda	see	da		P	sg p
kinnitada	kinnita	da		V	da
.	.			Z	
Leping	leping	0		S	sg n
on	ole	0		V	b
  	ole	0		V	vad
tehtud	tehtu	d		S	pl n
      	tehtud	0		A	
      	tehtud	0		A	sg n
      	tehtud	d		A	pl n
      	tege	tud		V	tud
Peter	Peter	0		H	sg n
Peetri	Peeter	0		H	sg g
      	Peetri	0		H	sg g
      	Peetri	0		H	sg n
p	p	0		Y	?
.	.			Z	
riku	rikku	0		V	o
ja	ja	0		J	
Kaarel	Kaarel	0		H	sg n
      	kaar	l		S	sg ad
      	kaarel	0		S	sg n
sõrmuse	sõrmus	0		S	sg g
vahel	vahe	l		S	sg ad
     	vahel	0		D	
     	vahel	0		K	
tehtud	tehtu	d		S	pl n
      	tehtud	0		A	
      	tehtud	0		A	sg n
      	tehtud	d		A	pl n
      	tege	tud		V	tud
aga	aga	0		J	
Peter	Peter	0		H	sg n
riku	rikku	0		V	o
on	ole	0		V	b
  	ole	0		V	vad
ärasurnud	ära_surnu	d		S	pl n
         	ära_surnud	0		A	
         	ära_surnud	0		A	sg n
         	ära_surnud	d		A	pl n
.	.			Z	
Leping	leping	0		S	sg n
on	ole	0		V	b
  	ole	0		V	vad
järgmine	järgmine	0		A	sg n
:	:			Z	
tunnistus	tunnistus	0		S	sg n
.	.			Z	
1911	1911	0		N	?
aastal	aasta	l		S	sg ad
3ndal	3=s	l		O	sg ad
märtsikuu	märtsi_kuu	0		S	sg g
         	märtsi_kuu	0		S	sg n
päeval	päev	l		S	sg ad
on	ole	0		V	b
  	ole	0		V	vad
Peter	Peter	0		H	sg n
Peetri	Peeter	0		H	sg g
      	Peetri	0		H	sg g
      	Peetri	0		H	sg n
p	p	0		Y	?
.	.			Z	
riku	rikku	0		V	o
,	,			Z	
kui	kui	0		D	
   	kui	0		J	
praeguse	praegune	0		A	sg g
Märiküla	####				
koha	koht	0		S	sg g
    	koha	0		S	sg g
    	koha	0		V	o
    	koha	0		S	sg n
    	koha	0		S	sg p
omaniku	omanik	0		S	sg g
ja	ja	0		J	
Kaarel	Kaarel	0		H	sg n
      	kaar	l		S	sg ad
      	kaarel	0		S	sg n
Juhani	Juhan	0		H	sg g
      	juha	ni		S	sg ter
p	p	0		Y	?
.	.			Z	
sõrmuse	sõrmus	0		S	sg g
vahel	vahe	l		S	sg ad
     	vahel	0		D	
     	vahel	0		K	
järgmine	järgmine	0		A	sg n
leping	leping	0		S	sg n
tehtud	tehtu	d		S	pl n
      	tehtud	0		A	
      	tehtud	0		A	sg n
      	tehtud	d		A	pl n
      	tege	tud		V	tud
:	:			Z	
Peter	Peter	0		H	sg n
riku	rikku	0		V	o
annab	and	b		V	b
oma	oma	0		A	sg g
   	oma	0		D	
   	oma	0		P	sg g
   	oma	0		S	sg g
   	oma	0		V	o
   	oma	0		A	sg n
   	oma	0		A	sg p
   	oma	0		P	sg n
   	oma	0		P	sg p
   	oma	0		S	sg n
   	oma	0		S	sg p
Märiküla	####				
koha	koht	0		S	sg g
    	koha	0		S	sg g
    	koha	0		V	o
    	koha	0		S	sg n
    	koha	0		S	sg p
krundist	krunt	st		S	sg el
ühe	üks	0		N	sg g
   	üks	0		P	sg g
   	ühe	0		S	sg n
vakamaa	vaka_maa	0		S	sg g
       	vaka_maa	0		S	sg n
maad	maa	d		S	pl n
    	maa	d		S	sg p
,	,			Z	
nile	####				
üks	üks	0		N	sg n
   	üks	0		P	sg n
külg	külg	0		S	sg n
vastu	vastu	0		D	
     	vastu	0		K	
""""	""""			Z	
metsavahi	metsa_vaht	0		S	sg g
""""	""""			Z	
aeda	aed	0		S	adt
    	aed	0		S	sg p
ja	ja	0		J	
teine	teine	0		O	sg n
     	teine	0		P	sg n
külg	külg	0		S	sg n
vastu	vastu	0		D	
     	vastu	0		K	
mert	####				
seisab	seis	b		V	b
50	50	0		N	?
aasta	aasta	0		S	sg g
     	aasta	0		S	sg n
peale	pea	le		S	sg all
     	peale	0		D	
     	peale	0		K	
/	/			Z	
viiekümne	viis_kümmend	0		N	sg g
aasta	aasta	0		S	sg g
     	aasta	0		S	sg n
peale	pea	le		S	sg all
     	peale	0		D	
     	peale	0		K	
/	/			Z	
15	15	0		N	?
rubla	rubla	0		S	sg g
     	rubla	0		S	sg n
     	rubla	0		S	sg p
aastas	aasta	s		S	sg in
/	/			Z	
viisteist	viis_teist	0		N	sg n
rubla	rubla	0		S	sg g
     	rubla	0		S	sg n
     	rubla	0		S	sg p
aastas	aasta	s		S	sg in
/	/			Z	
rendile	rent	le		S	sg all
,	,			Z	
selle	see	0		P	sg g
     	sell	e		S	pl p
tingimisega	tingimine	ga		S	sg kom
,	,			Z	
et	et	0		J	
sinna	sinna	0		D	
maja	maja	0		S	sg g
    	maja	0		S	sg n
    	maja	0		S	sg p
ehitada	ehita	da		V	da
oma	oma	0		A	sg g
   	oma	0		D	
   	oma	0		P	sg g
   	oma	0		S	sg g
   	oma	0		V	o
   	oma	0		A	sg n
   	oma	0		A	sg p
   	oma	0		P	sg n
   	oma	0		P	sg p
   	oma	0		S	sg n
   	oma	0		S	sg p
tarvis	tarvis	0		D	
      	tarvis	0		K	
,	,			Z	
mitte	mitte	0		D	
aga	aga	0		J	
seda	see	da		P	sg p
õigust	õigus	t		S	sg p
ilma	ilm	0		S	adt
    	ilm	0		S	sg g
    	ilma	0		D	
    	ilma	0		K	
    	ilm	0		S	sg p
koha	koht	0		S	sg g
    	koha	0		S	sg g
    	koha	0		V	o
    	koha	0		S	sg n
    	koha	0		S	sg p
omaniku	omanik	0		S	sg g
teadmata	tead	mata		V	mata
        	tead=mata	0		A	
ja	ja	0		J	
lubata	luba	ta		V	ta
teistele	teine	tele		O	pl all
        	teine	tele		P	pl all
loata	loata	0		A	
     	loata	0		D	
     	luba	ta		S	sg ab
     	luga	ta		S	sg ab
.	.			Z	
rendi	rent	0		S	sg g
     	renti	0		V	o
raha	raha	0		S	sg g
    	raha	0		S	sg n
    	raha	0		S	sg p
võib	või	b		V	b
ka	ka	0		D	
tööga	töö	ga		S	sg kom
tasuda	tasu	da		V	da
.	.			Z	
Kaarel	Kaarel	0		H	sg n
      	kaar	l		S	sg ad
      	kaarel	0		S	sg n
sõrmus	sõrmus	0		S	sg n
on	ole	0		V	b
  	ole	0		V	vad
kohustatud	kohusta	tud		V	tud
          	kohusta=tu	d		S	pl n
          	kohusta=tud	0		A	
          	kohusta=tud	0		A	sg n
          	kohusta=tud	d		A	pl n
seda	see	da		P	sg p
krundi	krunt	0		S	sg g
      	krunti	0		V	o
ajaga	aeg	ga		S	sg kom
varjuma	varju	ma		V	ma
,	,			Z	
et	et	0		J	
koha	koht	0		S	sg g
    	koha	0		S	sg g
    	koha	0		V	o
    	koha	0		S	sg n
    	koha	0		S	sg p
loomade	loom	de		S	pl g
käimist	käimine	t		S	sg p
ei	ei	0		D	
  	ei	0		V	neg
takista	takista	0		V	o
.	.			Z	
see	see	0		P	sg n
tunnistus	tunnistus	0		S	sg n
maksab	maks	b		V	b
ka	ka	0		D	
siis	siis	0		D	
    	siis	0		J	
,	,			Z	
kui	kui	0		D	
   	kui	0		J	
Peter	Peter	0		H	sg n
riku	rikku	0		V	o
enam	enam	0		C	sg n
    	enam	0		D	
seda	see	da		P	sg p
kohta	koht	0		S	adt
     	kohta	0		K	
     	kohta	0		V	o
     	koht	0		S	sg p
ei	ei	0		D	
  	ei	0		V	neg
pea	pea	0		D	
   	pea	0		S	sg g
   	pida	0		V	o
   	pea	0		S	sg n
.	.			Z	
Märikülas	####				
3	3	0		N	?
märtsil	märts	l		S	sg ad
1911	1911	0		N	?
aastal	aasta	l		S	sg ad
allkirjad	all_kiri	d		S	pl n
/	/			Z	
P	P	0		Y	?
.	.			Z	
_	_			Z	
riku	rikku	0		V	o
,	,			Z	
k	k	0		Y	?
.	.			Z	
_	_			Z	
sõrmus	sõrmus	0		S	sg n
/	/			Z	
see	see	0		P	sg n
leping	leping	0		S	sg n
sai	saa	i		V	s
   	sai	0		S	sg n
peale	pea	le		S	sg all
     	peale	0		D	
     	peale	0		K	
sissekirjutamist	sisse_kirjutamine	t		S	sg p
alguskirjaga	algus_kiri	ga		S	sg kom
võreltud	####				
ja	ja	0		J	
kinnitatud	kinnita	tud		V	tud
          	kinnita=tu	d		S	pl n
          	kinnita=tud	0		A	
          	kinnita=tud	0		A	sg n
          	kinnita=tud	d		A	pl n
,	,			Z	
kuna	kuna	0		D	
    	kuna	0		J	
algus	alg	s		S	sg in
     	algus	0		S	sg n
kiri	kiri	0		S	sg n
tagasi	tagasi	0		D	
      	tagasi	0		K	
antud	an=tu	d		S	pl n
     	and	tud		V	tud
     	antud	0		A	
     	antud	0		A	sg n
     	antud	d		A	pl n
.	.			Z	
kohtu	kohtu	0		V	o
     	kohus	0		S	sg g
esimees	esi_mees	0		S	sg n
O. Reinde	####				
Liikmed	liige	d		S	pl n
H	H	0		Y	?
Märi	####				
R_	####				
.	.			Z	
kõrsin	####				
A	A	0		Y	?
.	.			Z	
_	_			Z	
nTobu	####				
kirjutaja	kirjutaja	0		S	sg g
         	kirjutaja	0		S	sg n
Kasberg	####				
