3	3	0		N	?
)	)			Z	
lükkati	####				
Juhan	Juhan	0		H	sg n
Mathjas	####				
,	,			Z	
lükati	lükka	ti		V	ti
      	lükati	0		S	sg g
      	lükati	0		S	sg n
Juhan	Juhan	0		H	sg n
lehtverk	####				
,	,			Z	
Kurisu	####				
Rein	Rein	0		H	sg n
Põldman	####				
peavad	pida	vad		V	vad
omad	oma	d		A	pl n
    	oma	d		P	pl n
    	oma	d		S	pl n
    	oma	d		V	d
kohad	koht	d		S	pl n
     	koha	d		S	pl n
     	koha	d		V	d
Jüri	Jüri	0		H	sg g
    	Jüri	0		H	sg n
päevast	päev	st		S	sg el
       	päevane	t		A	sg p
1888	1888	0		N	?
mõisa	mõis	0		S	sg g
valitsuse	valitsus	0		S	sg g
kätte	kätte	0		K	
     	käsi	tte		S	adt
tagasi	tagasi	0		D	
      	tagasi	0		K	
andma	and	ma		V	ma
,	,			Z	
ja	ja	0		J	
nende	see	de		P	pl g
     	tema	de		P	pl g
kohtadese	####				
saavad	saa	vad		V	vad
      	saav	d		A	pl n
      	saav	d		S	pl n
mõisa	mõis	0		S	sg g
sulased	sulane	d		S	pl n
elama	ela	ma		V	ma
pandud	pan=du	d		S	pl n
      	pan=dud	0		A	
      	pan=dud	0		A	sg n
      	pan=dud	d		A	pl n
      	pane	dud		V	tud
.	.			Z	
nimetud	nimetu	d		A	pl n
mehed	mees	d		S	pl n
on	ole	0		V	b
  	ole	0		V	vad
seda	see	da		P	sg p
üles	üles	0		D	
andmist	andmine	t		S	sg p
kohtu	kohtu	0		V	o
     	kohus	0		S	sg g
ees	ees	0		D	
   	ees	0		K	
   	esi	s		S	sg in
kuulda	kuul	da		V	da
      	kuul	da		V	ta
saanud	saa	nud		V	nud
      	saa=nud	0		A	
      	saa=nud	0		A	sg n
      	saa=nud	d		A	pl n
      	saanu	d		S	pl n
.	.			Z	
