Täna	täna	0		D	
    	täna	0		V	o
saab	saa	b		V	b
see	see	0		P	sg n
ette	ette	0		D	
    	ette	0		K	
    	esi	tte		S	adt
võetud	võe=tu	d		S	pl n
      	võetud	0		A	
      	võetud	0		A	sg n
      	võetud	d		A	pl n
      	võt	tud		V	tud
,	,			Z	
mis	mis	0		P	pl n
   	mis	0		P	sg n
mineva	minev	0		A	sg g
kord	kord	0		D	
    	kord	0		S	sg n
9ndal	9=s	l		O	sg ad
juulil	juuli	l		S	sg ad
,	,			Z	
seepärast	see_pärast	0		D	
poolele	pool	le		N	sg all
       	pool	le		S	sg all
jäi	jää	i		V	s
,	,			Z	
et	et	0		J	
selget	selge	t		A	sg p
tunnistust	tunnistus	t		S	sg p
ei	ei	0		D	
  	ei	0		V	neg
olnud	ol=nud	0		A	
     	ol=nud	0		A	sg n
     	ol=nud	d		A	pl n
     	ole	nud		V	nud
     	olnu	d		S	pl n
.	.			Z	
Mart	Mart	0		H	sg n
    	mart	0		S	sg n
Nudel	####				
tunnistab	tunnista	b		V	b
et	et	0		J	
tema	tema	0		P	sg g
    	tema	0		P	sg n
Kulli	kull	0		S	adt
     	kull	0		S	sg g
     	kull	0		S	sg p
sigu	siga	u		A	pl p
    	siga	u		S	pl p
on	ole	0		V	b
  	ole	0		V	vad
ka	ka	0		D	
seal	seal	0		D	
    	siga	l		A	sg ad
    	siga	l		S	sg ad
mõisa	mõis	0		S	sg g
aasas	aas	s		S	sg in
     	aasa	s		V	s
olnud	ol=nud	0		A	
     	ol=nud	0		A	sg n
     	ol=nud	d		A	pl n
     	ole	nud		V	nud
     	olnu	d		S	pl n
;	;			Z	
aga	aga	0		J	
Kulli	kull	0		S	adt
     	kull	0		S	sg g
     	kull	0		S	sg p
Hans	Hans	0		H	sg n
Wingel	vinge	l		A	sg ad
vanub	vanu	b		V	b
tagasi	tagasi	0		D	
      	tagasi	0		K	
,	,			Z	
et	et	0		J	
tema	tema	0		P	sg g
    	tema	0		P	sg n
sead	sead	d		V	d
    	siga	d		A	pl n
    	siga	d		S	pl n
ei	ei	0		D	
  	ei	0		V	neg
ole	ole	0		V	o
koguni	kogu	ni		S	sg ter
      	koguni	0		D	
mitte	mitte	0		D	
käinud	käi	nud		V	nud
      	käi=nud	0		A	
      	käi=nud	0		A	sg n
      	käi=nud	d		A	pl n
      	käinu	d		S	pl n
ja	ja	0		J	
Hans	Hans	0		H	sg n
Wingel	vinge	l		A	sg ad
ütleb	ütle	b		V	b
oleks	ole	ks		V	ks
metsavaht	metsa_vaht	0		S	sg n
sead	sead	d		V	d
    	siga	d		A	pl n
    	siga	d		S	pl n
kinni	kinni	0		D	
ajanud	aja	nud		V	nud
      	aja=nu	d		S	pl n
      	aja=nud	0		A	
      	aja=nud	0		A	sg n
      	aja=nud	d		A	pl n
ehk	ehk	0		D	
   	ehk	0		J	
minu	mina	0		P	sg g
õue	õu	0		S	adt
   	õu	0		S	sg g
   	õue	0		D	
   	õu	0		S	sg p
ajanud	aja	nud		V	nud
      	aja=nu	d		S	pl n
      	aja=nud	0		A	
      	aja=nud	0		A	sg n
      	aja=nud	d		A	pl n
ja	ja	0		J	
ütelnud	ütle	nud		V	nud
       	ütel=nu	d		S	pl n
       	ütel=nud	0		A	
       	ütel=nud	0		A	sg n
       	ütel=nud	d		A	pl n
et	et	0		J	
need	see	d		P	pl n
on	ole	0		V	b
  	ole	0		V	vad
sinu	sina	0		P	sg g
sead	sead	d		V	d
    	siga	d		A	pl n
    	siga	d		S	pl n
,	,			Z	
siis	siis	0		D	
    	siis	0		J	
oleks	ole	ks		V	ks
mina	mina	0		P	sg n
    	mina	0		S	sg g
    	mina	0		S	sg n
    	mina	0		S	sg p
kohe	kohe	0		A	sg n
    	kohe	0		D	
oma	oma	0		A	sg g
   	oma	0		D	
   	oma	0		P	sg g
   	oma	0		S	sg g
   	oma	0		V	o
   	oma	0		A	sg n
   	oma	0		A	sg p
   	oma	0		P	sg n
   	oma	0		P	sg p
   	oma	0		S	sg n
   	oma	0		S	sg p
trahvi	trahv	0		S	adt
      	trahv	0		S	sg g
      	trahvi	0		V	o
      	trahv	0		S	sg p
väljamaksnud	välja_maks=nu	d		S	pl n
            	välja_maks=nud	0		A	
            	välja_maks=nud	0		A	sg n
            	välja_maks=nud	d		A	pl n
aga	aga	0		J	
nüüd	nüüd	0		D	
mitte	mitte	0		D	
üks	üks	0		N	sg n
   	üks	0		P	sg n
kross	kross	0		S	sg n
.	.			Z	
kohus	kohu	s		V	s
     	kohus	0		S	sg n
ei	ei	0		D	
  	ei	0		V	neg
tea	tead	0		V	o
siin	siin	0		D	
    	siin	0		S	sg n
midagi	miski	dagi		P	sg p
teha	tege	a		V	da
sest	see	st		P	sg el
    	sest	0		J	
Hans	Hans	0		H	sg n
Wingel	vinge	l		A	sg ad
ei	ei	0		D	
  	ei	0		V	neg
võtta	võt	a		V	da
sigu	siga	u		A	pl p
    	siga	u		S	pl p
mitte	mitte	0		D	
omaks	oma	ks		A	sg tr
     	oma	ks		P	sg tr
     	oma	ks		S	sg tr
     	oma	ks		V	ks
saab	saa	b		V	b
mõisapolizeile	####				
teada	tead	a		V	da
antud	an=tu	d		S	pl n
     	and	tud		V	tud
     	antud	0		A	
     	antud	0		A	sg n
     	antud	d		A	pl n
kas	kas	0		D	
lähevad	mine	vad		V	vad
hakenrichteri	####				
juure	juur	0		S	sg g
või	või	0		S	sg g
   	või	0		V	o
   	või	0		D	
   	või	0		J	
   	või	0		S	sg n
lepivad	leppi	vad		V	vad
ära	ära	0		D	
   	ära	0		V	neg o
.	.			Z	
(	(			Z	
see	see	0		P	sg n
sigade	siga	de		A	pl g
      	siga	de		S	pl g
asi	asi	0		S	sg n
   	asi	0		V	o
läheb	mine	b		V	b
siit	siit	0		D	
kohtust	kohtune	t		A	sg p
       	kohus	st		S	sg el
välja	välja	0		D	
     	välja	0		V	o
     	väli	0		S	adt
     	väli	0		S	sg g
     	väli	0		S	sg p
)	)			Z	
