17.	17.	0		O	?
tuli	tuli	0		S	sg n
    	tule	i		V	s
ette	ette	0		D	
    	ette	0		K	
    	esi	tte		S	adt
Salutaguselt	salu_tagune	lt		A	sg abl
            	salu_tagune	lt		S	sg abl
            	salu_taguse=lt	0		D	
Kai	Kai	0		H	sg g
   	Kai	0		H	sg n
   	kai	0		S	sg g
   	kai	0		S	sg n
Reinvald	####				
ja	ja	0		J	
kaebas	kaeba	s		V	s
et	et	0		J	
tema	tema	0		P	sg g
    	tema	0		P	sg n
tütter	####				
An	####				
14	14	0		N	?
aastat	aasta	t		S	sg p
vana	vana	0		A	sg g
    	vana	0		A	sg n
    	vana	0		A	sg p
    	vana	0		S	sg g
    	vana	0		S	sg n
    	vana	0		S	sg p
on	ole	0		V	b
  	ole	0		V	vad
Lohul	lohk	l		S	sg ad
     	loht	l		S	sg ad
kalda	kallas	0		S	sg g
peres	pere	s		S	sg in
Tõnu	Tõnu	0		H	sg g
    	Tõnu	0		H	sg n
Pawelsoni	####				
juure	juur	0		S	sg g
aasta	aasta	0		S	sg g
     	aasta	0		S	sg n
peale	pea	le		S	sg all
     	peale	0		D	
     	peale	0		K	
teenistuses	teenistus	s		S	sg in
           	teenistuses	0		A	
           	teenistuses	0		D	
kaebelnud	####				
ja	ja	0		J	
palgaks	palk	ks		S	sg tr
lubatud	luba	tud		V	tud
       	luba=tu	d		S	pl n
       	lubatu	d		A	pl n
       	lubatud	0		A	
       	lubatud	0		A	sg n
       	lubatud	d		A	pl n
:	:			Z	
kaks	kaks	0		N	sg n
naela	nael	0		S	adt
     	nael	0		S	sg g
     	nael	0		S	sg p
villu	vill	u		S	pl p
     	vilu	0		A	adt
     	vilu	0		S	adt
,	,			Z	
kaks	kaks	0		N	sg n
särgi	särg	i		S	pl p
     	särk	0		S	sg g
,	,			Z	
kaks	kaks	0		N	sg n
seelikud	seelik	d		S	pl n
,	,			Z	
ja	ja	0		J	
kaks	kaks	0		N	sg n
jäkki	####				
.	.			Z	
neli	neli	0		N	sg n
nädalat	nädal	t		S	sg p
enne	enne	0		D	
    	enne	0		K	
    	enne	0		S	sg n
Jaani	Jaan	0		H	adt
     	Jaan	0		H	sg g
     	Jaani	0		H	sg g
     	jaan	0		S	adt
     	jaan	0		S	sg g
     	Jaan	0		H	sg p
     	Jaani	0		H	sg n
     	jaan	0		S	sg p
päeva	päev	0		S	adt
     	päev	0		S	sg g
     	päev	0		S	sg p
läinud	läinu	d		S	pl n
      	läinud	0		A	
      	läinud	0		A	sg n
      	läinud	d		A	pl n
      	mine	nud		V	nud
pliga	####				
teenistuse	teenistus	0		S	sg g
,	,			Z	
ja	ja	0		J	
üheksa	üheksa	0		N	sg g
      	üheksa	0		N	sg n
nädalat	nädal	t		S	sg p
pärast	pära	st		S	sg el
      	pärane	t		A	sg p
      	pärast	0		D	
      	pärast	0		K	
Jaani	Jaan	0		H	adt
     	Jaan	0		H	sg g
     	Jaani	0		H	sg g
     	jaan	0		S	adt
     	jaan	0		S	sg g
     	Jaan	0		H	sg p
     	Jaani	0		H	sg n
     	jaan	0		S	sg p
päeva	päev	0		S	adt
     	päev	0		S	sg g
     	päev	0		S	sg p
lasknud	lask	nud		V	nud
       	lask=nu	d		S	pl n
       	lask=nud	0		A	
       	lask=nud	0		A	sg n
       	lask=nud	d		A	pl n
teda	tema	da		P	sg p
kalda	kallas	0		S	sg g
perenaine	pere_naine	0		S	sg n
Mari	Mari	0		H	sg g
    	mari	0		S	sg g
    	mari	0		S	sg n
    	Mari	0		H	sg n
    	mari	0		S	sg p
Pawelson	####				
teenistusest	teenistus	st		S	sg el
lahti	laht	i		S	pl p
     	lahti	0		D	
,	,			Z	
ja	ja	0		J	
see	see	0		P	sg n
teenistuse	teenistus	0		S	sg g
eest	eest	0		D	
    	eest	0		K	
    	esi	st		S	sg el
ei	ei	0		D	
  	ei	0		V	neg
olevat	ole	vat		V	vat
      	olev	t		A	sg p
      	olev	t		S	sg p
muud	muu	d		P	pl n
    	muu	d		S	pl n
    	muu	d		V	d
    	muu	d		P	sg p
    	muu	d		S	sg p
antud	an=tu	d		S	pl n
     	and	tud		V	tud
     	antud	0		A	
     	antud	0		A	sg n
     	antud	d		A	pl n
kui	kui	0		D	
   	kui	0		J	
kaks	kaks	0		N	sg n
särgi	särg	i		S	pl p
     	särk	0		S	sg g
ja	ja	0		J	
ühe	üks	0		N	sg g
   	üks	0		P	sg g
   	ühe	0		S	sg n
seeliku	seelik	0		S	sg g
.	.			Z	
et	et	0		J	
neil	see	l		P	pl ad
    	tema	l		P	pl ad
aasta	aasta	0		S	sg g
     	aasta	0		S	sg n
kaup	kaup	0		S	sg n
olnud	ol=nud	0		A	
     	ol=nud	0		A	sg n
     	ol=nud	d		A	pl n
     	ole	nud		V	nud
     	olnu	d		S	pl n
ja	ja	0		J	
nüüd	nüüd	0		D	
pliga	####				
talveks	talv	ks		S	sg tr
       	tali	ks		S	sg tr
teenistusest	teenistus	st		S	sg el
lahti	laht	i		S	pl p
     	lahti	0		D	
lastud	las=tu	d		S	pl n
      	las=tud	0		A	
      	las=tud	0		A	sg n
      	las=tud	d		A	pl n
      	lask	tud		V	tud
,	,			Z	
seepärast	see_pärast	0		D	
ei	ei	0		D	
  	ei	0		V	neg
ole	ole	0		V	o
Kai	Kai	0		H	sg g
   	Kai	0		H	sg n
   	kai	0		S	sg g
   	kai	0		S	sg n
Reinvald	####				
seega	seega	0		D	
mitte	mitte	0		D	
rahul	rahu	l		S	sg ad
     	rahul	0		D	
ja	ja	0		J	
palub	palu	b		V	b
Lohu	lohk	0		S	sg g
    	loht	0		S	sg g
kogukonna	kogukond	0		S	sg g
kohut	kohus	t		S	sg p
seda	see	da		P	sg p
asja	asi	0		S	adt
    	asi	0		S	sg g
    	asi	0		S	sg p
seletada	seleta	da		V	da
.	.			Z	
kalda	kallas	0		S	sg g
perenaine	pere_naine	0		S	sg n
Mari	Mari	0		H	sg g
    	mari	0		S	sg g
    	mari	0		S	sg n
    	Mari	0		H	sg n
    	mari	0		S	sg p
Pawelson	####				
sai	saa	i		V	s
   	sai	0		S	sg n
kohtu	kohtu	0		V	o
     	kohus	0		S	sg g
ette	ette	0		D	
    	ette	0		K	
    	esi	tte		S	adt
kutsutud	kutsu	tud		V	tud
        	kutsutu	d		S	pl n
        	kutsutud	0		A	
        	kutsutud	0		A	sg n
        	kutsutud	d		A	pl n
ja	ja	0		J	
temale	tema	le		P	sg all
see	see	0		P	sg n
kaebus	kaebus	0		S	sg n
ette	ette	0		D	
    	ette	0		K	
    	esi	tte		S	adt
loetud	loetu	d		S	pl n
      	loetud	0		A	
      	loetud	0		A	sg n
      	loetud	d		A	pl n
      	luge	tud		V	tud
.	.			Z	
Tema	tema	0		P	sg g
    	tema	0		P	sg n
tunnistab	tunnista	b		V	b
seda	see	da		P	sg p
tõeks	tõde	ks		S	sg tr
     	tõsi	ks		S	sg tr
,	,			Z	
et	et	0		J	
neil	see	l		P	pl ad
    	tema	l		P	pl ad
aasta	aasta	0		S	sg g
     	aasta	0		S	sg n
kaup	kaup	0		S	sg n
olnud	ol=nud	0		A	
     	ol=nud	0		A	sg n
     	ol=nud	d		A	pl n
     	ole	nud		V	nud
     	olnu	d		S	pl n
,	,			Z	
aga	aga	0		J	
An	####				
Reinvald	####				
on	ole	0		V	b
  	ole	0		V	vad
väga	väga	0		D	
haiglane	haiglane	0		A	sg n
ja	ja	0		J	
pealegi	pealegi	0		D	
vastane	vastane	0		A	sg n
       	vastane	0		S	sg n
ja	ja	0		J	
sõnakuulmata	sõna_kuul=mata	0		A	
olnud	ol=nud	0		A	
     	ol=nud	0		A	sg n
     	ol=nud	d		A	pl n
     	ole	nud		V	nud
     	olnu	d		S	pl n
,	,			Z	
seepärast	see_pärast	0		D	
poole	pool	0		N	sg g
     	pool	0		S	sg g
     	pool	e		S	pl p
     	poole	0		K	
     	poole	0		S	sg n
tema	tema	0		P	sg g
    	tema	0		P	sg n
teda	tema	da		P	sg p
võinud	või	nud		V	nud
      	või=nu	d		S	pl n
      	või=nud	0		A	
      	või=nud	0		A	sg n
      	või=nud	d		A	pl n
pidada	pida	da		V	da
.	.			Z	
selle	see	0		P	sg g
     	sell	e		S	pl p
peale	pea	le		S	sg all
     	peale	0		D	
     	peale	0		K	
ühendasid	ühenda	sid		V	sid
kohtu	kohtu	0		V	o
     	kohus	0		S	sg g
liikmed	liige	d		S	pl n
ja	ja	0		J	
tegid	tege	id		V	sid
see	see	0		P	sg n
mõistus	mõistus	0		S	sg n
:	:			Z	
et	et	0		J	
An	####				
Reinvald	####				
küll	küll	0		D	
    	küll	0		S	sg n
aasta	aasta	0		S	sg g
     	aasta	0		S	sg n
peale	pea	le		S	sg all
     	peale	0		D	
     	peale	0		K	
teenistuse	teenistus	0		S	sg g
oli	ole	i		V	s
kaubelnud	kauple	nud		V	nud
         	kaubel=nu	d		S	pl n
         	kaubel=nud	0		A	
         	kaubel=nud	0		A	sg n
         	kaubel=nud	d		A	pl n
,	,			Z	
aga	aga	0		J	
omas	oma	s		A	sg in
    	oma	s		P	sg in
    	oma	s		S	sg in
    	oma	s		V	s
teenistuses	teenistus	s		S	sg in
           	teenistuses	0		A	
           	teenistuses	0		D	
sõnakuulmatu	sõna_kuulmatu	0		A	sg g
            	sõna_kuulmatu	0		A	sg n
ja	ja	0		J	
vastane	vastane	0		A	sg n
       	vastane	0		S	sg n
olnud	ol=nud	0		A	
     	ol=nud	0		A	sg n
     	ol=nud	d		A	pl n
     	ole	nud		V	nud
     	olnu	d		S	pl n
,	,			Z	
see	see	0		P	sg n
pärast	pära	st		S	sg el
      	pärane	t		A	sg p
      	pärast	0		D	
      	pärast	0		K	
ei	ei	0		D	
  	ei	0		V	neg
või	või	0		S	sg g
   	või	0		V	o
   	või	0		D	
   	või	0		J	
   	või	0		S	sg n
tema	tema	0		P	sg g
    	tema	0		P	sg n
mitte	mitte	0		D	
oma	oma	0		A	sg g
   	oma	0		D	
   	oma	0		P	sg g
   	oma	0		S	sg g
   	oma	0		V	o
   	oma	0		A	sg n
   	oma	0		A	sg p
   	oma	0		P	sg n
   	oma	0		P	sg p
   	oma	0		S	sg n
   	oma	0		S	sg p
täieliku	täielik	0		A	sg g
palka	palk	0		S	adt
     	palka	0		V	o
     	palk	0		S	sg p
nõuda	nõud	a		V	da
.	.			Z	
siiski	siiski	0		D	
peab	pida	b		V	b
Mari	Mari	0		H	sg g
    	mari	0		S	sg g
    	mari	0		S	sg n
    	Mari	0		H	sg n
    	mari	0		S	sg p
Pawelson	####				
temale	tema	le		P	sg all
,	,			Z	
et	et	0		J	
ta	tema	0		P	sg g
  	tema	0		P	sg n
kõige	kõik	0		P	sg g
     	kõige	0		D	
tarvilisema	tarvilise=m	0		C	sg g
töö	töö	0		S	sg g
   	töö	0		S	sg n
aigus	####				
on	ole	0		V	b
  	ole	0		V	vad
teenistuses	teenistus	s		S	sg in
           	teenistuses	0		A	
           	teenistuses	0		D	
olnud	ol=nud	0		A	
     	ol=nud	0		A	sg n
     	ol=nud	d		A	pl n
     	ole	nud		V	nud
     	olnu	d		S	pl n
,	,			Z	
aga	aga	0		J	
talveks	talv	ks		S	sg tr
       	tali	ks		S	sg tr
lahti	laht	i		S	pl p
     	lahti	0		D	
lasktud	####				
,	,			Z	
veel	veel	0		D	
    	vesi	l		S	sg ad
maksma	maks	ma		V	ma
:	:			Z	
_üks	####				
nael	nael	0		S	sg n
villu	vill	u		S	pl p
     	vilu	0		A	adt
     	vilu	0		S	adt
,	,			Z	
paar	paar	0		N	sg n
    	paar	0		S	sg n
pastlad	pastel	d		S	pl n
,	,			Z	
ja	ja	0		J	
üks	üks	0		N	sg n
   	üks	0		P	sg n
pütt	pütt	0		S	sg n
rukkid	rukis	d		S	pl n
.	.			Z	
see	see	0		P	sg n
otsusega	otsus	ga		S	sg kom
olid	ole	id		V	sid
kohtu	kohtu	0		V	o
     	kohus	0		S	sg g
alused	alune	d		A	pl n
      	alune	d		S	pl n
      	alus	d		S	pl n
rahul	rahu	l		S	sg ad
     	rahul	0		D	
.	.			Z	
