tuli	tuli	0		S	sg n
    	tule	i		V	s
ette	ette	0		D	
    	ette	0		K	
    	esi	tte		S	adt
surnud	surnu	d		S	pl n
      	surnud	0		A	
      	surnud	0		A	sg n
      	surnud	d		A	pl n
      	sure	nud		V	nud
aia	aed	0		S	sg g
Hans	Hans	0		H	sg n
lagi	lagi	0		S	sg n
lesk	lesk	0		S	sg n
Liisa	Liisa	0		H	sg g
     	Liisa	0		H	sg n
lak	####				
.	.			Z	
36	36	0		N	?
a	a	0		Y	?
v	v	0		Y	?
.	.			Z	
ja	ja	0		J	
palub	palu	b		V	b
oma	oma	0		A	sg g
   	oma	0		D	
   	oma	0		P	sg g
   	oma	0		S	sg g
   	oma	0		V	o
   	oma	0		A	sg n
   	oma	0		A	sg p
   	oma	0		P	sg n
   	oma	0		P	sg p
   	oma	0		S	sg n
   	oma	0		S	sg p
laste	laps	te		S	pl g
     	last	e		S	pl p
kaksvatuse	####				
raha	raha	0		S	sg g
    	raha	0		S	sg n
    	raha	0		S	sg p
17	17	0		N	?
/	/			Z	
seitse	seitse	0		N	sg n
teistkümmend	####				
/	/			Z	
rbl	rbl	0		Y	?
.	.			Z	
välja	välja	0		D	
     	välja	0		V	o
     	väli	0		S	adt
     	väli	0		S	sg g
     	väli	0		S	sg p
anda	and	a		V	da
,	,			Z	
sest	see	st		P	sg el
    	sest	0		J	
temal	tema	l		P	sg ad
olla	ole	a		V	da
tarvis	tarvis	0		D	
      	tarvis	0		K	
leiba	leib	0		S	adt
     	leib	0		S	sg p
osta	ost	0		V	o
    	ost	a		V	da
ja	ja	0		J	
üks	üks	0		N	sg n
   	üks	0		P	sg n
laps	laps	0		S	sg n
käia	käi	0		S	adt
    	käi	0		S	sg g
    	käi	a		V	da
    	käia	0		V	o
    	käi	0		S	sg p
pragu	pragu	0		S	sg n
     	pragu	0		S	sg p
koolis	kool	is		V	s
      	kool	s		S	sg in
,	,			Z	
kelle	kes	0		P	pl g
     	kes	0		P	sg g
kooli	kool	i		S	pl p
     	kool	0		S	adt
     	kool	0		S	sg g
     	kool	0		S	sg p
raamatuid	raamat	id		S	pl p
tarvis	tarvis	0		D	
      	tarvis	0		K	
osta	ost	0		V	o
    	ost	a		V	da
.	.			Z	
otsus	otsus	0		S	sg n
:	:			Z	
et	et	0		J	
lahtist	lahtine	t		A	sg p
raha	raha	0		S	sg g
    	raha	0		S	sg n
    	raha	0		S	sg p
Hans	Hans	0		H	sg n
lagi	lagi	0		S	sg n
lastel	laps	tel		S	pl ad
praegu	praegu	0		D	
kohtus	kohtu	s		V	s
      	kohus	s		S	sg in
sees	sees	0		D	
    	sees	0		K	
ei	ei	0		D	
  	ei	0		V	neg
ole	ole	0		V	o
,	,			Z	
saab	saa	b		V	b
teisest	teine	st		O	sg el
       	teine	st		P	sg el
       	teisene	t		A	sg p
kohtus	kohtu	s		V	s
      	kohus	s		S	sg in
olevast	olev	st		A	sg el
       	olev	st		S	sg el
rahast	raha	st		S	sg el
see	see	0		P	sg n
raha	raha	0		S	sg g
    	raha	0		S	sg n
    	raha	0		S	sg p
17	17	0		N	?
rbl	rbl	0		Y	?
Liisu	liisk	0		S	sg g
     	liisu	0		V	o
lagile	####				
makstud	maks	tud		V	tud
       	maks=tu	d		S	pl n
       	maks=tud	0		A	
       	maks=tud	0		A	sg n
       	maks=tud	d		A	pl n
ja	ja	0		J	
viimane	viimane	0		A	sg n
raha	raha	0		S	sg g
    	raha	0		S	sg n
    	raha	0		S	sg p
17	17	0		N	?
rbl	rbl	0		Y	?
.	.			Z	
korjamise	korjamine	0		S	sg g
raamatu	raamat	0		S	sg g
N	N	0		Y	?
2870.	2870.	0		O	?
pealt	pea	lt		S	sg abl
     	pealt	0		D	
     	pealt	0		K	
märtsi	märts	0		S	adt
      	märts	0		S	sg g
      	märts	0		S	sg p
kuus	kuu	s		S	sg in
    	kuus	0		N	sg n
välja	välja	0		D	
     	välja	0		V	o
     	väli	0		S	adt
     	väli	0		S	sg g
     	väli	0		S	sg p
võetud	võe=tu	d		S	pl n
      	võetud	0		A	
      	võetud	0		A	sg n
      	võetud	d		A	pl n
      	võt	tud		V	tud
ja	ja	0		J	
kohutse	####				
ära	ära	0		D	
   	ära	0		V	neg o
tasutud	tasu	tud		V	tud
       	tasu=tu	d		S	pl n
       	tasu=tud	0		A	
       	tasu=tud	0		A	sg n
       	tasu=tud	d		A	pl n
.	.			Z	
17	17	0		N	?
rbl	rbl	0		Y	?
.	.			Z	
