Rae	raad	0		S	sg g
ja	ja	0		J	
Jüri	Jüri	0		H	sg g
    	Jüri	0		H	sg n
Kiriku	kirik	0		S	sg g
valla	vald	0		S	sg g
     	valla	0		D	
kohtu	kohtu	0		V	o
     	kohus	0		S	sg g
protokoll	protokoll	0		S	sg n
.	.			Z	
tuli	tuli	0		S	sg n
    	tule	i		V	s
ette	ette	0		D	
    	ette	0		K	
    	esi	tte		S	adt
Aruküla	aru_küla	0		S	sg g
       	aru_küla	0		S	sg n
       	aru_küla	0		S	sg p
vallast	vald	st		S	sg el
Andrei	Andrei	0		H	sg g
      	Andrei	0		H	sg n
Rosenberg	Rosenberg	0		H	sg n
ja	ja	0		J	
kaebas	kaeba	s		V	s
et	et	0		J	
Rae	raad	0		S	sg g
vallast	vald	st		S	sg el
Hans	Hans	0		H	sg n
Lenkmann	####				
on	ole	0		V	b
  	ole	0		V	vad
teda	tema	da		P	sg p
1ne	####				
Sep	####				
.	.			Z	
k	k	0		Y	?
.	.			Z	
p	p	0		Y	?
.	.			Z	
Vasjala	####				
kõrtsis	kõrts	s		S	sg in
rusikaga	rusikas	ga		S	sg kom
peksnud	peks	nud		V	nud
       	peks=nu	d		S	pl n
       	peks=nud	0		A	
       	peks=nud	0		A	sg n
       	peks=nud	d		A	pl n
esiteks	esiteks	0		D	
kuklasse	kuklane	se		S	adt
        	kukal	sse		S	sg ill
ja	ja	0		J	
viimaks	vii	maks		V	maks
       	viimaks	0		D	
kõrva	kõrv	0		S	adt
     	kõrv	0		S	sg g
     	kõrv	0		S	sg p
ääre	äär	0		S	sg g
ja	ja	0		J	
tema	tema	0		P	sg g
    	tema	0		P	sg n
ninast	nina	st		S	sg el
on	ole	0		V	b
  	ole	0		V	vad
ka	ka	0		D	
verd	veri	0		S	sg p
sest	see	st		P	sg el
    	sest	0		J	
peksust	peks	st		S	sg el
välja	välja	0		D	
     	välja	0		V	o
     	väli	0		S	adt
     	väli	0		S	sg g
     	väli	0		S	sg p
tulnud	tul=nud	0		A	
      	tul=nud	0		A	sg n
      	tul=nud	d		A	pl n
      	tule	nud		V	nud
      	tulnu	d		S	pl n
,	,			Z	
sest	see	st		P	sg el
    	sest	0		J	
ta	tema	0		P	sg g
  	tema	0		P	sg n
on	ole	0		V	b
  	ole	0		V	vad
ka	ka	0		D	
kohe	kohe	0		A	sg n
    	kohe	0		D	
Rae	raad	0		S	sg g
talitaja	talitaja	0		S	sg g
        	talitaja	0		S	sg n
juure	juur	0		S	sg g
läinud	läinu	d		S	pl n
      	läinud	0		A	
      	läinud	0		A	sg n
      	läinud	d		A	pl n
      	mine	nud		V	nud
ja	ja	0		J	
oma	oma	0		A	sg g
   	oma	0		D	
   	oma	0		P	sg g
   	oma	0		S	sg g
   	oma	0		V	o
   	oma	0		A	sg n
   	oma	0		A	sg p
   	oma	0		P	sg n
   	oma	0		P	sg p
   	oma	0		S	sg n
   	oma	0		S	sg p
verist	verine	t		A	sg p
nina	nina	0		S	sg g
    	nina	0		S	sg n
    	nina	0		S	sg p
seal	seal	0		D	
    	siga	l		A	sg ad
    	siga	l		S	sg ad
näidanud	näita	nud		V	nud
        	näida=nu	d		S	pl n
        	näida=nud	0		A	
        	näida=nud	0		A	sg n
        	näida=nud	d		A	pl n
.	.			Z	
talitaja	talitaja	0		S	sg g
        	talitaja	0		S	sg n
ütles	ütle	s		V	s
et	et	0		J	
ta	tema	0		P	sg g
  	tema	0		P	sg n
on	ole	0		V	b
  	ole	0		V	vad
tema	tema	0		P	sg g
    	tema	0		P	sg n
verist	verine	t		A	sg p
nina	nina	0		S	sg g
    	nina	0		S	sg n
    	nina	0		S	sg p
näinud	näi	nud		V	nud
      	näge	nud		V	nud
      	näi=nud	0		A	
      	näi=nud	0		A	sg n
      	näi=nud	d		A	pl n
      	näinu	d		S	pl n
aga	aga	0		J	
seda	see	da		P	sg p
tema	tema	0		P	sg g
    	tema	0		P	sg n
ei	ei	0		D	
  	ei	0		V	neg
tea	tead	0		V	o
tunnistada	tunnista	da		V	da
mis	mis	0		P	pl n
   	mis	0		P	sg n
asja	asi	0		S	adt
    	asi	0		S	sg g
    	asi	0		S	sg p
läbi	läbi	0		D	
    	läbi	0		K	
    	läbi	0		V	o
on	ole	0		V	b
  	ole	0		V	vad
tema	tema	0		P	sg g
    	tema	0		P	sg n
veriseks	verine	ks		A	sg tr
saanud	saa	nud		V	nud
      	saa=nud	0		A	
      	saa=nud	0		A	sg n
      	saa=nud	d		A	pl n
      	saanu	d		S	pl n
.	.			Z	
selle	see	0		P	sg g
     	sell	e		S	pl p
peale	pea	le		S	sg all
     	peale	0		D	
     	peale	0		K	
sai	saa	i		V	s
   	sai	0		S	sg n
Hans	Hans	0		H	sg n
Lenkmann	####				
ette	ette	0		D	
    	ette	0		K	
    	esi	tte		S	adt
kutsutud	kutsu	tud		V	tud
        	kutsutu	d		S	pl n
        	kutsutud	0		A	
        	kutsutud	0		A	sg n
        	kutsutud	d		A	pl n
kis	####				
tunnistas	tunnista	s		V	s
,	,			Z	
et	et	0		J	
tema	tema	0		P	sg g
    	tema	0		P	sg n
on	ole	0		V	b
  	ole	0		V	vad
läinud	läinu	d		S	pl n
      	läinud	0		A	
      	läinud	0		A	sg n
      	läinud	d		A	pl n
      	mine	nud		V	nud
oma	oma	0		A	sg g
   	oma	0		D	
   	oma	0		P	sg g
   	oma	0		S	sg g
   	oma	0		V	o
   	oma	0		A	sg n
   	oma	0		A	sg p
   	oma	0		P	sg n
   	oma	0		P	sg p
   	oma	0		S	sg n
   	oma	0		S	sg p
asja	asi	0		S	adt
    	asi	0		S	sg g
    	asi	0		S	sg p
pärast	pära	st		S	sg el
      	pärane	t		A	sg p
      	pärast	0		D	
      	pärast	0		K	
kõrtsi	kõrts	0		S	adt
      	kõrts	0		S	sg g
      	kõrts	0		S	sg p
,	,			Z	
ja	ja	0		J	
olnud	ol=nud	0		A	
     	ol=nud	0		A	sg n
     	ol=nud	d		A	pl n
     	ole	nud		V	nud
     	olnu	d		S	pl n
kõrtsmiku	kõrtsmik	0		S	sg g
elu	elu	0		S	sg g
   	elu	0		S	sg n
   	elu	0		S	sg p
tuas	####				
ja	ja	0		J	
Arukülast	aru_küla	st		S	sg el
Jaan	Jaan	0		H	sg n
    	jaan	0		S	sg n
    	jaan	0		Y	?
Solbruk	####				
ja	ja	0		J	
Mart	Mart	0		H	sg n
    	mart	0		S	sg n
kääs	####				
olnud	ol=nud	0		A	
     	ol=nud	0		A	sg n
     	ol=nud	d		A	pl n
     	ole	nud		V	nud
     	olnu	d		S	pl n
ka	ka	0		D	
seal	seal	0		D	
    	siga	l		A	sg ad
    	siga	l		S	sg ad
kõrtsmiku	kõrtsmik	0		S	sg g
elu	elu	0		S	sg g
   	elu	0		S	sg n
   	elu	0		S	sg p
tuas	####				
ja	ja	0		J	
lasknud	lask	nud		V	nud
       	lask=nu	d		S	pl n
       	lask=nud	0		A	
       	lask=nud	0		A	sg n
       	lask=nud	d		A	pl n
sinna	sinna	0		D	
õlut	õlu	t		S	sg p
tuua	too	a		V	da
,	,			Z	
aga	aga	0		J	
Arukülast	aru_küla	st		S	sg el
Andrei	Andrei	0		H	sg g
      	Andrei	0		H	sg n
Rosenberg	Rosenberg	0		H	sg n
tulnud	tul=nud	0		A	
      	tul=nud	0		A	sg n
      	tul=nud	d		A	pl n
      	tule	nud		V	nud
      	tulnu	d		S	pl n
ka	ka	0		D	
sinna	sinna	0		D	
ja	ja	0		J	
olnud	ol=nud	0		A	
     	ol=nud	0		A	sg n
     	ol=nud	d		A	pl n
     	ole	nud		V	nud
     	olnu	d		S	pl n
juua	joo	a		V	da
täis	täi	s		S	sg in
    	täi	s		V	s
    	täis	0		A	
    	täis	0		A	sg n
    	täis	0		D	
    	täis	0		S	sg n
ja	ja	0		J	
võtnud	võt	nud		V	nud
      	võt=nu	d		S	pl n
      	võt=nud	0		A	
      	võt=nud	0		A	sg n
      	võt=nud	d		A	pl n
seal	seal	0		D	
    	siga	l		A	sg ad
    	siga	l		S	sg ad
ise	ise	0		A	
   	ise	0		D	
   	ise	0		P	pl n
   	ise	0		P	sg n
kohe	kohe	0		A	sg n
    	kohe	0		D	
omavulika	####				
Solbrukki	####				
ole	ole	0		V	o
pudeli	pudel	0		S	sg g
ja	ja	0		J	
kaldanud	####				
välja	välja	0		D	
     	välja	0		V	o
     	väli	0		S	adt
     	väli	0		S	sg g
     	väli	0		S	sg p
omale	oma	le		A	sg all
     	oma	le		P	sg all
     	oma	le		S	sg all
klaasi	klaas	0		S	adt
      	klaas	0		S	sg g
      	klaasi	0		V	o
      	klaas	0		S	sg p
sisse	siss	e		S	pl p
     	sisse	0		D	
     	sisse	0		K	
siis	siis	0		D	
    	siis	0		J	
nõudnud	nõud	nud		V	nud
       	nõud=nu	d		S	pl n
       	nõud=nud	0		A	
       	nõud=nud	0		A	sg n
       	nõud=nud	d		A	pl n
Solbruk	####				
et	et	0		J	
Andrei	Andrei	0		H	sg g
      	Andrei	0		H	sg n
Rosenberg	Rosenberg	0		H	sg n
peab	pida	b		V	b
selle	see	0		P	sg g
     	sell	e		S	pl p
pudeli	pudel	0		S	sg g
õlut	õlu	t		S	sg p
välja	välja	0		D	
     	välja	0		V	o
     	väli	0		S	adt
     	väli	0		S	sg g
     	väli	0		S	sg p
maksma	maks	ma		V	ma
,	,			Z	
aga	aga	0		J	
Rosenberg	Rosenberg	0		H	sg n
üünud	####				
Solbrukile	####				
:	:			Z	
""""	""""			Z	
Minu	mina	0		P	sg g
raha	raha	0		S	sg g
    	raha	0		S	sg n
    	raha	0		S	sg p
intresid	####				
maksavad	maks	vad		V	vad
seda	see	da		P	sg p
välja	välja	0		D	
     	välja	0		V	o
     	väli	0		S	adt
     	väli	0		S	sg g
     	väli	0		S	sg p
,	,			Z	
Solbruk	####				
öelnud	öel=nu	d		S	pl n
      	öel=nud	0		A	
      	öel=nud	0		A	sg n
      	öel=nud	d		A	pl n
      	ütle	nud		V	nud
:	:			Z	
""""	""""			Z	
ega	ega	0		D	
   	ega	0		J	
siin	siin	0		D	
    	siin	0		S	sg n
intressi	intress	0		S	adt
        	intress	0		S	sg g
        	intress	0		S	sg p
pärimise	pärimine	0		S	sg g
koht	koht	0		S	sg n
ole	ole	0		V	o
(	(			Z	
Andrei	Andrei	0		H	sg g
      	Andrei	0		H	sg n
Rosenbergil	Rosenberg	l		H	sg ad
on	ole	0		V	b
  	ole	0		V	vad
Sobrükil	####				
kääst	####				
raha	raha	0		S	sg g
    	raha	0		S	sg n
    	raha	0		S	sg p
saada	saa	da		V	da
     	saat	0		V	o
     	saa	da		V	ta
olnud	ol=nud	0		A	
     	ol=nud	0		A	sg n
     	ol=nud	d		A	pl n
     	ole	nud		V	nud
     	olnu	d		S	pl n
)	)			Z	
ja	ja	0		J	
nurid	####				
siin	siin	0		D	
    	siin	0		S	sg n
teiste	teine	te		O	pl g
      	teine	te		P	pl g
kääst	####				
õlut	õlu	t		S	sg p
ja	ja	0		J	
ei	ei	0		D	
  	ei	0		V	neg
maksa	maks	0		S	adt
     	maks	0		S	sg g
     	maks	0		V	o
     	maks	0		S	sg p
välja	välja	0		D	
     	välja	0		V	o
     	väli	0		S	adt
     	väli	0		S	sg g
     	väli	0		S	sg p
mis	mis	0		P	pl n
   	mis	0		P	sg n
oled	ole	d		V	d
ära	ära	0		D	
   	ära	0		V	neg o
joonud	joo	nud		V	nud
      	joo=nu	d		S	pl n
      	joo=nud	0		A	
      	joo=nud	0		A	sg n
      	joo=nud	d		A	pl n
;	;			Z	
selle	see	0		P	sg g
     	sell	e		S	pl p
peale	pea	le		S	sg all
     	peale	0		D	
     	peale	0		K	
on	ole	0		V	b
  	ole	0		V	vad
Jaan	Jaan	0		H	sg n
    	jaan	0		S	sg n
    	jaan	0		Y	?
Solbruk	####				
ja	ja	0		J	
Mart	Mart	0		H	sg n
    	mart	0		S	sg n
kääs	####				
kõrtsmiku	kõrtsmik	0		S	sg g
kambrist	kamber	st		S	sg el
välja	välja	0		D	
     	välja	0		V	o
     	väli	0		S	adt
     	väli	0		S	sg g
     	väli	0		S	sg p
läinud	läinu	d		S	pl n
      	läinud	0		A	
      	läinud	0		A	sg n
      	läinud	d		A	pl n
      	mine	nud		V	nud
ja	ja	0		J	
Andrei	Andrei	0		H	sg g
      	Andrei	0		H	sg n
Rosenberg	Rosenberg	0		H	sg n
on	ole	0		V	b
  	ole	0		V	vad
sinna	sinna	0		D	
jäänud	jää	nud		V	nud
      	jäänu	d		S	pl n
      	jäänud	0		A	
      	jäänud	0		A	sg n
      	jäänud	d		A	pl n
ja	ja	0		J	
kõrtsmik	kõrtsmik	0		S	sg n
on	ole	0		V	b
  	ole	0		V	vad
pärinud	päri	nud		V	nud
       	päri=nu	d		S	pl n
       	päri=nud	0		A	
       	päri=nud	0		A	sg n
       	päri=nud	d		A	pl n
Rosenberg	Rosenberg	0		H	sg n
,	,			Z	
kääst	####				
selle	see	0		P	sg g
     	sell	e		S	pl p
pudeli	pudel	0		S	sg g
ole	ole	0		V	o
raha	raha	0		S	sg g
    	raha	0		S	sg n
    	raha	0		S	sg p
mis	mis	0		P	pl n
   	mis	0		P	sg n
ta	tema	0		P	sg g
  	tema	0		P	sg n
on	ole	0		V	b
  	ole	0		V	vad
seal	seal	0		D	
    	siga	l		A	sg ad
    	siga	l		S	sg ad
välja	välja	0		D	
     	välja	0		V	o
     	väli	0		S	adt
     	väli	0		S	sg g
     	väli	0		S	sg p
joonud	joo	nud		V	nud
      	joo=nu	d		S	pl n
      	joo=nud	0		A	
      	joo=nud	0		A	sg n
      	joo=nud	d		A	pl n
oma	oma	0		A	sg g
   	oma	0		D	
   	oma	0		P	sg g
   	oma	0		S	sg g
   	oma	0		V	o
   	oma	0		A	sg n
   	oma	0		A	sg p
   	oma	0		P	sg n
   	oma	0		P	sg p
   	oma	0		S	sg n
   	oma	0		S	sg p
volika	####				
aga	aga	0		J	
Rosenberg	Rosenberg	0		H	sg n
ei	ei	0		D	
  	ei	0		V	neg
ole	ole	0		V	o
mitte	mitte	0		D	
maksnud	maks	nud		V	nud
       	maks=nu	d		S	pl n
       	maks=nud	0		A	
       	maks=nud	0		A	sg n
       	maks=nud	d		A	pl n
siis	siis	0		D	
    	siis	0		J	
kui	kui	0		D	
   	kui	0		J	
Rosenberg	Rosenberg	0		H	sg n
hakkanud	####				
kambrist	kamber	st		S	sg el
ära	ära	0		D	
   	ära	0		V	neg o
minema	mine	ma		V	ma
öönud	####				
Hans	Hans	0		H	sg n
Lenkmann	####				
:	:			Z	
""""	""""			Z	
eks	eks	0		D	
   	eks	0		S	sg n
   	eks	0		Y	?
ta	tema	0		P	sg g
  	tema	0		P	sg n
maksa	maks	0		S	adt
     	maks	0		S	sg g
     	maks	0		V	o
     	maks	0		S	sg p
se	####				
pudel	pudel	0		S	sg n
õlut	õlu	t		S	sg p
välja	välja	0		D	
     	välja	0		V	o
     	väli	0		S	adt
     	väli	0		S	sg g
     	väli	0		S	sg p
,	,			Z	
""""	""""			Z	
aga	aga	0		J	
Andrei	Andrei	0		H	sg g
      	Andrei	0		H	sg n
Rosenberg	Rosenberg	0		H	sg n
öönud	####				
:	:			Z	
""""	""""			Z	
sul	sina	l		P	sg ad
on	ole	0		V	b
  	ole	0		V	vad
hoora	hoor	0		S	adt
     	hoor	0		S	sg g
     	hoora	0		V	o
     	hoor	0		S	sg p
laps	laps	0		S	sg n
ja	ja	0		J	
ei	ei	0		D	
  	ei	0		V	neg
ole	ole	0		V	o
seda	see	da		P	sg p
välja	välja	0		D	
     	välja	0		V	o
     	väli	0		S	adt
     	väli	0		S	sg g
     	väli	0		S	sg p
maksnud	maks	nud		V	nud
       	maks=nu	d		S	pl n
       	maks=nud	0		A	
       	maks=nud	0		A	sg n
       	maks=nud	d		A	pl n
ja	ja	0		J	
mina	mina	0		P	sg n
    	mina	0		S	sg g
    	mina	0		S	sg n
    	mina	0		S	sg p
pean	pida	n		V	n
se	####				
pudel	pudel	0		S	sg n
õlut	õlu	t		S	sg p
välja	välja	0		D	
     	välja	0		V	o
     	väli	0		S	adt
     	väli	0		S	sg g
     	väli	0		S	sg p
maksma	maks	ma		V	ma
.	.			Z	
""""	""""			Z	
ja	ja	0		J	
seda	see	da		P	sg p
hirmust	hirm	st		S	sg el
laimamise	laimamine	0		S	sg g
ütlemist	ütlemine	t		S	sg p
ei	ei	0		D	
  	ei	0		V	neg
ole	ole	0		V	o
tema	tema	0		P	sg g
    	tema	0		P	sg n
mitte	mitte	0		D	
kannatanud	kannata	nud		V	nud
          	kannatanu	d		S	pl n
          	kannatanud	0		A	
          	kannatanud	0		A	sg n
          	kannatanud	d		A	pl n
,	,			Z	
vaid	vaid	0		D	
    	vaid	0		J	
lükanud	lükka	nud		V	nud
       	lüka=nu	d		S	pl n
       	lüka=nud	0		A	
       	lüka=nud	0		A	sg n
       	lüka=nud	d		A	pl n
Rosenberg	Rosenberg	0		H	sg n
kõrtsmiku	kõrtsmik	0		S	sg g
kambrist	kamber	st		S	sg el
välja	välja	0		D	
     	välja	0		V	o
     	väli	0		S	adt
     	väli	0		S	sg g
     	väli	0		S	sg p
Kunru	####				
ette	ette	0		D	
    	ette	0		K	
    	esi	tte		S	adt
kõrtsi	kõrts	0		S	adt
      	kõrts	0		S	sg g
      	kõrts	0		S	sg p
tuppa	tuba	0		S	adt
ja	ja	0		J	
ukse	uks	0		S	sg g
vahel	vahe	l		S	sg ad
     	vahel	0		D	
     	vahel	0		K	
on	ole	0		V	b
  	ole	0		V	vad
ta	tema	0		P	sg g
  	tema	0		P	sg n
Rosenbergid	Rosenberg	d		H	pl n
ühe	üks	0		N	sg g
   	üks	0		P	sg g
   	ühe	0		S	sg n
korra	kord	0		S	sg g
kuklasse	kuklane	se		S	adt
        	kukal	sse		S	sg ill
löönud	löö	nud		V	nud
      	löö=nu	d		S	pl n
      	löö=nud	0		A	
      	löö=nud	0		A	sg n
      	löö=nud	d		A	pl n
öeldes	ütle	des		V	des
:	:			Z	
""""	""""			Z	
kuidas	kuidas	0		D	
sina	sina	0		P	sg n
    	sina	0		S	sg g
    	sina	0		V	o
    	sina	0		S	sg n
    	sina	0		S	sg p
tuid	tui	d		S	pl n
    	tui	d		S	sg p
mind	mina	d		P	sg p
nii	nii	0		D	
hirmsaste	####				
teutada	####				
sa	sina	0		P	sg n
pead	pea	d		S	pl n
    	pida	d		V	d
    	pea	d		S	sg p
seda	see	da		P	sg p
tõeks	tõde	ks		S	sg tr
     	tõsi	ks		S	sg tr
tegema	tege	ma		V	ma
kas	kas	0		D	
mine	mine	0		V	o
on	ole	0		V	b
  	ole	0		V	vad
hoora	hoor	0		S	adt
     	hoor	0		S	sg g
     	hoora	0		V	o
     	hoor	0		S	sg p
last	laps	t		S	sg p
    	last	0		S	sg n
olnud	ol=nud	0		A	
     	ol=nud	0		A	sg n
     	ol=nud	d		A	pl n
     	ole	nud		V	nud
     	olnu	d		S	pl n
.	.			Z	
""""	""""			Z	
viimaks	vii	maks		V	maks
       	viimaks	0		D	
Hans	Hans	0		H	sg n
Lenkmann	####				
ütleb	ütle	b		V	b
et	et	0		J	
tema	tema	0		P	sg g
    	tema	0		P	sg n
Rosenbergi	Rosenberg	0		H	adt
          	Rosenberg	0		H	sg g
          	Rosenberg	0		H	sg p
ei	ei	0		D	
  	ei	0		V	neg
ole	ole	0		V	o
vastu	vastu	0		D	
     	vastu	0		K	
nägu	nägu	0		S	sg n
    	nägu	0		S	sg p
löönud	löö	nud		V	nud
      	löö=nu	d		S	pl n
      	löö=nud	0		A	
      	löö=nud	0		A	sg n
      	löö=nud	d		A	pl n
sest	see	st		P	sg el
    	sest	0		J	
tema	tema	0		P	sg g
    	tema	0		P	sg n
on	ole	0		V	b
  	ole	0		V	vad
ise	ise	0		A	
   	ise	0		D	
   	ise	0		P	pl n
   	ise	0		P	sg n
purjus	purjus	0		A	
      	purjus	0		D	
peaga	pea	ga		S	sg kom
vastu	vastu	0		D	
     	vastu	0		K	
uksei	####				
läinud	läinu	d		S	pl n
      	läinud	0		A	
      	läinud	0		A	sg n
      	läinud	d		A	pl n
      	mine	nud		V	nud
ja	ja	0		J	
leti	lett	0		S	sg g
ääre	äär	0		S	sg g
maha	maha	0		D	
kukkunud	kukku	nud		V	nud
        	kukku=nu	d		S	pl n
        	kukku=nud	0		A	
        	kukku=nud	0		A	sg n
        	kukku=nud	d		A	pl n
.	.			Z	
ja	ja	0		J	
kõrtsi	kõrts	0		S	adt
      	kõrts	0		S	sg g
      	kõrts	0		S	sg p
naine	naine	0		S	sg n
on	ole	0		V	b
  	ole	0		V	vad
seda	see	da		P	sg p
tüli	tüli	0		S	sg g
    	tüli	0		S	sg n
    	tüli	0		S	sg p
täiste	täine	te		A	pl g
oma	oma	0		A	sg g
   	oma	0		D	
   	oma	0		P	sg g
   	oma	0		S	sg g
   	oma	0		V	o
   	oma	0		A	sg n
   	oma	0		A	sg p
   	oma	0		P	sg n
   	oma	0		P	sg p
   	oma	0		S	sg n
   	oma	0		S	sg p
kambris	kamber	s		S	sg in
näinud	näi	nud		V	nud
      	näge	nud		V	nud
      	näi=nud	0		A	
      	näi=nud	0		A	sg n
      	näi=nud	d		A	pl n
      	näinu	d		S	pl n
ja	ja	0		J	
kuulnud	kuul	nud		V	nud
       	kuul=nud	0		A	
       	kuul=nud	0		A	sg n
       	kuul=nud	d		A	pl n
       	kuulnu	d		S	pl n
kuidas	kuidas	0		D	
Rosenberg	Rosenberg	0		H	sg n
on	ole	0		V	b
  	ole	0		V	vad
öönud	####				
Hans	Hans	0		H	sg n
Lenkmannile	####				
.	.			Z	
selle	see	0		P	sg g
     	sell	e		S	pl p
peale	pea	le		S	sg all
     	peale	0		D	
     	peale	0		K	
ütles	ütle	s		V	s
Andrei	Andrei	0		H	sg g
      	Andrei	0		H	sg n
Rosenberg	Rosenberg	0		H	sg n
,	,			Z	
et	et	0		J	
kõrtsmiku	kõrtsmik	0		S	sg g
kambris	kamber	s		S	sg in
on	ole	0		V	b
  	ole	0		V	vad
Hans	Hans	0		H	sg n
Lenkmann	####				
tema	tema	0		P	sg g
    	tema	0		P	sg n
kääst	####				
üks	üks	0		N	sg n
   	üks	0		P	sg n
pudel	pudel	0		S	sg n
õlut	õlu	t		S	sg p
küsinud	küsi	nud		V	nud
       	küsi=nu	d		S	pl n
       	küsi=nud	0		A	
       	küsi=nud	0		A	sg n
       	küsi=nud	d		A	pl n
ja	ja	0		J	
tema	tema	0		P	sg g
    	tema	0		P	sg n
on	ole	0		V	b
  	ole	0		V	vad
siis	siis	0		D	
    	siis	0		J	
selle	see	0		P	sg g
     	sell	e		S	pl p
peale	pea	le		S	sg all
     	peale	0		D	
     	peale	0		K	
öönud	####				
:	:			Z	
""""	""""			Z	
ega	ega	0		D	
   	ega	0		J	
mina	mina	0		P	sg n
    	mina	0		S	sg g
    	mina	0		S	sg n
    	mina	0		S	sg p
hoora	hoor	0		S	adt
     	hoor	0		S	sg g
     	hoora	0		V	o
     	hoor	0		S	sg p
poeg	poeg	0		S	sg n
ei	ei	0		D	
  	ei	0		V	neg
ole	ole	0		V	o
et	et	0		J	
ma	mina	0		P	sg n
ei	ei	0		D	
  	ei	0		V	neg
jõua	jõud	0		V	o
üks	üks	0		N	sg n
   	üks	0		P	sg n
pudel	pudel	0		S	sg n
õlut	õlu	t		S	sg p
osta	ost	0		V	o
    	ost	a		V	da
,	,			Z	
""""	""""			Z	
vaid	vaid	0		D	
    	vaid	0		J	
selle	see	0		P	sg g
     	sell	e		S	pl p
peale	pea	le		S	sg all
     	peale	0		D	
     	peale	0		K	
on	ole	0		V	b
  	ole	0		V	vad
Hans	Hans	0		H	sg n
Lenkmann	####				
teda	tema	da		P	sg p
kuklasse	kuklane	se		S	adt
        	kukal	sse		S	sg ill
löönud	löö	nud		V	nud
      	löö=nu	d		S	pl n
      	löö=nud	0		A	
      	löö=nud	0		A	sg n
      	löö=nud	d		A	pl n
.	.			Z	
Jääb	jää	b		V	b
poolele	pool	le		N	sg all
       	pool	le		S	sg all
.	.			Z	
kõrtsinaine	kõrtsi_naine	0		S	sg n
ja	ja	0		J	
Arukülast	aru_küla	st		S	sg el
Jaan	Jaan	0		H	sg n
    	jaan	0		S	sg n
    	jaan	0		Y	?
Solbruk	####				
ja	ja	0		J	
Mart	Mart	0		H	sg n
    	mart	0		S	sg n
kääs	####				
peavad	pida	vad		V	vad
ette	ette	0		D	
    	ette	0		K	
    	esi	tte		S	adt
tulema	tule	ma		V	ma
tunnistusteks	tunnistus	teks		S	pl tr
.	.			Z	
