Tuhat	tuhat	0		N	sg n
     	tuhat	0		N	sg p
üheksa	üheksa	0		N	sg g
      	üheksa	0		N	sg n
saada	saa	da		V	da
     	saat	0		V	o
     	saa	da		V	ta
kolmandamal	####				
aastal	aasta	l		S	sg ad
Jüri	Jüri	0		H	sg g
    	Jüri	0		H	sg n
kuu	kuu	0		S	sg g
   	kuu	0		S	sg n
nelja	neli	0		N	adt
     	neli	0		N	sg g
     	neli	0		N	sg p
teistkümnendamal	####				
päeval	päev	l		S	sg ad
ilmusivad	####				
Kaiu	Kaiu	0		H	sg g
    	Kaiu	0		H	sg n
valla	vald	0		S	sg g
     	valla	0		D	
kohtu	kohtu	0		V	o
     	kohus	0		S	sg g
ette	ette	0		D	
    	ette	0		K	
    	esi	tte		S	adt
Kaiu	Kaiu	0		H	sg g
    	Kaiu	0		H	sg n
valla	vald	0		S	sg g
     	valla	0		D	
talupoead	####				
Hans	Hans	0		H	sg n
Einson	####				
ja	ja	0		J	
Hans	Hans	0		H	sg n
Kolk	kolk	0		S	sg n
ja	ja	0		J	
palusivad	####				
järgmist	järgmine	t		A	sg p
asja	asi	0		S	adt
    	asi	0		S	sg g
    	asi	0		S	sg p
kohtu	kohtu	0		V	o
     	kohus	0		S	sg g
akti	akt	0		S	adt
    	akt	0		S	sg g
    	akt	0		S	sg p
raamatu	raamat	0		S	sg g
üles	üles	0		D	
võtta	võt	a		V	da
.	.			Z	
Miina	Miina	0		H	sg g
     	Miina	0		H	sg n
Hans	Hans	0		H	sg n
Kolk	kolk	0		S	sg n
laenasin	laena	sin		V	sin
Hans	Hans	0		H	sg n
Einsonile	####				
viiskümmend	viis_kümmend	0		N	sg n
rubla	rubla	0		S	sg g
     	rubla	0		S	sg n
     	rubla	0		S	sg p
/	/			Z	
50	50	0		N	?
rubla	rubla	0		S	sg g
     	rubla	0		S	sg n
     	rubla	0		S	sg p
/	/			Z	
raha	raha	0		S	sg g
    	raha	0		S	sg n
    	raha	0		S	sg p
ühe	üks	0		N	sg g
   	üks	0		P	sg g
   	ühe	0		S	sg n
aasta	aasta	0		S	sg g
     	aasta	0		S	sg n
peale	pea	le		S	sg all
     	peale	0		D	
     	peale	0		K	
,	,			Z	
mida	mis	da		P	pl p
    	mis	da		P	sg p
tema	tema	0		P	sg g
    	tema	0		P	sg n
mulle	mull	e		S	pl p
     	mina	lle		P	sg all
     	mulle	0		S	sg n
aasta	aasta	0		S	sg g
     	aasta	0		S	sg n
pärast	pära	st		S	sg el
      	pärane	t		A	sg p
      	pärast	0		D	
      	pärast	0		K	
ära	ära	0		D	
   	ära	0		V	neg o
maksma	maks	ma		V	ma
peab	pida	b		V	b
ühes	üks	s		N	sg in
    	üks	s		P	sg in
    	ühes	0		D	
    	ühes	0		K	
4%	4%	0		N	?
ja	ja	0		J	
et	et	0		J	
see	see	0		P	sg n
asi	asi	0		S	sg n
   	asi	0		V	o
kindel	kindel	0		A	sg n
on	ole	0		V	b
  	ole	0		V	vad
,	,			Z	
selle	see	0		P	sg g
     	sell	e		S	pl p
pärast	pära	st		S	sg el
      	pärane	t		A	sg p
      	pärast	0		D	
      	pärast	0		K	
tahan	taht	n		V	n
seda	see	da		P	sg p
kohtu	kohtu	0		V	o
     	kohus	0		S	sg g
ees	ees	0		D	
   	ees	0		K	
   	esi	s		S	sg in
kinnitada	kinnita	da		V	da
ja	ja	0		J	
tõeks	tõde	ks		S	sg tr
     	tõsi	ks		S	sg tr
tunnistada	tunnista	da		V	da
laska	####				
.	.			Z	
Hans	Hans	0		H	sg n
Einson	####				
tõendab	tõenda	b		V	b
seda	see	da		P	sg p
kõik	kõik	0		P	pl n
    	kõik	0		S	sg n
    	kõik	0		P	sg n
õigeks	õige	ks		A	sg tr
ja	ja	0		J	
lubab	luba	b		V	b
ka	ka	0		D	
kõik	kõik	0		P	pl n
    	kõik	0		S	sg n
    	kõik	0		P	sg n
täita	täi	ta		S	sg ab
     	täi	ta		V	ta
     	täit	a		V	da
     	täita	0		V	o
.	.			Z	
selle	see	0		P	sg g
     	sell	e		S	pl p
akti	akt	0		S	adt
    	akt	0		S	sg g
    	akt	0		S	sg p
sisu	sisu	0		S	sg g
    	sisu	0		S	sg n
    	sisu	0		S	sg p
sai	saa	i		V	s
   	sai	0		S	sg n
mõlemal	mõlema	l		P	sg ad
sõna	sõna	0		S	sg g
    	sõna	0		V	o
    	sõna	0		S	sg n
    	sõna	0		S	sg p
sõnalt	sõna	lt		S	sg abl
ette	ette	0		D	
    	ette	0		K	
    	esi	tte		S	adt
loetud	loetu	d		S	pl n
      	loetud	0		A	
      	loetud	0		A	sg n
      	loetud	d		A	pl n
      	luge	tud		V	tud
,	,			Z	
mida	mis	da		P	pl p
    	mis	da		P	sg p
nad	tema	d		P	pl n
oma	oma	0		A	sg g
   	oma	0		D	
   	oma	0		P	sg g
   	oma	0		S	sg g
   	oma	0		V	o
   	oma	0		A	sg n
   	oma	0		A	sg p
   	oma	0		P	sg n
   	oma	0		P	sg p
   	oma	0		S	sg n
   	oma	0		S	sg p
allkirjaga	all_kiri	ga		S	sg kom
tõendavad	tõenda	vad		V	vad
         	tõendav	d		A	pl n
.	.			Z	
XXX	XXX	0		O	?
   	XXX	0		Y	?
tähendab	tähenda	b		V	b
Hans	Hans	0		H	sg n
Kolk	kolk	0		S	sg n
XXX	XXX	0		O	?
   	XXX	0		Y	?
tähendab	tähenda	b		V	b
Hans	Hans	0		H	sg n
Einson	####				
Eesistuja	ees_istuja	0		S	sg g
         	ees_istuja	0		S	sg n
:	:			Z	
PaulM	####				
.	.			Z	
_s	####				
[	[			Z	
allkiri	all_kiri	0		S	sg n
]	]			Z	
selles	see	s		P	sg in
aktis	akt	s		S	sg in
nimetatud	nimeta	tud		V	tud
         	nimetatu	d		S	pl n
         	nimetatud	0		A	
         	nimetatud	0		A	sg n
         	nimetatud	d		A	pl n
inimesed	inimene	d		S	pl n
on	ole	0		V	b
  	ole	0		V	vad
kohtul	kohus	l		S	sg ad
mõlemad	mõlema	d		P	pl n
isiklikult	isiklik	lt		A	sg abl
          	isiklikult	0		D	
tuntud	tund	tud		V	tud
      	tuntu	d		S	pl n
      	tuntud	0		A	
      	tuntud	0		A	sg n
      	tuntud	d		A	pl n
ja	ja	0		J	
õigusevõimulised	õiguse_võimu=line	d		A	pl n
selle	see	0		P	sg g
     	sell	e		S	pl p
asja	asi	0		S	adt
    	asi	0		S	sg g
    	asi	0		S	sg p
toime	toim	0		S	adt
     	toim	0		S	sg g
     	toime	0		S	adt
     	toime	0		S	sg n
     	toim	0		S	sg p
     	toime	0		S	sg g
viimiseks	viimine	ks		S	sg tr
,	,			Z	
mida	mis	da		P	pl p
    	mis	da		P	sg p
kohus	kohu	s		V	s
     	kohus	0		S	sg n
oma	oma	0		A	sg g
   	oma	0		D	
   	oma	0		P	sg g
   	oma	0		S	sg g
   	oma	0		V	o
   	oma	0		A	sg n
   	oma	0		A	sg p
   	oma	0		P	sg n
   	oma	0		P	sg p
   	oma	0		S	sg n
   	oma	0		S	sg p
allkirjadega	all_kiri	dega		S	pl kom
tõendab	tõenda	b		V	b
.	.			Z	
Eesistuja	ees_istuja	0		S	sg g
         	ees_istuja	0		S	sg n
:	:			Z	
M	M	0		O	?
 	M	0		Y	?
.	.			Z	
_	_			Z	
Pauls	####				
[	[			Z	
allkiri	all_kiri	0		S	sg n
]	]			Z	
kohtumehed	kohtu_mees	d		S	pl n
:	:			Z	
J. Viilson	####				
[	[			Z	
allkiri	all_kiri	0		S	sg n
]	]			Z	
H	H	0		Y	?
.	.			Z	
_	_			Z	
Linder	####				
[	[			Z	
allkiri	all_kiri	0		S	sg n
]	]			Z	
H	H	0		Y	?
.	.			Z	
_	_			Z	
Lang	lang	0		S	sg n
[	[			Z	
allkiri	all_kiri	0		S	sg n
]	]			Z	
kirj	####				
.	.			Z	
Tiidermann	####				
[	[			Z	
allkiri	all_kiri	0		S	sg n
]	]			Z	
(	(			Z	
tunnistan	tunnista	n		V	n
oma	oma	0		A	sg g
   	oma	0		D	
   	oma	0		P	sg g
   	oma	0		S	sg g
   	oma	0		V	o
   	oma	0		A	sg n
   	oma	0		A	sg p
   	oma	0		P	sg n
   	oma	0		P	sg p
   	oma	0		S	sg n
   	oma	0		S	sg p
allkirjaga	all_kiri	ga		S	sg kom
,	,			Z	
et	et	0		J	
olen	ole	n		V	n
Hans	Hans	0		H	sg n
Einsonilt	####				
viikümmend	####				
rubla	rubla	0		S	sg g
     	rubla	0		S	sg n
     	rubla	0		S	sg p
(	(			Z	
50	50	0		N	?
r	r	0		Y	?
.	.			Z	
)	)			Z	
kätte	kätte	0		K	
     	käsi	tte		S	adt
saanud	saa	nud		V	nud
      	saa=nud	0		A	
      	saa=nud	0		A	sg n
      	saa=nud	d		A	pl n
      	saanu	d		S	pl n
ja	ja	0		J	
enam	enam	0		C	sg n
    	enam	0		D	
temalt	tema	lt		P	sg abl
midagi	miski	dagi		P	sg p
ei	ei	0		D	
  	ei	0		V	neg
nõua	nõud	0		V	o
.	.			Z	
Hans	Hans	0		H	sg n
kolgi	kolk	0		S	sg g
     	kolki	0		V	o
oma	oma	0		A	sg g
   	oma	0		D	
   	oma	0		P	sg g
   	oma	0		S	sg g
   	oma	0		V	o
   	oma	0		A	sg n
   	oma	0		A	sg p
   	oma	0		P	sg n
   	oma	0		P	sg p
   	oma	0		S	sg n
   	oma	0		S	sg p
palve	palve	0		S	sg g
     	palve	0		S	sg n
peale	pea	le		S	sg all
     	peale	0		D	
     	peale	0		K	
kirjutas	kirjuta	s		V	s
alla	alla	0		D	
    	alla	0		K	
P	P	0		Y	?
.	.			Z	
_	_			Z	
Maalut	####				
[	[			Z	
allkiri	all_kiri	0		S	sg n
]	]			Z	
.	.			Z	
see	see	0		P	sg n
allkiri	all_kiri	0		S	sg n
on	ole	0		V	b
  	ole	0		V	vad
õige	õige	0		A	sg g
    	õige	0		A	sg n
    	õige	0		D	
,	,			Z	
Kaius	Kaiu	s		H	sg in
26	26	0		N	?
/	/			Z	
I_X	####				
1910	1910	0		N	?
a	a	0		Y	?
Eesistuja	ees_istuja	0		S	sg g
         	ees_istuja	0		S	sg n
k	k	0		Y	?
.	.			Z	
_	_			Z	
Ustem	####				
[	[			Z	
allkiri	all_kiri	0		S	sg n
]	]			Z	
)	)			Z	
