astus	astu	s		V	s
kohtu	kohtu	0		V	o
     	kohus	0		S	sg g
ette	ette	0		D	
    	ette	0		K	
    	esi	tte		S	adt
Juhan	Juhan	0		H	sg n
Ringel	ringe	l		S	sg ad
,	,			Z	
ja	ja	0		J	
kaebab	kaeba	b		V	b
,	,			Z	
et	et	0		J	
Juhan	Juhan	0		H	sg n
välja	välja	0		D	
     	välja	0		V	o
     	väli	0		S	adt
     	väli	0		S	sg g
     	väli	0		S	sg p
ja	ja	0		J	
tema	tema	0		P	sg g
    	tema	0		P	sg n
poeg	poeg	0		S	sg n
Prits	prits	0		S	sg n
on	ole	0		V	b
  	ole	0		V	vad
teda	tema	da		P	sg p
Pali	pali	0		S	sg g
    	pali	0		S	sg n
    	pali	0		S	sg p
pere	pere	0		S	sg g
    	pere	0		S	sg n
reial	reig	l		S	sg ad
sel	see	l		P	sg ad
   	sel	0		Y	?
30mal	####				
Septembri	september	0		S	sg g
k	k	0		Y	?
.	.			Z	
p	p	0		Y	?
.	.			Z	
1877	1877	0		N	?
peksnud	peks	nud		V	nud
       	peks=nu	d		S	pl n
       	peks=nud	0		A	
       	peks=nud	0		A	sg n
       	peks=nud	d		A	pl n
,	,			Z	
ja	ja	0		J	
kui	kui	0		D	
   	kui	0		J	
ta	tema	0		P	sg g
  	tema	0		P	sg n
sealt	sealt	0		D	
     	siga	lt		A	sg abl
     	siga	lt		S	sg abl
minema	mine	ma		V	ma
läinud	läinu	d		S	pl n
      	läinud	0		A	
      	läinud	0		A	sg n
      	läinud	d		A	pl n
      	mine	nud		V	nud
,	,			Z	
on	ole	0		V	b
  	ole	0		V	vad
need	see	d		P	pl n
samad	sama	d		P	pl n
üleval	ülev	l		A	sg ad
      	üleval	0		D	
nimetatud	nimeta	tud		V	tud
         	nimetatu	d		S	pl n
         	nimetatud	0		A	
         	nimetatud	0		A	sg n
         	nimetatud	d		A	pl n
mehed	mees	d		S	pl n
värava	värav	0		S	sg g
taha	taht	0		V	o
    	taha	0		D	
    	taha	0		K	
tema	tema	0		P	sg g
    	tema	0		P	sg n
järele	järele	0		D	
      	järele	0		K	
tulnud	tul=nud	0		A	
      	tul=nud	0		A	sg n
      	tul=nud	d		A	pl n
      	tule	nud		V	nud
      	tulnu	d		S	pl n
,	,			Z	
ja	ja	0		J	
seal	seal	0		D	
    	siga	l		A	sg ad
    	siga	l		S	sg ad
veel	veel	0		D	
    	vesi	l		S	sg ad
peksnud	peks	nud		V	nud
       	peks=nu	d		S	pl n
       	peks=nud	0		A	
       	peks=nud	0		A	sg n
       	peks=nud	d		A	pl n
,	,			Z	
Juhan	Juhan	0		H	sg n
välja	välja	0		D	
     	välja	0		V	o
     	väli	0		S	adt
     	väli	0		S	sg g
     	väli	0		S	sg p
ja	ja	0		J	
ta	tema	0		P	sg g
  	tema	0		P	sg n
poeg	poeg	0		S	sg n
Prits	prits	0		S	sg n
ütlevat	ütle	vat		V	vat
       	ütlev	t		A	sg p
,	,			Z	
et	et	0		J	
nemad	tema	d		P	pl n
on	ole	0		V	b
  	ole	0		V	vad
Juhan	Juhan	0		H	sg n
Ringlile	####				
oma	oma	0		A	sg g
   	oma	0		D	
   	oma	0		P	sg g
   	oma	0		S	sg g
   	oma	0		V	o
   	oma	0		A	sg n
   	oma	0		A	sg p
   	oma	0		P	sg n
   	oma	0		P	sg p
   	oma	0		S	sg n
   	oma	0		S	sg p
kambris	kamber	s		S	sg in
juua	joo	a		V	da
andnud	and	nud		V	nud
      	and=nu	d		S	pl n
      	and=nud	0		A	
      	and=nud	0		A	sg n
      	and=nud	d		A	pl n
,	,			Z	
ja	ja	0		J	
Juhan	Juhan	0		H	sg n
on	ole	0		V	b
  	ole	0		V	vad
kambrist	kamber	st		S	sg el
varnaotsast	varna_ots	st		S	sg el
vesti	vest	0		S	adt
     	vest	0		S	sg g
     	vest	0		S	sg p
taskust	tasku	st		S	sg el
raha	raha	0		S	sg g
    	raha	0		S	sg n
    	raha	0		S	sg p
koti	kott	0		S	sg g
    	kotti	0		V	o
1	1	0		N	?
rubla	rubla	0		S	sg g
     	rubla	0		S	sg n
     	rubla	0		S	sg p
45	45	0		N	?
kopikaga	kopikas	ga		S	sg kom
ära	ära	0		D	
   	ära	0		V	neg o
varastanud	varasta	nud		V	nud
          	varasta=nu	d		S	pl n
          	varasta=nud	0		A	
          	varasta=nud	0		A	sg n
          	varasta=nud	d		A	pl n
,	,			Z	
tunnistuseks	tunnistus	ks		S	sg tr
tuli	tuli	0		S	sg n
    	tule	i		V	s
ette	ette	0		D	
    	ette	0		K	
    	esi	tte		S	adt
Kaarel	Kaarel	0		H	sg n
      	kaar	l		S	sg ad
      	kaarel	0		S	sg n
truts	####				
kes	kes	0		P	pl n
   	kes	0		P	sg n
sel	see	l		P	sg ad
   	sel	0		Y	?
tüli	tüli	0		S	sg g
    	tüli	0		S	sg n
    	tüli	0		S	sg p
aeal	####				
ka	ka	0		D	
seal	seal	0		D	
    	siga	l		A	sg ad
    	siga	l		S	sg ad
olnud	ol=nud	0		A	
     	ol=nud	0		A	sg n
     	ol=nud	d		A	pl n
     	ole	nud		V	nud
     	olnu	d		S	pl n
,	,			Z	
ta	tema	0		P	sg g
  	tema	0		P	sg n
tunnistab	tunnista	b		V	b
,	,			Z	
et	et	0		J	
Juhan	Juhan	0		H	sg n
välja	välja	0		D	
     	välja	0		V	o
     	väli	0		S	adt
     	väli	0		S	sg g
     	väli	0		S	sg p
on	ole	0		V	b
  	ole	0		V	vad
Juhan	Juhan	0		H	sg n
Ringel	ringe	l		S	sg ad
maha	maha	0		D	
lükanud	lükka	nud		V	nud
       	lüka=nu	d		S	pl n
       	lüka=nud	0		A	
       	lüka=nud	0		A	sg n
       	lüka=nud	d		A	pl n
,	,			Z	
siis	siis	0		D	
    	siis	0		J	
kinni	kinni	0		D	
hoidnud	hoid	nud		V	nud
       	hoid=nu	d		S	pl n
       	hoid=nud	0		A	
       	hoid=nud	0		A	sg n
       	hoid=nud	d		A	pl n
,	,			Z	
ja	ja	0		J	
Prits	prits	0		S	sg n
on	ole	0		V	b
  	ole	0		V	vad
piitsaga	piits	ga		S	sg kom
löönud	löö	nud		V	nud
      	löö=nu	d		S	pl n
      	löö=nud	0		A	
      	löö=nud	0		A	sg n
      	löö=nud	d		A	pl n
,	,			Z	
ja	ja	0		J	
peale	pea	le		S	sg all
     	peale	0		D	
     	peale	0		K	
seda	see	da		P	sg p
on	ole	0		V	b
  	ole	0		V	vad
Juhan	Juhan	0		H	sg n
Ringel	ringe	l		S	sg ad
minema	mine	ma		V	ma
läinud	läinu	d		S	pl n
      	läinud	0		A	
      	läinud	0		A	sg n
      	läinud	d		A	pl n
      	mine	nud		V	nud
,	,			Z	
ja	ja	0		J	
Juhan	Juhan	0		H	sg n
ja	ja	0		J	
Prits	prits	0		S	sg n
on	ole	0		V	b
  	ole	0		V	vad
ta	tema	0		P	sg g
  	tema	0		P	sg n
järele	järele	0		D	
      	järele	0		K	
läinud	läinu	d		S	pl n
      	läinud	0		A	
      	läinud	0		A	sg n
      	läinud	d		A	pl n
      	mine	nud		V	nud
,	,			Z	
siis	siis	0		D	
    	siis	0		J	
ta	tema	0		P	sg g
  	tema	0		P	sg n
peksmist	peksmine	t		S	sg p
pole	ole	0		V	neg o
näinud	näi	nud		V	nud
      	näge	nud		V	nud
      	näi=nud	0		A	
      	näi=nud	0		A	sg n
      	näi=nud	d		A	pl n
      	näinu	d		S	pl n
,	,			Z	
aga	aga	0		J	
kära	kära	0		S	sg g
    	kära	0		V	o
    	kära	0		S	sg n
    	kära	0		S	sg p
on	ole	0		V	b
  	ole	0		V	vad
kuulnud	kuul	nud		V	nud
       	kuul=nud	0		A	
       	kuul=nud	0		A	sg n
       	kuul=nud	d		A	pl n
       	kuulnu	d		S	pl n
.	.			Z	
ja	ja	0		J	
selle	see	0		P	sg g
     	sell	e		S	pl p
sama	sama	0		P	sg g
    	sama	0		P	sg n
    	sama	0		P	sg p
kohtu	kohtu	0		V	o
     	kohus	0		S	sg g
päeva	päev	0		S	adt
     	päev	0		S	sg g
     	päev	0		S	sg p
8	8	0		N	?
oktoober	oktoober	0		S	sg n
õhtu	õhtu	0		S	sg g
    	õhtu	0		S	sg n
on	ole	0		V	b
  	ole	0		V	vad
se	####				
kaebaja	kaebaja	0		S	sg g
       	kaebaja	0		S	sg n
Juhan	Juhan	0		H	sg n
Ringel	ringe	l		S	sg ad
rumalaks	rumal	ks		A	sg tr
ehk	ehk	0		D	
   	ehk	0		J	
peaaru	pea_aru	0		S	sg g
      	pea_aru	0		S	sg n
      	pea_aru	0		S	sg p
segaseks	segane	ks		A	sg tr
jäänud	jää	nud		V	nud
      	jäänu	d		S	pl n
      	jäänud	0		A	
      	jäänud	0		A	sg n
      	jäänud	d		A	pl n
.	.			Z	
selle	see	0		P	sg g
     	sell	e		S	pl p
poolest	pool	st		N	sg el
       	pool	st		S	sg el
       	poolene	t		A	sg p
       	poolest	0		K	
saab	saa	b		V	b
palutud	palu	tud		V	tud
       	palu=tu	d		S	pl n
       	palutud	0		A	
       	palutud	0		A	sg n
       	palutud	d		A	pl n
Hakenrihtri	####				
kohtu	kohtu	0		V	o
     	kohus	0		S	sg g
hooleks	hool	ks		S	sg tr
.	.			Z	
