Rannamõisas	ranna_mõis	s		S	sg in
sel	see	l		P	sg ad
   	sel	0		Y	?
14.	14.	0		O	?
novembril	november	l		S	sg ad
1868	1868	0		N	?
koos	koos	0		D	
    	koos	0		K	
    	koos	0		S	sg n
    	kubu	s		S	sg in
olid	ole	id		V	sid
peakohtumees	pea_kohtu_mees	0		S	sg n
k	k	0		Y	?
.	.			Z	
_	_			Z	
Trauberg	####				
kõrvamehed	kõrva_mees	d		S	pl n
k	k	0		Y	?
.	.			Z	
_	_			Z	
Luker	####				
ja	ja	0		J	
J. Lipp	####				
ette	ette	0		D	
    	ette	0		K	
    	esi	tte		S	adt
sai	saa	i		V	s
   	sai	0		S	sg n
kutsutud	kutsu	tud		V	tud
        	kutsutu	d		S	pl n
        	kutsutud	0		A	
        	kutsutud	0		A	sg n
        	kutsutud	d		A	pl n
üleval	ülev	l		A	sg ad
      	üleval	0		D	
nimetatud	nimeta	tud		V	tud
         	nimetatu	d		S	pl n
         	nimetatud	0		A	
         	nimetatud	0		A	sg n
         	nimetatud	d		A	pl n
nr	nr	0		Y	?
12.	12.	0		O	?
Triinu	Triin	0		H	adt
      	Triin	0		H	sg g
      	Triin	0		H	sg p
      	Triinu	0		H	sg g
      	Triinu	0		H	sg n
Puh	puh	0		I	
tunnistusemees	tunnistuse_mees	0		S	sg n
Liisu	liisk	0		S	sg g
     	liisu	0		V	o
Pärn	pärn	0		S	sg n
Liisu	liisk	0		S	sg g
     	liisu	0		V	o
Pärn	pärn	0		S	sg n
ütleb	ütle	b		V	b
,	,			Z	
et	et	0		J	
Triinu	Triin	0		H	adt
      	Triin	0		H	sg g
      	Triin	0		H	sg p
      	Triinu	0		H	sg g
      	Triinu	0		H	sg n
Puh	puh	0		I	
on	ole	0		V	b
  	ole	0		V	vad
valet	vale	t		A	sg p
     	vale	t		S	sg p
tunnistanud	tunnista	nud		V	nud
           	tunnista=nu	d		S	pl n
           	tunnista=nud	0		A	
           	tunnista=nud	0		A	sg n
           	tunnista=nud	d		A	pl n
,	,			Z	
Kadri	Kadri	0		H	sg g
     	Kadri	0		H	sg n
     	kadri	0		S	sg g
     	kadri	0		S	sg n
Rammuse	####				
tütar	tütar	0		S	sg n
on	ole	0		V	b
  	ole	0		V	vad
lõuna	lõuna	0		S	sg g
     	lõuna	0		S	sg n
aeal	####				
väiksevankriga	####				
koeu	####				
tulnud	tul=nud	0		A	
      	tul=nud	0		A	sg n
      	tul=nud	d		A	pl n
      	tule	nud		V	nud
      	tulnu	d		S	pl n
ja	ja	0		J	
2	2	0		N	?
väikest	väike	t		A	sg p
       	väikene	t		A	sg p
last	laps	t		S	sg p
    	last	0		S	sg n
olnud	ol=nud	0		A	
     	ol=nud	0		A	sg n
     	ol=nud	d		A	pl n
     	ole	nud		V	nud
     	olnu	d		S	pl n
vankris	vanker	s		S	sg in
ja	ja	0		J	
teisel	teine	l		O	sg ad
      	teine	l		P	sg ad
olnud	ol=nud	0		A	
     	ol=nud	0		A	sg n
     	ol=nud	d		A	pl n
     	ole	nud		V	nud
     	olnu	d		S	pl n
10	10	0		N	?
_	_			Z	
12	12	0		N	?
kartuhlest	####				
sülles	####				
,	,			Z	
mis	mis	0		P	pl n
   	mis	0		P	sg n
tema	tema	0		P	sg g
    	tema	0		P	sg n
olla	ole	a		V	da
tepealt	####				
võtnud	võt	nud		V	nud
      	võt=nu	d		S	pl n
      	võt=nud	0		A	
      	võt=nud	0		A	sg n
      	võt=nud	d		A	pl n
,	,			Z	
kust	kusi	t		S	sg p
    	kust	0		D	
mõisa	mõis	0		S	sg g
kartulid	kartul	d		S	pl n
veatud	veatu	d		A	pl n
.	.			Z	
veel	veel	0		D	
    	vesi	l		S	sg ad
sai	saa	i		V	s
   	sai	0		S	sg n
ette	ette	0		D	
    	ette	0		K	
    	esi	tte		S	adt
kutsutud	kutsu	tud		V	tud
        	kutsutu	d		S	pl n
        	kutsutud	0		A	
        	kutsutud	0		A	sg n
        	kutsutud	d		A	pl n
,	,			Z	
Triinu	Triin	0		H	adt
      	Triin	0		H	sg g
      	Triin	0		H	sg p
      	Triinu	0		H	sg g
      	Triinu	0		H	sg n
Puh	puh	0		I	
teine	teine	0		O	sg n
     	teine	0		P	sg n
tunnistuse	tunnistus	0		S	sg g
mees	mees	0		S	sg n
    	mesi	s		S	sg in
Madis	Madis	0		H	sg n
     	madis	0		S	sg n
linnep	####				
,	,			Z	
(	(			Z	
üleval	ülev	l		A	sg ad
      	üleval	0		D	
nimetatud	nimeta	tud		V	tud
         	nimetatu	d		S	pl n
         	nimetatud	0		A	
         	nimetatud	0		A	sg n
         	nimetatud	d		A	pl n
nr	nr	0		Y	?
13	13	0		N	?
)	)			Z	
,	,			Z	
ja	ja	0		J	
Madis	Madis	0		H	sg n
     	madis	0		S	sg n
linnep	####				
ütleb	ütle	b		V	b
ka	ka	0		D	
,	,			Z	
et	et	0		J	
Triinu	Triin	0		H	adt
      	Triin	0		H	sg g
      	Triin	0		H	sg p
      	Triinu	0		H	sg g
      	Triinu	0		H	sg n
Puh	puh	0		I	
on	ole	0		V	b
  	ole	0		V	vad
valet	vale	t		A	sg p
     	vale	t		S	sg p
tunnistanud	tunnista	nud		V	nud
           	tunnista=nu	d		S	pl n
           	tunnista=nud	0		A	
           	tunnista=nud	0		A	sg n
           	tunnista=nud	d		A	pl n
,	,			Z	
tema	tema	0		P	sg g
    	tema	0		P	sg n
on	ole	0		V	b
  	ole	0		V	vad
Juhan	Juhan	0		H	sg n
Hulbergiga	####				
seltsis	selts	s		S	sg in
       	seltsi	s		V	s
       	seltsis	0		D	
       	seltsis	0		K	
tulnud	tul=nud	0		A	
      	tul=nud	0		A	sg n
      	tul=nud	d		A	pl n
      	tule	nud		V	nud
      	tulnu	d		S	pl n
,	,			Z	
ja	ja	0		J	
J. Hulbergil	####				
pole	ole	0		V	neg o
muud	muu	d		P	pl n
    	muu	d		S	pl n
    	muu	d		V	d
    	muu	d		P	sg p
    	muu	d		S	sg p
korvi	korv	0		S	adt
     	korv	0		S	sg g
     	korv	0		S	sg p
sees	sees	0		D	
    	sees	0		K	
olnud	ol=nud	0		A	
     	ol=nud	0		A	sg n
     	ol=nud	d		A	pl n
     	ole	nud		V	nud
     	olnu	d		S	pl n
,	,			Z	
kui	kui	0		D	
   	kui	0		J	
leiva	leib	0		S	sg g
kot	####				
ja	ja	0		J	
lähker	lähker	0		S	sg n
.	.			Z	
kohus	kohu	s		V	s
     	kohus	0		S	sg n
kuulas	kuula	s		V	s
asja	asi	0		S	adt
    	asi	0		S	sg g
    	asi	0		S	sg p
järele	järele	0		D	
      	järele	0		K	
ja	ja	0		J	
leiti	leid	ti		V	ti
tõsi	tõsi	0		S	pl p
    	tõsi	0		S	sg n
olevat	ole	vat		V	vat
      	olev	t		A	sg p
      	olev	t		S	sg p
,	,			Z	
mis	mis	0		P	pl n
   	mis	0		P	sg n
tunnistuse	tunnistus	0		S	sg g
mehed	mees	d		S	pl n
olid	ole	id		V	sid
tunnistanud	tunnista	nud		V	nud
           	tunnista=nu	d		S	pl n
           	tunnista=nud	0		A	
           	tunnista=nud	0		A	sg n
           	tunnista=nud	d		A	pl n
ja	ja	0		J	
r	r	0		Y	?
ütles	ütle	s		V	s
,	,			Z	
et	et	0		J	
tema	tema	0		P	sg g
    	tema	0		P	sg n
seda	see	da		P	sg p
olla	ole	a		V	da
kiuste	kiust	e		S	pl p
      	kiuste	0		D	
      	kiuste	0		K	
pärast	pära	st		S	sg el
      	pärane	t		A	sg p
      	pärast	0		D	
      	pärast	0		K	
teinud	tege	nud		V	nud
      	tei=nud	0		A	
      	tei=nud	0		A	sg n
      	tei=nud	d		A	pl n
      	teinu	d		S	pl n
.	.			Z	
sai	saa	i		V	s
   	sai	0		S	sg n
mõistetud	mõist	tud		V	tud
         	mõiste=tu	d		S	pl n
         	mõiste=tud	0		A	
         	mõiste=tud	0		A	sg n
         	mõiste=tud	d		A	pl n
,	,			Z	
et	et	0		J	
Triinu	Triin	0		H	adt
      	Triin	0		H	sg g
      	Triin	0		H	sg p
      	Triinu	0		H	sg g
      	Triinu	0		H	sg n
Puh	puh	0		I	
peab	pida	b		V	b
1	1	0		N	?
rubla	rubla	0		S	sg g
     	rubla	0		S	sg n
     	rubla	0		S	sg p
trahvi	trahv	0		S	adt
      	trahv	0		S	sg g
      	trahvi	0		V	o
      	trahv	0		S	sg p
maksma	maks	ma		V	ma
,	,			Z	
seepärast	see_pärast	0		D	
et	et	0		J	
ilma	ilm	0		S	adt
    	ilm	0		S	sg g
    	ilma	0		D	
    	ilma	0		K	
    	ilm	0		S	sg p
asjata	asi	ta		S	sg ab
      	asjata	0		A	
      	asjata	0		D	
      	asjata	0		V	o
oli	ole	i		V	s
kaebanud	####				
ja	ja	0		J	
kiuste	kiust	e		S	pl p
      	kiuste	0		D	
      	kiuste	0		K	
pärast	pära	st		S	sg el
      	pärane	t		A	sg p
      	pärast	0		D	
      	pärast	0		K	
kohtusse	kohtune	se		A	adt
        	kohus	sse		S	sg ill
tulnud	tul=nud	0		A	
      	tul=nud	0		A	sg n
      	tul=nud	d		A	pl n
      	tule	nud		V	nud
      	tulnu	d		S	pl n
.	.			Z	
