tuli	tuli	0		S	sg n
    	tule	i		V	s
kohtu	kohtu	0		V	o
     	kohus	0		S	sg g
ette	ette	0		D	
    	ette	0		K	
    	esi	tte		S	adt
Landrati	####				
metsa	mets	0		S	adt
     	mets	0		S	sg g
     	mets	0		S	sg p
vaht	vaht	0		S	sg n
Tõnu	Tõnu	0		H	sg g
    	Tõnu	0		H	sg n
Piller	####				
ja	ja	0		J	
kaebas	kaeba	s		V	s
,	,			Z	
et	et	0		J	
Aru	aru	0		S	sg g
   	aru	0		S	sg n
   	aru	0		S	sg p
sauna	saun	0		S	adt
     	saun	0		S	sg g
     	saun	0		S	sg p
Juhan	Juhan	0		H	sg n
Kuimetsast	####				
28ndal	28=s	l		O	sg ad
Näärikuu	nääri_kuu	0		S	sg g
        	nääri_kuu	0		S	sg n
päeval	päev	l		S	sg ad
,	,			Z	
se	####				
on	ole	0		V	b
  	ole	0		V	vad
Kaiu	Kaiu	0		H	sg g
    	Kaiu	0		H	sg n
Arisma	####				
metsa	mets	0		S	adt
     	mets	0		S	sg g
     	mets	0		S	sg p
tükist	tükk	st		S	sg el
ühe	üks	0		N	sg g
   	üks	0		P	sg g
   	ühe	0		S	sg n
kuse	kusi	0		S	sg g
    	kuse	0		V	o
maha	maha	0		D	
varguse	vargus	0		S	sg g
viisil	viis	l		S	sg ad
      	viisil	0		K	
raiunud	raiu	nud		V	nud
       	raiu=nu	d		S	pl n
       	raiu=nud	0		A	
       	raiu=nud	0		A	sg n
       	raiu=nud	d		A	pl n
ja	ja	0		J	
ära	ära	0		D	
   	ära	0		V	neg o
viinud	vii	nud		V	nud
      	vii=nu	d		S	pl n
      	vii=nud	0		A	
      	vii=nud	0		A	sg n
      	vii=nud	d		A	pl n
,	,			Z	
puu	puu	0		S	sg g
   	puu	0		S	sg n
pikkus	pikkus	0		S	sg n
oli	ole	i		V	s
60	60	0		N	?
jalga	jalg	0		S	adt
     	jalg	0		S	sg p
     	jalga	0		D	
ja	ja	0		J	
känu	####				
jametus	####				
keskilt	####				
läbi	läbi	0		D	
    	läbi	0		K	
    	läbi	0		V	o
mõeta	####				
17	17	0		N	?
tuli	tuli	0		S	sg n
    	tule	i		V	s
.	.			Z	
metsavaht	metsa_vaht	0		S	sg n
leidnud	leid	nud		V	nud
       	leid=nu	d		S	pl n
       	leid=nud	0		A	
       	leid=nud	0		A	sg n
       	leid=nud	d		A	pl n
seda	see	da		P	sg p
varastatud	varasta	tud		V	tud
          	varastatu	d		S	pl n
          	varastatud	0		A	
          	varastatud	0		A	sg n
          	varastatud	d		A	pl n
kuuske	kuusk	0		S	adt
      	kuusk	0		S	sg p
Aru	aru	0		S	sg g
   	aru	0		S	sg n
   	aru	0		S	sg p
Juhani	Juhan	0		H	sg g
      	juha	ni		S	sg ter
sauna	saun	0		S	adt
     	saun	0		S	sg g
     	saun	0		S	sg p
õues	õu	s		S	sg in
    	õues	0		D	
,	,			Z	
suurem	suurem	0		C	sg n
jagu	jagu	0		S	sg n
    	jagu	0		V	o
    	jagu	0		S	sg p
olnud	ol=nud	0		A	
     	ol=nud	0		A	sg n
     	ol=nud	d		A	pl n
     	ole	nud		V	nud
     	olnu	d		S	pl n
juba	juba	0		D	
ära	ära	0		D	
   	ära	0		V	neg o
tarvitud	####				
kaks	kaks	0		N	sg n
pakku	pakk	0		S	adt
     	pakk	0		S	sg p
lnud	####				
veel	veel	0		D	
    	vesi	l		S	sg ad
järel	järel	0		D	
     	järel	0		K	
,	,			Z	
need	see	d		P	pl n
vedas	veda	s		S	sg in
     	veda	s		V	s
metsavaht	metsa_vaht	0		S	sg n
oma	oma	0		A	sg g
   	oma	0		D	
   	oma	0		P	sg g
   	oma	0		S	sg g
   	oma	0		V	o
   	oma	0		A	sg n
   	oma	0		A	sg p
   	oma	0		P	sg n
   	oma	0		P	sg p
   	oma	0		S	sg n
   	oma	0		S	sg p
õue	õu	0		S	adt
   	õu	0		S	sg g
   	õue	0		D	
   	õu	0		S	sg p
peale	pea	le		S	sg all
     	peale	0		D	
     	peale	0		K	
.	.			Z	
sai	saa	i		V	s
   	sai	0		S	sg n
kohtu	kohtu	0		V	o
     	kohus	0		S	sg g
ette	ette	0		D	
    	ette	0		K	
    	esi	tte		S	adt
kutsutud	kutsu	tud		V	tud
        	kutsutu	d		S	pl n
        	kutsutud	0		A	
        	kutsutud	0		A	sg n
        	kutsutud	d		A	pl n
Aru	aru	0		S	sg g
   	aru	0		S	sg n
   	aru	0		S	sg p
sauna	saun	0		S	adt
     	saun	0		S	sg g
     	saun	0		S	sg p
Juhan	Juhan	0		H	sg n
kohus	kohu	s		V	s
     	kohus	0		S	sg n
küsis	küsi	s		V	s
sinna	sinna	0		D	
oled	ole	d		V	d
Arisma	####				
metsast	mets	st		S	sg el
       	metsane	t		A	sg p
ühe	üks	0		N	sg g
   	üks	0		P	sg g
   	ühe	0		S	sg n
kuuse	kuune	0		A	sg g
     	kuusk	0		S	sg g
varastanud	varasta	nud		V	nud
          	varasta=nu	d		S	pl n
          	varasta=nud	0		A	
          	varasta=nud	0		A	sg n
          	varasta=nud	d		A	pl n
,	,			Z	
mis	mis	0		P	pl n
   	mis	0		P	sg n
60	60	0		N	?
jalga	jalg	0		S	adt
     	jalg	0		S	sg p
     	jalga	0		D	
pik	####				
ja	ja	0		J	
känu	####				
otsast	ots	st		S	sg el
      	otsast	0		K	
keskilt	####				
läbi	läbi	0		D	
    	läbi	0		K	
    	läbi	0		V	o
mõeta	####				
17	17	0		N	?
tuli	tuli	0		S	sg n
    	tule	i		V	s
jäme	jäme	0		A	sg n
.	.			Z	
Juhan	Juhan	0		H	sg n
ütles	ütle	s		V	s
:	:			Z	
selle	see	0		P	sg g
     	sell	e		S	pl p
kuse	kusi	0		S	sg g
    	kuse	0		V	o
mina	mina	0		P	sg n
    	mina	0		S	sg g
    	mina	0		S	sg n
    	mina	0		S	sg p
sealt	sealt	0		D	
     	siga	lt		A	sg abl
     	siga	lt		S	sg abl
küll	küll	0		D	
    	küll	0		S	sg n
tõin	too	in		V	sin
ja	ja	0		J	
se	####				
puu	puu	0		S	sg g
   	puu	0		S	sg n
oli	ole	i		V	s
ni	####				
suur	suur	0		A	sg n
kui	kui	0		D	
   	kui	0		J	
kaebus	kaebus	0		S	sg n
oli	ole	i		V	s
siis	siis	0		D	
    	siis	0		J	
mõistis	mõist	is		V	s
kohus	kohu	s		V	s
     	kohus	0		S	sg n
sinna	sinna	0		D	
maksad	maks	d		S	pl n
      	maks	d		V	d
trahvi	trahv	0		S	adt
      	trahv	0		S	sg g
      	trahvi	0		V	o
      	trahv	0		S	sg p
selle	see	0		P	sg g
     	sell	e		S	pl p
kuse	kusi	0		S	sg g
    	kuse	0		V	o
ette	ette	0		D	
    	ette	0		K	
    	esi	tte		S	adt
3	3	0		N	?
rubla	rubla	0		S	sg g
     	rubla	0		S	sg n
     	rubla	0		S	sg p
15	15	0		N	?
kopik	####				
;	;			Z	
aga	aga	0		J	
se	####				
trahv	trahv	0		S	sg n
sai	saa	i		V	s
   	sai	0		S	sg n
ladrati	latra	ti		V	ti
härrale	härra	le		S	sg all
.	.			Z	
Juhan	Juhan	0		H	sg n
palus	palu	s		S	sg in
     	palu	s		V	s
aega	aeg	0		S	adt
    	aeg	0		S	sg p
    	aega	0		K	
raha	raha	0		S	sg g
    	raha	0		S	sg n
    	raha	0		S	sg p
korjamise	korjamine	0		S	sg g
tarvis	tarvis	0		D	
      	tarvis	0		K	
teise	teine	0		O	adt
     	teine	0		O	sg g
     	teine	0		P	adt
     	teine	0		P	sg g
kohtu	kohtu	0		V	o
     	kohus	0		S	sg g
päevani	päev	ni		S	sg ter
kohtu	kohtu	0		V	o
     	kohus	0		S	sg g
vanem	vanem	0		C	sg n
     	vanem	0		S	sg n
Jüri	Jüri	0		H	sg g
    	Jüri	0		H	sg n
Parn	####				
XXX	XXX	0		O	?
   	XXX	0		Y	?
kohtu	kohtu	0		V	o
     	kohus	0		S	sg g
kõrvamees	kõrva_mees	0		S	sg n
Hans	Hans	0		H	sg n
Luige	luik	0		S	sg g
XXX	XXX	0		O	?
   	XXX	0		Y	?
kohtu	kohtu	0		V	o
     	kohus	0		S	sg g
kõrvamees	kõrva_mees	0		S	sg n
Tõnu	Tõnu	0		H	sg g
    	Tõnu	0		H	sg n
Kütsen	####				
XXX	XXX	0		O	?
   	XXX	0		Y	?
kirjutaja	kirjutaja	0		S	sg g
         	kirjutaja	0		S	sg n
Kaarel	Kaarel	0		H	sg n
      	kaar	l		S	sg ad
      	kaarel	0		S	sg n
Kaasik	kaasik	0		S	sg n
(	(			Z	
mõistetud	mõist	tud		V	tud
         	mõiste=tu	d		S	pl n
         	mõiste=tud	0		A	
         	mõiste=tud	0		A	sg n
         	mõiste=tud	d		A	pl n
ja	ja	0		J	
mõistus	mõistus	0		S	sg n
täidetud	täit	tud		V	tud
        	täide=tu	d		S	pl n
        	täide=tud	0		A	
        	täide=tud	0		A	sg n
        	täide=tud	d		A	pl n
sel	see	l		P	sg ad
   	sel	0		Y	?
24mal	####				
märtsil	märts	l		S	sg ad
1873.	1873.	0		O	?
)	)			Z	
