sel	see	l		P	sg ad
   	sel	0		Y	?
22sel	####				
juulil	juuli	l		S	sg ad
kohus	kohu	s		V	s
     	kohus	0		S	sg n
tuli	tuli	0		S	sg n
    	tule	i		V	s
ohtu	oht	0		S	adt
    	oht	0		S	sg p
mõisa	mõis	0		S	sg g
kokku	kokku	0		D	
     	kogu	0		S	adt
ja	ja	0		J	
teiseks	teine	ks		O	sg tr
       	teine	ks		P	sg tr
       	teiseks	0		D	
ette	ette	0		D	
    	ette	0		K	
    	esi	tte		S	adt
tulid	tule	id		V	sid
kaebajad	kaebaja	d		S	pl n
Matso	####				
Juhan	Juhan	0		H	sg n
päilmann	####				
ja	ja	0		J	
rehe	rehi	0		S	sg g
Jaan	Jaan	0		H	sg n
    	jaan	0		S	sg n
    	jaan	0		Y	?
Suurkjaga	####				
et	et	0		J	
Rõuküla	####				
ja	ja	0		J	
Saueaugu	saue_auk	0		S	sg g
on	ole	0		V	b
  	ole	0		V	vad
nende	see	de		P	pl g
     	tema	de		P	pl g
niitmata	niit	mata		V	mata
        	niit=mata	0		A	
heinamaad	heina_maa	d		S	pl n
         	heina_maa	d		S	sg p
ära	ära	0		D	
   	ära	0		V	neg o
söötnud	sööt	nud		V	nud
       	sööt=nu	d		S	pl n
       	sööt=nud	0		A	
       	sööt=nud	0		A	sg n
       	sööt=nud	d		A	pl n
.	.			Z	
ja	ja	0		J	
nemad	tema	d		P	pl n
leppisid	leppi	sid		V	sid
sedaviisi	seda_viisi	0		D	
ja	ja	0		J	
vahetasid	vaheta	sid		V	sid
need	see	d		P	pl n
heinamaad	heina_maa	d		S	pl n
         	heina_maa	d		S	sg p
et	et	0		J	
rehe	rehi	0		S	sg g
annab	and	b		V	b
oma	oma	0		A	sg g
   	oma	0		D	
   	oma	0		P	sg g
   	oma	0		S	sg g
   	oma	0		V	o
   	oma	0		A	sg n
   	oma	0		A	sg p
   	oma	0		P	sg n
   	oma	0		P	sg p
   	oma	0		S	sg n
   	oma	0		S	sg p
rasvataguse	rasva_tagune	0		A	sg g
           	rasva_tagune	0		S	sg g
ja	ja	0		J	
Saueaugu	saue_auk	0		S	sg g
annab	and	b		V	b
oma	oma	0		A	sg g
   	oma	0		D	
   	oma	0		P	sg g
   	oma	0		S	sg g
   	oma	0		V	o
   	oma	0		A	sg n
   	oma	0		A	sg p
   	oma	0		P	sg n
   	oma	0		P	sg p
   	oma	0		S	sg n
   	oma	0		S	sg p
vainuNone	####				
heinama	####				
vastu	vastu	0		D	
     	vastu	0		K	
Matso	####				
annab	and	b		V	b
oma	oma	0		A	sg g
   	oma	0		D	
   	oma	0		P	sg g
   	oma	0		S	sg g
   	oma	0		V	o
   	oma	0		A	sg n
   	oma	0		A	sg p
   	oma	0		P	sg n
   	oma	0		P	sg p
   	oma	0		S	sg n
   	oma	0		S	sg p
rjapvataguse	####				
ja	ja	0		J	
Rõuküla	####				
annab	and	b		V	b
oma	oma	0		A	sg g
   	oma	0		D	
   	oma	0		P	sg g
   	oma	0		S	sg g
   	oma	0		V	o
   	oma	0		A	sg n
   	oma	0		A	sg p
   	oma	0		P	sg n
   	oma	0		P	sg p
   	oma	0		S	sg n
   	oma	0		S	sg p
päesoheinama	####				
vastu	vastu	0		D	
     	vastu	0		K	
kohtu	kohtu	0		V	o
     	kohus	0		S	sg g
mehed	mees	d		S	pl n
Kustas	Kusta	s		H	sg in
      	Kustas	0		H	sg n
Neitõrw	####				
xxx	####				
Jüri	Jüri	0		H	sg g
    	Jüri	0		H	sg n
ärast	ärane	t		A	sg p
xxx	####				
Jakop	####				
Treu	####				
xxx	####				
