kontraht	kontraht	0		S	sg n
Harmi	####				
magdeburgi	####				
kohaomaniku	koha_omanik	0		S	sg g
W	V	0		O	?
 	V	0		Y	?
 	W	0		Y	?
.	.			Z	
_	_			Z	
Lepp	lepp	0		S	sg n
'	’			Z	
a	a	0		Y	?
ning	ning	0		J	
Rätsepmeister	rätsep_meister	0		S	sg n
H_	####				
.	.			Z	
Bommi	####				
vahel	vahe	l		S	sg ad
     	vahel	0		D	
     	vahel	0		K	
on	ole	0		V	b
  	ole	0		V	vad
alamal	alam	l		C	sg ad
      	alam	l		S	sg ad
      	alamal	0		D	
seisaki	####				
leppimine	leppimine	0		S	sg n
ja	ja	0		J	
kaup	kaup	0		S	sg n
tehtud	tehtu	d		S	pl n
      	tehtud	0		A	
      	tehtud	0		A	sg n
      	tehtud	d		A	pl n
      	tege	tud		V	tud
:	:			Z	
I	I	0		O	?
 	I	0		Y	?
 	j	0		Y	?
Rätsepmeister	rätsep_meister	0		S	sg n
H	H	0		Y	?
.	.			Z	
_	_			Z	
Bom	####				
võtab	võt	b		V	b
nimetatud	nimeta	tud		V	tud
         	nimetatu	d		S	pl n
         	nimetatud	0		A	
         	nimetatud	0		A	sg n
         	nimetatud	d		A	pl n
raha	raha	0		S	sg g
    	raha	0		S	sg n
    	raha	0		S	sg p
omaniku	omanik	0		S	sg g
käest	käest	0		K	
     	käsi	st		S	sg el
elu	elu	0		S	sg g
   	elu	0		S	sg n
   	elu	0		S	sg p
hoone	hoone	0		S	sg g
     	hoone	0		S	sg n
üheks	üks	ks		N	sg tr
     	üks	ks		P	sg tr
aastaks	aasta	ks		S	sg tr
oma	oma	0		A	sg g
   	oma	0		D	
   	oma	0		P	sg g
   	oma	0		S	sg g
   	oma	0		V	o
   	oma	0		A	sg n
   	oma	0		A	sg p
   	oma	0		P	sg n
   	oma	0		P	sg p
   	oma	0		S	sg n
   	oma	0		S	sg p
kätte	kätte	0		K	
     	käsi	tte		S	adt
rendi	rent	0		S	sg g
     	renti	0		V	o
peale	pea	le		S	sg all
     	peale	0		D	
     	peale	0		K	
,	,			Z	
see	see	0		P	sg n
on	ole	0		V	b
  	ole	0		V	vad
23ndal	23=s	l		O	sg ad
aprillist	aprill	st		S	sg el
1889	1889	0		N	?
a	a	0		Y	?
kunni	####				
23nda	23=s	0		O	sg g
aprillini	aprill	ni		S	sg ter
1890	1890	0		N	?
a	a	0		Y	?
ning	ning	0		J	
maksab	maks	b		V	b
selle	see	0		P	sg g
     	sell	e		S	pl p
eest	eest	0		D	
    	eest	0		K	
    	esi	st		S	sg el
35	35	0		N	?
rbl	rbl	0		Y	?
.	.			Z	
(	(			Z	
kolmkümmend	kolm_kümmend	0		N	sg n
viis	vii	s		V	s
    	viis	0		N	sg n
    	viis	0		S	sg n
rubla	rubla	0		S	sg g
     	rubla	0		S	sg n
     	rubla	0		S	sg p
)	)			Z	
aastas	aasta	s		S	sg in
renti	rent	0		S	adt
     	rent	0		S	sg p
.	.			Z	
poole	pool	0		N	sg g
     	pool	0		S	sg g
     	pool	e		S	pl p
     	poole	0		K	
     	poole	0		S	sg n
sellest	see	st		P	sg el
rendist	rent	st		S	sg el
       	rendis	t		S	sg p
maksab	maks	b		V	b
Jüri	Jüri	0		H	sg g
    	Jüri	0		H	sg n
päeval	päev	l		S	sg ad
1889a	1889a	0		Y	?
ja	ja	0		J	
teise	teine	0		O	adt
     	teine	0		O	sg g
     	teine	0		P	adt
     	teine	0		P	sg g
poole	pool	0		N	sg g
     	pool	0		S	sg g
     	pool	e		S	pl p
     	poole	0		K	
     	poole	0		S	sg n
23ndal	23=s	l		O	sg ad
oktoooobril	####				
1889a	1889a	0		Y	?
ette	ette	0		D	
    	ette	0		K	
    	esi	tte		S	adt
ära	ära	0		D	
   	ära	0		V	neg o
.	.			Z	
II	II	0		O	?
  	II	0		Y	?
  	jj	0		Y	?
rentnik	rentnik	0		S	sg n
saab	saa	b		V	b
üks	üks	0		N	sg n
   	üks	0		P	sg n
vakamaa	vaka_maa	0		S	sg g
       	vaka_maa	0		S	sg n
põldu	põld	0		S	adt
     	põld	0		S	sg p
kartuli	kartul	0		S	sg g
maaks	maa	ks		S	sg tr
ja	ja	0		J	
peale	pea	le		S	sg all
     	peale	0		D	
     	peale	0		K	
selle	see	0		P	sg g
     	sell	e		S	pl p
kapsa	kapsa	0		V	o
     	kapsas	0		S	sg g
maad	maa	d		S	pl n
    	maa	d		S	sg p
oma	oma	0		A	sg g
   	oma	0		D	
   	oma	0		P	sg g
   	oma	0		S	sg g
   	oma	0		V	o
   	oma	0		A	sg n
   	oma	0		A	sg p
   	oma	0		P	sg n
   	oma	0		P	sg p
   	oma	0		S	sg n
   	oma	0		S	sg p
tarvituseks	tarvitus	ks		S	sg tr
.	.			Z	
III	III	0		O	?
   	III	0		Y	?
.	.			Z	
Hagu	hagu	0		S	sg n
    	hagu	0		S	sg p
ahju	ahi	0		S	adt
    	ahi	0		S	sg g
    	ahi	0		S	sg p
kõtmiseks	####				
saab	saa	b		V	b
rentnik	rentnik	0		S	sg n
niipalju	nii_palju	0		D	
kui	kui	0		D	
   	kui	0		J	
selle	see	0		P	sg g
     	sell	e		S	pl p
hoone	hoone	0		S	sg g
     	hoone	0		S	sg n
soendamiseks	soenda=mine	ks		S	sg tr
ära	ära	0		D	
   	ära	0		V	neg o
kulub	kulu	b		V	b
;	;			Z	
peab	pida	b		V	b
aga	aga	0		J	
ise	ise	0		A	
   	ise	0		D	
   	ise	0		P	pl n
   	ise	0		P	sg n
raiuma	raiu	ma		V	ma
ja	ja	0		J	
koju	kodu	0		S	adt
vedama	veda	ma		V	ma
.	.			Z	
IV	IV	0		O	?
  	IV	0		Y	?
.	.			Z	
Heinamaad	heina_maa	d		S	pl n
         	heina_maa	d		S	sg p
saab	saa	b		V	b
rentnik	rentnik	0		S	sg n
arvata	arva	ta		V	da
      	arva	ta		V	ta
      	arvata	0		D	
umbes	umbes	0		A	
     	umbes	0		D	
     	umme	s		S	sg in
kolme	kolm	0		N	adt
     	kolm	0		N	sg g
     	kolm	0		N	sg p
koorma	koorem	0		S	sg g
      	koorma	0		V	o
usa	####				
,	,			Z	
ka	ka	0		D	
põhku	põhk	0		S	adt
     	põhk	0		S	sg p
looma	loo	ma		V	ma
     	loom	0		S	adt
     	loom	0		S	sg g
     	loom	0		S	sg p
söögiks	söök	ks		S	sg tr
,	,			Z	
niisama	nii_sama	0		D	
ka	ka	0		D	
õlgi	õlg	i		S	pl p
nii	nii	0		D	
palju	palju	0		D	
     	palju	0		P	sg g
     	palju	0		P	sg n
kui	kui	0		D	
   	kui	0		J	
ühele	üks	le		N	sg all
     	üks	le		P	sg all
loomale	loom	le		S	sg all
alapanemiseks	ala_panemine	ks		S	sg tr
vaja	vaja	0		D	
    	vaja	0		V	o
on	ole	0		V	b
  	ole	0		V	vad
.	.			Z	
V	V	0		O	?
 	V	0		Y	?
sõnnik	sõnnik	0		S	sg n
,	,			Z	
mis	mis	0		P	pl n
   	mis	0		P	sg n
järele	järele	0		D	
      	järele	0		K	
jääb	jää	b		V	b
,	,			Z	
peab	pida	b		V	b
koha	koht	0		S	sg g
    	koha	0		S	sg g
    	koha	0		V	o
    	koha	0		S	sg n
    	koha	0		S	sg p
kaljus	kalju	s		S	sg in
jaema	####				
ilma	ilm	0		S	adt
    	ilm	0		S	sg g
    	ilma	0		D	
    	ilma	0		K	
    	ilm	0		S	sg p
mingisuguse	mingi_sugune	0		P	sg g
tasumiseta	tasumine	ta		S	sg ab
.	.			Z	
IV.	IV	0		O	?
   	IV	0		Y	?
rentnik	rentnik	0		S	sg n
peab	pida	b		V	b
selle	see	0		P	sg g
     	sell	e		S	pl p
järele	järele	0		D	
      	järele	0		K	
vaatama	vaata	ma		V	ma
,	,			Z	
et	et	0		J	
hoone	hoone	0		S	sg g
     	hoone	0		S	sg n
,	,			Z	
mis	mis	0		P	pl n
   	mis	0		P	sg n
tema	tema	0		P	sg g
    	tema	0		P	sg n
pruukida	pruuki	da		V	da
on	ole	0		V	b
  	ole	0		V	vad
,	,			Z	
õnnetuse	õnnetus	0		S	sg g
eest	eest	0		D	
    	eest	0		K	
    	esi	st		S	sg el
hoitud	hoi=tu	d		S	pl n
      	hoi=tud	0		A	
      	hoi=tud	0		A	sg n
      	hoi=tud	d		A	pl n
      	hoid	tud		V	tud
saab	saa	b		V	b
.	.			Z	
A	A	0		Y	?
nimelt	nimelt	0		D	
      	nimi	lt		S	sg abl
ahi	ahki	0		V	o
   	ahi	0		S	sg n
terve	terve	0		A	sg g
     	terve	0		A	sg n
     	terve	0		S	sg g
     	terve	0		S	sg n
on	ole	0		V	b
  	ole	0		V	vad
ja	ja	0		J	
korsten	korsten	0		S	sg n
õigel	õige	l		A	sg ad
ajal	aeg	l		S	sg ad
    	ajal	0		K	
puhastatud	puhasta	tud		V	tud
          	puhasta=tu	d		S	pl n
          	puhasta=tud	0		A	
          	puhasta=tud	0		A	sg n
          	puhasta=tud	d		A	pl n
saab	saa	b		V	b
.	.			Z	
kui	kui	0		D	
   	kui	0		J	
suuremat	suurem	t		C	sg p
parandamist	parandamine	t		S	sg p
tarvis	tarvis	0		D	
      	tarvis	0		K	
läheb	mine	b		V	b
,	,			Z	
siis	siis	0		D	
    	siis	0		J	
peab	pida	b		V	b
kohe	kohe	0		A	sg n
    	kohe	0		D	
teada	tead	a		V	da
andma	and	ma		V	ma
.	.			Z	
see	see	0		P	sg n
hoone	hoone	0		S	sg g
     	hoone	0		S	sg n
saab	saa	b		V	b
omaniku	omanik	0		S	sg g
poolest	pool	st		N	sg el
       	pool	st		S	sg el
       	poolene	t		A	sg p
       	poolest	0		K	
elamise	elamine	0		S	sg g
tarvis	tarvis	0		D	
      	tarvis	0		K	
korras	kord	s		S	sg in
      	korras	0		A	
peetud	peetu	d		S	pl n
      	peetu	d		V	d
      	peetud	0		A	
      	peetud	0		A	sg n
      	peetud	d		A	pl n
      	pida	tud		V	tud
.	.			Z	
VII.	vii	0		V	o
    	vii	0		O	?
kui	kui	0		D	
   	kui	0		J	
rentnik	rentnik	0		S	sg n
midagi	miski	dagi		P	sg p
ette	ette	0		D	
    	ette	0		K	
    	esi	tte		S	adt
võtab	võt	b		V	b
,	,			Z	
mis	mis	0		P	pl n
   	mis	0		P	sg n
kül	####				
hoone	hoone	0		S	sg g
     	hoone	0		S	sg n
(	(			Z	
koha	koht	0		S	sg g
    	koha	0		S	sg g
    	koha	0		V	o
    	koha	0		S	sg n
    	koha	0		S	sg p
)	)			Z	
kasuks	kasu	ks		S	sg tr
tuleb	tule	b		V	b
arvata	arva	ta		V	da
      	arva	ta		V	ta
      	arvata	0		D	
,	,			Z	
aga	aga	0		J	
enne	enne	0		D	
    	enne	0		K	
    	enne	0		S	sg n
ei	ei	0		D	
  	ei	0		V	neg
ole	ole	0		V	o
omanikuga	omanik	ga		S	sg kom
läbirääkinud	läbi_rääki=nu	d		S	pl n
            	läbi_rääki=nud	0		A	
            	läbi_rääki=nud	0		A	sg n
            	läbi_rääki=nud	d		A	pl n
ja	ja	0		J	
kirjaliku	kirjalik	0		A	sg g
lepingut	leping	t		S	sg p
teinud	tege	nud		V	nud
      	tei=nud	0		A	
      	tei=nud	0		A	sg n
      	tei=nud	d		A	pl n
      	teinu	d		S	pl n
,	,			Z	
siis	siis	0		D	
    	siis	0		J	
ei	ei	0		D	
  	ei	0		V	neg
võitema	võit_ema	0		S	sg g
       	võit_ema	0		S	sg n
       	võit_ema	0		S	sg p
mitte	mitte	0		D	
oma	oma	0		A	sg g
   	oma	0		D	
   	oma	0		P	sg g
   	oma	0		S	sg g
   	oma	0		V	o
   	oma	0		A	sg n
   	oma	0		A	sg p
   	oma	0		P	sg n
   	oma	0		P	sg p
   	oma	0		S	sg n
   	oma	0		S	sg p
kulude	kulu	de		S	pl g
tasumist	tasumine	t		S	sg p
nõuda	nõud	a		V	da
.	.			Z	
VIII	VIII	0		O	?
    	VIII	0		Y	?
Iga	iga	0		P	sg g
   	iga	0		P	sg n
   	iga	0		P	sg p
   	iga	0		S	sg n
   	iga	0		S	sg p
päeva	päev	0		S	adt
     	päev	0		S	sg g
     	päev	0		S	sg p
eest	eest	0		D	
    	eest	0		K	
    	esi	st		S	sg el
,	,			Z	
mis	mis	0		P	pl n
   	mis	0		P	sg n
rentniku	rentnik	0		S	sg g
H	H	0		Y	?
.	.			Z	
_	_			Z	
Bommi	####				
naine	naine	0		S	sg n
suvisel	suvine	l		A	sg ad
põllutöö	põllu_töö	0		S	sg g
        	põllu_töö	0		S	sg n
ajal	aeg	l		S	sg ad
    	ajal	0		K	
omaniku	omanik	0		S	sg g
juures	juur	s		S	sg in
      	juures	0		D	
      	juures	0		K	
tööl	töö	l		S	sg ad
on	ole	0		V	b
  	ole	0		V	vad
,	,			Z	
saab	saa	b		V	b
ta	tema	0		P	sg g
  	tema	0		P	sg n
süüa	söö	a		V	da
ja	ja	0		J	
34	34	0		N	?
(	(			Z	
kolmkümmend	kolm_kümmend	0		N	sg n
viis	vii	s		V	s
    	viis	0		N	sg n
    	viis	0		S	sg n
kop	kop	0		Y	?
)	)			Z	
kop	kop	0		Y	?
.	.			Z	
päeva	päev	0		S	adt
     	päev	0		S	sg g
     	päev	0		S	sg p
palka	palk	0		S	adt
     	palka	0		V	o
     	palk	0		S	sg p
.	.			Z	
IX.	IX	0		O	?
   	IX	0		Y	?
see	see	0		P	sg n
kauba	kaup	0		S	sg g
leping	leping	0		S	sg n
kestab	kest	b		V	b
aastast	aasta	st		S	sg el
       	aastane	t		A	sg p
aastani	aasta	ni		S	sg ter
nii	nii	0		D	
kaua	kaua	0		D	
kui	kui	0		D	
   	kui	0		J	
mõlemad	mõlema	d		P	pl n
kauba	kaup	0		S	sg g
tegijad	tegija	d		S	pl n
sellega	see	ga		P	sg kom
rahul	rahu	l		S	sg ad
     	rahul	0		D	
on	ole	0		V	b
  	ole	0		V	vad
.	.			Z	
tahab	taht	b		V	b
üks	üks	0		N	sg n
   	üks	0		P	sg n
ehk	ehk	0		D	
   	ehk	0		J	
teine	teine	0		O	sg n
     	teine	0		P	sg n
oma	oma	0		A	sg g
   	oma	0		D	
   	oma	0		P	sg g
   	oma	0		S	sg g
   	oma	0		V	o
   	oma	0		A	sg n
   	oma	0		A	sg p
   	oma	0		P	sg n
   	oma	0		P	sg p
   	oma	0		S	sg n
   	oma	0		S	sg p
kaupa	kaup	0		S	adt
     	kaup	0		S	sg p
     	kaupa	0		K	
muuta	muu	ta		P	sg ab
     	muu	ta		S	sg ab
     	muut	a		V	da
_	_			Z	
peab	pida	b		V	b
seda	see	da		P	sg p
1sest	####				
jaanuarist	jaanuar	st		S	sg el
kase	kask	0		S	sg g
2se	####				
veebruarini	veebruar	ni		S	sg ter
kas	kas	0		D	
kohtus	kohtu	s		V	s
      	kohus	s		S	sg in
ehk	ehk	0		D	
   	ehk	0		J	
tunnistajate	tunnistaja	te		S	pl g
kuuldes	kuul	des		V	des
       	kuule	s		S	sg in
teisele	teine	le		O	sg all
       	teine	le		P	sg all
kaubategijale	kauba_tegija	le		S	sg all
teada	tead	a		V	da
andma	and	ma		V	ma
.	.			Z	
see	see	0		P	sg n
kontraht	kontraht	0		S	sg n
on	ole	0		V	b
  	ole	0		V	vad
kolmes	kolm	s		N	sg in
eksemplaris	eksemplar	s		S	sg in
kirja	kirja	0		A	
     	kirja	0		V	o
     	kiri	0		S	adt
     	kiri	0		S	sg g
     	kiri	0		S	sg p
pandud	pan=du	d		S	pl n
      	pan=dud	0		A	
      	pan=dud	0		A	sg n
      	pan=dud	d		A	pl n
      	pane	dud		V	tud
,	,			Z	
niledest	####				
kaks	kaks	0		N	sg n
kummagi	kumbki	gi		P	sg g
poolsele	poolne	le		A	sg all
kauba	kaup	0		S	sg g
tegijale	tegija	le		S	sg all
kätte	kätte	0		K	
     	käsi	tte		S	adt
saavad	saa	vad		V	vad
      	saav	d		A	pl n
      	saav	d		S	pl n
ja	ja	0		J	
kolmas	kolmas	0		O	sg n
kohtusse	kohtune	se		A	adt
        	kohus	sse		S	sg ill
hoida	hoid	a		V	da
jääb	jää	b		V	b
.	.			Z	
Harmis	####				
,	,			Z	
22.	22.	0		O	?
Juuni	juuni	0		S	sg g
     	juuni	0		S	sg n
kuu	kuu	0		S	sg g
   	kuu	0		S	sg n
päeval	päev	l		S	sg ad
1889a	1889a	0		Y	?
.	.			Z	
omanik	omanik	0		S	sg n
W	V	0		O	?
 	V	0		Y	?
 	W	0		Y	?
.	.			Z	
_	_			Z	
Lepp	lepp	0		S	sg n
Rätsep	rätsep	0		S	sg n
H	H	0		Y	?
.	.			Z	
_	_			Z	
Bom	####				
.	.			Z	
N1	N1	0		Y	?
Harmi	####				
,	,			Z	
Habaja	####				
ja	ja	0		J	
Ojasuu	oja_suu	0		S	sg g
      	oja_suu	0		S	sg n
ühendatud	ühenda	tud		V	tud
         	ühenda=tu	d		S	pl n
         	ühenda=tud	0		A	
         	ühenda=tud	0		A	sg n
         	ühenda=tud	d		A	pl n
kogukonna	kogukond	0		S	sg g
kohtu	kohtu	0		V	o
     	kohus	0		S	sg g
poolt	pool	t		N	sg p
     	pool	t		S	sg p
     	poolt	0		D	
     	poolt	0		K	
kinnitatud	kinnita	tud		V	tud
          	kinnita=tu	d		S	pl n
          	kinnita=tud	0		A	
          	kinnita=tud	0		A	sg n
          	kinnita=tud	d		A	pl n
.	.			Z	
Harmis	####				
,	,			Z	
12	12	0		N	?
aprillil	aprill	l		S	sg ad
1890a	1890a	0		Y	?
.	.			Z	
Eesistja	####				
T	T	0		Y	?
.	.			Z	
_	_			Z	
Adermann	ader_mann	0		S	sg n
??	??			Z	
/	/			Z	
allkiri	all_kiri	0		S	sg n
/	/			Z	
Mart	Mart	0		H	sg n
    	mart	0		S	sg n
Oras	ora	s		S	sg in
    	oras	0		S	sg n
