Jüri	Jüri	0		H	sg g
    	Jüri	0		H	sg n
Vilukas	vilukas	0		A	sg n
       	vilukas	s		A	sg in
kaebab	kaeba	b		V	b
kohtu	kohtu	0		V	o
     	kohus	0		S	sg g
ette	ette	0		D	
    	ette	0		K	
    	esi	tte		S	adt
et	et	0		J	
tema	tema	0		P	sg g
    	tema	0		P	sg n
on	ole	0		V	b
  	ole	0		V	vad
3	3	0		N	?
toopi	toop	0		S	adt
     	toop	0		S	sg p
Odra	Odra	0		H	sg g
    	oder	0		S	sg g
    	Odra	0		H	sg n
seemet	seeme	t		S	sg p
maha	maha	0		D	
külvanud	külva	nud		V	nud
        	külva=nu	d		S	pl n
        	külva=nud	0		A	
        	külva=nud	0		A	sg n
        	külva=nud	d		A	pl n
ja	ja	0		J	
Ann	Ann	0		H	sg n
posti	post	0		S	adt
     	post	0		S	sg g
     	post	0		S	sg p
on	ole	0		V	b
  	ole	0		V	vad
sealt	sealt	0		D	
     	siga	lt		A	sg abl
     	siga	lt		S	sg abl
juurest	juur	st		S	sg el
       	juurest	0		K	
sõnnikut	sõnnik	t		S	sg p
vedanud	veda	nud		V	nud
       	veda=nu	d		S	pl n
       	veda=nud	0		A	
       	veda=nud	0		A	sg n
       	veda=nud	d		A	pl n
ja	ja	0		J	
on	ole	0		V	b
  	ole	0		V	vad
aja	aeg	0		S	sg g
   	aja	0		V	o
maha	maha	0		D	
jätnud	jät	nud		V	nud
      	jät=nu	d		S	pl n
      	jät=nud	0		A	
      	jät=nud	0		A	sg n
      	jät=nud	d		A	pl n
ja	ja	0		J	
Mart	Mart	0		H	sg n
    	mart	0		S	sg n
Elba	Elba	0		H	sg g
    	Elba	0		H	sg n
hobune	hobune	0		S	sg n
on	ole	0		V	b
  	ole	0		V	vad
sealt	sealt	0		D	
     	siga	lt		A	sg abl
     	siga	lt		S	sg abl
sisse	siss	e		S	pl p
     	sisse	0		D	
     	sisse	0		K	
läinud	läinu	d		S	pl n
      	läinud	0		A	
      	läinud	0		A	sg n
      	läinud	d		A	pl n
      	mine	nud		V	nud
ja	ja	0		J	
selle	see	0		P	sg g
     	sell	e		S	pl p
orase	oras	0		S	sg g
ära	ära	0		D	
   	ära	0		V	neg o
söönud	söö	nud		V	nud
      	söönu	d		S	pl n
      	söönud	0		A	
      	söönud	0		A	sg n
      	söönud	d		A	pl n
ja	ja	0		J	
lojusid	####				
on	ole	0		V	b
  	ole	0		V	vad
ka	ka	0		D	
sealt	sealt	0		D	
     	siga	lt		A	sg abl
     	siga	lt		S	sg abl
maha	maha	0		D	
võetud	võe=tu	d		S	pl n
      	võetud	0		A	
      	võetud	0		A	sg n
      	võetud	d		A	pl n
      	võt	tud		V	tud
ajast	aeg	st		S	sg el
     	ajane	t		A	sg p
sisse	siss	e		S	pl p
     	sisse	0		D	
     	sisse	0		K	
läinud	läinu	d		S	pl n
      	läinud	0		A	
      	läinud	0		A	sg n
      	läinud	d		A	pl n
      	mine	nud		V	nud
ja	ja	0		J	
orase	oras	0		S	sg g
ära	ära	0		D	
   	ära	0		V	neg o
söönud	söö	nud		V	nud
      	söönu	d		S	pl n
      	söönud	0		A	
      	söönud	0		A	sg n
      	söönud	d		A	pl n
.	.			Z	
Ann	Ann	0		H	sg n
posti	post	0		S	adt
     	post	0		S	sg g
     	post	0		S	sg p
tunnistab	tunnista	b		V	b
ka	ka	0		D	
et	et	0		J	
tema	tema	0		P	sg g
    	tema	0		P	sg n
aea	####				
maha	maha	0		D	
võtmise	võtmine	0		S	sg g
läbi	läbi	0		D	
    	läbi	0		K	
    	läbi	0		V	o
on	ole	0		V	b
  	ole	0		V	vad
sealt	sealt	0		D	
     	siga	lt		A	sg abl
     	siga	lt		S	sg abl
lojused	lojus	d		S	pl n
sisse	siss	e		S	pl p
     	sisse	0		D	
     	sisse	0		K	
läinud	läinu	d		S	pl n
      	läinud	0		A	
      	läinud	0		A	sg n
      	läinud	d		A	pl n
      	mine	nud		V	nud
.	.			Z	
ja	ja	0		J	
Mart	Mart	0		H	sg n
    	mart	0		S	sg n
Elba	Elba	0		H	sg g
    	Elba	0		H	sg n
tunnistab	tunnista	b		V	b
ka	ka	0		D	
kohtu	kohtu	0		V	o
     	kohus	0		S	sg g
ees	ees	0		D	
   	ees	0		K	
   	esi	s		S	sg in
et	et	0		J	
tema	tema	0		P	sg g
    	tema	0		P	sg n
hobune	hobune	0		S	sg n
on	ole	0		V	b
  	ole	0		V	vad
ka	ka	0		D	
seal	seal	0		D	
    	siga	l		A	sg ad
    	siga	l		S	sg ad
orast	ora	st		S	sg el
     	oras	t		S	sg p
söönud	söö	nud		V	nud
      	söönu	d		S	pl n
      	söönud	0		A	
      	söönud	0		A	sg n
      	söönud	d		A	pl n
.	.			Z	
kohus	kohu	s		V	s
     	kohus	0		S	sg n
mõistis	mõist	is		V	s
et	et	0		J	
An	####				
posti	post	0		S	adt
     	post	0		S	sg g
     	post	0		S	sg p
peab	pida	b		V	b
2	2	0		N	?
toopi	toop	0		S	adt
     	toop	0		S	sg p
ja	ja	0		J	
Mart	Mart	0		H	sg n
    	mart	0		S	sg n
Elba	Elba	0		H	sg g
    	Elba	0		H	sg n
1	1	0		N	?
toop	toop	0		S	sg n
Odre	####				
Jüri	Jüri	0		H	sg g
    	Jüri	0		H	sg n
Vilokale	####				
maksma	maks	ma		V	ma
ja	ja	0		J	
kui	kui	0		D	
   	kui	0		J	
sinna	sinna	0		D	
veel	veel	0		D	
    	vesi	l		S	sg ad
kasvab	kasva	b		V	b
siis	siis	0		D	
    	siis	0		J	
korjap	####				
Jüri	Jüri	0		H	sg g
    	Jüri	0		H	sg n
Vilukas	vilukas	0		A	sg n
       	vilukas	s		A	sg in
ise	ise	0		A	
   	ise	0		D	
   	ise	0		P	pl n
   	ise	0		P	sg n
ära	ära	0		D	
   	ära	0		V	neg o
.	.			Z	
(	(			Z	
Jüri	Jüri	0		H	sg g
    	Jüri	0		H	sg n
Vilukas	vilukas	0		A	sg n
       	vilukas	s		A	sg in
ei	ei	0		D	
  	ei	0		V	neg
tahtnud	taht	nud		V	nud
       	taht=nu	d		S	pl n
       	taht=nud	0		A	
       	taht=nud	0		A	sg n
       	taht=nud	d		A	pl n
neid	neid	0		S	sg n
    	see	d		P	pl p
    	tema	d		P	pl p
Odre	####				
saada	saa	da		V	da
     	saat	0		V	o
     	saa	da		V	ta
)	)			Z	
