Harku	Harku	0		H	sg g
     	Harku	0		H	sg n
     	harku	0		G	
mõisa	mõis	0		S	sg g
valitsus	valitsus	0		S	sg n
kaebas	kaeba	s		V	s
,	,			Z	
tema	tema	0		P	sg g
    	tema	0		P	sg n
olla	ole	a		V	da
kuulda	kuul	da		V	da
      	kuul	da		V	ta
saanud	saa	nud		V	nud
      	saa=nud	0		A	
      	saa=nud	0		A	sg n
      	saa=nud	d		A	pl n
      	saanu	d		S	pl n
,	,			Z	
et	et	0		J	
Peeter	Peeter	0		H	sg n
kõrge	kõrge	0		A	sg g
     	kõrge	0		A	sg n
olla	ole	a		V	da
Jõemetsast	jõe_mets	st		S	sg el
mõisa	mõis	0		S	sg g
kuunist	####				
15	15	0		N	?
leisikat	leisikas	t		S	sg p
heinu	hein	u		S	pl p
varastanud	varasta	nud		V	nud
          	varasta=nu	d		S	pl n
          	varasta=nud	0		A	
          	varasta=nud	0		A	sg n
          	varasta=nud	d		A	pl n
,	,			Z	
Juhan	Juhan	0		H	sg n
Evart	####				
olla	ole	a		V	da
seda	see	da		P	sg p
näinud	näi	nud		V	nud
      	näge	nud		V	nud
      	näi=nud	0		A	
      	näi=nud	0		A	sg n
      	näi=nud	d		A	pl n
      	näinu	d		S	pl n
,	,			Z	
ja	ja	0		J	
üles	üles	0		D	
rääkinud	rääki	nud		V	nud
        	rääki=nu	d		S	pl n
        	rääki=nud	0		A	
        	rääki=nud	0		A	sg n
        	rääki=nud	d		A	pl n
.	.			Z	
Peeter	Peeter	0		H	sg n
kõrge	kõrge	0		A	sg g
     	kõrge	0		A	sg n
sai	saa	i		V	s
   	sai	0		S	sg n
ette	ette	0		D	
    	ette	0		K	
    	esi	tte		S	adt
kutsutud	kutsu	tud		V	tud
        	kutsutu	d		S	pl n
        	kutsutud	0		A	
        	kutsutud	0		A	sg n
        	kutsutud	d		A	pl n
,	,			Z	
tema	tema	0		P	sg g
    	tema	0		P	sg n
vaitles	####				
selle	see	0		P	sg g
     	sell	e		S	pl p
kaebtuse	####				
vastu	vastu	0		D	
     	vastu	0		K	
,	,			Z	
se	####				
olla	ole	a		V	da
ilma	ilm	0		S	adt
    	ilm	0		S	sg g
    	ilma	0		D	
    	ilma	0		K	
    	ilm	0		S	sg p
põhjata	põhja	ta		V	da
       	põhi	ta		S	sg ab
       	põhja	ta		V	ta
vale	vale	0		A	sg g
    	vale	0		A	sg n
    	vale	0		S	sg g
    	vale	0		S	sg n
jut	####				
,	,			Z	
ja	ja	0		J	
viha	viht	0		S	sg g
    	viha	0		A	sg g
    	viha	0		A	sg n
    	viha	0		A	sg p
    	viha	0		S	sg g
    	viha	0		S	sg n
    	viha	0		S	sg p
pärast	pära	st		S	sg el
      	pärane	t		A	sg p
      	pärast	0		D	
      	pärast	0		K	
J. Everti	####				
poolt	pool	t		N	sg p
     	pool	t		S	sg p
     	poolt	0		D	
     	poolt	0		K	
tema	tema	0		P	sg g
    	tema	0		P	sg n
üle	üle	0		D	
   	üle	0		K	
tehtud	tehtu	d		S	pl n
      	tehtud	0		A	
      	tehtud	0		A	sg n
      	tehtud	d		A	pl n
      	tege	tud		V	tud
,	,			Z	
tema	tema	0		P	sg g
    	tema	0		P	sg n
poole	pool	0		N	sg g
     	pool	0		S	sg g
     	pool	e		S	pl p
     	poole	0		K	
     	poole	0		S	sg n
mitte	mitte	0		D	
mõisa	mõis	0		S	sg g
küüünist	####				
heinu	hein	u		S	pl p
vargal	varas	l		S	sg ad
käinud	käi	nud		V	nud
      	käi=nud	0		A	
      	käi=nud	0		A	sg n
      	käi=nud	d		A	pl n
      	käinu	d		S	pl n
,	,			Z	
ega	ega	0		D	
   	ega	0		J	
tea	tead	0		V	o
sellest	see	st		P	sg el
vargusest	vargus	st		S	sg el
midagi	miski	dagi		P	sg p
.	.			Z	
Juhan	Juhan	0		H	sg n
Evart	####				
sai	saa	i		V	s
   	sai	0		S	sg n
ette	ette	0		D	
    	ette	0		K	
    	esi	tte		S	adt
kutsutud	kutsu	tud		V	tud
        	kutsutu	d		S	pl n
        	kutsutud	0		A	
        	kutsutud	0		A	sg n
        	kutsutud	d		A	pl n
tema	tema	0		P	sg g
    	tema	0		P	sg n
ütles	ütle	s		V	s
,	,			Z	
tema	tema	0		P	sg g
    	tema	0		P	sg n
olla	ole	a		V	da
sügise	sügis	0		S	sg g
Oktoobri	oktoober	0		S	sg g
kuu	kuu	0		S	sg g
   	kuu	0		S	sg n
sees	sees	0		D	
    	sees	0		K	
1886	1886	0		N	?
Tallinna	Tallinn	0		H	adt
        	Tallinn	0		H	sg g
        	tallinna	0		G	
        	Tallinn	0		H	sg p
läinud	läinu	d		S	pl n
      	läinud	0		A	
      	läinud	0		A	sg n
      	läinud	d		A	pl n
      	mine	nud		V	nud
öösi	öös	0		S	adt
    	öös	0		S	sg g
    	öösi	0		D	
    	öös	0		S	sg p
,	,			Z	
kell	kell	0		S	sg n
3	3	0		N	?
aeg	aeg	0		S	sg n
,	,			Z	
siis	siis	0		D	
    	siis	0		J	
tulnud	tul=nud	0		A	
      	tul=nud	0		A	sg n
      	tul=nud	d		A	pl n
      	tule	nud		V	nud
      	tulnu	d		S	pl n
üks	üks	0		N	sg n
   	üks	0		P	sg n
mees	mees	0		S	sg n
    	mesi	s		S	sg in
heina	hein	0		S	adt
     	hein	0		S	sg g
     	hein	0		S	sg p
koormaga	koorem	ga		S	sg kom
mõisa	mõis	0		S	sg g
heinamalt	####				
ja	ja	0		J	
läinud	läinu	d		S	pl n
      	läinud	0		A	
      	läinud	0		A	sg n
      	läinud	d		A	pl n
      	mine	nud		V	nud
linn	linn	0		S	sg n
poole	pool	0		N	sg g
     	pool	0		S	sg g
     	pool	e		S	pl p
     	poole	0		K	
     	poole	0		S	sg n
tema	tema	0		P	sg g
    	tema	0		P	sg n
ees	ees	0		D	
   	ees	0		K	
   	esi	s		S	sg in
,	,			Z	
ja	ja	0		J	
tema	tema	0		P	sg g
    	tema	0		P	sg n
arvanud	arva	nud		V	nud
       	arva=nu	d		S	pl n
       	arva=nud	0		A	
       	arva=nud	0		A	sg n
       	arva=nud	d		A	pl n
seda	see	da		P	sg p
meest	meene	t		A	sg p
     	mees	t		S	sg p
     	mesi	st		S	sg el
Peeter	Peeter	0		H	sg n
kõrgeks	kõrge	ks		A	sg tr
,	,			Z	
selle	see	0		P	sg g
     	sell	e		S	pl p
pärast	pära	st		S	sg el
      	pärane	t		A	sg p
      	pärast	0		D	
      	pärast	0		K	
et	et	0		J	
Peeter	Peeter	0		H	sg n
kõrge	kõrge	0		A	sg g
     	kõrge	0		A	sg n
peal	pea	l		S	sg ad
    	peal	0		D	
    	peal	0		K	
Mäe	mägi	0		S	sg g
kõrtsi	kõrts	0		S	adt
      	kõrts	0		S	sg g
      	kõrts	0		S	sg p
juures	juur	s		S	sg in
      	juures	0		D	
      	juures	0		K	
15	15	0		N	?
leisikat	leisikas	t		S	sg p
heinu	hein	u		S	pl p
oli	ole	i		V	s
keeratud	keera	tud		V	tud
        	keera=tu	d		S	pl n
        	keera=tud	0		A	
        	keera=tud	0		A	sg n
        	keera=tud	d		A	pl n
ja	ja	0		J	
kõik	kõik	0		P	pl n
    	kõik	0		S	sg n
    	kõik	0		P	sg n
nõnda	nõnda	0		D	
sasis	sasi	s		S	sg in
     	sasi	s		V	s
peale	pea	le		S	sg all
     	peale	0		D	
     	peale	0		K	
pandud	pan=du	d		S	pl n
      	pan=dud	0		A	
      	pan=dud	0		A	sg n
      	pan=dud	d		A	pl n
      	pane	dud		V	tud
,	,			Z	
aga	aga	0		J	
selgesti	selgesti	0		D	
ei	ei	0		D	
  	ei	0		V	neg
või	või	0		S	sg g
   	või	0		V	o
   	või	0		D	
   	või	0		J	
   	või	0		S	sg n
tunnista	tunnista	0		V	o
.	.			Z	
kohus	kohu	s		V	s
     	kohus	0		S	sg n
kuulas	kuula	s		V	s
nende	see	de		P	pl g
     	tema	de		P	pl g
tunnistused	tunnistus	d		S	pl n
tõrgu	tõrku	0		V	o
üle	üle	0		D	
   	üle	0		K	
ja	ja	0		J	
ei	ei	0		D	
  	ei	0		V	neg
leidnud	leid	nud		V	nud
       	leid=nu	d		S	pl n
       	leid=nud	0		A	
       	leid=nud	0		A	sg n
       	leid=nud	d		A	pl n
selle	see	0		P	sg g
     	sell	e		S	pl p
süü	süü	0		S	sg g
   	süü	0		S	sg n
üle	üle	0		D	
   	üle	0		K	
mingi	mingi	0		P	sg g
     	mink	0		S	sg g
     	minki	0		V	o
     	mingi	0		P	sg n
põhjust	põhjus	t		S	sg p
,	,			Z	
et	et	0		J	
Peeter	Peeter	0		H	sg n
kõrge	kõrge	0		A	sg g
     	kõrge	0		A	sg n
heinu	hein	u		S	pl p
oleks	ole	ks		V	ks
varastanud	varasta	nud		V	nud
          	varasta=nu	d		S	pl n
          	varasta=nud	0		A	
          	varasta=nud	0		A	sg n
          	varasta=nud	d		A	pl n
,	,			Z	
ja	ja	0		J	
tema	tema	0		P	sg g
    	tema	0		P	sg n
olla	ole	a		V	da
kodunud	####				
oma	oma	0		A	sg g
   	oma	0		D	
   	oma	0		P	sg g
   	oma	0		S	sg g
   	oma	0		V	o
   	oma	0		A	sg n
   	oma	0		A	sg p
   	oma	0		P	sg n
   	oma	0		P	sg p
   	oma	0		S	sg n
   	oma	0		S	sg p
heindega	####				
linna	linn	0		S	adt
     	linn	0		S	sg g
     	linn	0		S	sg p
läinud	läinu	d		S	pl n
      	läinud	0		A	
      	läinud	0		A	sg n
      	läinud	d		A	pl n
      	mine	nud		V	nud
,	,			Z	
mõisa	mõis	0		S	sg g
valitsuse	valitsus	0		S	sg g
poolt	pool	t		N	sg p
     	pool	t		S	sg p
     	poolt	0		D	
     	poolt	0		K	
,	,			Z	
ja	ja	0		J	
ka	ka	0		D	
valla	vald	0		S	sg g
     	valla	0		D	
kohtu	kohtu	0		V	o
     	kohus	0		S	sg g
poolt	pool	t		N	sg p
     	pool	t		S	sg p
     	poolt	0		D	
     	poolt	0		K	
sai	saa	i		V	s
   	sai	0		S	sg n
se	####				
Juhan	Juhan	0		H	sg n
Evarti	####				
tunnistus	tunnistus	0		S	sg n
tühjaks	tühi	ks		A	sg tr
mõistetud	mõist	tud		V	tud
         	mõiste=tu	d		S	pl n
         	mõiste=tud	0		A	
         	mõiste=tud	0		A	sg n
         	mõiste=tud	d		A	pl n
.	.			Z	
kohtumees	kohtu_mees	0		S	sg n
Juhan	Juhan	0		H	sg n
Humberg	####				
XXX	XXX	0		O	?
   	XXX	0		Y	?
kõrvamehed	kõrva_mees	d		S	pl n
Gustav	Gustav	0		H	sg n
Reindes	####				
XXX	XXX	0		O	?
   	XXX	0		Y	?
Reinhold	####				
kõrsin	####				
XXX	XXX	0		O	?
   	XXX	0		Y	?
kirjutaja	kirjutaja	0		S	sg g
         	kirjutaja	0		S	sg n
G	G	0		Y	?
.	.			Z	
_	_			Z	
kolip	####				
sai	saa	i		V	s
   	sai	0		S	sg n
tühjaks	tühi	ks		A	sg tr
mõistetud	mõist	tud		V	tud
         	mõiste=tu	d		S	pl n
         	mõiste=tud	0		A	
         	mõiste=tud	0		A	sg n
         	mõiste=tud	d		A	pl n
.	.			Z	
mõisa	mõis	0		S	sg g
valitsuse	valitsus	0		S	sg g
tahtmise	tahtmine	0		S	sg g
järel	järel	0		D	
     	järel	0		K	
