kohtu	kohtu	0		V	o
     	kohus	0		S	sg g
laua	laud	0		S	sg g
ette	ette	0		D	
    	ette	0		K	
    	esi	tte		S	adt
tuli	tuli	0		S	sg n
    	tule	i		V	s
Jaan	Jaan	0		H	sg n
    	jaan	0		S	sg n
    	jaan	0		Y	?
Vainu	vainu	0		S	sg g
     	vainu	0		S	sg n
üks	üks	0		N	sg n
   	üks	0		P	sg n
Noaruotsi	####				
pois	poi	s		S	sg in
,	,			Z	
kes	kes	0		P	pl n
   	kes	0		P	sg n
siin	siin	0		D	
    	siin	0		S	sg n
valdas	valda	s		V	s
Külati	####				
peres	pere	s		S	sg in
sulaseks	sulane	ks		S	sg tr
oli	ole	i		V	s
olnud	ol=nud	0		A	
     	ol=nud	0		A	sg n
     	ol=nud	d		A	pl n
     	ole	nud		V	nud
     	olnu	d		S	pl n
s	s	0		Y	?
.	.			Z	
a	a	0		Y	?
ja	ja	0		J	
kaebab	kaeba	b		V	b
,	,			Z	
et	et	0		J	
tema	tema	0		P	sg g
    	tema	0		P	sg n
on	ole	0		V	b
  	ole	0		V	vad
peremehe	pere_mees	0		S	sg g
Palitu	palitu	0		S	sg g
      	palitu	0		S	sg n
selga	selg	0		S	adt
     	selg	0		S	sg p
pannud	pan=nu	d		S	pl n
      	pan=nud	0		A	
      	pan=nud	0		A	sg n
      	pan=nud	d		A	pl n
      	pane	nud		V	nud
ja	ja	0		J	
nabri	####				
:	:			Z	
see	see	0		P	sg n
on	ole	0		V	b
  	ole	0		V	vad
Ula	ula	0		D	
   	ula	0		V	o
pere	pere	0		S	sg g
    	pere	0		S	sg n
äravvast	####				
mõõda	mõõt	0		V	o
läinud	läinu	d		S	pl n
      	läinud	0		A	
      	läinud	0		A	sg n
      	läinud	d		A	pl n
      	mine	nud		V	nud
ja	ja	0		J	
Ula	ula	0		D	
   	ula	0		V	o
peremehe	pere_mees	0		S	sg g
Jaan	Jaan	0		H	sg n
    	jaan	0		S	sg n
    	jaan	0		Y	?
Niiberg	####				
koer	koer	0		A	sg n
    	koer	0		S	sg n
on	ole	0		V	b
  	ole	0		V	vad
tema	tema	0		P	sg g
    	tema	0		P	sg n
selga	selg	0		S	adt
     	selg	0		S	sg p
taga	taga	0		D	
    	taga	0		K	
    	taga	0		V	o
palitu	palitu	0		S	sg g
      	palitu	0		S	sg n
sabast	saba	st		S	sg el
      	sabane	t		S	sg p
tüki	tükk	0		S	sg g
    	tükki	0		V	o
välja	välja	0		D	
     	välja	0		V	o
     	väli	0		S	adt
     	väli	0		S	sg g
     	väli	0		S	sg p
tõmbanud	####				
ja	ja	0		J	
peremees	pere_mees	0		S	sg n
on	ole	0		V	b
  	ole	0		V	vad
tema	tema	0		P	sg g
    	tema	0		P	sg n
palgast	palk	st		S	sg el
3	3	0		N	?
rubla	rubla	0		S	sg g
     	rubla	0		S	sg n
     	rubla	0		S	sg p
Palitu	palitu	0		S	sg g
      	palitu	0		S	sg n
rikkumise	rikkumine	0		S	sg g
ette	ette	0		D	
    	ette	0		K	
    	esi	tte		S	adt
võtnud	võt	nud		V	nud
      	võt=nu	d		S	pl n
      	võt=nud	0		A	
      	võt=nud	0		A	sg n
      	võt=nud	d		A	pl n
.	.			Z	
ette	ette	0		D	
    	ette	0		K	
    	esi	tte		S	adt
sai	saa	i		V	s
   	sai	0		S	sg n
Ula	ula	0		D	
   	ula	0		V	o
peremees	pere_mees	0		S	sg n
Jaan	Jaan	0		H	sg n
    	jaan	0		S	sg n
    	jaan	0		Y	?
Niiberg	####				
kutsutud	kutsu	tud		V	tud
        	kutsutu	d		S	pl n
        	kutsutud	0		A	
        	kutsutud	0		A	sg n
        	kutsutud	d		A	pl n
,	,			Z	
see	see	0		P	sg n
ei	ei	0		D	
  	ei	0		V	neg
võinud	või	nud		V	nud
      	või=nu	d		S	pl n
      	või=nud	0		A	
      	või=nud	0		A	sg n
      	või=nud	d		A	pl n
mitte	mitte	0		D	
salgata	salk	ta		S	sg ab
,	,			Z	
et	et	0		J	
temal	tema	l		P	sg ad
kiskuja	kisku=ja	0		S	sg g
       	kisku=ja	0		S	sg n
koer	koer	0		A	sg n
    	koer	0		S	sg n
ei	ei	0		D	
  	ei	0		V	neg
ole	ole	0		V	o
,	,			Z	
vaid	vaid	0		D	
    	vaid	0		J	
palus	palu	s		S	sg in
     	palu	s		V	s
lepitust	lepitus	t		S	sg p
ja	ja	0		J	
maksis	maks	is		V	s
      	maksi	s		S	sg in
Jaan	Jaan	0		H	sg n
    	jaan	0		S	sg n
    	jaan	0		Y	?
Vainule	vainu	le		S	sg all
3	3	0		N	?
rubla	rubla	0		S	sg g
     	rubla	0		S	sg n
     	rubla	0		S	sg p
kahju	kahi	0		S	adt
     	kahi	0		S	sg g
     	kahi	0		S	sg p
     	kahju	0		S	sg g
     	kahju	0		S	sg n
     	kahju	0		S	sg p
välja	välja	0		D	
     	välja	0		V	o
     	väli	0		S	adt
     	väli	0		S	sg g
     	väli	0		S	sg p
.	.			Z	
