viimse	viimne	0		A	sg g
kohtupäeva	kohtu_päev	0		S	adt
          	kohtu_päev	0		S	sg g
          	kohtu_päev	0		S	sg p
protokoll	protokoll	0		S	sg n
sai	saa	i		V	s
   	sai	0		S	sg n
ette	ette	0		D	
    	ette	0		K	
    	esi	tte		S	adt
loetud	loetu	d		S	pl n
      	loetud	0		A	
      	loetud	0		A	sg n
      	loetud	d		A	pl n
      	luge	tud		V	tud
ja	ja	0		J	
hoigeks	####				
kiidetud	kiit	tud		V	tud
        	kiide=tu	d		S	pl n
        	kiide=tud	0		A	
        	kiide=tud	0		A	sg n
        	kiide=tud	d		A	pl n
.	.			Z	
kohtu	kohtu	0		V	o
     	kohus	0		S	sg g
laua	laud	0		S	sg g
ette	ette	0		D	
    	ette	0		K	
    	esi	tte		S	adt
astusid	astu	sid		V	sid
.	.			Z	
I	I	0		O	?
 	I	0		Y	?
 	j	0		Y	?
1	1	0		N	?
)	)			Z	
Christjan	####				
Krahv	krahv	0		S	sg n
.	.			Z	
tema	tema	0		P	sg g
    	tema	0		P	sg n
ütles	ütle	s		V	s
:	:			Z	
kevade	kevad	0		S	sg g
      	kevade	0		S	sg g
      	kevade	0		S	sg n
kauplesin	kauple	sin		V	sin
Reinhold	####				
Adamsoni	Adamson	0		H	adt
        	Adamson	0		H	sg g
        	Adamson	0		H	sg p
juure	juur	0		S	sg g
Juro	####				
suvelaseks	####				
,	,			Z	
tema	tema	0		P	sg g
    	tema	0		P	sg n
lubas	luba	s		V	s
minule	mina	le		P	sg all
teie	sina	0		P	pl g
    	sina	0		P	pl n
suvele_se	####				
palka	palk	0		S	adt
     	palka	0		V	o
     	palk	0		S	sg p
maksa	maks	0		S	adt
     	maks	0		S	sg g
     	maks	0		V	o
     	maks	0		S	sg p
ja	ja	0		J	
nüüd	nüüd	0		D	
minu	mina	0		P	sg g
ei	ei	0		D	
  	ei	0		V	neg
ole	ole	0		V	o
rohkem	rohkem	0		D	
kui	kui	0		D	
   	kui	0		J	
5	5	0		N	?
tüdrit	####				
vilja	vili	0		S	adt
     	vili	0		S	sg g
     	vili	0		S	sg p
ja	ja	0		J	
4	4	0		N	?
paari	paar	0		N	adt
     	paar	0		N	sg g
     	paar	0		S	adt
     	paar	0		S	sg g
     	paari	0		D	
     	paari	0		V	o
     	paar	0		N	sg p
     	paar	0		S	sg p
pasleid	####				
kätte	kätte	0		K	
     	käsi	tte		S	adt
saanud	saa	nud		V	nud
      	saa=nud	0		A	
      	saa=nud	0		A	sg n
      	saa=nud	d		A	pl n
      	saanu	d		S	pl n
,	,			Z	
tema	tema	0		P	sg g
    	tema	0		P	sg n
külvas	külva	s		V	s
ka	ka	0		D	
sugu	sugu	0		A	
    	sugu	0		D	
    	sugu	0		S	sg n
    	sugu	0		S	sg p
otri	oder	i		S	pl p
neider	####				
minu	mina	0		P	sg g
seemeest	####				
mulle	mull	e		S	pl p
     	mina	lle		P	sg all
     	mulle	0		S	sg n
maha	maha	0		D	
ja	ja	0		J	
üks	üks	0		N	sg n
   	üks	0		P	sg n
tünder	tünder	0		S	sg n
kartuhvleid	####				
tegi	sina	0	gi	P	pl g
    	tege	i		V	s
    	sina	0	gi	P	pl n
ka	ka	0		D	
oma	oma	0		A	sg g
   	oma	0		D	
   	oma	0		P	sg g
   	oma	0		S	sg g
   	oma	0		V	o
   	oma	0		A	sg n
   	oma	0		A	sg p
   	oma	0		P	sg n
   	oma	0		P	sg p
   	oma	0		S	sg n
   	oma	0		S	sg p
maa	maa	0		S	sg g
   	maa	0		S	sg n
peale	pea	le		S	sg all
     	peale	0		D	
     	peale	0		K	
;	;			Z	
nüüd	nüüd	0		D	
ütleb	ütle	b		V	b
tema	tema	0		P	sg g
    	tema	0		P	sg n
,	,			Z	
se	####				
peab	pida	b		V	b
puuduva	puuduv	0		A	sg g
palga	palk	0		S	sg g
asemele	ase	le		S	sg all
       	asemele	0		D	
       	asemele	0		K	
jääma	jää	ma		V	ma
     	jääm	0		S	adt
     	jääm	0		S	sg g
     	jääm	0		S	sg p
et	et	0		J	
kül	####				
kevade	kevad	0		S	sg g
      	kevade	0		S	sg g
      	kevade	0		S	sg n
hea	hea	0		A	sg g
   	hea	0		A	sg n
   	hea	0		S	sg g
   	hea	0		S	sg n
meele	meel	0		S	sg g
     	mesi	le		S	sg all
poolest	pool	st		N	sg el
       	pool	st		S	sg el
       	poolene	t		A	sg p
       	poolest	0		K	
seda	see	da		P	sg p
teha	tege	a		V	da
lubas	luba	s		V	s
.	.			Z	
ka	ka	0		D	
laenasin	laena	sin		V	sin
mina	mina	0		P	sg n
    	mina	0		S	sg g
    	mina	0		S	sg n
    	mina	0		S	sg p
tema	tema	0		P	sg g
    	tema	0		P	sg n
käest	käest	0		K	
     	käsi	st		S	sg el
23	23	0		N	?
t	t	0		Y	?
leiba	leib	0		S	adt
     	leib	0		S	sg p
maksin	maks	in		V	sin
need	see	d		P	pl n
jälle	jälle	0		D	
ära	ära	0		D	
   	ära	0		V	neg o
ja	ja	0		J	
nüüd	nüüd	0		D	
ajab	aja	b		V	b
tema	tema	0		P	sg g
    	tema	0		P	sg n
tagasi	tagasi	0		D	
      	tagasi	0		K	
et	et	0		J	
kätte	kätte	0		K	
     	käsi	tte		S	adt
olla	ole	a		V	da
saanud	saa	nud		V	nud
      	saa=nud	0		A	
      	saa=nud	0		A	sg n
      	saa=nud	d		A	pl n
      	saanu	d		S	pl n
.	.			Z	
2	2	0		N	?
)	)			Z	
Reinhold	####				
Adamson	Adamson	0		H	sg n
.	.			Z	
tema	tema	0		P	sg g
    	tema	0		P	sg n
ütles	ütle	s		V	s
:	:			Z	
mina	mina	0		P	sg n
    	mina	0		S	sg g
    	mina	0		S	sg n
    	mina	0		S	sg p
olen	ole	n		V	n
Kristjanile	Kristjan	le		H	sg all
täieste	####				
palga	palk	0		S	sg g
välja	välja	0		D	
     	välja	0		V	o
     	väli	0		S	adt
     	väli	0		S	sg g
     	väli	0		S	sg p
maksnud	maks	nud		V	nud
       	maks=nu	d		S	pl n
       	maks=nud	0		A	
       	maks=nud	0		A	sg n
       	maks=nud	d		A	pl n
,	,			Z	
tema	tema	0		P	sg g
    	tema	0		P	sg n
on	ole	0		V	b
  	ole	0		V	vad
saanud	saa	nud		V	nud
      	saa=nud	0		A	
      	saa=nud	0		A	sg n
      	saa=nud	d		A	pl n
      	saanu	d		S	pl n
5	5	0		N	?
tündert	####				
vilja	vili	0		S	adt
     	vili	0		S	sg g
     	vili	0		S	sg p
ja	ja	0		J	
4	4	0		N	?
paari	paar	0		N	adt
     	paar	0		N	sg g
     	paar	0		S	adt
     	paar	0		S	sg g
     	paari	0		D	
     	paari	0		V	o
     	paar	0		N	sg p
     	paar	0		S	sg p
pasleid	####				
.	.			Z	
8	8	0		N	?
toopi	toop	0		S	adt
     	toop	0		S	sg p
linu	lina	u		S	pl p
tegin	tege	in		V	sin
temale	tema	le		P	sg all
oma	oma	0		A	sg g
   	oma	0		D	
   	oma	0		P	sg g
   	oma	0		S	sg g
   	oma	0		V	o
   	oma	0		A	sg n
   	oma	0		A	sg p
   	oma	0		P	sg n
   	oma	0		P	sg p
   	oma	0		S	sg n
   	oma	0		S	sg p
päevadega	päev	dega		S	pl kom
maha	maha	0		D	
,	,			Z	
se	####				
pidi	pida	i		V	s
    	pidi	0		K	
riiete	riie	te		S	pl g
est	####				
jääma	jää	ma		V	ma
     	jääm	0		S	adt
     	jääm	0		S	sg g
     	jääm	0		S	sg p
ja	ja	0		J	
peale	pea	le		S	sg all
     	peale	0		D	
     	peale	0		K	
selle	see	0		P	sg g
     	sell	e		S	pl p
tegin	tege	in		V	sin
veel	veel	0		D	
    	vesi	l		S	sg ad
21	21	0		N	?
/	/			Z	
2	2	0		N	?
külimitu	külimit	0		S	sg g
otri	oder	i		S	pl p
11	11	0		N	?
toopi	toop	0		S	adt
     	toop	0		S	sg p
neider	####				
ja	ja	0		J	
1	1	0		N	?
tünder	tünder	0		S	sg n
kartuhvleid	####				
maha	maha	0		D	
,	,			Z	
kõik	kõik	0		P	pl n
    	kõik	0		S	sg n
    	kõik	0		P	sg n
oma	oma	0		A	sg g
   	oma	0		D	
   	oma	0		P	sg g
   	oma	0		S	sg g
   	oma	0		V	o
   	oma	0		A	sg n
   	oma	0		A	sg p
   	oma	0		P	sg n
   	oma	0		P	sg p
   	oma	0		S	sg n
   	oma	0		S	sg p
päevadega	päev	dega		S	pl kom
,	,			Z	
eks	eks	0		D	
   	eks	0		S	sg n
   	eks	0		Y	?
se	####				
peaks	pea	ks		S	sg tr
     	pida	ks		V	ks
puuduvad	puudu	vad		V	vad
        	puuduv	d		A	pl n
palka	palk	0		S	adt
     	palka	0		V	o
     	palk	0		S	sg p
tasuma	tasu	ma		V	ma
,	,			Z	
siis	siis	0		D	
    	siis	0		J	
laenasin	laena	sin		V	sin
temale	tema	le		P	sg all
kevade	kevad	0		S	sg g
      	kevade	0		S	sg g
      	kevade	0		S	sg n
23	23	0		N	?
t	t	0		Y	?
leiba	leib	0		S	adt
     	leib	0		S	sg p
se	####				
on	ole	0		V	b
  	ole	0		V	vad
veel	veel	0		D	
    	vesi	l		S	sg ad
maksmata	maks	mata		V	mata
        	maks=mata	0		A	
,	,			Z	
need	see	d		P	pl n
erneevarred	####				
ja	ja	0		J	
kõlgad	####				
on	ole	0		V	b
  	ole	0		V	vad
tema	tema	0		P	sg g
    	tema	0		P	sg n
ka	ka	0		D	
minij	####				
käsu	käsk	0		S	sg g
vastu	vastu	0		D	
     	vastu	0		K	
ära	ära	0		D	
   	ära	0		V	neg o
söötnud	sööt	nud		V	nud
       	sööt=nu	d		S	pl n
       	sööt=nud	0		A	
       	sööt=nud	0		A	sg n
       	sööt=nud	d		A	pl n
ja	ja	0		J	
mina	mina	0		P	sg n
    	mina	0		S	sg g
    	mina	0		S	sg n
    	mina	0		S	sg p
temale	tema	le		P	sg all
palga	palk	0		S	sg g
vilja	vili	0		S	adt
     	vili	0		S	sg g
     	vili	0		S	sg p
kätte	kätte	0		K	
     	käsi	tte		S	adt
mõõtsin	mõõt	sin		V	sin
luges	luge	s		V	s
tema	tema	0		P	sg g
    	tema	0		P	sg n
minule	mina	le		P	sg all
kõik	kõik	0		P	pl n
    	kõik	0		S	sg n
    	kõik	0		P	sg n
sugu	sugu	0		A	
    	sugu	0		D	
    	sugu	0		S	sg n
    	sugu	0		S	sg p
sõimu	sõim	0		S	adt
     	sõim	0		S	sg g
     	sõim	0		S	sg p
sõnu	sõna	u		S	pl p
    	sõnu	0		V	o
mis	mis	0		P	pl n
   	mis	0		P	sg n
ka	ka	0		D	
Jaan	Jaan	0		H	sg n
    	jaan	0		S	sg n
    	jaan	0		Y	?
Laars	####				
pealt	pea	lt		S	sg abl
     	pealt	0		D	
     	pealt	0		K	
kuulas	kuula	s		V	s
.	.			Z	
3	3	0		N	?
)	)			Z	
Jaan	Jaan	0		H	sg n
    	jaan	0		S	sg n
    	jaan	0		Y	?
Laars	####				
.	.			Z	
tema	tema	0		P	sg g
    	tema	0		P	sg n
ütles	ütle	s		V	s
.	.			Z	
Kai	Kai	0		H	sg g
   	Kai	0		H	sg n
   	kai	0		S	sg g
   	kai	0		S	sg n
Adamson	Adamson	0		H	sg n
Christjanile	####				
palgavilja	palga_vili	0		S	adt
          	palga_vili	0		S	sg g
          	palga_vili	0		S	sg p
andis	and	is		V	s
,	,			Z	
olin	ole	in		V	sin
mina	mina	0		P	sg n
    	mina	0		S	sg g
    	mina	0		S	sg n
    	mina	0		S	sg p
juures	juur	s		S	sg in
      	juures	0		D	
      	juures	0		K	
ja	ja	0		J	
kuulsin	kuul	sin		V	sin
Christjani	####				
teda	tema	da		P	sg p
mailma	####				
ulguseks	####				
vesiidlaseks	####				
ja	ja	0		J	
närukraeks	näru_krae	ks		S	sg tr
sõimama	sõima	ma		V	ma
.	.			Z	
kohus	kohu	s		V	s
     	kohus	0		S	sg n
mõistis	mõist	is		V	s
:	:			Z	
sest	see	st		P	sg el
    	sest	0		J	
et	et	0		J	
teel	tee	l		S	sg ad
    	teel	0		K	
oma	oma	0		A	sg g
   	oma	0		D	
   	oma	0		P	sg g
   	oma	0		S	sg g
   	oma	0		V	o
   	oma	0		A	sg n
   	oma	0		A	sg p
   	oma	0		P	sg n
   	oma	0		P	sg p
   	oma	0		S	sg n
   	oma	0		S	sg p
kaupade	kaup	de		S	pl g
juures	juur	s		S	sg in
      	juures	0		D	
      	juures	0		K	
käemehi	käe_mees	0		S	pl p
ei	ei	0		D	
  	ei	0		V	neg
olnud	ol=nud	0		A	
     	ol=nud	0		A	sg n
     	ol=nud	d		A	pl n
     	ole	nud		V	nud
     	olnu	d		S	pl n
peame	pida	me		V	me
sedaviisi	seda_viisi	0		D	
teid	sina	d		P	pl p
    	tee	id		S	pl p
leppima	leppi	ma		V	ma
:	:			Z	
Kristjan	Kristjan	0		H	sg n
Krahv	krahv	0		S	sg n
maksab	maks	b		V	b
Adamsonile	Adamson	le		H	sg all
et	et	0		J	
temale	tema	le		P	sg all
maha	maha	0		D	
tegi	sina	0	gi	P	pl g
    	tege	i		V	s
    	sina	0	gi	P	pl n
oma	oma	0		A	sg g
   	oma	0		D	
   	oma	0		P	sg g
   	oma	0		S	sg g
   	oma	0		V	o
   	oma	0		A	sg n
   	oma	0		A	sg p
   	oma	0		P	sg n
   	oma	0		P	sg p
   	oma	0		S	sg n
   	oma	0		S	sg p
päevadega	päev	dega		S	pl kom
:	:			Z	
2	2	0		N	?
1	1	0		N	?
/	/			Z	
2	2	0		N	?
külimitu	külimit	0		S	sg g
odrade	####				
eest	eest	0		D	
    	eest	0		K	
    	esi	st		S	sg el
_	_			Z	
rb	####				
85	85	0		N	?
Cop	####				
.	.			Z	
11	11	0		N	?
toopi	toop	0		S	adt
     	toop	0		S	sg p
neider	####				
_	_			Z	
30	30	0		N	?
8	8	0		N	?
_	_			Z	
linad	lina	d		S	pl n
_	_			Z	
50	50	0		N	?
1	1	0		N	?
tünder	tünder	0		S	sg n
kartuflid	####				
1	1	0		N	?
_	_			Z	
kõlgaste	kõlgas	te		S	pl g
ja	ja	0		J	
erneesvarte	####				
eest	eest	0		D	
    	eest	0		K	
    	esi	st		S	sg el
_	_			Z	
75	75	0		N	?
16	16	0		N	?
t	t	0		Y	?
leiba	leib	0		S	adt
     	leib	0		S	sg p
à	####				
2	2	0		N	?
Cop	####				
_	_			Z	
23	23	0		N	?
summa	summ	0		S	adt
     	summ	0		S	sg g
     	summ	0		S	sg p
     	summa	0		S	sg g
     	summa	0		S	sg n
3	3	0		N	?
R	R	0		Y	?
.	.			Z	
72	72	0		N	?
Cp	####				
sõimamise	sõimamine	0		S	sg g
eest	eest	0		D	
    	eest	0		K	
    	esi	st		S	sg el
maksab	maks	b		V	b
Christjan	####				
üks	üks	0		N	sg n
   	üks	0		P	sg n
rubla	rubla	0		S	sg g
     	rubla	0		S	sg n
     	rubla	0		S	sg p
viiskümmen	####				
koppikad	####				
Juro	####				
valla	vald	0		S	sg g
     	valla	0		D	
laekassa	lae_kassa	0		S	sg g
        	lae_kassa	0		S	sg n
.	.			Z	
Reinhold	####				
Adamson	Adamson	0		H	sg n
maksab	maks	b		V	b
siis	siis	0		D	
    	siis	0		J	
Kristjanile	Kristjan	le		H	sg all
puuduvad	puudu	vad		V	vad
        	puuduv	d		A	pl n
palka	palk	0		S	adt
     	palka	0		V	o
     	palk	0		S	sg p
see	see	0		P	sg n
teeb	tege	b		V	b
.	.			Z	
1	1	0		N	?
tünder	tünder	0		S	sg n
rukkid	rukis	d		S	pl n
2	2	0		N	?
sergi	####				
2	2	0		N	?
paar	paar	0		N	sg n
    	paar	0		S	sg n
püksid	püks	d		S	pl n
2	2	0		N	?
_	_			Z	
kindad	kinnas	d		S	pl n
2	2	0		N	?
_	_			Z	
kingi	king	i		S	pl p
     	kink	0		S	sg g
     	kinki	0		V	o
pool	pool	0		K	
    	pool	0		N	sg n
    	pool	0		S	sg n
pearaha	pea_raha	0		S	sg g
       	pea_raha	0		S	sg n
       	pea_raha	0		S	sg p
.	.			Z	
II	II	0		O	?
  	II	0		Y	?
  	jj	0		Y	?
1	1	0		N	?
)	)			Z	
Mihkkel	####				
heinthal	####				
.	.			Z	
tema	tema	0		P	sg g
    	tema	0		P	sg n
ütles	ütle	s		V	s
:	:			Z	
mullu	mullu	0		D	
sügise	sügis	0		S	sg g
vahetas	vaheta	s		V	s
mina	mina	0		P	sg n
    	mina	0		S	sg g
    	mina	0		S	sg n
    	mina	0		S	sg p
sulane	sulane	0		S	sg n
      	sulane	0		V	o
Jüri	Jüri	0		H	sg g
    	Jüri	0		H	sg n
Gutmann	####				
teo	tegu	0		S	sg g
   	tigu	0		S	sg g
hobuse	hobune	0		S	sg g
ära	ära	0		D	
   	ära	0		V	neg o
,	,			Z	
tuli	tuli	0		S	sg n
    	tule	i		V	s
öösel	öösel	0		D	
koju	kodu	0		S	adt
ja	ja	0		J	
kutsus	kutsu	s		V	s
      	kutsu	s		S	sg in
mind	mina	d		P	sg p
välja	välja	0		D	
     	välja	0		V	o
     	väli	0		S	adt
     	väli	0		S	sg g
     	väli	0		S	sg p
uut	uus	t		A	sg p
hobust	hobu	st		S	sg el
      	hobune	t		S	sg p
vaatama	vaata	ma		V	ma
,	,			Z	
aga	aga	0		J	
mine	mine	0		V	o
meel	meel	0		S	sg n
    	mesi	l		S	sg ad
oli	ole	i		V	s
selle	see	0		P	sg g
     	sell	e		S	pl p
peale	pea	le		S	sg all
     	peale	0		D	
     	peale	0		K	
nõnda	nõnda	0		D	
haige	haige	0		A	sg g
     	haige	0		A	sg n
     	haige	0		S	sg g
     	haige	0		S	sg n
et	et	0		J	
mina	mina	0		P	sg n
    	mina	0		S	sg g
    	mina	0		S	sg n
    	mina	0		S	sg p
temale	tema	le		P	sg all
ühtegi	ühte	0	gi	D	
      	üks	0	gi	N	adt
      	üks	0	gi	P	adt
      	ühe	0	gi	S	sg g
      	üks	0	gi	N	sg p
      	üks	0	gi	P	sg p
ei	ei	0		D	
  	ei	0		V	neg
vastanud	vasta	nud		V	nud
        	vasta=nud	0		A	
        	vasta=nud	0		A	sg n
        	vasta=nud	d		A	pl n
        	vastanu	d		S	pl n
ja	ja	0		J	
ka	ka	0		D	
hoost	hoog	st		S	sg el
vaatama	vaata	ma		V	ma
ei	ei	0		D	
  	ei	0		V	neg
läinud	läinu	d		S	pl n
      	läinud	0		A	
      	läinud	0		A	sg n
      	läinud	d		A	pl n
      	mine	nud		V	nud
,	,			Z	
teomees	teo_mees	0		S	sg n
akas	####				
sellega	see	ga		P	sg kom
teol	tegu	l		S	sg ad
    	tigu	l		S	sg ad
käima	käi	ma		V	ma
     	käim	0		S	adt
     	käim	0		S	sg g
     	käim	0		S	sg p
ja	ja	0		J	
mina	mina	0		P	sg n
    	mina	0		S	sg g
    	mina	0		S	sg n
    	mina	0		S	sg p
rahu	rahu	0		S	sg g
    	rahu	0		S	sg n
    	rahu	0		S	sg p
pärast	pära	st		S	sg el
      	pärane	t		A	sg p
      	pärast	0		D	
      	pärast	0		K	
ei	ei	0		D	
  	ei	0		V	neg
ütelnud	ütle	nud		V	nud
       	ütel=nu	d		S	pl n
       	ütel=nud	0		A	
       	ütel=nud	0		A	sg n
       	ütel=nud	d		A	pl n
ühte	ühte	0		D	
    	üks	0		N	adt
    	üks	0		P	adt
    	ühe	0		S	sg g
    	üks	0		N	sg p
    	üks	0		P	sg p
seks	see	ks		P	sg tr
    	seks	0		S	sg n
,	,			Z	
aga	aga	0		J	
nüüd	nüüd	0		D	
Jüri	Jüri	0		H	sg g
    	Jüri	0		H	sg n
Baumann	####				
,	,			Z	
kellega	kes	ga		P	pl kom
       	kes	ga		P	sg kom
tema	tema	0		P	sg g
    	tema	0		P	sg n
vahetanud	vaheta	nud		V	nud
         	vaheta=nu	d		S	pl n
         	vaheta=nud	0		A	
         	vaheta=nud	0		A	sg n
         	vaheta=nud	d		A	pl n
oli	ole	i		V	s
,	,			Z	
pärib	päri	b		V	b
minu	mina	0		P	sg g
käest	käest	0		K	
     	käsi	st		S	sg el
4	4	0		N	?
rubla	rubla	0		S	sg g
     	rubla	0		S	sg n
     	rubla	0		S	sg p
,	,			Z	
et	et	0		J	
sulane	sulane	0		S	sg n
      	sulane	0		V	o
olla	ole	a		V	da
ni	####				
palju	palju	0		D	
     	palju	0		P	sg g
     	palju	0		P	sg n
peale	pea	le		S	sg all
     	peale	0		D	
     	peale	0		K	
andnud	and	nud		V	nud
      	and=nu	d		S	pl n
      	and=nud	0		A	
      	and=nud	0		A	sg n
      	and=nud	d		A	pl n
.	.			Z	
kui	kui	0		D	
   	kui	0		J	
sulane	sulane	0		S	sg n
      	sulane	0		V	o
minule	mina	le		P	sg all
seda	see	da		P	sg p
raha	raha	0		S	sg g
    	raha	0		S	sg n
    	raha	0		S	sg p
oleks	ole	ks		V	ks
kohe	kohe	0		A	sg n
    	kohe	0		D	
nimetanud	nimeta	nud		V	nud
         	nimeta=nu	d		S	pl n
         	nimeta=nud	0		A	
         	nimeta=nud	0		A	sg n
         	nimeta=nud	d		A	pl n
,	,			Z	
siis	siis	0		D	
    	siis	0		J	
mina	mina	0		P	sg n
    	mina	0		S	sg g
    	mina	0		S	sg n
    	mina	0		S	sg p
ei	ei	0		D	
  	ei	0		V	neg
oleks	ole	ks		V	ks
seda	see	da		P	sg p
hoost	hoog	st		S	sg el
koguni	kogu	ni		S	sg ter
      	koguni	0		D	
teol	tegu	l		S	sg ad
    	tigu	l		S	sg ad
käija	käija	0		S	sg g
     	käija	0		S	sg n
last	laps	t		S	sg p
    	last	0		S	sg n
,	,			Z	
vaid	vaid	0		D	
    	vaid	0		J	
kohe	kohe	0		A	sg n
    	kohe	0		D	
tagasi	tagasi	0		D	
      	tagasi	0		K	
viia	vii	a		V	da
käskinud	käski	nud		V	nud
        	käski=nu	d		S	pl n
        	käski=nud	0		A	
        	käski=nud	0		A	sg n
        	käski=nud	d		A	pl n
.	.			Z	
2	2	0		N	?
)	)			Z	
Jüri	Jüri	0		H	sg g
    	Jüri	0		H	sg n
Gutmann	####				
tema	tema	0		P	sg g
    	tema	0		P	sg n
ütles	ütle	s		V	s
:	:			Z	
mullu	mullu	0		D	
sügise	sügis	0		S	sg g
kaks	kaks	0		N	sg n
nädalat	nädal	t		S	sg p
enne	enne	0		D	
    	enne	0		K	
    	enne	0		S	sg n
Rapla	Rapla	0		H	sg g
     	Rapla	0		H	sg n
     	rapla	0		G	
laada	laat	0		S	sg g
vahetasin	vaheta	sin		V	sin
mina	mina	0		P	sg n
    	mina	0		S	sg g
    	mina	0		S	sg n
    	mina	0		S	sg p
teo	tegu	0		S	sg g
   	tigu	0		S	sg g
hobuse	hobune	0		S	sg g
ära	ära	0		D	
   	ära	0		V	neg o
sest	see	st		P	sg el
    	sest	0		J	
et	et	0		J	
peremees	pere_mees	0		S	sg n
oli	ole	i		V	s
enne	enne	0		D	
    	enne	0		K	
    	enne	0		S	sg n
ütelnud	ütle	nud		V	nud
       	ütel=nu	d		S	pl n
       	ütel=nud	0		A	
       	ütel=nud	0		A	sg n
       	ütel=nud	d		A	pl n
,	,			Z	
kui	kui	0		D	
   	kui	0		J	
head	hea	d		A	pl n
    	hea	d		A	sg p
    	hea	d		S	pl n
    	hea	d		S	sg p
kaupa	kaup	0		S	adt
     	kaup	0		S	sg p
     	kaupa	0		K	
saab	saa	b		V	b
võib	või	b		V	b
seda	see	da		P	sg p
hoost	hoog	st		S	sg el
ära	ära	0		D	
   	ära	0		V	neg o
anda	and	a		V	da
,	,			Z	
läksin	mine	sin		V	sin
õhtul	õhtu	l		S	sg ad
kohe	kohe	0		A	sg n
    	kohe	0		D	
koju	kodu	0		S	adt
ja	ja	0		J	
ütlesin	ütle	sin		V	sin
peremehele	pere_mees	le		S	sg all
tule	tuli	0		S	sg g
    	tule	0		V	o
vaatama	vaata	ma		V	ma
,	,			Z	
ma	mina	0		P	sg n
olen	ole	n		V	n
Jüri	Jüri	0		H	sg g
    	Jüri	0		H	sg n
Baumanniga	####				
hobuse	hobune	0		S	sg g
vahetanud	vaheta	nud		V	nud
         	vaheta=nu	d		S	pl n
         	vaheta=nud	0		A	
         	vaheta=nud	0		A	sg n
         	vaheta=nud	d		A	pl n
ja	ja	0		J	
4	4	0		N	?
rubla	rubla	0		S	sg g
     	rubla	0		S	sg n
     	rubla	0		S	sg p
peale	pea	le		S	sg all
     	peale	0		D	
     	peale	0		K	
andnud	and	nud		V	nud
      	and=nu	d		S	pl n
      	and=nud	0		A	
      	and=nud	0		A	sg n
      	and=nud	d		A	pl n
,	,			Z	
kui	kui	0		D	
   	kui	0		J	
sina	sina	0		P	sg n
    	sina	0		S	sg g
    	sina	0		V	o
    	sina	0		S	sg n
    	sina	0		S	sg p
rahul	rahu	l		S	sg ad
     	rahul	0		D	
ei	ei	0		D	
  	ei	0		V	neg
ole	ole	0		V	o
meie	mina	0		P	pl g
    	mina	0		P	pl n
võime	või	me		V	me
     	võim	e		S	pl p
     	võime	0		S	sg g
     	võime	0		S	sg n
jälle	jälle	0		D	
ära	ära	0		D	
   	ära	0		V	neg o
taganeda	tagane	da		V	da
,	,			Z	
peremees	pere_mees	0		S	sg n
ei	ei	0		D	
  	ei	0		V	neg
lausunud	lausu	nud		V	nud
        	lausu=nu	d		S	pl n
        	lausu=nud	0		A	
        	lausu=nud	0		A	sg n
        	lausu=nud	d		A	pl n
selle	see	0		P	sg g
     	sell	e		S	pl p
peale	pea	le		S	sg all
     	peale	0		D	
     	peale	0		K	
kuidakist	####				
ja	ja	0		J	
kui	kui	0		D	
   	kui	0		J	
mina	mina	0		P	sg n
    	mina	0		S	sg g
    	mina	0		S	sg n
    	mina	0		S	sg p
kolmandamal	####				
päeval	päev	l		S	sg ad
veel	veel	0		D	
    	vesi	l		S	sg ad
üks	üks	0		N	sg n
   	üks	0		P	sg n
kord	kord	0		D	
    	kord	0		S	sg n
küsisin	küsi	sin		V	sin
kas	kas	0		D	
pidi	pida	i		V	s
    	pidi	0		K	
hobusega	hobune	ga		S	sg kom
rahul	rahu	l		S	sg ad
     	rahul	0		D	
olema	ole	ma		V	ma
,	,			Z	
ütles	ütle	s		V	s
tema	tema	0		P	sg g
    	tema	0		P	sg n
:	:			Z	
""""	""""			Z	
olgu	ole	gu		V	gu
peale	pea	le		S	sg all
     	peale	0		D	
     	peale	0		K	
seks	see	ks		P	sg tr
    	seks	0		S	sg n
,	,			Z	
lauk	lauk	0		S	sg n
on	ole	0		V	b
  	ole	0		V	vad
muidugi	muidugi	0		D	
kaua	kaua	0		D	
minu	mina	0		P	sg g
kääs	####				
olnud	ol=nud	0		A	
     	ol=nud	0		A	sg n
     	ol=nud	d		A	pl n
     	ole	nud		V	nud
     	olnu	d		S	pl n
,	,			Z	
ehk	ehk	0		D	
   	ehk	0		J	
puhtub	puhtu	b		V	b
sellega	see	ga		P	sg kom
edaspidi	edas_pidi	0		D	
ennemast	ennem	st		C	sg el
kaupa	kaup	0		S	adt
     	kaup	0		S	sg p
     	kaupa	0		K	
saama	saa	ma		V	ma
     	saam	0		S	adt
     	saam	0		S	sg g
     	saam	0		S	sg p
.	.			Z	
3	3	0		N	?
)	)			Z	
Villem	Villem	0		H	sg n
endivsoli	####				
.	.			Z	
tema	tema	0		P	sg g
    	tema	0		P	sg n
ütlea	####				
:	:			Z	
sel	see	l		P	sg ad
   	sel	0		Y	?
õhtul	õhtu	l		S	sg ad
kui	kui	0		D	
   	kui	0		J	
hobuseid	hobune	id		S	pl p
vahetasid	vaheta	sid		V	sid
,	,			Z	
olin	ole	in		V	sin
mina	mina	0		P	sg n
    	mina	0		S	sg g
    	mina	0		S	sg n
    	mina	0		S	sg p
juures	juur	s		S	sg in
      	juures	0		D	
      	juures	0		K	
ja	ja	0		J	
kuulsin	kuul	sin		V	sin
ka	ka	0		D	
pealt	pea	lt		S	sg abl
     	pealt	0		D	
     	pealt	0		K	
,	,			Z	
kui	kui	0		D	
   	kui	0		J	
Jüri	Jüri	0		H	sg g
    	Jüri	0		H	sg n
Gutmann	####				
oma	oma	0		A	sg g
   	oma	0		D	
   	oma	0		P	sg g
   	oma	0		S	sg g
   	oma	0		V	o
   	oma	0		A	sg n
   	oma	0		A	sg p
   	oma	0		P	sg n
   	oma	0		P	sg p
   	oma	0		S	sg n
   	oma	0		S	sg p
peremehele	pere_mees	le		S	sg all
ütles	ütle	s		V	s
:	:			Z	
""""	""""			Z	
mina	mina	0		P	sg n
    	mina	0		S	sg g
    	mina	0		S	sg n
    	mina	0		S	sg p
olen	ole	n		V	n
Jüri	Jüri	0		H	sg g
    	Jüri	0		H	sg n
Baumanniga	####				
hobused	hobune	d		S	pl n
vahetanud	vaheta	nud		V	nud
         	vaheta=nu	d		S	pl n
         	vaheta=nud	0		A	
         	vaheta=nud	0		A	sg n
         	vaheta=nud	d		A	pl n
ja	ja	0		J	
4	4	0		N	?
rubla	rubla	0		S	sg g
     	rubla	0		S	sg n
     	rubla	0		S	sg p
peale	pea	le		S	sg all
     	peale	0		D	
     	peale	0		K	
andnud	and	nud		V	nud
      	and=nu	d		S	pl n
      	and=nud	0		A	
      	and=nud	0		A	sg n
      	and=nud	d		A	pl n
tule	tuli	0		S	sg g
    	tule	0		V	o
vaatama	vaata	ma		V	ma
,	,			Z	
kas	kas	0		D	
oled	ole	d		V	d
uue	uus	0		A	sg g
hobusega	hobune	ga		S	sg kom
rahul	rahu	l		S	sg ad
     	rahul	0		D	
.	.			Z	
""""	""""			Z	
kohus	kohu	s		V	s
     	kohus	0		S	sg n
mõistis	mõist	is		V	s
;	;			Z	
käemees	käe_mees	0		S	sg n
ütleb	ütle	b		V	b
et	et	0		J	
olla	ole	a		V	da
pealt	pea	lt		S	sg abl
     	pealt	0		D	
     	pealt	0		K	
kuulnud	kuul	nud		V	nud
       	kuul=nud	0		A	
       	kuul=nud	0		A	sg n
       	kuul=nud	d		A	pl n
       	kuulnu	d		S	pl n
kui	kui	0		D	
   	kui	0		J	
Jüri	Jüri	0		H	sg g
    	Jüri	0		H	sg n
sulle	sina	lle		P	sg all
ütelnud	ütle	nud		V	nud
       	ütel=nu	d		S	pl n
       	ütel=nud	0		A	
       	ütel=nud	0		A	sg n
       	ütel=nud	d		A	pl n
et	et	0		J	
4	4	0		N	?
rubla	rubla	0		S	sg g
     	rubla	0		S	sg n
     	rubla	0		S	sg p
peale	pea	le		S	sg all
     	peale	0		D	
     	peale	0		K	
andnud	and	nud		V	nud
      	and=nu	d		S	pl n
      	and=nud	0		A	
      	and=nud	0		A	sg n
      	and=nud	d		A	pl n
,	,			Z	
sinna	sinna	0		D	
oleks	ole	ks		V	ks
siis	siis	0		D	
    	siis	0		J	
kohe	kohe	0		A	sg n
    	kohe	0		D	
pidanud	pida	nud		V	nud
       	pida=nu	d		S	pl n
       	pida=nud	0		A	
       	pida=nud	0		A	sg n
       	pida=nud	d		A	pl n
ütlema	ütle	ma		V	ma
kui	kui	0		D	
   	kui	0		J	
kaup	kaup	0		S	sg n
põld	põld	0		S	sg n
meelejärel	####				
ja	ja	0		J	
mitte	mitte	0		D	
hoost	hoog	st		S	sg el
teol	tegu	l		S	sg ad
    	tigu	l		S	sg ad
käia	käi	0		S	adt
    	käi	0		S	sg g
    	käi	a		V	da
    	käia	0		V	o
    	käi	0		S	sg p
laskma	lask	ma		V	ma
,	,			Z	
nüüd	nüüd	0		D	
pead	pea	d		S	pl n
    	pida	d		V	d
    	pea	d		S	sg p
need	see	d		P	pl n
4	4	0		N	?
rubla	rubla	0		S	sg g
     	rubla	0		S	sg n
     	rubla	0		S	sg p
kätte	kätte	0		K	
     	käsi	tte		S	adt
maksma	maks	ma		V	ma
.	.			Z	
viimse	viimne	0		A	sg g
kohtupäeva	kohtu_päev	0		S	adt
          	kohtu_päev	0		S	sg g
          	kohtu_päev	0		S	sg p
protokoll	protokoll	0		S	sg n
sai	saa	i		V	s
   	sai	0		S	sg n
ette	ette	0		D	
    	ette	0		K	
    	esi	tte		S	adt
loetud	loetu	d		S	pl n
      	loetud	0		A	
      	loetud	0		A	sg n
      	loetud	d		A	pl n
      	luge	tud		V	tud
ja	ja	0		J	
heaks	hea	ks		A	sg tr
     	hea	ks		S	sg tr
     	heaks	0		D	
     	heaks	0		K	
leitud	leid	tud		V	tud
      	leitu	d		S	pl n
      	leitud	0		A	
      	leitud	0		A	sg n
      	leitud	d		A	pl n
.	.			Z	
Hans	Hans	0		H	sg n
Herberger	####				
+	+			Z	
+	+			Z	
+	+			Z	
Hans	Hans	0		H	sg n
Lepp	lepp	0		S	sg n
+	+			Z	
+	+			Z	
+	+			Z	
Jüri	Jüri	0		H	sg g
    	Jüri	0		H	sg n
Mührmann	####				
+	+			Z	
+	+			Z	
+	+			Z	
