Ilmusivad	####				
kohtusse	kohtune	se		A	adt
        	kohus	sse		S	sg ill
Runepere	####				
mõisa	mõis	0		S	sg g
metsahärra	metsa_härra	0		S	sg g
          	metsa_härra	0		S	sg n
Nikolai	Nikolai	0		H	sg g
       	Nikolai	0		H	sg n
von	####				
Freij	####				
ja	ja	0		J	
kõrlinu	####				
Kustas	Kusta	s		H	sg in
      	Kustas	0		H	sg n
Simbach	####				
selle	see	0		P	sg g
     	sell	e		S	pl p
palvega	palve	ga		S	sg kom
et	et	0		J	
nende	see	de		P	pl g
     	tema	de		P	pl g
vahel	vahe	l		S	sg ad
     	vahel	0		D	
     	vahel	0		K	
saaks	saa	ks		V	ks
järgmine	järgmine	0		A	sg n
kaup	kaup	0		S	sg n
kinnitatud	kinnita	tud		V	tud
          	kinnita=tu	d		S	pl n
          	kinnita=tud	0		A	
          	kinnita=tud	0		A	sg n
          	kinnita=tud	d		A	pl n
kõrliku	####				
Kustas	Kusta	s		H	sg in
      	Kustas	0		H	sg n
Simbach	####				
võtab	võt	b		V	b
oma	oma	0		A	sg g
   	oma	0		D	
   	oma	0		P	sg g
   	oma	0		S	sg g
   	oma	0		V	o
   	oma	0		A	sg n
   	oma	0		A	sg p
   	oma	0		P	sg n
   	oma	0		P	sg p
   	oma	0		S	sg n
   	oma	0		S	sg p
peale	pea	le		S	sg all
     	peale	0		D	
     	peale	0		K	
kevadel	kevad	l		S	sg ad
       	kevade	l		S	sg ad
1894	1894	0		N	?
a	a	0		Y	?
endale	ise	le		P	sg all
üks	üks	0		N	sg n
   	üks	0		P	sg n
uus	uus	0		A	sg n
eluhoone	elu_hoone	0		S	sg g
        	elu_hoone	0		S	sg n
rehealusega	rehe_alune	ga		A	sg kom
           	rehe_alune	ga		S	sg kom
oma	oma	0		A	sg g
   	oma	0		D	
   	oma	0		P	sg g
   	oma	0		S	sg g
   	oma	0		V	o
   	oma	0		A	sg n
   	oma	0		A	sg p
   	oma	0		P	sg n
   	oma	0		P	sg p
   	oma	0		S	sg n
   	oma	0		S	sg p
kuluga	kulg	ga		S	sg kom
      	kulu	ga		S	sg kom
üles	üles	0		D	
ehitada	ehita	da		V	da
.	.			Z	
palgid	palk	d		S	pl n
on	ole	0		V	b
  	ole	0		V	vad
tema	tema	0		P	sg g
    	tema	0		P	sg n
juba	juba	0		D	
mõisa	mõis	0		S	sg g
poolt	pool	t		N	sg p
     	pool	t		S	sg p
     	poolt	0		D	
     	poolt	0		K	
kätte	kätte	0		K	
     	käsi	tte		S	adt
saanud	saa	nud		V	nud
      	saa=nud	0		A	
      	saa=nud	0		A	sg n
      	saa=nud	d		A	pl n
      	saanu	d		S	pl n
.	.			Z	
Kustas	Kusta	s		H	sg in
      	Kustas	0		H	sg n
Simbach	####				
saab	saa	b		V	b
selle	see	0		P	sg g
     	sell	e		S	pl p
ehitamise	ehitamine	0		S	sg g
,	,			Z	
palgi	palk	0		S	sg g
raiumise	raiumine	0		S	sg g
,	,			Z	
koorimise	koori=mine	0		S	sg g
,	,			Z	
vedamise	vedamine	0		S	sg g
,	,			Z	
aknade	####				
,	,			Z	
uste	uks	te		S	pl g
,	,			Z	
ja	ja	0		J	
katuse	katus	0		S	sg g
tegemise	tegemine	0		S	sg g
kui	kui	0		D	
   	kui	0		J	
käe	käsi	0		S	sg g
õledeh	####				
eest	eest	0		D	
    	eest	0		K	
    	esi	st		S	sg el
ülepea	üle_pea	0		D	
46	46	0		N	?
rubla	rubla	0		S	sg g
     	rubla	0		S	sg n
     	rubla	0		S	sg p
50	50	0		N	?
kop	kop	0		Y	?
.	.			Z	
Kustas	Kusta	s		H	sg in
      	Kustas	0		H	sg n
Simbach	####				
tunnistab	tunnista	b		V	b
et	et	0		J	
sellega	see	ga		P	sg kom
rahaga	raha	ga		S	sg kom
on	ole	0		V	b
  	ole	0		V	vad
kõik	kõik	0		P	pl n
    	kõik	0		S	sg n
    	kõik	0		P	sg n
makstud	maks	tud		V	tud
       	maks=tu	d		S	pl n
       	maks=tud	0		A	
       	maks=tud	0		A	sg n
       	maks=tud	d		A	pl n
ja	ja	0		J	
koha	koht	0		S	sg g
    	koha	0		S	sg g
    	koha	0		V	o
    	koha	0		S	sg n
    	koha	0		S	sg p
äraandmise	ära_andmine	0		S	sg g
ajal	aeg	l		S	sg ad
    	ajal	0		K	
ei	ei	0		D	
  	ei	0		V	neg
ole	ole	0		V	o
temal	tema	l		P	sg ad
ühtegi	ühte	0	gi	D	
      	üks	0	gi	N	adt
      	üks	0	gi	P	adt
      	ühe	0	gi	S	sg g
      	üks	0	gi	N	sg p
      	üks	0	gi	P	sg p
enam	enam	0		C	sg n
    	enam	0		D	
tasumist	tasumine	t		S	sg p
selle	see	0		P	sg g
     	sell	e		S	pl p
eest	eest	0		D	
    	eest	0		K	
    	esi	st		S	sg el
mõisa	mõis	0		S	sg g
härra	härra	0		S	sg g
     	härra	0		S	sg n
käest	käest	0		K	
     	käsi	st		S	sg el
pärida	päri	da		V	da
.	.			Z	
N	N	0		Y	?
Griaev	####				
[	[			Z	
allkiri	all_kiri	0		S	sg n
]	]			Z	
XXX	XXX	0		O	?
   	XXX	0		Y	?
tähendab	tähenda	b		V	b
Kustas	Kusta	s		H	sg in
      	Kustas	0		H	sg n
Simbach	####				
Eesistuja	ees_istuja	0		S	sg g
         	ees_istuja	0		S	sg n
H	H	0		Y	?
Griaev	####				
[	[			Z	
allkiri	all_kiri	0		S	sg n
]	]			Z	
liikmed	liige	d		S	pl n
J.Linroos	####				
[	[			Z	
allkiri	all_kiri	0		S	sg n
]	]			Z	
J	J	0		Y	?
.	.			Z	
simson	####				
[	[			Z	
allkiri	all_kiri	0		S	sg n
]	]			Z	
T	T	0		Y	?
Viik	viik	0		S	sg n
[	[			Z	
allkiri	all_kiri	0		S	sg n
]	]			Z	
kirjutaja	kirjutaja	0		S	sg g
         	kirjutaja	0		S	sg n
Vähiger	####				
[	[			Z	
allkiri	all_kiri	0		S	sg n
]	]			Z	
