ette	ette	0		D	
    	ette	0		K	
    	esi	tte		S	adt
tuli	tuli	0		S	sg n
    	tule	i		V	s
kaebaja	kaebaja	0		S	sg g
       	kaebaja	0		S	sg n
rätseb	####				
Ado	Ado	0		H	sg g
   	Ado	0		H	sg n
minner	####				
ja	ja	0		J	
kaebas	kaeba	s		V	s
et	et	0		J	
tema	tema	0		P	sg g
    	tema	0		P	sg n
on	ole	0		V	b
  	ole	0		V	vad
Otto	Otto	0		H	sg g
    	Otto	0		H	sg n
Lensmanni	####				
rätsepaks	rätsep	ks		S	sg tr
õpetanud	õpeta	nud		V	nud
        	õpeta=nu	d		S	pl n
        	õpeta=nud	0		A	
        	õpeta=nud	0		A	sg n
        	õpeta=nud	d		A	pl n
ja	ja	0		J	
pidanud	pida	nud		V	nud
       	pida=nu	d		S	pl n
       	pida=nud	0		A	
       	pida=nud	0		A	sg n
       	pida=nud	d		A	pl n
selle	see	0		P	sg g
     	sell	e		S	pl p
eest	eest	0		D	
    	eest	0		K	
    	esi	st		S	sg el
saama	saa	ma		V	ma
     	saam	0		S	adt
     	saam	0		S	sg g
     	saam	0		S	sg p
10	10	0		N	?
rubla	rubla	0		S	sg g
     	rubla	0		S	sg n
     	rubla	0		S	sg p
;	;			Z	
5	5	0		N	?
rubla	rubla	0		S	sg g
     	rubla	0		S	sg n
     	rubla	0		S	sg p
on	ole	0		V	b
  	ole	0		V	vad
O. Lensmann	####				
ära	ära	0		D	
   	ära	0		V	neg o
maksnud	maks	nud		V	nud
       	maks=nu	d		S	pl n
       	maks=nud	0		A	
       	maks=nud	0		A	sg n
       	maks=nud	d		A	pl n
ja	ja	0		J	
5	5	0		N	?
rubla	rubla	0		S	sg g
     	rubla	0		S	sg n
     	rubla	0		S	sg p
ei	ei	0		D	
  	ei	0		V	neg
taha	taht	0		V	o
    	taha	0		D	
    	taha	0		K	
ta	tema	0		P	sg g
  	tema	0		P	sg n
mitte	mitte	0		D	
maksta	maks	ta		V	da
      	maks	ta		V	ta
.	.			Z	
ette	ette	0		D	
    	ette	0		K	
    	esi	tte		S	adt
sai	saa	i		V	s
   	sai	0		S	sg n
kutsutud	kutsu	tud		V	tud
        	kutsutu	d		S	pl n
        	kutsutud	0		A	
        	kutsutud	0		A	sg n
        	kutsutud	d		A	pl n
O. Lensmann	####				
ja	ja	0		J	
tunnistas	tunnista	s		V	s
et	et	0		J	
tema	tema	0		P	sg g
    	tema	0		P	sg n
on	ole	0		V	b
  	ole	0		V	vad
kaupelnud	####				
10	10	0		N	?
rubla	rubla	0		S	sg g
     	rubla	0		S	sg n
     	rubla	0		S	sg p
peal	pea	l		S	sg ad
    	peal	0		D	
    	peal	0		K	
ja	ja	0		J	
5	5	0		N	?
rubla	rubla	0		S	sg g
     	rubla	0		S	sg n
     	rubla	0		S	sg p
on	ole	0		V	b
  	ole	0		V	vad
tema	tema	0		P	sg g
    	tema	0		P	sg n
juba	juba	0		D	
maksnud	maks	nud		V	nud
       	maks=nu	d		S	pl n
       	maks=nud	0		A	
       	maks=nud	0		A	sg n
       	maks=nud	d		A	pl n
,	,			Z	
ja	ja	0		J	
5	5	0		N	?
rubla	rubla	0		S	sg g
     	rubla	0		S	sg n
     	rubla	0		S	sg p
lubanud	luba	nud		V	nud
       	luba=nu	d		S	pl n
       	luba=nud	0		A	
       	luba=nud	0		A	sg n
       	luba=nud	d		A	pl n
siis	siis	0		D	
    	siis	0		J	
maksa	maks	0		S	adt
     	maks	0		S	sg g
     	maks	0		V	o
     	maks	0		S	sg p
,	,			Z	
kui	kui	0		D	
   	kui	0		J	
pidanud	pida	nud		V	nud
       	pida=nu	d		S	pl n
       	pida=nud	0		A	
       	pida=nud	0		A	sg n
       	pida=nud	d		A	pl n
ameti	amet	0		S	sg g
kätte	kätte	0		K	
     	käsi	tte		S	adt
saama	saa	ma		V	ma
     	saam	0		S	adt
     	saam	0		S	sg g
     	saam	0		S	sg p
;	;			Z	
aga	aga	0		J	
A	A	0		Y	?
.	.			Z	
_	_			Z	
minner	####				
pole	ole	0		V	neg o
teda	tema	da		P	sg p
mitte	mitte	0		D	
lõikama	lõika	ma		V	ma
õpetanud	õpeta	nud		V	nud
        	õpeta=nu	d		S	pl n
        	õpeta=nud	0		A	
        	õpeta=nud	0		A	sg n
        	õpeta=nud	d		A	pl n
ning	ning	0		J	
enne	enne	0		D	
    	enne	0		K	
    	enne	0		S	sg n
ära	ära	0		D	
   	ära	0		V	neg o
aeanud	####				
,	,			Z	
kui	kui	0		D	
   	kui	0		J	
aeg	aeg	0		S	sg n
olnud	ol=nud	0		A	
     	ol=nud	0		A	sg n
     	ol=nud	d		A	pl n
     	ole	nud		V	nud
     	olnu	d		S	pl n
täis	täi	s		S	sg in
    	täi	s		V	s
    	täis	0		A	
    	täis	0		A	sg n
    	täis	0		D	
    	täis	0		S	sg n
.	.			Z	
pärast	pära	st		S	sg el
      	pärane	t		A	sg p
      	pärast	0		D	
      	pärast	0		K	
olnud	ol=nud	0		A	
     	ol=nud	0		A	sg n
     	ol=nud	d		A	pl n
     	ole	nud		V	nud
     	olnu	d		S	pl n
jälle	jälle	0		D	
A	A	0		Y	?
.	.			Z	
_	_			Z	
mineri	####				
juures	juur	s		S	sg in
      	juures	0		D	
      	juures	0		K	
lõõmmas	####				
ja	ja	0		J	
ta	tema	0		P	sg g
  	tema	0		P	sg n
lubanud	luba	nud		V	nud
       	luba=nu	d		S	pl n
       	luba=nud	0		A	
       	luba=nud	0		A	sg n
       	luba=nud	d		A	pl n
1	1	0		N	?
1	1	0		N	?
/	/			Z	
2	2	0		N	?
nädalis	####				
;	;			Z	
aga	aga	0		J	
pole	ole	0		V	neg o
mitte	mitte	0		D	
enam	enam	0		C	sg n
    	enam	0		D	
maksnud	maks	nud		V	nud
       	maks=nu	d		S	pl n
       	maks=nud	0		A	
       	maks=nud	0		A	sg n
       	maks=nud	d		A	pl n
,	,			Z	
kui	kui	0		D	
   	kui	0		J	
1	1	0		N	?
/	/			Z	
2	2	0		N	?
rubla	rubla	0		S	sg g
     	rubla	0		S	sg n
     	rubla	0		S	sg p
;	;			Z	
selle	see	0		P	sg g
     	sell	e		S	pl p
peale	pea	le		S	sg all
     	peale	0		D	
     	peale	0		K	
kostis	kost	s		S	sg in
      	kost	is		V	s
A	A	0		Y	?
.	.			Z	
_	_			Z	
minner	####				
et	et	0		J	
nend	####				
kaup	kaup	0		S	sg n
olnud	ol=nud	0		A	
     	ol=nud	0		A	sg n
     	ol=nud	d		A	pl n
     	ole	nud		V	nud
     	olnu	d		S	pl n
1	1	0		N	?
/	/			Z	
2	2	0		N	?
rubla	rubla	0		S	sg g
     	rubla	0		S	sg n
     	rubla	0		S	sg p
nädalis	####				
.	.			Z	
asja	asi	0		S	adt
    	asi	0		S	sg g
    	asi	0		S	sg p
järel	järel	0		D	
     	järel	0		K	
kuulates	kuula	tes		V	des
mõistis	mõist	is		V	s
kohus	kohu	s		V	s
     	kohus	0		S	sg n
et	et	0		J	
O. Lensman	####				
peab	pida	b		V	b
A	A	0		Y	?
Minerle	####				
veel	veel	0		D	
    	vesi	l		S	sg ad
maksma	maks	ma		V	ma
1	1	0		N	?
rubla	rubla	0		S	sg g
     	rubla	0		S	sg n
     	rubla	0		S	sg p
õpetamise	õpetamine	0		S	sg g
eest	eest	0		D	
    	eest	0		K	
    	esi	st		S	sg el
ja	ja	0		J	
muist	muist	0		P	
     	muu	ist		P	pl el
jääb	jää	b		V	b
selle	see	0		P	sg g
     	sell	e		S	pl p
eest	eest	0		D	
    	eest	0		K	
    	esi	st		S	sg el
,	,			Z	
et	et	0		J	
tööd	töö	d		S	pl n
    	töö	d		S	sg p
on	ole	0		V	b
  	ole	0		V	vad
teinud	tege	nud		V	nud
      	tei=nud	0		A	
      	tei=nud	0		A	sg n
      	tei=nud	d		A	pl n
      	teinu	d		S	pl n
.	.			Z	
sellega	see	ga		P	sg kom
olid	ole	id		V	sid
kohtu	kohtu	0		V	o
     	kohus	0		S	sg g
käiad	käi	d		S	pl n
     	käia	d		V	d
lepitud	leppi	tud		V	tud
       	lepi=tu	d		S	pl n
       	lepi=tud	0		A	
       	lepi=tud	0		A	sg n
       	lepi=tud	d		A	pl n
.	.			Z	
kohtuvanem	kohtu_vanem	0		C	sg n
          	kohtu_vanem	0		S	sg n
k	k	0		Y	?
Gutman	####				
XXX	XXX	0		O	?
   	XXX	0		Y	?
kõrvamehed	kõrva_mees	d		S	pl n
O. Mänd	####				
XXX	XXX	0		O	?
   	XXX	0		Y	?
ja	ja	0		J	
W	V	0		O	?
 	V	0		Y	?
 	W	0		Y	?
.	.			Z	
_	_			Z	
Mänd	mänd	0		S	sg n
XXX	XXX	0		O	?
   	XXX	0		Y	?
kirjutaja	kirjutaja	0		S	sg g
         	kirjutaja	0		S	sg n
M	M	0		O	?
 	M	0		Y	?
.	.			Z	
_	_			Z	
Käärt	####				
mõistus	mõistus	0		S	sg n
täidetud	täit	tud		V	tud
        	täide=tu	d		S	pl n
        	täide=tud	0		A	
        	täide=tud	0		A	sg n
        	täide=tud	d		A	pl n
nimetatud	nimeta	tud		V	tud
         	nimetatu	d		S	pl n
         	nimetatud	0		A	
         	nimetatud	0		A	sg n
         	nimetatud	d		A	pl n
päeval	päev	l		S	sg ad
.	.			Z	
