I	I	0		O	?
 	I	0		Y	?
 	j	0		Y	?
)	)			Z	
tuli	tuli	0		S	sg n
    	tule	i		V	s
kohtu	kohtu	0		V	o
     	kohus	0		S	sg g
ette	ette	0		D	
    	ette	0		K	
    	esi	tte		S	adt
Põlde	põld	e		S	pl p
Tõnu	Tõnu	0		H	sg g
    	Tõnu	0		H	sg n
Reinberg	####				
ja	ja	0		J	
kaebas	kaeba	s		V	s
:	:			Z	
et	et	0		J	
tellis	telli	s		V	s
      	tellis	0		S	sg n
kivi	kivi	0		S	sg g
    	kivi	0		S	sg n
    	kivi	0		S	sg p
tegija	tegija	0		S	sg g
      	tegija	0		S	sg n
kedahl	####				
koer	koer	0		A	sg n
    	koer	0		S	sg n
suur	suur	0		A	sg n
Ristipä	####				
laupäev	lau_päev	0		S	sg n
temal	tema	l		P	sg ad
3	3	0		N	?
lmavast	####				
maha	maha	0		D	
kiskunud	kisku	nud		V	nud
        	kisku=nu	d		S	pl n
        	kisku=nud	0		A	
        	kisku=nud	0		A	sg n
        	kisku=nud	d		A	pl n
,	,			Z	
nõnda	nõnda	0		D	
et	et	0		J	
2	2	0		N	?
neist	see	st		P	pl el
     	tema	st		P	pl el
varsti	varsti	0		D	
surnuks	surnu	ks		S	sg tr
       	surnud	ks		A	sg tr
       	sure	nuks		V	nuks
jäänud	jää	nud		V	nud
      	jäänu	d		S	pl n
      	jäänud	0		A	
      	jäänud	0		A	sg n
      	jäänud	d		A	pl n
ja	ja	0		J	
üks	üks	0		N	sg n
   	üks	0		P	sg n
veel	veel	0		D	
    	vesi	l		S	sg ad
elus	elu	s		S	sg in
    	elus	0		A	sg n
ja	ja	0		J	
haige	haige	0		A	sg g
     	haige	0		A	sg n
     	haige	0		S	sg g
     	haige	0		S	sg n
ja	ja	0		J	
lootab	####				
veel	veel	0		D	
    	vesi	l		S	sg ad
terveks	terve	ks		A	sg tr
       	terve	ks		S	sg tr
saavad	saa	vad		V	vad
      	saav	d		A	pl n
      	saav	d		S	pl n
ja	ja	0		J	
et	et	0		J	
need	see	d		P	pl n
jõulased	####				
talled	tall	d		S	pl n
ja	ja	0		J	
nüüd	nüüd	0		D	
nored	####				
lamat	####				
juba	juba	0		D	
olnud	ol=nud	0		A	
     	ol=nud	0		A	sg n
     	ol=nud	d		A	pl n
     	ole	nud		V	nud
     	olnu	d		S	pl n
;	;			Z	
seda	see	da		P	sg p
tunnistab	tunnista	b		V	b
ka	ka	0		D	
talitaja	talitaja	0		S	sg g
        	talitaja	0		S	sg n
abi	abi	0		S	sg g
   	abi	0		S	sg n
   	abi	0		S	sg p
Matso	####				
Kustas	Kusta	s		H	sg in
      	Kustas	0		H	sg n
arsuhu	####				
kes	kes	0		P	pl n
   	kes	0		P	sg n
seal	seal	0		D	
    	siga	l		A	sg ad
    	siga	l		S	sg ad
vaatamas	vaata	mas		V	mas
käinud	käi	nud		V	nud
      	käi=nud	0		A	
      	käi=nud	0		A	sg n
      	käi=nud	d		A	pl n
      	käinu	d		S	pl n
;	;			Z	
Tõnu	Tõnu	0		H	sg g
    	Tõnu	0		H	sg n
pärib	päri	b		V	b
kummagi	kumbki	gi		P	sg g
lamma	####				
eest	eest	0		D	
    	eest	0		K	
    	esi	st		S	sg el
5	5	0		N	?
rubla	rubla	0		S	sg g
     	rubla	0		S	sg n
     	rubla	0		S	sg p
hõbe	hõbe	0		S	sg n
.	.			Z	
sai	saa	i		V	s
   	sai	0		S	sg n
kohtu	kohtu	0		V	o
     	kohus	0		S	sg g
ette	ette	0		D	
    	ette	0		K	
    	esi	tte		S	adt
kutsutud	kutsu	tud		V	tud
        	kutsutu	d		S	pl n
        	kutsutud	0		A	
        	kutsutud	0		A	sg n
        	kutsutud	d		A	pl n
,	,			Z	
telliskivi	tellis_kivi	0		S	sg g
          	tellis_kivi	0		S	sg n
          	tellis_kivi	0		S	sg p
tegija	tegija	0		S	sg g
      	tegija	0		S	sg n
kedahl	####				
kes	kes	0		P	pl n
   	kes	0		P	sg n
ütleb	ütle	b		V	b
:	:			Z	
et	et	0		J	
tema	tema	0		P	sg g
    	tema	0		P	sg n
sel	see	l		P	sg ad
   	sel	0		Y	?
ajal	aeg	l		S	sg ad
    	ajal	0		K	
Tallinnas	Tallinn	s		H	sg in
olnud	ol=nud	0		A	
     	ol=nud	0		A	sg n
     	ol=nud	d		A	pl n
     	ole	nud		V	nud
     	olnu	d		S	pl n
ja	ja	0		J	
sest	see	st		P	sg el
    	sest	0		J	
ühtigi	ühtigi	0		D	
ei	ei	0		D	
  	ei	0		V	neg
tea	tead	0		V	o
.	.			Z	
kohus	kohu	s		V	s
     	kohus	0		S	sg n
mõistis	mõist	is		V	s
:	:			Z	
seda	see	da		P	sg p
asja	asi	0		S	adt
    	asi	0		S	sg g
    	asi	0		S	sg p
takserites	####				
ja	ja	0		J	
et	et	0		J	
se	####				
üks	üks	0		N	sg n
   	üks	0		P	sg n
kogemata	koge	mata		V	mata
        	koge=mata	0		A	
        	kogemata	0		D	
ja	ja	0		J	
tahtmata	taht	mata		V	mata
        	tahtmata	0		A	
asi	asi	0		S	sg n
   	asi	0		V	o
on	ole	0		V	b
  	ole	0		V	vad
,	,			Z	
ei	ei	0		D	
  	ei	0		V	neg
või	või	0		S	sg g
   	või	0		V	o
   	või	0		D	
   	või	0		J	
   	või	0		S	sg n
Tõnu	Tõnu	0		H	sg g
    	Tõnu	0		H	sg n
nõudmine	nõudmine	0		S	sg n
koguni	kogu	ni		S	sg ter
      	koguni	0		D	
mitte	mitte	0		D	
täidetud	täit	tud		V	tud
        	täide=tu	d		S	pl n
        	täide=tud	0		A	
        	täide=tud	0		A	sg n
        	täide=tud	d		A	pl n
saada	saa	da		V	da
     	saat	0		V	o
     	saa	da		V	ta
,	,			Z	
vaid	vaid	0		D	
    	vaid	0		J	
aga	aga	0		J	
et	et	0		J	
kedahl	####				
peab	pida	b		V	b
Tõnu	Tõnu	0		H	sg g
    	Tõnu	0		H	sg n
Reinbergil	####				
kahju	kahi	0		S	adt
     	kahi	0		S	sg g
     	kahi	0		S	sg p
     	kahju	0		S	sg g
     	kahju	0		S	sg n
     	kahju	0		S	sg p
tasumiseks	tasumine	ks		S	sg tr
3	3	0		N	?
rubla	rubla	0		S	sg g
     	rubla	0		S	sg n
     	rubla	0		S	sg p
ja	ja	0		J	
valla	vald	0		S	sg g
     	valla	0		D	
laeka	laegas	0		S	adt
     	laegas	0		S	sg g
trahviks	trahv	ks		S	sg tr
        	trahvi	ks		V	ks
50	50	0		N	?
kop	kop	0		Y	?
maksma	maks	ma		V	ma
,	,			Z	
selle	see	0		P	sg g
     	sell	e		S	pl p
pärast	pära	st		S	sg el
      	pärane	t		A	sg p
      	pärast	0		D	
      	pärast	0		K	
,	,			Z	
et	et	0		J	
se	####				
koer	koer	0		A	sg n
    	koer	0		S	sg n
juba	juba	0		D	
enne	enne	0		D	
    	enne	0		K	
    	enne	0		S	sg n
ka	ka	0		D	
lamat	####				
maha	maha	0		D	
kiskunud	kisku	nud		V	nud
        	kisku=nu	d		S	pl n
        	kisku=nud	0		A	
        	kisku=nud	0		A	sg n
        	kisku=nud	d		A	pl n
oli	ole	i		V	s
,	,			Z	
mis	mis	0		P	pl n
   	mis	0		P	sg n
kedahl	####				
ütleb	ütle	b		V	b
mitte	mitte	0		D	
teadnud	tead	nud		V	nud
       	tead=nu	d		S	pl n
       	tead=nud	0		A	
       	tead=nud	0		A	sg n
       	tead=nud	d		A	pl n
olevat	ole	vat		V	vat
      	olev	t		A	sg p
      	olev	t		S	sg p
ja	ja	0		J	
sai	saa	i		V	s
   	sai	0		S	sg n
öeldud	öeldu	d		S	pl n
      	öeldud	0		A	
      	öeldud	0		A	sg n
      	öeldud	d		A	pl n
      	ütle	dud		V	tud
,	,			Z	
et	et	0		J	
kedahl	####				
seda	see	da		P	sg p
koera	koer	0		A	adt
     	koer	0		A	sg g
     	koer	0		S	adt
     	koer	0		S	sg g
     	koer	0		A	sg p
     	koer	0		S	sg p
kas	kas	0		D	
maha	maha	0		D	
laskma	lask	ma		V	ma
ehk	ehk	0		D	
   	ehk	0		J	
kinni	kinni	0		D	
panema	pane	ma		V	ma
peab	pida	b		V	b
.	.			Z	
telliskivi	tellis_kivi	0		S	sg g
          	tellis_kivi	0		S	sg n
          	tellis_kivi	0		S	sg p
tegija	tegija	0		S	sg g
      	tegija	0		S	sg n
kedahl	####				
maksis	maks	is		V	s
      	maksi	s		S	sg in
se	####				
raha	raha	0		S	sg g
    	raha	0		S	sg n
    	raha	0		S	sg p
rahul	rahu	l		S	sg ad
     	rahul	0		D	
olles	ole	es		V	des
,	,			Z	
kohtu	kohtu	0		V	o
     	kohus	0		S	sg g
laua	laud	0		S	sg g
peale	pea	le		S	sg all
     	peale	0		D	
     	peale	0		K	
varsti	varsti	0		D	
välja	välja	0		D	
     	välja	0		V	o
     	väli	0		S	adt
     	väli	0		S	sg g
     	väli	0		S	sg p
;	;			Z	
ja	ja	0		J	
3	3	0		N	?
rubla	rubla	0		S	sg g
     	rubla	0		S	sg n
     	rubla	0		S	sg p
sest	see	st		P	sg el
    	sest	0		J	
rahast	raha	st		S	sg el
sai	saa	i		V	s
   	sai	0		S	sg n
varsti	varsti	0		D	
Põlde	põld	e		S	pl p
Tõnu	Tõnu	0		H	sg g
    	Tõnu	0		H	sg n
kätte	kätte	0		K	
     	käsi	tte		S	adt
välja	välja	0		D	
     	välja	0		V	o
     	väli	0		S	adt
     	väli	0		S	sg g
     	väli	0		S	sg p
makstud	maks	tud		V	tud
       	maks=tu	d		S	pl n
       	maks=tud	0		A	
       	maks=tud	0		A	sg n
       	maks=tud	d		A	pl n
,	,			Z	
kes	kes	0		P	pl n
   	kes	0		P	sg n
sellega	see	ga		P	sg kom
ka	ka	0		D	
rahul	rahu	l		S	sg ad
     	rahul	0		D	
oli	ole	i		V	s
