I	I	0		O	?
 	I	0		Y	?
 	j	0		Y	?
)	)			Z	
Kirikhärra	kirik_härra	0		S	sg g
          	kirik_härra	0		S	sg n
kaebduse	####				
peal	pea	l		S	sg ad
    	peal	0		D	
    	peal	0		K	
et	et	0		J	
neid	neid	0		S	sg n
    	see	d		P	pl p
    	tema	d		P	pl p
Saunikut	saunik	t		S	sg p
Sõeru	####				
,	,			Z	
Miilima	####				
,	,			Z	
Urge	urg	e		S	pl p
    	urge	0		S	sg n
ja	ja	0		J	
Tammiku	tammik	0		S	sg g
mitte	mitte	0		D	
oma	oma	0		A	sg g
   	oma	0		D	
   	oma	0		P	sg g
   	oma	0		S	sg g
   	oma	0		V	o
   	oma	0		A	sg n
   	oma	0		A	sg p
   	oma	0		P	sg n
   	oma	0		P	sg p
   	oma	0		S	sg n
   	oma	0		S	sg p
kiriku	kirik	0		S	sg g
päevad	päev	d		S	pl n
pole	ole	0		V	neg o
teinud	tege	nud		V	nud
      	tei=nud	0		A	
      	tei=nud	0		A	sg n
      	tei=nud	d		A	pl n
      	teinu	d		S	pl n
.	.			Z	
Tammiko	####				
Juula	####				
vastab	vasta	b		V	b
et	et	0		J	
sel	see	l		P	sg ad
   	sel	0		Y	?
päeval	päev	l		S	sg ad
,	,			Z	
kui	kui	0		D	
   	kui	0		J	
päeva	päev	0		S	adt
     	päev	0		S	sg g
     	päev	0		S	sg p
tegemist	tegemine	t		S	sg p
tellitud	telli	tud		V	tud
        	telli=tu	d		S	pl n
        	telli=tud	0		A	
        	telli=tud	0		A	sg n
        	telli=tud	d		A	pl n
oli	ole	i		V	s
,	,			Z	
et	et	0		J	
siis	siis	0		D	
    	siis	0		J	
vihma	vihm	0		S	adt
     	vihm	0		S	sg g
     	vihm	0		S	sg p
sadanud	sada	nud		V	nud
       	sada=nu	d		S	pl n
       	sada=nud	0		A	
       	sada=nud	0		A	sg n
       	sada=nud	d		A	pl n
,	,			Z	
ja	ja	0		J	
pärast	pära	st		S	sg el
      	pärane	t		A	sg p
      	pärast	0		D	
      	pärast	0		K	
pole	ole	0		V	neg o
mitte	mitte	0		D	
enam	enam	0		C	sg n
    	enam	0		D	
võetud	võe=tu	d		S	pl n
      	võetud	0		A	
      	võetud	0		A	sg n
      	võetud	d		A	pl n
      	võt	tud		V	tud
.	.			Z	
(	(			Z	
on	ole	0		V	b
  	ole	0		V	vad
raha	raha	0		S	sg g
    	raha	0		S	sg n
    	raha	0		S	sg p
55	55	0		N	?
siin	siin	0		D	
    	siin	0		S	sg n
kohtu	kohtu	0		V	o
     	kohus	0		S	sg g
laua	laud	0		S	sg g
juures	juur	s		S	sg in
      	juures	0		D	
      	juures	0		K	
maks	maks	0		S	sg n
)	)			Z	
Urge	urg	e		S	pl p
    	urge	0		S	sg n
Hans	Hans	0		H	sg n
Mühlberg	####				
ütleb	ütle	b		V	b
sed	####				
saama	saa	ma		V	ma
     	saam	0		S	adt
     	saam	0		S	sg g
     	saam	0		S	sg p
,	,			Z	
et	et	0		J	
vihma	vihm	0		S	adt
     	vihm	0		S	sg g
     	vihm	0		S	sg p
sadanud	sada	nud		V	nud
       	sada=nu	d		S	pl n
       	sada=nud	0		A	
       	sada=nud	0		A	sg n
       	sada=nud	d		A	pl n
sel	see	l		P	sg ad
   	sel	0		Y	?
tellitud	telli	tud		V	tud
        	telli=tu	d		S	pl n
        	telli=tud	0		A	
        	telli=tud	0		A	sg n
        	telli=tud	d		A	pl n
päeval	päev	l		S	sg ad
ja	ja	0		J	
luba	luba	0		S	sg n
    	luba	0		V	o
    	luba	0		S	sg p
rahaga	raha	ga		S	sg kom
maksma	maks	ma		V	ma
,	,			Z	
55	55	0		N	?
kopik	####				
ja	ja	0		J	
varsti	varsti	0		D	
2	2	0		N	?
Novembril	november	l		S	sg ad
makstud	maks	tud		V	tud
       	maks=tu	d		S	pl n
       	maks=tud	0		A	
       	maks=tud	0		A	sg n
       	maks=tud	d		A	pl n
.	.			Z	
Miilima	####				
Jüri	Jüri	0		H	sg g
    	Jüri	0		H	sg n
Vilbert	####				
,	,			Z	
ja	ja	0		J	
Sõeru	####				
Triinu	Triin	0		H	adt
      	Triin	0		H	sg g
      	Triin	0		H	sg p
      	Triinu	0		H	sg g
      	Triinu	0		H	sg n
Vilukas	vilukas	0		A	sg n
       	vilukas	s		A	sg in
pole	ole	0		V	neg o
mitte	mitte	0		D	
täna	täna	0		D	
    	täna	0		V	o
kohtu	kohtu	0		V	o
     	kohus	0		S	sg g
ette	ette	0		D	
    	ette	0		K	
    	esi	tte		S	adt
tulnud	tul=nud	0		A	
      	tul=nud	0		A	sg n
      	tul=nud	d		A	pl n
      	tule	nud		V	nud
      	tulnu	d		S	pl n
.	.			Z	
kohus	kohu	s		V	s
     	kohus	0		S	sg n
mõistab	mõist	b		V	b
et	et	0		J	
need	see	d		P	pl n
viimased	viimane	d		A	pl n
peale	pea	le		S	sg all
     	peale	0		D	
     	peale	0		K	
need	see	d		P	pl n
55	55	0		N	?
kopik	####				
veel	veel	0		D	
    	vesi	l		S	sg ad
trahvi	trahv	0		S	adt
      	trahv	0		S	sg g
      	trahvi	0		V	o
      	trahv	0		S	sg p
peab	pida	b		V	b
maksma	maks	ma		V	ma
25	25	0		N	?
kop	kop	0		Y	?
,	,			Z	
kui	kui	0		D	
   	kui	0		J	
mitte	mitte	0		D	
2	2	0		N	?
nadala	####				
sees	sees	0		D	
    	sees	0		K	
pole	ole	0		V	neg o
maksnud	maks	nud		V	nud
       	maks=nu	d		S	pl n
       	maks=nud	0		A	
       	maks=nud	0		A	sg n
       	maks=nud	d		A	pl n
.	.			Z	
