Ojasolt	####				
.	.			Z	
Mats	Mats	0		H	sg n
    	mats	0		A	sg n
    	mats	0		S	sg n
Vanatoa	vana_tuba	0		S	sg g
,	,			Z	
kes	kes	0		P	pl n
   	kes	0		P	sg n
siis	siis	0		D	
    	siis	0		J	
haige	haige	0		A	sg g
     	haige	0		A	sg n
     	haige	0		S	sg g
     	haige	0		S	sg n
oli	ole	i		V	s
,	,			Z	
vaata	vaata	0		V	o
prot	####				
.	.			Z	
64.	64.	0		O	?
1868	1868	0		N	?
,	,			Z	
kui	kui	0		D	
   	kui	0		J	
need	see	d		P	pl n
teised	teine	d		O	pl n
      	teine	d		P	pl n
kolm	kolm	0		N	sg n
meest	meene	t		A	sg p
     	mees	t		S	sg p
     	mesi	st		S	sg el
trahvitud	trahvi	tud		V	tud
         	trahvi=tu	d		S	pl n
         	trahvi=tud	0		A	
         	trahvi=tud	0		A	sg n
         	trahvi=tud	d		A	pl n
said	saa	id		V	sid
,	,			Z	
ja	ja	0		J	
kes	kes	0		P	pl n
   	kes	0		P	sg n
pärast	pära	st		S	sg el
      	pärane	t		A	sg p
      	pärast	0		D	
      	pärast	0		K	
seda	see	da		P	sg p
mitme	mitu	0		P	sg g
kordse	kordne	0		A	sg g
      	kordne	0		S	sg g
kutsumise	kutsumine	0		S	sg g
peale	pea	le		S	sg all
     	peale	0		D	
     	peale	0		K	
kohtu	kohtu	0		V	o
     	kohus	0		S	sg g
ei	ei	0		D	
  	ei	0		V	neg
ole	ole	0		V	o
tulnud	tul=nud	0		A	
      	tul=nud	0		A	sg n
      	tul=nud	d		A	pl n
      	tule	nud		V	nud
      	tulnu	d		S	pl n
,	,			Z	
tunnistab	tunnista	b		V	b
:	:			Z	
tema	tema	0		P	sg g
    	tema	0		P	sg n
on	ole	0		V	b
  	ole	0		V	vad
pidanud	pida	nud		V	nud
       	pida=nu	d		S	pl n
       	pida=nud	0		A	
       	pida=nud	0		A	sg n
       	pida=nud	d		A	pl n
Uustalu	uus_talu	0		S	sg g
       	uus_talu	0		S	sg n
       	uus_talu	0		S	sg p
pere	pere	0		S	sg g
    	pere	0		S	sg n
õues	õu	s		S	sg in
    	õues	0		D	
koera	koer	0		A	adt
     	koer	0		A	sg g
     	koer	0		S	adt
     	koer	0		S	sg g
     	koer	0		A	sg p
     	koer	0		S	sg p
viskama	viska	ma		V	ma
kaikaga	kaigas	ga		S	sg kom
mis	mis	0		P	pl n
   	mis	0		P	sg n
tema	tema	0		P	sg g
    	tema	0		P	sg n
ta	tema	0		P	sg g
  	tema	0		P	sg n
pinna	pind	0		S	sg g
seest	seest	0		D	
     	seest	0		K	
tõmmanud	tõmba	nud		V	nud
        	tõmma=nu	d		S	pl n
        	tõmma=nud	0		A	
        	tõmma=nud	0		A	sg n
        	tõmma=nud	d		A	pl n
,	,			Z	
aga	aga	0		J	
on	ole	0		V	b
  	ole	0		V	vad
kogemata	koge	mata		V	mata
        	koge=mata	0		A	
        	kogemata	0		D	
pimedas	pime	s		A	sg in
       	pime	s		S	sg in
peremeest	pere_mees	t		S	sg p
ennast	ise	t		P	sg p
viskanud	####				
.	.			Z	
kohus	kohu	s		V	s
     	kohus	0		S	sg n
mõistab	mõist	b		V	b
:	:			Z	
Mati	Mati	0		H	sg g
    	matt	0		A	sg g
    	matt	0		S	sg g
    	Mati	0		H	sg n
Vanatoa	vana_tuba	0		S	sg g
peab	pida	b		V	b
saama	saa	ma		V	ma
     	saam	0		S	adt
     	saam	0		S	sg g
     	saam	0		S	sg p
trahvitud	trahvi	tud		V	tud
         	trahvi=tu	d		S	pl n
         	trahvi=tud	0		A	
         	trahvi=tud	0		A	sg n
         	trahvi=tud	d		A	pl n
,	,			Z	
öösiti	öösiti	0		D	
ümberhulkumise	ümber_hulkumine	0		S	sg g
ja	ja	0		J	
viskamise	viskamine	0		S	sg g
eest	eest	0		D	
    	eest	0		K	
    	esi	st		S	sg el
20ne	20	0		N	sg g
vitsahoobiga	vitsa_hoop	ga		S	sg kom
.	.			Z	
sai	saa	i		V	s
   	sai	0		S	sg n
kohe	kohe	0		A	sg n
    	kohe	0		D	
ära_trahvitud	####				
.	.			Z	
