Alu	alg	0		S	sg g
   	ala	u		S	pl p
mõisa	mõis	0		S	sg g
härra	härra	0		S	sg g
     	härra	0		S	sg n
von	####				
Lilienfeldt	####				
kaebas	kaeba	s		V	s
kirjaga	kiri	ga		S	sg kom
sisse	siss	e		S	pl p
     	sisse	0		D	
     	sisse	0		K	
et	et	0		J	
Vidreku	####				
Jüri	Jüri	0		H	sg g
    	Jüri	0		H	sg n
Wiikberg	####				
on	ole	0		V	b
  	ole	0		V	vad
lõikuse	lõikus	0		S	sg g
juures	juur	s		S	sg in
      	juures	0		D	
      	juures	0		K	
vastane	vastane	0		A	sg n
       	vastane	0		S	sg n
olnud	ol=nud	0		A	
     	ol=nud	0		A	sg n
     	ol=nud	d		A	pl n
     	ole	nud		V	nud
     	olnu	d		S	pl n
ja	ja	0		J	
palus	palu	s		S	sg in
     	palu	s		V	s
kohut	kohus	t		S	sg p
Jüri	Jüri	0		H	sg g
    	Jüri	0		H	sg n
Viikbergile	####				
valla	vald	0		S	sg g
     	valla	0		D	
laeka	laegas	0		S	adt
     	laegas	0		S	sg g
trahvi	trahv	0		S	adt
      	trahv	0		S	sg g
      	trahvi	0		V	o
      	trahv	0		S	sg p
mõista	mõist	0		V	o
      	mõist	a		V	da
.	.			Z	
sai	saa	i		V	s
   	sai	0		S	sg n
ette	ette	0		D	
    	ette	0		K	
    	esi	tte		S	adt
kutsutud	kutsu	tud		V	tud
        	kutsutu	d		S	pl n
        	kutsutud	0		A	
        	kutsutud	0		A	sg n
        	kutsutud	d		A	pl n
Alu	alg	0		S	sg g
   	ala	u		S	pl p
mõisa	mõis	0		S	sg g
junkur	junkur	0		S	sg n
Anton	Anton	0		H	sg n
Paber	paber	0		S	sg n
.	.			Z	
kohus	kohu	s		V	s
     	kohus	0		S	sg n
küsis	küsi	s		V	s
kas	kas	0		D	
Vidreku	####				
Jüri	Jüri	0		H	sg g
    	Jüri	0		H	sg n
Wiikberg	####				
on	ole	0		V	b
  	ole	0		V	vad
vastane	vastane	0		A	sg n
       	vastane	0		S	sg n
lõikuse	lõikus	0		S	sg g
juures	juur	s		S	sg in
      	juures	0		D	
      	juures	0		K	
olnud	ol=nud	0		A	
     	ol=nud	0		A	sg n
     	ol=nud	d		A	pl n
     	ole	nud		V	nud
     	olnu	d		S	pl n
?	?			Z	
Anton	Anton	0		H	sg n
Paber	paber	0		S	sg n
kostis	kost	s		S	sg in
      	kost	is		V	s
:	:			Z	
mina	mina	0		P	sg n
    	mina	0		S	sg g
    	mina	0		S	sg n
    	mina	0		S	sg p
ütlesin	ütle	sin		V	sin
Jürile	Jüri	le		H	sg all
mine	mine	0		V	o
sinna	sinna	0		D	
lõiga	####				
se	####				
tük	####				
mis	mis	0		P	pl n
   	mis	0		P	sg n
seal	seal	0		D	
    	siga	l		A	sg ad
    	siga	l		S	sg ad
al	####				
heinama	####				
ääres	äär	s		S	sg in
     	ääres	0		K	
on	ole	0		V	b
  	ole	0		V	vad
kõige	kõik	0		P	sg g
     	kõige	0		D	
enne	enne	0		D	
    	enne	0		K	
    	enne	0		S	sg n
ära	ära	0		D	
   	ära	0		V	neg o
,	,			Z	
se	####				
on	ole	0		V	b
  	ole	0		V	vad
poole	pool	0		N	sg g
     	pool	0		S	sg g
     	pool	e		S	pl p
     	poole	0		K	
     	poole	0		S	sg n
külimitu	külimit	0		S	sg g
ma	mina	0		P	sg n
suur	suur	0		A	sg n
aga	aga	0		J	
ma	mina	0		P	sg n
arvan	arva	n		V	n
selle	see	0		P	sg g
     	sell	e		S	pl p
eest	eest	0		D	
    	eest	0		K	
    	esi	st		S	sg el
et	et	0		J	
ta	tema	0		P	sg g
  	tema	0		P	sg n
risune	risune	0		A	sg n
on	ole	0		V	b
  	ole	0		V	vad
,	,			Z	
sulle	sina	lle		P	sg all
ühe	üks	0		N	sg g
   	üks	0		P	sg g
   	ühe	0		S	sg n
külimitu	külimit	0		S	sg g
ma	mina	0		P	sg n
eest	eest	0		D	
    	eest	0		K	
    	esi	st		S	sg el
,	,			Z	
ja	ja	0		J	
läksin	mine	sin		V	sin
siis	siis	0		D	
    	siis	0		J	
ära	ära	0		D	
   	ära	0		V	neg o
.	.			Z	
tulin	tule	in		V	sin
pärast	pära	st		S	sg el
      	pärane	t		A	sg p
      	pärast	0		D	
      	pärast	0		K	
vaatama	vaata	ma		V	ma
kas	kas	0		D	
Jüri	Jüri	0		H	sg g
    	Jüri	0		H	sg n
oli	ole	i		V	s
ära	ära	0		D	
   	ära	0		V	neg o
lõiganud	lõika	nud		V	nud
        	lõiga=nu	d		S	pl n
        	lõiga=nud	0		A	
        	lõiga=nud	0		A	sg n
        	lõiga=nud	d		A	pl n
,	,			Z	
aga	aga	0		J	
Jüri	Jüri	0		H	sg g
    	Jüri	0		H	sg n
polnud	ole	nud		V	neg nud
ühte	ühte	0		D	
    	üks	0		N	adt
    	üks	0		P	adt
    	ühe	0		S	sg g
    	üks	0		N	sg p
    	üks	0		P	sg p
lõiganud	lõika	nud		V	nud
        	lõiga=nu	d		S	pl n
        	lõiga=nud	0		A	
        	lõiga=nud	0		A	sg n
        	lõiga=nud	d		A	pl n
!	!			Z	
läksin	mine	sin		V	sin
siis	siis	0		D	
    	siis	0		J	
tema	tema	0		P	sg g
    	tema	0		P	sg n
juure	juur	0		S	sg g
ja	ja	0		J	
küsisin	küsi	sin		V	sin
?	?			Z	
kuule	kuu	le		S	sg all
     	kuul	0		V	o
     	kuul	e		S	pl p
     	kuule	0		S	sg n
Jüri	Jüri	0		H	sg g
    	Jüri	0		H	sg n
mis	mis	0		P	pl n
   	mis	0		P	sg n
sa	sina	0		P	sg n
ei	ei	0		D	
  	ei	0		V	neg
ole	ole	0		V	o
seda	see	da		P	sg p
rukist	rukis	t		S	sg p
seal	seal	0		D	
    	siga	l		A	sg ad
    	siga	l		S	sg ad
mitte	mitte	0		D	
ära	ära	0		D	
   	ära	0		V	neg o
lõigand	####				
.	.			Z	
Jüri	Jüri	0		H	sg g
    	Jüri	0		H	sg n
kostis	kost	s		S	sg in
      	kost	is		V	s
:	:			Z	
mina	mina	0		P	sg n
    	mina	0		S	sg g
    	mina	0		S	sg n
    	mina	0		S	sg p
seda	see	da		P	sg p
tükki	tükk	0		S	adt
     	tükk	0		S	sg p
     	tükki	0		D	
ei	ei	0		D	
  	ei	0		V	neg
lõiga	####				
mis	mis	0		P	pl n
   	mis	0		P	sg n
teistest	teine	test		O	pl el
        	teine	test		P	pl el
on	ole	0		V	b
  	ole	0		V	vad
järel	järel	0		D	
     	järel	0		K	
jäänud	jää	nud		V	nud
      	jäänu	d		S	pl n
      	jäänud	0		A	
      	jäänud	0		A	sg n
      	jäänud	d		A	pl n
.	.			Z	
mina	mina	0		P	sg n
    	mina	0		S	sg g
    	mina	0		S	sg n
    	mina	0		S	sg p
ütlesin	ütle	sin		V	sin
!	!			Z	
sinna	sinna	0		D	
pead	pea	d		S	pl n
    	pida	d		V	d
    	pea	d		S	sg p
lõikama	lõika	ma		V	ma
.	.			Z	
Jüri	Jüri	0		H	sg g
    	Jüri	0		H	sg n
ütles	ütle	s		V	s
mina	mina	0		P	sg n
    	mina	0		S	sg g
    	mina	0		S	sg n
    	mina	0		S	sg p
ei	ei	0		D	
  	ei	0		V	neg
lõiga	####				
seda	see	da		P	sg p
tükki	tükk	0		S	adt
     	tükk	0		S	sg p
     	tükki	0		D	
mitte	mitte	0		D	
.	.			Z	
mina	mina	0		P	sg n
    	mina	0		S	sg g
    	mina	0		S	sg n
    	mina	0		S	sg p
ütlesin	ütle	sin		V	sin
?	?			Z	
Ma	mina	0		P	sg n
sind	sina	d		P	sg p
Jüri	Jüri	0		H	sg g
    	Jüri	0		H	sg n
ei	ei	0		D	
  	ei	0		V	neg
pruugi	pruuk	0		S	sg g
      	pruuki	0		V	o
mitte	mitte	0		D	
sinu	sina	0		P	sg g
sulane	sulane	0		S	sg n
      	sulane	0		V	o
ja	ja	0		J	
tüdruk	tüdruk	0		S	sg n
tulevat	tule	vat		V	vat
       	tulev	t		A	sg p
lõikavad	lõika	vad		V	vad
        	lõikav	d		A	pl n
selle	see	0		P	sg g
     	sell	e		S	pl p
rukki	rukis	0		S	adt
     	rukis	0		S	sg g
ära	ära	0		D	
   	ära	0		V	neg o
.	.			Z	
Jüri	Jüri	0		H	sg g
    	Jüri	0		H	sg n
ütles	ütle	s		V	s
mina	mina	0		P	sg n
    	mina	0		S	sg g
    	mina	0		S	sg n
    	mina	0		S	sg p
ei	ei	0		D	
  	ei	0		V	neg
tule	tuli	0		S	sg g
    	tule	0		V	o
ise	ise	0		A	
   	ise	0		D	
   	ise	0		P	pl n
   	ise	0		P	sg n
ega	ega	0		D	
   	ega	0		J	
laske	lask	e		S	pl p
     	lask	ke		V	ge
     	lase	0		S	sg g
sulast	sula	st		A	sg el
      	sula	st		S	sg el
      	sulane	t		S	sg p
ja	ja	0		J	
tüdrukut	tüdruk	t		S	sg p
ka	ka	0		D	
tulla	tule	a		V	da
!	!			Z	
siis	siis	0		D	
    	siis	0		J	
ma	mina	0		P	sg n
läksin	mine	sin		V	sin
ja	ja	0		J	
kaebasin	kaeba	sin		V	sin
seda	see	da		P	sg p
härrale	härra	le		S	sg all
.	.			Z	
ette	ette	0		D	
    	ette	0		K	
    	esi	tte		S	adt
kutsutud	kutsu	tud		V	tud
        	kutsutu	d		S	pl n
        	kutsutud	0		A	
        	kutsutud	0		A	sg n
        	kutsutud	d		A	pl n
Vidreku	####				
Jüri	Jüri	0		H	sg g
    	Jüri	0		H	sg n
Wiikberg	####				
.	.			Z	
kohus	kohu	s		V	s
     	kohus	0		S	sg n
küsis	küsi	s		V	s
?	?			Z	
kas	kas	0		D	
kaebus	kaebus	0		S	sg n
on	ole	0		V	b
  	ole	0		V	vad
tõsi	tõsi	0		S	pl p
    	tõsi	0		S	sg n
?	?			Z	
Jüri	Jüri	0		H	sg g
    	Jüri	0		H	sg n
Wiikberg	####				
ei	ei	0		D	
  	ei	0		V	neg
võinud	või	nud		V	nud
      	või=nu	d		S	pl n
      	või=nud	0		A	
      	või=nud	0		A	sg n
      	või=nud	d		A	pl n
ühtigi	ühtigi	0		D	
ennast	ise	t		P	sg p
vabandada	vabanda	da		V	da
.	.			Z	
kohtu	kohtu	0		V	o
     	kohus	0		S	sg g
mõistus	mõistus	0		S	sg n
.	.			Z	
kohus	kohu	s		V	s
     	kohus	0		S	sg n
mõistis	mõist	is		V	s
Vidreku	####				
Jüri	Jüri	0		H	sg g
    	Jüri	0		H	sg n
Viikbergile	####				
1	1	0		N	?
rubl	####				
valla	vald	0		S	sg g
     	valla	0		D	
laeka	laegas	0		S	adt
     	laegas	0		S	sg g
trahvi	trahv	0		S	adt
      	trahv	0		S	sg g
      	trahvi	0		V	o
      	trahv	0		S	sg p
.	.			Z	
olid	ole	id		V	sid
otsusega	otsus	ga		S	sg kom
rahul	rahu	l		S	sg ad
     	rahul	0		D	
.	.			Z	
peakohtuvanem	pea_kohtu_vanem	0		S	sg n
:	:			Z	
Jaan	Jaan	0		H	sg n
    	jaan	0		S	sg n
    	jaan	0		Y	?
Tiismann	####				
+	+			Z	
+	+			Z	
+	+			Z	
,	,			Z	
kõrvamehed	kõrva_mees	d		S	pl n
:	:			Z	
Jaan	Jaan	0		H	sg n
    	jaan	0		S	sg n
    	jaan	0		Y	?
Wingelmann	####				
+	+			Z	
+	+			Z	
+	+			Z	
,	,			Z	
Jaan	Jaan	0		H	sg n
    	jaan	0		S	sg n
    	jaan	0		Y	?
Villard	####				
+	+			Z	
+	+			Z	
+	+			Z	
,	,			Z	
kirjutaja	kirjutaja	0		S	sg g
         	kirjutaja	0		S	sg n
Otto	Otto	0		H	sg g
    	Otto	0		H	sg n
Martinoff	####				
(	(			Z	
allkiri	all_kiri	0		S	sg n
)	)			Z	
