tuli	tuli	0		S	sg n
    	tule	i		V	s
Ann	Ann	0		H	sg n
Neinberg	####				
ette	ette	0		D	
    	ette	0		K	
    	esi	tte		S	adt
ja	ja	0		J	
lasi	lask	i		V	s
    	lasi	0		S	sg g
    	lasi	0		S	sg n
    	lasi	0		S	sg p
kirja	kirja	0		A	
     	kirja	0		V	o
     	kiri	0		S	adt
     	kiri	0		S	sg g
     	kiri	0		S	sg p
panna	pand	0		S	sg g
     	pane	a		V	da
     	panna	0		S	sg g
     	panna	0		S	sg n
oma	oma	0		A	sg g
   	oma	0		D	
   	oma	0		P	sg g
   	oma	0		S	sg g
   	oma	0		V	o
   	oma	0		A	sg n
   	oma	0		A	sg p
   	oma	0		P	sg n
   	oma	0		P	sg p
   	oma	0		S	sg n
   	oma	0		S	sg p
võõra	võõras	0		A	sg g
     	võõras	0		S	sg g
laste	laps	te		S	pl g
     	last	e		S	pl p
raha	raha	0		S	sg g
    	raha	0		S	sg n
    	raha	0		S	sg p
mis	mis	0		P	pl n
   	mis	0		P	sg n
tema	tema	0		P	sg g
    	tema	0		P	sg n
juba	juba	0		D	
oli	ole	i		V	s
välja	välja	0		D	
     	välja	0		V	o
     	väli	0		S	adt
     	väli	0		S	sg g
     	väli	0		S	sg p
maksnud	maks	nud		V	nud
       	maks=nu	d		S	pl n
       	maks=nud	0		A	
       	maks=nud	0		A	sg n
       	maks=nud	d		A	pl n
,	,			Z	
kõik	kõik	0		P	pl n
    	kõik	0		S	sg n
    	kõik	0		P	sg n
mis	mis	0		P	pl n
   	mis	0		P	sg n
temale	tema	le		P	sg all
1883ndal	1883=s	l		O	sg ad
aastal	aasta	l		S	sg ad
13ndal	13=s	l		O	sg ad
Septembril	september	l		S	sg ad
oli	ole	i		V	s
määratud	määra	tud		V	tud
        	määra=tu	d		S	pl n
        	määratu	d		A	pl n
        	määratud	0		A	
        	määratud	0		A	sg n
        	määratud	d		A	pl n
.	.			Z	
makstud	maks	tud		V	tud
       	maks=tu	d		S	pl n
       	maks=tud	0		A	
       	maks=tud	0		A	sg n
       	maks=tud	d		A	pl n
on	ole	0		V	b
  	ole	0		V	vad
igale	iga	le		P	sg all
ühele	üks	le		N	sg all
     	üks	le		P	sg all
see	see	0		P	sg n
on	ole	0		V	b
  	ole	0		V	vad
:	:			Z	
Hansule	Hans	le		H	sg all
Neinbergile	####				
126	126	0		N	?
rbl	rbl	0		Y	?
72	72	0		N	?
kop	kop	0		Y	?
.	.			Z	
Jaanile	Jaan	le		H	sg all
       	Jaani	le		H	sg all
       	jaan	le		S	sg all
Neinbergile	####				
126	126	0		N	?
rbl	rbl	0		Y	?
72	72	0		N	?
kop	kop	0		Y	?
.	.			Z	
Jürile	Jüri	le		H	sg all
Neinbergile	####				
126	126	0		N	?
rbl	rbl	0		Y	?
72	72	0		N	?
kop	kop	0		Y	?
.	.			Z	
Annale	Anna	le		H	sg all
      	anna	le		S	sg all
Neinbergile	####				
126	126	0		N	?
rbl	rbl	0		Y	?
72	72	0		N	?
kop	kop	0		Y	?
.	.			Z	
