1879.	1879.	0		O	?
a	a	0		Y	?
12s	12	s		N	sg in
Januari	####				
kuu	kuu	0		S	sg g
   	kuu	0		S	sg n
p	p	0		Y	?
.	.			Z	
koos	koos	0		D	
    	koos	0		K	
    	koos	0		S	sg n
    	kubu	s		S	sg in
olid	ole	id		V	sid
:	:			Z	
kohtu	kohtu	0		V	o
     	kohus	0		S	sg g
vanem	vanem	0		C	sg n
     	vanem	0		S	sg n
:	:			Z	
Jüri	Jüri	0		H	sg g
    	Jüri	0		H	sg n
Jürgenson	Jürgenson	0		H	sg n
,	,			Z	
kohtu	kohtu	0		V	o
     	kohus	0		S	sg g
käemehed	käe_mees	d		S	pl n
:	:			Z	
Jaan	Jaan	0		H	sg n
    	jaan	0		S	sg n
    	jaan	0		Y	?
Rosenbaum	####				
,	,			Z	
Tõnu	Tõnu	0		H	sg g
    	Tõnu	0		H	sg n
Jaanson	Jaanson	0		H	sg n
protokolli	protokoll	0		S	adt
          	protokoll	0		S	sg g
          	protokolli	0		V	o
          	protokoll	0		S	sg p
kirjutaja	kirjutaja	0		S	sg g
         	kirjutaja	0		S	sg n
:	:			Z	
Ch	####				
.	.			Z	
Silberg	####				
.	.			Z	
Uuemõisa	uue_mõis	0		S	sg g
vallad	vald	d		S	pl n
tündresepa	####				
peremees	pere_mees	0		S	sg n
Toomas	Toomas	0		H	sg n
      	Toomas	s		H	sg in
      	too	mas		V	mas
Toomson	####				
ja	ja	0		J	
tema	tema	0		P	sg g
    	tema	0		P	sg n
poeg	poeg	0		S	sg n
Hans	Hans	0		H	sg n
,	,			Z	
ja	ja	0		J	
Jüri	Jüri	0		H	sg g
    	Jüri	0		H	sg n
Toomson	####				
tegid	tege	id		V	sid
ende	enne	0		S	sg g
vahel	vahe	l		S	sg ad
     	vahel	0		D	
     	vahel	0		K	
al	####				
nimetatud	nimeta	tud		V	tud
         	nimetatu	d		S	pl n
         	nimetatud	0		A	
         	nimetatud	0		A	sg n
         	nimetatud	d		A	pl n
seletust	seletus	t		S	sg p
,	,			Z	
ja	ja	0		J	
aru	aru	0		S	sg g
   	aru	0		S	sg n
   	aru	0		S	sg p
,	,			Z	
ja	ja	0		J	
nimelt	nimelt	0		D	
      	nimi	lt		S	sg abl
:	:			Z	
Hans	Hans	0		H	sg n
Toomson	####				
on	ole	0		V	b
  	ole	0		V	vad
oma	oma	0		A	sg g
   	oma	0		D	
   	oma	0		P	sg g
   	oma	0		S	sg g
   	oma	0		V	o
   	oma	0		A	sg n
   	oma	0		A	sg p
   	oma	0		P	sg n
   	oma	0		P	sg p
   	oma	0		S	sg n
   	oma	0		S	sg p
isa	isa	0		S	sg g
   	isa	0		S	sg n
   	isa	0		S	sg p
Toomas	Toomas	0		H	sg n
      	Toomas	s		H	sg in
      	too	mas		V	mas
Toomsoni	toom_soni	0		S	sg g
        	toom_soni	0		S	sg n
        	toom_soni	0		S	sg p
15.	15.	0		O	?
aastat	aasta	t		S	sg p
palga	palk	0		S	sg g
aru	aru	0		S	sg g
   	aru	0		S	sg n
   	aru	0		S	sg p
sees	sees	0		D	
    	sees	0		K	
teeninud	teeni	nud		V	nud
        	teeni=nu	d		S	pl n
        	teeni=nud	0		A	
        	teeni=nud	0		A	sg n
        	teeni=nud	d		A	pl n
;	;			Z	
ja	ja	0		J	
isa	isa	0		S	sg g
   	isa	0		S	sg n
   	isa	0		S	sg p
lubas	luba	s		V	s
poea	####				
Hansule	Hans	le		H	sg all
vastu	vastu	0		D	
     	vastu	0		K	
peale	pea	le		S	sg all
     	peale	0		D	
     	peale	0		K	
teenistuse	teenistus	0		S	sg g
palka	palk	0		S	adt
     	palka	0		V	o
     	palk	0		S	sg p
30	30	0		N	?
rbl	rbl	0		Y	?
hõb	####				
teenistus	teenistus	0		S	sg n
akkab	####				
18ne	18	0		N	sg g
aasta	aasta	0		S	sg g
     	aasta	0		S	sg n
vanudusest	####				
kuni	kuni	0		J	
    	kuni	0		K	
33.	33.	0		O	?
aasta	aasta	0		S	sg g
     	aasta	0		S	sg n
vanutuseni	vanutus	ni		S	sg ter
,	,			Z	
se	####				
on	ole	0		V	b
  	ole	0		V	vad
:	:			Z	
1se	####				
jaanuarini	jaanuar	ni		S	sg ter
1877	1877	0		N	?
a	a	0		Y	?
15	15	0		N	?
aastat	aasta	t		S	sg p
ü	ü	0		Y	?
.	.			Z	
30	30	0		N	?
rbl	rbl	0		Y	?
aasta	aasta	0		S	sg g
     	aasta	0		S	sg n
peale	pea	le		S	sg all
     	peale	0		D	
     	peale	0		K	
teeb	tege	b		V	b
450	450	0		N	?
rbl	rbl	0		Y	?
.	.			Z	
Hans	Hans	0		H	sg n
Toomson	####				
palka	palk	0		S	adt
     	palka	0		V	o
     	palk	0		S	sg p
kätte	kätte	0		K	
     	käsi	tte		S	adt
saanud	saa	nud		V	nud
      	saa=nud	0		A	
      	saa=nud	0		A	sg n
      	saa=nud	d		A	pl n
      	saanu	d		S	pl n
:	:			Z	
9	9	0		N	?
tündrid	tünder	d		S	pl n
2	2	0		N	?
vakka	vakk	0		S	adt
     	vakk	0		S	sg p
     	vakka	0		D	
rukkid	rukis	d		S	pl n
,	,			Z	
ja	ja	0		J	
8	8	0		N	?
tündrid	tünder	d		S	pl n
kaera	kaer	0		S	adt
     	kaer	0		S	sg g
     	kaer	0		S	sg p
.	.			Z	
need	see	d		P	pl n
maha	maha	0		D	
arvatud	arva	tud		V	tud
       	arva=tu	d		S	pl n
       	arva=tud	0		A	
       	arva=tud	0		A	sg n
       	arva=tud	d		A	pl n
Hans	Hans	0		H	sg n
Toomsoni	toom_soni	0		S	sg g
        	toom_soni	0		S	sg n
        	toom_soni	0		S	sg p
naise	naine	0		S	sg g
Toomas	Toomas	0		H	sg n
      	Toomas	s		H	sg in
      	too	mas		V	mas
Toomsonile	toom_soni	le		S	sg all
1877.	1877.	0		O	?
aastal	aasta	l		S	sg ad
tehtud	tehtu	d		S	pl n
      	tehtud	0		A	
      	tehtud	0		A	sg n
      	tehtud	d		A	pl n
      	tege	tud		V	tud
töö	töö	0		S	sg g
   	töö	0		S	sg n
ette	ette	0		D	
    	ette	0		K	
    	esi	tte		S	adt
2	2	0		N	?
vakka	vakk	0		S	adt
     	vakk	0		S	sg p
     	vakka	0		D	
rukkid	rukis	d		S	pl n
,	,			Z	
jääl	jää	l		S	sg ad
järel	järel	0		D	
     	järel	0		K	
9	9	0		N	?
tündrid	tünder	d		S	pl n
ruk	####				
.	.			Z	
,	,			Z	
ja	ja	0		J	
4ra	####				
tündrid	tünder	d		S	pl n
kaera	kaer	0		S	adt
     	kaer	0		S	sg g
     	kaer	0		S	sg p
Koha	koht	0		S	sg g
    	koha	0		S	sg g
    	koha	0		V	o
    	koha	0		S	sg n
    	koha	0		S	sg p
peale	pea	le		S	sg all
     	peale	0		D	
     	peale	0		K	
arvatud	arva	tud		V	tud
       	arva=tu	d		S	pl n
       	arva=tud	0		A	
       	arva=tud	0		A	sg n
       	arva=tud	d		A	pl n
5	5	0		N	?
rbl	rbl	0		Y	?
50	50	0		N	?
kop	kop	0		Y	?
.	.			Z	
rukki	rukis	0		S	adt
     	rukis	0		S	sg g
tünder	tünder	0		S	sg n
,	,			Z	
ja	ja	0		J	
3	3	0		N	?
rbl	rbl	0		Y	?
kaera	kaer	0		S	adt
     	kaer	0		S	sg g
     	kaer	0		S	sg p
tünder	tünder	0		S	sg n
.	.			Z	
teeb	tege	b		V	b
raha	raha	0		S	sg g
    	raha	0		S	sg n
    	raha	0		S	sg p
peale	pea	le		S	sg all
     	peale	0		D	
     	peale	0		K	
73	73	0		N	?
rbl	rbl	0		Y	?
.	.			Z	
50	50	0		N	?
kop	kop	0		Y	?
.	.			Z	
selget	selge	t		A	sg p
raha	raha	0		S	sg g
    	raha	0		S	sg n
    	raha	0		S	sg p
saanud	saa	nud		V	nud
      	saa=nud	0		A	
      	saa=nud	0		A	sg n
      	saa=nud	d		A	pl n
      	saanu	d		S	pl n
220	220	0		N	?
rbl	rbl	0		Y	?
50	50	0		N	?
kop	kop	0		Y	?
.	.			Z	
ühtekokku	ühte_kokku	0		D	
293	293	0		N	?
rbl	rbl	0		Y	?
50	50	0		N	?
kop	kop	0		Y	?
.	.			Z	
Hans	Hans	0		H	sg n
Toomson	####				
jättis	jät	is		V	s
50	50	0		N	?
kop	kop	0		Y	?
.	.			Z	
maha	maha	0		D	
.	.			Z	
Jääb	jää	b		V	b
igal	iga	l		P	sg ad
Toomas	Toomas	0		H	sg n
      	Toomas	s		H	sg in
      	too	mas		V	mas
Toomsonile	toom_soni	le		S	sg all
oma	oma	0		A	sg g
   	oma	0		D	
   	oma	0		P	sg g
   	oma	0		S	sg g
   	oma	0		V	o
   	oma	0		A	sg n
   	oma	0		A	sg p
   	oma	0		P	sg n
   	oma	0		P	sg p
   	oma	0		S	sg n
   	oma	0		S	sg p
paea	####				
Hansule	Hans	le		H	sg all
veel	veel	0		D	
    	vesi	l		S	sg ad
156	156	0		N	?
rbl	rbl	0		Y	?
.	.			Z	
maksta	maks	ta		V	da
      	maks	ta		V	ta
Toomas	Toomas	0		H	sg n
      	Toomas	s		H	sg in
      	too	mas		V	mas
Toomson	####				
lubas	luba	s		V	s
100	100	0		N	?
rbl	rbl	0		Y	?
hõb	####				
8	8	0		N	?
päeva	päev	0		S	adt
     	päev	0		S	sg g
     	päev	0		S	sg p
pärast	pära	st		S	sg el
      	pärane	t		A	sg p
      	pärast	0		D	
      	pärast	0		K	
,	,			Z	
ja	ja	0		J	
56	56	0		N	?
rbl	rbl	0		Y	?
sügisel	sügis	l		S	sg ad
1879.	1879.	0		O	?
aastal	aasta	l		S	sg ad
oma	oma	0		A	sg g
   	oma	0		D	
   	oma	0		P	sg g
   	oma	0		S	sg g
   	oma	0		V	o
   	oma	0		A	sg n
   	oma	0		A	sg p
   	oma	0		P	sg n
   	oma	0		P	sg p
   	oma	0		S	sg n
   	oma	0		S	sg p
poea	####				
Hansule	Hans	le		H	sg all
välja	välja	0		D	
     	välja	0		V	o
     	väli	0		S	adt
     	väli	0		S	sg g
     	väli	0		S	sg p
maksta	maks	ta		V	da
      	maks	ta		V	ta
.	.			Z	
Hans	Hans	0		H	sg n
Toomson	####				
leppis	leppi	s		V	s
seega	seega	0		D	
.	.			Z	
peale	pea	le		S	sg all
     	peale	0		D	
     	peale	0		K	
seda	see	da		P	sg p
lubas	luba	s		V	s
Toomas	Toomas	0		H	sg n
      	Toomas	s		H	sg in
      	too	mas		V	mas
Toomson	####				
oma	oma	0		A	sg g
   	oma	0		D	
   	oma	0		P	sg g
   	oma	0		S	sg g
   	oma	0		V	o
   	oma	0		A	sg n
   	oma	0		A	sg p
   	oma	0		P	sg n
   	oma	0		P	sg p
   	oma	0		S	sg n
   	oma	0		S	sg p
poea	####				
Hansule	Hans	le		H	sg all
üks	üks	0		N	sg n
   	üks	0		P	sg n
rautud	####				
vanker	vanker	0		S	sg n
,	,			Z	
mis	mis	0		P	pl n
   	mis	0		P	sg n
Hans	Hans	0		H	sg n
ise	ise	0		A	
   	ise	0		D	
   	ise	0		P	pl n
   	ise	0		P	sg n
on	ole	0		V	b
  	ole	0		V	vad
rautanud	rauta	nud		V	nud
        	rauta=nu	d		S	pl n
        	rauta=nud	0		A	
        	rauta=nud	0		A	sg n
        	rauta=nud	d		A	pl n
ja	ja	0		J	
üks	üks	0		N	sg n
   	üks	0		P	sg n
Herg	####				
,	,			Z	
kelle	kes	0		P	pl g
     	kes	0		P	sg g
peale	pea	le		S	sg all
     	peale	0		D	
     	peale	0		K	
mitte	mitte	0		D	
nime	nimi	0		S	sg g
    	nimi	0		S	sg p
ei	ei	0		D	
  	ei	0		V	neg
panna	pand	0		S	sg g
     	pane	a		V	da
     	panna	0		S	sg g
     	panna	0		S	sg n
missugune	mis_sugune	0		P	sg n
,	,			Z	
ja	ja	0		J	
söödab	sööt	b		V	b
see	see	0		P	sg n
Herg	####				
kuni	kuni	0		J	
    	kuni	0		K	
kevadeni	kevad	ni		S	sg ter
        	kevade	ni		S	sg ter
1879	1879	0		N	?
a	a	0		Y	?
,	,			Z	
ja	ja	0		J	
siis	siis	0		D	
    	siis	0		J	
annab	and	b		V	b
kätte	kätte	0		K	
     	käsi	tte		S	adt
.	.			Z	
hobune	hobune	0		S	sg n
,	,			Z	
mis	mis	0		P	pl n
   	mis	0		P	sg n
Toomas	Toomas	0		H	sg n
      	Toomas	s		H	sg in
      	too	mas		V	mas
Toomson	####				
poea	####				
Hansule	Hans	le		H	sg all
on	ole	0		V	b
  	ole	0		V	vad
andnud	and	nud		V	nud
      	and=nu	d		S	pl n
      	and=nud	0		A	
      	and=nud	0		A	sg n
      	and=nud	d		A	pl n
,	,			Z	
annab	and	b		V	b
poeg	poeg	0		S	sg n
Hans	Hans	0		H	sg n
igale	iga	le		P	sg all
tagasi	tagasi	0		D	
      	tagasi	0		K	
.	.			Z	
Hans	Hans	0		H	sg n
Toomson	####				
leppis	leppi	s		V	s
seega	seega	0		D	
.	.			Z	
