kohtu	kohtu	0		V	o
     	kohus	0		S	sg g
ette	ette	0		D	
    	ette	0		K	
    	esi	tte		S	adt
astub	astu	b		V	b
:	:			Z	
nurme	nurm	0		S	adt
     	nurm	0		S	sg g
     	nurm	0		S	sg p
mõisa	mõis	0		S	sg g
sepa	sepp	0		S	sg g
tütar	tütar	0		S	sg n
Tiina	Tiina	0		H	sg g
     	Tiina	0		H	sg n
Simson	####				
ja	ja	0		J	
kaebab	kaeba	b		V	b
:	:			Z	
esimene	esimene	0		O	sg n
       	esimene	0		P	sg n
laada	laat	0		S	sg g
õhtu	õhtu	0		S	sg g
    	õhtu	0		S	sg n
kellu	kellu	0		S	sg g
     	kellu	0		S	sg n
8	8	0		N	?
küsis	küsi	s		V	s
üks	üks	0		N	sg n
   	üks	0		P	sg n
teekaja	tee_kaja	0		S	sg g
       	tee_kaja	0		S	sg n
       	tee_kaja	0		S	sg p
minu	mina	0		P	sg g
käest	käest	0		K	
     	käsi	st		S	sg el
et	et	0		J	
ma	mina	0		P	sg n
pidin	pida	in		V	sin
temale	tema	le		P	sg all
tuld	tuli	0		S	sg p
näitama	näita	ma		V	ma
,	,			Z	
ta	tema	0		P	sg g
  	tema	0		P	sg n
tahtis	taht	is		V	s
oma	oma	0		A	sg g
   	oma	0		D	
   	oma	0		P	sg g
   	oma	0		S	sg g
   	oma	0		V	o
   	oma	0		A	sg n
   	oma	0		A	sg p
   	oma	0		P	sg n
   	oma	0		P	sg p
   	oma	0		S	sg n
   	oma	0		S	sg p
mütsi	müts	0		S	adt
     	müts	0		S	sg g
     	müts	0		S	sg p
õue	õu	0		S	adt
   	õu	0		S	sg g
   	õue	0		D	
   	õu	0		S	sg p
otsima	otsi	ma		V	ma
,	,			Z	
ja	ja	0		J	
mina	mina	0		P	sg n
    	mina	0		S	sg g
    	mina	0		S	sg n
    	mina	0		S	sg p
näitasin	näita	sin		V	sin
temale	tema	le		P	sg all
tuld	tuli	0		S	sg p
ja	ja	0		J	
seisin	seis	in		V	sin
ise	ise	0		A	
   	ise	0		D	
   	ise	0		P	pl n
   	ise	0		P	sg n
kojas	koda	s		S	sg in
.	.			Z	
koraga	####				
lõi	loo	i		V	s
   	löö	i		V	s
mind	mina	d		P	sg p
üks	üks	0		N	sg n
   	üks	0		P	sg n
Rusalu	####				
valla	vald	0		S	sg g
     	valla	0		D	
mees	mees	0		S	sg n
    	mesi	s		S	sg in
Juhan	Juhan	0		H	sg n
metsas	mets	s		S	sg in
noaga	nuga	ga		S	sg kom
suure	suur	0		A	sg g
haava	haab	0		S	sg g
     	haav	0		S	adt
     	haav	0		S	sg g
     	haava	0		V	o
     	haav	0		S	sg p
pahemal	pahem	l		C	sg ad
pool	pool	0		K	
    	pool	0		N	sg n
    	pool	0		S	sg n
pea	pea	0		D	
   	pea	0		S	sg g
   	pida	0		V	o
   	pea	0		S	sg n
aju	aju	0		S	sg g
   	aju	0		V	o
   	aju	0		S	sg n
   	aju	0		S	sg p
kohta	koht	0		S	adt
     	kohta	0		K	
     	kohta	0		V	o
     	koht	0		S	sg p
.	.			Z	
nurme	nurm	0		S	adt
     	nurm	0		S	sg g
     	nurm	0		S	sg p
valla	vald	0		S	sg g
     	valla	0		D	
valitsus	valitsus	0		S	sg n
nägi	näge	i		V	s
ise	ise	0		A	
   	ise	0		D	
   	ise	0		P	pl n
   	ise	0		P	sg n
se	####				
haav	haav	0		S	sg n
.	.			Z	
see	see	0		P	sg n
haav	haav	0		S	sg n
teeb	tege	b		V	b
mull	mull	0		S	sg n
ühtepuhku	ühte_puhku	0		D	
suur	suur	0		A	sg n
valu	valu	0		S	sg g
    	valu	0		V	o
    	valu	0		S	sg n
    	valu	0		S	sg p
ja	ja	0		J	
minu	mina	0		P	sg g
pea	pea	0		D	
   	pea	0		S	sg g
   	pida	0		V	o
   	pea	0		S	sg n
valutab	valuta	b		V	b
sest	see	st		P	sg el
    	sest	0		J	
saadik	saadik	0		K	
      	saadik	0		S	sg n
keik	####				
.	.			Z	
tema	tema	0		P	sg g
    	tema	0		P	sg n
õde	õde	0		S	sg n
   	õde	0		S	sg p
Mari	Mari	0		H	sg g
    	mari	0		S	sg g
    	mari	0		S	sg n
    	Mari	0		H	sg n
    	mari	0		S	sg p
tunnistab	tunnista	b		V	b
et	et	0		J	
ta	tema	0		P	sg g
  	tema	0		P	sg n
on	ole	0		V	b
  	ole	0		V	vad
näinud	näi	nud		V	nud
      	näge	nud		V	nud
      	näi=nud	0		A	
      	näi=nud	0		A	sg n
      	näi=nud	d		A	pl n
      	näinu	d		S	pl n
kudas	####				
Juhan	Juhan	0		H	sg n
metsas	mets	s		S	sg in
tema	tema	0		P	sg g
    	tema	0		P	sg n
õde	õde	0		S	sg n
   	õde	0		S	sg p
noaga	nuga	ga		S	sg kom
löönud	löö	nud		V	nud
      	löö=nu	d		S	pl n
      	löö=nud	0		A	
      	löö=nud	0		A	sg n
      	löö=nud	d		A	pl n
ja	ja	0		J	
on	ole	0		V	b
  	ole	0		V	vad
ise	ise	0		A	
   	ise	0		D	
   	ise	0		P	pl n
   	ise	0		P	sg n
näinud	näi	nud		V	nud
      	näge	nud		V	nud
      	näi=nud	0		A	
      	näi=nud	0		A	sg n
      	näi=nud	d		A	pl n
      	näinu	d		S	pl n
kudas	####				
metsas	mets	s		S	sg in
nuga	nuga	0		S	sg n
    	nuga	0		S	sg p
taskus	tasku	s		S	sg in
välja	välja	0		D	
     	välja	0		V	o
     	väli	0		S	adt
     	väli	0		S	sg g
     	väli	0		S	sg p
võtnud	võt	nud		V	nud
      	võt=nu	d		S	pl n
      	võt=nud	0		A	
      	võt=nud	0		A	sg n
      	võt=nud	d		A	pl n
.	.			Z	
kohtu	kohtu	0		V	o
     	kohus	0		S	sg g
küsimise	küsimine	0		S	sg g
Juhan	Juhan	0		H	sg n
metsise	metsis	0		S	sg g
käest	käest	0		K	
     	käsi	st		S	sg el
:	:			Z	
kas	kas	0		D	
sa	sina	0		P	sg n
oled	ole	d		V	d
nurme	nurm	0		S	adt
     	nurm	0		S	sg g
     	nurm	0		S	sg p
Alevi	alev	0		S	sg g
sepa	sepp	0		S	sg g
tütar	tütar	0		S	sg n
löönud	löö	nud		V	nud
      	löö=nu	d		S	pl n
      	löö=nud	0		A	
      	löö=nud	0		A	sg n
      	löö=nud	d		A	pl n
?	?			Z	
vastab	vasta	b		V	b
metsas	mets	s		S	sg in
:	:			Z	
""""	""""			Z	
Miina	Miina	0		H	sg g
     	Miina	0		H	sg n
läksin	mine	sin		V	sin
Aleva	####				
sepa	sepp	0		S	sg g
juure	juur	0		S	sg g
sisse	siss	e		S	pl p
     	sisse	0		D	
     	sisse	0		K	
ja	ja	0		J	
need	see	d		P	pl n
müüsid	müü	sid		V	sid
seal	seal	0		D	
    	siga	l		A	sg ad
    	siga	l		S	sg ad
olud	olu	d		S	pl n
ja	ja	0		J	
mina	mina	0		P	sg n
    	mina	0		S	sg g
    	mina	0		S	sg n
    	mina	0		S	sg p
ostsin	ost	sin		V	sin
3	3	0		N	?
toopi	toop	0		S	adt
     	toop	0		S	sg p
ja	ja	0		J	
maksisin	####				
18	18	0		N	?
kop	kop	0		Y	?
.	.			Z	
siis	siis	0		D	
    	siis	0		J	
küsisin	küsi	sin		V	sin
mina	mina	0		P	sg n
    	mina	0		S	sg g
    	mina	0		S	sg n
    	mina	0		S	sg p
perenaise	pere_naine	0		S	sg g
käest	käest	0		K	
     	käsi	st		S	sg el
:	:			Z	
kas	kas	0		D	
on	ole	0		V	b
  	ole	0		V	vad
teil	sina	l		P	pl ad
    	tee	il		S	pl ad
ka	ka	0		D	
üks	üks	0		N	sg n
   	üks	0		P	sg n
tenpa	####				
et	et	0		J	
teil	sina	l		P	pl ad
    	tee	il		S	pl ad
luba	luba	0		S	sg n
    	luba	0		V	o
    	luba	0		S	sg p
on	ole	0		V	b
  	ole	0		V	vad
olud	olu	d		S	pl n
müüa	müü	a		V	da
?	?			Z	
seal	seal	0		D	
    	siga	l		A	sg ad
    	siga	l		S	sg ad
sai	saa	i		V	s
   	sai	0		S	sg n
tema	tema	0		P	sg g
    	tema	0		P	sg n
süda	süda	0		S	sg n
minu	mina	0		P	sg g
peal	pea	l		S	sg ad
    	peal	0		D	
    	peal	0		K	
täis	täi	s		S	sg in
    	täi	s		V	s
    	täis	0		A	
    	täis	0		A	sg n
    	täis	0		D	
    	täis	0		S	sg n
ja	ja	0		J	
ta	tema	0		P	sg g
  	tema	0		P	sg n
akas	####				
mind	mina	d		P	sg p
peksma	peks	ma		V	ma
ja	ja	0		J	
saatsivad	####				
mind	mina	d		P	sg p
õue	õu	0		S	adt
   	õu	0		S	sg g
   	õue	0		D	
   	õu	0		S	sg p
.	.			Z	
sealt	sealt	0		D	
     	siga	lt		A	sg abl
     	siga	lt		S	sg abl
pandsin	####				
mina	mina	0		P	sg n
    	mina	0		S	sg g
    	mina	0		S	sg n
    	mina	0		S	sg p
vastu	vastu	0		D	
     	vastu	0		K	
võtsin	võt	sin		V	sin
ühe	üks	0		N	sg g
   	üks	0		P	sg g
   	ühe	0		S	sg n
kivi	kivi	0		S	sg g
    	kivi	0		S	sg n
    	kivi	0		S	sg p
ja	ja	0		J	
lõin	loo	in		V	sin
    	löö	in		V	sin
kis	####				
mul	mina	l		P	sg ad
aga	aga	0		J	
vastu	vastu	0		D	
     	vastu	0		K	
tuli	tuli	0		S	sg n
    	tule	i		V	s
.	.			Z	
kohtu	kohtu	0		V	o
     	kohus	0		S	sg g
küsimise	küsimine	0		S	sg g
peal	pea	l		S	sg ad
    	peal	0		D	
    	peal	0		K	
:	:			Z	
kas	kas	0		D	
sul	sina	l		P	sg ad
ei	ei	0		D	
  	ei	0		V	neg
olnud	ol=nud	0		A	
     	ol=nud	0		A	sg n
     	ol=nud	d		A	pl n
     	ole	nud		V	nud
     	olnu	d		S	pl n
siis	siis	0		D	
    	siis	0		J	
nuga	nuga	0		S	sg n
    	nuga	0		S	sg p
käes	käes	0		K	
    	käsi	s		S	sg in
,	,			Z	
sest	see	st		P	sg el
    	sest	0		J	
need	see	d		P	pl n
haavad	haab	d		S	pl n
      	haav	d		S	pl n
      	haava	d		V	d
on	ole	0		V	b
  	ole	0		V	vad
sa	sina	0		P	sg n
noaga	nuga	ga		S	sg kom
löödud	löö	dud		V	tud
      	löödu	d		S	pl n
      	löödud	0		A	
      	löödud	0		A	sg n
      	löödud	d		A	pl n
ja	ja	0		J	
kas	kas	0		D	
sa	sina	0		P	sg n
kojas	koda	s		S	sg in
ei	ei	0		D	
  	ei	0		V	neg
teinud	tege	nud		V	nud
      	tei=nud	0		A	
      	tei=nud	0		A	sg n
      	tei=nud	d		A	pl n
      	teinu	d		S	pl n
tüli	tüli	0		S	sg g
    	tüli	0		S	sg n
    	tüli	0		S	sg p
;	;			Z	
vastab	vasta	b		V	b
metsas	mets	s		S	sg in
:	:			Z	
""""	""""			Z	
ei	ei	0		D	
  	ei	0		V	neg
mul	mina	l		P	sg ad
ei	ei	0		D	
  	ei	0		V	neg
olnud	ol=nud	0		A	
     	ol=nud	0		A	sg n
     	ol=nud	d		A	pl n
     	ole	nud		V	nud
     	olnu	d		S	pl n
nuga	nuga	0		S	sg n
    	nuga	0		S	sg p
ja	ja	0		J	
mu	mina	0		P	sg g
kohal	koht	l		S	sg ad
     	koha	l		S	sg ad
     	kohal	0		D	
     	kohal	0		K	
ei	ei	0		D	
  	ei	0		V	neg
riielnud	riidle	nud		V	nud
        	riiel=nu	d		S	pl n
        	riiel=nud	0		A	
        	riiel=nud	0		A	sg n
        	riiel=nud	d		A	pl n
.	.			Z	
Tiina	Tiina	0		H	sg g
     	Tiina	0		H	sg n
Simsoni	####				
käest	käest	0		K	
     	käsi	st		S	sg el
saab	saa	b		V	b
küsitud	küsi	tud		V	tud
       	küsi=tu	d		S	pl n
       	küsi=tud	0		A	
       	küsi=tud	0		A	sg n
       	küsi=tud	d		A	pl n
:	:			Z	
kas	kas	0		D	
teie	sina	0		P	pl g
    	sina	0		P	pl n
müüside	####				
siis	siis	0		D	
    	siis	0		J	
olud	olu	d		S	pl n
?	?			Z	
meil	meil	0		S	sg n
    	mina	l		P	pl ad
oli	ole	i		V	s
tuppa	tuba	0		S	adt
täis	täi	s		S	sg in
    	täi	s		V	s
    	täis	0		A	
    	täis	0		A	sg n
    	täis	0		D	
    	täis	0		S	sg n
rahvas	rahvas	0		S	sg n
      	rahvas	s		S	sg in
.	.			Z	
kes	kes	0		P	pl n
   	kes	0		P	sg n
meie	mina	0		P	pl g
    	mina	0		P	pl n
juures	juur	s		S	sg in
      	juures	0		D	
      	juures	0		K	
õe	õe	0		I	
  	õde	0		S	sg g
majas	maja	s		S	sg in
olid	ole	id		V	sid
.	.			Z	
meil	meil	0		S	sg n
    	mina	l		P	pl ad
oli	ole	i		V	s
werske	####				
kalja	kali	0		S	adt
     	kali	0		S	sg g
     	kali	0		S	sg p
tehtud	tehtu	d		S	pl n
      	tehtud	0		A	
      	tehtud	0		A	sg n
      	tehtud	d		A	pl n
      	tege	tud		V	tud
ja	ja	0		J	
sai	saa	i		V	s
   	sai	0		S	sg n
mõnedel	mõni	del		P	pl ad
antud	an=tu	d		S	pl n
     	and	tud		V	tud
     	antud	0		A	
     	antud	0		A	sg n
     	antud	d		A	pl n
;	;			Z	
raha	raha	0		S	sg g
    	raha	0		S	sg n
    	raha	0		S	sg p
sai	saa	i		V	s
   	sai	0		S	sg n
meie	mina	0		P	pl g
    	mina	0		P	pl n
käest	käest	0		K	
     	käsi	st		S	sg el
mitte	mitte	0		D	
küsitud	küsi	tud		V	tud
       	küsi=tu	d		S	pl n
       	küsi=tud	0		A	
       	küsi=tud	0		A	sg n
       	küsi=tud	d		A	pl n
.	.			Z	
mõned	mõni	d		P	pl n
on	ole	0		V	b
  	ole	0		V	vad
emale	ema	le		S	sg all
kül	####				
mõned	mõni	d		P	pl n
kop	kop	0		Y	?
priitahtlikult	prii_tahtlik	lt		A	sg abl
              	prii_tahtlikult	0		D	
maksnud	maks	nud		V	nud
       	maks=nu	d		S	pl n
       	maks=nud	0		A	
       	maks=nud	0		A	sg n
       	maks=nud	d		A	pl n
.	.			Z	
Tirjutu	####				
peremees	pere_mees	0		S	sg n
Jaan	Jaan	0		H	sg n
    	jaan	0		S	sg n
    	jaan	0		Y	?
Lenros	####				
ja	ja	0		J	
ta	tema	0		P	sg g
  	tema	0		P	sg n
sulane	sulane	0		S	sg n
      	sulane	0		V	o
Kustas	Kusta	s		H	sg in
      	Kustas	0		H	sg n
võivad	või	vad		V	vad
      	võiv	d		A	pl n
seda	see	da		P	sg p
ka	ka	0		D	
tunnistada	tunnista	da		V	da
.	.			Z	
2.	2.	0		O	?
Priidik	####				
Siirmann	####				
Sonistis	####				
ja	ja	0		J	
tema	tema	0		P	sg g
    	tema	0		P	sg n
vend	vend	0		S	sg n
Jacob	Jacob	0		H	sg n
ei	ei	0		D	
  	ei	0		V	neg
tulnud	tul=nud	0		A	
      	tul=nud	0		A	sg n
      	tul=nud	d		A	pl n
      	tule	nud		V	nud
      	tulnu	d		S	pl n
kohtu	kohtu	0		V	o
     	kohus	0		S	sg g
ja	ja	0		J	
Siirmani	####				
kaebus	kaebus	0		S	sg n
mis_ta	####				
nurme	nurm	0		S	adt
     	nurm	0		S	sg g
     	nurm	0		S	sg p
valla	vald	0		S	sg g
     	valla	0		D	
talitajale	talitaja	le		S	sg all
on	ole	0		V	b
  	ole	0		V	vad
üles	üles	0		D	
kirjutanud	kirjuta	nud		V	nud
          	kirjutanu	d		S	pl n
          	kirjutanud	0		A	
          	kirjutanud	0		A	sg n
          	kirjutanud	d		A	pl n
saab	saa	b		V	b
ette	ette	0		D	
    	ette	0		K	
    	esi	tte		S	adt
loetud	loetu	d		S	pl n
      	loetud	0		A	
      	loetud	0		A	sg n
      	loetud	d		A	pl n
      	luge	tud		V	tud
.	.			Z	
Jacob	Jacob	0		H	sg n
Siirman	####				
kaebab	kaeba	b		V	b
:	:			Z	
Miina	Miina	0		H	sg g
     	Miina	0		H	sg n
olen	ole	n		V	n
esimise	####				
laada	laat	0		S	sg g
päeva	päev	0		S	adt
     	päev	0		S	sg g
     	päev	0		S	sg p
õhtu	õhtu	0		S	sg g
    	õhtu	0		S	sg n
oma	oma	0		A	sg g
   	oma	0		D	
   	oma	0		P	sg g
   	oma	0		S	sg g
   	oma	0		V	o
   	oma	0		A	sg n
   	oma	0		A	sg p
   	oma	0		P	sg n
   	oma	0		P	sg p
   	oma	0		S	sg n
   	oma	0		S	sg p
venaga	####				
Kustasega	Kustas	ga		H	sg kom
nurme	nurm	0		S	adt
     	nurm	0		S	sg g
     	nurm	0		S	sg p
Aleval	####				
õemajal	õe_maja	l		S	sg ad
.	.			Z	
ja	ja	0		J	
akkasin	####				
õhtu	õhtu	0		S	sg g
    	õhtu	0		S	sg n
sööma	söö	ma		V	ma
     	sööm	0		S	adt
     	sööm	0		S	sg g
     	sööm	0		S	sg p
ja	ja	0		J	
siis	siis	0		D	
    	siis	0		J	
oli	ole	i		V	s
kisa	kisa	0		S	sg g
    	kisa	0		V	o
    	kisa	0		S	sg n
    	kisa	0		S	sg p
väljas	välja	s		V	s
      	väli	s		S	sg in
      	väljas	0		D	
ja	ja	0		J	
üks	üks	0		N	sg n
   	üks	0		P	sg n
mees	mees	0		S	sg n
    	mesi	s		S	sg in
tuli	tuli	0		S	sg n
    	tule	i		V	s
kambri	kamber	0		S	sg g
abi	abi	0		S	sg g
   	abi	0		S	sg n
   	abi	0		S	sg p
hüüdma	hüüd	ma		V	ma
ja	ja	0		J	
meie	mina	0		P	pl g
    	mina	0		P	pl n
läksime	mine	sime		V	sime
välja	välja	0		D	
     	välja	0		V	o
     	väli	0		S	adt
     	väli	0		S	sg g
     	väli	0		S	sg p
vaatama	vaata	ma		V	ma
ja	ja	0		J	
siis	siis	0		D	
    	siis	0		J	
ei	ei	0		D	
  	ei	0		V	neg
olnud	ol=nud	0		A	
     	ol=nud	0		A	sg n
     	ol=nud	d		A	pl n
     	ole	nud		V	nud
     	olnu	d		S	pl n
väljas	välja	s		V	s
      	väli	s		S	sg in
      	väljas	0		D	
ühtegi	ühte	0	gi	D	
      	üks	0	gi	N	adt
      	üks	0	gi	P	adt
      	ühe	0	gi	S	sg g
      	üks	0	gi	N	sg p
      	üks	0	gi	P	sg p
näha	näge	a		V	da
.	.			Z	
meie	mina	0		P	pl g
    	mina	0		P	pl n
pidime	pida	ime		V	sime
tuppa	tuba	0		S	adt
tagasi	tagasi	0		D	
      	tagasi	0		K	
mina	mina	0		P	sg n
    	mina	0		S	sg g
    	mina	0		S	sg n
    	mina	0		S	sg p
siis	siis	0		D	
    	siis	0		J	
mind	mina	d		P	sg p
kõraga	####				
metsas	mets	s		S	sg in
lõi	loo	i		V	s
   	löö	i		V	s
ja	ja	0		J	
ma	mina	0		P	sg n
kukkusin	kukku	sin		V	sin
maha	maha	0		D	
ja	ja	0		J	
minu	mina	0		P	sg g
vend	vend	0		S	sg n
Kustas	Kusta	s		H	sg in
      	Kustas	0		H	sg n
tõmbas	tõmba	s		V	s
mind	mina	d		P	sg p
üles	üles	0		D	
.	.			Z	
ja	ja	0		J	
siis	siis	0		D	
    	siis	0		J	
lõi	loo	i		V	s
   	löö	i		V	s
mind	mina	d		P	sg p
metsas	mets	s		S	sg in
noaga	nuga	ga		S	sg kom
teise	teine	0		O	adt
     	teine	0		O	sg g
     	teine	0		P	adt
     	teine	0		P	sg g
hoopi	hoop	0		S	adt
     	hoop	0		S	sg p
kõrvast	kõrv	st		S	sg el
       	kõrvane	t		S	sg p
läbi	läbi	0		D	
    	läbi	0		K	
    	läbi	0		V	o
kaela	kael	0		S	adt
     	kael	0		S	sg g
     	kaela	0		K	
     	kael	0		S	sg p
sisse	siss	e		S	pl p
     	sisse	0		D	
     	sisse	0		K	
.	.			Z	
protokoll	protokoll	0		S	sg n
sai	saa	i		V	s
   	sai	0		S	sg n
haakenrihteri	####				
juure	juur	0		S	sg g
saadetud	saat	tud		V	tud
        	saade=tu	d		S	pl n
        	saadetud	0		A	
        	saadetud	0		A	sg n
        	saadetud	d		A	pl n
.	.			Z	
kohtu	kohtu	0		V	o
     	kohus	0		S	sg g
peavanem	pea_vanem	0		C	sg n
        	pea_vanem	0		S	sg n
Mart	Mart	0		H	sg n
    	mart	0		S	sg n
Meinvald	####				
XXX	XXX	0		O	?
   	XXX	0		Y	?
kõrva	kõrv	0		S	adt
     	kõrv	0		S	sg g
     	kõrv	0		S	sg p
mehed	mees	d		S	pl n
Jaan	Jaan	0		H	sg n
    	jaan	0		S	sg n
    	jaan	0		Y	?
Aru	aru	0		S	sg g
   	aru	0		S	sg n
   	aru	0		S	sg p
XXX	XXX	0		O	?
   	XXX	0		Y	?
Tõnu	Tõnu	0		H	sg g
    	Tõnu	0		H	sg n
Leismann	####				
XXX	XXX	0		O	?
   	XXX	0		Y	?
kirjutaja	kirjutaja	0		S	sg g
         	kirjutaja	0		S	sg n
s	s	0		Y	?
.	.			Z	
Mathiesen	####				
[	[			Z	
allkiri	all_kiri	0		S	sg n
]	]			Z	
