Herküla	####				
valla	vald	0		S	sg g
     	valla	0		D	
kohtumajasse	kohtu_maja	sse		S	sg ill
olid	ole	id		V	sid
kohtu	kohtu	0		V	o
     	kohus	0		S	sg g
kor	####				
pärast	pära	st		S	sg el
      	pärane	t		A	sg p
      	pärast	0		D	
      	pärast	0		K	
kokku	kokku	0		D	
     	kogu	0		S	adt
tulnud	tul=nud	0		A	
      	tul=nud	0		A	sg n
      	tul=nud	d		A	pl n
      	tule	nud		V	nud
      	tulnu	d		S	pl n
ja	ja	0		J	
istusid	ist	sid		S	pl p
       	istu	sid		V	sid
kohtu	kohtu	0		V	o
     	kohus	0		S	sg g
laua	laud	0		S	sg g
ääres	äär	s		S	sg in
     	ääres	0		K	
:	:			Z	
kog	####				
.	.			Z	
kohtu	kohtu	0		V	o
     	kohus	0		S	sg g
vanem	vanem	0		C	sg n
     	vanem	0		S	sg n
Juhan	Juhan	0		H	sg n
kõrv	kõrv	0		S	sg n
""""	""""			Z	
""""	""""			Z	
kõrvamees	kõrva_mees	0		S	sg n
Jüri	Jüri	0		H	sg g
    	Jüri	0		H	sg n
tein	####				
""""	""""			Z	
""""	""""			Z	
""""	""""			Z	
Toomas	Toomas	0		H	sg n
      	Toomas	s		H	sg in
      	too	mas		V	mas
Matson	####				
Mart	Mart	0		H	sg n
    	mart	0		S	sg n
Münder	####				
kaebas	kaeba	s		V	s
,	,			Z	
et	et	0		J	
Jüri	Jüri	0		H	sg g
    	Jüri	0		H	sg n
Kurg	kurg	0		S	sg n
on	ole	0		V	b
  	ole	0		V	vad
tema	tema	0		P	sg g
    	tema	0		P	sg n
kartulikoti	kartuli_kott	0		S	sg g
keldrist	kelder	st		S	sg el
välja	välja	0		D	
     	välja	0		V	o
     	väli	0		S	adt
     	väli	0		S	sg g
     	väli	0		S	sg p
viskanud	####				
ilma	ilm	0		S	adt
    	ilm	0		S	sg g
    	ilma	0		D	
    	ilma	0		K	
    	ilm	0		S	sg p
,	,			Z	
et	et	0		J	
Mart	Mart	0		H	sg n
    	mart	0		S	sg n
Münder	####				
seda	see	da		P	sg p
teadnud	tead	nud		V	nud
       	tead=nu	d		S	pl n
       	tead=nud	0		A	
       	tead=nud	0		A	sg n
       	tead=nud	d		A	pl n
ja	ja	0		J	
omad	oma	d		A	pl n
    	oma	d		P	pl n
    	oma	d		S	pl n
    	oma	d		V	d
sisse	siss	e		S	pl p
     	sisse	0		D	
     	sisse	0		K	
panud	####				
.	.			Z	
Kelder	kelder	0		S	sg n
aga	aga	0		J	
on	ole	0		V	b
  	ole	0		V	vad
Mart	Mart	0		H	sg n
    	mart	0		S	sg n
mündri	####				
rentitud	####				
ma	mina	0		P	sg n
peal	pea	l		S	sg ad
    	peal	0		D	
    	peal	0		K	
.	.			Z	
Jüri	Jüri	0		H	sg g
    	Jüri	0		H	sg n
Kurg	kurg	0		S	sg n
vaidles	vaidle	s		V	s
,	,			Z	
et	et	0		J	
tema	tema	0		P	sg g
    	tema	0		P	sg n
on	ole	0		V	b
  	ole	0		V	vad
keldre	####				
parandanud	paranda	nud		V	nud
          	paranda=nu	d		S	pl n
          	paranda=nud	0		A	
          	paranda=nud	0		A	sg n
          	paranda=nud	d		A	pl n
nelja	neli	0		N	adt
     	neli	0		N	sg g
     	neli	0		N	sg p
aasta	aasta	0		S	sg g
     	aasta	0		S	sg n
eest	eest	0		D	
    	eest	0		K	
    	esi	st		S	sg el
.	.			Z	
selle	see	0		P	sg g
     	sell	e		S	pl p
eest	eest	0		D	
    	eest	0		K	
    	esi	st		S	sg el
oli	ole	i		V	s
kartulid	kartul	d		S	pl n
Jüri	Jüri	0		H	sg g
    	Jüri	0		H	sg n
Kurgel	####				
neli	neli	0		N	sg n
aastat	aasta	t		S	sg p
sees	sees	0		D	
    	sees	0		K	
olnud	ol=nud	0		A	
     	ol=nud	0		A	sg n
     	ol=nud	d		A	pl n
     	ole	nud		V	nud
     	olnu	d		S	pl n
ja	ja	0		J	
kohtu	kohtu	0		V	o
     	kohus	0		S	sg g
kõrvamees	kõrva_mees	0		S	sg n
Toomas	Toomas	0		H	sg n
      	Toomas	s		H	sg in
      	too	mas		V	mas
Matson	####				
oli	ole	i		V	s
Mart	Mart	0		H	sg n
    	mart	0		S	sg n
mündri	####				
kätte	kätte	0		K	
     	käsi	tte		S	adt
ma	mina	0		P	sg n
rentinud	renti	nud		V	nud
        	renti=nu	d		S	pl n
        	renti=nud	0		A	
        	renti=nud	0		A	sg n
        	renti=nud	d		A	pl n
ja	ja	0		J	
ka	ka	0		D	
keldri	kelder	0		S	sg g
lubanud	luba	nud		V	nud
       	luba=nu	d		S	pl n
       	luba=nud	0		A	
       	luba=nud	0		A	sg n
       	luba=nud	d		A	pl n
.	.			Z	
kohus	kohu	s		V	s
     	kohus	0		S	sg n
mõistis	mõist	is		V	s
,	,			Z	
et	et	0		J	
Jüri	Jüri	0		H	sg g
    	Jüri	0		H	sg n
Kurg	kurg	0		S	sg n
peab	pida	b		V	b
oma	oma	0		A	sg g
   	oma	0		D	
   	oma	0		P	sg g
   	oma	0		S	sg g
   	oma	0		V	o
   	oma	0		A	sg n
   	oma	0		A	sg p
   	oma	0		P	sg n
   	oma	0		P	sg p
   	oma	0		S	sg n
   	oma	0		S	sg p
kartulid	kartul	d		S	pl n
keldrist	kelder	st		S	sg el
välja	välja	0		D	
     	välja	0		V	o
     	väli	0		S	adt
     	väli	0		S	sg g
     	väli	0		S	sg p
võtma	võt	ma		V	ma
a	a	0		Y	?
50	50	0		N	?
kop	kop	0		Y	?
trahvi	trahv	0		S	adt
      	trahv	0		S	sg g
      	trahvi	0		V	o
      	trahv	0		S	sg p
maksma	maks	ma		V	ma
valla	vald	0		S	sg g
     	valla	0		D	
laekasse	laegas	sse		S	sg ill
,	,			Z	
et	et	0		J	
oma	oma	0		A	sg g
   	oma	0		D	
   	oma	0		P	sg g
   	oma	0		S	sg g
   	oma	0		V	o
   	oma	0		A	sg n
   	oma	0		A	sg p
   	oma	0		P	sg n
   	oma	0		P	sg p
   	oma	0		S	sg n
   	oma	0		S	sg p
loaga	luba	ga		S	sg kom
     	luga	ga		S	sg kom
kartuled	####				
keldres	####				
pannud	pan=nu	d		S	pl n
      	pan=nud	0		A	
      	pan=nud	0		A	sg n
      	pan=nud	d		A	pl n
      	pane	nud		V	nud
ja	ja	0		J	
Mart	Mart	0		H	sg n
    	mart	0		S	sg n
mündril	####				
välja	välja	0		D	
     	välja	0		V	o
     	väli	0		S	adt
     	väli	0		S	sg g
     	väli	0		S	sg p
viskanud	####				
.	.			Z	
Anna	and	0		V	o
    	Anna	0		H	sg g
    	Anna	0		H	sg n
    	anna	0		S	sg g
    	anna	0		S	sg n
Sarv	sarv	0		S	sg n
kaebas	kaeba	s		V	s
,	,			Z	
et	et	0		J	
mõisa	mõis	0		S	sg g
hobuste	hobune	te		S	pl g
karjane	karjane	0		S	sg n
on	ole	0		V	b
  	ole	0		V	vad
mõisa	mõis	0		S	sg g
hobused	hobune	d		S	pl n
lasknud	lask	nud		V	nud
       	lask=nu	d		S	pl n
       	lask=nud	0		A	
       	lask=nud	0		A	sg n
       	lask=nud	d		A	pl n
temal	tema	l		P	sg ad
2	2	0		N	?
koormat	koorem	t		S	sg p
rukkid	rukis	d		S	pl n
üsna	üsna	0		D	
ära	ära	0		D	
   	ära	0		V	neg o
sasinud	sasi	nud		V	nud
       	sasi=nu	d		S	pl n
       	sasi=nud	0		A	
       	sasi=nud	0		A	sg n
       	sasi=nud	d		A	pl n
,	,			Z	
jääb	jää	b		V	b
teiseks	teine	ks		O	sg tr
       	teine	ks		P	sg tr
       	teiseks	0		D	
kohtupäevaks	kohtu_päev	ks		S	sg tr
.	.			Z	
kogukonna	kogukond	0		S	sg g
kohtu	kohtu	0		V	o
     	kohus	0		S	sg g
vanem	vanem	0		C	sg n
     	vanem	0		S	sg n
Juhan	Juhan	0		H	sg n
kõrv	kõrv	0		S	sg n
+	+			Z	
+	+			Z	
+	+			Z	
""""	""""			Z	
""""	""""			Z	
kõrvamees	kõrva_mees	0		S	sg n
Jüri	Jüri	0		H	sg g
    	Jüri	0		H	sg n
tein	####				
+	+			Z	
+	+			Z	
+	+			Z	
""""	""""			Z	
""""	""""			Z	
""""	""""			Z	
Toomas	Toomas	0		H	sg n
      	Toomas	s		H	sg in
      	too	mas		V	mas
Matson	####				
+	+			Z	
+	+			Z	
+	+			Z	
kirjutaja	kirjutaja	0		S	sg g
         	kirjutaja	0		S	sg n
Matjas	matja	s		S	sg in
Martin	Martin	0		H	sg n
