2.	2.	0		O	?
kaebaja	kaebaja	0		S	sg g
       	kaebaja	0		S	sg n
naine	naine	0		S	sg n
Mari	Mari	0		H	sg g
    	mari	0		S	sg g
    	mari	0		S	sg n
    	Mari	0		H	sg n
    	mari	0		S	sg p
Katkumäe	katku_mägi	0		S	sg g
ütleb	ütle	b		V	b
:	:			Z	
et	et	0		J	
Leenu	Leenu	0		H	sg g
     	Leenu	0		H	sg n
Hallik	hallik	0		S	sg n
on	ole	0		V	b
  	ole	0		V	vad
teda	tema	da		P	sg p
peksnud	peks	nud		V	nud
       	peks=nu	d		S	pl n
       	peks=nud	0		A	
       	peks=nud	0		A	sg n
       	peks=nud	d		A	pl n
selle	see	0		P	sg g
     	sell	e		S	pl p
pärast	pära	st		S	sg el
      	pärane	t		A	sg p
      	pärast	0		D	
      	pärast	0		K	
et	et	0		J	
ta	tema	0		P	sg g
  	tema	0		P	sg n
on	ole	0		V	b
  	ole	0		V	vad
pidanud	pida	nud		V	nud
       	pida=nu	d		S	pl n
       	pida=nud	0		A	
       	pida=nud	0		A	sg n
       	pida=nud	d		A	pl n
tema	tema	0		P	sg g
    	tema	0		P	sg n
lama	lama	0		V	o
ära	ära	0		D	
   	ära	0		V	neg o
noidunud	####				
,	,			Z	
ja	ja	0		J	
lammas	lammas	0		S	sg n
on	ole	0		V	b
  	ole	0		V	vad
ära	ära	0		D	
   	ära	0		V	neg o
surnud	surnu	d		S	pl n
      	surnud	0		A	
      	surnud	0		A	sg n
      	surnud	d		A	pl n
      	sure	nud		V	nud
.	.			Z	
kaebatav	####				
naine	naine	0		S	sg n
Leenu	Leenu	0		H	sg g
     	Leenu	0		H	sg n
Hallik	hallik	0		S	sg n
ütleb	ütle	b		V	b
:	:			Z	
et	et	0		J	
tema	tema	0		P	sg g
    	tema	0		P	sg n
on	ole	0		V	b
  	ole	0		V	vad
ühe	üks	0		N	sg g
   	üks	0		P	sg g
   	ühe	0		S	sg n
korra	kord	0		S	sg g
löönud	löö	nud		V	nud
      	löö=nu	d		S	pl n
      	löö=nud	0		A	
      	löö=nud	0		A	sg n
      	löö=nud	d		A	pl n
,	,			Z	
se	####				
pärast	pära	st		S	sg el
      	pärane	t		A	sg p
      	pärast	0		D	
      	pärast	0		K	
et	et	0		J	
se	####				
Mari	Mari	0		H	sg g
    	mari	0		S	sg g
    	mari	0		S	sg n
    	Mari	0		H	sg n
    	mari	0		S	sg p
Katkumäe	katku_mägi	0		S	sg g
on	ole	0		V	b
  	ole	0		V	vad
teda	tema	da		P	sg p
sõimanud	sõima	nud		V	nud
        	sõima=nu	d		S	pl n
        	sõima=nud	0		A	
        	sõima=nud	0		A	sg n
        	sõima=nud	d		A	pl n
.	.			Z	
kohus	kohu	s		V	s
     	kohus	0		S	sg n
mõistis	mõist	is		V	s
et	et	0		J	
se	####				
Leenu	Leenu	0		H	sg g
     	Leenu	0		H	sg n
Hallik	hallik	0		S	sg n
istub	istu	b		V	b
üks	üks	0		N	sg n
   	üks	0		P	sg n
päeva	päev	0		S	adt
     	päev	0		S	sg g
     	päev	0		S	sg p
vangi	vang	0		S	adt
     	vang	0		S	sg g
     	vang	0		S	sg p
puuris	puur	s		S	sg in
      	puuri	s		V	s
selle	see	0		P	sg g
     	sell	e		S	pl p
löömise	löömine	0		S	sg g
eest	eest	0		D	
    	eest	0		K	
    	esi	st		S	sg el
.	.			Z	
mõistus	mõistus	0		S	sg n
täidetud	täit	tud		V	tud
        	täide=tu	d		S	pl n
        	täide=tud	0		A	
        	täide=tud	0		A	sg n
        	täide=tud	d		A	pl n
sel	see	l		P	sg ad
   	sel	0		Y	?
8.	8.	0		O	?
mai	mai	0		S	sg g
   	mai	0		S	sg n
1881.	1881.	0		O	?
allakirjutanud	alla_kirjutanu	d		S	pl n
              	alla_kirjutanud	0		A	
              	alla_kirjutanud	0		A	sg n
              	alla_kirjutanud	d		A	pl n
kohtuvanem	kohtu_vanem	0		C	sg n
          	kohtu_vanem	0		S	sg n
Jaan	Jaan	0		H	sg n
    	jaan	0		S	sg n
    	jaan	0		Y	?
Avam	####				
kõrvamehed	kõrva_mees	d		S	pl n
Hans	Hans	0		H	sg n
Avam	####				
Johannes	Johannes	0		H	sg n
        	Johann	es		H	pl in
nairismäe	####				
kirjutaja	kirjutaja	0		S	sg g
         	kirjutaja	0		S	sg n
rovi	####				
