kohtu	kohtu	0		V	o
     	kohus	0		S	sg g
ette	ette	0		D	
    	ette	0		K	
    	esi	tte		S	adt
sai	saa	i		V	s
   	sai	0		S	sg n
toodud	too	dud		V	tud
      	toodu	d		S	pl n
      	toodud	0		A	
      	toodud	0		A	sg n
      	toodud	d		A	pl n
Mik	####				
Tuttenpal	####				
et	et	0		J	
temal	tema	l		P	sg ad
olid	ole	id		V	sid
pearaha	pea_raha	0		S	sg g
       	pea_raha	0		S	sg n
       	pea_raha	0		S	sg p
võlgu	võlg	u		S	pl p
     	võlgu	0		D	
ja	ja	0		J	
kooli	kool	i		S	pl p
     	kool	0		S	adt
     	kool	0		S	sg g
     	kool	0		S	sg p
päevade	päev	de		S	pl g
trahv	trahv	0		S	sg n
.	.			Z	
kohus	kohu	s		V	s
     	kohus	0		S	sg n
mõistis	mõist	is		V	s
temale	tema	le		P	sg all
ta	tema	0		P	sg g
  	tema	0		P	sg n
vale	vale	0		A	sg g
    	vale	0		A	sg n
    	vale	0		S	sg g
    	vale	0		S	sg n
ja	ja	0		J	
petuse	####				
eest	eest	0		D	
    	eest	0		K	
    	esi	st		S	sg el
20	20	0		N	?
vitsa	vits	0		S	adt
     	vits	0		S	sg g
     	vits	0		S	sg p
hoopi	hoop	0		S	adt
     	hoop	0		S	sg p
.	.			Z	
(	(			Z	
on	ole	0		V	b
  	ole	0		V	vad
täidetud	täit	tud		V	tud
        	täide=tu	d		S	pl n
        	täide=tud	0		A	
        	täide=tud	0		A	sg n
        	täide=tud	d		A	pl n
.	.			Z	
)	)			Z	
