Tuhat	tuhat	0		N	sg n
     	tuhat	0		N	sg p
üheksa	üheksa	0		N	sg g
      	üheksa	0		N	sg n
saada	saa	da		V	da
     	saat	0		V	o
     	saa	da		V	ta
kolmandamal	####				
aastal	aasta	l		S	sg ad
Mai	Mai	0		H	sg g
   	Mai	0		H	sg n
   	mai	0		S	sg g
   	mai	0		S	sg n
kuu	kuu	0		S	sg g
   	kuu	0		S	sg n
üheksateistkümnendamal	####				
päeval	päev	l		S	sg ad
ilmusivad	####				
Kaiu	Kaiu	0		H	sg g
    	Kaiu	0		H	sg n
valla	vald	0		S	sg g
     	valla	0		D	
kohtu	kohtu	0		V	o
     	kohus	0		S	sg g
ette	ette	0		D	
    	ette	0		K	
    	esi	tte		S	adt
Kaiu	Kaiu	0		H	sg g
    	Kaiu	0		H	sg n
valla	vald	0		S	sg g
     	valla	0		D	
talupoeg	talu_poeg	0		S	sg n
Hindrek	####				
Vilosius	Vilosius	0		H	sg n
ja	ja	0		J	
Vahastu	####				
valla	vald	0		S	sg g
     	valla	0		D	
talupoeg	talu_poeg	0		S	sg n
Mart	Mart	0		H	sg n
    	mart	0		S	sg n
Rand	rand	0		S	sg n
ja	ja	0		J	
palusivad	####				
järgmist	järgmine	t		A	sg p
asja	asi	0		S	adt
    	asi	0		S	sg g
    	asi	0		S	sg p
kohtu	kohtu	0		V	o
     	kohus	0		S	sg g
akti	akt	0		S	adt
    	akt	0		S	sg g
    	akt	0		S	sg p
raamatu	raamat	0		S	sg g
üles	üles	0		D	
võtta	võt	a		V	da
.	.			Z	
Miinule	####				
Hans	Hans	0		H	sg n
Viloisiustele	####				
,	,			Z	
teeb	tege	b		V	b
Mart	Mart	0		H	sg n
    	mart	0		S	sg n
Rand	rand	0		S	sg n
rehepeksu	rehe_peks	0		S	adt
         	rehe_peks	0		S	sg g
         	rehe_peks	0		S	sg p
masina	masin	0		S	sg g
kõik	kõik	0		P	pl n
    	kõik	0		S	sg n
    	kõik	0		P	sg n
oma	oma	0		A	sg g
   	oma	0		D	
   	oma	0		P	sg g
   	oma	0		S	sg g
   	oma	0		V	o
   	oma	0		A	sg n
   	oma	0		A	sg p
   	oma	0		P	sg n
   	oma	0		P	sg p
   	oma	0		S	sg n
   	oma	0		S	sg p
materjalist	materjal	st		S	sg el
olgu	ole	gu		V	gu
see	see	0		P	sg n
puu	puu	0		S	sg g
   	puu	0		S	sg n
või	või	0		S	sg g
   	või	0		V	o
   	või	0		D	
   	või	0		J	
   	või	0		S	sg n
raud	raud	0		S	sg n
ja	ja	0		J	
saab	saa	b		V	b
siis	siis	0		D	
    	siis	0		J	
saada	saa	da		V	da
     	saat	0		V	o
     	saa	da		V	ta
/	/			Z	
100	100	0		N	?
/	/			Z	
rubla	rubla	0		S	sg g
     	rubla	0		S	sg n
     	rubla	0		S	sg p
.	.			Z	
Ross	####				
värg	####				
saab	saa	b		V	b
puust	puu	st		S	sg el
     	puune	t		A	sg p
tehtud	tehtu	d		S	pl n
      	tehtud	0		A	
      	tehtud	0		A	sg n
      	tehtud	d		A	pl n
      	tege	tud		V	tud
ja	ja	0		J	
maas	maa	s		S	sg in
    	maas	0		D	
käima	käi	ma		V	ma
     	käim	0		S	adt
     	käim	0		S	sg g
     	käim	0		S	sg p
,	,			Z	
kui	kui	0		D	
   	kui	0		J	
kolme	kolm	0		N	adt
     	kolm	0		N	sg g
     	kolm	0		N	sg p
hobuse	hobune	0		S	sg g
jõud	jõud	0		S	sg n
    	jõud	d		S	pl n
tarvis	tarvis	0		D	
      	tarvis	0		K	
läheb	mine	b		V	b
.	.			Z	
töö	töö	0		S	sg g
   	töö	0		S	sg n
peab	pida	b		V	b
kõigis	kõik	s		P	pl in
tükkis	tükki	s		V	s
      	tükkis	0		A	
      	tükkis	0		D	
      	tükkis	0		K	
hea	hea	0		A	sg g
   	hea	0		A	sg n
   	hea	0		S	sg g
   	hea	0		S	sg n
olma	####				
ja	ja	0		J	
enne	enne	0		D	
    	enne	0		K	
    	enne	0		S	sg n
töö	töö	0		S	sg g
   	töö	0		S	sg n
,	,			Z	
või	või	0		S	sg g
   	või	0		V	o
   	või	0		D	
   	või	0		J	
   	või	0		S	sg n
masina	masin	0		S	sg g
raha	raha	0		S	sg g
    	raha	0		S	sg n
    	raha	0		S	sg p
ei	ei	0		D	
  	ei	0		V	neg
saa	saa	0		V	o
,	,			Z	
kui	kui	0		D	
   	kui	0		J	
masin	masin	0		S	sg n
valmis	valm	s		S	sg in
      	valmi	s		V	s
      	valmis	0		A	
      	valmis	0		A	sg n
      	valmis	0		D	
      	valmis	s		A	sg in
on	ole	0		V	b
  	ole	0		V	vad
,	,			Z	
järel	järel	0		D	
     	järel	0		K	
proovitud	proovi	tud		V	tud
         	proovi=tu	d		S	pl n
         	proovi=tud	0		A	
         	proovi=tud	0		A	sg n
         	proovi=tud	d		A	pl n
ja	ja	0		J	
kõlbulikuks	kõlbulik	ks		A	sg tr
tunnistatud	tunnista	tud		V	tud
           	tunnista=tu	d		S	pl n
           	tunnista=tud	0		A	
           	tunnista=tud	0		A	sg n
           	tunnista=tud	d		A	pl n
.	.			Z	
masin	masin	0		S	sg n
peab	pida	b		V	b
valmis	valm	s		S	sg in
      	valmi	s		V	s
      	valmis	0		A	
      	valmis	0		A	sg n
      	valmis	0		D	
      	valmis	s		A	sg in
olema	ole	ma		V	ma
30	30	0		N	?
Augustiks	august	ks		S	sg tr
         	August	ks		H	sg tr
s	s	0		Y	?
.	.			Z	
a	a	0		Y	?
Masina	masin	0		S	sg g
rihm	rihm	0		S	sg n
jääb	jää	b		V	b
minu	mina	0		P	sg g
oma	oma	0		A	sg g
   	oma	0		D	
   	oma	0		P	sg g
   	oma	0		S	sg g
   	oma	0		V	o
   	oma	0		A	sg n
   	oma	0		A	sg p
   	oma	0		P	sg n
   	oma	0		P	sg p
   	oma	0		S	sg n
   	oma	0		S	sg p
muretseda	muretse	da		V	da
,	,			Z	
kui	kui	0		D	
   	kui	0		J	
masin	masin	0		S	sg n
kõlblik	kõlblik	0		A	sg n
on	ole	0		V	b
  	ole	0		V	vad
,	,			Z	
aga	aga	0		J	
Rand	rand	0		S	sg n
peab	pida	b		V	b
proovi	proov	0		S	adt
      	proov	0		S	sg g
      	proovi	0		V	o
      	proov	0		S	sg p
tegemiseks	tegemine	ks		S	sg tr
rihma	rihm	0		S	adt
     	rihm	0		S	sg g
     	rihma	0		V	o
     	rihm	0		S	sg p
peale	pea	le		S	sg all
     	peale	0		D	
     	peale	0		K	
muretsema	muretse	ma		V	ma
nii	nii	0		D	
et	et	0		J	
proovi	proov	0		S	adt
      	proov	0		S	sg g
      	proovi	0		V	o
      	proov	0		S	sg p
peksmise	peksmine	0		S	sg g
teha	tege	a		V	da
võib	või	b		V	b
ja	ja	0		J	
see	see	0		P	sg n
jääb	jää	b		V	b
siis	siis	0		D	
    	siis	0		J	
ka	ka	0		D	
minule	mina	le		P	sg all
.	.			Z	
käsi	käski	0		V	o
    	käsi	0		S	pl p
    	käsi	0		S	sg n
    	käsi	0		D	
rahaks	raha	ks		S	sg tr
maksan	maks	n		V	n
viisteistkümend	####				
/	/			Z	
15	15	0		N	?
/	/			Z	
rubla	rubla	0		S	sg g
     	rubla	0		S	sg n
     	rubla	0		S	sg p
andilr	####				
.	.			Z	
seda	see	da		P	sg p
kõik	kõik	0		P	pl n
    	kõik	0		S	sg n
    	kõik	0		P	sg n
tunnistab	tunnista	b		V	b
Rand	rand	0		S	sg n
õigeks	õige	ks		A	sg tr
,	,			Z	
lubab	luba	b		V	b
kõik	kõik	0		P	pl n
    	kõik	0		S	sg n
    	kõik	0		P	sg n
täita	täi	ta		S	sg ab
     	täi	ta		V	ta
     	täit	a		V	da
     	täita	0		V	o
mis	mis	0		P	pl n
   	mis	0		P	sg n
kaubeldud	kauple	dud		V	tud
         	kaubel=du	d		S	pl n
         	kaubel=dud	0		A	
         	kaubel=dud	0		A	sg n
         	kaubel=dud	d		A	pl n
ja	ja	0		J	
kui	kui	0		D	
   	kui	0		J	
masin	masin	0		S	sg n
hea	hea	0		A	sg g
   	hea	0		A	sg n
   	hea	0		S	sg g
   	hea	0		S	sg n
ei	ei	0		D	
  	ei	0		V	neg
ole	ole	0		V	o
,	,			Z	
siis	siis	0		D	
    	siis	0		J	
maksab	maks	b		V	b
käsi	käski	0		V	o
    	käsi	0		S	pl p
    	käsi	0		S	sg n
    	käsi	0		D	
raha	raha	0		S	sg g
    	raha	0		S	sg n
    	raha	0		S	sg p
tagasi	tagasi	0		D	
      	tagasi	0		K	
.	.			Z	
selle	see	0		P	sg g
     	sell	e		S	pl p
sisu	sisu	0		S	sg g
    	sisu	0		S	sg n
    	sisu	0		S	sg p
sai	saa	i		V	s
   	sai	0		S	sg n
mõlema	mõlema	0		P	sg g
poolel	pool	l		N	sg ad
      	pool	l		S	sg ad
sõna	sõna	0		S	sg g
    	sõna	0		V	o
    	sõna	0		S	sg n
    	sõna	0		S	sg p
sõnalt	sõna	lt		S	sg abl
ette	ette	0		D	
    	ette	0		K	
    	esi	tte		S	adt
loetud	loetu	d		S	pl n
      	loetud	0		A	
      	loetud	0		A	sg n
      	loetud	d		A	pl n
      	luge	tud		V	tud
,	,			Z	
mis	mis	0		P	pl n
   	mis	0		P	sg n
allkirjadega	all_kiri	dega		S	pl kom
tõendavad	tõenda	vad		V	vad
         	tõendav	d		A	pl n
.	.			Z	
h	h	0		Y	?
Viloseus	####				
[	[			Z	
allkiri	all_kiri	0		S	sg n
]	]			Z	
M	M	0		O	?
 	M	0		Y	?
Rand	rand	0		S	sg n
[	[			Z	
allkiri	all_kiri	0		S	sg n
]	]			Z	
selles	see	s		P	sg in
nimetatud	nimeta	tud		V	tud
         	nimetatu	d		S	pl n
         	nimetatud	0		A	
         	nimetatud	0		A	sg n
         	nimetatud	d		A	pl n
inimesed	inimene	d		S	pl n
on	ole	0		V	b
  	ole	0		V	vad
kohtul	kohus	l		S	sg ad
isiklikult	isiklik	lt		A	sg abl
          	isiklikult	0		D	
tuntud	tund	tud		V	tud
      	tuntu	d		S	pl n
      	tuntud	0		A	
      	tuntud	0		A	sg n
      	tuntud	d		A	pl n
ja	ja	0		J	
mõlemad	mõlema	d		P	pl n
õiguse	õigus	0		S	sg g
võimulised	võimu=line	d		A	pl n
selle	see	0		P	sg g
     	sell	e		S	pl p
asja	asi	0		S	adt
    	asi	0		S	sg g
    	asi	0		S	sg p
toime	toim	0		S	adt
     	toim	0		S	sg g
     	toime	0		S	adt
     	toime	0		S	sg n
     	toim	0		S	sg p
     	toime	0		S	sg g
viimiseks	viimine	ks		S	sg tr
,	,			Z	
mida	mis	da		P	pl p
    	mis	da		P	sg p
kohus	kohu	s		V	s
     	kohus	0		S	sg n
kinnitab	kinnita	b		V	b
.	.			Z	
Eesistuja	ees_istuja	0		S	sg g
         	ees_istuja	0		S	sg n
:	:			Z	
M	M	0		O	?
 	M	0		Y	?
.	.			Z	
_	_			Z	
Pauls	####				
[	[			Z	
allkiri	all_kiri	0		S	sg n
]	]			Z	
kohtumehed	kohtu_mees	d		S	pl n
:	:			Z	
J. Viilson	####				
[	[			Z	
allkiri	all_kiri	0		S	sg n
]	]			Z	
H	H	0		Y	?
.	.			Z	
_	_			Z	
Linder	####				
[	[			Z	
allkiri	all_kiri	0		S	sg n
]	]			Z	
H	H	0		Y	?
.	.			Z	
_	_			Z	
Lang	lang	0		S	sg n
[	[			Z	
allkiri	all_kiri	0		S	sg n
]	]			Z	
