astus	astu	s		V	s
kohtu	kohtu	0		V	o
     	kohus	0		S	sg g
ette	ette	0		D	
    	ette	0		K	
    	esi	tte		S	adt
Uudina	####				
koha	koht	0		S	sg g
    	koha	0		S	sg g
    	koha	0		V	o
    	koha	0		S	sg n
    	koha	0		S	sg p
peremees	pere_mees	0		S	sg n
Jakob	Jakob	0		H	sg n
Lindal	Linda	l		H	sg ad
,	,			Z	
ja	ja	0		J	
Tallinnast	Tallinn	st		H	sg el
maja	maja	0		S	sg g
    	maja	0		S	sg n
    	maja	0		S	sg p
omanik	omanik	0		S	sg n
Hans	Hans	0		H	sg n
Uks	uks	0		S	sg n
ja	ja	0		J	
kaebasid	kaeba	sid		V	sid
karja	kari	0		S	adt
     	kari	0		S	sg g
     	kari	0		S	sg p
veski	veski	0		S	sg g
     	veski	0		S	sg n
rentniku	rentnik	0		S	sg g
Mihkel	Mihkel	0		H	sg n
      	mihkel	0		A	sg n
      	mihkel	0		S	sg n
Varberi	####				
üle	üle	0		D	
   	üle	0		K	
1	1	0		N	?
)	)			Z	
Jakob	Jakob	0		H	sg n
Lindal	Linda	l		H	sg ad
kaebas	kaeba	s		V	s
,	,			Z	
Mihkel	Mihkel	0		H	sg n
      	mihkel	0		A	sg n
      	mihkel	0		S	sg n
Väärber	####				
on	ole	0		V	b
  	ole	0		V	vad
oma	oma	0		A	sg g
   	oma	0		D	
   	oma	0		P	sg g
   	oma	0		S	sg g
   	oma	0		V	o
   	oma	0		A	sg n
   	oma	0		A	sg p
   	oma	0		P	sg n
   	oma	0		P	sg p
   	oma	0		S	sg n
   	oma	0		S	sg p
voli	voli	0		S	sg g
    	voli	0		S	sg n
    	voli	0		S	sg p
pruukides	pruuk	des		S	pl in
         	pruuki	des		V	des
tema	tema	0		P	sg g
    	tema	0		P	sg n
kääst	####				
400	400	0		N	?
puuda	puud	0		S	adt
     	puud	0		S	sg g
     	puud	0		S	sg p
heinu	hein	u		S	pl p
48	48	0		N	?
rbl	rbl	0		Y	?
.	.			Z	
60	60	0		N	?
kop	kop	0		Y	?
.	.			Z	
võla	võlg	0		S	sg g
eest	eest	0		D	
    	eest	0		K	
    	esi	st		S	sg el
vägivaldselt	vägi_valdne	lt		A	sg abl
            	vägi_valdselt	0		D	
ära	ära	0		D	
   	ära	0		V	neg o
viinud	vii	nud		V	nud
      	vii=nu	d		S	pl n
      	vii=nud	0		A	
      	vii=nud	0		A	sg n
      	vii=nud	d		A	pl n
mis	mis	0		P	pl n
   	mis	0		P	sg n
valla	vald	0		S	sg g
     	valla	0		D	
politsei	politsei	0		S	sg g
        	politsei	0		S	sg n
poolt	pool	t		N	sg p
     	pool	t		S	sg p
     	poolt	0		D	
     	poolt	0		K	
heina	hein	0		S	adt
     	hein	0		S	sg g
     	hein	0		S	sg p
aeg	aeg	0		S	sg n
400	400	0		N	?
puuda	puud	0		S	adt
     	puud	0		S	sg g
     	puud	0		S	sg p
all	all	0		D	
   	all	0		K	
kinni	kinni	0		D	
sai	saa	i		V	s
   	sai	0		S	sg n
pandu	pand	u		S	pl p
,	,			Z	
tema	tema	0		P	sg g
    	tema	0		P	sg n
Mihkel	Mihkel	0		H	sg n
      	mihkel	0		A	sg n
      	mihkel	0		S	sg n
Väärberi	####				
ja	ja	0		J	
Hans	Hans	0		H	sg n
Uuksi	####				
võla	võlg	0		S	sg g
tasumiseks	tasumine	ks		S	sg tr
.	.			Z	
Mihkel	Mihkel	0		H	sg n
      	mihkel	0		A	sg n
      	mihkel	0		S	sg n
Väärber	####				
sai	saa	i		V	s
   	sai	0		S	sg n
ette	ette	0		D	
    	ette	0		K	
    	esi	tte		S	adt
kutsutud	kutsu	tud		V	tud
        	kutsutu	d		S	pl n
        	kutsutud	0		A	
        	kutsutud	0		A	sg n
        	kutsutud	d		A	pl n
tema	tema	0		P	sg g
    	tema	0		P	sg n
tunnistas	tunnista	s		V	s
,	,			Z	
tema	tema	0		P	sg g
    	tema	0		P	sg n
ola	####				
seda	see	da		P	sg p
heinamaad	heina_maa	d		S	pl n
         	heina_maa	d		S	sg p
omale	oma	le		A	sg all
     	oma	le		P	sg all
     	oma	le		S	sg all
rentinud	renti	nud		V	nud
        	renti=nu	d		S	pl n
        	renti=nud	0		A	
        	renti=nud	0		A	sg n
        	renti=nud	d		A	pl n
48	48	0		N	?
rbl	rbl	0		Y	?
.	.			Z	
60	60	0		N	?
kop	kop	0		Y	?
.	.			Z	
ette	ette	0		D	
    	ette	0		K	
    	esi	tte		S	adt
ja	ja	0		J	
olla	ole	a		V	da
omad	oma	d		A	pl n
    	oma	d		P	pl n
    	oma	d		S	pl n
    	oma	d		V	d
heinad	hein	d		S	pl n
sealt	sealt	0		D	
     	siga	lt		A	sg abl
     	siga	lt		S	sg abl
ära	ära	0		D	
   	ära	0		V	neg o
viinud	vii	nud		V	nud
      	vii=nu	d		S	pl n
      	vii=nud	0		A	
      	vii=nud	0		A	sg n
      	vii=nud	d		A	pl n
.	.			Z	
valla	vald	0		S	sg g
     	valla	0		D	
kohus	kohu	s		V	s
     	kohus	0		S	sg n
keelas	keela	s		V	s
aga	aga	0		J	
märtsi	märts	0		S	adt
      	märts	0		S	sg g
      	märts	0		S	sg p
kuus	kuu	s		S	sg in
    	kuus	0		N	sg n
s	s	0		Y	?
.	.			Z	
a	a	0		Y	?
Mih	####				
.	.			Z	
Väärperile	####				
seda	see	da		P	sg p
rentimist	rentimine	t		S	sg p
mõisa	mõis	0		S	sg g
ja	ja	0		J	
kritikasa	####				
võlgade	võlg	de		S	pl g
pärast	pära	st		S	sg el
      	pärane	t		A	sg p
      	pärast	0		D	
      	pärast	0		K	
ära	ära	0		D	
   	ära	0		V	neg o
.	.			Z	
Jakob	Jakob	0		H	sg n
Lindal	Linda	l		H	sg ad
tunnistas	tunnista	s		V	s
temal	tema	l		P	sg ad
oli	ole	i		V	s
M	M	0		O	?
 	M	0		Y	?
.	.			Z	
_	_			Z	
Väärperile	####				
48	48	0		N	?
rbl	rbl	0		Y	?
.	.			Z	
60	60	0		N	?
kop	kop	0		Y	?
.	.			Z	
raha	raha	0		S	sg g
    	raha	0		S	sg n
    	raha	0		S	sg p
võlgu	võlg	u		S	pl p
     	võlgu	0		D	
,	,			Z	
et	et	0		J	
Mihkel	Mihkel	0		H	sg n
      	mihkel	0		A	sg n
      	mihkel	0		S	sg n
Väärber	####				
tungivald	tungi_vald	0		S	sg n
selle	see	0		P	sg g
     	sell	e		S	pl p
maksu	maks	0		S	adt
     	maks	0		S	sg g
     	maks	u		S	pl p
     	maks	0		S	sg p
peale	pea	le		S	sg all
     	peale	0		D	
     	peale	0		K	
käis	käi	s		V	s
    	käis	0		S	sg n
ja	ja	0		J	
nõudis	nõud	is		V	s
seda	see	da		P	sg p
heinamaad	heina_maa	d		S	pl n
         	heina_maa	d		S	sg p
,	,			Z	
kui	kui	0		D	
   	kui	0		J	
mitte	mitte	0		D	
raha	raha	0		S	sg g
    	raha	0		S	sg n
    	raha	0		S	sg p
maksta	maks	ta		V	da
      	maks	ta		V	ta
ei	ei	0		D	
  	ei	0		V	neg
ole	ole	0		V	o
,	,			Z	
siis	siis	0		D	
    	siis	0		J	
ola	####				
tema	tema	0		P	sg g
    	tema	0		P	sg n
esiteks	esiteks	0		D	
adaga	####				
selle	see	0		P	sg g
     	sell	e		S	pl p
heinama	####				
lubanud	luba	nud		V	nud
       	luba=nu	d		S	pl n
       	luba=nud	0		A	
       	luba=nud	0		A	sg n
       	luba=nud	d		A	pl n
,	,			Z	
aga	aga	0		J	
et	et	0		J	
mõisa	mõis	0		S	sg g
Barunile	####				
ja	ja	0		J	
Kredikasa	####				
indresid	####				
võlga	võlg	0		S	adt
     	võlg	0		S	sg p
olid	ole	id		V	sid
,	,			Z	
siis	siis	0		D	
    	siis	0		J	
keelas	keela	s		V	s
valla	vald	0		S	sg g
     	valla	0		D	
kohus	kohu	s		V	s
     	kohus	0		S	sg n
,	,			Z	
seda	see	da		P	sg p
heinama	####				
rentimist	rentimine	t		S	sg p
ära	ära	0		D	
   	ära	0		V	neg o
,	,			Z	
Tema	tema	0		P	sg g
    	tema	0		P	sg n
Jakob	Jakob	0		H	sg n
Lindal	Linda	l		H	sg ad
laenas	laena	s		V	s
siis	siis	0		D	
    	siis	0		J	
Hans	Hans	0		H	sg n
Uuksi	####				
kääst	####				
58	58	0		N	?
rbl	rbl	0		Y	?
.	.			Z	
indressi	####				
tasumiseks	tasumine	ks		S	sg tr
raha	raha	0		S	sg g
    	raha	0		S	sg n
    	raha	0		S	sg p
ja	ja	0		J	
lubas	luba	s		V	s
seda	see	da		P	sg p
heinamaad	heina_maa	d		S	pl n
         	heina_maa	d		S	sg p
Hans	Hans	0		H	sg n
Uusile	uus	le		A	pl all
,	,			Z	
sellest	see	st		P	sg el
laenu	laen	0		S	adt
     	laen	0		S	sg g
     	laenu	0		V	o
     	laen	0		S	sg p
rahast	raha	st		S	sg el
maksid	maks	id		V	sid
      	maksi	d		S	pl n
tema	tema	0		P	sg g
    	tema	0		P	sg n
ka	ka	0		D	
ühtlasi	ühtlane	i		A	pl p
       	ühtlasi	0		D	
Mihkel	Mihkel	0		H	sg n
      	mihkel	0		A	sg n
      	mihkel	0		S	sg n
Väärberi	####				
võlgu	võlg	u		S	pl p
     	võlgu	0		D	
18	18	0		N	?
rbl	rbl	0		Y	?
.	.			Z	
ära	ära	0		D	
   	ära	0		V	neg o
.	.			Z	
Heina	hein	0		S	adt
     	hein	0		S	sg g
     	hein	0		S	sg p
aeg	aeg	0		S	sg n
kus	kus	0		D	
tema	tema	0		P	sg g
    	tema	0		P	sg n
Jakob	Jakob	0		H	sg n
Lindal	Linda	l		H	sg ad
juba	juba	0		D	
16	16	0		N	?
saadu	saad	0		S	adt
     	saadu	0		S	sg g
     	saadud	0		A	sg g
     	saad	0		S	sg p
     	saadu	0		S	sg n
heina	hein	0		S	adt
     	hein	0		S	sg g
     	hein	0		S	sg p
oli	ole	i		V	s
valmis	valm	s		S	sg in
      	valmi	s		V	s
      	valmis	0		A	
      	valmis	0		A	sg n
      	valmis	0		D	
      	valmis	s		A	sg in
teinud	tege	nud		V	nud
      	tei=nud	0		A	
      	tei=nud	0		A	sg n
      	tei=nud	d		A	pl n
      	teinu	d		S	pl n
Hans	Hans	0		H	sg n
Uuksi	####				
nimepeale	nime_pea	le		S	sg all
,	,			Z	
siis	siis	0		D	
    	siis	0		J	
tuli	tuli	0		S	sg n
    	tule	i		V	s
M	M	0		O	?
 	M	0		Y	?
Väärber	####				
oma	oma	0		A	sg g
   	oma	0		D	
   	oma	0		P	sg g
   	oma	0		S	sg g
   	oma	0		V	o
   	oma	0		A	sg n
   	oma	0		A	sg p
   	oma	0		P	sg n
   	oma	0		P	sg p
   	oma	0		S	sg n
   	oma	0		S	sg p
perega	pere	ga		S	sg kom
väkäepa	####				
heinamale	heina_male	0		S	sg g
         	heina_male	0		S	sg n
ja	ja	0		J	
hakkas	hakka	s		V	s
heina	hein	0		S	adt
     	hein	0		S	sg g
     	hein	0		S	sg p
maha	maha	0		D	
niitma	niit	ma		V	ma
.	.			Z	
Tema	tema	0		P	sg g
    	tema	0		P	sg n
ja	ja	0		J	
Hans	Hans	0		H	sg n
Uks	uks	0		S	sg n
läksid	mine	sid		V	sid
talitaja	talitaja	0		S	sg g
        	talitaja	0		S	sg n
kääst	####				
abi	abi	0		S	sg g
   	abi	0		S	sg n
   	abi	0		S	sg p
otsima	otsi	ma		V	ma
ja	ja	0		J	
talitaja	talitaja	0		S	sg g
        	talitaja	0		S	sg n
pani	pan	0		S	adt
    	pani	0		S	sg g
    	pane	i		V	s
    	pan	0		S	sg g
    	pan	0		S	sg p
    	pani	0		S	sg n
need	see	d		P	pl n
heinad	hein	d		S	pl n
poolitsei	####				
üle	üle	0		D	
   	üle	0		K	
vaatamise	vaatamine	0		S	sg g
alla	alla	0		D	
    	alla	0		K	
kinni	kinni	0		D	
selle	see	0		P	sg g
     	sell	e		S	pl p
tingimise	tingimine	0		S	sg g
all	all	0		D	
   	all	0		K	
,	,			Z	
et	et	0		J	
heina	hein	0		S	adt
     	hein	0		S	sg g
     	hein	0		S	sg p
töö	töö	0		S	sg g
   	töö	0		S	sg n
saab	saa	b		V	b
raha	raha	0		S	sg g
    	raha	0		S	sg n
    	raha	0		S	sg p
ette	ette	0		D	
    	ette	0		K	
    	esi	tte		S	adt
ära	ära	0		D	
   	ära	0		V	neg o
tehtud	tehtu	d		S	pl n
      	tehtud	0		A	
      	tehtud	0		A	sg n
      	tehtud	d		A	pl n
      	tege	tud		V	tud
,	,			Z	
heinad	hein	d		S	pl n
puuda	puud	0		S	adt
     	puud	0		S	sg g
     	puud	0		S	sg p
viisi	viis	0		S	adt
     	viis	0		S	sg g
     	viis	i		N	pl p
     	viisi	0		K	
     	viis	0		S	sg p
ära	ära	0		D	
   	ära	0		V	neg o
müüüdud	####				
,	,			Z	
ja	ja	0		J	
siis	siis	0		D	
    	siis	0		J	
saab	saa	b		V	b
esiteks	esiteks	0		D	
M	M	0		O	?
 	M	0		Y	?
.	.			Z	
_	_			Z	
Väärber	####				
oma	oma	0		A	sg g
   	oma	0		D	
   	oma	0		P	sg g
   	oma	0		S	sg g
   	oma	0		V	o
   	oma	0		A	sg n
   	oma	0		A	sg p
   	oma	0		P	sg n
   	oma	0		P	sg p
   	oma	0		S	sg n
   	oma	0		S	sg p
võla	võlg	0		S	sg g
,	,			Z	
siis	siis	0		D	
    	siis	0		J	
Hans	Hans	0		H	sg n
Uks	uks	0		S	sg n
ja	ja	0		J	
mis	mis	0		P	pl n
   	mis	0		P	sg n
üle	üle	0		D	
   	üle	0		K	
jääb	jää	b		V	b
saab	saa	b		V	b
peremees	pere_mees	0		S	sg n
omale	oma	le		A	sg all
     	oma	le		P	sg all
     	oma	le		S	sg all
tagasi	tagasi	0		D	
      	tagasi	0		K	
,	,			Z	
sellega	see	ga		P	sg kom
leppisid	leppi	sid		V	sid
seal	seal	0		D	
    	siga	l		A	sg ad
    	siga	l		S	sg ad
M	M	0		O	?
 	M	0		Y	?
.	.			Z	
_	_			Z	
Väärber	####				
a	a	0		Y	?
Hans	Hans	0		H	sg n
Uks	uks	0		S	sg n
ära	ära	0		D	
   	ära	0		V	neg o
.	.			Z	
nüüd	nüüd	0		D	
sügise	sügis	0		S	sg g
viis	vii	s		V	s
    	viis	0		N	sg n
    	viis	0		S	sg n
M	M	0		O	?
 	M	0		Y	?
.	.			Z	
_	_			Z	
Väärber	####				
need	see	d		P	pl n
kinni	kinni	0		D	
pandud	pan=du	d		S	pl n
      	pan=dud	0		A	
      	pan=dud	0		A	sg n
      	pan=dud	d		A	pl n
      	pane	dud		V	tud
heinad	hein	d		S	pl n
salaja	salaja	0		D	
linna	linn	0		S	adt
     	linn	0		S	sg g
     	linn	0		S	sg p
ja	ja	0		J	
tunnistas	tunnista	s		V	s
,	,			Z	
et	et	0		J	
tema	tema	0		P	sg g
    	tema	0		P	sg n
arvates	arva	tes		V	des
oli	ole	i		V	s
seal	seal	0		D	
    	siga	l		A	sg ad
    	siga	l		S	sg ad
300	300	0		N	?
puuda	puud	0		S	adt
     	puud	0		S	sg g
     	puud	0		S	sg p
heinu	hein	u		S	pl p
ja	ja	0		J	
tema	tema	0		P	sg g
    	tema	0		P	sg n
olla	ole	a		V	da
need	see	d		P	pl n
selle	see	0		P	sg g
     	sell	e		S	pl p
pärast	pära	st		S	sg el
      	pärane	t		A	sg p
      	pärast	0		D	
      	pärast	0		K	
ära	ära	0		D	
   	ära	0		V	neg o
viinud	vii	nud		V	nud
      	vii=nu	d		S	pl n
      	vii=nud	0		A	
      	vii=nud	0		A	sg n
      	vii=nud	d		A	pl n
,	,			Z	
et	et	0		J	
Jakob	Jakob	0		H	sg n
Lindal	Linda	l		H	sg ad
olla	ole	a		V	da
ähvardanud	ähvarda	nud		V	nud
          	ähvarda=nu	d		S	pl n
          	ähvarda=nud	0		A	
          	ähvarda=nud	0		A	sg n
          	ähvarda=nud	d		A	pl n
,	,			Z	
et	et	0		J	
ega	ega	0		D	
   	ega	0		J	
need	see	d		P	pl n
heinad	hein	d		S	pl n
poole	pool	0		N	sg g
     	pool	0		S	sg g
     	pool	e		S	pl p
     	poole	0		K	
     	poole	0		S	sg n
veel	veel	0		D	
    	vesi	l		S	sg ad
tema	tema	0		P	sg g
    	tema	0		P	sg n
omale	oma	le		A	sg all
     	oma	le		P	sg all
     	oma	le		S	sg all
saanud	saa	nud		V	nud
      	saa=nud	0		A	
      	saa=nud	0		A	sg n
      	saa=nud	d		A	pl n
      	saanu	d		S	pl n
ja	ja	0		J	
need	see	d		P	pl n
heina	hein	0		S	adt
     	hein	0		S	sg g
     	hein	0		S	sg p
ola	####				
ka	ka	0		D	
just	just	0		D	
    	just	0		I	
tema	tema	0		P	sg g
    	tema	0		P	sg n
võla	võlg	0		S	sg g
tasumiseks	tasumine	ks		S	sg tr
päras	pära	s		S	sg in
hind	hind	0		S	sg n
.	.			Z	
valla	vald	0		S	sg g
     	valla	0		D	
kohus	kohu	s		V	s
     	kohus	0		S	sg n
andis	and	is		V	s
nõu	nõu	0		S	sg g
   	nõu	0		S	sg n
   	nõu	0		S	sg p
,	,			Z	
et	et	0		J	
Mihkel	Mihkel	0		H	sg n
      	mihkel	0		A	sg n
      	mihkel	0		S	sg n
Väärber	####				
peaks	pea	ks		S	sg tr
     	pida	ks		V	ks
J. Lindaliga	####				
leppima	leppi	ma		V	ma
ja	ja	0		J	
Hans	Hans	0		H	sg n
Uuksi	####				
võlgu	võlg	u		S	pl p
     	võlgu	0		D	
58	58	0		N	?
rbl	rbl	0		Y	?
.	.			Z	
ära	ära	0		D	
   	ära	0		V	neg o
maksma	maks	ma		V	ma
,	,			Z	
ja	ja	0		J	
rehkendas	rehkenda	s		V	s
need	see	d		P	pl n
heinad	hein	d		S	pl n
a	a	0		Y	?
40	40	0		N	?
kop	kop	0		Y	?
.	.			Z	
puud	puu	d		S	pl n
    	puud	0		S	sg n
    	puu	d		S	sg p
,	,			Z	
se	####				
teeb	tege	b		V	b
400	400	0		N	?
puuda	puud	0		S	adt
     	puud	0		S	sg g
     	puud	0		S	sg p
peale	pea	le		S	sg all
     	peale	0		D	
     	peale	0		K	
160	160	0		N	?
rbl	rbl	0		Y	?
.	.			Z	
talitaja	talitaja	0		S	sg g
        	talitaja	0		S	sg n
üles	üles	0		D	
anna	and	0		V	o
    	anna	0		S	sg g
    	anna	0		S	sg n
järel	järel	0		D	
     	järel	0		K	
.	.			Z	
et	et	0		J	
Mihkel	Mihkel	0		H	sg n
      	mihkel	0		A	sg n
      	mihkel	0		S	sg n
Väärber	####				
mitte	mitte	0		D	
leppida	leppi	da		V	da
ei	ei	0		D	
  	ei	0		V	neg
lubanud	luba	nud		V	nud
       	luba=nu	d		S	pl n
       	luba=nud	0		A	
       	luba=nud	0		A	sg n
       	luba=nud	d		A	pl n
,	,			Z	
siis	siis	0		D	
    	siis	0		J	
sai	saa	i		V	s
   	sai	0		S	sg n
se	####				
kaebtus	####				
keiserliku	keiserlik	0		A	sg g
kihelkonna	kihelkond	0		S	sg g
kohtu	kohtu	0		V	o
     	kohus	0		S	sg g
mõistmise	mõistmine	0		S	sg g
alla	alla	0		D	
    	alla	0		K	
antud	an=tu	d		S	pl n
     	and	tud		V	tud
     	antud	0		A	
     	antud	0		A	sg n
     	antud	d		A	pl n
.	.			Z	
peakohtumees	pea_kohtu_mees	0		S	sg n
Juhan	Juhan	0		H	sg n
Humberg	####				
XXX	XXX	0		O	?
   	XXX	0		Y	?
kõrvamehed	kõrva_mees	d		S	pl n
Gustav	Gustav	0		H	sg n
Reindes	####				
XXX	XXX	0		O	?
   	XXX	0		Y	?
Reinhold	####				
kõrsin	####				
XXX	XXX	0		O	?
   	XXX	0		Y	?
kirjutaja	kirjutaja	0		S	sg g
         	kirjutaja	0		S	sg n
G	G	0		Y	?
.	.			Z	
_	_			Z	
kolip	####				
Otsust	otsus	t		S	sg p
ei	ei	0		D	
  	ei	0		V	neg
saanud	saa	nud		V	nud
      	saa=nud	0		A	
      	saa=nud	0		A	sg n
      	saa=nud	d		A	pl n
      	saanu	d		S	pl n
mõistetud	mõist	tud		V	tud
         	mõiste=tu	d		S	pl n
         	mõiste=tud	0		A	
         	mõiste=tud	0		A	sg n
         	mõiste=tud	d		A	pl n
ja	ja	0		J	
protokoll	protokoll	0		S	sg n
sai	saa	i		V	s
   	sai	0		S	sg n
keiserliku	keiserlik	0		A	sg g
kihelkonna	kihelkond	0		S	sg g
kohtu	kohtu	0		V	o
     	kohus	0		S	sg g
mõistuse	mõistus	0		S	sg g
alla	alla	0		D	
    	alla	0		K	
antud	an=tu	d		S	pl n
     	and	tud		V	tud
     	antud	0		A	
     	antud	0		A	sg n
     	antud	d		A	pl n
.	.			Z	
