kaebas	kaeba	s		V	s
Kivisilla	kivi_sild	0		S	sg g
Jaan	Jaan	0		H	sg n
    	jaan	0		S	sg n
    	jaan	0		Y	?
Tisler	tisler	0		S	sg n
,	,			Z	
et	et	0		J	
tema	tema	0		P	sg g
    	tema	0		P	sg n
Orkida	ork_ida	0		S	sg g
      	ork_ida	0		S	sg n
      	ork_ida	0		S	sg p
laadalt	laat	lt		S	sg abl
tulles	tule	es		V	des
Konnaweski	konna_veski	0		S	sg g
          	konna_veski	0		S	sg n
kõrtsis	kõrts	s		S	sg in
,	,			Z	
oma	oma	0		A	sg g
   	oma	0		D	
   	oma	0		P	sg g
   	oma	0		S	sg g
   	oma	0		V	o
   	oma	0		A	sg n
   	oma	0		A	sg p
   	oma	0		P	sg n
   	oma	0		P	sg p
   	oma	0		S	sg n
   	oma	0		S	sg p
valla	vald	0		S	sg g
     	valla	0		D	
peremehe	pere_mees	0		S	sg g
Ando	Ando	0		H	sg g
    	Ando	0		H	sg n
Jüri	Jüri	0		H	sg g
    	Jüri	0		H	sg n
Prits	prits	0		S	sg n
Anduga	####				
hobusid	hobu	sid		S	pl p
vahetanud	vaheta	nud		V	nud
         	vaheta=nu	d		S	pl n
         	vaheta=nud	0		A	
         	vaheta=nud	0		A	sg n
         	vaheta=nud	d		A	pl n
,	,			Z	
aga	aga	0		J	
joobnud	joobnu	d		S	pl n
       	joobnud	0		A	
       	joobnud	0		A	sg n
       	joobnud	d		A	pl n
peadega	pea	dega		S	pl kom
,	,			Z	
ja	ja	0		J	
on	ole	0		V	b
  	ole	0		V	vad
selle	see	0		P	sg g
     	sell	e		S	pl p
kauba	kaup	0		S	sg g
läbi	läbi	0		D	
    	läbi	0		K	
    	läbi	0		V	o
palju	palju	0		D	
     	palju	0		P	sg g
     	palju	0		P	sg n
petetud	pet	tud		V	tud
       	pete=tu	d		S	pl n
       	pete=tud	0		A	
       	pete=tud	0		A	sg n
       	pete=tud	d		A	pl n
saanud	saa	nud		V	nud
      	saa=nud	0		A	
      	saa=nud	0		A	sg n
      	saa=nud	d		A	pl n
      	saanu	d		S	pl n
,	,			Z	
ja	ja	0		J	
nüüd	nüüd	0		D	
palun	palu	n		V	n
et	et	0		J	
Prits	prits	0		S	sg n
Ando	Ando	0		H	sg g
    	Ando	0		H	sg n
mulle	mull	e		S	pl p
     	mina	lle		P	sg all
     	mulle	0		S	sg n
ära	ära	0		D	
   	ära	0		V	neg o
taganuks	taga	nuks		V	nuks
        	taga=nu	ks		S	sg tr
        	taga=nud	ks		A	sg tr
mis	mis	0		P	pl n
   	mis	0		P	sg n
tema	tema	0		P	sg g
    	tema	0		P	sg n
aga	aga	0		J	
mitte	mitte	0		D	
ei	ei	0		D	
  	ei	0		V	neg
luba	luba	0		S	sg n
    	luba	0		V	o
    	luba	0		S	sg p
.	.			Z	
kaup	kaup	0		S	sg n
oli	ole	i		V	s
nõnda	nõnda	0		D	
,	,			Z	
mina	mina	0		P	sg n
    	mina	0		S	sg g
    	mina	0		S	sg n
    	mina	0		S	sg p
andsin	and	sin		V	sin
Prits	prits	0		S	sg n
Andole	Ando	le		H	sg all
4.	4.	0		O	?
rbl	rbl	0		Y	?
.	.			Z	
50.	50.	0		O	?
kop	kop	0		Y	?
peale	pea	le		S	sg all
     	peale	0		D	
     	peale	0		K	
,	,			Z	
ja	ja	0		J	
tema	tema	0		P	sg g
    	tema	0		P	sg n
hobune	hobune	0		S	sg n
on	ole	0		V	b
  	ole	0		V	vad
palju	palju	0		D	
     	palju	0		P	sg g
     	palju	0		P	sg n
vanem	vanem	0		C	sg n
     	vanem	0		S	sg n
.	.			Z	
hobused	hobune	d		S	pl n
said	saa	id		V	sid
kohtus	kohtu	s		V	s
      	kohus	s		S	sg in
järele	järele	0		D	
      	järele	0		K	
vaadatud	vaata	tud		V	tud
        	vaada=tu	d		S	pl n
        	vaadatud	0		A	
        	vaadatud	0		A	sg n
        	vaadatud	d		A	pl n
,	,			Z	
ning	ning	0		J	
leitud	leid	tud		V	tud
      	leitu	d		S	pl n
      	leitud	0		A	
      	leitud	0		A	sg n
      	leitud	d		A	pl n
,	,			Z	
et	et	0		J	
se	####				
hobune	hobune	0		S	sg n
mis	mis	0		P	pl n
   	mis	0		P	sg n
Prits	prits	0		S	sg n
Ando	Ando	0		H	sg g
    	Ando	0		H	sg n
,	,			Z	
Jaan	Jaan	0		H	sg n
    	jaan	0		S	sg n
    	jaan	0		Y	?
Tislerile	tisler	le		S	sg all
and	and	0		S	sg n
oli	ole	i		V	s
mitte	mitte	0		D	
enam	enam	0		C	sg n
    	enam	0		D	
väärt	väärt	0		A	
     	väärt	0		D	
ei	ei	0		D	
  	ei	0		V	neg
ole	ole	0		V	o
kui	kui	0		D	
   	kui	0		J	
aga	aga	0		J	
se	####				
raha	raha	0		S	sg g
    	raha	0		S	sg n
    	raha	0		S	sg p
mis	mis	0		P	pl n
   	mis	0		P	sg n
Jaan	Jaan	0		H	sg n
    	jaan	0		S	sg n
    	jaan	0		Y	?
veel	veel	0		D	
    	vesi	l		S	sg ad
Pritsule	####				
peale	pea	le		S	sg all
     	peale	0		D	
     	peale	0		K	
andnud	and	nud		V	nud
      	and=nu	d		S	pl n
      	and=nud	0		A	
      	and=nud	0		A	sg n
      	and=nud	d		A	pl n
,	,			Z	
ja	ja	0		J	
oma	oma	0		A	sg g
   	oma	0		D	
   	oma	0		P	sg g
   	oma	0		S	sg g
   	oma	0		V	o
   	oma	0		A	sg n
   	oma	0		A	sg p
   	oma	0		P	sg n
   	oma	0		P	sg p
   	oma	0		S	sg n
   	oma	0		S	sg p
hobuse	hobune	0		S	sg g
on	ole	0		V	b
  	ole	0		V	vad
ta	tema	0		P	sg g
  	tema	0		P	sg n
siis	siis	0		D	
    	siis	0		J	
koguni	kogu	ni		S	sg ter
      	koguni	0		D	
muidu	muidu	0		D	
Pritsule	####				
andnud	and	nud		V	nud
      	and=nu	d		S	pl n
      	and=nud	0		A	
      	and=nud	0		A	sg n
      	and=nud	d		A	pl n
,	,			Z	
ja	ja	0		J	
Jaani	Jaan	0		H	adt
     	Jaan	0		H	sg g
     	Jaani	0		H	sg g
     	jaan	0		S	adt
     	jaan	0		S	sg g
     	Jaan	0		H	sg p
     	Jaani	0		H	sg n
     	jaan	0		S	sg p
hobuse	hobune	0		S	sg g
ette	ette	0		D	
    	ette	0		K	
    	esi	tte		S	adt
on	ole	0		V	b
  	ole	0		V	vad
laadal	laat	l		S	sg ad
36.	36.	0		O	?
rbl	rbl	0		Y	?
.	.			Z	
pakutud	pakku	tud		V	tud
       	pakutu	d		S	pl n
       	pakutud	0		A	
       	pakutud	0		A	sg n
       	pakutud	d		A	pl n
.	.			Z	
kogukonna	kogukond	0		S	sg g
kohus	kohu	s		V	s
     	kohus	0		S	sg n
mõistis	mõist	is		V	s
nõnda	nõnda	0		D	
hobused	hobune	d		S	pl n
saavad	saa	vad		V	vad
      	saav	d		A	pl n
      	saav	d		S	pl n
ära	ära	0		D	
   	ära	0		V	neg o
taganetud	tagane	tud		V	tud
         	tagane=tu	d		S	pl n
         	tagane=tud	0		A	
         	tagane=tud	0		A	sg n
         	tagane=tud	d		A	pl n
,	,			Z	
aga	aga	0		J	
se	####				
raha	raha	0		S	sg g
    	raha	0		S	sg n
    	raha	0		S	sg p
mis	mis	0		P	pl n
   	mis	0		P	sg n
J. Tisler	####				
P	P	0		Y	?
.	.			Z	
_	_			Z	
Andole	Ando	le		H	sg all
4.	4.	0		O	?
rbl	rbl	0		Y	?
.	.			Z	
50.	50.	0		O	?
kop	kop	0		Y	?
peale	pea	le		S	sg all
     	peale	0		D	
     	peale	0		K	
andnud	and	nud		V	nud
      	and=nu	d		S	pl n
      	and=nud	0		A	
      	and=nud	0		A	sg n
      	and=nud	d		A	pl n
,	,			Z	
see	see	0		P	sg n
jääb	jää	b		V	b
ikka	ikka	0		D	
    	iga	0		S	adt
Prits	prits	0		S	sg n
Andole	Ando	le		H	sg all
.	.			Z	
(	(			Z	
mõistus	mõistus	0		S	sg n
sai	saa	i		V	s
   	sai	0		S	sg n
täidetud	täit	tud		V	tud
        	täide=tu	d		S	pl n
        	täide=tud	0		A	
        	täide=tud	0		A	sg n
        	täide=tud	d		A	pl n
.	.			Z	
)	)			Z	
