1.	1.	0		O	?
tuli	tuli	0		S	sg n
    	tule	i		V	s
ette	ette	0		D	
    	ette	0		K	
    	esi	tte		S	adt
:	:			Z	
Mari	Mari	0		H	sg g
    	mari	0		S	sg g
    	mari	0		S	sg n
    	Mari	0		H	sg n
    	mari	0		S	sg p
Pruuli	pruul	0		S	adt
      	pruul	0		S	sg g
      	pruuli	0		V	o
      	pruul	0		S	sg p
ja	ja	0		J	
kaebab	kaeba	b		V	b
et	et	0		J	
Madis	Madis	0		H	sg n
     	madis	0		S	sg n
Primats'i	####				
sead	sead	d		V	d
    	siga	d		A	pl n
    	siga	d		S	pl n
on	ole	0		V	b
  	ole	0		V	vad
tema	tema	0		P	sg g
    	tema	0		P	sg n
kartulles	####				
käinud	käi	nud		V	nud
      	käi=nud	0		A	
      	käi=nud	0		A	sg n
      	käi=nud	d		A	pl n
      	käinu	d		S	pl n
,	,			Z	
esmise	####				
korra	kord	0		S	sg g
üks	üks	0		N	sg n
   	üks	0		P	sg n
siga	siga	0		A	sg n
    	siga	0		A	sg p
    	siga	0		S	sg n
    	siga	0		S	sg p
,	,			Z	
teise	teine	0		O	adt
     	teine	0		O	sg g
     	teine	0		P	adt
     	teine	0		P	sg g
korra	kord	0		S	sg g
kolm	kolm	0		N	sg n
siga	siga	0		A	sg n
    	siga	0		A	sg p
    	siga	0		S	sg n
    	siga	0		S	sg p
,	,			Z	
ja	ja	0		J	
kolmanda	kolmas	0		O	sg g
korra	kord	0		S	sg g
neli	neli	0		N	sg n
siga	siga	0		A	sg n
    	siga	0		A	sg p
    	siga	0		S	sg n
    	siga	0		S	sg p
:	:			Z	
sigade	siga	de		A	pl g
      	siga	de		S	pl g
peremehe	pere_mees	0		S	sg g
ja	ja	0		J	
Talitaja	talitaja	0		S	sg g
        	talitaja	0		S	sg n
abimehe	abi_mees	0		S	sg g
poolt	pool	t		N	sg p
     	pool	t		S	sg p
     	poolt	0		D	
     	poolt	0		K	
läbi	läbi	0		D	
    	läbi	0		K	
    	läbi	0		V	o
vaadatud	vaata	tud		V	tud
        	vaada=tu	d		S	pl n
        	vaadatud	0		A	
        	vaadatud	0		A	sg n
        	vaadatud	d		A	pl n
ja	ja	0		J	
leitud	leid	tud		V	tud
      	leitu	d		S	pl n
      	leitud	0		A	
      	leitud	0		A	sg n
      	leitud	d		A	pl n
et	et	0		J	
temal	tema	l		P	sg ad
kolm	kolm	0		N	sg n
tsetverikut	####				
kartuflid	####				
ära	ära	0		D	
   	ära	0		V	neg o
söödud	söö	dud		V	tud
      	söödu	d		S	pl n
      	söödud	0		A	
      	söödud	0		A	sg n
      	söödud	d		A	pl n
      	sööt	d		S	pl n
,	,			Z	
siis	siis	0		D	
    	siis	0		J	
ühendasid	ühenda	sid		V	sid
endid	ise	d		P	pl p
kohtu	kohtu	0		V	o
     	kohus	0		S	sg g
liikmed	liige	d		S	pl n
ja	ja	0		J	
tegid	tege	id		V	sid
see	see	0		P	sg n
:	:			Z	
mõistus	mõistus	0		S	sg n
:	:			Z	
et	et	0		J	
Madis	Madis	0		H	sg n
     	madis	0		S	sg n
Priimats	prii_mats	0		A	sg n
        	prii_mats	0		S	sg n
maksab	maks	b		V	b
Mari	Mari	0		H	sg g
    	mari	0		S	sg g
    	mari	0		S	sg n
    	Mari	0		H	sg n
    	mari	0		S	sg p
Pruulile	pruul	le		S	sg all
1	1	0		N	?
rubla	rubla	0		S	sg g
     	rubla	0		S	sg n
     	rubla	0		S	sg p
50	50	0		N	?
kopik	####				
nende	see	de		P	pl g
     	tema	de		P	pl g
kartuliste	####				
eest	eest	0		D	
    	eest	0		K	
    	esi	st		S	sg el
.	.			Z	
*	*			Z	
kohtu	kohtu	0		V	o
     	kohus	0		S	sg g
mõistus	mõistus	0		S	sg n
täidetud	täit	tud		V	tud
        	täide=tu	d		S	pl n
        	täide=tud	0		A	
        	täide=tud	0		A	sg n
        	täide=tud	d		A	pl n
.	.			Z	
