Keart	####				
Klesmann	####				
kaebab	kaeba	b		V	b
,	,			Z	
et	et	0		J	
Jüri	Jüri	0		H	sg g
    	Jüri	0		H	sg n
Kütsen	####				
on	ole	0		V	b
  	ole	0		V	vad
oma	oma	0		A	sg g
   	oma	0		D	
   	oma	0		P	sg g
   	oma	0		S	sg g
   	oma	0		V	o
   	oma	0		A	sg n
   	oma	0		A	sg p
   	oma	0		P	sg n
   	oma	0		P	sg p
   	oma	0		S	sg n
   	oma	0		S	sg p
koeraga	koer	ga		A	sg kom
       	koer	ga		S	sg kom
tema	tema	0		P	sg g
    	tema	0		P	sg n
sea	sead	0		V	o
   	siga	0		A	sg g
   	siga	0		S	sg g
kõrva	kõrv	0		S	adt
     	kõrv	0		S	sg g
     	kõrv	0		S	sg p
poolest	pool	st		N	sg el
       	pool	st		S	sg el
       	poolene	t		A	sg p
       	poolest	0		K	
saadik	saadik	0		K	
      	saadik	0		S	sg n
lasknud	lask	nud		V	nud
       	lask=nu	d		S	pl n
       	lask=nud	0		A	
       	lask=nud	0		A	sg n
       	lask=nud	d		A	pl n
ära	ära	0		D	
   	ära	0		V	neg o
tõmmata	tõmba	ta		V	da
       	tõmba	ta		V	ta
ja	ja	0		J	
teine	teine	0		O	sg n
     	teine	0		P	sg n
kõrv	kõrv	0		S	sg n
vastu	vastu	0		D	
     	vastu	0		K	
pead	pea	d		S	pl n
    	pida	d		V	d
    	pea	d		S	sg p
ära	ära	0		D	
   	ära	0		V	neg o
nääritud	nääri=tu	d		A	pl n
,	,			Z	
nüüd	nüüd	0		D	
on	ole	0		V	b
  	ole	0		V	vad
siga	siga	0		A	sg n
    	siga	0		A	sg p
    	siga	0		S	sg n
    	siga	0		S	sg p
pikali	pikali	0		D	
maas	maa	s		S	sg in
    	maas	0		D	
haige	haige	0		A	sg g
     	haige	0		A	sg n
     	haige	0		S	sg g
     	haige	0		S	sg n
.	.			Z	
Jüri	Jüri	0		H	sg g
    	Jüri	0		H	sg n
Kütsen	####				
käinud	käi	nud		V	nud
      	käi=nud	0		A	
      	käi=nud	0		A	sg n
      	käi=nud	d		A	pl n
      	käinu	d		S	pl n
siga	siga	0		A	sg n
    	siga	0		A	sg p
    	siga	0		S	sg n
    	siga	0		S	sg p
vaatamas	vaata	mas		V	mas
ja	ja	0		J	
ütelnud	ütle	nud		V	nud
       	ütel=nu	d		S	pl n
       	ütel=nud	0		A	
       	ütel=nud	0		A	sg n
       	ütel=nud	d		A	pl n
et	et	0		J	
tema	tema	0		P	sg g
    	tema	0		P	sg n
väljal	väli	l		S	sg ad
asetanud	aseta	nud		V	nud
        	aseta=nu	d		S	pl n
        	aseta=nud	0		A	
        	aseta=nud	0		A	sg n
        	aseta=nud	d		A	pl n
koera	koer	0		A	adt
     	koer	0		A	sg g
     	koer	0		S	adt
     	koer	0		S	sg g
     	koer	0		A	sg p
     	koer	0		S	sg p
sea	sead	0		V	o
   	siga	0		A	sg g
   	siga	0		S	sg g
peale	pea	le		S	sg all
     	peale	0		D	
     	peale	0		K	
,	,			Z	
et	et	0		J	
ta	tema	0		P	sg g
  	tema	0		P	sg n
väljal	väli	l		S	sg ad
on	ole	0		V	b
  	ole	0		V	vad
väga	väga	0		D	
palju	palju	0		D	
     	palju	0		P	sg g
     	palju	0		P	sg n
paha	pahk	0		S	sg g
    	paha	0		A	sg g
    	paha	0		A	sg n
    	paha	0		A	sg p
    	paha	0		S	sg g
    	paha	0		S	sg n
    	paha	0		S	sg p
teinud	tege	nud		V	nud
      	tei=nud	0		A	
      	tei=nud	0		A	sg n
      	tei=nud	d		A	pl n
      	teinu	d		S	pl n
.	.			Z	
Miina	Miina	0		H	sg g
     	Miina	0		H	sg n
arvan	arva	n		V	n
oma	oma	0		A	sg g
   	oma	0		D	
   	oma	0		P	sg g
   	oma	0		S	sg g
   	oma	0		V	o
   	oma	0		A	sg n
   	oma	0		A	sg p
   	oma	0		P	sg n
   	oma	0		P	sg p
   	oma	0		S	sg n
   	oma	0		S	sg p
sea	sead	0		V	o
   	siga	0		A	sg g
   	siga	0		S	sg g
põetamise	põeta=mine	0		S	sg g
kahju	kahi	0		S	adt
     	kahi	0		S	sg g
     	kahi	0		S	sg p
     	kahju	0		S	sg g
     	kahju	0		S	sg n
     	kahju	0		S	sg p
tasumiseks	tasumine	ks		S	sg tr
3	3	0		N	?
rubla	rubla	0		S	sg g
     	rubla	0		S	sg n
     	rubla	0		S	sg p
kui	kui	0		D	
   	kui	0		J	
ta	tema	0		P	sg g
  	tema	0		P	sg n
eluse	####				
jaab	####				
,	,			Z	
kui	kui	0		D	
   	kui	0		J	
ta	tema	0		P	sg g
  	tema	0		P	sg n
mitte	mitte	0		D	
ei	ei	0		D	
  	ei	0		V	neg
jää	jää	0		S	sg g
   	jää	0		V	o
   	jää	0		S	sg n
,	,			Z	
siis	siis	0		D	
    	siis	0		J	
nõudanud	####				
uuesti	uuesti	0		D	
kohut	kohus	t		S	sg p
.	.			Z	
Jüri	Jüri	0		H	sg g
    	Jüri	0		H	sg n
Kütsen	####				
ütles	ütle	s		V	s
:	:			Z	
seda	see	da		P	sg p
mina	mina	0		P	sg n
    	mina	0		S	sg g
    	mina	0		S	sg n
    	mina	0		S	sg p
ei	ei	0		D	
  	ei	0		V	neg
näinud	näi	nud		V	nud
      	näge	nud		V	nud
      	näi=nud	0		A	
      	näi=nud	0		A	sg n
      	näi=nud	d		A	pl n
      	näinu	d		S	pl n
mitte	mitte	0		D	
,	,			Z	
et	et	0		J	
koer	koer	0		A	sg n
    	koer	0		S	sg n
Keart	####				
Klismanni	####				
sea	sead	0		V	o
   	siga	0		A	sg g
   	siga	0		S	sg g
kõrvad	kõrv	d		S	pl n
lõhki	lõhki	0		D	
kiskus	kisku	s		V	s
,	,			Z	
mina	mina	0		P	sg n
    	mina	0		S	sg g
    	mina	0		S	sg n
    	mina	0		S	sg p
assitasin	####				
koera	koer	0		A	adt
     	koer	0		A	sg g
     	koer	0		S	adt
     	koer	0		S	sg g
     	koer	0		A	sg p
     	koer	0		S	sg p
sea	sead	0		V	o
   	siga	0		A	sg g
   	siga	0		S	sg g
peale	pea	le		S	sg all
     	peale	0		D	
     	peale	0		K	
,	,			Z	
siis	siis	0		D	
    	siis	0		J	
ajas	aeg	s		S	sg in
    	aja	s		V	s
koer	koer	0		A	sg n
    	koer	0		S	sg n
teda	tema	da		P	sg p
mööda	mööda	0		A	
     	mööda	0		D	
     	mööda	0		K	
välja	välja	0		D	
     	välja	0		V	o
     	väli	0		S	adt
     	väli	0		S	sg g
     	väli	0		S	sg p
aja	aeg	0		S	sg g
   	aja	0		V	o
äärt	äär	t		S	sg p
taga	taga	0		D	
    	taga	0		K	
    	taga	0		V	o
kuni	kuni	0		J	
    	kuni	0		K	
väljalt	väli	lt		S	sg abl
valja	####				
läks	mine	s		V	s
;	;			Z	
aga	aga	0		J	
seda	see	da		P	sg p
ei	ei	0		D	
  	ei	0		V	neg
näinud	näi	nud		V	nud
      	näge	nud		V	nud
      	näi=nud	0		A	
      	näi=nud	0		A	sg n
      	näi=nud	d		A	pl n
      	näinu	d		S	pl n
mina	mina	0		P	sg n
    	mina	0		S	sg g
    	mina	0		S	sg n
    	mina	0		S	sg p
mitte	mitte	0		D	
,	,			Z	
et	et	0		J	
ta	tema	0		P	sg g
  	tema	0		P	sg n
siga	siga	0		A	sg n
    	siga	0		A	sg p
    	siga	0		S	sg n
    	siga	0		S	sg p
kiskus	kisku	s		V	s
.	.			Z	
siga	siga	0		A	sg n
    	siga	0		A	sg p
    	siga	0		S	sg n
    	siga	0		S	sg p
tegi	sina	0	gi	P	pl g
    	tege	i		V	s
    	sina	0	gi	P	pl n
ju	ju	0		D	
minule	mina	le		P	sg all
väljal	väli	l		S	sg ad
palju	palju	0		D	
     	palju	0		P	sg g
     	palju	0		P	sg n
kurja	kuri	0		A	adt
     	kuri	0		A	sg g
     	kuri	0		S	adt
     	kuri	0		S	sg g
     	kuri	0		A	sg p
     	kuri	0		S	sg p
,	,			Z	
iga	iga	0		P	sg g
   	iga	0		P	sg n
   	iga	0		P	sg p
   	iga	0		S	sg n
   	iga	0		S	sg p
päeva	päev	0		S	adt
     	päev	0		S	sg g
     	päev	0		S	sg p
oli	ole	i		V	s
väljal	väli	l		S	sg ad
.	.			Z	
Keart	####				
Klesmann	####				
ütles	ütle	s		V	s
:	:			Z	
eks	eks	0		D	
   	eks	0		S	sg n
   	eks	0		Y	?
teie	sina	0		P	pl g
    	sina	0		P	pl n
panud	####				
siis	siis	0		D	
    	siis	0		J	
siga	siga	0		A	sg n
    	siga	0		A	sg p
    	siga	0		S	sg n
    	siga	0		S	sg p
kinni	kinni	0		D	
,	,			Z	
kui	kui	0		D	
   	kui	0		J	
tema	tema	0		P	sg g
    	tema	0		P	sg n
iga	iga	0		P	sg g
   	iga	0		P	sg n
   	iga	0		P	sg p
   	iga	0		S	sg n
   	iga	0		S	sg p
päeva	päev	0		S	adt
     	päev	0		S	sg g
     	päev	0		S	sg p
teie	sina	0		P	pl g
    	sina	0		P	pl n
väljal	väli	l		S	sg ad
oli	ole	i		V	s
,	,			Z	
ehk	ehk	0		D	
   	ehk	0		J	
anud	anu	d		V	d
minule	mina	le		P	sg all
seda	see	da		P	sg p
teada	tead	a		V	da
,	,			Z	
siis	siis	0		D	
    	siis	0		J	
oleks	ole	ks		V	ks
mina	mina	0		P	sg n
    	mina	0		S	sg g
    	mina	0		S	sg n
    	mina	0		S	sg p
siga	siga	0		A	sg n
    	siga	0		A	sg p
    	siga	0		S	sg n
    	siga	0		S	sg p
hoida	hoid	a		V	da
teadnud	tead	nud		V	nud
       	tead=nu	d		S	pl n
       	tead=nud	0		A	
       	tead=nud	0		A	sg n
       	tead=nud	d		A	pl n
.	.			Z	
kohus	kohu	s		V	s
     	kohus	0		S	sg n
mõistis	mõist	is		V	s
:	:			Z	
Jüri	Jüri	0		H	sg g
    	Jüri	0		H	sg n
Kütsen	####				
maksab	maks	b		V	b
Keart	####				
Klismannile	####				
siia	siia	0		D	
    	siig	0		S	sg g
põdemist	põdemine	t		S	sg p
3	3	0		N	?
rubla	rubla	0		S	sg g
     	rubla	0		S	sg n
     	rubla	0		S	sg p
kui	kui	0		D	
   	kui	0		J	
tema	tema	0		P	sg g
    	tema	0		P	sg n
eelama	####				
jääb	jää	b		V	b
,	,			Z	
sest	see	st		P	sg el
    	sest	0		J	
et	et	0		J	
Kütsen	####				
isi	####				
tunnistas	tunnista	s		V	s
et	et	0		J	
ta	tema	0		P	sg g
  	tema	0		P	sg n
koeraga	koer	ga		A	sg kom
       	koer	ga		S	sg kom
siga	siga	0		A	sg n
    	siga	0		A	sg p
    	siga	0		S	sg n
    	siga	0		S	sg p
mööda	mööda	0		A	
     	mööda	0		D	
     	mööda	0		K	
välja	välja	0		D	
     	välja	0		V	o
     	väli	0		S	adt
     	väli	0		S	sg g
     	väli	0		S	sg p
aja	aeg	0		S	sg g
   	aja	0		V	o
äärt	äär	t		S	sg p
on	ole	0		V	b
  	ole	0		V	vad
taga	taga	0		D	
    	taga	0		K	
    	taga	0		V	o
ajanud	aja	nud		V	nud
      	aja=nu	d		S	pl n
      	aja=nud	0		A	
      	aja=nud	0		A	sg n
      	aja=nud	d		A	pl n
nii	nii	0		D	
kaugele	kauge	le		A	sg all
       	kaugele	0		D	
et	et	0		J	
väljalt	väli	lt		S	sg abl
välja	välja	0		D	
     	välja	0		V	o
     	väli	0		S	adt
     	väli	0		S	sg g
     	väli	0		S	sg p
on	ole	0		V	b
  	ole	0		V	vad
läinud	läinu	d		S	pl n
      	läinud	0		A	
      	läinud	0		A	sg n
      	läinud	d		A	pl n
      	mine	nud		V	nud
,	,			Z	
siis	siis	0		D	
    	siis	0		J	
on	ole	0		V	b
  	ole	0		V	vad
koer	koer	0		A	sg n
    	koer	0		S	sg n
seda	see	da		P	sg p
siga	siga	0		A	sg n
    	siga	0		A	sg p
    	siga	0		S	sg n
    	siga	0		S	sg p
ometi	ometi	0		D	
ikka	ikka	0		D	
    	iga	0		S	adt
kiskunud	kisku	nud		V	nud
        	kisku=nu	d		S	pl n
        	kisku=nud	0		A	
        	kisku=nud	0		A	sg n
        	kisku=nud	d		A	pl n
;	;			Z	
aga	aga	0		J	
kui	kui	0		D	
   	kui	0		J	
siga	siga	0		A	sg n
    	siga	0		A	sg p
    	siga	0		S	sg n
    	siga	0		S	sg p
ära	ära	0		D	
   	ära	0		V	neg o
sureb	sure	b		V	b
saab	saa	b		V	b
see	see	0		P	sg n
asi	asi	0		S	sg n
   	asi	0		V	o
uuesti	uuesti	0		D	
üles	üles	0		D	
võetud	võe=tu	d		S	pl n
      	võetud	0		A	
      	võetud	0		A	sg n
      	võetud	d		A	pl n
      	võt	tud		V	tud
.	.			Z	
sellega	see	ga		P	sg kom
leppis	leppi	s		V	s
kohus	kohu	s		V	s
     	kohus	0		S	sg n
,	,			Z	
protokoll	protokoll	0		S	sg n
sai	saa	i		V	s
   	sai	0		S	sg n
ette	ette	0		D	
    	ette	0		K	
    	esi	tte		S	adt
loetud	loetu	d		S	pl n
      	loetud	0		A	
      	loetud	0		A	sg n
      	loetud	d		A	pl n
      	luge	tud		V	tud
ja	ja	0		J	
õige	õige	0		A	sg g
    	õige	0		A	sg n
    	õige	0		D	
leitud	leid	tud		V	tud
      	leitu	d		S	pl n
      	leitud	0		A	
      	leitud	0		A	sg n
      	leitud	d		A	pl n
.	.			Z	
kohtu	kohtu	0		V	o
     	kohus	0		S	sg g
vanem	vanem	0		C	sg n
     	vanem	0		S	sg n
:	:			Z	
Jaan	Jaan	0		H	sg n
    	jaan	0		S	sg n
    	jaan	0		Y	?
Viiroon	####				
XXX	XXX	0		O	?
   	XXX	0		Y	?
1	1	0		N	?
,	,			Z	
kohtu	kohtu	0		V	o
     	kohus	0		S	sg g
kõrvamees	kõrva_mees	0		S	sg n
:	:			Z	
Toomas	Toomas	0		H	sg n
      	Toomas	s		H	sg in
      	too	mas		V	mas
Rasu	rask	0		S	sg g
    	rasu	0		S	sg g
    	rasu	0		S	sg n
    	rasu	0		S	sg p
XXX	XXX	0		O	?
   	XXX	0		Y	?
2	2	0		N	?
,	,			Z	
kohtu	kohtu	0		V	o
     	kohus	0		S	sg g
kõrvamees	kõrva_mees	0		S	sg n
:	:			Z	
Mart	Mart	0		H	sg n
    	mart	0		S	sg n
Pauls	####				
XXX	XXX	0		O	?
   	XXX	0		Y	?
kirjutaja	kirjutaja	0		S	sg g
         	kirjutaja	0		S	sg n
:	:			Z	
Kaarel	Kaarel	0		H	sg n
      	kaar	l		S	sg ad
      	kaarel	0		S	sg n
Kaasik	kaasik	0		S	sg n
