sai	saa	i		V	s
   	sai	0		S	sg n
ette	ette	0		D	
    	ette	0		K	
    	esi	tte		S	adt
võetud	võe=tu	d		S	pl n
      	võetud	0		A	
      	võetud	0		A	sg n
      	võetud	d		A	pl n
      	võt	tud		V	tud
Raba	raba	0		S	sg g
    	raba	0		V	o
    	raba	0		S	sg n
    	raba	0		S	sg p
kõrtsmiku	kõrtsmik	0		S	sg g
Jacob	Jacob	0		H	sg n
Valgi	####				
kaebduse	####				
asi	asi	0		S	sg n
   	asi	0		V	o
;	;			Z	
sellepärast	selle_pärast	0		D	
et	et	0		J	
Riesepere	####				
mõisa	mõis	0		S	sg g
pruulköögi	pruul_köök	0		S	sg g
ees	ees	0		D	
   	ees	0		K	
   	esi	s		S	sg in
,	,			Z	
kus	kus	0		D	
tema	tema	0		P	sg g
    	tema	0		P	sg n
üleval	ülev	l		A	sg ad
      	üleval	0		D	
mõisa	mõis	0		S	sg g
juures	juur	s		S	sg in
      	juures	0		D	
      	juures	0		K	
ise	ise	0		A	
   	ise	0		D	
   	ise	0		P	pl n
   	ise	0		P	sg n
kauba	kaup	0		S	sg g
raha	raha	0		S	sg g
    	raha	0		S	sg n
    	raha	0		S	sg p
maksnud	maks	nud		V	nud
       	maks=nu	d		S	pl n
       	maks=nud	0		A	
       	maks=nud	0		A	sg n
       	maks=nud	d		A	pl n
,	,			Z	
on	ole	0		V	b
  	ole	0		V	vad
tema	tema	0		P	sg g
    	tema	0		P	sg n
ole	ole	0		V	o
koorma	koorem	0		S	sg g
      	koorma	0		V	o
pealt	pea	lt		S	sg abl
     	pealt	0		D	
     	pealt	0		K	
5	5	0		N	?
pudelid	pudel	d		S	pl n
Topalt	####				
õlut	õlu	t		S	sg p
ära	ära	0		D	
   	ära	0		V	neg o
varastatud	varasta	tud		V	tud
          	varastatu	d		S	pl n
          	varastatud	0		A	
          	varastatud	0		A	sg n
          	varastatud	d		A	pl n
õhtu	õhtu	0		S	sg g
    	õhtu	0		S	sg n
ajal	aeg	l		S	sg ad
    	ajal	0		K	
.	.			Z	
ja	ja	0		J	
et	et	0		J	
al	####				
ette	ette	0		D	
    	ette	0		K	
    	esi	tte		S	adt
tulevat	tule	vat		V	vat
       	tulev	t		A	sg p
inimesed	inimene	d		S	pl n
selle	see	0		P	sg g
     	sell	e		S	pl p
üle	üle	0		D	
   	üle	0		K	
peavad	pida	vad		V	vad
tunnistust	tunnistus	t		S	sg p
andma	and	ma		V	ma
.	.			Z	
1	1	0		N	?
)	)			Z	
sai	saa	i		V	s
   	sai	0		S	sg n
kohtu	kohtu	0		V	o
     	kohus	0		S	sg g
ette	ette	0		D	
    	ette	0		K	
    	esi	tte		S	adt
kutsutud	kutsu	tud		V	tud
        	kutsutu	d		S	pl n
        	kutsutud	0		A	
        	kutsutud	0		A	sg n
        	kutsutud	d		A	pl n
,	,			Z	
latsi	####				
sulane	sulane	0		S	sg n
      	sulane	0		V	o
Jacob	Jacob	0		H	sg n
(	(			Z	
kellepeale	kelle_pea	le		S	sg all
tunnistuse	tunnistus	0		S	sg g
järel	järel	0		D	
     	järel	0		K	
se	####				
vargus	vargus	0		S	sg n
arvati	arva	ti		V	ti
;	;			Z	
sellepärast	selle_pärast	0		D	
et	et	0		J	
tema	tema	0		P	sg g
    	tema	0		P	sg n
(	(			Z	
Liiva	Liiva	0		H	sg g
     	liiv	0		S	adt
     	liiv	0		S	sg g
     	Liiva	0		H	sg n
     	liiv	0		S	sg p
)	)			Z	
Raba	raba	0		S	sg g
    	raba	0		V	o
    	raba	0		S	sg n
    	raba	0		S	sg p
kõrtsmiku	kõrtsmik	0		S	sg g
kauba	kaup	0		S	sg g
koorma	koorem	0		S	sg g
      	koorma	0		V	o
juures	juur	s		S	sg in
      	juures	0		D	
      	juures	0		K	
seisnud	seis	nud		V	nud
       	seis=nu	d		S	pl n
       	seis=nud	0		A	
       	seis=nud	0		A	sg n
       	seis=nud	d		A	pl n
ja	ja	0		J	
ise	ise	0		A	
   	ise	0		D	
   	ise	0		P	pl n
   	ise	0		P	sg n
olnud	ol=nud	0		A	
     	ol=nud	0		A	sg n
     	ol=nud	d		A	pl n
     	ole	nud		V	nud
     	olnu	d		S	pl n
:	:			Z	
et	et	0		J	
siit	siit	0		D	
oleks	ole	ks		V	ks
hea	hea	0		A	sg g
   	hea	0		A	sg n
   	hea	0		S	sg g
   	hea	0		S	sg n
olnud	ol=nud	0		A	
     	ol=nud	0		A	sg n
     	ol=nud	d		A	pl n
     	ole	nud		V	nud
     	olnu	d		S	pl n
õlut	õlu	t		S	sg p
varastada	varasta	da		V	da
)	)			Z	
tema	tema	0		P	sg g
    	tema	0		P	sg n
vabandas	vabanda	s		V	s
ja	ja	0		J	
ütles	ütle	s		V	s
:	:			Z	
et	et	0		J	
tema	tema	0		P	sg g
    	tema	0		P	sg n
pole	ole	0		V	neg o
mitte	mitte	0		D	
õlut	õlu	t		S	sg p
varastanud	varasta	nud		V	nud
          	varasta=nu	d		S	pl n
          	varasta=nud	0		A	
          	varasta=nud	0		A	sg n
          	varasta=nud	d		A	pl n
,	,			Z	
aga	aga	0		J	
seda	see	da		P	sg p
ei	ei	0		D	
  	ei	0		V	neg
võinud	või	nud		V	nud
      	või=nu	d		S	pl n
      	või=nud	0		A	
      	või=nud	0		A	sg n
      	või=nud	d		A	pl n
ta	tema	0		P	sg g
  	tema	0		P	sg n
salgata	salk	ta		S	sg ab
,	,			Z	
et	et	0		J	
ta	tema	0		P	sg g
  	tema	0		P	sg n
öelnud	öel=nu	d		S	pl n
      	öel=nud	0		A	
      	öel=nud	0		A	sg n
      	öel=nud	d		A	pl n
      	ütle	nud		V	nud
on	ole	0		V	b
  	ole	0		V	vad
:	:			Z	
et	et	0		J	
siit	siit	0		D	
oleks	ole	ks		V	ks
hea	hea	0		A	sg g
   	hea	0		A	sg n
   	hea	0		S	sg g
   	hea	0		S	sg n
olnud	ol=nud	0		A	
     	ol=nud	0		A	sg n
     	ol=nud	d		A	pl n
     	ole	nud		V	nud
     	olnu	d		S	pl n
õlut	õlu	t		S	sg p
varastada	varasta	da		V	da
;	;			Z	
tema	tema	0		P	sg g
    	tema	0		P	sg n
tunnista	tunnista	0		V	o
ka	ka	0		D	
:	:			Z	
et	et	0		J	
teised	teine	d		O	pl n
      	teine	d		P	pl n
ka	ka	0		D	
seal	seal	0		D	
    	siga	l		A	sg ad
    	siga	l		S	sg ad
juures	juur	s		S	sg in
      	juures	0		D	
      	juures	0		K	
olnud	ol=nud	0		A	
     	ol=nud	0		A	sg n
     	ol=nud	d		A	pl n
     	ole	nud		V	nud
     	olnu	d		S	pl n
,	,			Z	
mis	mis	0		P	pl n
   	mis	0		P	sg n
siin	siin	0		D	
    	siin	0		S	sg n
allamal	####				
saavad	saa	vad		V	vad
      	saav	d		A	pl n
      	saav	d		S	pl n
ette	ette	0		D	
    	ette	0		K	
    	esi	tte		S	adt
kutsutud	kutsu	tud		V	tud
        	kutsutu	d		S	pl n
        	kutsutud	0		A	
        	kutsutud	0		A	sg n
        	kutsutud	d		A	pl n
.	.			Z	
2	2	0		N	?
)	)			Z	
sai	saa	i		V	s
   	sai	0		S	sg n
kohtu	kohtu	0		V	o
     	kohus	0		S	sg g
ette	ette	0		D	
    	ette	0		K	
    	esi	tte		S	adt
kutsutud	kutsu	tud		V	tud
        	kutsutu	d		S	pl n
        	kutsutud	0		A	
        	kutsutud	0		A	sg n
        	kutsutud	d		A	pl n
,	,			Z	
Jüri	Jüri	0		H	sg g
    	Jüri	0		H	sg n
Saarberg	####				
,	,			Z	
masina	masin	0		S	sg g
pois	poi	s		S	sg in
,	,			Z	
tema	tema	0		P	sg g
    	tema	0		P	sg n
tunnistas	tunnista	s		V	s
:	:			Z	
et	et	0		J	
latsi	####				
Jakob	Jakob	0		H	sg n
,	,			Z	
tema	tema	0		P	sg g
    	tema	0		P	sg n
ja	ja	0		J	
ka	ka	0		D	
mõisa	mõis	0		S	sg g
keller	####				
meister	meister	0		S	sg n
Karl	Karl	0		H	sg n
seal	seal	0		D	
    	siga	l		A	sg ad
    	siga	l		S	sg ad
juures	juur	s		S	sg in
      	juures	0		D	
      	juures	0		K	
olnud	ol=nud	0		A	
     	ol=nud	0		A	sg n
     	ol=nud	d		A	pl n
     	ole	nud		V	nud
     	olnu	d		S	pl n
,	,			Z	
aga	aga	0		J	
viimane	viimane	0		A	sg n
on	ole	0		V	b
  	ole	0		V	vad
pärast	pära	st		S	sg el
      	pärane	t		A	sg p
      	pärast	0		D	
      	pärast	0		K	
koorma	koorem	0		S	sg g
      	koorma	0		V	o
juure	juur	0		S	sg g
tulnud	tul=nud	0		A	
      	tul=nud	0		A	sg n
      	tul=nud	d		A	pl n
      	tule	nud		V	nud
      	tulnu	d		S	pl n
ja	ja	0		J	
enne	enne	0		D	
    	enne	0		K	
    	enne	0		S	sg n
jälle	jälle	0		D	
ära	ära	0		D	
   	ära	0		V	neg o
läinud	läinu	d		S	pl n
      	läinud	0		A	
      	läinud	0		A	sg n
      	läinud	d		A	pl n
      	mine	nud		V	nud
;	;			Z	
aga	aga	0		J	
tema	tema	0		P	sg g
    	tema	0		P	sg n
Jüri	Jüri	0		H	sg g
    	Jüri	0		H	sg n
Särberg	####				
ei	ei	0		D	
  	ei	0		V	neg
teada	tead	a		V	da
sest	see	st		P	sg el
    	sest	0		J	
vargusest	vargus	st		S	sg el
ühtigi	ühtigi	0		D	
;	;			Z	
muud	muu	d		P	pl n
    	muu	d		S	pl n
    	muu	d		V	d
    	muu	d		P	sg p
    	muu	d		S	sg p
kui	kui	0		D	
   	kui	0		J	
aga	aga	0		J	
seda	see	da		P	sg p
olla	ole	a		V	da
ta	tema	0		P	sg g
  	tema	0		P	sg n
ka	ka	0		D	
kuulnud	kuul	nud		V	nud
       	kuul=nud	0		A	
       	kuul=nud	0		A	sg n
       	kuul=nud	d		A	pl n
       	kuulnu	d		S	pl n
,	,			Z	
kui	kui	0		D	
   	kui	0		J	
latsi	####				
Jakob	Jakob	0		H	sg n
ütelnud	ütle	nud		V	nud
       	ütel=nu	d		S	pl n
       	ütel=nud	0		A	
       	ütel=nud	0		A	sg n
       	ütel=nud	d		A	pl n
:	:			Z	
et	et	0		J	
siit	siit	0		D	
oleks	ole	ks		V	ks
hea	hea	0		A	sg g
   	hea	0		A	sg n
   	hea	0		S	sg g
   	hea	0		S	sg n
olnud	ol=nud	0		A	
     	ol=nud	0		A	sg n
     	ol=nud	d		A	pl n
     	ole	nud		V	nud
     	olnu	d		S	pl n
õlut	õlu	t		S	sg p
võtta	võt	a		V	da
;	;			Z	
ja	ja	0		J	
tunnistas	tunnista	s		V	s
ka	ka	0		D	
;	;			Z	
et	et	0		J	
Lepiku	lepik	0		S	sg g
s	s	0		Y	?
.	.			Z	
Jaan	Jaan	0		H	sg n
    	jaan	0		S	sg n
    	jaan	0		Y	?
Saarberg	####				
seal	seal	0		D	
    	siga	l		A	sg ad
    	siga	l		S	sg ad
olnud	ol=nud	0		A	
     	ol=nud	0		A	sg n
     	ol=nud	d		A	pl n
     	ole	nud		V	nud
     	olnu	d		S	pl n
ja	ja	0		J	
et	et	0		J	
nemad	tema	d		P	pl n
kõik	kõik	0		P	pl n
    	kõik	0		S	sg n
    	kõik	0		P	sg n
rinnoli	####				
seal	seal	0		D	
    	siga	l		A	sg ad
    	siga	l		S	sg ad
koorma	koorem	0		S	sg g
      	koorma	0		V	o
najal	najal	0		K	
olnud	ol=nud	0		A	
     	ol=nud	0		A	sg n
     	ol=nud	d		A	pl n
     	ole	nud		V	nud
     	olnu	d		S	pl n
.	.			Z	
3	3	0		N	?
)	)			Z	
tuli	tuli	0		S	sg n
    	tule	i		V	s
kohtu	kohtu	0		V	o
     	kohus	0		S	sg g
ette	ette	0		D	
    	ette	0		K	
    	esi	tte		S	adt
Jaan	Jaan	0		H	sg n
    	jaan	0		S	sg n
    	jaan	0		Y	?
Saarberg	####				
,	,			Z	
ja	ja	0		J	
tunnistas	tunnista	s		V	s
:	:			Z	
et	et	0		J	
ta	tema	0		P	sg g
  	tema	0		P	sg n
on	ole	0		V	b
  	ole	0		V	vad
küll	küll	0		D	
    	küll	0		S	sg n
seal	seal	0		D	
    	siga	l		A	sg ad
    	siga	l		S	sg ad
juures	juur	s		S	sg in
      	juures	0		D	
      	juures	0		K	
olnud	ol=nud	0		A	
     	ol=nud	0		A	sg n
     	ol=nud	d		A	pl n
     	ole	nud		V	nud
     	olnu	d		S	pl n
,	,			Z	
kui	kui	0		D	
   	kui	0		J	
teised	teine	d		O	pl n
      	teine	d		P	pl n
kuidas	kuidas	0		D	
üleval	ülev	l		A	sg ad
      	üleval	0		D	
tunnistud	####				
seal	seal	0		D	
    	siga	l		A	sg ad
    	siga	l		S	sg ad
koorma	koorem	0		S	sg g
      	koorma	0		V	o
najal	najal	0		K	
olnud	ol=nud	0		A	
     	ol=nud	0		A	sg n
     	ol=nud	d		A	pl n
     	ole	nud		V	nud
     	olnu	d		S	pl n
ja	ja	0		J	
ka	ka	0		D	
kuulnud	kuul	nud		V	nud
       	kuul=nud	0		A	
       	kuul=nud	0		A	sg n
       	kuul=nud	d		A	pl n
       	kuulnu	d		S	pl n
,	,			Z	
kui	kui	0		D	
   	kui	0		J	
latsi	####				
Jacob	Jacob	0		H	sg n
ütelnud	ütle	nud		V	nud
       	ütel=nu	d		S	pl n
       	ütel=nud	0		A	
       	ütel=nud	0		A	sg n
       	ütel=nud	d		A	pl n
:	:			Z	
et	et	0		J	
siit	siit	0		D	
koorma	koorem	0		S	sg g
      	koorma	0		V	o
pealt	pea	lt		S	sg abl
     	pealt	0		D	
     	pealt	0		K	
hea	hea	0		A	sg g
   	hea	0		A	sg n
   	hea	0		S	sg g
   	hea	0		S	sg n
on	ole	0		V	b
  	ole	0		V	vad
õlut	õlu	t		S	sg p
võtta	võt	a		V	da
,	,			Z	
aga	aga	0		J	
ta	tema	0		P	sg g
  	tema	0		P	sg n
ei	ei	0		D	
  	ei	0		V	neg
teada	tead	a		V	da
,	,			Z	
kas	kas	0		D	
ta	tema	0		P	sg g
  	tema	0		P	sg n
on	ole	0		V	b
  	ole	0		V	vad
teinud	tege	nud		V	nud
      	tei=nud	0		A	
      	tei=nud	0		A	sg n
      	tei=nud	d		A	pl n
      	teinu	d		S	pl n
seda	see	da		P	sg p
ehk	ehk	0		D	
   	ehk	0		J	
mitte	mitte	0		D	
.	.			Z	
4	4	0		N	?
)	)			Z	
sai	saa	i		V	s
   	sai	0		S	sg n
ette	ette	0		D	
    	ette	0		K	
    	esi	tte		S	adt
kutsutud	kutsu	tud		V	tud
        	kutsutu	d		S	pl n
        	kutsutud	0		A	
        	kutsutud	0		A	sg n
        	kutsutud	d		A	pl n
mõisa	mõis	0		S	sg g
kellermeister	####				
Karl	Karl	0		H	sg n
grasse	####				
,	,			Z	
kes	kes	0		P	pl n
   	kes	0		P	sg n
ütles	ütle	s		V	s
:	:			Z	
et	et	0		J	
need	see	d		P	pl n
siin	siin	0		D	
    	siin	0		S	sg n
enne	enne	0		D	
    	enne	0		K	
    	enne	0		S	sg n
nimetatud	nimeta	tud		V	tud
         	nimetatu	d		S	pl n
         	nimetatud	0		A	
         	nimetatud	0		A	sg n
         	nimetatud	d		A	pl n
poisid	poi	sid		S	pl p
      	poiss	d		S	pl n
seal	seal	0		D	
    	siga	l		A	sg ad
    	siga	l		S	sg ad
koorma	koorem	0		S	sg g
      	koorma	0		V	o
juures	juur	s		S	sg in
      	juures	0		D	
      	juures	0		K	
olnud	ol=nud	0		A	
     	ol=nud	0		A	sg n
     	ol=nud	d		A	pl n
     	ole	nud		V	nud
     	olnu	d		S	pl n
,	,			Z	
aga	aga	0		J	
ta	tema	0		P	sg g
  	tema	0		P	sg n
ei	ei	0		D	
  	ei	0		V	neg
tea	tead	0		V	o
mitte	mitte	0		D	
ega	ega	0		D	
   	ega	0		J	
pole	ole	0		V	neg o
näinud	näi	nud		V	nud
      	näge	nud		V	nud
      	näi=nud	0		A	
      	näi=nud	0		A	sg n
      	näi=nud	d		A	pl n
      	näinu	d		S	pl n
,	,			Z	
kes	kes	0		P	pl n
   	kes	0		P	sg n
nendest	see	dest		P	pl el
       	tema	dest		P	pl el
õlut	õlu	t		S	sg p
on	ole	0		V	b
  	ole	0		V	vad
varastanud	varasta	nud		V	nud
          	varasta=nu	d		S	pl n
          	varasta=nud	0		A	
          	varasta=nud	0		A	sg n
          	varasta=nud	d		A	pl n
5	5	0		N	?
)	)			Z	
kohtu	kohtu	0		V	o
     	kohus	0		S	sg g
ette	ette	0		D	
    	ette	0		K	
    	esi	tte		S	adt
tuli	tuli	0		S	sg n
    	tule	i		V	s
;	;			Z	
Oru	org	0		S	sg g
sulane	sulane	0		S	sg n
      	sulane	0		V	o
Mart	Mart	0		H	sg n
    	mart	0		S	sg n
ekkrit	####				
kes	kes	0		P	pl n
   	kes	0		P	sg n
ka	ka	0		D	
sealt	sealt	0		D	
     	siga	lt		A	sg abl
     	siga	lt		S	sg abl
juurest	juur	st		S	sg el
       	juurest	0		K	
läbi	läbi	0		D	
    	läbi	0		K	
    	läbi	0		V	o
läinud	läinu	d		S	pl n
      	läinud	0		A	
      	läinud	0		A	sg n
      	läinud	d		A	pl n
      	mine	nud		V	nud
oli	ole	i		V	s
,	,			Z	
kui	kui	0		D	
   	kui	0		J	
teised	teine	d		O	pl n
      	teine	d		P	pl n
seal	seal	0		D	
    	siga	l		A	sg ad
    	siga	l		S	sg ad
ole	ole	0		V	o
koorma	koorem	0		S	sg g
      	koorma	0		V	o
juures	juur	s		S	sg in
      	juures	0		D	
      	juures	0		K	
seisnud	seis	nud		V	nud
       	seis=nu	d		S	pl n
       	seis=nud	0		A	
       	seis=nud	0		A	sg n
       	seis=nud	d		A	pl n
;	;			Z	
ja	ja	0		J	
ütles	ütle	s		V	s
:	:			Z	
et	et	0		J	
tema	tema	0		P	sg g
    	tema	0		P	sg n
pole	ole	0		V	neg o
näinud	näi	nud		V	nud
      	näge	nud		V	nud
      	näi=nud	0		A	
      	näi=nud	0		A	sg n
      	näi=nud	d		A	pl n
      	näinu	d		S	pl n
,	,			Z	
ega	ega	0		D	
   	ega	0		J	
tea	tead	0		V	o
ka	ka	0		D	
tunnistada	tunnista	da		V	da
,	,			Z	
kes	kes	0		P	pl n
   	kes	0		P	sg n
õlut	õlu	t		S	sg p
koorma	koorem	0		S	sg g
      	koorma	0		V	o
pealt	pea	lt		S	sg abl
     	pealt	0		D	
     	pealt	0		K	
varastanud	varasta	nud		V	nud
          	varasta=nu	d		S	pl n
          	varasta=nud	0		A	
          	varasta=nud	0		A	sg n
          	varasta=nud	d		A	pl n
,	,			Z	
tema	tema	0		P	sg g
    	tema	0		P	sg n
tunnistas	tunnista	s		V	s
:	:			Z	
et	et	0		J	
mõisa	mõis	0		S	sg g
talipois	tali_poi	s		S	sg in
Juhan	Juhan	0		H	sg n
Kurfeld	####				
,	,			Z	
lehma	lehm	0		S	adt
     	lehm	0		S	sg g
     	lehm	0		S	sg p
karjastega	karjane	tega		S	pl kom
sel	see	l		P	sg ad
   	sel	0		Y	?
ajal	aeg	l		S	sg ad
    	ajal	0		K	
_	_			Z	
2	2	0		N	?
tühja	tühi	0		A	adt
     	tühi	0		A	sg g
     	tühi	0		A	sg p
pudelid	pudel	d		S	pl n
oma	oma	0		A	sg g
   	oma	0		D	
   	oma	0		P	sg g
   	oma	0		S	sg g
   	oma	0		V	o
   	oma	0		A	sg n
   	oma	0		A	sg p
   	oma	0		P	sg n
   	oma	0		P	sg p
   	oma	0		S	sg n
   	oma	0		S	sg p
tuppa	tuba	0		S	adt
toonud	too	nud		V	nud
      	too=nu	d		S	pl n
      	too=nud	0		A	
      	too=nud	0		A	sg n
      	too=nud	d		A	pl n
ja	ja	0		J	
ütelnud	ütle	nud		V	nud
       	ütel=nu	d		S	pl n
       	ütel=nud	0		A	
       	ütel=nud	0		A	sg n
       	ütel=nud	d		A	pl n
neid	neid	0		S	sg n
    	see	d		P	pl p
    	tema	d		P	pl p
tühjad	tühi	d		A	pl n
viina	viin	0		S	adt
     	viin	0		S	sg g
     	viin	0		S	sg p
pudelid	pudel	d		S	pl n
olevat	ole	vat		V	vat
      	olev	t		A	sg p
      	olev	t		S	sg p
;	;			Z	
Mart	Mart	0		H	sg n
    	mart	0		S	sg n
ekkrit	####				
tunnistas	tunnista	s		V	s
ka	ka	0		D	
:	:			Z	
et	et	0		J	
viina	viin	0		S	adt
     	viin	0		S	sg g
     	viin	0		S	sg p
poletaja	####				
Jaan	Jaan	0		H	sg n
    	jaan	0		S	sg n
    	jaan	0		Y	?
Gutmann	####				
ka	ka	0		D	
teada	tead	a		V	da
ütelda	ütle	da		V	da
      	ütle	da		V	ta
;	;			Z	
kes	kes	0		P	pl n
   	kes	0		P	sg n
seda	see	da		P	sg p
õlut	õlu	t		S	sg p
olla	ole	a		V	da
varastanud	varasta	nud		V	nud
          	varasta=nu	d		S	pl n
          	varasta=nud	0		A	
          	varasta=nud	0		A	sg n
          	varasta=nud	d		A	pl n
.	.			Z	
6	6	0		N	?
)	)			Z	
sai	saa	i		V	s
   	sai	0		S	sg n
kohtu	kohtu	0		V	o
     	kohus	0		S	sg g
ette	ette	0		D	
    	ette	0		K	
    	esi	tte		S	adt
kutsutud	kutsu	tud		V	tud
        	kutsutu	d		S	pl n
        	kutsutud	0		A	
        	kutsutud	0		A	sg n
        	kutsutud	d		A	pl n
,	,			Z	
talipois	tali_poi	s		S	sg in
Juhan	Juhan	0		H	sg n
Kurfeld	####				
,	,			Z	
kes	kes	0		P	pl n
   	kes	0		P	sg n
ütles	ütle	s		V	s
,	,			Z	
et	et	0		J	
tema	tema	0		P	sg g
    	tema	0		P	sg n
küll	küll	0		D	
    	küll	0		S	sg n
pudelid	pudel	d		S	pl n
tuppa	tuba	0		S	adt
toonud	too	nud		V	nud
      	too=nu	d		S	pl n
      	too=nud	0		A	
      	too=nud	0		A	sg n
      	too=nud	d		A	pl n
aga	aga	0		J	
need	see	d		P	pl n
pole	ole	0		V	neg o
mitte	mitte	0		D	
ole	ole	0		V	o
pudelid	pudel	d		S	pl n
olnud	ol=nud	0		A	
     	ol=nud	0		A	sg n
     	ol=nud	d		A	pl n
     	ole	nud		V	nud
     	olnu	d		S	pl n
,	,			Z	
aga	aga	0		J	
ei	ei	0		D	
  	ei	0		V	neg
võinud	või	nud		V	nud
      	või=nu	d		S	pl n
      	või=nud	0		A	
      	või=nud	0		A	sg n
      	või=nud	d		A	pl n
ometigi	ometigi	0		D	
ütelda	ütle	da		V	da
      	ütle	da		V	ta
:	:			Z	
kust	kusi	t		S	sg p
    	kust	0		D	
ta	tema	0		P	sg g
  	tema	0		P	sg n
need	see	d		P	pl n
pudelid	pudel	d		S	pl n
oli	ole	i		V	s
saanud	saa	nud		V	nud
      	saa=nud	0		A	
      	saa=nud	0		A	sg n
      	saa=nud	d		A	pl n
      	saanu	d		S	pl n
,	,			Z	
muud	muu	d		P	pl n
    	muu	d		S	pl n
    	muu	d		V	d
    	muu	d		P	sg p
    	muu	d		S	sg p
kui	kui	0		D	
   	kui	0		J	
et	et	0		J	
lehma	lehm	0		S	adt
     	lehm	0		S	sg g
     	lehm	0		S	sg p
karjane	karjane	0		S	sg n
neid	neid	0		S	sg n
    	see	d		P	pl p
    	tema	d		P	pl p
temalt	tema	lt		P	sg abl
küsinud	küsi	nud		V	nud
       	küsi=nu	d		S	pl n
       	küsi=nud	0		A	
       	küsi=nud	0		A	sg n
       	küsi=nud	d		A	pl n
oma	oma	0		A	sg g
   	oma	0		D	
   	oma	0		P	sg g
   	oma	0		S	sg g
   	oma	0		V	o
   	oma	0		A	sg n
   	oma	0		A	sg p
   	oma	0		P	sg n
   	oma	0		P	sg p
   	oma	0		S	sg n
   	oma	0		S	sg p
kätte	kätte	0		K	
     	käsi	tte		S	adt
,	,			Z	
sellepärast	selle_pärast	0		D	
olla	ole	a		V	da
ta	tema	0		P	sg g
  	tema	0		P	sg n
neid	neid	0		S	sg n
    	see	d		P	pl p
    	tema	d		P	pl p
toonud	too	nud		V	nud
      	too=nu	d		S	pl n
      	too=nud	0		A	
      	too=nud	0		A	sg n
      	too=nud	d		A	pl n
.	.			Z	
7	7	0		N	?
)	)			Z	
tuli	tuli	0		S	sg n
    	tule	i		V	s
kohtu	kohtu	0		V	o
     	kohus	0		S	sg g
ette	ette	0		D	
    	ette	0		K	
    	esi	tte		S	adt
lehma	lehm	0		S	adt
     	lehm	0		S	sg g
     	lehm	0		S	sg p
karjane	karjane	0		S	sg n
Jaan	Jaan	0		H	sg n
    	jaan	0		S	sg n
    	jaan	0		Y	?
ekkrit	####				
;	;			Z	
ja	ja	0		J	
ütles	ütle	s		V	s
kohtu	kohtu	0		V	o
     	kohus	0		S	sg g
ette	ette	0		D	
    	ette	0		K	
    	esi	tte		S	adt
:	:			Z	
et	et	0		J	
tema	tema	0		P	sg g
    	tema	0		P	sg n
neid	neid	0		S	sg n
    	see	d		P	pl p
    	tema	d		P	pl p
pudelid	pudel	d		S	pl n
pole	ole	0		V	neg o
toonud	too	nud		V	nud
      	too=nu	d		S	pl n
      	too=nud	0		A	
      	too=nud	0		A	sg n
      	too=nud	d		A	pl n
ei	ei	0		D	
  	ei	0		V	neg
ka	ka	0		D	
mitte	mitte	0		D	
tellinud	telli	nud		V	nud
        	telli=nu	d		S	pl n
        	telli=nud	0		A	
        	telli=nud	0		A	sg n
        	telli=nud	d		A	pl n
,	,			Z	
kui	kui	0		D	
   	kui	0		J	
aga	aga	0		J	
,	,			Z	
et	et	0		J	
talipois	tali_poi	s		S	sg in
Juhan	Juhan	0		H	sg n
neid	neid	0		S	sg n
    	see	d		P	pl p
    	tema	d		P	pl p
toonud	too	nud		V	nud
      	too=nu	d		S	pl n
      	too=nud	0		A	
      	too=nud	0		A	sg n
      	too=nud	d		A	pl n
ja	ja	0		J	
tema	tema	0		P	sg g
    	tema	0		P	sg n
kapi	kapp	0		S	sg g
    	kappi	0		V	o
pannud	pan=nu	d		S	pl n
      	pan=nud	0		A	
      	pan=nud	0		A	sg n
      	pan=nud	d		A	pl n
      	pane	nud		V	nud
;	;			Z	
muud	muu	d		P	pl n
    	muu	d		S	pl n
    	muu	d		V	d
    	muu	d		P	sg p
    	muu	d		S	sg p
ei	ei	0		D	
  	ei	0		V	neg
teadnud	tead	nud		V	nud
       	tead=nu	d		S	pl n
       	tead=nud	0		A	
       	tead=nud	0		A	sg n
       	tead=nud	d		A	pl n
ehk	ehk	0		D	
   	ehk	0		J	
ei	ei	0		D	
  	ei	0		V	neg
tunnistanud	tunnista	nud		V	nud
           	tunnista=nu	d		S	pl n
           	tunnista=nud	0		A	
           	tunnista=nud	0		A	sg n
           	tunnista=nud	d		A	pl n
tema	tema	0		P	sg g
    	tema	0		P	sg n
ühtigi	ühtigi	0		D	
.	.			Z	
kohus	kohu	s		V	s
     	kohus	0		S	sg n
mõistis	mõist	is		V	s
:	:			Z	
et	et	0		J	
selgemat	selgem	t		C	sg p
tunnistust	tunnistus	t		S	sg p
se	####				
kord	kord	0		D	
    	kord	0		S	sg n
ei	ei	0		D	
  	ei	0		V	neg
olnud	ol=nud	0		A	
     	ol=nud	0		A	sg n
     	ol=nud	d		A	pl n
     	ole	nud		V	nud
     	olnu	d		S	pl n
,	,			Z	
jääb	jää	b		V	b
se	####				
asi	asi	0		S	sg n
   	asi	0		V	o
tuleva	tulev	0		A	sg g
kohtu	kohtu	0		V	o
     	kohus	0		S	sg g
päevaks	päev	ks		S	sg tr
veel	veel	0		D	
    	vesi	l		S	sg ad
se	####				
seletada	seleta	da		V	da
ja	ja	0		J	
otsust	otsus	t		S	sg p
anda	and	a		V	da
.	.			Z	
