I	I	0		O	?
 	I	0		Y	?
 	j	0		Y	?
kohus	kohu	s		V	s
     	kohus	0		S	sg n
mõistis	mõist	is		V	s
selle	see	0		P	sg g
     	sell	e		S	pl p
peale	pea	le		S	sg all
     	peale	0		D	
     	peale	0		K	
mis	mis	0		P	pl n
   	mis	0		P	sg n
Christjan	####				
Krahv	krahv	0		S	sg n
3	3	0		N	?
veebruari	veebruar	0		S	adt
         	veebruar	0		S	sg g
         	veebruar	0		S	sg p
kuu	kuu	0		S	sg g
   	kuu	0		S	sg n
päeval	päev	l		S	sg ad
1868	1868	0		N	?
sisse	siss	e		S	pl p
     	sisse	0		D	
     	sisse	0		K	
kaebas	kaeba	s		V	s
(	(			Z	
vaata	vaata	0		V	o
külg	külg	0		S	sg n
28	28	0		N	?
)	)			Z	
Purila	####				
valla	vald	0		S	sg g
     	valla	0		D	
kohtu	kohtu	0		V	o
     	kohus	0		S	sg g
poolest	pool	st		N	sg el
       	pool	st		S	sg el
       	poolene	t		A	sg p
       	poolest	0		K	
on	ole	0		V	b
  	ole	0		V	vad
vastatud	vasta	tud		V	tud
        	vasta=tu	d		S	pl n
        	vasta=tud	0		A	
        	vasta=tud	0		A	sg n
        	vasta=tud	d		A	pl n
,	,			Z	
et	et	0		J	
Hans	Hans	0		H	sg n
turjakas	turjakas	0		A	sg n
        	turjakas	s		A	sg in
seal	seal	0		D	
    	siga	l		A	sg ad
    	siga	l		S	sg ad
kohtu	kohtu	0		V	o
     	kohus	0		S	sg g
laua	laud	0		S	sg g
ees	ees	0		D	
   	ees	0		K	
   	esi	s		S	sg in
tunnistanud	tunnista	nud		V	nud
           	tunnista=nu	d		S	pl n
           	tunnista=nud	0		A	
           	tunnista=nud	0		A	sg n
           	tunnista=nud	d		A	pl n
,	,			Z	
tema	tema	0		P	sg g
    	tema	0		P	sg n
olla	ole	a		V	da
seda	see	da		P	sg p
raha	raha	0		S	sg g
    	raha	0		S	sg n
    	raha	0		S	sg p
küll	küll	0		D	
    	küll	0		S	sg n
Christjan	####				
Krahvi	krahv	0		S	adt
      	krahv	0		S	sg g
      	krahv	0		S	sg p
kääst	####				
laenanud	laena	nud		V	nud
        	laena=nu	d		S	pl n
        	laena=nud	0		A	
        	laena=nud	0		A	sg n
        	laena=nud	d		A	pl n
,	,			Z	
aga	aga	0		J	
Ingel	ingel	0		S	sg n
     	Inge	l		H	sg ad
Adamson	Adamson	0		H	sg n
olla	ole	a		V	da
käemeheks	käe_mees	ks		S	sg tr
heitnud	heit	nud		V	nud
       	heit=nu	d		S	pl n
       	heit=nud	0		A	
       	heit=nud	0		A	sg n
       	heit=nud	d		A	pl n
,	,			Z	
sedamööda	seda_mööda	0		D	
peab	pida	b		V	b
ka	ka	0		D	
Ingel	ingel	0		S	sg n
     	Inge	l		H	sg ad
Adamson	Adamson	0		H	sg n
Christjanile	####				
need	see	d		P	pl n
2	2	0		N	?
rbl	rbl	0		Y	?
välja	välja	0		D	
     	välja	0		V	o
     	väli	0		S	adt
     	väli	0		S	sg g
     	väli	0		S	sg p
maksma	maks	ma		V	ma
.	.			Z	
II	II	0		O	?
  	II	0		Y	?
  	jj	0		Y	?
kohtu	kohtu	0		V	o
     	kohus	0		S	sg g
laua	laud	0		S	sg g
ette	ette	0		D	
    	ette	0		K	
    	esi	tte		S	adt
astusid	astu	sid		V	sid
1	1	0		N	?
)	)			Z	
Jüri	Jüri	0		H	sg g
    	Jüri	0		H	sg n
Treinberg	####				
,	,			Z	
tema	tema	0		P	sg g
    	tema	0		P	sg n
ütles	ütle	s		V	s
:	:			Z	
Jüri	Jüri	0		H	sg g
    	Jüri	0		H	sg n
Müürkel	####				
kes	kes	0		P	pl n
   	kes	0		P	sg n
minu	mina	0		P	sg g
juures	juur	s		S	sg in
      	juures	0		D	
      	juures	0		K	
sulaseks	sulane	ks		S	sg tr
oli	ole	i		V	s
,	,			Z	
viitis	viit	is		V	s
peaaegu	pea_aegu	0		D	
poole	pool	0		N	sg g
     	pool	0		S	sg g
     	pool	e		S	pl p
     	poole	0		K	
     	poole	0		S	sg n
töö	töö	0		S	sg g
   	töö	0		S	sg n
päevad	päev	d		S	pl n
kõrtsis	kõrts	s		S	sg in
ära	ära	0		D	
   	ära	0		V	neg o
ja	ja	0		J	
kui	kui	0		D	
   	kui	0		J	
kolme	kolm	0		N	adt
     	kolm	0		N	sg g
     	kolm	0		N	sg p
kuninga	kuningas	0		S	sg g
päeva	päev	0		S	adt
     	päev	0		S	sg g
     	päev	0		S	sg p
ajal	aeg	l		S	sg ad
    	ajal	0		K	
jälle	jälle	0		D	
2	2	0		N	?
nädalat	nädal	t		S	sg p
japaranu	####				
kõrtsis	kõrts	s		S	sg in
seisis	seis	is		V	s
lasksin	lask	sin		V	sin
teda	tema	da		P	sg p
hoopis	hoopis	0		D	
minu	mina	0		P	sg g
teenistusest	teenistus	st		S	sg el
lahti	laht	i		S	pl p
     	lahti	0		D	
,	,			Z	
kuub	kuub	0		S	sg n
ja	ja	0		J	
tünder	tünder	0		S	sg n
otri	oder	i		S	pl p
oli	ole	i		V	s
temal	tema	l		P	sg ad
veel	veel	0		D	
    	vesi	l		S	sg ad
sest	see	st		P	sg el
    	sest	0		J	
saada	saa	da		V	da
     	saat	0		V	o
     	saa	da		V	ta
,	,			Z	
mis	mis	0		P	pl n
   	mis	0		P	sg n
mina	mina	0		P	sg n
    	mina	0		S	sg g
    	mina	0		S	sg n
    	mina	0		S	sg p
kauba	kaup	0		S	sg g
tegemise	tegemine	0		S	sg g
ajal	aeg	l		S	sg ad
    	ajal	0		K	
temale	tema	le		P	sg all
lubanud	luba	nud		V	nud
       	luba=nu	d		S	pl n
       	luba=nud	0		A	
       	luba=nud	0		A	sg n
       	luba=nud	d		A	pl n
olin	ole	in		V	sin
,	,			Z	
aga	aga	0		J	
nüüd	nüüd	0		D	
mina	mina	0		P	sg n
    	mina	0		S	sg g
    	mina	0		S	sg n
    	mina	0		S	sg p
ei	ei	0		D	
  	ei	0		V	neg
taha	taht	0		V	o
    	taha	0		D	
    	taha	0		K	
temale	tema	le		P	sg all
seda	see	da		P	sg p
välja	välja	0		D	
     	välja	0		V	o
     	väli	0		S	adt
     	väli	0		S	sg g
     	väli	0		S	sg p
maksa	maks	0		S	adt
     	maks	0		S	sg g
     	maks	0		V	o
     	maks	0		S	sg p
sest	see	st		P	sg el
    	sest	0		J	
et	et	0		J	
tema	tema	0		P	sg g
    	tema	0		P	sg n
aasta	aasta	0		S	sg g
     	aasta	0		S	sg n
vast	vast	0		D	
jüripääevaks	####				
olek	olek	0		S	sg n
täis	täi	s		S	sg in
    	täi	s		V	s
    	täis	0		A	
    	täis	0		A	sg n
    	täis	0		D	
    	täis	0		S	sg n
saanud	saa	nud		V	nud
      	saa=nud	0		A	
      	saa=nud	0		A	sg n
      	saa=nud	d		A	pl n
      	saanu	d		S	pl n
ja	ja	0		J	
pearahaga	pea_raha	ga		S	sg kom
mina	mina	0		P	sg n
    	mina	0		S	sg g
    	mina	0		S	sg n
    	mina	0		S	sg p
ei	ei	0		D	
  	ei	0		V	neg
taha	taht	0		V	o
    	taha	0		D	
    	taha	0		K	
ka	ka	0		D	
tegemist	tegemine	t		S	sg p
teha	tege	a		V	da
.	.			Z	
2	2	0		N	?
)	)			Z	
Jüri	Jüri	0		H	sg g
    	Jüri	0		H	sg n
Müürkel	####				
peremehel	pere_mees	l		S	sg ad
ei	ei	0		D	
  	ei	0		V	neg
olnud	ol=nud	0		A	
     	ol=nud	0		A	sg n
     	ol=nud	d		A	pl n
     	ole	nud		V	nud
     	olnu	d		S	pl n
tood	too	d		V	d
aga	aga	0		J	
läina	####				
anda	and	a		V	da
ja	ja	0		J	
selle	see	0		P	sg g
     	sell	e		S	pl p
pärast	pära	st		S	sg el
      	pärane	t		A	sg p
      	pärast	0		D	
      	pärast	0		K	
läksin	mine	sin		V	sin
kõrtsi	kõrts	0		S	adt
      	kõrts	0		S	sg g
      	kõrts	0		S	sg p
aega	aeg	0		S	adt
    	aeg	0		S	sg p
    	aega	0		K	
viitma	viit	ma		V	ma
.	.			Z	
kohus	kohu	s		V	s
     	kohus	0		S	sg n
mõistis	mõist	is		V	s
:	:			Z	
Vilja	Vilja	0		H	sg g
     	vili	0		S	adt
     	vili	0		S	sg g
     	Vilja	0		H	sg n
     	vili	0		S	sg p
tündert	####				
pole	ole	0		V	neg o
peremehel	pere_mees	l		S	sg ad
tarvis	tarvis	0		D	
      	tarvis	0		K	
maksa	maks	0		S	adt
     	maks	0		S	sg g
     	maks	0		V	o
     	maks	0		S	sg p
,	,			Z	
sest	see	st		P	sg el
    	sest	0		J	
et	et	0		J	
Jüri	Jüri	0		H	sg g
    	Jüri	0		H	sg n
Müürkel	####				
3	3	0		N	?
1	1	0		N	?
/	/			Z	
2	2	0		N	?
kuud	kuu	d		S	pl n
    	kuu	d		S	sg p
vähem	vähem	0		C	sg n
     	vähem	0		D	
kui	kui	0		D	
   	kui	0		J	
aasta	aasta	0		S	sg g
     	aasta	0		S	sg n
ta	tema	0		P	sg g
  	tema	0		P	sg n
teenistuses	teenistus	s		S	sg in
           	teenistuses	0		A	
           	teenistuses	0		D	
on	ole	0		V	b
  	ole	0		V	vad
olnud	ol=nud	0		A	
     	ol=nud	0		A	sg n
     	ol=nud	d		A	pl n
     	ole	nud		V	nud
     	olnu	d		S	pl n
aga	aga	0		J	
kuue	kuub	0		S	sg g
    	kuus	0		N	sg g
peab	pida	b		V	b
sulane	sulane	0		S	sg n
      	sulane	0		V	o
kätte	kätte	0		K	
     	käsi	tte		S	adt
saama	saa	ma		V	ma
     	saam	0		S	adt
     	saam	0		S	sg g
     	saam	0		S	sg p
ja	ja	0		J	
pearaha	pea_raha	0		S	sg g
       	pea_raha	0		S	sg n
       	pea_raha	0		S	sg p
tuleb	tule	b		V	b
kahase	####				
maksa	maks	0		S	adt
     	maks	0		S	sg g
     	maks	0		V	o
     	maks	0		S	sg p
.	.			Z	
III	III	0		O	?
   	III	0		Y	?
1	1	0		N	?
)	)			Z	
Mats	Mats	0		H	sg n
    	mats	0		A	sg n
    	mats	0		S	sg n
aalma	####				
mõisa	mõis	0		S	sg g
metsavaht	metsa_vaht	0		S	sg n
,	,			Z	
tema	tema	0		P	sg g
    	tema	0		P	sg n
kaebas	kaeba	s		V	s
:	:			Z	
23	23	0		N	?
veebruari	veebruar	0		S	adt
         	veebruar	0		S	sg g
         	veebruar	0		S	sg p
kuu	kuu	0		S	sg g
   	kuu	0		S	sg n
päeval	päev	l		S	sg ad
,	,			Z	
kui	kui	0		D	
   	kui	0		J	
magasi	magas	0		S	sg g
aidast	ait	st		S	sg el
vilja	vili	0		S	adt
     	vili	0		S	sg g
     	vili	0		S	sg p
andi	and	0		S	adt
    	and	0		S	sg p
,	,			Z	
ähvardas	ähvarda	s		V	s
mind	mina	d		P	sg p
Jüri	Jüri	0		H	sg g
    	Jüri	0		H	sg n
Treinberg	####				
kõige	kõik	0		P	sg g
     	kõige	0		D	
valla	vald	0		S	sg g
     	valla	0		D	
ees	ees	0		D	
   	ees	0		K	
   	esi	s		S	sg in
üteldes	ütle	des		V	des
:	:			Z	
""""	""""			Z	
kui	kui	0		D	
   	kui	0		J	
meie	mina	0		P	pl g
    	mina	0		P	pl n
metsas	mets	s		S	sg in
kokku	kokku	0		D	
     	kogu	0		S	adt
juhtume	juhtu	me		V	me
,	,			Z	
siis	siis	0		D	
    	siis	0		J	
peab	pida	b		V	b
kumma	kumb	0		P	sg g
elu	elu	0		S	sg g
   	elu	0		S	sg n
   	elu	0		S	sg p
jääma	jää	ma		V	ma
     	jääm	0		S	adt
     	jääm	0		S	sg g
     	jääm	0		S	sg p
.	.			Z	
""""	""""			Z	
2	2	0		N	?
)	)			Z	
Jüri	Jüri	0		H	sg g
    	Jüri	0		H	sg n
Treinberg	####				
:	:			Z	
Miina	Miina	0		H	sg g
     	Miina	0		H	sg n
olen	ole	n		V	n
seda	see	da		P	sg p
tema	tema	0		P	sg g
    	tema	0		P	sg n
vastu	vastu	0		D	
     	vastu	0		K	
küll	küll	0		D	
    	küll	0		S	sg n
ütelnud	ütle	nud		V	nud
       	ütel=nu	d		S	pl n
       	ütel=nud	0		A	
       	ütel=nud	0		A	sg n
       	ütel=nud	d		A	pl n
,	,			Z	
aga	aga	0		J	
se	####				
oli	ole	i		V	s
nailja	####				
pärast	pära	st		S	sg el
      	pärane	t		A	sg p
      	pärast	0		D	
      	pärast	0		K	
.	.			Z	
kohus	kohu	s		V	s
     	kohus	0		S	sg n
mõistis	mõist	is		V	s
:	:			Z	
et	et	0		J	
küll	küll	0		D	
    	küll	0		S	sg n
se	####				
ähvardamine	ähvardamine	0		S	sg n
võis	või	s		S	sg in
    	või	s		V	s
nailja	####				
pärast	pära	st		S	sg el
      	pärane	t		A	sg p
      	pärast	0		D	
      	pärast	0		K	
olla	ole	a		V	da
,	,			Z	
aga	aga	0		J	
se	####				
jaldes	####				
ei	ei	0		D	
  	ei	0		V	neg
tohi	tohti	0		V	o
sündida	sündi	da		V	da
ja	ja	0		J	
liade	####				
vana	vana	0		A	sg g
    	vana	0		A	sg n
    	vana	0		A	sg p
    	vana	0		S	sg g
    	vana	0		S	sg n
    	vana	0		S	sg p
inimeste	inimene	te		S	pl g
vahel	vahe	l		S	sg ad
     	vahel	0		D	
     	vahel	0		K	
,	,			Z	
Jüri	Jüri	0		H	sg g
    	Jüri	0		H	sg n
Treinberg	####				
maksab	maks	b		V	b
50	50	0		N	?
kop	kop	0		Y	?
valla	vald	0		S	sg g
     	valla	0		D	
laekassa	lae_kassa	0		S	sg g
        	lae_kassa	0		S	sg n
trahviks	trahv	ks		S	sg tr
        	trahvi	ks		V	ks
.	.			Z	
IV	IV	0		O	?
  	IV	0		Y	?
1	1	0		N	?
)	)			Z	
Gustav	Gustav	0		H	sg n
kokku	kokku	0		D	
     	kogu	0		S	adt
,	,			Z	
tema	tema	0		P	sg g
    	tema	0		P	sg n
kaebas	kaeba	s		V	s
:	:			Z	
mullu	mullu	0		D	
kevade	kevad	0		S	sg g
      	kevade	0		S	sg g
      	kevade	0		S	sg n
müüsin	müü	sin		V	sin
ajiuk	####				
Herma	####				
Matsi	Mats	0		H	adt
     	Mats	0		H	sg g
     	mats	0		A	adt
     	mats	0		A	sg g
     	mats	0		S	adt
     	mats	0		S	sg g
     	Mats	0		H	sg p
     	mats	0		A	sg p
     	mats	0		S	sg p
sauna	saun	0		S	adt
     	saun	0		S	sg g
     	saun	0		S	sg p
Tõnule	Tõnu	le		H	sg all
hobuse	hobune	0		S	sg g
,	,			Z	
tema	tema	0		P	sg g
    	tema	0		P	sg n
jäi	jää	i		V	s
minule	mina	le		P	sg all
pool	pool	0		K	
    	pool	0		N	sg n
    	pool	0		S	sg n
rubla	rubla	0		S	sg g
     	rubla	0		S	sg n
     	rubla	0		S	sg p
võlga	võlg	0		S	adt
     	võlg	0		S	sg p
,	,			Z	
mis	mis	0		P	pl n
   	mis	0		P	sg n
kohe	kohe	0		A	sg n
    	kohe	0		D	
ära	ära	0		D	
   	ära	0		V	neg o
saata	saat	a		V	da
lubas	luba	s		V	s
ja	ja	0		J	
nüüd	nüüd	0		D	
otsib	otsi	b		V	b
hobusele	hobune	le		S	sg all
süüd	süü	d		S	pl n
    	süüd	0		S	sg n
    	süü	d		S	sg p
ja	ja	0		J	
ei	ei	0		D	
  	ei	0		V	neg
taha	taht	0		V	o
    	taha	0		D	
    	taha	0		K	
mitte	mitte	0		D	
rohkem	rohkem	0		D	
kui	kui	0		D	
   	kui	0		J	
25	25	0		N	?
kop	kop	0		Y	?
.	.			Z	
maksa	maks	0		S	adt
     	maks	0		S	sg g
     	maks	0		V	o
     	maks	0		S	sg p
et	et	0		J	
meil	meil	0		S	sg n
    	mina	l		P	pl ad
küll	küll	0		D	
    	küll	0		S	sg n
taganemise	taganemine	0		S	sg g
kaup	kaup	0		S	sg n
oli	ole	i		V	s
.	.			Z	
2	2	0		N	?
)	)			Z	
Mai	Mai	0		H	sg g
   	Mai	0		H	sg n
   	mai	0		S	sg g
   	mai	0		S	sg n
tütt	####				
,	,			Z	
tema	tema	0		P	sg g
    	tema	0		P	sg n
ütles	ütle	s		V	s
:	:			Z	
Miina	Miina	0		H	sg g
     	Miina	0		H	sg n
kuulsin	kuul	sin		V	sin
pealt	pea	lt		S	sg abl
     	pealt	0		D	
     	pealt	0		K	
kuidas	kuidas	0		D	
nemad	tema	d		P	pl n
taganemise	taganemine	0		S	sg g
peale	pea	le		S	sg all
     	peale	0		D	
     	peale	0		K	
kauplesid	kauple	sid		V	sid
ja	ja	0		J	
50	50	0		N	?
kop	kop	0		Y	?
võlga	võlg	0		S	adt
     	võlg	0		S	sg p
jäi	jää	i		V	s
.	.			Z	
kohus	kohu	s		V	s
     	kohus	0		S	sg n
mõistis	mõist	is		V	s
:	:			Z	
selle	see	0		P	sg g
     	sell	e		S	pl p
kaebaduse	####				
peale	pea	le		S	sg all
     	peale	0		D	
     	peale	0		K	
saab	saa	b		V	b
Kaiu	Kaiu	0		H	sg g
    	Kaiu	0		H	sg n
valla	vald	0		S	sg g
     	valla	0		D	
kohtusse	kohtune	se		A	adt
        	kohus	sse		S	sg ill
kirjutatud	kirjuta	tud		V	tud
          	kirjutatu	d		S	pl n
          	kirjutatud	0		A	
          	kirjutatud	0		A	sg n
          	kirjutatud	d		A	pl n
,	,			Z	
kus	kus	0		D	
siis	siis	0		D	
    	siis	0		J	
Tõnu	Tõnu	0		H	sg g
    	Tõnu	0		H	sg n
teada	tead	a		V	da
saab	saa	b		V	b
antud	an=tu	d		S	pl n
     	and	tud		V	tud
     	antud	0		A	
     	antud	0		A	sg n
     	antud	d		A	pl n
.	.			Z	
viimse	viimne	0		A	sg g
kohtupäeva	kohtu_päev	0		S	adt
          	kohtu_päev	0		S	sg g
          	kohtu_päev	0		S	sg p
protokoll	protokoll	0		S	sg n
sai	saa	i		V	s
   	sai	0		S	sg n
ette	ette	0		D	
    	ette	0		K	
    	esi	tte		S	adt
loetud	loetu	d		S	pl n
      	loetud	0		A	
      	loetud	0		A	sg n
      	loetud	d		A	pl n
      	luge	tud		V	tud
ja	ja	0		J	
hoigeks	####				
kiidetud	kiit	tud		V	tud
        	kiide=tu	d		S	pl n
        	kiide=tud	0		A	
        	kiide=tud	0		A	sg n
        	kiide=tud	d		A	pl n
.	.			Z	
Hans	Hans	0		H	sg n
Herberger	####				
+	+			Z	
+	+			Z	
+	+			Z	
Hans	Hans	0		H	sg n
Lepp	lepp	0		S	sg n
+	+			Z	
+	+			Z	
+	+			Z	
Jüri	Jüri	0		H	sg g
    	Jüri	0		H	sg n
Mührmann	####				
+	+			Z	
+	+			Z	
+	+			Z	
