14	14	0		N	?
ette	ette	0		D	
    	ette	0		K	
    	esi	tte		S	adt
sai	saa	i		V	s
   	sai	0		S	sg n
võetud	võe=tu	d		S	pl n
      	võetud	0		A	
      	võetud	0		A	sg n
      	võetud	d		A	pl n
      	võt	tud		V	tud
otsust	otsus	t		S	sg p
teha	tege	a		V	da
mõisa	mõis	0		S	sg g
valitsuse	valitsus	0		S	sg g
kaebtuse	####				
üle	üle	0		D	
   	üle	0		K	
mis	mis	0		P	pl n
   	mis	0		P	sg n
I	I	0		O	?
 	I	0		Y	?
 	j	0		Y	?
protokollis	protokoll	s		S	sg in
           	protokolli	s		V	s
No	no	0		I	
4	4	0		N	?
all	all	0		D	
   	all	0		K	
seisab	seis	b		V	b
Simikamäe	####				
s	s	0		Y	?
.	.			Z	
Tõnu	Tõnu	0		H	sg g
    	Tõnu	0		H	sg n
üle	üle	0		D	
   	üle	0		K	
puude	puu	de		S	pl g
     	puude	0		S	sg n
     	puue	0		S	sg g
võrumise	####				
pärast	pära	st		S	sg el
      	pärane	t		A	sg p
      	pärast	0		D	
      	pärast	0		K	
.	.			Z	
et	et	0		J	
selgemat	selgem	t		C	sg p
tunnistust	tunnistus	t		S	sg p
ei	ei	0		D	
  	ei	0		V	neg
ole	ole	0		V	o
saanud	saa	nud		V	nud
      	saa=nud	0		A	
      	saa=nud	0		A	sg n
      	saa=nud	d		A	pl n
      	saanu	d		S	pl n
,	,			Z	
se	####				
on	ole	0		V	b
  	ole	0		V	vad
:	:			Z	
et	et	0		J	
keegi	kee	0	gi	S	sg g
     	kee	0	gi	V	o
     	keegi	0		P	sg n
     	kee	0	gi	S	sg n
ei	ei	0		D	
  	ei	0		V	neg
ole	ole	0		V	o
näinud	näi	nud		V	nud
      	näge	nud		V	nud
      	näi=nud	0		A	
      	näi=nud	0		A	sg n
      	näi=nud	d		A	pl n
      	näinu	d		S	pl n
kui	kui	0		D	
   	kui	0		J	
Tõnu	Tõnu	0		H	sg g
    	Tõnu	0		H	sg n
Linsmann	####				
need	see	d		P	pl n
puud	puu	d		S	pl n
    	puud	0		S	sg n
    	puu	d		S	sg p
on	ole	0		V	b
  	ole	0		V	vad
võrrunud	####				
,	,			Z	
ei	ei	0		D	
  	ei	0		V	neg
võinud	või	nud		V	nud
      	või=nu	d		S	pl n
      	või=nud	0		A	
      	või=nud	0		A	sg n
      	või=nud	d		A	pl n
kohus	kohu	s		V	s
     	kohus	0		S	sg n
Tõnule	Tõnu	le		H	sg all
kedagi	keegi	dagi		P	sg p
trahvi	trahv	0		S	adt
      	trahv	0		S	sg g
      	trahvi	0		V	o
      	trahv	0		S	sg p
mõista	mõist	0		V	o
      	mõist	a		V	da
.	.			Z	
