6.	6.	0		O	?
tuli	tuli	0		S	sg n
    	tule	i		V	s
ette	ette	0		D	
    	ette	0		K	
    	esi	tte		S	adt
:	:			Z	
Lohult	lohk	lt		S	sg abl
      	loht	lt		S	sg abl
Jaan	Jaan	0		H	sg n
    	jaan	0		S	sg n
    	jaan	0		Y	?
Theil	####				
ja	ja	0		J	
kaebas	kaeba	s		V	s
et	et	0		J	
kui	kui	0		D	
   	kui	0		J	
tema	tema	0		P	sg g
    	tema	0		P	sg n
päriskoha	päris_koht	0		S	sg g
         	päris_koha	0		S	sg g
         	päris_koha	0		S	sg n
         	päris_koha	0		S	sg p
omanik	omanik	0		S	sg n
Rein	Rein	0		H	sg n
Stakohvir	####				
käest	käest	0		K	
     	käsi	st		S	sg el
a	a	0		Y	?
1881.	1881.	0		O	?
Jaakupi	####				
koha	koht	0		S	sg g
    	koha	0		S	sg g
    	koha	0		V	o
    	koha	0		S	sg n
    	koha	0		S	sg p
rentinud	renti	nud		V	nud
        	renti=nu	d		S	pl n
        	renti=nud	0		A	
        	renti=nud	0		A	sg n
        	renti=nud	d		A	pl n
,	,			Z	
siis	siis	0		D	
    	siis	0		J	
teinud	tege	nud		V	nud
      	tei=nud	0		A	
      	tei=nud	0		A	sg n
      	tei=nud	d		A	pl n
      	teinu	d		S	pl n
tema	tema	0		P	sg g
    	tema	0		P	sg n
sel	see	l		P	sg ad
   	sel	0		Y	?
kevadel	kevad	l		S	sg ad
       	kevade	l		S	sg ad
ja	ja	0		J	
sügisel	sügis	l		S	sg ad
,	,			Z	
selle	see	0		P	sg g
     	sell	e		S	pl p
koha	koht	0		S	sg g
    	koha	0		S	sg g
    	koha	0		V	o
    	koha	0		S	sg n
    	koha	0		S	sg p
jägu	####				
maantee	maan_tee	0		S	sg g
       	maan_tee	0		S	sg n
sillad	sild	d		S	pl n
täiesti	täiesti	0		D	
,	,			Z	
nii	nii	0		D	
kui	kui	0		D	
   	kui	0		J	
käsk	käsk	0		S	sg n
sillutada	silluta	da		V	da
olnud	ol=nud	0		A	
     	ol=nud	0		A	sg n
     	ol=nud	d		A	pl n
     	ole	nud		V	nud
     	olnu	d		S	pl n
.	.			Z	
et	et	0		J	
tema	tema	0		P	sg g
    	tema	0		P	sg n
rendiaasta	rendi_aasta	0		S	sg g
          	rendi_aasta	0		S	sg n
23nda	23=s	0		O	sg g
Jüri	Jüri	0		H	sg g
    	Jüri	0		H	sg n
k	k	0		Y	?
.	.			Z	
päevani	päev	ni		S	sg ter
1882	1882	0		N	?
kestnud	kest	nud		V	nud
       	kest=nu	d		S	pl n
       	kest=nud	0		A	
       	kest=nud	0		A	sg n
       	kest=nud	d		A	pl n
ja	ja	0		J	
sell	sell	0		S	sg n
kevadel	kevad	l		S	sg ad
       	kevade	l		S	sg ad
maanteed	maan_tee	d		S	pl n
        	maan_tee	d		S	sg p
enne	enne	0		D	
    	enne	0		K	
    	enne	0		S	sg n
Jüri	Jüri	0		H	sg g
    	Jüri	0		H	sg n
päeva	päev	0		S	adt
     	päev	0		S	sg g
     	päev	0		S	sg p
sillutada	silluta	da		V	da
olnud	ol=nud	0		A	
     	ol=nud	0		A	sg n
     	ol=nud	d		A	pl n
     	ole	nud		V	nud
     	olnu	d		S	pl n
,	,			Z	
seepärast	see_pärast	0		D	
sunnitatud	####				
teda	tema	da		P	sg p
veel	veel	0		D	
    	vesi	l		S	sg ad
kolmat	kolmas	t		O	sg p
korda	kord	0		S	adt
     	korda	0		V	o
     	kord	0		S	sg p
Jaakupi	####				
koha	koht	0		S	sg g
    	koha	0		S	sg g
    	koha	0		V	o
    	koha	0		S	sg n
    	koha	0		S	sg p
sillad	sild	d		S	pl n
ühe	üks	0		N	sg g
   	üks	0		P	sg g
   	ühe	0		S	sg n
rendiaasta	rendi_aasta	0		S	sg g
          	rendi_aasta	0		S	sg n
sees	sees	0		D	
    	sees	0		K	
tegema	tege	ma		V	ma
,	,			Z	
mis	mis	0		P	pl n
   	mis	0		P	sg n
tema	tema	0		P	sg g
    	tema	0		P	sg n
olla	ole	a		V	da
ka	ka	0		D	
täitnud	täit	nud		V	nud
       	täit=nu	d		S	pl n
       	täit=nud	0		A	
       	täit=nud	0		A	sg n
       	täit=nud	d		A	pl n
,	,			Z	
aga	aga	0		J	
seega	seega	0		D	
mitte	mitte	0		D	
rahul	rahu	l		S	sg ad
     	rahul	0		D	
ei	ei	0		D	
  	ei	0		V	neg
ole	ole	0		V	o
ja	ja	0		J	
seepärast	see_pärast	0		D	
kogukonna	kogukond	0		S	sg g
kohut	kohus	t		S	sg p
palub	palu	b		V	b
seda	see	da		P	sg p
asja	asi	0		S	adt
    	asi	0		S	sg g
    	asi	0		S	sg p
seletada	seleta	da		V	da
.	.			Z	
Jakopi	####				
koha	koht	0		S	sg g
    	koha	0		S	sg g
    	koha	0		V	o
    	koha	0		S	sg n
    	koha	0		S	sg p
päris	päri	s		V	s
     	päris	0		A	
     	päris	0		D	
omanik	omanik	0		S	sg n
Rein	Rein	0		H	sg n
tarkoff	####				
,	,			Z	
kelle	kes	0		P	pl g
     	kes	0		P	sg g
käest	käest	0		K	
     	käsi	st		S	sg el
J. Theil	####				
oli	ole	i		V	s
koha	koht	0		S	sg g
    	koha	0		S	sg g
    	koha	0		V	o
    	koha	0		S	sg n
    	koha	0		S	sg p
rentinud	renti	nud		V	nud
        	renti=nu	d		S	pl n
        	renti=nud	0		A	
        	renti=nud	0		A	sg n
        	renti=nud	d		A	pl n
ja	ja	0		J	
kes	kes	0		P	pl n
   	kes	0		P	sg n
see	see	0		P	sg n
koha	koht	0		S	sg g
    	koha	0		S	sg g
    	koha	0		V	o
    	koha	0		S	sg n
    	koha	0		S	sg p
jälle	jälle	0		D	
oma	oma	0		A	sg g
   	oma	0		D	
   	oma	0		P	sg g
   	oma	0		S	sg g
   	oma	0		V	o
   	oma	0		A	sg n
   	oma	0		A	sg p
   	oma	0		P	sg n
   	oma	0		P	sg p
   	oma	0		S	sg n
   	oma	0		S	sg p
kätte	kätte	0		K	
     	käsi	tte		S	adt
tagasi	tagasi	0		D	
      	tagasi	0		K	
võttis	võt	is		V	s
,	,			Z	
sai	saa	i		V	s
   	sai	0		S	sg n
kohtu	kohtu	0		V	o
     	kohus	0		S	sg g
ette	ette	0		D	
    	ette	0		K	
    	esi	tte		S	adt
kutsutud	kutsu	tud		V	tud
        	kutsutu	d		S	pl n
        	kutsutud	0		A	
        	kutsutud	0		A	sg n
        	kutsutud	d		A	pl n
ja	ja	0		J	
temale	tema	le		P	sg all
see	see	0		P	sg n
kaebus	kaebus	0		S	sg n
ette	ette	0		D	
    	ette	0		K	
    	esi	tte		S	adt
loetud	loetu	d		S	pl n
      	loetud	0		A	
      	loetud	0		A	sg n
      	loetud	d		A	pl n
      	luge	tud		V	tud
.	.			Z	
Tema	tema	0		P	sg g
    	tema	0		P	sg n
ütles	ütle	s		V	s
:	:			Z	
""""	""""			Z	
Miina	Miina	0		H	sg g
     	Miina	0		H	sg n
ei	ei	0		D	
  	ei	0		V	neg
ole	ole	0		V	o
teda	tema	da		P	sg p
mitte	mitte	0		D	
käskinud	käski	nud		V	nud
        	käski=nu	d		S	pl n
        	käski=nud	0		A	
        	käski=nud	0		A	sg n
        	käski=nud	d		A	pl n
kolmat	kolmas	t		O	sg p
korda	kord	0		S	adt
     	korda	0		V	o
     	kord	0		S	sg p
silda	sild	0		S	adt
     	silda	0		V	o
     	sild	0		S	sg p
teha	tege	a		V	da
,	,			Z	
vaid	vaid	0		D	
    	vaid	0		J	
mina	mina	0		P	sg n
    	mina	0		S	sg g
    	mina	0		S	sg n
    	mina	0		S	sg p
käskisin	käski	sin		V	sin
teda	tema	da		P	sg p
ennast	ise	t		P	sg p
seda	see	da		P	sg p
asja	asi	0		S	adt
    	asi	0		S	sg g
    	asi	0		S	sg p
valla	vald	0		S	sg g
     	valla	0		D	
valitsuse	valitsus	0		S	sg g
käest	käest	0		K	
     	käsi	st		S	sg el
järele	järele	0		D	
      	järele	0		K	
kuulata	kuula	ta		V	da
       	kuulata	0		V	o
       	kuula	ta		V	ta
,	,			Z	
sest	see	st		P	sg el
    	sest	0		J	
et	et	0		J	
mina	mina	0		P	sg n
    	mina	0		S	sg g
    	mina	0		S	sg n
    	mina	0		S	sg p
seda	see	da		P	sg p
seadust	seadus	t		S	sg p
ei	ei	0		D	
  	ei	0		V	neg
teadnud	tead	nud		V	nud
       	tead=nu	d		S	pl n
       	tead=nud	0		A	
       	tead=nud	0		A	sg n
       	tead=nud	d		A	pl n
kelle	kes	0		P	pl g
     	kes	0		P	sg g
õigus	õigus	0		S	sg n
sillutada	silluta	da		V	da
enne	enne	0		D	
    	enne	0		K	
    	enne	0		S	sg n
Jüripäeva	jüri_päev	0		S	adt
         	jüri_päev	0		S	sg g
         	jüri_päev	0		S	sg p
on	ole	0		V	b
  	ole	0		V	vad
kas	kas	0		D	
uue	uus	0		A	sg g
ehk	ehk	0		D	
   	ehk	0		J	
vana	vana	0		A	sg g
    	vana	0		A	sg n
    	vana	0		A	sg p
    	vana	0		S	sg g
    	vana	0		S	sg n
    	vana	0		S	sg p
peremehe	pere_mees	0		S	sg g
.	.			Z	
Sillaada	####				
sõitmise	sõitmine	0		S	sg g
ajal	aeg	l		S	sg ad
    	ajal	0		K	
sai	saa	i		V	s
   	sai	0		S	sg n
Hakenrihteri	####				
käest	käest	0		K	
     	käsi	st		S	sg el
küsitud	küsi	tud		V	tud
       	küsi=tu	d		S	pl n
       	küsi=tud	0		A	
       	küsi=tud	0		A	sg n
       	küsi=tud	d		A	pl n
,	,			Z	
Hakenrihteri	####				
härra	härra	0		S	sg g
     	härra	0		S	sg n
ütles	ütle	s		V	s
iga	iga	0		P	sg g
   	iga	0		P	sg n
   	iga	0		P	sg p
   	iga	0		S	sg n
   	iga	0		S	sg p
peremees	pere_mees	0		S	sg n
teeb	tege	b		V	b
kakskord	kaks_kord	0		S	sg n
aastas	aasta	s		S	sg in
oma	oma	0		A	sg g
   	oma	0		D	
   	oma	0		P	sg g
   	oma	0		S	sg g
   	oma	0		V	o
   	oma	0		A	sg n
   	oma	0		A	sg p
   	oma	0		P	sg n
   	oma	0		P	sg p
   	oma	0		S	sg n
   	oma	0		S	sg p
koha	koht	0		S	sg g
    	koha	0		S	sg g
    	koha	0		V	o
    	koha	0		S	sg n
    	koha	0		S	sg p
sillad	sild	d		S	pl n
ja	ja	0		J	
et	et	0		J	
J. Theil	####				
on	ole	0		V	b
  	ole	0		V	vad
kaks	kaks	0		N	sg n
kord	kord	0		D	
    	kord	0		S	sg n
oma	oma	0		A	sg g
   	oma	0		D	
   	oma	0		P	sg g
   	oma	0		S	sg g
   	oma	0		V	o
   	oma	0		A	sg n
   	oma	0		A	sg p
   	oma	0		P	sg n
   	oma	0		P	sg p
   	oma	0		S	sg n
   	oma	0		S	sg p
koha	koht	0		S	sg g
    	koha	0		S	sg g
    	koha	0		V	o
    	koha	0		S	sg n
    	koha	0		S	sg p
sillad	sild	d		S	pl n
teinud	tege	nud		V	nud
      	tei=nud	0		A	
      	tei=nud	0		A	sg n
      	tei=nud	d		A	pl n
      	teinu	d		S	pl n
,	,			Z	
siis	siis	0		D	
    	siis	0		J	
poole	pool	0		N	sg g
     	pool	0		S	sg g
     	pool	e		S	pl p
     	poole	0		K	
     	poole	0		S	sg n
temal	tema	l		P	sg ad
mitte	mitte	0		D	
enam	enam	0		C	sg n
    	enam	0		D	
õigus	õigus	0		S	sg n
teha	tege	a		V	da
.	.			Z	
et	et	0		J	
nüüd	nüüd	0		D	
ülekuulamise	üle_kuulamine	0		S	sg g
varal	vara	l		S	sg ad
     	varal	0		K	
teada	tead	a		V	da
sai	saa	i		V	s
   	sai	0		S	sg n
et	et	0		J	
aastal	aasta	l		S	sg ad
1881.	1881.	0		O	?
maantee	maan_tee	0		S	sg g
       	maan_tee	0		S	sg n
sillad	sild	d		S	pl n
pärast	pära	st		S	sg el
      	pärane	t		A	sg p
      	pärast	0		D	
      	pärast	0		K	
Jüripäeva	jüri_päev	0		S	adt
         	jüri_päev	0		S	sg g
         	jüri_päev	0		S	sg p
tehtud	tehtu	d		S	pl n
      	tehtud	0		A	
      	tehtud	0		A	sg n
      	tehtud	d		A	pl n
      	tege	tud		V	tud
saanud	saa	nud		V	nud
      	saa=nud	0		A	
      	saa=nud	0		A	sg n
      	saa=nud	d		A	pl n
      	saanu	d		S	pl n
,	,			Z	
ja	ja	0		J	
et	et	0		J	
J. Theil	####				
eest	eest	0		D	
    	eest	0		K	
    	esi	st		S	sg el
ära	ära	0		D	
   	ära	0		V	neg o
läinud	läinu	d		S	pl n
      	läinud	0		A	
      	läinud	0		A	sg n
      	läinud	d		A	pl n
      	mine	nud		V	nud
peremees	pere_mees	0		S	sg n
Jaan	Jaan	0		H	sg n
    	jaan	0		S	sg n
    	jaan	0		Y	?
Villik	vil=lik	0		A	sg n
polnud	ole	nud		V	neg nud
mitte	mitte	0		D	
talvel	talv	l		S	sg ad
      	tali	l		S	sg ad
kruusi	kruus	i		S	pl p
      	kruus	0		S	adt
      	kruus	0		S	sg g
      	kruus	0		S	sg p
Jakopi	####				
koha	koht	0		S	sg g
    	koha	0		S	sg g
    	koha	0		V	o
    	koha	0		S	sg n
    	koha	0		S	sg p
sildade	sild	de		S	pl g
tarvis	tarvis	0		D	
      	tarvis	0		K	
välja	välja	0		D	
     	välja	0		V	o
     	väli	0		S	adt
     	väli	0		S	sg g
     	väli	0		S	sg p
vedanud	veda	nud		V	nud
       	veda=nu	d		S	pl n
       	veda=nud	0		A	
       	veda=nud	0		A	sg n
       	veda=nud	d		A	pl n
,	,			Z	
mis	mis	0		P	pl n
   	mis	0		P	sg n
tema	tema	0		P	sg g
    	tema	0		P	sg n
õigus	õigus	0		S	sg n
oleks	ole	ks		V	ks
olnud	ol=nud	0		A	
     	ol=nud	0		A	sg n
     	ol=nud	d		A	pl n
     	ole	nud		V	nud
     	olnu	d		S	pl n
,	,			Z	
ja	ja	0		J	
mis	mis	0		P	pl n
   	mis	0		P	sg n
käe	käsi	0		S	sg g
R_	####				
.	.			Z	
tarkoff	####				
kui	kui	0		D	
   	kui	0		J	
selle	see	0		P	sg g
     	sell	e		S	pl p
koha	koht	0		S	sg g
    	koha	0		S	sg g
    	koha	0		V	o
    	koha	0		S	sg n
    	koha	0		S	sg p
rentija	renti=ja	0		S	sg g
       	renti=ja	0		S	sg n
oleks	ole	ks		V	ks
pidanud	pida	nud		V	nud
       	pida=nu	d		S	pl n
       	pida=nud	0		A	
       	pida=nud	0		A	sg n
       	pida=nud	d		A	pl n
vana	vana	0		A	sg g
    	vana	0		A	sg n
    	vana	0		A	sg p
    	vana	0		S	sg g
    	vana	0		S	sg n
    	vana	0		S	sg p
peremeest	pere_mees	t		S	sg p
sundima	sundi	ma		V	ma
talvel	talv	l		S	sg ad
      	tali	l		S	sg ad
kruus	kruus	0		S	sg n
välja	välja	0		D	
     	välja	0		V	o
     	väli	0		S	adt
     	väli	0		S	sg g
     	väli	0		S	sg p
vedada	veda	da		V	da
.	.			Z	
seepärast	see_pärast	0		D	
ühendasid	ühenda	sid		V	sid
kohtuliikmed	kohtu_liige	d		S	pl n
ja	ja	0		J	
tegid	tege	id		V	sid
see	see	0		P	sg n
mõistus	mõistus	0		S	sg n
:	:			Z	
Jaan	Jaan	0		H	sg n
    	jaan	0		S	sg n
    	jaan	0		Y	?
Theil	####				
saab	saa	b		V	b
üks	üks	0		N	sg n
   	üks	0		P	sg n
kord	kord	0		D	
    	kord	0		S	sg n
rohkem	rohkem	0		D	
tehtud	tehtu	d		S	pl n
      	tehtud	0		A	
      	tehtud	0		A	sg n
      	tehtud	d		A	pl n
      	tege	tud		V	tud
Jakopi	####				
koha	koht	0		S	sg g
    	koha	0		S	sg g
    	koha	0		V	o
    	koha	0		S	sg n
    	koha	0		S	sg p
sildade	sild	de		S	pl g
eest	eest	0		D	
    	eest	0		K	
    	esi	st		S	sg el
kolm	kolm	0		N	sg n
rublaga	rubla	ga		S	sg kom
välja	välja	0		D	
     	välja	0		V	o
     	väli	0		S	adt
     	väli	0		S	sg g
     	väli	0		S	sg p
makstud	maks	tud		V	tud
       	maks=tu	d		S	pl n
       	maks=tud	0		A	
       	maks=tud	0		A	sg n
       	maks=tud	d		A	pl n
.	.			Z	
seda	see	da		P	sg p
raha	raha	0		S	sg g
    	raha	0		S	sg n
    	raha	0		S	sg p
maksab	maks	b		V	b
J. Villik	####				
1	1	0		N	?
rubl	####				
et	et	0		J	
polnud	ole	nud		V	neg nud
a	a	0		Y	?
1881.	1881.	0		O	?
kevadi	####				
mitte	mitte	0		D	
kruusi	kruus	i		S	pl p
      	kruus	0		S	adt
      	kruus	0		S	sg g
      	kruus	0		S	sg p
enne	enne	0		D	
    	enne	0		K	
    	enne	0		S	sg n
välja	välja	0		D	
     	välja	0		V	o
     	väli	0		S	adt
     	väli	0		S	sg g
     	väli	0		S	sg p
vedanud	veda	nud		V	nud
       	veda=nu	d		S	pl n
       	veda=nud	0		A	
       	veda=nud	0		A	sg n
       	veda=nud	d		A	pl n
,	,			Z	
kui	kui	0		D	
   	kui	0		J	
tema	tema	0		P	sg g
    	tema	0		P	sg n
see	see	0		P	sg n
koha	koht	0		S	sg g
    	koha	0		S	sg g
    	koha	0		V	o
    	koha	0		S	sg n
    	koha	0		S	sg p
pealt	pea	lt		S	sg abl
     	pealt	0		D	
     	pealt	0		K	
ära	ära	0		D	
   	ära	0		V	neg o
läks	mine	s		V	s
ja	ja	0		J	
R_	####				
.	.			Z	
tarkoff	####				
maksab	maks	b		V	b
2	2	0		N	?
rubl	####				
.	.			Z	
et	et	0		J	
oma	oma	0		A	sg g
   	oma	0		D	
   	oma	0		P	sg g
   	oma	0		S	sg g
   	oma	0		V	o
   	oma	0		A	sg n
   	oma	0		A	sg p
   	oma	0		P	sg n
   	oma	0		P	sg p
   	oma	0		S	sg n
   	oma	0		S	sg p
koha	koht	0		S	sg g
    	koha	0		S	sg g
    	koha	0		V	o
    	koha	0		S	sg n
    	koha	0		S	sg p
rentniku	rentnik	0		S	sg g
lasi	lask	i		V	s
    	lasi	0		S	sg g
    	lasi	0		S	sg n
    	lasi	0		S	sg p
üks	üks	0		N	sg n
   	üks	0		P	sg n
kord	kord	0		D	
    	kord	0		S	sg n
rohkem	rohkem	0		D	
teed	tee	d		S	pl n
    	tege	d		V	d
    	tee	d		S	sg p
teha	tege	a		V	da
kui	kui	0		D	
   	kui	0		J	
õigus	õigus	0		S	sg n
ja	ja	0		J	
ei	ei	0		D	
  	ei	0		V	neg
seletanud	seleta	nud		V	nud
         	seleta=nu	d		S	pl n
         	seleta=nud	0		A	
         	seleta=nud	0		A	sg n
         	seleta=nud	d		A	pl n
seda	see	da		P	sg p
asja	asi	0		S	adt
    	asi	0		S	sg g
    	asi	0		S	sg p
juba	juba	0		D	
uue	uus	0		A	sg g
ja	ja	0		J	
vana	vana	0		A	sg g
    	vana	0		A	sg n
    	vana	0		A	sg p
    	vana	0		S	sg g
    	vana	0		S	sg n
    	vana	0		S	sg p
rentperemeeste	rent_pere_mees	te		S	pl g
Nendamise	####				
aigus	####				
ära	ära	0		D	
   	ära	0		V	neg o
.	.			Z	
