tuli	tuli	0		S	sg n
    	tule	i		V	s
ette	ette	0		D	
    	ette	0		K	
    	esi	tte		S	adt
Vasjala	####				
kaupmees	kaup_mees	0		S	sg n
Vassili	Vassili	0		H	sg g
       	Vassili	0		H	sg n
Mihailu	####				
ja	ja	0		J	
kaebas	kaeba	s		V	s
,	,			Z	
et	et	0		J	
18ndal	18=s	l		O	sg ad
Januari	####				
kuu	kuu	0		S	sg g
   	kuu	0		S	sg n
päeva	päev	0		S	adt
     	päev	0		S	sg g
     	päev	0		S	sg p
hommiku	hommik	0		S	sg g
,	,			Z	
on	ole	0		V	b
  	ole	0		V	vad
Vasjala	####				
kõrtsi	kõrts	0		S	adt
      	kõrts	0		S	sg g
      	kõrts	0		S	sg p
naine	naine	0		S	sg n
Leenu	Leenu	0		H	sg g
     	Leenu	0		H	sg n
Reinap	####				
Kaarli	Kaarel	0		H	sg g
      	Kaarli	0		H	sg g
      	Kaarli	0		H	sg n
naine	naine	0		S	sg n
teda	tema	da		P	sg p
sõimanud	sõima	nud		V	nud
        	sõima=nu	d		S	pl n
        	sõima=nud	0		A	
        	sõima=nud	0		A	sg n
        	sõima=nud	d		A	pl n
hobuse	hobune	0		S	sg g
vargaks	varas	ks		S	sg tr
ja	ja	0		J	
nägsirina	####				
vangis	vang	s		S	sg in
.	.			Z	
ja	ja	0		J	
selle	see	0		P	sg g
     	sell	e		S	pl p
saama	saa	ma		V	ma
     	saam	0		S	adt
     	saam	0		S	sg g
     	saam	0		S	sg p
päeva	päev	0		S	adt
     	päev	0		S	sg g
     	päev	0		S	sg p
õhtu	õhtu	0		S	sg g
    	õhtu	0		S	sg n
on	ole	0		V	b
  	ole	0		V	vad
tema	tema	0		P	sg g
    	tema	0		P	sg n
läinud	läinu	d		S	pl n
      	läinud	0		A	
      	läinud	0		A	sg n
      	läinud	d		A	pl n
      	mine	nud		V	nud
kõrtsi	kõrts	0		S	adt
      	kõrts	0		S	sg g
      	kõrts	0		S	sg p
kingsepp	king_sepp	0		S	sg n
Leerweldi	####				
taga	taga	0		D	
    	taga	0		K	
    	taga	0		V	o
otsima	otsi	ma		V	ma
ja	ja	0		J	
leidnud	leid	nud		V	nud
       	leid=nu	d		S	pl n
       	leid=nud	0		A	
       	leid=nud	0		A	sg n
       	leid=nud	d		A	pl n
Leerweldi	####				
kõrtsist	kõrts	st		S	sg el
ja	ja	0		J	
tema	tema	0		P	sg g
    	tema	0		P	sg n
öelnud	öel=nu	d		S	pl n
      	öel=nud	0		A	
      	öel=nud	0		A	sg n
      	öel=nud	d		A	pl n
      	ütle	nud		V	nud
kõrtsmikule	kõrtsmik	le		S	sg all
,	,			Z	
mis	mis	0		P	pl n
   	mis	0		P	sg n
kõrts	kõrts	0		S	sg n
nii	nii	0		D	
hilja	hilja	0		D	
lahti	laht	i		S	pl p
     	lahti	0		D	
on	ole	0		V	b
  	ole	0		V	vad
?	?			Z	
ja	ja	0		J	
kõrtsmik	kõrtsmik	0		S	sg n
on	ole	0		V	b
  	ole	0		V	vad
läinud	läinu	d		S	pl n
      	läinud	0		A	
      	läinud	0		A	sg n
      	läinud	d		A	pl n
      	mine	nud		V	nud
selle	see	0		P	sg g
     	sell	e		S	pl p
tema	tema	0		P	sg g
    	tema	0		P	sg n
ütlemise	ütlemine	0		S	sg g
peale	pea	le		S	sg all
     	peale	0		D	
     	peale	0		K	
oma	oma	0		A	sg g
   	oma	0		D	
   	oma	0		P	sg g
   	oma	0		S	sg g
   	oma	0		V	o
   	oma	0		A	sg n
   	oma	0		A	sg p
   	oma	0		P	sg n
   	oma	0		P	sg p
   	oma	0		S	sg n
   	oma	0		S	sg p
elu	elu	0		S	sg g
   	elu	0		S	sg n
   	elu	0		S	sg p
kambri	kamber	0		S	sg g
ja	ja	0		J	
lükanud	lükka	nud		V	nud
       	lüka=nu	d		S	pl n
       	lüka=nud	0		A	
       	lüka=nud	0		A	sg n
       	lüka=nud	d		A	pl n
kella	kell	0		S	adt
     	kell	0		S	sg g
     	kella	0		V	o
     	kell	0		S	sg p
tagasi	tagasi	0		D	
      	tagasi	0		K	
ühe	üks	0		N	sg g
   	üks	0		P	sg g
   	ühe	0		S	sg n
tunni	tund	0		S	sg g
ja	ja	0		J	
käskinud	käski	nud		V	nud
        	käski=nu	d		S	pl n
        	käski=nud	0		A	
        	käski=nud	0		A	sg n
        	käski=nud	d		A	pl n
siis	siis	0		D	
    	siis	0		J	
mina	mina	0		P	sg n
    	mina	0		S	sg g
    	mina	0		S	sg n
    	mina	0		S	sg p
teda	tema	da		P	sg p
kella	kell	0		S	adt
     	kell	0		S	sg g
     	kella	0		V	o
     	kell	0		S	sg p
vaatama	vaata	ma		V	ma
,	,			Z	
tema	tema	0		P	sg g
    	tema	0		P	sg n
on	ole	0		V	b
  	ole	0		V	vad
läinud	läinu	d		S	pl n
      	läinud	0		A	
      	läinud	0		A	sg n
      	läinud	d		A	pl n
      	mine	nud		V	nud
ja	ja	0		J	
kel	kes	l		P	sg ad
olnud	ol=nud	0		A	
     	ol=nud	0		A	sg n
     	ol=nud	d		A	pl n
     	ole	nud		V	nud
     	olnu	d		S	pl n
1	1	0		N	?
/	/			Z	
2	2	0		N	?
10	10	0		N	?
,	,			Z	
aga	aga	0		J	
siis	siis	0		D	
    	siis	0		J	
kui	kui	0		D	
   	kui	0		J	
tema	tema	0		P	sg g
    	tema	0		P	sg n
on	ole	0		V	b
  	ole	0		V	vad
kõrtsi	kõrts	0		S	adt
      	kõrts	0		S	sg g
      	kõrts	0		S	sg p
tulnud	tul=nud	0		A	
      	tul=nud	0		A	sg n
      	tul=nud	d		A	pl n
      	tule	nud		V	nud
      	tulnu	d		S	pl n
,	,			Z	
olnud	ol=nud	0		A	
     	ol=nud	0		A	sg n
     	ol=nud	d		A	pl n
     	ole	nud		V	nud
     	olnu	d		S	pl n
kel	kes	l		P	sg ad
juba	juba	0		D	
1	1	0		N	?
/	/			Z	
2	2	0		N	?
11	11	0		N	?
kingsepp	king_sepp	0		S	sg n
Leerweldi	####				
korteris	korter	s		S	sg in
.	.			Z	
(	(			Z	
kaupmees	kaup_mees	0		S	sg n
Mihailu	####				
ütleb	ütle	b		V	b
,	,			Z	
et	et	0		J	
Laiba	laip	0		S	sg g
peremees	pere_mees	0		S	sg n
Juhan	Juhan	0		H	sg n
Hio	####				
on	ole	0		V	b
  	ole	0		V	vad
tema	tema	0		P	sg g
    	tema	0		P	sg n
seltsis	selts	s		S	sg in
       	seltsi	s		V	s
       	seltsis	0		D	
       	seltsis	0		K	
ka	ka	0		D	
kõrtsi	kõrts	0		S	adt
      	kõrts	0		S	sg g
      	kõrts	0		S	sg p
tulnud	tul=nud	0		A	
      	tul=nud	0		A	sg n
      	tul=nud	d		A	pl n
      	tule	nud		V	nud
      	tulnu	d		S	pl n
)	)			Z	
siis	siis	0		D	
    	siis	0		J	
tulnud	tul=nud	0		A	
      	tul=nud	0		A	sg n
      	tul=nud	d		A	pl n
      	tule	nud		V	nud
      	tulnu	d		S	pl n
kaupmees	kaup_mees	0		S	sg n
kõrsu	kõrsu	0		V	o
taga	taga	0		D	
    	taga	0		K	
    	taga	0		V	o
kambrist	kamber	st		S	sg el
välja	välja	0		D	
     	välja	0		V	o
     	väli	0		S	adt
     	väli	0		S	sg g
     	väli	0		S	sg p
ette	ette	0		D	
    	ette	0		K	
    	esi	tte		S	adt
suure	suur	0		A	sg g
rahva	rahvas	0		S	sg g
tuppa	tuba	0		S	adt
ja	ja	0		J	
tulnud	tul=nud	0		A	
      	tul=nud	0		A	sg n
      	tul=nud	d		A	pl n
      	tule	nud		V	nud
      	tulnu	d		S	pl n
siis	siis	0		D	
    	siis	0		J	
tuast	####				
välja	välja	0		D	
     	välja	0		V	o
     	väli	0		S	adt
     	väli	0		S	sg g
     	väli	0		S	sg p
Juhan	Juhan	0		H	sg n
Hioga	####				
;	;			Z	
aga	aga	0		J	
kõrtsmik	kõrtsmik	0		S	sg n
on	ole	0		V	b
  	ole	0		V	vad
ka	ka	0		D	
õue	õu	0		S	adt
   	õu	0		S	sg g
   	õue	0		D	
   	õu	0		S	sg p
nende	see	de		P	pl g
     	tema	de		P	pl g
järele	järele	0		D	
      	järele	0		K	
tulnud	tul=nud	0		A	
      	tul=nud	0		A	sg n
      	tul=nud	d		A	pl n
      	tule	nud		V	nud
      	tulnu	d		S	pl n
ja	ja	0		J	
öelnud	öel=nu	d		S	pl n
      	öel=nud	0		A	
      	öel=nud	0		A	sg n
      	öel=nud	d		A	pl n
      	ütle	nud		V	nud
neile	see	le		P	pl all
     	tema	le		P	pl all
:	:			Z	
""""	""""			Z	
Ma	mina	0		P	sg n
tahan	taht	n		V	n
hobuse	hobune	0		S	sg g
ja	ja	0		J	
lamma	####				
vargale	varas	le		S	sg all
näidata	näita	ta		V	da
       	näita	ta		V	ta
,	,			Z	
""""	""""			Z	
selle	see	0		P	sg g
     	sell	e		S	pl p
peale	pea	le		S	sg all
     	peale	0		D	
     	peale	0		K	
on	ole	0		V	b
  	ole	0		V	vad
Juhan	Juhan	0		H	sg n
Hio	####				
kutsunud	kutsu	nud		V	nud
        	kutsu=nu	d		S	pl n
        	kutsu=nud	0		A	
        	kutsu=nud	0		A	sg n
        	kutsu=nud	d		A	pl n
teda	tema	da		P	sg p
oma	oma	0		A	sg g
   	oma	0		D	
   	oma	0		P	sg g
   	oma	0		S	sg g
   	oma	0		V	o
   	oma	0		A	sg n
   	oma	0		A	sg p
   	oma	0		P	sg n
   	oma	0		P	sg p
   	oma	0		S	sg n
   	oma	0		S	sg p
kaasa	kaasa	0		D	
     	kaasa	0		V	o
     	kaasa	0		S	sg g
     	kaasa	0		S	sg n
kiriku	kirik	0		S	sg g
õpetaja	õpetaja	0		S	sg g
       	õpetaja	0		S	sg n
juure	juur	0		S	sg g
kella	kell	0		S	adt
     	kell	0		S	sg g
     	kella	0		V	o
     	kell	0		S	sg p
vaatama	vaata	ma		V	ma
,	,			Z	
nemad	tema	d		P	pl n
on	ole	0		V	b
  	ole	0		V	vad
läinud	läinu	d		S	pl n
      	läinud	0		A	
      	läinud	0		A	sg n
      	läinud	d		A	pl n
      	mine	nud		V	nud
kiriku	kirik	0		S	sg g
juure	juur	0		S	sg g
aga	aga	0		J	
õpetajad	õpetaja	d		S	pl n
ei	ei	0		D	
  	ei	0		V	neg
ole	ole	0		V	o
kodu	kodu	0		S	sg g
    	kodu	0		S	sg n
    	kodu	0		S	sg p
olnud	ol=nud	0		A	
     	ol=nud	0		A	sg n
     	ol=nud	d		A	pl n
     	ole	nud		V	nud
     	olnu	d		S	pl n
,	,			Z	
siis	siis	0		D	
    	siis	0		J	
vaatanud	####				
nemad	tema	d		P	pl n
seal	seal	0		D	
    	siga	l		A	sg ad
    	siga	l		S	sg ad
peretuua	####				
kella	kell	0		S	adt
     	kell	0		S	sg g
     	kella	0		V	o
     	kell	0		S	sg p
se	####				
olnud	ol=nud	0		A	
     	ol=nud	0		A	sg n
     	ol=nud	d		A	pl n
     	ole	nud		V	nud
     	olnu	d		S	pl n
55	55	0		N	?
minuti	minut	0		S	sg g
11ne	11	0		N	sg g
peal	pea	l		S	sg ad
    	peal	0		D	
    	peal	0		K	
.	.			Z	
kaupmees	kaup_mees	0		S	sg n
Mihailu	####				
andis	and	is		V	s
ülese	ülene	0		A	sg g
,	,			Z	
et	et	0		J	
need	see	d		P	pl n
alamal	alam	l		C	sg ad
      	alam	l		S	sg ad
      	alamal	0		D	
nimetatud	nimeta	tud		V	tud
         	nimetatu	d		S	pl n
         	nimetatud	0		A	
         	nimetatud	0		A	sg n
         	nimetatud	d		A	pl n
inimesed	inimene	d		S	pl n
peavad	pida	vad		V	vad
kohtus	kohtu	s		V	s
      	kohus	s		S	sg in
ette	ette	0		D	
    	ette	0		K	
    	esi	tte		S	adt
tulema	tule	ma		V	ma
temale	tema	le		P	sg all
tunnistuseks	tunnistus	ks		S	sg tr
.	.			Z	
1	1	0		N	?
,	,			Z	
Jüri	Jüri	0		H	sg g
    	Jüri	0		H	sg n
kiriku	kirik	0		S	sg g
valla	vald	0		S	sg g
     	valla	0		D	
talitaja	talitaja	0		S	sg g
        	talitaja	0		S	sg n
Jüri	Jüri	0		H	sg g
    	Jüri	0		H	sg n
kohu	kohu	0		V	o
kis	####				
on	ole	0		V	b
  	ole	0		V	vad
kuulnud	kuul	nud		V	nud
       	kuul=nud	0		A	
       	kuul=nud	0		A	sg n
       	kuul=nud	d		A	pl n
       	kuulnu	d		S	pl n
kui	kui	0		D	
   	kui	0		J	
kõrtsi	kõrts	0		S	adt
      	kõrts	0		S	sg g
      	kõrts	0		S	sg p
naine	naine	0		S	sg n
on	ole	0		V	b
  	ole	0		V	vad
teda	tema	da		P	sg p
hobuse	hobune	0		S	sg g
vargaks	varas	ks		S	sg tr
ja	ja	0		J	
agsirnina	####				
vangis	vang	s		S	sg in
sõimanud	sõima	nud		V	nud
        	sõima=nu	d		S	pl n
        	sõima=nud	0		A	
        	sõima=nud	0		A	sg n
        	sõima=nud	d		A	pl n
.	.			Z	
2	2	0		N	?
,	,			Z	
Mart	Mart	0		H	sg n
    	mart	0		S	sg n
Treirat	####				
peab	pida	b		V	b
ka	ka	0		D	
tema	tema	0		P	sg g
    	tema	0		P	sg n
asajast	####				
teadma	tead	ma		V	ma
tunnistust	tunnistus	t		S	sg p
anda	and	a		V	da
.	.			Z	
3	3	0		N	?
,	,			Z	
Hans	Hans	0		H	sg n
promann	####				
peab	pida	b		V	b
ka	ka	0		D	
teadma	tead	ma		V	ma
tunnistust	tunnistus	t		S	sg p
anda	and	a		V	da
ja	ja	0		J	
Juhan	Juhan	0		H	sg n
Hio	####				
ka	ka	0		D	
.	.			Z	
Jääb	jää	b		V	b
poolele	pool	le		N	sg all
       	pool	le		S	sg all
.	.			Z	
