sissekirjutud	####				
sel	see	l		P	sg ad
   	sel	0		Y	?
1mesel	####				
Mai	Mai	0		H	sg g
   	Mai	0		H	sg n
   	mai	0		S	sg g
   	mai	0		S	sg n
1867.	1867.	0		O	?
siin	siin	0		D	
    	siin	0		S	sg n
kogukonna	kogukond	0		S	sg g
kohtus	kohtu	s		V	s
      	kohus	s		S	sg in
saab	saa	b		V	b
Jaan	Jaan	0		H	sg n
    	jaan	0		S	sg n
    	jaan	0		Y	?
Reinu	Rein	0		H	adt
     	Rein	0		H	sg g
     	Rein	0		H	sg p
poeg	poeg	0		S	sg n
Jeõsuu	####				
valla	vald	0		S	sg g
     	valla	0		D	
puusepaks	puu_sepp	ks		S	sg tr
Virika	####				
küllale	küll	le		S	sg all
üles	üles	0		D	
võetud	võe=tu	d		S	pl n
      	võetud	0		A	
      	võetud	0		A	sg n
      	võetud	d		A	pl n
      	võt	tud		V	tud
.	.			Z	
talitaja	talitaja	0		S	sg g
        	talitaja	0		S	sg n
:	:			Z	
Mart	Mart	0		H	sg n
    	mart	0		S	sg n
Martu	####				
XXX	XXX	0		O	?
   	XXX	0		Y	?
abimees	abi_mees	0		S	sg n
:	:			Z	
Mart	Mart	0		H	sg n
    	mart	0		S	sg n
Kredemann	####				
XXX	XXX	0		O	?
   	XXX	0		Y	?
vallaestseisja	####				
.	.			Z	
Hans	Hans	0		H	sg n
Ehrenwerth	####				
XXX	XXX	0		O	?
   	XXX	0		Y	?
