ette	ette	0		D	
    	ette	0		K	
    	esi	tte		S	adt
tuli	tuli	0		S	sg n
    	tule	i		V	s
kaebaja	kaebaja	0		S	sg g
       	kaebaja	0		S	sg n
Jaan	Jaan	0		H	sg n
    	jaan	0		S	sg n
    	jaan	0		Y	?
kirspu	####				
kaebab	kaeba	b		V	b
,	,			Z	
et	et	0		J	
Jaan	Jaan	0		H	sg n
    	jaan	0		S	sg n
    	jaan	0		Y	?
ässar	####				
on	ole	0		V	b
  	ole	0		V	vad
tema	tema	0		P	sg g
    	tema	0		P	sg n
käest	käest	0		K	
     	käsi	st		S	sg el
,	,			Z	
1	1	0		N	?
lehm	lehm	0		S	sg n
ostnud	ost	nud		V	nud
      	ost=nu	d		S	pl n
      	ost=nud	0		A	
      	ost=nud	0		A	sg n
      	ost=nud	d		A	pl n
ja	ja	0		J	
on	ole	0		V	b
  	ole	0		V	vad
selle	see	0		P	sg g
     	sell	e		S	pl p
lehma	lehm	0		S	adt
     	lehm	0		S	sg g
     	lehm	0		S	sg p
eest	eest	0		D	
    	eest	0		K	
    	esi	st		S	sg el
12	12	0		N	?
rubla	rubla	0		S	sg g
     	rubla	0		S	sg n
     	rubla	0		S	sg p
50	50	0		N	?
kopikad	kopikas	d		S	pl n
lubanud	luba	nud		V	nud
       	luba=nu	d		S	pl n
       	luba=nud	0		A	
       	luba=nud	0		A	sg n
       	luba=nud	d		A	pl n
10	10	0		N	?
rubla	rubla	0		S	sg g
     	rubla	0		S	sg n
     	rubla	0		S	sg p
on	ole	0		V	b
  	ole	0		V	vad
kohe	kohe	0		A	sg n
    	kohe	0		D	
kätte	kätte	0		K	
     	käsi	tte		S	adt
andnud	and	nud		V	nud
      	and=nu	d		S	pl n
      	and=nud	0		A	
      	and=nud	0		A	sg n
      	and=nud	d		A	pl n
ja	ja	0		J	
2	2	0		N	?
rubl	####				
.	.			Z	
50	50	0		N	?
kop	kop	0		Y	?
.	.			Z	
on	ole	0		V	b
  	ole	0		V	vad
jäänud	jää	nud		V	nud
      	jäänu	d		S	pl n
      	jäänud	0		A	
      	jäänud	0		A	sg n
      	jäänud	d		A	pl n
andmata	and	mata		V	mata
       	and=mata	0		A	
ja	ja	0		J	
nüüd	nüüd	0		D	
tuli	tuli	0		S	sg n
    	tule	i		V	s
se	####				
asi	asi	0		S	sg n
   	asi	0		V	o
kohtu	kohtu	0		V	o
     	kohus	0		S	sg g
ette	ette	0		D	
    	ette	0		K	
    	esi	tte		S	adt
.	.			Z	
kohus	kohu	s		V	s
     	kohus	0		S	sg n
mõistis	mõist	is		V	s
et	et	0		J	
,	,			Z	
Jaan	Jaan	0		H	sg n
    	jaan	0		S	sg n
    	jaan	0		Y	?
ässar	####				
maksab	maks	b		V	b
se	####				
2	2	0		N	?
rubl	####				
50	50	0		N	?
kop	kop	0		Y	?
.	.			Z	
Jaan	Jaan	0		H	sg n
    	jaan	0		S	sg n
    	jaan	0		Y	?
kirspule	####				
kätte	kätte	0		K	
     	käsi	tte		S	adt
.	.			Z	
