protokoll	protokoll	0		S	sg n
sel	see	l		P	sg ad
   	sel	0		Y	?
11ndal	11=s	l		O	sg ad
märtsil	märts	l		S	sg ad
1875	1875	0		N	?
koos	koos	0		D	
    	koos	0		K	
    	koos	0		S	sg n
    	kubu	s		S	sg in
olid	ole	id		V	sid
kohtu	kohtu	0		V	o
     	kohus	0		S	sg g
peavanem	pea_vanem	0		C	sg n
        	pea_vanem	0		S	sg n
Hans	Hans	0		H	sg n
lasel	####				
Hans	Hans	0		H	sg n
Saarman	####				
Mart	Mart	0		H	sg n
    	mart	0		S	sg n
Epmann	####				
№	№	0		Y	?
8.	8.	0		O	?
kohtu	kohtu	0		V	o
     	kohus	0		S	sg g
ette	ette	0		D	
    	ette	0		K	
    	esi	tte		S	adt
astus	astu	s		V	s
Juhan	Juhan	0		H	sg n
Kanger	####				
ja	ja	0		J	
kaebas	kaeba	s		V	s
,	,			Z	
et	et	0		J	
temal	tema	l		P	sg ad
on	ole	0		V	b
  	ole	0		V	vad
Kirna	####				
Visuvere	####				
Lassi	lass	0		S	adt
     	lass	0		S	sg g
     	lass	0		S	sg p
koha	koht	0		S	sg g
    	koha	0		S	sg g
    	koha	0		V	o
    	koha	0		S	sg n
    	koha	0		S	sg p
küljest	külg	st		S	sg el
       	küljest	0		D	
       	küljest	0		K	
üks	üks	0		N	sg n
   	üks	0		P	sg n
koorm	####				
heinu	hein	u		S	pl p
pärida	päri	da		V	da
jäänud	jää	nud		V	nud
      	jäänu	d		S	pl n
      	jäänud	0		A	
      	jäänud	0		A	sg n
      	jäänud	d		A	pl n
ja	ja	0		J	
et	et	0		J	
Jaan	Jaan	0		H	sg n
    	jaan	0		S	sg n
    	jaan	0		Y	?
Laim	laim	0		S	sg n
on	ole	0		V	b
  	ole	0		V	vad
lubanud	luba	nud		V	nud
       	luba=nu	d		S	pl n
       	luba=nud	0		A	
       	luba=nud	0		A	sg n
       	luba=nud	d		A	pl n
need	see	d		P	pl n
heinad	hein	d		S	pl n
temale	tema	le		P	sg all
ära	ära	0		D	
   	ära	0		V	neg o
maksta	maks	ta		V	da
      	maks	ta		V	ta
seepärast	see_pärast	0		D	
et	et	0		J	
Jaan	Jaan	0		H	sg n
    	jaan	0		S	sg n
    	jaan	0		Y	?
Laim	laim	0		S	sg n
on	ole	0		V	b
  	ole	0		V	vad
selle	see	0		P	sg g
     	sell	e		S	pl p
Lassi	lass	0		S	adt
     	lass	0		S	sg g
     	lass	0		S	sg p
koha	koht	0		S	sg g
    	koha	0		S	sg g
    	koha	0		V	o
    	koha	0		S	sg n
    	koha	0		S	sg p
heinad	hein	d		S	pl n
omale	oma	le		A	sg all
     	oma	le		P	sg all
     	oma	le		S	sg all
saanud	saa	nud		V	nud
      	saa=nud	0		A	
      	saa=nud	0		A	sg n
      	saa=nud	d		A	pl n
      	saanu	d		S	pl n
.	.			Z	
Jaan	Jaan	0		H	sg n
    	jaan	0		S	sg n
    	jaan	0		Y	?
Laim	laim	0		S	sg n
astus	astu	s		V	s
ette	ette	0		D	
    	ette	0		K	
    	esi	tte		S	adt
ja	ja	0		J	
ütles	ütle	s		V	s
et	et	0		J	
tema	tema	0		P	sg g
    	tema	0		P	sg n
ei	ei	0		D	
  	ei	0		V	neg
ole	ole	0		V	o
neid	neid	0		S	sg n
    	see	d		P	pl p
    	tema	d		P	pl p
heinu	hein	u		S	pl p
mitte	mitte	0		D	
Johanile	Johan	le		H	sg all
lubanud	luba	nud		V	nud
       	luba=nu	d		S	pl n
       	luba=nud	0		A	
       	luba=nud	0		A	sg n
       	luba=nud	d		A	pl n
maksta	maks	ta		V	da
      	maks	ta		V	ta
ega	ega	0		D	
   	ega	0		J	
tea	tead	0		V	o
sest	see	st		P	sg el
    	sest	0		J	
asjast	asi	st		S	sg el
midagist	####				
.	.			Z	
seepärast	see_pärast	0		D	
,	,			Z	
et	et	0		J	
Juhanil	Juhan	l		H	sg ad
mitte	mitte	0		D	
selget	selge	t		A	sg p
tunnistust	tunnistus	t		S	sg p
heina	hein	0		S	adt
     	hein	0		S	sg g
     	hein	0		S	sg p
koorma	koorem	0		S	sg g
      	koorma	0		V	o
üle	üle	0		D	
   	üle	0		K	
ei	ei	0		D	
  	ei	0		V	neg
ole	ole	0		V	o
,	,			Z	
sai	saa	i		V	s
   	sai	0		S	sg n
siiski	siiski	0		D	
mõistetud	mõist	tud		V	tud
         	mõiste=tu	d		S	pl n
         	mõiste=tud	0		A	
         	mõiste=tud	0		A	sg n
         	mõiste=tud	d		A	pl n
:	:			Z	
et	et	0		J	
Jaan	Jaan	0		H	sg n
    	jaan	0		S	sg n
    	jaan	0		Y	?
Laim	laim	0		S	sg n
peab	pida	b		V	b
poole	pool	0		N	sg g
     	pool	0		S	sg g
     	pool	e		S	pl p
     	poole	0		K	
     	poole	0		S	sg n
koorma	koorem	0		S	sg g
      	koorma	0		V	o
hinda	hind	0		S	adt
     	hinda	0		V	o
     	hind	0		S	sg p
välja	välja	0		D	
     	välja	0		V	o
     	väli	0		S	adt
     	väli	0		S	sg g
     	väli	0		S	sg p
maksma	maks	ma		V	ma
,	,			Z	
se	####				
on	ole	0		V	b
  	ole	0		V	vad
2	2	0		N	?
rubla	rubla	0		S	sg g
     	rubla	0		S	sg n
     	rubla	0		S	sg p
hõbedat	hõbe	t		S	sg p
.	.			Z	
Semõistmine	####				
sai	saa	i		V	s
   	sai	0		S	sg n
kuulutud	kuulu	tud		V	tud
        	kuulu=tu	d		S	pl n
        	kuulu=tud	0		A	
        	kuulu=tud	0		A	sg n
        	kuulu=tud	d		A	pl n
ja	ja	0		J	
Jaan	Jaan	0		H	sg n
    	jaan	0		S	sg n
    	jaan	0		Y	?
Laim	laim	0		S	sg n
ütles	ütle	s		V	s
,	,			Z	
et	et	0		J	
tema	tema	0		P	sg g
    	tema	0		P	sg n
sellega	see	ga		P	sg kom
rahul	rahu	l		S	sg ad
     	rahul	0		D	
ei	ei	0		D	
  	ei	0		V	neg
ole	ole	0		V	o
ja	ja	0		J	
nõuab	nõud	b		V	b
suremat	####				
kohut	kohus	t		S	sg p
.	.			Z	
ja	ja	0		J	
on	ole	0		V	b
  	ole	0		V	vad
ka	ka	0		D	
protokoll	protokoll	0		S	sg n
välja	välja	0		D	
     	välja	0		V	o
     	väli	0		S	adt
     	väli	0		S	sg g
     	väli	0		S	sg p
antud	an=tu	d		S	pl n
     	and	tud		V	tud
     	antud	0		A	
     	antud	0		A	sg n
     	antud	d		A	pl n
.	.			Z	
Hans	Hans	0		H	sg n
Lassel	####				
XXX	XXX	0		O	?
   	XXX	0		Y	?
Hans	Hans	0		H	sg n
Saarmann	saar_mann	0		S	sg n
XXX	XXX	0		O	?
   	XXX	0		Y	?
Mart	Mart	0		H	sg n
    	mart	0		S	sg n
Epmann	####				
XXX	XXX	0		O	?
   	XXX	0		Y	?
