11	11	0		N	?
)	)			Z	
see	see	0		P	sg n
ernee	####				
vargus	vargus	0		S	sg n
mis	mis	0		P	pl n
   	mis	0		P	sg n
sel	see	l		P	sg ad
   	sel	0		Y	?
1ndal	####				
Aprillil	aprill	l		S	sg ad
No	no	0		I	
10.	10.	0		O	?
tunnistas	tunnista	s		V	s
kohtu	kohtu	0		V	o
     	kohus	0		S	sg g
kõrvamees	kõrva_mees	0		S	sg n
Jaan	Jaan	0		H	sg n
    	jaan	0		S	sg n
    	jaan	0		Y	?
Söödi	söö	di		V	ti
     	sööt	0		S	sg g
et	et	0		J	
Jüri	Jüri	0		H	sg g
    	Jüri	0		H	sg n
kalla	kalla	0		V	o
     	kalla	0		S	sg g
     	kalla	0		S	sg n
naine	naine	0		S	sg n
kaebas	kaeba	s		V	s
mulle	mull	e		S	pl p
     	mina	lle		P	sg all
     	mulle	0		S	sg n
,	,			Z	
et	et	0		J	
Jaak	Jaak	0		H	sg n
    	jaak	0		S	sg n
Korjus	korju	s		V	s
      	kori	s		S	sg in
      	korju	s		S	sg in
      	korjus	0		S	sg n
ei	ei	0		D	
  	ei	0		V	neg
ole	ole	0		V	o
mitte	mitte	0		D	
veel	veel	0		D	
    	vesi	l		S	sg ad
meie	mina	0		P	pl g
    	mina	0		P	pl n
ernee	####				
koti	kott	0		S	sg g
    	kotti	0		V	o
kätte	kätte	0		K	
     	käsi	tte		S	adt
toonud	too	nud		V	nud
      	too=nu	d		S	pl n
      	too=nud	0		A	
      	too=nud	0		A	sg n
      	too=nud	d		A	pl n
.	.			Z	
selle	see	0		P	sg g
     	sell	e		S	pl p
peale	pea	le		S	sg all
     	peale	0		D	
     	peale	0		K	
käskisin	käski	sin		V	sin
mina	mina	0		P	sg n
    	mina	0		S	sg g
    	mina	0		S	sg n
    	mina	0		S	sg p
Jaan	Jaan	0		H	sg n
    	jaan	0		S	sg n
    	jaan	0		Y	?
Tiitsi	####				
selle	see	0		P	sg g
     	sell	e		S	pl p
ernee	####				
koti	kott	0		S	sg g
    	kotti	0		V	o
tema	tema	0		P	sg g
    	tema	0		P	sg n
kätte	kätte	0		K	
     	käsi	tte		S	adt
viia	vii	a		V	da
Jaan	Jaan	0		H	sg n
    	jaan	0		S	sg n
    	jaan	0		Y	?
Tiits	####				
tunnistas	tunnista	s		V	s
mina	mina	0		P	sg n
    	mina	0		S	sg g
    	mina	0		S	sg n
    	mina	0		S	sg p
viisin	vii	sin		V	sin
kohtu	kohtu	0		V	o
     	kohus	0		S	sg g
kõrva	kõrv	0		S	adt
     	kõrv	0		S	sg g
     	kõrv	0		S	sg p
mehe	mees	0		S	sg g
käsu	käsk	0		S	sg g
peale	pea	le		S	sg all
     	peale	0		D	
     	peale	0		K	
selle	see	0		P	sg g
     	sell	e		S	pl p
ernee	####				
koti	kott	0		S	sg g
    	kotti	0		V	o
mõisa	mõis	0		S	sg g
,	,			Z	
aga	aga	0		J	
Jaak	Jaak	0		H	sg n
    	jaak	0		S	sg n
Korjus	korju	s		V	s
      	kori	s		S	sg in
      	korju	s		S	sg in
      	korjus	0		S	sg n
ei	ei	0		D	
  	ei	0		V	neg
ole	ole	0		V	o
mulle	mull	e		S	pl p
     	mina	lle		P	sg all
     	mulle	0		S	sg n
sest	see	st		P	sg el
    	sest	0		J	
sõnagi	sõna	0	gi	S	sg g
      	sõna	0	gi	V	o
      	sõna	0	gi	S	sg n
      	sõna	0	gi	S	sg p
rääkinud	rääki	nud		V	nud
        	rääki=nu	d		S	pl n
        	rääki=nud	0		A	
        	rääki=nud	0		A	sg n
        	rääki=nud	d		A	pl n
.	.			Z	
Jaak	Jaak	0		H	sg n
    	jaak	0		S	sg n
Korjus	korju	s		V	s
      	kori	s		S	sg in
      	korju	s		S	sg in
      	korjus	0		S	sg n
on	ole	0		V	b
  	ole	0		V	vad
2	2	0		N	?
käsku	käsk	0		S	adt
     	käsk	0		S	sg p
kohtusse	kohtune	se		A	adt
        	kohus	sse		S	sg ill
tulla	tule	a		V	da
saanud	saa	nud		V	nud
      	saa=nud	0		A	
      	saa=nud	0		A	sg n
      	saa=nud	d		A	pl n
      	saanu	d		S	pl n
aga	aga	0		J	
pole	ole	0		V	neg o
tänagi	täna	0	gi	D	
      	täna	0	gi	V	o
tulnud	tul=nud	0		A	
      	tul=nud	0		A	sg n
      	tul=nud	d		A	pl n
      	tule	nud		V	nud
      	tulnu	d		S	pl n
see	see	0		P	sg n
käsu	käsk	0		S	sg g
vastu	vastu	0		D	
     	vastu	0		K	
panema	pane	ma		V	ma
.	.			Z	
jäb	####				
pooleli	pooleli	0		D	
.	.			Z	
kohtuvanem	kohtu_vanem	0		C	sg n
          	kohtu_vanem	0		S	sg n
.	.			Z	
A	A	0		Y	?
.	.			Z	
_Juntson	####				
[	[			Z	
allkiri	all_kiri	0		S	sg n
]	]			Z	
kõrvamees	kõrva_mees	0		S	sg n
Jaan	Jaan	0		H	sg n
    	jaan	0		S	sg n
    	jaan	0		Y	?
Söödi	söö	di		V	ti
     	sööt	0		S	sg g
XXX	XXX	0		O	?
   	XXX	0		Y	?
ja	ja	0		J	
Mart	Mart	0		H	sg n
    	mart	0		S	sg n
Venno	Venno	0		H	sg g
     	Venno	0		H	sg n
XXX	XXX	0		O	?
   	XXX	0		Y	?
kirjutaja	kirjutaja	0		S	sg g
         	kirjutaja	0		S	sg n
M	M	0		O	?
 	M	0		Y	?
Arak	####				
[	[			Z	
allkiri	all_kiri	0		S	sg n
]	]			Z	
