1	1	0		N	?
)	)			Z	
Otto	Otto	0		H	sg g
    	Otto	0		H	sg n
Kubarsepp	####				
tuli	tuli	0		S	sg n
    	tule	i		V	s
kohtu	kohtu	0		V	o
     	kohus	0		S	sg g
ette	ette	0		D	
    	ette	0		K	
    	esi	tte		S	adt
ja	ja	0		J	
kaebas	kaeba	s		V	s
:	:			Z	
et	et	0		J	
Jüri	Jüri	0		H	sg g
    	Jüri	0		H	sg n
Ehrmann	####				
on	ole	0		V	b
  	ole	0		V	vad
tema	tema	0		P	sg g
    	tema	0		P	sg n
naist	naine	t		S	sg p
peksnud	peks	nud		V	nud
       	peks=nu	d		S	pl n
       	peks=nud	0		A	
       	peks=nud	0		A	sg n
       	peks=nud	d		A	pl n
ja	ja	0		J	
karvust	karv_uks	t		S	sg p
kinni	kinni	0		D	
võtnud	võt	nud		V	nud
      	võt=nu	d		S	pl n
      	võt=nud	0		A	
      	võt=nud	0		A	sg n
      	võt=nud	d		A	pl n
.	.			Z	
2	2	0		N	?
)	)			Z	
Jüri	Jüri	0		H	sg g
    	Jüri	0		H	sg n
vastab	vasta	b		V	b
:	:			Z	
Otto	Otto	0		H	sg g
    	Otto	0		H	sg n
on	ole	0		V	b
  	ole	0		V	vad
mind	mina	d		P	sg p
peksnud	peks	nud		V	nud
       	peks=nu	d		S	pl n
       	peks=nud	0		A	
       	peks=nud	0		A	sg n
       	peks=nud	d		A	pl n
,	,			Z	
aga	aga	0		J	
mina	mina	0		P	sg n
    	mina	0		S	sg g
    	mina	0		S	sg n
    	mina	0		S	sg p
pole	ole	0		V	neg o
mitte	mitte	0		D	
teda	tema	da		P	sg p
ega	ega	0		D	
   	ega	0		J	
tema	tema	0		P	sg g
    	tema	0		P	sg n
naist	naine	t		S	sg p
peksnud	peks	nud		V	nud
       	peks=nu	d		S	pl n
       	peks=nud	0		A	
       	peks=nud	0		A	sg n
       	peks=nud	d		A	pl n
.	.			Z	
3	3	0		N	?
)	)			Z	
Jüri	Jüri	0		H	sg g
    	Jüri	0		H	sg n
Judvalt	####				
tunnistab	tunnista	b		V	b
,	,			Z	
kes	kes	0		P	pl n
   	kes	0		P	sg n
seda	see	da		P	sg p
riida	riit	0		S	sg g
kõik	kõik	0		P	pl n
    	kõik	0		S	sg n
    	kõik	0		P	sg n
pealt	pea	lt		S	sg abl
     	pealt	0		D	
     	pealt	0		K	
on	ole	0		V	b
  	ole	0		V	vad
näinud	näi	nud		V	nud
      	näge	nud		V	nud
      	näi=nud	0		A	
      	näi=nud	0		A	sg n
      	näi=nud	d		A	pl n
      	näinu	d		S	pl n
,	,			Z	
nõnda	nõnda	0		D	
:	:			Z	
Jüri	Jüri	0		H	sg g
    	Jüri	0		H	sg n
Ehrmann	####				
tuli	tuli	0		S	sg n
    	tule	i		V	s
Prandi	Prandi	0		H	sg g
      	Prandi	0		H	sg n
kõrtsist	kõrts	st		S	sg el
,	,			Z	
kus	kus	0		D	
nad	tema	d		P	pl n
juba	juba	0		D	
enne	enne	0		D	
    	enne	0		K	
    	enne	0		S	sg n
on	ole	0		V	b
  	ole	0		V	vad
Ottuga	####				
riielnud	riidle	nud		V	nud
        	riiel=nu	d		S	pl n
        	riiel=nud	0		A	
        	riiel=nud	0		A	sg n
        	riiel=nud	d		A	pl n
,	,			Z	
Jüri	Jüri	0		H	sg g
    	Jüri	0		H	sg n
küsis	küsi	s		V	s
:	:			Z	
Otto	Otto	0		H	sg g
    	Otto	0		H	sg n
mis	mis	0		P	pl n
   	mis	0		P	sg n
pärast	pära	st		S	sg el
      	pärane	t		A	sg p
      	pärast	0		D	
      	pärast	0		K	
sinna	sinna	0		D	
mind	mina	d		P	sg p
peksid	peks	id		V	sid
?	?			Z	
Otto	Otto	0		H	sg g
    	Otto	0		H	sg n
lõi	loo	i		V	s
   	löö	i		V	s
Jürile	Jüri	le		H	sg all
mööda	mööda	0		A	
     	mööda	0		D	
     	mööda	0		K	
rindu	rind	u		S	pl p
     	rindu	0		D	
,	,			Z	
siis	siis	0		D	
    	siis	0		J	
tuli	tuli	0		S	sg n
    	tule	i		V	s
Otto	Otto	0		H	sg g
    	Otto	0		H	sg n
naine	naine	0		S	sg n
ka	ka	0		D	
sängist	säng	st		S	sg el
välja	välja	0		D	
     	välja	0		V	o
     	väli	0		S	adt
     	väli	0		S	sg g
     	väli	0		S	sg p
,	,			Z	
ja	ja	0		J	
hakkasid	hakka	sid		V	sid
Jüri	Jüri	0		H	sg g
    	Jüri	0		H	sg n
kiskuma	kisku	ma		V	ma
nõnda	nõnda	0		D	
et	et	0		J	
hirmus	hirm	s		S	sg in
      	hirmu	s		V	s
      	hirmus	0		A	sg n
      	hirmus	0		D	
ja	ja	0		J	
pärast	pära	st		S	sg el
      	pärane	t		A	sg p
      	pärast	0		D	
      	pärast	0		K	
ajasid	aja	sid		V	sid
teda	tema	da		P	sg p
lide	####				
sellili	####				
,	,			Z	
kus	kus	0		D	
ka	ka	0		D	
tema	tema	0		P	sg g
    	tema	0		P	sg n
pea	pea	0		D	
   	pea	0		S	sg g
   	pida	0		V	o
   	pea	0		S	sg n
ära	ära	0		D	
   	ära	0		V	neg o
lõhkusid	lõhk	sid		S	pl p
        	lõhku	sid		V	sid
muda	muda	0		S	sg g
    	muda	0		S	sg n
    	muda	0		S	sg p
kiva	####				
.	.			Z	
4	4	0		N	?
)	)			Z	
kohus	kohu	s		V	s
     	kohus	0		S	sg n
vastas	vasta	s		V	s
      	vastas	0		D	
      	vastas	0		K	
ka	ka	0		D	
seda	see	da		P	sg p
sargi	####				
,	,			Z	
mis	mis	0		P	pl n
   	mis	0		P	sg n
Jüril	Jüri	l		H	sg ad
se	####				
kord	kord	0		D	
    	kord	0		S	sg n
seljas	selg	s		S	sg in
olnud	ol=nud	0		A	
     	ol=nud	0		A	sg n
     	ol=nud	d		A	pl n
     	ole	nud		V	nud
     	olnu	d		S	pl n
ja	ja	0		J	
se	####				
oli	ole	i		V	s
väga	väga	0		D	
verine	verine	0		A	sg n
.	.			Z	
5	5	0		N	?
)	)			Z	
Otto	Otto	0		H	sg g
    	Otto	0		H	sg n
ei	ei	0		D	
  	ei	0		V	neg
või	või	0		S	sg g
   	või	0		V	o
   	või	0		D	
   	või	0		J	
   	või	0		S	sg n
midagi	miski	dagi		P	sg p
se	####				
peale	pea	le		S	sg all
     	peale	0		D	
     	peale	0		K	
vastada	####				
et	et	0		J	
se	####				
nõnda	nõnda	0		D	
õige	õige	0		A	sg g
    	õige	0		A	sg n
    	õige	0		D	
ei	ei	0		D	
  	ei	0		V	neg
ole	ole	0		V	o
6	6	0		N	?
)	)			Z	
kogukonna	kogukond	0		S	sg g
kohus	kohu	s		V	s
     	kohus	0		S	sg n
mõistis	mõist	is		V	s
:	:			Z	
Otto	Otto	0		H	sg g
    	Otto	0		H	sg n
saab	saa	b		V	b
20	20	0		N	?
hoopi	hoop	0		S	adt
     	hoop	0		S	sg p
vitsu	vits	u		S	pl p
trahviks	trahv	ks		S	sg tr
        	trahvi	ks		V	ks
ja	ja	0		J	
ka	ka	0		D	
häbistud	####				
,	,			Z	
et	et	0		J	
on	ole	0		V	b
  	ole	0		V	vad
julgenud	julge	nud		V	nud
        	julge=nu	d		S	pl n
        	julge=nud	0		A	
        	julge=nud	0		A	sg n
        	julge=nud	d		A	pl n
valega	vale	ga		A	sg kom
      	vale	ga		S	sg kom
kohtu	kohtu	0		V	o
     	kohus	0		S	sg g
ette	ette	0		D	
    	ette	0		K	
    	esi	tte		S	adt
tulla	tule	a		V	da
.	.			Z	
7.	7.	0		O	?
Otto	Otto	0		H	sg g
    	Otto	0		H	sg n
sai	saa	i		V	s
   	sai	0		S	sg n
ka	ka	0		D	
trahvitud	trahvi	tud		V	tud
         	trahvi=tu	d		S	pl n
         	trahvi=tud	0		A	
         	trahvi=tud	0		A	sg n
         	trahvi=tud	d		A	pl n
.	.			Z	
8.	8.	0		O	?
Otto	Otto	0		H	sg g
    	Otto	0		H	sg n
naine	naine	0		S	sg n
seisab	seis	b		V	b
ka	ka	0		D	
selle	see	0		P	sg g
     	sell	e		S	pl p
eest	eest	0		D	
    	eest	0		K	
    	esi	st		S	sg el
24	24	0		N	?
tundi	tund	0		S	adt
     	tund	0		S	sg p
puuris	puur	s		S	sg in
      	puuri	s		V	s
,	,			Z	
et	et	0		J	
on	ole	0		V	b
  	ole	0		V	vad
se	####				
riiu	riid	0		S	sg g
abiline	abiline	0		S	sg n
olnud	ol=nud	0		A	
     	ol=nud	0		A	sg n
     	ol=nud	d		A	pl n
     	ole	nud		V	nud
     	olnu	d		S	pl n
.	.			Z	
