N	N	0		Y	?
:	:			Z	
6.	6.	0		O	?
Väike	väike	0		A	sg n
=	=			Z	
karedal	kare	l		A	sg ad
sel	see	l		P	sg ad
   	sel	0		Y	?
25.	25.	0		O	?
sel	see	l		P	sg ad
   	sel	0		Y	?
aprill	aprill	0		S	sg n
1881.	1881.	0		O	?
1.	1.	0		O	?
kohtu	kohtu	0		V	o
     	kohus	0		S	sg g
ette	ette	0		D	
    	ette	0		K	
    	esi	tte		S	adt
astus	astu	s		V	s
küla	küla	0		S	sg g
    	küla	0		S	sg n
    	küla	0		S	sg p
peremehe	pere_mees	0		S	sg g
sulane	sulane	0		S	sg n
      	sulane	0		V	o
Jaan	Jaan	0		H	sg n
    	jaan	0		S	sg n
    	jaan	0		Y	?
Else	####				
,	,			Z	
ja	ja	0		J	
kaebas	kaeba	s		V	s
et	et	0		J	
Hindreku	####				
peremees	pere_mees	0		S	sg n
Mart	Mart	0		H	sg n
    	mart	0		S	sg n
Hörden	####				
,	,			Z	
olla	ole	a		V	da
ilma	ilm	0		S	adt
    	ilm	0		S	sg g
    	ilma	0		D	
    	ilma	0		K	
    	ilm	0		S	sg p
süüta	süü	ta		S	sg ab
     	süüta	0		V	o
üks	üks	0		N	sg n
   	üks	0		P	sg n
kord	kord	0		D	
    	kord	0		S	sg n
maha	maha	0		D	
lükanud	lükka	nud		V	nud
       	lüka=nu	d		S	pl n
       	lüka=nud	0		A	
       	lüka=nud	0		A	sg n
       	lüka=nud	d		A	pl n
,	,			Z	
ja	ja	0		J	
kaks	kaks	0		N	sg n
korda	kord	0		S	adt
     	korda	0		V	o
     	kord	0		S	sg p
jalaga	jalg	ga		S	sg kom
rinde	rind	0		S	pl g
     	rinne	0		S	sg g
peale	pea	le		S	sg all
     	peale	0		D	
     	peale	0		K	
löönud	löö	nud		V	nud
      	löö=nu	d		S	pl n
      	löö=nud	0		A	
      	löö=nud	0		A	sg n
      	löö=nud	d		A	pl n
,	,			Z	
keda	kes	da		P	pl p
    	kes	da		P	sg p
ka	ka	0		D	
tunnistuse	tunnistus	0		S	sg g
mehed	mees	d		S	pl n
on	ole	0		V	b
  	ole	0		V	vad
pealt	pea	lt		S	sg abl
     	pealt	0		D	
     	pealt	0		K	
näinud	näi	nud		V	nud
      	näge	nud		V	nud
      	näi=nud	0		A	
      	näi=nud	0		A	sg n
      	näi=nud	d		A	pl n
      	näinu	d		S	pl n
Mart	Mart	0		H	sg n
    	mart	0		S	sg n
Adler	Adler	0		H	sg n
ja	ja	0		J	
Jüri	Jüri	0		H	sg g
    	Jüri	0		H	sg n
Kopti	kopt	0		S	adt
     	kopt	0		S	sg g
     	kopt	0		S	sg p
.	.			Z	
2.	2.	0		O	?
kutsuti	kutsu	ti		V	ti
peremees	pere_mees	0		S	sg n
Mart	Mart	0		H	sg n
    	mart	0		S	sg n
Hörden	####				
kohtu	kohtu	0		V	o
     	kohus	0		S	sg g
ette	ette	0		D	
    	ette	0		K	
    	esi	tte		S	adt
,	,			Z	
kohus	kohu	s		V	s
     	kohus	0		S	sg n
küsis	küsi	s		V	s
se	####				
asi	asi	0		S	sg n
   	asi	0		V	o
temalt	tema	lt		P	sg abl
,	,			Z	
tema	tema	0		P	sg g
    	tema	0		P	sg n
ütles	ütle	s		V	s
pühapäeva	püha_päev	0		S	adt
         	püha_päev	0		S	sg g
         	püha_päev	0		S	sg p
õhtu	õhtu	0		S	sg g
    	õhtu	0		S	sg n
kella	kell	0		S	adt
     	kell	0		S	sg g
     	kella	0		V	o
     	kell	0		S	sg p
kümmend	####				
aeg	aeg	0		S	sg n
,	,			Z	
tema	tema	0		P	sg g
    	tema	0		P	sg n
on	ole	0		V	b
  	ole	0		V	vad
hobuseid	hobune	id		S	pl p
talitanud	talita	nud		V	nud
         	talita=nu	d		S	pl n
         	talita=nud	0		A	
         	talita=nud	0		A	sg n
         	talita=nud	d		A	pl n
ja	ja	0		J	
on	ole	0		V	b
  	ole	0		V	vad
kuulnud	kuul	nud		V	nud
       	kuul=nud	0		A	
       	kuul=nud	0		A	sg n
       	kuul=nud	d		A	pl n
       	kuulnu	d		S	pl n
,	,			Z	
et	et	0		J	
mis	mis	0		P	pl n
   	mis	0		P	sg n
kära	kära	0		S	sg g
    	kära	0		V	o
    	kära	0		S	sg n
    	kära	0		S	sg p
se	####				
on	ole	0		V	b
  	ole	0		V	vad
Ottena	####				
pere	pere	0		S	sg g
    	pere	0		S	sg n
pool	pool	0		K	
    	pool	0		N	sg n
    	pool	0		S	sg n
,	,			Z	
sedamaid	seda_maid	0		D	
on	ole	0		V	b
  	ole	0		V	vad
aga	aga	0		J	
Jaan	Jaan	0		H	sg n
    	jaan	0		S	sg n
    	jaan	0		Y	?
Else	####				
kohe	kohe	0		A	sg n
    	kohe	0		D	
tulnud	tul=nud	0		A	
      	tul=nud	0		A	sg n
      	tul=nud	d		A	pl n
      	tule	nud		V	nud
      	tulnu	d		S	pl n
suure	suur	0		A	sg g
käraga	kära	ga		S	sg kom
Hindreku	####				
väravasse	värav	sse		S	sg ill
,	,			Z	
Hindreku	####				
peremees	pere_mees	0		S	sg n
Mart	Mart	0		H	sg n
    	mart	0		S	sg n
Hörden	####				
on	ole	0		V	b
  	ole	0		V	vad
tema	tema	0		P	sg g
    	tema	0		P	sg n
vastu	vastu	0		D	
     	vastu	0		K	
läinud	läinu	d		S	pl n
      	läinud	0		A	
      	läinud	0		A	sg n
      	läinud	d		A	pl n
      	mine	nud		V	nud
,	,			Z	
et	et	0		J	
mis	mis	0		P	pl n
   	mis	0		P	sg n
sa	sina	0		P	sg n
röögid	röök	d		S	pl n
      	rööki	d		V	d
öösi	öös	0		S	adt
    	öös	0		S	sg g
    	öösi	0		D	
    	öös	0		S	sg p
mööda	mööda	0		A	
     	mööda	0		D	
     	mööda	0		K	
küla	küla	0		S	sg g
    	küla	0		S	sg n
    	küla	0		S	sg p
,	,			Z	
mis	mis	0		P	pl n
   	mis	0		P	sg n
kõvasti	kõvasti	0		D	
ära	ära	0		D	
   	ära	0		V	neg o
keelatud	keela	tud		V	tud
        	keelatu	d		S	pl n
        	keelatud	0		A	
        	keelatud	0		A	sg n
        	keelatud	d		A	pl n
on	ole	0		V	b
  	ole	0		V	vad
kõrgema	kõrgem	0		C	sg g
       	kõrgem	0		S	sg g
kohtusse	kohtune	se		A	adt
        	kohus	sse		S	sg ill
poolt	pool	t		N	sg p
     	pool	t		S	sg p
     	poolt	0		D	
     	poolt	0		K	
,	,			Z	
selle	see	0		P	sg g
     	sell	e		S	pl p
peale	pea	le		S	sg all
     	peale	0		D	
     	peale	0		K	
on	ole	0		V	b
  	ole	0		V	vad
ütenud	####				
Jaan	Jaan	0		H	sg n
    	jaan	0		S	sg n
    	jaan	0		Y	?
Else	####				
mis	mis	0		P	pl n
   	mis	0		P	sg n
sul	sina	l		P	sg ad
minuga	mina	ga		P	sg kom
tegemist	tegemine	t		S	sg p
on	ole	0		V	b
  	ole	0		V	vad
.	.			Z	
Mart	Mart	0		H	sg n
    	mart	0		S	sg n
Hörden	####				
on	ole	0		V	b
  	ole	0		V	vad
aga	aga	0		J	
tema	tema	0		P	sg g
    	tema	0		P	sg n
rinnust	rind	ust		S	pl el
       	rinnus	t		S	sg p
kinni	kinni	0		D	
võtnud	võt	nud		V	nud
      	võt=nu	d		S	pl n
      	võt=nud	0		A	
      	võt=nud	0		A	sg n
      	võt=nud	d		A	pl n
,	,			Z	
et	et	0		J	
tule	tuli	0		S	sg g
    	tule	0		V	o
lähema	lähem	0		C	sg g
puuri	puur	0		S	adt
     	puur	0		S	sg g
     	puuri	0		V	o
     	puur	0		S	sg p
,	,			Z	
ja	ja	0		J	
olla	ole	a		V	da
teda	tema	da		P	sg p
maha	maha	0		D	
lükanud	lükka	nud		V	nud
       	lüka=nu	d		S	pl n
       	lüka=nud	0		A	
       	lüka=nud	0		A	sg n
       	lüka=nud	d		A	pl n
.	.			Z	
3.	3.	0		O	?
kutsuti	kutsu	ti		V	ti
tunnistuse	tunnistus	0		S	sg g
mehed	mees	d		S	pl n
,	,			Z	
Jüri	Jüri	0		H	sg g
    	Jüri	0		H	sg n
Kopti	kopt	0		S	adt
     	kopt	0		S	sg g
     	kopt	0		S	sg p
ja	ja	0		J	
Mart	Mart	0		H	sg n
    	mart	0		S	sg n
Adler	Adler	0		H	sg n
ette	ette	0		D	
    	ette	0		K	
    	esi	tte		S	adt
kes	kes	0		P	pl n
   	kes	0		P	sg n
seda	see	da		P	sg p
on	ole	0		V	b
  	ole	0		V	vad
ka	ka	0		D	
pealt	pea	lt		S	sg abl
     	pealt	0		D	
     	pealt	0		K	
näinud	näi	nud		V	nud
      	näge	nud		V	nud
      	näi=nud	0		A	
      	näi=nud	0		A	sg n
      	näi=nud	d		A	pl n
      	näinu	d		S	pl n
,	,			Z	
nemad	tema	d		P	pl n
rääkisid	rääki	sid		V	sid
seda	see	da		P	sg p
asja	asi	0		S	adt
    	asi	0		S	sg g
    	asi	0		S	sg p
kuidas	kuidas	0		D	
juba	juba	0		D	
ees	ees	0		D	
   	ees	0		K	
   	esi	s		S	sg in
nimetatud	nimeta	tud		V	tud
         	nimetatu	d		S	pl n
         	nimetatud	0		A	
         	nimetatud	0		A	sg n
         	nimetatud	d		A	pl n
on	ole	0		V	b
  	ole	0		V	vad
,	,			Z	
et	et	0		J	
Mart	Mart	0		H	sg n
    	mart	0		S	sg n
Hörden	####				
purjus	purjus	0		A	
      	purjus	0		D	
Jaan	Jaan	0		H	sg n
    	jaan	0		S	sg n
    	jaan	0		Y	?
Elset	####				
maha	maha	0		D	
lükanud	lükka	nud		V	nud
       	lüka=nu	d		S	pl n
       	lüka=nud	0		A	
       	lüka=nud	0		A	sg n
       	lüka=nud	d		A	pl n
ja	ja	0		J	
jalaga	jalg	ga		S	sg kom
rinde	rind	0		S	pl g
     	rinne	0		S	sg g
peale	pea	le		S	sg all
     	peale	0		D	
     	peale	0		K	
löönud	löö	nud		V	nud
      	löö=nu	d		S	pl n
      	löö=nud	0		A	
      	löö=nud	0		A	sg n
      	löö=nud	d		A	pl n
.	.			Z	
4.	4.	0		O	?
kohus	kohu	s		V	s
     	kohus	0		S	sg n
mõistis	mõist	is		V	s
mõlemile	####				
süüdi	süüd	0		S	adt
     	süüd	0		S	sg g
     	süüdi	0		D	
     	süüd	0		S	sg p
1.	1.	0		O	?
eks	eks	0		D	
   	eks	0		S	sg n
   	eks	0		Y	?
Mart	Mart	0		H	sg n
    	mart	0		S	sg n
Hörden	####				
maksis	maks	is		V	s
      	maksi	s		S	sg in
valla	vald	0		S	sg g
     	valla	0		D	
laeka	laegas	0		S	adt
     	laegas	0		S	sg g
trahvi	trahv	0		S	adt
      	trahv	0		S	sg g
      	trahvi	0		V	o
      	trahv	0		S	sg p
2	2	0		N	?
rbl	rbl	0		Y	?
,	,			Z	
et	et	0		J	
tema	tema	0		P	sg g
    	tema	0		P	sg n
ise	ise	0		A	
   	ise	0		D	
   	ise	0		P	pl n
   	ise	0		P	sg n
läks	mine	s		V	s
peksma	peks	ma		V	ma
Jaan	Jaan	0		H	sg n
    	jaan	0		S	sg n
    	jaan	0		Y	?
Elset	####				
,	,			Z	
tema	tema	0		P	sg g
    	tema	0		P	sg n
oleks	ole	ks		V	ks
pidanud	pida	nud		V	nud
       	pida=nu	d		S	pl n
       	pida=nud	0		A	
       	pida=nud	0		A	sg n
       	pida=nud	d		A	pl n
seda	see	da		P	sg p
teine	teine	0		O	sg n
     	teine	0		P	sg n
päeva	päev	0		S	adt
     	päev	0		S	sg g
     	päev	0		S	sg p
valla	vald	0		S	sg g
     	valla	0		D	
valitsusele	valitsus	le		S	sg all
rääkima	rääki	ma		V	ma
,	,			Z	
2.ks	####				
Jaan	Jaan	0		H	sg n
    	jaan	0		S	sg n
    	jaan	0		Y	?
Elsele	####				
et	et	0		J	
tema	tema	0		P	sg g
    	tema	0		P	sg n
öösi	öös	0		S	adt
    	öös	0		S	sg g
    	öösi	0		D	
    	öös	0		S	sg p
ümber	ümber	0		D	
     	ümber	0		K	
hulgub	hulku	b		V	b
mööda	mööda	0		A	
     	mööda	0		D	
     	mööda	0		K	
küla	küla	0		S	sg g
    	küla	0		S	sg n
    	küla	0		S	sg p
purjus	purjus	0		A	
      	purjus	0		D	
peaga	pea	ga		S	sg kom
,	,			Z	
kus	kus	0		D	
teda	tema	da		P	sg p
tema	tema	0		P	sg g
    	tema	0		P	sg n
oma	oma	0		A	sg g
   	oma	0		D	
   	oma	0		P	sg g
   	oma	0		S	sg g
   	oma	0		V	o
   	oma	0		A	sg n
   	oma	0		A	sg p
   	oma	0		P	sg n
   	oma	0		P	sg p
   	oma	0		S	sg n
   	oma	0		S	sg p
peremees	pere_mees	0		S	sg n
on	ole	0		V	b
  	ole	0		V	vad
keelanud	keela	nud		V	nud
        	keela=nu	d		S	pl n
        	keela=nud	0		A	
        	keela=nud	0		A	sg n
        	keela=nud	d		A	pl n
õhtu	õhtu	0		S	sg g
    	õhtu	0		S	sg n
kodu	kodu	0		S	sg g
    	kodu	0		S	sg n
    	kodu	0		S	sg p
välja	välja	0		D	
     	välja	0		V	o
     	väli	0		S	adt
     	väli	0		S	sg g
     	väli	0		S	sg p
minemast	mine	mast		V	mast
,	,			Z	
aga	aga	0		J	
mitte	mitte	0		D	
peremehe	pere_mees	0		S	sg g
sõna	sõna	0		S	sg g
    	sõna	0		V	o
    	sõna	0		S	sg n
    	sõna	0		S	sg p
pole	ole	0		V	neg o
kuulanud	kuula	nud		V	nud
        	kuula=nu	d		S	pl n
        	kuula=nud	0		A	
        	kuula=nud	0		A	sg n
        	kuula=nud	d		A	pl n
,	,			Z	
kohus	kohu	s		V	s
     	kohus	0		S	sg n
mõistis	mõist	is		V	s
15	15	0		N	?
vitsa	vits	0		S	adt
     	vits	0		S	sg g
     	vits	0		S	sg p
hoopi	hoop	0		S	adt
     	hoop	0		S	sg p
õpetuseks	õpetus	ks		S	sg tr
.	.			Z	
kui	kui	0		D	
   	kui	0		J	
kohtu	kohtu	0		V	o
     	kohus	0		S	sg g
mehed	mees	d		S	pl n
läksid	mine	sid		V	sid
temale	tema	le		P	sg all
mõistetud	mõist	tud		V	tud
         	mõiste=tu	d		S	pl n
         	mõiste=tud	0		A	
         	mõiste=tud	0		A	sg n
         	mõiste=tud	d		A	pl n
trahvi	trahv	0		S	adt
      	trahv	0		S	sg g
      	trahvi	0		V	o
      	trahv	0		S	sg p
kätte	kätte	0		K	
     	käsi	tte		S	adt
andma	and	ma		V	ma
,	,			Z	
jooksis	jooks	is		V	s
tema	tema	0		P	sg g
    	tema	0		P	sg n
nende	see	de		P	pl g
     	tema	de		P	pl g
käest	käest	0		K	
     	käsi	st		S	sg el
ära	ära	0		D	
   	ära	0		V	neg o
,	,			Z	
ja	ja	0		J	
sellega	see	ga		P	sg kom
jäi	jää	i		V	s
pooleli	pooleli	0		D	
teiseks	teine	ks		O	sg tr
       	teine	ks		P	sg tr
       	teiseks	0		D	
kohtu	kohtu	0		V	o
     	kohus	0		S	sg g
päevaks	päev	ks		S	sg tr
.	.			Z	
peavanem	pea_vanem	0		C	sg n
        	pea_vanem	0		S	sg n
J. Kopti	####				
