N	N	0		Y	?
:	:			Z	
4.	4.	0		O	?
Väike	väike	0		A	sg n
Kareda	kare	0		A	sg g
kogukonna	kogukond	0		S	sg g
kohtus	kohtu	s		V	s
      	kohus	s		S	sg in
sel	see	l		P	sg ad
   	sel	0		Y	?
18.	18.	0		O	?
sel	see	l		P	sg ad
   	sel	0		Y	?
märts	märts	0		S	sg n
1878.	1878.	0		O	?
kohtu	kohtu	0		V	o
     	kohus	0		S	sg g
ette	ette	0		D	
    	ette	0		K	
    	esi	tte		S	adt
tuli	tuli	0		S	sg n
    	tule	i		V	s
Palu	pala	u		S	pl p
    	palu	0		S	sg g
    	palu	0		V	o
    	palu	0		S	sg n
    	palu	0		S	sg p
mees	mees	0		S	sg n
    	mesi	s		S	sg in
Tõnis	Tõnis	0		H	sg n
Lohk	lohk	0		S	sg n
ja	ja	0		J	
kaebas	kaeba	s		V	s
1.	1.	0		O	?
et	et	0		J	
tema	tema	0		P	sg g
    	tema	0		P	sg n
olla	ole	a		V	da
Keusi	####				
turba	turb	0		A	adt
     	turb	0		S	adt
     	turvas	0		S	sg g
     	turb	0		A	sg p
     	turb	0		S	sg p
Poträtsik	####				
Jaan	Jaan	0		H	sg n
    	jaan	0		S	sg n
    	jaan	0		Y	?
Thomsoni	####				
juures	juur	s		S	sg in
      	juures	0		D	
      	juures	0		K	
teenimas	teeni	mas		V	mas
või	või	0		S	sg g
   	või	0		V	o
   	või	0		D	
   	või	0		J	
   	või	0		S	sg n
turvad	turb	d		A	pl n
      	turb	d		S	pl n
      	turv	d		S	pl n
      	turva	d		V	d
lõikamas	lõika	mas		V	mas
olnud	ol=nud	0		A	
     	ol=nud	0		A	sg n
     	ol=nud	d		A	pl n
     	ole	nud		V	nud
     	olnu	d		S	pl n
,	,			Z	
ja	ja	0		J	
6	6	0		N	?
1	1	0		N	?
/	/			Z	
2	2	0		N	?
R	R	0		Y	?
.	.			Z	
raha	raha	0		S	sg g
    	raha	0		S	sg n
    	raha	0		S	sg p
töö	töö	0		S	sg g
   	töö	0		S	sg n
eest	eest	0		D	
    	eest	0		K	
    	esi	st		S	sg el
saada	saa	da		V	da
     	saat	0		V	o
     	saa	da		V	ta
jäänud	jää	nud		V	nud
      	jäänu	d		S	pl n
      	jäänud	0		A	
      	jäänud	0		A	sg n
      	jäänud	d		A	pl n
,	,			Z	
mis	mis	0		P	pl n
   	mis	0		P	sg n
mitte	mitte	0		D	
J. Thomson	####				
olla	ole	a		V	da
ära	ära	0		D	
   	ära	0		V	neg o
maksnud	maks	nud		V	nud
       	maks=nu	d		S	pl n
       	maks=nud	0		A	
       	maks=nud	0		A	sg n
       	maks=nud	d		A	pl n
.	.			Z	
2.	2.	0		O	?
kutsuti	kutsu	ti		V	ti
turba	turb	0		A	adt
     	turb	0		S	adt
     	turvas	0		S	sg g
     	turb	0		A	sg p
     	turb	0		S	sg p
poträtsik	####				
Jaan	Jaan	0		H	sg n
    	jaan	0		S	sg n
    	jaan	0		Y	?
Thomson	####				
kohtu	kohtu	0		V	o
     	kohus	0		S	sg g
ette	ette	0		D	
    	ette	0		K	
    	esi	tte		S	adt
ja	ja	0		J	
kuulati	kuula	ti		V	ti
,	,			Z	
mis	mis	0		P	pl n
   	mis	0		P	sg n
ta	tema	0		P	sg g
  	tema	0		P	sg n
mitte	mitte	0		D	
teenitud	teeni	tud		V	tud
        	teeni=tu	d		S	pl n
        	teenitud	0		A	
        	teenitud	0		A	sg n
        	teenitud	d		A	pl n
palka	palk	0		S	adt
     	palka	0		V	o
     	palk	0		S	sg p
ära	ära	0		D	
   	ära	0		V	neg o
ei	ei	0		D	
  	ei	0		V	neg
maksa	maks	0		S	adt
     	maks	0		S	sg g
     	maks	0		V	o
     	maks	0		S	sg p
.	.			Z	
nüüd	nüüd	0		D	
akas	####				
Jaan	Jaan	0		H	sg n
    	jaan	0		S	sg n
    	jaan	0		Y	?
Thomson	####				
seda	see	da		P	sg p
asja	asi	0		S	adt
    	asi	0		S	sg g
    	asi	0		S	sg p
seletama	seleta	ma		V	ma
.	.			Z	
sügise	sügis	0		S	sg g
ühel	üks	l		N	sg ad
    	üks	l		P	sg ad
päeval	päev	l		S	sg ad
olid	ole	id		V	sid
minu	mina	0		P	sg g
mehed	mees	d		S	pl n
mõisa	mõis	0		S	sg g
valitsuse	valitsus	0		S	sg g
poolt	pool	t		N	sg p
     	pool	t		S	sg p
     	poolt	0		D	
     	poolt	0		K	
tellitud	telli	tud		V	tud
        	telli=tu	d		S	pl n
        	telli=tud	0		A	
        	telli=tud	0		A	sg n
        	telli=tud	d		A	pl n
,	,			Z	
üheks	üks	ks		N	sg tr
     	üks	ks		P	sg tr
päevaks	päev	ks		S	sg tr
mõisa	mõis	0		S	sg g
põllu	põld	0		S	sg g
peale	pea	le		S	sg all
     	peale	0		D	
     	peale	0		K	
tööle	töö	le		S	sg all
,	,			Z	
mis	mis	0		P	pl n
   	mis	0		P	sg n
ka	ka	0		D	
Jaan	Jaan	0		H	sg n
    	jaan	0		S	sg n
    	jaan	0		Y	?
Thomson	####				
lubanud	luba	nud		V	nud
       	luba=nu	d		S	pl n
       	luba=nud	0		A	
       	luba=nud	0		A	sg n
       	luba=nud	d		A	pl n
.	.			Z	
olla	ole	a		V	da
mõisa	mõis	0		S	sg g
päeva	päev	0		S	adt
     	päev	0		S	sg g
     	päev	0		S	sg p
täis	täi	s		S	sg in
    	täi	s		V	s
    	täis	0		A	
    	täis	0		A	sg n
    	täis	0		D	
    	täis	0		S	sg n
tehtud	tehtu	d		S	pl n
      	tehtud	0		A	
      	tehtud	0		A	sg n
      	tehtud	d		A	pl n
      	tege	tud		V	tud
ja	ja	0		J	
juba	juba	0		D	
õhtule	õhtu	le		S	sg all
minik	####				
olnud	ol=nud	0		A	
     	ol=nud	0		A	sg n
     	ol=nud	d		A	pl n
     	ole	nud		V	nud
     	olnu	d		S	pl n
,	,			Z	
on	ole	0		V	b
  	ole	0		V	vad
tulnud	tul=nud	0		A	
      	tul=nud	0		A	sg n
      	tul=nud	d		A	pl n
      	tule	nud		V	nud
      	tulnu	d		S	pl n
Keusi	####				
Münder	####				
nende	see	de		P	pl g
     	tema	de		P	pl g
töö	töö	0		S	sg g
   	töö	0		S	sg n
meeste	meene	te		A	pl g
      	mees	te		S	pl g
juure	juur	0		S	sg g
ja	ja	0		J	
on	ole	0		V	b
  	ole	0		V	vad
kutsunud	kutsu	nud		V	nud
        	kutsu=nu	d		S	pl n
        	kutsu=nud	0		A	
        	kutsu=nud	0		A	sg n
        	kutsu=nud	d		A	pl n
omale	oma	le		A	sg all
     	oma	le		P	sg all
     	oma	le		S	sg all
veel	veel	0		D	
    	vesi	l		S	sg ad
api	####				
natuke	natuke	0		D	
      	natuke	0		S	sg n
nemad	tema	d		P	pl n
lubanud	luba	nud		V	nud
       	luba=nu	d		S	pl n
       	luba=nud	0		A	
       	luba=nud	0		A	sg n
       	luba=nud	d		A	pl n
küll	küll	0		D	
    	küll	0		S	sg n
mina	mina	0		P	sg n
    	mina	0		S	sg g
    	mina	0		S	sg n
    	mina	0		S	sg p
,	,			Z	
aga	aga	0		J	
mitte	mitte	0		D	
muidu	muidu	0		D	
,	,			Z	
kui	kui	0		D	
   	kui	0		J	
sa	sina	0		P	sg n
õnad	####				
meile	meil	e		S	pl p
     	mina	le		P	pl all
väiksed	väike	d		A	pl n
napsid	naps	d		S	pl n
,	,			Z	
mis	mis	0		P	pl n
   	mis	0		P	sg n
ka	ka	0		D	
Münder	####				
lubanud	luba	nud		V	nud
       	luba=nu	d		S	pl n
       	luba=nud	0		A	
       	luba=nud	0		A	sg n
       	luba=nud	d		A	pl n
,	,			Z	
olla	ole	a		V	da
töö	töö	0		S	sg g
   	töö	0		S	sg n
valmis	valm	s		S	sg in
      	valmi	s		V	s
      	valmis	0		A	
      	valmis	0		A	sg n
      	valmis	0		D	
      	valmis	s		A	sg in
olnud	ol=nud	0		A	
     	ol=nud	0		A	sg n
     	ol=nud	d		A	pl n
     	ole	nud		V	nud
     	olnu	d		S	pl n
,	,			Z	
ja	ja	0		J	
peale	pea	le		S	sg all
     	peale	0		D	
     	peale	0		K	
seda	see	da		P	sg p
Trumbi	trump	0		S	sg g
kõrtsi	kõrts	0		S	adt
      	kõrts	0		S	sg g
      	kõrts	0		S	sg p
läinud	läinu	d		S	pl n
      	läinud	0		A	
      	läinud	0		A	sg n
      	läinud	d		A	pl n
      	mine	nud		V	nud
,	,			Z	
ja	ja	0		J	
Münder	####				
on	ole	0		V	b
  	ole	0		V	vad
andnud	and	nud		V	nud
      	and=nu	d		S	pl n
      	and=nud	0		A	
      	and=nud	0		A	sg n
      	and=nud	d		A	pl n
neile	see	le		P	pl all
     	tema	le		P	pl all
paar	paar	0		N	sg n
    	paar	0		S	sg n
napsid	naps	d		S	pl n
.	.			Z	
Münder	####				
olla	ole	a		V	da
sealt	sealt	0		D	
     	siga	lt		A	sg abl
     	siga	lt		S	sg abl
kohe	kohe	0		A	sg n
    	kohe	0		D	
ära	ära	0		D	
   	ära	0		V	neg o
läinud	läinu	d		S	pl n
      	läinud	0		A	
      	läinud	0		A	sg n
      	läinud	d		A	pl n
      	mine	nud		V	nud
,	,			Z	
nemad	tema	d		P	pl n
aga	aga	0		J	
sinna	sinna	0		D	
jäänud	jää	nud		V	nud
      	jäänu	d		S	pl n
      	jäänud	0		A	
      	jäänud	0		A	sg n
      	jäänud	d		A	pl n
.	.			Z	
kella	kell	0		S	adt
     	kell	0		S	sg g
     	kella	0		V	o
     	kell	0		S	sg p
10	10	0		N	?
aeg	aeg	0		S	sg n
kui	kui	0		D	
   	kui	0		J	
kõrtsmik	kõrtsmik	0		S	sg n
kõrtsi	kõrts	0		S	adt
      	kõrts	0		S	sg g
      	kõrts	0		S	sg p
kinni	kinni	0		D	
pannud	pan=nu	d		S	pl n
      	pan=nud	0		A	
      	pan=nud	0		A	sg n
      	pan=nud	d		A	pl n
      	pane	nud		V	nud
olla	ole	a		V	da
nad	tema	d		P	pl n
välja	välja	0		D	
     	välja	0		V	o
     	väli	0		S	adt
     	väli	0		S	sg g
     	väli	0		S	sg p
ajanud	aja	nud		V	nud
      	aja=nu	d		S	pl n
      	aja=nud	0		A	
      	aja=nud	0		A	sg n
      	aja=nud	d		A	pl n
,	,			Z	
ja	ja	0		J	
siis	siis	0		D	
    	siis	0		J	
on	ole	0		V	b
  	ole	0		V	vad
nemad	tema	d		P	pl n
kodu	kodu	0		S	sg g
    	kodu	0		S	sg n
    	kodu	0		S	sg p
läinud	läinu	d		S	pl n
      	läinud	0		A	
      	läinud	0		A	sg n
      	läinud	d		A	pl n
      	mine	nud		V	nud
.	.			Z	
kui	kui	0		D	
   	kui	0		J	
nad	tema	d		P	pl n
kodu	kodu	0		S	sg g
    	kodu	0		S	sg n
    	kodu	0		S	sg p
saanud	saa	nud		V	nud
      	saa=nud	0		A	
      	saa=nud	0		A	sg n
      	saa=nud	d		A	pl n
      	saanu	d		S	pl n
,	,			Z	
olla	ole	a		V	da
umbes	umbes	0		A	
     	umbes	0		D	
     	umme	s		S	sg in
arvata	arva	ta		V	da
      	arva	ta		V	ta
      	arvata	0		D	
olnud	ol=nud	0		A	
     	ol=nud	0		A	sg n
     	ol=nud	d		A	pl n
     	ole	nud		V	nud
     	olnu	d		S	pl n
kella	kell	0		S	adt
     	kell	0		S	sg g
     	kella	0		V	o
     	kell	0		S	sg p
12ne	12	0		N	sg g
aeg	aeg	0		S	sg n
,	,			Z	
siis	siis	0		D	
    	siis	0		J	
on	ole	0		V	b
  	ole	0		V	vad
Tõnis	Tõnis	0		H	sg n
Lohk	lohk	0		S	sg n
väga	väga	0		D	
purjus	purjus	0		A	
      	purjus	0		D	
olnud	ol=nud	0		A	
     	ol=nud	0		A	sg n
     	ol=nud	d		A	pl n
     	ole	nud		V	nud
     	olnu	d		S	pl n
,	,			Z	
ja	ja	0		J	
on	ole	0		V	b
  	ole	0		V	vad
ütelnud	ütle	nud		V	nud
       	ütel=nu	d		S	pl n
       	ütel=nud	0		A	
       	ütel=nud	0		A	sg n
       	ütel=nud	d		A	pl n
tee	tee	0		S	sg g
   	tege	0		V	o
   	tee	0		S	sg n
peal	pea	l		S	sg ad
    	peal	0		D	
    	peal	0		K	
minnes	mine	es		V	des
teise	teine	0		O	adt
     	teine	0		O	sg g
     	teine	0		P	adt
     	teine	0		P	sg g
(	(			Z	
mehe	mees	0		S	sg g
)	)			Z	
turba	turb	0		A	adt
     	turb	0		S	adt
     	turvas	0		S	sg g
     	turb	0		A	sg p
     	turb	0		S	sg p
lõigaja	####				
Kristjan	Kristjan	0		H	sg n
Salun	####				
vastu	vastu	0		D	
     	vastu	0		K	
,	,			Z	
et	et	0		J	
kui	kui	0		D	
   	kui	0		J	
ma	mina	0		P	sg n
koju	kodu	0		S	adt
lähen	mine	n		V	n
siis	siis	0		D	
    	siis	0		J	
tõmman	####				
vana	vana	0		A	sg g
    	vana	0		A	sg n
    	vana	0		A	sg p
    	vana	0		S	sg g
    	vana	0		S	sg n
    	vana	0		S	sg p
Thomsoni	####				
kopso	####				
kõige	kõik	0		P	sg g
     	kõige	0		D	
emakaga	emakas	ga		S	sg kom
välja	välja	0		D	
     	välja	0		V	o
     	väli	0		S	adt
     	väli	0		S	sg g
     	väli	0		S	sg p
,	,			Z	
on	ole	0		V	b
  	ole	0		V	vad
koju	kodu	0		S	adt
läinud	läinu	d		S	pl n
      	läinud	0		A	
      	läinud	0		A	sg n
      	läinud	d		A	pl n
      	mine	nud		V	nud
enne	enne	0		D	
    	enne	0		K	
    	enne	0		S	sg n
kui	kui	0		D	
   	kui	0		J	
tuppa	tuba	0		S	adt
saanud	saa	nud		V	nud
      	saa=nud	0		A	
      	saa=nud	0		A	sg n
      	saa=nud	d		A	pl n
      	saanu	d		S	pl n
,	,			Z	
on	ole	0		V	b
  	ole	0		V	vad
jalaga	jalg	ga		S	sg kom
peksnud	peks	nud		V	nud
       	peks=nu	d		S	pl n
       	peks=nud	0		A	
       	peks=nud	0		A	sg n
       	peks=nud	d		A	pl n
vastu	vastu	0		D	
     	vastu	0		K	
ust	uks	t		S	sg p
   	ust	0		I	
,	,			Z	
et	et	0		J	
kas	kas	0		D	
teie	sina	0		P	pl g
    	sina	0		P	pl n
kuratid	####				
ei	ei	0		D	
  	ei	0		V	neg
te	sina	0		P	pl g
  	sina	0		P	pl n
ust	uks	t		S	sg p
   	ust	0		I	
lahti	laht	i		S	pl p
     	lahti	0		D	
,	,			Z	
peale	pea	le		S	sg all
     	peale	0		D	
     	peale	0		K	
seda	see	da		P	sg p
on	ole	0		V	b
  	ole	0		V	vad
Thomsoni	####				
poeg	poeg	0		S	sg n
kohe	kohe	0		A	sg n
    	kohe	0		D	
ukse	uks	0		S	sg g
lahti	laht	i		S	pl p
     	lahti	0		D	
teinud	tege	nud		V	nud
      	tei=nud	0		A	
      	tei=nud	0		A	sg n
      	tei=nud	d		A	pl n
      	teinu	d		S	pl n
.	.			Z	
Nipea	####				
kui	kui	0		D	
   	kui	0		J	
Tõnis	Tõnis	0		H	sg n
Lohk	lohk	0		S	sg n
tuppa	tuba	0		S	adt
astunud	astu	nud		V	nud
       	astu=nu	d		S	pl n
       	astu=nud	0		A	
       	astu=nud	0		A	sg n
       	astu=nud	d		A	pl n
tõmmanud	tõmba	nud		V	nud
        	tõmma=nu	d		S	pl n
        	tõmma=nud	0		A	
        	tõmma=nud	0		A	sg n
        	tõmma=nud	d		A	pl n
kohe	kohe	0		A	sg n
    	kohe	0		D	
Thomsoni	####				
poja	poeg	0		S	sg g
    	poja	0		S	sg g
    	poja	0		S	sg n
    	poja	0		S	sg p
karvust	karv_uks	t		S	sg p
kinni	kinni	0		D	
ja	ja	0		J	
otsiti	otsi	ti		V	ti
maha	maha	0		D	
,	,			Z	
ilma	ilm	0		S	adt
    	ilm	0		S	sg g
    	ilma	0		D	
    	ilma	0		K	
    	ilm	0		S	sg p
et	et	0		J	
seal	seal	0		D	
    	siga	l		A	sg ad
    	siga	l		S	sg ad
mingi	mingi	0		P	sg g
     	mink	0		S	sg g
     	minki	0		V	o
     	mingi	0		P	sg n
sugust	sugune	t		A	sg p
rääkimist	rääkimine	t		S	sg p
oleks	ole	ks		V	ks
olnud	ol=nud	0		A	
     	ol=nud	0		A	sg n
     	ol=nud	d		A	pl n
     	ole	nud		V	nud
     	olnu	d		S	pl n
.	.			Z	
selle	see	0		P	sg g
     	sell	e		S	pl p
peale	pea	le		S	sg all
     	peale	0		D	
     	peale	0		K	
on	ole	0		V	b
  	ole	0		V	vad
tulnud	tul=nud	0		A	
      	tul=nud	0		A	sg n
      	tul=nud	d		A	pl n
      	tule	nud		V	nud
      	tulnu	d		S	pl n
Jaan	Jaan	0		H	sg n
    	jaan	0		S	sg n
    	jaan	0		Y	?
Thomson	####				
taga	taga	0		D	
    	taga	0		K	
    	taga	0		V	o
kamrest	####				
välja	välja	0		D	
     	välja	0		V	o
     	väli	0		S	adt
     	väli	0		S	sg g
     	väli	0		S	sg p
,	,			Z	
ja	ja	0		J	
on	ole	0		V	b
  	ole	0		V	vad
küsinud	küsi	nud		V	nud
       	küsi=nu	d		S	pl n
       	küsi=nud	0		A	
       	küsi=nud	0		A	sg n
       	küsi=nud	d		A	pl n
mis	mis	0		P	pl n
   	mis	0		P	sg n
siis	siis	0		D	
    	siis	0		J	
se	####				
on	ole	0		V	b
  	ole	0		V	vad
,	,			Z	
ni	####				
pea	pea	0		D	
   	pea	0		S	sg g
   	pida	0		V	o
   	pea	0		S	sg n
tõmmanud	tõmba	nud		V	nud
        	tõmma=nu	d		S	pl n
        	tõmma=nud	0		A	
        	tõmma=nud	0		A	sg n
        	tõmma=nud	d		A	pl n
Tõnis	Tõnis	0		H	sg n
Lohk	lohk	0		S	sg n
Jaan	Jaan	0		H	sg n
    	jaan	0		S	sg n
    	jaan	0		Y	?
Thomsoni	####				
peast	pea	st		S	sg el
     	peane	t		S	sg p
     	peast	0		K	
kinni	kinni	0		D	
ja	ja	0		J	
murdnud	murd	nud		V	nud
       	murd=nu	d		S	pl n
       	murd=nud	0		A	
       	murd=nud	0		A	sg n
       	murd=nud	d		A	pl n
Jaan	Jaan	0		H	sg n
    	jaan	0		S	sg n
    	jaan	0		Y	?
Thomsoni	####				
maha	maha	0		D	
,	,			Z	
selle	see	0		P	sg g
     	sell	e		S	pl p
peale	pea	le		S	sg all
     	peale	0		D	
     	peale	0		K	
on	ole	0		V	b
  	ole	0		V	vad
Kristjan	Kristjan	0		H	sg n
Salun	####				
api	####				
läinud	läinu	d		S	pl n
      	läinud	0		A	
      	läinud	0		A	sg n
      	läinud	d		A	pl n
      	mine	nud		V	nud
,	,			Z	
et	et	0		J	
aga	aga	0		J	
se	####				
õige	õige	0		A	sg g
    	õige	0		A	sg n
    	õige	0		D	
ei	ei	0		D	
  	ei	0		V	neg
ole	ole	0		V	o
mis	mis	0		P	pl n
   	mis	0		P	sg n
sa	sina	0		P	sg n
peaga	pea	ga		S	sg kom
teed	tee	d		S	pl n
    	tege	d		V	d
    	tee	d		S	sg p
siin	siin	0		D	
    	siin	0		S	sg n
,	,			Z	
ja	ja	0		J	
ni	####				
moodi	mood	0		S	adt
     	mood	0		S	sg p
     	moodi	0		A	
     	moodi	0		K	
se	####				
asi	asi	0		S	sg n
   	asi	0		V	o
vagaseks	vagane	ks		A	sg tr
jäänud	jää	nud		V	nud
      	jäänu	d		S	pl n
      	jäänud	0		A	
      	jäänud	0		A	sg n
      	jäänud	d		A	pl n
.	.			Z	
2.	2.	0		O	?
kutsuti	kutsu	ti		V	ti
ette	ette	0		D	
    	ette	0		K	
    	esi	tte		S	adt
Tõnis	Tõnis	0		H	sg n
Lohk	lohk	0		S	sg n
,	,			Z	
ja	ja	0		J	
kohus	kohu	s		V	s
     	kohus	0		S	sg n
andis	and	is		V	s
need	see	d		P	pl n
nimetatud	nimeta	tud		V	tud
         	nimetatu	d		S	pl n
         	nimetatud	0		A	
         	nimetatud	0		A	sg n
         	nimetatud	d		A	pl n
asjad	asi	d		S	pl n
kõik	kõik	0		P	pl n
    	kõik	0		S	sg n
    	kõik	0		P	sg n
temale	tema	le		P	sg all
ette	ette	0		D	
    	ette	0		K	
    	esi	tte		S	adt
mis	mis	0		P	pl n
   	mis	0		P	sg n
sa	sina	0		P	sg n
kui	kui	0		D	
   	kui	0		J	
mõrtsikaks	####				
olnud	ol=nud	0		A	
     	ol=nud	0		A	sg n
     	ol=nud	d		A	pl n
     	ole	nud		V	nud
     	olnu	d		S	pl n
ennast	ise	t		P	sg p
heitnud	heit	nud		V	nud
       	heit=nu	d		S	pl n
       	heit=nud	0		A	
       	heit=nud	0		A	sg n
       	heit=nud	d		A	pl n
,	,			Z	
mis	mis	0		P	pl n
   	mis	0		P	sg n
küll	küll	0		D	
    	küll	0		S	sg n
Tõnis	Tõnis	0		H	sg n
Lohk	lohk	0		S	sg n
hoopis	hoopis	0		D	
vastu	vastu	0		D	
     	vastu	0		K	
ajas	aeg	s		S	sg in
    	aja	s		V	s
esti	####				
,	,			Z	
sest	see	st		P	sg el
    	sest	0		J	
et	et	0		J	
tunnistuse	tunnistus	0		S	sg g
mehi	mees	0		S	pl p
seal	seal	0		D	
    	siga	l		A	sg ad
    	siga	l		S	sg ad
ei	ei	0		D	
  	ei	0		V	neg
olnud	ol=nud	0		A	
     	ol=nud	0		A	sg n
     	ol=nud	d		A	pl n
     	ole	nud		V	nud
     	olnu	d		S	pl n
,	,			Z	
sel	see	l		P	sg ad
   	sel	0		Y	?
kohtu	kohtu	0		V	o
     	kohus	0		S	sg g
päeval	päev	l		S	sg ad
jäi	jää	i		V	s
se	####				
asi	asi	0		S	sg n
   	asi	0		V	o
pooleli	pooleli	0		D	
,	,			Z	
kuni	kuni	0		J	
    	kuni	0		K	
teisel	teine	l		O	sg ad
      	teine	l		P	sg ad
kohtupäeval	kohtu_päev	l		S	sg ad
(	(			Z	
kohtu	kohtu	0		V	o
     	kohus	0		S	sg g
)	)			Z	
tunnistuse	tunnistus	0		S	sg g
mehed	mees	d		S	pl n
kõik	kõik	0		P	pl n
    	kõik	0		S	sg n
    	kõik	0		P	sg n
koos	koos	0		D	
    	koos	0		K	
    	koos	0		S	sg n
    	kubu	s		S	sg in
olid	ole	id		V	sid
.	.			Z	
siis	siis	0		D	
    	siis	0		J	
ei	ei	0		D	
  	ei	0		V	neg
võinud	või	nud		V	nud
      	või=nu	d		S	pl n
      	või=nud	0		A	
      	või=nud	0		A	sg n
      	või=nud	d		A	pl n
Tõnis	Tõnis	0		H	sg n
Lohk	lohk	0		S	sg n
mitte	mitte	0		D	
sugugi	sugugi	0		D	
enam	enam	0		C	sg n
    	enam	0		D	
tagasi	tagasi	0		D	
      	tagasi	0		K	
ajada	aja	da		V	da
,	,			Z	
ja	ja	0		J	
mis	mis	0		P	pl n
   	mis	0		P	sg n
tema	tema	0		P	sg g
    	tema	0		P	sg n
ka	ka	0		D	
pärast	pära	st		S	sg el
      	pärane	t		A	sg p
      	pärast	0		D	
      	pärast	0		K	
kõik	kõik	0		P	pl n
    	kõik	0		S	sg n
    	kõik	0		P	sg n
üles	üles	0		D	
rääkis	rääki	s		V	s
õieti	õieti	0		D	
,	,			Z	
et	et	0		J	
ta	tema	0		P	sg g
  	tema	0		P	sg n
on	ole	0		V	b
  	ole	0		V	vad
purjus	purjus	0		A	
      	purjus	0		D	
peaga	pea	ga		S	sg kom
ööse	öös	e		S	pl p
teise	teine	0		O	adt
     	teine	0		O	sg g
     	teine	0		P	adt
     	teine	0		P	sg g
peksnud	peks	nud		V	nud
       	peks=nu	d		S	pl n
       	peks=nud	0		A	
       	peks=nud	0		A	sg n
       	peks=nud	d		A	pl n
,	,			Z	
ja	ja	0		J	
kohtu	kohtu	0		V	o
     	kohus	0		S	sg g
ees	ees	0		D	
   	ees	0		K	
   	esi	s		S	sg in
valetanud	valeta	nud		V	nud
         	valeta=nu	d		S	pl n
         	valeta=nud	0		A	
         	valeta=nud	0		A	sg n
         	valeta=nud	d		A	pl n
.	.			Z	
kohus	kohu	s		V	s
     	kohus	0		S	sg n
mõistis	mõist	is		V	s
seda	see	da		P	sg p
raha	raha	0		S	sg g
    	raha	0		S	sg n
    	raha	0		S	sg p
,	,			Z	
mis	mis	0		P	pl n
   	mis	0		P	sg n
Tõnis	Tõnis	0		H	sg n
Lohk	lohk	0		S	sg n
oleks	ole	ks		V	ks
pidanud	pida	nud		V	nud
       	pida=nu	d		S	pl n
       	pida=nud	0		A	
       	pida=nud	0		A	sg n
       	pida=nud	d		A	pl n
Jaan	Jaan	0		H	sg n
    	jaan	0		S	sg n
    	jaan	0		Y	?
Thomsoni	####				
käest	käest	0		K	
     	käsi	st		S	sg el
saama	saa	ma		V	ma
     	saam	0		S	adt
     	saam	0		S	sg g
     	saam	0		S	sg p
3	3	0		N	?
1	1	0		N	?
/	/			Z	
2	2	0		N	?
R_	####				
.	.			Z	
Jaan	Jaan	0		H	sg n
    	jaan	0		S	sg n
    	jaan	0		Y	?
Thomsonile	####				
peksmise	peksmine	0		S	sg g
eest	eest	0		D	
    	eest	0		K	
    	esi	st		S	sg el
ja	ja	0		J	
tunnistuse	tunnistus	0		S	sg g
mehe	mees	0		S	sg g
Münder	####				
Jaan	Jaan	0		H	sg n
    	jaan	0		S	sg n
    	jaan	0		Y	?
Kasepõld	kase_põld	0		S	sg n
päeva	päev	0		S	adt
     	päev	0		S	sg g
     	päev	0		S	sg p
palka	palk	0		S	adt
     	palka	0		V	o
     	palk	0		S	sg p
,	,			Z	
mis	mis	0		P	pl n
   	mis	0		P	sg n
ta	tema	0		P	sg g
  	tema	0		P	sg n
on	ole	0		V	b
  	ole	0		V	vad
päeva	päev	0		S	adt
     	päev	0		S	sg g
     	päev	0		S	sg p
ära	ära	0		D	
   	ära	0		V	neg o
viitnud	viit	nud		V	nud
       	viit=nu	d		S	pl n
       	viit=nud	0		A	
       	viit=nud	0		A	sg n
       	viit=nud	d		A	pl n
25	25	0		N	?
Cop	####				
.	.			Z	
teine	teine	0		O	sg n
     	teine	0		P	sg n
tunnistuse	tunnistus	0		S	sg g
mehe	mees	0		S	sg g
Niglas	####				
rukker	####				
25	25	0		N	?
,	,			Z	
kolmas	kolmas	0		O	sg n
tunnistuse	tunnistus	0		S	sg g
mees	mees	0		S	sg n
    	mesi	s		S	sg in
Kristjan	Kristjan	0		H	sg n
Salun	####				
,	,			Z	
mis	mis	0		P	pl n
   	mis	0		P	sg n
kaks	kaks	0		N	sg n
kohtu	kohtu	0		V	o
     	kohus	0		S	sg g
päeva	päev	0		S	adt
     	päev	0		S	sg g
     	päev	0		S	sg p
on	ole	0		V	b
  	ole	0		V	vad
käinud	käi	nud		V	nud
      	käi=nud	0		A	
      	käi=nud	0		A	sg n
      	käi=nud	d		A	pl n
      	käinu	d		S	pl n
50	50	0		N	?
Cop	####				
,	,			Z	
ja	ja	0		J	
valla	vald	0		S	sg g
     	valla	0		D	
laeka	laegas	0		S	adt
     	laegas	0		S	sg g
trahvi	trahv	0		S	adt
      	trahv	0		S	sg g
      	trahvi	0		V	o
      	trahv	0		S	sg p
2	2	0		N	?
R	R	0		Y	?
,	,			Z	
nende	see	de		P	pl g
     	tema	de		P	pl g
roppo	####				
sõnade	sõna	de		S	pl g
eest	eest	0		D	
    	eest	0		K	
    	esi	st		S	sg el
,	,			Z	
mis	mis	0		P	pl n
   	mis	0		P	sg n
ta	tema	0		P	sg g
  	tema	0		P	sg n
on	ole	0		V	b
  	ole	0		V	vad
Jaan	Jaan	0		H	sg n
    	jaan	0		S	sg n
    	jaan	0		Y	?
Thomsoni	####				
ähvardanud	ähvarda	nud		V	nud
          	ähvarda=nu	d		S	pl n
          	ähvarda=nud	0		A	
          	ähvarda=nud	0		A	sg n
          	ähvarda=nud	d		A	pl n
ja	ja	0		J	
pealegi	pealegi	0		D	
ööse	öös	e		S	pl p
kui	kui	0		D	
   	kui	0		J	
mõrtsikas	####				
teise	teine	0		O	adt
     	teine	0		O	sg g
     	teine	0		P	adt
     	teine	0		P	sg g
peksma	peks	ma		V	ma
ja	ja	0		J	
ehmadama	####				
läinud	läinu	d		S	pl n
      	läinud	0		A	
      	läinud	0		A	sg n
      	läinud	d		A	pl n
      	mine	nud		V	nud
.	.			Z	
ja	ja	0		J	
selle	see	0		P	sg g
     	sell	e		S	pl p
eest	eest	0		D	
    	eest	0		K	
    	esi	st		S	sg el
mis	mis	0		P	pl n
   	mis	0		P	sg n
Tõnis	Tõnis	0		H	sg n
Lohk	lohk	0		S	sg n
mitte	mitte	0		D	
tõe	tõde	0		S	sg g
   	tõsi	0		S	sg g
jutu	jutt	0		S	sg g
(	(			Z	
""""	""""			Z	
õeldes	####				
""""	""""			Z	
)	)			Z	
kohtu	kohtu	0		V	o
     	kohus	0		S	sg g
ette	ette	0		D	
    	ette	0		K	
    	esi	tte		S	adt
tõi	too	i		V	s
,	,			Z	
aga	aga	0		J	
pärast	pära	st		S	sg el
      	pärane	t		A	sg p
      	pärast	0		D	
      	pärast	0		K	
kui	kui	0		D	
   	kui	0		J	
selge	selge	0		A	sg g
     	selge	0		A	sg n
vale	vale	0		A	sg g
    	vale	0		A	sg n
    	vale	0		S	sg g
    	vale	0		S	sg n
välja	välja	0		D	
     	välja	0		V	o
     	väli	0		S	adt
     	väli	0		S	sg g
     	väli	0		S	sg p
tuli	tuli	0		S	sg n
    	tule	i		V	s
,	,			Z	
sai	saa	i		V	s
   	sai	0		S	sg n
kohtu	kohtu	0		V	o
     	kohus	0		S	sg g
poolt	pool	t		N	sg p
     	pool	t		S	sg p
     	poolt	0		D	
     	poolt	0		K	
õpetuseks	õpetus	ks		S	sg tr
15	15	0		N	?
vitsa	vits	0		S	adt
     	vits	0		S	sg g
     	vits	0		S	sg p
hoopi	hoop	0		S	adt
     	hoop	0		S	sg p
.	.			Z	
siis	siis	0		D	
    	siis	0		J	
peale	pea	le		S	sg all
     	peale	0		D	
     	peale	0		K	
seda	see	da		P	sg p
et	et	0		J	
Tõnis	Tõnis	0		H	sg n
Lohk	lohk	0		S	sg n
sugugi	sugugi	0		D	
enam	enam	0		C	sg n
    	enam	0		D	
sest	see	st		P	sg el
    	sest	0		J	
rahast	raha	st		S	sg el
ei	ei	0		D	
  	ei	0		V	neg
saanud	saa	nud		V	nud
      	saa=nud	0		A	
      	saa=nud	0		A	sg n
      	saa=nud	d		A	pl n
      	saanu	d		S	pl n
.	.			Z	
ja	ja	0		J	
sellega	see	ga		P	sg kom
sai	saa	i		V	s
   	sai	0		S	sg n
kohus	kohu	s		V	s
     	kohus	0		S	sg n
lõpetatud	lõpeta	tud		V	tud
         	lõpeta=tu	d		S	pl n
         	lõpetatud	0		A	
         	lõpetatud	0		A	sg n
         	lõpetatud	d		A	pl n
.	.			Z	
peavanem	pea_vanem	0		C	sg n
        	pea_vanem	0		S	sg n
M	M	0		O	?
 	M	0		Y	?
.	.			Z	
_	_			Z	
Silman	silma	n		V	n
kõrvamees	kõrva_mees	0		S	sg n
J. Vürmber	####				
None	####				
J. Themas	####				
kirjutaja	kirjutaja	0		S	sg g
         	kirjutaja	0		S	sg n
P	P	0		Y	?
.	.			Z	
_	_			Z	
Peeterson	####				
