aprilli	aprill	0		S	adt
       	aprill	0		S	sg g
       	aprill	0		S	sg p
kuu	kuu	0		S	sg g
   	kuu	0		S	sg n
25	25	0		N	?
päeval	päev	l		S	sg ad
koos	koos	0		D	
    	koos	0		K	
    	koos	0		S	sg n
    	kubu	s		S	sg in
olid	ole	id		V	sid
kohtu	kohtu	0		V	o
     	kohus	0		S	sg g
mehed	mees	d		S	pl n
pea	pea	0		D	
   	pea	0		S	sg g
   	pida	0		V	o
   	pea	0		S	sg n
vanem	vanem	0		C	sg n
     	vanem	0		S	sg n
Tõnu	Tõnu	0		H	sg g
    	Tõnu	0		H	sg n
horden	####				
,	,			Z	
+	+			Z	
+	+			Z	
+	+			Z	
ja	ja	0		J	
abi	abi	0		S	sg g
   	abi	0		S	sg n
   	abi	0		S	sg p
mehe	mees	0		S	sg g
J. Sklawe	####				
xxx	####				
2	2	0		N	?
J. Teemas	####				
xxx	####				
