Vääetsa	####				
mõisa	mõis	0		S	sg g
metsavaht	metsa_vaht	0		S	sg n
Jakob	Jakob	0		H	sg n
Kõljal	####				
kaebas	kaeba	s		V	s
et	et	0		J	
Vahastu	####				
mehe	mees	0		S	sg g
Mart	Mart	0		H	sg n
    	mart	0		S	sg n
Palmi	palm	0		S	adt
     	palm	0		S	sg g
     	palmi	0		V	o
     	palm	0		S	sg p
hobune	hobune	0		S	sg n
on	ole	0		V	b
  	ole	0		V	vad
mõisa	mõis	0		S	sg g
metsast	mets	st		S	sg el
       	metsane	t		A	sg p
kinni	kinni	0		D	
võtnud	võt	nud		V	nud
      	võt=nu	d		S	pl n
      	võt=nud	0		A	
      	võt=nud	0		A	sg n
      	võt=nud	d		A	pl n
ja	ja	0		J	
temale	tema	le		P	sg all
seda	see	da		P	sg p
teatanud	teata	nud		V	nud
        	teata=nu	d		S	pl n
        	teata=nud	0		A	
        	teata=nud	0		A	sg n
        	teata=nud	d		A	pl n
.	.			Z	
Tema	tema	0		P	sg g
    	tema	0		P	sg n
tulnud	tul=nud	0		A	
      	tul=nud	0		A	sg n
      	tul=nud	d		A	pl n
      	tule	nud		V	nud
      	tulnu	d		S	pl n
järel	järel	0		D	
     	järel	0		K	
,	,			Z	
viinud	vii	nud		V	nud
      	vii=nu	d		S	pl n
      	vii=nud	0		A	
      	vii=nud	0		A	sg n
      	vii=nud	d		A	pl n
vägise	vägine	0		A	sg g
      	vägine	0		S	sg g
ära	ära	0		D	
   	ära	0		V	neg o
ja	ja	0		J	
turanud	####				
ja	ja	0		J	
rebinud	rebi	nud		V	nud
       	rebi=nu	d		S	pl n
       	rebi=nud	0		A	
       	rebi=nud	0		A	sg n
       	rebi=nud	d		A	pl n
teda	tema	da		P	sg p
rinnust	rind	ust		S	pl el
       	rinnus	t		S	sg p
.	.			Z	
Mart	Mart	0		H	sg n
    	mart	0		S	sg n
Palm	palm	0		S	sg n
tunnistab	tunnista	b		V	b
et	et	0		J	
tema	tema	0		P	sg g
    	tema	0		P	sg n
hobune	hobune	0		S	sg n
varsaga	varss	ga		S	sg kom
mära	mära	0		S	sg g
    	mära	0		S	sg n
    	mära	0		S	sg p
on	ole	0		V	b
  	ole	0		V	vad
seal	seal	0		D	
    	siga	l		A	sg ad
    	siga	l		S	sg ad
kinni	kinni	0		D	
olnud	ol=nud	0		A	
     	ol=nud	0		A	sg n
     	ol=nud	d		A	pl n
     	ole	nud		V	nud
     	olnu	d		S	pl n
,	,			Z	
tema	tema	0		P	sg g
    	tema	0		P	sg n
ei	ei	0		D	
  	ei	0		V	neg
ole	ole	0		V	o
metsa	mets	0		S	adt
     	mets	0		S	sg g
     	mets	0		S	sg p
vahti	vaht	0		S	adt
     	vaht	0		S	sg p
muudinud	####				
ega	ega	0		D	
   	ega	0		J	
olla	ole	a		V	da
vägise	vägine	0		A	sg g
      	vägine	0		S	sg g
ära	ära	0		D	
   	ära	0		V	neg o
viinud	vii	nud		V	nud
      	vii=nu	d		S	pl n
      	vii=nud	0		A	
      	vii=nud	0		A	sg n
      	vii=nud	d		A	pl n
.	.			Z	
lepisid	####				
ise	ise	0		A	
   	ise	0		D	
   	ise	0		P	pl n
   	ise	0		P	sg n
kiskis	####				
et	et	0		J	
Mart	Mart	0		H	sg n
    	mart	0		S	sg n
Palm	palm	0		S	sg n
maksab	maks	b		V	b
metsavahile	metsa_vaht	le		S	sg all
koku	####				
leppimise	leppimine	0		S	sg g
mõõda	mõõt	0		V	o
.	.			Z	
kohus	kohu	s		V	s
     	kohus	0		S	sg n
mõistis	mõist	is		V	s
:	:			Z	
see	see	0		P	sg n
leppimine	leppimine	0		S	sg n
on	ole	0		V	b
  	ole	0		V	vad
kinnitatud	kinnita	tud		V	tud
          	kinnita=tu	d		S	pl n
          	kinnita=tud	0		A	
          	kinnita=tud	0		A	sg n
          	kinnita=tud	d		A	pl n
ja	ja	0		J	
Mart	Mart	0		H	sg n
    	mart	0		S	sg n
Palm	palm	0		S	sg n
maksab	maks	b		V	b
50	50	0		N	?
kop	kop	0		Y	?
valla	vald	0		S	sg g
     	valla	0		D	
laeka	laegas	0		S	adt
     	laegas	0		S	sg g
trahvi	trahv	0		S	adt
      	trahv	0		S	sg g
      	trahvi	0		V	o
      	trahv	0		S	sg p
hobuse	hobune	0		S	sg g
eest	eest	0		D	
    	eest	0		K	
    	esi	st		S	sg el
.	.			Z	
Kuulutatud	kuuluta	tud		V	tud
          	kuuluta=tu	d		S	pl n
          	kuuluta=tud	0		A	
          	kuuluta=tud	0		A	sg n
          	kuuluta=tud	d		A	pl n
_	_			Z	
täidetud	täit	tud		V	tud
        	täide=tu	d		S	pl n
        	täide=tud	0		A	
        	täide=tud	0		A	sg n
        	täide=tud	d		A	pl n
50	50	0		N	?
kop	kop	0		Y	?
.	.			Z	
ja	ja	0		J	
mõlemad	mõlema	d		P	pl n
olid	ole	id		V	sid
sellega	see	ga		P	sg kom
rahul	rahu	l		S	sg ad
     	rahul	0		D	
.	.			Z	
Lõõla	Lõõla	0		H	sg g
     	Lõõla	0		H	sg n
talitaja	talitaja	0		S	sg g
        	talitaja	0		S	sg n
tõi	too	i		V	s
neli	neli	0		N	sg n
tükki	tükk	0		S	adt
     	tükk	0		S	sg p
     	tükki	0		D	
riiet	riie	t		S	sg p
siia	siia	0		D	
    	siig	0		S	sg g
is	####				
tema	tema	0		P	sg g
    	tema	0		P	sg n
Thomas	Thomas	0		H	sg n
Valtkruusmanni	####				
juurest	juur	st		S	sg el
       	juurest	0		K	
leidnud	leid	nud		V	nud
       	leid=nu	d		S	pl n
       	leid=nud	0		A	
       	leid=nud	0		A	sg n
       	leid=nud	d		A	pl n
