lode	####				
№	№	0		Y	?
7 1903	71903	0		N	?
ob	####				
opeke	####				
nad	tema	d		P	pl n
nasledvonst	####				
i	i	0		Y	?
naslednitseja	####				
eršumagu	####				
nakr_	####				
Kirnaskoi	####				
volosti	####				
Jurja	####				
Saarmo	####				
idudelju	####				
Jurjevoju	####				
Saarmo	####				
.	.			Z	
16.	16.	0		O	?
oktjaprja	####				
1903	1903	0		N	?
g	g	0		Y	?
.	.			Z	
po	####				
itšprine	####				
maloletstva	####				
.	.			Z	
idjal	####				
Jurjeva	####				
Saarmo	####				
rud	####				
.	.			Z	
v	v	0		Y	?
1887	1887	0		N	?
g	g	0		Y	?
.	.			Z	
žvuti	####				
on	ole	0		V	b
  	ole	0		V	vad
materi	####				
,	,			Z	
segde	####				
ne	####				
obuajattšsja	####				
.	.			Z	
edvižnimosti	####				
,	,			Z	
nurav	####				
i	i	0		Y	?
viimdžosti	####				
ne	####				
imejatsja	####				
.	.			Z	
[	[			Z	
eestkostjateks	eest_kostja	teks		S	pl tr
määrati	määra	ti		V	ti
]	]			Z	
Juan	Juan	0		H	sg n
ilarte	####				
i	i	0		Y	?
Kaarel	Kaarel	0		H	sg n
      	kaar	l		S	sg ad
      	kaarel	0		S	sg n
Reinkord	####				
,	,			Z	
imejut	####				
vižnedimust	####				
,	,			Z	
kaupe	####				
oobeetšspena	####				
na	na	0		D	
ih	ih	0		I	
imutššestve	####				
.	.			Z	
[	[			Z	
hoolduse	hooldus	0		S	sg g
all	all	0		D	
   	all	0		K	
olev	ole	v		V	v
    	olev	0		A	sg n
    	olev	0		S	sg n
vara	vara	0		D	
    	vara	0		S	sg g
    	vara	0		S	sg n
    	vara	0		S	sg p
:	:			Z	
]	]			Z	
Krist	####				
.	.			Z	
utš	####				
.	.			Z	
""""	""""			Z	
sanja	####				
""""	""""			Z	
puud	puu	d		S	pl n
    	puud	0		S	sg n
    	puu	d		S	sg p
im	####				
.	.			Z	
Kirna	####				
,	,			Z	
imejat	ime=ja	t		S	sg p
47	47	0		N	?
des	####				
.	.			Z	
200	200	0		N	?
kv	kv	0		Y	?
.	.			Z	
saž	####				
.	.			Z	
egudnnõi	####				
emliz	####				
,	,			Z	
otsenjoon	####				
v	v	0		Y	?
6904	6904	0		N	?
rub	####				
.	.			Z	
nendežõh	####				
kapitalov	####				
ne	####				
imejatsja	####				
.	.			Z	
[	[			Z	
Võlg	võlg	0		S	sg n
:	:			Z	
]	]			Z	
1000	1000	0		N	?
rub	####				
.	.			Z	
v	v	0		Y	?
Palzu	####				
Kaarelja	####				
Reinkord	####				
i	i	0		Y	?
Joana	juga	na		S	sg es
eilarta	####				
,	,			Z	
po	####				
500	500	0		N	?
rub	####				
dokažmu	####				
.	.			Z	
[	[			Z	
andarued	####				
]	]			Z	
sa	sina	0		P	sg n
1903	1903	0		N	?
g	g	0		Y	?
ržutvedenu	####				
sutom	####				
.	.			Z	
sa	sina	0		P	sg n
1904	1904	0		N	?
g	g	0		Y	?
""""	""""			Z	
""""	""""			Z	
""""	""""			Z	
""""	""""			Z	
sa	sina	0		P	sg n
1905	1905	0		N	?
g	g	0		Y	?
""""	""""			Z	
""""	""""			Z	
""""	""""			Z	
""""	""""			Z	
sa	sina	0		P	sg n
1906	1906	0		N	?
g	g	0		Y	?
""""	""""			Z	
""""	""""			Z	
""""	""""			Z	
""""	""""			Z	
""""	""""			Z	
1907	1907	0		N	?
g	g	0		Y	?
.	.			Z	
""""	""""			Z	
""""	""""			Z	
""""	""""			Z	
""""	""""			Z	
1907	1907	0		N	?
g	g	0		Y	?
.	.			Z	
23	23	0		N	?
debrjaka	####				
kaupe	####				
prekratilas	####				
i	i	0		Y	?
jasn	####				
sa	sina	0		P	sg n
tostižemenud	####				
idudelju	####				
Saarmo	####				
ršsoveenoletja	####				
po	####				
võhude	####				
sužam	####				
.	.			Z	
15.	15.	0		O	?
Jaanuaril	jaanuar	l		S	sg ad
1193	1193	0		N	?
a	a	0		Y	?
üleantud	üle_antud	0		A	
        	üle_antud	0		A	sg n
        	üle_antud	d		A	pl n
Kirna	####				
vallakohtule	valla_kohus	le		S	sg all
.	.			Z	
