kaebas	kaeba	s		V	s
Johann	Johann	0		H	sg n
kirspu	####				
et	et	0		J	
temal	tema	l		P	sg ad
Johann	Johann	0		H	sg n
Wiseli	####				
käest	käest	0		K	
     	käsi	st		S	sg el
9	9	0		N	?
1	1	0		N	?
/	/			Z	
2	2	0		N	?
rb	####				
raha	raha	0		S	sg g
    	raha	0		S	sg n
    	raha	0		S	sg p
saada	saa	da		V	da
     	saat	0		V	o
     	saa	da		V	ta
ja	ja	0		J	
ei	ei	0		D	
  	ei	0		V	neg
taha	taht	0		V	o
    	taha	0		D	
    	taha	0		K	
koguni	kogu	ni		S	sg ter
      	koguni	0		D	
ära	ära	0		D	
   	ära	0		V	neg o
maksta	maks	ta		V	da
      	maks	ta		V	ta
.	.			Z	
Johann	Johann	0		H	sg n
Wisel	####				
vastab	vasta	b		V	b
et	et	0		J	
ni	####				
palju	palju	0		D	
     	palju	0		P	sg g
     	palju	0		P	sg n
raha	raha	0		S	sg g
    	raha	0		S	sg n
    	raha	0		S	sg p
on	ole	0		V	b
  	ole	0		V	vad
maksta	maks	ta		V	da
      	maks	ta		V	ta
ja	ja	0		J	
kui	kui	0		D	
   	kui	0		J	
saab	saa	b		V	b
siis	siis	0		D	
    	siis	0		J	
kohe	kohe	0		A	sg n
    	kohe	0		D	
maksab	maks	b		V	b
.	.			Z	
kohtu	kohtu	0		V	o
     	kohus	0		S	sg g
poolt	pool	t		N	sg p
     	pool	t		S	sg p
     	poolt	0		D	
     	poolt	0		K	
sai	saa	i		V	s
   	sai	0		S	sg n
aeg	aeg	0		S	sg n
määratud	määra	tud		V	tud
        	määra=tu	d		S	pl n
        	määratu	d		A	pl n
        	määratud	0		A	
        	määratud	0		A	sg n
        	määratud	d		A	pl n
et	et	0		J	
peab	pida	b		V	b
Jouluks	####				
ära	ära	0		D	
   	ära	0		V	neg o
maksma	maks	ma		V	ma
.	.			Z	
