protokoll	protokoll	0		S	sg n
sel	see	l		P	sg ad
   	sel	0		Y	?
1sel	####				
novembris	november	s		S	sg in
1882	1882	0		N	?
koos	koos	0		D	
    	koos	0		K	
    	koos	0		S	sg n
    	kubu	s		S	sg in
olid	ole	id		V	sid
kohtu	kohtu	0		V	o
     	kohus	0		S	sg g
peavanem	pea_vanem	0		C	sg n
        	pea_vanem	0		S	sg n
:	:			Z	
Jaan	Jaan	0		H	sg n
    	jaan	0		S	sg n
    	jaan	0		Y	?
reemann	ree_mann	0		S	sg n
Hans	Hans	0		H	sg n
Simsohn	####				
Mart	Mart	0		H	sg n
    	mart	0		S	sg n
Sopp	sopp	0		S	sg n
kirjutaja	kirjutaja	0		S	sg g
         	kirjutaja	0		S	sg n
H	H	0		Y	?
.	.			Z	
_	_			Z	
Saarmu	####				
№	№	0		Y	?
48.	48.	0		O	?
kohtu	kohtu	0		V	o
     	kohus	0		S	sg g
laua	laud	0		S	sg g
ette	ette	0		D	
    	ette	0		K	
    	esi	tte		S	adt
astus	astu	s		V	s
kõrtsimees	kõrtsi_mees	0		S	sg n
Jaakop	####				
Sander	Sander	0		H	sg n
ja	ja	0		J	
kaebas	kaeba	s		V	s
,	,			Z	
et	et	0		J	
Jaan	Jaan	0		H	sg n
    	jaan	0		S	sg n
    	jaan	0		Y	?
Preemann	####				
on	ole	0		V	b
  	ole	0		V	vad
tema	tema	0		P	sg g
    	tema	0		P	sg n
kääst	####				
1	1	0		N	?
rubl	####				
.	.			Z	
40	40	0		N	?
kopika	kopikas	0		S	sg g
eest	eest	0		D	
    	eest	0		K	
    	esi	st		S	sg el
kaupa	kaup	0		S	adt
     	kaup	0		S	sg p
     	kaupa	0		K	
ära	ära	0		D	
   	ära	0		V	neg o
varastanud	varasta	nud		V	nud
          	varasta=nu	d		S	pl n
          	varasta=nud	0		A	
          	varasta=nud	0		A	sg n
          	varasta=nud	d		A	pl n
.	.			Z	
Jaan	Jaan	0		H	sg n
    	jaan	0		S	sg n
    	jaan	0		Y	?
Preeemann	####				
astus	astu	s		V	s
ette	ette	0		D	
    	ette	0		K	
    	esi	tte		S	adt
ja	ja	0		J	
ei	ei	0		D	
  	ei	0		V	neg
võinud	või	nud		V	nud
      	või=nu	d		S	pl n
      	või=nud	0		A	
      	või=nud	0		A	sg n
      	või=nud	d		A	pl n
seda	see	da		P	sg p
mitte	mitte	0		D	
ära	ära	0		D	
   	ära	0		V	neg o
salgata	salk	ta		S	sg ab
,	,			Z	
seepärast	see_pärast	0		D	
,	,			Z	
et	et	0		J	
vargus	vargus	0		S	sg n
on	ole	0		V	b
  	ole	0		V	vad
tema	tema	0		P	sg g
    	tema	0		P	sg n
kääst	####				
kätte	kätte	0		K	
     	käsi	tte		S	adt
saadud	saa	dud		V	tud
      	saadu	d		S	pl n
      	saadud	0		A	
      	saadud	0		A	sg n
      	saadud	d		A	pl n
.	.			Z	
kõrtsimees	kõrtsi_mees	0		S	sg n
Jaakop	####				
Sander	Sander	0		H	sg n
astus	astu	s		V	s
veel	veel	0		D	
    	vesi	l		S	sg ad
ette	ette	0		D	
    	ette	0		K	
    	esi	tte		S	adt
ja	ja	0		J	
ütles	ütle	s		V	s
:	:			Z	
et	et	0		J	
tema	tema	0		P	sg g
    	tema	0		P	sg n
olla	ole	a		V	da
kõik	kõik	0		P	pl n
    	kõik	0		S	sg n
    	kõik	0		P	sg n
oma	oma	0		A	sg g
   	oma	0		D	
   	oma	0		P	sg g
   	oma	0		S	sg g
   	oma	0		V	o
   	oma	0		A	sg n
   	oma	0		A	sg p
   	oma	0		P	sg n
   	oma	0		P	sg p
   	oma	0		S	sg n
   	oma	0		S	sg p
varguse	vargus	0		S	sg g
Jaani	Jaan	0		H	adt
     	Jaan	0		H	sg g
     	Jaani	0		H	sg g
     	jaan	0		S	adt
     	jaan	0		S	sg g
     	Jaan	0		H	sg p
     	Jaani	0		H	sg n
     	jaan	0		S	sg p
kääst	####				
kätte	kätte	0		K	
     	käsi	tte		S	adt
saanud	saa	nud		V	nud
      	saa=nud	0		A	
      	saa=nud	0		A	sg n
      	saa=nud	d		A	pl n
      	saanu	d		S	pl n
.	.			Z	
mõistetud	mõist	tud		V	tud
         	mõiste=tu	d		S	pl n
         	mõiste=tud	0		A	
         	mõiste=tud	0		A	sg n
         	mõiste=tud	d		A	pl n
sai	saa	i		V	s
   	sai	0		S	sg n
:	:			Z	
et	et	0		J	
Jaan	Jaan	0		H	sg n
    	jaan	0		S	sg n
    	jaan	0		Y	?
Preeemann	####				
peab	pida	b		V	b
24	24	0		N	?
tundi	tund	0		S	adt
     	tund	0		S	sg p
puuris	puur	s		S	sg in
      	puuri	s		V	s
olema	ole	ma		V	ma
,	,			Z	
seepärast	see_pärast	0		D	
,	,			Z	
et	et	0		J	
tema	tema	0		P	sg g
    	tema	0		P	sg n
on	ole	0		V	b
  	ole	0		V	vad
kõrtsi	kõrts	0		S	adt
      	kõrts	0		S	sg g
      	kõrts	0		S	sg p
mehe	mees	0		S	sg g
Jaakop	####				
Sanderi	####				
kaupa	kaup	0		S	adt
     	kaup	0		S	sg p
     	kaupa	0		K	
varastanud	varasta	nud		V	nud
          	varasta=nu	d		S	pl n
          	varasta=nud	0		A	
          	varasta=nud	0		A	sg n
          	varasta=nud	d		A	pl n
.	.			Z	
Semõistmine	####				
sai	saa	i		V	s
   	sai	0		S	sg n
kuulutud	kuulu	tud		V	tud
        	kuulu=tu	d		S	pl n
        	kuulu=tud	0		A	
        	kuulu=tud	0		A	sg n
        	kuulu=tud	d		A	pl n
ja	ja	0		J	
olid	ole	id		V	sid
sellega	see	ga		P	sg kom
rahul	rahu	l		S	sg ad
     	rahul	0		D	
kaebaja	kaebaja	0		S	sg g
       	kaebaja	0		S	sg n
Jaakop	####				
Sander	Sander	0		H	sg n
,	,			Z	
kui	kui	0		D	
   	kui	0		J	
käe	käsi	0		S	sg g
tema	tema	0		P	sg g
    	tema	0		P	sg n
vastane	vastane	0		A	sg n
       	vastane	0		S	sg n
Jaan	Jaan	0		H	sg n
    	jaan	0		S	sg n
    	jaan	0		Y	?
Preeemann	####				
.	.			Z	
täidetud	täit	tud		V	tud
        	täide=tu	d		S	pl n
        	täide=tud	0		A	
        	täide=tud	0		A	sg n
        	täide=tud	d		A	pl n
.	.			Z	
(	(			Z	
1	1	0		N	?
inimene	inimene	0		S	sg n
p	p	0		Y	?
.	.			Z	
)	)			Z	
nimede	nimi	de		S	pl g
alla	alla	0		D	
    	alla	0		K	
kirjutus	kirjutus	0		S	sg n
:	:			Z	
kohtu	kohtu	0		V	o
     	kohus	0		S	sg g
päevanem	####				
:	:			Z	
J	J	0		Y	?
.	.			Z	
reemann	ree_mann	0		S	sg n
/	/			Z	
allkiri	all_kiri	0		S	sg n
/	/			Z	
Hans	Hans	0		H	sg n
Simsohn	####				
XXX	XXX	0		O	?
   	XXX	0		Y	?
Mart	Mart	0		H	sg n
    	mart	0		S	sg n
Sopp	sopp	0		S	sg n
/	/			Z	
allkiri	all_kiri	0		S	sg n
/	/			Z	
kirja	kirja	0		A	
     	kirja	0		V	o
     	kiri	0		S	adt
     	kiri	0		S	sg g
     	kiri	0		S	sg p
tunnistuseks	tunnistus	ks		S	sg tr
kirjutaja	kirjutaja	0		S	sg g
         	kirjutaja	0		S	sg n
H	H	0		Y	?
.	.			Z	
_	_			Z	
Saarmu	####				
/	/			Z	
allkiri	all_kiri	0		S	sg n
/	/			Z	
