№	№	0		Y	?
49	49	0		N	?
sel	see	l		P	sg ad
   	sel	0		Y	?
26ndal	26=s	l		O	sg ad
Mais	Mai	s		H	sg in
    	maa	is		S	pl in
    	mai	s		S	sg in
    	mais	0		S	sg n
1872	1872	0		N	?
koos	koos	0		D	
    	koos	0		K	
    	koos	0		S	sg n
    	kubu	s		S	sg in
olid	ole	id		V	sid
kohtumehed	kohtu_mees	d		S	pl n
.	.			Z	
peavanem	pea_vanem	0		C	sg n
        	pea_vanem	0		S	sg n
Adam	####				
Traugot	####				
.	.			Z	
abi	abi	0		S	sg g
   	abi	0		S	sg n
   	abi	0		S	sg p
Jaan	Jaan	0		H	sg n
    	jaan	0		S	sg n
    	jaan	0		Y	?
Amandus	####				
,	,			Z	
Jaan	Jaan	0		H	sg n
    	jaan	0		S	sg n
    	jaan	0		Y	?
Albert	Albert	0		H	sg n
.	.			Z	
kohtu	kohtu	0		V	o
     	kohus	0		S	sg g
ette	ette	0		D	
    	ette	0		K	
    	esi	tte		S	adt
ei	ei	0		D	
  	ei	0		V	neg
olnud	ol=nud	0		A	
     	ol=nud	0		A	sg n
     	ol=nud	d		A	pl n
     	ole	nud		V	nud
     	olnu	d		S	pl n
midagit	####				
tulemas	tule	mas		V	mas
.	.			Z	
