1908	1908	0		N	?
kuda	####				
maja	maja	0		S	sg g
    	maja	0		S	sg n
    	maja	0		S	sg p
massaja	mass_aeg	0		S	sg g
2	2	0		N	?
dnja	####				
javilis	####				
v	v	0		Y	?
Alkiips	####				
volestunõi	####				
sut	####				
nekr_	####				
Alpskoi	####				
volosti	####				
Siim	Siim	0		H	sg n
Gansov	####				
Ertman	####				
i	i	0		Y	?
Sereverskoi	####				
volosti	####				
Gindrek	####				
Janov	####				
Lintberg	####				
,	,			Z	
litšnu	####				
vitsestnõde	####				
sutu	####				
i	i	0		Y	?
prosili	####				
o	o	0		Y	?
vndanii	####				
v	v	0		Y	?
tuuakvju	####				
knigu	####				
sigu	siga	u		A	pl p
    	siga	u		S	pl p
Suidas	####				
luvessnagu	####				
ih	ih	0		I	
vodogora	####				
sledutšjušagu	####				
deržsoanja	####				
:	:			Z	
I	I	0		O	?
 	I	0		Y	?
 	j	0		Y	?
_	_			Z	
Siim	Siim	0		H	sg n
Ertmann	####				
annab	and	b		V	b
Hindrek	####				
Lintbergi	####				
kätte	kätte	0		K	
     	käsi	tte		S	adt
üheks	üks	ks		N	sg tr
     	üks	ks		P	sg tr
aastaks	aasta	ks		S	sg tr
rendi	rent	0		S	sg g
     	renti	0		V	o
peale	pea	le		S	sg all
     	peale	0		D	
     	peale	0		K	
oma	oma	0		A	sg g
   	oma	0		D	
   	oma	0		P	sg g
   	oma	0		S	sg g
   	oma	0		V	o
   	oma	0		A	sg n
   	oma	0		A	sg p
   	oma	0		P	sg n
   	oma	0		P	sg p
   	oma	0		S	sg n
   	oma	0		S	sg p
päralt	pära	lt		S	sg abl
      	päralt	0		K	
oleva	olev	0		A	sg g
     	olev	0		S	sg g
Jäneks	####				
N 4	N4	0		Y	?
talukoha	talu_koht	0		S	sg g
,	,			Z	
arvates	arva	tes		V	des
23.	23.	0		O	?
aprillist	aprill	st		S	sg el
1908	1908	0		N	?
a	a	0		Y	?
kase	kask	0		S	sg g
23	23	0		N	?
aprilli	aprill	0		S	adt
       	aprill	0		S	sg g
       	aprill	0		S	sg p
k	k	0		Y	?
.	.			Z	
p	p	0		Y	?
.	.			Z	
9190a	9190a	0		Y	?
.	.			Z	
II	II	0		O	?
  	II	0		Y	?
  	jj	0		Y	?
_	_			Z	
Hindrek	####				
Lintberg	####				
maksab	maks	b		V	b
selle	see	0		P	sg g
     	sell	e		S	pl p
aasta	aasta	0		S	sg g
     	aasta	0		S	sg n
eest	eest	0		D	
    	eest	0		K	
    	esi	st		S	sg el
150	150	0		N	?
(	(			Z	
ükssada	üks_sada	0		N	sg n
viiskümmend	viis_kümmend	0		N	sg n
)	)			Z	
rubla	rubla	0		S	sg g
     	rubla	0		S	sg n
     	rubla	0		S	sg p
renti	rent	0		S	adt
     	rent	0		S	sg p
,	,			Z	
mis	mis	0		P	pl n
   	mis	0		P	sg n
kohe	kohe	0		A	sg n
    	kohe	0		D	
selle	see	0		P	sg g
     	sell	e		S	pl p
kontrakti	####				
tegemise	tegemine	0		S	sg g
juures	juur	s		S	sg in
      	juures	0		D	
      	juures	0		K	
ette	ette	0		D	
    	ette	0		K	
    	esi	tte		S	adt
saab	saa	b		V	b
makstud	maks	tud		V	tud
       	maks=tu	d		S	pl n
       	maks=tud	0		A	
       	maks=tud	0		A	sg n
       	maks=tud	d		A	pl n
.	.			Z	
III	III	0		O	?
   	III	0		Y	?
_	_			Z	
rentniku	rentnik	0		S	sg g
kohus	kohu	s		V	s
     	kohus	0		S	sg n
on	ole	0		V	b
  	ole	0		V	vad
selle	see	0		P	sg g
     	sell	e		S	pl p
koha	koht	0		S	sg g
    	koha	0		S	sg g
    	koha	0		V	o
    	koha	0		S	sg n
    	koha	0		S	sg p
põldusid	põld	sid		S	pl p
selle	see	0		P	sg g
     	sell	e		S	pl p
korra	kord	0		S	sg g
järele	järele	0		D	
      	järele	0		K	
hoida	hoid	a		V	da
,	,			Z	
kuidas	kuidas	0		D	
omanik	omanik	0		S	sg n
neid	neid	0		S	sg n
    	see	d		P	pl p
    	tema	d		P	pl p
tänini	tänini	0		D	
on	ole	0		V	b
  	ole	0		V	vad
harinud	hari	nud		V	nud
       	hari=nu	d		S	pl n
       	hari=nud	0		A	
       	hari=nud	0		A	sg n
       	hari=nud	d		A	pl n
.	.			Z	
heinu	hein	u		S	pl p
ja	ja	0		J	
põhku	põhk	0		S	adt
     	põhk	0		S	sg p
ei	ei	0		D	
  	ei	0		V	neg
tohi	tohti	0		V	o
ta	tema	0		P	sg g
  	tema	0		P	sg n
ära	ära	0		D	
   	ära	0		V	neg o
vedada	veda	da		V	da
.	.			Z	
IV	IV	0		O	?
  	IV	0		Y	?
_	_			Z	
kõik	kõik	0		P	pl n
    	kõik	0		S	sg n
    	kõik	0		P	sg n
maksud	maks	d		S	pl n
ja	ja	0		J	
kohustused	kohustus	d		S	pl n
,	,			Z	
mis	mis	0		P	pl n
   	mis	0		P	sg n
selle	see	0		P	sg g
     	sell	e		S	pl p
koha	koht	0		S	sg g
    	koha	0		S	sg g
    	koha	0		V	o
    	koha	0		S	sg n
    	koha	0		S	sg p
peal	pea	l		S	sg ad
    	peal	0		D	
    	peal	0		K	
on	ole	0		V	b
  	ole	0		V	vad
,	,			Z	
maksab	maks	b		V	b
ja	ja	0		J	
täidab	täit	b		V	b
koha	koht	0		S	sg g
    	koha	0		S	sg g
    	koha	0		V	o
    	koha	0		S	sg n
    	koha	0		S	sg p
omanik	omanik	0		S	sg n
.	.			Z	
V	V	0		O	?
 	V	0		Y	?
_	_			Z	
et	et	0		J	
koha	koht	0		S	sg g
    	koha	0		S	sg g
    	koha	0		V	o
    	koha	0		S	sg n
    	koha	0		S	sg p
omanik	omanik	0		S	sg n
kui	kui	0		D	
   	kui	0		J	
rentniku	rentnik	0		S	sg g
Hindrek	####				
Lintbergi	####				
tööline	tööline	0		S	sg n
Jäneks	####				
koha	koht	0		S	sg g
    	koha	0		S	sg g
    	koha	0		V	o
    	koha	0		S	sg n
    	koha	0		S	sg p
peale	pea	le		S	sg all
     	peale	0		D	
     	peale	0		K	
eelama	####				
jääb	jää	b		V	b
siis	siis	0		D	
    	siis	0		J	
jäävad	jää	vad		V	vad
      	jääv	d		A	pl n
ka	ka	0		D	
tarvilised	tarviline	d		A	pl n
elu	elu	0		S	sg g
   	elu	0		S	sg n
   	elu	0		S	sg p
ja	ja	0		J	
kõrvalised	kõrvaline	d		A	pl n
ruumid	ruum	d		S	pl n
      	ruumi	d		V	d
omaniku	omanik	0		S	sg g
tarvitada	tarvita	da		V	da
,	,			Z	
kuid	kuu	id		S	pl p
    	kuid	0		J	
tarbe	tarve	0		S	sg g
korral	kord	l		S	sg ad
      	korral	0		D	
      	korral	0		K	
peab	pida	b		V	b
ta	tema	0		P	sg g
  	tema	0		P	sg n
ka	ka	0		D	
rentnikule	rentnik	le		S	sg all
elamiseks	elamine	ks		S	sg tr
ruumi	ruum	0		S	adt
     	ruum	0		S	sg g
     	ruumi	0		V	o
     	ruum	0		S	sg p
andma	and	ma		V	ma
.	.			Z	
IV	IV	0		O	?
  	IV	0		Y	?
_	_			Z	
Jäneks	####				
talukoht	talu_koht	0		S	sg n
on	ole	0		V	b
  	ole	0		V	vad
rentniku	rentnik	0		S	sg g
kätte	kätte	0		K	
     	käsi	tte		S	adt
antud	an=tu	d		S	pl n
     	and	tud		V	tud
     	antud	0		A	
     	antud	0		A	sg n
     	antud	d		A	pl n
23	23	0		N	?
aprilli	aprill	0		S	adt
       	aprill	0		S	sg g
       	aprill	0		S	sg p
k	k	0		Y	?
.	.			Z	
p	p	0		Y	?
.	.			Z	
1890a	1890a	0		Y	?
.	.			Z	
Siim	Siim	0		H	sg n
Ertmann	####				
[	[			Z	
allkiri	all_kiri	0		S	sg n
]	]			Z	
Hindrek	####				
Lintberg	####				
[	[			Z	
allkiri	all_kiri	0		S	sg n
]	]			Z	
Nastutšjašii	####				
vodogur	####				
po	####				
vndanii	####				
v	v	0		Y	?
tuuakvju	####				
knigu	####				
protšitan	####				
sturonam	####				
,	,			Z	
litšnu	####				
vitsestnõmi	####				
sutu	####				
i	i	0		Y	?
sõstvebnurutšnu	####				
pipotsaan	####				
nakr_mi	####				
Alpskoi	####				
volosti	####				
Siimum	####				
Gansovõm	####				
Ertman	####				
i	i	0		Y	?
Sereverskoi	####				
volosti	####				
Gindrekum	####				
Jaanõmov	####				
Lintberg	####				
.	.			Z	
Predsedatelj	####				
suta	####				
:	:			Z	
GrosJamann	####				
[	[			Z	
allkiri	all_kiri	0		S	sg n
]	]			Z	
elnTšõ	####				
Valter	Valter	0		H	sg n
[	[			Z	
allkiri	all_kiri	0		S	sg n
]	]			Z	
M	M	0		O	?
 	M	0		Y	?
ekseeb	####				
[	[			Z	
allkiri	all_kiri	0		S	sg n
]	]			Z	
Kandidat	####				
:	:			Z	
A	A	0		Y	?
soo	soo	0		I	
   	soo	0		S	sg g
   	sugu	0		S	sg g
   	soo	0		S	sg n
[	[			Z	
allkiri	all_kiri	0		S	sg n
]	]			Z	
Pissaar	####				
:	:			Z	
R_	####				
.	.			Z	
Reinvald	####				
[	[			Z	
allkiri	all_kiri	0		S	sg n
]	]			Z	
