sel	see	l		P	sg ad
   	sel	0		Y	?
11ndal	11=s	l		O	sg ad
juunil	juuni	l		S	sg ad
1873	1873	0		N	?
mõisa	mõis	0		S	sg g
valitsus	valitsus	0		S	sg n
andis	and	is		V	s
üles	üles	0		D	
et	et	0		J	
Ottiku	####				
küla	küla	0		S	sg g
    	küla	0		S	sg n
    	küla	0		S	sg p
lamma	####				
karjane	karjane	0		S	sg n
Leenu	Leenu	0		H	sg g
     	Leenu	0		H	sg n
Nimann	####				
söötnud	sööt	nud		V	nud
       	sööt=nu	d		S	pl n
       	sööt=nud	0		A	
       	sööt=nud	0		A	sg n
       	sööt=nud	d		A	pl n
lama	lama	0		V	o
karjaga	kari	ga		S	sg kom
mõisa	mõis	0		S	sg g
adra	ader	0		S	sg g
orast	ora	st		S	sg el
     	oras	t		S	sg p
nõnda	nõnda	0		D	
et	et	0		J	
peakohtumees	pea_kohtu_mees	0		S	sg n
seda	see	da		P	sg p
pealt	pea	lt		S	sg abl
     	pealt	0		D	
     	pealt	0		K	
nähes	näge	es		V	des
paljust	paljus	t		S	sg p
       	palju	st		P	sg el
mulda	muld	0		S	adt
     	mulda	0		V	o
     	muld	0		S	sg p
on	ole	0		V	b
  	ole	0		V	vad
näinud	näi	nud		V	nud
      	näge	nud		V	nud
      	näi=nud	0		A	
      	näi=nud	0		A	sg n
      	näi=nud	d		A	pl n
      	näinu	d		S	pl n
I	I	0		O	?
 	I	0		Y	?
 	j	0		Y	?
,	,			Z	
astus	astu	s		V	s
Leenu	Leenu	0		H	sg g
     	Leenu	0		H	sg n
Nimann	####				
kohtu	kohtu	0		V	o
     	kohus	0		S	sg g
ette	ette	0		D	
    	ette	0		K	
    	esi	tte		S	adt
ja	ja	0		J	
tunnistas	tunnista	s		V	s
et	et	0		J	
lamat	####				
olla	ole	a		V	da
kogemata	koge	mata		V	mata
        	koge=mata	0		A	
        	kogemata	0		D	
lahti	laht	i		S	pl p
     	lahti	0		D	
jätud	####				
väravast	värav	st		S	sg el
orasele	oras	le		S	sg all
läinud	läinu	d		S	pl n
      	läinud	0		A	
      	läinud	0		A	sg n
      	läinud	d		A	pl n
      	mine	nud		V	nud
kohus	kohu	s		V	s
     	kohus	0		S	sg n
mõistis	mõist	is		V	s
Leenu	Leenu	0		H	sg g
     	Leenu	0		H	sg n
Nimanni	####				
maksta	maks	ta		V	da
      	maks	ta		V	ta
1	1	0		N	?
vak	####				
adre	####				
mõisa	mõis	0		S	sg g
kahju	kahi	0		S	adt
     	kahi	0		S	sg g
     	kahi	0		S	sg p
     	kahju	0		S	sg g
     	kahju	0		S	sg n
     	kahju	0		S	sg p
tasumiseks	tasumine	ks		S	sg tr
ja	ja	0		J	
peale	pea	le		S	sg all
     	peale	0		D	
     	peale	0		K	
selle	see	0		P	sg g
     	sell	e		S	pl p
,	,			Z	
selle	see	0		P	sg g
     	sell	e		S	pl p
trahviks	trahv	ks		S	sg tr
        	trahvi	ks		V	ks
et	et	0		J	
ta	tema	0		P	sg g
  	tema	0		P	sg n
hooletu	hooletu	0		A	sg g
       	hooletu	0		A	sg n
on	ole	0		V	b
  	ole	0		V	vad
15	15	0		N	?
vitsa	vits	0		S	adt
     	vits	0		S	sg g
     	vits	0		S	sg p
hoobiga	hoop	ga		S	sg kom
karvistada	####				
.	.			Z	
koos	koos	0		D	
    	koos	0		K	
    	koos	0		S	sg n
    	kubu	s		S	sg in
olid	ole	id		V	sid
kohtu	kohtu	0		V	o
     	kohus	0		S	sg g
peavanem	pea_vanem	0		C	sg n
        	pea_vanem	0		S	sg n
Juhan	Juhan	0		H	sg n
Lillepuut	####				
XXX	XXX	0		O	?
   	XXX	0		Y	?
abimeh	####				
:	:			Z	
Ado	Ado	0		H	sg g
   	Ado	0		H	sg n
sadam	sadam	0		S	sg n
XXX	XXX	0		O	?
   	XXX	0		Y	?
Kaarel	Kaarel	0		H	sg n
      	kaar	l		S	sg ad
      	kaarel	0		S	sg n
võõrmünd	####				
XXX	XXX	0		O	?
   	XXX	0		Y	?
