protokoll	protokoll	0		S	sg n
sel	see	l		P	sg ad
   	sel	0		Y	?
3ndal	3=s	l		O	sg ad
juulis	juuli	s		S	sg in
1872.	1872.	0		O	?
koos	koos	0		D	
    	koos	0		K	
    	koos	0		S	sg n
    	kubu	s		S	sg in
olid	ole	id		V	sid
kohtu	kohtu	0		V	o
     	kohus	0		S	sg g
peavanem	pea_vanem	0		C	sg n
        	pea_vanem	0		S	sg n
Ado	Ado	0		H	sg g
   	Ado	0		H	sg n
Kandelin	####				
Jaan	Jaan	0		H	sg n
    	jaan	0		S	sg n
    	jaan	0		Y	?
Epmann	####				
Jaan	Jaan	0		H	sg n
    	jaan	0		S	sg n
    	jaan	0		Y	?
Raudmez	####				
kirjutaja	kirjutaja	0		S	sg g
         	kirjutaja	0		S	sg n
H	H	0		Y	?
.	.			Z	
_	_			Z	
Saarmo	####				
16	16	0		N	?
kohtu	kohtu	0		V	o
     	kohus	0		S	sg g
ette	ette	0		D	
    	ette	0		K	
    	esi	tte		S	adt
astusid	astu	sid		V	sid
Virika	####				
küla	küla	0		S	sg g
    	küla	0		S	sg n
    	küla	0		S	sg p
peremehed	pere_mees	d		S	pl n
Hans	Hans	0		H	sg n
Saarmo	####				
,	,			Z	
Mart	Mart	0		H	sg n
    	mart	0		S	sg n
Mardo	Mardo	0		H	sg g
     	Mardo	0		H	sg n
,	,			Z	
Hans	Hans	0		H	sg n
Lassel	####				
,	,			Z	
Mart	Mart	0		H	sg n
    	mart	0		S	sg n
Pass	pass	0		S	sg n
ja	ja	0		J	
Jüri	Jüri	0		H	sg g
    	Jüri	0		H	sg n
ärdape	####				
ja	ja	0		J	
kaebasid	kaeba	sid		V	sid
,	,			Z	
et	et	0		J	
Palla	####				
küla	küla	0		S	sg g
    	küla	0		S	sg n
    	küla	0		S	sg p
talitaja	talitaja	0		S	sg g
        	talitaja	0		S	sg n
Hans	Hans	0		H	sg n
Pawelz	####				
on	ole	0		V	b
  	ole	0		V	vad
Virika	####				
küla	küla	0		S	sg g
    	küla	0		S	sg n
    	küla	0		S	sg p
krundid	krunt	d		S	pl n
       	krunti	d		V	d
ühe	üks	0		N	sg g
   	üks	0		P	sg g
   	ühe	0		S	sg n
maa	maa	0		S	sg g
   	maa	0		S	sg n
tükki	tükk	0		S	adt
     	tükk	0		S	sg p
     	tükki	0		D	
Jüri	Jüri	0		H	sg g
    	Jüri	0		H	sg n
Jürdale	####				
lubanud	luba	nud		V	nud
       	luba=nu	d		S	pl n
       	luba=nud	0		A	
       	luba=nud	0		A	sg n
       	luba=nud	d		A	pl n
,	,			Z	
mis	mis	0		P	pl n
   	mis	0		P	sg n
mitte	mitte	0		D	
Jüri	Jüri	0		H	sg g
    	Jüri	0		H	sg n
Jürda	####				
ei	ei	0		D	
  	ei	0		V	neg
ole	ole	0		V	o
olnud	ol=nud	0		A	
     	ol=nud	0		A	sg n
     	ol=nud	d		A	pl n
     	ole	nud		V	nud
     	olnu	d		S	pl n
ja	ja	0		J	
selle	see	0		P	sg g
     	sell	e		S	pl p
maa	maa	0		S	sg g
   	maa	0		S	sg n
tükki	tükk	0		S	adt
     	tükk	0		S	sg p
     	tükki	0		D	
pärast	pära	st		S	sg el
      	pärane	t		A	sg p
      	pärast	0		D	
      	pärast	0		K	
on	ole	0		V	b
  	ole	0		V	vad
Virika	####				
küla	küla	0		S	sg g
    	küla	0		S	sg n
    	küla	0		S	sg p
peremehed	pere_mees	d		S	pl n
kihelkonna	kihelkond	0		S	sg g
kohtu	kohtu	0		V	o
     	kohus	0		S	sg g
mõistmist	mõistmine	t		S	sg p
mööda	mööda	0		A	
     	mööda	0		D	
     	mööda	0		K	
13	13	0		N	?
rubla	rubla	0		S	sg g
     	rubla	0		S	sg n
     	rubla	0		S	sg p
80	80	0		N	?
kop	kop	0		Y	?
.	.			Z	
raha	raha	0		S	sg g
    	raha	0		S	sg n
    	raha	0		S	sg p
ja	ja	0		J	
1	1	0		N	?
tsetvert	####				
5	5	0		N	?
veerikut	veerik	t		S	sg p
4	4	0		N	?
Garnitsed	####				
kaeru	kaer	u		S	pl p
trahviks	trahv	ks		S	sg tr
        	trahvi	ks		V	ks
maksnud	maks	nud		V	nud
       	maks=nu	d		S	pl n
       	maks=nud	0		A	
       	maks=nud	0		A	sg n
       	maks=nud	d		A	pl n
.	.			Z	
Palla	####				
küla	küla	0		S	sg g
    	küla	0		S	sg n
    	küla	0		S	sg p
talitaja	talitaja	0		S	sg g
        	talitaja	0		S	sg n
Hans	Hans	0		H	sg n
Pawelz	####				
astus	astu	s		V	s
ette	ette	0		D	
    	ette	0		K	
    	esi	tte		S	adt
ja	ja	0		J	
ütles	ütle	s		V	s
,	,			Z	
et	et	0		J	
tema	tema	0		P	sg g
    	tema	0		P	sg n
on	ole	0		V	b
  	ole	0		V	vad
küll	küll	0		D	
    	küll	0		S	sg n
seda	see	da		P	sg p
maatüki	maa_tükk	0		S	sg g
lubanud	luba	nud		V	nud
       	luba=nu	d		S	pl n
       	luba=nud	0		A	
       	luba=nud	0		A	sg n
       	luba=nud	d		A	pl n
Jüri	Jüri	0		H	sg g
    	Jüri	0		H	sg n
Jürdale	####				
,	,			Z	
aga	aga	0		J	
seepeale	see_peale	0		D	
,	,			Z	
et	et	0		J	
Jüri	Jüri	0		H	sg g
    	Jüri	0		H	sg n
Jürd	####				
on	ole	0		V	b
  	ole	0		V	vad
ütelnud	ütle	nud		V	nud
       	ütel=nu	d		S	pl n
       	ütel=nud	0		A	
       	ütel=nud	0		A	sg n
       	ütel=nud	d		A	pl n
selle	see	0		P	sg g
     	sell	e		S	pl p
maatüki	maa_tükk	0		S	sg g
oma	oma	0		A	sg g
   	oma	0		D	
   	oma	0		P	sg g
   	oma	0		S	sg g
   	oma	0		V	o
   	oma	0		A	sg n
   	oma	0		A	sg p
   	oma	0		P	sg n
   	oma	0		P	sg p
   	oma	0		S	sg n
   	oma	0		S	sg p
jagu	jagu	0		S	sg n
    	jagu	0		V	o
    	jagu	0		S	sg p
olevat	ole	vat		V	vat
      	olev	t		A	sg p
      	olev	t		S	sg p
ja	ja	0		J	
et	et	0		J	
mamõetja	####				
on	ole	0		V	b
  	ole	0		V	vad
temale	tema	le		P	sg all
seda	see	da		P	sg p
maatüki	maa_tükk	0		S	sg g
kopli	koppel	0		S	sg g
asemele	ase	le		S	sg all
       	asemele	0		D	
       	asemele	0		K	
andnud	and	nud		V	nud
      	and=nu	d		S	pl n
      	and=nud	0		A	
      	and=nud	0		A	sg n
      	and=nud	d		A	pl n
ja	ja	0		J	
se	####				
peale	pea	le		S	sg all
     	peale	0		D	
     	peale	0		K	
on	ole	0		V	b
  	ole	0		V	vad
tema	tema	0		P	sg g
    	tema	0		P	sg n
siis	siis	0		D	
    	siis	0		J	
Jüri	Jüri	0		H	sg g
    	Jüri	0		H	sg n
Jürdale	####				
luba	luba	0		S	sg n
    	luba	0		V	o
    	luba	0		S	sg p
andnud	and	nud		V	nud
      	and=nu	d		S	pl n
      	and=nud	0		A	
      	and=nud	0		A	sg n
      	and=nud	d		A	pl n
sinna	sinna	0		D	
peale	pea	le		S	sg all
     	peale	0		D	
     	peale	0		K	
seemet	seeme	t		S	sg p
külvata	külva	ta		V	da
       	külva	ta		V	ta
ja	ja	0		J	
üles	üles	0		D	
künda	künd	a		V	da
.	.			Z	
neile	see	le		P	pl all
     	tema	le		P	pl all
sai	saa	i		V	s
   	sai	0		S	sg n
seadust	seadus	t		S	sg p
mööda	mööda	0		A	
     	mööda	0		D	
     	mööda	0		K	
leppimist	leppimine	t		S	sg p
pakutud	pakku	tud		V	tud
       	pakutu	d		S	pl n
       	pakutud	0		A	
       	pakutud	0		A	sg n
       	pakutud	d		A	pl n
,	,			Z	
aga	aga	0		J	
nemad	tema	d		P	pl n
ei	ei	0		D	
  	ei	0		V	neg
ole	ole	0		V	o
mitte	mitte	0		D	
ära	ära	0		D	
   	ära	0		V	neg o
leppinud	leppi	nud		V	nud
        	leppi=nu	d		S	pl n
        	leppi=nud	0		A	
        	leppi=nud	0		A	sg n
        	leppi=nud	d		A	pl n
.	.			Z	
mõistetud	mõist	tud		V	tud
         	mõiste=tu	d		S	pl n
         	mõiste=tud	0		A	
         	mõiste=tud	0		A	sg n
         	mõiste=tud	d		A	pl n
sai	saa	i		V	s
   	sai	0		S	sg n
,	,			Z	
et	et	0		J	
se	####				
asi	asi	0		S	sg n
   	asi	0		V	o
jääb	jää	b		V	b
suurema	suurem	0		C	sg g
kohtu	kohtu	0		V	o
     	kohus	0		S	sg g
üle	üle	0		D	
   	üle	0		K	
kuulamise	kuulamine	0		S	sg g
alla	alla	0		D	
    	alla	0		K	
,	,			Z	
seepärast	see_pärast	0		D	
,	,			Z	
et	et	0		J	
se	####				
suurem	suurem	0		C	sg n
on	ole	0		V	b
  	ole	0		V	vad
,	,			Z	
kui	kui	0		D	
   	kui	0		J	
et	et	0		J	
valla	vald	0		S	sg g
     	valla	0		D	
kohus	kohu	s		V	s
     	kohus	0		S	sg n
seda	see	da		P	sg p
võib	või	b		V	b
õiendada	õienda	da		V	da
.	.			Z	
on	ole	0		V	b
  	ole	0		V	vad
ka	ka	0		D	
täidetud	täit	tud		V	tud
        	täide=tu	d		S	pl n
        	täide=tud	0		A	
        	täide=tud	0		A	sg n
        	täide=tud	d		A	pl n
.	.			Z	
Ado	Ado	0		H	sg g
   	Ado	0		H	sg n
Kandelin	####				
Jaan	Jaan	0		H	sg n
    	jaan	0		S	sg n
    	jaan	0		Y	?
Epmann	####				
Jaan	Jaan	0		H	sg n
    	jaan	0		S	sg n
    	jaan	0		Y	?
Raudmez	####				
tunnistuseks	tunnistus	ks		S	sg tr
kirjutaja	kirjutaja	0		S	sg g
         	kirjutaja	0		S	sg n
H	H	0		Y	?
.	.			Z	
_	_			Z	
Saarmo	####				
/	/			Z	
allkiri	all_kiri	0		S	sg n
/	/			Z	
