Vääetsa	####				
mõisa	mõis	0		S	sg g
metsavaht	metsa_vaht	0		S	sg n
Jakob	Jakob	0		H	sg n
Kõljal	####				
kaebas	kaeba	s		V	s
et	et	0		J	
Vahastu	####				
mehe	mees	0		S	sg g
Mart	Mart	0		H	sg n
    	mart	0		S	sg n
Palmi	palm	0		S	adt
     	palm	0		S	sg g
     	palmi	0		V	o
     	palm	0		S	sg p
hobune	hobune	0		S	sg n
on	ole	0		V	b
  	ole	0		V	vad
mõisa	mõis	0		S	sg g
metsast	mets	st		S	sg el
       	metsane	t		A	sg p
kinni	kinni	0		D	
võtnud	võt	nud		V	nud
      	võt=nu	d		S	pl n
      	võt=nud	0		A	
      	võt=nud	0		A	sg n
      	võt=nud	d		A	pl n
ja	ja	0		J	
temale	tema	le		P	sg all
seda	see	da		P	sg p
teatanud	teata	nud		V	nud
        	teata=nu	d		S	pl n
        	teata=nud	0		A	
        	teata=nud	0		A	sg n
        	teata=nud	d		A	pl n
.	.			Z	
Tema	tema	0		P	sg g
    	tema	0		P	sg n
tulnud	tul=nud	0		A	
      	tul=nud	0		A	sg n
      	tul=nud	d		A	pl n
      	tule	nud		V	nud
      	tulnu	d		S	pl n
järel	järel	0		D	
     	järel	0		K	
,	,			Z	
viinud	vii	nud		V	nud
      	vii=nu	d		S	pl n
      	vii=nud	0		A	
      	vii=nud	0		A	sg n
      	vii=nud	d		A	pl n
vägise	vägine	0		A	sg g
      	vägine	0		S	sg g
ära	ära	0		D	
   	ära	0		V	neg o
ja	ja	0		J	
turanud	####				
ja	ja	0		J	
rebinud	rebi	nud		V	nud
       	rebi=nu	d		S	pl n
       	rebi=nud	0		A	
       	rebi=nud	0		A	sg n
       	rebi=nud	d		A	pl n
teda	tema	da		P	sg p
rinnust	rind	ust		S	pl el
       	rinnus	t		S	sg p
.	.			Z	
Mart	Mart	0		H	sg n
    	mart	0		S	sg n
Palm	palm	0		S	sg n
tunnistab	tunnista	b		V	b
et	et	0		J	
tema	tema	0		P	sg g
    	tema	0		P	sg n
hobune	hobune	0		S	sg n
varsaga	varss	ga		S	sg kom
mära	mära	0		S	sg g
    	mära	0		S	sg n
    	mära	0		S	sg p
on	ole	0		V	b
  	ole	0		V	vad
seal	seal	0		D	
    	siga	l		A	sg ad
    	siga	l		S	sg ad
kinni	kinni	0		D	
olnud	ol=nud	0		A	
     	ol=nud	0		A	sg n
     	ol=nud	d		A	pl n
     	ole	nud		V	nud
     	olnu	d		S	pl n
,	,			Z	
tema	tema	0		P	sg g
    	tema	0		P	sg n
ei	ei	0		D	
  	ei	0		V	neg
ole	ole	0		V	o
metsa	mets	0		S	adt
     	mets	0		S	sg g
     	mets	0		S	sg p
vahti	vaht	0		S	adt
     	vaht	0		S	sg p
muudinud	####				
ega	ega	0		D	
   	ega	0		J	
olla	ole	a		V	da
vägise	vägine	0		A	sg g
      	vägine	0		S	sg g
ära	ära	0		D	
   	ära	0		V	neg o
viinud	vii	nud		V	nud
      	vii=nu	d		S	pl n
      	vii=nud	0		A	
      	vii=nud	0		A	sg n
      	vii=nud	d		A	pl n
.	.			Z	
lepisid	####				
ise	ise	0		A	
   	ise	0		D	
   	ise	0		P	pl n
   	ise	0		P	sg n
kiskis	####				
et	et	0		J	
Mart	Mart	0		H	sg n
    	mart	0		S	sg n
Palm	palm	0		S	sg n
maksab	maks	b		V	b
metsavahile	metsa_vaht	le		S	sg all
koku	####				
leppimise	leppimine	0		S	sg g
mõõda	mõõt	0		V	o
.	.			Z	
kohus	kohu	s		V	s
     	kohus	0		S	sg n
mõistis	mõist	is		V	s
:	:			Z	
see	see	0		P	sg n
leppimine	leppimine	0		S	sg n
on	ole	0		V	b
  	ole	0		V	vad
kinnitatud	kinnita	tud		V	tud
          	kinnita=tu	d		S	pl n
          	kinnita=tud	0		A	
          	kinnita=tud	0		A	sg n
          	kinnita=tud	d		A	pl n
ja	ja	0		J	
Mart	Mart	0		H	sg n
    	mart	0		S	sg n
Palm	palm	0		S	sg n
maksab	maks	b		V	b
50	50	0		N	?
kop	kop	0		Y	?
valla	vald	0		S	sg g
     	valla	0		D	
laeka	laegas	0		S	adt
     	laegas	0		S	sg g
trahvi	trahv	0		S	adt
      	trahv	0		S	sg g
      	trahvi	0		V	o
      	trahv	0		S	sg p
hobuse	hobune	0		S	sg g
eest	eest	0		D	
    	eest	0		K	
    	esi	st		S	sg el
.	.			Z	
Kuulutatud	kuuluta	tud		V	tud
          	kuuluta=tu	d		S	pl n
          	kuuluta=tud	0		A	
          	kuuluta=tud	0		A	sg n
          	kuuluta=tud	d		A	pl n
_	_			Z	
täidetud	täit	tud		V	tud
        	täide=tu	d		S	pl n
        	täide=tud	0		A	
        	täide=tud	0		A	sg n
        	täide=tud	d		A	pl n
50	50	0		N	?
kop	kop	0		Y	?
.	.			Z	
ja	ja	0		J	
mõlemad	mõlema	d		P	pl n
olid	ole	id		V	sid
sellega	see	ga		P	sg kom
rahul	rahu	l		S	sg ad
     	rahul	0		D	
.	.			Z	
Lõõla	Lõõla	0		H	sg g
     	Lõõla	0		H	sg n
talitaja	talitaja	0		S	sg g
        	talitaja	0		S	sg n
tõi	too	i		V	s
neli	neli	0		N	sg n
tükki	tükk	0		S	adt
     	tükk	0		S	sg p
     	tükki	0		D	
riiet	riie	t		S	sg p
siia	siia	0		D	
    	siig	0		S	sg g
mis	mis	0		P	pl n
   	mis	0		P	sg n
tema	tema	0		P	sg g
    	tema	0		P	sg n
Thomas	Thomas	0		H	sg n
Valtkruusmanni	####				
juurest	juur	st		S	sg el
       	juurest	0		K	
leidnud	leid	nud		V	nud
       	leid=nu	d		S	pl n
       	leid=nud	0		A	
       	leid=nud	0		A	sg n
       	leid=nud	d		A	pl n
.	.			Z	
_üks	####				
tük	####				
oli	ole	i		V	s
pik	####				
4	4	0		N	?
1	1	0		N	?
/	/			Z	
4	4	0		N	?
küünart	küünar	t		S	sg p
teine	teine	0		O	sg n
     	teine	0		P	sg n
tük	####				
2	2	0		N	?
1	1	0		N	?
/	/			Z	
2	2	0		N	?
küünart	küünar	t		S	sg p
.	.			Z	
Kärtmaks	####				
9	9	0		N	?
küün	küün	0		S	sg n
.	.			Z	
kolmas	kolmas	0		O	sg n
9	9	0		N	?
küün	küün	0		S	sg n
.	.			Z	
neljas	neli	s		N	sg in
      	neljas	0		O	sg n
tük	####				
4	4	0		N	?
1	1	0		N	?
/	/			Z	
4	4	0		N	?
küünart	küünar	t		S	sg p
.	.			Z	
koku	####				
20	20	0		N	?
küünart	küünar	t		S	sg p
.	.			Z	
kohus	kohu	s		V	s
     	kohus	0		S	sg n
leidis	leid	is		V	s
      	leidis	0		S	sg n
et	et	0		J	
need	see	d		P	pl n
tükkid	####				
just	just	0		D	
    	just	0		I	
selle	see	0		P	sg g
     	sell	e		S	pl p
kangaga	kangas	ga		S	sg kom
üks	üks	0		N	sg n
   	üks	0		P	sg n
on	ole	0		V	b
  	ole	0		V	vad
mis	mis	0		P	pl n
   	mis	0		P	sg n
protokoll	protokoll	0		S	sg n
N 7	N7	0		Y	?
all	all	0		D	
   	all	0		K	
,	,			Z	
üks	üks	0		N	sg n
   	üks	0		P	sg n
võetud	võe=tu	d		S	pl n
      	võetud	0		A	
      	võetud	0		A	sg n
      	võetud	d		A	pl n
      	võt	tud		V	tud
.	.			Z	
nõnda	nõnda	0		D	
on	ole	0		V	b
  	ole	0		V	vad
see	see	0		P	sg n
kadunud	kadu	nud		V	nud
       	kadunu	d		S	pl n
       	kadunud	0		A	
       	kadunud	0		A	sg n
       	kadunud	d		A	pl n
kangas	kangas	0		S	sg n
      	kangas	s		S	sg in
ühes	üks	s		N	sg in
    	üks	s		P	sg in
    	ühes	0		D	
    	ühes	0		K	
pükstega	püks	tega		S	pl kom
täies	täis	s		A	sg in
     	täis	s		S	sg in
kanga	kangas	0		S	sg g
omaniku	omanik	0		S	sg g
ütlemise	ütlemine	0		S	sg g
järel	järel	0		D	
     	järel	0		K	
käes	käes	0		K	
    	käsi	s		S	sg in
.	.			Z	
Vaetsa	####				
kõrtsmik	kõrtsmik	0		S	sg n
Tõnu	Tõnu	0		H	sg g
    	Tõnu	0		H	sg n
naks	naks	0		I	
    	naks	0		S	sg n
kaebas	kaeba	s		V	s
et	et	0		J	
Krõõt	Krõõt	0		H	sg n
     	krõõt	0		S	sg n
Limberg	####				
lubanud	luba	nud		V	nud
       	luba=nu	d		S	pl n
       	luba=nud	0		A	
       	luba=nud	0		A	sg n
       	luba=nud	d		A	pl n
kõrtsi	kõrts	0		S	adt
      	kõrts	0		S	sg g
      	kõrts	0		S	sg p
põlema	põle	ma		V	ma
pista	pist	0		V	o
     	pist	a		V	da
õeldes	####				
:	:			Z	
kui	kui	0		D	
   	kui	0		J	
teised	teine	d		O	pl n
      	teine	d		P	pl n
poole	pool	0		N	sg g
     	pool	0		S	sg g
     	pool	e		S	pl p
     	poole	0		K	
     	poole	0		S	sg n
teda	tema	da		P	sg p
põlema	põle	ma		V	ma
pistnud	pist	nud		V	nud
       	pist=nu	d		S	pl n
       	pist=nud	0		A	
       	pist=nud	0		A	sg n
       	pist=nud	d		A	pl n
,	,			Z	
aga	aga	0		J	
mina	mina	0		P	sg n
    	mina	0		S	sg g
    	mina	0		S	sg n
    	mina	0		S	sg p
tahan	taht	n		V	n
seda	see	da		P	sg p
teha	tege	a		V	da
!	!			Z	
ja	ja	0		J	
seda	see	da		P	sg p
rääkis	rääki	s		V	s
mulle	mull	e		S	pl p
     	mina	lle		P	sg all
     	mulle	0		S	sg n
Juh	Juh	0		Y	?
.	.			Z	
Randelin	####				
.	.			Z	
Juhan	Juhan	0		H	sg n
Randelin	####				
tunnistas	tunnista	s		V	s
et	et	0		J	
nemad	tema	d		P	pl n
on	ole	0		V	b
  	ole	0		V	vad
vainul	vainu	l		S	sg ad
seisatanud	seisata	nud		V	nud
          	seisata=nu	d		S	pl n
          	seisata=nud	0		A	
          	seisata=nud	0		A	sg n
          	seisata=nud	d		A	pl n
talitaja	talitaja	0		S	sg g
        	talitaja	0		S	sg n
Joh	####				
.	.			Z	
Priima	priima	0		A	sg g
      	priima	0		A	sg n
ja	ja	0		J	
Krõõta	Krõõt	0		H	adt
      	Krõõt	0		H	sg p
      	krõõt	0		S	adt
      	krõõt	0		S	sg p
mees	mees	0		S	sg n
    	mesi	s		S	sg in
Mart	Mart	0		H	sg n
    	mart	0		S	sg n
.	.			Z	
Krõõt	Krõõt	0		H	sg n
     	krõõt	0		S	sg n
tulnud	tul=nud	0		A	
      	tul=nud	0		A	sg n
      	tul=nud	d		A	pl n
      	tule	nud		V	nud
      	tulnu	d		S	pl n
nende	see	de		P	pl g
     	tema	de		P	pl g
juurde	juur	de		S	adt
      	juurde	0		D	
      	juurde	0		K	
,	,			Z	
hakanud	hakka	nud		V	nud
       	haka=nu	d		S	pl n
       	haka=nud	0		A	
       	haka=nud	0		A	sg n
       	haka=nud	d		A	pl n
oma	oma	0		A	sg g
   	oma	0		D	
   	oma	0		P	sg g
   	oma	0		S	sg g
   	oma	0		V	o
   	oma	0		A	sg n
   	oma	0		A	sg p
   	oma	0		P	sg n
   	oma	0		P	sg p
   	oma	0		S	sg n
   	oma	0		S	sg p
mehega	mees	ga		S	sg kom
taplema	taple	ma		V	ma
et	et	0		J	
jälle	jälle	0		D	
purjus	purjus	0		A	
      	purjus	0		D	
olnud	ol=nud	0		A	
     	ol=nud	0		A	sg n
     	ol=nud	d		A	pl n
     	ole	nud		V	nud
     	olnu	d		S	pl n
ja	ja	0		J	
ütles	ütle	s		V	s
:	:			Z	
kui	kui	0		D	
   	kui	0		J	
teised	teine	d		O	pl n
      	teine	d		P	pl n
poole	pool	0		N	sg g
     	pool	0		S	sg g
     	pool	e		S	pl p
     	poole	0		K	
     	poole	0		S	sg n
seda	see	da		P	sg p
kõrtsi	kõrts	0		S	adt
      	kõrts	0		S	sg g
      	kõrts	0		S	sg p
põle	põle	0		V	o
ma	mina	0		P	sg n
pistnud	pist	nud		V	nud
       	pist=nu	d		S	pl n
       	pist=nud	0		A	
       	pist=nud	0		A	sg n
       	pist=nud	d		A	pl n
,	,			Z	
aga	aga	0		J	
mina	mina	0		P	sg n
    	mina	0		S	sg g
    	mina	0		S	sg n
    	mina	0		S	sg p
tahan	taht	n		V	n
ta	tema	0		P	sg g
  	tema	0		P	sg n
pista	pist	0		V	o
     	pist	a		V	da
põlema	põle	ma		V	ma
.	.			Z	
talitaja	talitaja	0		S	sg g
        	talitaja	0		S	sg n
Joh	####				
.	.			Z	
Priima	priima	0		A	sg g
      	priima	0		A	sg n
ütleb	ütle	b		V	b
et	et	0		J	
tema	tema	0		P	sg g
    	tema	0		P	sg n
ei	ei	0		D	
  	ei	0		V	neg
määleta	####				
seda	see	da		P	sg p
sõna	sõna	0		S	sg g
    	sõna	0		V	o
    	sõna	0		S	sg n
    	sõna	0		S	sg p
kuulnud	kuul	nud		V	nud
       	kuul=nud	0		A	
       	kuul=nud	0		A	sg n
       	kuul=nud	d		A	pl n
       	kuulnu	d		S	pl n
plevat	####				
,	,			Z	
ei	ei	0		D	
  	ei	0		V	neg
teada	tead	a		V	da
siis	siis	0		D	
    	siis	0		J	
õidet	####				
tunnistuse	tunnistus	0		S	sg g
selle	see	0		P	sg g
     	sell	e		S	pl p
kohta	koht	0		S	adt
     	kohta	0		K	
     	kohta	0		V	o
     	koht	0		S	sg p
anda	and	a		V	da
.	.			Z	
5.	5.	0		O	?
august	august	0		S	sg n
      	auk	st		S	sg el
T	T	0		Y	?
.	.			Z	
_	_			Z	
Naksist	####				
välja	välja	0		D	
     	välja	0		V	o
     	väli	0		S	adt
     	väli	0		S	sg g
     	väli	0		S	sg p
võetud	võe=tu	d		S	pl n
      	võetud	0		A	
      	võetud	0		A	sg n
      	võetud	d		A	pl n
      	võt	tud		V	tud
.	.			Z	
astus	astu	s		V	s
Krõõt	Krõõt	0		H	sg n
     	krõõt	0		S	sg n
Limberg	####				
ette	ette	0		D	
    	ette	0		K	
    	esi	tte		S	adt
ja	ja	0		J	
ütleb	ütle	b		V	b
et	et	0		J	
tema	tema	0		P	sg g
    	tema	0		P	sg n
on	ole	0		V	b
  	ole	0		V	vad
kül	####				
oma	oma	0		A	sg g
   	oma	0		D	
   	oma	0		P	sg g
   	oma	0		S	sg g
   	oma	0		V	o
   	oma	0		A	sg n
   	oma	0		A	sg p
   	oma	0		P	sg n
   	oma	0		P	sg p
   	oma	0		S	sg n
   	oma	0		S	sg p
mehega	mees	ga		S	sg kom
purjutamise	purjutamine	0		S	sg g
pärast	pära	st		S	sg el
      	pärane	t		A	sg p
      	pärast	0		D	
      	pärast	0		K	
tapelenud	####				
aga	aga	0		J	
se	####				
neid	neid	0		S	sg n
    	see	d		P	pl p
    	tema	d		P	pl p
põle	põle	0		V	o
tema	tema	0		P	sg g
    	tema	0		P	sg n
mitte	mitte	0		D	
ütelnud	ütle	nud		V	nud
       	ütel=nu	d		S	pl n
       	ütel=nud	0		A	
       	ütel=nud	0		A	sg n
       	ütel=nud	d		A	pl n
et	et	0		J	
tema	tema	0		P	sg g
    	tema	0		P	sg n
kõrtsi	kõrts	0		S	adt
      	kõrts	0		S	sg g
      	kõrts	0		S	sg p
põlema	põle	ma		V	ma
pista	pist	0		V	o
     	pist	a		V	da
tahab	taht	b		V	b
ja	ja	0		J	
lisas	lisa	s		S	sg in
     	lisa	s		V	s
valjult	vali	lt		A	sg abl
       	valjult	0		D	
juure	juur	0		S	sg g
et	et	0		J	
Tõrva	Tõrva	0		H	adt
     	tõrv	0		S	adt
     	tõrv	0		S	sg g
     	tõrva	0		V	o
     	Tõrva	0		H	sg g
     	Tõrva	0		H	sg n
     	tõrv	0		S	sg p
Rein	Rein	0		H	sg n
(	(			Z	
peavanem	pea_vanem	0		C	sg n
        	pea_vanem	0		S	sg n
)	)			Z	
ja	ja	0		J	
õntsiV	####				
Jaan	Jaan	0		H	sg n
    	jaan	0		S	sg n
    	jaan	0		Y	?
(	(			Z	
I	I	0		O	?
 	I	0		Y	?
 	j	0		Y	?
kõrvamees	kõrva_mees	0		S	sg n
)	)			Z	
ei	ei	0		D	
  	ei	0		V	neg
tohi	tohti	0		V	o
temale	tema	le		P	sg all
kohut	kohus	t		S	sg p
mõista	mõist	0		V	o
      	mõist	a		V	da
,	,			Z	
nemad	tema	d		P	pl n
tõusku	tõus	ku		V	gu
püsti	püsti	0		D	
ja	ja	0		J	
mingu	mine	gu		V	gu
toast	tuba	st		S	sg el
välja	välja	0		D	
     	välja	0		V	o
     	väli	0		S	adt
     	väli	0		S	sg g
     	väli	0		S	sg p
,	,			Z	
need	see	d		P	pl n
olla	ole	a		V	da
tema	tema	0		P	sg g
    	tema	0		P	sg n
viha	viht	0		S	sg g
    	viha	0		A	sg g
    	viha	0		A	sg n
    	viha	0		A	sg p
    	viha	0		S	sg g
    	viha	0		S	sg n
    	viha	0		S	sg p
mehed	mees	d		S	pl n
.	.			Z	
sai	saa	i		V	s
   	sai	0		S	sg n
tema	tema	0		P	sg g
    	tema	0		P	sg n
käest	käest	0		K	
     	käsi	st		S	sg el
küstnud	####				
kuidas	kuidas	0		D	
nemad	tema	d		P	pl n
viha	viht	0		S	sg g
    	viha	0		A	sg g
    	viha	0		A	sg n
    	viha	0		A	sg p
    	viha	0		S	sg g
    	viha	0		S	sg n
    	viha	0		S	sg p
mehed	mees	d		S	pl n
on	ole	0		V	b
  	ole	0		V	vad
,	,			Z	
on	ole	0		V	b
  	ole	0		V	vad
nad	tema	d		P	pl n
enne	enne	0		D	
    	enne	0		K	
    	enne	0		S	sg n
juba	juba	0		D	
ise	ise	0		A	
   	ise	0		D	
   	ise	0		P	pl n
   	ise	0		P	sg n
käskis	käski	s		V	s
riielnud	riidle	nud		V	nud
        	riiel=nu	d		S	pl n
        	riiel=nud	0		A	
        	riiel=nud	0		A	sg n
        	riiel=nud	d		A	pl n
,	,			Z	
või	või	0		S	sg g
   	või	0		V	o
   	või	0		D	
   	või	0		J	
   	või	0		S	sg n
on	ole	0		V	b
  	ole	0		V	vad
neil	see	l		P	pl ad
    	tema	l		P	pl ad
võlgaühe	####				
teisega	teine	ga		O	sg kom
       	teine	ga		P	sg kom
,	,			Z	
või	või	0		S	sg g
   	või	0		V	o
   	või	0		D	
   	või	0		J	
   	või	0		S	sg n
teab	tead	b		V	b
Krõõt	Krõõt	0		H	sg n
     	krõõt	0		S	sg n
Limberg	####				
mingit	mingi	t		P	sg p
põhjust	põhjus	t		S	sg p
selle	see	0		P	sg g
     	sell	e		S	pl p
ütelustele	####				
?	?			Z	
k	k	0		Y	?
.	.			Z	
_	_			Z	
Limberg	####				
jäi	jää	i		V	s
vaid	vaid	0		D	
    	vaid	0		J	
,	,			Z	
ega	ega	0		D	
   	ega	0		J	
leidnud	leid	nud		V	nud
       	leid=nu	d		S	pl n
       	leid=nud	0		A	
       	leid=nud	0		A	sg n
       	leid=nud	d		A	pl n
oma	oma	0		A	sg g
   	oma	0		D	
   	oma	0		P	sg g
   	oma	0		S	sg g
   	oma	0		V	o
   	oma	0		A	sg n
   	oma	0		A	sg p
   	oma	0		P	sg n
   	oma	0		P	sg p
   	oma	0		S	sg n
   	oma	0		S	sg p
ütlemisele	ütlemine	le		S	sg all
midagi	miski	dagi		P	sg p
põhjus	põhjus	0		S	sg n
,	,			Z	
palus	palu	s		S	sg in
     	palu	s		V	s
oma	oma	0		A	sg g
   	oma	0		D	
   	oma	0		P	sg g
   	oma	0		S	sg g
   	oma	0		V	o
   	oma	0		A	sg n
   	oma	0		A	sg p
   	oma	0		P	sg n
   	oma	0		P	sg p
   	oma	0		S	sg n
   	oma	0		S	sg p
rumalad	rumal	d		A	pl n
ütlemist	ütlemine	t		S	sg p
vabandada	vabanda	da		V	da
tema	tema	0		P	sg g
    	tema	0		P	sg n
olla	ole	a		V	da
seda	see	da		P	sg p
ette	ette	0		D	
    	ette	0		K	
    	esi	tte		S	adt
vaatama	vaata	ma		V	ma
ütelnud	ütle	nud		V	nud
       	ütel=nu	d		S	pl n
       	ütel=nud	0		A	
       	ütel=nud	0		A	sg n
       	ütel=nud	d		A	pl n
.	.			Z	
nimetud	nimetu	d		A	pl n
mehed	mees	d		S	pl n
ei	ei	0		D	
  	ei	0		V	neg
andnud	and	nud		V	nud
      	and=nu	d		S	pl n
      	and=nud	0		A	
      	and=nud	0		A	sg n
      	and=nud	d		A	pl n
seda	see	da		P	sg p
andeks	andeks	0		X	
      	anne	ks		S	sg tr
ja	ja	0		J	
lubasid	luba	sid		S	pl p
       	luba	sid		V	sid
edasi	edasi	0		D	
     	edasi	0		K	
kaebata	####				
.	.			Z	
selle	see	0		P	sg g
     	sell	e		S	pl p
pärast	pära	st		S	sg el
      	pärane	t		A	sg p
      	pärast	0		D	
      	pärast	0		K	
jäeb	####				
see	see	0		P	sg n
asi	asi	0		S	sg n
   	asi	0		V	o
suurema	suurem	0		C	sg g
kohtu	kohtu	0		V	o
     	kohus	0		S	sg g
järele	järele	0		D	
      	järele	0		K	
kuulamise	kuulamine	0		S	sg g
alla	alla	0		D	
    	alla	0		K	
.	.			Z	
Mart	Mart	0		H	sg n
    	mart	0		S	sg n
Toops	####				
kaebas	kaeba	s		V	s
et	et	0		J	
ihatun	####				
kandmimeeste	####				
loomad	loom	d		S	pl n
tema	tema	0		P	sg g
    	tema	0		P	sg n
heinamaa	heina_maa	0		S	sg g
        	heina_maa	0		S	sg n
ära	ära	0		D	
   	ära	0		V	neg o
talunud	talu	nud		V	nud
       	talu=nu	d		S	pl n
       	talu=nud	0		A	
       	talu=nud	0		A	sg n
       	talu=nud	d		A	pl n
,	,			Z	
rohu	rohi	0		S	sg g
ära	ära	0		D	
   	ära	0		V	neg o
söönud	söö	nud		V	nud
      	söönu	d		S	pl n
      	söönud	0		A	
      	söönud	0		A	sg n
      	söönud	d		A	pl n
ja	ja	0		J	
veel	veel	0		D	
    	vesi	l		S	sg ad
heina	hein	0		S	adt
     	hein	0		S	sg g
     	hein	0		S	sg p
tegemise	tegemine	0		S	sg g
ajal	aeg	l		S	sg ad
    	ajal	0		K	
tulnud	tul=nud	0		A	
      	tul=nud	0		A	sg n
      	tul=nud	d		A	pl n
      	tule	nud		V	nud
      	tulnu	d		S	pl n
8	8	0		N	?
looma	loo	ma		V	ma
     	loom	0		S	adt
     	loom	0		S	sg g
     	loom	0		S	sg p
koos	koos	0		D	
    	koos	0		K	
    	koos	0		S	sg n
    	kubu	s		S	sg in
peale	pea	le		S	sg all
     	peale	0		D	
     	peale	0		K	
.	.			Z	
et	et	0		J	
see	see	0		P	sg n
ehmep	####				
raba	raba	0		S	sg g
    	raba	0		V	o
    	raba	0		S	sg n
    	raba	0		S	sg p
maa	maa	0		S	sg g
   	maa	0		S	sg n
on	ole	0		V	b
  	ole	0		V	vad
,	,			Z	
selle	see	0		P	sg g
     	sell	e		S	pl p
pärast	pära	st		S	sg el
      	pärane	t		A	sg p
      	pärast	0		D	
      	pärast	0		K	
on	ole	0		V	b
  	ole	0		V	vad
nad	tema	d		P	pl n
mulle	mull	e		S	pl p
     	mina	lle		P	sg all
     	mulle	0		S	sg n
palju	palju	0		D	
     	palju	0		P	sg g
     	palju	0		P	sg n
kahju	kahi	0		S	adt
     	kahi	0		S	sg g
     	kahi	0		S	sg p
     	kahju	0		S	sg g
     	kahju	0		S	sg n
     	kahju	0		S	sg p
teinud	tege	nud		V	nud
      	tei=nud	0		A	
      	tei=nud	0		A	sg n
      	tei=nud	d		A	pl n
      	teinu	d		S	pl n
.	.			Z	
Miina	Miina	0		H	sg g
     	Miina	0		H	sg n
võtsin	võt	sin		V	sin
siis	siis	0		D	
    	siis	0		J	
ühe	üks	0		N	sg g
   	üks	0		P	sg g
   	ühe	0		S	sg n
ära	ära	0		D	
   	ära	0		V	neg o
kinni	kinni	0		D	
ja	ja	0		J	
tõin	too	in		V	sin
talitaja	talitaja	0		S	sg g
        	talitaja	0		S	sg n
juure	juur	0		S	sg g
.	.			Z	
ihatun	####				
kandmimehed	####				
,	,			Z	
Aadu	Aadu	0		H	sg g
    	Aadu	0		H	sg n
Ehrenwerti	####				
kell	kell	0		S	sg n
2	2	0		N	?
looma	loo	ma		V	ma
     	loom	0		S	adt
     	loom	0		S	sg g
     	loom	0		S	sg p
Hans	Hans	0		H	sg n
Toomberg	####				
2	2	0		N	?
looma	loo	ma		V	ma
     	loom	0		S	adt
     	loom	0		S	sg g
     	loom	0		S	sg p
,	,			Z	
Juh	Juh	0		Y	?
.	.			Z	
Ilves	ilves	0		S	sg n
1	1	0		N	?
loom	loom	0		S	sg n
R_	####				
.	.			Z	
Kaarmann	kaar_mann	0		S	sg n
2	2	0		N	?
loom	loom	0		S	sg n
.	.			Z	
H	H	0		Y	?
.	.			Z	
_	_			Z	
Anseid	####				
on	ole	0		V	b
  	ole	0		V	vad
1	1	0		N	?
l	l	0		Y	?
.	.			Z	
ei	ei	0		D	
  	ei	0		V	neg
salanud	salga	nud		V	nud
       	sala=nu	d		S	pl n
       	sala=nud	0		A	
       	sala=nud	0		A	sg n
       	sala=nud	d		A	pl n
keegi	kee	0	gi	S	sg g
     	kee	0	gi	V	o
     	keegi	0		P	sg n
     	kee	0	gi	S	sg n
et	et	0		J	
karjane	karjane	0		S	sg n
nii	nii	0		D	
hooletu	hooletu	0		A	sg g
       	hooletu	0		A	sg n
olnud	ol=nud	0		A	
     	ol=nud	0		A	sg n
     	ol=nud	d		A	pl n
     	ole	nud		V	nud
     	olnu	d		S	pl n
,	,			Z	
ehk	ehk	0		D	
   	ehk	0		J	
kül	####				
keelatud	keela	tud		V	tud
        	keelatu	d		S	pl n
        	keelatud	0		A	
        	keelatud	0		A	sg n
        	keelatud	d		A	pl n
,	,			Z	
ja	ja	0		J	
tema	tema	0		P	sg g
    	tema	0		P	sg n
lasknud	lask	nud		V	nud
       	lask=nu	d		S	pl n
       	lask=nud	0		A	
       	lask=nud	0		A	sg n
       	lask=nud	d		A	pl n
lepitud	leppi	tud		V	tud
       	lepi=tu	d		S	pl n
       	lepi=tud	0		A	
       	lepi=tud	0		A	sg n
       	lepi=tud	d		A	pl n
M	M	0		O	?
 	M	0		Y	?
.	.			Z	
_	_			Z	
Toopsiga	toop_siga	0		A	sg n
        	toop_siga	0		A	sg p
        	toop_siga	0		S	sg n
        	toop_siga	0		S	sg p
ise	ise	0		A	
   	ise	0		D	
   	ise	0		P	pl n
   	ise	0		P	sg n
käskis	käski	s		V	s
aga	aga	0		J	
kohus	kohu	s		V	s
     	kohus	0		S	sg n
mõistis	mõist	is		V	s
:	:			Z	
iga	iga	0		P	sg g
   	iga	0		P	sg n
   	iga	0		P	sg p
   	iga	0		S	sg n
   	iga	0		S	sg p
looma	loo	ma		V	ma
     	loom	0		S	adt
     	loom	0		S	sg g
     	loom	0		S	sg p
pealt	pea	lt		S	sg abl
     	pealt	0		D	
     	pealt	0		K	
seaduslikult	seaduslik	lt		A	sg abl
            	seaduslikult	0		D	
20	20	0		N	?
kop	kop	0		Y	?
.	.			Z	
looma	loo	ma		V	ma
     	loom	0		S	adt
     	loom	0		S	sg g
     	loom	0		S	sg p
pealt	pea	lt		S	sg abl
     	pealt	0		D	
     	pealt	0		K	
,	,			Z	
160	160	0		N	?
kop	kop	0		Y	?
.	.			Z	
koku	####				
valla	vald	0		S	sg g
     	valla	0		D	
?	?			Z	
trahvi	trahv	0		S	adt
      	trahv	0		S	sg g
      	trahvi	0		V	o
      	trahv	0		S	sg p
maakonna	maakond	0		S	sg g
.	.			Z	
Kuulutatud	kuuluta	tud		V	tud
          	kuuluta=tu	d		S	pl n
          	kuuluta=tud	0		A	
          	kuuluta=tud	0		A	sg n
          	kuuluta=tud	d		A	pl n
_	_			Z	
täidetud	täit	tud		V	tud
        	täide=tu	d		S	pl n
        	täide=tud	0		A	
        	täide=tud	0		A	sg n
        	täide=tud	d		A	pl n
160	160	0		N	?
kop	kop	0		Y	?
.	.			Z	
Ann	Ann	0		H	sg n
Mikko	####				
kaebas	kaeba	s		V	s
et	et	0		J	
juun	####				
.	.			Z	
Kandelin	####				
on	ole	0		V	b
  	ole	0		V	vad
tema	tema	0		P	sg g
    	tema	0		P	sg n
hobuse	hobune	0		S	sg g
kinni	kinni	0		D	
viinud	vii	nud		V	nud
      	vii=nu	d		S	pl n
      	vii=nud	0		A	
      	vii=nud	0		A	sg n
      	vii=nud	d		A	pl n
.	.			Z	
Minu	mina	0		P	sg g
hobune	hobune	0		S	sg n
oli	ole	i		V	s
väljal	väli	l		S	sg ad
rukki	rukis	0		S	adt
     	rukis	0		S	sg g
kiskudes	kisk	des		S	pl in
        	kisku	des		V	des
kõides	####				
ja	ja	0		J	
vai	vai	0		S	sg n
kõvasti	kõvasti	0		D	
maa	maa	0		S	sg g
   	maa	0		S	sg n
sisse	siss	e		S	pl p
     	sisse	0		D	
     	sisse	0		K	
löödud	löö	dud		V	tud
      	löödu	d		S	pl n
      	löödud	0		A	
      	löödud	0		A	sg n
      	löödud	d		A	pl n
.	.			Z	
hommiku	hommik	0		S	sg g
üles	üles	0		D	
ärkades	####				
vaatasin	vaata	sin		V	sin
et	et	0		J	
hobune	hobune	0		S	sg n
oli	ole	i		V	s
alles	alles	0		D	
ja	ja	0		J	
natuke	natuke	0		D	
      	natuke	0		S	sg n
aja	aeg	0		S	sg g
   	aja	0		V	o
pärast	pära	st		S	sg el
      	pärane	t		A	sg p
      	pärast	0		D	
      	pärast	0		K	
saatsin	saat	sin		V	sin
poisi	poiss	0		S	sg g
vaatama	vaata	ma		V	ma
ja	ja	0		J	
juba	juba	0		D	
hobune	hobune	0		S	sg n
oli	ole	i		V	s
ära	ära	0		D	
   	ära	0		V	neg o
.	.			Z	
Juh	Juh	0		Y	?
.	.			Z	
Kandelin	####				
viinud	vii	nud		V	nud
      	vii=nu	d		S	pl n
      	vii=nud	0		A	
      	vii=nud	0		A	sg n
      	vii=nud	d		A	pl n
parajasti	parajasti	0		D	
hobust	hobu	st		S	sg el
      	hobune	t		S	sg p
kinni	kinni	0		D	
.	.			Z	
Miina	Miina	0		H	sg g
     	Miina	0		H	sg n
palusin	palu	sin		V	sin
hobust	hobu	st		S	sg el
      	hobune	t		S	sg p
kätte	kätte	0		K	
     	käsi	tte		S	adt
et	et	0		J	
vaja	vaja	0		D	
    	vaja	0		V	o
tööd	töö	d		S	pl n
    	töö	d		S	sg p
teha	tege	a		V	da
aga	aga	0		J	
Juh	Juh	0		Y	?
.	.			Z	
Kandelin	####				
ei	ei	0		D	
  	ei	0		V	neg
andnud	and	nud		V	nud
      	and=nu	d		S	pl n
      	and=nud	0		A	
      	and=nud	0		A	sg n
      	and=nud	d		A	pl n
et	et	0		J	
ne	####				
peab	pida	b		V	b
kahju	kahi	0		S	adt
     	kahi	0		S	sg g
     	kahi	0		S	sg p
     	kahju	0		S	sg g
     	kahju	0		S	sg n
     	kahju	0		S	sg p
vaadatud	vaata	tud		V	tud
        	vaada=tu	d		S	pl n
        	vaadatud	0		A	
        	vaadatud	0		A	sg n
        	vaadatud	d		A	pl n
saama	saa	ma		V	ma
     	saam	0		S	adt
     	saam	0		S	sg g
     	saam	0		S	sg p
.	.			Z	
mina	mina	0		P	sg n
    	mina	0		S	sg g
    	mina	0		S	sg n
    	mina	0		S	sg p
arvan	arva	n		V	n
aga	aga	0		J	
et	et	0		J	
hobune	hobune	0		S	sg n
ise	ise	0		A	
   	ise	0		D	
   	ise	0		P	pl n
   	ise	0		P	sg n
seda	see	da		P	sg p
vaja	vaja	0		D	
    	vaja	0		V	o
maa	maa	0		S	sg g
   	maa	0		S	sg n
seest	seest	0		D	
     	seest	0		K	
välja	välja	0		D	
     	välja	0		V	o
     	väli	0		S	adt
     	väli	0		S	sg g
     	väli	0		S	sg p
tõmmata	tõmba	ta		V	da
       	tõmba	ta		V	ta
ei	ei	0		D	
  	ei	0		V	neg
jõudnud	jõud	nud		V	nud
       	jõud=nu	d		S	pl n
       	jõud=nud	0		A	
       	jõud=nud	0		A	sg n
       	jõud=nud	d		A	pl n
vaid	vaid	0		D	
    	vaid	0		J	
Juh	Juh	0		Y	?
.	.			Z	
Kandelin	####				
on	ole	0		V	b
  	ole	0		V	vad
ise	ise	0		A	
   	ise	0		D	
   	ise	0		P	pl n
   	ise	0		P	sg n
hobuse	hobune	0		S	sg g
lahti	laht	i		S	pl p
     	lahti	0		D	
peatnud	####				
et	et	0		J	
seda	see	da		P	sg p
viisi	viis	0		S	adt
     	viis	0		S	sg g
     	viis	i		N	pl p
     	viisi	0		K	
     	viis	0		S	sg p
mind	mina	d		P	sg p
jälle	jälle	0		D	
?	?			Z	
.	.			Z	
Juhan	Juhan	0		H	sg n
Kandeliin	kande_liin	0		S	sg n
ütleb	ütle	b		V	b
et	et	0		J	
mina	mina	0		P	sg n
    	mina	0		S	sg g
    	mina	0		S	sg n
    	mina	0		S	sg p
läksin	mine	sin		V	sin
oma	oma	0		A	sg g
   	oma	0		D	
   	oma	0		P	sg g
   	oma	0		S	sg g
   	oma	0		V	o
   	oma	0		A	sg n
   	oma	0		A	sg p
   	oma	0		P	sg n
   	oma	0		P	sg p
   	oma	0		S	sg n
   	oma	0		S	sg p
hobust	hobu	st		S	sg el
      	hobune	t		S	sg p
hommiku	hommik	0		S	sg g
pimedas	pime	s		A	sg in
       	pime	s		S	sg in
väljale	väli	le		S	sg all
viima	vii	ma		V	ma
siis	siis	0		D	
    	siis	0		J	
juba	juba	0		D	
tema	tema	0		P	sg g
    	tema	0		P	sg n
hobune	hobune	0		S	sg n
oli	ole	i		V	s
minu	mina	0		P	sg g
odras	oder	s		S	sg in
ja	ja	0		J	
see	see	0		P	sg n
et	et	0		J	
mina	mina	0		P	sg n
    	mina	0		S	sg g
    	mina	0		S	sg n
    	mina	0		S	sg p
vaja	vaja	0		D	
    	vaja	0		V	o
olen	ole	n		V	n
välja	välja	0		D	
     	välja	0		V	o
     	väli	0		S	adt
     	väli	0		S	sg g
     	väli	0		S	sg p
tõmmanud	tõmba	nud		V	nud
        	tõmma=nu	d		S	pl n
        	tõmma=nud	0		A	
        	tõmma=nud	0		A	sg n
        	tõmma=nud	d		A	pl n
,	,			Z	
on	ole	0		V	b
  	ole	0		V	vad
vale	vale	0		A	sg g
    	vale	0		A	sg n
    	vale	0		S	sg g
    	vale	0		S	sg n
ja	ja	0		J	
Ann	Ann	0		H	sg n
Mikko	####				
antku	####				
tunnistust	tunnistus	t		S	sg p
selle	see	0		P	sg g
     	sell	e		S	pl p
kohta	koht	0		S	adt
     	kohta	0		K	
     	kohta	0		V	o
     	koht	0		S	sg p
,	,			Z	
ka	ka	0		D	
see	see	0		P	sg n
on	ole	0		V	b
  	ole	0		V	vad
vale	vale	0		A	sg g
    	vale	0		A	sg n
    	vale	0		S	sg g
    	vale	0		S	sg n
et	et	0		J	
hobune	hobune	0		S	sg n
siis	siis	0		D	
    	siis	0		J	
väljal	väli	l		S	sg ad
oli	ole	i		V	s
nagu	nagu	0		D	
    	nagu	0		J	
Ann	Ann	0		H	sg n
tunnistab	tunnista	b		V	b
.	.			Z	
talitaja	talitaja	0		S	sg g
        	talitaja	0		S	sg n
abimees	abi_mees	0		S	sg n
Jaan	Jaan	0		H	sg n
    	jaan	0		S	sg n
    	jaan	0		Y	?
Parkal	parkal	0		S	sg n
      	parka	l		S	sg ad
on	ole	0		V	b
  	ole	0		V	vad
kahju	kahi	0		S	adt
     	kahi	0		S	sg g
     	kahi	0		S	sg p
     	kahju	0		S	sg g
     	kahju	0		S	sg n
     	kahju	0		S	sg p
järel	järel	0		D	
     	järel	0		K	
vaadanud	vaata	nud		V	nud
        	vaada=nu	d		S	pl n
        	vaada=nud	0		A	
        	vaada=nud	0		A	sg n
        	vaada=nud	d		A	pl n
.	.			Z	
Jaan	Jaan	0		H	sg n
    	jaan	0		S	sg n
    	jaan	0		Y	?
Parkal	parkal	0		S	sg n
      	parka	l		S	sg ad
tunnistab	tunnista	b		V	b
et	et	0		J	
hobune	hobune	0		S	sg n
on	ole	0		V	b
  	ole	0		V	vad
Kandeliini	kande_liin	0		S	adt
          	kande_liin	0		S	sg g
          	kande_liin	0		S	sg p
ootas	oota	s		V	s
Keiega	####				
,	,			Z	
kell	kell	0		S	sg n
pik	####				
vai	vai	0		S	sg n
otsas	ots	s		S	sg in
     	otsa	s		V	s
     	otsas	0		D	
     	otsas	0		K	
olema	ole	ma		V	ma
,	,			Z	
jooksnud	jooks	nud		V	nud
        	jooks=nu	d		S	pl n
        	jooks=nud	0		A	
        	jooks=nud	0		A	sg n
        	jooks=nud	d		A	pl n
ja	ja	0		J	
odra	oder	0		S	sg g
palju	palju	0		D	
     	palju	0		P	sg g
     	palju	0		P	sg n
puruks	puru	ks		S	sg tr
      	puruks	0		D	
teinud	tege	nud		V	nud
      	tei=nud	0		A	
      	tei=nud	0		A	sg n
      	tei=nud	d		A	pl n
      	teinu	d		S	pl n
,	,			Z	
et	et	0		J	
?	?			Z	
minu	mina	0		P	sg g
arvamise	arvamine	0		S	sg g
järel	järel	0		D	
     	järel	0		K	
3	3	0		N	?
?	?			Z	
odrad	oder	d		S	pl n
kahjuks	kahi	ks		S	sg tr
       	kahju	ks		S	sg tr
       	kahjuks	0		D	
saanud	saa	nud		V	nud
      	saa=nud	0		A	
      	saa=nud	0		A	sg n
      	saa=nud	d		A	pl n
      	saanu	d		S	pl n
.	.			Z	
Ann	Ann	0		H	sg n
Mikko	####				
ütleb	ütle	b		V	b
et	et	0		J	
Juhan	Juhan	0		H	sg n
Kandelin	####				
ise	ise	0		A	
   	ise	0		D	
   	ise	0		P	pl n
   	ise	0		P	sg n
tema	tema	0		P	sg g
    	tema	0		P	sg n
hobuse	hobune	0		S	sg g
odrase	####				
viinud	vii	nud		V	nud
      	vii=nu	d		S	pl n
      	vii=nud	0		A	
      	vii=nud	0		A	sg n
      	vii=nud	d		A	pl n
,	,			Z	
seda	see	da		P	sg p
tunnistab	tunnista	b		V	b
vaja	vaja	0		D	
    	vaja	0		V	o
auk	auk	0		S	sg n
,	,			Z	
et	et	0		J	
inimene	inimene	0		S	sg n
olla	ole	a		V	da
vaja	vaja	0		D	
    	vaja	0		V	o
välja	välja	0		D	
     	välja	0		V	o
     	väli	0		S	adt
     	väli	0		S	sg g
     	väli	0		S	sg p
tõmmanud	tõmba	nud		V	nud
        	tõmma=nu	d		S	pl n
        	tõmma=nud	0		A	
        	tõmma=nud	0		A	sg n
        	tõmma=nud	d		A	pl n
,	,			Z	
aga	aga	0		J	
tema	tema	0		P	sg g
    	tema	0		P	sg n
ise	ise	0		A	
   	ise	0		D	
   	ise	0		P	pl n
   	ise	0		P	sg n
kül	####				
ei	ei	0		D	
  	ei	0		V	neg
ole	ole	0		V	o
näinud	näi	nud		V	nud
      	näge	nud		V	nud
      	näi=nud	0		A	
      	näi=nud	0		A	sg n
      	näi=nud	d		A	pl n
      	näinu	d		S	pl n
.	.			Z	
kohus	kohu	s		V	s
     	kohus	0		S	sg n
saatis	saat	is		V	s
Jaan	Jaan	0		H	sg n
    	jaan	0		S	sg n
    	jaan	0		Y	?
Parkali	parkal	0		S	sg g
uuesti	uuesti	0		D	
vaja	vaja	0		D	
    	vaja	0		V	o
augu	auk	0		S	sg g
järel	järel	0		D	
     	järel	0		K	
vaatama	vaata	ma		V	ma
.	.			Z	
J. Parkal	####				
tuli	tuli	0		S	sg n
    	tule	i		V	s
tagasi	tagasi	0		D	
      	tagasi	0		K	
ja	ja	0		J	
tunnistas	tunnista	s		V	s
et	et	0		J	
hobune	hobune	0		S	sg n
on	ole	0		V	b
  	ole	0		V	vad
jooksuga	jooks	ga		S	sg kom
vaja	vaja	0		D	
    	vaja	0		V	o
augu	auk	0		S	sg g
.	.			Z	
suures	suur	s		A	sg in
luksutanud	luksu_tanu	d		S	pl n
,	,			Z	
nõnda	nõnda	0		D	
et	et	0		J	
vai	vai	0		S	sg n
viimaks	vii	maks		V	maks
       	viimaks	0		D	
välja	välja	0		D	
     	välja	0		V	o
     	väli	0		S	adt
     	väli	0		S	sg g
     	väli	0		S	sg p
tulnud	tul=nud	0		A	
      	tul=nud	0		A	sg n
      	tul=nud	d		A	pl n
      	tule	nud		V	nud
      	tulnu	d		S	pl n
ja	ja	0		J	
et	et	0		J	
mulla	muld	0		S	sg g
     	mulla	0		S	sg g
     	mulla	0		S	sg n
tükid	tükk	d		S	pl n
     	tükki	d		V	d
eemale	eemale	0		D	
karanud	karga	nud		V	nud
       	kara=nu	d		S	pl n
       	kara=nud	0		A	
       	kara=nud	0		A	sg n
       	kara=nud	d		A	pl n
.	.			Z	
kohus	kohu	s		V	s
     	kohus	0		S	sg n
mõistis	mõist	is		V	s
:	:			Z	
talitaja	talitaja	0		S	sg g
        	talitaja	0		S	sg n
abimehe	abi_mees	0		S	sg g
Jaan	Jaan	0		H	sg n
    	jaan	0		S	sg n
    	jaan	0		Y	?
Parkali	parkal	0		S	sg g
järel	järel	0		D	
     	järel	0		K	
vaatamise	vaatamine	0		S	sg g
järel	järel	0		D	
     	järel	0		K	
peab	pida	b		V	b
Ann	Ann	0		H	sg n
MikkoJuh	####				
.	.			Z	
Kandelinilt	####				
3	3	0		N	?
?	?			Z	
odrad	oder	d		S	pl n
kahjutasumiseks	kahju_tasumine	ks		S	sg tr
maksab	maks	b		V	b
ja	ja	0		J	
seaduslik	seaduslik	0		A	sg n
trahv	trahv	0		S	sg n
valla	vald	0		S	sg g
     	valla	0		D	
laeka	laegas	0		S	adt
     	laegas	0		S	sg g
35	35	0		N	?
kop	kop	0		Y	?
.	.			Z	
_	_			Z	
et	et	0		J	
aga	aga	0		J	
Ann	Ann	0		H	sg n
Mikko	####				
ise	ise	0		A	
   	ise	0		D	
   	ise	0		P	pl n
   	ise	0		P	sg n
põle	põle	0		V	o
näinud	näi	nud		V	nud
      	näge	nud		V	nud
      	näi=nud	0		A	
      	näi=nud	0		A	sg n
      	näi=nud	d		A	pl n
      	näinu	d		S	pl n
,	,			Z	
ega	ega	0		D	
   	ega	0		J	
teised	teine	d		O	pl n
      	teine	d		P	pl n
keegi	kee	0	gi	S	sg g
     	kee	0	gi	V	o
     	keegi	0		P	sg n
     	kee	0	gi	S	sg n
,	,			Z	
et	et	0		J	
J. Kandelin	####				
tema	tema	0		P	sg g
    	tema	0		P	sg n
kohuse	kohus	0		S	sg g
lahti	laht	i		S	pl p
     	lahti	0		D	
lasknud	lask	nud		V	nud
       	lask=nu	d		S	pl n
       	lask=nud	0		A	
       	lask=nud	0		A	sg n
       	lask=nud	d		A	pl n
,	,			Z	
maksab	maks	b		V	b
laimamise	laimamine	0		S	sg g
eest	eest	0		D	
    	eest	0		K	
    	esi	st		S	sg el
1	1	0		N	?
rbl	rbl	0		Y	?
.	.			Z	
valla	vald	0		S	sg g
     	valla	0		D	
laeka	laegas	0		S	adt
     	laegas	0		S	sg g
trahvi	trahv	0		S	adt
      	trahv	0		S	sg g
      	trahvi	0		V	o
      	trahv	0		S	sg p
ja	ja	0		J	
75	75	0		N	?
kop	kop	0		Y	?
.	.			Z	
J. Kandeliini	####				
päeva	päev	0		S	adt
     	päev	0		S	sg g
     	päev	0		S	sg p
palka	palk	0		S	adt
     	palka	0		V	o
     	palk	0		S	sg p
.	.			Z	
Kuulutatud	kuuluta	tud		V	tud
          	kuuluta=tu	d		S	pl n
          	kuuluta=tud	0		A	
          	kuuluta=tud	0		A	sg n
          	kuuluta=tud	d		A	pl n
_	_			Z	
täidetud	täit	tud		V	tud
        	täide=tu	d		S	pl n
        	täide=tud	0		A	
        	täide=tud	0		A	sg n
        	täide=tud	d		A	pl n
210	210	0		N	?
kop	kop	0		Y	?
.	.			Z	
7.	7.	0		O	?
august	august	0		S	sg n
      	auk	st		S	sg el
Ann	Ann	0		H	sg n
Mikkost	####				
välja	välja	0		D	
     	välja	0		V	o
     	väli	0		S	adt
     	väli	0		S	sg g
     	väli	0		S	sg p
võetud	võe=tu	d		S	pl n
      	võetud	0		A	
      	võetud	0		A	sg n
      	võetud	d		A	pl n
      	võt	tud		V	tud
.	.			Z	
Jaan	Jaan	0		H	sg n
    	jaan	0		S	sg n
    	jaan	0		Y	?
Roosmann	roos_mann	0		S	sg n
kaebas	kaeba	s		V	s
et	et	0		J	
tema	tema	0		P	sg g
    	tema	0		P	sg n
sedulas	####				
minev	mine	v		V	v
     	minev	0		A	sg n
sügise	sügis	0		S	sg g
Paide	Paide	0		H	adt
     	pai	de		A	pl g
     	pai	de		S	pl g
     	Paide	0		H	sg g
     	Paide	0		H	sg n
laada	laat	0		S	sg g
teisel	teine	l		O	sg ad
      	teine	l		P	sg ad
päeval	päev	l		S	sg ad
?	?			Z	
kõrtsi	kõrts	0		S	adt
      	kõrts	0		S	sg g
      	kõrts	0		S	sg p
eesi	####				
hobuse	hobune	0		S	sg g
pääest	####				
ära	ära	0		D	
   	ära	0		V	neg o
varastatud	varasta	tud		V	tud
          	varastatu	d		S	pl n
          	varastatud	0		A	
          	varastatud	0		A	sg n
          	varastatud	d		A	pl n
.	.			Z	
nüüd	nüüd	0		D	
juhas	juha	s		S	sg in
mind	mina	d		P	sg p
Kaarel	Kaarel	0		H	sg n
      	kaar	l		S	sg ad
      	kaarel	0		S	sg n
Limberg	####				
et	et	0		J	
see	see	0		P	sg n
sedulgas	####				
Nigula	Nigula	0		H	sg g
      	Nigula	0		H	sg n
poiste	poiss	te		S	pl g
käes	käes	0		K	
    	käsi	s		S	sg in
peab	pida	b		V	b
olema	ole	ma		V	ma
.	.			Z	
Miina	Miina	0		H	sg g
     	Miina	0		H	sg n
olen	ole	n		V	n
järel	järel	0		D	
     	järel	0		K	
vaadanud	vaata	nud		V	nud
        	vaada=nu	d		S	pl n
        	vaada=nud	0		A	
        	vaada=nud	0		A	sg n
        	vaada=nud	d		A	pl n
ja	ja	0		J	
leidnud	leid	nud		V	nud
       	leid=nu	d		S	pl n
       	leid=nud	0		A	
       	leid=nud	0		A	sg n
       	leid=nud	d		A	pl n
et	et	0		J	
see	see	0		P	sg n
täiesti	täiesti	0		D	
minu	mina	0		P	sg g
oma	oma	0		A	sg g
   	oma	0		D	
   	oma	0		P	sg g
   	oma	0		S	sg g
   	oma	0		V	o
   	oma	0		A	sg n
   	oma	0		A	sg p
   	oma	0		P	sg n
   	oma	0		P	sg p
   	oma	0		S	sg n
   	oma	0		S	sg p
on	ole	0		V	b
  	ole	0		V	vad
.	.			Z	
Nigula	Nigula	0		H	sg g
      	Nigula	0		H	sg n
pois	poi	s		S	sg in
Jakob	Jakob	0		H	sg n
Mangmann	####				
ütleb	ütle	b		V	b
et	et	0		J	
laada	laat	0		S	sg g
peal	pea	l		S	sg ad
    	peal	0		D	
    	peal	0		K	
tulnud	tul=nud	0		A	
      	tul=nud	0		A	sg n
      	tul=nud	d		A	pl n
      	tule	nud		V	nud
      	tulnu	d		S	pl n
Jaan	Jaan	0		H	sg n
    	jaan	0		S	sg n
    	jaan	0		Y	?
Roosmann	roos_mann	0		S	sg n
purjus	purjus	0		A	
      	purjus	0		D	
tema	tema	0		P	sg g
    	tema	0		P	sg n
juures	juur	s		S	sg in
      	juures	0		D	
      	juures	0		K	
ja	ja	0		J	
tellis	telli	s		V	s
      	tellis	0		S	sg n
mind	mina	d		P	sg p
omale	oma	le		A	sg all
     	oma	le		P	sg all
     	oma	le		S	sg all
4	4	0		N	?
rbl	rbl	0		Y	?
.	.			Z	
laenata	laena	ta		V	da
       	laena	ta		V	ta
.	.			Z	
Miina	Miina	0		H	sg g
     	Miina	0		H	sg n
ei	ei	0		D	
  	ei	0		V	neg
andnud	and	nud		V	nud
      	and=nu	d		S	pl n
      	and=nud	0		A	
      	and=nud	0		A	sg n
      	and=nud	d		A	pl n
et	et	0		J	
oled	ole	d		V	d
purjus	purjus	0		A	
      	purjus	0		D	
,	,			Z	
pärast	pära	st		S	sg el
      	pärane	t		A	sg p
      	pärast	0		D	
      	pärast	0		K	
seda	see	da		P	sg p
ei	ei	0		D	
  	ei	0		V	neg
enam	enam	0		C	sg n
    	enam	0		D	
määleta	####				
ja	ja	0		J	
mina	mina	0		P	sg n
    	mina	0		S	sg g
    	mina	0		S	sg n
    	mina	0		S	sg p
jäänu	jäänu	0		S	sg g
     	jäänu	0		S	sg n
     	jäänud	0		A	sg g
oomast	####				
ilma	ilm	0		S	adt
    	ilm	0		S	sg g
    	ilma	0		D	
    	ilma	0		K	
    	ilm	0		S	sg p
.	.			Z	
rumalus	rumalus	0		S	sg n
tuli	tuli	0		S	sg n
    	tule	i		V	s
uuesti	uuesti	0		D	
ja	ja	0		J	
?	?			Z	
seda	see	da		P	sg p
sedulgalt	####				
ja	ja	0		J	
tahtis	taht	is		V	s
selle	see	0		P	sg g
     	sell	e		S	pl p
eest	eest	0		D	
    	eest	0		K	
    	esi	st		S	sg el
4	4	0		N	?
rbl	rbl	0		Y	?
.	.			Z	
Miina	Miina	0		H	sg g
     	Miina	0		H	sg n
võtsin	võt	sin		V	sin
siis	siis	0		D	
    	siis	0		J	
selle	see	0		P	sg g
     	sell	e		S	pl p
sedulga	####				
ja	ja	0		J	
andsin	and	sin		V	sin
temale	tema	le		P	sg all
4	4	0		N	?
rbl	rbl	0		Y	?
.	.			Z	
vöö	vöö	0		S	sg g
   	vöö	0		S	sg n
läks	mine	s		V	s
katki	katki	0		D	
ja	ja	0		J	
selle	see	0		P	sg g
     	sell	e		S	pl p
olen	ole	n		V	n
nüüd	nüüd	0		D	
uue	uus	0		A	sg g
pannud	pan=nu	d		S	pl n
      	pan=nud	0		A	
      	pan=nud	0		A	sg n
      	pan=nud	d		A	pl n
      	pane	nud		V	nud
ja	ja	0		J	
olen	ole	n		V	n
igapäeva	iga_päev	0		S	adt
        	iga_päev	0		S	sg g
        	iga_päev	0		S	sg p
teda	tema	da		P	sg p
pruuuukinud	####				
.	.			Z	
Tema	tema	0		P	sg g
    	tema	0		P	sg n
oli	ole	i		V	s
prjus	####				
ja	ja	0		J	
ei	ei	0		D	
  	ei	0		V	neg
määleta	####				
ise	ise	0		A	
   	ise	0		D	
   	ise	0		P	pl n
   	ise	0		P	sg n
mis	mis	0		P	pl n
   	mis	0		P	sg n
ta	tema	0		P	sg g
  	tema	0		P	sg n
teinud	tege	nud		V	nud
      	tei=nud	0		A	
      	tei=nud	0		A	sg n
      	tei=nud	d		A	pl n
      	teinu	d		S	pl n
ja	ja	0		J	
püüab	püüd	b		V	b
mind	mina	d		P	sg p
lama	lama	0		V	o
.	.			Z	
Tema	tema	0		P	sg g
    	tema	0		P	sg n
on	ole	0		V	b
  	ole	0		V	vad
mulle	mull	e		S	pl p
     	mina	lle		P	sg all
     	mulle	0		S	sg n
varastatud	varasta	tud		V	tud
          	varastatu	d		S	pl n
          	varastatud	0		A	
          	varastatud	0		A	sg n
          	varastatud	d		A	pl n
asja	asi	0		S	adt
    	asi	0		S	sg g
    	asi	0		S	sg p
müüa	müü	a		V	da
pakkunud	pakku	nud		V	nud
        	pakku=nu	d		S	pl n
        	pakku=nud	0		A	
        	pakku=nud	0		A	sg n
        	pakku=nud	d		A	pl n
ja	ja	0		J	
?	?			Z	
kaks	kaks	0		N	sg n
aisa	ais	0		S	adt
    	ais	0		S	sg g
    	ais	0		S	sg p
kella	kell	0		S	adt
     	kell	0		S	sg g
     	kella	0		V	o
     	kell	0		S	sg p
,	,			Z	
kelle	kes	0		P	pl g
     	kes	0		P	sg g
ta	tema	0		P	sg g
  	tema	0		P	sg n
ise	ise	0		A	
   	ise	0		D	
   	ise	0		P	pl n
   	ise	0		P	sg n
ütles	ütle	s		V	s
?	?			Z	
kõrtsi	kõrts	0		S	adt
      	kõrts	0		S	sg g
      	kõrts	0		S	sg p
mehe	mees	0		S	sg g
Aleksandri	Aleksander	0		H	sg g
          	Aleksandr	0		H	sg g
järgi	järg	i		S	pl p
     	järgi	0		D	
     	järgi	0		K	
     	järgi	0		V	o
olevat	ole	vat		V	vat
      	olev	t		A	sg p
      	olev	t		S	sg p
.	.			Z	
Jaan	Jaan	0		H	sg n
    	jaan	0		S	sg n
    	jaan	0		Y	?
Roosmann	roos_mann	0		S	sg n
arvas	arva	s		V	s
,	,			Z	
et	et	0		J	
nemad	tema	d		P	pl n
on	ole	0		V	b
  	ole	0		V	vad
Hans	Hans	0		H	sg n
Leebergiga	####				
Paidest	Paide	st		H	sg el
       	pai	dest		A	pl el
       	pai	dest		S	pl el
tulnud	tul=nud	0		A	
      	tul=nud	0		A	sg n
      	tul=nud	d		A	pl n
      	tule	nud		V	nud
      	tulnu	d		S	pl n
,	,			Z	
et	et	0		J	
tema	tema	0		P	sg g
    	tema	0		P	sg n
on	ole	0		V	b
  	ole	0		V	vad
sedulga	####				
ära	ära	0		D	
   	ära	0		V	neg o
varastanud	varasta	nud		V	nud
          	varasta=nu	d		S	pl n
          	varasta=nud	0		A	
          	varasta=nud	0		A	sg n
          	varasta=nud	d		A	pl n
.	.			Z	
Hans	Hans	0		H	sg n
Leeberg	####				
ütleb	ütle	b		V	b
et	et	0		J	
nemad	tema	d		P	pl n
ei	ei	0		D	
  	ei	0		V	neg
ole	ole	0		V	o
seltsis	selts	s		S	sg in
       	seltsi	s		V	s
       	seltsis	0		D	
       	seltsis	0		K	
tulnud	tul=nud	0		A	
      	tul=nud	0		A	sg n
      	tul=nud	d		A	pl n
      	tule	nud		V	nud
      	tulnu	d		S	pl n
,	,			Z	
tema	tema	0		P	sg g
    	tema	0		P	sg n
tulnud	tul=nud	0		A	
      	tul=nud	0		A	sg n
      	tul=nud	d		A	pl n
      	tule	nud		V	nud
      	tulnu	d		S	pl n
teiste	teine	te		O	pl g
      	teine	te		P	pl g
meestega	meene	tega		A	pl kom
        	mees	tega		S	pl kom
ja	ja	0		J	
läinud	läinu	d		S	pl n
      	läinud	0		A	
      	läinud	0		A	sg n
      	läinud	d		A	pl n
      	mine	nud		V	nud
?	?			Z	
mäe	mägi	0		S	sg g
kõrtsi	kõrts	0		S	adt
      	kõrts	0		S	sg g
      	kõrts	0		S	sg p
kuna	kuna	0		D	
    	kuna	0		J	
nemad	tema	d		P	pl n
Mangmanniga	####				
all	all	0		D	
   	all	0		K	
kõrtsis	kõrts	s		S	sg in
kaupelnud	####				
Jaan	Jaan	0		H	sg n
    	jaan	0		S	sg n
    	jaan	0		Y	?
Roosmann	roos_mann	0		S	sg n
tuli	tuli	0		S	sg n
    	tule	i		V	s
pärast	pära	st		S	sg el
      	pärane	t		A	sg p
      	pärast	0		D	
      	pärast	0		K	
pimedas	pime	s		A	sg in
       	pime	s		S	sg in
ka	ka	0		D	
Mäele	mägi	le		S	sg all
kõrtsi	kõrts	0		S	adt
      	kõrts	0		S	sg g
      	kõrts	0		S	sg p
oli	ole	i		V	s
purjus	purjus	0		A	
      	purjus	0		D	
kutsus	kutsu	s		V	s
      	kutsu	s		S	sg in
mind	mina	d		P	sg p
koju	kodu	0		S	adt
tulema	tule	ma		V	ma
ja	ja	0		J	
mina	mina	0		P	sg n
    	mina	0		S	sg g
    	mina	0		S	sg n
    	mina	0		S	sg p
sõidsin	####				
temaga	tema	ga		P	sg kom
kuni	kuni	0		J	
    	kuni	0		K	
Väetsale	####				
.	.			Z	
kõrtsist	kõrts	st		S	sg el
välja	välja	0		D	
     	välja	0		V	o
     	väli	0		S	adt
     	väli	0		S	sg g
     	väli	0		S	sg p
tulles	tule	es		V	des
ütlesin	ütle	sin		V	sin
kas	kas	0		D	
sull	####				
hobuse	hobune	0		S	sg g
sedulakat	####				
peal	pea	l		S	sg ad
    	peal	0		D	
    	peal	0		K	
oli	ole	i		V	s
?	?			Z	
Tema	tema	0		P	sg g
    	tema	0		P	sg n
ütles	ütle	s		V	s
:	:			Z	
ja	ja	0		J	
on	ole	0		V	b
  	ole	0		V	vad
.	.			Z	
et	et	0		J	
sedulgast	####				
siis	siis	0		D	
    	siis	0		J	
enam	enam	0		C	sg n
    	enam	0		D	
ei	ei	0		D	
  	ei	0		V	neg
olnud	ol=nud	0		A	
     	ol=nud	0		A	sg n
     	ol=nud	d		A	pl n
     	ole	nud		V	nud
     	olnu	d		S	pl n
ütles	ütle	s		V	s
J. Roosmann	####				
:	:			Z	
Kes	kes	0		P	pl n
   	kes	0		P	sg n
kurat	kurat	0		I	
     	kurat	0		S	sg n
ta	tema	0		P	sg g
  	tema	0		P	sg n
ära	ära	0		D	
   	ära	0		V	neg o
võtnud	võt	nud		V	nud
      	võt=nu	d		S	pl n
      	võt=nud	0		A	
      	võt=nud	0		A	sg n
      	võt=nud	d		A	pl n
,	,			Z	
ja	ja	0		J	
nõnda	nõnda	0		D	
jäi	jää	i		V	s
.	.			Z	
kohus	kohu	s		V	s
     	kohus	0		S	sg n
küsis	küsi	s		V	s
J. Roosmanni	####				
käest	käest	0		K	
     	käsi	st		S	sg el
kust	kusi	t		S	sg p
    	kust	0		D	
ta	tema	0		P	sg g
  	tema	0		P	sg n
need	see	d		P	pl n
kellad	kell	d		S	pl n
      	kella	d		V	d
sai	saa	i		V	s
   	sai	0		S	sg n
mis	mis	0		P	pl n
   	mis	0		P	sg n
Jakob	Jakob	0		H	sg n
Mangmannile	####				
müüa	müü	a		V	da
pakkunud	pakku	nud		V	nud
        	pakku=nu	d		S	pl n
        	pakku=nud	0		A	
        	pakku=nud	0		A	sg n
        	pakku=nud	d		A	pl n
?	?			Z	
J. Roosmann	####				
ütles	ütle	s		V	s
need	see	d		P	pl n
Tallinnast	Tallinn	st		H	sg el
onupoja	onu_poeg	0		S	sg g
käest	käest	0		K	
     	käsi	st		S	sg el
saanud	saa	nud		V	nud
      	saa=nud	0		A	
      	saa=nud	0		A	sg n
      	saa=nud	d		A	pl n
      	saanu	d		S	pl n
.	.			Z	
kohus	kohu	s		V	s
     	kohus	0		S	sg n
mõistis	mõist	is		V	s
:	:			Z	
see	see	0		P	sg n
asi	asi	0		S	sg n
   	asi	0		V	o
jääb	jää	b		V	b
pooleli	pooleli	0		D	
,	,			Z	
et	et	0		J	
I	I	0		O	?
 	I	0		Y	?
 	j	0		Y	?
tunnistused	tunnistus	d		S	pl n
puuduvad	puudu	vad		V	vad
        	puuduv	d		A	pl n
,	,			Z	
kellega	kes	ga		P	pl kom
       	kes	ga		P	sg kom
Hans	Hans	0		H	sg n
Leeberg	####				
ja	ja	0		J	
Jaan	Jaan	0		H	sg n
    	jaan	0		S	sg n
    	jaan	0		Y	?
RoosmannPaidest	####				
tulles	tule	es		V	des
seltsis	selts	s		S	sg in
       	seltsi	s		V	s
       	seltsis	0		D	
       	seltsis	0		K	
sõitsivad	####				
.	.			Z	
II	II	0		O	?
  	II	0		Y	?
  	jj	0		Y	?
saab	saa	b		V	b
Aleksander	Aleksander	0		H	sg n
Müller	Müller	0		H	sg n
siia	siia	0		D	
    	siig	0		S	sg g
kutsutud	kutsu	tud		V	tud
        	kutsutu	d		S	pl n
        	kutsutud	0		A	
        	kutsutud	0		A	sg n
        	kutsutud	d		A	pl n
tulevaks	tulev	ks		A	sg tr
kohtu	kohtu	0		V	o
     	kohus	0		S	sg g
päevaks	päev	ks		S	sg tr
et	et	0		J	
neid	neid	0		S	sg n
    	see	d		P	pl p
    	tema	d		P	pl p
kellasi	kell_asi	0		S	sg n
järel	järel	0		D	
     	järel	0		K	
vaatab	vaata	b		V	b
,	,			Z	
kas	kas	0		D	
nad	tema	d		P	pl n
tema	tema	0		P	sg g
    	tema	0		P	sg n
on	ole	0		V	b
  	ole	0		V	vad
,	,			Z	
ja	ja	0		J	
Jaan	Jaan	0		H	sg n
    	jaan	0		S	sg n
    	jaan	0		Y	?
Roosmann	roos_mann	0		S	sg n
peab	pida	b		V	b
Tallinnast	Tallinn	st		H	sg el
tõe	tõde	0		S	sg g
   	tõsi	0		S	sg g
tunnistuse	tunnistus	0		S	sg g
kellade	kell	de		S	pl g
pärast	pära	st		S	sg el
      	pärane	t		A	sg p
      	pärast	0		D	
      	pärast	0		K	
tooma	too	ma		V	ma
.	.			Z	
Kustas	Kusta	s		H	sg in
      	Kustas	0		H	sg n
Viidoff	####				
kaebas	kaeba	s		V	s
et	et	0		J	
temal	tema	l		P	sg ad
Jakob	Jakob	0		H	sg n
Einmanni	####				
käest	käest	0		K	
     	käsi	st		S	sg el
30	30	0		N	?
rbl	rbl	0		Y	?
.	.			Z	
raha	raha	0		S	sg g
    	raha	0		S	sg n
    	raha	0		S	sg p
saada	saa	da		V	da
     	saat	0		V	o
     	saa	da		V	ta
on	ole	0		V	b
  	ole	0		V	vad
ja	ja	0		J	
tema	tema	0		P	sg g
    	tema	0		P	sg n
ei	ei	0		D	
  	ei	0		V	neg
maksa	maks	0		S	adt
     	maks	0		S	sg g
     	maks	0		V	o
     	maks	0		S	sg p
mulle	mull	e		S	pl p
     	mina	lle		P	sg all
     	mulle	0		S	sg n
ära	ära	0		D	
   	ära	0		V	neg o
ega	ega	0		D	
   	ega	0		J	
räägi	rääki	0		V	o
mulle	mull	e		S	pl p
     	mina	lle		P	sg all
     	mulle	0		S	sg n
sellest	see	st		P	sg el
kedagi	keegi	dagi		P	sg p
.	.			Z	
J. Einmann	####				
tunnistas	tunnista	s		V	s
see	see	0		P	sg n
kaebtuse	####				
õige	õige	0		A	sg g
    	õige	0		A	sg n
    	õige	0		D	
olevat	ole	vat		V	vat
      	olev	t		A	sg p
      	olev	t		S	sg p
aga	aga	0		J	
palus	palu	s		S	sg in
     	palu	s		V	s
kuni	kuni	0		J	
    	kuni	0		K	
Mihkli	Mihkel	0		H	sg g
      	Mihkli	0		H	sg g
      	mihkel	0		A	sg g
      	mihkel	0		S	sg g
      	Mihkli	0		H	sg n
laadani	laat	ni		S	sg ter
kannatada	kannata	da		V	da
siis	siis	0		D	
    	siis	0		J	
saada	saa	da		V	da
     	saat	0		V	o
     	saa	da		V	ta
tema	tema	0		P	sg g
    	tema	0		P	sg n
iluste	####				
maksma	maks	ma		V	ma
.	.			Z	
Kustas	Kusta	s		H	sg in
      	Kustas	0		H	sg n
Viidoff	####				
lubas	luba	s		V	s
temaga	tema	ga		P	sg kom
seni	seni	0		D	
kannatada	kannata	da		V	da
.	.			Z	
kohus	kohu	s		V	s
     	kohus	0		S	sg n
mõistis	mõist	is		V	s
:	:			Z	
see	see	0		P	sg n
leppimine	leppimine	0		S	sg n
on	ole	0		V	b
  	ole	0		V	vad
kinnitatud	kinnita	tud		V	tud
          	kinnita=tu	d		S	pl n
          	kinnita=tud	0		A	
          	kinnita=tud	0		A	sg n
          	kinnita=tud	d		A	pl n
.	.			Z	
