N	N	0		Y	?
:	:			Z	
9.	9.	0		O	?
V.	V.	0		Y	?
k	k	0		Y	?
.	.			Z	
S	S	0		Y	?
.	.			Z	
23.	23.	0		O	?
sel	see	l		P	sg ad
   	sel	0		Y	?
aprill	aprill	0		S	sg n
1877.	1877.	0		O	?
kogukonna	kogukond	0		S	sg g
kohtus	kohtu	s		V	s
      	kohus	s		S	sg in
olid	ole	id		V	sid
koos	koos	0		D	
    	koos	0		K	
    	koos	0		S	sg n
    	kubu	s		S	sg in
vallavanem	valla_vanem	0		S	sg n
M	M	0		O	?
 	M	0		Y	?
.	.			Z	
_	_			Z	
Silman	silma	n		V	n
kõrvamees	kõrva_mees	0		S	sg n
J. Themas	####				
None	####				
J. Vürmber	####				
kirjutaja	kirjutaja	0		S	sg g
         	kirjutaja	0		S	sg n
P	P	0		Y	?
.	.			Z	
_	_			Z	
Peeterson	####				
