kogukonna	kogukond	0		S	sg g
kohus	kohu	s		V	s
     	kohus	0		S	sg n
4.	4.	0		O	?
Aprillil	aprill	l		S	sg ad
1883.	1883.	0		O	?
kohtualusid	####				
ei	ei	0		D	
  	ei	0		V	neg
ole	ole	0		V	o
.	.			Z	
peakohtumees	pea_kohtu_mees	0		S	sg n
:	:			Z	
Jüri	Jüri	0		H	sg g
    	Jüri	0		H	sg n
Toomson	####				
XXX	XXX	0		O	?
   	XXX	0		Y	?
kohtu	kohtu	0		V	o
     	kohus	0		S	sg g
kõrvamees	kõrva_mees	0		S	sg n
:	:			Z	
Juhan	Juhan	0		H	sg n
Kerem	####				
XXX	XXX	0		O	?
   	XXX	0		Y	?
""""	""""			Z	
""""	""""			Z	
""""	""""			Z	
Jaan	Jaan	0		H	sg n
    	jaan	0		S	sg n
    	jaan	0		Y	?
Veber	####				
XXX	XXX	0		O	?
   	XXX	0		Y	?
