N	N	0		Y	?
:	:			Z	
5	5	0		N	?
II	II	0		O	?
  	II	0		Y	?
  	jj	0		Y	?
Austud	####				
St	st	0		I	
.	.			Z	
Peetri	Peeter	0		H	sg g
      	Peetri	0		H	sg g
      	Peetri	0		H	sg n
ja	ja	0		J	
Anna	and	0		V	o
    	Anna	0		H	sg g
    	Anna	0		H	sg n
    	anna	0		S	sg g
    	anna	0		S	sg n
kihelkonna	kihelkond	0		S	sg g
kohtule	kohus	le		S	sg all
.	.			Z	
kohtu	kohtu	0		V	o
     	kohus	0		S	sg g
ette	ette	0		D	
    	ette	0		K	
    	esi	tte		S	adt
astus	astu	s		V	s
peremees	pere_mees	0		S	sg n
Mihkel	Mihkel	0		H	sg n
      	mihkel	0		A	sg n
      	mihkel	0		S	sg n
Netse	####				
ja	ja	0		J	
kaebas	kaeba	s		V	s
et	et	0		J	
tema	tema	0		P	sg g
    	tema	0		P	sg n
olla	ole	a		V	da
september	september	0		S	sg n
kuus	kuu	s		S	sg in
    	kuus	0		N	sg n
1880.	1880.	0		O	?
Jaan	Jaan	0		H	sg n
    	jaan	0		S	sg n
    	jaan	0		Y	?
Mände	mänd	e		S	pl p
käest	käest	0		K	
     	käsi	st		S	sg el
sauna	saun	0		S	adt
     	saun	0		S	sg g
     	saun	0		S	sg p
ostnud	ost	nud		V	nud
      	ost=nu	d		S	pl n
      	ost=nud	0		A	
      	ost=nud	0		A	sg n
      	ost=nud	d		A	pl n
,	,			Z	
mis	mis	0		P	pl n
   	mis	0		P	sg n
pidanud	pida	nud		V	nud
       	pida=nu	d		S	pl n
       	pida=nud	0		A	
       	pida=nud	0		A	sg n
       	pida=nud	d		A	pl n
20	20	0		N	?
rbl	rbl	0		Y	?
maksma	maks	ma		V	ma
.	.			Z	
1.	1.	0		O	?
Mihkel	Mihkel	0		H	sg n
      	mihkel	0		A	sg n
      	mihkel	0		S	sg n
Netse	####				
on	ole	0		V	b
  	ole	0		V	vad
kauplemise	kauplemine	0		S	sg g
ajal	aeg	l		S	sg ad
    	ajal	0		K	
kohe	kohe	0		A	sg n
    	kohe	0		D	
10	10	0		N	?
rbl	rbl	0		Y	?
Jaan	Jaan	0		H	sg n
    	jaan	0		S	sg n
    	jaan	0		Y	?
Mändele	####				
välja	välja	0		D	
     	välja	0		V	o
     	väli	0		S	adt
     	väli	0		S	sg g
     	väli	0		S	sg p
maksnud	maks	nud		V	nud
       	maks=nu	d		S	pl n
       	maks=nud	0		A	
       	maks=nud	0		A	sg n
       	maks=nud	d		A	pl n
sauna	saun	0		S	adt
     	saun	0		S	sg g
     	saun	0		S	sg p
raha	raha	0		S	sg g
    	raha	0		S	sg n
    	raha	0		S	sg p
,	,			Z	
on	ole	0		V	b
  	ole	0		V	vad
aga	aga	0		J	
üks	üks	0		N	sg n
   	üks	0		P	sg n
nädal	nädal	0		S	sg n
mööda	mööda	0		A	
     	mööda	0		D	
     	mööda	0		K	
läinud	läinu	d		S	pl n
      	läinud	0		A	
      	läinud	0		A	sg n
      	läinud	d		A	pl n
      	mine	nud		V	nud
,	,			Z	
kui	kui	0		D	
   	kui	0		J	
Jaan	Jaan	0		H	sg n
    	jaan	0		S	sg n
    	jaan	0		Y	?
Mände	mänd	e		S	pl p
on	ole	0		V	b
  	ole	0		V	vad
Mihkel	Mihkel	0		H	sg n
      	mihkel	0		A	sg n
      	mihkel	0		S	sg n
Netse	####				
juure	juur	0		S	sg g
tulnud	tul=nud	0		A	
      	tul=nud	0		A	sg n
      	tul=nud	d		A	pl n
      	tule	nud		V	nud
      	tulnu	d		S	pl n
,	,			Z	
ja	ja	0		J	
on	ole	0		V	b
  	ole	0		V	vad
10	10	0		N	?
rbl	rbl	0		Y	?
raha	raha	0		S	sg g
    	raha	0		S	sg n
    	raha	0		S	sg p
tagasi	tagasi	0		D	
      	tagasi	0		K	
pakkunud	pakku	nud		V	nud
        	pakku=nu	d		S	pl n
        	pakku=nud	0		A	
        	pakku=nud	0		A	sg n
        	pakku=nud	d		A	pl n
,	,			Z	
et	et	0		J	
mina	mina	0		P	sg n
    	mina	0		S	sg g
    	mina	0		S	sg n
    	mina	0		S	sg p
ei	ei	0		D	
  	ei	0		V	neg
või	või	0		S	sg g
   	või	0		V	o
   	või	0		D	
   	või	0		J	
   	või	0		S	sg n
mitte	mitte	0		D	
sauna	saun	0		S	adt
     	saun	0		S	sg g
     	saun	0		S	sg p
ära	ära	0		D	
   	ära	0		V	neg o
müüja	müüja	0		S	sg g
     	müüja	0		S	sg n
,	,			Z	
minu	mina	0		P	sg g
õde	õde	0		S	sg n
   	õde	0		S	sg p
tahab	taht	b		V	b
ise	ise	0		A	
   	ise	0		D	
   	ise	0		P	pl n
   	ise	0		P	sg n
sauna	saun	0		S	adt
     	saun	0		S	sg g
     	saun	0		S	sg p
elama	ela	ma		V	ma
mina	mina	0		P	sg n
    	mina	0		S	sg g
    	mina	0		S	sg n
    	mina	0		S	sg p
.	.			Z	
Mihkel	Mihkel	0		H	sg n
      	mihkel	0		A	sg n
      	mihkel	0		S	sg n
Netse	####				
ei	ei	0		D	
  	ei	0		V	neg
ole	ole	0		V	o
aga	aga	0		J	
mitte	mitte	0		D	
seda	see	da		P	sg p
10	10	0		N	?
rbl	rbl	0		Y	?
raha	raha	0		S	sg g
    	raha	0		S	sg n
    	raha	0		S	sg p
vastu	vastu	0		D	
     	vastu	0		K	
võtnud	võt	nud		V	nud
      	võt=nu	d		S	pl n
      	võt=nud	0		A	
      	võt=nud	0		A	sg n
      	võt=nud	d		A	pl n
,	,			Z	
kui	kui	0		D	
   	kui	0		J	
aga	aga	0		J	
ütelnud	ütle	nud		V	nud
       	ütel=nu	d		S	pl n
       	ütel=nud	0		A	
       	ütel=nud	0		A	sg n
       	ütel=nud	d		A	pl n
kevadi	####				
ma	mina	0		P	sg n
võttan	####				
se	####				
raha	raha	0		S	sg g
    	raha	0		S	sg n
    	raha	0		S	sg p
tagasi	tagasi	0		D	
      	tagasi	0		K	
,	,			Z	
kui	kui	0		D	
   	kui	0		J	
sinu	sina	0		P	sg g
õde	õde	0		S	sg n
   	õde	0		S	sg p
juba	juba	0		D	
saunas	saun	s		S	sg in
elab	ela	b		V	b
,	,			Z	
muidu	muidu	0		D	
ehk	ehk	0		D	
   	ehk	0		J	
sinna	sinna	0		D	
nüüd	nüüd	0		D	
sauna	saun	0		S	adt
     	saun	0		S	sg g
     	saun	0		S	sg p
teistele	teine	tele		O	pl all
        	teine	tele		P	pl all
ära	ära	0		D	
   	ära	0		V	neg o
.	.			Z	
on	ole	0		V	b
  	ole	0		V	vad
aga	aga	0		J	
kolm	kolm	0		N	sg n
(	(			Z	
3	3	0		N	?
)	)			Z	
nädalat	nädal	t		S	sg p
mööda	mööda	0		A	
     	mööda	0		D	
     	mööda	0		K	
läinud	läinu	d		S	pl n
      	läinud	0		A	
      	läinud	0		A	sg n
      	läinud	d		A	pl n
      	mine	nud		V	nud
,	,			Z	
siis	siis	0		D	
    	siis	0		J	
on	ole	0		V	b
  	ole	0		V	vad
Mihkel	Mihkel	0		H	sg n
      	mihkel	0		A	sg n
      	mihkel	0		S	sg n
Netse	####				
isa	isa	0		S	sg g
   	isa	0		S	sg n
   	isa	0		S	sg p
Jaan	Jaan	0		H	sg n
    	jaan	0		S	sg n
    	jaan	0		Y	?
Mändele	####				
jälle	jälle	0		D	
andnud	and	nud		V	nud
      	and=nu	d		S	pl n
      	and=nud	0		A	
      	and=nud	0		A	sg n
      	and=nud	d		A	pl n
Jaan	Jaan	0		H	sg n
    	jaan	0		S	sg n
    	jaan	0		Y	?
Mändele	####				
10	10	0		N	?
rbl	rbl	0		Y	?
sauna	saun	0		S	adt
     	saun	0		S	sg g
     	saun	0		S	sg p
raha	raha	0		S	sg g
    	raha	0		S	sg n
    	raha	0		S	sg p
,	,			Z	
siis	siis	0		D	
    	siis	0		J	
on	ole	0		V	b
  	ole	0		V	vad
nende	see	de		P	pl g
     	tema	de		P	pl g
vahel	vahe	l		S	sg ad
     	vahel	0		D	
     	vahel	0		K	
se	####				
kaup	kaup	0		S	sg n
täiesti	täiesti	0		D	
selge	selge	0		A	sg g
     	selge	0		A	sg n
olnud	ol=nud	0		A	
     	ol=nud	0		A	sg n
     	ol=nud	d		A	pl n
     	ole	nud		V	nud
     	olnu	d		S	pl n
,	,			Z	
et	et	0		J	
saun	saun	0		S	sg n
müüdud	müü	dud		V	tud
      	müü=du	d		S	pl n
      	müü=dud	0		A	
      	müü=dud	0		A	sg n
      	müü=dud	d		A	pl n
oli	ole	i		V	s
,	,			Z	
mis	mis	0		P	pl n
   	mis	0		P	sg n
juba	juba	0		D	
september	september	0		S	sg n
kuus	kuu	s		S	sg in
    	kuus	0		N	sg n
sai	saa	i		V	s
   	sai	0		S	sg n
kaubeldud	kauple	dud		V	tud
         	kaubel=du	d		S	pl n
         	kaubel=dud	0		A	
         	kaubel=dud	0		A	sg n
         	kaubel=dud	d		A	pl n
.	.			Z	
2.	2.	0		O	?
kutsuti	kutsu	ti		V	ti
Jaan	Jaan	0		H	sg n
    	jaan	0		S	sg n
    	jaan	0		Y	?
Mände	mänd	e		S	pl p
ette	ette	0		D	
    	ette	0		K	
    	esi	tte		S	adt
,	,			Z	
ja	ja	0		J	
kohus	kohu	s		V	s
     	kohus	0		S	sg n
küsis	küsi	s		V	s
se	####				
asi	asi	0		S	sg n
   	asi	0		V	o
,	,			Z	
kui	kui	0		D	
   	kui	0		J	
sa	sina	0		P	sg n
sauna	saun	0		S	adt
     	saun	0		S	sg g
     	saun	0		S	sg p
ära	ära	0		D	
   	ära	0		V	neg o
müüsid	müü	sid		V	sid
,	,			Z	
mis	mis	0		P	pl n
   	mis	0		P	sg n
sa	sina	0		P	sg n
siis	siis	0		D	
    	siis	0		J	
veel	veel	0		D	
    	vesi	l		S	sg ad
tagasi	tagasi	0		D	
      	tagasi	0		K	
tahad	taht	d		V	d
,	,			Z	
tema	tema	0		P	sg g
    	tema	0		P	sg n
ütles	ütle	s		V	s
,	,			Z	
mina	mina	0		P	sg n
    	mina	0		S	sg g
    	mina	0		S	sg n
    	mina	0		S	sg p
küll	küll	0		D	
    	küll	0		S	sg n
üksi	üksi	0		D	
müisin	####				
,	,			Z	
aga	aga	0		J	
minu	mina	0		P	sg g
õed	õde	d		S	pl n
ei	ei	0		D	
  	ei	0		V	neg
lubanud	luba	nud		V	nud
       	luba=nu	d		S	pl n
       	luba=nud	0		A	
       	luba=nud	0		A	sg n
       	luba=nud	d		A	pl n
seda	see	da		P	sg p
mitte	mitte	0		D	
,	,			Z	
ja	ja	0		J	
mina	mina	0		P	sg n
    	mina	0		S	sg g
    	mina	0		S	sg n
    	mina	0		S	sg p
pakkusin	pakku	sin		V	sin
temale	tema	le		P	sg all
raha	raha	0		S	sg g
    	raha	0		S	sg n
    	raha	0		S	sg p
tagasi	tagasi	0		D	
      	tagasi	0		K	
,	,			Z	
aga	aga	0		J	
tema	tema	0		P	sg g
    	tema	0		P	sg n
ei	ei	0		D	
  	ei	0		V	neg
võtnud	võt	nud		V	nud
      	võt=nu	d		S	pl n
      	võt=nud	0		A	
      	võt=nud	0		A	sg n
      	võt=nud	d		A	pl n
,	,			Z	
muud	muu	d		P	pl n
    	muu	d		S	pl n
    	muu	d		V	d
    	muu	d		P	sg p
    	muu	d		S	sg p
kui	kui	0		D	
   	kui	0		J	
aga	aga	0		J	
ütles	ütle	s		V	s
,	,			Z	
kui	kui	0		D	
   	kui	0		J	
sinu	sina	0		P	sg g
oma	oma	0		A	sg g
   	oma	0		D	
   	oma	0		P	sg g
   	oma	0		S	sg g
   	oma	0		V	o
   	oma	0		A	sg n
   	oma	0		A	sg p
   	oma	0		P	sg n
   	oma	0		P	sg p
   	oma	0		S	sg n
   	oma	0		S	sg p
õde	õde	0		S	sg n
   	õde	0		S	sg p
sauna	saun	0		S	adt
     	saun	0		S	sg g
     	saun	0		S	sg p
elama	ela	ma		V	ma
läheb	mine	b		V	b
,	,			Z	
siis	siis	0		D	
    	siis	0		J	
ma	mina	0		P	sg n
võttan	####				
raha	raha	0		S	sg g
    	raha	0		S	sg n
    	raha	0		S	sg p
kevadi	####				
tagasi	tagasi	0		D	
      	tagasi	0		K	
,	,			Z	
aga	aga	0		J	
kui	kui	0		D	
   	kui	0		J	
sa	sina	0		P	sg n
võõrastele	võõras	tele		A	pl all
          	võõras	tele		S	pl all
nüüd	nüüd	0		D	
,	,			Z	
seda	see	da		P	sg p
ma	mina	0		P	sg n
ei	ei	0		D	
  	ei	0		V	neg
luba	luba	0		S	sg n
    	luba	0		V	o
    	luba	0		S	sg p
.	.			Z	
3.	3.	0		O	?
tuli	tuli	0		S	sg n
    	tule	i		V	s
õde	õde	0		S	sg n
   	õde	0		S	sg p
Mari	Mari	0		H	sg g
    	mari	0		S	sg g
    	mari	0		S	sg n
    	Mari	0		H	sg n
    	mari	0		S	sg p
Ibis	####				
(	(			Z	
sündinud	sündi	nud		V	nud
        	sündinu	d		S	pl n
        	sündinud	0		A	
        	sündinud	0		A	sg n
        	sündinud	d		A	pl n
Mände	mänd	e		S	pl p
)	)			Z	
ette	ette	0		D	
    	ette	0		K	
    	esi	tte		S	adt
,	,			Z	
ja	ja	0		J	
ütles	ütle	s		V	s
kui	kui	0		D	
   	kui	0		J	
ema	ema	0		S	sg g
   	ema	0		S	sg n
   	ema	0		S	sg p
ära	ära	0		D	
   	ära	0		V	neg o
suri	sure	i		V	s
,	,			Z	
siis	siis	0		D	
    	siis	0		J	
lubas	luba	s		V	s
tema	tema	0		P	sg g
    	tema	0		P	sg n
,	,			Z	
et	et	0		J	
meie	mina	0		P	pl g
    	mina	0		P	pl n
kõik	kõik	0		P	pl n
    	kõik	0		S	sg n
    	kõik	0		P	sg n
kolm	kolm	0		N	sg n
peame	pida	me		V	me
sellest	see	st		P	sg el
osa	osa	0		S	sg g
   	osa	0		S	sg n
   	osa	0		S	sg p
saama	saa	ma		V	ma
     	saam	0		S	adt
     	saam	0		S	sg g
     	saam	0		S	sg p
,	,			Z	
aga	aga	0		J	
minu	mina	0		P	sg g
Wend	vend	0		S	sg n
müis	####				
ilma	ilm	0		S	adt
    	ilm	0		S	sg g
    	ilma	0		D	
    	ilma	0		K	
    	ilm	0		S	sg p
meie	mina	0		P	pl g
    	mina	0		P	pl n
teadmata	tead	mata		V	mata
        	tead=mata	0		A	
sauna	saun	0		S	adt
     	saun	0		S	sg g
     	saun	0		S	sg p
ära	ära	0		D	
   	ära	0		V	neg o
,	,			Z	
ja	ja	0		J	
mina	mina	0		P	sg n
    	mina	0		S	sg g
    	mina	0		S	sg n
    	mina	0		S	sg p
ei	ei	0		D	
  	ei	0		V	neg
luba	luba	0		S	sg n
    	luba	0		V	o
    	luba	0		S	sg p
seda	see	da		P	sg p
koguni	kogu	ni		S	sg ter
      	koguni	0		D	
,	,			Z	
mina	mina	0		P	sg n
    	mina	0		S	sg g
    	mina	0		S	sg n
    	mina	0		S	sg p
tahan	taht	n		V	n
saunas	saun	s		S	sg in
ise	ise	0		A	
   	ise	0		D	
   	ise	0		P	pl n
   	ise	0		P	sg n
elada	ela	da		V	da
,	,			Z	
mina	mina	0		P	sg n
    	mina	0		S	sg g
    	mina	0		S	sg n
    	mina	0		S	sg p
ütlesin	ütle	sin		V	sin
oma	oma	0		A	sg g
   	oma	0		D	
   	oma	0		P	sg g
   	oma	0		S	sg g
   	oma	0		V	o
   	oma	0		A	sg n
   	oma	0		A	sg p
   	oma	0		P	sg n
   	oma	0		P	sg p
   	oma	0		S	sg n
   	oma	0		S	sg p
Vennale	vend	le		S	sg all
kohe	kohe	0		A	sg n
    	kohe	0		D	
,	,			Z	
vii	vii	0		V	o
   	vii	0		O	?
Mihkel	Mihkel	0		H	sg n
      	mihkel	0		A	sg n
      	mihkel	0		S	sg n
Netse	####				
raha	raha	0		S	sg g
    	raha	0		S	sg n
    	raha	0		S	sg p
tagasi	tagasi	0		D	
      	tagasi	0		K	
,	,			Z	
mis	mis	0		P	pl n
   	mis	0		P	sg n
ka	ka	0		D	
Wend	vend	0		S	sg n
olla	ole	a		V	da
teinud	tege	nud		V	nud
      	tei=nud	0		A	
      	tei=nud	0		A	sg n
      	tei=nud	d		A	pl n
      	teinu	d		S	pl n
,	,			Z	
aga	aga	0		J	
Mihkel	Mihkel	0		H	sg n
      	mihkel	0		A	sg n
      	mihkel	0		S	sg n
Netse	####				
mitte	mitte	0		D	
raha	raha	0		S	sg g
    	raha	0		S	sg n
    	raha	0		S	sg p
vastu	vastu	0		D	
     	vastu	0		K	
võtnud	võt	nud		V	nud
      	võt=nu	d		S	pl n
      	võt=nud	0		A	
      	võt=nud	0		A	sg n
      	võt=nud	d		A	pl n
.	.			Z	
4.	4.	0		O	?
valla	vald	0		S	sg g
     	valla	0		D	
kohus	kohu	s		V	s
     	kohus	0		S	sg n
arvas	arva	s		V	s
seda	see	da		P	sg p
asja	asi	0		S	adt
    	asi	0		S	sg g
    	asi	0		S	sg p
kohe	kohe	0		A	sg n
    	kohe	0		D	
tühjaks	tühi	ks		A	sg tr
,	,			Z	
kus	kus	0		D	
aga	aga	0		J	
Mihkel	Mihkel	0		H	sg n
      	mihkel	0		A	sg n
      	mihkel	0		S	sg n
Netse	####				
sellega	see	ga		P	sg kom
mitte	mitte	0		D	
rahul	rahu	l		S	sg ad
     	rahul	0		D	
ei	ei	0		D	
  	ei	0		V	neg
olnud	ol=nud	0		A	
     	ol=nud	0		A	sg n
     	ol=nud	d		A	pl n
     	ole	nud		V	nud
     	olnu	d		S	pl n
,	,			Z	
teiseks	teine	ks		O	sg tr
       	teine	ks		P	sg tr
       	teiseks	0		D	
se	####				
asi	asi	0		S	sg n
   	asi	0		V	o
on	ole	0		V	b
  	ole	0		V	vad
ka	ka	0		D	
rohkem	rohkem	0		D	
werth	####				
,	,			Z	
kui	kui	0		D	
   	kui	0		J	
et	et	0		J	
valla	vald	0		S	sg g
     	valla	0		D	
kohus	kohu	s		V	s
     	kohus	0		S	sg n
seda	see	da		P	sg p
võib	või	b		V	b
õiendata	õienda	ta		V	ta
,	,			Z	
selle	see	0		P	sg g
     	sell	e		S	pl p
pärast	pära	st		S	sg el
      	pärane	t		A	sg p
      	pärast	0		D	
      	pärast	0		K	
paluvad	palu	vad		V	vad
       	paluv	d		A	pl n
kõrgemat	kõrgem	t		C	sg p
        	kõrgem	t		S	sg p
St	st	0		I	
.	.			Z	
Peetri	Peeter	0		H	sg g
      	Peetri	0		H	sg g
      	Peetri	0		H	sg n
ja	ja	0		J	
Anna	and	0		V	o
    	Anna	0		H	sg g
    	Anna	0		H	sg n
    	anna	0		S	sg g
    	anna	0		S	sg n
kihelkonna	kihelkond	0		S	sg g
kohust	kohus	t		S	sg p
selle	see	0		P	sg g
     	sell	e		S	pl p
asjale	asi	le		S	sg all
abiks	abi	ks		S	sg tr
olla	ole	a		V	da
.	.			Z	
peavanem	pea_vanem	0		C	sg n
        	pea_vanem	0		S	sg n
J. Kopti	####				
kõrvamees	kõrva_mees	0		S	sg n
W	V	0		O	?
 	V	0		Y	?
 	W	0		Y	?
.	.			Z	
_	_			Z	
Silman	silma	n		V	n
None	####				
A	A	0		Y	?
.	.			Z	
_	_			Z	
Kitsing	####				
P	P	0		Y	?
.	.			Z	
_	_			Z	
Peterson	Peterson	0		H	sg n
Isi	####				
ära	ära	0		D	
   	ära	0		V	neg o
leppinud	leppi	nud		V	nud
        	leppi=nu	d		S	pl n
        	leppi=nud	0		A	
        	leppi=nud	0		A	sg n
        	leppi=nud	d		A	pl n
,	,			Z	
pole	ole	0		V	neg o
mitte	mitte	0		D	
kõrgema	kõrgem	0		C	sg g
       	kõrgem	0		S	sg g
kohtu	kohtu	0		V	o
     	kohus	0		S	sg g
ette	ette	0		D	
    	ette	0		K	
    	esi	tte		S	adt
tulnud	tul=nud	0		A	
      	tul=nud	0		A	sg n
      	tul=nud	d		A	pl n
      	tule	nud		V	nud
      	tulnu	d		S	pl n
.	.			Z	
