protokoll	protokoll	0		S	sg n
sel	see	l		P	sg ad
   	sel	0		Y	?
21mal	####				
märtsil	märts	l		S	sg ad
1873.	1873.	0		O	?
koos	koos	0		D	
    	koos	0		K	
    	koos	0		S	sg n
    	kubu	s		S	sg in
olid	ole	id		V	sid
kohtu	kohtu	0		V	o
     	kohus	0		S	sg g
peavanem	pea_vanem	0		C	sg n
        	pea_vanem	0		S	sg n
Ado	Ado	0		H	sg g
   	Ado	0		H	sg n
Kandelin	####				
Mart	Mart	0		H	sg n
    	mart	0		S	sg n
Epmann	####				
Hans	Hans	0		H	sg n
Saarman	####				
kirjutaja	kirjutaja	0		S	sg g
         	kirjutaja	0		S	sg n
H	H	0		Y	?
.	.			Z	
_	_			Z	
Saarmo	####				
№	№	0		Y	?
6.	6.	0		O	?
kohtu	kohtu	0		V	o
     	kohus	0		S	sg g
ette	ette	0		D	
    	ette	0		K	
    	esi	tte		S	adt
astus	astu	s		V	s
Muskveti	####				
küla	küla	0		S	sg g
    	küla	0		S	sg n
    	küla	0		S	sg p
mees	mees	0		S	sg n
    	mesi	s		S	sg in
Kustav	kus=tav	0		A	sg n
      	kuse	tav		V	tav
Silben	####				
ja	ja	0		J	
kaebas	kaeba	s		V	s
,	,			Z	
et	et	0		J	
tema	tema	0		P	sg g
    	tema	0		P	sg n
on	ole	0		V	b
  	ole	0		V	vad
Kirna	####				
valla	vald	0		S	sg g
     	valla	0		D	
peremees	pere_mees	0		S	sg n
Jaan	Jaan	0		H	sg n
    	jaan	0		S	sg n
    	jaan	0		Y	?
palenbergi	####				
juures	juur	s		S	sg in
      	juures	0		D	
      	juures	0		K	
öömajal	öö_maja	l		S	sg ad
olnud	ol=nud	0		A	
     	ol=nud	0		A	sg n
     	ol=nud	d		A	pl n
     	ole	nud		V	nud
     	olnu	d		S	pl n
ja	ja	0		J	
et	et	0		J	
temal	tema	l		P	sg ad
on	ole	0		V	b
  	ole	0		V	vad
seal	seal	0		D	
    	siga	l		A	sg ad
    	siga	l		S	sg ad
kaks	kaks	0		N	sg n
paari	paar	0		N	adt
     	paar	0		N	sg g
     	paar	0		S	adt
     	paar	0		S	sg g
     	paari	0		D	
     	paari	0		V	o
     	paar	0		N	sg p
     	paar	0		S	sg p
saapaid	saabas	id		S	pl p
ja	ja	0		J	
10	10	0		N	?
naela	nael	0		S	adt
     	nael	0		S	sg g
     	nael	0		S	sg p
sepi	####				
ära	ära	0		D	
   	ära	0		V	neg o
varastatud	varasta	tud		V	tud
          	varastatu	d		S	pl n
          	varastatud	0		A	
          	varastatud	0		A	sg n
          	varastatud	d		A	pl n
ja	ja	0		J	
et	et	0		J	
se	####				
vargus	vargus	0		S	sg n
on	ole	0		V	b
  	ole	0		V	vad
6	6	0		N	?
rubla	rubla	0		S	sg g
     	rubla	0		S	sg n
     	rubla	0		S	sg p
20	20	0		N	?
kopik	####				
väärt	väärt	0		A	
     	väärt	0		D	
olnud	ol=nud	0		A	
     	ol=nud	0		A	sg n
     	ol=nud	d		A	pl n
     	ole	nud		V	nud
     	olnu	d		S	pl n
ja	ja	0		J	
et	et	0		J	
tema	tema	0		P	sg g
    	tema	0		P	sg n
on	ole	0		V	b
  	ole	0		V	vad
ka	ka	0		D	
teise	teine	0		O	adt
     	teine	0		O	sg g
     	teine	0		P	adt
     	teine	0		P	sg g
paari	paar	0		N	adt
     	paar	0		N	sg g
     	paar	0		S	adt
     	paar	0		S	sg g
     	paari	0		D	
     	paari	0		V	o
     	paar	0		N	sg p
     	paar	0		S	sg p
saapaid	saabas	id		S	pl p
peremehe	pere_mees	0		S	sg g
laust	laug	st		S	sg el
kõlgaste	kõlgas	te		S	pl g
seest	seest	0		D	
     	seest	0		K	
üles	üles	0		D	
leidnud	leid	nud		V	nud
       	leid=nu	d		S	pl n
       	leid=nud	0		A	
       	leid=nud	0		A	sg n
       	leid=nud	d		A	pl n
.	.			Z	
Jaan	Jaan	0		H	sg n
    	jaan	0		S	sg n
    	jaan	0		Y	?
palerberg	####				
astus	astu	s		V	s
ette	ette	0		D	
    	ette	0		K	
    	esi	tte		S	adt
ja	ja	0		J	
ütles	ütle	s		V	s
,	,			Z	
et	et	0		J	
tema	tema	0		P	sg g
    	tema	0		P	sg n
neist	see	st		P	pl el
     	tema	st		P	pl el
saapastest	####				
ja	ja	0		J	
seepist	####				
midagist	####				
ei	ei	0		D	
  	ei	0		V	neg
tea	tead	0		V	o
,	,			Z	
ja	ja	0		J	
,	,			Z	
et	et	0		J	
tema	tema	0		P	sg g
    	tema	0		P	sg n
on	ole	0		V	b
  	ole	0		V	vad
kül	####				
oma	oma	0		A	sg g
   	oma	0		D	
   	oma	0		P	sg g
   	oma	0		S	sg g
   	oma	0		V	o
   	oma	0		A	sg n
   	oma	0		A	sg p
   	oma	0		P	sg n
   	oma	0		P	sg p
   	oma	0		S	sg n
   	oma	0		S	sg p
silmaga	silm	ga		S	sg kom
näinud	näi	nud		V	nud
      	näge	nud		V	nud
      	näi=nud	0		A	
      	näi=nud	0		A	sg n
      	näi=nud	d		A	pl n
      	näinu	d		S	pl n
,	,			Z	
kui	kui	0		D	
   	kui	0		J	
Kustas	Kusta	s		H	sg in
      	Kustas	0		H	sg n
Silben	####				
on	ole	0		V	b
  	ole	0		V	vad
teise	teine	0		O	adt
     	teine	0		O	sg g
     	teine	0		P	adt
     	teine	0		P	sg g
paari	paar	0		N	adt
     	paar	0		N	sg g
     	paar	0		S	adt
     	paar	0		S	sg g
     	paari	0		D	
     	paari	0		V	o
     	paar	0		N	sg p
     	paar	0		S	sg p
saapaid	saabas	id		S	pl p
tema	tema	0		P	sg g
    	tema	0		P	sg n
laust	laug	st		S	sg el
üles	üles	0		D	
leidnud	leid	nud		V	nud
       	leid=nu	d		S	pl n
       	leid=nud	0		A	
       	leid=nud	0		A	sg n
       	leid=nud	d		A	pl n
,	,			Z	
aga	aga	0		J	
teisest	teine	st		O	sg el
       	teine	st		P	sg el
       	teisene	t		A	sg p
paarist	paar	st		N	sg el
       	paar	st		S	sg el
saapastest	####				
ei	ei	0		D	
  	ei	0		V	neg
tea	tead	0		V	o
tema	tema	0		P	sg g
    	tema	0		P	sg n
midagist	####				
.	.			Z	
seepärast	see_pärast	0		D	
,	,			Z	
et	et	0		J	
teine	teine	0		O	sg n
     	teine	0		P	sg n
paar	paar	0		N	sg n
    	paar	0		S	sg n
saapaid	saabas	id		S	pl p
peremees	pere_mees	0		S	sg n
Jaan	Jaan	0		H	sg n
    	jaan	0		S	sg n
    	jaan	0		Y	?
palerbergi	####				
laust	laug	st		S	sg el
on	ole	0		V	b
  	ole	0		V	vad
üles	üles	0		D	
leitud	leid	tud		V	tud
      	leitu	d		S	pl n
      	leitud	0		A	
      	leitud	0		A	sg n
      	leitud	d		A	pl n
,	,			Z	
sai	saa	i		V	s
   	sai	0		S	sg n
mõistetud	mõist	tud		V	tud
         	mõiste=tu	d		S	pl n
         	mõiste=tud	0		A	
         	mõiste=tud	0		A	sg n
         	mõiste=tud	d		A	pl n
,	,			Z	
et	et	0		J	
Jaan	Jaan	0		H	sg n
    	jaan	0		S	sg n
    	jaan	0		Y	?
palerberg	####				
peab	pida	b		V	b
3	3	0		N	?
rub	####				
.	.			Z	
50	50	0		N	?
kopik	####				
maksma	maks	ma		V	ma
Kustas	Kusta	s		H	sg in
      	Kustas	0		H	sg n
Silbenile	####				
selle	see	0		P	sg g
     	sell	e		S	pl p
teise	teine	0		O	adt
     	teine	0		O	sg g
     	teine	0		P	adt
     	teine	0		P	sg g
paari	paar	0		N	adt
     	paar	0		N	sg g
     	paar	0		S	adt
     	paar	0		S	sg g
     	paari	0		D	
     	paari	0		V	o
     	paar	0		N	sg p
     	paar	0		S	sg p
saapade	####				
ja	ja	0		J	
seepi	seep	0		S	adt
     	seep	0		S	sg p
eest	eest	0		D	
    	eest	0		K	
    	esi	st		S	sg el
.	.			Z	
see	see	0		P	sg n
mõistmine	mõistmine	0		S	sg n
sai	saa	i		V	s
   	sai	0		S	sg n
kuulutud	kuulu	tud		V	tud
        	kuulu=tu	d		S	pl n
        	kuulu=tud	0		A	
        	kuulu=tud	0		A	sg n
        	kuulu=tud	d		A	pl n
ja	ja	0		J	
olid	ole	id		V	sid
sellega	see	ga		P	sg kom
rahul	rahu	l		S	sg ad
     	rahul	0		D	
,	,			Z	
kaebaja	kaebaja	0		S	sg g
       	kaebaja	0		S	sg n
Kustas	Kusta	s		H	sg in
      	Kustas	0		H	sg n
Silben	####				
,	,			Z	
kui	kui	0		D	
   	kui	0		J	
ka	ka	0		D	
tema	tema	0		P	sg g
    	tema	0		P	sg n
vastane	vastane	0		A	sg n
       	vastane	0		S	sg n
Jaan	Jaan	0		H	sg n
    	jaan	0		S	sg n
    	jaan	0		Y	?
palerberg	####				
,	,			Z	
ja	ja	0		J	
on	ole	0		V	b
  	ole	0		V	vad
ka	ka	0		D	
täidetud	täit	tud		V	tud
        	täide=tu	d		S	pl n
        	täide=tud	0		A	
        	täide=tud	0		A	sg n
        	täide=tud	d		A	pl n
.	.			Z	
Ado	Ado	0		H	sg g
   	Ado	0		H	sg n
Kandelin	####				
XXX	XXX	0		O	?
   	XXX	0		Y	?
Mart	Mart	0		H	sg n
    	mart	0		S	sg n
Epmann	####				
XXX	XXX	0		O	?
   	XXX	0		Y	?
Hans	Hans	0		H	sg n
Saarmann	saar_mann	0		S	sg n
XXX	XXX	0		O	?
   	XXX	0		Y	?
tunnistuseks	tunnistus	ks		S	sg tr
kirjutaja	kirjutaja	0		S	sg g
         	kirjutaja	0		S	sg n
H	H	0		Y	?
.	.			Z	
_	_			Z	
Saarmo	####				
/	/			Z	
allkiri	all_kiri	0		S	sg n
/	/			Z	
