sel	see	l		P	sg ad
   	sel	0		Y	?
11ndal	11=s	l		O	sg ad
märtsil	märts	l		S	sg ad
1874	1874	0		N	?
Päärn	####				
Korjus	korju	s		V	s
      	kori	s		S	sg in
      	korju	s		S	sg in
      	korjus	0		S	sg n
andis	and	is		V	s
üles	üles	0		D	
et	et	0		J	
Anu	Anu	0		H	sg g
   	anu	0		V	o
   	Anu	0		H	sg n
käsper	####				
Purtist	####				
olla	ole	a		V	da
tema	tema	0		P	sg g
    	tema	0		P	sg n
tütart	tütar	t		S	sg p
Anni	Ann	0		H	adt
    	Ann	0		H	sg g
    	Ann	0		H	sg p
    	and	0		S	sg g
    	Anni	0		H	sg g
    	Anni	0		H	sg n
Korjust	kori	st		S	sg el
       	korju	st		S	sg el
       	korjus	t		S	sg p
paia	####				
aluse	alune	0		A	sg g
     	alune	0		S	sg g
     	alus	0		S	sg g
puualuga	####				
parema	parem	0		C	sg g
käe	käsi	0		S	sg g
õla	õlg	0		S	sg g
peale	pea	le		S	sg all
     	peale	0		D	
     	peale	0		K	
löönud	löö	nud		V	nud
      	löö=nu	d		S	pl n
      	löö=nud	0		A	
      	löö=nud	0		A	sg n
      	löö=nud	d		A	pl n
,	,			Z	
nõnda	nõnda	0		D	
et	et	0		J	
laps	laps	0		S	sg n
vigaseks	vigane	ks		A	sg tr
        	vigane	ks		S	sg tr
ja	ja	0		J	
pealegi	pealegi	0		D	
saaniteks	####				
on	ole	0		V	b
  	ole	0		V	vad
jäänud	jää	nud		V	nud
      	jäänu	d		S	pl n
      	jäänud	0		A	
      	jäänud	0		A	sg n
      	jäänud	d		A	pl n
.	.			Z	
I	I	0		O	?
 	I	0		Y	?
 	j	0		Y	?
,	,			Z	
tunnistas	tunnista	s		V	s
An	####				
Seppahanso	####				
seda	see	da		P	sg p
löömist	löömine	t		S	sg p
pealt	pea	lt		S	sg abl
     	pealt	0		D	
     	pealt	0		K	
näinud	näi	nud		V	nud
      	näge	nud		V	nud
      	näi=nud	0		A	
      	näi=nud	0		A	sg n
      	näi=nud	d		A	pl n
      	näinu	d		S	pl n
.	.			Z	
II	II	0		O	?
  	II	0		Y	?
  	jj	0		Y	?
,	,			Z	
tunnistas	tunnista	s		V	s
Ann	Ann	0		H	sg n
Kask	kask	0		S	sg n
ka	ka	0		D	
seda	see	da		P	sg p
sama	sama	0		P	sg g
    	sama	0		P	sg n
    	sama	0		P	sg p
.	.			Z	
III	III	0		O	?
   	III	0		Y	?
,	,			Z	
tunnistas	tunnista	s		V	s
Triinu	Triin	0		H	adt
      	Triin	0		H	sg g
      	Triin	0		H	sg p
      	Triinu	0		H	sg g
      	Triinu	0		H	sg n
Nimann	####				
ka	ka	0		D	
seda	see	da		P	sg p
sama	sama	0		P	sg g
    	sama	0		P	sg n
    	sama	0		P	sg p
.	.			Z	
IV	IV	0		O	?
  	IV	0		Y	?
,	,			Z	
tunnistas	tunnista	s		V	s
Anu	Anu	0		H	sg g
   	anu	0		V	o
   	Anu	0		H	sg n
käsper	####				
,	,			Z	
et	et	0		J	
ta	tema	0		P	sg g
  	tema	0		P	sg n
on	ole	0		V	b
  	ole	0		V	vad
seda	see	da		P	sg p
teinud	tege	nud		V	nud
      	tei=nud	0		A	
      	tei=nud	0		A	sg n
      	tei=nud	d		A	pl n
      	teinu	d		S	pl n
V	V	0		O	?
 	V	0		Y	?
,	,			Z	
on	ole	0		V	b
  	ole	0		V	vad
ka	ka	0		D	
se	####				
lööma	löö	ma		V	ma
     	lööm	0		S	adt
     	lööm	0		S	sg g
     	lööm	0		S	sg p
puu	puu	0		S	sg g
   	puu	0		S	sg n
ja	ja	0		J	
pusees	####				
üks	üks	0		N	sg n
   	üks	0		P	sg n
oks	oks	0		S	sg n
ja	ja	0		J	
lapse	laps	0		S	sg g
õla	õlg	0		S	sg g
sees	sees	0		D	
    	sees	0		K	
se	####				
oksa	oks	0		S	adt
    	oks	0		S	sg g
    	oks	0		S	sg p
haav	haav	0		S	sg n
pea	pea	0		D	
   	pea	0		S	sg g
   	pida	0		V	o
   	pea	0		S	sg n
kohtu	kohtu	0		V	o
     	kohus	0		S	sg g
mehest	mees	st		S	sg el
üle	üle	0		D	
   	üle	0		K	
saanud	saa	nud		V	nud
      	saa=nud	0		A	
      	saa=nud	0		A	sg n
      	saa=nud	d		A	pl n
      	saanu	d		S	pl n
vaadatud	vaata	tud		V	tud
        	vaada=tu	d		S	pl n
        	vaadatud	0		A	
        	vaadatud	0		A	sg n
        	vaadatud	d		A	pl n
.	.			Z	
kohtu	kohtu	0		V	o
     	kohus	0		S	sg g
otsus	otsus	0		S	sg n
on	ole	0		V	b
  	ole	0		V	vad
se	####				
:	:			Z	
et	et	0		J	
se	####				
asi	asi	0		S	sg n
   	asi	0		V	o
suurem	suurem	0		C	sg n
on	ole	0		V	b
  	ole	0		V	vad
kui	kui	0		D	
   	kui	0		J	
valla	vald	0		S	sg g
     	valla	0		D	
kohtul	kohus	l		S	sg ad
võimalik	võimalik	0		A	sg n
on	ole	0		V	b
  	ole	0		V	vad
toimetada	toimeta	da		V	da
ja	ja	0		J	
et	et	0		J	
sa	sina	0		P	sg n
ka	ka	0		D	
tema	tema	0		P	sg g
    	tema	0		P	sg n
endist	endine	t		A	sg p
      	ise	st		P	pl el
tervist	tervis	t		S	sg p
       	tervist	0		I	
koguniste	####				
tagasi	tagasi	0		D	
      	tagasi	0		K	
ei	ei	0		D	
  	ei	0		V	neg
to	####				
,	,			Z	
ja	ja	0		J	
pealegi	pealegi	0		D	
,	,			Z	
et	et	0		J	
Päärn	####				
Korjus	korju	s		V	s
      	kori	s		S	sg in
      	korju	s		S	sg in
      	korjus	0		S	sg n
pole	ole	0		V	neg o
sugugi	sugugi	0		D	
valla	vald	0		S	sg g
     	valla	0		D	
kohtu	kohtu	0		V	o
     	kohus	0		S	sg g
mõistusega	mõistus	ga		S	sg kom
rahul	rahu	l		S	sg ad
     	rahul	0		D	
vaid	vaid	0		D	
    	vaid	0		J	
nõuad	nõud	d		V	d
Hagendrihteri	####				
kohut	kohus	t		S	sg p
.	.			Z	
koos	koos	0		D	
    	koos	0		K	
    	koos	0		S	sg n
    	kubu	s		S	sg in
olid	ole	id		V	sid
kohtu	kohtu	0		V	o
     	kohus	0		S	sg g
peavnem	####				
Juhan	Juhan	0		H	sg n
Lillepuut	####				
abimeh	####				
:	:			Z	
Kaarel	Kaarel	0		H	sg n
      	kaar	l		S	sg ad
      	kaarel	0		S	sg n
võõrmünd	####				
Ado	Ado	0		H	sg g
   	Ado	0		H	sg n
sadam	sadam	0		S	sg n
