72	72	0		N	?
)	)			Z	
Koli	koli	0		S	sg g
    	koli	0		V	o
    	koli	0		S	sg n
    	koli	0		S	sg p
.	.			Z	
sPärtel	####				
Tannil	####				
tunnistas	tunnista	s		V	s
mina	mina	0		P	sg n
    	mina	0		S	sg g
    	mina	0		S	sg n
    	mina	0		S	sg p
ise	ise	0		A	
   	ise	0		D	
   	ise	0		P	pl n
   	ise	0		P	sg n
tegin	tege	in		V	sin
ta	tema	0		P	sg g
  	tema	0		P	sg n
ja	ja	0		J	
lata	####				
ja	ja	0		J	
on	ole	0		V	b
  	ole	0		V	vad
minu	mina	0		P	sg g
.	.			Z	
Pärtel	Pärtel	0		H	sg n
Tannil	####				
+	+			Z	
+	+			Z	
+	+			Z	
peavanem	pea_vanem	0		C	sg n
        	pea_vanem	0		S	sg n
Hindrek	####				
käerdi	####				
XXX	XXX	0		O	?
   	XXX	0		Y	?
abimehed	abi_mees	d		S	pl n
Mart	Mart	0		H	sg n
    	mart	0		S	sg n
Hinu	####				
XXX	XXX	0		O	?
   	XXX	0		Y	?
ja	ja	0		J	
Hindrek	####				
Vainu	vainu	0		S	sg g
     	vainu	0		S	sg n
XXX	XXX	0		O	?
   	XXX	0		Y	?
kirjutaja	kirjutaja	0		S	sg g
         	kirjutaja	0		S	sg n
Mart	Mart	0		H	sg n
    	mart	0		S	sg n
Arak	####				
