№	№	0		Y	?
23	23	0		N	?
protokoll	protokoll	0		S	sg n
sell	sell	0		S	sg n
1sel	####				
Augustil	august	l		S	sg ad
        	August	l		H	sg ad
1884.	1884.	0		O	?
koos	koos	0		D	
    	koos	0		K	
    	koos	0		S	sg n
    	kubu	s		S	sg in
olid	ole	id		V	sid
kohtu	kohtu	0		V	o
     	kohus	0		S	sg g
peavanem	pea_vanem	0		C	sg n
        	pea_vanem	0		S	sg n
:	:			Z	
Jaan	Jaan	0		H	sg n
    	jaan	0		S	sg n
    	jaan	0		Y	?
reemann	ree_mann	0		S	sg n
Mart	Mart	0		H	sg n
    	mart	0		S	sg n
Sopp	sopp	0		S	sg n
Mihkel	Mihkel	0		H	sg n
      	mihkel	0		A	sg n
      	mihkel	0		S	sg n
Ellmann	####				
kirjutaja	kirjutaja	0		S	sg g
         	kirjutaja	0		S	sg n
H	H	0		Y	?
.	.			Z	
_	_			Z	
Saarmu	####				
kohtu	kohtu	0		V	o
     	kohus	0		S	sg g
laua	laud	0		S	sg g
ette	ette	0		D	
    	ette	0		K	
    	esi	tte		S	adt
astus	astu	s		V	s
mõisa	mõis	0		S	sg g
karjunaine	####				
Liisa	Liisa	0		H	sg g
     	Liisa	0		H	sg n
Viitmann	viit_mann	0		S	sg n
ja	ja	0		J	
kaebas	kaeba	s		V	s
,	,			Z	
et	et	0		J	
mõisa	mõis	0		S	sg g
aidame	####				
naine	naine	0		S	sg n
Mari	Mari	0		H	sg g
    	mari	0		S	sg g
    	mari	0		S	sg n
    	Mari	0		H	sg n
    	mari	0		S	sg p
Raudmets	raud_mets	0		S	sg n
olla	ole	a		V	da
teda	tema	da		P	sg p
mõisa	mõis	0		S	sg g
karja	kari	0		S	adt
     	kari	0		S	sg g
     	kari	0		S	sg p
lautas	####				
pikali	pikali	0		D	
maha	maha	0		D	
tõmmanud	tõmba	nud		V	nud
        	tõmma=nu	d		S	pl n
        	tõmma=nud	0		A	
        	tõmma=nud	0		A	sg n
        	tõmma=nud	d		A	pl n
ja	ja	0		J	
teda	tema	da		P	sg p
seal	seal	0		D	
    	siga	l		A	sg ad
    	siga	l		S	sg ad
muljunud	mulju	nud		V	nud
        	mulju=nu	d		S	pl n
        	mulju=nud	0		A	
        	mulju=nud	0		A	sg n
        	mulju=nud	d		A	pl n
ja	ja	0		J	
sitaseks	sitane	ks		A	sg tr
teinud	tege	nud		V	nud
      	tei=nud	0		A	
      	tei=nud	0		A	sg n
      	tei=nud	d		A	pl n
      	teinu	d		S	pl n
.	.			Z	
Mari	Mari	0		H	sg g
    	mari	0		S	sg g
    	mari	0		S	sg n
    	Mari	0		H	sg n
    	mari	0		S	sg p
Raudmets	raud_mets	0		S	sg n
astus	astu	s		V	s
ette	ette	0		D	
    	ette	0		K	
    	esi	tte		S	adt
ja	ja	0		J	
ei	ei	0		D	
  	ei	0		V	neg
salanud	salga	nud		V	nud
       	sala=nu	d		S	pl n
       	sala=nud	0		A	
       	sala=nud	0		A	sg n
       	sala=nud	d		A	pl n
seda	see	da		P	sg p
mitte	mitte	0		D	
ära	ära	0		D	
   	ära	0		V	neg o
,	,			Z	
vaid	vaid	0		D	
    	vaid	0		J	
ütles	ütle	s		V	s
:	:			Z	
et	et	0		J	
tema	tema	0		P	sg g
    	tema	0		P	sg n
olla	ole	a		V	da
Liisass	####				
seepärast	see_pärast	0		D	
kiskunud	kisku	nud		V	nud
        	kisku=nu	d		S	pl n
        	kisku=nud	0		A	
        	kisku=nud	0		A	sg n
        	kisku=nud	d		A	pl n
ja	ja	0		J	
maha	maha	0		D	
viskanud	####				
et	et	0		J	
Liisa	Liisa	0		H	sg g
     	Liisa	0		H	sg n
olla	ole	a		V	da
mõisa	mõis	0		S	sg g
peremamiseli	####				
vastu	vastu	0		D	
     	vastu	0		K	
rääkinud	rääki	nud		V	nud
        	rääki=nu	d		S	pl n
        	rääki=nud	0		A	
        	rääki=nud	0		A	sg n
        	rääki=nud	d		A	pl n
,	,			Z	
et	et	0		J	
tema	tema	0		P	sg g
    	tema	0		P	sg n
olla	ole	a		V	da
mõisa	mõis	0		S	sg g
piima	piim	0		S	adt
     	piim	0		S	sg g
     	piim	0		S	sg p
varastanud	varasta	nud		V	nud
          	varasta=nu	d		S	pl n
          	varasta=nud	0		A	
          	varasta=nud	0		A	sg n
          	varasta=nud	d		A	pl n
ja	ja	0		J	
olla	ole	a		V	da
ka	ka	0		D	
temale	tema	le		P	sg all
ropu	ropp	0		A	sg g
sõna	sõna	0		S	sg g
    	sõna	0		V	o
    	sõna	0		S	sg n
    	sõna	0		S	sg p
ütelnud	ütle	nud		V	nud
       	ütel=nu	d		S	pl n
       	ütel=nud	0		A	
       	ütel=nud	0		A	sg n
       	ütel=nud	d		A	pl n
.	.			Z	
Liisa	Liisa	0		H	sg g
     	Liisa	0		H	sg n
Viitmann	viit_mann	0		S	sg n
astus	astu	s		V	s
veel	veel	0		D	
    	vesi	l		S	sg ad
ette	ette	0		D	
    	ette	0		K	
    	esi	tte		S	adt
ja	ja	0		J	
ütles	ütle	s		V	s
et	et	0		J	
tema	tema	0		P	sg g
    	tema	0		P	sg n
olla	ole	a		V	da
mitto	####				
korda	kord	0		S	adt
     	korda	0		V	o
     	kord	0		S	sg p
näinud	näi	nud		V	nud
      	näge	nud		V	nud
      	näi=nud	0		A	
      	näi=nud	0		A	sg n
      	näi=nud	d		A	pl n
      	näinu	d		S	pl n
,	,			Z	
kui	kui	0		D	
   	kui	0		J	
mõisa	mõis	0		S	sg g
karjapois	karja_poi	s		S	sg in
Toomas	Toomas	0		H	sg n
      	Toomas	s		H	sg in
      	too	mas		V	mas
Saarmo	####				
olla	ole	a		V	da
mõisa	mõis	0		S	sg g
piima	piim	0		S	adt
     	piim	0		S	sg g
     	piim	0		S	sg p
lüpsmise	lüpsmine	0		S	sg g
aegu	aeg	u		S	pl p
    	aegu	0		K	
    	aegu	0		V	o
Mari	Mari	0		H	sg g
    	mari	0		S	sg g
    	mari	0		S	sg n
    	Mari	0		H	sg n
    	mari	0		S	sg p
Raudmetsa	raud_mets	0		S	adt
         	raud_mets	0		S	sg g
         	raud_mets	0		S	sg p
lüpsikuse	####				
kaldanud	####				
ja	ja	0		J	
et	et	0		J	
tema	tema	0		P	sg g
    	tema	0		P	sg n
olla	ole	a		V	da
seda	see	da		P	sg p
peremamselile	####				
rääkinud	rääki	nud		V	nud
        	rääki=nu	d		S	pl n
        	rääki=nud	0		A	
        	rääki=nud	0		A	sg n
        	rääki=nud	d		A	pl n
ja	ja	0		J	
käskinud	käski	nud		V	nud
        	käski=nu	d		S	pl n
        	käski=nud	0		A	
        	käski=nud	0		A	sg n
        	käski=nud	d		A	pl n
teda	tema	da		P	sg p
järele	järele	0		D	
      	järele	0		K	
passida	passi	da		V	da
.	.			Z	
mõisa	mõis	0		S	sg g
peremamsel	pere_mamsel	0		S	sg n
A	A	0		Y	?
.	.			Z	
_	_			Z	
Lumägi	####				
astus	astu	s		V	s
ette	ette	0		D	
    	ette	0		K	
    	esi	tte		S	adt
ja	ja	0		J	
ütles	ütle	s		V	s
:	:			Z	
et	et	0		J	
tema	tema	0		P	sg g
    	tema	0		P	sg n
olla	ole	a		V	da
Liisa	Liisa	0		H	sg g
     	Liisa	0		H	sg n
Viitmann'i	####				
ütlemise	ütlemine	0		S	sg g
peale	pea	le		S	sg all
     	peale	0		D	
     	peale	0		K	
M	M	0		O	?
 	M	0		Y	?
.	.			Z	
_	_			Z	
Raudmetsa	raud_mets	0		S	adt
         	raud_mets	0		S	sg g
         	raud_mets	0		S	sg p
järele	järele	0		D	
      	järele	0		K	
passinud	passi	nud		V	nud
        	passi=nu	d		S	pl n
        	passi=nud	0		A	
        	passi=nud	0		A	sg n
        	passi=nud	d		A	pl n
ja	ja	0		J	
olla	ole	a		V	da
näinud	näi	nud		V	nud
      	näge	nud		V	nud
      	näi=nud	0		A	
      	näi=nud	0		A	sg n
      	näi=nud	d		A	pl n
      	näinu	d		S	pl n
,	,			Z	
kui	kui	0		D	
   	kui	0		J	
Mari	Mari	0		H	sg g
    	mari	0		S	sg g
    	mari	0		S	sg n
    	Mari	0		H	sg n
    	mari	0		S	sg p
olla	ole	a		V	da
oma	oma	0		A	sg g
   	oma	0		D	
   	oma	0		P	sg g
   	oma	0		S	sg g
   	oma	0		V	o
   	oma	0		A	sg n
   	oma	0		A	sg p
   	oma	0		P	sg n
   	oma	0		P	sg p
   	oma	0		S	sg n
   	oma	0		S	sg p
piima	piim	0		S	adt
     	piim	0		S	sg g
     	piim	0		S	sg p
lüpsiku	lüpsik	0		S	sg g
karja	kari	0		S	adt
     	kari	0		S	sg g
     	kari	0		S	sg p
poisi	poiss	0		S	sg g
T	T	0		Y	?
.	.			Z	
_	_			Z	
Saarmo	####				
juure	juur	0		S	sg g
pannud	pan=nu	d		S	pl n
      	pan=nud	0		A	
      	pan=nud	0		A	sg n
      	pan=nud	d		A	pl n
      	pane	nud		V	nud
,	,			Z	
et	et	0		J	
Toomas	Toomas	0		H	sg n
      	Toomas	s		H	sg in
      	too	mas		V	mas
pidanud	pida	nud		V	nud
       	pida=nu	d		S	pl n
       	pida=nud	0		A	
       	pida=nud	0		A	sg n
       	pida=nud	d		A	pl n
piima	piim	0		S	adt
     	piim	0		S	sg g
     	piim	0		S	sg p
tema	tema	0		P	sg g
    	tema	0		P	sg n
lüpsikuse	####				
kallama	kalla	ma		V	ma
,	,			Z	
aga	aga	0		J	
olla	ole	a		V	da
teda	tema	da		P	sg p
näinud	näi	nud		V	nud
      	näge	nud		V	nud
      	näi=nud	0		A	
      	näi=nud	0		A	sg n
      	näi=nud	d		A	pl n
      	näinu	d		S	pl n
ja	ja	0		J	
ei	ei	0		D	
  	ei	0		V	neg
ole	ole	0		V	o
siis	siis	0		D	
    	siis	0		J	
mitte	mitte	0		D	
enam	enam	0		C	sg n
    	enam	0		D	
piima	piim	0		S	adt
     	piim	0		S	sg g
     	piim	0		S	sg p
kaldanud	####				
.	.			Z	
Mari	Mari	0		H	sg g
    	mari	0		S	sg g
    	mari	0		S	sg n
    	Mari	0		H	sg n
    	mari	0		S	sg p
Raudmets	raud_mets	0		S	sg n
astus	astu	s		V	s
veel	veel	0		D	
    	vesi	l		S	sg ad
ette	ette	0		D	
    	ette	0		K	
    	esi	tte		S	adt
ja	ja	0		J	
ütles	ütle	s		V	s
:	:			Z	
et	et	0		J	
tema	tema	0		P	sg g
    	tema	0		P	sg n
ei	ei	0		D	
  	ei	0		V	neg
ole	ole	0		V	o
mitte	mitte	0		D	
seda	see	da		P	sg p
teinud	tege	nud		V	nud
      	tei=nud	0		A	
      	tei=nud	0		A	sg n
      	tei=nud	d		A	pl n
      	teinu	d		S	pl n
,	,			Z	
ega	ega	0		D	
   	ega	0		J	
ole	ole	0		V	o
ka	ka	0		D	
mitte	mitte	0		D	
mõisa	mõis	0		S	sg g
piima	piim	0		S	adt
     	piim	0		S	sg g
     	piim	0		S	sg p
varastanud	varasta	nud		V	nud
          	varasta=nu	d		S	pl n
          	varasta=nud	0		A	
          	varasta=nud	0		A	sg n
          	varasta=nud	d		A	pl n
.	.			Z	
mõistetud	mõist	tud		V	tud
         	mõiste=tu	d		S	pl n
         	mõiste=tud	0		A	
         	mõiste=tud	0		A	sg n
         	mõiste=tud	d		A	pl n
sai	saa	i		V	s
   	sai	0		S	sg n
et	et	0		J	
selle	see	0		P	sg g
     	sell	e		S	pl p
piima	piim	0		S	adt
     	piim	0		S	sg g
     	piim	0		S	sg p
varguse	vargus	0		S	sg g
poolest	pool	st		N	sg el
       	pool	st		S	sg el
       	poolene	t		A	sg p
       	poolest	0		K	
peab	pida	b		V	b
Liisa	Liisa	0		H	sg g
     	Liisa	0		H	sg n
Viitmanni	viit_mann	0		S	adt
         	viit_mann	0		S	sg g
         	viit_mann	0		S	sg p
kaebus	kaebus	0		S	sg n
tühjaks	tühi	ks		A	sg tr
arvatud	arva	tud		V	tud
       	arva=tu	d		S	pl n
       	arva=tud	0		A	
       	arva=tud	0		A	sg n
       	arva=tud	d		A	pl n
,	,			Z	
seepärast	see_pärast	0		D	
,	,			Z	
et	et	0		J	
selle	see	0		P	sg g
     	sell	e		S	pl p
üle	üle	0		D	
   	üle	0		K	
mitte	mitte	0		D	
selget	selge	t		A	sg p
tunnistust	tunnistus	t		S	sg p
ei	ei	0		D	
  	ei	0		V	neg
ole	ole	0		V	o
,	,			Z	
aga	aga	0		J	
selle	see	0		P	sg g
     	sell	e		S	pl p
kiskumise	kiskumine	0		S	sg g
pärast	pära	st		S	sg el
      	pärane	t		A	sg p
      	pärast	0		D	
      	pärast	0		K	
peab	pida	b		V	b
Mari	Mari	0		H	sg g
    	mari	0		S	sg g
    	mari	0		S	sg n
    	Mari	0		H	sg n
    	mari	0		S	sg p
Raudmets	raud_mets	0		S	sg n
50	50	0		N	?
kop	kop	0		Y	?
.	.			Z	
valla	vald	0		S	sg g
     	valla	0		D	
laekasse	laegas	sse		S	sg ill
trahvi	trahv	0		S	adt
      	trahv	0		S	sg g
      	trahvi	0		V	o
      	trahv	0		S	sg p
maksma	maks	ma		V	ma
.	.			Z	
see	see	0		P	sg n
mõistmine	mõistmine	0		S	sg n
sai	saa	i		V	s
   	sai	0		S	sg n
kuulutud	kuulu	tud		V	tud
        	kuulu=tu	d		S	pl n
        	kuulu=tud	0		A	
        	kuulu=tud	0		A	sg n
        	kuulu=tud	d		A	pl n
ja	ja	0		J	
olid	ole	id		V	sid
sellega	see	ga		P	sg kom
rahul	rahu	l		S	sg ad
     	rahul	0		D	
kaebaja	kaebaja	0		S	sg g
       	kaebaja	0		S	sg n
Liisa	Liisa	0		H	sg g
     	Liisa	0		H	sg n
Viitmann	viit_mann	0		S	sg n
ja	ja	0		J	
ka	ka	0		D	
tema	tema	0		P	sg g
    	tema	0		P	sg n
vastane	vastane	0		A	sg n
       	vastane	0		S	sg n
Mari	Mari	0		H	sg g
    	mari	0		S	sg g
    	mari	0		S	sg n
    	Mari	0		H	sg n
    	mari	0		S	sg p
Raudmets	raud_mets	0		S	sg n
.	.			Z	
(	(			Z	
on	ole	0		V	b
  	ole	0		V	vad
käe	käsi	0		S	sg g
täidetud	täit	tud		V	tud
        	täide=tu	d		S	pl n
        	täide=tud	0		A	
        	täide=tud	0		A	sg n
        	täide=tud	d		A	pl n
.	.			Z	
)	)			Z	
50.	50.	0		O	?
valla	vald	0		S	sg g
     	valla	0		D	
laekasse	laegas	sse		S	sg ill
.	.			Z	
Kirna	####				
valla	vald	0		S	sg g
     	valla	0		D	
kogukonna	kogukond	0		S	sg g
kohtu	kohtu	0		V	o
     	kohus	0		S	sg g
nimel	nimel	0		K	
     	nimi	l		S	sg ad
:	:			Z	
päevanem	####				
:	:			Z	
Jaan	Jaan	0		H	sg n
    	jaan	0		S	sg n
    	jaan	0		Y	?
reemann	ree_mann	0		S	sg n
/	/			Z	
allkiri	all_kiri	0		S	sg n
/	/			Z	
Mart	Mart	0		H	sg n
    	mart	0		S	sg n
Sopp	sopp	0		S	sg n
/	/			Z	
allkiri	all_kiri	0		S	sg n
/	/			Z	
Mihkel	Mihkel	0		H	sg n
      	mihkel	0		A	sg n
      	mihkel	0		S	sg n
Ellmann	####				
kirja	kirja	0		A	
     	kirja	0		V	o
     	kiri	0		S	adt
     	kiri	0		S	sg g
     	kiri	0		S	sg p
tunnistuseks	tunnistus	ks		S	sg tr
kirjutaja	kirjutaja	0		S	sg g
         	kirjutaja	0		S	sg n
:	:			Z	
H	H	0		Y	?
.	.			Z	
_	_			Z	
Saarmo	####				
/	/			Z	
allkiri	all_kiri	0		S	sg n
/	/			Z	
