43	43	0		N	?
)	)			Z	
Kirikumäe	kiriku_mägi	0		S	sg g
Ado	Ado	0		H	sg g
   	Ado	0		H	sg n
Rebas	reba	s		S	sg in
tunnistas	tunnista	s		V	s
,	,			Z	
mina	mina	0		P	sg n
    	mina	0		S	sg g
    	mina	0		S	sg n
    	mina	0		S	sg p
ise	ise	0		A	
   	ise	0		D	
   	ise	0		P	pl n
   	ise	0		P	sg n
tegin	tege	in		V	sin
ta	tema	0		P	sg g
  	tema	0		P	sg n
ja	ja	0		J	
aita	ait	0		S	adt
    	aita	0		V	o
    	ait	0		S	sg p
ja	ja	0		J	
lata	####				
ja	ja	0		J	
on	ole	0		V	b
  	ole	0		V	vad
minu	mina	0		P	sg g
.	.			Z	
Ado	Ado	0		H	sg g
   	Ado	0		H	sg n
Rebas	reba	s		S	sg in
+	+			Z	
+	+			Z	
+	+			Z	
