Ilmusivad	####				
Alliku	Allik	0		H	sg g
valla	vald	0		S	sg g
     	valla	0		D	
kohtusse	kohtune	se		A	adt
        	kohus	sse		S	sg ill
Alliku	Allik	0		H	sg g
valla	vald	0		S	sg g
     	valla	0		D	
liige	liige	0		S	sg n
Jaan	Jaan	0		H	sg n
    	jaan	0		S	sg n
    	jaan	0		Y	?
Hansu	Hans	0		H	adt
     	Hans	0		H	sg g
     	Hans	0		H	sg p
poeg	poeg	0		S	sg n
kõige	kõik	0		P	sg g
     	kõige	0		D	
ja	ja	0		J	
Serevere	####				
valla	vald	0		S	sg g
     	valla	0		D	
liige	liige	0		S	sg n
Juhan	Juhan	0		H	sg n
Jaani	Jaan	0		H	adt
     	Jaan	0		H	sg g
     	Jaani	0		H	sg g
     	jaan	0		S	adt
     	jaan	0		S	sg g
     	Jaan	0		H	sg p
     	Jaani	0		H	sg n
     	jaan	0		S	sg p
p	p	0		Y	?
kõige	kõik	0		P	sg g
     	kõige	0		D	
ja	ja	0		J	
palusivad	####				
järgmist	järgmine	t		A	sg p
lepingud	leping	d		S	pl n
kohtu	kohtu	0		V	o
     	kohus	0		S	sg g
akti	akt	0		S	adt
    	akt	0		S	sg g
    	akt	0		S	sg p
raamatuse	raa_matus	0		S	sg g
sisse	siss	e		S	pl p
     	sisse	0		D	
     	sisse	0		K	
kirjutada	kirjuta	da		V	da
:	:			Z	
Jaan	Jaan	0		H	sg n
    	jaan	0		S	sg n
    	jaan	0		Y	?
Hansu	Hans	0		H	adt
     	Hans	0		H	sg g
     	Hans	0		H	sg p
p	p	0		Y	?
kõige	kõik	0		P	sg g
     	kõige	0		D	
lubab	luba	b		V	b
oma	oma	0		A	sg g
   	oma	0		D	
   	oma	0		P	sg g
   	oma	0		S	sg g
   	oma	0		V	o
   	oma	0		A	sg n
   	oma	0		A	sg p
   	oma	0		P	sg n
   	oma	0		P	sg p
   	oma	0		S	sg n
   	oma	0		S	sg p
raha	raha	0		S	sg g
    	raha	0		S	sg n
    	raha	0		S	sg p
ükssada	üks_sada	0		N	sg n
rubla	rubla	0		S	sg g
     	rubla	0		S	sg n
     	rubla	0		S	sg p
ühes	üks	s		N	sg in
    	üks	s		P	sg in
    	ühes	0		D	
    	ühes	0		K	
4%	4%	0		N	?
1880	1880	0		N	?
a	a	0		Y	?
arvates	arva	tes		V	des
mis	mis	0		P	pl n
   	mis	0		P	sg n
Tallinna	Tallinn	0		H	adt
        	Tallinn	0		H	sg g
        	tallinna	0		G	
        	Tallinn	0		H	sg p
Kredikasas	####				
hoiuraamatu	hoiu_raamat	0		S	sg g
peale	pea	le		S	sg all
     	peale	0		D	
     	peale	0		K	
on	ole	0		V	b
  	ole	0		V	vad
sisse	siss	e		S	pl p
     	sisse	0		D	
     	sisse	0		K	
makstud	maks	tud		V	tud
       	maks=tu	d		S	pl n
       	maks=tud	0		A	
       	maks=tud	0		A	sg n
       	maks=tud	d		A	pl n
oma	oma	0		A	sg g
   	oma	0		D	
   	oma	0		P	sg g
   	oma	0		S	sg g
   	oma	0		V	o
   	oma	0		A	sg n
   	oma	0		A	sg p
   	oma	0		P	sg n
   	oma	0		P	sg p
   	oma	0		S	sg n
   	oma	0		S	sg p
poja	poeg	0		S	sg g
    	poja	0		S	sg g
    	poja	0		S	sg n
    	poja	0		S	sg p
Juhan	Juhan	0		H	sg n
Jaani	Jaan	0		H	adt
     	Jaan	0		H	sg g
     	Jaani	0		H	sg g
     	jaan	0		S	adt
     	jaan	0		S	sg g
     	Jaan	0		H	sg p
     	Jaani	0		H	sg n
     	jaan	0		S	sg p
p	p	0		Y	?
.	.			Z	
kõigole	####				
maja	maja	0		S	sg g
    	maja	0		S	sg n
    	maja	0		S	sg p
ehitamiseks	ehitamine	ks		S	sg tr
selle	see	0		P	sg g
     	sell	e		S	pl p
tingimisega	tingimine	ga		S	sg kom
et	et	0		J	
Juhan	Juhan	0		H	sg n
kõige	kõik	0		P	sg g
     	kõige	0		D	
peab	pida	b		V	b
teda	tema	da		P	sg p
ja	ja	0		J	
tema	tema	0		P	sg g
    	tema	0		P	sg n
naist	naine	t		S	sg p
kase	kask	0		S	sg g
surmani	surm	ni		S	sg ter
selles	see	s		P	sg in
majas	maja	s		S	sg in
ilma	ilm	0		S	adt
    	ilm	0		S	sg g
    	ilma	0		D	
    	ilma	0		K	
    	ilm	0		S	sg p
üürida	üüri	da		V	da
pidama	pida	ma		V	ma
ja	ja	0		J	
kui	kui	0		D	
   	kui	0		J	
seda	see	da		P	sg p
maja	maja	0		S	sg g
    	maja	0		S	sg n
    	maja	0		S	sg p
müüja	müüja	0		S	sg g
     	müüja	0		S	sg n
tahab	taht	b		V	b
peab	pida	b		V	b
seda	see	da		P	sg p
saadud	saa	dud		V	tud
      	saadu	d		S	pl n
      	saadud	0		A	
      	saadud	0		A	sg n
      	saadud	d		A	pl n
raha	raha	0		S	sg g
    	raha	0		S	sg n
    	raha	0		S	sg p
oma	oma	0		A	sg g
   	oma	0		D	
   	oma	0		P	sg g
   	oma	0		S	sg g
   	oma	0		V	o
   	oma	0		A	sg n
   	oma	0		A	sg p
   	oma	0		P	sg n
   	oma	0		P	sg p
   	oma	0		S	sg n
   	oma	0		S	sg p
isale	isa	le		S	sg all
tagasi	tagasi	0		D	
      	tagasi	0		K	
maksma	maks	ma		V	ma
.	.			Z	
see	see	0		P	sg n
leping	leping	0		S	sg n
on	ole	0		V	b
  	ole	0		V	vad
pooltele	pool	tele		N	pl all
        	pool	tele		S	pl all
ette	ette	0		D	
    	ette	0		K	
    	esi	tte		S	adt
loetud	loetu	d		S	pl n
      	loetud	0		A	
      	loetud	0		A	sg n
      	loetud	d		A	pl n
      	luge	tud		V	tud
.	.			Z	
J	J	0		Y	?
.	.			Z	
kõige	kõik	0		P	sg g
     	kõige	0		D	
/	/			Z	
allkiri	all_kiri	0		S	sg n
/	/			Z	
Jaan	Jaan	0		H	sg n
    	jaan	0		S	sg n
    	jaan	0		Y	?
Hansu	Hans	0		H	adt
     	Hans	0		H	sg g
     	Hans	0		H	sg p
p	p	0		Y	?
kõige	kõik	0		P	sg g
     	kõige	0		D	
aga	aga	0		J	
tema	tema	0		P	sg g
    	tema	0		P	sg n
palve	palve	0		S	sg g
     	palve	0		S	sg n
peale	pea	le		S	sg all
     	peale	0		D	
     	peale	0		K	
et	et	0		J	
ise	ise	0		A	
   	ise	0		D	
   	ise	0		P	pl n
   	ise	0		P	sg n
kirjutada	kirjuta	da		V	da
ei	ei	0		D	
  	ei	0		V	neg
oska	oska	0		V	o
kirjutas	kirjuta	s		V	s
alla	alla	0		D	
    	alla	0		K	
J	J	0		Y	?
.	.			Z	
kivi	kivi	0		S	sg g
    	kivi	0		S	sg n
    	kivi	0		S	sg p
/	/			Z	
allkiri	all_kiri	0		S	sg n
/	/			Z	
kohtueesistuja	kohtu_ees_istuja	0		S	sg g
              	kohtu_ees_istuja	0		S	sg n
J	J	0		Y	?
.	.			Z	
aaroon	####				
/	/			Z	
allkiri	all_kiri	0		S	sg n
/	/			Z	
kirjutaja	kirjutaja	0		S	sg g
         	kirjutaja	0		S	sg n
Touglas	####				
/	/			Z	
allkiri	all_kiri	0		S	sg n
/	/			Z	
