sel	see	l		P	sg ad
   	sel	0		Y	?
12ndal	12=s	l		O	sg ad
juulil	juuli	l		S	sg ad
1872.	1872.	0		O	?
Leenu	Leenu	0		H	sg g
     	Leenu	0		H	sg n
Nimann	####				
andis	and	is		V	s
üles	üles	0		D	
et	et	0		J	
Kaarel	Kaarel	0		H	sg n
      	kaar	l		S	sg ad
      	kaarel	0		S	sg n
teinbergi	####				
koer	koer	0		A	sg n
    	koer	0		S	sg n
olla	ole	a		V	da
temal	tema	l		P	sg ad
6	6	0		N	?
naela	nael	0		S	adt
     	nael	0		S	sg g
     	nael	0		S	sg p
võid	või	d		S	pl n
    	või	d		V	d
    	või	d		S	sg p
ära	ära	0		D	
   	ära	0		V	neg o
söönud	söö	nud		V	nud
      	söönu	d		S	pl n
      	söönud	0		A	
      	söönud	0		A	sg n
      	söönud	d		A	pl n
tema	tema	0		P	sg g
    	tema	0		P	sg n
olla	ole	a		V	da
2	2	0		N	?
korda	kord	0		S	adt
     	korda	0		V	o
     	kord	0		S	sg p
käinud	käi	nud		V	nud
      	käi=nud	0		A	
      	käi=nud	0		A	sg n
      	käi=nud	d		A	pl n
      	käinu	d		S	pl n
kahju	kahi	0		S	adt
     	kahi	0		S	sg g
     	kahi	0		S	sg p
     	kahju	0		S	sg g
     	kahju	0		S	sg n
     	kahju	0		S	sg p
tasumist	tasumine	t		S	sg p
nõudmas	nõud	mas		V	mas
ja	ja	0		J	
kolmantama	####				
korra	kord	0		S	sg g
ajal	aeg	l		S	sg ad
    	ajal	0		K	
viskanud	####				
Kaarel	Kaarel	0		H	sg n
      	kaar	l		S	sg ad
      	kaarel	0		S	sg n
teinberg	####				
teda	tema	da		P	sg p
õuest	õu	st		S	sg el
     	õuest	0		D	
välja	välja	0		D	
     	välja	0		V	o
     	väli	0		S	adt
     	väli	0		S	sg g
     	väli	0		S	sg p
ja	ja	0		J	
sõimat	####				
teda	tema	da		P	sg p
veel	veel	0		D	
    	vesi	l		S	sg ad
pealegi	pealegi	0		D	
vanaks	vana	ks		A	sg tr
      	vana	ks		S	sg tr
rimaskis	####				
seda	see	da		P	sg p
sööma	söö	ma		V	ma
     	sööm	0		S	adt
     	sööm	0		S	sg g
     	sööm	0		S	sg p
kuulnud	kuul	nud		V	nud
       	kuul=nud	0		A	
       	kuul=nud	0		A	sg n
       	kuul=nud	d		A	pl n
       	kuulnu	d		S	pl n
Jüri	Jüri	0		H	sg g
    	Jüri	0		H	sg n
Tõnts	####				
ja	ja	0		J	
Jaan	Jaan	0		H	sg n
    	jaan	0		S	sg n
    	jaan	0		Y	?
Nahkur	nahkur	0		S	sg n
pealt	pea	lt		S	sg abl
     	pealt	0		D	
     	pealt	0		K	
1	1	0		N	?
,	,			Z	
astus	astu	s		V	s
Jüri	Jüri	0		H	sg g
    	Jüri	0		H	sg n
Tõnts	####				
kohtu	kohtu	0		V	o
     	kohus	0		S	sg g
ette	ette	0		D	
    	ette	0		K	
    	esi	tte		S	adt
ta	tema	0		P	sg g
  	tema	0		P	sg n
tunnistas	tunnista	s		V	s
ta	tema	0		P	sg g
  	tema	0		P	sg n
pole	ole	0		V	neg o
kuulnud	kuul	nud		V	nud
       	kuul=nud	0		A	
       	kuul=nud	0		A	sg n
       	kuul=nud	d		A	pl n
       	kuulnu	d		S	pl n
ja	ja	0		J	
Jaan	Jaan	0		H	sg n
    	jaan	0		S	sg n
    	jaan	0		Y	?
Nahkur	nahkur	0		S	sg n
niisama	nii_sama	0		D	
.	.			Z	
2	2	0		N	?
,	,			Z	
mõistis	mõist	is		V	s
kuhus	####				
et	et	0		J	
keegi	kee	0	gi	S	sg g
     	kee	0	gi	V	o
     	keegi	0		P	sg n
     	kee	0	gi	S	sg n
ei	ei	0		D	
  	ei	0		V	neg
näinud	näi	nud		V	nud
      	näge	nud		V	nud
      	näi=nud	0		A	
      	näi=nud	0		A	sg n
      	näi=nud	d		A	pl n
      	näinu	d		S	pl n
kui	kui	0		D	
   	kui	0		J	
palju	palju	0		D	
     	palju	0		P	sg g
     	palju	0		P	sg n
võid	või	d		S	pl n
    	või	d		V	d
    	või	d		S	sg p
võis	või	s		S	sg in
    	või	s		V	s
linas	lina	s		S	sg in
olla	ole	a		V	da
kahju	kahi	0		S	adt
     	kahi	0		S	sg g
     	kahi	0		S	sg p
     	kahju	0		S	sg g
     	kahju	0		S	sg n
     	kahju	0		S	sg p
pooleks	pool	ks		N	sg tr
       	pool	ks		S	sg tr
       	pooleks	0		D	
,	,			Z	
nõnda	nõnda	0		D	
,	,			Z	
et	et	0		J	
Kaarel	Kaarel	0		H	sg n
      	kaar	l		S	sg ad
      	kaarel	0		S	sg n
teinberg	####				
peab	pida	b		V	b
Leenu	Leenu	0		H	sg g
     	Leenu	0		H	sg n
Nimannile	####				
3	3	0		N	?
N	N	0		Y	?
.	.			Z	
või	või	0		S	sg g
   	või	0		V	o
   	või	0		D	
   	või	0		J	
   	või	0		S	sg n
eest	eest	0		D	
    	eest	0		K	
    	esi	st		S	sg el
60	60	0		N	?
Cop	####				
.	.			Z	
maksma	maks	ma		V	ma
Leenu	Leenu	0		H	sg g
     	Leenu	0		H	sg n
Nimann	####				
pole	ole	0		V	neg o
sellega	see	ga		P	sg kom
rahul	rahu	l		S	sg ad
     	rahul	0		D	
tema	tema	0		P	sg g
    	tema	0		P	sg n
nõuab	nõud	b		V	b
suremat	####				
kohut	kohus	t		S	sg p
.	.			Z	
koos	koos	0		D	
    	koos	0		K	
    	koos	0		S	sg n
    	kubu	s		S	sg in
olid	ole	id		V	sid
kohtu	kohtu	0		V	o
     	kohus	0		S	sg g
vanem	vanem	0		C	sg n
     	vanem	0		S	sg n
Jaan	Jaan	0		H	sg n
    	jaan	0		S	sg n
    	jaan	0		Y	?
Valg	####				
tema	tema	0		P	sg g
    	tema	0		P	sg n
abi	abi	0		S	sg g
   	abi	0		S	sg n
   	abi	0		S	sg p
Hans	Hans	0		H	sg n
Reinmann	####				
.	.			Z	
2.	2.	0		O	?
Mihkel	Mihkel	0		H	sg n
      	mihkel	0		A	sg n
      	mihkel	0		S	sg n
Vander	vander	0		S	sg n
andis	and	is		V	s
üles	üles	0		D	
et	et	0		J	
Juhan	Juhan	0		H	sg n
Rikberg	####				
olla	ole	a		V	da
temal	tema	l		P	sg ad
ühe	üks	0		N	sg g
   	üks	0		P	sg g
   	ühe	0		S	sg n
sao	saad	0		S	sg g
   	sagu	0		S	sg g
väärt	väärt	0		A	
     	väärt	0		D	
heinamaad	heina_maa	d		S	pl n
         	heina_maa	d		S	sg p
ära	ära	0		D	
   	ära	0		V	neg o
niitnud	niit	nud		V	nud
       	niit=nu	d		S	pl n
       	niit=nud	0		A	
       	niit=nud	0		A	sg n
       	niit=nud	d		A	pl n
1	1	0		N	?
,	,			Z	
astus	astu	s		V	s
Juhan	Juhan	0		H	sg n
Rikberg	####				
kohtu	kohtu	0		V	o
     	kohus	0		S	sg g
ette	ette	0		D	
    	ette	0		K	
    	esi	tte		S	adt
ja	ja	0		J	
tunnistas	tunnista	s		V	s
ta	tema	0		P	sg g
  	tema	0		P	sg n
olla	ole	a		V	da
seda	see	da		P	sg p
teinud	tege	nud		V	nud
      	tei=nud	0		A	
      	tei=nud	0		A	sg n
      	tei=nud	d		A	pl n
      	teinu	d		S	pl n
.	.			Z	
2	2	0		N	?
,	,			Z	
mõistis	mõist	is		V	s
kohus	kohu	s		V	s
     	kohus	0		S	sg n
Juhan	Juhan	0		H	sg n
Rikbergi	####				
sao	saad	0		S	sg g
   	sagu	0		S	sg g
heinte	hein	te		S	pl g
eest	eest	0		D	
    	eest	0		K	
    	esi	st		S	sg el
Mihkel	Mihkel	0		H	sg n
      	mihkel	0		A	sg n
      	mihkel	0		S	sg n
Vanderile	####				
1.	1.	0		O	?
rbl	rbl	0		Y	?
.	.			Z	
ja	ja	0		J	
peale	pea	le		S	sg all
     	peale	0		D	
     	peale	0		K	
selle	see	0		P	sg g
     	sell	e		S	pl p
2.	2.	0		O	?
rbl	rbl	0		Y	?
.	.			Z	
valla	vald	0		S	sg g
     	valla	0		D	
laeka	laegas	0		S	adt
     	laegas	0		S	sg g
koos	koos	0		D	
    	koos	0		K	
    	koos	0		S	sg n
    	kubu	s		S	sg in
olid	ole	id		V	sid
kohtu	kohtu	0		V	o
     	kohus	0		S	sg g
vanem	vanem	0		C	sg n
     	vanem	0		S	sg n
Jaan	Jaan	0		H	sg n
    	jaan	0		S	sg n
    	jaan	0		Y	?
Valg	####				
+	+			Z	
+	+			Z	
+	+			Z	
abimeh	####				
:	:			Z	
Hans	Hans	0		H	sg n
Reinmann	####				
+	+			Z	
+	+			Z	
+	+			Z	
Kaarel	Kaarel	0		H	sg n
      	kaar	l		S	sg ad
      	kaarel	0		S	sg n
teinberg	####				
XXX	XXX	0		O	?
   	XXX	0		Y	?
