Silmsi	silmsi	0		D	
mõis	mõis	0		S	sg n
29mal	####				
jaanuar	jaanuar	0		S	sg n
1869	1869	0		N	?
koos	koos	0		D	
    	koos	0		K	
    	koos	0		S	sg n
    	kubu	s		S	sg in
olid	ole	id		V	sid
kohtu	kohtu	0		V	o
     	kohus	0		S	sg g
mehed	mees	d		S	pl n
pea	pea	0		D	
   	pea	0		S	sg g
   	pida	0		V	o
   	pea	0		S	sg n
vanem	vanem	0		C	sg n
     	vanem	0		S	sg n
Juhan	Juhan	0		H	sg n
Wende	####				
xxx	####				
kõrva	kõrv	0		S	adt
     	kõrv	0		S	sg g
     	kõrv	0		S	sg p
mehed	mees	d		S	pl n
Predik	####				
Gasa	####				
xxx	####				
ja	ja	0		J	
Mart	Mart	0		H	sg n
    	mart	0		S	sg n
Grünberg	####				
xxx	####				
tegemist	tegemine	t		S	sg p
ei	ei	0		D	
  	ei	0		V	neg
olnud	ol=nud	0		A	
     	ol=nud	0		A	sg n
     	ol=nud	d		A	pl n
     	ole	nud		V	nud
     	olnu	d		S	pl n
sel	see	l		P	sg ad
   	sel	0		Y	?
päeval	päev	l		S	sg ad
.	.			Z	
