protokoll	protokoll	0		S	sg n
sel	see	l		P	sg ad
   	sel	0		Y	?
1sel	####				
september	september	0		S	sg n
1880	1880	0		N	?
koos	koos	0		D	
    	koos	0		K	
    	koos	0		S	sg n
    	kubu	s		S	sg in
olid	ole	id		V	sid
kohtu	kohtu	0		V	o
     	kohus	0		S	sg g
peavanem	pea_vanem	0		C	sg n
        	pea_vanem	0		S	sg n
Jaan	Jaan	0		H	sg n
    	jaan	0		S	sg n
    	jaan	0		Y	?
Saarmann	saar_mann	0		S	sg n
Jaan	Jaan	0		H	sg n
    	jaan	0		S	sg n
    	jaan	0		Y	?
Kreep	####				
Hans	Hans	0		H	sg n
Simsohn	####				
kirjutaja	kirjutaja	0		S	sg g
         	kirjutaja	0		S	sg n
H	H	0		Y	?
.	.			Z	
_	_			Z	
Saarmu	####				
№	№	0		Y	?
30.	30.	0		O	?
kohtu	kohtu	0		V	o
     	kohus	0		S	sg g
laua	laud	0		S	sg g
ette	ette	0		D	
    	ette	0		K	
    	esi	tte		S	adt
astus	astu	s		V	s
lihunik	lihunik	0		S	sg n
Jüri	Jüri	0		H	sg g
    	Jüri	0		H	sg n
Paia	####				
Paide	Paide	0		H	adt
     	pai	de		A	pl g
     	pai	de		S	pl g
     	Paide	0		H	sg g
     	Paide	0		H	sg n
linnast	linn	st		S	sg el
ja	ja	0		J	
kaebas	kaeba	s		V	s
,	,			Z	
et	et	0		J	
tema	tema	0		P	sg g
    	tema	0		P	sg n
on	ole	0		V	b
  	ole	0		V	vad
Kirna	####				
Sohlama	####				
kõrtsimehe	kõrtsi_mees	0		S	sg g
Joosep	Joosep	0		H	sg n
Millermanni	####				
kääst	####				
ühe	üks	0		N	sg g
   	üks	0		P	sg g
   	ühe	0		S	sg n
lehma	lehm	0		S	adt
     	lehm	0		S	sg g
     	lehm	0		S	sg p
ostnud	ost	nud		V	nud
      	ost=nu	d		S	pl n
      	ost=nud	0		A	
      	ost=nud	0		A	sg n
      	ost=nud	d		A	pl n
25	25	0		N	?
rubla	rubla	0		S	sg g
     	rubla	0		S	sg n
     	rubla	0		S	sg p
eest	eest	0		D	
    	eest	0		K	
    	esi	st		S	sg el
ja	ja	0		J	
et	et	0		J	
Joosep	Joosep	0		H	sg n
on	ole	0		V	b
  	ole	0		V	vad
temale	tema	le		P	sg all
pärast	pära	st		S	sg el
      	pärane	t		A	sg p
      	pärast	0		D	
      	pärast	0		K	
hoopis	hoopis	0		D	
teise	teine	0		O	adt
     	teine	0		O	sg g
     	teine	0		P	adt
     	teine	0		P	sg g
lehma	lehm	0		S	adt
     	lehm	0		S	sg g
     	lehm	0		S	sg p
toonud	too	nud		V	nud
      	too=nu	d		S	pl n
      	too=nud	0		A	
      	too=nud	0		A	sg n
      	too=nud	d		A	pl n
,	,			Z	
kui	kui	0		D	
   	kui	0		J	
tema	tema	0		P	sg g
    	tema	0		P	sg n
on	ole	0		V	b
  	ole	0		V	vad
kaupelnud	####				
.	.			Z	
Joosep	Joosep	0		H	sg n
Millermann	####				
astus	astu	s		V	s
ette	ette	0		D	
    	ette	0		K	
    	esi	tte		S	adt
ja	ja	0		J	
ütles	ütle	s		V	s
:	:			Z	
et	et	0		J	
tema	tema	0		P	sg g
    	tema	0		P	sg n
ei	ei	0		D	
  	ei	0		V	neg
ole	ole	0		V	o
mitte	mitte	0		D	
lihunik	lihunik	0		S	sg n
J. Paiale	####				
teist	sina	st		P	pl el
     	tee	ist		S	pl el
     	teist	0		D	
     	teine	t		O	sg p
     	teine	t		P	sg p
lehma	lehm	0		S	adt
     	lehm	0		S	sg g
     	lehm	0		S	sg p
müüünud	####				
,	,			Z	
kui	kui	0		D	
   	kui	0		J	
tema	tema	0		P	sg g
    	tema	0		P	sg n
on	ole	0		V	b
  	ole	0		V	vad
kaupelnud	####				
ja	ja	0		J	
et	et	0		J	
temal	tema	l		P	sg ad
ei	ei	0		D	
  	ei	0		V	neg
olegi	ole	0	gi	V	o
muud	muu	d		P	pl n
    	muu	d		S	pl n
    	muu	d		V	d
    	muu	d		P	sg p
    	muu	d		S	sg p
lehma	lehm	0		S	adt
     	lehm	0		S	sg g
     	lehm	0		S	sg p
olnud	ol=nud	0		A	
     	ol=nud	0		A	sg n
     	ol=nud	d		A	pl n
     	ole	nud		V	nud
     	olnu	d		S	pl n
,	,			Z	
kui	kui	0		D	
   	kui	0		J	
sesama	####				
mis	mis	0		P	pl n
   	mis	0		P	sg n
tema	tema	0		P	sg g
    	tema	0		P	sg n
on	ole	0		V	b
  	ole	0		V	vad
kaupelnud	####				
.	.			Z	
nemad	tema	d		P	pl n
leppisid	leppi	sid		V	sid
selle	see	0		P	sg g
     	sell	e		S	pl p
moodiga	mood_iga	0		S	sg n
       	mood_iga	0		S	sg p
ära	ära	0		D	
   	ära	0		V	neg o
:	:			Z	
et	et	0		J	
Joosep	Joosep	0		H	sg n
Millermann	####				
võtab	võt	b		V	b
oma	oma	0		A	sg g
   	oma	0		D	
   	oma	0		P	sg g
   	oma	0		S	sg g
   	oma	0		V	o
   	oma	0		A	sg n
   	oma	0		A	sg p
   	oma	0		P	sg n
   	oma	0		P	sg p
   	oma	0		S	sg n
   	oma	0		S	sg p
lehma	lehm	0		S	adt
     	lehm	0		S	sg g
     	lehm	0		S	sg p
tagasi	tagasi	0		D	
      	tagasi	0		K	
ja	ja	0		J	
maksab	maks	b		V	b
lihuniku	lihunik	0		S	sg g
25	25	0		N	?
rubla	rubla	0		S	sg g
     	rubla	0		S	sg n
     	rubla	0		S	sg p
tagasi	tagasi	0		D	
      	tagasi	0		K	
ja	ja	0		J	
lihunik	lihunik	0		S	sg n
J. Paia	####				
maksab	maks	b		V	b
Joosep	Joosep	0		H	sg n
millermani	####				
päeva	päev	0		S	adt
     	päev	0		S	sg g
     	päev	0		S	sg p
kuulu	kuuld	0		S	sg g
     	kuulu	0		V	o
ja	ja	0		J	
vaeva	vaev	0		S	adt
     	vaev	0		S	sg g
     	vaeva	0		V	o
     	vaev	0		S	sg p
eest	eest	0		D	
    	eest	0		K	
    	esi	st		S	sg el
1	1	0		N	?
rubla	rubla	0		S	sg g
     	rubla	0		S	sg n
     	rubla	0		S	sg p
ja	ja	0		J	
viimane	viimane	0		A	sg n
termin	termin	0		S	sg n
,	,			Z	
millas	####				
se	####				
leppimine	leppimine	0		S	sg n
peab	pida	b		V	b
täidetud	täit	tud		V	tud
        	täide=tu	d		S	pl n
        	täide=tud	0		A	
        	täide=tud	0		A	sg n
        	täide=tud	d		A	pl n
olema	ole	ma		V	ma
,	,			Z	
on	ole	0		V	b
  	ole	0		V	vad
6ndal	6=s	l		O	sg ad
Septembris	september	s		S	sg in
.	.			Z	
täidetud	täit	tud		V	tud
        	täide=tu	d		S	pl n
        	täide=tud	0		A	
        	täide=tud	0		A	sg n
        	täide=tud	d		A	pl n
.	.			Z	
Kirna	####				
valla	vald	0		S	sg g
     	valla	0		D	
kohtu	kohtu	0		V	o
     	kohus	0		S	sg g
nimel	nimel	0		K	
     	nimi	l		S	sg ad
:	:			Z	
peavanem	pea_vanem	0		C	sg n
        	pea_vanem	0		S	sg n
Jaan	Jaan	0		H	sg n
    	jaan	0		S	sg n
    	jaan	0		Y	?
Saarmann	saar_mann	0		S	sg n
XXX	XXX	0		O	?
   	XXX	0		Y	?
Jaan	Jaan	0		H	sg n
    	jaan	0		S	sg n
    	jaan	0		Y	?
Kreep	####				
XXX	XXX	0		O	?
   	XXX	0		Y	?
Hans	Hans	0		H	sg n
Simson	####				
XXX	XXX	0		O	?
   	XXX	0		Y	?
tunnistuseks	tunnistus	ks		S	sg tr
kirjutaja	kirjutaja	0		S	sg g
         	kirjutaja	0		S	sg n
H	H	0		Y	?
.	.			Z	
_	_			Z	
Saarmo	####				
/	/			Z	
allkiri	all_kiri	0		S	sg n
/	/			Z	
