№	№	0		Y	?
6	6	0		N	?
protokoll	protokoll	0		S	sg n
30mal	####				
jaanuar	jaanuar	0		S	sg n
1889.	1889.	0		O	?
koos	koos	0		D	
    	koos	0		K	
    	koos	0		S	sg n
    	kubu	s		S	sg in
olid	ole	id		V	sid
kohtu	kohtu	0		V	o
     	kohus	0		S	sg g
peavanem	pea_vanem	0		C	sg n
        	pea_vanem	0		S	sg n
Hans	Hans	0		H	sg n
Pawelz	####				
.	.			Z	
Jaan	Jaan	0		H	sg n
    	jaan	0		S	sg n
    	jaan	0		Y	?
Villevelt	####				
Hans	Hans	0		H	sg n
Kreedeman	####				
.	.			Z	
kirjutaja	kirjutaja	0		S	sg g
         	kirjutaja	0		S	sg n
J. Parikas	####				
.	.			Z	
kohtu	kohtu	0		V	o
     	kohus	0		S	sg g
ette	ette	0		D	
    	ette	0		K	
    	esi	tte		S	adt
astus	astu	s		V	s
Lokkota	####				
kõrtsimees	kõrtsi_mees	0		S	sg n
Jüri	Jüri	0		H	sg g
    	Jüri	0		H	sg n
Hunt	hunt	0		S	sg n
ja	ja	0		J	
Mart	Mart	0		H	sg n
    	mart	0		S	sg n
Raudsepp	raud_sepp	0		S	sg n
,	,			Z	
ja	ja	0		J	
ütlesid	ütle	sid		V	sid
,	,			Z	
et	et	0		J	
nemad	tema	d		P	pl n
ei	ei	0		D	
  	ei	0		V	neg
olla	ole	a		V	da
seda	see	da		P	sg p
Mart	Mart	0		H	sg n
    	mart	0		S	sg n
Värtmanni	####				
juttu	jutt	0		S	adt
     	jutt	0		S	sg p
mitte	mitte	0		D	
kuulnud	kuul	nud		V	nud
       	kuul=nud	0		A	
       	kuul=nud	0		A	sg n
       	kuul=nud	d		A	pl n
       	kuulnu	d		S	pl n
,	,			Z	
ja	ja	0		J	
ei	ei	0		D	
  	ei	0		V	neg
tea	tead	0		V	o
sellest	see	st		P	sg el
midagit	####				
rääkida	rääki	da		V	da
.	.			Z	
Lokkota	####				
kõrtsimees	kõrtsi_mees	0		S	sg n
Jüri	Jüri	0		H	sg g
    	Jüri	0		H	sg n
Hunt	hunt	0		S	sg n
andis	and	is		V	s
seda	see	da		P	sg p
üles	üles	0		D	
,	,			Z	
et	et	0		J	
tema	tema	0		P	sg g
    	tema	0		P	sg n
nõuab	nõud	b		V	b
selle	see	0		P	sg g
     	sell	e		S	pl p
üle	üle	0		D	
   	üle	0		K	
kolm	kolm	0		N	sg n
rubla	rubla	0		S	sg g
     	rubla	0		S	sg n
     	rubla	0		S	sg p
kahju	kahi	0		S	adt
     	kahi	0		S	sg g
     	kahi	0		S	sg p
     	kahju	0		S	sg g
     	kahju	0		S	sg n
     	kahju	0		S	sg p
tasumist	tasumine	t		S	sg p
,	,			Z	
et	et	0		J	
tema	tema	0		P	sg g
    	tema	0		P	sg n
Jaan	Jaan	0		H	sg n
    	jaan	0		S	sg n
    	jaan	0		Y	?
Preema	####				
ülesandmise	üles_andmine	0		S	sg g
pärast	pära	st		S	sg el
      	pärane	t		A	sg p
      	pärast	0		D	
      	pärast	0		K	
pidanud	pida	nud		V	nud
       	pida=nu	d		S	pl n
       	pida=nud	0		A	
       	pida=nud	0		A	sg n
       	pida=nud	d		A	pl n
kohtu	kohtu	0		V	o
     	kohus	0		S	sg g
ette	ette	0		D	
    	ette	0		K	
    	esi	tte		S	adt
tulema	tule	ma		V	ma
,	,			Z	
vaata	vaata	0		V	o
protokoll	protokoll	0		S	sg n
28ndal	28=s	l		O	sg ad
november	november	0		S	sg n
1888.	1888.	0		O	?
Kirna	####				
valla	vald	0		S	sg g
     	valla	0		D	
kogukonna	kogukond	0		S	sg g
kohtu	kohtu	0		V	o
     	kohus	0		S	sg g
nimel	nimel	0		K	
     	nimi	l		S	sg ad
:	:			Z	
peavanem	pea_vanem	0		C	sg n
        	pea_vanem	0		S	sg n
:	:			Z	
Hans	Hans	0		H	sg n
Pawelz	####				
/	/			Z	
allkiri	all_kiri	0		S	sg n
/	/			Z	
Jaan	Jaan	0		H	sg n
    	jaan	0		S	sg n
    	jaan	0		Y	?
Villevelt	####				
Hans	Hans	0		H	sg n
Kreedeman	####				
kirja	kirja	0		A	
     	kirja	0		V	o
     	kiri	0		S	adt
     	kiri	0		S	sg g
     	kiri	0		S	sg p
tunnistuseks	tunnistus	ks		S	sg tr
kirjutaja	kirjutaja	0		S	sg g
         	kirjutaja	0		S	sg n
J. Parikas	####				
/	/			Z	
allkiri	all_kiri	0		S	sg n
/	/			Z	
