Pääro	####				
Lindemann	####				
annab	and	b		V	b
Jakob	Jakob	0		H	sg n
Rava	####				
'	’			Z	
mändi	mänd	0		S	adt
     	mänd	i		S	pl p
     	mänd	0		S	sg p
kätte	kätte	0		K	
     	käsi	tte		S	adt
Mikko	####				
koha	koht	0		S	sg g
    	koha	0		S	sg g
    	koha	0		V	o
    	koha	0		S	sg n
    	koha	0		S	sg p
[	[			Z	
mahakriipsutatud	maha_kriipsuta=tu	d		S	pl n
                	maha_kriipsuta=tud	0		A	
                	maha_kriipsuta=tud	0		A	sg n
                	maha_kriipsuta=tud	d		A	pl n
:	:			Z	
kolmeks	kolm	ks		N	sg tr
]	]			Z	
kaheks	kaks	ks		N	sg tr
aastaks	aasta	ks		S	sg tr
rendi	rent	0		S	sg g
     	renti	0		V	o
peale	pea	le		S	sg all
     	peale	0		D	
     	peale	0		K	
.	.			Z	
Jüri	Jüri	0		H	sg g
    	Jüri	0		H	sg n
päevast	päev	st		S	sg el
       	päevane	t		A	sg p
1900a	1900a	0		Y	?
.	.			Z	
130	130	0		N	?
(	(			Z	
ühe	üks	0		N	sg g
   	üks	0		P	sg g
   	ühe	0		S	sg n
saja	sada	0		N	sg g
    	sada	0		V	o
kolmekümne	kolm_kümmend	0		N	sg g
rubla	rubla	0		S	sg g
     	rubla	0		S	sg n
     	rubla	0		S	sg p
)	)			Z	
aasta	aasta	0		S	sg g
     	aasta	0		S	sg n
rendi	rent	0		S	sg g
     	renti	0		V	o
eest	eest	0		D	
    	eest	0		K	
    	esi	st		S	sg el
.	.			Z	
rendi	rent	0		S	sg g
     	renti	0		V	o
maksab	maks	b		V	b
Ravamänd	####				
järgmisel	järgmine	l		A	sg ad
viisil	viis	l		S	sg ad
      	viisil	0		K	
:	:			Z	
Mardi	Mart	0		H	sg g
     	mart	0		S	sg g
päeval	päev	l		S	sg ad
30	30	0		N	?
rubla	rubla	0		S	sg g
     	rubla	0		S	sg n
     	rubla	0		S	sg p
ja	ja	0		J	
25	25	0		N	?
veebruariks	veebruar	ks		S	sg tr
100	100	0		N	?
rubla	rubla	0		S	sg g
     	rubla	0		S	sg n
     	rubla	0		S	sg p
.	.			Z	
kõik	kõik	0		P	pl n
    	kõik	0		S	sg n
    	kõik	0		P	sg n
koha	koht	0		S	sg g
    	koha	0		S	sg g
    	koha	0		V	o
    	koha	0		S	sg n
    	koha	0		S	sg p
maksud	maks	d		S	pl n
peale	pea	le		S	sg all
     	peale	0		D	
     	peale	0		K	
tulekassa	tule_kassa	0		S	sg g
         	tule_kassa	0		S	sg n
maksu	maks	0		S	adt
     	maks	0		S	sg g
     	maks	u		S	pl p
     	maks	0		S	sg p
,	,			Z	
kannab	kand	b		V	b
Lindemann	####				
,	,			Z	
aga	aga	0		J	
Ravamänd	####				
peab	pida	b		V	b
valla	vald	0		S	sg g
     	valla	0		D	
kinnituse	kinnitus	0		S	sg g
seltsi	selts	0		S	adt
      	selts	0		S	sg g
      	seltsi	0		D	
      	seltsi	0		K	
      	seltsi	0		V	o
      	selts	0		S	sg p
liikmeks	liige	ks		S	sg tr
heitma	heit	ma		V	ma
ja	ja	0		J	
hooned	hoone	d		S	pl n
kinnitama	kinnita	ma		V	ma
.	.			Z	
Ravamänd	####				
peab	pida	b		V	b
koha	koht	0		S	sg g
    	koha	0		S	sg g
    	koha	0		V	o
    	koha	0		S	sg n
    	koha	0		S	sg p
korras	kord	s		S	sg in
      	korras	0		A	
pidama	pida	ma		V	ma
ja	ja	0		J	
hoonete	hoone	te		S	pl g
katused	katus	d		S	pl n
parandama	paranda	ma		V	ma
.	.			Z	
Pääro	####				
Lindemanni	####				
kätte	kätte	0		K	
     	käsi	tte		S	adt
jääb	jää	b		V	b
veikene	####				
elumaja	elu_maja	0		S	sg g
       	elu_maja	0		S	sg n
       	elu_maja	0		S	sg p
Mikka	####				
koha	koht	0		S	sg g
    	koha	0		S	sg g
    	koha	0		V	o
    	koha	0		S	sg n
    	koha	0		S	sg p
peal	pea	l		S	sg ad
    	peal	0		D	
    	peal	0		K	
,	,			Z	
üks	üks	0		N	sg n
   	üks	0		P	sg n
õue	õu	0		S	adt
   	õu	0		S	sg g
   	õue	0		D	
   	õu	0		S	sg p
aed	aed	0		S	sg n
umbes	umbes	0		A	
     	umbes	0		D	
     	umme	s		S	sg in
1	1	0		N	?
vakama	####				
suur	suur	0		A	sg n
ja	ja	0		J	
mõisa	mõis	0		S	sg g
metsa	mets	0		S	adt
     	mets	0		S	sg g
     	mets	0		S	sg p
heinama	####				
,	,			Z	
ühe	üks	0		N	sg g
   	üks	0		P	sg g
   	ühe	0		S	sg n
lehma	lehm	0		S	adt
     	lehm	0		S	sg g
     	lehm	0		S	sg p
jauks	####				
karjamaa	karja_maa	0		S	sg g
        	karja_maa	0		S	sg n
pere	pere	0		S	sg g
    	pere	0		S	sg n
karja	kari	0		S	adt
     	kari	0		S	sg g
     	kari	0		S	sg p
hulkas	####				
.	.			Z	
Lindemann	####				
annab	and	b		V	b
Ravamannile	####				
ilma	ilm	0		S	adt
    	ilm	0		S	sg g
    	ilma	0		D	
    	ilma	0		K	
    	ilm	0		S	sg p
tagasi	tagasi	0		D	
      	tagasi	0		K	
nõudmata	nõud	mata		V	mata
        	nõud=mata	0		A	
:	:			Z	
ühe	üks	0		N	sg g
   	üks	0		P	sg g
   	ühe	0		S	sg n
lehma	lehm	0		S	adt
     	lehm	0		S	sg g
     	lehm	0		S	sg p
,	,			Z	
2	2	0		N	?
lammast	lammas	t		S	sg p
,	,			Z	
ühe	üks	0		N	sg g
   	üks	0		P	sg g
   	ühe	0		S	sg n
siia	siia	0		D	
    	siig	0		S	sg g
,	,			Z	
vasika	vasikas	0		S	sg g
ja	ja	0		J	
2	2	0		N	?
siia	siia	0		D	
    	siig	0		S	sg g
sinki	sink	0		S	adt
     	sink	0		S	sg p
.	.			Z	
Ravamänd	####				
võtab	võt	b		V	b
oma	oma	0		A	sg g
   	oma	0		D	
   	oma	0		P	sg g
   	oma	0		S	sg g
   	oma	0		V	o
   	oma	0		A	sg n
   	oma	0		A	sg p
   	oma	0		P	sg n
   	oma	0		P	sg p
   	oma	0		S	sg n
   	oma	0		S	sg p
kätte	kätte	0		K	
     	käsi	tte		S	adt
alamal	alam	l		C	sg ad
      	alam	l		S	sg ad
      	alamal	0		D	
nimetatud	nimeta	tud		V	tud
         	nimetatu	d		S	pl n
         	nimetatud	0		A	
         	nimetatud	0		A	sg n
         	nimetatud	d		A	pl n
varanduse	varandus	0		S	sg g
,	,			Z	
mis	mis	0		P	pl n
   	mis	0		P	sg n
ta	tema	0		P	sg g
  	tema	0		P	sg n
peale	pea	le		S	sg all
     	peale	0		D	
     	peale	0		K	
rendi	rent	0		S	sg g
     	renti	0		V	o
aja	aeg	0		S	sg g
   	aja	0		V	o
mõõda	mõõt	0		V	o
mineku	minek	0		S	sg g
peab	pida	b		V	b
Lindemannile	####				
tagasi	tagasi	0		D	
      	tagasi	0		K	
andma	and	ma		V	ma
sellesamas	####				
headuses	headus	s		S	sg in
,	,			Z	
ehk	ehk	0		D	
   	ehk	0		J	
peab	pida	b		V	b
selle	see	0		P	sg g
     	sell	e		S	pl p
asemel	ase	l		S	sg ad
      	asemel	0		K	
puhta	puhta	0		D	
     	puhas	0		A	sg g
rahaga	raha	ga		S	sg kom
välja	välja	0		D	
     	välja	0		V	o
     	väli	0		S	adt
     	väli	0		S	sg g
     	väli	0		S	sg p
maksma	maks	ma		V	ma
:	:			Z	
1	1	0		N	?
)	)			Z	
hobune	hobune	0		S	sg n
,	,			Z	
mära	mära	0		S	sg g
    	mära	0		S	sg n
    	mära	0		S	sg p
12a	12a	0		Y	?
.	.			Z	
vana	vana	0		A	sg g
    	vana	0		A	sg n
    	vana	0		A	sg p
    	vana	0		S	sg g
    	vana	0		S	sg n
    	vana	0		S	sg p
70	70	0		N	?
rubla	rubla	0		S	sg g
     	rubla	0		S	sg n
     	rubla	0		S	sg p
väärt	väärt	0		A	
     	väärt	0		D	
,	,			Z	
2	2	0		N	?
)	)			Z	
Vilja	Vilja	0		H	sg g
     	vili	0		S	adt
     	vili	0		S	sg g
     	Vilja	0		H	sg n
     	vili	0		S	sg p
seemne	seeme	0		S	sg g
annab	and	b		V	b
Lindemann	####				
kevadel	kevad	l		S	sg ad
       	kevade	l		S	sg ad
nõnda	nõnda	0		D	
kuidas	kuidas	0		D	
võimalik	võimalik	0		A	sg n
ja	ja	0		J	
tarvis	tarvis	0		D	
      	tarvis	0		K	
on	ole	0		V	b
  	ole	0		V	vad
.	.			Z	
mis	mis	0		P	pl n
   	mis	0		P	sg n
Lindemanni	####				
kraamist	kraam	st		S	sg el
Ravamänd	####				
katte	katt	e		S	pl p
     	kate	0		S	sg g
jääb	jää	b		V	b
,	,			Z	
seda	see	da		P	sg p
tasub	tasu	b		V	b
Ravamänd	####				
aegamõõta	####				
Lindemannile	####				
tagasi	tagasi	0		D	
      	tagasi	0		K	
.	.			Z	
kunni	####				
Jüripäevani	jüri_päev	ni		S	sg ter
saab	saa	b		V	b
koht	koht	0		S	sg n
endest	enne	st		S	sg el
viisi	viis	0		S	adt
     	viis	0		S	sg g
     	viis	i		N	pl p
     	viisi	0		K	
     	viis	0		S	sg p
Lindemanni	####				
ja	ja	0		J	
Ravamanni	####				
poolt	pool	t		N	sg p
     	pool	t		S	sg p
     	poolt	0		D	
     	poolt	0		K	
peetud	peetu	d		S	pl n
      	peetu	d		V	d
      	peetud	0		A	
      	peetud	0		A	sg n
      	peetud	d		A	pl n
      	pida	tud		V	tud
.	.			Z	
kui	kui	0		D	
   	kui	0		J	
Ravamänd	####				
kontrahi	kontraht	0		S	sg g
tingimisi	tingimine	i		S	pl p
         	tingimisi	0		D	
ei	ei	0		D	
  	ei	0		V	neg
täida	täi	da		V	da
     	täit	0		V	o
,	,			Z	
ehk	ehk	0		D	
   	ehk	0		J	
Lindemann	####				
kohta	koht	0		S	adt
     	kohta	0		K	
     	kohta	0		V	o
     	koht	0		S	sg p
ära	ära	0		D	
   	ära	0		V	neg o
müüa	müü	a		V	da
tahaks	taht	ks		V	ks
,	,			Z	
siis	siis	0		D	
    	siis	0		J	
peab	pida	b		V	b
Ravamänd	####				
kohast	koht	st		S	sg el
      	koha	st		S	sg el
      	kohane	t		A	sg p
välja	välja	0		D	
     	välja	0		V	o
     	väli	0		S	adt
     	väli	0		S	sg g
     	väli	0		S	sg p
minema	mine	ma		V	ma
,	,			Z	
mis	mis	0		P	pl n
   	mis	0		P	sg n
üle	üle	0		D	
   	üle	0		K	
temale	tema	le		P	sg all
seaduslikul	seaduslik	l		A	sg ad
ajal	aeg	l		S	sg ad
    	ajal	0		K	
peab	pida	b		V	b
saama	saa	ma		V	ma
     	saam	0		S	adt
     	saam	0		S	sg g
     	saam	0		S	sg p
valla	vald	0		S	sg g
     	valla	0		D	
kohtu	kohtu	0		V	o
     	kohus	0		S	sg g
läbi	läbi	0		D	
    	läbi	0		K	
    	läbi	0		V	o
kuulutatud	kuuluta	tud		V	tud
          	kuuluta=tu	d		S	pl n
          	kuuluta=tud	0		A	
          	kuuluta=tud	0		A	sg n
          	kuuluta=tud	d		A	pl n
.	.			Z	
J	J	0		Y	?
Ravamänd	####				
[	[			Z	
allkiri	all_kiri	0		S	sg n
]	]			Z	
Paru	####				
Lintsma	####				
[	[			Z	
allkiri	all_kiri	0		S	sg n
]	]			Z	
