sel	see	l		P	sg ad
   	sel	0		Y	?
2sel	####				
Junis	####				
1884	1884	0		N	?
№	№	0		Y	?
7	7	0		N	?
olid	ole	id		V	sid
koos	koos	0		D	
    	koos	0		K	
    	koos	0		S	sg n
    	kubu	s		S	sg in
kohtumehed	kohtu_mees	d		S	pl n
peavanem	pea_vanem	0		C	sg n
        	pea_vanem	0		S	sg n
Hans	Hans	0		H	sg n
Parman	####				
,	,			Z	
Jaan	Jaan	0		H	sg n
    	jaan	0		S	sg n
    	jaan	0		Y	?
Tagobert	####				
,	,			Z	
Jaan	Jaan	0		H	sg n
    	jaan	0		S	sg n
    	jaan	0		Y	?
rulinkoff	####				
.	.			Z	
tuli	tuli	0		S	sg n
    	tule	i		V	s
kohtu	kohtu	0		V	o
     	kohus	0		S	sg g
ette	ette	0		D	
    	ette	0		K	
    	esi	tte		S	adt
kaebaja	kaebaja	0		S	sg g
       	kaebaja	0		S	sg n
Toomas	Toomas	0		H	sg n
      	Toomas	s		H	sg in
      	too	mas		V	mas
Pent	Pent	0		H	sg n
,	,			Z	
kaebab	kaeba	b		V	b
:	:			Z	
minul	mina	l		P	sg ad
varastati	varasta	ti		V	ti
1880ndal	1880=s	l		O	sg ad
aastal	aasta	l		S	sg ad
riistad	riist	d		S	pl n
ära	ära	0		D	
   	ära	0		V	neg o
,	,			Z	
ja	ja	0		J	
nüüd	nüüd	0		D	
sain	saa	in		V	sin
sedelja	####				
Jüri	Jüri	0		H	sg g
    	Jüri	0		H	sg n
supiI	####				
käest	käest	0		K	
     	käsi	st		S	sg el
kätte	kätte	0		K	
     	käsi	tte		S	adt
;	;			Z	
ja	ja	0		J	
teised	teine	d		O	pl n
      	teine	d		P	pl n
riistad	riist	d		S	pl n
on	ole	0		V	b
  	ole	0		V	vad
saamata	saa	mata		V	mata
       	saam	ta		S	sg ab
       	saamata	0		A	
_üks	####				
sedelja	####				
maksab	maks	b		V	b
2	2	0		N	?
rub	####				
50	50	0		N	?
kop	kop	0		Y	?
hobuse	hobune	0		S	sg g
kleit	kleit	0		S	sg n
maksavad	maks	vad		V	vad
3	3	0		N	?
rub	####				
teise	teine	0		O	adt
     	teine	0		O	sg g
     	teine	0		P	adt
     	teine	0		P	sg g
""""	""""			Z	
""""	""""			Z	
4	4	0		N	?
""""	""""			Z	
2	2	0		N	?
sedelja	####				
riihma	####				
""""	""""			Z	
1	1	0		N	?
""""	""""			Z	
üks	üks	0		N	sg n
   	üks	0		P	sg n
rangi	####				
room	room	0		S	sg n
""""	""""			Z	
50	50	0		N	?
k	k	0		Y	?
kutsuti	kutsu	ti		V	ti
kohtu	kohtu	0		V	o
     	kohus	0		S	sg g
ette	ette	0		D	
    	ette	0		K	
    	esi	tte		S	adt
Jüri	Jüri	0		H	sg g
    	Jüri	0		H	sg n
Isub	isu	b		V	b
.	.			Z	
kohus	kohu	s		V	s
     	kohus	0		S	sg n
nõudis	nõud	is		V	s
Kust	kusi	t		S	sg p
    	kust	0		D	
sa	sina	0		P	sg n
said	saa	id		V	sid
selle	see	0		P	sg g
     	sell	e		S	pl p
sedelja	####				
oma	oma	0		A	sg g
   	oma	0		D	
   	oma	0		P	sg g
   	oma	0		S	sg g
   	oma	0		V	o
   	oma	0		A	sg n
   	oma	0		A	sg p
   	oma	0		P	sg n
   	oma	0		P	sg p
   	oma	0		S	sg n
   	oma	0		S	sg p
kätte	kätte	0		K	
     	käsi	tte		S	adt
.	.			Z	
Jüri	Jüri	0		H	sg g
    	Jüri	0		H	sg n
Isub	isu	b		V	b
ütleb	ütle	b		V	b
:	:			Z	
Miina	Miina	0		H	sg g
     	Miina	0		H	sg n
vahetasin	vaheta	sin		V	sin
Toomas	Toomas	0		H	sg n
      	Toomas	s		H	sg in
      	too	mas		V	mas
kaedaja	####				
käest	käest	0		K	
     	käsi	st		S	sg el
Paides	Paide	s		H	sg in
      	pai	des		A	pl in
      	pai	des		S	pl in
Laasvelti	####				
kõrtsi	kõrts	0		S	adt
      	kõrts	0		S	sg g
      	kõrts	0		S	sg p
ees	ees	0		D	
   	ees	0		K	
   	esi	s		S	sg in
.	.			Z	
kutsuti	kutsu	ti		V	ti
ette	ette	0		D	
    	ette	0		K	
    	esi	tte		S	adt
Toomas	Toomas	0		H	sg n
      	Toomas	s		H	sg in
      	too	mas		V	mas
kaedaja	####				
ja	ja	0		J	
ütleb	ütle	b		V	b
mina	mina	0		P	sg n
    	mina	0		S	sg g
    	mina	0		S	sg n
    	mina	0		S	sg p
sinuga	sina	ga		P	sg kom
küll	küll	0		D	
    	küll	0		S	sg n
ei	ei	0		D	
  	ei	0		V	neg
ole	ole	0		V	o
sedeljad	####				
vahetanud	vaheta	nud		V	nud
         	vaheta=nu	d		S	pl n
         	vaheta=nud	0		A	
         	vaheta=nud	0		A	sg n
         	vaheta=nud	d		A	pl n
,	,			Z	
sa	sina	0		P	sg n
räägid	rääki	d		V	d
ehk	ehk	0		D	
   	ehk	0		J	
minu	mina	0		P	sg g
peale	pea	le		S	sg all
     	peale	0		D	
     	peale	0		K	
seda	see	da		P	sg p
juttu	jutt	0		S	adt
     	jutt	0		S	sg p
viha	viht	0		S	sg g
    	viha	0		A	sg g
    	viha	0		A	sg n
    	viha	0		A	sg p
    	viha	0		S	sg g
    	viha	0		S	sg n
    	viha	0		S	sg p
pärast	pära	st		S	sg el
      	pärane	t		A	sg p
      	pärast	0		D	
      	pärast	0		K	
sest	see	st		P	sg el
    	sest	0		J	
enne	enne	0		D	
    	enne	0		K	
    	enne	0		S	sg n
meie	mina	0		P	pl g
    	mina	0		P	pl n
olime	ole	ime		V	sime
vihamehed	viha_mees	d		S	pl n
,	,			Z	
võib	või	b		V	b
ehk	ehk	0		D	
   	ehk	0		J	
olla	ole	a		V	da
et	et	0		J	
sa	sina	0		P	sg n
mõnega	mõni	ga		P	sg kom
vahetasid	vaheta	sid		V	sid
,	,			Z	
aga	aga	0		J	
mitte	mitte	0		D	
minuga	mina	ga		P	sg kom
sa	sina	0		P	sg n
põle	põle	0		V	o
vahetanud	vaheta	nud		V	nud
         	vaheta=nu	d		S	pl n
         	vaheta=nud	0		A	
         	vaheta=nud	0		A	sg n
         	vaheta=nud	d		A	pl n
.	.			Z	
Jüri	Jüri	0		H	sg g
    	Jüri	0		H	sg n
sobI	####				
ütleb	ütle	b		V	b
selle	see	0		P	sg g
     	sell	e		S	pl p
peale	pea	le		S	sg all
     	peale	0		D	
     	peale	0		K	
mina	mina	0		P	sg n
    	mina	0		S	sg g
    	mina	0		S	sg n
    	mina	0		S	sg p
tahan	taht	n		V	n
vanduda	vandu	da		V	da
et	et	0		J	
Toomaga	Toomas	ga		H	sg kom
vahetasime	vaheta	sime		V	sime
.	.			Z	
Toomas	Toomas	0		H	sg n
      	Toomas	s		H	sg in
      	too	mas		V	mas
kaetaja	kaeta=ja	0		S	sg g
       	kaeta=ja	0		S	sg n
ütleb	ütle	b		V	b
nii	nii	0		D	
puhas	puhas	0		A	sg n
ja	ja	0		J	
õige	õige	0		A	sg g
    	õige	0		A	sg n
    	õige	0		D	
kui	kui	0		D	
   	kui	0		J	
ma	mina	0		P	sg n
siin	siin	0		D	
    	siin	0		S	sg n
kohtu	kohtu	0		V	o
     	kohus	0		S	sg g
peegli	peegel	0		S	sg g
ees	ees	0		D	
   	ees	0		K	
   	esi	s		S	sg in
seisan	seis	n		V	n
,	,			Z	
sinuga	sina	ga		P	sg kom
ma	mina	0		P	sg n
põle	põle	0		V	o
sedelgid	####				
vahetanud	vaheta	nud		V	nud
         	vaheta=nu	d		S	pl n
         	vaheta=nud	0		A	
         	vaheta=nud	0		A	sg n
         	vaheta=nud	d		A	pl n
;	;			Z	
tunistuse	####				
mees	mees	0		S	sg n
    	mesi	s		S	sg in
Mihkel	Mihkel	0		H	sg n
      	mihkel	0		A	sg n
      	mihkel	0		S	sg n
Hansmik	####				
ütleb	ütle	b		V	b
:	:			Z	
Miina	Miina	0		H	sg g
     	Miina	0		H	sg n
tulin	tule	in		V	sin
poest	pood	st		S	sg el
välja	välja	0		D	
     	välja	0		V	o
     	väli	0		S	adt
     	väli	0		S	sg g
     	väli	0		S	sg p
,	,			Z	
ja	ja	0		J	
läksin	mine	sin		V	sin
kõrtsi	kõrts	0		S	adt
      	kõrts	0		S	sg g
      	kõrts	0		S	sg p
,	,			Z	
Jüri	Jüri	0		H	sg g
    	Jüri	0		H	sg n
sobI	####				
ütleb	ütle	b		V	b
tule	tuli	0		S	sg g
    	tule	0		V	o
võtta	võt	a		V	da
ka	ka	0		D	
liiku	liik	0		S	adt
     	liik	0		S	sg p
,	,			Z	
meie	mina	0		P	pl g
    	mina	0		P	pl n
vahetasime	vaheta	sime		V	sime
sedeljad	####				
,	,			Z	
mina	mina	0		P	sg n
    	mina	0		S	sg g
    	mina	0		S	sg n
    	mina	0		S	sg p
küsisin	küsi	sin		V	sin
kust	kusi	t		S	sg p
    	kust	0		D	
se	####				
mees	mees	0		S	sg n
    	mesi	s		S	sg in
on	ole	0		V	b
  	ole	0		V	vad
,	,			Z	
siis	siis	0		D	
    	siis	0		J	
Jüri	Jüri	0		H	sg g
    	Jüri	0		H	sg n
sobI	####				
ütles	ütle	s		V	s
et	et	0		J	
on	ole	0		V	b
  	ole	0		V	vad
Toomas	Toomas	0		H	sg n
      	Toomas	s		H	sg in
      	too	mas		V	mas
kaetaja	kaeta=ja	0		S	sg g
       	kaeta=ja	0		S	sg n
,	,			Z	
mina	mina	0		P	sg n
    	mina	0		S	sg g
    	mina	0		S	sg n
    	mina	0		S	sg p
teda	tema	da		P	sg p
küll	küll	0		D	
    	küll	0		S	sg n
ei	ei	0		D	
  	ei	0		V	neg
tund	tund	0		S	sg n
.	.			Z	
Toomas	Toomas	0		H	sg n
      	Toomas	s		H	sg in
      	too	mas		V	mas
kaedaja	####				
ütleb	ütle	b		V	b
võib	või	b		V	b
olla	ole	a		V	da
ehk	ehk	0		D	
   	ehk	0		J	
oli	ole	i		V	s
minu	mina	0		P	sg g
vend	vend	0		S	sg n
.	.			Z	
kogukona	####				
kohus	kohu	s		V	s
     	kohus	0		S	sg n
on	ole	0		V	b
  	ole	0		V	vad
nüüd	nüüd	0		D	
mitu	mitu	0		P	sg n
kord	kord	0		D	
    	kord	0		S	sg n
Jüri	Jüri	0		H	sg g
    	Jüri	0		H	sg n
Isoobid	####				
ja	ja	0		J	
Toomast	Toomas	st		H	sg el
       	Toomas	t		H	sg p
       	too	mast		V	mast
kaedajad	####				
usutanud	usuta	nud		V	nud
        	usuta=nu	d		S	pl n
        	usuta=nud	0		A	
        	usuta=nud	0		A	sg n
        	usuta=nud	d		A	pl n
,	,			Z	
ja	ja	0		J	
aga	aga	0		J	
ei	ei	0		D	
  	ei	0		V	neg
või	või	0		S	sg g
   	või	0		V	o
   	või	0		D	
   	või	0		J	
   	või	0		S	sg n
neid	neid	0		S	sg n
    	see	d		P	pl p
    	tema	d		P	pl p
mehi	mees	0		S	pl p
mitte	mitte	0		D	
vargaks	varas	ks		S	sg tr
mõista	mõist	0		V	o
      	mõist	a		V	da
,	,			Z	
selle	see	0		P	sg g
     	sell	e		S	pl p
ühe	üks	0		N	sg g
   	üks	0		P	sg g
   	ühe	0		S	sg n
tunnismehe	tunnis_mees	0		S	sg g
läbi	läbi	0		D	
    	läbi	0		K	
    	läbi	0		V	o
.	.			Z	
Toomas	Toomas	0		H	sg n
      	Toomas	s		H	sg in
      	too	mas		V	mas
Pent	Pent	0		H	sg n
ei	ei	0		D	
  	ei	0		V	neg
ole	ole	0		V	o
sellega	see	ga		P	sg kom
rahul	rahu	l		S	sg ad
     	rahul	0		D	
nõuab	nõud	b		V	b
suremat	####				
kohut	kohus	t		S	sg p
.	.			Z	
Jääb	jää	b		V	b
suurema	suurem	0		C	sg g
kohtu	kohtu	0		V	o
     	kohus	0		S	sg g
hooleks	hool	ks		S	sg tr
.	.			Z	
pea	pea	0		D	
   	pea	0		S	sg g
   	pida	0		V	o
   	pea	0		S	sg n
kohtumees	kohtu_mees	0		S	sg n
Hans	Hans	0		H	sg n
Parman	####				
XXX	XXX	0		O	?
   	XXX	0		Y	?
Jaan	Jaan	0		H	sg n
    	jaan	0		S	sg n
    	jaan	0		Y	?
Tagobert	####				
XXX	XXX	0		O	?
   	XXX	0		Y	?
Jaan	Jaan	0		H	sg n
    	jaan	0		S	sg n
    	jaan	0		Y	?
rulinkoff	####				
XXX	XXX	0		O	?
   	XXX	0		Y	?
