protokoll	protokoll	0		S	sg n
sel	see	l		P	sg ad
   	sel	0		Y	?
2sel	####				
jaanuaris	jaanuar	s		S	sg in
1881	1881	0		N	?
koos	koos	0		D	
    	koos	0		K	
    	koos	0		S	sg n
    	kubu	s		S	sg in
olid	ole	id		V	sid
kohtu	kohtu	0		V	o
     	kohus	0		S	sg g
peavanem	pea_vanem	0		C	sg n
        	pea_vanem	0		S	sg n
:	:			Z	
Jaan	Jaan	0		H	sg n
    	jaan	0		S	sg n
    	jaan	0		Y	?
Saarmann	saar_mann	0		S	sg n
Jaan	Jaan	0		H	sg n
    	jaan	0		S	sg n
    	jaan	0		Y	?
Kreep	####				
Hans	Hans	0		H	sg n
Simsohn	####				
kirjutaja	kirjutaja	0		S	sg g
         	kirjutaja	0		S	sg n
H	H	0		Y	?
.	.			Z	
_	_			Z	
Saarmu	####				
№	№	0		Y	?
1	1	0		N	?
kohtu	kohtu	0		V	o
     	kohus	0		S	sg g
laua	laud	0		S	sg g
ette	ette	0		D	
    	ette	0		K	
    	esi	tte		S	adt
astus	astu	s		V	s
talitaja	talitaja	0		S	sg g
        	talitaja	0		S	sg n
abimes	####				
Johan	Johan	0		H	sg n
Paawel	####				
ja	ja	0		J	
kaebas	kaeba	s		V	s
,	,			Z	
et	et	0		J	
Eduart	####				
Kreep	####				
on	ole	0		V	b
  	ole	0		V	vad
kaks	kaks	0		N	sg n
korda	kord	0		S	adt
     	korda	0		V	o
     	kord	0		S	sg p
selle	see	0		P	sg g
     	sell	e		S	pl p
1se	####				
Tetsembri	####				
kuu	kuu	0		S	sg g
   	kuu	0		S	sg n
päeva	päev	0		S	adt
     	päev	0		S	sg g
     	päev	0		S	sg p
№	№	0		Y	?
48	48	0		N	?
protokoli	####				
täitmise	täitmine	0		S	sg g
pärast	pära	st		S	sg el
      	pärane	t		A	sg p
      	pärast	0		D	
      	pärast	0		K	
tema	tema	0		P	sg g
    	tema	0		P	sg n
käsu	käsk	0		S	sg g
vastu	vastu	0		D	
     	vastu	0		K	
pannud	pan=nu	d		S	pl n
      	pan=nud	0		A	
      	pan=nud	0		A	sg n
      	pan=nud	d		A	pl n
      	pane	nud		V	nud
ja	ja	0		J	
ei	ei	0		D	
  	ei	0		V	neg
ole	ole	0		V	o
seda	see	da		P	sg p
mitte	mitte	0		D	
ära	ära	0		D	
   	ära	0		V	neg o
täitnud	täit	nud		V	nud
       	täit=nu	d		S	pl n
       	täit=nud	0		A	
       	täit=nud	0		A	sg n
       	täit=nud	d		A	pl n
,	,			Z	
mis	mis	0		P	pl n
   	mis	0		P	sg n
kohtu	kohtu	0		V	o
     	kohus	0		S	sg g
poolest	pool	st		N	sg el
       	pool	st		S	sg el
       	poolene	t		A	sg p
       	poolest	0		K	
tema	tema	0		P	sg g
    	tema	0		P	sg n
peale	pea	le		S	sg all
     	peale	0		D	
     	peale	0		K	
sai	saa	i		V	s
   	sai	0		S	sg n
mõistetud	mõist	tud		V	tud
         	mõiste=tu	d		S	pl n
         	mõiste=tud	0		A	
         	mõiste=tud	0		A	sg n
         	mõiste=tud	d		A	pl n
ja	ja	0		J	
kellega	kes	ga		P	pl kom
       	kes	ga		P	sg kom
Eduart	####				
ise	ise	0		A	
   	ise	0		D	
   	ise	0		P	pl n
   	ise	0		P	sg n
ka	ka	0		D	
rahul	rahu	l		S	sg ad
     	rahul	0		D	
oli	ole	i		V	s
.	.			Z	
Eduart	####				
Kreep	####				
astus	astu	s		V	s
ette	ette	0		D	
    	ette	0		K	
    	esi	tte		S	adt
ja	ja	0		J	
salanud	salga	nud		V	nud
       	sala=nu	d		S	pl n
       	sala=nud	0		A	
       	sala=nud	0		A	sg n
       	sala=nud	d		A	pl n
seda	see	da		P	sg p
mitte	mitte	0		D	
ära	ära	0		D	
   	ära	0		V	neg o
.	.			Z	
mõistetud	mõist	tud		V	tud
         	mõiste=tu	d		S	pl n
         	mõiste=tud	0		A	
         	mõiste=tud	0		A	sg n
         	mõiste=tud	d		A	pl n
sai	saa	i		V	s
   	sai	0		S	sg n
:	:			Z	
et	et	0		J	
Eduart	####				
Kreep	####				
peab	pida	b		V	b
talitaja	talitaja	0		S	sg g
        	talitaja	0		S	sg n
abimehe	abi_mees	0		S	sg g
Johann	Johann	0		H	sg n
Paavli	####				
käsu	käsk	0		S	sg g
vastu	vastu	0		D	
     	vastu	0		K	
panemise	panemine	0		S	sg g
ja	ja	0		J	
selle	see	0		P	sg g
     	sell	e		S	pl p
üleval	ülev	l		A	sg ad
      	üleval	0		D	
nimetatud	nimeta	tud		V	tud
         	nimetatu	d		S	pl n
         	nimetatud	0		A	
         	nimetatud	0		A	sg n
         	nimetatud	d		A	pl n
protokoli	####				
täitmise	täitmine	0		S	sg g
pärast	pära	st		S	sg el
      	pärane	t		A	sg p
      	pärast	0		D	
      	pärast	0		K	
3	3	0		N	?
päeva	päev	0		S	adt
     	päev	0		S	sg g
     	päev	0		S	sg p
puuris	puur	s		S	sg in
      	puuri	s		V	s
olema	ole	ma		V	ma
ja	ja	0		J	
selle	see	0		P	sg g
     	sell	e		S	pl p
16	16	0		N	?
rubla	rubla	0		S	sg g
     	rubla	0		S	sg n
     	rubla	0		S	sg p
9.	9.	0		O	?
jaanuaris	jaanuar	s		S	sg in
ära	ära	0		D	
   	ära	0		V	neg o
maksma	maks	ma		V	ma
.	.			Z	
Semõistmine	####				
kuulutud	kuulu	tud		V	tud
        	kuulu=tu	d		S	pl n
        	kuulu=tud	0		A	
        	kuulu=tud	0		A	sg n
        	kuulu=tud	d		A	pl n
ja	ja	0		J	
Eduartil	####				
ei	ei	0		D	
  	ei	0		V	neg
olnud	ol=nud	0		A	
     	ol=nud	0		A	sg n
     	ol=nud	d		A	pl n
     	ole	nud		V	nud
     	olnu	d		S	pl n
selle	see	0		P	sg g
     	sell	e		S	pl p
vastu	vastu	0		D	
     	vastu	0		K	
midagi	miski	dagi		P	sg p
rääkimist	rääkimine	t		S	sg p
.	.			Z	
aga	aga	0		J	
peale	pea	le		S	sg all
     	peale	0		D	
     	peale	0		K	
selle	see	0		P	sg g
     	sell	e		S	pl p
on	ole	0		V	b
  	ole	0		V	vad
Eduard	Eduard	0		H	sg n
Kreep	####				
kohtu	kohtu	0		V	o
     	kohus	0		S	sg g
vastu	vastu	0		D	
     	vastu	0		K	
hirmus	hirm	s		S	sg in
      	hirmu	s		V	s
      	hirmus	0		A	sg n
      	hirmus	0		D	
rop	####				
olnud	ol=nud	0		A	
     	ol=nud	0		A	sg n
     	ol=nud	d		A	pl n
     	ole	nud		V	nud
     	olnu	d		S	pl n
ja	ja	0		J	
kohtu	kohtu	0		V	o
     	kohus	0		S	sg g
mõistajaid	####				
kuradi	kurat	0		S	sg g
nimega	nimi	ga		S	sg kom
sõimanud	sõima	nud		V	nud
        	sõima=nu	d		S	pl n
        	sõima=nud	0		A	
        	sõima=nud	0		A	sg n
        	sõima=nud	d		A	pl n
ja	ja	0		J	
ka	ka	0		D	
vandudes	vandu	des		V	des
,	,			Z	
ilma	ilm	0		S	adt
    	ilm	0		S	sg g
    	ilma	0		D	
    	ilma	0		K	
    	ilm	0		S	sg p
luba	luba	0		S	sg n
    	luba	0		V	o
    	luba	0		S	sg p
andmata	and	mata		V	mata
       	and=mata	0		A	
kohtu	kohtu	0		V	o
     	kohus	0		S	sg g
majast	maja	st		S	sg el
välja	välja	0		D	
     	välja	0		V	o
     	väli	0		S	adt
     	väli	0		S	sg g
     	väli	0		S	sg p
läinud	läinu	d		S	pl n
      	läinud	0		A	
      	läinud	0		A	sg n
      	läinud	d		A	pl n
      	mine	nud		V	nud
ja	ja	0		J	
ukse	uks	0		S	sg g
nõnda	nõnda	0		D	
kõvaste	####				
kinni	kinni	0		D	
pannud	pan=nu	d		S	pl n
      	pan=nud	0		A	
      	pan=nud	0		A	sg n
      	pan=nud	d		A	pl n
      	pane	nud		V	nud
,	,			Z	
et	et	0		J	
maja	maja	0		S	sg g
    	maja	0		S	sg n
    	maja	0		S	sg p
põrus	põru	s		V	s
.	.			Z	
seepärast	see_pärast	0		D	
,	,			Z	
et	et	0		J	
Eduard	Eduard	0		H	sg n
Kreep	####				
nõnda	nõnda	0		D	
rop	####				
on	ole	0		V	b
  	ole	0		V	vad
kohtu	kohtu	0		V	o
     	kohus	0		S	sg g
ees	ees	0		D	
   	ees	0		K	
   	esi	s		S	sg in
olnud	ol=nud	0		A	
     	ol=nud	0		A	sg n
     	ol=nud	d		A	pl n
     	ole	nud		V	nud
     	olnu	d		S	pl n
,	,			Z	
sai	saa	i		V	s
   	sai	0		S	sg n
mõistetud	mõist	tud		V	tud
         	mõiste=tu	d		S	pl n
         	mõiste=tud	0		A	
         	mõiste=tud	0		A	sg n
         	mõiste=tud	d		A	pl n
,	,			Z	
et	et	0		J	
tema	tema	0		P	sg g
    	tema	0		P	sg n
peab	pida	b		V	b
4	4	0		N	?
päeva	päev	0		S	adt
     	päev	0		S	sg g
     	päev	0		S	sg p
puuris	puur	s		S	sg in
      	puuri	s		V	s
olema	ole	ma		V	ma
.	.			Z	
Semõistmine	####				
sai	saa	i		V	s
   	sai	0		S	sg n
kuulutud	kuulu	tud		V	tud
        	kuulu=tu	d		S	pl n
        	kuulu=tud	0		A	
        	kuulu=tud	0		A	sg n
        	kuulu=tud	d		A	pl n
ja	ja	0		J	
Eduartil	####				
ei	ei	0		D	
  	ei	0		V	neg
olnud	ol=nud	0		A	
     	ol=nud	0		A	sg n
     	ol=nud	d		A	pl n
     	ole	nud		V	nud
     	olnu	d		S	pl n
selle	see	0		P	sg g
     	sell	e		S	pl p
vastu	vastu	0		D	
     	vastu	0		K	
midagi	miski	dagi		P	sg p
rääkimist	rääkimine	t		S	sg p
.	.			Z	
Eduart	####				
puuris	puur	s		S	sg in
      	puuri	s		V	s
olemine	olemine	0		S	sg n
on	ole	0		V	b
  	ole	0		V	vad
täidetud	täit	tud		V	tud
        	täide=tu	d		S	pl n
        	täide=tud	0		A	
        	täide=tud	0		A	sg n
        	täide=tud	d		A	pl n
,	,			Z	
aga	aga	0		J	
raha	raha	0		S	sg g
    	raha	0		S	sg n
    	raha	0		S	sg p
trahv	trahv	0		S	sg n
on	ole	0		V	b
  	ole	0		V	vad
täitma	täit	ma		V	ma
.	.			Z	
protokoll	protokoll	0		S	sg n
välja	välja	0		D	
     	välja	0		V	o
     	väli	0		S	adt
     	väli	0		S	sg g
     	väli	0		S	sg p
antud	an=tu	d		S	pl n
     	and	tud		V	tud
     	antud	0		A	
     	antud	0		A	sg n
     	antud	d		A	pl n
.	.			Z	
Kirna	####				
valla	vald	0		S	sg g
     	valla	0		D	
kohtu	kohtu	0		V	o
     	kohus	0		S	sg g
nimel	nimel	0		K	
     	nimi	l		S	sg ad
,	,			Z	
peavanem	pea_vanem	0		C	sg n
        	pea_vanem	0		S	sg n
:	:			Z	
Jaan	Jaan	0		H	sg n
    	jaan	0		S	sg n
    	jaan	0		Y	?
Saarmann	saar_mann	0		S	sg n
XXX	XXX	0		O	?
   	XXX	0		Y	?
Jaan	Jaan	0		H	sg n
    	jaan	0		S	sg n
    	jaan	0		Y	?
Kreeps	kreeps	0		S	sg n
XXX	XXX	0		O	?
   	XXX	0		Y	?
Hans	Hans	0		H	sg n
Simsohn	####				
XXX	XXX	0		O	?
   	XXX	0		Y	?
tunnistuseks	tunnistus	ks		S	sg tr
kirjutaja	kirjutaja	0		S	sg g
         	kirjutaja	0		S	sg n
:	:			Z	
H	H	0		Y	?
.	.			Z	
_	_			Z	
Saarmu	####				
/	/			Z	
allkiri	all_kiri	0		S	sg n
/	/			Z	
