48	48	0		N	?
)	)			Z	
kõrgemäe	kõrge_mägi	0		S	sg g
Mart	Mart	0		H	sg n
    	mart	0		S	sg n
Venno	Venno	0		H	sg g
     	Venno	0		H	sg n
tunnistas	tunnista	s		V	s
,	,			Z	
mina	mina	0		P	sg n
    	mina	0		S	sg g
    	mina	0		S	sg n
    	mina	0		S	sg p
ise	ise	0		A	
   	ise	0		D	
   	ise	0		P	pl n
   	ise	0		P	sg n
tegin	tege	in		V	sin
toa	tuba	0		S	sg g
ja	ja	0		J	
Aitatud	####				
ja	ja	0		J	
lutatud	####				
ja	ja	0		J	
on	ole	0		V	b
  	ole	0		V	vad
minu	mina	0		P	sg g
.	.			Z	
Mart	Mart	0		H	sg n
    	mart	0		S	sg n
Venno	Venno	0		H	sg g
     	Venno	0		H	sg n
+	+			Z	
+	+			Z	
+	+			Z	
