7	7	0		N	?
)	)			Z	
talitaja	talitaja	0		S	sg g
        	talitaja	0		S	sg n
Mart	Mart	0		H	sg n
    	mart	0		S	sg n
Tougo	####				
kaebas	kaeba	s		V	s
et	et	0		J	
Ula	ula	0		D	
   	ula	0		V	o
Mihkel	Mihkel	0		H	sg n
      	mihkel	0		A	sg n
      	mihkel	0		S	sg n
Selli	sell	0		S	adt
     	sell	0		S	sg g
     	sell	0		S	sg p
tunnistas	tunnista	s		V	s
mulle	mull	e		S	pl p
     	mina	lle		P	sg all
     	mulle	0		S	sg n
et	et	0		J	
Kai	Kai	0		H	sg g
   	Kai	0		H	sg n
   	kai	0		S	sg g
   	kai	0		S	sg n
Parsakas	####				
kauples	kauple	s		V	s
ennast	ise	t		P	sg p
mulle	mull	e		S	pl p
     	mina	lle		P	sg all
     	mulle	0		S	sg n
tüdrukuks	tüdruk	ks		S	sg tr
ja	ja	0		J	
sai	saa	i		V	s
   	sai	0		S	sg n
20	20	0		N	?
kopik	####				
käe	käsi	0		S	sg g
raha	raha	0		S	sg g
    	raha	0		S	sg n
    	raha	0		S	sg p
kätte	kätte	0		K	
     	käsi	tte		S	adt
ja	ja	0		J	
nüüd	nüüd	0		D	
enam	enam	0		C	sg n
    	enam	0		D	
ei	ei	0		D	
  	ei	0		V	neg
tule	tuli	0		S	sg g
    	tule	0		V	o
,	,			Z	
kasu	kasu	0		S	sg g
    	kasu	0		S	sg n
    	kasu	0		S	sg p
mul	mina	l		P	sg ad
ei	ei	0		D	
  	ei	0		V	neg
ole	ole	0		V	o
,	,			Z	
Kai	Kai	0		H	sg g
   	Kai	0		H	sg n
   	kai	0		S	sg g
   	kai	0		S	sg n
Parsakas	####				
tunnistas	tunnista	s		V	s
käe	käsi	0		S	sg g
raha	raha	0		S	sg g
    	raha	0		S	sg n
    	raha	0		S	sg p
küll	küll	0		D	
    	küll	0		S	sg n
sain	saa	in		V	sin
aga	aga	0		J	
teenima	teeni	ma		V	ma
ma	mina	0		P	sg n
teda	tema	da		P	sg p
ei	ei	0		D	
  	ei	0		V	neg
lähe	lähe	0		S	sg n
    	mine	0		V	neg o
käeraha	käe_raha	0		S	sg g
       	käe_raha	0		S	sg n
       	käe_raha	0		S	sg p
annan	and	n		V	n
tagasi	tagasi	0		D	
      	tagasi	0		K	
.	.			Z	
selle	see	0		P	sg g
     	sell	e		S	pl p
peale	pea	le		S	sg all
     	peale	0		D	
     	peale	0		K	
mõistis	mõist	is		V	s
kogu	kogu	0		A	
    	kogu	0		S	sg g
    	kogu	0		V	o
    	kogu	0		S	sg n
    	kogu	0		S	sg p
konna	konn	0		S	adt
     	konn	0		S	sg g
     	konn	0		S	sg p
kohus	kohu	s		V	s
     	kohus	0		S	sg n
et	et	0		J	
Kai	Kai	0		H	sg g
   	Kai	0		H	sg n
   	kai	0		S	sg g
   	kai	0		S	sg n
Parsakas	####				
maksab	maks	b		V	b
1	1	0		N	?
rupla	####				
trahvi	trahv	0		S	adt
      	trahv	0		S	sg g
      	trahvi	0		V	o
      	trahv	0		S	sg p
laekasse	laegas	sse		S	sg ill
447no	####				
.	.			Z	
