kogukonna	kogukond	0		S	sg g
kohus	kohu	s		V	s
     	kohus	0		S	sg n
17.	17.	0		O	?
märtsil	märts	l		S	sg ad
1879.	1879.	0		O	?
kohtuvanem	kohtu_vanem	0		C	sg n
          	kohtu_vanem	0		S	sg n
:	:			Z	
Jüri	Jüri	0		H	sg g
    	Jüri	0		H	sg n
Toomson	####				
XXX	XXX	0		O	?
   	XXX	0		Y	?
kohtumees	kohtu_mees	0		S	sg n
:	:			Z	
Juhan	Juhan	0		H	sg n
Kerem	####				
XXX	XXX	0		O	?
   	XXX	0		Y	?
""""	""""			Z	
""""	""""			Z	
""""	""""			Z	
""""	""""			Z	
:	:			Z	
Jaan	Jaan	0		H	sg n
    	jaan	0		S	sg n
    	jaan	0		Y	?
Veeber	####				
XXX	XXX	0		O	?
   	XXX	0		Y	?
Villem	Villem	0		H	sg n
Raudsep	####				
,	,			Z	
Villema	vill_ema	0		S	sg g
       	vill_ema	0		S	sg n
       	vill_ema	0		S	sg p
poeg	poeg	0		S	sg n
Lokuta	lokk	ta		S	sg ab
vallast	vald	st		S	sg el
,	,			Z	
keda	kes	da		P	pl p
    	kes	da		P	sg p
ühe	üks	0		N	sg g
   	üks	0		P	sg g
   	ühe	0		S	sg n
vask	vask	0		S	sg n
margapuu	marga_puu	0		S	sg g
        	marga_puu	0		S	sg n
müümise	müümine	0		S	sg g
pärast	pära	st		S	sg el
      	pärane	t		A	sg p
      	pärast	0		D	
      	pärast	0		K	
kohtu	kohtu	0		V	o
     	kohus	0		S	sg g
ette	ette	0		D	
    	ette	0		K	
    	esi	tte		S	adt
kutsuti	kutsu	ti		V	ti
,	,			Z	
tunnistas	tunnista	s		V	s
,	,			Z	
et	et	0		J	
tema	tema	0		P	sg g
    	tema	0		P	sg n
selle	see	0		P	sg g
     	sell	e		S	pl p
vask	vask	0		S	sg n
margapuu	marga_puu	0		S	sg g
        	marga_puu	0		S	sg n
(	(			Z	
keda	kes	da		P	pl p
    	kes	da		P	sg p
Kabala	kabala	0		S	sg g
      	kabala	0		S	sg n
valla	vald	0		S	sg g
     	valla	0		D	
Kurla	####				
kõrtsmik	kõrtsmik	0		S	sg n
siin	siin	0		D	
    	siin	0		S	sg n
omaks	oma	ks		A	sg tr
     	oma	ks		P	sg tr
     	oma	ks		S	sg tr
     	oma	ks		V	ks
tunnistanud	tunnista	nud		V	nud
           	tunnista=nu	d		S	pl n
           	tunnista=nud	0		A	
           	tunnista=nud	0		A	sg n
           	tunnista=nud	d		A	pl n
)	)			Z	
Jaan	Jaan	0		H	sg n
    	jaan	0		S	sg n
    	jaan	0		Y	?
Veebrile	####				
4	4	0		N	?
rbl	rbl	0		Y	?
.	.			Z	
70	70	0		N	?
kop	kop	0		Y	?
.	.			Z	
eest	eest	0		D	
    	eest	0		K	
    	esi	st		S	sg el
on	ole	0		V	b
  	ole	0		V	vad
müüünud	####				
,	,			Z	
ja	ja	0		J	
et	et	0		J	
tema	tema	0		P	sg g
    	tema	0		P	sg n
(	(			Z	
Villem	Villem	0		H	sg n
Raudsep	####				
)	)			Z	
seda	see	da		P	sg p
saama	saa	ma		V	ma
     	saam	0		S	adt
     	saam	0		S	sg g
     	saam	0		S	sg p
margapuud	marga_puu	d		S	pl n
         	marga_puu	d		S	sg p
ise	ise	0		A	
   	ise	0		D	
   	ise	0		P	pl n
   	ise	0		P	sg n
juba	juba	0		D	
kahe	kaks	0		N	sg g
aasta	aasta	0		S	sg g
     	aasta	0		S	sg n
eest	eest	0		D	
    	eest	0		K	
    	esi	st		S	sg el
Paide	Paide	0		H	adt
     	pai	de		A	pl g
     	pai	de		S	pl g
     	Paide	0		H	sg g
     	Paide	0		H	sg n
laadal	laat	l		S	sg ad
3	3	0		N	?
rbl	rbl	0		Y	?
50	50	0		N	?
kop	kop	0		Y	?
.	.			Z	
eest	eest	0		D	
    	eest	0		K	
    	esi	st		S	sg el
ühe	üks	0		N	sg g
   	üks	0		P	sg g
   	ühe	0		S	sg n
tundmata	tund	mata		V	mata
        	tund=mata	0		A	
mehe	mees	0		S	sg g
käest	käest	0		K	
     	käsi	st		S	sg el
olla	ole	a		V	da
ostnud	ost	nud		V	nud
      	ost=nu	d		S	pl n
      	ost=nud	0		A	
      	ost=nud	0		A	sg n
      	ost=nud	d		A	pl n
.	.			Z	
mõistetud	mõist	tud		V	tud
         	mõiste=tu	d		S	pl n
         	mõiste=tud	0		A	
         	mõiste=tud	0		A	sg n
         	mõiste=tud	d		A	pl n
ja	ja	0		J	
sel	see	l		P	sg ad
   	sel	0		Y	?
samal	sama	l		P	sg ad
päeval	päev	l		S	sg ad
ette	ette	0		D	
    	ette	0		K	
    	esi	tte		S	adt
kuulutud	kuulu	tud		V	tud
        	kuulu=tu	d		S	pl n
        	kuulu=tud	0		A	
        	kuulu=tud	0		A	sg n
        	kuulu=tud	d		A	pl n
:	:			Z	
see	see	0		P	sg n
vaskmargapuu	vask_marga_puu	0		S	sg g
            	vask_marga_puu	0		S	sg n
saab	saa	b		V	b
,	,			Z	
sest	see	st		P	sg el
    	sest	0		J	
,	,			Z	
et	et	0		J	
Kurla	####				
kõrtsmik	kõrtsmik	0		S	sg n
seda	see	da		P	sg p
enda	ise	0		P	sg g
käest	käest	0		K	
     	käsi	st		S	sg el
ütles	ütle	s		V	s
ära	ära	0		D	
   	ära	0		V	neg o
varastatud	varasta	tud		V	tud
          	varastatu	d		S	pl n
          	varastatud	0		A	
          	varastatud	0		A	sg n
          	varastatud	d		A	pl n
olevat	ole	vat		V	vat
      	olev	t		A	sg p
      	olev	t		S	sg p
,	,			Z	
Jaan	Jaan	0		H	sg n
    	jaan	0		S	sg n
    	jaan	0		Y	?
Veebri	####				
käest	käest	0		K	
     	käsi	st		S	sg el
ära	ära	0		D	
   	ära	0		V	neg o
võetud	võe=tu	d		S	pl n
      	võetud	0		A	
      	võetud	0		A	sg n
      	võetud	d		A	pl n
      	võt	tud		V	tud
ja	ja	0		J	
tänase	tänane	0		A	sg g
protokollika	####				
ühes	üks	s		N	sg in
    	üks	s		P	sg in
    	ühes	0		D	
    	ühes	0		K	
Kabala	kabala	0		S	sg g
      	kabala	0		S	sg n
valla	vald	0		S	sg g
     	valla	0		D	
kogukonna	kogukond	0		S	sg g
kohtusse	kohtune	se		A	adt
        	kohus	sse		S	sg ill
saadetud	saat	tud		V	tud
        	saade=tu	d		S	pl n
        	saadetud	0		A	
        	saadetud	0		A	sg n
        	saadetud	d		A	pl n
,	,			Z	
ja	ja	0		J	
Villem	Villem	0		H	sg n
Raudsep	####				
lähab	####				
selle	see	0		P	sg g
     	sell	e		S	pl p
pärast	pära	st		S	sg el
      	pärane	t		A	sg p
      	pärast	0		D	
      	pärast	0		K	
Kabala	kabala	0		S	sg g
      	kabala	0		S	sg n
valla	vald	0		S	sg g
     	valla	0		D	
kogukonna	kogukond	0		S	sg g
kohtusse	kohtune	se		A	adt
        	kohus	sse		S	sg ill
,	,			Z	
ja	ja	0		J	
peale	pea	le		S	sg all
     	peale	0		D	
     	peale	0		K	
selle	see	0		P	sg g
     	sell	e		S	pl p
peab	pida	b		V	b
Villem	Villem	0		H	sg n
Raudsep	####				
margapuu	marga_puu	0		S	sg g
        	marga_puu	0		S	sg n
eest	eest	0		D	
    	eest	0		K	
    	esi	st		S	sg el
saadu	saad	0		S	adt
     	saadu	0		S	sg g
     	saadud	0		A	sg g
     	saad	0		S	sg p
     	saadu	0		S	sg n
raha	raha	0		S	sg g
    	raha	0		S	sg n
    	raha	0		S	sg p
4	4	0		N	?
rbl	rbl	0		Y	?
.	.			Z	
70	70	0		N	?
kop	kop	0		Y	?
.	.			Z	
Jaan	Jaan	0		H	sg n
    	jaan	0		S	sg n
    	jaan	0		Y	?
Veebrile	####				
Jüri	Jüri	0		H	sg g
    	Jüri	0		H	sg n
päevaks	päev	ks		S	sg tr
tagasi	tagasi	0		D	
      	tagasi	0		K	
maksma	maks	ma		V	ma
,	,			Z	
seega	seega	0		D	
oli	ole	i		V	s
kohus	kohu	s		V	s
     	kohus	0		S	sg n
mõõdas	####				
ja	ja	0		J	
Villem	Villem	0		H	sg n
Raudsepa	raud_sepp	0		S	sg g
raha_maksmine	####				
jäi	jää	i		V	s
tulevaseks	tulevane	ks		A	sg tr
          	tulevane	ks		S	sg tr
kohtu	kohtu	0		V	o
     	kohus	0		S	sg g
päevaks	päev	ks		S	sg tr
.	.			Z	
(	(			Z	
kohtu	kohtu	0		V	o
     	kohus	0		S	sg g
otsus	otsus	0		S	sg n
on	ole	0		V	b
  	ole	0		V	vad
täidetud	täit	tud		V	tud
        	täide=tu	d		S	pl n
        	täide=tud	0		A	
        	täide=tud	0		A	sg n
        	täide=tud	d		A	pl n
)	)			Z	
kohtu	kohtu	0		V	o
     	kohus	0		S	sg g
vanem	vanem	0		C	sg n
     	vanem	0		S	sg n
:	:			Z	
Jüri	Jüri	0		H	sg g
    	Jüri	0		H	sg n
Toomson	####				
XXX	XXX	0		O	?
   	XXX	0		Y	?
kohtu	kohtu	0		V	o
     	kohus	0		S	sg g
mees	mees	0		S	sg n
    	mesi	s		S	sg in
:	:			Z	
Juhan	Juhan	0		H	sg n
Kerem	####				
XXX	XXX	0		O	?
   	XXX	0		Y	?
""""	""""			Z	
""""	""""			Z	
""""	""""			Z	
""""	""""			Z	
:	:			Z	
Jaan	Jaan	0		H	sg n
    	jaan	0		S	sg n
    	jaan	0		Y	?
Veeber	####				
XXX	XXX	0		O	?
   	XXX	0		Y	?
