Einmanni	####				
mõisa	mõis	0		S	sg g
valitseja	valitseja	0		S	sg g
         	valitseja	0		S	sg n
härra	härra	0		S	sg g
     	härra	0		S	sg n
kaebas	kaeba	s		V	s
:	:			Z	
et	et	0		J	
tema	tema	0		P	sg g
    	tema	0		P	sg n
valitsuse	valitsus	0		S	sg g
all	all	0		D	
   	all	0		K	
,	,			Z	
mõisa	mõis	0		S	sg g
teomehed	teo_mees	d		S	pl n
,	,			Z	
Mart	Mart	0		H	sg n
    	mart	0		S	sg n
rääsak	####				
ja	ja	0		J	
Hans	Hans	0		H	sg n
Neidorff	####				
,	,			Z	
tulnud	tul=nud	0		A	
      	tul=nud	0		A	sg n
      	tul=nud	d		A	pl n
      	tule	nud		V	nud
      	tulnu	d		S	pl n
Tapalt	Tapa	lt		H	sg abl
      	tapp	lt		S	sg abl
viina	viin	0		S	adt
     	viin	0		S	sg g
     	viin	0		S	sg p
viimast	vii	mast		V	mast
       	viimane	t		A	sg p
,	,			Z	
ja	ja	0		J	
sõitnud	sõit	nud		V	nud
       	sõit=nu	d		S	pl n
       	sõit=nud	0		A	
       	sõit=nud	0		A	sg n
       	sõit=nud	d		A	pl n
teist	sina	st		P	pl el
     	tee	ist		S	pl el
     	teist	0		D	
     	teine	t		O	sg p
     	teine	t		P	sg p
teed	tee	d		S	pl n
    	tege	d		V	d
    	tee	d		S	sg p
kõverite	####				
,	,			Z	
ja	ja	0		J	
käinud	käi	nud		V	nud
      	käi=nud	0		A	
      	käi=nud	0		A	sg n
      	käi=nud	d		A	pl n
      	käinu	d		S	pl n
Roosna	Roosna	0		H	sg g
      	Roosna	0		H	sg n
kõrtsis	kõrts	s		S	sg in
purjutamas	purjuta	mas		V	mas
,	,			Z	
ja	ja	0		J	
tulnud	tul=nud	0		A	
      	tul=nud	0		A	sg n
      	tul=nud	d		A	pl n
      	tule	nud		V	nud
      	tulnu	d		S	pl n
pärast	pära	st		S	sg el
      	pärane	t		A	sg p
      	pärast	0		D	
      	pärast	0		K	
teise	teine	0		O	adt
     	teine	0		O	sg g
     	teine	0		P	adt
     	teine	0		P	sg g
koju	kodu	0		S	adt
.	.			Z	
Mart	Mart	0		H	sg n
    	mart	0		S	sg n
rääsak	####				
,	,			Z	
ja	ja	0		J	
Hans	Hans	0		H	sg n
Neidorff	####				
,	,			Z	
tunnistasid	tunnista	sid		V	sid
:	:			Z	
et	et	0		J	
nemad	tema	d		P	pl n
tulnud	tul=nud	0		A	
      	tul=nud	0		A	sg n
      	tul=nud	d		A	pl n
      	tule	nud		V	nud
      	tulnu	d		S	pl n
teist	sina	st		P	pl el
     	tee	ist		S	pl el
     	teist	0		D	
     	teine	t		O	sg p
     	teine	t		P	sg p
teed	tee	d		S	pl n
    	tege	d		V	d
    	tee	d		S	sg p
,	,			Z	
1	1	0		N	?
verst	verst	0		S	sg n
maa	maa	0		S	sg g
   	maa	0		S	sg n
kõverite	####				
,	,			Z	
nimelt	nimelt	0		D	
      	nimi	lt		S	sg abl
selle	see	0		P	sg g
     	sell	e		S	pl p
pärast	pära	st		S	sg el
      	pärane	t		A	sg p
      	pärast	0		D	
      	pärast	0		K	
et	et	0		J	
oli	ole	i		V	s
pood	poo	d		V	d
    	pood	0		S	sg n
seal	seal	0		D	
    	siga	l		A	sg ad
    	siga	l		S	sg ad
ja	ja	0		J	
Mart	Mart	0		H	sg n
    	mart	0		S	sg n
kässa	####				
osdnud	####				
:	:			Z	
üks	üks	0		N	sg n
   	üks	0		P	sg n
nael	nael	0		S	sg n
Petroljumind	####				
,	,			Z	
põletamise	põletamine	0		S	sg g
tarvis	tarvis	0		D	
      	tarvis	0		K	
;	;			Z	
ja	ja	0		J	
Hans	Hans	0		H	sg n
Neidorff	####				
tunnistas	tunnista	s		V	s
;	;			Z	
et	et	0		J	
se	####				
oli	ole	i		V	s
pühapenne	püha_penn	e		S	pl p
         	püha_penne	0		S	sg g
         	püha_penne	0		S	sg n
päeva	päev	0		S	adt
     	päev	0		S	sg g
     	päev	0		S	sg p
,	,			Z	
kui	kui	0		D	
   	kui	0		J	
meie	mina	0		P	pl g
    	mina	0		P	pl n
viina	viin	0		S	adt
     	viin	0		S	sg g
     	viin	0		S	sg p
viisime	vii	sime		V	sime
,	,			Z	
ja	ja	0		J	
mul	mina	l		P	sg ad
oli	ole	i		V	s
tarvis	tarvis	0		D	
      	tarvis	0		K	
:	:			Z	
poodi	poo	di		V	ti
     	pood	0		S	adt
     	pood	0		S	sg p
mina	mina	0		P	sg n
    	mina	0		S	sg g
    	mina	0		S	sg n
    	mina	0		S	sg p
.	.			Z	
sest	see	st		P	sg el
    	sest	0		J	
mina	mina	0		P	sg n
    	mina	0		S	sg g
    	mina	0		S	sg n
    	mina	0		S	sg p
olen	ole	n		V	n
:	:			Z	
6e	6e	0		Y	?
päeva	päev	0		S	adt
     	päev	0		S	sg g
     	päev	0		S	sg p
mees	mees	0		S	sg n
    	mesi	s		S	sg in
,	,			Z	
ja	ja	0		J	
argipäev	argi_päev	0		S	sg n
ma	mina	0		P	sg n
ei	ei	0		D	
  	ei	0		V	neg
sa	sina	0		P	sg n
poodi	poo	di		V	ti
     	pood	0		S	adt
     	pood	0		S	sg p
mina	mina	0		P	sg n
    	mina	0		S	sg g
    	mina	0		S	sg n
    	mina	0		S	sg p
,	,			Z	
ja	ja	0		J	
osdsin	####				
;	;			Z	
omale	oma	le		A	sg all
     	oma	le		P	sg all
     	oma	le		S	sg all
;	;			Z	
üks	üks	0		N	sg n
   	üks	0		P	sg n
paar	paar	0		N	sg n
    	paar	0		S	sg n
paslid	####				
,	,			Z	
ja	ja	0		J	
üks	üks	0		N	sg n
   	üks	0		P	sg n
aar	aar	0		S	sg n
saapa	saabas	0		S	sg g
talu	talu	0		S	sg g
    	talu	0		V	o
    	talu	0		S	sg n
    	talu	0		S	sg p
,	,			Z	
ja	ja	0		J	
üks	üks	0		N	sg n
   	üks	0		P	sg n
müts	müts	0		S	sg n
    	müts	0		I	
.	.			Z	
kogukonna	kogukond	0		S	sg g
kohus	kohu	s		V	s
     	kohus	0		S	sg n
leidis	leid	is		V	s
      	leidis	0		S	sg n
:	:			Z	
M	M	0		O	?
 	M	0		Y	?
.	.			Z	
_	_			Z	
Kräsale	####				
ja	ja	0		J	
Hans	Hans	0		H	sg n
Neidrwitso	####				
,	,			Z	
seda	see	da		P	sg p
tarvilise	tarviline	0		A	sg g
asja	asi	0		S	adt
    	asi	0		S	sg g
    	asi	0		S	sg p
olevat	ole	vat		V	vat
      	olev	t		A	sg p
      	olev	t		S	sg p
,	,			Z	
ja	ja	0		J	
ei	ei	0		D	
  	ei	0		V	neg
mõistnud	mõist	nud		V	nud
        	mõist=nu	d		S	pl n
        	mõist=nud	0		A	
        	mõist=nud	0		A	sg n
        	mõist=nud	d		A	pl n
neile	see	le		P	pl all
     	tema	le		P	pl all
mitte	mitte	0		D	
trahvi	trahv	0		S	adt
      	trahv	0		S	sg g
      	trahvi	0		V	o
      	trahv	0		S	sg p
.	.			Z	
kogukonna	kogukond	0		S	sg g
kohtu	kohtu	0		V	o
     	kohus	0		S	sg g
nimel	nimel	0		K	
     	nimi	l		S	sg ad
M	M	0		O	?
 	M	0		Y	?
.	.			Z	
_	_			Z	
holanud	####				
xxx	####				
,	,			Z	
H	H	0		Y	?
.	.			Z	
_	_			Z	
Mein	####				
xxx	####				
J. Anni	####				
xxx	####				
