51	51	0		N	?
)	)			Z	
Purdi	####				
valla	vald	0		S	sg g
     	valla	0		D	
peremehed	pere_mees	d		S	pl n
tunnistasid	tunnista	sid		V	sid
kõik	kõik	0		P	pl n
    	kõik	0		S	sg n
    	kõik	0		P	sg n
koos	koos	0		D	
    	koos	0		K	
    	koos	0		S	sg n
    	kubu	s		S	sg in
,	,			Z	
et	et	0		J	
Koli	koli	0		S	sg g
    	koli	0		V	o
    	koli	0		S	sg n
    	koli	0		S	sg p
tuppa	tuba	0		S	adt
ja	ja	0		J	
magasi	magas	0		S	sg g
ait	ait	0		S	sg n
ja	ja	0		J	
se	####				
magasini	magas	ni		S	sg ter
        	magasin	0		S	adt
        	magasin	0		S	sg g
        	magasin	0		S	sg p
aita	ait	0		S	adt
    	aita	0		V	o
    	ait	0		S	sg p
saun	saun	0		S	sg n
,	,			Z	
on	ole	0		V	b
  	ole	0		V	vad
meie	mina	0		P	pl g
    	mina	0		P	pl n
tehtud	tehtu	d		S	pl n
      	tehtud	0		A	
      	tehtud	0		A	sg n
      	tehtud	d		A	pl n
      	tege	tud		V	tud
ja	ja	0		J	
on	ole	0		V	b
  	ole	0		V	vad
meie	mina	0		P	pl g
    	mina	0		P	pl n
päralt	pära	lt		S	sg abl
      	päralt	0		K	
.	.			Z	
