5	5	0		N	?
)	)			Z	
Otsa	ots	0		S	adt
    	ots	0		S	sg g
    	otsa	0		D	
    	otsa	0		K	
    	otsa	0		V	o
    	ots	0		S	sg p
Teedu	Teet	0		H	sg g
Klaan	####				
tunnistas	tunnista	s		V	s
,	,			Z	
mina	mina	0		P	sg n
    	mina	0		S	sg g
    	mina	0		S	sg n
    	mina	0		S	sg p
ise	ise	0		A	
   	ise	0		D	
   	ise	0		P	pl n
   	ise	0		P	sg n
olen	ole	n		V	n
oma	oma	0		A	sg g
   	oma	0		D	
   	oma	0		P	sg g
   	oma	0		S	sg g
   	oma	0		V	o
   	oma	0		A	sg n
   	oma	0		A	sg p
   	oma	0		P	sg n
   	oma	0		P	sg p
   	oma	0		S	sg n
   	oma	0		S	sg p
toa	tuba	0		S	sg g
ja	ja	0		J	
aitatud	####				
ja	ja	0		J	
Ladad	Lada	d		H	pl n
ja	ja	0		J	
küünid	küün	d		S	pl n
      	küündi	d		V	d
teinud	tege	nud		V	nud
      	tei=nud	0		A	
      	tei=nud	0		A	sg n
      	tei=nud	d		A	pl n
      	teinu	d		S	pl n
ja	ja	0		J	
need	see	d		P	pl n
on	ole	0		V	b
  	ole	0		V	vad
minu	mina	0		P	sg g
.	.			Z	
Teedu	Teet	0		H	sg g
Klaan	####				
+	+			Z	
+	+			Z	
+	+			Z	
