sel	see	l		P	sg ad
   	sel	0		Y	?
päeval	päev	l		S	sg ad
polnud	ole	nud		V	neg nud
kohtu	kohtu	0		V	o
     	kohus	0		S	sg g
käiaid	####				
ega	ega	0		D	
   	ega	0		J	
ka	ka	0		D	
muud	muu	d		P	pl n
    	muu	d		S	pl n
    	muu	d		V	d
    	muu	d		P	sg p
    	muu	d		S	sg p
asja	asi	0		S	adt
    	asi	0		S	sg g
    	asi	0		S	sg p
õiendamist	õiendamine	t		S	sg p
.	.			Z	
kogukonna	kogukond	0		S	sg g
kohtu	kohtu	0		V	o
     	kohus	0		S	sg g
nimel	nimel	0		K	
     	nimi	l		S	sg ad
:	:			Z	
J. Mein	####				
H	H	0		Y	?
.	.			Z	
_	_			Z	
Rosileht	####				
A	A	0		Y	?
.	.			Z	
_	_			Z	
kasampek	####				
xxx	####				
