№	№	0		Y	?
54	54	0		N	?
protokoll	protokoll	0		S	sg n
3ndal	3=s	l		O	sg ad
juulil	juuli	l		S	sg ad
1890.	1890.	0		O	?
koos	koos	0		D	
    	koos	0		K	
    	koos	0		S	sg n
    	kubu	s		S	sg in
olid	ole	id		V	sid
kohtu	kohtu	0		V	o
     	kohus	0		S	sg g
peavanem	pea_vanem	0		C	sg n
        	pea_vanem	0		S	sg n
:	:			Z	
Hans	Hans	0		H	sg n
Paawelz	####				
Mihkel	Mihkel	0		H	sg n
      	mihkel	0		A	sg n
      	mihkel	0		S	sg n
Simson	####				
Hans	Hans	0		H	sg n
Ubak	####				
ja	ja	0		J	
kirjutaja	kirjutaja	0		S	sg g
         	kirjutaja	0		S	sg n
:	:			Z	
H	H	0		Y	?
.	.			Z	
_	_			Z	
Paawelz	####				
.	.			Z	
kohtu	kohtu	0		V	o
     	kohus	0		S	sg g
ette	ette	0		D	
    	ette	0		K	
    	esi	tte		S	adt
astus	astu	s		V	s
Leena	Lee	na		H	sg es
     	Leena	0		H	sg g
     	Leena	0		H	sg n
Leemend	####				
ja	ja	0		J	
kaebas	kaeba	s		V	s
:	:			Z	
et	et	0		J	
temal	tema	l		P	sg ad
olla	ole	a		V	da
Rein	Rein	0		H	sg n
kaermann'i	####				
käest	käest	0		K	
     	käsi	st		S	sg el
2	2	0		N	?
rbl	rbl	0		Y	?
.	.			Z	
raha	raha	0		S	sg g
    	raha	0		S	sg n
    	raha	0		S	sg p
saada	saa	da		V	da
     	saat	0		V	o
     	saa	da		V	ta
jäänud	jää	nud		V	nud
      	jäänu	d		S	pl n
      	jäänud	0		A	
      	jäänud	0		A	sg n
      	jäänud	d		A	pl n
ja	ja	0		J	
see	see	0		P	sg n
olla	ole	a		V	da
sell	sell	0		S	sg n
kombel	kombel	0		K	
      	komme	l		S	sg ad
olnud	ol=nud	0		A	
     	ol=nud	0		A	sg n
     	ol=nud	d		A	pl n
     	ole	nud		V	nud
     	olnu	d		S	pl n
:	:			Z	
1	1	0		N	?
Tstv	####				
.	.			Z	
rukkide	####				
juurest	juur	st		S	sg el
       	juurest	0		K	
50	50	0		N	?
kop	kop	0		Y	?
.	.			Z	
ja	ja	0		J	
suure	suur	0		A	sg g
täie	täis	0		A	sg g
    	täis	0		S	sg g
odrade	####				
eest	eest	0		D	
    	eest	0		K	
    	esi	st		S	sg el
1	1	0		N	?
rbl	rbl	0		Y	?
.	.			Z	
50	50	0		N	?
kop	kop	0		Y	?
.	.			Z	
ja	ja	0		J	
nüüd	nüüd	0		D	
ei	ei	0		D	
  	ei	0		V	neg
pea	pea	0		D	
   	pea	0		S	sg g
   	pida	0		V	o
   	pea	0		S	sg n
Rein	Rein	0		H	sg n
Kaermann	kaer_mann	0		S	sg n
seda	see	da		P	sg p
võlga	võlg	0		S	adt
     	võlg	0		S	sg p
mitte	mitte	0		D	
ära	ära	0		D	
   	ära	0		V	neg o
maksma	maks	ma		V	ma
.	.			Z	
Rein	Rein	0		H	sg n
Kaermann	kaer_mann	0		S	sg n
astus	astu	s		V	s
ette	ette	0		D	
    	ette	0		K	
    	esi	tte		S	adt
ja	ja	0		J	
ei	ei	0		D	
  	ei	0		V	neg
võinud	või	nud		V	nud
      	või=nu	d		S	pl n
      	või=nud	0		A	
      	või=nud	0		A	sg n
      	või=nud	d		A	pl n
seda	see	da		P	sg p
mitte	mitte	0		D	
ära	ära	0		D	
   	ära	0		V	neg o
salgata	salk	ta		S	sg ab
,	,			Z	
sellepärast	selle_pärast	0		D	
et	et	0		J	
Kustas	Kusta	s		H	sg in
      	Kustas	0		H	sg n
Paak	paak	0		S	sg n
teab	tead	b		V	b
selles	see	s		P	sg in
asjas	asi	s		S	sg in
tunnistust	tunnistus	t		S	sg p
anda	and	a		V	da
.	.			Z	
Kustas	Kusta	s		H	sg in
      	Kustas	0		H	sg n
Paak	paak	0		S	sg n
astus	astu	s		V	s
ette	ette	0		D	
    	ette	0		K	
    	esi	tte		S	adt
ja	ja	0		J	
ütles	ütle	s		V	s
:	:			Z	
et	et	0		J	
see	see	0		P	sg n
olla	ole	a		V	da
nõnda	nõnda	0		D	
õige	õige	0		A	sg g
    	õige	0		A	sg n
    	õige	0		D	
kudas	####				
Leena	Lee	na		H	sg es
     	Leena	0		H	sg g
     	Leena	0		H	sg n
Leemend	####				
on	ole	0		V	b
  	ole	0		V	vad
kohtule	kohus	le		S	sg all
üles	üles	0		D	
andnud	and	nud		V	nud
      	and=nu	d		S	pl n
      	and=nud	0		A	
      	and=nud	0		A	sg n
      	and=nud	d		A	pl n
.	.			Z	
mõistetud	mõist	tud		V	tud
         	mõiste=tu	d		S	pl n
         	mõiste=tud	0		A	
         	mõiste=tud	0		A	sg n
         	mõiste=tud	d		A	pl n
sai	saa	i		V	s
   	sai	0		S	sg n
:	:			Z	
et	et	0		J	
Rein	Rein	0		H	sg n
Kaermann	kaer_mann	0		S	sg n
peab	pida	b		V	b
see	see	0		P	sg n
nõuetav	####				
summa	summ	0		S	adt
     	summ	0		S	sg g
     	summ	0		S	sg p
     	summa	0		S	sg g
     	summa	0		S	sg n
2	2	0		N	?
rbl	rbl	0		Y	?
.	.			Z	
Leena	Lee	na		H	sg es
     	Leena	0		H	sg g
     	Leena	0		H	sg n
Leement'ile	####				
välja	välja	0		D	
     	välja	0		V	o
     	väli	0		S	adt
     	väli	0		S	sg g
     	väli	0		S	sg p
maksma	maks	ma		V	ma
,	,			Z	
sellepärast	selle_pärast	0		D	
et	et	0		J	
Kustas	Kusta	s		H	sg in
      	Kustas	0		H	sg n
Paak	paak	0		S	sg n
teab	tead	b		V	b
selle	see	0		P	sg g
     	sell	e		S	pl p
asja	asi	0		S	adt
    	asi	0		S	sg g
    	asi	0		S	sg p
juure	juur	0		S	sg g
tunnistust	tunnistus	t		S	sg p
anda	and	a		V	da
.	.			Z	
peale	pea	le		S	sg all
     	peale	0		D	
     	peale	0		K	
seda	see	da		P	sg p
maksab	maks	b		V	b
Kustas	Kusta	s		H	sg in
      	Kustas	0		H	sg n
Paakile	paa_kile	0		A	sg n
       	paa_kile	0		S	sg g
       	paa_kile	0		S	sg n
kohtus	kohtu	s		V	s
      	kohus	s		S	sg in
käimise	käimine	0		S	sg g
päeva	päev	0		S	adt
     	päev	0		S	sg g
     	päev	0		S	sg p
eest	eest	0		D	
    	eest	0		K	
    	esi	st		S	sg el
50	50	0		N	?
kop	kop	0		Y	?
.	.			Z	
/	/			Z	
täidetud	täit	tud		V	tud
        	täide=tu	d		S	pl n
        	täide=tud	0		A	
        	täide=tud	0		A	sg n
        	täide=tud	d		A	pl n
/	/			Z	
Kirna	####				
valla	vald	0		S	sg g
     	valla	0		D	
kogukonna	kogukond	0		S	sg g
kohtu	kohtu	0		V	o
     	kohus	0		S	sg g
nimel	nimel	0		K	
     	nimi	l		S	sg ad
:	:			Z	
kohtu	kohtu	0		V	o
     	kohus	0		S	sg g
peavanem	pea_vanem	0		C	sg n
        	pea_vanem	0		S	sg n
:	:			Z	
Hans	Hans	0		H	sg n
Pawelz	####				
/	/			Z	
allkiri	all_kiri	0		S	sg n
/	/			Z	
Mihkel	Mihkel	0		H	sg n
      	mihkel	0		A	sg n
      	mihkel	0		S	sg n
Simson	####				
Hans	Hans	0		H	sg n
Ubak	####				
ja	ja	0		J	
kirja	kirja	0		A	
     	kirja	0		V	o
     	kiri	0		S	adt
     	kiri	0		S	sg g
     	kiri	0		S	sg p
tunnistuseks	tunnistus	ks		S	sg tr
kirjutaja	kirjutaja	0		S	sg g
         	kirjutaja	0		S	sg n
:	:			Z	
Paawelz	####				
/	/			Z	
allkiri	all_kiri	0		S	sg n
/	/			Z	
