kaebas	kaeba	s		V	s
ka	ka	0		D	
Einmanni	####				
mõisa	mõis	0		S	sg g
valitseja	valitseja	0		S	sg g
         	valitseja	0		S	sg n
härra	härra	0		S	sg g
     	härra	0		S	sg n
,	,			Z	
et	et	0		J	
selle	see	0		P	sg g
     	sell	e		S	pl p
valla	vald	0		S	sg g
     	valla	0		D	
talu	talu	0		S	sg g
    	talu	0		V	o
    	talu	0		S	sg n
    	talu	0		S	sg p
koha	koht	0		S	sg g
    	koha	0		S	sg g
    	koha	0		V	o
    	koha	0		S	sg n
    	koha	0		S	sg p
rentnik	rentnik	0		S	sg n
,	,			Z	
Kubja	####				
Jaan	Jaan	0		H	sg n
    	jaan	0		S	sg n
    	jaan	0		Y	?
Nahkur	nahkur	0		S	sg n
,	,			Z	
on	ole	0		V	b
  	ole	0		V	vad
kaubelnud	kauple	nud		V	nud
         	kaubel=nu	d		S	pl n
         	kaubel=nud	0		A	
         	kaubel=nud	0		A	sg n
         	kaubel=nud	d		A	pl n
:	:			Z	
mõisa	mõis	0		S	sg g
Viina	viin	0		S	adt
     	viin	0		S	sg g
     	viin	0		S	sg p
vabriku	vabrik	0		S	sg g
,	,			Z	
oma	oma	0		A	sg g
   	oma	0		D	
   	oma	0		P	sg g
   	oma	0		S	sg g
   	oma	0		V	o
   	oma	0		A	sg n
   	oma	0		A	sg p
   	oma	0		P	sg n
   	oma	0		P	sg p
   	oma	0		S	sg n
   	oma	0		S	sg p
sulase	sulane	0		S	sg g
,	,			Z	
talve	talv	0		S	adt
     	talv	0		S	sg g
     	tali	0		S	adt
     	tali	0		S	sg g
     	talv	0		S	sg p
     	tali	0		S	sg p
peale	pea	le		S	sg all
     	peale	0		D	
     	peale	0		K	
;	;			Z	
saab	saa	b		V	b
10	10	0		N	?
rb	####				
.	.			Z	
kuus	kuu	s		S	sg in
    	kuus	0		N	sg n
palka	palk	0		S	adt
     	palka	0		V	o
     	palk	0		S	sg p
,	,			Z	
ja	ja	0		J	
kaks	kaks	0		N	sg n
kuud	kuu	d		S	pl n
    	kuu	d		S	sg p
olnud	ol=nud	0		A	
     	ol=nud	0		A	sg n
     	ol=nud	d		A	pl n
     	ole	nud		V	nud
     	olnu	d		S	pl n
,	,			Z	
ja	ja	0		J	
enne	enne	0		D	
    	enne	0		K	
    	enne	0		S	sg n
kahe	kaks	0		N	sg g
kuu	kuu	0		S	sg g
   	kuu	0		S	sg n
lõpetatist	lõpe_tatt	st		S	sg el
          	lõpe_tatine	t		A	sg p
,	,			Z	
saanud	saa	nud		V	nud
      	saa=nud	0		A	
      	saa=nud	0		A	sg n
      	saa=nud	d		A	pl n
      	saanu	d		S	pl n
tema	tema	0		P	sg g
    	tema	0		P	sg n
kahe	kaks	0		N	sg g
kuu	kuu	0		S	sg g
   	kuu	0		S	sg n
palk	palk	0		S	sg n
,	,			Z	
rendiks	rent	ks		S	sg tr
       	renti	ks		V	ks
arvatud	arva	tud		V	tud
       	arva=tu	d		S	pl n
       	arva=tud	0		A	
       	arva=tud	0		A	sg n
       	arva=tud	d		A	pl n
,	,			Z	
ja	ja	0		J	
kui	kui	0		D	
   	kui	0		J	
kaks	kaks	0		N	sg n
kuud	kuu	d		S	pl n
    	kuu	d		S	sg p
täis	täi	s		S	sg in
    	täi	s		V	s
    	täis	0		A	
    	täis	0		A	sg n
    	täis	0		D	
    	täis	0		S	sg n
sai	saa	i		V	s
   	sai	0		S	sg n
,	,			Z	
läks	mine	s		V	s
tema	tema	0		P	sg g
    	tema	0		P	sg n
,	,			Z	
ilma	ilm	0		S	adt
    	ilm	0		S	sg g
    	ilma	0		D	
    	ilma	0		K	
    	ilm	0		S	sg p
üles	üles	0		D	
ütlemata	ütle	mata		V	mata
        	ütle=mata	0		A	
        	ütlemata	0		D	
vabrikust	vabrik	st		S	sg el
ära	ära	0		D	
   	ära	0		V	neg o
.	.			Z	
Jaan	Jaan	0		H	sg n
    	jaan	0		S	sg n
    	jaan	0		Y	?
Nahkur	nahkur	0		S	sg n
tunnistas	tunnista	s		V	s
:	:			Z	
et	et	0		J	
tema	tema	0		P	sg g
    	tema	0		P	sg n
on	ole	0		V	b
  	ole	0		V	vad
kaubelnud	kauple	nud		V	nud
         	kaubel=nu	d		S	pl n
         	kaubel=nud	0		A	
         	kaubel=nud	0		A	sg n
         	kaubel=nud	d		A	pl n
:	:			Z	
oma	oma	0		A	sg g
   	oma	0		D	
   	oma	0		P	sg g
   	oma	0		S	sg g
   	oma	0		V	o
   	oma	0		A	sg n
   	oma	0		A	sg p
   	oma	0		P	sg n
   	oma	0		P	sg p
   	oma	0		S	sg n
   	oma	0		S	sg p
sulase	sulane	0		S	sg g
,	,			Z	
talve	talv	0		S	adt
     	talv	0		S	sg g
     	tali	0		S	adt
     	tali	0		S	sg g
     	talv	0		S	sg p
     	tali	0		S	sg p
peale	pea	le		S	sg all
     	peale	0		D	
     	peale	0		K	
vabrikuse	####				
,	,			Z	
ja	ja	0		J	
kui	kui	0		D	
   	kui	0		J	
sulase	sulane	0		S	sg g
,	,			Z	
jalg	jalg	0		S	sg n
haigeks	haige	ks		A	sg tr
       	haige	ks		S	sg tr
jäi	jää	i		V	s
,	,			Z	
läksin	mine	sin		V	sin
ise	ise	0		A	
   	ise	0		D	
   	ise	0		P	pl n
   	ise	0		P	sg n
,	,			Z	
ja	ja	0		J	
poleks	ole	ks		V	neg ks
ära	ära	0		D	
   	ära	0		V	neg o
tulnud	tul=nud	0		A	
      	tul=nud	0		A	sg n
      	tul=nud	d		A	pl n
      	tule	nud		V	nud
      	tulnu	d		S	pl n
,	,			Z	
aga	aga	0		J	
ei	ei	0		D	
  	ei	0		V	neg
saanud	saa	nud		V	nud
      	saa=nud	0		A	
      	saa=nud	0		A	sg n
      	saa=nud	d		A	pl n
      	saanu	d		S	pl n
pärata	pära	ta		S	sg ab
,	,			Z	
kui	kui	0		D	
   	kui	0		J	
Viina	viin	0		S	adt
     	viin	0		S	sg g
     	viin	0		S	sg p
meister	meister	0		S	sg n
,	,			Z	
mulle	mull	e		S	pl p
     	mina	lle		P	sg all
     	mulle	0		S	sg n
ni	####				
mitu	mitu	0		P	sg n
tööd	töö	d		S	pl n
    	töö	d		S	sg p
andis	and	is		V	s
,	,			Z	
et	et	0		J	
aega	aeg	0		S	adt
    	aeg	0		S	sg p
    	aega	0		K	
süüagi	söö	a	gi	V	da
,	,			Z	
ei	ei	0		D	
  	ei	0		V	neg
saanud	saa	nud		V	nud
      	saa=nud	0		A	
      	saa=nud	0		A	sg n
      	saa=nud	d		A	pl n
      	saanu	d		S	pl n
,	,			Z	
mõni	mõni	0		P	sg n
kord	kord	0		D	
    	kord	0		S	sg n
hakkasin	hakka	sin		V	sin
,	,			Z	
hommiku	hommik	0		S	sg g
kel	kes	l		P	sg ad
kolm	kolm	0		N	sg n
tööle	töö	le		S	sg all
,	,			Z	
ja	ja	0		J	
olin	ole	in		V	sin
seni	seni	0		D	
ilma	ilm	0		S	adt
    	ilm	0		S	sg g
    	ilma	0		D	
    	ilma	0		K	
    	ilm	0		S	sg p
sööma	söö	ma		V	ma
     	sööm	0		S	adt
     	sööm	0		S	sg g
     	sööm	0		S	sg p
,	,			Z	
kui	kui	0		D	
   	kui	0		J	
kel	kes	l		P	sg ad
11	11	0		N	?
kümmend	####				
,	,			Z	
ja	ja	0		J	
teised	teine	d		O	pl n
      	teine	d		P	pl n
töö	töö	0		S	sg g
   	töö	0		S	sg n
mehed	mees	d		S	pl n
,	,			Z	
oled	ole	d		V	d
juba	juba	0		D	
ammugi	ammugi	0		D	
söönud	söö	nud		V	nud
      	söönu	d		S	pl n
      	söönud	0		A	
      	söönud	0		A	sg n
      	söönud	d		A	pl n
,	,			Z	
siis	siis	0		D	
    	siis	0		J	
selle	see	0		P	sg g
     	sell	e		S	pl p
peale	pea	le		S	sg all
     	peale	0		D	
     	peale	0		K	
ütlesin	ütle	sin		V	sin
meistrile	meister	le		S	sg all
õhtu	õhtu	0		S	sg g
    	õhtu	0		S	sg n
:	:			Z	
et	et	0		J	
mina	mina	0		P	sg n
    	mina	0		S	sg g
    	mina	0		S	sg n
    	mina	0		S	sg p
lähen	mine	n		V	n
ära	ära	0		D	
   	ära	0		V	neg o
,	,			Z	
ja	ja	0		J	
tulin	tule	in		V	sin
ära	ära	0		D	
   	ära	0		V	neg o
.	.			Z	
kogukonna	kogukond	0		S	sg g
kohus	kohu	s		V	s
     	kohus	0		S	sg n
mõistis	mõist	is		V	s
:	:			Z	
kui	kui	0		D	
   	kui	0		J	
Jaan	Jaan	0		H	sg n
    	jaan	0		S	sg n
    	jaan	0		Y	?
Nahkur	nahkur	0		S	sg n
,	,			Z	
ilma	ilm	0		S	adt
    	ilm	0		S	sg g
    	ilma	0		D	
    	ilma	0		K	
    	ilm	0		S	sg p
härrale	härra	le		S	sg all
üles	üles	0		D	
ütlemata	ütle	mata		V	mata
        	ütle=mata	0		A	
        	ütlemata	0		D	
ära	ära	0		D	
   	ära	0		V	neg o
vabrikust	vabrik	st		S	sg el
tuli	tuli	0		S	sg n
    	tule	i		V	s
,	,			Z	
maksab	maks	b		V	b
:	:			Z	
1	1	0		N	?
rb	####				
valla	vald	0		S	sg g
     	valla	0		D	
laeka	laegas	0		S	adt
     	laegas	0		S	sg g
Trahvi	trahv	0		S	adt
      	trahv	0		S	sg g
      	trahvi	0		V	o
      	trahv	0		S	sg p
.	.			Z	
