16	16	0		N	?
)	)			Z	
Jüri	Jüri	0		H	sg g
    	Jüri	0		H	sg n
kõva	kõva	0		A	sg g
    	kõva	0		A	sg n
    	kõva	0		A	sg p
tunnistas	tunnista	s		V	s
,	,			Z	
mina	mina	0		P	sg n
    	mina	0		S	sg g
    	mina	0		S	sg n
    	mina	0		S	sg p
tegin	tege	in		V	sin
7	7	0		N	?
saadu	saad	0		S	adt
     	saadu	0		S	sg g
     	saadud	0		A	sg g
     	saad	0		S	sg p
     	saadu	0		S	sg n
mõisa	mõis	0		S	sg g
ravast	####				
heinu	hein	u		S	pl p
ja	ja	0		J	
mina	mina	0		P	sg n
    	mina	0		S	sg g
    	mina	0		S	sg n
    	mina	0		S	sg p
olen	ole	n		V	n
sealt	sealt	0		D	
     	siga	lt		A	sg abl
     	siga	lt		S	sg abl
juba	juba	0		D	
ammu	amb	0		S	sg g
    	ambu	0		V	o
    	ammu	0		D	
    	ammu	0		V	o
teinud	tege	nud		V	nud
      	tei=nud	0		A	
      	tei=nud	0		A	sg n
      	tei=nud	d		A	pl n
      	teinu	d		S	pl n
,	,			Z	
oleks	ole	ks		V	ks
mind	mina	d		P	sg p
keelatud	keela	tud		V	tud
        	keelatu	d		S	pl n
        	keelatud	0		A	
        	keelatud	0		A	sg n
        	keelatud	d		A	pl n
,	,			Z	
siis	siis	0		D	
    	siis	0		J	
mina	mina	0		P	sg n
    	mina	0		S	sg g
    	mina	0		S	sg n
    	mina	0		S	sg p
ka	ka	0		D	
ei	ei	0		D	
  	ei	0		V	neg
oleks	ole	ks		V	ks
teinud	tege	nud		V	nud
      	tei=nud	0		A	
      	tei=nud	0		A	sg n
      	tei=nud	d		A	pl n
      	teinu	d		S	pl n
.	.			Z	
selle	see	0		P	sg g
     	sell	e		S	pl p
asja	asi	0		S	adt
    	asi	0		S	sg g
    	asi	0		S	sg p
sees	sees	0		D	
    	sees	0		K	
mõistis	mõist	is		V	s
kogukonna	kogukond	0		S	sg g
kohus	kohu	s		V	s
     	kohus	0		S	sg n
et	et	0		J	
Jüri	Jüri	0		H	sg g
    	Jüri	0		H	sg n
kõva	kõva	0		A	sg g
    	kõva	0		A	sg n
    	kõva	0		A	sg p
saab	saa	b		V	b
9	9	0		N	?
tundi	tund	0		S	adt
     	tund	0		S	sg p
kinni	kinni	0		D	
ja	ja	0		J	
teine	teine	0		O	sg n
     	teine	0		P	sg n
aasta	aasta	0		S	sg g
     	aasta	0		S	sg n
ei	ei	0		D	
  	ei	0		V	neg
tohi	tohti	0		V	o
tema	tema	0		P	sg g
    	tema	0		P	sg n
mitte	mitte	0		D	
sealt	sealt	0		D	
     	siga	lt		A	sg abl
     	siga	lt		S	sg abl
heinu	hein	u		S	pl p
teha	tege	a		V	da
.	.			Z	
