Jootma	joot	ma		V	ma
äsnar	####				
kogukonna	kogukond	0		S	sg g
kohus	kohu	s		V	s
     	kohus	0		S	sg n
.	.			Z	
kohtu	kohtu	0		V	o
     	kohus	0		S	sg g
korra	kord	0		S	sg g
pärast	pära	st		S	sg el
      	pärane	t		A	sg p
      	pärast	0		D	
      	pärast	0		K	
olid	ole	id		V	sid
kokku	kokku	0		D	
     	kogu	0		S	adt
tulnud	tul=nud	0		A	
      	tul=nud	0		A	sg n
      	tul=nud	d		A	pl n
      	tule	nud		V	nud
      	tulnu	d		S	pl n
:	:			Z	
kohtuv	kohtu	v		V	v
      	kohtu=v	0		A	sg n
.	.			Z	
k	k	0		Y	?
.	.			Z	
_	_			Z	
Bõttcher	####				
,	,			Z	
kõrvam	####				
.	.			Z	
J. Seppmann	####				
ja	ja	0		J	
H	H	0		Y	?
.	.			Z	
_	_			Z	
Peips	####				
.	.			Z	
sell	sell	0		S	sg n
korral	kord	l		S	sg ad
      	korral	0		D	
      	korral	0		K	
ei	ei	0		D	
  	ei	0		V	neg
olnud	ol=nud	0		A	
     	ol=nud	0		A	sg n
     	ol=nud	d		A	pl n
     	ole	nud		V	nud
     	olnu	d		S	pl n
mingisugust	mingi_sugune	t		P	sg p
kaebtust	####				
ega	ega	0		D	
   	ega	0		J	
ka	ka	0		D	
kohtumõistmist	kohtu_mõistmine	t		S	sg p
ette	ette	0		D	
    	ette	0		K	
    	esi	tte		S	adt
tulnud	tul=nud	0		A	
      	tul=nud	0		A	sg n
      	tul=nud	d		A	pl n
      	tule	nud		V	nud
      	tulnu	d		S	pl n
.	.			Z	
kohtuvanem	kohtu_vanem	0		C	sg n
          	kohtu_vanem	0		S	sg n
:	:			Z	
Kustas	Kusta	s		H	sg in
      	Kustas	0		H	sg n
Bõttcher	####				
xxx	####				
kõrvamehed	kõrva_mees	d		S	pl n
:	:			Z	
Joosep	Joosep	0		H	sg n
Seppmann	sepp_mann	0		S	sg n
xxx	####				
Hans	Hans	0		H	sg n
Peips	####				
xxx	####				
kirjutaja	kirjutaja	0		S	sg g
         	kirjutaja	0		S	sg n
:	:			Z	
allkiri	all_kiri	0		S	sg n
