protokoll	protokoll	0		S	sg n
sel	see	l		P	sg ad
   	sel	0		Y	?
3ndal	3=s	l		O	sg ad
juulis	juuli	s		S	sg in
1872.	1872.	0		O	?
koos	koos	0		D	
    	koos	0		K	
    	koos	0		S	sg n
    	kubu	s		S	sg in
olid	ole	id		V	sid
kohtu	kohtu	0		V	o
     	kohus	0		S	sg g
peavanem	pea_vanem	0		C	sg n
        	pea_vanem	0		S	sg n
Ado	Ado	0		H	sg g
   	Ado	0		H	sg n
Kandelin	####				
Jaan	Jaan	0		H	sg n
    	jaan	0		S	sg n
    	jaan	0		Y	?
Epmann	####				
Jaan	Jaan	0		H	sg n
    	jaan	0		S	sg n
    	jaan	0		Y	?
Raudmez	####				
kirjutaja	kirjutaja	0		S	sg g
         	kirjutaja	0		S	sg n
H	H	0		Y	?
.	.			Z	
_	_			Z	
Saarmo	####				
18.	18.	0		O	?
mis	mis	0		P	pl n
   	mis	0		P	sg n
protokoll	protokoll	0		S	sg n
№	№	0		Y	?
12nes	####				
pooleli	pooleli	0		D	
jäi	jää	i		V	s
.	.			Z	
need	see	d		P	pl n
saunde	####				
ehituse	ehitus	0		S	sg g
luba	luba	0		S	sg n
    	luba	0		V	o
    	luba	0		S	sg p
andjad	andja	d		S	pl n
peremehed	pere_mees	d		S	pl n
:	:			Z	
Hans	Hans	0		H	sg n
Simson	####				
,	,			Z	
Rein	Rein	0		H	sg n
Preman	####				
,	,			Z	
Jaan	Jaan	0		H	sg n
    	jaan	0		S	sg n
    	jaan	0		Y	?
Villevelt	####				
ja	ja	0		J	
talitaja	talitaja	0		S	sg g
        	talitaja	0		S	sg n
Hans	Hans	0		H	sg n
Pawelz	####				
astusiid	####				
ette	ette	0		D	
    	ette	0		K	
    	esi	tte		S	adt
ja	ja	0		J	
ütlesid	ütle	sid		V	sid
,	,			Z	
et	et	0		J	
nemad	tema	d		P	pl n
on	ole	0		V	b
  	ole	0		V	vad
küll	küll	0		D	
    	küll	0		S	sg n
luba	luba	0		S	sg n
    	luba	0		V	o
    	luba	0		S	sg p
andnud	and	nud		V	nud
      	and=nu	d		S	pl n
      	and=nud	0		A	
      	and=nud	0		A	sg n
      	and=nud	d		A	pl n
neile	see	le		P	pl all
     	tema	le		P	pl all
Jüri	Jüri	0		H	sg g
    	Jüri	0		H	sg n
Pawelile	Pavel	le		H	sg all
,	,			Z	
Mart	Mart	0		H	sg n
    	mart	0		S	sg n
Palile	pali	le		S	sg all
,	,			Z	
Kai	Kai	0		H	sg g
   	Kai	0		H	sg n
   	kai	0		S	sg g
   	kai	0		S	sg n
Tohvelmanile	####				
,	,			Z	
Mihkel	Mihkel	0		H	sg n
      	mihkel	0		A	sg n
      	mihkel	0		S	sg n
Ansjaalegi	####				
ja	ja	0		J	
Hans	Hans	0		H	sg n
Anstukile	####				
omale	oma	le		A	sg all
     	oma	le		P	sg all
     	oma	le		S	sg all
saunasid	saun	sid		S	pl p
valla	vald	0		S	sg g
     	valla	0		D	
krundi	krunt	0		S	sg g
      	krunti	0		V	o
peale	pea	le		S	sg all
     	peale	0		D	
     	peale	0		K	
teha	tege	a		V	da
,	,			Z	
ilma	ilm	0		S	adt
    	ilm	0		S	sg g
    	ilma	0		D	
    	ilma	0		K	
    	ilm	0		S	sg p
,	,			Z	
et	et	0		J	
nemad	tema	d		P	pl n
sest	see	st		P	sg el
    	sest	0		J	
mõisa	mõis	0		S	sg g
politseile	politsei	le		S	sg all
midagist	####				
oleks	ole	ks		V	ks
rääkinud	rääki	nud		V	nud
        	rääki=nu	d		S	pl n
        	rääki=nud	0		A	
        	rääki=nud	0		A	sg n
        	rääki=nud	d		A	pl n
.	.			Z	
seepärast	see_pärast	0		D	
et	et	0		J	
nemad	tema	d		P	pl n
peremeste	pere_mest	e		S	pl p
luba	luba	0		S	sg n
    	luba	0		V	o
    	luba	0		S	sg p
andmise	andmine	0		S	sg g
peale	pea	le		S	sg all
     	peale	0		D	
     	peale	0		K	
omale	oma	le		A	sg all
     	oma	le		P	sg all
     	oma	le		S	sg all
iga	iga	0		P	sg g
   	iga	0		P	sg n
   	iga	0		P	sg p
   	iga	0		S	sg n
   	iga	0		S	sg p
üks	üks	0		N	sg n
   	üks	0		P	sg n
saunad	saun	d		S	pl n
on	ole	0		V	b
  	ole	0		V	vad
ehitanud	ehita	nud		V	nud
        	ehita=nu	d		S	pl n
        	ehita=nud	0		A	
        	ehita=nud	0		A	sg n
        	ehita=nud	d		A	pl n
ja	ja	0		J	
et	et	0		J	
peremehed	pere_mees	d		S	pl n
mitte	mitte	0		D	
mõisa	mõis	0		S	sg g
politsei	politsei	0		S	sg g
        	politsei	0		S	sg n
käest	käest	0		K	
     	käsi	st		S	sg el
ei	ei	0		D	
  	ei	0		V	neg
ole	ole	0		V	o
luba	luba	0		S	sg n
    	luba	0		V	o
    	luba	0		S	sg p
küsinud	küsi	nud		V	nud
       	küsi=nu	d		S	pl n
       	küsi=nud	0		A	
       	küsi=nud	0		A	sg n
       	küsi=nud	d		A	pl n
,	,			Z	
sai	saa	i		V	s
   	sai	0		S	sg n
neile	see	le		P	pl all
     	tema	le		P	pl all
Jüri	Jüri	0		H	sg g
    	Jüri	0		H	sg n
Pawel	Pavel	0		H	sg n
,	,			Z	
Mart	Mart	0		H	sg n
    	mart	0		S	sg n
Pawel	Pavel	0		H	sg n
,	,			Z	
Kai	Kai	0		H	sg g
   	Kai	0		H	sg n
   	kai	0		S	sg g
   	kai	0		S	sg n
Tohvelmanile	####				
,	,			Z	
Mihkel	Mihkel	0		H	sg n
      	mihkel	0		A	sg n
      	mihkel	0		S	sg n
Ansjaalegi	####				
ja	ja	0		J	
Hans	Hans	0		H	sg n
Anstukile	####				
tärmin	tärmin	0		S	sg n
ette	ette	0		D	
    	ette	0		K	
    	esi	tte		S	adt
pandud	pan=du	d		S	pl n
      	pan=dud	0		A	
      	pan=dud	0		A	sg n
      	pan=dud	d		A	pl n
      	pane	dud		V	tud
,	,			Z	
et	et	0		J	
peavad	pida	vad		V	vad
omad	oma	d		A	pl n
    	oma	d		P	pl n
    	oma	d		S	pl n
    	oma	d		V	d
saunad	saun	d		S	pl n
Mihkli	Mihkel	0		H	sg g
      	Mihkli	0		H	sg g
      	mihkel	0		A	sg g
      	mihkel	0		S	sg g
      	Mihkli	0		H	sg n
päeval	päev	l		S	sg ad
1872	1872	0		N	?
jälle	jälle	0		D	
ära	ära	0		D	
   	ära	0		V	neg o
lautama	####				
.	.			Z	
see	see	0		P	sg n
tärmin	tärmin	0		S	sg n
sai	saa	i		V	s
   	sai	0		S	sg n
kuulutud	kuulu	tud		V	tud
        	kuulu=tu	d		S	pl n
        	kuulu=tud	0		A	
        	kuulu=tud	0		A	sg n
        	kuulu=tud	d		A	pl n
ja	ja	0		J	
need	see	d		P	pl n
saunde	####				
ehitajad	ehitaja	d		S	pl n
Jüri	Jüri	0		H	sg g
    	Jüri	0		H	sg n
Pawel	Pavel	0		H	sg n
,	,			Z	
Mart	Mart	0		H	sg n
    	mart	0		S	sg n
Pawel	Pavel	0		H	sg n
,	,			Z	
Kai	Kai	0		H	sg g
   	Kai	0		H	sg n
   	kai	0		S	sg g
   	kai	0		S	sg n
Tohvelman	####				
,	,			Z	
Mihkel	Mihkel	0		H	sg n
      	mihkel	0		A	sg n
      	mihkel	0		S	sg n
Ansjane	####				
ja	ja	0		J	
Hans	Hans	0		H	sg n
nstoka	####				
ütlesid	ütle	sid		V	sid
,	,			Z	
et	et	0		J	
nemad	tema	d		P	pl n
seda	see	da		P	sg p
tärmini	tärmin	0		S	sg g
mitte	mitte	0		D	
ei	ei	0		D	
  	ei	0		V	neg
täida	täi	da		V	da
     	täit	0		V	o
ega	ega	0		D	
   	ega	0		J	
ise	ise	0		A	
   	ise	0		D	
   	ise	0		P	pl n
   	ise	0		P	sg n
oma	oma	0		A	sg g
   	oma	0		D	
   	oma	0		P	sg g
   	oma	0		S	sg g
   	oma	0		V	o
   	oma	0		A	sg n
   	oma	0		A	sg p
   	oma	0		P	sg n
   	oma	0		P	sg p
   	oma	0		S	sg n
   	oma	0		S	sg p
saunasid	saun	sid		S	pl p
mitte	mitte	0		D	
ära	ära	0		D	
   	ära	0		V	neg o
ei	ei	0		D	
  	ei	0		V	neg
lauta	laug	ta		S	sg ab
     	laut	0		S	adt
     	laut	0		S	sg p
.	.			Z	
see	see	0		P	sg n
asi	asi	0		S	sg n
   	asi	0		V	o
on	ole	0		V	b
  	ole	0		V	vad
haakenrihteri	####				
kohtusse	kohtune	se		A	adt
        	kohus	sse		S	sg ill
antud	an=tu	d		S	pl n
     	and	tud		V	tud
     	antud	0		A	
     	antud	0		A	sg n
     	antud	d		A	pl n
.	.			Z	
Ado	Ado	0		H	sg g
   	Ado	0		H	sg n
Kandelin	####				
XXX	XXX	0		O	?
   	XXX	0		Y	?
Jaan	Jaan	0		H	sg n
    	jaan	0		S	sg n
    	jaan	0		Y	?
Epmann	####				
XXX	XXX	0		O	?
   	XXX	0		Y	?
Jaan	Jaan	0		H	sg n
    	jaan	0		S	sg n
    	jaan	0		Y	?
Raudmez	####				
XXX	XXX	0		O	?
   	XXX	0		Y	?
tunnistuseks	tunnistus	ks		S	sg tr
kirjutaja	kirjutaja	0		S	sg g
         	kirjutaja	0		S	sg n
H	H	0		Y	?
.	.			Z	
_	_			Z	
Saarmo	####				
/	/			Z	
allkiri	all_kiri	0		S	sg n
/	/			Z	
