kogukonna	kogukond	0		S	sg g
kohus	kohu	s		V	s
     	kohus	0		S	sg n
30.	30.	0		O	?
Jaanuaril	jaanuar	l		S	sg ad
1887	1887	0		N	?
kohtualuseid	kohtu_alune	id		A	pl p
            	kohtu_alune	id		S	pl p
ei	ei	0		D	
  	ei	0		V	neg
ole	ole	0		V	o
.	.			Z	
peakohtumees	pea_kohtu_mees	0		S	sg n
:	:			Z	
Juhan	Juhan	0		H	sg n
Kerem	####				
XXX	XXX	0		O	?
   	XXX	0		Y	?
kohtu	kohtu	0		V	o
     	kohus	0		S	sg g
kõrvamees	kõrva_mees	0		S	sg n
:	:			Z	
Rein	Rein	0		H	sg n
Veiermann	####				
XXX	XXX	0		O	?
   	XXX	0		Y	?
""""	""""			Z	
""""	""""			Z	
""""	""""			Z	
Jaan	Jaan	0		H	sg n
    	jaan	0		S	sg n
    	jaan	0		Y	?
Veber	####				
XXX	XXX	0		O	?
   	XXX	0		Y	?
