olivad	####				
kohtu	kohtu	0		V	o
     	kohus	0		S	sg g
korra	kord	0		S	sg g
pärast	pära	st		S	sg el
      	pärane	t		A	sg p
      	pärast	0		D	
      	pärast	0		K	
kohtu	kohtu	0		V	o
     	kohus	0		S	sg g
majasse	maja	sse		S	sg ill
kokku	kokku	0		D	
     	kogu	0		S	adt
tulnud	tul=nud	0		A	
      	tul=nud	0		A	sg n
      	tul=nud	d		A	pl n
      	tule	nud		V	nud
      	tulnu	d		S	pl n
:	:			Z	
kohtuvanem	kohtu_vanem	0		C	sg n
          	kohtu_vanem	0		S	sg n
:	:			Z	
k	k	0		Y	?
.	.			Z	
_	_			Z	
Borkvell	####				
kõrvamees	kõrva_mees	0		S	sg n
:	:			Z	
J. Kalama	####				
xxx	####				
_	_			Z	
""""	""""			Z	
_	_			Z	
J	J	0		Y	?
.	.			Z	
kõrkmann	kõrk_mann	0		S	sg n
xxx	####				
sell	sell	0		S	sg n
päeval	päev	l		S	sg ad
ei	ei	0		D	
  	ei	0		V	neg
ole	ole	0		V	o
ühtegi	ühte	0	gi	D	
      	üks	0	gi	N	adt
      	üks	0	gi	P	adt
      	ühe	0	gi	S	sg g
      	üks	0	gi	N	sg p
      	üks	0	gi	P	sg p
kaebtust	####				
ega	ega	0		D	
   	ega	0		J	
seletust	seletus	t		S	sg p
kohtu	kohtu	0		V	o
     	kohus	0		S	sg g
ees	ees	0		D	
   	ees	0		K	
   	esi	s		S	sg in
olnud	ol=nud	0		A	
     	ol=nud	0		A	sg n
     	ol=nud	d		A	pl n
     	ole	nud		V	nud
     	olnu	d		S	pl n
.	.			Z	
kohtuvanem	kohtu_vanem	0		C	sg n
          	kohtu_vanem	0		S	sg n
:	:			Z	
k	k	0		Y	?
.	.			Z	
_	_			Z	
Borkvell	####				
kirjutaja	kirjutaja	0		S	sg g
         	kirjutaja	0		S	sg n
:	:			Z	
allkiri	all_kiri	0		S	sg n
