lode	####				
№	№	0		Y	?
1	1	0		N	?
/	/			Z	
18	18	0		N	?
ob	####				
kaupejemum	####				
Kustas	Kusta	s		H	sg in
      	Kustas	0		H	sg n
Martov	####				
Sakkeus	####				
.	.			Z	
Pastanvelnõude	####				
ob	####				
režutšdenii	####				
hoopigi	hoo_pigi	0		S	sg g
       	hoo_pigi	0		S	sg n
       	hoo_pigi	0		S	sg p
       	hoop	0	gi	S	adt
       	hoop	0	gi	S	sg p
sistujalus	####				
22	22	0		N	?
janvarja	####				
1891	1891	0		N	?
kuda	####				
po	####				
itšprine	####				
maloletstva	####				
upekimagu	####				
.	.			Z	
pigiOmõi	####				
Kustas	Kusta	s		H	sg in
      	Kustas	0		H	sg n
Martov	####				
Sakkeus	####				
rudilsja	####				
29	29	0		N	?
aprilja	####				
1888	1888	0		N	?
kuda	####				
,	,			Z	
žvuti	####				
v	v	0		Y	?
tšobšestve	####				
Piumets	piu_mets	0		S	sg n
,	,			Z	
Vjaskoi	####				
volosti	####				
,	,			Z	
on	ole	0		V	b
  	ole	0		V	vad
jsvoegu	####				
otsa	ots	0		S	adt
    	ots	0		S	sg g
    	otsa	0		D	
    	otsa	0		K	
    	otsa	0		V	o
    	ots	0		S	sg p
.	.			Z	
unOpekami	####				
nasnatenšõ	####				
kr	kr	0		Y	?
/	/			Z	
ne	####				
tobšš	####				
.	.			Z	
Piumets	piu_mets	0		S	sg n
Pärn	pärn	0		S	sg n
Milguvits	####				
i	i	0		Y	?
Jaan	Jaan	0		H	sg n
    	jaan	0		S	sg n
    	jaan	0		Y	?
Rot	####				
.	.			Z	
V	V	0		O	?
 	V	0		Y	?
opeke	####				
imejatsja	####				
nendežõi	####				
kapidal	####				
v	v	0		Y	?
200	200	0		N	?
rublei	####				
.	.			Z	
poega	poeg	0		S	adt
     	pood	ga		S	sg kom
     	poeg	0		S	sg p
prekraljas	####				
i	i	0		Y	?
jasn	####				
suglasnu	####				
tsirkuljaru	####				
jezsda	####				
Mivõhro	####				
Sudei	####				
et	et	0		J	
9	9	0		N	?
Maarta	####				
1896	1896	0		N	?
kuda	####				
sa	sina	0		P	sg n
₦	₦	0		Y	?
4126	4126	0		N	?
,	,			Z	
Pritsedatel	####				
A	A	0		Y	?
.	.			Z	
_	_			Z	
Ehrenwerth	####				
/	/			Z	
allkiri	all_kiri	0		S	sg n
/	/			Z	
Pissar	####				
Pamber	####				
/	/			Z	
allkiri	all_kiri	0		S	sg n
/	/			Z	
