Juhan	Juhan	0		H	sg n
Riiner	####				
kaebab	kaeba	b		V	b
,	,			Z	
et	et	0		J	
Karl	Karl	0		H	sg n
Eljas	####				
(	(			Z	
Alliku	Allik	0		H	sg g
vallast	vald	st		S	sg el
,	,			Z	
kes	kes	0		P	pl n
   	kes	0		P	sg n
Lokutal	####				
elab	ela	b		V	b
)	)			Z	
olla	ole	a		V	da
selle	see	0		P	sg g
     	sell	e		S	pl p
üleval	ülev	l		A	sg ad
      	üleval	0		D	
nimetatud	nimeta	tud		V	tud
         	nimetatu	d		S	pl n
         	nimetatud	0		A	
         	nimetatud	0		A	sg n
         	nimetatud	d		A	pl n
raha	raha	0		S	sg g
    	raha	0		S	sg n
    	raha	0		S	sg p
30	30	0		N	?
rubla	rubla	0		S	sg g
     	rubla	0		S	sg n
     	rubla	0		S	sg p
tema	tema	0		P	sg g
    	tema	0		P	sg n
juurest	juur	st		S	sg el
       	juurest	0		K	
ära	ära	0		D	
   	ära	0		V	neg o
varastanud	varasta	nud		V	nud
          	varasta=nu	d		S	pl n
          	varasta=nud	0		A	
          	varasta=nud	0		A	sg n
          	varasta=nud	d		A	pl n
,	,			Z	
se	####				
on	ole	0		V	b
  	ole	0		V	vad
nõnda	nõnda	0		D	
,	,			Z	
et	et	0		J	
Karl	Karl	0		H	sg n
Eljas	####				
pidanud	pida	nud		V	nud
       	pida=nu	d		S	pl n
       	pida=nud	0		A	
       	pida=nud	0		A	sg n
       	pida=nud	d		A	pl n
tema	tema	0		P	sg g
    	tema	0		P	sg n
omale	oma	le		A	sg all
     	oma	le		P	sg all
     	oma	le		S	sg all
ööseks	ööseks	0		D	
viima	vii	ma		V	ma
aga	aga	0		J	
pannud	pan=nu	d		S	pl n
      	pan=nud	0		A	
      	pan=nud	0		A	sg n
      	pan=nud	d		A	pl n
      	pane	nud		V	nud
tema	tema	0		P	sg g
    	tema	0		P	sg n
Lokkota	####				
kõrtsi	kõrts	0		S	adt
      	kõrts	0		S	sg g
      	kõrts	0		S	sg p
ette	ette	0		D	
    	ette	0		K	
    	esi	tte		S	adt
lasingi	lask	in	gi	V	sin
postide	post	de		S	pl g
juure	juur	0		S	sg g
magama	maga	ma		V	ma
,	,			Z	
ja	ja	0		J	
võtnud	võt	nud		V	nud
      	võt=nu	d		S	pl n
      	võt=nud	0		A	
      	võt=nud	0		A	sg n
      	võt=nud	d		A	pl n
tema	tema	0		P	sg g
    	tema	0		P	sg n
riided	riie	d		S	pl n
seljast	selg	st		S	sg el
(	(			Z	
kuue	kuub	0		S	sg g
    	kuus	0		N	sg g
)	)			Z	
ära	ära	0		D	
   	ära	0		V	neg o
.	.			Z	
(	(			Z	
Tema	tema	0		P	sg g
    	tema	0		P	sg n
olla	ole	a		V	da
väga	väga	0		D	
purjus	purjus	0		A	
      	purjus	0		D	
olnud	ol=nud	0		A	
     	ol=nud	0		A	sg n
     	ol=nud	d		A	pl n
     	ole	nud		V	nud
     	olnu	d		S	pl n
)	)			Z	
ja	ja	0		J	
Karl	Karl	0		H	sg n
andnud	and	nud		V	nud
      	and=nu	d		S	pl n
      	and=nud	0		A	
      	and=nud	0		A	sg n
      	and=nud	d		A	pl n
hommikul	hommik	l		S	sg ad
tema	tema	0		P	sg g
    	tema	0		P	sg n
Juhanile	Juhan	le		H	sg all
25	25	0		N	?
kop	kop	0		Y	?
.	.			Z	
tagasi	tagasi	0		D	
      	tagasi	0		K	
,	,			Z	
mis	mis	0		P	pl n
   	mis	0		P	sg n
tema	tema	0		P	sg g
    	tema	0		P	sg n
olla	ole	a		V	da
tema	tema	0		P	sg g
    	tema	0		P	sg n
väikse	väike	0		A	sg g
kuuetaskust	kuue_tasku	st		S	sg el
võtnud	võt	nud		V	nud
      	võt=nu	d		S	pl n
      	võt=nud	0		A	
      	võt=nud	0		A	sg n
      	võt=nud	d		A	pl n
,	,			Z	
ja	ja	0		J	
mütsi	müts	0		S	adt
     	müts	0		S	sg g
     	müts	0		S	sg p
ka	ka	0		D	
tagasi	tagasi	0		D	
      	tagasi	0		K	
,	,			Z	
aga	aga	0		J	
tema	tema	0		P	sg g
    	tema	0		P	sg n
peenike	peenike	0		A	sg n
raha	raha	0		S	sg g
    	raha	0		S	sg n
    	raha	0		S	sg p
olnud	ol=nud	0		A	
     	ol=nud	0		A	sg n
     	ol=nud	d		A	pl n
     	ole	nud		V	nud
     	olnu	d		S	pl n
ka	ka	0		D	
selle	see	0		P	sg g
     	sell	e		S	pl p
kolmekümne	kolm_kümmend	0		N	sg g
rubla	rubla	0		S	sg g
     	rubla	0		S	sg n
     	rubla	0		S	sg p
juures	juur	s		S	sg in
      	juures	0		D	
      	juures	0		K	
ühe	üks	0		N	sg g
   	üks	0		P	sg g
   	ühe	0		S	sg n
varastega	varane	tega		A	pl kom
         	varas	tega		S	pl kom
egeldud	####				
kotiga	kott	ga		S	sg kom
.	.			Z	
see	see	0		P	sg n
asi	asi	0		S	sg n
   	asi	0		V	o
jääb	jää	b		V	b
teiseks	teine	ks		O	sg tr
       	teine	ks		P	sg tr
       	teiseks	0		D	
kohtu	kohtu	0		V	o
     	kohus	0		S	sg g
päevaks	päev	ks		S	sg tr
,	,			Z	
sest	see	st		P	sg el
    	sest	0		J	
Kaarli	Kaarel	0		H	sg g
      	Kaarli	0		H	sg g
      	Kaarli	0		H	sg n
siin	siin	0		D	
    	siin	0		S	sg n
ei	ei	0		D	
  	ei	0		V	neg
ole	ole	0		V	o
.	.			Z	
pea	pea	0		D	
   	pea	0		S	sg g
   	pida	0		V	o
   	pea	0		S	sg n
kohtumees	kohtu_mees	0		S	sg n
Hans	Hans	0		H	sg n
rikk	####				
XXX	XXX	0		O	?
   	XXX	0		Y	?
kõrvamees	kõrva_mees	0		S	sg n
Mart	Mart	0		H	sg n
    	mart	0		S	sg n
Värtmann	####				
XXX	XXX	0		O	?
   	XXX	0		Y	?
kõrvamehe	kõrva_mees	0		S	sg g
asemik	asemik	0		S	sg n
Toomas	Toomas	0		H	sg n
      	Toomas	s		H	sg in
      	too	mas		V	mas
kiviinu	####				
XXX	XXX	0		O	?
   	XXX	0		Y	?
kaebtus	####				
tühjaks	tühi	ks		A	sg tr
mõistetud	mõist	tud		V	tud
         	mõiste=tu	d		S	pl n
         	mõiste=tud	0		A	
         	mõiste=tud	0		A	sg n
         	mõiste=tud	d		A	pl n
et	et	0		J	
tõe	tõde	0		S	sg g
   	tõsi	0		S	sg g
tunnistust	tunnistus	t		S	sg p
ei	ei	0		D	
  	ei	0		V	neg
ole	ole	0		V	o
.	.			Z	
protokoll	protokoll	0		S	sg n
№	№	0		Y	?
23	23	0		N	?
