prot	####				
.	.			Z	
25.	25.	0		O	?
Septr	####				
.	.			Z	
1889	1889	0		N	?
a	a	0		Y	?
20.	20.	0		O	?
Mart	Mart	0		H	sg n
    	mart	0		S	sg n
Blatt	####				
kaebab	kaeba	b		V	b
,	,			Z	
et	et	0		J	
Jaan	Jaan	0		H	sg n
    	jaan	0		S	sg n
    	jaan	0		Y	?
Mändi	mänd	0		S	adt
     	mänd	i		S	pl p
     	mänd	0		S	sg p
koer	koer	0		A	sg n
    	koer	0		S	sg n
jooksnud	jooks	nud		V	nud
        	jooks=nu	d		S	pl n
        	jooks=nud	0		A	
        	jooks=nud	0		A	sg n
        	jooks=nud	d		A	pl n
tema	tema	0		P	sg g
    	tema	0		P	sg n
mullika	mullikas	0		S	sg g
peale	pea	le		S	sg all
     	peale	0		D	
     	peale	0		K	
ja	ja	0		J	
ajanud	aja	nud		V	nud
      	aja=nu	d		S	pl n
      	aja=nud	0		A	
      	aja=nud	0		A	sg n
      	aja=nud	d		A	pl n
taga	taga	0		D	
    	taga	0		K	
    	taga	0		V	o
nõnda	nõnda	0		D	
,	,			Z	
et	et	0		J	
mullikas	mullikas	0		S	sg n
        	mullikas	s		S	sg in
maha	maha	0		D	
kukkunud	kukku	nud		V	nud
        	kukku=nu	d		S	pl n
        	kukku=nud	0		A	
        	kukku=nud	0		A	sg n
        	kukku=nud	d		A	pl n
ja	ja	0		J	
tema	tema	0		P	sg g
    	tema	0		P	sg n
pidanud	pida	nud		V	nud
       	pida=nu	d		S	pl n
       	pida=nud	0		A	
       	pida=nud	0		A	sg n
       	pida=nud	d		A	pl n
mullika	mullikas	0		S	sg g
ära	ära	0		D	
   	ära	0		V	neg o
tapma	tap	ma		V	ma
,	,			Z	
sest	see	st		P	sg el
    	sest	0		J	
et	et	0		J	
ta	tema	0		P	sg g
  	tema	0		P	sg n
enam	enam	0		C	sg n
    	enam	0		D	
eluloomas	elu_loom	s		S	sg in
poole	pool	0		N	sg g
     	pool	0		S	sg g
     	pool	e		S	pl p
     	poole	0		K	
     	poole	0		S	sg n
kõlömanud	####				
,	,			Z	
sellepärast	selle_pärast	0		D	
nõuab	nõud	b		V	b
ta	tema	0		P	sg g
  	tema	0		P	sg n
Jaan	Jaan	0		H	sg n
    	jaan	0		S	sg n
    	jaan	0		Y	?
Mändi	mänd	0		S	adt
     	mänd	i		S	pl p
     	mänd	0		S	sg p
käest	käest	0		K	
     	käsi	st		S	sg el
mullika	mullikas	0		S	sg g
hinda	hind	0		S	adt
     	hinda	0		V	o
     	hind	0		S	sg p
tagasi	tagasi	0		D	
      	tagasi	0		K	
.	.			Z	
Jaan	Jaan	0		H	sg n
    	jaan	0		S	sg n
    	jaan	0		Y	?
Mänd	mänd	0		S	sg n
küsitud	küsi	tud		V	tud
       	küsi=tu	d		S	pl n
       	küsi=tud	0		A	
       	küsi=tud	0		A	sg n
       	küsi=tud	d		A	pl n
,	,			Z	
tunnistab	tunnista	b		V	b
,	,			Z	
et	et	0		J	
tema	tema	0		P	sg g
    	tema	0		P	sg n
koer	koer	0		A	sg n
    	koer	0		S	sg n
ei	ei	0		D	
  	ei	0		V	neg
ole	ole	0		V	o
mitte	mitte	0		D	
äsitamise	####				
läbi	läbi	0		D	
    	läbi	0		K	
    	läbi	0		V	o
Mart	Mart	0		H	sg n
    	mart	0		S	sg n
Blatti	####				
mullika	mullikas	0		S	sg g
peale	pea	le		S	sg all
     	peale	0		D	
     	peale	0		K	
läinud	läinu	d		S	pl n
      	läinud	0		A	
      	läinud	0		A	sg n
      	läinud	d		A	pl n
      	mine	nud		V	nud
,	,			Z	
aga	aga	0		J	
mullikas	mullikas	0		S	sg n
        	mullikas	s		S	sg in
tulnud	tul=nud	0		A	
      	tul=nud	0		A	sg n
      	tul=nud	d		A	pl n
      	tule	nud		V	nud
      	tulnu	d		S	pl n
tema	tema	0		P	sg g
    	tema	0		P	sg n
põllu	põld	0		S	sg g
ääre	äär	0		S	sg g
,	,			Z	
kust	kusi	t		S	sg p
    	kust	0		D	
koer	koer	0		A	sg n
    	koer	0		S	sg n
teda	tema	da		P	sg p
natuke	natuke	0		D	
      	natuke	0		S	sg n
eemale	eemale	0		D	
peletanud	peleta	nud		V	nud
         	peleta=nu	d		S	pl n
         	peleta=nud	0		A	
         	peleta=nud	0		A	sg n
         	peleta=nud	d		A	pl n
,	,			Z	
mis	mis	0		P	pl n
   	mis	0		P	sg n
peale	pea	le		S	sg all
     	peale	0		D	
     	peale	0		K	
mullikas	mullikas	0		S	sg n
        	mullikas	s		S	sg in
eemale	eemale	0		D	
jooksnud	jooks	nud		V	nud
        	jooks=nu	d		S	pl n
        	jooks=nud	0		A	
        	jooks=nud	0		A	sg n
        	jooks=nud	d		A	pl n
ja	ja	0		J	
seisma	seis	ma		V	ma
jäänud	jää	nud		V	nud
      	jäänu	d		S	pl n
      	jäänud	0		A	
      	jäänud	0		A	sg n
      	jäänud	d		A	pl n
,	,			Z	
koer	koer	0		A	sg n
    	koer	0		S	sg n
tulnud	tul=nud	0		A	
      	tul=nud	0		A	sg n
      	tul=nud	d		A	pl n
      	tule	nud		V	nud
      	tulnu	d		S	pl n
ka	ka	0		D	
kohe	kohe	0		A	sg n
    	kohe	0		D	
tagasi	tagasi	0		D	
      	tagasi	0		K	
,	,			Z	
poole	pool	0		N	sg g
     	pool	0		S	sg g
     	pool	e		S	pl p
     	poole	0		K	
     	poole	0		S	sg n
mullikast	mullikas	st		S	sg el
mitte	mitte	0		D	
kiskunud	kisku	nud		V	nud
        	kisku=nu	d		S	pl n
        	kisku=nud	0		A	
        	kisku=nud	0		A	sg n
        	kisku=nud	d		A	pl n
,	,			Z	
ei	ei	0		D	
  	ei	0		V	neg
hammustanud	hammusta	nud		V	nud
           	hammusta=nu	d		S	pl n
           	hammusta=nud	0		A	
           	hammusta=nud	0		A	sg n
           	hammusta=nud	d		A	pl n
ega	ega	0		D	
   	ega	0		J	
veristanud	verista	nud		V	nud
          	verista=nu	d		S	pl n
          	verista=nud	0		A	
          	verista=nud	0		A	sg n
          	verista=nud	d		A	pl n
,	,			Z	
sellepärast	selle_pärast	0		D	
ei	ei	0		D	
  	ei	0		V	neg
võtta	võt	a		V	da
tema	tema	0		P	sg g
    	tema	0		P	sg n
ka	ka	0		D	
seda	see	da		P	sg p
mitte	mitte	0		D	
õigeks	õige	ks		A	sg tr
,	,			Z	
et	et	0		J	
mullikas	mullikas	0		S	sg n
        	mullikas	s		S	sg in
tema	tema	0		P	sg g
    	tema	0		P	sg n
koera	koer	0		A	adt
     	koer	0		A	sg g
     	koer	0		S	adt
     	koer	0		S	sg g
     	koer	0		A	sg p
     	koer	0		S	sg p
peletamise	peletamine	0		S	sg g
läbi	läbi	0		D	
    	läbi	0		K	
    	läbi	0		V	o
on	ole	0		V	b
  	ole	0		V	vad
midagi	miski	dagi		P	sg p
viga	viga	0		S	sg n
    	viga	0		S	sg p
saanud	saa	nud		V	nud
      	saa=nud	0		A	
      	saa=nud	0		A	sg n
      	saa=nud	d		A	pl n
      	saanu	d		S	pl n
.	.			Z	
mõistetud	mõist	tud		V	tud
         	mõiste=tu	d		S	pl n
         	mõiste=tud	0		A	
         	mõiste=tud	0		A	sg n
         	mõiste=tud	d		A	pl n
:	:			Z	
Mart	Mart	0		H	sg n
    	mart	0		S	sg n
Blatt	####				
peab	pida	b		V	b
selle	see	0		P	sg g
     	sell	e		S	pl p
üle	üle	0		D	
   	üle	0		K	
selget	selge	t		A	sg p
tunnistust	tunnistus	t		S	sg p
tooma	too	ma		V	ma
,	,			Z	
et	et	0		J	
tema	tema	0		P	sg g
    	tema	0		P	sg n
mullikas	mullikas	0		S	sg n
        	mullikas	s		S	sg in
Jaan	Jaan	0		H	sg n
    	jaan	0		S	sg n
    	jaan	0		Y	?
Mändi	mänd	0		S	adt
     	mänd	i		S	pl p
     	mänd	0		S	sg p
koera	koer	0		A	adt
     	koer	0		A	sg g
     	koer	0		S	adt
     	koer	0		S	sg g
     	koer	0		A	sg p
     	koer	0		S	sg p
läbi	läbi	0		D	
    	läbi	0		K	
    	läbi	0		V	o
vigastatud	vigasta	tud		V	tud
          	vigastatu	d		S	pl n
          	vigastatud	0		A	
          	vigastatud	0		A	sg n
          	vigastatud	d		A	pl n
saanud	saa	nud		V	nud
      	saa=nud	0		A	
      	saa=nud	0		A	sg n
      	saa=nud	d		A	pl n
      	saanu	d		S	pl n
,	,			Z	
muidu	muidu	0		D	
jääb	jää	b		V	b
tema	tema	0		P	sg g
    	tema	0		P	sg n
nõudmine	nõudmine	0		S	sg n
Mändi	mänd	0		S	adt
     	mänd	i		S	pl p
     	mänd	0		S	sg p
käest	käest	0		K	
     	käsi	st		S	sg el
tühjaks	tühi	ks		A	sg tr
.	.			Z	
kohtupeavanem	kohtu_pea_vanem	0		S	sg n
k	k	0		Y	?
.	.			Z	
_	_			Z	
haksel	####				
/	/			Z	
allkiri	all_kiri	0		S	sg n
/	/			Z	
kõrvamehed	kõrva_mees	d		S	pl n
:	:			Z	
J. Viilibert	####				
/	/			Z	
allkiri	all_kiri	0		S	sg n
/	/			Z	
J. Kotsar	####				
/	/			Z	
allkiri	all_kiri	0		S	sg n
/	/			Z	
