sel	see	l		P	sg ad
   	sel	0		Y	?
samal	sama	l		P	sg ad
päeval	päev	l		S	sg ad
oli	ole	i		V	s
kaebtus	####				
ka	ka	0		D	
Jaan	Jaan	0		H	sg n
    	jaan	0		S	sg n
    	jaan	0		Y	?
Nurkise	####				
peale	pea	le		S	sg all
     	peale	0		D	
     	peale	0		K	
,	,			Z	
tema	tema	0		P	sg g
    	tema	0		P	sg n
oma	oma	0		A	sg g
   	oma	0		D	
   	oma	0		P	sg g
   	oma	0		S	sg g
   	oma	0		V	o
   	oma	0		A	sg n
   	oma	0		A	sg p
   	oma	0		P	sg n
   	oma	0		P	sg p
   	oma	0		S	sg n
   	oma	0		S	sg p
poeg	poeg	0		S	sg n
kaebas	kaeba	s		V	s
et	et	0		J	
Isa	isa	0		S	sg g
   	isa	0		S	sg n
   	isa	0		S	sg p
on	ole	0		V	b
  	ole	0		V	vad
tema	tema	0		P	sg g
    	tema	0		P	sg n
vase	vask	0		S	sg g
le	####				
Kirstu	kirst	0		S	adt
      	kirst	0		S	sg g
      	kirst	0		S	sg p
ära	ära	0		D	
   	ära	0		V	neg o
lõhkunud	lõhku	nud		V	nud
        	lõhku=nu	d		S	pl n
        	lõhku=nud	0		A	
        	lõhku=nud	0		A	sg n
        	lõhku=nud	d		A	pl n
ja	ja	0		J	
selle	see	0		P	sg g
     	sell	e		S	pl p
Kirstu	kirst	0		S	adt
      	kirst	0		S	sg g
      	kirst	0		S	sg p
Luku	lukk	0		S	sg g
üsna	üsna	0		D	
ära	ära	0		D	
   	ära	0		V	neg o
lõhkunud	lõhku	nud		V	nud
        	lõhku=nu	d		S	pl n
        	lõhku=nud	0		A	
        	lõhku=nud	0		A	sg n
        	lõhku=nud	d		A	pl n
.	.			Z	
kohus	kohu	s		V	s
     	kohus	0		S	sg n
mõistis	mõist	is		V	s
et	et	0		J	
Jaan	Jaan	0		H	sg n
    	jaan	0		S	sg n
    	jaan	0		Y	?
Nurkis	####				
maksab	maks	b		V	b
pojale	poeg	le		S	sg all
      	poja	le		S	sg all
75	75	0		N	?
kopika	kopikas	0		S	sg g
Lku	####				
ette	ette	0		D	
    	ette	0		K	
    	esi	tte		S	adt
,	,			Z	
ja	ja	0		J	
valla	vald	0		S	sg g
     	valla	0		D	
laekasse	laegas	sse		S	sg ill
maksab	maks	b		V	b
selle	see	0		P	sg g
     	sell	e		S	pl p
rumala	rumal	0		A	sg g
üle	üle	0		D	
   	üle	0		K	
.	.			Z	
kohtu	kohtu	0		V	o
     	kohus	0		S	sg g
töö	töö	0		S	sg g
   	töö	0		S	sg n
eest	eest	0		D	
    	eest	0		K	
    	esi	st		S	sg el
ka	ka	0		D	
75	75	0		N	?
kopika	kopikas	0		S	sg g
se	####				
Luku	lukk	0		S	sg g
Hind	hind	0		S	sg n
ja	ja	0		J	
se	####				
Trahvi	trahv	0		S	adt
      	trahv	0		S	sg g
      	trahvi	0		V	o
      	trahv	0		S	sg p
raha	raha	0		S	sg g
    	raha	0		S	sg n
    	raha	0		S	sg p
sai	saa	i		V	s
   	sai	0		S	sg n
ka	ka	0		D	
kohe	kohe	0		A	sg n
    	kohe	0		D	
makstud	maks	tud		V	tud
       	maks=tu	d		S	pl n
       	maks=tud	0		A	
       	maks=tud	0		A	sg n
       	maks=tud	d		A	pl n
.	.			Z	
sel	see	l		P	sg ad
   	sel	0		Y	?
21mal	####				
Aprillil	aprill	l		S	sg ad
1867	1867	0		N	?
