olivad	####				
kohtu	kohtu	0		V	o
     	kohus	0		S	sg g
korra	kord	0		S	sg g
pärast	pära	st		S	sg el
      	pärane	t		A	sg p
      	pärast	0		D	
      	pärast	0		K	
kohtu	kohtu	0		V	o
     	kohus	0		S	sg g
majasse	maja	sse		S	sg ill
kokku	kokku	0		D	
     	kogu	0		S	adt
tulnud	tul=nud	0		A	
      	tul=nud	0		A	sg n
      	tul=nud	d		A	pl n
      	tule	nud		V	nud
      	tulnu	d		S	pl n
:	:			Z	
kohtu	kohtu	0		V	o
     	kohus	0		S	sg g
vanem	vanem	0		C	sg n
     	vanem	0		S	sg n
:	:			Z	
J	J	0		Y	?
.	.			Z	
kõrkman	####				
kõrva	kõrv	0		S	adt
     	kõrv	0		S	sg g
     	kõrv	0		S	sg p
mees	mees	0		S	sg n
    	mesi	s		S	sg in
:	:			Z	
J. Freiberg	####				
_	_			Z	
""""	""""			Z	
_	_			Z	
H	H	0		Y	?
.	.			Z	
_	_			Z	
õlbaum	####				
kohtu	kohtu	0		V	o
     	kohus	0		S	sg g
ette	ette	0		D	
    	ette	0		K	
    	esi	tte		S	adt
tuli	tuli	0		S	sg n
    	tule	i		V	s
Mart	Mart	0		H	sg n
    	mart	0		S	sg n
Waadewits	####				
ja	ja	0		J	
kaebab	kaeba	b		V	b
mina	mina	0		P	sg n
    	mina	0		S	sg g
    	mina	0		S	sg n
    	mina	0		S	sg p
ajasin	aja	sin		V	sin
kaduleid	kadu_leid	0		S	sg n
tahti	taht	0		S	adt
     	taht	0		S	sg p
esti	####				
ajasin	aja	sin		V	sin
perenaisel	pere_naine	l		S	sg ad
naduge	####				
ja	ja	0		J	
tüdrukul	tüdruk	l		S	sg ad
ja	ja	0		J	
vabadikul	vabadik	l		S	sg ad
ajasin	aja	sin		V	sin
puhas	puhas	0		A	sg n
lahti	laht	i		S	pl p
     	lahti	0		D	
ja	ja	0		J	
tüdruk	tüdruk	0		S	sg n
ütles	ütle	s		V	s
näha	näge	a		V	da
mis	mis	0		P	pl n
   	mis	0		P	sg n
keik	####				
nõuu	####				
majad	maja	d		S	pl n
on	ole	0		V	b
  	ole	0		V	vad
.	.			Z	
Miina	Miina	0		H	sg g
     	Miina	0		H	sg n
küsisin	küsi	sin		V	sin
mis	mis	0		P	pl n
   	mis	0		P	sg n
see	see	0		P	sg n
tähendab	tähenda	b		V	b
,	,			Z	
tema	tema	0		P	sg g
    	tema	0		P	sg n
ütles	ütle	s		V	s
,	,			Z	
et	et	0		J	
mina	mina	0		P	sg n
    	mina	0		S	sg g
    	mina	0		S	sg n
    	mina	0		S	sg p
olen	ole	n		V	n
heina	hein	0		S	adt
     	hein	0		S	sg g
     	hein	0		S	sg p
ajal	aeg	l		S	sg ad
    	ajal	0		K	
kõrvas	kõrv	s		S	sg in
küünis	küün	s		S	sg in
      	küünis	0		S	sg n
vabadiku	vabadik	0		S	sg g
naise	naine	0		S	sg g
juures	juur	s		S	sg in
      	juures	0		D	
      	juures	0		K	
maganud	maga	nud		V	nud
       	maga=nu	d		S	pl n
       	maga=nud	0		A	
       	maga=nud	0		A	sg n
       	maga=nud	d		A	pl n
üks	üks	0		N	sg n
   	üks	0		P	sg n
pühapäev	püha_päev	0		S	sg n
ja	ja	0		J	
Mängisaare	mäng_isa_are	0		A	sg n
eid	####				
on	ole	0		V	b
  	ole	0		V	vad
ka	ka	0		D	
iimaks	####				
panud	####				
.	.			Z	
nelipühi	neli_püha	i		S	pl p
keskmisel	keskmine	l		A	sg ad
pühal	püha	l		A	sg ad
     	püha	l		S	sg ad
kambris	kamber	s		S	sg in
sängis	säng	s		S	sg in
oleme	ole	me		V	me
jälle	jälle	0		D	
kahekesi	kahekesi	0		D	
maganud	maga	nud		V	nud
       	maga=nu	d		S	pl n
       	maga=nud	0		A	
       	maga=nud	0		A	sg n
       	maga=nud	d		A	pl n
.	.			Z	
tüdruk	tüdruk	0		S	sg n
Miina	Miina	0		H	sg g
     	Miina	0		H	sg n
Vanaaru	vana_aru	0		S	sg g
       	vana_aru	0		S	sg n
       	vana_aru	0		S	sg p
ütleb	ütle	b		V	b
,	,			Z	
et	et	0		J	
Mart	Mart	0		H	sg n
    	mart	0		S	sg n
Waadewits	####				
ajas	aeg	s		S	sg in
    	aja	s		V	s
esti	####				
mull	mull	0		S	sg n
ja	ja	0		J	
perenaisel	pere_naine	l		S	sg ad
naduke	####				
kartuleid	kartul	id		S	pl p
lahti	laht	i		S	pl p
     	lahti	0		D	
ja	ja	0		J	
perenaine	pere_naine	0		S	sg n
ütles	ütle	s		V	s
,	,			Z	
vaata	vaata	0		V	o
Miina	Miina	0		H	sg g
     	Miina	0		H	sg n
vabadikul	vabadik	l		S	sg ad
aetakse	aja	takse		V	takse
puhas	puhas	0		A	sg n
lahti	laht	i		S	pl p
     	lahti	0		D	
ja	ja	0		J	
mina	mina	0		P	sg n
    	mina	0		S	sg g
    	mina	0		S	sg n
    	mina	0		S	sg p
ütlesin	ütle	sin		V	sin
vaata	vaata	0		V	o
kus	kus	0		D	
nõuu	####				
mehed	mees	d		S	pl n
on	ole	0		V	b
  	ole	0		V	vad
,	,			Z	
selle	see	0		P	sg g
     	sell	e		S	pl p
peale	pea	le		S	sg all
     	peale	0		D	
     	peale	0		K	
hakkas	hakka	s		V	s
Mart	Mart	0		H	sg n
    	mart	0		S	sg n
mulle	mull	e		S	pl p
     	mina	lle		P	sg all
     	mulle	0		S	sg n
litsise	####				
lugema	luge	ma		V	ma
ja	ja	0		J	
mis	mis	0		P	pl n
   	mis	0		P	sg n
teie	sina	0		P	pl g
    	sina	0		P	pl n
vana	vana	0		A	sg g
    	vana	0		A	sg n
    	vana	0		A	sg p
    	vana	0		S	sg g
    	vana	0		S	sg n
    	vana	0		S	sg p
2	2	0		N	?
kraappi	####				
minust	mina	st		P	sg el
tahate	taht	te		V	te
.	.			Z	
vabadiku	vabadik	0		S	sg g
naine	naine	0		S	sg n
ütles	ütle	s		V	s
mis	mis	0		P	pl n
   	mis	0		P	sg n
sa	sina	0		P	sg n
lõpsik	####				
minust	mina	st		P	sg el
tahad	taht	d		V	d
ja	ja	0		J	
mina	mina	0		P	sg n
    	mina	0		S	sg g
    	mina	0		S	sg n
    	mina	0		S	sg p
vastasin	vasta	sin		V	sin
ära	ära	0		D	
   	ära	0		V	neg o
teistele	teine	tele		O	pl all
        	teine	tele		P	pl all
õlpsikuid	####				
loe	loe	0		S	sg n
   	lood	0		S	sg g
   	luge	0		V	o
,	,			Z	
sa	sina	0		P	sg n
magasid	maga	sid		V	sid
       	magas	d		S	pl n
keskmisel	keskmine	l		A	sg ad
nelipühi	neli_püha	i		S	pl p
hommikul	hommik	l		S	sg ad
poisi	poiss	0		S	sg g
kõrvas	kõrv	s		S	sg in
sängis	säng	s		S	sg in
ja	ja	0		J	
kõrvas	kõrv	s		S	sg in
ulasid	ula	sid		V	sid
üks	üks	0		N	sg n
   	üks	0		P	sg n
pühapäev	püha_päev	0		S	sg n
heina	hein	0		S	adt
     	hein	0		S	sg g
     	hein	0		S	sg p
ajal	aeg	l		S	sg ad
    	ajal	0		K	
küüünis	####				
nõnda	nõnda	0		D	
et	et	0		J	
Mängisaare	mäng_isa_are	0		A	sg n
eid	####				
seda	see	da		P	sg p
iimaks	####				
pani	pan	0		S	adt
    	pani	0		S	sg g
    	pane	i		V	s
    	pan	0		S	sg g
    	pan	0		S	sg p
    	pani	0		S	sg n
ja	ja	0		J	
ütles	ütle	s		V	s
,	,			Z	
ei	ei	0		D	
  	ei	0		V	neg
see	see	0		P	sg n
ole	ole	0		V	o
ilus	ilu	s		S	sg in
    	ilus	0		A	sg n
kui	kui	0		D	
   	kui	0		J	
naine	naine	0		S	sg n
poistega	poiss	tega		S	pl kom
hulab	####				
.	.			Z	
vabadiku	vabadik	0		S	sg g
naine	naine	0		S	sg n
Leena	Lee	na		H	sg es
     	Leena	0		H	sg g
     	Leena	0		H	sg n
Kullama	####				
ütleb	ütle	b		V	b
,	,			Z	
et	et	0		J	
kõrvas	kõrv	s		S	sg in
meie	mina	0		P	pl g
    	mina	0		P	pl n
muud	muu	d		P	pl n
    	muu	d		S	pl n
    	muu	d		V	d
    	muu	d		P	sg p
    	muu	d		S	sg p
ei	ei	0		D	
  	ei	0		V	neg
teinud	tege	nud		V	nud
      	tei=nud	0		A	
      	tei=nud	0		A	sg n
      	tei=nud	d		A	pl n
      	teinu	d		S	pl n
kui	kui	0		D	
   	kui	0		J	
laulsima	####				
,	,			Z	
aga	aga	0		J	
vahest	vahe	st		S	sg el
      	vahest	0		D	
on	ole	0		V	b
  	ole	0		V	vad
saanud	saa	nud		V	nud
      	saa=nud	0		A	
      	saa=nud	0		A	sg n
      	saa=nud	d		A	pl n
      	saanu	d		S	pl n
veel	veel	0		D	
    	vesi	l		S	sg ad
koerust	koerus	t		S	sg p
tehtud	tehtu	d		S	pl n
      	tehtud	0		A	
      	tehtud	0		A	sg n
      	tehtud	d		A	pl n
      	tege	tud		V	tud
minu	mina	0		P	sg g
oma	oma	0		A	sg g
   	oma	0		D	
   	oma	0		P	sg g
   	oma	0		S	sg g
   	oma	0		V	o
   	oma	0		A	sg n
   	oma	0		A	sg p
   	oma	0		P	sg n
   	oma	0		P	sg p
   	oma	0		S	sg n
   	oma	0		S	sg p
mehe	mees	0		S	sg g
silma	silm	0		S	adt
     	silm	0		S	sg g
     	silma	0		V	o
     	silm	0		S	sg p
all	all	0		D	
   	all	0		K	
,	,			Z	
ja	ja	0		J	
muud	muu	d		P	pl n
    	muu	d		S	pl n
    	muu	d		V	d
    	muu	d		P	sg p
    	muu	d		S	sg p
sõna	sõna	0		S	sg g
    	sõna	0		V	o
    	sõna	0		S	sg n
    	sõna	0		S	sg p
ma	mina	0		P	sg n
tüdrukule	tüdruk	le		S	sg all
ei	ei	0		D	
  	ei	0		V	neg
öelnud	öel=nu	d		S	pl n
      	öel=nud	0		A	
      	öel=nud	0		A	sg n
      	öel=nud	d		A	pl n
      	ütle	nud		V	nud
kui	kui	0		D	
   	kui	0		J	
mis	mis	0		P	pl n
   	mis	0		P	sg n
sa	sina	0		P	sg n
minust	mina	st		P	sg el
kiskud	####				
ja	ja	0		J	
õpslid	####				
.	.			Z	
Mart	Mart	0		H	sg n
    	mart	0		S	sg n
Kullama	####				
Leena	Lee	na		H	sg es
     	Leena	0		H	sg g
     	Leena	0		H	sg n
mees	mees	0		S	sg n
    	mesi	s		S	sg in
ütleb	ütle	b		V	b
,	,			Z	
et	et	0		J	
tema	tema	0		P	sg g
    	tema	0		P	sg n
on	ole	0		V	b
  	ole	0		V	vad
nelipühi	neli_püha	i		S	pl p
keskmisel	keskmine	l		A	sg ad
pühal	püha	l		A	sg ad
     	püha	l		S	sg ad
koju	kodu	0		S	adt
olnud	ol=nud	0		A	
     	ol=nud	0		A	sg n
     	ol=nud	d		A	pl n
     	ole	nud		V	nud
     	olnu	d		S	pl n
kuni	kuni	0		J	
    	kuni	0		K	
kella	kell	0		S	adt
     	kell	0		S	sg g
     	kella	0		V	o
     	kell	0		S	sg p
11	11	0		N	?
teistkümneni	####				
ja	ja	0		J	
siis	siis	0		D	
    	siis	0		J	
seltsis	selts	s		S	sg in
       	seltsi	s		V	s
       	seltsis	0		D	
       	seltsis	0		K	
Mart	Mart	0		H	sg n
    	mart	0		S	sg n
Vaadevitsaga	vaade_vits	ga		S	sg kom
ära	ära	0		D	
   	ära	0		V	neg o
läinud	läinu	d		S	pl n
      	läinud	0		A	
      	läinud	0		A	sg n
      	läinud	d		A	pl n
      	mine	nud		V	nud
,	,			Z	
see	see	0		P	sg n
asi	asi	0		S	sg n
   	asi	0		V	o
jääb	jää	b		V	b
poolele	pool	le		N	sg all
       	pool	le		S	sg all
ja	ja	0		J	
saab	saa	b		V	b
kirjalikult	kirjalik	lt		A	sg abl
           	kirjalikult	0		D	
Albu	Albu	0		H	sg g
    	Albu	0		H	sg n
kohtu	kohtu	0		V	o
     	kohus	0		S	sg g
läbi	läbi	0		D	
    	läbi	0		K	
    	läbi	0		V	o
Mängisaare	mäng_isa_are	0		A	sg n
eide	eit	0		S	sg g
käest	käest	0		K	
     	käsi	st		S	sg el
küsitud	küsi	tud		V	tud
       	küsi=tu	d		S	pl n
       	küsi=tud	0		A	
       	küsi=tud	0		A	sg n
       	küsi=tud	d		A	pl n
.	.			Z	
kohtu	kohtu	0		V	o
     	kohus	0		S	sg g
vanem	vanem	0		C	sg n
     	vanem	0		S	sg n
:	:			Z	
J	J	0		Y	?
.	.			Z	
kõrkmann	kõrk_mann	0		S	sg n
xxx	####				
kõrva	kõrv	0		S	adt
     	kõrv	0		S	sg g
     	kõrv	0		S	sg p
mees	mees	0		S	sg n
    	mesi	s		S	sg in
:	:			Z	
J. Freiberg	####				
_	_			Z	
""""	""""			Z	
_	_			Z	
H	H	0		Y	?
.	.			Z	
_	_			Z	
õlbaum	####				
kirjutaja	kirjutaja	0		S	sg g
         	kirjutaja	0		S	sg n
:	:			Z	
k	k	0		Y	?
.	.			Z	
_	_			Z	
Villmansen	####				
xxx	####				
läheb	mine	b		V	b
No	no	0		I	
23	23	0		N	?
protokollis	protokoll	s		S	sg in
           	protokolli	s		V	s
edasi	edasi	0		D	
     	edasi	0		K	
.	.			Z	
