2	2	0		N	?
)	)			Z	
Paide	Paide	0		H	adt
     	pai	de		A	pl g
     	pai	de		S	pl g
     	Paide	0		H	sg g
     	Paide	0		H	sg n
õpetaja	õpetaja	0		S	sg g
       	õpetaja	0		S	sg n
on	ole	0		V	b
  	ole	0		V	vad
vöörmüntertele	####				
kaebanud	####				
et	et	0		J	
seri	####				
tüdruk	tüdruk	0		S	sg n
Kreet	####				
Puusepp	puu_sepp	0		S	sg n
on	ole	0		V	b
  	ole	0		V	vad
seal	seal	0		D	
    	siga	l		A	sg ad
    	siga	l		S	sg ad
teiste	teine	te		O	pl g
      	teine	te		P	pl g
järelt	järelt	0		K	
varastanud	varasta	nud		V	nud
          	varasta=nu	d		S	pl n
          	varasta=nud	0		A	
          	varasta=nud	0		A	sg n
          	varasta=nud	d		A	pl n
.	.			Z	
1	1	0		N	?
rätik	rätik	0		S	sg n
,	,			Z	
1	1	0		N	?
nuga	nuga	0		S	sg n
    	nuga	0		S	sg p
ja	ja	0		J	
1	1	0		N	?
raamat	raamat	0		S	sg n
.	.			Z	
Jääb	jää	b		V	b
pooleli	pooleli	0		D	
.	.			Z	
