prot	####				
.	.			Z	
25.	25.	0		O	?
Septr	####				
.	.			Z	
1889	1889	0		N	?
a	a	0		Y	?
23.	23.	0		O	?
talitaja	talitaja	0		S	sg g
        	talitaja	0		S	sg n
Jaan	Jaan	0		H	sg n
    	jaan	0		S	sg n
    	jaan	0		Y	?
Alberti	Albert	0		H	sg g
kaebuses	kaebus	s		S	sg in
sai	saa	i		V	s
   	sai	0		S	sg n
Hans	Hans	0		H	sg n
Pent	Pent	0		H	sg n
kohtu	kohtu	0		V	o
     	kohus	0		S	sg g
ettekutsutud	ette_kutsutu	d		S	pl n
            	ette_kutsutud	0		A	
            	ette_kutsutud	0		A	sg n
            	ette_kutsutud	d		A	pl n
ja	ja	0		J	
küsitud	küsi	tud		V	tud
       	küsi=tu	d		S	pl n
       	küsi=tud	0		A	
       	küsi=tud	0		A	sg n
       	küsi=tud	d		A	pl n
,	,			Z	
mis	mis	0		P	pl n
   	mis	0		P	sg n
pärast	pära	st		S	sg el
      	pärane	t		A	sg p
      	pärast	0		D	
      	pärast	0		K	
tema	tema	0		P	sg g
    	tema	0		P	sg n
talitaja	talitaja	0		S	sg g
        	talitaja	0		S	sg n
käsu	käsk	0		S	sg g
vastupannud	vastu_pan=nu	d		S	pl n
           	vastu_pan=nud	0		A	
           	vastu_pan=nud	0		A	sg n
           	vastu_pan=nud	d		A	pl n
ja	ja	0		J	
kohtusse	kohtune	se		A	adt
        	kohus	sse		S	sg ill
tema	tema	0		P	sg g
    	tema	0		P	sg n
käsu	käsk	0		S	sg g
peale	pea	le		S	sg all
     	peale	0		D	
     	peale	0		K	
tulemata	tule	mata		V	mata
        	tulemata	0		A	
jäänud	jää	nud		V	nud
      	jäänu	d		S	pl n
      	jäänud	0		A	
      	jäänud	0		A	sg n
      	jäänud	d		A	pl n
.	.			Z	
Hans	Hans	0		H	sg n
Pent	Pent	0		H	sg n
ütleb	ütle	b		V	b
kohtu	kohtu	0		V	o
     	kohus	0		S	sg g
ees	ees	0		D	
   	ees	0		K	
   	esi	s		S	sg in
,	,			Z	
et	et	0		J	
tema	tema	0		P	sg g
    	tema	0		P	sg n
olla	ole	a		V	da
oma	oma	0		A	sg g
   	oma	0		D	
   	oma	0		P	sg g
   	oma	0		S	sg g
   	oma	0		V	o
   	oma	0		A	sg n
   	oma	0		A	sg p
   	oma	0		P	sg n
   	oma	0		P	sg p
   	oma	0		S	sg n
   	oma	0		S	sg p
ema	ema	0		S	sg g
   	ema	0		S	sg n
   	ema	0		S	sg p
valitsuse	valitsus	0		S	sg g
all	all	0		D	
   	all	0		K	
,	,			Z	
sellepärast	selle_pärast	0		D	
poole	pool	0		N	sg g
     	pool	0		S	sg g
     	pool	e		S	pl p
     	poole	0		K	
     	poole	0		S	sg n
temal	tema	l		P	sg ad
mitte	mitte	0		D	
võimalik	võimalik	0		A	sg n
kohtusse	kohtune	se		A	adt
        	kohus	sse		S	sg ill
tulla	tule	a		V	da
olnud	ol=nud	0		A	
     	ol=nud	0		A	sg n
     	ol=nud	d		A	pl n
     	ole	nud		V	nud
     	olnu	d		S	pl n
.	.			Z	
mõistetud	mõist	tud		V	tud
         	mõiste=tu	d		S	pl n
         	mõiste=tud	0		A	
         	mõiste=tud	0		A	sg n
         	mõiste=tud	d		A	pl n
:	:			Z	
et	et	0		J	
Hans	Hans	0		H	sg n
Penti	Pent	0		H	adt
     	Pent	0		H	sg p
vabandamine	vabandamine	0		S	sg n
ilma	ilm	0		S	adt
    	ilm	0		S	sg g
    	ilma	0		D	
    	ilma	0		K	
    	ilm	0		S	sg p
põhjuseta	põhjus	ta		S	sg ab
on	ole	0		V	b
  	ole	0		V	vad
,	,			Z	
sellepärast	selle_pärast	0		D	
ei	ei	0		D	
  	ei	0		V	neg
saa	saa	0		V	o
seda	see	da		P	sg p
mitte	mitte	0		D	
tähelepantud	####				
ja	ja	0		J	
maksab	maks	b		V	b
tema	tema	0		P	sg g
    	tema	0		P	sg n
käsu	käsk	0		S	sg g
vastupanemise	vastu_panemine	0		S	sg g
eest	eest	0		D	
    	eest	0		K	
    	esi	st		S	sg el
1	1	0		N	?
rbl	rbl	0		Y	?
.	.			Z	
trahvi	trahv	0		S	adt
      	trahv	0		S	sg g
      	trahvi	0		V	o
      	trahv	0		S	sg p
valla	vald	0		S	sg g
     	valla	0		D	
laekasse	laegas	sse		S	sg ill
.	.			Z	
kohtupeavanem	kohtu_pea_vanem	0		S	sg n
k	k	0		Y	?
.	.			Z	
_	_			Z	
haksel	####				
/	/			Z	
allkiri	all_kiri	0		S	sg n
/	/			Z	
kõrvamehed	kõrva_mees	d		S	pl n
:	:			Z	
J. Viilibert	####				
/	/			Z	
allkiri	all_kiri	0		S	sg n
/	/			Z	
J. Kotsar	####				
/	/			Z	
allkiri	all_kiri	0		S	sg n
/	/			Z	
