4	4	0		N	?
)	)			Z	
Jaakop	####				
Selli	sell	0		S	adt
     	sell	0		S	sg g
     	sell	0		S	sg p
kaebas	kaeba	s		V	s
,	,			Z	
et	et	0		J	
Kai	Kai	0		H	sg g
   	Kai	0		H	sg n
   	kai	0		S	sg g
   	kai	0		S	sg n
kalla	kalla	0		V	o
     	kalla	0		S	sg g
     	kalla	0		S	sg n
on	ole	0		V	b
  	ole	0		V	vad
ilma	ilm	0		S	adt
    	ilm	0		S	sg g
    	ilma	0		D	
    	ilma	0		K	
    	ilm	0		S	sg p
minu	mina	0		P	sg g
teadmata	tead	mata		V	mata
        	tead=mata	0		A	
,	,			Z	
minu	mina	0		P	sg g
poeg	poeg	0		S	sg n
Marti	Mart	0		H	adt
     	Mart	0		H	sg p
     	mart	0		S	adt
     	mart	0		S	sg p
peksnud	peks	nud		V	nud
       	peks=nu	d		S	pl n
       	peks=nud	0		A	
       	peks=nud	0		A	sg n
       	peks=nud	d		A	pl n
,	,			Z	
kes	kes	0		P	pl n
   	kes	0		P	sg n
7	7	0		N	?
aastat	aasta	t		S	sg p
vana	vana	0		A	sg g
    	vana	0		A	sg n
    	vana	0		A	sg p
    	vana	0		S	sg g
    	vana	0		S	sg n
    	vana	0		S	sg p
Kustas	Kusta	s		H	sg in
      	Kustas	0		H	sg n
plesi	####				
tunnistas	tunnista	s		V	s
,	,			Z	
et	et	0		J	
Mart	Mart	0		H	sg n
    	mart	0		S	sg n
Selli	sell	0		S	adt
     	sell	0		S	sg g
     	sell	0		S	sg p
tõi	too	i		V	s
10	10	0		N	?
kali	kali	0		S	sg n
Kai	Kai	0		H	sg g
   	Kai	0		H	sg n
   	kai	0		S	sg g
   	kai	0		S	sg n
kalla	kalla	0		V	o
     	kalla	0		S	sg g
     	kalla	0		S	sg n
ajast	aeg	st		S	sg el
     	ajane	t		A	sg p
,	,			Z	
siis	siis	0		D	
    	siis	0		J	
tuli	tuli	0		S	sg n
    	tule	i		V	s
meie	mina	0		P	pl g
    	mina	0		P	pl n
tuppa	tuba	0		S	adt
ja	ja	0		J	
lõi	loo	i		V	s
   	löö	i		V	s
Marti	Mart	0		H	adt
     	Mart	0		H	sg p
     	mart	0		S	adt
     	mart	0		S	sg p
4	4	0		N	?
hoopi	hoop	0		S	adt
     	hoop	0		S	sg p
Seppa	sepp	0		S	adt
     	sepp	0		S	sg p
vemblaga	vemmal	ga		S	sg kom
ni	####				
jäme	jäme	0		A	sg n
kui	kui	0		D	
   	kui	0		J	
minu	mina	0		P	sg g
sõrm	sõrm	0		S	sg n
ja	ja	0		J	
siis	siis	0		D	
    	siis	0		J	
ja	ja	0		J	
nenda	####				
seda	see	da		P	sg p
sõimas	sõima	s		V	s
Mart	Mart	0		H	sg n
    	mart	0		S	sg n
Kaie	Kaie	0		H	sg g
    	Kaie	0		H	sg n
kuradi	kurat	0		S	sg g
puts	puts	0		S	sg n
ja	ja	0		J	
kasi	kasi	0		V	o
raisk	raisk	0		I	
     	raisk	0		S	sg n
Kai	Kai	0		H	sg g
   	Kai	0		H	sg n
   	kai	0		S	sg g
   	kai	0		S	sg n
kalla	kalla	0		V	o
     	kalla	0		S	sg g
     	kalla	0		S	sg n
tunnistas	tunnista	s		V	s
sellepärast	selle_pärast	0		D	
lõin	loo	in		V	sin
    	löö	in		V	sin
poisi	poiss	0		S	sg g
4	4	0		N	?
hoopi	hoop	0		S	adt
     	hoop	0		S	sg p
,	,			Z	
käis	käi	s		V	s
    	käis	0		S	sg n
Jüri	Jüri	0		H	sg g
    	Jüri	0		H	sg n
päeva	päev	0		S	adt
     	päev	0		S	sg g
     	päev	0		S	sg p
ajal	aeg	l		S	sg ad
    	ajal	0		K	
kartulis	kartul	s		S	sg in
ja	ja	0		J	
nüüd	nüüd	0		D	
kiskus	kisku	s		V	s
kalid	####				
üles	üles	0		D	
ja	ja	0		J	
sõimas	sõima	s		V	s
alati	alga	ti		V	ti
     	alati	0		D	
ropul	ropp	l		A	sg ad
kombel	kombel	0		K	
      	komme	l		S	sg ad
aga	aga	0		J	
tema	tema	0		P	sg g
    	tema	0		P	sg n
isale	isa	le		S	sg all
ma	mina	0		P	sg n
sest	see	st		P	sg el
    	sest	0		J	
kahjust	kahi	st		S	sg el
       	kahju	st		S	sg el
ja	ja	0		J	
sõimamisest	sõimamine	st		S	sg el
ei	ei	0		D	
  	ei	0		V	neg
rääkinud	rääki	nud		V	nud
        	rääki=nu	d		S	pl n
        	rääki=nud	0		A	
        	rääki=nud	0		A	sg n
        	rääki=nud	d		A	pl n
.	.			Z	
Mart	Mart	0		H	sg n
    	mart	0		S	sg n
Selli	sell	0		S	adt
     	sell	0		S	sg g
     	sell	0		S	sg p
tunnistas	tunnista	s		V	s
,	,			Z	
mina	mina	0		P	sg n
    	mina	0		S	sg g
    	mina	0		S	sg n
    	mina	0		S	sg p
tein	####				
need	see	d		P	pl n
kalid	####				
Kai	Kai	0		H	sg g
   	Kai	0		H	sg n
   	kai	0		S	sg g
   	kai	0		S	sg n
kalla	kalla	0		V	o
     	kalla	0		S	sg g
     	kalla	0		S	sg n
ajast	aeg	st		S	sg el
     	ajane	t		A	sg p
ja	ja	0		J	
sõimasin	sõima	sin		V	sin
teda	tema	da		P	sg p
,	,			Z	
et	et	0		J	
ta	tema	0		P	sg g
  	tema	0		P	sg n
mind	mina	d		P	sg p
peksis	peks	is		V	s
selle	see	0		P	sg g
     	sell	e		S	pl p
peale	pea	le		S	sg all
     	peale	0		D	
     	peale	0		K	
mõistis	mõist	is		V	s
kogukonna	kogukond	0		S	sg g
johus	####				
,	,			Z	
et	et	0		J	
Jaakop	####				
Selli	sell	0		S	adt
     	sell	0		S	sg g
     	sell	0		S	sg p
maksab	maks	b		V	b
10_ne	####				
kali	kali	0		S	sg n
ette	ette	0		D	
    	ette	0		K	
    	esi	tte		S	adt
Kai	Kai	0		H	sg g
   	Kai	0		H	sg n
   	kai	0		S	sg g
   	kai	0		S	sg n
kallale	kalla	le		S	sg all
       	kallale	0		D	
       	kallale	0		K	
15	15	0		N	?
kopik	####				
ja	ja	0		J	
annab	and	b		V	b
siin	siin	0		D	
    	siin	0		S	sg n
kohtu	kohtu	0		V	o
     	kohus	0		S	sg g
silma	silm	0		S	adt
     	silm	0		S	sg g
     	silma	0		V	o
     	silm	0		S	sg p
al	####				
Martile	####				
5	5	0		N	?
hoopi	hoop	0		S	adt
     	hoop	0		S	sg p
vitsu	vits	u		S	pl p
,	,			Z	
ja	ja	0		J	
Kai	Kai	0		H	sg g
   	Kai	0		H	sg n
   	kai	0		S	sg g
   	kai	0		S	sg n
kalla	kalla	0		V	o
     	kalla	0		S	sg g
     	kalla	0		S	sg n
seisab	seis	b		V	b
24	24	0		N	?
tundi	tund	0		S	adt
     	tund	0		S	sg p
puuris	puur	s		S	sg in
      	puuri	s		V	s
.	.			Z	
