2	2	0		N	?
)	)			Z	
talitaja	talitaja	0		S	sg g
        	talitaja	0		S	sg n
Mart	Mart	0		H	sg n
    	mart	0		S	sg n
Tougo	####				
kaebas	kaeba	s		V	s
et	et	0		J	
kevade	kevad	0		S	sg g
      	kevade	0		S	sg g
      	kevade	0		S	sg n
lasksin	lask	sin		V	sin
mina	mina	0		P	sg n
    	mina	0		S	sg g
    	mina	0		S	sg n
    	mina	0		S	sg p
oma	oma	0		A	sg g
   	oma	0		D	
   	oma	0		P	sg g
   	oma	0		S	sg g
   	oma	0		V	o
   	oma	0		A	sg n
   	oma	0		A	sg p
   	oma	0		P	sg n
   	oma	0		P	sg p
   	oma	0		S	sg n
   	oma	0		S	sg p
abimehe	abi_mees	0		S	sg g
Jüri	Jüri	0		H	sg g
    	Jüri	0		H	sg n
Rebase	rebane	0		S	sg g
selle	see	0		P	sg g
     	sell	e		S	pl p
Kerneli	kernel	0		S	sg g
käest	käest	0		K	
     	käsi	st		S	sg el
passi	pass	0		S	adt
     	pass	0		S	sg g
     	passi	0		V	o
     	pass	0		S	sg p
küsida	küsi	da		V	da
kes	kes	0		P	pl n
   	kes	0		P	sg n
Seppahanso	####				
peremehe	pere_mees	0		S	sg g
Jüri	Jüri	0		H	sg g
    	Jüri	0		H	sg n
turmanni	turm_and	0		S	sg g
juures	juur	s		S	sg in
      	juures	0		D	
      	juures	0		K	
Vabatikuks	vaba_tikk	ks		S	sg tr
on	ole	0		V	b
  	ole	0		V	vad
ja	ja	0		J	
tema	tema	0		P	sg g
    	tema	0		P	sg n
on	ole	0		V	b
  	ole	0		V	vad
Jürile	Jüri	le		H	sg all
öelnud	öel=nu	d		S	pl n
      	öel=nud	0		A	
      	öel=nud	0		A	sg n
      	öel=nud	d		A	pl n
      	ütle	nud		V	nud
ma	mina	0		P	sg n
praegu	praegu	0		D	
just	just	0		D	
    	just	0		I	
lähengi	mine	n	gi	V	n
passi	pass	0		S	adt
     	pass	0		S	sg g
     	passi	0		V	o
     	pass	0		S	sg p
järel	järel	0		D	
     	järel	0		K	
.	.			Z	
Sesama	####				
nimetatud	nimeta	tud		V	tud
         	nimetatu	d		S	pl n
         	nimetatud	0		A	
         	nimetatud	0		A	sg n
         	nimetatud	d		A	pl n
Kernel	kernel	0		S	sg n
Jaan	Jaan	0		H	sg n
    	jaan	0		S	sg n
    	jaan	0		Y	?
surmann	####				
tunnistas	tunnista	s		V	s
,	,			Z	
mis	mis	0		P	pl n
   	mis	0		P	sg n
Seppahanso	####				
peremees	pere_mees	0		S	sg n
sel	see	l		P	sg ad
   	sel	0		Y	?
2sel	####				
Septembril	september	l		S	sg ad
No5	####				
tema	tema	0		P	sg g
    	tema	0		P	sg n
peale	pea	le		S	sg all
     	peale	0		D	
     	peale	0		K	
vallavalitsuse	valla_valitsus	0		S	sg g
sõimamise	sõimamine	0		S	sg g
üle	üle	0		D	
   	üle	0		K	
kaebas	kaeba	s		V	s
mina	mina	0		P	sg n
    	mina	0		S	sg g
    	mina	0		S	sg n
    	mina	0		S	sg p
ei	ei	0		D	
  	ei	0		V	neg
ole	ole	0		V	o
mitte	mitte	0		D	
kedagi	keegi	dagi		P	sg p
sõimanud	sõima	nud		V	nud
        	sõima=nu	d		S	pl n
        	sõima=nud	0		A	
        	sõima=nud	0		A	sg n
        	sõima=nud	d		A	pl n
naised	naine	d		S	pl n
on	ole	0		V	b
  	ole	0		V	vad
sugulased	sugulane	d		S	pl n
ja	ja	0		J	
lähevad	mine	vad		V	vad
kodu	kodu	0		S	sg g
    	kodu	0		S	sg n
    	kodu	0		S	sg p
tülisse	tüli	sse		S	sg ill
sellepärast	selle_pärast	0		D	
kaebab	kaeba	b		V	b
peremees	pere_mees	0		S	sg n
minu	mina	0		P	sg g
peale	pea	le		S	sg all
     	peale	0		D	
     	peale	0		K	
ja	ja	0		J	
näidas	####				
ka	ka	0		D	
oma	oma	0		A	sg g
   	oma	0		D	
   	oma	0		P	sg g
   	oma	0		S	sg g
   	oma	0		V	o
   	oma	0		A	sg n
   	oma	0		A	sg p
   	oma	0		P	sg n
   	oma	0		P	sg p
   	oma	0		S	sg n
   	oma	0		S	sg p
sedeli	sedel	0		S	sg g
ette	ette	0		D	
    	ette	0		K	
    	esi	tte		S	adt
.	.			Z	
selle	see	0		P	sg g
     	sell	e		S	pl p
pärast	pära	st		S	sg el
      	pärane	t		A	sg p
      	pärast	0		D	
      	pärast	0		K	
,	,			Z	
et	et	0		J	
seal	seal	0		D	
    	siga	l		A	sg ad
    	siga	l		S	sg ad
kedagi	keegi	dagi		P	sg p
pealt	pea	lt		S	sg abl
     	pealt	0		D	
     	pealt	0		K	
ei	ei	0		D	
  	ei	0		V	neg
ole	ole	0		V	o
kuulanud	kuula	nud		V	nud
        	kuula=nu	d		S	pl n
        	kuula=nud	0		A	
        	kuula=nud	0		A	sg n
        	kuula=nud	d		A	pl n
ei	ei	0		D	
  	ei	0		V	neg
võinud	või	nud		V	nud
      	või=nu	d		S	pl n
      	või=nud	0		A	
      	või=nud	0		A	sg n
      	või=nud	d		A	pl n
kogukonna	kogukond	0		S	sg g
kohus	kohu	s		V	s
     	kohus	0		S	sg n
ühtegi	ühte	0	gi	D	
      	üks	0	gi	N	adt
      	üks	0	gi	P	adt
      	ühe	0	gi	S	sg g
      	üks	0	gi	N	sg p
      	üks	0	gi	P	sg p
otsust	otsus	t		S	sg p
mõista	mõist	0		V	o
      	mõist	a		V	da
.	.			Z	
