№	№	0		Y	?
1	1	0		N	?
sel	see	l		P	sg ad
   	sel	0		Y	?
19ndal	19=s	l		O	sg ad
Januaril	####				
1885	1885	0		N	?
olid	ole	id		V	sid
sel	see	l		P	sg ad
   	sel	0		Y	?
päeval	päev	l		S	sg ad
koos	koos	0		D	
    	koos	0		K	
    	koos	0		S	sg n
    	kubu	s		S	sg in
kohtumehed	kohtu_mees	d		S	pl n
pea	pea	0		D	
   	pea	0		S	sg g
   	pida	0		V	o
   	pea	0		S	sg n
vanem	vanem	0		C	sg n
     	vanem	0		S	sg n
Kaarel	Kaarel	0		H	sg n
      	kaar	l		S	sg ad
      	kaarel	0		S	sg n
Traugot	####				
,	,			Z	
Jaan	Jaan	0		H	sg n
    	jaan	0		S	sg n
    	jaan	0		Y	?
Pernestein	####				
ja	ja	0		J	
Hans	Hans	0		H	sg n
Pent	Pent	0		H	sg n
.	.			Z	
ei	ei	0		D	
  	ei	0		V	neg
olnud	ol=nud	0		A	
     	ol=nud	0		A	sg n
     	ol=nud	d		A	pl n
     	ole	nud		V	nud
     	olnu	d		S	pl n
sel	see	l		P	sg ad
   	sel	0		Y	?
päeval	päev	l		S	sg ad
kohtu	kohtu	0		V	o
     	kohus	0		S	sg g
mõistmist	mõistmine	t		S	sg p
ega	ega	0		D	
   	ega	0		J	
kohtu	kohtu	0		V	o
     	kohus	0		S	sg g
ette	ette	0		D	
    	ette	0		K	
    	esi	tte		S	adt
tulemist	tulem	st		S	sg el
        	tulemine	t		S	sg p
.	.			Z	
pea	pea	0		D	
   	pea	0		S	sg g
   	pida	0		V	o
   	pea	0		S	sg n
vanem	vanem	0		C	sg n
     	vanem	0		S	sg n
Kaarel	Kaarel	0		H	sg n
      	kaar	l		S	sg ad
      	kaarel	0		S	sg n
Traugott	####				
XXX	XXX	0		O	?
   	XXX	0		Y	?
Jaan	Jaan	0		H	sg n
    	jaan	0		S	sg n
    	jaan	0		Y	?
Pärnestein	####				
XXX	XXX	0		O	?
   	XXX	0		Y	?
Hans	Hans	0		H	sg n
Pent	Pent	0		H	sg n
XXX	XXX	0		O	?
   	XXX	0		Y	?
