see	see	0		P	sg n
Andres	Andre	s		H	sg in
      	Andres	0		H	sg n
juuntsoni	####				
kaebtus	####				
mis	mis	0		P	pl n
   	mis	0		P	sg n
sel	see	l		P	sg ad
   	sel	0		Y	?
24mal	####				
Aprillil	aprill	l		S	sg ad
No	no	0		I	
3	3	0		N	?
ees	ees	0		D	
   	ees	0		K	
   	esi	s		S	sg in
oli	ole	i		V	s
.	.			Z	
tunnistas	tunnista	s		V	s
Jaan	Jaan	0		H	sg n
    	jaan	0		S	sg n
    	jaan	0		Y	?
Korjus	korju	s		V	s
      	kori	s		S	sg in
      	korju	s		S	sg in
      	korjus	0		S	sg n
mina	mina	0		P	sg n
    	mina	0		S	sg g
    	mina	0		S	sg n
    	mina	0		S	sg p
tulin	tule	in		V	sin
Jõepärast	jõe_pärane	t		A	sg p
teenistuse	teenistus	0		S	sg g
kaupa	kaup	0		S	adt
     	kaup	0		S	sg p
     	kaupa	0		K	
tegemast	tege	mast		V	mast
seal	seal	0		D	
    	siga	l		A	sg ad
    	siga	l		S	sg ad
andi	and	0		S	adt
    	and	0		S	sg p
mulle	mull	e		S	pl p
     	mina	lle		P	sg all
     	mulle	0		S	sg n
viina	viin	0		S	adt
     	viin	0		S	sg g
     	viin	0		S	sg p
ja	ja	0		J	
härjasillal	härja_sild	l		S	sg ad
sain	saa	in		V	sin
ka	ka	0		D	
ma	mina	0		P	sg n
olin	ole	in		V	sin
joonud	joo	nud		V	nud
      	joo=nu	d		S	pl n
      	joo=nud	0		A	
      	joo=nud	0		A	sg n
      	joo=nud	d		A	pl n
ei	ei	0		D	
  	ei	0		V	neg
ma	mina	0		P	sg n
mäleta	mäleta	0		V	o
sugugi	sugugi	0		D	
mis	mis	0		P	pl n
   	mis	0		P	sg n
ma	mina	0		P	sg n
teepeal	tee_pea	l		S	sg ad
rääkisin	rääki	sin		V	sin
.	.			Z	
tema	tema	0		P	sg g
    	tema	0		P	sg n
naine	naine	0		S	sg n
Mai	Mai	0		H	sg g
   	Mai	0		H	sg n
   	mai	0		S	sg g
   	mai	0		S	sg n
tunnistas	tunnista	s		V	s
et	et	0		J	
Jaan	Jaan	0		H	sg n
    	jaan	0		S	sg n
    	jaan	0		Y	?
oli	ole	i		V	s
joonud	joo	nud		V	nud
      	joo=nu	d		S	pl n
      	joo=nud	0		A	
      	joo=nud	0		A	sg n
      	joo=nud	d		A	pl n
ja	ja	0		J	
ütles	ütle	s		V	s
tagajärel	####				
sa	sina	0		P	sg n
kuradi	kurat	0		S	sg g
pärast	pära	st		S	sg el
      	pärane	t		A	sg p
      	pärast	0		D	
      	pärast	0		K	
siis	siis	0		D	
    	siis	0		J	
palus	palu	s		S	sg in
     	palu	s		V	s
Mai	Mai	0		H	sg g
   	Mai	0		H	sg n
   	mai	0		S	sg g
   	mai	0		S	sg n
antke	####				
temale	tema	le		P	sg all
se	####				
kord	kord	0		D	
    	kord	0		S	sg n
veel	veel	0		D	
    	vesi	l		S	sg ad
andeks	andeks	0		X	
      	anne	ks		S	sg tr
ma	mina	0		P	sg n
tahan	taht	n		V	n
ta	tema	0		P	sg g
  	tema	0		P	sg n
eest	eest	0		D	
    	eest	0		K	
    	esi	st		S	sg el
hoolt	hoog	lt		S	sg abl
     	hool	t		S	sg p
kanda	kand	0		S	adt
     	kand	a		V	da
     	kand	0		S	sg p
et	et	0		J	
need	see	d		P	pl n
kroonumaksud	kroonu_maks	d		S	pl n
saavad	saa	vad		V	vad
      	saav	d		A	pl n
      	saav	d		S	pl n
ära	ära	0		D	
   	ära	0		V	neg o
makstud	maks	tud		V	tud
       	maks=tu	d		S	pl n
       	maks=tud	0		A	
       	maks=tud	0		A	sg n
       	maks=tud	d		A	pl n
ni	####				
kui	kui	0		D	
   	kui	0		J	
mina	mina	0		P	sg n
    	mina	0		S	sg g
    	mina	0		S	sg n
    	mina	0		S	sg p
neid	neid	0		S	sg n
    	see	d		P	pl p
    	tema	d		P	pl p
tänini	tänini	0		D	
olen	ole	n		V	n
ära	ära	0		D	
   	ära	0		V	neg o
tasunud	tasu	nud		V	nud
       	tasu=nu	d		S	pl n
       	tasu=nud	0		A	
       	tasu=nud	0		A	sg n
       	tasu=nud	d		A	pl n
.	.			Z	
selle	see	0		P	sg g
     	sell	e		S	pl p
naise	naine	0		S	sg g
suure	suur	0		A	sg g
palumise	palumine	0		S	sg g
peale	pea	le		S	sg all
     	peale	0		D	
     	peale	0		K	
mõistis	mõist	is		V	s
kogukonna	kogukond	0		S	sg g
kohus	kohu	s		V	s
     	kohus	0		S	sg n
,	,			Z	
et	et	0		J	
Jaan	Jaan	0		H	sg n
    	jaan	0		S	sg n
    	jaan	0		Y	?
Korjus	korju	s		V	s
      	kori	s		S	sg in
      	korju	s		S	sg in
      	korjus	0		S	sg n
ei	ei	0		D	
  	ei	0		V	neg
tohi	tohti	0		V	o
mitte	mitte	0		D	
ise	ise	0		A	
   	ise	0		D	
   	ise	0		P	pl n
   	ise	0		P	sg n
oma	oma	0		A	sg g
   	oma	0		D	
   	oma	0		P	sg g
   	oma	0		S	sg g
   	oma	0		V	o
   	oma	0		A	sg n
   	oma	0		A	sg p
   	oma	0		P	sg n
   	oma	0		P	sg p
   	oma	0		S	sg n
   	oma	0		S	sg p
palga	palk	0		S	sg g
peremehe	pere_mees	0		S	sg g
käest	käest	0		K	
     	käsi	st		S	sg el
välja	välja	0		D	
     	välja	0		V	o
     	väli	0		S	adt
     	väli	0		S	sg g
     	väli	0		S	sg p
võtta	võt	a		V	da
ja	ja	0		J	
sai	saa	i		V	s
   	sai	0		S	sg n
ka	ka	0		D	
peremehele	pere_mees	le		S	sg all
kirja	kirja	0		A	
     	kirja	0		V	o
     	kiri	0		S	adt
     	kiri	0		S	sg g
     	kiri	0		S	sg p
läbi	läbi	0		D	
    	läbi	0		K	
    	läbi	0		V	o
keeldud	keeldu	d		V	d
ja	ja	0		J	
need	see	d		P	pl n
sandid	sant	d		A	pl n
      	sant	d		S	pl n
      	santi	d		V	d
sõnad	sõna	d		S	pl n
     	sõna	d		V	d
said	saa	id		V	sid
seks	see	ks		P	sg tr
    	seks	0		S	sg n
korraks	kord	ks		S	sg tr
       	korraks	0		D	
temale	tema	le		P	sg all
jäetud	jäe=tu	d		S	pl n
      	jäe=tud	0		A	
      	jäe=tud	0		A	sg n
      	jäe=tud	d		A	pl n
      	jät	tud		V	tud
,	,			Z	
kui	kui	0		D	
   	kui	0		J	
tema	tema	0		P	sg g
    	tema	0		P	sg n
ilusti	ilusti	0		D	
teenib	teeni	b		V	b
ja	ja	0		J	
enam	enam	0		C	sg n
    	enam	0		D	
mitte	mitte	0		D	
lakkuma	lakku	ma		V	ma
ega	ega	0		D	
   	ega	0		J	
mingisugust	mingi_sugune	t		P	sg p
muud	muu	d		P	pl n
    	muu	d		S	pl n
    	muu	d		V	d
    	muu	d		P	sg p
    	muu	d		S	sg p
kurja	kuri	0		A	adt
     	kuri	0		A	sg g
     	kuri	0		S	adt
     	kuri	0		S	sg g
     	kuri	0		A	sg p
     	kuri	0		S	sg p
tööd	töö	d		S	pl n
    	töö	d		S	sg p
tegema	tege	ma		V	ma
ei	ei	0		D	
  	ei	0		V	neg
lähe	lähe	0		S	sg n
    	mine	0		V	neg o
,	,			Z	
aga	aga	0		J	
kui	kui	0		D	
   	kui	0		J	
veel	veel	0		D	
    	vesi	l		S	sg ad
mingisugust	mingi_sugune	t		P	sg p
südi	südi	0		A	sg g
    	südi	0		A	sg n
    	südi	0		A	sg p
temalt	tema	lt		P	sg abl
ette	ette	0		D	
    	ette	0		K	
    	esi	tte		S	adt
tuleb	tule	b		V	b
saab	saa	b		V	b
ka	ka	0		D	
se	####				
süü	süü	0		S	sg g
   	süü	0		S	sg n
juure	juur	0		S	sg g
võetud	võe=tu	d		S	pl n
      	võetud	0		A	
      	võetud	0		A	sg n
      	võetud	d		A	pl n
      	võt	tud		V	tud
.	.			Z	
kohtuvanem	kohtu_vanem	0		C	sg n
          	kohtu_vanem	0		S	sg n
.	.			Z	
A	A	0		Y	?
.	.			Z	
_Juntson	####				
[	[			Z	
allkiri	all_kiri	0		S	sg n
]	]			Z	
kõrvamehed	kõrva_mees	d		S	pl n
Mart	Mart	0		H	sg n
    	mart	0		S	sg n
Venno	Venno	0		H	sg g
     	Venno	0		H	sg n
XXX	XXX	0		O	?
   	XXX	0		Y	?
ja	ja	0		J	
Jaan	Jaan	0		H	sg n
    	jaan	0		S	sg n
    	jaan	0		Y	?
Söödi	söö	di		V	ti
     	sööt	0		S	sg g
XXX	XXX	0		O	?
   	XXX	0		Y	?
kirjutaja	kirjutaja	0		S	sg g
         	kirjutaja	0		S	sg n
M	M	0		O	?
 	M	0		Y	?
Arak	####				
[	[			Z	
allkiri	all_kiri	0		S	sg n
]	]			Z	
