1.	1.	0		O	?
mõisa	mõis	0		S	sg g
härra	härra	0		S	sg g
     	härra	0		S	sg n
kaebas	kaeba	s		V	s
kogukonna	kogukond	0		S	sg g
kohtu	kohtu	0		V	o
     	kohus	0		S	sg g
ette	ette	0		D	
    	ette	0		K	
    	esi	tte		S	adt
oma	oma	0		A	sg g
   	oma	0		D	
   	oma	0		P	sg g
   	oma	0		S	sg g
   	oma	0		V	o
   	oma	0		A	sg n
   	oma	0		A	sg p
   	oma	0		P	sg n
   	oma	0		P	sg p
   	oma	0		S	sg n
   	oma	0		S	sg p
teo	tegu	0		S	sg g
   	tigu	0		S	sg g
meeste	meene	te		A	pl g
      	mees	te		S	pl g
pärast	pära	st		S	sg el
      	pärane	t		A	sg p
      	pärast	0		D	
      	pärast	0		K	
et	et	0		J	
nemad	tema	d		P	pl n
on	ole	0		V	b
  	ole	0		V	vad
künni	künd	0		S	sg g
tö	####				
juures	juur	s		S	sg in
      	juures	0		D	
      	juures	0		K	
18	18	0		N	?
sööma	söö	ma		V	ma
     	sööm	0		S	adt
     	sööm	0		S	sg g
     	sööm	0		S	sg p
vaht	vaht	0		S	sg n
võlgu	võlg	u		S	pl p
     	võlgu	0		D	
jätnud	jät	nud		V	nud
      	jät=nu	d		S	pl n
      	jät=nud	0		A	
      	jät=nud	0		A	sg n
      	jät=nud	d		A	pl n
,	,			Z	
sest	see	st		P	sg el
    	sest	0		J	
nad	tema	d		P	pl n
pidid	pida	id		V	sid
10ne	10	0		N	sg g
mehega	mees	ga		S	sg kom
4	4	0		N	?
tulba	tulp	0		S	sg g
ära	ära	0		D	
   	ära	0		V	neg o
kündma	künd	ma		V	ma
päevas	päev	s		S	sg in
;	;			Z	
aga	aga	0		J	
teine	teine	0		O	sg n
     	teine	0		P	sg n
päeva	päev	0		S	adt
     	päev	0		S	sg g
     	päev	0		S	sg p
kündsid	künd	sid		V	sid
9	9	0		N	?
meest	meene	t		A	sg p
     	mees	t		S	sg p
     	mesi	st		S	sg el
seda	see	da		P	sg p
sama	sama	0		P	sg g
    	sama	0		P	sg n
    	sama	0		P	sg p
maad	maa	d		S	pl n
    	maa	d		S	sg p
veel	veel	0		D	
    	vesi	l		S	sg ad
.	.			Z	
nimelt	nimelt	0		D	
      	nimi	lt		S	sg abl
need	see	d		P	pl n
mehed	mees	d		S	pl n
Peeter	Peeter	0		H	sg n
Sõerd	####				
,	,			Z	
Hans	Hans	0		H	sg n
munamägi	muna_mägi	0		S	sg n
,	,			Z	
Hans	Hans	0		H	sg n
Klaus	Klaus	0		H	sg n
,	,			Z	
Tõnu	Tõnu	0		H	sg g
    	Tõnu	0		H	sg n
Krahmann	####				
,	,			Z	
Mart	Mart	0		H	sg n
    	mart	0		S	sg n
Allik	Allik	0		H	sg n
,	,			Z	
Johann	Johann	0		H	sg n
Ingerberg	####				
,	,			Z	
Mart	Mart	0		H	sg n
    	mart	0		S	sg n
kõlgu	kõlku	0		V	o
,	,			Z	
Andres	Andre	s		H	sg in
      	Andres	0		H	sg n
koppelmann	koppel_mann	0		S	sg n
,	,			Z	
Pukki	pukk	0		S	adt
     	pukk	0		S	sg p
Siim	Siim	0		H	sg n
,	,			Z	
Tamme	tamm	0		S	adt
     	tamm	0		S	sg g
     	tamm	e		S	pl p
     	tamm	0		S	sg p
Mart	Mart	0		H	sg n
    	mart	0		S	sg n
.	.			Z	
2.	2.	0		O	?
need	see	d		P	pl n
mehed	mees	d		S	pl n
vastud	####				
:	:			Z	
et	et	0		J	
se	####				
ma	mina	0		P	sg n
on	ole	0		V	b
  	ole	0		V	vad
sandis	sant	s		A	sg in
      	sant	s		S	sg in
olnud	ol=nud	0		A	
     	ol=nud	0		A	sg n
     	ol=nud	d		A	pl n
     	ole	nud		V	nud
     	olnu	d		S	pl n
künda	künd	a		V	da
kui	kui	0		D	
   	kui	0		J	
sööt	sööt	0		S	sg n
,	,			Z	
sest	see	st		P	sg el
    	sest	0		J	
et	et	0		J	
väga	väga	0		D	
rohtunud	rohtu	nud		V	nud
        	rohtu=nu	d		S	pl n
        	rohtu=nud	0		A	
        	rohtu=nud	0		A	sg n
        	rohtu=nud	d		A	pl n
olnud	ol=nud	0		A	
     	ol=nud	0		A	sg n
     	ol=nud	d		A	pl n
     	ole	nud		V	nud
     	olnu	d		S	pl n
ja	ja	0		J	
pealegi	pealegi	0		D	
sada	sada	0		N	sg n
    	sada	0		N	sg p
vihma	vihm	0		S	adt
     	vihm	0		S	sg g
     	vihm	0		S	sg p
,	,			Z	
seepärast	see_pärast	0		D	
ei	ei	0		D	
  	ei	0		V	neg
saanud	saa	nud		V	nud
      	saa=nud	0		A	
      	saa=nud	0		A	sg n
      	saa=nud	d		A	pl n
      	saanu	d		S	pl n
meie	mina	0		P	pl g
    	mina	0		P	pl n
rohkem	rohkem	0		D	
künda	künd	a		V	da
.	.			Z	
3.	3.	0		O	?
Kubjas	kubjas	0		S	sg n
ütleb	ütle	b		V	b
ka	ka	0		D	
kogukonna	kogukond	0		S	sg g
kohtu	kohtu	0		V	o
     	kohus	0		S	sg g
ees	ees	0		D	
   	ees	0		K	
   	esi	s		S	sg in
et	et	0		J	
mitte	mitte	0		D	
ei	ei	0		D	
  	ei	0		V	neg
võinud	või	nud		V	nud
      	või=nu	d		S	pl n
      	või=nud	0		A	
      	või=nud	0		A	sg n
      	või=nud	d		A	pl n
rohkem	rohkem	0		D	
kündi	künd	0		S	adt
     	künd	0		S	sg p
saada	saa	da		V	da
     	saat	0		V	o
     	saa	da		V	ta
,	,			Z	
et	et	0		J	
se	####				
ma	mina	0		P	sg n
vähe	vähe	0		D	
raske	rask	e		S	pl p
     	raske	0		A	sg g
     	raske	0		A	sg n
oli	ole	i		V	s
.	.			Z	
4	4	0		N	?
)	)			Z	
kohus	kohu	s		V	s
     	kohus	0		S	sg n
ei	ei	0		D	
  	ei	0		V	neg
või	või	0		S	sg g
   	või	0		V	o
   	või	0		D	
   	või	0		J	
   	või	0		S	sg n
ka	ka	0		D	
midagi	miski	dagi		P	sg p
Kubja	####				
tunnistuse	tunnistus	0		S	sg g
peale	pea	le		S	sg all
     	peale	0		D	
     	peale	0		K	
mõista	mõist	0		V	o
      	mõist	a		V	da
.	.			Z	
