1.	1.	0		O	?
mõisa	mõis	0		S	sg g
moonamees	moona_mees	0		S	sg n
Kaarel	Kaarel	0		H	sg n
      	kaar	l		S	sg ad
      	kaarel	0		S	sg n
Kiilmann	kiil_mann	0		S	sg n
on	ole	0		V	b
  	ole	0		V	vad
rehe	rehi	0		S	sg g
peksmise	peksmine	0		S	sg g
juures	juur	s		S	sg in
      	juures	0		D	
      	juures	0		K	
oma	oma	0		A	sg g
   	oma	0		D	
   	oma	0		P	sg g
   	oma	0		S	sg g
   	oma	0		V	o
   	oma	0		A	sg n
   	oma	0		A	sg p
   	oma	0		P	sg n
   	oma	0		P	sg p
   	oma	0		S	sg n
   	oma	0		S	sg p
lademed	lade	d		S	pl n
sandiste	####				
peksnud	peks	nud		V	nud
       	peks=nu	d		S	pl n
       	peks=nud	0		A	
       	peks=nud	0		A	sg n
       	peks=nud	d		A	pl n
ja	ja	0		J	
mõisa	mõis	0		S	sg g
valitseja	valitseja	0		S	sg g
         	valitseja	0		S	sg n
on	ole	0		V	b
  	ole	0		V	vad
proovi	proov	0		S	adt
      	proov	0		S	sg g
      	proovi	0		V	o
      	proov	0		S	sg p
katsnud	####				
et	et	0		J	
ühe	üks	0		N	sg g
   	üks	0		P	sg g
   	ühe	0		S	sg n
kubu	kubu	0		S	sg g
    	kubu	0		S	sg n
    	kubu	0		S	sg p
seest	seest	0		D	
     	seest	0		K	
,	,			Z	
on	ole	0		V	b
  	ole	0		V	vad
üks	üks	0		N	sg n
   	üks	0		P	sg n
korten	####				
rukkid	rukis	d		S	pl n
välja	välja	0		D	
     	välja	0		V	o
     	väli	0		S	adt
     	väli	0		S	sg g
     	väli	0		S	sg p
tulnud	tul=nud	0		A	
      	tul=nud	0		A	sg n
      	tul=nud	d		A	pl n
      	tule	nud		V	nud
      	tulnu	d		S	pl n
.	.			Z	
kohus	kohu	s		V	s
     	kohus	0		S	sg n
mõistis	mõist	is		V	s
selle	see	0		P	sg g
     	sell	e		S	pl p
üleannetu	üle_annetu	0		A	sg g
         	üle_annetu	0		A	sg n
tö	####				
pärast	pära	st		S	sg el
      	pärane	t		A	sg p
      	pärast	0		D	
      	pärast	0		K	
et	et	0		J	
Kaarel	Kaarel	0		H	sg n
      	kaar	l		S	sg ad
      	kaarel	0		S	sg n
Kiilmann	kiil_mann	0		S	sg n
maksab	maks	b		V	b
trahvi	trahv	0		S	adt
      	trahv	0		S	sg g
      	trahvi	0		V	o
      	trahv	0		S	sg p
1	1	0		N	?
veerik	veerik	0		S	sg n
rukkid	rukis	d		S	pl n
magasi	magas	0		S	sg g
aida	ait	0		S	sg g
valla	vald	0		S	sg g
     	valla	0		D	
vaeste	vaene	te		A	pl g
      	vaene	te		S	pl g
heaks	hea	ks		A	sg tr
     	hea	ks		S	sg tr
     	heaks	0		D	
     	heaks	0		K	
sel	see	l		P	sg ad
   	sel	0		Y	?
3ndal	3=s	l		O	sg ad
novemb	####				
.	.			Z	
1867	1867	0		N	?
