protokoll	protokoll	0		S	sg n
sel	see	l		P	sg ad
   	sel	0		Y	?
15ndal	15=s	l		O	sg ad
Septembris	september	s		S	sg in
1882	1882	0		N	?
koos	koos	0		D	
    	koos	0		K	
    	koos	0		S	sg n
    	kubu	s		S	sg in
olid	ole	id		V	sid
kohtu	kohtu	0		V	o
     	kohus	0		S	sg g
peavanem	pea_vanem	0		C	sg n
        	pea_vanem	0		S	sg n
:	:			Z	
J	J	0		Y	?
.	.			Z	
reemann	ree_mann	0		S	sg n
H	H	0		Y	?
.	.			Z	
_	_			Z	
Simson	####				
M	M	0		O	?
 	M	0		Y	?
.	.			Z	
_	_			Z	
Sopp	sopp	0		S	sg n
kirjutaja	kirjutaja	0		S	sg g
         	kirjutaja	0		S	sg n
H	H	0		Y	?
.	.			Z	
_	_			Z	
Saarmo	####				
№	№	0		Y	?
42.	42.	0		O	?
valla	vald	0		S	sg g
     	valla	0		D	
kohtu	kohtu	0		V	o
     	kohus	0		S	sg g
poolest	pool	st		N	sg el
       	pool	st		S	sg el
       	poolene	t		A	sg p
       	poolest	0		K	
sai	saa	i		V	s
   	sai	0		S	sg n
Johann	Johann	0		H	sg n
palenbergi	####				
peale	pea	le		S	sg all
     	peale	0		D	
     	peale	0		K	
kaebatud	####				
,	,			Z	
et	et	0		J	
tema	tema	0		P	sg g
    	tema	0		P	sg n
on	ole	0		V	b
  	ole	0		V	vad
kohtu	kohtu	0		V	o
     	kohus	0		S	sg g
peegli	peegel	0		S	sg g
ees	ees	0		D	
   	ees	0		K	
   	esi	s		S	sg in
hirmus	hirm	s		S	sg in
      	hirmu	s		V	s
      	hirmus	0		A	sg n
      	hirmus	0		D	
rop	####				
olnud	ol=nud	0		A	
     	ol=nud	0		A	sg n
     	ol=nud	d		A	pl n
     	ole	nud		V	nud
     	olnu	d		S	pl n
ja	ja	0		J	
ka	ka	0		D	
valla	vald	0		S	sg g
     	valla	0		D	
talitajad	talitaja	d		S	pl n
kuradi	kurat	0		S	sg g
nimega	nimi	ga		S	sg kom
sõimanud	sõima	nud		V	nud
        	sõima=nu	d		S	pl n
        	sõima=nud	0		A	
        	sõima=nud	0		A	sg n
        	sõima=nud	d		A	pl n
.	.			Z	
Johan	Johan	0		H	sg n
palenberg	####				
astus	astu	s		V	s
ette	ette	0		D	
    	ette	0		K	
    	esi	tte		S	adt
ja	ja	0		J	
ei	ei	0		D	
  	ei	0		V	neg
võinud	või	nud		V	nud
      	või=nu	d		S	pl n
      	või=nud	0		A	
      	või=nud	0		A	sg n
      	või=nud	d		A	pl n
seda	see	da		P	sg p
mitte	mitte	0		D	
ära	ära	0		D	
   	ära	0		V	neg o
salgata	salk	ta		S	sg ab
,	,			Z	
seepärast	see_pärast	0		D	
,	,			Z	
se	####				
asi	asi	0		S	sg n
   	asi	0		V	o
kohtu	kohtu	0		V	o
     	kohus	0		S	sg g
peegli	peegel	0		S	sg g
ees	ees	0		D	
   	ees	0		K	
   	esi	s		S	sg in
oli	ole	i		V	s
sündinud	sündi	nud		V	nud
        	sündinu	d		S	pl n
        	sündinud	0		A	
        	sündinud	0		A	sg n
        	sündinud	d		A	pl n
.	.			Z	
mõistetud	mõist	tud		V	tud
         	mõiste=tu	d		S	pl n
         	mõiste=tud	0		A	
         	mõiste=tud	0		A	sg n
         	mõiste=tud	d		A	pl n
sai	saa	i		V	s
   	sai	0		S	sg n
:	:			Z	
et	et	0		J	
Johan	Johan	0		H	sg n
palenberg	####				
peab	pida	b		V	b
2	2	0		N	?
rubl	####				
.	.			Z	
trahvi	trahv	0		S	adt
      	trahv	0		S	sg g
      	trahvi	0		V	o
      	trahv	0		S	sg p
valla	vald	0		S	sg g
     	valla	0		D	
laekasse	laegas	sse		S	sg ill
maksma	maks	ma		V	ma
seepärast	see_pärast	0		D	
,	,			Z	
et	et	0		J	
tema	tema	0		P	sg g
    	tema	0		P	sg n
kohtu	kohtu	0		V	o
     	kohus	0		S	sg g
peegli	peegel	0		S	sg g
nõnda	nõnda	0		D	
ropp	ropp	0		A	sg n
on	ole	0		V	b
  	ole	0		V	vad
olnud	ol=nud	0		A	
     	ol=nud	0		A	sg n
     	ol=nud	d		A	pl n
     	ole	nud		V	nud
     	olnu	d		S	pl n
ja	ja	0		J	
käe	käsi	0		S	sg g
talitajad	talitaja	d		S	pl n
sõimanud	sõima	nud		V	nud
        	sõima=nu	d		S	pl n
        	sõima=nud	0		A	
        	sõima=nud	0		A	sg n
        	sõima=nud	d		A	pl n
.	.			Z	
Semõistmine	####				
sai	saa	i		V	s
   	sai	0		S	sg n
kuulutud	kuulu	tud		V	tud
        	kuulu=tu	d		S	pl n
        	kuulu=tud	0		A	
        	kuulu=tud	0		A	sg n
        	kuulu=tud	d		A	pl n
ja	ja	0		J	
Johan	Johan	0		H	sg n
palenberg	####				
ütles	ütle	s		V	s
:	:			Z	
et	et	0		J	
tema	tema	0		P	sg g
    	tema	0		P	sg n
sedsa	####				
mitte	mitte	0		D	
ei	ei	0		D	
  	ei	0		V	neg
täida	täi	da		V	da
     	täit	0		V	o
,	,			Z	
ega	ega	0		D	
   	ega	0		J	
ka	ka	0		D	
protokoli	####				
ei	ei	0		D	
  	ei	0		V	neg
võtta	võt	a		V	da
suurema	suurem	0		C	sg g
kohtusse	kohtune	se		A	adt
        	kohus	sse		S	sg ill
mina	mina	0		P	sg n
    	mina	0		S	sg g
    	mina	0		S	sg n
    	mina	0		S	sg p
.	.			Z	
on	ole	0		V	b
  	ole	0		V	vad
valla	vald	0		S	sg g
     	valla	0		D	
kohtu	kohtu	0		V	o
     	kohus	0		S	sg g
poolest	pool	st		N	sg el
       	pool	st		S	sg el
       	poolene	t		A	sg p
       	poolest	0		K	
haakenrihteri	####				
kohtusse	kohtune	se		A	adt
        	kohus	sse		S	sg ill
Johan	Johan	0		H	sg n
palenbergi	####				
peale	pea	le		S	sg all
     	peale	0		D	
     	peale	0		K	
kaebatud	####				
.	.			Z	
Kirna	####				
valla	vald	0		S	sg g
     	valla	0		D	
kogukonna	kogukond	0		S	sg g
kohtu	kohtu	0		V	o
     	kohus	0		S	sg g
nimel	nimel	0		K	
     	nimi	l		S	sg ad
,	,			Z	
peavanem	pea_vanem	0		C	sg n
        	pea_vanem	0		S	sg n
:	:			Z	
Jaan	Jaan	0		H	sg n
    	jaan	0		S	sg n
    	jaan	0		Y	?
reemann	ree_mann	0		S	sg n
/	/			Z	
allkiri	all_kiri	0		S	sg n
/	/			Z	
Hans	Hans	0		H	sg n
Simsohn	####				
XXX	XXX	0		O	?
   	XXX	0		Y	?
Mart	Mart	0		H	sg n
    	mart	0		S	sg n
Sopp	sopp	0		S	sg n
kirja	kirja	0		A	
     	kirja	0		V	o
     	kiri	0		S	adt
     	kiri	0		S	sg g
     	kiri	0		S	sg p
tunnistuseks	tunnistus	ks		S	sg tr
kirjutaja	kirjutaja	0		S	sg g
         	kirjutaja	0		S	sg n
H	H	0		Y	?
.	.			Z	
_	_			Z	
Saarmu	####				
/	/			Z	
allkiri	all_kiri	0		S	sg n
/	/			Z	
