juut	juut	0		S	sg n
Markus	Markus	0		H	sg n
Klausi	Klaus	0		H	adt
      	Klaus	0		H	sg g
      	Klaus	0		H	sg p
peale	pea	le		S	sg all
     	peale	0		D	
     	peale	0		K	
tuli	tuli	0		S	sg n
    	tule	i		V	s
sell	sell	0		S	sg n
kohtu	kohtu	0		V	o
     	kohus	0		S	sg g
päeval	päev	l		S	sg ad
mitme	mitu	0		P	sg g
sugused	sugune	d		A	pl n
kaebutused	####				
.	.			Z	
1.	1.	0		O	?
juut	juut	0		S	sg n
Markus	Markus	0		H	sg n
Klaus	Klaus	0		H	sg n
ei	ei	0		D	
  	ei	0		V	neg
ole	ole	0		V	o
mitte	mitte	0		D	
magasini	magas	ni		S	sg ter
        	magasin	0		S	adt
        	magasin	0		S	sg g
        	magasin	0		S	sg p
ülevatajate	####				
palka	palk	0		S	adt
     	palka	0		V	o
     	palk	0		S	sg p
ära	ära	0		D	
   	ära	0		V	neg o
maksnud	maks	nud		V	nud
       	maks=nu	d		S	pl n
       	maks=nud	0		A	
       	maks=nud	0		A	sg n
       	maks=nud	d		A	pl n
.	.			Z	
