Peter Kirjutson on tellino Jamamoisan üts kaiwo käiwa, seest 4 jalga lai, ja ni süggaw kui herr käsep. Peter saab massetud:
1mese sulla est 1 Rubla
2             "          2  "
3             "          3   "
4             "          4   "
5             "          5   "
6             "          6   "
7             "           7   "
8             "          8   "
9             "          9   "
10           "          10  "
ja niwisi eddes
Peter saab moisa polest 1 raudkang, 1 pangi ja kablo. Salwe tarwis saab Peter selle lauat.
Peter peab sel sammal neddal tööd kätte wotta peab enne April kuu kaio walmis tetta, ei sa mitte palka ette masseto.
Peter lubbab kaiv õkwa lodi jerrel tehha.
Kui herra töga om rahhul, ja kui häste tatta saab Peter 6 wakka rukki 2 Rubla est.
Peter Kirjutson  XXX
