Saie selle kogukonna kohtu protocolli perrä sest 12.Februar 1875 № 16 selletetus.
Kersna Piir näütas tähte et temä Johann Troonile jo 6 rubla ärä masnu om, ja masse weel 20 rubla sisse.
Saije selletetus.			Johann Troon saanu jo			6 rubla.		31.kätte saanu			Johann Mandli     "			5     "  50 kop		31. Januar kätte saanu			Jaan Kirber           "			7    "     -		  "     "   Joh.Kelt Leeno Mandli eest			Leeno Mandli			6   "       -		   "     "			Hindrik Tillmann			-           80   "		   "      "			Jaan Mandli			2    "      70   " 		    "     "			                     Summa			26 rubl. 00 kop		
