Hendrik	Hendrik	0		H	sg n
Heik	heik	0		S	sg n
kaebduse	####				
asjas	asi	s		S	sg in
Maarj	####				
Heik	heik	0		S	sg n
vastu	vastu	0		D	
     	vastu	0		K	
ära	ära	0		D	
   	ära	0		V	neg o
ajamise	ajamine	0		S	sg g
pärast	pära	st		S	sg el
      	pärane	t		A	sg p
      	pärast	0		D	
      	pärast	0		K	
/	/			Z	
viidu	vii=du	0		S	sg g
     	vii=du	0		S	sg n
№	№	0		Y	?
35 1879	351879	0		N	?
/	/			Z	
oleva	olev	0		A	sg g
     	olev	0		S	sg g
täna	täna	0		D	
    	täna	0		V	o
kohtu	kohtu	0		V	o
     	kohus	0		S	sg g
ette	ette	0		D	
    	ette	0		K	
    	esi	tte		S	adt
tunnistas	tunnista	s		V	s
tulnud	tul=nud	0		A	
      	tul=nud	0		A	sg n
      	tul=nud	d		A	pl n
      	tule	nud		V	nud
      	tulnu	d		S	pl n
:	:			Z	
Ann	Ann	0		H	sg n
herne	hernes	0		S	sg g
,	,			Z	
kes	kes	0		P	pl n
   	kes	0		P	sg n
tunnistas	tunnista	s		V	s
,	,			Z	
kui	kui	0		D	
   	kui	0		J	
temale	tema	le		P	sg all
Hendrik	Hendrik	0		H	sg n
Heik	heik	0		S	sg n
kaebdus	####				
ette	ette	0		D	
    	ette	0		K	
    	esi	tte		S	adt
sai	saa	i		V	s
   	sai	0		S	sg n
loetud	loetu	d		S	pl n
      	loetud	0		A	
      	loetud	0		A	sg n
      	loetud	d		A	pl n
      	luge	tud		V	tud
,	,			Z	
siis	siis	0		D	
    	siis	0		J	
vastutas	vastuta	s		V	s
Ann	Ann	0		H	sg n
herne	hernes	0		S	sg g
,	,			Z	
et	et	0		J	
tema	tema	0		P	sg g
    	tema	0		P	sg n
sellest	see	st		P	sg el
tüli	tüli	0		S	sg g
    	tüli	0		S	sg n
    	tüli	0		S	sg p
asjast	asi	st		S	sg el
midagi	miski	dagi		P	sg p
ei	ei	0		D	
  	ei	0		V	neg
tiia	####				
,	,			Z	
seda	see	da		P	sg p
aga	aga	0		J	
teadvat	tead	vat		V	vat
       	teadev	t		A	sg p
ja	ja	0		J	
olevat	ole	vat		V	vat
      	olev	t		A	sg p
      	olev	t		S	sg p
näinud	näi	nud		V	nud
      	näge	nud		V	nud
      	näi=nud	0		A	
      	näi=nud	0		A	sg n
      	näi=nud	d		A	pl n
      	näinu	d		S	pl n
kui	kui	0		D	
   	kui	0		J	
oma	oma	0		A	sg g
   	oma	0		D	
   	oma	0		P	sg g
   	oma	0		S	sg g
   	oma	0		V	o
   	oma	0		A	sg n
   	oma	0		A	sg p
   	oma	0		P	sg n
   	oma	0		P	sg p
   	oma	0		S	sg n
   	oma	0		S	sg p
kadunud	kadu	nud		V	nud
       	kadunu	d		S	pl n
       	kadunud	0		A	
       	kadunud	0		A	sg n
       	kadunud	d		A	pl n
veljele	velg	le		S	sg all
       	veli	le		S	sg all
17	17	0		N	?
rbl	rbl	0		Y	?
.	.			Z	
raha	raha	0		S	sg g
    	raha	0		S	sg n
    	raha	0		S	sg p
võlgu	võlg	u		S	pl p
     	võlgu	0		D	
on	ole	0		V	b
  	ole	0		V	vad
andnud	and	nud		V	nud
      	and=nu	d		S	pl n
      	and=nud	0		A	
      	and=nud	0		A	sg n
      	and=nud	d		A	pl n
.	.			Z	
muud	muu	d		P	pl n
    	muu	d		S	pl n
    	muu	d		V	d
    	muu	d		P	sg p
    	muu	d		S	sg p
ei	ei	0		D	
  	ei	0		V	neg
teadvad	teadev	d		A	pl n
tema	tema	0		P	sg g
    	tema	0		P	sg n
midagi	miski	dagi		P	sg p
.	.			Z	
Mihkli	Mihkel	0		H	sg g
      	Mihkli	0		H	sg g
      	mihkel	0		A	sg g
      	mihkel	0		S	sg g
      	Mihkli	0		H	sg n
Asi	asi	0		S	sg n
   	asi	0		V	o
ütles	ütle	s		V	s
,	,			Z	
kui	kui	0		D	
   	kui	0		J	
temale	tema	le		P	sg all
H	H	0		Y	?
.	.			Z	
_	_			Z	
Heik	heik	0		S	sg n
kaebdus	####				
ette	ette	0		D	
    	ette	0		K	
    	esi	tte		S	adt
sai	saa	i		V	s
   	sai	0		S	sg n
loetud	loetu	d		S	pl n
      	loetud	0		A	
      	loetud	0		A	sg n
      	loetud	d		A	pl n
      	luge	tud		V	tud
,	,			Z	
et	et	0		J	
tema	tema	0		P	sg g
    	tema	0		P	sg n
sellest	see	st		P	sg el
asjast	asi	st		S	sg el
midagi	miski	dagi		P	sg p
ei	ei	0		D	
  	ei	0		V	neg
teadvat	tead	vat		V	vat
       	teadev	t		A	sg p
ja	ja	0		J	
ütleb	ütle	b		V	b
,	,			Z	
et	et	0		J	
H	H	0		Y	?
.	.			Z	
_	_			Z	
Heik	heik	0		S	sg n
on	ole	0		V	b
  	ole	0		V	vad
teda	tema	da		P	sg p
ilma	ilm	0		S	adt
    	ilm	0		S	sg g
    	ilma	0		D	
    	ilma	0		K	
    	ilm	0		S	sg p
asjata	asi	ta		S	sg ab
      	asjata	0		A	
      	asjata	0		D	
      	asjata	0		V	o
kohtu	kohtu	0		V	o
     	kohus	0		S	sg g
ette	ette	0		D	
    	ette	0		K	
    	esi	tte		S	adt
tallitanud	talli_tanu	d		S	pl n
.	.			Z	
Maarj	####				
Taaler	taaler	0		S	sg n
ütles	ütle	s		V	s
,	,			Z	
kui	kui	0		D	
   	kui	0		J	
temale	tema	le		P	sg all
kaebdus	####				
ette	ette	0		D	
    	ette	0		K	
    	esi	tte		S	adt
sai	saa	i		V	s
   	sai	0		S	sg n
loetud	loetu	d		S	pl n
      	loetud	0		A	
      	loetud	0		A	sg n
      	loetud	d		A	pl n
      	luge	tud		V	tud
,	,			Z	
et	et	0		J	
Hendrik	Hendrik	0		H	sg n
ja	ja	0		J	
Maarj	####				
Heik	heik	0		S	sg n
mõlema	mõlema	0		P	sg g
linapalutamise	####				
perast	####				
tüli	tüli	0		S	sg g
    	tüli	0		S	sg n
    	tüli	0		S	sg p
olevat	ole	vat		V	vat
      	olev	t		A	sg p
      	olev	t		S	sg p
läinud	läinu	d		S	pl n
      	läinud	0		A	
      	läinud	0		A	sg n
      	läinud	d		A	pl n
      	mine	nud		V	nud
,	,			Z	
teine	teine	0		O	sg n
     	teine	0		P	sg n
teist	sina	st		P	pl el
     	tee	ist		S	pl el
     	teist	0		D	
     	teine	t		O	sg p
     	teine	t		P	sg p
sõimama	sõima	ma		V	ma
nakanud	nakka	nud		V	nud
       	naka=nu	d		S	pl n
       	naka=nud	0		A	
       	naka=nud	0		A	sg n
       	naka=nud	d		A	pl n
ja	ja	0		J	
perenaine	pere_naine	0		S	sg n
Maarj	####				
Heik	heik	0		S	sg n
Hendriki	####				
eest	eest	0		D	
    	eest	0		K	
    	esi	st		S	sg el
söögi	söö	0	gi	V	o
     	söök	0		S	sg g
ära	ära	0		D	
   	ära	0		V	neg o
võtnud	võt	nud		V	nud
      	võt=nu	d		S	pl n
      	võt=nud	0		A	
      	võt=nud	0		A	sg n
      	võt=nud	d		A	pl n
ja	ja	0		J	
käskinud	käski	nud		V	nud
        	käski=nu	d		S	pl n
        	käski=nud	0		A	
        	käski=nud	0		A	sg n
        	käski=nud	d		A	pl n
Hendrikil	####				
oma	oma	0		A	sg g
   	oma	0		D	
   	oma	0		P	sg g
   	oma	0		S	sg g
   	oma	0		V	o
   	oma	0		A	sg n
   	oma	0		A	sg p
   	oma	0		P	sg n
   	oma	0		P	sg p
   	oma	0		S	sg n
   	oma	0		S	sg p
mant	mant	0		D	
    	mant	0		K	
    	mant	0		S	sg n
ära	ära	0		D	
   	ära	0		V	neg o
mina	mina	0		P	sg n
    	mina	0		S	sg g
    	mina	0		S	sg n
    	mina	0		S	sg p
,	,			Z	
kelle	kes	0		P	pl g
     	kes	0		P	sg g
peale	pea	le		S	sg all
     	peale	0		D	
     	peale	0		K	
siis	siis	0		D	
    	siis	0		J	
Hendrik	Hendrik	0		H	sg n
olevat	ole	vat		V	vat
      	olev	t		A	sg p
      	olev	t		S	sg p
ütelnud	ütle	nud		V	nud
       	ütel=nu	d		S	pl n
       	ütel=nud	0		A	
       	ütel=nud	0		A	sg n
       	ütel=nud	d		A	pl n
:	:			Z	
maksa	maks	0		S	adt
     	maks	0		S	sg g
     	maks	0		V	o
     	maks	0		S	sg p
ma	mina	0		P	sg n
palk	palk	0		S	sg n
välja	välja	0		D	
     	välja	0		V	o
     	väli	0		S	adt
     	väli	0		S	sg g
     	väli	0		S	sg p
siis	siis	0		D	
    	siis	0		J	
ma	mina	0		P	sg n
lähe	lähe	0		S	sg n
    	mine	0		V	neg o
ära	ära	0		D	
   	ära	0		V	neg o
.	.			Z	
muud	muu	d		P	pl n
    	muu	d		S	pl n
    	muu	d		V	d
    	muu	d		P	sg p
    	muu	d		S	sg p
ei	ei	0		D	
  	ei	0		V	neg
teadvad	teadev	d		A	pl n
tema	tema	0		P	sg g
    	tema	0		P	sg n
midagi	miski	dagi		P	sg p
.	.			Z	
otsus	otsus	0		S	sg n
:	:			Z	
Hendrik	Hendrik	0		H	sg n
Heik	heik	0		S	sg n
peab	pida	b		V	b
oma	oma	0		A	sg g
   	oma	0		D	
   	oma	0		P	sg g
   	oma	0		S	sg g
   	oma	0		V	o
   	oma	0		A	sg n
   	oma	0		A	sg p
   	oma	0		P	sg n
   	oma	0		P	sg p
   	oma	0		S	sg n
   	oma	0		S	sg p
aasta	aasta	0		S	sg g
     	aasta	0		S	sg n
perenaise	pere_naine	0		S	sg g
Maarj	####				
Heik	heik	0		S	sg n
man	man	0		D	
   	man	0		K	
ära	ära	0		D	
   	ära	0		V	neg o
teenma	####				
ja	ja	0		J	
Maarj	####				
Heik	heik	0		S	sg n
peab	pida	b		V	b
sellesamale	####				
lepitud	leppi	tud		V	tud
       	lepi=tu	d		S	pl n
       	lepi=tud	0		A	
       	lepi=tud	0		A	sg n
       	lepi=tud	d		A	pl n
palk	palk	0		S	sg n
välja	välja	0		D	
     	välja	0		V	o
     	väli	0		S	adt
     	väli	0		S	sg g
     	väli	0		S	sg p
maksma	maks	ma		V	ma
,	,			Z	
kui	kui	0		D	
   	kui	0		J	
ta	tema	0		P	sg g
  	tema	0		P	sg n
midagi	miski	dagi		P	sg p
asja	asi	0		S	adt
    	asi	0		S	sg g
    	asi	0		S	sg p
avalikuks	avalik	ks		A	sg tr
ei	ei	0		D	
  	ei	0		V	neg
või	või	0		S	sg g
   	või	0		V	o
   	või	0		D	
   	või	0		J	
   	või	0		S	sg n
teha	tege	a		V	da
,	,			Z	
mis	mis	0		P	pl n
   	mis	0		P	sg n
eest	eest	0		D	
    	eest	0		K	
    	esi	st		S	sg el
tema	tema	0		P	sg g
    	tema	0		P	sg n
Hendriki	####				
palgast	palk	st		S	sg el
maha	maha	0		D	
võib	või	b		V	b
võtta	võt	a		V	da
.	.			Z	
Joh	####				
.	.			Z	
peahn	####				
xxx	####				
Joh	####				
.	.			Z	
Purasson	####				
xxx	####				
Mihkl	####				
.	.			Z	
Laine	Laine	0		H	sg g
     	laine	0		S	sg g
     	laine	0		S	sg n
     	Laine	0		H	sg n
xxx	####				
kui	kui	0		D	
   	kui	0		J	
kogukonna	kogukond	0		S	sg g
kohtu	kohtu	0		V	o
     	kohus	0		S	sg g
otsus	otsus	0		S	sg n
ja	ja	0		J	
seaduse	seadus	0		S	sg g
§§	§§	0		Y	?
773	773	0		N	?
ja	ja	0		J	
772	772	0		N	?
kohtus	kohtu	s		V	s
      	kohus	s		S	sg in
käijatele	käija	tele		S	pl all
ette	ette	0		D	
    	ette	0		K	
    	esi	tte		S	adt
saivad	####				
loetud	loetu	d		S	pl n
      	loetud	0		A	
      	loetud	0		A	sg n
      	loetud	d		A	pl n
      	luge	tud		V	tud
,	,			Z	
kon	####				
Karl	Karl	0		H	sg n
Jaho	####				
Maarj	####				
Heik	heik	0		S	sg n
kõrval	kõrv	l		S	sg ad
      	kõrval	0		D	
      	kõrval	0		K	
seisja	seisja	0		S	sg g
      	seisja	0		S	sg n
oli	ole	i		V	s
,	,			Z	
siis	siis	0		D	
    	siis	0		J	
tunnistid	####				
mõlema	mõlema	0		P	sg g
kohtus	kohtu	s		V	s
      	kohus	s		S	sg in
käijad	käija	d		S	pl n
,	,			Z	
et	et	0		J	
nema	####				
selle	see	0		P	sg g
     	sell	e		S	pl p
otsusega	otsus	ga		S	sg kom
rahul	rahu	l		S	sg ad
     	rahul	0		D	
oma	oma	0		A	sg g
   	oma	0		D	
   	oma	0		P	sg g
   	oma	0		S	sg g
   	oma	0		V	o
   	oma	0		A	sg n
   	oma	0		A	sg p
   	oma	0		P	sg n
   	oma	0		P	sg p
   	oma	0		S	sg n
   	oma	0		S	sg p
.	.			Z	
