Punaga	puna	ga		S	sg kom
Jüri	Jüri	0		H	sg g
    	Jüri	0		H	sg n
Jõgeva	Jõgeva	0		H	sg g
      	Jõgeva	0		H	sg n
      	jõgeva	0		G	
tuli	tuli	0		S	sg n
    	tule	i		V	s
ette	ette	0		D	
    	ette	0		K	
    	esi	tte		S	adt
ja	ja	0		J	
kaebas	kaeba	s		V	s
et	et	0		J	
Ado	Ado	0		H	sg g
   	Ado	0		H	sg n
poja	poeg	0		S	sg g
    	poja	0		S	sg g
    	poja	0		S	sg n
    	poja	0		S	sg p
Jaan	Jaan	0		H	sg n
    	jaan	0		S	sg n
    	jaan	0		Y	?
ja	ja	0		J	
Johann	Johann	0		H	sg n
eebas	####				
oma	oma	0		A	sg g
   	oma	0		D	
   	oma	0		P	sg g
   	oma	0		S	sg g
   	oma	0		V	o
   	oma	0		A	sg n
   	oma	0		A	sg p
   	oma	0		P	sg n
   	oma	0		P	sg p
   	oma	0		S	sg n
   	oma	0		S	sg p
tema	tema	0		P	sg g
    	tema	0		P	sg n
heina	hein	0		S	adt
     	hein	0		S	sg g
     	hein	0		S	sg p
küüni	küün	0		S	adt
     	küün	0		S	sg g
     	küündi	0		V	o
     	küün	0		S	sg p
niidu	niit	0		S	sg g
peale	pea	le		S	sg all
     	peale	0		D	
     	peale	0		K	
äära	####				
palutanud	palu_tanu	d		S	pl n
,	,			Z	
nii	nii	0		D	
et	et	0		J	
tema	tema	0		P	sg g
    	tema	0		P	sg n
Ado	Ado	0		H	sg g
   	Ado	0		H	sg n
Tanniga	####				
oma	oma	0		A	sg g
   	oma	0		D	
   	oma	0		P	sg g
   	oma	0		S	sg g
   	oma	0		V	o
   	oma	0		A	sg n
   	oma	0		A	sg p
   	oma	0		P	sg n
   	oma	0		P	sg p
   	oma	0		S	sg n
   	oma	0		S	sg p
jälgi	jälg	i		S	pl p
     	jälgi	0		V	o
     	jälk	0		A	sg g
mööda	mööda	0		A	
     	mööda	0		D	
     	mööda	0		K	
perrä	####				
läinud	läinu	d		S	pl n
      	läinud	0		A	
      	läinud	0		A	sg n
      	läinud	d		A	pl n
      	mine	nud		V	nud
,	,			Z	
siis	siis	0		D	
    	siis	0		J	
oleva	olev	0		A	sg g
     	olev	0		S	sg g
nee	####				
kaevatav	kaeba	tav		V	tav
        	kaeva	tav		V	tav
        	kaeva=tav	0		A	sg n
ära	ära	0		D	
   	ära	0		V	neg o
vabandanud	vabanda	nud		V	nud
          	vabanda=nu	d		S	pl n
          	vabanda=nud	0		A	
          	vabanda=nud	0		A	sg n
          	vabanda=nud	d		A	pl n
ja	ja	0		J	
ütelnud	ütle	nud		V	nud
       	ütel=nu	d		S	pl n
       	ütel=nud	0		A	
       	ütel=nud	0		A	sg n
       	ütel=nud	d		A	pl n
et	et	0		J	
nima	####				
kuskil	kuskil	0		D	
tol	too	l		P	sg ad
öösel	öösel	0		D	
ei	ei	0		D	
  	ei	0		V	neg
ole	ole	0		V	o
hulkunud	hulku	nud		V	nud
        	hulku=nu	d		S	pl n
        	hulku=nud	0		A	
        	hulku=nud	0		A	sg n
        	hulku=nud	d		A	pl n
,	,			Z	
nendega	see	dega		P	pl kom
       	tema	dega		P	pl kom
on	ole	0		V	b
  	ole	0		V	vad
ka	ka	0		D	
Jaan	Jaan	0		H	sg n
    	jaan	0		S	sg n
    	jaan	0		Y	?
Juur	juur	0		S	sg n
ühes	üks	s		N	sg in
    	üks	s		P	sg in
    	ühes	0		D	
    	ühes	0		K	
olnud	ol=nud	0		A	
     	ol=nud	0		A	sg n
     	ol=nud	d		A	pl n
     	ole	nud		V	nud
     	olnu	d		S	pl n
,	,			Z	
sai	saa	i		V	s
   	sai	0		S	sg n
Jaan	Jaan	0		H	sg n
    	jaan	0		S	sg n
    	jaan	0		Y	?
eebas	####				
ette	ette	0		D	
    	ette	0		K	
    	esi	tte		S	adt
see	see	0		P	sg n
kaebus	kaebus	0		S	sg n
pandud	pan=du	d		S	pl n
      	pan=dud	0		A	
      	pan=dud	0		A	sg n
      	pan=dud	d		A	pl n
      	pane	dud		V	tud
ja	ja	0		J	
küsitud	küsi	tud		V	tud
       	küsi=tu	d		S	pl n
       	küsi=tud	0		A	
       	küsi=tud	0		A	sg n
       	küsi=tud	d		A	pl n
,	,			Z	
kus	kus	0		D	
nema	####				
tol	too	l		P	sg ad
korral	kord	l		S	sg ad
      	korral	0		D	
      	korral	0		K	
oma	oma	0		A	sg g
   	oma	0		D	
   	oma	0		P	sg g
   	oma	0		S	sg g
   	oma	0		V	o
   	oma	0		A	sg n
   	oma	0		A	sg p
   	oma	0		P	sg n
   	oma	0		P	sg p
   	oma	0		S	sg n
   	oma	0		S	sg p
olnud	ol=nud	0		A	
     	ol=nud	0		A	sg n
     	ol=nud	d		A	pl n
     	ole	nud		V	nud
     	olnu	d		S	pl n
,	,			Z	
päeva	päev	0		S	adt
     	päev	0		S	sg g
     	päev	0		S	sg p
ja	ja	0		J	
öösel	öösel	0		D	
,	,			Z	
ütleb	ütle	b		V	b
:	:			Z	
et	et	0		J	
päeva	päev	0		S	adt
     	päev	0		S	sg g
     	päev	0		S	sg p
käieme	####				
Karrilatsin	####				
ja	ja	0		J	
tule	tuli	0		S	sg g
    	tule	0		V	o
läksime	mine	sime		V	sime
Jaan	Jaan	0		H	sg n
    	jaan	0		S	sg n
    	jaan	0		Y	?
Juur	juur	0		S	sg n
Mustis	####				
,	,			Z	
see	see	0		P	sg n
oli	ole	i		V	s
veel	veel	0		D	
    	vesi	l		S	sg ad
päev	päev	0		S	sg n
olnud	ol=nud	0		A	
     	ol=nud	0		A	sg n
     	ol=nud	d		A	pl n
     	ole	nud		V	nud
     	olnu	d		S	pl n
,	,			Z	
kes	kes	0		P	pl n
   	kes	0		P	sg n
ütles	ütle	s		V	s
enda	ise	0		P	sg g
kirvede	####				
metsast	mets	st		S	sg el
       	metsane	t		A	sg p
puid	puu	id		S	pl p
raiomast	rai_omane	t		A	sg p
tulevad	tule	vad		V	vad
       	tulev	d		A	pl n
,	,			Z	
sealt	sealt	0		D	
     	siga	lt		A	sg abl
     	siga	lt		S	sg abl
läinud	läinu	d		S	pl n
      	läinud	0		A	
      	läinud	0		A	sg n
      	läinud	d		A	pl n
      	mine	nud		V	nud
jälle	jälle	0		D	
õige	õige	0		A	sg g
    	õige	0		A	sg n
    	õige	0		D	
ruttu	rutt	0		S	adt
     	rutt	0		S	sg p
     	ruttu	0		D	
õdu	####				
koju	kodu	0		S	adt
,	,			Z	
öösel	öösel	0		D	
ei	ei	0		D	
  	ei	0		V	neg
ole	ole	0		V	o
kuskil	kuskil	0		D	
käinud	käi	nud		V	nud
      	käi=nud	0		A	
      	käi=nud	0		A	sg n
      	käi=nud	d		A	pl n
      	käinu	d		S	pl n
.	.			Z	
Jääb	jää	b		V	b
pooleli	pooleli	0		D	
.	.			Z	
