ette	ette	0		D	
    	ette	0		K	
    	esi	tte		S	adt
tuli	tuli	0		S	sg n
    	tule	i		V	s
Peeter	Peeter	0		H	sg n
Mikson	####				
ja	ja	0		J	
kaebas	kaeba	s		V	s
,	,			Z	
et	et	0		J	
Hendrik	Hendrik	0		H	sg n
Pae	paas	0		S	sg g
oma	oma	0		A	sg g
   	oma	0		D	
   	oma	0		P	sg g
   	oma	0		S	sg g
   	oma	0		V	o
   	oma	0		A	sg n
   	oma	0		A	sg p
   	oma	0		P	sg n
   	oma	0		P	sg p
   	oma	0		S	sg n
   	oma	0		S	sg p
hoopusega	####				
tema	tema	0		P	sg g
    	tema	0		P	sg n
niidu	niit	0		S	sg g
äära	####				
söötnud	sööt	nud		V	nud
       	sööt=nu	d		S	pl n
       	sööt=nud	0		A	
       	sööt=nud	0		A	sg n
       	sööt=nud	d		A	pl n
;	;			Z	
tema	tema	0		P	sg g
    	tema	0		P	sg n
nõudvat	nõud	vat		V	vat
       	nõudev	t		A	sg p
kahju	kahi	0		S	adt
     	kahi	0		S	sg g
     	kahi	0		S	sg p
     	kahju	0		S	sg g
     	kahju	0		S	sg n
     	kahju	0		S	sg p
tasumist	tasumine	t		S	sg p
1	1	0		N	?
rbl	rbl	0		Y	?
.	.			Z	
tunnistaja	tunnistaja	0		S	sg g
          	tunnistaja	0		S	sg n
olevat	ole	vat		V	vat
      	olev	t		A	sg p
      	olev	t		S	sg p
Ado	Ado	0		H	sg g
   	Ado	0		H	sg n
poeg	poeg	0		S	sg n
Jaan	Jaan	0		H	sg n
    	jaan	0		S	sg n
    	jaan	0		Y	?
Lauk	lauk	0		S	sg n
.	.			Z	
Vastatud	vasta	tud		V	tud
        	vasta=tu	d		S	pl n
        	vasta=tud	0		A	
        	vasta=tud	0		A	sg n
        	vasta=tud	d		A	pl n
kaebuse	kaebus	0		S	sg g
peale	pea	le		S	sg all
     	peale	0		D	
     	peale	0		K	
Hendrik	Hendrik	0		H	sg n
Pae	paas	0		S	sg g
,	,			Z	
et	et	0		J	
tema	tema	0		P	sg g
    	tema	0		P	sg n
hoopine	####				
küll	küll	0		D	
    	küll	0		S	sg n
selle	see	0		P	sg g
     	sell	e		S	pl p
niidu	niit	0		S	sg g
peal	pea	l		S	sg ad
    	peal	0		D	
    	peal	0		K	
olnud	ol=nud	0		A	
     	ol=nud	0		A	sg n
     	ol=nud	d		A	pl n
     	ole	nud		V	nud
     	olnu	d		S	pl n
.	.			Z	
Lepseve	####				
enda	ise	0		P	sg g
vahel	vahe	l		S	sg ad
     	vahel	0		D	
     	vahel	0		K	
nii	nii	0		D	
viisi	viis	0		S	adt
     	viis	0		S	sg g
     	viis	i		N	pl p
     	viisi	0		K	
     	viis	0		S	sg p
kokku	kokku	0		D	
     	kogu	0		S	adt
,	,			Z	
et	et	0		J	
Hendrik	Hendrik	0		H	sg n
Pae	paas	0		S	sg g
maksab	maks	b		V	b
Peeter	Peeter	0		H	sg n
Miksonile	####				
50	50	0		N	?
kop	kop	0		Y	?
.	.			Z	
8	8	0		N	?
päeva	päev	0		S	adt
     	päev	0		S	sg g
     	päev	0		S	sg p
sisen	####				
a	a	0		Y	?
to	####				
.	.			Z	
Lepa	lepp	0		S	sg g
:	:			Z	
P	P	0		Y	?
.	.			Z	
_	_			Z	
Mikson	####				
[	[			Z	
allkiri	all_kiri	0		S	sg n
]	]			Z	
""""	""""			Z	
Hendrik	Hendrik	0		H	sg n
Pae	paas	0		S	sg g
XXX	XXX	0		O	?
   	XXX	0		Y	?
et	et	0		J	
leping	leping	0		S	sg n
leppistja	####				
ala	ala	0		S	sg g
   	ala	0		S	sg n
   	ala	0		S	sg p
on	ole	0		V	b
  	ole	0		V	vad
saanud	saa	nud		V	nud
      	saa=nud	0		A	
      	saa=nud	0		A	sg n
      	saa=nud	d		A	pl n
      	saanu	d		S	pl n
kirjutatud	kirjuta	tud		V	tud
          	kirjutatu	d		S	pl n
          	kirjutatud	0		A	
          	kirjutatud	0		A	sg n
          	kirjutatud	d		A	pl n
,	,			Z	
tunnistab	tunnista	b		V	b
tõttes	####				
kogukonna	kogukond	0		S	sg g
kohus	kohu	s		V	s
     	kohus	0		S	sg n
peakohtumees	pea_kohtu_mees	0		S	sg n
:	:			Z	
J	J	0		Y	?
.	.			Z	
_	_			Z	
Kabist	####				
[	[			Z	
allkiri	all_kiri	0		S	sg n
]	]			Z	
kohtumees	kohtu_mees	0		S	sg n
:	:			Z	
P	P	0		Y	?
.	.			Z	
Sillaots	silla_ots	0		S	sg n
[	[			Z	
allkiri	all_kiri	0		S	sg n
]	]			Z	
""""	""""			Z	
P	P	0		Y	?
.	.			Z	
_	_			Z	
Klaas	klaas	0		S	sg n
[	[			Z	
allkiri	all_kiri	0		S	sg n
]	]			Z	
