proklamtšein	####				
ürv	####				
Villem	Villem	0		H	sg n
kaermann	kaer_mann	0		S	sg n
mit	####				
Sofi	####				
Rimm	####				
1	1	0		N	?
Mai	Mai	0		H	sg g
   	Mai	0		H	sg n
   	mai	0		S	sg g
   	mai	0		S	sg n
.	.			Z	
