Pindi	pint	0		S	sg g
härra	härra	0		S	sg g
     	härra	0		S	sg n
G	G	0		Y	?
.	.			Z	
v	v	0		Y	?
.	.			Z	
Suur	suur	0		A	sg n
Mühlen	####				
on	ole	0		V	b
  	ole	0		V	vad
Vastse	vastne	0		A	sg g
      	vastne	0		S	sg g
kakseritsa	####				
mõisavalitsuse	mõisa_valitsus	0		S	sg g
nimel	nimel	0		K	
     	nimi	l		S	sg ad
4.	4.	0		O	?
märtsil	märts	l		S	sg ad
s	s	0		Y	?
.	.			Z	
a.	a	0		Y	?
selle	see	0		P	sg g
     	sell	e		S	pl p
kohukonna	####				
kohtule	kohus	le		S	sg all
kaebuse	kaebus	0		S	sg g
Gustav	Gustav	0		H	sg n
Roose	roos	e		S	pl p
peale	pea	le		S	sg all
     	peale	0		D	
     	peale	0		K	
kirjalikult	kirjalik	lt		A	sg abl
           	kirjalikult	0		D	
nii	nii	0		D	
kui	kui	0		D	
   	kui	0		J	
al	####				
pool	pool	0		K	
    	pool	0		N	sg n
    	pool	0		S	sg n
seis	seis	0		I	
    	seis	0		S	sg n
ab	####				
sisse	siss	e		S	pl p
     	sisse	0		D	
     	sisse	0		K	
andnud	and	nud		V	nud
      	and=nu	d		S	pl n
      	and=nud	0		A	
      	and=nud	0		A	sg n
      	and=nud	d		A	pl n
.	.			Z	
""""	""""			Z	
Vastse	vastne	0		A	sg g
      	vastne	0		S	sg g
kasaritsa	####				
kogukonna	kogukond	0		S	sg g
kohtule	kohus	le		S	sg all
.	.			Z	
Vastse	vastne	0		A	sg g
      	vastne	0		S	sg g
Kassaritsa	####				
mõisa	mõis	0		S	sg g
Valitsuse	valitsus	0		S	sg g
nimel	nimel	0		K	
     	nimi	l		S	sg ad
palus	palu	s		S	sg in
     	palu	s		V	s
mina	mina	0		P	sg n
    	mina	0		S	sg g
    	mina	0		S	sg n
    	mina	0		S	sg p
austat	####				
kohust	kohus	t		S	sg p
seda	see	da		P	sg p
suusõna	suu_sõna	0		S	sg g
       	suu_sõna	0		S	sg n
       	suu_sõna	0		S	sg p
lepinud	####				
,	,			Z	
mis	mis	0		P	pl n
   	mis	0		P	sg n
prouua	####				
F	F	0		Y	?
.	.			Z	
von	####				
Horschelmanni	####				
ja	ja	0		J	
Kusta	Kusta	0		H	sg g
     	Kusta	0		H	sg n
     	kuse	ta		V	da
     	kuse	ta		V	ta
Roose	roos	e		S	pl p
vahel	vahe	l		S	sg ad
     	vahel	0		D	
     	vahel	0		K	
Kirepi	####				
veski	veski	0		S	sg g
     	veski	0		S	sg n
ning	ning	0		J	
kõrtsi	kõrts	0		S	adt
      	kõrts	0		S	sg g
      	kõrts	0		S	sg p
üle	üle	0		D	
   	üle	0		K	
oli	ole	i		V	s
ära	ära	0		D	
   	ära	0		V	neg o
kõneldut	kõneldu	t		S	sg p
saanud	saa	nud		V	nud
      	saa=nud	0		A	
      	saa=nud	0		A	sg n
      	saa=nud	d		A	pl n
      	saanu	d		S	pl n
,	,			Z	
too	too	0		P	sg n
   	too	0		V	o
põhja	põhja	0		V	o
     	põhi	0		S	adt
     	põhi	0		S	sg g
     	põhi	0		S	sg p
peale	pea	le		S	sg all
     	peale	0		D	
     	peale	0		K	
tühjaks	tühi	ks		A	sg tr
mõista	mõist	0		V	o
      	mõist	a		V	da
,	,			Z	
et	et	0		J	
Kusta	Kusta	0		H	sg g
     	Kusta	0		H	sg n
     	kuse	ta		V	da
     	kuse	ta		V	ta
kaks	kaks	0		N	sg n
pea	pea	0		D	
   	pea	0		S	sg g
   	pida	0		V	o
   	pea	0		S	sg n
lepingu	leping	0		S	sg g
tingimist	tingimine	t		S	sg p
,	,			Z	
mis	mis	0		P	pl n
   	mis	0		P	sg n
ammugi	ammugi	0		D	
pidi	pida	i		V	s
    	pidi	0		K	
äratöitma	####				
,	,			Z	
seni	seni	0		D	
ajani	aeg	ni		S	sg ter
mitte	mitte	0		D	
ei	ei	0		D	
  	ei	0		V	neg
ole	ole	0		V	o
teitnud	####				
.	.			Z	
see	see	0		P	sg n
on	ole	0		V	b
  	ole	0		V	vad
,	,			Z	
et	et	0		J	
tema	tema	0		P	sg g
    	tema	0		P	sg n
mitte	mitte	0		D	
ühe	üks	0		N	sg g
   	üks	0		P	sg g
   	ühe	0		S	sg n
riht	####				
ei	ei	0		D	
  	ei	0		V	neg
ole	ole	0		V	o
ehitanud	ehita	nud		V	nud
        	ehita=nu	d		S	pl n
        	ehita=nud	0		A	
        	ehita=nud	0		A	sg n
        	ehita=nud	d		A	pl n
,	,			Z	
mis	mis	0		P	pl n
   	mis	0		P	sg n
temal	tema	l		P	sg ad
pidi	pida	i		V	s
    	pidi	0		K	
ammugi	ammugi	0		D	
ehitud	ehti	tud		V	tud
      	ehi=tu	d		S	pl n
      	ehitu	d		V	d
      	ehitud	0		A	
      	ehitud	0		A	sg n
      	ehitud	d		A	pl n
olema	ole	ma		V	ma
,	,			Z	
ja	ja	0		J	
teuselt	####				
,	,			Z	
et	et	0		J	
tema	tema	0		P	sg g
    	tema	0		P	sg n
mitte	mitte	0		D	
300	300	0		N	?
rubla	rubla	0		S	sg g
     	rubla	0		S	sg n
     	rubla	0		S	sg p
kautsioni	####				
ei	ei	0		D	
  	ei	0		V	neg
ole	ole	0		V	o
sisse	siss	e		S	pl p
     	sisse	0		D	
     	sisse	0		K	
maksnud	maks	nud		V	nud
       	maks=nu	d		S	pl n
       	maks=nud	0		A	
       	maks=nud	0		A	sg n
       	maks=nud	d		A	pl n
mis	mis	0		P	pl n
   	mis	0		P	sg n
temal	tema	l		P	sg ad
maksa	maks	0		S	adt
     	maks	0		S	sg g
     	maks	0		V	o
     	maks	0		S	sg p
oli	ole	i		V	s
,	,			Z	
aga	aga	0		J	
ennegi	ennegi	0		D	
250	250	0		N	?
rubla	rubla	0		S	sg g
     	rubla	0		S	sg n
     	rubla	0		S	sg p
,	,			Z	
ja	ja	0		J	
ka	ka	0		D	
neid	neid	0		S	sg n
    	see	d		P	pl p
    	tema	d		P	pl p
vel	####				
peale	pea	le		S	sg all
     	peale	0		D	
     	peale	0		K	
termini	term	ni		S	sg ter
       	termin	0		S	sg g
on	ole	0		V	b
  	ole	0		V	vad
prouua	####				
kätte	kätte	0		K	
     	käsi	tte		S	adt
toonud	too	nud		V	nud
      	too=nu	d		S	pl n
      	too=nud	0		A	
      	too=nud	0		A	sg n
      	too=nud	d		A	pl n
.	.			Z	
seda	see	da		P	sg p
mõistust	mõistus	t		S	sg p
palub	palu	b		V	b
ega	ega	0		D	
   	ega	0		J	
pea	pea	0		D	
   	pea	0		S	sg g
   	pida	0		V	o
   	pea	0		S	sg n
ette	ette	0		D	
    	ette	0		K	
    	esi	tte		S	adt
võtta	võt	a		V	da
ja	ja	0		J	
täieste	####				
ära	ära	0		D	
   	ära	0		V	neg o
kinnitada	kinnita	da		V	da
,	,			Z	
Vastse	vastne	0		A	sg g
      	vastne	0		S	sg g
Kassaritsa	####				
renti	rent	0		S	adt
     	rent	0		S	sg p
pidaja	pidaja	0		S	sg g
      	pidaja	0		S	sg n
ja	ja	0		J	
mõisa	mõis	0		S	sg g
Valitsuse	valitsus	0		S	sg g
nimel	nimel	0		K	
     	nimi	l		S	sg ad
G	G	0		Y	?
.	.			Z	
v	v	0		Y	?
.	.			Z	
Suur	suur	0		A	sg n
Mühlen	####				
.	.			Z	
""""	""""			Z	
kirepi	####				
mölder	mölder	0		S	sg n
Gustav	Gustav	0		H	sg n
Roose	roos	e		S	pl p
sai	saa	i		V	s
   	sai	0		S	sg n
selle	see	0		P	sg g
     	sell	e		S	pl p
kaebuse	kaebus	0		S	sg g
kirja	kirja	0		A	
     	kirja	0		V	o
     	kiri	0		S	adt
     	kiri	0		S	sg g
     	kiri	0		S	sg p
peale	pea	le		S	sg all
     	peale	0		D	
     	peale	0		K	
tänatsel	####				
päeval	päev	l		S	sg ad
ette	ette	0		D	
    	ette	0		K	
    	esi	tte		S	adt
kutsutud	kutsu	tud		V	tud
        	kutsutu	d		S	pl n
        	kutsutud	0		A	
        	kutsutud	0		A	sg n
        	kutsutud	d		A	pl n
ja	ja	0		J	
ka	ka	0		D	
Vastse	vastne	0		A	sg g
      	vastne	0		S	sg g
kakseritsa	####				
mõisavalitsuse	mõisa_valitsus	0		S	sg g
saadik	saadik	0		K	
      	saadik	0		S	sg n
.	.			Z	
Gustav	Gustav	0		H	sg n
Roose	roos	e		S	pl p
vastut	####				
selle	see	0		P	sg g
     	sell	e		S	pl p
kaebuse	kaebus	0		S	sg g
peale	pea	le		S	sg all
     	peale	0		D	
     	peale	0		K	
1.	1.	0		O	?
rehe	rehi	0		S	sg g
ehituse	ehitus	0		S	sg g
pärast	pära	st		S	sg el
      	pärane	t		A	sg p
      	pärast	0		D	
      	pärast	0		K	
:	:			Z	
kui	kui	0		D	
   	kui	0		J	
tema	tema	0		P	sg g
    	tema	0		P	sg n
kirepi	####				
veski	veski	0		S	sg g
     	veski	0		S	sg n
ja	ja	0		J	
kõrtsi	kõrts	0		S	adt
      	kõrts	0		S	sg g
      	kõrts	0		S	sg p
rendi	rent	0		S	sg g
     	renti	0		V	o
kauba	kaup	0		S	sg g
prouua	####				
v	v	0		Y	?
.	.			Z	
Horschelmanniga	####				
teinud	tege	nud		V	nud
      	tei=nud	0		A	
      	tei=nud	0		A	sg n
      	tei=nud	d		A	pl n
      	teinu	d		S	pl n
ei	ei	0		D	
  	ei	0		V	neg
olevat	ole	vat		V	vat
      	olev	t		A	sg p
      	olev	t		S	sg p
rehe	rehi	0		S	sg g
ehitamist	ehitamine	t		S	sg p
sugugi	sugugi	0		D	
kõneltud	####				
olnud	ol=nud	0		A	
     	ol=nud	0		A	sg n
     	ol=nud	d		A	pl n
     	ole	nud		V	nud
     	olnu	d		S	pl n
.	.			Z	
Mineva	minev	0		A	sg g
aasta	aasta	0		S	sg g
     	aasta	0		S	sg n
1.	1.	0		O	?
oktoobril	oktoober	l		S	sg ad
olevat	ole	vat		V	vat
      	olev	t		A	sg p
      	olev	t		S	sg p
tema	tema	0		P	sg g
    	tema	0		P	sg n
proua	proua	0		S	sg g
     	proua	0		S	sg n
v	v	0		Y	?
.	.			Z	
Horschelmanni	####				
palunud	palu	nud		V	nud
       	palu=nu	d		S	pl n
       	palu=nud	0		A	
       	palu=nud	0		A	sg n
       	palu=nud	d		A	pl n
rehe	rehi	0		S	sg g
parandamise	parandamine	0		S	sg g
tarvis	tarvis	0		D	
      	tarvis	0		K	
palke	palk	e		S	pl p
anda	and	a		V	da
ja	ja	0		J	
reht	rehi	0		S	sg p
üle	üle	0		D	
   	üle	0		K	
kaeda	kae	da		V	da
tema	tema	0		P	sg g
    	tema	0		P	sg n
oma	oma	0		A	sg g
   	oma	0		D	
   	oma	0		P	sg g
   	oma	0		S	sg g
   	oma	0		V	o
   	oma	0		A	sg n
   	oma	0		A	sg p
   	oma	0		P	sg n
   	oma	0		P	sg p
   	oma	0		S	sg n
   	oma	0		S	sg p
häda	häda	0		S	sg g
    	häda	0		S	sg n
    	häda	0		S	sg p
pärast	pära	st		S	sg el
      	pärane	t		A	sg p
      	pärast	0		D	
      	pärast	0		K	
ja	ja	0		J	
palke	palk	e		S	pl p
olevat	ole	vat		V	vat
      	olev	t		A	sg p
      	olev	t		S	sg p
ka	ka	0		D	
proua	proua	0		S	sg g
     	proua	0		S	sg n
v	v	0		Y	?
.	.			Z	
Horschelmann	####				
loanud	####				
ja	ja	0		J	
tema	tema	0		P	sg g
    	tema	0		P	sg n
olevat	ole	vat		V	vat
      	olev	t		A	sg p
      	olev	t		S	sg p
ka	ka	0		D	
neid	neid	0		S	sg n
    	see	d		P	pl p
    	tema	d		P	pl p
palke	palk	e		S	pl p
parandamise	parandamine	0		S	sg g
tarvis	tarvis	0		D	
      	tarvis	0		K	
juba	juba	0		D	
osa	osa	0		S	sg g
   	osa	0		S	sg n
   	osa	0		S	sg p
aval	ava	l		S	sg ad
    	aval	0		A	sg n
vedanud	veda	nud		V	nud
       	veda=nu	d		S	pl n
       	veda=nud	0		A	
       	veda=nud	0		A	sg n
       	veda=nud	d		A	pl n
ent	ent	0		J	
mõisa	mõis	0		S	sg g
valitsus	valitsus	0		S	sg n
olevat	ole	vat		V	vat
      	olev	t		A	sg p
      	olev	t		S	sg p
jälle	jälle	0		D	
äära	####				
keelanud	keela	nud		V	nud
        	keela=nu	d		S	pl n
        	keela=nud	0		A	
        	keela=nud	0		A	sg n
        	keela=nud	d		A	pl n
vedamast	veda	mast		V	mast
peale	pea	le		S	sg all
     	peale	0		D	
     	peale	0		K	
selle	see	0		P	sg g
     	sell	e		S	pl p
kui	kui	0		D	
   	kui	0		J	
tall	tall	0		S	sg n
ju	ju	0		D	
24	24	0		N	?
tükki	tükk	0		S	adt
     	tükk	0		S	sg p
     	tükki	0		D	
välja	välja	0		D	
     	välja	0		V	o
     	väli	0		S	adt
     	väli	0		S	sg g
     	väli	0		S	sg p
äära	####				
olnud	ol=nud	0		A	
     	ol=nud	0		A	sg n
     	ol=nud	d		A	pl n
     	ole	nud		V	nud
     	olnu	d		S	pl n
veetud	vee=tu	d		S	pl n
      	vee=tud	0		A	
      	vee=tud	0		A	sg n
      	vee=tud	d		A	pl n
      	veetu	d		A	pl n
      	veda	tud		V	tud
.	.			Z	
2.	2.	0		O	?
Kautioni	####				
pärast	pära	st		S	sg el
      	pärane	t		A	sg p
      	pärast	0		D	
      	pärast	0		K	
vastut	####				
Gustav	Gustav	0		H	sg n
Roose	roos	e		S	pl p
:	:			Z	
et	et	0		J	
tema	tema	0		P	sg g
    	tema	0		P	sg n
käest	käest	0		K	
     	käsi	st		S	sg el
ei	ei	0		D	
  	ei	0		V	neg
olevat	ole	vat		V	vat
      	olev	t		A	sg p
      	olev	t		S	sg p
proua	proua	0		S	sg g
     	proua	0		S	sg n
v	v	0		Y	?
.	.			Z	
Horschelmann	####				
sugugi	sugugi	0		D	
rohkem	rohkem	0		D	
kautsioni	####				
nõudnud	nõud	nud		V	nud
       	nõud=nu	d		S	pl n
       	nõud=nud	0		A	
       	nõud=nud	0		A	sg n
       	nõud=nud	d		A	pl n
kui	kui	0		D	
   	kui	0		J	
250	250	0		N	?
rubla	rubla	0		S	sg g
     	rubla	0		S	sg n
     	rubla	0		S	sg p
,	,			Z	
tema	tema	0		P	sg g
    	tema	0		P	sg n
maksnud	maks	nud		V	nud
       	maks=nu	d		S	pl n
       	maks=nud	0		A	
       	maks=nud	0		A	sg n
       	maks=nud	d		A	pl n
seda	see	da		P	sg p
ja	ja	0		J	
prouua	####				
olnud	ol=nud	0		A	
     	ol=nud	0		A	sg n
     	ol=nud	d		A	pl n
     	ole	nud		V	nud
     	olnu	d		S	pl n
rahul	rahu	l		S	sg ad
     	rahul	0		D	
.	.			Z	
peale	pea	le		S	sg all
     	peale	0		D	
     	peale	0		K	
selle	see	0		P	sg g
     	sell	e		S	pl p
seletas	seleta	s		V	s
veel	veel	0		D	
    	vesi	l		S	sg ad
Gustav	Gustav	0		H	sg n
Roose	roos	e		S	pl p
siin	siin	0		D	
    	siin	0		S	sg n
kogukonna	kogukond	0		S	sg g
kohtu	kohtu	0		V	o
     	kohus	0		S	sg g
ees	ees	0		D	
   	ees	0		K	
   	esi	s		S	sg in
,	,			Z	
et	et	0		J	
tema	tema	0		P	sg g
    	tema	0		P	sg n
selle	see	0		P	sg g
     	sell	e		S	pl p
kogukonna	kogukond	0		S	sg g
kohtu	kohtu	0		V	o
     	kohus	0		S	sg g
man	man	0		D	
   	man	0		K	
tehtu	tehtu	0		S	sg g
     	tehtud	0		A	sg g
     	tehtu	0		S	sg n
ülesütlemise	üles_ütlemine	0		S	sg g
protokolli	protokoll	0		S	adt
          	protokoll	0		S	sg g
          	protokolli	0		V	o
          	protokoll	0		S	sg p
11.	11.	0		O	?
detsembrist	detsember	st		S	sg el
m	m	0		Y	?
.	.			Z	
a.	a	0		Y	?
No	no	0		I	
91.	91.	0		O	?
keiserliku	keiserlik	0		A	sg g
VI	VI	0		O	?
  	VI	0		Y	?
Tartu	Tartu	0		H	adt
     	Tartu	0		H	sg g
     	Tartu	0		H	sg n
     	tartu	0		G	
kihelkonna	kihelkond	0		S	sg g
kohtu	kohtu	0		V	o
     	kohus	0		S	sg g
ette	ette	0		D	
    	ette	0		K	
    	esi	tte		S	adt
viinud	vii	nud		V	nud
      	vii=nu	d		S	pl n
      	vii=nud	0		A	
      	vii=nud	0		A	sg n
      	vii=nud	d		A	pl n
,	,			Z	
kus	kus	0		D	
see	see	0		P	sg n
asi	asi	0		S	sg n
   	asi	0		V	o
3dal	####				
märtsil	märts	l		S	sg ad
s	s	0		Y	?
.	.			Z	
a.	a	0		Y	?
seletuse	seletus	0		S	sg g
all	all	0		D	
   	all	0		K	
olnud	ol=nud	0		A	
     	ol=nud	0		A	sg n
     	ol=nud	d		A	pl n
     	ole	nud		V	nud
     	olnu	d		S	pl n
ja	ja	0		J	
talle	tall	e		S	pl p
     	tall	0		S	adt
     	tall	0		S	sg g
     	tema	lle		P	sg all
     	tall	0		S	sg p
ühes	üks	s		N	sg in
    	üks	s		P	sg in
    	ühes	0		D	
    	ühes	0		K	
aastas	aasta	s		S	sg in
veel	veel	0		D	
    	vesi	l		S	sg ad
veski	veski	0		S	sg g
     	veski	0		S	sg n
ja	ja	0		J	
kõrts	kõrts	0		S	sg n
kätte	kätte	0		K	
     	käsi	tte		S	adt
mõistetud	mõist	tud		V	tud
         	mõiste=tu	d		S	pl n
         	mõiste=tud	0		A	
         	mõiste=tud	0		A	sg n
         	mõiste=tud	d		A	pl n
see	see	0		P	sg n
on	ole	0		V	b
  	ole	0		V	vad
Jüripäevani	jüri_päev	ni		S	sg ter
1887.	1887.	0		O	?
rehe	rehi	0		S	sg g
asi	asi	0		S	sg n
   	asi	0		V	o
ja	ja	0		J	
kautsioni	####				
asi	asi	0		S	sg n
   	asi	0		V	o
saanud	saa	nud		V	nud
      	saa=nud	0		A	
      	saa=nud	0		A	sg n
      	saa=nud	d		A	pl n
      	saanu	d		S	pl n
ka	ka	0		D	
äära	####				
seletatud	seleta	tud		V	tud
         	seleta=tu	d		S	pl n
         	seletatud	0		A	
         	seletatud	0		A	sg n
         	seletatud	d		A	pl n
.	.			Z	
mõisavalitsuse	mõisa_valitsus	0		S	sg g
saadik	saadik	0		K	
      	saadik	0		S	sg n
v	v	0		Y	?
.	.			Z	
Poodesk	####				
vastut	####				
selle	see	0		P	sg g
     	sell	e		S	pl p
Gustav	Gustav	0		H	sg n
Roose	roos	e		S	pl p
seletuse	seletus	0		S	sg g
peale	pea	le		S	sg all
     	peale	0		D	
     	peale	0		K	
,	,			Z	
et	et	0		J	
see	see	0		P	sg n
olevat	ole	vat		V	vat
      	olev	t		A	sg p
      	olev	t		S	sg p
küll	küll	0		D	
    	küll	0		S	sg n
õige	õige	0		A	sg g
    	õige	0		A	sg n
    	õige	0		D	
,	,			Z	
et	et	0		J	
Gustav	Gustav	0		H	sg n
Roose	roos	e		S	pl p
ühes	üks	s		N	sg in
    	üks	s		P	sg in
    	ühes	0		D	
    	ühes	0		K	
aastas	aasta	s		S	sg in
veel	veel	0		D	
    	vesi	l		S	sg ad
sisse	siss	e		S	pl p
     	sisse	0		D	
     	sisse	0		K	
mõistetud	mõist	tud		V	tud
         	mõiste=tu	d		S	pl n
         	mõiste=tud	0		A	
         	mõiste=tud	0		A	sg n
         	mõiste=tud	d		A	pl n
.	.			Z	
see	see	0		P	sg n
suusõna	suu_sõna	0		S	sg g
       	suu_sõna	0		S	sg n
       	suu_sõna	0		S	sg p
leping	leping	0		S	sg n
olev	ole	v		V	v
    	olev	0		A	sg n
    	olev	0		S	sg n
ennegi	ennegi	0		D	
seeni	seen	i		S	pl p
ajani	aeg	ni		S	sg ter
Gustav	Gustav	0		H	sg n
Roosega	####				
tehtu	tehtu	0		S	sg g
     	tehtud	0		A	sg g
     	tehtu	0		S	sg n
olnud	ol=nud	0		A	
     	ol=nud	0		A	sg n
     	ol=nud	d		A	pl n
     	ole	nud		V	nud
     	olnu	d		S	pl n
seeni	seen	i		S	pl p
kui	kui	0		D	
   	kui	0		J	
prouua	####				
v	v	0		Y	?
.	.			Z	
Horschelmann	####				
asi	asi	0		S	sg n
   	asi	0		V	o
pidavat	pida	vat		V	vat
       	pidav	t		A	sg p
kui	kui	0		D	
   	kui	0		J	
enam	enam	0		C	sg n
    	enam	0		D	
ei	ei	0		D	
  	ei	0		V	neg
pidavat	pida	vat		V	vat
       	pidav	t		A	sg p
,	,			Z	
siis	siis	0		D	
    	siis	0		J	
olnud	ol=nud	0		A	
     	ol=nud	0		A	sg n
     	ol=nud	d		A	pl n
     	ole	nud		V	nud
     	olnu	d		S	pl n
kontrakt	####				
otsas	ots	s		S	sg in
     	otsa	s		V	s
     	otsas	0		D	
     	otsas	0		K	
.	.			Z	
Palgi	palk	0		S	sg g
vedamist	vedamine	t		S	sg p
ei	ei	0		D	
  	ei	0		V	neg
olevat	ole	vat		V	vat
      	olev	t		A	sg p
      	olev	t		S	sg p
keeltud	####				
olnud	ol=nud	0		A	
     	ol=nud	0		A	sg n
     	ol=nud	d		A	pl n
     	ole	nud		V	nud
     	olnu	d		S	pl n
.	.			Z	
kautsioni	####				
olnud	ol=nud	0		A	
     	ol=nud	0		A	sg n
     	ol=nud	d		A	pl n
     	ole	nud		V	nud
     	olnu	d		S	pl n
300	300	0		N	?
rubla	rubla	0		S	sg g
     	rubla	0		S	sg n
     	rubla	0		S	sg p
nõudmine	nõudmine	0		S	sg n
olnud	ol=nud	0		A	
     	ol=nud	0		A	sg n
     	ol=nud	d		A	pl n
     	ole	nud		V	nud
     	olnu	d		S	pl n
.	.			Z	
Gustav	Gustav	0		H	sg n
Roose	roos	e		S	pl p
and	and	0		S	sg n
tunnistajis	####				
üles	üles	0		D	
,	,			Z	
et	et	0		J	
Vastse	vastne	0		A	sg g
      	vastne	0		S	sg g
kakseritsa	####				
mõisavalitsus	mõisa_valitsus	0		S	sg n
rehe	rehi	0		S	sg g
parandamise	parandamine	0		S	sg g
palgi	palk	0		S	sg g
veo	vedu	0		S	sg g
äära	####				
keelanud	keela	nud		V	nud
        	keela=nu	d		S	pl n
        	keela=nud	0		A	
        	keela=nud	0		A	sg n
        	keela=nud	d		A	pl n
Peeter	Peeter	0		H	sg n
Linde	lind	e		S	pl p
     	linne	0		S	sg g
Vanast	vana	st		A	sg el
      	vana	st		S	sg el
Kaseritsast	####				
Maarj	####				
ja	ja	0		J	
Liso	####				
Kõiv	kõiv	0		S	sg n
.	.			Z	
mõisavalitseja	mõisa_valitseja	0		S	sg g
              	mõisa_valitseja	0		S	sg n
Ilves	ilves	0		S	sg n
olevat	ole	vat		V	vat
      	olev	t		A	sg p
      	olev	t		S	sg p
keelja	keeljas	0		A	sg g
olnud	ol=nud	0		A	
     	ol=nud	0		A	sg n
     	ol=nud	d		A	pl n
     	ole	nud		V	nud
     	olnu	d		S	pl n
.	.			Z	
mõisavalitseja	mõisa_valitseja	0		S	sg g
              	mõisa_valitseja	0		S	sg n
Ilves	ilves	0		S	sg n
sai	saa	i		V	s
   	sai	0		S	sg n
ka	ka	0		D	
ette	ette	0		D	
    	ette	0		K	
    	esi	tte		S	adt
kutsutud	kutsu	tud		V	tud
        	kutsutu	d		S	pl n
        	kutsutud	0		A	
        	kutsutud	0		A	sg n
        	kutsutud	d		A	pl n
kes	kes	0		P	pl n
   	kes	0		P	sg n
vastut	####				
,	,			Z	
et	et	0		J	
tema	tema	0		P	sg g
    	tema	0		P	sg n
olevat	ole	vat		V	vat
      	olev	t		A	sg p
      	olev	t		S	sg p
kül	####				
palgiveo	palgi_vedu	0		S	sg g
Roosel	####				
äära	####				
keelanud	keela	nud		V	nud
        	keela=nu	d		S	pl n
        	keela=nud	0		A	
        	keela=nud	0		A	sg n
        	keela=nud	d		A	pl n
selle	see	0		P	sg g
     	sell	e		S	pl p
põhjusel	põhjus	l		S	sg ad
,	,			Z	
et	et	0		J	
Roose	roos	e		S	pl p
kohtu	kohtu	0		V	o
     	kohus	0		S	sg g
all	all	0		D	
   	all	0		K	
olevat	ole	vat		V	vat
      	olev	t		A	sg p
      	olev	t		S	sg p
.	.			Z	
peale	pea	le		S	sg all
     	peale	0		D	
     	peale	0		K	
selle	see	0		P	sg g
     	sell	e		S	pl p
sai	saa	i		V	s
   	sai	0		S	sg n
veel	veel	0		D	
    	vesi	l		S	sg ad
Herr	####				
v	v	0		Y	?
.	.			Z	
Poodesk	####				
ette	ette	0		D	
    	ette	0		K	
    	esi	tte		S	adt
panek	panek	0		S	sg n
selle	see	0		P	sg g
     	sell	e		S	pl p
üle	üle	0		D	
   	üle	0		K	
et	et	0		J	
prouua	####				
v	v	0		Y	?
.	.			Z	
Horschelmann	####				
ennegi	ennegi	0		D	
Roosele	####				
niikaua	nii_kaua	0		D	
kontrahi	kontraht	0		S	sg g
teinud	tege	nud		V	nud
      	tei=nud	0		A	
      	tei=nud	0		A	sg n
      	tei=nud	d		A	pl n
      	teinu	d		S	pl n
kui	kui	0		D	
   	kui	0		J	
tema	tema	0		P	sg g
    	tema	0		P	sg n
mõisa	mõis	0		S	sg g
rentnik	rentnik	0		S	sg n
on	ole	0		V	b
  	ole	0		V	vad
Gustav	Gustav	0		H	sg n
Roosele	####				
ette	ette	0		D	
    	ette	0		K	
    	esi	tte		S	adt
pandud	pan=du	d		S	pl n
      	pan=dud	0		A	
      	pan=dud	0		A	sg n
      	pan=dud	d		A	pl n
      	pane	dud		V	tud
,	,			Z	
kes	kes	0		P	pl n
   	kes	0		P	sg n
selle	see	0		P	sg g
     	sell	e		S	pl p
üle	üle	0		D	
   	üle	0		K	
vastut	####				
,	,			Z	
et	et	0		J	
kui	kui	0		D	
   	kui	0		J	
proua	proua	0		S	sg g
     	proua	0		S	sg n
v	v	0		Y	?
.	.			Z	
Horschelmann	####				
kautsioni	####				
sisse	siss	e		S	pl p
     	sisse	0		D	
     	sisse	0		K	
võtnud	võt	nud		V	nud
      	võt=nu	d		S	pl n
      	võt=nud	0		A	
      	võt=nud	0		A	sg n
      	võt=nud	d		A	pl n
siis	siis	0		D	
    	siis	0		J	
leping	leping	0		S	sg n
jälle	jälle	0		D	
3	3	0		N	?
aastat	aasta	t		S	sg p
edasi	edasi	0		D	
     	edasi	0		K	
jäänud	jää	nud		V	nud
      	jäänu	d		S	pl n
      	jäänud	0		A	
      	jäänud	0		A	sg n
      	jäänud	d		A	pl n
.	.			Z	
nema	####				
ei	ei	0		D	
  	ei	0		V	neg
lepi	leppi	0		V	o
.	.			Z	
kohus	kohu	s		V	s
     	kohus	0		S	sg n
endi	ise	0		P	pl g
enda	ise	0		P	sg g
kokku	kokku	0		D	
     	kogu	0		S	adt
ja	ja	0		J	
tegi	sina	0	gi	P	pl g
    	tege	i		V	s
    	sina	0	gi	P	pl n
selle	see	0		P	sg g
     	sell	e		S	pl p
otsuse	otsus	0		S	sg g
:	:			Z	
et	et	0		J	
mõisavalitsus	mõisa_valitsus	0		S	sg n
asi	asi	0		S	sg n
   	asi	0		V	o
ka	ka	0		D	
selle	see	0		P	sg g
     	sell	e		S	pl p
ütles	ütle	s		V	s
tõtte	tõtt	e		S	pl p
     	tõsi	tte		S	adt
olevat	ole	vat		V	vat
      	olev	t		A	sg p
      	olev	t		S	sg p
,	,			Z	
et	et	0		J	
Gustav	Gustav	0		H	sg n
Roose	roos	e		S	pl p
veel	veel	0		D	
    	vesi	l		S	sg ad
ühes	üks	s		N	sg in
    	üks	s		P	sg in
    	ühes	0		D	
    	ühes	0		K	
aastas	aasta	s		S	sg in
kirepi	####				
veski	veski	0		S	sg g
     	veski	0		S	sg n
ja	ja	0		J	
kõrtsi	kõrts	0		S	adt
      	kõrts	0		S	sg g
      	kõrts	0		S	sg p
rentniku	rentnik	0		S	sg g
keiserliku	keiserlik	0		A	sg g
VI	VI	0		O	?
  	VI	0		Y	?
Tartu	Tartu	0		H	adt
     	Tartu	0		H	sg g
     	Tartu	0		H	sg n
     	tartu	0		G	
kihelkonna	kihelkond	0		S	sg g
kohtust	kohtune	t		A	sg p
       	kohus	st		S	sg el
sisse	siss	e		S	pl p
     	sisse	0		D	
     	sisse	0		K	
on	ole	0		V	b
  	ole	0		V	vad
mõistetud	mõist	tud		V	tud
         	mõiste=tu	d		S	pl n
         	mõiste=tud	0		A	
         	mõiste=tud	0		A	sg n
         	mõiste=tud	d		A	pl n
see	see	0		P	sg n
on	ole	0		V	b
  	ole	0		V	vad
seeni	seen	i		S	pl p
kui	kui	0		D	
   	kui	0		J	
Jüripäevani	jüri_päev	ni		S	sg ter
1887.	1887.	0		O	?
ja	ja	0		J	
neid	neid	0		S	sg n
    	see	d		P	pl p
    	tema	d		P	pl p
kätte	kätte	0		K	
     	käsi	tte		S	adt
ette	ette	0		D	
    	ette	0		K	
    	esi	tte		S	adt
pandud	pan=du	d		S	pl n
      	pan=dud	0		A	
      	pan=dud	0		A	sg n
      	pan=dud	d		A	pl n
      	pane	dud		V	tud
punkti	punkt	0		S	adt
      	punkt	0		S	sg g
      	punkti	0		V	o
      	punkt	0		S	sg p
rehe	rehi	0		S	sg g
ehituse	ehitus	0		S	sg g
ja	ja	0		J	
kautsioni	####				
pärast	pära	st		S	sg el
      	pärane	t		A	sg p
      	pärast	0		D	
      	pärast	0		K	
mingi	mingi	0		P	sg g
     	mink	0		S	sg g
     	minki	0		V	o
     	mingi	0		P	sg n
viisi	viis	0		S	adt
     	viis	0		S	sg g
     	viis	i		N	pl p
     	viisi	0		K	
     	viis	0		S	sg p
ei	ei	0		D	
  	ei	0		V	neg
ole	ole	0		V	o
jõudnud	jõud	nud		V	nud
       	jõud=nu	d		S	pl n
       	jõud=nud	0		A	
       	jõud=nud	0		A	sg n
       	jõud=nud	d		A	pl n
põhjastada	####				
,	,			Z	
selle	see	0		P	sg g
     	sell	e		S	pl p
pärast	pära	st		S	sg el
      	pärane	t		A	sg p
      	pärast	0		D	
      	pärast	0		K	
sai	saa	i		V	s
   	sai	0		S	sg n
mõisavalitsuse	mõisa_valitsus	0		S	sg g
kaebus	kaebus	0		S	sg n
vastu	vastu	0		D	
     	vastu	0		K	
Gustav	Gustav	0		H	sg n
Roose	roos	e		S	pl p
kontrahi	kontraht	0		S	sg g
tühjaks	tühi	ks		A	sg tr
tegemise	tegemine	0		S	sg g
pärast	pära	st		S	sg el
      	pärane	t		A	sg p
      	pärast	0		D	
      	pärast	0		K	
,	,			Z	
tühjaks	tühi	ks		A	sg tr
arvatud	arva	tud		V	tud
       	arva=tu	d		S	pl n
       	arva=tud	0		A	
       	arva=tud	0		A	sg n
       	arva=tud	d		A	pl n
.	.			Z	
see	see	0		P	sg n
kohtu	kohtu	0		V	o
     	kohus	0		S	sg g
otsus	otsus	0		S	sg n
sai	saa	i		V	s
   	sai	0		S	sg n
tänatsel	####				
päeval	päev	l		S	sg ad
kohtus	kohtu	s		V	s
      	kohus	s		S	sg in
käijatele	käija	tele		S	pl all
kuulutatud	kuuluta	tud		V	tud
          	kuuluta=tu	d		S	pl n
          	kuuluta=tud	0		A	
          	kuuluta=tud	0		A	sg n
          	kuuluta=tud	d		A	pl n
pri	####				
.	.			Z	
773	773	0		N	?
ja	ja	0		J	
774	774	0		N	?
seaduse	seadus	0		S	sg g
raamatust	raamat	st		S	sg el
1860	1860	0		N	?
aastast	aasta	st		S	sg el
       	aastane	t		A	sg p
äära	####				
seletatud	seleta	tud		V	tud
         	seleta=tu	d		S	pl n
         	seletatud	0		A	
         	seletatud	0		A	sg n
         	seletatud	d		A	pl n
mõisavalitsus	mõisa_valitsus	0		S	sg n
nõuab	nõud	b		V	b
appellationi	####				
.	.			Z	
peakohtumees	pea_kohtu_mees	0		S	sg n
J	J	0		Y	?
.	.			Z	
_	_			Z	
Kabist	####				
[	[			Z	
allkiri	all_kiri	0		S	sg n
]	]			Z	
kohtumees	kohtu_mees	0		S	sg n
P	P	0		Y	?
.	.			Z	
Sillaots	silla_ots	0		S	sg n
[	[			Z	
allkiri	all_kiri	0		S	sg n
]	]			Z	
kohtumees	kohtu_mees	0		S	sg n
P	P	0		Y	?
.	.			Z	
_	_			Z	
Klaas	klaas	0		S	sg n
[	[			Z	
allkiri	all_kiri	0		S	sg n
]	]			Z	
appellation	####				
mõisa	mõis	0		S	sg g
valitsusele	valitsus	le		S	sg all
20.	20.	0		O	?
märtsil	märts	l		S	sg ad
1886	1886	0		N	?
välja	välja	0		D	
     	välja	0		V	o
     	väli	0		S	adt
     	väli	0		S	sg g
     	väli	0		S	sg p
antud	an=tu	d		S	pl n
     	and	tud		V	tud
     	antud	0		A	
     	antud	0		A	sg n
     	antud	d		A	pl n
.	.			Z	
