mõisavalitsuse	mõisa_valitsus	0		S	sg g
kaebuse	kaebus	0		S	sg g
et	et	0		J	
Jooseph	####				
Serremat	####				
,	,			Z	
Jakob	Jakob	0		H	sg n
Armuth	####				
ja	ja	0		J	
Karl	Karl	0		H	sg n
Ivask	####				
olid	ole	id		V	sid
Teiliste	####				
Jaama	jaam	0		S	adt
     	jaam	0		S	sg g
     	jaam	0		S	sg p
No	no	0		I	
vedanud	veda	nud		V	nud
       	veda=nu	d		S	pl n
       	veda=nud	0		A	
       	veda=nud	0		A	sg n
       	veda=nud	d		A	pl n
ning	ning	0		J	
Latra	latra	0		V	o
Jaama	jaam	0		S	adt
     	jaam	0		S	sg g
     	jaam	0		S	sg p
3	3	0		N	?
Tschetveriku	####				
No	no	0		I	
münud	####				
;	;			Z	
ning	ning	0		J	
nende	see	de		P	pl g
     	tema	de		P	pl g
karust	karu	st		S	sg el
      	karune	t		A	sg p
      	karus	t		S	sg p
Latra	latra	0		V	o
Jaman	jama	n		V	n
on	ole	0		V	b
  	ole	0		V	vad
üleültse	####				
5	5	0		N	?
vakka	vakk	0		S	adt
     	vakk	0		S	sg p
     	vakka	0		D	
puudus	puudu	s		V	s
      	puudus	0		S	sg n
tulnud	tul=nud	0		A	
      	tul=nud	0		A	sg n
      	tul=nud	d		A	pl n
      	tule	nud		V	nud
      	tulnu	d		S	pl n
.	.			Z	
otsus	otsus	0		S	sg n
:	:			Z	
nida	####				
kui	kui	0		D	
   	kui	0		J	
need	see	d		P	pl n
nimetatud	nimeta	tud		V	tud
         	nimetatu	d		S	pl n
         	nimetatud	0		A	
         	nimetatud	0		A	sg n
         	nimetatud	d		A	pl n
kolm	kolm	0		N	sg n
kaera	kaer	0		S	adt
     	kaer	0		S	sg g
     	kaer	0		S	sg p
vedajat	vedaja	t		S	sg p
ei	ei	0		D	
  	ei	0		V	neg
ole	ole	0		V	o
üksegij	####				
mõisa	mõis	0		S	sg g
kaera	kaer	0		S	adt
     	kaer	0		S	sg g
     	kaer	0		S	sg p
pealepanemise	peale_panemine	0		S	sg g
man	man	0		D	
   	man	0		K	
näudanud	####				
et	et	0		J	
neil	see	l		P	pl ad
    	tema	l		P	pl ad
oli	ole	i		V	s
omi	oma	i		A	pl p
   	oma	i		P	pl p
   	oma	i		S	pl p
No	no	0		I	
olnud	ol=nud	0		A	
     	ol=nud	0		A	sg n
     	ol=nud	d		A	pl n
     	ole	nud		V	nud
     	olnu	d		S	pl n
,	,			Z	
sai	saa	i		V	s
   	sai	0		S	sg n
mõistetud	mõist	tud		V	tud
         	mõiste=tu	d		S	pl n
         	mõiste=tud	0		A	
         	mõiste=tud	0		A	sg n
         	mõiste=tud	d		A	pl n
et	et	0		J	
nemad	tema	d		P	pl n
kokku	kokku	0		D	
     	kogu	0		S	adt
1	1	0		N	?
R	R	0		Y	?
.	.			Z	
hõb	####				
.	.			Z	
3	3	0		N	?
mõõtme	mõõde	0		S	sg g
No	no	0		I	
eest	eest	0		D	
    	eest	0		K	
    	esi	st		S	sg el
peavad	pida	vad		V	vad
maksma	maks	ma		V	ma
,	,			Z	
ja	ja	0		J	
30	30	0		N	?
vitsa	vits	0		S	adt
     	vits	0		S	sg g
     	vits	0		S	sg p
löki	####				
karistust	karistus	t		S	sg p
.	.			Z	
