ette	ette	0		D	
    	ette	0		K	
    	esi	tte		S	adt
tuli	tuli	0		S	sg n
    	tule	i		V	s
härra	härra	0		S	sg g
     	härra	0		S	sg n
Mihkel	Mihkel	0		H	sg n
      	mihkel	0		A	sg n
      	mihkel	0		S	sg n
Ainson	####				
Räpinalt	Räpina	lt		H	sg abl
ühe	üks	0		N	sg g
   	üks	0		P	sg g
   	ühe	0		S	sg n
Palo	Palo	0		H	sg g
    	Palo	0		H	sg n
valla	vald	0		S	sg g
     	valla	0		D	
sõra	sõrg	0		S	sg g
maja	maja	0		S	sg g
    	maja	0		S	sg n
    	maja	0		S	sg p
№	№	0		Y	?
34.	34.	0		O	?
peale	pea	le		S	sg all
     	peale	0		D	
     	peale	0		K	
tehtu	tehtu	0		S	sg g
     	tehtud	0		A	sg g
     	tehtu	0		S	sg n
500	500	0		N	?
rblalise	####				
oppelkaksioniga	####				
mida	mis	da		P	pl p
    	mis	da		P	sg p
tema	tema	0		P	sg g
    	tema	0		P	sg n
võlgnik	võlgnik	0		S	sg n
Peeter	Peeter	0		H	sg n
Sõrg	sõrg	0		S	sg n
käest	käest	0		K	
     	käsi	st		S	sg el
nüüd	nüüd	0		D	
kõigi	kõik	0		P	pl g
maksmata	maks	mata		V	mata
        	maks=mata	0		A	
jäänud	jää	nud		V	nud
      	jäänu	d		S	pl n
      	jäänud	0		A	
      	jäänud	0		A	sg n
      	jäänud	d		A	pl n
protsentega	####				
kokku	kokku	0		D	
     	kogu	0		S	adt
146	146	0		N	?
rbl	rbl	0		Y	?
.	.			Z	
80	80	0		N	?
kopikat	kopikas	t		S	sg p
kooni	kubu	ni		S	sg ter
1	1	0		N	?
oktoobrini	oktoober	ni		S	sg ter
1888	1888	0		N	?
aastal	aasta	l		S	sg ad
kätte	kätte	0		K	
     	käsi	tte		S	adt
nõuab	nõud	b		V	b
saia	sai	0		S	adt
    	sai	0		S	sg g
    	sai	0		S	sg p
sest	see	st		P	sg el
    	sest	0		J	
et	et	0		J	
võlgnik	võlgnik	0		S	sg n
4	4	0		N	?
maksu	maks	0		S	adt
     	maks	0		S	sg g
     	maks	u		S	pl p
     	maks	0		S	sg p
tärmini	tärmin	0		S	sg g
maksmata	maks	mata		V	mata
        	maks=mata	0		A	
on	ole	0		V	b
  	ole	0		V	vad
jätnud	jät	nud		V	nud
      	jät=nu	d		S	pl n
      	jät=nud	0		A	
      	jät=nud	0		A	sg n
      	jät=nud	d		A	pl n
,	,			Z	
ning	ning	0		J	
ka	ka	0		D	
protsendi	protsent	0		S	sg g
maksmata	maks	mata		V	mata
        	maks=mata	0		A	
,	,			Z	
siis	siis	0		D	
    	siis	0		J	
palun	palu	n		V	n
Peeter	Peeter	0		H	sg n
sõrale	sõrg	le		S	sg all
seda	see	da		P	sg p
likobatsioni	####				
kuuludada	####				
ja	ja	0		J	
ka	ka	0		D	
keiserliku	keiserlik	0		A	sg g
Tartu	Tartu	0		H	adt
     	Tartu	0		H	sg g
     	Tartu	0		H	sg n
     	tartu	0		G	
kreis	kreis	0		S	sg n
kohtule	kohus	le		S	sg all
üles	üles	0		D	
anda	and	a		V	da
,	,			Z	
kust	kusi	t		S	sg p
    	kust	0		D	
maja	maja	0		S	sg g
    	maja	0		S	sg n
    	maja	0		S	sg p
müümist	müümine	t		S	sg p
paleldud	####				
.	.			Z	
Samuel	Samuel	0		H	sg n
ja	ja	0		J	
Peeter	Peeter	0		H	sg n
Sõrg	sõrg	0		S	sg n
ütles	ütle	s		V	s
võlg	võlg	0		S	sg n
ja	ja	0		J	
ka	ka	0		D	
protsendi	protsent	0		S	sg g
nõudmise	nõudmine	0		S	sg g
õige	õige	0		A	sg g
    	õige	0		A	sg n
    	õige	0		D	
olevad	olev	d		A	pl n
      	olev	d		S	pl n
ning	ning	0		J	
ei	ei	0		D	
  	ei	0		V	neg
ütle	ütle	0		V	o
kustki	kustki	0		D	
maksa	maks	0		S	adt
     	maks	0		S	sg g
     	maks	0		V	o
     	maks	0		S	sg p
olev	ole	v		V	v
    	olev	0		A	sg n
    	olev	0		S	sg n
.	.			Z	
Mõistetud	mõist	tud		V	tud
         	mõiste=tu	d		S	pl n
         	mõiste=tud	0		A	
         	mõiste=tud	0		A	sg n
         	mõiste=tud	d		A	pl n
:	:			Z	
et	et	0		J	
härra	härra	0		S	sg g
     	härra	0		S	sg n
Mihkel	Mihkel	0		H	sg n
      	mihkel	0		A	sg n
      	mihkel	0		S	sg n
Ainson	####				
ühe	üks	0		N	sg g
   	üks	0		P	sg g
   	ühe	0		S	sg n
sõra	sõrg	0		S	sg g
№	№	0		Y	?
34	34	0		N	?
maja	maja	0		S	sg g
    	maja	0		S	sg n
    	maja	0		S	sg p
omanika	####				
Samuel	Samuel	0		H	sg n
ja	ja	0		J	
Peeter	Peeter	0		H	sg n
Sõrg	sõrg	0		S	sg n
läbi	läbi	0		D	
    	läbi	0		K	
    	läbi	0		V	o
härra	härra	0		S	sg g
     	härra	0		S	sg n
Robert	Robert	0		H	sg n
Lajus	####				
käest	käest	0		K	
     	käsi	st		S	sg el
laenatud	laena	tud		V	tud
        	laena=tu	d		S	pl n
        	laena=tud	0		A	
        	laena=tud	0		A	sg n
        	laena=tud	d		A	pl n
500	500	0		N	?
rbl	rbl	0		Y	?
.	.			Z	
likobatsi	####				
omanik	omanik	0		S	sg n
on	ole	0		V	b
  	ole	0		V	vad
mis	mis	0		P	pl n
   	mis	0		P	sg n
keiserliku	keiserlik	0		A	sg g
Tartu	Tartu	0		H	adt
     	Tartu	0		H	sg g
     	Tartu	0		H	sg n
     	tartu	0		G	
kreis	kreis	0		S	sg n
kohtus	kohtu	s		V	s
      	kohus	s		S	sg in
25	25	0		N	?
aprilil	####				
1879	1879	0		N	?
aastal	aasta	l		S	sg ad
№	№	0		Y	?
550	550	0		N	?
kinitud	####				
ja	ja	0		J	
Hiotekub	####				
rikustressi	####				
roingseritud	####				
on	ole	0		V	b
  	ole	0		V	vad
saanud	saa	nud		V	nud
      	saa=nud	0		A	
      	saa=nud	0		A	sg n
      	saa=nud	d		A	pl n
      	saanu	d		S	pl n
ette	ette	0		D	
    	ette	0		K	
    	esi	tte		S	adt
on	ole	0		V	b
  	ole	0		V	vad
tulnud	tul=nud	0		A	
      	tul=nud	0		A	sg n
      	tul=nud	d		A	pl n
      	tule	nud		V	nud
      	tulnu	d		S	pl n
ning	ning	0		J	
võlga	võlg	0		S	adt
     	võlg	0		S	sg p
nõuab	nõud	b		V	b
.	.			Z	
otsus	otsus	0		S	sg n
:	:			Z	
siis	siis	0		D	
    	siis	0		J	
saab	saa	b		V	b
sõra	sõrg	0		S	sg g
№	№	0		Y	?
34	34	0		N	?
maja	maja	0		S	sg g
    	maja	0		S	sg n
    	maja	0		S	sg p
keiserliku	keiserlik	0		A	sg g
Tartu	Tartu	0		H	adt
     	Tartu	0		H	sg g
     	Tartu	0		H	sg n
     	tartu	0		G	
kreis	kreis	0		S	sg n
kohtule	kohus	le		S	sg all
müümiseks	müümine	ks		S	sg tr
selle	see	0		P	sg g
     	sell	e		S	pl p
146	146	0		N	?
rbl	rbl	0		Y	?
.	.			Z	
80	80	0		N	?
kop	kop	0		Y	?
härra	härra	0		S	sg g
     	härra	0		S	sg n
M	M	0		O	?
 	M	0		Y	?
.	.			Z	
_Ainson	####				
võla	võlg	0		S	sg g
eest	eest	0		D	
    	eest	0		K	
    	esi	st		S	sg el
sisse	siss	e		S	pl p
     	sisse	0		D	
     	sisse	0		K	
saatetatud	####				
.	.			Z	
see	see	0		P	sg n
otsus	otsus	0		S	sg n
§§	§§	0		Y	?
773	773	0		N	?
ja	ja	0		J	
774	774	0		N	?
järel	järel	0		D	
     	järel	0		K	
kuulutatud	kuuluta	tud		V	tud
          	kuuluta=tu	d		S	pl n
          	kuuluta=tud	0		A	
          	kuuluta=tud	0		A	sg n
          	kuuluta=tud	d		A	pl n
.	.			Z	
peakohtumees	pea_kohtu_mees	0		S	sg n
kohtumees	kohtu_mees	0		S	sg n
abi	abi	0		S	sg g
   	abi	0		S	sg n
   	abi	0		S	sg p
kohtumees	kohtu_mees	0		S	sg n
A	A	0		Y	?
.	.			Z	
_	_			Z	
suha	####				
XXX	XXX	0		O	?
   	XXX	0		Y	?
kirjut	kirju	t		A	sg p
.	.			Z	
s	s	0		Y	?
.	.			Z	
Härms	####				
[	[			Z	
allkiri	all_kiri	0		S	sg n
]	]			Z	
era	era	0		S	sg g
   	era	0		S	sg n
   	era	0		S	sg p
kiri	kiri	0		S	sg n
sel	see	l		P	sg ad
   	sel	0		Y	?
25	25	0		N	?
Juuli	juuli	0		S	sg g
     	juuli	0		S	sg n
.	.			Z	
