Peeter	Peeter	0		H	sg n
kirrutar	####				
tuli	tuli	0		S	sg n
    	tule	i		V	s
kohtu	kohtu	0		V	o
     	kohus	0		S	sg g
ette	ette	0		D	
    	ette	0		K	
    	esi	tte		S	adt
ja	ja	0		J	
andis	and	is		V	s
üles	üles	0		D	
et	et	0		J	
tema	tema	0		P	sg g
    	tema	0		P	sg n
on	ole	0		V	b
  	ole	0		V	vad
andnud	and	nud		V	nud
      	and=nu	d		S	pl n
      	and=nud	0		A	
      	and=nud	0		A	sg n
      	and=nud	d		A	pl n
vana	vana	0		A	sg g
    	vana	0		A	sg n
    	vana	0		A	sg p
    	vana	0		S	sg g
    	vana	0		S	sg n
    	vana	0		S	sg p
koolmeister	kool_meister	0		S	sg n
Peeter	Peeter	0		H	sg n
Narusbergil	####				
omast	oma	st		A	sg el
     	oma	st		P	sg el
     	oma	st		S	sg el
     	omane	t		A	sg p
käest	käest	0		K	
     	käsi	st		S	sg el
1	1	0		N	?
1	1	0		N	?
/	/			Z	
3	3	0		N	?
vakk	vakk	0		S	sg n
lina	lina	0		S	sg g
    	lina	0		S	sg n
    	lina	0		S	sg p
seemend	####				
4	4	0		N	?
vakka	vakk	0		S	adt
     	vakk	0		S	sg p
     	vakka	0		D	
kesvi	kesv	i		S	pl p
2	2	0		N	?
kirvest	kirves	st		S	sg el
       	kirves	t		S	sg p
1	1	0		N	?
paar	paar	0		N	sg n
    	paar	0		S	sg n
aeri	####				
ning	ning	0		J	
1	1	0		N	?
regi	regi	0		S	sg n
Peeter	Peeter	0		H	sg n
Narusberg	####				
ei	ei	0		D	
  	ei	0		V	neg
ütle	ütle	0		V	o
õige	õige	0		A	sg g
    	õige	0		A	sg n
    	õige	0		D	
olevat	ole	vat		V	vat
      	olev	t		A	sg p
      	olev	t		S	sg p
ja	ja	0		J	
ei	ei	0		D	
  	ei	0		V	neg
ole	ole	0		V	o
võtnud	võt	nud		V	nud
      	võt=nu	d		S	pl n
      	võt=nud	0		A	
      	võt=nud	0		A	sg n
      	võt=nud	d		A	pl n
Peeter	Peeter	0		H	sg n
kirrutar	####				
nõuab	nõud	b		V	b
ka	ka	0		D	
veel	veel	0		D	
    	vesi	l		S	sg ad
kahekümme	####				
aasta	aasta	0		S	sg g
     	aasta	0		S	sg n
teenistuse	teenistus	0		S	sg g
palka	palk	0		S	adt
     	palka	0		V	o
     	palk	0		S	sg p
10	10	0		N	?
aastag	####				
vana	vana	0		A	sg g
    	vana	0		A	sg n
    	vana	0		A	sg p
    	vana	0		S	sg g
    	vana	0		S	sg n
    	vana	0		S	sg p
Peeter	Peeter	0		H	sg n
Narusbergi	####				
käest	käest	0		K	
     	käsi	st		S	sg el
pea	pea	0		D	
   	pea	0		S	sg g
   	pida	0		V	o
   	pea	0		S	sg n
kohtu	kohtu	0		V	o
     	kohus	0		S	sg g
mees	mees	0		S	sg n
    	mesi	s		S	sg in
Rein	Rein	0		H	sg n
Pabusk	####				
kohtu	kohtu	0		V	o
     	kohus	0		S	sg g
mees	mees	0		S	sg n
    	mesi	s		S	sg in
Gustav	Gustav	0		H	sg n
Narrusk	narr_usk	0		S	sg n
Jaan	Jaan	0		H	sg n
    	jaan	0		S	sg n
    	jaan	0		Y	?
Kliman	####				
