tunnistus	tunnistus	0		S	sg n
ette	ette	0		D	
    	ette	0		K	
    	esi	tte		S	adt
tuli	tuli	0		S	sg n
    	tule	i		V	s
Peep	Peep	0		H	sg n
Parrisson	####				
ja	ja	0		J	
ütles	ütle	s		V	s
välja	välja	0		D	
     	välja	0		V	o
     	väli	0		S	adt
     	väli	0		S	sg g
     	väli	0		S	sg p
et	et	0		J	
näinud	näi	nud		V	nud
      	näge	nud		V	nud
      	näi=nud	0		A	
      	näi=nud	0		A	sg n
      	näi=nud	d		A	pl n
      	näinu	d		S	pl n
kui	kui	0		D	
   	kui	0		J	
Hendrik	Hendrik	0		H	sg n
Rautsaar	####				
venud	####				
pedaja	pedajas	0		S	sg g
ja	ja	0		J	
kõivu	kõiv	0		S	adt
     	kõiv	0		S	sg g
     	kõiv	0		S	sg p
puid	puu	id		S	pl p
seegi	see	0	gi	P	sg n
     	seek	0		S	sg g
nõnda	nõnda	0		D	
et	et	0		J	
puu	puu	0		S	sg g
   	puu	0		S	sg n
üles	üles	0		D	
perra	####				
peale	pea	le		S	sg all
     	peale	0		D	
     	peale	0		K	
pannud	pan=nu	d		S	pl n
      	pan=nud	0		A	
      	pan=nud	0		A	sg n
      	pan=nud	d		A	pl n
      	pane	nud		V	nud
Jaan	Jaan	0		H	sg n
    	jaan	0		S	sg n
    	jaan	0		Y	?
suits	suits	0		S	sg n
rinna	rind	0		S	sg g
veerest	veer	st		S	sg el
       	veere	st		S	sg el
       	veerest	0		K	
sel	see	l		P	sg ad
   	sel	0		Y	?
18	18	0		N	?
November	november	0		S	sg n
.	.			Z	
