Kristjan	Kristjan	0		H	sg n
Kuitsus	####				
Raiglast	raig_laps	t		S	sg p
kaebas	kaeba	s		V	s
kohtu	kohtu	0		V	o
     	kohus	0		S	sg g
ees	ees	0		D	
   	ees	0		K	
   	esi	s		S	sg in
et	et	0		J	
Viido	####				
Punnisson	####				
Raiglast	raig_laps	t		S	sg p
on	ole	0		V	b
  	ole	0		V	vad
tema	tema	0		P	sg g
    	tema	0		P	sg n
käest	käest	0		K	
     	käsi	st		S	sg el
võtnud	võt	nud		V	nud
      	võt=nu	d		S	pl n
      	võt=nud	0		A	
      	võt=nud	0		A	sg n
      	võt=nud	d		A	pl n
15	15	0		N	?
kormat	####				
sitta	sitt	0		A	adt
     	sitt	0		S	adt
     	sitta	0		V	o
     	sitt	0		A	sg p
     	sitt	0		S	sg p
30	30	0		N	?
kop	kop	0		Y	?
korma	####				
1867	1867	0		N	?
aastal	aasta	l		S	sg ad
ja	ja	0		J	
mis	mis	0		P	pl n
   	mis	0		P	sg n
Viido	####				
mitte	mitte	0		D	
veel	veel	0		D	
    	vesi	l		S	sg ad
ei	ei	0		D	
  	ei	0		V	neg
ole	ole	0		V	o
ära	ära	0		D	
   	ära	0		V	neg o
maksnud	maks	nud		V	nud
       	maks=nu	d		S	pl n
       	maks=nud	0		A	
       	maks=nud	0		A	sg n
       	maks=nud	d		A	pl n
4	4	0		N	?
rubla	rubla	0		S	sg g
     	rubla	0		S	sg n
     	rubla	0		S	sg p
50	50	0		N	?
kop	kop	0		Y	?
ja	ja	0		J	
on	ole	0		V	b
  	ole	0		V	vad
võtnud	võt	nud		V	nud
      	võt=nu	d		S	pl n
      	võt=nud	0		A	
      	võt=nud	0		A	sg n
      	võt=nud	d		A	pl n
4	4	0		N	?
vakka	vakk	0		S	adt
     	vakk	0		S	sg p
     	vakka	0		D	
kartulid	kartul	d		S	pl n
hind	hind	0		S	sg n
3	3	0		N	?
rubla	rubla	0		S	sg g
     	rubla	0		S	sg n
     	rubla	0		S	sg p
3me	####				
aastaja	####				
palk	palk	0		S	sg n
raha	raha	0		S	sg g
    	raha	0		S	sg n
    	raha	0		S	sg p
mis	mis	0		P	pl n
   	mis	0		P	sg n
sest	see	st		P	sg el
    	sest	0		J	
saadik	saadik	0		K	
      	saadik	0		S	sg n
saamata	saa	mata		V	mata
       	saam	ta		S	sg ab
       	saamata	0		A	
on	ole	0		V	b
  	ole	0		V	vad
jäänud	jää	nud		V	nud
      	jäänu	d		S	pl n
      	jäänud	0		A	
      	jäänud	0		A	sg n
      	jäänud	d		A	pl n
kui	kui	0		D	
   	kui	0		J	
Kristjan	Kristjan	0		H	sg n
Viido	####				
man	man	0		D	
   	man	0		K	
sulaseks	sulane	ks		S	sg tr
on	ole	0		V	b
  	ole	0		V	vad
olnud	ol=nud	0		A	
     	ol=nud	0		A	sg n
     	ol=nud	d		A	pl n
     	ole	nud		V	nud
     	olnu	d		S	pl n
2	2	0		N	?
rubla	rubla	0		S	sg g
     	rubla	0		S	sg n
     	rubla	0		S	sg p
10	10	0		N	?
leisikat	leisikas	t		S	sg p
linu	lina	u		S	pl p
mis	mis	0		P	pl n
   	mis	0		P	sg n
Viido	####				
on	ole	0		V	b
  	ole	0		V	vad
ka	ka	0		D	
siis	siis	0		D	
    	siis	0		J	
ära	ära	0		D	
   	ära	0		V	neg o
võtnud	võt	nud		V	nud
      	võt=nu	d		S	pl n
      	võt=nud	0		A	
      	võt=nud	0		A	sg n
      	võt=nud	d		A	pl n
kui	kui	0		D	
   	kui	0		J	
Kristjan	Kristjan	0		H	sg n
Viido	####				
man	man	0		D	
   	man	0		K	
sulaseks	sulane	ks		S	sg tr
on	ole	0		V	b
  	ole	0		V	vad
olnud	ol=nud	0		A	
     	ol=nud	0		A	sg n
     	ol=nud	d		A	pl n
     	ole	nud		V	nud
     	olnu	d		S	pl n
hind	hind	0		S	sg n
35	35	0		N	?
rubla	rubla	0		S	sg g
     	rubla	0		S	sg n
     	rubla	0		S	sg p
kokku	kokku	0		D	
     	kogu	0		S	adt
44	44	0		N	?
R 50	R50	0		Y	?
kop	kop	0		Y	?
Viido	####				
Punnissoni	####				
käest	käest	0		K	
     	käsi	st		S	sg el
sai	saa	i		V	s
   	sai	0		S	sg n
küsitud	küsi	tud		V	tud
       	küsi=tu	d		S	pl n
       	küsi=tud	0		A	
       	küsi=tud	0		A	sg n
       	küsi=tud	d		A	pl n
ütles	ütle	s		V	s
tema	tema	0		P	sg g
    	tema	0		P	sg n
,	,			Z	
et	et	0		J	
10	10	0		N	?
kormat	####				
sitta	sitt	0		A	adt
     	sitt	0		S	adt
     	sitta	0		V	o
     	sitt	0		A	sg p
     	sitt	0		S	sg p
olles	ole	es		V	des
mina	mina	0		P	sg n
    	mina	0		S	sg g
    	mina	0		S	sg n
    	mina	0		S	sg p
saanud	saa	nud		V	nud
      	saa=nud	0		A	
      	saa=nud	0		A	sg n
      	saa=nud	d		A	pl n
      	saanu	d		S	pl n
tema	tema	0		P	sg g
    	tema	0		P	sg n
käest	käest	0		K	
     	käsi	st		S	sg el
mis	mis	0		P	pl n
   	mis	0		P	sg n
minu	mina	0		P	sg g
oma	oma	0		A	sg g
   	oma	0		D	
   	oma	0		P	sg g
   	oma	0		S	sg g
   	oma	0		V	o
   	oma	0		A	sg n
   	oma	0		A	sg p
   	oma	0		P	sg n
   	oma	0		P	sg p
   	oma	0		S	sg n
   	oma	0		S	sg p
olgist	####				
tehtu	tehtu	0		S	sg g
     	tehtud	0		A	sg g
     	tehtu	0		S	sg n
oli	ole	i		V	s
,	,			Z	
ja	ja	0		J	
4	4	0		N	?
kormat	####				
sitta	sitt	0		A	adt
     	sitt	0		S	adt
     	sitta	0		V	o
     	sitt	0		A	sg p
     	sitt	0		S	sg p
võttis	võt	is		V	s
Kristjan	Kristjan	0		H	sg n
minu	mina	0		P	sg g
käest	käest	0		K	
     	käsi	st		S	sg el
enne	enne	0		D	
    	enne	0		K	
    	enne	0		S	sg n
oma	oma	0		A	sg g
   	oma	0		D	
   	oma	0		P	sg g
   	oma	0		S	sg g
   	oma	0		V	o
   	oma	0		A	sg n
   	oma	0		A	sg p
   	oma	0		P	sg n
   	oma	0		P	sg p
   	oma	0		S	sg n
   	oma	0		S	sg p
maa	maa	0		S	sg g
   	maa	0		S	sg n
peale	pea	le		S	sg all
     	peale	0		D	
     	peale	0		K	
mis	mis	0		P	pl n
   	mis	0		P	sg n
tema	tema	0		P	sg g
    	tema	0		P	sg n
kätte	kätte	0		K	
     	käsi	tte		S	adt
jäi	jää	i		V	s
.	.			Z	
4	4	0		N	?
vakka	vakk	0		S	adt
     	vakk	0		S	sg p
     	vakka	0		D	
kartuli	kartul	0		S	sg g
raha	raha	0		S	sg g
    	raha	0		S	sg n
    	raha	0		S	sg p
jäi	jää	i		V	s
Kristjanil	Kristjan	l		H	sg ad
minu	mina	0		P	sg g
kätte	kätte	0		K	
     	käsi	tte		S	adt
2	2	0		N	?
R 80	R80	0		Y	?
kop	kop	0		Y	?
70	70	0		N	?
kop	kop	0		Y	?
vakk	vakk	0		S	sg n
.	.			Z	
2	2	0		N	?
rubla	rubla	0		S	sg g
     	rubla	0		S	sg n
     	rubla	0		S	sg p
3	3	0		N	?
aastaja	####				
palgast	palk	st		S	sg el
ei	ei	0		D	
  	ei	0		V	neg
tea	tead	0		V	o
mina	mina	0		P	sg n
    	mina	0		S	sg g
    	mina	0		S	sg n
    	mina	0		S	sg p
midagi	miski	dagi		P	sg p
ütles	ütle	s		V	s
Viido	####				
ja	ja	0		J	
ei	ei	0		D	
  	ei	0		V	neg
ole	ole	0		V	o
ka	ka	0		D	
lepitud	leppi	tud		V	tud
       	lepi=tu	d		S	pl n
       	lepi=tud	0		A	
       	lepi=tud	0		A	sg n
       	lepi=tud	d		A	pl n
30	30	0		N	?
kubu	kubu	0		S	sg g
    	kubu	0		S	sg n
    	kubu	0		S	sg p
sai	saa	i		V	s
   	sai	0		S	sg n
Kristjani	Kristjan	0		H	sg g
linu	lina	u		S	pl p
minu	mina	0		P	sg g
kätte	kätte	0		K	
     	käsi	tte		S	adt
ja	ja	0		J	
neist	see	st		P	pl el
     	tema	st		P	pl el
sai	saa	i		V	s
   	sai	0		S	sg n
puhtid	####				
linu	lina	u		S	pl p
5	5	0		N	?
leisikat	leisikas	t		S	sg p
15	15	0		N	?
naela	nael	0		S	adt
     	nael	0		S	sg g
     	nael	0		S	sg p
hind	hind	0		S	sg n
oli	ole	i		V	s
3	3	0		N	?
rubla	rubla	0		S	sg g
     	rubla	0		S	sg n
     	rubla	0		S	sg p
leisikas	leisikas	0		S	sg n
        	leisikas	s		S	sg in
kokku	kokku	0		D	
     	kogu	0		S	adt
17	17	0		N	?
R 25	R25	0		Y	?
kop	kop	0		Y	?
kokku	kokku	0		D	
     	kogu	0		S	adt
20	20	0		N	?
rubla	rubla	0		S	sg g
     	rubla	0		S	sg n
     	rubla	0		S	sg p
5	5	0		N	?
kop	kop	0		Y	?
Kristjan	Kristjan	0		H	sg n
on	ole	0		V	b
  	ole	0		V	vad
Viido	####				
käest	käest	0		K	
     	käsi	st		S	sg el
võtnud	võt	nud		V	nud
      	võt=nu	d		S	pl n
      	võt=nud	0		A	
      	võt=nud	0		A	sg n
      	võt=nud	d		A	pl n
2	2	0		N	?
pinard	####				
lomad	####				
3	3	0		N	?
rubla	rubla	0		S	sg g
     	rubla	0		S	sg n
     	rubla	0		S	sg p
eest	eest	0		D	
    	eest	0		K	
    	esi	st		S	sg el
1	1	0		N	?
/	/			Z	
3	3	0		N	?
linna	linn	0		S	adt
     	linn	0		S	sg g
     	linn	0		S	sg p
seemend	####				
on	ole	0		V	b
  	ole	0		V	vad
Kristjan	Kristjan	0		H	sg n
Viido	####				
käest	käest	0		K	
     	käsi	st		S	sg el
võtnud	võt	nud		V	nud
      	võt=nu	d		S	pl n
      	võt=nud	0		A	
      	võt=nud	0		A	sg n
      	võt=nud	d		A	pl n
1867	1867	0		N	?
aast	####				
5	5	0		N	?
rubla	rubla	0		S	sg g
     	rubla	0		S	sg n
     	rubla	0		S	sg p
eest	eest	0		D	
    	eest	0		K	
    	esi	st		S	sg el
Kristjan	Kristjan	0		H	sg n
on	ole	0		V	b
  	ole	0		V	vad
Viido	####				
man	man	0		D	
   	man	0		K	
sulaseks	sulane	ks		S	sg tr
olnud	ol=nud	0		A	
     	ol=nud	0		A	sg n
     	ol=nud	d		A	pl n
     	ole	nud		V	nud
     	olnu	d		S	pl n
1867	1867	0		N	?
aasta	aasta	0		S	sg g
     	aasta	0		S	sg n
Jüripäevast	jüri_päev	st		S	sg el
sahari	####				
päevani	päev	ni		S	sg ter
4	4	0		N	?
Septembrini	september	ni		S	sg ter
siis	siis	0		D	
    	siis	0		J	
on	ole	0		V	b
  	ole	0		V	vad
Kristjan	Kristjan	0		H	sg n
haigeks	haige	ks		A	sg tr
       	haige	ks		S	sg tr
jäänud	jää	nud		V	nud
      	jäänu	d		S	pl n
      	jäänud	0		A	
      	jäänud	0		A	sg n
      	jäänud	d		A	pl n
ja	ja	0		J	
ära	ära	0		D	
   	ära	0		V	neg o
läinud	läinu	d		S	pl n
      	läinud	0		A	
      	läinud	0		A	sg n
      	läinud	d		A	pl n
      	mine	nud		V	nud
ja	ja	0		J	
kui	kui	0		D	
   	kui	0		J	
Kristjan	Kristjan	0		H	sg n
talve	talv	0		S	adt
     	talv	0		S	sg g
     	tali	0		S	adt
     	tali	0		S	sg g
     	talv	0		S	sg p
     	tali	0		S	sg p
on	ole	0		V	b
  	ole	0		V	vad
tervis	tervis	0		S	sg n
saanud	saa	nud		V	nud
      	saa=nud	0		A	
      	saa=nud	0		A	sg n
      	saa=nud	d		A	pl n
      	saanu	d		S	pl n
ei	ei	0		D	
  	ei	0		V	neg
ole	ole	0		V	o
tema	tema	0		P	sg g
    	tema	0		P	sg n
Viido	####				
kutsumise	kutsumine	0		S	sg g
peale	pea	le		S	sg all
     	peale	0		D	
     	peale	0		K	
enam	enam	0		C	sg n
    	enam	0		D	
tagasi	tagasi	0		D	
      	tagasi	0		K	
läinud	läinu	d		S	pl n
      	läinud	0		A	
      	läinud	0		A	sg n
      	läinud	d		A	pl n
      	mine	nud		V	nud
aasta	aasta	0		S	sg g
     	aasta	0		S	sg n
teenistusest	teenistus	st		S	sg el
on	ole	0		V	b
  	ole	0		V	vad
puudus	puudu	s		V	s
      	puudus	0		S	sg n
janud	janu	d		S	pl n
     	janu	d		V	d
7	7	0		N	?
kuud	kuu	d		S	pl n
    	kuu	d		S	sg p
.	.			Z	
Kristjani	Kristjan	0		H	sg g
kapsa	kapsa	0		V	o
     	kapsas	0		S	sg g
tördo	####				
olevat	ole	vat		V	vat
      	olev	t		A	sg p
      	olev	t		S	sg p
ka	ka	0		D	
Viido	####				
käesin	####				
10	10	0		N	?
vakka	vakk	0		S	adt
     	vakk	0		S	sg p
     	vakka	0		D	
kesvi	kesv	i		S	pl p
25	25	0		N	?
vakka	vakk	0		S	adt
     	vakk	0		S	sg p
     	vakka	0		D	
kartulid	kartul	d		S	pl n
on	ole	0		V	b
  	ole	0		V	vad
Kristjanil	Kristjan	l		H	sg ad
jäänud	jää	nud		V	nud
      	jäänu	d		S	pl n
      	jäänud	0		A	
      	jäänud	0		A	sg n
      	jäänud	d		A	pl n
.	.			Z	
kohus	kohu	s		V	s
     	kohus	0		S	sg n
mõistis	mõist	is		V	s
:	:			Z	
et	et	0		J	
sitta	sitt	0		A	adt
     	sitt	0		S	adt
     	sitta	0		V	o
     	sitt	0		A	sg p
     	sitt	0		S	sg p
eest	eest	0		D	
    	eest	0		K	
    	esi	st		S	sg el
ei	ei	0		D	
  	ei	0		V	neg
ole	ole	0		V	o
Kristjanil	Kristjan	l		H	sg ad
midagi	miski	dagi		P	sg p
nõudmist	nõudmine	t		S	sg p
mis	mis	0		P	pl n
   	mis	0		P	sg n
peremehe	pere_mees	0		S	sg g
põhust	põhk	st		S	sg el
      	põhune	t		A	sg p
tehtu	tehtu	0		S	sg g
     	tehtud	0		A	sg g
     	tehtu	0		S	sg n
on	ole	0		V	b
  	ole	0		V	vad
see	see	0		P	sg n
4	4	0		N	?
kormat	####				
jääs	jää	s		S	sg in
mis	mis	0		P	pl n
   	mis	0		P	sg n
temal	tema	l		P	sg ad
kätte	kätte	0		K	
     	käsi	tte		S	adt
on	ole	0		V	b
  	ole	0		V	vad
saanud	saa	nud		V	nud
      	saa=nud	0		A	
      	saa=nud	0		A	sg n
      	saa=nud	d		A	pl n
      	saanu	d		S	pl n
,	,			Z	
ja	ja	0		J	
linnad	linn	d		S	pl n
jäävad	jää	vad		V	vad
      	jääv	d		A	pl n
ka	ka	0		D	
peremehel	pere_mees	l		S	sg ad
Viido	####				
Punnissonil	####				
selle	see	0		P	sg g
     	sell	e		S	pl p
eest	eest	0		D	
    	eest	0		K	
    	esi	st		S	sg el
et	et	0		J	
Kristjan	Kristjan	0		H	sg n
Kiutsonil	####				
sulase	sulane	0		S	sg g
teenistust	teenistus	t		S	sg p
7	7	0		N	?
kuud	kuu	d		S	pl n
    	kuu	d		S	sg p
puudus	puudu	s		V	s
      	puudus	0		S	sg n
on	ole	0		V	b
  	ole	0		V	vad
jäänud	jää	nud		V	nud
      	jäänu	d		S	pl n
      	jäänud	0		A	
      	jäänud	0		A	sg n
      	jäänud	d		A	pl n
.	.			Z	
ja	ja	0		J	
Kristjan	Kristjan	0		H	sg n
peab	pida	b		V	b
Viidole	####				
veel	veel	0		D	
    	vesi	l		S	sg ad
tagasi	tagasi	0		D	
      	tagasi	0		K	
maksma	maks	ma		V	ma
pearahast	pea_raha	st		S	sg el
1	1	0		N	?
rubla	rubla	0		S	sg g
     	rubla	0		S	sg n
     	rubla	0		S	sg p
seda	see	da		P	sg p
raha	raha	0		S	sg g
    	raha	0		S	sg n
    	raha	0		S	sg p
mis	mis	0		P	pl n
   	mis	0		P	sg n
iga	iga	0		P	sg g
   	iga	0		P	sg n
   	iga	0		P	sg p
   	iga	0		S	sg n
   	iga	0		S	sg p
hingil	####				
kohtu	kohtu	0		V	o
     	kohus	0		S	sg g
maja	maja	0		S	sg g
    	maja	0		S	sg n
    	maja	0		S	sg p
eest	eest	0		D	
    	eest	0		K	
    	esi	st		S	sg el
maks	maks	0		S	sg n
oli	ole	i		V	s
.	.			Z	
ja	ja	0		J	
Viido	####				
peab	pida	b		V	b
Kristjanil	Kristjan	l		H	sg ad
tema	tema	0		P	sg g
    	tema	0		P	sg n
kapsa	kapsa	0		V	o
     	kapsas	0		S	sg g
tördo	####				
ära	ära	0		D	
   	ära	0		V	neg o
andma	and	ma		V	ma
10	10	0		N	?
vakka	vakk	0		S	adt
     	vakk	0		S	sg p
     	vakka	0		D	
kesvi	kesv	i		S	pl p
25	25	0		N	?
vakka	vakk	0		S	adt
     	vakk	0		S	sg p
     	vakka	0		D	
kartulid	kartul	d		S	pl n
jääs	jää	s		S	sg in
Kristjanil	Kristjan	l		H	sg ad
palga	palk	0		S	sg g
eest	eest	0		D	
    	eest	0		K	
    	esi	st		S	sg el
.	.			Z	
§	§	0		Y	?
773	773	0		N	?
on	ole	0		V	b
  	ole	0		V	vad
ette	ette	0		D	
    	ette	0		K	
    	esi	tte		S	adt
kuulutado	####				
pea	pea	0		D	
   	pea	0		S	sg g
   	pida	0		V	o
   	pea	0		S	sg n
kohtumees	kohtu_mees	0		S	sg n
Paap	####				
Kiudorv	kiud_orv	0		S	sg n
kohtumees	kohtu_mees	0		S	sg n
Kristjan	Kristjan	0		H	sg n
Võsoberg	####				
kohtumees	kohtu_mees	0		S	sg n
Jaan	Jaan	0		H	sg n
    	jaan	0		S	sg n
    	jaan	0		Y	?
Holsting	####				
kohtumees	kohtu_mees	0		S	sg n
Jakob	Jakob	0		H	sg n
Türkson	####				
kohtumees	kohtu_mees	0		S	sg n
Paap	####				
Kress	kress	0		S	sg n
29	29	0		N	?
välja	välja	0		D	
     	välja	0		V	o
     	väli	0		S	adt
     	väli	0		S	sg g
     	väli	0		S	sg p
antud	an=tu	d		S	pl n
     	and	tud		V	tud
     	antud	0		A	
     	antud	0		A	sg n
     	antud	d		A	pl n
No	no	0		I	
524	524	0		N	?
al	####				
