kui	kui	0		D	
   	kui	0		J	
2	2	0		N	?
Januaril	####				
Jakob	Jakob	0		H	sg n
Mellitu	melli=tu	0		S	sg g
       	melli=tu	0		S	sg n
kaebus	kaebus	0		S	sg n
ette	ette	0		D	
    	ette	0		K	
    	esi	tte		S	adt
oli	ole	i		V	s
loetud	loetu	d		S	pl n
      	loetud	0		A	
      	loetud	0		A	sg n
      	loetud	d		A	pl n
      	luge	tud		V	tud
tunnist	tund	st		S	sg el
       	tunnine	t		A	sg p
kohtumees	kohtu_mees	0		S	sg n
Paap	####				
Kress	kress	0		S	sg n
et	et	0		J	
1	1	0		N	?
R 50	R50	0		Y	?
kopka	####				
eest	eest	0		D	
    	eest	0		K	
    	esi	st		S	sg el
on	ole	0		V	b
  	ole	0		V	vad
see	see	0		P	sg n
Jakobi	Jakob	0		H	sg g
vili	vili	0		S	sg n
ära	ära	0		D	
   	ära	0		V	neg o
müüdud	müü	dud		V	tud
      	müü=du	d		S	pl n
      	müü=dud	0		A	
      	müü=dud	0		A	sg n
      	müü=dud	d		A	pl n
,	,			Z	
mis	mis	0		P	pl n
   	mis	0		P	sg n
7me	####				
talu	talu	0		S	sg g
    	talu	0		V	o
    	talu	0		S	sg n
    	talu	0		S	sg p
peale	pea	le		S	sg all
     	peale	0		D	
     	peale	0		K	
ära	ära	0		D	
   	ära	0		V	neg o
jaguda	jagu	da		V	da
.	.			Z	
kohus	kohu	s		V	s
     	kohus	0		S	sg n
mõistis	mõist	is		V	s
,	,			Z	
et	et	0		J	
1	1	0		N	?
rubla	rubla	0		S	sg g
     	rubla	0		S	sg n
     	rubla	0		S	sg p
30	30	0		N	?
kop	kop	0		Y	?
jääb	jää	b		V	b
teisel	teine	l		O	sg ad
      	teine	l		P	sg ad
peremeestel	pere_mees	tel		S	pl ad
,	,			Z	
ja	ja	0		J	
20	20	0		N	?
kop	kop	0		Y	?
peavad	pida	vad		V	vad
Jakobile	Jakob	le		H	sg all
maksma	maks	ma		V	ma
,	,			Z	
50	50	0		N	?
kop	kop	0		Y	?
maksab	maks	b		V	b
Hendrik	Hendrik	0		H	sg n
Võgevel	####				
ka	ka	0		D	
Jakobil	Jakob	l		H	sg ad
tagasi	tagasi	0		D	
      	tagasi	0		K	
.	.			Z	
