kolmandalt	kolmas	lt		O	sg abl
tuli	tuli	0		S	sg n
    	tule	i		V	s
ette	ette	0		D	
    	ette	0		K	
    	esi	tte		S	adt
Jaan	Jaan	0		H	sg n
    	jaan	0		S	sg n
    	jaan	0		Y	?
Loodus	loodu	s		S	sg in
      	loodud	s		A	sg in
      	loodus	0		S	sg n
Karaskust	karask_uks	t		S	sg p
ja	ja	0		J	
kaebas	kaeba	s		V	s
oma	oma	0		A	sg g
   	oma	0		D	
   	oma	0		P	sg g
   	oma	0		S	sg g
   	oma	0		V	o
   	oma	0		A	sg n
   	oma	0		A	sg p
   	oma	0		P	sg n
   	oma	0		P	sg p
   	oma	0		S	sg n
   	oma	0		S	sg p
poja	poeg	0		S	sg g
    	poja	0		S	sg g
    	poja	0		S	sg n
    	poja	0		S	sg p
Johann	Johann	0		H	sg n
Loodus	loodu	s		S	sg in
      	loodud	s		A	sg in
      	loodus	0		S	sg n
asemel	ase	l		S	sg ad
      	asemel	0		K	
,	,			Z	
et	et	0		J	
olevat	ole	vat		V	vat
      	olev	t		A	sg p
      	olev	t		S	sg p
rätsep	rätsep	0		S	sg n
Johann	Johann	0		H	sg n
Häme	Häme	0		H	sg g
    	Häme	0		H	sg n
    	häme	0		G	
´	’			Z	
lega	####				
lepitud	leppi	tud		V	tud
       	lepi=tu	d		S	pl n
       	lepi=tud	0		A	
       	lepi=tud	0		A	sg n
       	lepi=tud	d		A	pl n
olnud	ol=nud	0		A	
     	ol=nud	0		A	sg n
     	ol=nud	d		A	pl n
     	ole	nud		V	nud
     	olnu	d		S	pl n
,	,			Z	
et	et	0		J	
pidi	pida	i		V	s
    	pidi	0		K	
minu	mina	0		P	sg g
poega	poeg	0		S	adt
     	pood	ga		S	sg kom
     	poeg	0		S	sg p
ausal	aus	l		A	sg ad
viisil	viis	l		S	sg ad
      	viisil	0		K	
rätsepa	rätsep	0		S	sg g
tööle	töö	le		S	sg all
opama	####				
lõikamist	lõikamine	t		S	sg p
kõik	kõik	0		P	pl n
    	kõik	0		S	sg n
    	kõik	0		P	sg n
sugust	sugune	t		A	sg p
mis	mis	0		P	pl n
   	mis	0		P	sg n
aga	aga	0		J	
ette	ette	0		D	
    	ette	0		K	
    	esi	tte		S	adt
tuleb	tule	b		V	b
,	,			Z	
ent	ent	0		J	
nüüd	nüüd	0		D	
on	ole	0		V	b
  	ole	0		V	vad
aeg	aeg	0		S	sg n
pea	pea	0		D	
   	pea	0		S	sg g
   	pida	0		V	o
   	pea	0		S	sg n
otsas	ots	s		S	sg in
     	otsa	s		V	s
     	otsas	0		D	
     	otsas	0		K	
ja	ja	0		J	
on	ole	0		V	b
  	ole	0		V	vad
tema	tema	0		P	sg g
    	tema	0		P	sg n
teda	tema	da		P	sg p
orjanud	orja	nud		V	nud
       	orja=nu	d		S	pl n
       	orja=nud	0		A	
       	orja=nud	0		A	sg n
       	orja=nud	d		A	pl n
ja	ja	0		J	
lõikamist	lõikamine	t		S	sg p
ei	ei	0		D	
  	ei	0		V	neg
laskvat	lask	vat		V	vat
       	laskev	t		A	sg p
sukkugi	####				
kõrvalt	kõrv	lt		S	sg abl
       	kõrvalt	0		D	
       	kõrvalt	0		K	
ei	ei	0		D	
  	ei	0		V	neg
ka	ka	0		D	
muido	####				
õppida	õppi	da		V	da
,	,			Z	
mis	mis	0		P	pl n
   	mis	0		P	sg n
rätsep	rätsep	0		S	sg n
tollest	too	st		P	sg el
saab	saa	b		V	b
kes	kes	0		P	pl n
   	kes	0		P	sg n
ennegi	ennegi	0		D	
ommelda	####				
oskab	oska	b		V	b
lõikamist	lõikamine	t		S	sg p
peab	pida	b		V	b
teisel	teine	l		O	sg ad
      	teine	l		P	sg ad
teha	tege	a		V	da
laskma	lask	ma		V	ma
,	,			Z	
ning	ning	0		J	
kui	kui	0		D	
   	kui	0		J	
see	see	0		P	sg n
niidi	niit	0		S	sg g
     	niiti	0		V	o
on	ole	0		V	b
  	ole	0		V	vad
et	et	0		J	
lõikamist	lõikamine	t		S	sg p
temale	tema	le		P	sg all
ei	ei	0		D	
  	ei	0		V	neg
oppa	####				
et	et	0		J	
täieste	####				
selges	selge	s		A	sg in
saab	saa	b		V	b
,	,			Z	
siis	siis	0		D	
    	siis	0		J	
jägu	####				
või	või	0		S	sg g
   	või	0		V	o
   	või	0		D	
   	või	0		J	
   	või	0		S	sg n
aeg	aeg	0		S	sg n
mis	mis	0		P	pl n
   	mis	0		P	sg n
veel	veel	0		D	
    	vesi	l		S	sg ad
olla	ole	a		V	da
on	ole	0		V	b
  	ole	0		V	vad
olemata	ole	mata		V	mata
       	ole=mata	0		A	
,	,			Z	
ning	ning	0		J	
kaup	kaup	0		S	sg n
siis	siis	0		D	
    	siis	0		J	
katki	katki	0		D	
olgu	ole	gu		V	gu
,	,			Z	
et	et	0		J	
kumb	kumb	0		P	sg n
kum	####				
(	(			Z	
m	m	0		Y	?
)	)			Z	
lagi	lagi	0		S	sg n
teine	teine	0		O	sg n
     	teine	0		P	sg n
teise	teine	0		O	adt
     	teine	0		O	sg g
     	teine	0		P	adt
     	teine	0		P	sg g
käest	käest	0		K	
     	käsi	st		S	sg el
noudmist	####				
ei	ei	0		D	
  	ei	0		V	neg
ole	ole	0		V	o
.	.			Z	
_	_			Z	
sai	saa	i		V	s
   	sai	0		S	sg n
ette	ette	0		D	
    	ette	0		K	
    	esi	tte		S	adt
kutsudatud	####				
rätsep	rätsep	0		S	sg n
meister	meister	0		S	sg n
Johann	Johann	0		H	sg n
Häleme	####				
ja	ja	0		J	
sai	saa	i		V	s
   	sai	0		S	sg n
ülevane	####				
Jaan	Jaan	0		H	sg n
    	jaan	0		S	sg n
    	jaan	0		Y	?
Loodus	loodu	s		S	sg in
      	loodud	s		A	sg in
      	loodus	0		S	sg n
kaebus	kaebus	0		S	sg n
ette	ette	0		D	
    	ette	0		K	
    	esi	tte		S	adt
loetud	loetu	d		S	pl n
      	loetud	0		A	
      	loetud	0		A	sg n
      	loetud	d		A	pl n
      	luge	tud		V	tud
kes	kes	0		P	pl n
   	kes	0		P	sg n
selle	see	0		P	sg g
     	sell	e		S	pl p
peale	pea	le		S	sg all
     	peale	0		D	
     	peale	0		K	
ütles	ütle	s		V	s
.	.			Z	
see	see	0		P	sg n
on	ole	0		V	b
  	ole	0		V	vad
puhas	puhas	0		A	sg n
võlsmine	####				
,	,			Z	
min	min	0		Y	?
(	(			Z	
n	n	0		Y	?
)	)			Z	
a	a	0		Y	?
võin	või	n		V	n
tunnistagit	####				
ette	ette	0		D	
    	ette	0		K	
    	esi	tte		S	adt
tuua	too	a		V	da
või	või	0		S	sg g
   	või	0		V	o
   	või	0		D	
   	või	0		J	
   	või	0		S	sg n
mitto	####				
et	et	0		J	
on	ole	0		V	b
  	ole	0		V	vad
minu	mina	0		P	sg g
asemel	ase	l		S	sg ad
      	asemel	0		K	
mitmel	mitu	l		P	sg ad
peremehel	pere_mees	l		S	sg ad
ise	ise	0		A	
   	ise	0		D	
   	ise	0		P	pl n
   	ise	0		P	sg n
lõiganud	lõika	nud		V	nud
        	lõiga=nu	d		S	pl n
        	lõiga=nud	0		A	
        	lõiga=nud	0		A	sg n
        	lõiga=nud	d		A	pl n
ja	ja	0		J	
ommelnud	####				
,	,			Z	
kes	kes	0		P	pl n
   	kes	0		P	sg n
teda	tema	da		P	sg p
lõikamise	lõikamine	0		S	sg g
opimist	####				
on	ole	0		V	b
  	ole	0		V	vad
keelanud	keela	nud		V	nud
        	keela=nu	d		S	pl n
        	keela=nud	0		A	
        	keela=nud	0		A	sg n
        	keela=nud	d		A	pl n
,	,			Z	
ise	ise	0		A	
   	ise	0		D	
   	ise	0		P	pl n
   	ise	0		P	sg n
joosep	####				
kõik	kõik	0		P	pl n
    	kõik	0		S	sg n
    	kõik	0		P	sg n
ööd	öö	d		S	pl n
   	öö	d		S	sg p
ümber	ümber	0		D	
     	ümber	0		K	
et	et	0		J	
üks	üks	0		N	sg n
   	üks	0		P	sg n
ainus	ainu	s		S	sg in
     	ainus	0		A	sg n
     	ainus	0		S	sg n
öö	öö	0		S	sg g
  	öö	0		S	sg n
hulkummada	####				
ei	ei	0		D	
  	ei	0		V	neg
ja	ja	0		J	
ning	ning	0		J	
päeva	päev	0		S	adt
     	päev	0		S	sg g
     	päev	0		S	sg p
oma	oma	0		A	sg g
   	oma	0		D	
   	oma	0		P	sg g
   	oma	0		S	sg g
   	oma	0		V	o
   	oma	0		A	sg n
   	oma	0		A	sg p
   	oma	0		P	sg n
   	oma	0		P	sg p
   	oma	0		S	sg n
   	oma	0		S	sg p
silma	silm	0		S	adt
     	silm	0		S	sg g
     	silma	0		V	o
     	silm	0		S	sg p
kinni	kinni	0		D	
.	.			Z	
_	_			Z	
otsus	otsus	0		S	sg n
kohus	kohu	s		V	s
     	kohus	0		S	sg n
mõistis	mõist	is		V	s
et	et	0		J	
on	ole	0		V	b
  	ole	0		V	vad
perramänne	####				
aeg	aeg	0		S	sg n
käes	käes	0		K	
    	käsi	s		S	sg in
,	,			Z	
ja	ja	0		J	
peab	pida	b		V	b
rätsep	rätsep	0		S	sg n
oma	oma	0		A	sg g
   	oma	0		D	
   	oma	0		P	sg g
   	oma	0		S	sg g
   	oma	0		V	o
   	oma	0		A	sg n
   	oma	0		A	sg p
   	oma	0		P	sg n
   	oma	0		P	sg p
   	oma	0		S	sg n
   	oma	0		S	sg p
poisi	poiss	0		S	sg g
Johann	Johann	0		H	sg n
Loodus	loodu	s		S	sg in
      	loodud	s		A	sg in
      	loodus	0		S	sg n
´	’			Z	
sel	see	l		P	sg ad
   	sel	0		Y	?
laskma	lask	ma		V	ma
lõigata	lõika	ta		V	da
       	lõika	ta		V	ta
mis	mis	0		P	pl n
   	mis	0		P	sg n
ennegi	ennegi	0		D	
ette	ette	0		D	
    	ette	0		K	
    	esi	tte		S	adt
tuleb	tule	b		V	b
,	,			Z	
ja	ja	0		J	
kui	kui	0		D	
   	kui	0		J	
peak	####				
pois	poi	s		S	sg in
tahtma	taht	ma		V	ma
essida	ess_ida	0		S	sg g
      	ess_ida	0		S	sg n
      	ess_ida	0		S	sg p
siis	siis	0		D	
    	siis	0		J	
peab	pida	b		V	b
näutama	näugu	tama		V	tama
et	et	0		J	
ei	ei	0		D	
  	ei	0		V	neg
mitte	mitte	0		D	
nõnda	nõnda	0		D	
tee	tee	0		S	sg g
   	tege	0		V	o
   	tee	0		S	sg n
sedaviiesi	####				
ja	ja	0		J	
õigele	õige	le		A	sg all
teel	tee	l		S	sg ad
    	teel	0		K	
juhatama	juhata	ma		V	ma
,	,			Z	
ning	ning	0		J	
pois	poi	s		S	sg in
peab	pida	b		V	b
sõna	sõna	0		S	sg g
    	sõna	0		V	o
    	sõna	0		S	sg n
    	sõna	0		S	sg p
kuuldma	####				
ja	ja	0		J	
ise	ise	0		A	
   	ise	0		D	
   	ise	0		P	pl n
   	ise	0		P	sg n
ka	ka	0		D	
ilusaste	ilus_aste	0		S	sg g
        	ilus_aste	0		S	sg n
lõikamist	lõikamine	t		S	sg p
opma	####				
,	,			Z	
ja	ja	0		J	
aeg	aeg	0		S	sg n
teus	####				
olema	ole	ma		V	ma
peab	pida	b		V	b
,	,			Z	
ning	ning	0		J	
ei	ei	0		D	
  	ei	0		V	neg
tohi	tohti	0		V	o
ööse	öös	e		S	pl p
ümber	ümber	0		D	
     	ümber	0		K	
hulkuota	####				
tolle	toll	e		S	pl p
     	too	0		P	sg g
eest	eest	0		D	
    	eest	0		K	
    	esi	st		S	sg el
peab	pida	b		V	b
meister	meister	0		S	sg n
valvama	valva	ma		V	ma
.	.			Z	
_	_			Z	
sai	saa	i		V	s
   	sai	0		S	sg n
kohtu	kohtu	0		V	o
     	kohus	0		S	sg g
otsus	otsus	0		S	sg n
ja	ja	0		J	
§	§	0		Y	?
772	772	0		N	?
_	_			Z	
773	773	0		N	?
kohtus	kohtu	s		V	s
      	kohus	s		S	sg in
käiatele	####				
ette	ette	0		D	
    	ette	0		K	
    	esi	tte		S	adt
loetud	loetu	d		S	pl n
      	loetud	0		A	
      	loetud	0		A	sg n
      	loetud	d		A	pl n
      	luge	tud		V	tud
ning	ning	0		J	
läksid	mine	sid		V	sid
rahus	rahu	s		S	sg in
välja	välja	0		D	
     	välja	0		V	o
     	väli	0		S	adt
     	väli	0		S	sg g
     	väli	0		S	sg p
.	.			Z	
_	_			Z	
Karraske	####				
kohtumajas	kohtu_maja	s		S	sg in
sel	see	l		P	sg ad
   	sel	0		Y	?
6	6	0		N	?
oktoobril	oktoober	l		S	sg ad
1878.	1878.	0		O	?
peakohtumees	pea_kohtu_mees	0		S	sg n
Jaan	Jaan	0		H	sg n
    	jaan	0		S	sg n
    	jaan	0		Y	?
tulus	tulu	s		S	sg in
     	tulus	0		A	sg n
XXX	XXX	0		O	?
   	XXX	0		Y	?
kohtumees	kohtu_mees	0		S	sg n
Jakob	Jakob	0		H	sg n
Uibo	Uibo	0		H	sg g
    	Uibo	0		H	sg n
XXX	XXX	0		O	?
   	XXX	0		Y	?
teine	teine	0		O	sg n
     	teine	0		P	sg n
do	####				
Jaan	Jaan	0		H	sg n
    	jaan	0		S	sg n
    	jaan	0		Y	?
Lepason	####				
XXX	XXX	0		O	?
   	XXX	0		Y	?
