Peedo	####				
häbekid	####				
kaebas	kaeba	s		V	s
kohtu	kohtu	0		V	o
     	kohus	0		S	sg g
ees	ees	0		D	
   	ees	0		K	
   	esi	s		S	sg in
,	,			Z	
et	et	0		J	
temal	tema	l		P	sg ad
on	ole	0		V	b
  	ole	0		V	vad
3	3	0		N	?
R 75	R75	0		Y	?
kop	kop	0		Y	?
1872	1872	0		N	?
aastal	aasta	l		S	sg ad
kirriko	####				
mõisa	mõis	0		S	sg g
katuse	katus	0		S	sg g
parantamise	####				
eest	eest	0		D	
    	eest	0		K	
    	esi	st		S	sg el
maksmattajäänud	####				
,	,			Z	
mis	mis	0		P	pl n
   	mis	0		P	sg n
sel	see	l		P	sg ad
   	sel	0		Y	?
korral	kord	l		S	sg ad
      	korral	0		D	
      	korral	0		K	
antud	an=tu	d		S	pl n
     	and	tud		V	tud
     	antud	0		A	
     	antud	0		A	sg n
     	antud	d		A	pl n
Oppetaja	####				
Herra	####				
tähe	täht	0		S	sg g
perrä	####				
näha	näge	a		V	da
on	ole	0		V	b
  	ole	0		V	vad
.	.			Z	
vana	vana	0		A	sg g
    	vana	0		A	sg n
    	vana	0		A	sg p
    	vana	0		S	sg g
    	vana	0		S	sg n
    	vana	0		S	sg p
valla	vald	0		S	sg g
     	valla	0		D	
vanem	vanem	0		C	sg n
     	vanem	0		S	sg n
Peeter	Peeter	0		H	sg n
Jagomann	####				
ütles	ütle	s		V	s
,	,			Z	
et	et	0		J	
tema	tema	0		P	sg g
    	tema	0		P	sg n
on	ole	0		V	b
  	ole	0		V	vad
luba	luba	0		S	sg n
    	luba	0		V	o
    	luba	0		S	sg p
andnud	and	nud		V	nud
      	and=nu	d		S	pl n
      	and=nud	0		A	
      	and=nud	0		A	sg n
      	and=nud	d		A	pl n
sel	see	l		P	sg ad
   	sel	0		Y	?
korral	kord	l		S	sg ad
      	korral	0		D	
      	korral	0		K	
Vöölmündril	####				
kaupa	kaup	0		S	adt
     	kaup	0		S	sg p
     	kaupa	0		K	
teha	tege	a		V	da
raha	raha	0		S	sg g
    	raha	0		S	sg n
    	raha	0		S	sg p
peale	pea	le		S	sg all
     	peale	0		D	
     	peale	0		K	
.	.			Z	
kauba	kaup	0		S	sg g
tegija	tegija	0		S	sg g
      	tegija	0		S	sg n
vöölmünder	####				
on	ole	0		V	b
  	ole	0		V	vad
nüüd	nüüd	0		D	
kulu	kulg	0		S	sg g
    	kulu	0		S	sg g
    	kulu	0		V	o
    	kulu	0		S	sg n
    	kulu	0		S	sg p
.	.			Z	
Peeter	Peeter	0		H	sg n
Jagomann	####				
ütles	ütle	s		V	s
kihelkonna	kihelkond	0		S	sg g
kohtust	kohtune	t		A	sg p
       	kohus	st		S	sg el
on	ole	0		V	b
  	ole	0		V	vad
ütledo	####				
et	et	0		J	
nüüdne	nüüdne	0		A	sg n
valla	vald	0		S	sg g
     	valla	0		D	
vanem	vanem	0		C	sg n
     	vanem	0		S	sg n
peab	pida	b		V	b
ka	ka	0		D	
see	see	0		P	sg n
3	3	0		N	?
R 75	R75	0		Y	?
kop	kop	0		Y	?
ära	ära	0		D	
   	ära	0		V	neg o
maksma	maks	ma		V	ma
.	.			Z	
Peep	Peep	0		H	sg n
Kiudorv	kiud_orv	0		S	sg n
valla	vald	0		S	sg g
     	valla	0		D	
vanem	vanem	0		C	sg n
     	vanem	0		S	sg n
ütles	ütle	s		V	s
,	,			Z	
et	et	0		J	
tema	tema	0		P	sg g
    	tema	0		P	sg n
ei	ei	0		D	
  	ei	0		V	neg
ole	ole	0		V	o
leppinud	leppi	nud		V	nud
        	leppi=nu	d		S	pl n
        	leppi=nud	0		A	
        	leppi=nud	0		A	sg n
        	leppi=nud	d		A	pl n
ja	ja	0		J	
ei	ei	0		D	
  	ei	0		V	neg
ole	ole	0		V	o
ka	ka	0		D	
keäkke	####				
tööd	töö	d		S	pl n
    	töö	d		S	sg p
näitnud	####				
.	.			Z	
Peedo	####				
häbekid	####				
ütles	ütle	s		V	s
et	et	0		J	
tema	tema	0		P	sg g
    	tema	0		P	sg n
kõik	kõik	0		P	pl n
    	kõik	0		S	sg n
    	kõik	0		P	sg n
kirriko	####				
mõisa	mõis	0		S	sg g
katused	katus	d		S	pl n
läbi	läbi	0		D	
    	läbi	0		K	
    	läbi	0		V	o
on	ole	0		V	b
  	ole	0		V	vad
parandanud	paranda	nud		V	nud
          	paranda=nu	d		S	pl n
          	paranda=nud	0		A	
          	paranda=nud	0		A	sg n
          	paranda=nud	d		A	pl n
.	.			Z	
üle	üle	0		D	
   	üle	0		K	
kõige	kõik	0		P	sg g
     	kõige	0		D	
on	ole	0		V	b
  	ole	0		V	vad
7	7	0		N	?
R 50	R50	0		Y	?
kop	kop	0		Y	?
hind	hind	0		S	sg n
tulnud	tul=nud	0		A	
      	tul=nud	0		A	sg n
      	tul=nud	d		A	pl n
      	tule	nud		V	nud
      	tulnu	d		S	pl n
,	,			Z	
3	3	0		N	?
rubla	rubla	0		S	sg g
     	rubla	0		S	sg n
     	rubla	0		S	sg p
75	75	0		N	?
kop	kop	0		Y	?
on	ole	0		V	b
  	ole	0		V	vad
Räpina	Räpina	0		H	sg g
      	räpp	na		S	sg es
      	Räpina	0		H	sg n
valla	vald	0		S	sg g
     	valla	0		D	
vanem	vanem	0		C	sg n
     	vanem	0		S	sg n
ära	ära	0		D	
   	ära	0		V	neg o
maksnud	maks	nud		V	nud
       	maks=nu	d		S	pl n
       	maks=nud	0		A	
       	maks=nud	0		A	sg n
       	maks=nud	d		A	pl n
.	.			Z	
kohus	kohu	s		V	s
     	kohus	0		S	sg n
mõistis	mõist	is		V	s
,	,			Z	
et	et	0		J	
Räpina	Räpina	0		H	sg g
      	räpp	na		S	sg es
      	Räpina	0		H	sg n
valla	vald	0		S	sg g
     	valla	0		D	
poolest	pool	st		N	sg el
       	pool	st		S	sg el
       	poolene	t		A	sg p
       	poolest	0		K	
1	1	0		N	?
/	/			Z	
2	2	0		N	?
raha	raha	0		S	sg g
    	raha	0		S	sg n
    	raha	0		S	sg p
3	3	0		N	?
R 75	R75	0		Y	?
kop	kop	0		Y	?
on	ole	0		V	b
  	ole	0		V	vad
ära	ära	0		D	
   	ära	0		V	neg o
makstud	maks	tud		V	tud
       	maks=tu	d		S	pl n
       	maks=tud	0		A	
       	maks=tud	0		A	sg n
       	maks=tud	d		A	pl n
,	,			Z	
ja	ja	0		J	
see	see	0		P	sg n
teine	teine	0		O	sg n
     	teine	0		P	sg n
1	1	0		N	?
/	/			Z	
2	2	0		N	?
raha	raha	0		S	sg g
    	raha	0		S	sg n
    	raha	0		S	sg p
3	3	0		N	?
R 75	R75	0		Y	?
kop	kop	0		Y	?
nõudku	nõud	ku		V	gu
Peedo	####				
muidu	muidu	0		D	
valda	vald	0		S	adt
     	valda	0		V	o
     	vald	0		S	sg p
käest	käest	0		K	
     	käsi	st		S	sg el
.	.			Z	
§	§	0		Y	?
773	773	0		N	?
on	ole	0		V	b
  	ole	0		V	vad
ette	ette	0		D	
    	ette	0		K	
    	esi	tte		S	adt
kuulutado	####				
.	.			Z	
