pooleli	pooleli	0		D	
jäänut	jäänu	t		S	sg p
      	jäänud	t		A	sg p
asjus	asi	us		S	pl in
sest	see	st		P	sg el
    	sest	0		J	
29	29	0		N	?
jaanuarist	jaanuar	st		S	sg el
s	s	0		Y	?
.	.			Z	
a.	a	0		Y	?
nii	nii	0		D	
kui	kui	0		D	
   	kui	0		J	
Protokoll	protokoll	0		S	sg n
No	no	0		I	
39	39	0		N	?
tunnistab	tunnista	b		V	b
,	,			Z	
lisas	lisa	s		S	sg in
     	lisa	s		V	s
Grünberg	####				
veel	veel	0		D	
    	vesi	l		S	sg ad
juure	juur	0		S	sg g
et	et	0		J	
tema	tema	0		P	sg g
    	tema	0		P	sg n
veel	veel	0		D	
    	vesi	l		S	sg ad
täna	täna	0		D	
    	täna	0		V	o
päevani	päev	ni		S	sg ter
oma	oma	0		A	sg g
   	oma	0		D	
   	oma	0		P	sg g
   	oma	0		S	sg g
   	oma	0		V	o
   	oma	0		A	sg n
   	oma	0		A	sg p
   	oma	0		P	sg n
   	oma	0		P	sg p
   	oma	0		S	sg n
   	oma	0		S	sg p
raha	raha	0		S	sg g
    	raha	0		S	sg n
    	raha	0		S	sg p
kätte	kätte	0		K	
     	käsi	tte		S	adt
saanud	saa	nud		V	nud
      	saa=nud	0		A	
      	saa=nud	0		A	sg n
      	saa=nud	d		A	pl n
      	saanu	d		S	pl n
ei	ei	0		D	
  	ei	0		V	neg
ole	ole	0		V	o
,	,			Z	
ning	ning	0		J	
Jaan	Jaan	0		H	sg n
    	jaan	0		S	sg n
    	jaan	0		Y	?
Lavi	####				
varandus	varandus	0		S	sg n
Ouksioni	####				
viisi	viis	0		S	adt
     	viis	0		S	sg g
     	viis	i		N	pl p
     	viisi	0		K	
     	viis	0		S	sg p
on	ole	0		V	b
  	ole	0		V	vad
äära	####				
müüdut	müü=du	t		S	sg p
,	,			Z	
ja	ja	0		J	
nüüd	nüüd	0		D	
tema	tema	0		P	sg g
    	tema	0		P	sg n
Jaan	Jaan	0		H	sg n
    	jaan	0		S	sg n
    	jaan	0		Y	?
Lavi	####				
võlglaisi	####				
endit	####				
üles	üles	0		D	
andvat	and	vat		V	vat
      	andev	t		A	sg p
,	,			Z	
kel	kes	l		P	sg ad
ühtegi	ühte	0	gi	D	
      	üks	0	gi	N	adt
      	üks	0	gi	P	adt
      	ühe	0	gi	S	sg g
      	üks	0	gi	N	sg p
      	üks	0	gi	P	sg p
võla	võlg	0		S	sg g
tahte	taht	e		S	pl p
     	tahe	0		S	sg g
ei	ei	0		D	
  	ei	0		V	neg
ka	ka	0		D	
tunnistust	tunnistus	t		S	sg p
ette	ette	0		D	
    	ette	0		K	
    	esi	tte		S	adt
näidata	näita	ta		V	da
       	näita	ta		V	ta
ei	ei	0		D	
  	ei	0		V	neg
ole	ole	0		V	o
,	,			Z	
ning	ning	0		J	
mina	mina	0		P	sg n
    	mina	0		S	sg g
    	mina	0		S	sg n
    	mina	0		S	sg p
temal	tema	l		P	sg ad
nimelt	nimelt	0		D	
      	nimi	lt		S	sg abl
rendi	rent	0		S	sg g
     	renti	0		V	o
maksmise	maksmine	0		S	sg g
tarvis	tarvis	0		D	
      	tarvis	0		K	
ooles	####				
andnud	and	nud		V	nud
      	and=nu	d		S	pl n
      	and=nud	0		A	
      	and=nud	0		A	sg n
      	and=nud	d		A	pl n
,	,			Z	
kelle	kes	0		P	pl g
     	kes	0		P	sg g
peale	pea	le		S	sg all
     	peale	0		D	
     	peale	0		K	
mina	mina	0		P	sg n
    	mina	0		S	sg g
    	mina	0		S	sg n
    	mina	0		S	sg p
julge	julge	0		A	sg g
     	julge	0		V	o
     	julge	0		A	sg n
olin	ole	in		V	sin
et	et	0		J	
rent	rent	0		S	sg n
ees	ees	0		D	
   	ees	0		K	
   	esi	s		S	sg in
muid	muu	id		P	pl p
võlglaisi	####				
käib	käi	b		V	b
.	.			Z	
andis	and	is		V	s
tunnistajaks	tunnistaja	ks		S	sg tr
valla	vald	0		S	sg g
     	valla	0		D	
Vöörmunder	vöör_munder	0		S	sg n
Jaan	Jaan	0		H	sg n
    	jaan	0		S	sg n
    	jaan	0		Y	?
Lepäson	####				
ning	ning	0		J	
Jaan	Jaan	0		H	sg n
    	jaan	0		S	sg n
    	jaan	0		Y	?
Võsu	Võsu	0		H	sg g
    	võsu	0		G	
    	võsu	0		S	sg g
    	võsu	0		V	o
    	Võsu	0		H	sg n
    	võsu	0		S	sg n
    	võsu	0		S	sg p
Karaskust	karask_uks	t		S	sg p
.	.			Z	
sai	saa	i		V	s
   	sai	0		S	sg n
ette	ette	0		D	
    	ette	0		K	
    	esi	tte		S	adt
kutsudatud	####				
Jaan	Jaan	0		H	sg n
    	jaan	0		S	sg n
    	jaan	0		Y	?
Lepason	####				
kes	kes	0		P	pl n
   	kes	0		P	sg n
ütles	ütle	s		V	s
et	et	0		J	
Jaan	Jaan	0		H	sg n
    	jaan	0		S	sg n
    	jaan	0		Y	?
Lavi	####				
R	R	0		Y	?
Grunberg	####				
käest	käest	0		K	
     	käsi	st		S	sg el
rendi	rent	0		S	sg g
     	renti	0		V	o
maksmise	maksmine	0		S	sg g
tarvis	tarvis	0		D	
      	tarvis	0		K	
raha	raha	0		S	sg g
    	raha	0		S	sg n
    	raha	0		S	sg p
on	ole	0		V	b
  	ole	0		V	vad
laenanud	laena	nud		V	nud
        	laena=nu	d		S	pl n
        	laena=nud	0		A	
        	laena=nud	0		A	sg n
        	laena=nud	d		A	pl n
sai	saa	i		V	s
   	sai	0		S	sg n
ette	ette	0		D	
    	ette	0		K	
    	esi	tte		S	adt
kutsudatud	####				
Jaan	Jaan	0		H	sg n
    	jaan	0		S	sg n
    	jaan	0		Y	?
Võsu	Võsu	0		H	sg g
    	võsu	0		G	
    	võsu	0		S	sg g
    	võsu	0		V	o
    	Võsu	0		H	sg n
    	võsu	0		S	sg n
    	võsu	0		S	sg p
,	,			Z	
kes	kes	0		P	pl n
   	kes	0		P	sg n
välja	välja	0		D	
     	välja	0		V	o
     	väli	0		S	adt
     	väli	0		S	sg g
     	väli	0		S	sg p
ütles	ütle	s		V	s
,	,			Z	
et	et	0		J	
R. Grünberg	####				
ja	ja	0		J	
tema	tema	0		P	sg g
    	tema	0		P	sg n
isa	isa	0		S	sg g
   	isa	0		S	sg n
   	isa	0		S	sg p
Tanel	Tanel	0		H	sg n
Võsu	Võsu	0		H	sg g
    	võsu	0		G	
    	võsu	0		S	sg g
    	võsu	0		V	o
    	Võsu	0		H	sg n
    	võsu	0		S	sg n
    	võsu	0		S	sg p
,	,			Z	
Jaan	Jaan	0		H	sg n
    	jaan	0		S	sg n
    	jaan	0		Y	?
läve	lävi	0		S	sg g
    	lävi	0		S	sg p
eest	eest	0		D	
    	eest	0		K	
    	esi	st		S	sg el
perrajatse	####				
rendi	rent	0		S	sg g
     	renti	0		V	o
maksu	maks	0		S	adt
     	maks	0		S	sg g
     	maks	u		S	pl p
     	maks	0		S	sg p
tarvis	tarvis	0		D	
      	tarvis	0		K	
omad	oma	d		A	pl n
    	oma	d		P	pl n
    	oma	d		S	pl n
    	oma	d		V	d
raha	raha	0		S	sg g
    	raha	0		S	sg n
    	raha	0		S	sg p
andnud	and	nud		V	nud
      	and=nu	d		S	pl n
      	and=nud	0		A	
      	and=nud	0		A	sg n
      	and=nud	d		A	pl n
.	.			Z	
otsus	otsus	0		S	sg n
kohus	kohu	s		V	s
     	kohus	0		S	sg n
mõistis	mõist	is		V	s
R	R	0		Y	?
Grünberg	####				
kaebust	kaebus	t		S	sg p
tühjaks	tühi	ks		A	sg tr
selle	see	0		P	sg g
     	sell	e		S	pl p
pärast	pära	st		S	sg el
      	pärane	t		A	sg p
      	pärast	0		D	
      	pärast	0		K	
et	et	0		J	
tema	tema	0		P	sg g
    	tema	0		P	sg n
mitte	mitte	0		D	
ise	ise	0		A	
   	ise	0		D	
   	ise	0		P	pl n
   	ise	0		P	sg n
tood	too	d		V	d
Jaan	Jaan	0		H	sg n
    	jaan	0		S	sg n
    	jaan	0		Y	?
läve	lävi	0		S	sg g
    	lävi	0		S	sg p
renti	rent	0		S	adt
     	rent	0		S	sg p
Kokkeri	####				
maja	maja	0		S	sg g
    	maja	0		S	sg n
    	maja	0		S	sg p
eest	eest	0		D	
    	eest	0		K	
    	esi	st		S	sg el
omanik	omanik	0		S	sg n
Jakob	Jakob	0		H	sg n
Uibo	Uibo	0		H	sg g
    	Uibo	0		H	sg n
kätte	kätte	0		K	
     	käsi	tte		S	adt
ei	ei	0		D	
  	ei	0		V	neg
ole	ole	0		V	o
maksnud	maks	nud		V	nud
       	maks=nu	d		S	pl n
       	maks=nud	0		A	
       	maks=nud	0		A	sg n
       	maks=nud	d		A	pl n
,	,			Z	
ega	ega	0		D	
   	ega	0		J	
Jaan	Jaan	0		H	sg n
    	jaan	0		S	sg n
    	jaan	0		Y	?
Lavel	####				
rendi	rent	0		S	sg g
     	renti	0		V	o
maksmise	maksmine	0		S	sg g
tarvis	tarvis	0		D	
      	tarvis	0		K	
laenanud	laena	nud		V	nud
        	laena=nu	d		S	pl n
        	laena=nud	0		A	
        	laena=nud	0		A	sg n
        	laena=nud	d		A	pl n
.	.			Z	
_	_			Z	
sai	saa	i		V	s
   	sai	0		S	sg n
kohtu	kohtu	0		V	o
     	kohus	0		S	sg g
mõistmine	mõistmine	0		S	sg n
ja	ja	0		J	
§§	§§	0		Y	?
773	773	0		N	?
_	_			Z	
774	774	0		N	?
kohtul	kohus	l		S	sg ad
kaela	kael	0		S	adt
     	kael	0		S	sg g
     	kaela	0		K	
     	kael	0		S	sg p
ette	ette	0		D	
    	ette	0		K	
    	esi	tte		S	adt
loetud	loetu	d		S	pl n
      	loetud	0		A	
      	loetud	0		A	sg n
      	loetud	d		A	pl n
      	luge	tud		V	tud
ent	ent	0		J	
R. Grünberg	####				
ei	ei	0		D	
  	ei	0		V	neg
ole	ole	0		V	o
selle	see	0		P	sg g
     	sell	e		S	pl p
pärast	pära	st		S	sg el
      	pärane	t		A	sg p
      	pärast	0		D	
      	pärast	0		K	
rahul	rahu	l		S	sg ad
     	rahul	0		D	
,	,			Z	
et	et	0		J	
kõik	kõik	0		P	pl n
    	kõik	0		S	sg n
    	kõik	0		P	sg n
Vana	vana	0		A	sg g
    	vana	0		A	sg n
    	vana	0		A	sg p
    	vana	0		S	sg g
    	vana	0		S	sg n
    	vana	0		S	sg p
võlglase	võlglane	0		S	sg g
kel	kes	l		P	sg ad
rohkem	rohkem	0		D	
kui	kui	0		D	
   	kui	0		J	
10	10	0		N	?
ajastaga	####				
saada	saa	da		V	da
     	saat	0		V	o
     	saa	da		V	ta
,	,			Z	
ning	ning	0		J	
mõnel	mõni	l		P	sg ad
kel	kes	l		P	sg ad
Vilja	Vilja	0		H	sg g
     	vili	0		S	adt
     	vili	0		S	sg g
     	Vilja	0		H	sg n
     	vili	0		S	sg p
võlga	võlg	0		S	adt
     	võlg	0		S	sg p
antud	an=tu	d		S	pl n
     	and	tud		V	tud
     	antud	0		A	
     	antud	0		A	sg n
     	antud	d		A	pl n
,	,			Z	
võinud	või	nud		V	nud
      	või=nu	d		S	pl n
      	või=nud	0		A	
      	või=nud	0		A	sg n
      	või=nud	d		A	pl n
oma	oma	0		A	sg g
   	oma	0		D	
   	oma	0		P	sg g
   	oma	0		S	sg g
   	oma	0		V	o
   	oma	0		A	sg n
   	oma	0		A	sg p
   	oma	0		P	sg n
   	oma	0		P	sg p
   	oma	0		S	sg n
   	oma	0		S	sg p
võlg	võlg	0		S	sg n
ei	ei	0		D	
  	ei	0		V	neg
(	(			Z	
n	n	0		Y	?
)	)			Z	
ema	ema	0		S	sg g
   	ema	0		S	sg n
   	ema	0		S	sg p
nouda	####				
ent	ent	0		J	
nüüd	nüüd	0		D	
peras	####				
Ouksioni	####				
ennast	ise	t		P	sg p
üles	üles	0		D	
andvat	and	vat		V	vat
      	andev	t		A	sg p
palus	palu	s		S	sg in
     	palu	s		V	s
protokolli	protokoll	0		S	adt
          	protokoll	0		S	sg g
          	protokolli	0		V	o
          	protokoll	0		S	sg p
mis	mis	0		P	pl n
   	mis	0		P	sg n
kohus	kohu	s		V	s
     	kohus	0		S	sg n
ka	ka	0		D	
lubas	luba	s		V	s
anda	and	a		V	da
.	.			Z	
_	_			Z	
peakohtumees	pea_kohtu_mees	0		S	sg n
J	J	0		Y	?
.	.			Z	
_	_			Z	
Rohkt	####				
kohtumees	kohtu_mees	0		S	sg n
kohtumees	kohtu_mees	0		S	sg n
kirjutaja	kirjutaja	0		S	sg g
         	kirjutaja	0		S	sg n
as	####				
.	.			Z	
R. Grünberg	####				
