sai	saa	i		V	s
   	sai	0		S	sg n
see	see	0		P	sg n
pooleli	pooleli	0		D	
jäänud	jää	nud		V	nud
      	jäänu	d		S	pl n
      	jäänud	0		A	
      	jäänud	0		A	sg n
      	jäänud	d		A	pl n
№	№	0		Y	?
165	165	0		N	?
ette	ette	0		D	
    	ette	0		K	
    	esi	tte		S	adt
võetud	võe=tu	d		S	pl n
      	võetud	0		A	
      	võetud	0		A	sg n
      	võetud	d		A	pl n
      	võt	tud		V	tud
.	.			Z	
sai	saa	i		V	s
   	sai	0		S	sg n
Ado	Ado	0		H	sg g
   	Ado	0		H	sg n
Erm	Erm	0		H	sg n
küsitud	küsi	tud		V	tud
       	küsi=tu	d		S	pl n
       	küsi=tud	0		A	
       	küsi=tud	0		A	sg n
       	küsi=tud	d		A	pl n
mis	mis	0		P	pl n
   	mis	0		P	sg n
tema	tema	0		P	sg g
    	tema	0		P	sg n
nõuab	nõud	b		V	b
ütleb	ütle	b		V	b
et	et	0		J	
tema	tema	0		P	sg g
    	tema	0		P	sg n
nõuab	nõud	b		V	b
oma	oma	0		A	sg g
   	oma	0		D	
   	oma	0		P	sg g
   	oma	0		S	sg g
   	oma	0		V	o
   	oma	0		A	sg n
   	oma	0		A	sg p
   	oma	0		P	sg n
   	oma	0		P	sg p
   	oma	0		S	sg n
   	oma	0		S	sg p
palka	palk	0		S	adt
     	palka	0		V	o
     	palk	0		S	sg p
30	30	0		N	?
rubla	rubla	0		S	sg g
     	rubla	0		S	sg n
     	rubla	0		S	sg p
.	.			Z	
saanud	saa	nud		V	nud
      	saa=nud	0		A	
      	saa=nud	0		A	sg n
      	saa=nud	d		A	pl n
      	saanu	d		S	pl n
olevad	olev	d		A	pl n
      	olev	d		S	pl n
ju	ju	0		D	
1	1	0		N	?
vakk	vakk	0		S	sg n
rüki	rükki	0		V	o
3	3	0		N	?
rubla	rubla	0		S	sg g
     	rubla	0		S	sg n
     	rubla	0		S	sg p
2	2	0		N	?
""""	""""			Z	
nisu	nisu	0		S	sg g
    	nisu	0		S	sg n
    	nisu	0		S	sg p
5	5	0		N	?
""""	""""			Z	
60	60	0		N	?
kop	kop	0		Y	?
.	.			Z	
1	1	0		N	?
mõet	####				
linaseemnd	####				
2	2	0		N	?
""""	""""			Z	
_	_			Z	
selget	selge	t		A	sg p
raha	raha	0		S	sg g
    	raha	0		S	sg n
    	raha	0		S	sg p
_	_			Z	
82	82	0		N	?
""""	""""			Z	
11	11	0		N	?
rbl	rbl	0		Y	?
.	.			Z	
24	24	0		N	?
kop	kop	0		Y	?
.	.			Z	
kartuflid	####				
ei	ei	0		D	
  	ei	0		V	neg
ütle	ütle	0		V	o
Erm	Erm	0		H	sg n
mitte	mitte	0		D	
viivad	vii	vad		V	vad
,	,			Z	
heina	hein	0		S	adt
     	hein	0		S	sg g
     	hein	0		S	sg p
ei	ei	0		D	
  	ei	0		V	neg
puutuvad	puutu	vad		V	vad
        	puutuv	d		A	pl n
Kõivule	kõiv	le		S	sg all
.	.			Z	
Kõiv	kõiv	0		S	sg n
ütleb	ütle	b		V	b
küll	küll	0		D	
    	küll	0		S	sg n
muido	####				
õige	õige	0		A	sg g
    	õige	0		A	sg n
    	õige	0		D	
olevad	olev	d		A	pl n
      	olev	d		S	pl n
,	,			Z	
ent	ent	0		J	
seda	see	da		P	sg p
ei	ei	0		D	
  	ei	0		V	neg
olevad	olev	d		A	pl n
      	olev	d		S	pl n
meeles	meel	s		S	sg in
kui	kui	0		D	
   	kui	0		J	
palju	palju	0		D	
     	palju	0		P	sg g
     	palju	0		P	sg n
selget	selge	t		A	sg p
raha	raha	0		S	sg g
    	raha	0		S	sg n
    	raha	0		S	sg p
olevad	olev	d		A	pl n
      	olev	d		S	pl n
antud	an=tu	d		S	pl n
     	and	tud		V	tud
     	antud	0		A	
     	antud	0		A	sg n
     	antud	d		A	pl n
,	,			Z	
olevad	olev	d		A	pl n
      	olev	d		S	pl n
küll	küll	0		D	
    	küll	0		S	sg n
kottun	####				
üles	üles	0		D	
kirjutatud	kirjuta	tud		V	tud
          	kirjutatu	d		S	pl n
          	kirjutatud	0		A	
          	kirjutatud	0		A	sg n
          	kirjutatud	d		A	pl n
,	,			Z	
mis	mis	0		P	pl n
   	mis	0		P	sg n
temal	tema	l		P	sg ad
ühes	üks	s		N	sg in
    	üks	s		P	sg in
    	ühes	0		D	
    	ühes	0		K	
ei	ei	0		D	
  	ei	0		V	neg
ole	ole	0		V	o
.	.			Z	
ja	ja	0		J	
nõuab	nõud	b		V	b
ka	ka	0		D	
seda	see	da		P	sg p
palka	palk	0		S	adt
     	palka	0		V	o
     	palk	0		S	sg p
tagasi	tagasi	0		D	
      	tagasi	0		K	
mis	mis	0		P	pl n
   	mis	0		P	sg n
tema	tema	0		P	sg g
    	tema	0		P	sg n
ju	ju	0		D	
välja	välja	0		D	
     	välja	0		V	o
     	väli	0		S	adt
     	väli	0		S	sg g
     	väli	0		S	sg p
on	ole	0		V	b
  	ole	0		V	vad
andnud	and	nud		V	nud
      	and=nu	d		S	pl n
      	and=nud	0		A	
      	and=nud	0		A	sg n
      	and=nud	d		A	pl n
,	,			Z	
selle	see	0		P	sg g
     	sell	e		S	pl p
eest	eest	0		D	
    	eest	0		K	
    	esi	st		S	sg el
et	et	0		J	
Ado	Ado	0		H	sg g
   	Ado	0		H	sg n
poole	pool	0		N	sg g
     	pool	0		S	sg g
     	pool	e		S	pl p
     	poole	0		K	
     	poole	0		S	sg n
aasta	aasta	0		S	sg g
     	aasta	0		S	sg n
sisen	####				
ja	ja	0		J	
ilma	ilm	0		S	adt
    	ilm	0		S	sg g
    	ilma	0		D	
    	ilma	0		K	
    	ilm	0		S	sg p
loata	loata	0		A	
     	loata	0		D	
     	luba	ta		S	sg ab
     	luga	ta		S	sg ab
teenistusest	teenistus	st		S	sg el
ära	ära	0		D	
   	ära	0		V	neg o
läinud	läinu	d		S	pl n
      	läinud	0		A	
      	läinud	0		A	sg n
      	läinud	d		A	pl n
      	mine	nud		V	nud
.	.			Z	
ja	ja	0		J	
ka	ka	0		D	
et	et	0		J	
Ado	Ado	0		H	sg g
   	Ado	0		H	sg n
olevad	olev	d		A	pl n
      	olev	d		S	pl n
tema	tema	0		P	sg g
    	tema	0		P	sg n
10	10	0		N	?
kupu	kupp	0		S	sg g
linu	lina	u		S	pl p
varastanud	varasta	nud		V	nud
          	varasta=nu	d		S	pl n
          	varasta=nud	0		A	
          	varasta=nud	0		A	sg n
          	varasta=nud	d		A	pl n
mis	mis	0		P	pl n
   	mis	0		P	sg n
Joosep	Joosep	0		H	sg n
Schultz	####				
võib	või	b		V	b
tunnistada	tunnista	da		V	da
.	.			Z	
ja	ja	0		J	
ka	ka	0		D	
et	et	0		J	
Ado	Ado	0		H	sg g
   	Ado	0		H	sg n
on	ole	0		V	b
  	ole	0		V	vad
temal	tema	l		P	sg ad
käskinud	käski	nud		V	nud
        	käski=nu	d		S	pl n
        	käski=nud	0		A	
        	käski=nud	0		A	sg n
        	käski=nud	d		A	pl n
kolm	kolm	0		N	sg n
neljapäeva	nelja_päev	0		S	adt
          	nelja_päev	0		S	sg g
          	nelja_päev	0		S	sg p
õhtu	õhtu	0		S	sg g
    	õhtu	0		S	sg n
oma	oma	0		A	sg g
   	oma	0		D	
   	oma	0		P	sg g
   	oma	0		S	sg g
   	oma	0		V	o
   	oma	0		A	sg n
   	oma	0		A	sg p
   	oma	0		P	sg n
   	oma	0		P	sg p
   	oma	0		S	sg n
   	oma	0		S	sg p
persee	####				
kõhi	####				
,	,			Z	
siis	siis	0		D	
    	siis	0		J	
saavat	saa	vat		V	vat
      	saav	t		A	sg p
      	saav	t		S	sg p
tuast	####				
üks	üks	0		N	sg n
   	üks	0		P	sg n
valge	valge	0		A	sg g
     	valge	0		A	sg n
     	valge	0		S	sg g
     	valge	0		S	sg n
mõru	mõru	0		A	sg g
    	mõru	0		A	sg n
    	mõru	0		A	sg p
ftki	####				
,	,			Z	
kelle	kes	0		P	pl g
     	kes	0		P	sg g
peale	pea	le		S	sg all
     	peale	0		D	
     	peale	0		K	
kohtu	kohtu	0		V	o
     	kohus	0		S	sg g
ees	ees	0		D	
   	ees	0		K	
   	esi	s		S	sg in
Ado	Ado	0		H	sg g
   	Ado	0		H	sg n
Erm	Erm	0		H	sg n
muidugi	muidugi	0		D	
ütles	ütle	s		V	s
ju	ju	0		D	
et	et	0		J	
ta	tema	0		P	sg g
  	tema	0		P	sg n
naine	naine	0		S	sg n
olevad	olev	d		A	pl n
      	olev	d		S	pl n
13	13	0		N	?
päeva	päev	0		S	adt
     	päev	0		S	sg g
     	päev	0		S	sg p
töö	töö	0		S	sg g
   	töö	0		S	sg n
man	man	0		D	
   	man	0		K	
olnud	ol=nud	0		A	
     	ol=nud	0		A	sg n
     	ol=nud	d		A	pl n
     	ole	nud		V	nud
     	olnu	d		S	pl n
,	,			Z	
ja	ja	0		J	
5	5	0		N	?
nädalad	nädal	d		S	pl n
olnud	ol=nud	0		A	
     	ol=nud	0		A	sg n
     	ol=nud	d		A	pl n
     	ole	nud		V	nud
     	olnu	d		S	pl n
nätsikuu	####				
eest	eest	0		D	
    	eest	0		K	
    	esi	st		S	sg el
.	.			Z	
Jaan	Jaan	0		H	sg n
    	jaan	0		S	sg n
    	jaan	0		Y	?
Kõiv	kõiv	0		S	sg n
ütles	ütle	s		V	s
seda	see	da		P	sg p
võlas	võlg	s		S	sg in
olevad	olev	d		A	pl n
      	olev	d		S	pl n
.	.			Z	
otsus	otsus	0		S	sg n
:	:			Z	
kogukonnakohus	kogukonna_kohus	0		S	sg n
mõistab	mõist	b		V	b
,	,			Z	
selle	see	0		P	sg g
     	sell	e		S	pl p
peale	pea	le		S	sg all
     	peale	0		D	
     	peale	0		K	
,	,			Z	
et	et	0		J	
Ado	Ado	0		H	sg g
   	Ado	0		H	sg n
Erm	Erm	0		H	sg n
Jaan	Jaan	0		H	sg n
    	jaan	0		S	sg n
    	jaan	0		Y	?
Kõiv	kõiv	0		S	sg n
teenistusest	teenistus	st		S	sg el
ilma	ilm	0		S	adt
    	ilm	0		S	sg g
    	ilma	0		D	
    	ilma	0		K	
    	ilm	0		S	sg p
loata	loata	0		A	
     	loata	0		D	
     	luba	ta		S	sg ab
     	luga	ta		S	sg ab
ja	ja	0		J	
üle	üle	0		D	
   	üle	0		K	
keelu	keeld	0		S	sg g
ära	ära	0		D	
   	ära	0		V	neg o
on	ole	0		V	b
  	ole	0		V	vad
läinud	läinu	d		S	pl n
      	läinud	0		A	
      	läinud	0		A	sg n
      	läinud	d		A	pl n
      	mine	nud		V	nud
peab	pida	b		V	b
tema	tema	0		P	sg g
    	tema	0		P	sg n
kätte	kätte	0		K	
     	käsi	tte		S	adt
saadu	saad	0		S	adt
     	saadu	0		S	sg g
     	saadud	0		A	sg g
     	saad	0		S	sg p
     	saadu	0		S	sg n
palga	palk	0		S	sg g
11	11	0		N	?
rubla	rubla	0		S	sg g
     	rubla	0		S	sg n
     	rubla	0		S	sg p
24	24	0		N	?
kop	kop	0		Y	?
.	.			Z	
Jaankõivul	jaan_kõiv	l		S	sg ad
tagasi	tagasi	0		D	
      	tagasi	0		K	
maksma	maks	ma		V	ma
,	,			Z	
ent	ent	0		J	
seda	see	da		P	sg p
mis	mis	0		P	pl n
   	mis	0		P	sg n
Jaan	Jaan	0		H	sg n
    	jaan	0		S	sg n
    	jaan	0		Y	?
Kõiv	kõiv	0		S	sg n
Ado	Ado	0		H	sg g
   	Ado	0		H	sg n
Erm	Erm	0		H	sg n
käest	käest	0		K	
     	käsi	st		S	sg el
nõuab	nõud	b		V	b
jääb	jää	b		V	b
selle	see	0		P	sg g
     	sell	e		S	pl p
eest	eest	0		D	
    	eest	0		K	
    	esi	st		S	sg el
et	et	0		J	
Ado	Ado	0		H	sg g
   	Ado	0		H	sg n
naine	naine	0		S	sg n
kõivu	kõiv	0		S	adt
     	kõiv	0		S	sg g
     	kõiv	0		S	sg p
on	ole	0		V	b
  	ole	0		V	vad
orjanud	orja	nud		V	nud
       	orja=nu	d		S	pl n
       	orja=nud	0		A	
       	orja=nud	0		A	sg n
       	orja=nud	d		A	pl n
.	.			Z	
selle	see	0		P	sg g
     	sell	e		S	pl p
ropu	ropp	0		A	sg g
sõna	sõna	0		S	sg g
    	sõna	0		V	o
    	sõna	0		S	sg n
    	sõna	0		S	sg p
eest	eest	0		D	
    	eest	0		K	
    	esi	st		S	sg el
peab	pida	b		V	b
Ado	Ado	0		H	sg g
   	Ado	0		H	sg n
Erm	Erm	0		H	sg n
üks	üks	0		N	sg n
   	üks	0		P	sg n
öö	öö	0		S	sg g
  	öö	0		S	sg n
ja	ja	0		J	
päev	päev	0		S	sg n
turmin	####				
istma	####				
.	.			Z	
otsus	otsus	0		S	sg n
kuulutati	kuuluta	ti		V	ti
§	§	0		Y	?
773	773	0		N	?
ja	ja	0		J	
774	774	0		N	?
pärast	pära	st		S	sg el
      	pärane	t		A	sg p
      	pärast	0		D	
      	pärast	0		K	
T	T	0		Y	?
.	.			Z	
_S	####				
.	.			Z	
Ado	Ado	0		H	sg g
   	Ado	0		H	sg n
Erm	Erm	0		H	sg n
ei	ei	0		D	
  	ei	0		V	neg
ole	ole	0		V	o
selsamal	see_sama	l		P	sg ad
päeval	päev	l		S	sg ad
otsusega	otsus	ga		S	sg kom
rahul	rahu	l		S	sg ad
     	rahul	0		D	
ja	ja	0		J	
sai	saa	i		V	s
   	sai	0		S	sg n
õpus	####				
kiri	kiri	0		S	sg n
antud	an=tu	d		S	pl n
     	and	tud		V	tud
     	antud	0		A	
     	antud	0		A	sg n
     	antud	d		A	pl n
.	.			Z	
Jaan	Jaan	0		H	sg n
    	jaan	0		S	sg n
    	jaan	0		Y	?
Kõiv	kõiv	0		S	sg n
ei	ei	0		D	
  	ei	0		V	neg
ole	ole	0		V	o
ka	ka	0		D	
rahul	rahu	l		S	sg ad
     	rahul	0		D	
selle	see	0		P	sg g
     	sell	e		S	pl p
peale	pea	le		S	sg all
     	peale	0		D	
     	peale	0		K	
,	,			Z	
et	et	0		J	
naine	naine	0		S	sg n
ei	ei	0		D	
  	ei	0		V	neg
olevad	olev	d		A	pl n
      	olev	d		S	pl n
midagi	miski	dagi		P	sg p
orjanud	orja	nud		V	nud
       	orja=nu	d		S	pl n
       	orja=nud	0		A	
       	orja=nud	0		A	sg n
       	orja=nud	d		A	pl n
ja	ja	0		J	
et	et	0		J	
ta	tema	0		P	sg g
  	tema	0		P	sg n
oma	oma	0		A	sg g
   	oma	0		D	
   	oma	0		P	sg g
   	oma	0		S	sg g
   	oma	0		V	o
   	oma	0		A	sg n
   	oma	0		A	sg p
   	oma	0		P	sg n
   	oma	0		P	sg p
   	oma	0		S	sg n
   	oma	0		S	sg p
ei	ei	0		D	
  	ei	0		V	neg
võivat	või	vat		V	vat
      	võiv	t		A	sg p
jätta	jät	a		V	da
.	.			Z	
7.	7.	0		O	?
Januari	####				
1877	1877	0		N	?
välja	välja	0		D	
     	välja	0		V	o
     	väli	0		S	adt
     	väli	0		S	sg g
     	väli	0		S	sg p
antud	an=tu	d		S	pl n
     	and	tud		V	tud
     	antud	0		A	
     	antud	0		A	sg n
     	antud	d		A	pl n
.	.			Z	
