protokolli	protokoll	0		S	adt
          	protokoll	0		S	sg g
          	protokolli	0		V	o
          	protokoll	0		S	sg p
edasi	edasi	0		D	
     	edasi	0		K	
minek	minek	0		S	sg n
N130	N130	0		Y	?
,	,			Z	
1886dast	####				
aastast	aasta	st		S	sg el
       	aastane	t		A	sg p
.	.			Z	
Mõistmine	mõistmine	0		S	sg n
:	:			Z	
kuna	kuna	0		D	
    	kuna	0		J	
Mihkel	Mihkel	0		H	sg n
      	mihkel	0		A	sg n
      	mihkel	0		S	sg n
Küsson	####				
kõigile	kõik	le		P	pl all
kogukonna	kogukond	0		S	sg g
kohtu	kohtu	0		V	o
     	kohus	0		S	sg g
kutsumistele	kutsumine	tele		S	pl all
tana_päevani	####				
kangikaelselt	kangi_kaelne	lt		A	sg abl
             	kangi_kaelse=lt	0		D	
vastu	vastu	0		D	
     	vastu	0		K	
on	ole	0		V	b
  	ole	0		V	vad
panenud	####				
ja	ja	0		J	
protokolli	protokoll	0		S	adt
          	protokoll	0		S	sg g
          	protokolli	0		V	o
          	protokoll	0		S	sg p
N157	N157	0		Y	?
all	all	0		D	
   	all	0		K	
1886a	1886a	0		Y	?
.	.			Z	
ette	ette	0		D	
    	ette	0		K	
    	esi	tte		S	adt
tuli	tuli	0		S	sg n
    	tule	i		V	s
välksnud	####				
on	ole	0		V	b
  	ole	0		V	vad
,	,			Z	
mida	mis	da		P	pl p
    	mis	da		P	sg p
protokolli	protokoll	0		S	adt
          	protokoll	0		S	sg g
          	protokolli	0		V	o
          	protokoll	0		S	sg p
N186	N186	0		Y	?
all	all	0		D	
   	all	0		K	
andud	andu	d		V	d
Adam	####				
ülimsoni	ülim_soni	0		S	sg g
        	ülim_soni	0		S	sg n
        	ülim_soni	0		S	sg p
tunnistus	tunnistus	0		S	sg n
tõendab	tõenda	b		V	b
ning	ning	0		J	
kogukonna	kogukond	0		S	sg g
kohtu	kohtu	0		V	o
     	kohus	0		S	sg g
ametnik	ametnik	0		S	sg n
Kristjan	Kristjan	0		H	sg n
kübara	kübar	0		S	sg g
läbi	läbi	0		D	
    	läbi	0		K	
    	läbi	0		V	o
otsimisel	otsimine	l		S	sg ad
metsavahide	####				
Ants	Ants	0		H	sg n
Liivaku	liivak	0		S	sg g
ja	ja	0		J	
Joosep	Joosep	0		H	sg n
Leplandi	####				
man	man	0		D	
   	man	0		K	
kinole	kino	le		S	sg all
4	4	0		N	?
kõivu	kõiv	0		S	adt
     	kõiv	0		S	sg g
     	kõiv	0		S	sg p
,	,			Z	
mis	mis	0		P	pl n
   	mis	0		P	sg n
kandi	kant	0		S	sg g
     	kanti	0		V	o
jalasinis	####				
äära	####				
oleva	olev	0		A	sg g
     	olev	0		S	sg g
tahutud	tahu	tud		V	tud
       	tahu=tu	d		S	pl n
       	tahu=tud	0		A	
       	tahu=tud	0		A	sg n
       	tahu=tud	d		A	pl n
,	,			Z	
Mihkel	Mihkel	0		H	sg n
      	mihkel	0		A	sg n
      	mihkel	0		S	sg n
Küssoni	####				
ja	ja	0		J	
Karel	####				
Oinlingi	####				
sauna	saun	0		S	adt
     	saun	0		S	sg g
     	saun	0		S	sg p
takast	####				
kätte	kätte	0		K	
     	käsi	tte		S	adt
saivad	####				
ja	ja	0		J	
siis	siis	0		D	
    	siis	0		J	
arvad	arva	d		V	d
kohus	kohu	s		V	s
     	kohus	0		S	sg n
,	,			Z	
et	et	0		J	
need	see	d		P	pl n
jalase	jalane	0		A	sg g
      	jalas	0		S	sg g
maeast	####				
senna	senna	0		S	sg g
     	senna	0		S	sg n
oleva	olev	0		A	sg g
     	olev	0		S	sg g
viidud	vii	dud		V	tud
      	vii=du	d		S	pl n
      	vii=dud	0		A	
      	vii=dud	0		A	sg n
      	vii=dud	d		A	pl n
.	.			Z	
kui	kui	0		D	
   	kui	0		J	
Mihkel	Mihkel	0		H	sg n
      	mihkel	0		A	sg n
      	mihkel	0		S	sg n
Küssoni	####				
senna	senna	0		S	sg g
     	senna	0		S	sg n
man	man	0		D	
   	man	0		K	
kutsuti	kutsu	ti		V	ti
siis	siis	0		D	
    	siis	0		J	
paiasi	pai_asi	0		S	sg n
tema	tema	0		P	sg g
    	tema	0		P	sg n
äära	####				
metsa	mets	0		S	adt
     	mets	0		S	sg g
     	mets	0		S	sg p
ja	ja	0		J	
ei	ei	0		D	
  	ei	0		V	neg
ole	ole	0		V	o
tänase	tänane	0		A	sg g
päevani	päev	ni		S	sg ter
mitmekordse	mitme_kordne	0		A	sg g
kogukonna	kogukond	0		S	sg g
kohtu	kohtu	0		V	o
     	kohus	0		S	sg g
kutsumiste	kutsumine	te		S	pl g
paale	paa	le		A	sg all
     	paa	le		S	sg all
     	paal	e		S	pl p
ette	ette	0		D	
    	ette	0		K	
    	esi	tte		S	adt
tulnud	tul=nud	0		A	
      	tul=nud	0		A	sg n
      	tul=nud	d		A	pl n
      	tule	nud		V	nud
      	tulnu	d		S	pl n
selle	see	0		P	sg g
     	sell	e		S	pl p
üle	üle	0		D	
   	üle	0		K	
vastust	vastus	t		S	sg p
andma	and	ma		V	ma
siis	siis	0		D	
    	siis	0		J	
mõistis	mõist	is		V	s
kohus	kohu	s		V	s
     	kohus	0		S	sg n
.	.			Z	
otsus	otsus	0		S	sg n
:	:			Z	
Mihkel	Mihkel	0		H	sg n
      	mihkel	0		A	sg n
      	mihkel	0		S	sg n
Küsson	####				
peab	pida	b		V	b
varastud	####				
6	6	0		N	?
kõivu	kõiv	0		S	adt
     	kõiv	0		S	sg g
     	kõiv	0		S	sg p
eest	eest	0		D	
    	eest	0		K	
    	esi	st		S	sg el
7	7	0		N	?
rubla	rubla	0		S	sg g
     	rubla	0		S	sg n
     	rubla	0		S	sg p
keisrl	####				
Võru	Võru	0		H	sg g
    	Võru	0		H	sg n
    	võru	0		S	sg g
    	võru	0		S	sg n
    	võru	0		S	sg p
maakohtu	maa_kohus	0		S	sg g
arvamise	arvamine	0		S	sg g
järge	järg	0		S	adt
     	järge	0		S	sg n
     	järg	0		S	sg p
metsahärra	metsa_härra	0		S	sg g
          	metsa_härra	0		S	sg n
J	J	0		Y	?
.	.			Z	
_	_			Z	
Rusneekile	####				
4	4	0		N	?
nädala	nädal	0		S	sg g
sees	sees	0		D	
    	sees	0		K	
välja	välja	0		D	
     	välja	0		V	o
     	väli	0		S	adt
     	väli	0		S	sg g
     	väli	0		S	sg p
maksma	maks	ma		V	ma
.	.			Z	
Mihkel	Mihkel	0		H	sg n
      	mihkel	0		A	sg n
      	mihkel	0		S	sg n
Küsson	####				
13ses	####				
mis	mis	0		P	pl n
   	mis	0		P	sg n
otsust	otsus	t		S	sg p
kuulama	kuula	ma		V	ma
ette	ette	0		D	
    	ette	0		K	
    	esi	tte		S	adt
kutsu	kutsu	0		V	o
     	kutsu	0		S	sg g
     	kutsu	0		S	sg n
.	.			Z	
see	see	0		P	sg n
otsus	otsus	0		S	sg n
§	§	0		Y	?
773	773	0		N	?
ja	ja	0		J	
774	774	0		N	?
perra	####				
kuulatud	kuula	tud		V	tud
        	kuula=tu	d		S	pl n
        	kuula=tud	0		A	
        	kuula=tud	0		A	sg n
        	kuula=tud	d		A	pl n
.	.			Z	
