kohtumees	kohtu_mees	0		S	sg n
Peeter	Peeter	0		H	sg n
Supsberg	####				
andis	and	is		V	s
kohtule	kohus	le		S	sg all
kaeda	kae	da		V	da
ehk	ehk	0		D	
   	ehk	0		J	
tosikaste	####				
kolile	koli	le		S	sg all
on	ole	0		V	b
  	ole	0		V	vad
kätte	kätte	0		K	
     	käsi	tte		S	adt
saanud	saa	nud		V	nud
      	saa=nud	0		A	
      	saa=nud	0		A	sg n
      	saa=nud	d		A	pl n
      	saanu	d		S	pl n
6	6	0		N	?
sülda	süld	0		S	adt
     	süld	0		S	sg p
puu	puu	0		S	sg g
   	puu	0		S	sg n
.	.			Z	
kohtumees	kohtu_mees	0		S	sg n
Gottlieb	Gottlieb	0		H	sg n
Karutsing	####				
andis	and	is		V	s
kohtule	kohus	le		S	sg all
kaeda	kae	da		V	da
ehk	ehk	0		D	
   	ehk	0		J	
Roomad	room	d		S	pl n
      	rooma	d		V	d
kolile	koli	le		S	sg all
on	ole	0		V	b
  	ole	0		V	vad
kätte	kätte	0		K	
     	käsi	tte		S	adt
vaatut	####				
6	6	0		N	?
süld	süld	0		S	sg n
puu	puu	0		S	sg g
   	puu	0		S	sg n
kohtumees	kohtu_mees	0		S	sg n
Tanl	####				
Norhani	####				
andis	and	is		V	s
kohtule	kohus	le		S	sg all
kaeda	kae	da		V	da
ehk	ehk	0		D	
   	ehk	0		J	
rikkuula	####				
kolile	koli	le		S	sg all
on	ole	0		V	b
  	ole	0		V	vad
6	6	0		N	?
süld	süld	0		S	sg n
puud	puu	d		S	pl n
    	puud	0		S	sg n
    	puu	d		S	sg p
kätte	kätte	0		K	
     	käsi	tte		S	adt
ütved	####				
.	.			Z	
Jakob	Jakob	0		H	sg n
Sengov	####				
tunnistas	tunnista	s		V	s
papseküla	####				
kolile	koli	le		S	sg all
on	ole	0		V	b
  	ole	0		V	vad
3	3	0		N	?
sülda	süld	0		S	adt
     	süld	0		S	sg p
puud	puu	d		S	pl n
    	puud	0		S	sg n
    	puu	d		S	sg p
kätte	kätte	0		K	
     	käsi	tte		S	adt
teda	tema	da		P	sg p
.	.			Z	
sai	saa	i		V	s
   	sai	0		S	sg n
mõistetatud	####				
ehk	ehk	0		D	
   	ehk	0		J	
sav	####				
tegija	tegija	0		S	sg g
      	tegija	0		S	sg n
karlamp	####				
peab	pida	b		V	b
maksa	maks	0		S	adt
     	maks	0		S	sg g
     	maks	0		V	o
     	maks	0		S	sg p
Peeter	Peeter	0		H	sg n
Kanepust	kanep_uks	t		S	sg p
oma	oma	0		A	sg g
   	oma	0		D	
   	oma	0		P	sg g
   	oma	0		S	sg g
   	oma	0		V	o
   	oma	0		A	sg n
   	oma	0		A	sg p
   	oma	0		P	sg n
   	oma	0		P	sg p
   	oma	0		S	sg n
   	oma	0		S	sg p
võlg	võlg	0		S	sg n
nõnda	nõnda	0		D	
viis	vii	s		V	s
    	viis	0		N	sg n
    	viis	0		S	sg n
,	,			Z	
see	see	0		P	sg n
kuu	kuu	0		S	sg g
   	kuu	0		S	sg n
5	5	0		N	?
rub	####				
,	,			Z	
jüripäevan	####				
jale	####				
5	5	0		N	?
rub	####				
ja	ja	0		J	
tuleva	tulev	0		A	sg g
Jaanipäevan	####				
viimatsel	####				
viis	vii	s		V	s
    	viis	0		N	sg n
    	viis	0		S	sg n
rubla	rubla	0		S	sg g
     	rubla	0		S	sg n
     	rubla	0		S	sg p
.	.			Z	
