Jaan	Jaan	0		H	sg n
    	jaan	0		S	sg n
    	jaan	0		Y	?
Juhanson	####				
tunnistas	tunnista	s		V	s
et	et	0		J	
tema	tema	0		P	sg g
    	tema	0		P	sg n
on	ole	0		V	b
  	ole	0		V	vad
Tolama	####				
härrale	härra	le		S	sg all
mängo	####				
10	10	0		N	?
tuhat	tuhat	0		N	sg n
     	tuhat	0		N	sg p
siis	siis	0		D	
    	siis	0		J	
mina	mina	0		P	sg n
    	mina	0		S	sg g
    	mina	0		S	sg n
    	mina	0		S	sg p
ei	ei	0		D	
  	ei	0		V	neg
või	või	0		S	sg g
   	või	0		V	o
   	või	0		D	
   	või	0		J	
   	või	0		S	sg n
temale	tema	le		P	sg all
nii	nii	0		D	
palju	palju	0		D	
     	palju	0		P	sg g
     	palju	0		P	sg n
mängi	mängi	0		V	o
ja	ja	0		J	
kust	kusi	t		S	sg p
    	kust	0		D	
tema	tema	0		P	sg g
    	tema	0		P	sg n
sai	saa	i		V	s
   	sai	0		S	sg n
need	see	d		P	pl n
kättetud	####				
kasukat	kasukas	t		S	sg p
kui	kui	0		D	
   	kui	0		J	
Tolmalt	####				
.	.			Z	
kohus	kohu	s		V	s
     	kohus	0		S	sg n
mõistis	mõist	is		V	s
et	et	0		J	
Jaan	Jaan	0		H	sg n
    	jaan	0		S	sg n
    	jaan	0		Y	?
Juhanson	####				
peab	pida	b		V	b
24	24	0		N	?
tundi	tund	0		S	adt
     	tund	0		S	sg p
selle	see	0		P	sg g
     	sell	e		S	pl p
teutuse	####				
sõnade	sõna	de		S	pl g
eest	eest	0		D	
    	eest	0		K	
    	esi	st		S	sg el
mänter	####				
istma	####				
.	.			Z	
pea	pea	0		D	
   	pea	0		S	sg g
   	pida	0		V	o
   	pea	0		S	sg n
kohtumees	kohtu_mees	0		S	sg n
Paap	####				
Kiudorv	kiud_orv	0		S	sg n
kohtumees	kohtu_mees	0		S	sg n
Kristjan	Kristjan	0		H	sg n
Võsoberg	####				
kohtumees	kohtu_mees	0		S	sg n
Paap	####				
Kress	kress	0		S	sg n
kohtumees	kohtu_mees	0		S	sg n
Jaan	Jaan	0		H	sg n
    	jaan	0		S	sg n
    	jaan	0		Y	?
Holsting	####				
