sai	saa	i		V	s
   	sai	0		S	sg n
igaaastane	iga_aastane	0		A	sg n
vaestelaste	vaes+te_last	e		S	pl p
ja	ja	0		J	
leskinaiste	####				
hoolekandjad	hoole_kandja	d		S	pl n
ja	ja	0		J	
vöölmündri	####				
aruande	aru_anne	0		S	sg g
alla	alla	0		D	
    	alla	0		K	
võetud	võe=tu	d		S	pl n
      	võetud	0		A	
      	võetud	0		A	sg n
      	võetud	d		A	pl n
      	võt	tud		V	tud
ja	ja	0		J	
igaühelt	iga_üks	lt		P	sg abl
ka	ka	0		D	
küsitud	küsi	tud		V	tud
       	küsi=tu	d		S	pl n
       	küsi=tud	0		A	
       	küsi=tud	0		A	sg n
       	küsi=tud	d		A	pl n
,	,			Z	
kuidas	kuidas	0		D	
nende	see	de		P	pl g
     	tema	de		P	pl g
kaksealustega	####				
lugu	lugu	0		S	sg n
    	lugu	0		S	sg p
on	ole	0		V	b
  	ole	0		V	vad
:	:			Z	
1.	1.	0		O	?
Ann	Ann	0		H	sg n
Hatte	hatt	e		S	pl p
vöölmünder	####				
Joh	####				
.	.			Z	
porilal	####				
ei	ei	0		D	
  	ei	0		V	neg
olnud	ol=nud	0		A	
     	ol=nud	0		A	sg n
     	ol=nud	d		A	pl n
     	ole	nud		V	nud
     	olnu	d		S	pl n
midagi	miski	dagi		P	sg p
iseääralist	####				
ütelda	ütle	da		V	da
      	ütle	da		V	ta
.	.			Z	
2.	2.	0		O	?
Liis	Liis	0		H	sg n
    	Lii	s		H	sg in
Tane	####				
vöölmünder	####				
Joh	####				
.	.			Z	
Rammu	ramm	0		S	adt
     	ramm	0		S	sg g
     	ramm	0		S	sg p
asjad	asi	d		S	pl n
seisid	seis	id		V	sid
korras	kord	s		S	sg in
      	korras	0		A	
.	.			Z	
3.	3.	0		O	?
Mai	Mai	0		H	sg g
   	Mai	0		H	sg n
   	mai	0		S	sg g
   	mai	0		S	sg n
kinki	kink	0		S	adt
     	kink	0		S	sg p
vöölmündr	####				
.	.			Z	
Kusta	Kusta	0		H	sg g
     	Kusta	0		H	sg n
     	kuse	ta		V	da
     	kuse	ta		V	ta
nahk	nahk	0		S	sg n
ja	ja	0		J	
tema	tema	0		P	sg g
    	tema	0		P	sg n
laste	laps	te		S	pl g
     	last	e		S	pl p
eestkusta	####				
H	H	0		Y	?
.	.			Z	
_	_			Z	
Peedmanni	####				
asjad	asi	d		S	pl n
seisid	seis	id		V	sid
kortras	####				
.	.			Z	
4.	4.	0		O	?
Maarj	####				
Kantso	####				
vöölmündr	####				
.	.			Z	
Jooosep	####				
Tupingu	####				
niisama	nii_sama	0		D	
korras	kord	s		S	sg in
      	korras	0		A	
.	.			Z	
5.	5.	0		O	?
Mihkel	Mihkel	0		H	sg n
      	mihkel	0		A	sg n
      	mihkel	0		S	sg n
Tiidemanel	####				
oma	oma	0		A	sg g
   	oma	0		D	
   	oma	0		P	sg g
   	oma	0		S	sg g
   	oma	0		V	o
   	oma	0		A	sg n
   	oma	0		A	sg p
   	oma	0		P	sg n
   	oma	0		P	sg p
   	oma	0		S	sg n
   	oma	0		S	sg p
vähema	vähem	0		C	sg g
venaste	####				
kohta	koht	0		S	adt
     	kohta	0		K	
     	kohta	0		V	o
     	koht	0		S	sg p
_	_			Z	
niisama	nii_sama	0		D	
.	.			Z	
6.	6.	0		O	?
Jaan	Jaan	0		H	sg n
    	jaan	0		S	sg n
    	jaan	0		Y	?
Tiidemann	####				
andis	and	is		V	s
üles	üles	0		D	
,	,			Z	
et	et	0		J	
tema	tema	0		P	sg g
    	tema	0		P	sg n
katseline	katseline	0		A	sg n
Mai	Mai	0		H	sg g
   	Mai	0		H	sg n
   	mai	0		S	sg g
   	mai	0		S	sg n
Hälem	####				
tahtvat	taht	vat		V	vat
       	tahtev	t		A	sg p
oma	oma	0		A	sg g
   	oma	0		D	
   	oma	0		P	sg g
   	oma	0		S	sg g
   	oma	0		V	o
   	oma	0		A	sg n
   	oma	0		A	sg p
   	oma	0		P	sg n
   	oma	0		P	sg p
   	oma	0		S	sg n
   	oma	0		S	sg p
võlgasi	võlg_asi	0		S	sg n
kätte	kätte	0		K	
     	käsi	tte		S	adt
,	,			Z	
mis	mis	0		P	pl n
   	mis	0		P	sg n
siis	siis	0		D	
    	siis	0		J	
siia	siia	0		D	
    	siig	0		S	sg g
on	ole	0		V	b
  	ole	0		V	vad
sissekirjutatud	sisse_kirjutatu	d		S	pl n
               	sisse_kirjutatud	0		A	
               	sisse_kirjutatud	0		A	sg n
               	sisse_kirjutatud	d		A	pl n
,	,			Z	
kui	kui	0		D	
   	kui	0		J	
vöölmündri	####				
saivad	####				
seatud	sea=tu	d		S	pl n
      	sead	tud		V	tud
      	seatud	0		A	
      	seatud	0		A	sg n
      	seatud	d		A	pl n
.	.			Z	
tema	tema	0		P	sg g
    	tema	0		P	sg n
olla	ole	a		V	da
sellega	see	ga		P	sg kom
rahul	rahu	l		S	sg ad
     	rahul	0		D	
.	.			Z	
7	7	0		N	?
,	,			Z	
Jaan	Jaan	0		H	sg n
    	jaan	0		S	sg n
    	jaan	0		Y	?
Nemltsi	####				
eestkustjal	####				
Juhan	Juhan	0		H	sg n
Vaseril	####				
asjad	asi	d		S	pl n
korras	kord	s		S	sg in
      	korras	0		A	
.	.			Z	
8.	8.	0		O	?
Jaan	Jaan	0		H	sg n
    	jaan	0		S	sg n
    	jaan	0		Y	?
matsoni	####				
vöölmündr	####				
.	.			Z	
Joh	####				
.	.			Z	
Niilbe	####				
asjad	asi	d		S	pl n
korras	kord	s		S	sg in
      	korras	0		A	
.	.			Z	
9.	9.	0		O	?
H	H	0		Y	?
.	.			Z	
_	_			Z	
Lukatsil	####				
ja	ja	0		J	
Jaan	Jaan	0		H	sg n
    	jaan	0		S	sg n
    	jaan	0		Y	?
Aripmannil	####				
,	,			Z	
kadunud	kadu	nud		V	nud
       	kadunu	d		S	pl n
       	kadunud	0		A	
       	kadunud	0		A	sg n
       	kadunud	d		A	pl n
Peeter	Peeter	0		H	sg n
Reit_kami	####				
lesja	####				
ja	ja	0		J	
laste	laps	te		S	pl g
     	last	e		S	pl p
vöölmündrisel	####				
asjad	asi	d		S	pl n
korras	kord	s		S	sg in
      	korras	0		A	
.	.			Z	
10.	10.	0		O	?
Liis	Liis	0		H	sg n
    	Lii	s		H	sg in
matsoni	####				
eestkustjal	####				
H	H	0		Y	?
.	.			Z	
_	_			Z	
Lukatsil	####				
asjad	asi	d		S	pl n
korras	kord	s		S	sg in
      	korras	0		A	
.	.			Z	
11.	11.	0		O	?
Mai	Mai	0		H	sg g
   	Mai	0		H	sg n
   	mai	0		S	sg g
   	mai	0		S	sg n
Rihmi	####				
vöölmündril	####				
Jooosep	####				
saarval	####				
Kiidjärvelt	####				
,	,			Z	
asjad	asi	d		S	pl n
korras	kord	s		S	sg in
      	korras	0		A	
,	,			Z	
kuid	kuu	id		S	pl p
    	kuid	0		J	
mõnes	mõni	s		P	sg in
asjas	asi	s		S	sg in
kaitsetava	kaitse=tav	0		A	sg g
eest	eest	0		D	
    	eest	0		K	
    	esi	st		S	sg el
kohut	kohus	t		S	sg p
käia	käi	0		S	adt
    	käi	0		S	sg g
    	käi	a		V	da
    	käia	0		V	o
    	käi	0		S	sg p
,	,			Z	
mis	mis	0		P	pl n
   	mis	0		P	sg n
aga	aga	0		J	
seaduslist	####				
korda	kord	0		S	adt
     	korda	0		V	o
     	kord	0		S	sg p
mitte	mitte	0		D	
ei	ei	0		D	
  	ei	0		V	neg
väend	####				
.	.			Z	
12.	12.	0		O	?
õdranmeelelise	####				
Juhan	Juhan	0		H	sg n
Urbi	urb	i		S	pl p
vöölmünder	####				
Jaan	Jaan	0		H	sg n
    	jaan	0		S	sg n
    	jaan	0		Y	?
Urail	####				
ei	ei	0		D	
  	ei	0		V	neg
olnud	ol=nud	0		A	
     	ol=nud	0		A	sg n
     	ol=nud	d		A	pl n
     	ole	nud		V	nud
     	olnu	d		S	pl n
muud	muu	d		P	pl n
    	muu	d		S	pl n
    	muu	d		V	d
    	muu	d		P	sg p
    	muu	d		S	sg p
ütelda	ütle	da		V	da
      	ütle	da		V	ta
,	,			Z	
kuid	kuu	id		S	pl p
    	kuid	0		J	
soovis	soov	s		S	sg in
      	soovi	s		V	s
,	,			Z	
et	et	0		J	
selle	see	0		P	sg g
     	sell	e		S	pl p
nõdrameelelisele	nõdra_meeleline	le		A	sg all
siiamaasse	siia_maa	sse		S	sg ill
ka	ka	0		D	
üks	üks	0		N	sg n
   	üks	0		P	sg n
ülevaataja	üle_vaataja	0		S	sg g
          	üle_vaataja	0		S	sg n
saaks	saa	ks		V	ks
seatud	sea=tu	d		S	pl n
      	sead	tud		V	tud
      	seatud	0		A	
      	seatud	0		A	sg n
      	seatud	d		A	pl n
,	,			Z	
mis	mis	0		P	pl n
   	mis	0		P	sg n
ka	ka	0		D	
toimetada	toimeta	da		V	da
loati	####				
.	.			Z	
Peakohtunik	pea_kohtunik	0		S	sg n
:	:			Z	
J	J	0		Y	?
.	.			Z	
_	_			Z	
Niilbe	####				
[	[			Z	
allkiri	all_kiri	0		S	sg n
]	]			Z	
kohtunik	kohtunik	0		S	sg n
:	:			Z	
H	H	0		Y	?
.	.			Z	
_	_			Z	
Lukaks	####				
[	[			Z	
allkiri	all_kiri	0		S	sg n
]	]			Z	
d	d	0		Y	?
.	.			Z	
:	:			Z	
J	J	0		Y	?
.	.			Z	
_	_			Z	
paremann	####				
[	[			Z	
allkiri	all_kiri	0		S	sg n
]	]			Z	
kirjut	kirju	t		A	sg p
.	.			Z	
as	####				
.	.			Z	
Tuping	####				
[	[			Z	
allkiri	all_kiri	0		S	sg n
]	]			Z	
