härra	härra	0		S	sg g
     	härra	0		S	sg n
Mark	Mark	0		H	sg n
    	mark	0		S	sg n
'	’			Z	
gi	####				
volinik	volinik	0		S	sg n
Savisaar	savi_saar	0		S	sg n
tuli	tuli	0		S	sg n
    	tule	i		V	s
siia	siia	0		D	
    	siig	0		S	sg g
kohtu	kohtu	0		V	o
     	kohus	0		S	sg g
ette	ette	0		D	
    	ette	0		K	
    	esi	tte		S	adt
ja	ja	0		J	
kuulutas	kuuluta	s		V	s
Kaarmanni	kaar_mann	0		S	adt
         	kaar_mann	0		S	sg g
         	kaar_mann	0		S	sg p
talu	talu	0		S	sg g
    	talu	0		V	o
    	talu	0		S	sg n
    	talu	0		S	sg p
№	№	0		Y	?
6	6	0		N	?
peale	pea	le		S	sg all
     	peale	0		D	
     	peale	0		K	
kinnitatud	kinnita	tud		V	tud
          	kinnita=tu	d		S	pl n
          	kinnita=tud	0		A	
          	kinnita=tud	0		A	sg n
          	kinnita=tud	d		A	pl n
Obligationeid	####				
üles	üles	0		D	
,	,			Z	
nagu	nagu	0		D	
    	nagu	0		J	
nimelt	nimelt	0		D	
      	nimi	lt		S	sg abl
1	1	0		N	?
igoblation	####				
7.	7.	0		O	?
aprillist	aprill	st		S	sg el
1883	1883	0		N	?
suur	suur	0		A	sg n
200	200	0		N	?
rbl	rbl	0		Y	?
1	1	0		N	?
""""	""""			Z	
5.	5.	0		O	?
jaanuarist	jaanuar	st		S	sg el
1884	1884	0		N	?
""""	""""			Z	
450	450	0		N	?
""""	""""			Z	
1	1	0		N	?
""""	""""			Z	
15	15	0		N	?
Veebr.	Veebr	0		Y	?
1884	1884	0		N	?
""""	""""			Z	
200	200	0		N	?
""""	""""			Z	
1	1	0		N	?
""""	""""			Z	
16	16	0		N	?
oktbr	####				
1885	1885	0		N	?
""""	""""			Z	
300	300	0		N	?
""""	""""			Z	
Summa	summ	0		S	adt
     	summ	0		S	sg g
     	summ	0		S	sg p
     	summa	0		S	sg g
     	summa	0		S	sg n
1250	1250	0		N	?
rbl	rbl	0		Y	?
otsus	otsus	0		S	sg n
:	:			Z	
keiserliku	keiserlik	0		A	sg g
Tartu	Tartu	0		H	adt
     	Tartu	0		H	sg g
     	Tartu	0		H	sg n
     	tartu	0		G	
Kreiskohtus	kreis_kohus	s		S	sg in
need	see	d		P	pl n
Obligationeid	####				
üles	üles	0		D	
kuulutada	kuuluta	da		V	da
.	.			Z	
/	/			Z	
:	:			Z	
Ära	ära	0		D	
   	ära	0		V	neg o
kiri	kiri	0		S	sg n
21	21	0		N	?
aprillil	aprill	l		S	sg ad
s	s	0		Y	?
.	.			Z	
a.	a	0		Y	?
äära	####				
saadetud	saat	tud		V	tud
        	saade=tu	d		S	pl n
        	saadetud	0		A	
        	saadetud	0		A	sg n
        	saadetud	d		A	pl n
:	:			Z	
/	/			Z	
Peakohtunik	pea_kohtunik	0		S	sg n
T	T	0		Y	?
Veits	####				
[	[			Z	
allkiri	all_kiri	0		S	sg n
]	]			Z	
kohtunik	kohtunik	0		S	sg n
J	J	0		Y	?
kuhi	kuhi	0		S	sg n
Abi	abi	0		S	sg g
   	abi	0		S	sg n
   	abi	0		S	sg p
A	A	0		Y	?
.	.			Z	
_	_			Z	
Kroonberg	####				
kirjutaja	kirjutaja	0		S	sg g
         	kirjutaja	0		S	sg n
kesti	kest	i		S	pl p
[	[			Z	
allkiri	all_kiri	0		S	sg n
]	]			Z	
