ette	ette	0		D	
    	ette	0		K	
    	esi	tte		S	adt
tuli	tuli	0		S	sg n
    	tule	i		V	s
Johann	Johann	0		H	sg n
Koobi	####				
ja	ja	0		J	
kaebas	kaeba	s		V	s
Peetri	Peeter	0		H	sg g
      	Peetri	0		H	sg g
      	Peetri	0		H	sg n
naise	naine	0		S	sg g
Liis	Liis	0		H	sg n
    	Lii	s		H	sg in
Mitu	mitu	0		P	sg n
peale	pea	le		S	sg all
     	peale	0		D	
     	peale	0		K	
,	,			Z	
kes	kes	0		P	pl n
   	kes	0		P	sg n
oli	ole	i		V	s
teda	tema	da		P	sg p
hirnsast	####				
sõimanud	sõima	nud		V	nud
        	sõima=nu	d		S	pl n
        	sõima=nud	0		A	
        	sõima=nud	0		A	sg n
        	sõima=nud	d		A	pl n
,	,			Z	
(	(			Z	
ning	ning	0		J	
nimetas	nimeta	s		V	s
palju	palju	0		D	
     	palju	0		P	sg g
     	palju	0		P	sg n
rop	####				
sõnu	sõna	u		S	pl p
    	sõnu	0		V	o
,	,			Z	
mis	mis	0		P	pl n
   	mis	0		P	sg n
ei	ei	0		D	
  	ei	0		V	neg
sünni	sünd	0		S	sg g
     	sündi	0		V	o
kirjuta	kirju	ta		A	sg ab
       	kirjuta	0		V	o
)	)			Z	
peale	pea	le		S	sg all
     	peale	0		D	
     	peale	0		K	
seda	see	da		P	sg p
vargaks	varas	ks		S	sg tr
ning	ning	0		J	
kõiges	kõik	s		P	sg in
mis	mis	0		P	pl n
   	mis	0		P	sg n
ei	ei	0		D	
  	ei	0		V	neg
sünni	sünd	0		S	sg g
     	sündi	0		V	o
nimeta	nimeta	0		V	o
      	nimi	ta		S	sg ab
.	.			Z	
seda	see	da		P	sg p
kuulnud	kuul	nud		V	nud
       	kuul=nud	0		A	
       	kuul=nud	0		A	sg n
       	kuul=nud	d		A	pl n
       	kuulnu	d		S	pl n
Johann	Johann	0		H	sg n
Idam	####				
.	.			Z	
Liis	Liis	0		H	sg n
    	Lii	s		H	sg in
Mitu	mitu	0		P	sg n
ühe	üks	0		N	sg g
   	üks	0		P	sg g
   	ühe	0		S	sg n
mehega	mees	ga		S	sg kom
ette	ette	0		D	
    	ette	0		K	
    	esi	tte		S	adt
kutsutu	kutsutu	0		S	sg g
       	kutsutud	0		A	sg g
       	kutsutu	0		S	sg n
ja	ja	0		J	
see	see	0		P	sg n
kaebus	kaebus	0		S	sg n
kuulutatud	kuuluta	tud		V	tud
          	kuuluta=tu	d		S	pl n
          	kuuluta=tud	0		A	
          	kuuluta=tud	0		A	sg n
          	kuuluta=tud	d		A	pl n
,	,			Z	
ütleb	ütle	b		V	b
et	et	0		J	
Johann	Johann	0		H	sg n
öövik	####				
ei	ei	0		D	
  	ei	0		V	neg
laskvad	laskev	d		A	pl n
temal	tema	l		P	sg ad
kuidagi	kuidagi	0		D	
elada	ela	da		V	da
ei	ei	0		D	
  	ei	0		V	neg
ka	ka	0		D	
kaebust	kaebus	t		S	sg p
vett	vesi	tt		S	sg p
võtta	võt	a		V	da
.	.			Z	
sõnu	sõna	u		S	pl p
    	sõnu	0		V	o
mis	mis	0		P	pl n
   	mis	0		P	sg n
Johann	Johann	0		H	sg n
nimetas	nimeta	s		V	s
,	,			Z	
ütles	ütle	s		V	s
Liis	Liis	0		H	sg n
    	Lii	s		H	sg in
mõne	mõni	0		P	sg g
jao	jagu	0		S	sg g
õige	õige	0		A	sg g
    	õige	0		A	sg n
    	õige	0		D	
olevad	olev	d		A	pl n
      	olev	d		S	pl n
.	.			Z	
Jääb	jää	b		V	b
pooleli	pooleli	0		D	
kuni	kuni	0		J	
    	kuni	0		K	
tunnistaja	tunnistaja	0		S	sg g
          	tunnistaja	0		S	sg n
saavad	saa	vad		V	vad
      	saav	d		A	pl n
      	saav	d		S	pl n
.	.			Z	
