ette	ette	0		D	
    	ette	0		K	
    	esi	tte		S	adt
tuli	tuli	0		S	sg n
    	tule	i		V	s
Märt	Märt	0		H	sg n
Kalk	kalk	0		A	sg n
ja	ja	0		J	
kaebas	kaeba	s		V	s
Peeter	Peeter	0		H	sg n
Parand	####				
peale	pea	le		S	sg all
     	peale	0		D	
     	peale	0		K	
,	,			Z	
et	et	0		J	
temal	tema	l		P	sg ad
jäänud	jää	nud		V	nud
      	jäänu	d		S	pl n
      	jäänud	0		A	
      	jäänud	0		A	sg n
      	jäänud	d		A	pl n
maamõõtmise	maa_mõõtmine	0		S	sg g
ajast	aeg	st		S	sg el
     	ajane	t		A	sg p
74	74	0		N	?
ma	mina	0		P	sg n
mis	mis	0		P	pl n
   	mis	0		P	sg n
temalt	tema	lt		P	sg abl
kirribe	####				
poole	pool	0		N	sg g
     	pool	0		S	sg g
     	pool	e		S	pl p
     	poole	0		K	
     	poole	0		S	sg n
viidud	vii	dud		V	tud
      	vii=du	d		S	pl n
      	vii=dud	0		A	
      	vii=dud	0		A	sg n
      	vii=dud	d		A	pl n
saanud	saa	nud		V	nud
      	saa=nud	0		A	
      	saa=nud	0		A	sg n
      	saa=nud	d		A	pl n
      	saanu	d		S	pl n
14	14	0		N	?
rubla	rubla	0		S	sg g
     	rubla	0		S	sg n
     	rubla	0		S	sg p
ja	ja	0		J	
muido	####				
tema	tema	0		P	sg g
    	tema	0		P	sg n
oma	oma	0		A	sg g
   	oma	0		D	
   	oma	0		P	sg g
   	oma	0		S	sg g
   	oma	0		V	o
   	oma	0		A	sg n
   	oma	0		A	sg p
   	oma	0		P	sg n
   	oma	0		P	sg p
   	oma	0		S	sg n
   	oma	0		S	sg p
kordse	kordne	0		A	sg g
      	kordne	0		S	sg g
võlga	võlg	0		S	adt
     	võlg	0		S	sg p
olla	ole	a		V	da
12	12	0		N	?
rbl	rbl	0		Y	?
83	83	0		N	?
kop	kop	0		Y	?
Summan	####				
26	26	0		N	?
rubla	rubla	0		S	sg g
     	rubla	0		S	sg n
     	rubla	0		S	sg p
83	83	0		N	?
kop	kop	0		Y	?
.	.			Z	
ning	ning	0		J	
palub	palu	b		V	b
nüüd	nüüd	0		D	
kogu	kogu	0		A	
    	kogu	0		S	sg g
    	kogu	0		V	o
    	kogu	0		S	sg n
    	kogu	0		S	sg p
konna	konn	0		S	adt
     	konn	0		S	sg g
     	konn	0		S	sg p
kohtul	kohus	l		S	sg ad
lasta	lask	ta		V	da
     	lask	ta		V	ta
seda	see	da		P	sg p
tema	tema	0		P	sg g
    	tema	0		P	sg n
käest	käest	0		K	
     	käsi	st		S	sg el
välja	välja	0		D	
     	välja	0		V	o
     	väli	0		S	adt
     	väli	0		S	sg g
     	väli	0		S	sg p
nõuda	nõud	a		V	da
.	.			Z	
sai	saa	i		V	s
   	sai	0		S	sg n
Peeter	Peeter	0		H	sg n
Parand	####				
sen	sen	0		Y	?
kaebuse	kaebus	0		S	sg g
küsitud	küsi	tud		V	tud
       	küsi=tu	d		S	pl n
       	küsi=tud	0		A	
       	küsi=tud	0		A	sg n
       	küsi=tud	d		A	pl n
ütles	ütle	s		V	s
minu	mina	0		P	sg g
teada	tead	a		V	da
ei	ei	0		D	
  	ei	0		V	neg
pea	pea	0		D	
   	pea	0		S	sg g
   	pida	0		V	o
   	pea	0		S	sg n
Karelatsi	####				
kortsi	kortsi	0		V	o
ühe	üks	0		N	sg g
   	üks	0		P	sg g
   	ühe	0		S	sg n
kopikat	kopikas	t		S	sg p
jäänud	jää	nud		V	nud
      	jäänu	d		S	pl n
      	jäänud	0		A	
      	jäänud	0		A	sg n
      	jäänud	d		A	pl n
olevad	olev	d		A	pl n
      	olev	d		S	pl n
,	,			Z	
maamõõtmise	maa_mõõtmine	0		S	sg g
raha	raha	0		S	sg g
    	raha	0		S	sg n
    	raha	0		S	sg p
pera	####				
otsa	ots	0		S	adt
    	ots	0		S	sg g
    	otsa	0		D	
    	otsa	0		K	
    	otsa	0		V	o
    	ots	0		S	sg p
ei	ei	0		D	
  	ei	0		V	neg
talita	tali	ta		S	sg ab
      	talita	0		V	o
mina	mina	0		P	sg n
    	mina	0		S	sg g
    	mina	0		S	sg n
    	mina	0		S	sg p
mitte	mitte	0		D	
ja	ja	0		J	
min	min	0		Y	?
kuuli	kuul	0		S	adt
     	kuul	0		S	sg g
     	kuul	0		S	sg p
ennegi	ennegi	0		D	
et	et	0		J	
46	46	0		N	?
rubla	rubla	0		S	sg g
     	rubla	0		S	sg n
     	rubla	0		S	sg p
on	ole	0		V	b
  	ole	0		V	vad
ja	ja	0		J	
seda	see	da		P	sg p
mina	mina	0		P	sg n
    	mina	0		S	sg g
    	mina	0		S	sg n
    	mina	0		S	sg p
masi	####				
selle	see	0		P	sg g
     	sell	e		S	pl p
kuulatud	kuula	tud		V	tud
        	kuula=tu	d		S	pl n
        	kuula=tud	0		A	
        	kuula=tud	0		A	sg n
        	kuula=tud	d		A	pl n
perra	####				
äära	####				
,	,			Z	
oma	oma	0		A	sg g
   	oma	0		D	
   	oma	0		P	sg g
   	oma	0		S	sg g
   	oma	0		V	o
   	oma	0		A	sg n
   	oma	0		A	sg p
   	oma	0		P	sg n
   	oma	0		P	sg p
   	oma	0		S	sg n
   	oma	0		S	sg p
võla	võlg	0		S	sg g
73	73	0		N	?
aastalt	aasta	lt		S	sg abl
ei	ei	0		D	
  	ei	0		V	neg
tea	tead	0		V	o
mina	mina	0		P	sg n
    	mina	0		S	sg g
    	mina	0		S	sg n
    	mina	0		S	sg p
sest	see	st		P	sg el
    	sest	0		J	
ega	ega	0		D	
   	ega	0		J	
minul	mina	l		P	sg ad
toll	toll	0		S	sg n
korral	kord	l		S	sg ad
      	korral	0		D	
      	korral	0		K	
raha	raha	0		S	sg g
    	raha	0		S	sg n
    	raha	0		S	sg p
puudust	puudus	t		S	sg p
ei	ei	0		D	
  	ei	0		V	neg
ole	ole	0		V	o
.	.			Z	
ei	ei	0		D	
  	ei	0		V	neg
saa	saa	0		V	o
ka	ka	0		D	
mina	mina	0		P	sg n
    	mina	0		S	sg g
    	mina	0		S	sg n
    	mina	0		S	sg p
kõik	kõik	0		P	pl n
    	kõik	0		S	sg n
    	kõik	0		P	sg n
raha	raha	0		S	sg g
    	raha	0		S	sg n
    	raha	0		S	sg p
maamootmise	####				
kuulude	####				
peale	pea	le		S	sg all
     	peale	0		D	
     	peale	0		K	
enda	ise	0		P	sg g
kätte	kätte	0		K	
     	käsi	tte		S	adt
,	,			Z	
sest	see	st		P	sg el
    	sest	0		J	
õimeaste	####				
küla	küla	0		S	sg g
    	küla	0		S	sg n
    	küla	0		S	sg p
ja	ja	0		J	
Visule	####				
maksid	maks	id		V	sid
      	maksi	d		S	pl n
ju	ju	0		D	
vastse	vastne	0		A	sg g
      	vastne	0		S	sg g
ametniku	ametnik	0		S	sg g
.	.			Z	
otsus	otsus	0		S	sg n
:	:			Z	
jääb	jää	b		V	b
teises	teine	s		O	sg in
      	teine	s		P	sg in
korras	kord	s		S	sg in
      	korras	0		A	
kuni	kuni	0		J	
    	kuni	0		K	
Jaan	Jaan	0		H	sg n
    	jaan	0		S	sg n
    	jaan	0		Y	?
Luik	luik	0		S	sg n
Andres	Andre	s		H	sg in
      	Andres	0		H	sg n
Nikopensius	####				
ja	ja	0		J	
Peeter	Peeter	0		H	sg n
Usin	usin	0		A	sg n
ette	ette	0		D	
    	ette	0		K	
    	esi	tte		S	adt
tallite	####				
.	.			Z	
