Adam	####				
häidson	####				
kaebas	kaeba	s		V	s
kohtu	kohtu	0		V	o
     	kohus	0		S	sg g
ees	ees	0		D	
   	ees	0		K	
   	esi	s		S	sg in
et	et	0		J	
tema	tema	0		P	sg g
    	tema	0		P	sg n
on	ole	0		V	b
  	ole	0		V	vad
ostnud	ost	nud		V	nud
      	ost=nu	d		S	pl n
      	ost=nud	0		A	
      	ost=nud	0		A	sg n
      	ost=nud	d		A	pl n
1869	1869	0		N	?
aastal	aasta	l		S	sg ad
Mihkel	Mihkel	0		H	sg n
      	mihkel	0		A	sg n
      	mihkel	0		S	sg n
Griguli	####				
käest	käest	0		K	
     	käsi	st		S	sg el
1	1	0		N	?
vakama	####				
linumaad	####				
10	10	0		N	?
rubla	rubla	0		S	sg g
     	rubla	0		S	sg n
     	rubla	0		S	sg p
eest	eest	0		D	
    	eest	0		K	
    	esi	st		S	sg el
ja	ja	0		J	
siis	siis	0		D	
    	siis	0		J	
oleva	olev	0		A	sg g
     	olev	0		S	sg g
10	10	0		N	?
rubla	rubla	0		S	sg g
     	rubla	0		S	sg n
     	rubla	0		S	sg p
võlgu	võlg	u		S	pl p
     	võlgu	0		D	
andnud	and	nud		V	nud
      	and=nu	d		S	pl n
      	and=nud	0		A	
      	and=nud	0		A	sg n
      	and=nud	d		A	pl n
Mihkel	Mihkel	0		H	sg n
      	mihkel	0		A	sg n
      	mihkel	0		S	sg n
Griiulil	####				
mis	mis	0		P	pl n
   	mis	0		P	sg n
Mihkel	Mihkel	0		H	sg n
      	mihkel	0		A	sg n
      	mihkel	0		S	sg n
seni	seni	0		D	
ajani	aeg	ni		S	sg ter
ära	ära	0		D	
   	ära	0		V	neg o
ei	ei	0		D	
  	ei	0		V	neg
ole	ole	0		V	o
maksnud	maks	nud		V	nud
       	maks=nu	d		S	pl n
       	maks=nud	0		A	
       	maks=nud	0		A	sg n
       	maks=nud	d		A	pl n
,	,			Z	
nüüd	nüüd	0		D	
nõuab	nõud	b		V	b
Adam	####				
Mihkli	Mihkel	0		H	sg g
      	Mihkli	0		H	sg g
      	mihkel	0		A	sg g
      	mihkel	0		S	sg g
      	Mihkli	0		H	sg n
käest	käest	0		K	
     	käsi	st		S	sg el
seda	see	da		P	sg p
raha	raha	0		S	sg g
    	raha	0		S	sg n
    	raha	0		S	sg p
ära	ära	0		D	
   	ära	0		V	neg o
maksetud	makse=tu	d		A	pl n
saada	saa	da		V	da
     	saat	0		V	o
     	saa	da		V	ta
,	,			Z	
ja	ja	0		J	
3	3	0		N	?
rubla	rubla	0		S	sg g
     	rubla	0		S	sg n
     	rubla	0		S	sg p
oleva	olev	0		A	sg g
     	olev	0		S	sg g
enne	enne	0		D	
    	enne	0		K	
    	enne	0		S	sg n
võlgu	võlg	u		S	pl p
     	võlgu	0		D	
jäänud	jää	nud		V	nud
      	jäänu	d		S	pl n
      	jäänud	0		A	
      	jäänud	0		A	sg n
      	jäänud	d		A	pl n
linuma	####				
mant	mant	0		D	
    	mant	0		K	
    	mant	0		S	sg n
saada	saa	da		V	da
     	saat	0		V	o
     	saa	da		V	ta
Mihkli	Mihkel	0		H	sg g
      	Mihkli	0		H	sg g
      	mihkel	0		A	sg g
      	mihkel	0		S	sg g
      	Mihkli	0		H	sg n
käest	käest	0		K	
     	käsi	st		S	sg el
,	,			Z	
nüüd	nüüd	0		D	
palub	palu	b		V	b
Adam	####				
kõik	kõik	0		P	pl n
    	kõik	0		S	sg n
    	kõik	0		P	sg n
seda	see	da		P	sg p
raha	raha	0		S	sg g
    	raha	0		S	sg n
    	raha	0		S	sg p
kätte	kätte	0		K	
     	käsi	tte		S	adt
saada	saa	da		V	da
     	saat	0		V	o
     	saa	da		V	ta
.	.			Z	
Mihkel	Mihkel	0		H	sg n
      	mihkel	0		A	sg n
      	mihkel	0		S	sg n
Grigul	####				
ütles	ütle	s		V	s
et	et	0		J	
tema	tema	0		P	sg g
    	tema	0		P	sg n
ei	ei	0		D	
  	ei	0		V	neg
oleva	olev	0		A	sg g
     	olev	0		S	sg g
siis	siis	0		D	
    	siis	0		J	
Adamil	####				
andnud	and	nud		V	nud
      	and=nu	d		S	pl n
      	and=nud	0		A	
      	and=nud	0		A	sg n
      	and=nud	d		A	pl n
1	1	0		N	?
vakama	####				
linumaad	####				
20	20	0		N	?
rubla	rubla	0		S	sg g
     	rubla	0		S	sg n
     	rubla	0		S	sg p
eest	eest	0		D	
    	eest	0		K	
    	esi	st		S	sg el
,	,			Z	
ja	ja	0		J	
Adam	####				
oleva	olev	0		A	sg g
     	olev	0		S	sg g
20	20	0		N	?
rubla	rubla	0		S	sg g
     	rubla	0		S	sg n
     	rubla	0		S	sg p
selle	see	0		P	sg g
     	sell	e		S	pl p
vakama	####				
eest	eest	0		D	
    	eest	0		K	
    	esi	st		S	sg el
ära	ära	0		D	
   	ära	0		V	neg o
maksnud	maks	nud		V	nud
       	maks=nu	d		S	pl n
       	maks=nud	0		A	
       	maks=nud	0		A	sg n
       	maks=nud	d		A	pl n
.	.			Z	
3	3	0		N	?
rubla	rubla	0		S	sg g
     	rubla	0		S	sg n
     	rubla	0		S	sg p
oleva	olev	0		A	sg g
     	olev	0		S	sg g
murru	murd	0		S	sg g
sare	####				
8	8	0		N	?
rubla	rubla	0		S	sg g
     	rubla	0		S	sg n
     	rubla	0		S	sg p
kauba	kaup	0		S	sg g
sees	sees	0		D	
    	sees	0		K	
käerahas	käe_raha	s		S	sg in
antud	an=tu	d		S	pl n
     	and	tud		V	tud
     	antud	0		A	
     	antud	0		A	sg n
     	antud	d		A	pl n
ja	ja	0		J	
nii	nii	0		D	
lepitud	leppi	tud		V	tud
       	lepi=tu	d		S	pl n
       	lepi=tud	0		A	
       	lepi=tud	0		A	sg n
       	lepi=tud	d		A	pl n
kui	kui	0		D	
   	kui	0		J	
Adam	####				
saart	saar	t		S	sg p
ei	ei	0		D	
  	ei	0		V	neg
võtta	võt	a		V	da
siis	siis	0		D	
    	siis	0		J	
on	ole	0		V	b
  	ole	0		V	vad
3	3	0		N	?
rubla	rubla	0		S	sg g
     	rubla	0		S	sg n
     	rubla	0		S	sg p
käeraha	käe_raha	0		S	sg g
       	käe_raha	0		S	sg n
       	käe_raha	0		S	sg p
lõppenud	lõppe	nud		V	nud
        	lõppe=nu	d		S	pl n
        	lõppenud	0		A	
        	lõppenud	0		A	sg n
        	lõppenud	d		A	pl n
,	,			Z	
aga	aga	0		J	
Adam	####				
ei	ei	0		D	
  	ei	0		V	neg
oleva	olev	0		A	sg g
     	olev	0		S	sg g
saart	saar	t		S	sg p
võtnud	võt	nud		V	nud
      	võt=nu	d		S	pl n
      	võt=nud	0		A	
      	võt=nud	0		A	sg n
      	võt=nud	d		A	pl n
siis	siis	0		D	
    	siis	0		J	
selle	see	0		P	sg g
     	sell	e		S	pl p
pärast	pära	st		S	sg el
      	pärane	t		A	sg p
      	pärast	0		D	
      	pärast	0		K	
oleva	olev	0		A	sg g
     	olev	0		S	sg g
see	see	0		P	sg n
3	3	0		N	?
rubla	rubla	0		S	sg g
     	rubla	0		S	sg n
     	rubla	0		S	sg p
käeraha	käe_raha	0		S	sg g
       	käe_raha	0		S	sg n
       	käe_raha	0		S	sg p
lõppenud	lõppe	nud		V	nud
        	lõppe=nu	d		S	pl n
        	lõppenud	0		A	
        	lõppenud	0		A	sg n
        	lõppenud	d		A	pl n
või	või	0		S	sg g
   	või	0		V	o
   	või	0		D	
   	või	0		J	
   	või	0		S	sg n
jäänud	jää	nud		V	nud
      	jäänu	d		S	pl n
      	jäänud	0		A	
      	jäänud	0		A	sg n
      	jäänud	d		A	pl n
temale	tema	le		P	sg all
.	.			Z	
Adam	####				
häidson	####				
ütles	ütle	s		V	s
see	see	0		P	sg n
3	3	0		N	?
rubla	rubla	0		S	sg g
     	rubla	0		S	sg n
     	rubla	0		S	sg p
maa	maa	0		S	sg g
   	maa	0		S	sg n
peale	pea	le		S	sg all
     	peale	0		D	
     	peale	0		K	
käerahas	käe_raha	s		S	sg in
andnud	and	nud		V	nud
      	and=nu	d		S	pl n
      	and=nud	0		A	
      	and=nud	0		A	sg n
      	and=nud	d		A	pl n
.	.			Z	
Mihkli	Mihkel	0		H	sg g
      	Mihkli	0		H	sg g
      	mihkel	0		A	sg g
      	mihkel	0		S	sg g
      	Mihkli	0		H	sg n
poja	poeg	0		S	sg g
    	poja	0		S	sg g
    	poja	0		S	sg n
    	poja	0		S	sg p
Peetri	Peeter	0		H	sg g
      	Peetri	0		H	sg g
      	Peetri	0		H	sg n
ja	ja	0		J	
Peetri	Peeter	0		H	sg g
      	Peetri	0		H	sg g
      	Peetri	0		H	sg n
Timati	####				
ja	ja	0		J	
Gustav	Gustav	0		H	sg n
Tilgandi	####				
tunnistuse	tunnistus	0		S	sg g
pärast	pära	st		S	sg el
      	pärane	t		A	sg p
      	pärast	0		D	
      	pärast	0		K	
jääs	jää	s		S	sg in
poolele	pool	le		N	sg all
       	pool	le		S	sg all
.	.			Z	
pea	pea	0		D	
   	pea	0		S	sg g
   	pida	0		V	o
   	pea	0		S	sg n
kohtumees	kohtu_mees	0		S	sg n
Jaan	Jaan	0		H	sg n
    	jaan	0		S	sg n
    	jaan	0		Y	?
Holsting	####				
kohtumees	kohtu_mees	0		S	sg n
Jakob	Jakob	0		H	sg n
Türkson	####				
kohtumees	kohtu_mees	0		S	sg n
Paap	####				
Kress	kress	0		S	sg n
kohtumees	kohtu_mees	0		S	sg n
Kristjan	Kristjan	0		H	sg n
Rusand	####				
kohtumees	kohtu_mees	0		S	sg n
Gustav	Gustav	0		H	sg n
Tolmuk	####				
kohtumees	kohtu_mees	0		S	sg n
Rein	Rein	0		H	sg n
Lambing	####				
