Henni	####				
Tanel	Tanel	0		H	sg n
kaebas	kaeba	s		V	s
et	et	0		J	
tema	tema	0		P	sg g
    	tema	0		P	sg n
poigi	poi	0	gi	S	sg g
     	poi	0	gi	S	sg n
taha	taht	0		V	o
    	taha	0		D	
    	taha	0		K	
ära	ära	0		D	
   	ära	0		V	neg o
ajasid	aja	sid		V	sid
see	see	0		P	sg n
sai	saa	i		V	s
   	sai	0		S	sg n
perra	####				
kuuldus	kuuldu	s		S	sg in
       	kuuldu	s		V	s
       	kuuldud	s		A	sg in
       	kuuldus	0		S	sg n
ja	ja	0		J	
nemad	tema	d		P	pl n
lubasivad	####				
ära	ära	0		D	
   	ära	0		V	neg o
lepita	leppi	ta		V	ta
      	lepita	0		V	o
.	.			Z	
