orjusnik	####				
Timofei	####				
Gavrillu	####				
kaebas	kaeba	s		V	s
kohtu	kohtu	0		V	o
     	kohus	0		S	sg g
ees	ees	0		D	
   	ees	0		K	
   	esi	s		S	sg in
,	,			Z	
et	et	0		J	
nemad	tema	d		P	pl n
on	ole	0		V	b
  	ole	0		V	vad
1	1	0		N	?
hobune	hobune	0		S	sg n
palganud	palka	nud		V	nud
        	palga=nu	d		S	pl n
        	palga=nud	0		A	
        	palga=nud	0		A	sg n
        	palga=nud	d		A	pl n
50	50	0		N	?
kopka	####				
eest	eest	0		D	
    	eest	0		K	
    	esi	st		S	sg el
Musta	must	0		A	adt
     	must	0		A	sg g
     	must	0		S	adt
     	must	0		S	sg g
     	musta	0		V	o
     	must	0		A	sg p
     	must	0		S	sg p
Jaani	Jaan	0		H	adt
     	Jaan	0		H	sg g
     	Jaani	0		H	sg g
     	jaan	0		S	adt
     	jaan	0		S	sg g
     	Jaan	0		H	sg p
     	Jaani	0		H	sg n
     	jaan	0		S	sg p
käest	käest	0		K	
     	käsi	st		S	sg el
,	,			Z	
ja	ja	0		J	
rama	####				
kõrtsima	####				
on	ole	0		V	b
  	ole	0		V	vad
Jaan	Jaan	0		H	sg n
    	jaan	0		S	sg n
    	jaan	0		Y	?
Mäus	####				
selle	see	0		P	sg g
     	sell	e		S	pl p
vorimehele	####				
ütelnud	ütle	nud		V	nud
       	ütel=nu	d		S	pl n
       	ütel=nud	0		A	
       	ütel=nud	0		A	sg n
       	ütel=nud	d		A	pl n
et	et	0		J	
50	50	0		N	?
kop	kop	0		Y	?
eest	eest	0		D	
    	eest	0		K	
    	esi	st		S	sg el
eest	eest	0		D	
    	eest	0		K	
    	esi	st		S	sg el
ei	ei	0		D	
  	ei	0		V	neg
või	või	0		S	sg g
   	või	0		V	o
   	või	0		D	
   	või	0		J	
   	või	0		S	sg n
mina	mina	0		P	sg n
    	mina	0		S	sg g
    	mina	0		S	sg n
    	mina	0		S	sg p
ja	ja	0		J	
on	ole	0		V	b
  	ole	0		V	vad
ära	ära	0		D	
   	ära	0		V	neg o
laitnud	lait	nud		V	nud
       	lait=nu	d		S	pl n
       	lait=nud	0		A	
       	lait=nud	0		A	sg n
       	lait=nud	d		A	pl n
ja	ja	0		J	
siis	siis	0		D	
    	siis	0		J	
on	ole	0		V	b
  	ole	0		V	vad
jälle	jälle	0		D	
orja	orja	0		V	o
    	ori	0		S	adt
    	ori	0		S	sg g
    	ori	0		S	sg p
otsida	otsi	da		V	da
80	80	0		N	?
kopka	####				
eest	eest	0		D	
    	eest	0		K	
    	esi	st		S	sg el
palganud	palka	nud		V	nud
        	palga=nu	d		S	pl n
        	palga=nud	0		A	
        	palga=nud	0		A	sg n
        	palga=nud	d		A	pl n
ühe	üks	0		N	sg g
   	üks	0		P	sg g
   	ühe	0		S	sg n
hobust	hobu	st		S	sg el
      	hobune	t		S	sg p
külast	küla	st		S	sg el
,	,			Z	
ning	ning	0		J	
jälle	jälle	0		D	
on	ole	0		V	b
  	ole	0		V	vad
Jaan	Jaan	0		H	sg n
    	jaan	0		S	sg n
    	jaan	0		Y	?
Mäus	####				
rama	####				
kõrtsimant	kõrtsi_mant	0		S	sg n
seda	see	da		P	sg p
ära	ära	0		D	
   	ära	0		V	neg o
laitnud	lait	nud		V	nud
       	lait=nu	d		S	pl n
       	lait=nud	0		A	
       	lait=nud	0		A	sg n
       	lait=nud	d		A	pl n
ja	ja	0		J	
on	ole	0		V	b
  	ole	0		V	vad
ütelnud	ütle	nud		V	nud
       	ütel=nu	d		S	pl n
       	ütel=nud	0		A	
       	ütel=nud	0		A	sg n
       	ütel=nud	d		A	pl n
et	et	0		J	
mina	mina	0		P	sg n
    	mina	0		S	sg g
    	mina	0		S	sg n
    	mina	0		S	sg p
ei	ei	0		D	
  	ei	0		V	neg
lähe	lähe	0		S	sg n
    	mine	0		V	neg o
mitte	mitte	0		D	
2	2	0		N	?
rubla	rubla	0		S	sg g
     	rubla	0		S	sg n
     	rubla	0		S	sg p
eest	eest	0		D	
    	eest	0		K	
    	esi	st		S	sg el
Võõpsusse	võõp_suss	e		S	pl p
ning	ning	0		J	
siis	siis	0		D	
    	siis	0		J	
on	ole	0		V	b
  	ole	0		V	vad
Orja	orja	0		V	o
    	ori	0		S	adt
    	ori	0		S	sg g
    	ori	0		S	sg p
otsa	ots	0		S	adt
    	ots	0		S	sg g
    	otsa	0		D	
    	otsa	0		K	
    	otsa	0		V	o
    	ots	0		S	sg p
ütelnud	ütle	nud		V	nud
       	ütel=nu	d		S	pl n
       	ütel=nud	0		A	
       	ütel=nud	0		A	sg n
       	ütel=nud	d		A	pl n
et	et	0		J	
Jaanile	Jaan	le		H	sg all
       	Jaani	le		H	sg all
       	jaan	le		S	sg all
et	et	0		J	
sinu	sina	0		P	sg g
hobune	hobune	0		S	sg n
ei	ei	0		D	
  	ei	0		V	neg
jõua	jõud	0		V	o
Võõpsus	####				
mind	mina	d		P	sg p
iga	iga	0		P	sg g
   	iga	0		P	sg n
   	iga	0		P	sg p
   	iga	0		S	sg n
   	iga	0		S	sg p
sinu	sina	0		P	sg g
naist	naine	t		S	sg p
viia	vii	a		V	da
selle	see	0		P	sg g
     	sell	e		S	pl p
pärast	pära	st		S	sg el
      	pärane	t		A	sg p
      	pärast	0		D	
      	pärast	0		K	
sul	sina	l		P	sg ad
on	ole	0		V	b
  	ole	0		V	vad
väike	väike	0		A	sg n
hobune	hobune	0		S	sg n
.	.			Z	
selle	see	0		P	sg g
     	sell	e		S	pl p
peale	pea	le		S	sg all
     	peale	0		D	
     	peale	0		K	
on	ole	0		V	b
  	ole	0		V	vad
Jaan	Jaan	0		H	sg n
    	jaan	0		S	sg n
    	jaan	0		Y	?
Mäus	####				
neiks	see	ks		P	pl tr
     	tema	ks		P	pl tr
lasknud	lask	nud		V	nud
       	lask=nu	d		S	pl n
       	lask=nud	0		A	
       	lask=nud	0		A	sg n
       	lask=nud	d		A	pl n
Räpina	Räpina	0		H	sg g
      	räpp	na		S	sg es
      	Räpina	0		H	sg n
kõrtsima	####				
kindi	####				
võtta	võt	a		V	da
,	,			Z	
ja	ja	0		J	
3	3	0		N	?
rubla	rubla	0		S	sg g
     	rubla	0		S	sg n
     	rubla	0		S	sg p
kohtu	kohtu	0		V	o
     	kohus	0		S	sg g
mees	mees	0		S	sg n
    	mesi	s		S	sg in
Jakob	Jakob	0		H	sg n
Türksoni	####				
kätte	kätte	0		K	
     	käsi	tte		S	adt
sisse	siss	e		S	pl p
     	sisse	0		D	
     	sisse	0		K	
maksa	maks	0		S	adt
     	maks	0		S	sg g
     	maks	0		V	o
     	maks	0		S	sg p
seni	seni	0		D	
kui	kui	0		D	
   	kui	0		J	
kohus	kohu	s		V	s
     	kohus	0		S	sg n
seletäb	####				
.	.			Z	
Peeter	Peeter	0		H	sg n
Songi	song	i		S	pl p
     	songi	0		V	o
     	sonki	0		V	o
oleva	olev	0		A	sg g
     	olev	0		S	sg g
seda	see	da		P	sg p
raha	raha	0		S	sg g
    	raha	0		S	sg n
    	raha	0		S	sg p
vastu	vastu	0		D	
     	vastu	0		K	
võtnud	võt	nud		V	nud
      	võt=nu	d		S	pl n
      	võt=nud	0		A	
      	võt=nud	0		A	sg n
      	võt=nud	d		A	pl n
Jaan	Jaan	0		H	sg n
    	jaan	0		S	sg n
    	jaan	0		Y	?
Mäuse	####				
käest	käest	0		K	
     	käsi	st		S	sg el
sai	saa	i		V	s
   	sai	0		S	sg n
küsitud	küsi	tud		V	tud
       	küsi=tu	d		S	pl n
       	küsi=tud	0		A	
       	küsi=tud	0		A	sg n
       	küsi=tud	d		A	pl n
ütles	ütle	s		V	s
tema	tema	0		P	sg g
    	tema	0		P	sg n
et	et	0		J	
trotsimise	trotsi=mine	0		S	sg g
eest	eest	0		D	
    	eest	0		K	
    	esi	st		S	sg el
on	ole	0		V	b
  	ole	0		V	vad
tema	tema	0		P	sg g
    	tema	0		P	sg n
neid	neid	0		S	sg n
    	see	d		P	pl p
    	tema	d		P	pl p
Orja	orja	0		V	o
    	ori	0		S	adt
    	ori	0		S	sg g
    	ori	0		S	sg p
ostjad	ostja	d		S	pl n
orus	org	s		S	sg in
lasknud	lask	nud		V	nud
       	lask=nu	d		S	pl n
       	lask=nud	0		A	
       	lask=nud	0		A	sg n
       	lask=nud	d		A	pl n
,	,			Z	
ja	ja	0		J	
et	et	0		J	
üks	üks	0		N	sg n
   	üks	0		P	sg n
orja	orja	0		V	o
    	ori	0		S	adt
    	ori	0		S	sg g
    	ori	0		S	sg p
otsa	ots	0		S	adt
    	ots	0		S	sg g
    	otsa	0		D	
    	otsa	0		K	
    	otsa	0		V	o
    	ots	0		S	sg p
on	ole	0		V	b
  	ole	0		V	vad
sülenud	####				
silmi	silm	i		S	pl p
     	silmi	0		D	
ja	ja	0		J	
peale	pea	le		S	sg all
     	peale	0		D	
     	peale	0		K	
selle	see	0		P	sg g
     	sell	e		S	pl p
teine	teine	0		O	sg n
     	teine	0		P	sg n
ja	ja	0		J	
kolmas	kolmas	0		O	sg n
tagant	tagant	0		D	
      	tagant	0		K	
,	,			Z	
ja	ja	0		J	
et	et	0		J	
Orja	orja	0		V	o
    	ori	0		S	adt
    	ori	0		S	sg g
    	ori	0		S	sg p
otsiad	####				
tasaga	####				
on	ole	0		V	b
  	ole	0		V	vad
tema	tema	0		P	sg g
    	tema	0		P	sg n
manu	manu	0		D	
    	manu	0		K	
läinud	läinu	d		S	pl n
      	läinud	0		A	
      	läinud	0		A	sg n
      	läinud	d		A	pl n
      	mine	nud		V	nud
ähvardäänud	####				
,	,			Z	
ja	ja	0		J	
see	see	0		P	sg n
tüli	tüli	0		S	sg g
    	tüli	0		S	sg n
    	tüli	0		S	sg p
on	ole	0		V	b
  	ole	0		V	vad
selle	see	0		P	sg g
     	sell	e		S	pl p
pärast	pära	st		S	sg el
      	pärane	t		A	sg p
      	pärast	0		D	
      	pärast	0		K	
tulnud	tul=nud	0		A	
      	tul=nud	0		A	sg n
      	tul=nud	d		A	pl n
      	tule	nud		V	nud
      	tulnu	d		S	pl n
,	,			Z	
et	et	0		J	
Jaan	Jaan	0		H	sg n
    	jaan	0		S	sg n
    	jaan	0		Y	?
Mäus	####				
on	ole	0		V	b
  	ole	0		V	vad
ütelnud	ütle	nud		V	nud
       	ütel=nu	d		S	pl n
       	ütel=nud	0		A	
       	ütel=nud	0		A	sg n
       	ütel=nud	d		A	pl n
sellele	see	le		P	sg all
kes	kes	0		P	pl n
   	kes	0		P	sg n
orja	orja	0		V	o
    	ori	0		S	adt
    	ori	0		S	sg g
    	ori	0		S	sg p
otsida	otsi	da		V	da
vori	####				
mees	mees	0		S	sg n
    	mesi	s		S	sg in
80	80	0		N	?
kopka	####				
eest	eest	0		D	
    	eest	0		K	
    	esi	st		S	sg el
on	ole	0		V	b
  	ole	0		V	vad
olnud	ol=nud	0		A	
     	ol=nud	0		A	sg n
     	ol=nud	d		A	pl n
     	ole	nud		V	nud
     	olnu	d		S	pl n
,	,			Z	
et	et	0		J	
mina	mina	0		P	sg n
    	mina	0		S	sg g
    	mina	0		S	sg n
    	mina	0		S	sg p
ei	ei	0		D	
  	ei	0		V	neg
lähe	lähe	0		S	sg n
    	mine	0		V	neg o
mitte	mitte	0		D	
1	1	0		N	?
1	1	0		N	?
/	/			Z	
2	2	0		N	?
rubla	rubla	0		S	sg g
     	rubla	0		S	sg n
     	rubla	0		S	sg p
eest	eest	0		D	
    	eest	0		K	
    	esi	st		S	sg el
Võõpsusse	võõp_suss	e		S	pl p
.	.			Z	
Jaan	Jaan	0		H	sg n
    	jaan	0		S	sg n
    	jaan	0		Y	?
Prüks	####				
tunnistas	tunnista	s		V	s
et	et	0		J	
tema	tema	0		P	sg g
    	tema	0		P	sg n
on	ole	0		V	b
  	ole	0		V	vad
Jaan	Jaan	0		H	sg n
    	jaan	0		S	sg n
    	jaan	0		Y	?
Meosega	####				
istnud	####				
kõrtsin	####				
kui	kui	0		D	
   	kui	0		J	
varuse	####				
Jakob	Jakob	0		H	sg n
sisse	siss	e		S	pl p
     	sisse	0		D	
     	sisse	0		K	
on	ole	0		V	b
  	ole	0		V	vad
tulnud	tul=nud	0		A	
      	tul=nud	0		A	sg n
      	tul=nud	d		A	pl n
      	tule	nud		V	nud
      	tulnu	d		S	pl n
on	ole	0		V	b
  	ole	0		V	vad
Jaan	Jaan	0		H	sg n
    	jaan	0		S	sg n
    	jaan	0		Y	?
küsinud	küsi	nud		V	nud
       	küsi=nu	d		S	pl n
       	küsi=nud	0		A	
       	küsi=nud	0		A	sg n
       	küsi=nud	d		A	pl n
kus	kus	0		D	
sa	sina	0		P	sg n
lähad	####				
Võõpsusse	võõp_suss	e		S	pl p
orasid	ora	sid		S	pl p
viima	vii	ma		V	ma
,	,			Z	
mis	mis	0		P	pl n
   	mis	0		P	sg n
sa	sina	0		P	sg n
saad	saa	d		V	d
    	saad	0		S	sg n
on	ole	0		V	b
  	ole	0		V	vad
Jaan	Jaan	0		H	sg n
    	jaan	0		S	sg n
    	jaan	0		Y	?
kusinud	####				
80	80	0		N	?
kop	kop	0		Y	?
on	ole	0		V	b
  	ole	0		V	vad
Jakob	Jakob	0		H	sg n
vastu	vastu	0		D	
     	vastu	0		K	
ütelnud	ütle	nud		V	nud
       	ütel=nu	d		S	pl n
       	ütel=nud	0		A	
       	ütel=nud	0		A	sg n
       	ütel=nud	d		A	pl n
siis	siis	0		D	
    	siis	0		J	
on	ole	0		V	b
  	ole	0		V	vad
Jaan	Jaan	0		H	sg n
    	jaan	0		S	sg n
    	jaan	0		Y	?
ütelnud	ütle	nud		V	nud
       	ütel=nu	d		S	pl n
       	ütel=nud	0		A	
       	ütel=nud	0		A	sg n
       	ütel=nud	d		A	pl n
et	et	0		J	
mina	mina	0		P	sg n
    	mina	0		S	sg g
    	mina	0		S	sg n
    	mina	0		S	sg p
ei	ei	0		D	
  	ei	0		V	neg
lähe	lähe	0		S	sg n
    	mine	0		V	neg o
mitte	mitte	0		D	
1	1	0		N	?
1	1	0		N	?
/	/			Z	
2	2	0		N	?
rubla	rubla	0		S	sg g
     	rubla	0		S	sg n
     	rubla	0		S	sg p
eest	eest	0		D	
    	eest	0		K	
    	esi	st		S	sg el
selle	see	0		P	sg g
     	sell	e		S	pl p
tee	tee	0		S	sg g
   	tege	0		V	o
   	tee	0		S	sg n
Võõpsusse	võõp_suss	e		S	pl p
,	,			Z	
siis	siis	0		D	
    	siis	0		J	
on	ole	0		V	b
  	ole	0		V	vad
Orja	orja	0		V	o
    	ori	0		S	adt
    	ori	0		S	sg g
    	ori	0		S	sg p
otsida	otsi	da		V	da
maast	maa	st		S	sg el
üles	üles	0		D	
karanud	karga	nud		V	nud
       	kara=nu	d		S	pl n
       	kara=nud	0		A	
       	kara=nud	0		A	sg n
       	kara=nud	d		A	pl n
ja	ja	0		J	
Jaanile	Jaan	le		H	sg all
       	Jaani	le		H	sg all
       	jaan	le		S	sg all
suhtide	####				
suläänud	####				
,	,			Z	
ja	ja	0		J	
siis	siis	0		D	
    	siis	0		J	
on	ole	0		V	b
  	ole	0		V	vad
teine	teine	0		O	sg n
     	teine	0		P	sg n
kolmas	kolmas	0		O	sg n
,	,			Z	
neljas	neli	s		N	sg in
      	neljas	0		O	sg n
ka	ka	0		D	
maast	maa	st		S	sg el
üles	üles	0		D	
tõusnud	tõus	nud		V	nud
       	tõus=nu	d		S	pl n
       	tõus=nud	0		A	
       	tõus=nud	0		A	sg n
       	tõus=nud	d		A	pl n
ja	ja	0		J	
Jaanile	Jaan	le		H	sg all
       	Jaani	le		H	sg all
       	jaan	le		S	sg all
manu	manu	0		D	
    	manu	0		K	
hakanud	hakka	nud		V	nud
       	haka=nu	d		S	pl n
       	haka=nud	0		A	
       	haka=nud	0		A	sg n
       	haka=nud	d		A	pl n
,	,			Z	
ja	ja	0		J	
tülitsenud	tülitse	nud		V	nud
          	tülitse=nu	d		S	pl n
          	tülitse=nud	0		A	
          	tülitse=nud	0		A	sg n
          	tülitse=nud	d		A	pl n
Semme	####				
Panof	####				
tunnistas	tunnista	s		V	s
et	et	0		J	
ei	ei	0		D	
  	ei	0		V	neg
ole	ole	0		V	o
mitte	mitte	0		D	
näinud	näi	nud		V	nud
      	näge	nud		V	nud
      	näi=nud	0		A	
      	näi=nud	0		A	sg n
      	näi=nud	d		A	pl n
      	näinu	d		S	pl n
orjusne	####				
sülgamist	sülga=mine	t		S	sg p
,	,			Z	
ega	ega	0		D	
   	ega	0		J	
seda	see	da		P	sg p
on	ole	0		V	b
  	ole	0		V	vad
näinud	näi	nud		V	nud
      	näge	nud		V	nud
      	näi=nud	0		A	
      	näi=nud	0		A	sg n
      	näi=nud	d		A	pl n
      	näinu	d		S	pl n
kui	kui	0		D	
   	kui	0		J	
Jaan	Jaan	0		H	sg n
    	jaan	0		S	sg n
    	jaan	0		Y	?
Mäus	####				
käsi	käski	0		V	o
    	käsi	0		S	pl p
    	käsi	0		S	sg n
    	käsi	0		D	
on	ole	0		V	b
  	ole	0		V	vad
lautanud	lau_tanu	d		S	pl n
ja	ja	0		J	
orja	orja	0		V	o
    	ori	0		S	adt
    	ori	0		S	sg g
    	ori	0		S	sg p
otsiad	####				
on	ole	0		V	b
  	ole	0		V	vad
Tagarikkus	taga_rikkus	0		S	sg n
olnud	ol=nud	0		A	
     	ol=nud	0		A	sg n
     	ol=nud	d		A	pl n
     	ole	nud		V	nud
     	olnu	d		S	pl n
.	.			Z	
kohus	kohu	s		V	s
     	kohus	0		S	sg n
mõistis	mõist	is		V	s
,	,			Z	
et	et	0		J	
orjusnikkus	####				
peavad	pida	vad		V	vad
maksma	maks	ma		V	ma
Mausele	####				
sülgamise	sülga=mine	0		S	sg g
eest	eest	0		D	
    	eest	0		K	
    	esi	st		S	sg el
50	50	0		N	?
kop	kop	0		Y	?
ja	ja	0		J	
vaeste	vaene	te		A	pl g
      	vaene	te		S	pl g
laadikus	laadik	s		S	sg in
50	50	0		N	?
kop	kop	0		Y	?
.	.			Z	
