ville	vill	e		S	pl p
sel	see	l		P	sg ad
   	sel	0		Y	?
10	10	0		N	?
detsember	detsember	0		S	sg n
1875.	1875.	0		O	?
sel	see	l		P	sg ad
   	sel	0		Y	?
3.	3.	0		O	?
Detsembril	detsember	l		S	sg ad
palus	palu	s		S	sg in
     	palu	s		V	s
metsavalitseja	metsa_valitseja	0		S	sg g
              	metsa_valitseja	0		S	sg n
Kruse	####				
seda	see	da		P	sg p
paljund	####				
latti	latt	0		S	adt
     	latt	0		S	sg p
vargust	vargus	t		S	sg p
68	68	0		N	?
tükki	tükk	0		S	adt
     	tükk	0		S	sg p
     	tükki	0		D	
mis	mis	0		P	pl n
   	mis	0		P	sg n
Karl	Karl	0		H	sg n
Look	look	0		S	sg n
Parooni	####				
herrale	####				
kaebanud	####				
et	et	0		J	
Hendrik	Hendrik	0		H	sg n
Kikkas	kikas	s		S	sg in
varastataks	varasta	taks		V	taks
,	,			Z	
ent	ent	0		J	
nüüd	nüüd	0		D	
tõttes	####				
sanut	####				
et	et	0		J	
enne	enne	0		D	
    	enne	0		K	
    	enne	0		S	sg n
10	10	0		N	?
tükki	tükk	0		S	adt
     	tükk	0		S	sg p
     	tükki	0		D	
ent	ent	0		J	
seda	see	da		P	sg p
nüüd	nüüd	0		D	
Karl	Karl	0		H	sg n
Look	look	0		S	sg n
tõttes	####				
tette	####				
kus	kus	0		D	
need	see	d		P	pl n
58	58	0		N	?
tükki	tükk	0		S	adt
     	tükk	0		S	sg p
     	tükki	0		D	
oma	oma	0		A	sg g
   	oma	0		D	
   	oma	0		P	sg g
   	oma	0		S	sg g
   	oma	0		V	o
   	oma	0		A	sg n
   	oma	0		A	sg p
   	oma	0		P	sg n
   	oma	0		P	sg p
   	oma	0		S	sg n
   	oma	0		S	sg p
.	.			Z	
Karl	Karl	0		H	sg n
Look	look	0		S	sg n
ütles	ütle	s		V	s
et	et	0		J	
mina	mina	0		P	sg n
    	mina	0		S	sg g
    	mina	0		S	sg n
    	mina	0		S	sg p
ise	ise	0		A	
   	ise	0		D	
   	ise	0		P	pl n
   	ise	0		P	sg n
näi	näi	0		V	o
ning	ning	0		J	
kui	kui	0		D	
   	kui	0		J	
tema	tema	0		P	sg g
    	tema	0		P	sg n
karjusega	karjus	ga		S	sg kom
tolli	toll	0		S	adt
     	toll	0		S	sg g
     	tolli	0		V	o
     	toll	0		S	sg p
.	.			Z	
ning	ning	0		J	
olevat	ole	vat		V	vat
      	olev	t		A	sg p
      	olev	t		S	sg p
kaveel	####				
näinud	näi	nud		V	nud
      	näge	nud		V	nud
      	näi=nud	0		A	
      	näi=nud	0		A	sg n
      	näi=nud	d		A	pl n
      	näinu	d		S	pl n
Mari	Mari	0		H	sg g
    	mari	0		S	sg g
    	mari	0		S	sg n
    	Mari	0		H	sg n
    	mari	0		S	sg p
Märtimägi	####				
ja	ja	0		J	
Hendrik	Hendrik	0		H	sg n
Kikkas	kikas	s		S	sg in
karjus	karju	s		V	s
      	karjus	0		S	sg n
Peeter	Peeter	0		H	sg n
Päsokenne	####				
kes	kes	0		P	pl n
   	kes	0		P	sg n
nüüd	nüüd	0		D	
vana	vana	0		A	sg g
    	vana	0		A	sg n
    	vana	0		A	sg p
    	vana	0		S	sg g
    	vana	0		S	sg n
    	vana	0		S	sg p
Kustas	Kusta	s		H	sg in
      	Kustas	0		H	sg n
.	.			Z	
Karl	Karl	0		H	sg n
Look	look	0		S	sg n
ütles	ütle	s		V	s
et	et	0		J	
mina	mina	0		P	sg n
    	mina	0		S	sg g
    	mina	0		S	sg n
    	mina	0		S	sg p
ei	ei	0		D	
  	ei	0		V	neg
ole	ole	0		V	o
kellegi	keegi	gi		P	sg g
kaebanud	####				
ei	ei	0		D	
  	ei	0		V	neg
ka	ka	0		D	
neid	neid	0		S	sg n
    	see	d		P	pl p
    	tema	d		P	pl p
late	####				
lugenud	luge	nud		V	nud
       	luge=nu	d		S	pl n
       	luge=nud	0		A	
       	luge=nud	0		A	sg n
       	luge=nud	d		A	pl n
ei	ei	0		D	
  	ei	0		V	neg
tea	tead	0		V	o
ka	ka	0		D	
kus	kus	0		D	
kõik	kõik	0		P	pl n
    	kõik	0		S	sg n
    	kõik	0		P	sg n
oma	oma	0		A	sg g
   	oma	0		D	
   	oma	0		P	sg g
   	oma	0		S	sg g
   	oma	0		V	o
   	oma	0		A	sg n
   	oma	0		A	sg p
   	oma	0		P	sg n
   	oma	0		P	sg p
   	oma	0		S	sg n
   	oma	0		S	sg p
pandud	pan=du	d		S	pl n
      	pan=dud	0		A	
      	pan=dud	0		A	sg n
      	pan=dud	d		A	pl n
      	pane	dud		V	tud
.	.			Z	
mõistet	mõiste	t		S	sg p
Mari	Mari	0		H	sg g
    	mari	0		S	sg g
    	mari	0		S	sg n
    	Mari	0		H	sg n
    	mari	0		S	sg p
Märtimägi	####				
ja	ja	0		J	
Peeter	Peeter	0		H	sg n
Päsokenne	####				
toiseks	####				
kohtu	kohtu	0		V	o
     	kohus	0		S	sg g
päevaks	päev	ks		S	sg tr
tallitada	####				
.	.			Z	
_	_			Z	
sel	see	l		P	sg ad
   	sel	0		Y	?
23.	23.	0		O	?
detsember	detsember	0		S	sg n
.	.			Z	
_	_			Z	
