Mihkli	Mihkel	0		H	sg g
      	Mihkli	0		H	sg g
      	mihkel	0		A	sg g
      	mihkel	0		S	sg g
      	Mihkli	0		H	sg n
Kaunnis	####				
kaebas	kaeba	s		V	s
,	,			Z	
et	et	0		J	
temal	tema	l		P	sg ad
Jaan	Jaan	0		H	sg n
    	jaan	0		S	sg n
    	jaan	0		Y	?
Ermel	####				
käest	käest	0		K	
     	käsi	st		S	sg el
üks	üks	0		N	sg n
   	üks	0		P	sg n
kate	kate	0		S	sg n
vakkaline	####				
vilja	vili	0		S	adt
     	vili	0		S	sg g
     	vili	0		S	sg p
kott	kott	0		S	sg n
saada	saa	da		V	da
     	saat	0		V	o
     	saa	da		V	ta
olevat	ole	vat		V	vat
      	olev	t		A	sg p
      	olev	t		S	sg p
ja	ja	0		J	
nõudis	nõud	is		V	s
selle	see	0		P	sg g
     	sell	e		S	pl p
eest	eest	0		D	
    	eest	0		K	
    	esi	st		S	sg el
1	1	0		N	?
rbl	rbl	0		Y	?
.	.			Z	
Jaan	Jaan	0		H	sg n
    	jaan	0		S	sg n
    	jaan	0		Y	?
Ermel	####				
tunnist	tund	st		S	sg el
       	tunnine	t		A	sg p
seda	see	da		P	sg p
tõttes	####				
ja	ja	0		J	
lubas	luba	s		V	s
selle	see	0		P	sg g
     	sell	e		S	pl p
kotti	kott	0		S	adt
     	kotti	0		D	
     	kott	i		S	pl p
     	kott	0		S	sg p
2	2	0		N	?
nädala	nädal	0		S	sg g
sisen	####				
ära	ära	0		D	
   	ära	0		V	neg o
tuua	too	a		V	da
ehk	ehk	0		D	
   	ehk	0		J	
75	75	0		N	?
kop	kop	0		Y	?
.	.			Z	
maksa	maks	0		S	adt
     	maks	0		S	sg g
     	maks	0		V	o
     	maks	0		S	sg p
.	.			Z	
otsus	otsus	0		S	sg n
:	:			Z	
see	see	0		P	sg n
kohus	kohu	s		V	s
     	kohus	0		S	sg n
tuleb	tule	b		V	b
ära	ära	0		D	
   	ära	0		V	neg o
kustutada	kustuta	da		V	da
.	.			Z	
peakohtum	####				
.	.			Z	
Joh	####				
.	.			Z	
peahn	####				
[	[			Z	
allkiri	all_kiri	0		S	sg n
]	]			Z	
kohtum	####				
Juhan	Juhan	0		H	sg n
Purasson	####				
xxx	####				
do	####				
:	:			Z	
Mihkel	Mihkel	0		H	sg n
      	mihkel	0		A	sg n
      	mihkel	0		S	sg n
Laine	Laine	0		H	sg g
     	laine	0		S	sg g
     	laine	0		S	sg n
     	Laine	0		H	sg n
[	[			Z	
allkiri	all_kiri	0		S	sg n
]	]			Z	
1883	1883	0		N	?
Jaan	Jaan	0		H	sg n
    	jaan	0		S	sg n
    	jaan	0		Y	?
31.	31.	0		O	?
75	75	0		N	?
kop	kop	0		Y	?
.	.			Z	
Kaunile	kaunis	le		A	sg all
äära	####				
antud	an=tu	d		S	pl n
     	and	tud		V	tud
     	antud	0		A	
     	antud	0		A	sg n
     	antud	d		A	pl n
.	.			Z	
