kaebas	kaeba	s		V	s
Võika	võigas	0		A	sg g
karjamõisa	karja_mõis	0		S	sg g
rentnik	rentnik	0		S	sg n
Heinrih	####				
Teress	####				
et	et	0		J	
tema	tema	0		P	sg g
    	tema	0		P	sg n
sulane	sulane	0		S	sg n
      	sulane	0		V	o
Samul	####				
Via	Via			H	?
on	ole	0		V	b
  	ole	0		V	vad
ajasta	ajasta	0		V	o
poolele	pool	le		N	sg all
       	pool	le		S	sg all
jätnud	jät	nud		V	nud
      	jät=nu	d		S	pl n
      	jät=nud	0		A	
      	jät=nud	0		A	sg n
      	jät=nud	d		A	pl n
ja	ja	0		J	
ära	ära	0		D	
   	ära	0		V	neg o
läinud	läinu	d		S	pl n
      	läinud	0		A	
      	läinud	0		A	sg n
      	läinud	d		A	pl n
      	mine	nud		V	nud
ent	ent	0		J	
kõik	kõik	0		P	pl n
    	kõik	0		S	sg n
    	kõik	0		P	sg n
palk	palk	0		S	sg n
on	ole	0		V	b
  	ole	0		V	vad
välja	välja	0		D	
     	välja	0		V	o
     	väli	0		S	adt
     	väli	0		S	sg g
     	väli	0		S	sg p
ära	ära	0		D	
   	ära	0		V	neg o
võtnud	võt	nud		V	nud
      	võt=nu	d		S	pl n
      	võt=nud	0		A	
      	võt=nud	0		A	sg n
      	võt=nud	d		A	pl n
.	.			Z	
ette	ette	0		D	
    	ette	0		K	
    	esi	tte		S	adt
kutsuti	kutsu	ti		V	ti
Samul	####				
Via	Via			H	?
ning	ning	0		J	
vastut	####				
,	,			Z	
et	et	0		J	
tema	tema	0		P	sg g
    	tema	0		P	sg n
selle	see	0		P	sg g
     	sell	e		S	pl p
on	ole	0		V	b
  	ole	0		V	vad
ära	ära	0		D	
   	ära	0		V	neg o
et	et	0		J	
ei	ei	0		D	
  	ei	0		V	neg
ole	ole	0		V	o
lehmale	lehm	le		S	sg all
õlgi	õlg	i		S	pl p
andnud	and	nud		V	nud
      	and=nu	d		S	pl n
      	and=nud	0		A	
      	and=nud	0		A	sg n
      	and=nud	d		A	pl n
;	;			Z	
ent	ent	0		J	
Vöörmünder	vöörmünder	0		S	sg n
Joosep	Joosep	0		H	sg n
Söukand	####				
on	ole	0		V	b
  	ole	0		V	vad
kuulnud	kuul	nud		V	nud
       	kuul=nud	0		A	
       	kuul=nud	0		A	sg n
       	kuul=nud	d		A	pl n
       	kuulnu	d		S	pl n
et	et	0		J	
H	H	0		Y	?
.	.			Z	
_	_			Z	
Teress	####				
on	ole	0		V	b
  	ole	0		V	vad
lehma	lehm	0		S	adt
     	lehm	0		S	sg g
     	lehm	0		S	sg p
lubanud	luba	nud		V	nud
       	luba=nu	d		S	pl n
       	luba=nud	0		A	
       	luba=nud	0		A	sg n
       	luba=nud	d		A	pl n
mõisa	mõis	0		S	sg g
lauta	laug	ta		S	sg ab
     	laut	0		S	adt
     	laut	0		S	sg p
võtta	võt	a		V	da
kui	kui	0		D	
   	kui	0		J	
sööta	sööt	0		S	adt
     	sööt	a		V	da
     	sööt	0		S	sg p
ei	ei	0		D	
  	ei	0		V	neg
ole	ole	0		V	o
ning	ning	0		J	
lubas	luba	s		V	s
talle	tall	e		S	pl p
     	tall	0		S	adt
     	tall	0		S	sg g
     	tema	lle		P	sg all
     	tall	0		S	sg p
endale	ise	le		P	sg all
Samul	####				
Vjale	####				
söögi	söö	0	gi	V	o
     	söök	0		S	sg g
anda	and	a		V	da
kui	kui	0		D	
   	kui	0		J	
tagasi	tagasi	0		D	
      	tagasi	0		K	
tuleb	tule	b		V	b
seni	seni	0		D	
kui	kui	0		D	
   	kui	0		J	
Jüripäevani	jüri_päev	ni		S	sg ter
ent	ent	0		J	
seda	see	da		P	sg p
palgast	palk	st		S	sg el
maha	maha	0		D	
võtta	võt	a		V	da
.	.			Z	
mõistis	mõist	is		V	s
kohus	kohu	s		V	s
     	kohus	0		S	sg n
et	et	0		J	
Samul	####				
Via	Via			H	?
paep	####				
sest	see	st		P	sg el
    	sest	0		J	
15	15	0		N	?
Märtsist	märts	st		S	sg el
tagasi	tagasi	0		D	
      	tagasi	0		K	
minema	mine	ma		V	ma
teenistus	teenistus	0		S	sg n
ja	ja	0		J	
ausast	aus	st		A	sg el
teenma	####				
Jüri	Jüri	0		H	sg g
    	Jüri	0		H	sg n
päevani	päev	ni		S	sg ter
peakohtumees	pea_kohtu_mees	0		S	sg n
Gustav	Gustav	0		H	sg n
Lepson	####				
kohtumees	kohtu_mees	0		S	sg n
Paap	####				
Sabbal	####				
kohtumees	kohtu_mees	0		S	sg n
Joosep	Joosep	0		H	sg n
Jõks	####				
