ette	ette	0		D	
    	ette	0		K	
    	esi	tte		S	adt
tuli	tuli	0		S	sg n
    	tule	i		V	s
kohtumees	kohtu_mees	0		S	sg n
Jaan	Jaan	0		H	sg n
    	jaan	0		S	sg n
    	jaan	0		Y	?
Hengo	####				
ja	ja	0		J	
kaebas	kaeba	s		V	s
et	et	0		J	
tema	tema	0		P	sg g
    	tema	0		P	sg n
on	ole	0		V	b
  	ole	0		V	vad
mittu	####				
korda	kord	0		S	adt
     	korda	0		V	o
     	kord	0		S	sg p
Jaan	Jaan	0		H	sg n
    	jaan	0		S	sg n
    	jaan	0		Y	?
Savisaar	savi_saar	0		S	sg n
käest	käest	0		K	
     	käsi	st		S	sg el
kihelkonna	kihelkond	0		S	sg g
kohtu	kohtu	0		V	o
     	kohus	0		S	sg g
käsu	käsk	0		S	sg g
peale	pea	le		S	sg all
     	peale	0		D	
     	peale	0		K	
3	3	0		N	?
rubla	rubla	0		S	sg g
     	rubla	0		S	sg n
     	rubla	0		S	sg p
sisse	siss	e		S	pl p
     	sisse	0		D	
     	sisse	0		K	
nõudnud	nõud	nud		V	nud
       	nõud=nu	d		S	pl n
       	nõud=nud	0		A	
       	nõud=nud	0		A	sg n
       	nõud=nud	d		A	pl n
ega	ega	0		D	
   	ega	0		J	
kord	kord	0		D	
    	kord	0		S	sg n
on	ole	0		V	b
  	ole	0		V	vad
Savisaar	savi_saar	0		S	sg n
loanud	####				
,	,			Z	
ning	ning	0		J	
niiviisi	nii_viisi	0		D	
on	ole	0		V	b
  	ole	0		V	vad
kihelkonna	kihelkond	0		S	sg g
kohtu	kohtu	0		V	o
     	kohus	0		S	sg g
termin	termin	0		S	sg n
mööda	mööda	0		A	
     	mööda	0		D	
     	mööda	0		K	
läinud	läinu	d		S	pl n
      	läinud	0		A	
      	läinud	0		A	sg n
      	läinud	d		A	pl n
      	mine	nud		V	nud
ja	ja	0		J	
sellega	see	ga		P	sg kom
2	2	0		N	?
rubla	rubla	0		S	sg g
     	rubla	0		S	sg n
     	rubla	0		S	sg p
trahvi	trahv	0		S	adt
      	trahv	0		S	sg g
      	trahvi	0		V	o
      	trahv	0		S	sg p
tulnud	tul=nud	0		A	
      	tul=nud	0		A	sg n
      	tul=nud	d		A	pl n
      	tule	nud		V	nud
      	tulnu	d		S	pl n
ja	ja	0		J	
palub	palu	b		V	b
et	et	0		J	
tema	tema	0		P	sg g
    	tema	0		P	sg n
selle	see	0		P	sg g
     	sell	e		S	pl p
vastu	vastu	0		D	
     	vastu	0		K	
pandmise	####				
eest	eest	0		D	
    	eest	0		K	
    	esi	st		S	sg el
trahvitud	trahvi	tud		V	tud
         	trahvi=tu	d		S	pl n
         	trahvi=tud	0		A	
         	trahvi=tud	0		A	sg n
         	trahvi=tud	d		A	pl n
saaks	saa	ks		V	ks
.	.			Z	
Jaan	Jaan	0		H	sg n
    	jaan	0		S	sg n
    	jaan	0		Y	?
Savisaar	savi_saar	0		S	sg n
ütleb	ütle	b		V	b
et	et	0		J	
tema	tema	0		P	sg g
    	tema	0		P	sg n
olevad	olev	d		A	pl n
      	olev	d		S	pl n
küll	küll	0		D	
    	küll	0		S	sg n
ju	ju	0		D	
3	3	0		N	?
rubla	rubla	0		S	sg g
     	rubla	0		S	sg n
     	rubla	0		S	sg p
Tisi	####				
äära	####				
maksnud	maks	nud		V	nud
       	maks=nu	d		S	pl n
       	maks=nud	0		A	
       	maks=nud	0		A	sg n
       	maks=nud	d		A	pl n
ilma	ilm	0		S	adt
    	ilm	0		S	sg g
    	ilma	0		D	
    	ilma	0		K	
    	ilm	0		S	sg p
kvitungita	####				
.	.			Z	
otsus	otsus	0		S	sg n
:	:			Z	
kogukonna	kogukond	0		S	sg g
kohus	kohu	s		V	s
     	kohus	0		S	sg n
mõistab	mõist	b		V	b
,	,			Z	
et	et	0		J	
Jaan	Jaan	0		H	sg n
    	jaan	0		S	sg n
    	jaan	0		Y	?
Savisaar	savi_saar	0		S	sg n
peab	pida	b		V	b
kvitungi	####				
ära	ära	0		D	
   	ära	0		V	neg o
tooma	too	ma		V	ma
ja	ja	0		J	
seda	see	da		P	sg p
kaks	kaks	0		N	sg n
rubla	rubla	0		S	sg g
     	rubla	0		S	sg n
     	rubla	0		S	sg p
trahvi	trahv	0		S	adt
      	trahv	0		S	sg g
      	trahvi	0		V	o
      	trahv	0		S	sg p
kihelkonna	kihelkond	0		S	sg g
täitmata	täit	mata		V	mata
        	täitmata	0		A	
jäänud	jää	nud		V	nud
      	jäänu	d		S	pl n
      	jäänud	0		A	
      	jäänud	0		A	sg n
      	jäänud	d		A	pl n
kirja	kirja	0		A	
     	kirja	0		V	o
     	kiri	0		S	adt
     	kiri	0		S	sg g
     	kiri	0		S	sg p
eest	eest	0		D	
    	eest	0		K	
    	esi	st		S	sg el
ka	ka	0		D	
kaheksa	kaheksa	0		N	sg g
       	kaheksa	0		N	sg n
päevasseni	####				
äära	####				
maksma	maks	ma		V	ma
.	.			Z	
Jaan	Jaan	0		H	sg n
    	jaan	0		S	sg n
    	jaan	0		Y	?
Savisaar	savi_saar	0		S	sg n
loab	####				
kõik	kõik	0		P	pl n
    	kõik	0		S	sg n
    	kõik	0		P	sg n
seda	see	da		P	sg p
ära	ära	0		D	
   	ära	0		V	neg o
täita	täi	ta		S	sg ab
     	täi	ta		V	ta
     	täit	a		V	da
     	täita	0		V	o
.	.			Z	
peakohtumees	pea_kohtu_mees	0		S	sg n
Jaan	Jaan	0		H	sg n
    	jaan	0		S	sg n
    	jaan	0		Y	?
Luik	luik	0		S	sg n
kohtumees	kohtu_mees	0		S	sg n
Peeter	Peeter	0		H	sg n
talumees	talu_mees	0		S	sg n
[	[			Z	
allkiri	all_kiri	0		S	sg n
]	]			Z	
do	####				
.	.			Z	
:	:			Z	
Peeter	Peeter	0		H	sg n
kirber	####				
