Mihkel	Mihkel	0		H	sg n
      	mihkel	0		A	sg n
      	mihkel	0		S	sg n
Hüt	####				
tõst	tõst	0		S	sg n
uma	####				
poole	pool	0		N	sg g
     	pool	0		S	sg g
     	pool	e		S	pl p
     	poole	0		K	
     	poole	0		S	sg n
ma	mina	0		P	sg n
ostja	ostja	0		S	sg g
     	ostja	0		S	sg n
Hiob	####				
reptäringi	####				
peale	pea	le		S	sg all
     	peale	0		D	
     	peale	0		K	
kaebust	kaebus	t		S	sg p
,	,			Z	
et	et	0		J	
see	see	0		P	sg n
uma	####				
karjaga	kari	ga		S	sg kom
läbi	läbi	0		D	
    	läbi	0		K	
    	läbi	0		V	o
tema	tema	0		P	sg g
    	tema	0		P	sg n
nurme	nurm	0		S	adt
     	nurm	0		S	sg g
     	nurm	0		S	sg p
käib	käi	b		V	b
,	,			Z	
kun	####				
mitte	mitte	0		D	
karja	kari	0		S	adt
     	kari	0		S	sg g
     	kari	0		S	sg p
teed	tee	d		S	pl n
    	tege	d		V	d
    	tee	d		S	sg p
ei	ei	0		D	
  	ei	0		V	neg
ole	ole	0		V	o
,	,			Z	
palle	pall	e		S	pl p
reptäringi	####				
ära	ära	0		D	
   	ära	0		V	neg o
keelda	####				
,	,			Z	
umma	####				
karja	kari	0		S	adt
     	kari	0		S	sg g
     	kari	0		S	sg p
läbi	läbi	0		D	
    	läbi	0		K	
    	läbi	0		V	o
tema	tema	0		P	sg g
    	tema	0		P	sg n
vilja	vili	0		S	adt
     	vili	0		S	sg g
     	vili	0		S	sg p
nurme	nurm	0		S	adt
     	nurm	0		S	sg g
     	nurm	0		S	sg p
ajamast	aja	mast		V	mast
.	.			Z	
otsus	otsus	0		S	sg n
:	:			Z	
Hiob	####				
tärreping	####				
sel	see	l		P	sg ad
   	sel	0		Y	?
23	23	0		N	?
aprillil	aprill	l		S	sg ad
ette	ette	0		D	
    	ette	0		K	
    	esi	tte		S	adt
kutsu	kutsu	0		V	o
     	kutsu	0		S	sg g
     	kutsu	0		S	sg n
.	.			Z	
peakohtumees	pea_kohtu_mees	0		S	sg n
H	H	0		Y	?
.	.			Z	
_	_			Z	
Kakku	kakk	0		S	adt
     	kakk	0		S	sg p
kohtumees	kohtu_mees	0		S	sg n
P	P	0		Y	?
.	.			Z	
Sabe	####				
""""	""""			Z	
""""	""""			Z	
J	J	0		Y	?
.	.			Z	
_	_			Z	
Uebu	####				
kirjuti	kirjuti	0		S	sg g
       	kirjuti	0		S	sg n
:	:			Z	
[	[			Z	
allkiri	all_kiri	0		S	sg n
]	]			Z	
