tuli	tuli	0		S	sg n
    	tule	i		V	s
ette	ette	0		D	
    	ette	0		K	
    	esi	tte		S	adt
Kristjan	Kristjan	0		H	sg n
Plum	####				
ning	ning	0		J	
and	and	0		S	sg n
kodapolitsile	####				
Paap	####				
Paritsil	####				
,	,			Z	
Viidu	vii=du	0		S	sg g
     	vii=du	0		S	sg n
Kübardil	####				
ning	ning	0		J	
Liina	Lii	na		H	sg es
     	Liina	0		H	sg g
     	Liina	0		H	sg n
Kärtmannil	####				
luba	luba	0		S	sg n
    	luba	0		V	o
    	luba	0		S	sg p
oma	oma	0		A	sg g
   	oma	0		D	
   	oma	0		P	sg g
   	oma	0		S	sg g
   	oma	0		V	o
   	oma	0		A	sg n
   	oma	0		A	sg p
   	oma	0		P	sg n
   	oma	0		P	sg p
   	oma	0		S	sg n
   	oma	0		S	sg p
krundi	krunt	0		S	sg g
      	krunti	0		V	o
No	no	0		I	
23	23	0		N	?
peal	pea	l		S	sg ad
    	peal	0		D	
    	peal	0		K	
elada	ela	da		V	da
kuni	kuni	0		J	
    	kuni	0		K	
23	23	0		N	?
aprillini	aprill	ni		S	sg ter
1885	1885	0		N	?
a.	a	0		Y	?
kog	####				
.	.			Z	
kohtu	kohtu	0		V	o
     	kohus	0		S	sg g
vastutamise	vastutamine	0		S	sg g
al	####				
,	,			Z	
ja	ja	0		J	
peale	pea	le		S	sg all
     	peale	0		D	
     	peale	0		K	
selle	see	0		P	sg g
     	sell	e		S	pl p
termini	term	ni		S	sg ter
       	termin	0		S	sg g
peavad	pida	vad		V	vad
kodapolitset	####				
endale	ise	le		P	sg all
teist	sina	st		P	pl el
     	tee	ist		S	pl el
     	teist	0		D	
     	teine	t		O	sg p
     	teine	t		P	sg p
endas	ise	s		P	sg in
otsima	otsi	ma		V	ma
.	.			Z	
Peakohtunik	pea_kohtunik	0		S	sg n
:	:			Z	
Peeter	Peeter	0		H	sg n
Urtson	####				
kohutnik	####				
:	:			Z	
Kusta	Kusta	0		H	sg g
     	Kusta	0		H	sg n
     	kuse	ta		V	da
     	kuse	ta		V	ta
Rämman	####				
kohtunik	kohtunik	0		S	sg n
:	:			Z	
Jooosep	####				
Oinberg	####				
kirj	####				
.	.			Z	
F	F	0		Y	?
Freimann	####				
