sai	saa	i		V	s
   	sai	0		S	sg n
mõistetatud	####				
:	:			Z	
Noorrok	####				
peab	pida	b		V	b
Gustav	Gustav	0		H	sg n
Oinasele	####				
1	1	0		N	?
rub	####				
50	50	0		N	?
kp	####				
kahju	kahi	0		S	adt
     	kahi	0		S	sg g
     	kahi	0		S	sg p
     	kahju	0		S	sg g
     	kahju	0		S	sg n
     	kahju	0		S	sg p
raha	raha	0		S	sg g
    	raha	0		S	sg n
    	raha	0		S	sg p
makse	maks	e		S	pl p
     	makse	0		S	sg g
     	makse	0		S	sg n
selle	see	0		P	sg g
     	sell	e		S	pl p
est	####				
et	et	0		J	
tema	tema	0		P	sg g
    	tema	0		P	sg n
3	3	0		N	?
hobused	hobune	d		S	pl n
on	ole	0		V	b
  	ole	0		V	vad
Oinase	####				
nitud	####				
paele	paas	le		S	sg all
olnud	ol=nud	0		A	
     	ol=nud	0		A	sg n
     	ol=nud	d		A	pl n
     	ole	nud		V	nud
     	olnu	d		S	pl n
,	,			Z	
ja	ja	0		J	
postimees	posti_mees	0		S	sg n
peab	pida	b		V	b
temale	tema	le		P	sg all
ühe	üks	0		N	sg g
   	üks	0		P	sg g
   	ühe	0		S	sg n
hobose	####				
est	####				
50	50	0		N	?
kop	kop	0		Y	?
trahvi	trahv	0		S	adt
      	trahv	0		S	sg g
      	trahvi	0		V	o
      	trahv	0		S	sg p
maksa	maks	0		S	adt
     	maks	0		S	sg g
     	maks	0		V	o
     	maks	0		S	sg p
.	.			Z	
