Frits	frits	0		S	sg n
Akmann	####				
Salust	salu	st		S	sg el
tuli	tuli	0		S	sg n
    	tule	i		V	s
kohtu	kohtu	0		V	o
     	kohus	0		S	sg g
ette	ette	0		D	
    	ette	0		K	
    	esi	tte		S	adt
ja	ja	0		J	
kaebas	kaeba	s		V	s
et	et	0		J	
temal	tema	l		P	sg ad
on	ole	0		V	b
  	ole	0		V	vad
Raigla	####				
rahvaga	rahvas	ga		S	sg kom
ranna	rand	0		S	sg g
kalla	kalla	0		V	o
     	kalla	0		S	sg g
     	kalla	0		S	sg n
püidmise	####				
kaup	kaup	0		S	sg n
ära	ära	0		D	
   	ära	0		V	neg o
tehtu	tehtu	0		S	sg g
     	tehtud	0		A	sg g
     	tehtu	0		S	sg n
olnud	ol=nud	0		A	
     	ol=nud	0		A	sg n
     	ol=nud	d		A	pl n
     	ole	nud		V	nud
     	olnu	d		S	pl n
Raigla	####				
küla	küla	0		S	sg g
    	küla	0		S	sg n
    	küla	0		S	sg p
jagu	jagu	0		S	sg n
    	jagu	0		V	o
    	jagu	0		S	sg p
väli	väli	0		S	sg n
vee	vesi	0		S	sg g
peale	pea	le		S	sg all
     	peale	0		D	
     	peale	0		K	
aasta	aasta	0		S	sg g
     	aasta	0		S	sg n
hind	hind	0		S	sg n
on	ole	0		V	b
  	ole	0		V	vad
lepitud	leppi	tud		V	tud
       	lepi=tu	d		S	pl n
       	lepi=tud	0		A	
       	lepi=tud	0		A	sg n
       	lepi=tud	d		A	pl n
olnud	ol=nud	0		A	
     	ol=nud	0		A	sg n
     	ol=nud	d		A	pl n
     	ole	nud		V	nud
     	olnu	d		S	pl n
17	17	0		N	?
rubla	rubla	0		S	sg g
     	rubla	0		S	sg n
     	rubla	0		S	sg p
.	.			Z	
Aga	aga	0		J	
nüüd	nüüd	0		D	
peale	pea	le		S	sg all
     	peale	0		D	
     	peale	0		K	
selle	see	0		P	sg g
     	sell	e		S	pl p
Fritsi	####				
kaupa	kaup	0		S	adt
     	kaup	0		S	sg p
     	kaupa	0		K	
on	ole	0		V	b
  	ole	0		V	vad
Raigla	####				
rahvas	rahvas	0		S	sg n
      	rahvas	s		S	sg in
jälle	jälle	0		D	
ühe	üks	0		N	sg g
   	üks	0		P	sg g
   	ühe	0		S	sg n
venelasel	venelane	l		S	sg ad
see	see	0		P	sg n
sama	sama	0		P	sg g
    	sama	0		P	sg n
    	sama	0		P	sg p
Fritsel	####				
ära	ära	0		D	
   	ära	0		V	neg o
kaubeltud	####				
ranna	rand	0		S	sg g
jälle	jälle	0		D	
ära	ära	0		D	
   	ära	0		V	neg o
münud	####				
20	20	0		N	?
rubla	rubla	0		S	sg g
     	rubla	0		S	sg n
     	rubla	0		S	sg p
eest	eest	0		D	
    	eest	0		K	
    	esi	st		S	sg el
Raigla	####				
küla	küla	0		S	sg g
    	küla	0		S	sg n
    	küla	0		S	sg p
peremehed	pere_mees	d		S	pl n
saivad	####				
ette	ette	0		D	
    	ette	0		K	
    	esi	tte		S	adt
kutsutu	kutsutu	0		S	sg g
       	kutsutud	0		A	sg g
       	kutsutu	0		S	sg n
ja	ja	0		J	
kusitud	####				
ütleva	ütlev	0		A	sg g
kõik	kõik	0		P	pl n
    	kõik	0		S	sg n
    	kõik	0		P	sg n
küla	küla	0		S	sg g
    	küla	0		S	sg n
    	küla	0		S	sg p
kauba	kaup	0		S	sg g
tegijad	tegija	d		S	pl n
peremehed	pere_mees	d		S	pl n
et	et	0		J	
kaup	kaup	0		S	sg n
on	ole	0		V	b
  	ole	0		V	vad
saanud	saa	nud		V	nud
      	saa=nud	0		A	
      	saa=nud	0		A	sg n
      	saa=nud	d		A	pl n
      	saanu	d		S	pl n
tehtu	tehtu	0		S	sg g
     	tehtud	0		A	sg g
     	tehtu	0		S	sg n
et	et	0		J	
võivad	või	vad		V	vad
      	võiv	d		A	pl n
ka	ka	0		D	
mõlemaad	####				
püidi	####				
kohus	kohu	s		V	s
     	kohus	0		S	sg n
mõistis	mõist	is		V	s
kui	kui	0		D	
   	kui	0		J	
Raigla	####				
küla	küla	0		S	sg g
    	küla	0		S	sg n
    	küla	0		S	sg p
peremehed	pere_mees	d		S	pl n
Frits	frits	0		S	sg n
Arkmanni	####				
kauba	kaup	0		S	sg g
ära	ära	0		D	
   	ära	0		V	neg o
rikkud	####				
siis	siis	0		D	
    	siis	0		J	
peavad	pida	vad		V	vad
20	20	0		N	?
rubla	rubla	0		S	sg g
     	rubla	0		S	sg n
     	rubla	0		S	sg p
tagamise	tagamine	0		S	sg g
kaupa	kaup	0		S	adt
     	kaup	0		S	sg p
     	kaupa	0		K	
maksma	maks	ma		V	ma
trahviks	trahv	ks		S	sg tr
        	trahvi	ks		V	ks
ja	ja	0		J	
ka	ka	0		D	
20	20	0		N	?
rubla	rubla	0		S	sg g
     	rubla	0		S	sg n
     	rubla	0		S	sg p
Fritsi	####				
oma	oma	0		A	sg g
   	oma	0		D	
   	oma	0		P	sg g
   	oma	0		S	sg g
   	oma	0		V	o
   	oma	0		A	sg n
   	oma	0		A	sg p
   	oma	0		P	sg n
   	oma	0		P	sg p
   	oma	0		S	sg n
   	oma	0		S	sg p
raha	raha	0		S	sg g
    	raha	0		S	sg n
    	raha	0		S	sg p
tagasi	tagasi	0		D	
      	tagasi	0		K	
maksma	maks	ma		V	ma
.	.			Z	
pea	pea	0		D	
   	pea	0		S	sg g
   	pida	0		V	o
   	pea	0		S	sg n
kohtu	kohtu	0		V	o
     	kohus	0		S	sg g
mees	mees	0		S	sg n
    	mesi	s		S	sg in
Rein	Rein	0		H	sg n
Pabusk	####				
kohtu	kohtu	0		V	o
     	kohus	0		S	sg g
mees	mees	0		S	sg n
    	mesi	s		S	sg in
Jaan	Jaan	0		H	sg n
    	jaan	0		S	sg n
    	jaan	0		Y	?
Holsting	####				
kohtu	kohtu	0		V	o
     	kohus	0		S	sg g
mees	mees	0		S	sg n
    	mesi	s		S	sg in
Paap	####				
Kress	kress	0		S	sg n
