kohtu	kohtu	0		V	o
     	kohus	0		S	sg g
ees	ees	0		D	
   	ees	0		K	
   	esi	s		S	sg in
kaebas	kaeba	s		V	s
mõisa	mõis	0		S	sg g
perra	####				
kaeda	kae	da		V	da
Peeter	Peeter	0		H	sg n
kuhi	kuhi	0		S	sg n
et	et	0		J	
Tile	####				
mõisa	mõis	0		S	sg g
rentniku	rentnik	0		S	sg g
oma	oma	0		A	sg g
   	oma	0		D	
   	oma	0		P	sg g
   	oma	0		S	sg g
   	oma	0		V	o
   	oma	0		A	sg n
   	oma	0		A	sg p
   	oma	0		P	sg n
   	oma	0		P	sg p
   	oma	0		S	sg n
   	oma	0		S	sg p
ome	####				
hobuste	hobune	te		S	pl g
ja	ja	0		J	
sitkuga	####				
kaks	kaks	0		N	sg n
mõisa	mõis	0		S	sg g
kaera	kaer	0		S	adt
     	kaer	0		S	sg g
     	kaer	0		S	sg p
rõugu	rõuk	0		S	sg g
,	,			Z	
ära	ära	0		D	
   	ära	0		V	neg o
söötnud	sööt	nud		V	nud
       	sööt=nu	d		S	pl n
       	sööt=nud	0		A	
       	sööt=nud	0		A	sg n
       	sööt=nud	d		A	pl n
,	,			Z	
mis	mis	0		P	pl n
   	mis	0		P	sg n
juba	juba	0		D	
kohus	kohu	s		V	s
     	kohus	0		S	sg n
üle	üle	0		D	
   	üle	0		K	
on	ole	0		V	b
  	ole	0		V	vad
kaenud	kae	nud		V	nud
      	kae=nu	d		S	pl n
      	kae=nud	0		A	
      	kae=nud	0		A	sg n
      	kae=nud	d		A	pl n
,	,			Z	
ning	ning	0		J	
nõuab	nõud	b		V	b
selle	see	0		P	sg g
     	sell	e		S	pl p
eest	eest	0		D	
    	eest	0		K	
    	esi	st		S	sg el
15	15	0		N	?
rbl	rbl	0		Y	?
kahju	kahi	0		S	adt
     	kahi	0		S	sg g
     	kahi	0		S	sg p
     	kahju	0		S	sg g
     	kahju	0		S	sg n
     	kahju	0		S	sg p
tasumist	tasumine	t		S	sg p
,	,			Z	
ning	ning	0		J	
palus	palu	s		S	sg in
     	palu	s		V	s
kohut	kohus	t		S	sg p
seda	see	da		P	sg p
asja	asi	0		S	adt
    	asi	0		S	sg g
    	asi	0		S	sg p
perra	####				
kuleldud	####				
ning	ning	0		J	
seaduse	seadus	0		S	sg g
perra	####				
mõista	mõist	0		V	o
      	mõist	a		V	da
.	.			Z	
Tile	####				
rentnik	rentnik	0		S	sg n
Juhan	Juhan	0		H	sg n
Annon	####				
ette	ette	0		D	
    	ette	0		K	
    	esi	tte		S	adt
kutsuti	kutsu	ti		V	ti
ning	ning	0		J	
kaebus	kaebus	0		S	sg n
ette	ette	0		D	
    	ette	0		K	
    	esi	tte		S	adt
loeti	luge	ti		V	ti
,	,			Z	
kes	kes	0		P	pl n
   	kes	0		P	sg n
vastut	####				
et	et	0		J	
tema	tema	0		P	sg g
    	tema	0		P	sg n
mitte	mitte	0		D	
alla	alla	0		D	
    	alla	0		K	
mõisa	mõis	0		S	sg g
peale	pea	le		S	sg all
     	peale	0		D	
     	peale	0		K	
ei	ei	0		D	
  	ei	0		V	neg
putu	####				
,	,			Z	
ja	ja	0		J	
ka	ka	0		D	
sest	see	st		P	sg el
    	sest	0		J	
rõugu	rõuk	0		S	sg g
söötmisest	söötmine	st		S	sg el
midagi	miski	dagi		P	sg p
ei	ei	0		D	
  	ei	0		V	neg
tea	tead	0		V	o
.	.			Z	
Tile	####				
rentnik	rentnik	0		S	sg n
Juhan	Juhan	0		H	sg n
sari	sari	0		S	sg g
    	sari	0		S	sg n
    	sari	0		S	sg p
ette	ette	0		D	
    	ette	0		K	
    	esi	tte		S	adt
kutsuti	kutsu	ti		V	ti
kes	kes	0		P	pl n
   	kes	0		P	sg n
vastut	####				
,	,			Z	
et	et	0		J	
tema	tema	0		P	sg g
    	tema	0		P	sg n
ei	ei	0		D	
  	ei	0		V	neg
ole	ole	0		V	o
ise	ise	0		A	
   	ise	0		D	
   	ise	0		P	pl n
   	ise	0		P	sg n
seda	see	da		P	sg p
rõugu	rõuk	0		S	sg g
söötnud	sööt	nud		V	nud
       	sööt=nu	d		S	pl n
       	sööt=nud	0		A	
       	sööt=nud	0		A	sg n
       	sööt=nud	d		A	pl n
,	,			Z	
ja	ja	0		J	
ei	ei	0		D	
  	ei	0		V	neg
ole	ole	0		V	o
ka	ka	0		D	
mitte	mitte	0		D	
muid	muu	id		P	pl p
näinud	näi	nud		V	nud
      	näge	nud		V	nud
      	näi=nud	0		A	
      	näi=nud	0		A	sg n
      	näi=nud	d		A	pl n
      	näinu	d		S	pl n
.	.			Z	
Tile	####				
rentnik	rentnik	0		S	sg n
Adam	####				
ette	ette	0		D	
    	ette	0		K	
    	esi	tte		S	adt
kutsuti	kutsu	ti		V	ti
kes	kes	0		P	pl n
   	kes	0		P	sg n
nii	nii	0		D	
samuti	samuti	0		D	
vastut	####				
kui	kui	0		D	
   	kui	0		J	
Juhan	Juhan	0		H	sg n
sari	sari	0		S	sg g
    	sari	0		S	sg n
    	sari	0		S	sg p
.	.			Z	
Juhan	Juhan	0		H	sg n
Kõiver	####				
ette	ette	0		D	
    	ette	0		K	
    	esi	tte		S	adt
kutsuti	kutsu	ti		V	ti
,	,			Z	
kes	kes	0		P	pl n
   	kes	0		P	sg n
vastut	####				
,	,			Z	
et	et	0		J	
tema	tema	0		P	sg g
    	tema	0		P	sg n
ei	ei	0		D	
  	ei	0		V	neg
tea	tead	0		V	o
sest	see	st		P	sg el
    	sest	0		J	
kaera	kaer	0		S	adt
     	kaer	0		S	sg g
     	kaer	0		S	sg p
rõugu	rõuk	0		S	sg g
söötmisest	söötmine	st		S	sg el
midagi	miski	dagi		P	sg p
muud	muu	d		P	pl n
    	muu	d		S	pl n
    	muu	d		V	d
    	muu	d		P	sg p
    	muu	d		S	sg p
kui	kui	0		D	
   	kui	0		J	
mõnd	mõni	d		P	sg p
väikest	väike	t		A	sg p
       	väikene	t		A	sg p
põrsast	põrsas	st		S	sg el
       	põrsas	t		S	sg p
ole	ole	0		V	o
mina	mina	0		P	sg n
    	mina	0		S	sg g
    	mina	0		S	sg n
    	mina	0		S	sg p
seal	seal	0		D	
    	siga	l		A	sg ad
    	siga	l		S	sg ad
peal	pea	l		S	sg ad
    	peal	0		D	
    	peal	0		K	
näinud	näi	nud		V	nud
      	näge	nud		V	nud
      	näi=nud	0		A	
      	näi=nud	0		A	sg n
      	näi=nud	d		A	pl n
      	näinu	d		S	pl n
.	.			Z	
Gusta	####				
mets	mets	0		S	sg n
ette	ette	0		D	
    	ette	0		K	
    	esi	tte		S	adt
kutsuti	kutsu	ti		V	ti
kes	kes	0		P	pl n
   	kes	0		P	sg n
vastut	####				
,	,			Z	
et	et	0		J	
mina	mina	0		P	sg n
    	mina	0		S	sg g
    	mina	0		S	sg n
    	mina	0		S	sg p
sinna	sinna	0		D	
ligi	ligi	0		D	
    	ligi	0		K	
ei	ei	0		D	
  	ei	0		V	neg
putu	####				
,	,			Z	
ja	ja	0		J	
ei	ei	0		D	
  	ei	0		V	neg
tea	tead	0		V	o
ka	ka	0		D	
sest	see	st		P	sg el
    	sest	0		J	
midagi	miski	dagi		P	sg p
.	.			Z	
rentnik	rentnik	0		S	sg n
Jaak	Jaak	0		H	sg n
    	jaak	0		S	sg n
ramulik	####				
ette	ette	0		D	
    	ette	0		K	
    	esi	tte		S	adt
kutsuti	kutsu	ti		V	ti
kes	kes	0		P	pl n
   	kes	0		P	sg n
vastut	####				
,	,			Z	
et	et	0		J	
minul	mina	l		P	sg ad
ei	ei	0		D	
  	ei	0		V	neg
ole	ole	0		V	o
mitte	mitte	0		D	
siga	siga	0		A	sg n
    	siga	0		A	sg p
    	siga	0		S	sg n
    	siga	0		S	sg p
,	,			Z	
ja	ja	0		J	
hobusega	hobune	ga		S	sg kom
ei	ei	0		D	
  	ei	0		V	neg
ole	ole	0		V	o
mina	mina	0		P	sg n
    	mina	0		S	sg g
    	mina	0		S	sg n
    	mina	0		S	sg p
ka	ka	0		D	
mitte	mitte	0		D	
söötnud	sööt	nud		V	nud
       	sööt=nu	d		S	pl n
       	sööt=nud	0		A	
       	sööt=nud	0		A	sg n
       	sööt=nud	d		A	pl n
sest	see	st		P	sg el
    	sest	0		J	
minu	mina	0		P	sg g
ristik	ristik	0		S	sg n
heina	hein	0		S	adt
     	hein	0		S	sg g
     	hein	0		S	sg p
ei	ei	0		D	
  	ei	0		V	neg
ole	ole	0		V	o
seal	seal	0		D	
    	siga	l		A	sg ad
    	siga	l		S	sg ad
mitte	mitte	0		D	
ligi	ligi	0		D	
    	ligi	0		K	
ja	ja	0		J	
muid	muu	id		P	pl p
ei	ei	0		D	
  	ei	0		V	neg
ole	ole	0		V	o
mina	mina	0		P	sg n
    	mina	0		S	sg g
    	mina	0		S	sg n
    	mina	0		S	sg p
ka	ka	0		D	
mitte	mitte	0		D	
näinud	näi	nud		V	nud
      	näge	nud		V	nud
      	näi=nud	0		A	
      	näi=nud	0		A	sg n
      	näi=nud	d		A	pl n
      	näinu	d		S	pl n
.	.			Z	
Tile	####				
mölder	mölder	0		S	sg n
Peeter	Peeter	0		H	sg n
Kovit	####				
ette	ette	0		D	
    	ette	0		K	
    	esi	tte		S	adt
kutsuti	kutsu	ti		V	ti
kes	kes	0		P	pl n
   	kes	0		P	sg n
vastut	####				
,	,			Z	
et	et	0		J	
ka	ka	0		D	
tema	tema	0		P	sg g
    	tema	0		P	sg n
sest	see	st		P	sg el
    	sest	0		J	
asjast	asi	st		S	sg el
midagi	miski	dagi		P	sg p
ei	ei	0		D	
  	ei	0		V	neg
tea	tead	0		V	o
.	.			Z	
Jüri	Jüri	0		H	sg g
    	Jüri	0		H	sg n
Kramp	kramp	0		S	sg n
xxx	####				
M	M	0		O	?
 	M	0		Y	?
.	.			Z	
_	_			Z	
soldan	####				
xxx	####				
G. Raudsep	####				
xxx	####				
