Peeter	Peeter	0		H	sg n
kapustra	####				
andis	and	is		V	s
kohtule	kohus	le		S	sg all
üles	üles	0		D	
ehk	ehk	0		D	
   	ehk	0		J	
selevikivi	####				
tegija	tegija	0		S	sg g
      	tegija	0		S	sg n
kareamp	####				
on	ole	0		V	b
  	ole	0		V	vad
temale	tema	le		P	sg all
võlgu	võlg	u		S	pl p
     	võlgu	0		D	
janud	janu	d		S	pl n
     	janu	d		V	d
14	14	0		N	?
rbl	rbl	0		Y	?
50	50	0		N	?
koop	koop	0		Y	?
.	.			Z	
ja	ja	0		J	
palus	palu	s		S	sg in
     	palu	s		V	s
seda	see	da		P	sg p
raha	raha	0		S	sg g
    	raha	0		S	sg n
    	raha	0		S	sg p
tema	tema	0		P	sg g
    	tema	0		P	sg n
käest	käest	0		K	
     	käsi	st		S	sg el
nauda	####				
.	.			Z	
