sel	see	l		P	sg ad
   	sel	0		Y	?
samal	sama	l		P	sg ad
peal	pea	l		S	sg ad
    	peal	0		D	
    	peal	0		K	
need	see	d		P	pl n
samad	sama	d		P	pl n
kohtumehed	kohtu_mees	d		S	pl n
.	.			Z	
tuli	tuli	0		S	sg n
    	tule	i		V	s
ette	ette	0		D	
    	ette	0		K	
    	esi	tte		S	adt
Johan	Johan	0		H	sg n
Loodus	loodu	s		S	sg in
      	loodud	s		A	sg in
      	loodus	0		S	sg n
ja	ja	0		J	
kaebas	kaeba	s		V	s
.	.			Z	
""""	""""			Z	
Mina	mina	0		P	sg n
    	mina	0		S	sg g
    	mina	0		S	sg n
    	mina	0		S	sg p
tahtis	taht	is		V	s
ühel	üks	l		N	sg ad
    	üks	l		P	sg ad
Pühapääeva	####				
õhtu	õhtu	0		S	sg g
    	õhtu	0		S	sg n
mööda	mööda	0		A	
     	mööda	0		D	
     	mööda	0		K	
suurt	suur	t		A	sg p
teed	tee	d		S	pl n
    	tege	d		V	d
    	tee	d		S	sg p
kodu	kodu	0		S	sg g
    	kodu	0		S	sg n
    	kodu	0		S	sg p
mina	mina	0		P	sg n
    	mina	0		S	sg g
    	mina	0		S	sg n
    	mina	0		S	sg p
ja	ja	0		J	
tee	tee	0		S	sg g
   	tege	0		V	o
   	tee	0		S	sg n
peal	pea	l		S	sg ad
    	peal	0		D	
    	peal	0		K	
olid	ole	id		V	sid
hulku	####				
poisse	poi	sse		S	sg ill
      	poiss	e		S	pl p
,	,			Z	
ja	ja	0		J	
kui	kui	0		D	
   	kui	0		J	
ma	mina	0		P	sg n
neist	see	st		P	pl el
     	tema	st		P	pl el
30	30	0		N	?
kummu	kummu	0		V	o
oli	ole	i		V	s
mööda	mööda	0		A	
     	mööda	0		D	
     	mööda	0		K	
läinud	läinu	d		S	pl n
      	läinud	0		A	
      	läinud	0		A	sg n
      	läinud	d		A	pl n
      	mine	nud		V	nud
,	,			Z	
hakasid	####				
nemad	tema	d		P	pl n
minu	mina	0		P	sg g
väga	väga	0		D	
ropuste	####				
sõimama	sõima	ma		V	ma
.	.			Z	
Johan	Johan	0		H	sg n
pilke	pilk	e		S	pl p
     	pilge	0		S	sg g
oli	ole	i		V	s
volrever	####				
käes	käes	0		K	
    	käsi	s		S	sg in
,	,			Z	
kellega	kes	ga		P	pl kom
       	kes	ga		P	sg kom
ta	tema	0		P	sg g
  	tema	0		P	sg n
mind	mina	d		P	sg p
ähvardas	ähvarda	s		V	s
lasta	lask	ta		V	da
     	lask	ta		V	ta
,	,			Z	
mina	mina	0		P	sg n
    	mina	0		S	sg g
    	mina	0		S	sg n
    	mina	0		S	sg p
jäi	jää	i		V	s
ka	ka	0		D	
seisma	seis	ma		V	ma
ning	ning	0		J	
ei	ei	0		D	
  	ei	0		V	neg
lausu	lausu	0		V	o
mitte	mitte	0		D	
ühte	ühte	0		D	
    	üks	0		N	adt
    	üks	0		P	adt
    	ühe	0		S	sg g
    	üks	0		N	sg p
    	üks	0		P	sg p
sõna	sõna	0		S	sg g
    	sõna	0		V	o
    	sõna	0		S	sg n
    	sõna	0		S	sg p
.	.			Z	
mättiste	####				
tüdruk	tüdruk	0		S	sg n
tuli	tuli	0		S	sg n
    	tule	i		V	s
ühe	üks	0		N	sg g
   	üks	0		P	sg g
   	ühe	0		S	sg n
lehmaga	lehm	ga		S	sg kom
mööda	mööda	0		A	
     	mööda	0		D	
     	mööda	0		K	
teed	tee	d		S	pl n
    	tege	d		V	d
    	tee	d		S	sg p
,	,			Z	
ja	ja	0		J	
Johan	Johan	0		H	sg n
Kepp	kepp	0		S	sg n
ja	ja	0		J	
Mihkel	Mihkel	0		H	sg n
      	mihkel	0		A	sg n
      	mihkel	0		S	sg n
Vaga	vaga	0		A	sg g
    	vaga	0		A	sg n
    	vaga	0		A	sg p
hakasid	####				
ka	ka	0		D	
seda	see	da		P	sg p
sõimama	sõima	ma		V	ma
ja	ja	0		J	
häbemata	häbemata	0		D	
tülitama	tülita	ma		V	ma
,	,			Z	
ja	ja	0		J	
kui	kui	0		D	
   	kui	0		J	
ma	mina	0		P	sg n
siis	siis	0		D	
    	siis	0		J	
neid	neid	0		S	sg n
    	see	d		P	pl p
    	tema	d		P	pl p
keeli	keel	i		S	pl p
     	keeli	0		D	
ja	ja	0		J	
ütli	####				
,	,			Z	
tüdrukut	tüdruk	t		S	sg p
rahus	rahu	s		S	sg in
oma	oma	0		A	sg g
   	oma	0		D	
   	oma	0		P	sg g
   	oma	0		S	sg g
   	oma	0		V	o
   	oma	0		A	sg n
   	oma	0		A	sg p
   	oma	0		P	sg n
   	oma	0		P	sg p
   	oma	0		S	sg n
   	oma	0		S	sg p
teed	tee	d		S	pl n
    	tege	d		V	d
    	tee	d		S	sg p
mina	mina	0		P	sg n
    	mina	0		S	sg g
    	mina	0		S	sg n
    	mina	0		S	sg p
lasta	lask	ta		V	da
     	lask	ta		V	ta
,	,			Z	
siis	siis	0		D	
    	siis	0		J	
ütles	ütle	s		V	s
sellepeale	selle_peale	0		D	
Joh	####				
.	.			Z	
Kepp	kepp	0		S	sg n
,	,			Z	
ah	ah	0		D	
  	ah	0		I	
so	so	0		Y	?
,	,			Z	
sinna	sinna	0		D	
tahad	taht	d		V	d
vist	vist	0		S	sg n
    	vist	0		D	
Tüdrikkuga	####				
ja	ja	0		J	
lehmaga	lehm	ga		S	sg kom
Kõivistiku	kõiv_istik	0		S	sg g
mina	mina	0		P	sg n
    	mina	0		S	sg g
    	mina	0		S	sg n
    	mina	0		S	sg p
.	.			Z	
""""	""""			Z	
_	_			Z	
mind	mina	d		P	sg p
küll	küll	0		D	
    	küll	0		S	sg n
keegi	kee	0	gi	S	sg g
     	kee	0	gi	V	o
     	keegi	0		P	sg n
     	kee	0	gi	S	sg n
puutunud	puutu	nud		V	nud
        	puutu=nu	d		S	pl n
        	puutu=nud	0		A	
        	puutu=nud	0		A	sg n
        	puutu=nud	d		A	pl n
ei	ei	0		D	
  	ei	0		V	neg
ole	ole	0		V	o
,	,			Z	
_	_			Z	
mina	mina	0		P	sg n
    	mina	0		S	sg g
    	mina	0		S	sg n
    	mina	0		S	sg p
läksin	mine	sin		V	sin
rahus	rahu	s		S	sg in
oma	oma	0		A	sg g
   	oma	0		D	
   	oma	0		P	sg g
   	oma	0		S	sg g
   	oma	0		V	o
   	oma	0		A	sg n
   	oma	0		A	sg p
   	oma	0		P	sg n
   	oma	0		P	sg p
   	oma	0		S	sg n
   	oma	0		S	sg p
teed	tee	d		S	pl n
    	tege	d		V	d
    	tee	d		S	sg p
ja	ja	0		J	
nemad	tema	d		P	pl n
jäid	jää	id		V	sid
kõik	kõik	0		P	pl n
    	kõik	0		S	sg n
    	kõik	0		P	sg n
minust	mina	st		P	sg el
sinna	sinna	0		D	
paika	paik	0		S	adt
     	paika	0		V	o
     	paik	0		S	sg p
.	.			Z	
""""	""""			Z	
Paul	Paul	0		H	sg n
akkel	####				
tunnistas	tunnista	s		V	s
.	.			Z	
""""	""""			Z	
Johan	Johan	0		H	sg n
soldan	####				
ja	ja	0		J	
Jakab	####				
Vähk	vähk	0		S	sg n
olid	ole	id		V	sid
suure	suur	0		A	sg g
tee	tee	0		S	sg g
   	tege	0		V	o
   	tee	0		S	sg n
peal	pea	l		S	sg ad
    	peal	0		D	
    	peal	0		K	
enese	ise	0		P	sg g
vahel	vahe	l		S	sg ad
     	vahel	0		D	
     	vahel	0		K	
tulin	tule	in		V	sin
,	,			Z	
ja	ja	0		J	
olid	ole	id		V	sid
mõlema	mõlema	0		P	sg g
rinnustiku	rinnus_tikk	0		S	sg g
koos	koos	0		D	
    	koos	0		K	
    	koos	0		S	sg n
    	kubu	s		S	sg in
.	.			Z	
muud	muu	d		P	pl n
    	muu	d		S	pl n
    	muu	d		V	d
    	muu	d		P	sg p
    	muu	d		S	sg p
ma	mina	0		P	sg n
ei	ei	0		D	
  	ei	0		V	neg
tea	tead	0		V	o
.	.			Z	
""""	""""			Z	
Johan	Johan	0		H	sg n
Raig	raig	0		S	sg n
tunnistas	tunnista	s		V	s
.	.			Z	
""""	""""			Z	
Mina	mina	0		P	sg n
    	mina	0		S	sg g
    	mina	0		S	sg n
    	mina	0		S	sg p
muud	muu	d		P	pl n
    	muu	d		S	pl n
    	muu	d		V	d
    	muu	d		P	sg p
    	muu	d		S	sg p
ei	ei	0		D	
  	ei	0		V	neg
tea	tead	0		V	o
,	,			Z	
kui	kui	0		D	
   	kui	0		J	
et	et	0		J	
suure	suur	0		A	sg g
teepeal	tee_pea	l		S	sg ad
suure	suur	0		A	sg g
healega	####				
sai	saa	i		V	s
   	sai	0		S	sg n
räkitud	####				
,	,			Z	
ja	ja	0		J	
kui	kui	0		D	
   	kui	0		J	
liigemale	liig_ema	le		S	sg all
läksin	mine	sin		V	sin
,	,			Z	
nägin	näge	in		V	sin
,	,			Z	
et	et	0		J	
Joh	####				
.	.			Z	
pilke	pilk	e		S	pl p
     	pilge	0		S	sg g
volrever	####				
käes	käes	0		K	
    	käsi	s		S	sg in
ja	ja	0		J	
muud	muu	d		P	pl n
    	muu	d		S	pl n
    	muu	d		V	d
    	muu	d		P	sg p
    	muu	d		S	sg p
ma	mina	0		P	sg n
ei	ei	0		D	
  	ei	0		V	neg
tea	tead	0		V	o
.	.			Z	
Tanel	Tanel	0		H	sg n
Järg	järg	0		S	sg n
tunnistas	tunnista	s		V	s
.	.			Z	
""""	""""			Z	
Mina	mina	0		P	sg n
    	mina	0		S	sg g
    	mina	0		S	sg n
    	mina	0		S	sg p
muud	muu	d		P	pl n
    	muu	d		S	pl n
    	muu	d		V	d
    	muu	d		P	sg p
    	muu	d		S	sg p
ei	ei	0		D	
  	ei	0		V	neg
tea	tead	0		V	o
,	,			Z	
et	et	0		J	
kui	kui	0		D	
   	kui	0		J	
Joh	####				
.	.			Z	
Kepp	kepp	0		S	sg n
ütles	ütle	s		V	s
Joh	####				
.	.			Z	
Looduse	loodus	0		S	sg g
kohta	koht	0		S	adt
     	kohta	0		K	
     	kohta	0		V	o
     	koht	0		S	sg p
,	,			Z	
vaata	vaata	0		V	o
kus	kus	0		D	
Neesse	####				
lähab	####				
.	.			Z	
""""	""""			Z	
_	_			Z	
ja	ja	0		J	
see	see	0		P	sg n
on	ole	0		V	b
  	ole	0		V	vad
üks	üks	0		N	sg n
   	üks	0		P	sg n
sõimu	sõim	0		S	adt
     	sõim	0		S	sg g
     	sõim	0		S	sg p
sõna	sõna	0		S	sg g
    	sõna	0		V	o
    	sõna	0		S	sg n
    	sõna	0		S	sg p
.	.			Z	
muud	muu	d		P	pl n
    	muu	d		S	pl n
    	muu	d		V	d
    	muu	d		P	sg p
    	muu	d		S	sg p
ma	mina	0		P	sg n
ei	ei	0		D	
  	ei	0		V	neg
tea	tead	0		V	o
.	.			Z	
jääs	jää	s		S	sg in
pooleli	pooleli	0		D	
.	.			Z	
peakohtumees	pea_kohtu_mees	0		S	sg n
T. Võso	####				
2	2	0		N	?
risti	rist	0		S	adt
     	rist	0		S	sg g
     	rist	0		S	sg p
     	risti	0		D	
     	risti	0		V	o
     	risti	0		S	sg g
     	risti	0		S	sg n
kohtu	kohtu	0		V	o
     	kohus	0		S	sg g
""""	""""			Z	
J	J	0		Y	?
.	.			Z	
_	_			Z	
roht	####				
2	2	0		N	?
risti	rist	0		S	adt
     	rist	0		S	sg g
     	rist	0		S	sg p
     	risti	0		D	
     	risti	0		V	o
     	risti	0		S	sg g
     	risti	0		S	sg n
""""	""""			Z	
abi	abi	0		S	sg g
   	abi	0		S	sg n
   	abi	0		S	sg p
J	J	0		Y	?
.	.			Z	
_	_			Z	
Mandli	mandel	0		S	sg g
3	3	0		N	?
risti	rist	0		S	adt
     	rist	0		S	sg g
     	rist	0		S	sg p
     	risti	0		D	
     	risti	0		V	o
     	risti	0		S	sg g
     	risti	0		S	sg n
kirjutaja	kirjutaja	0		S	sg g
         	kirjutaja	0		S	sg n
A	A	0		Y	?
.	.			Z	
_	_			Z	
Mandli	mandel	0		S	sg g
/	/			Z	
allkiri	all_kiri	0		S	sg n
/	/			Z	
