Seppa	sepp	0		S	adt
     	sepp	0		S	sg p
pois	poi	s		S	sg in
Karl	Karl	0		H	sg n
ole	ole	0		V	o
mineva	minev	0		A	sg g
pulpäev	####				
heinud	####				
hõb	####				
:	:			Z	
vastu	vastu	0		D	
     	vastu	0		K	
ropu	ropp	0		A	sg g
olnud	ol=nud	0		A	
     	ol=nud	0		A	sg n
     	ol=nud	d		A	pl n
     	ole	nud		V	nud
     	olnu	d		S	pl n
;	;			Z	
ja	ja	0		J	
oma	oma	0		A	sg g
   	oma	0		D	
   	oma	0		P	sg g
   	oma	0		S	sg g
   	oma	0		V	o
   	oma	0		A	sg n
   	oma	0		A	sg p
   	oma	0		P	sg n
   	oma	0		P	sg p
   	oma	0		S	sg n
   	oma	0		S	sg p
loaga	luba	ga		S	sg kom
     	luga	ga		S	sg kom
lambid	lamp	d		A	pl n
      	lamp	d		S	pl n
tallis	tall	s		S	sg in
velje	velg	0		S	sg g
     	veli	0		S	adt
     	veli	0		S	sg g
     	veli	0		S	sg p
toonud	too	nud		V	nud
      	too=nu	d		S	pl n
      	too=nud	0		A	
      	too=nud	0		A	sg n
      	too=nud	d		A	pl n
.	.			Z	
mõistetud	mõist	tud		V	tud
         	mõiste=tu	d		S	pl n
         	mõiste=tud	0		A	
         	mõiste=tud	0		A	sg n
         	mõiste=tud	d		A	pl n
:	:			Z	
selle	see	0		P	sg g
     	sell	e		S	pl p
vastu	vastu	0		D	
     	vastu	0		K	
kõnelemise	kõnelemine	0		S	sg g
10	10	0		N	?
löögi	löö	0	gi	V	o
     	löök	0		S	sg g
vitsu	vits	u		S	pl p
