ette	ette	0		D	
    	ette	0		K	
    	esi	tte		S	adt
tuli	tuli	0		S	sg n
    	tule	i		V	s
Mihkel	Mihkel	0		H	sg n
      	mihkel	0		A	sg n
      	mihkel	0		S	sg n
Võso	####				
ning	ning	0		J	
kaebas	kaeba	s		V	s
,	,			Z	
et	et	0		J	
on	ole	0		V	b
  	ole	0		V	vad
temal	tema	l		P	sg ad
Jaan	Jaan	0		H	sg n
    	jaan	0		S	sg n
    	jaan	0		Y	?
Kubja	####				
käest	käest	0		K	
     	käsi	st		S	sg el
saada	saa	da		V	da
     	saat	0		V	o
     	saa	da		V	ta
7	7	0		N	?
rubla	rubla	0		S	sg g
     	rubla	0		S	sg n
     	rubla	0		S	sg p
,	,			Z	
palus	palu	s		S	sg in
     	palu	s		V	s
kohus	kohu	s		V	s
     	kohus	0		S	sg n
seda	see	da		P	sg p
raha	raha	0		S	sg g
    	raha	0		S	sg n
    	raha	0		S	sg p
sisse	siss	e		S	pl p
     	sisse	0		D	
     	sisse	0		K	
nouda	####				
.	.			Z	
see	see	0		P	sg n
kaebus	kaebus	0		S	sg n
Jaan	Jaan	0		H	sg n
    	jaan	0		S	sg n
    	jaan	0		Y	?
Kubjal	####				
ette	ette	0		D	
    	ette	0		K	
    	esi	tte		S	adt
loetud	loetu	d		S	pl n
      	loetud	0		A	
      	loetud	0		A	sg n
      	loetud	d		A	pl n
      	luge	tud		V	tud
,	,			Z	
kes	kes	0		P	pl n
   	kes	0		P	sg n
seda	see	da		P	sg p
võlga	võlg	0		S	adt
     	võlg	0		S	sg p
mitte	mitte	0		D	
ei	ei	0		D	
  	ei	0		V	neg
salga	salga	0		V	o
     	salk	0		S	sg g
,	,			Z	
ja	ja	0		J	
ütles	ütle	s		V	s
,	,			Z	
et	et	0		J	
temal	tema	l		P	sg ad
nüüd	nüüd	0		D	
mitte	mitte	0		D	
võimalik	võimalik	0		A	sg n
maksa	maks	0		S	adt
     	maks	0		S	sg g
     	maks	0		V	o
     	maks	0		S	sg p
ei	ei	0		D	
  	ei	0		V	neg
ole	ole	0		V	o
.	.			Z	
palus	palu	s		S	sg in
     	palu	s		V	s
kannatada	kannata	da		V	da
.	.			Z	
otsus	otsus	0		S	sg n
.	.			Z	
Jaan	Jaan	0		H	sg n
    	jaan	0		S	sg n
    	jaan	0		Y	?
Kubja	####				
piab	####				
seda	see	da		P	sg p
raha	raha	0		S	sg g
    	raha	0		S	sg n
    	raha	0		S	sg p
7	7	0		N	?
R. Mihkel	####				
Võsule	Võsu	le		H	sg all
      	võsu	le		S	sg all
1.	1.	0		O	?
Januaril	####				
1888	1888	0		N	?
välja	välja	0		D	
     	välja	0		V	o
     	väli	0		S	adt
     	väli	0		S	sg g
     	väli	0		S	sg p
maksma	maks	ma		V	ma
.	.			Z	
selle	see	0		P	sg g
     	sell	e		S	pl p
otsusega	otsus	ga		S	sg kom
olid	ole	id		V	sid
M	M	0		O	?
 	M	0		Y	?
.	.			Z	
_	_			Z	
Võso	####				
ja	ja	0		J	
Jaan	Jaan	0		H	sg n
    	jaan	0		S	sg n
    	jaan	0		Y	?
Kubja	####				
rahul	rahu	l		S	sg ad
     	rahul	0		D	
.	.			Z	
Peakohtumees	pea_kohtu_mees	0		S	sg n
J	J	0		Y	?
.	.			Z	
_	_			Z	
roht	####				
kohtumees	kohtu_mees	0		S	sg n
J	J	0		Y	?
.	.			Z	
_	_			Z	
Mandli	mandel	0		S	sg g
Abi	abi	0		S	sg g
   	abi	0		S	sg n
   	abi	0		S	sg p
J	J	0		Y	?
.	.			Z	
_	_			Z	
Uibo	Uibo	0		H	sg g
    	Uibo	0		H	sg n
kirjutaja	kirjutaja	0		S	sg g
         	kirjutaja	0		S	sg n
asem	####				
.	.			Z	
O. Grünberg	####				
[	[			Z	
allkiri	all_kiri	0		S	sg n
]	]			Z	
7	7	0		N	?
rub	####				
.	.			Z	
M	M	0		O	?
 	M	0		Y	?
Võsule	Võsu	le		H	sg all
      	võsu	le		S	sg all
ääramaksnud	####				
3mal	####				
Veebr	Veebr	0		Y	?
.	.			Z	
1889	1889	0		N	?
