Jusal	####				
sel	see	l		P	sg ad
   	sel	0		Y	?
1.	1.	0		O	?
detsembril	detsember	l		S	sg ad
1870	1870	0		N	?
oli	ole	i		V	s
Karraske	####				
kogukonna	kogukond	0		S	sg g
kohus	kohu	s		V	s
     	kohus	0		S	sg n
koos	koos	0		D	
    	koos	0		K	
    	koos	0		S	sg n
    	kubu	s		S	sg in
,	,			Z	
nimelt	nimelt	0		D	
      	nimi	lt		S	sg abl
:	:			Z	
pea	pea	0		D	
   	pea	0		S	sg g
   	pida	0		V	o
   	pea	0		S	sg n
kohtumees	kohtu_mees	0		S	sg n
Mihkel	Mihkel	0		H	sg n
      	mihkel	0		A	sg n
      	mihkel	0		S	sg n
Raig	raig	0		S	sg n
kohtumees	kohtu_mees	0		S	sg n
Jaan	Jaan	0		H	sg n
    	jaan	0		S	sg n
    	jaan	0		Y	?
Leppasoon	####				
do	####				
Juhan	Juhan	0		H	sg n
Mandli	mandel	0		S	sg g
Karraske	####				
päris	päri	s		V	s
     	päris	0		A	
     	päris	0		D	
härra	härra	0		S	sg g
     	härra	0		S	sg n
nimel	nimel	0		K	
     	nimi	l		S	sg ad
tuli	tuli	0		S	sg n
    	tule	i		V	s
metsavaht	metsa_vaht	0		S	sg n
Jaan	Jaan	0		H	sg n
    	jaan	0		S	sg n
    	jaan	0		Y	?
Uibo	Uibo	0		H	sg g
    	Uibo	0		H	sg n
ette	ette	0		D	
    	ette	0		K	
    	esi	tte		S	adt
ja	ja	0		J	
andis	and	is		V	s
eeskontrahi	ees_kontraht	0		S	sg g
,	,			Z	
kon	####				
härra	härra	0		S	sg g
     	härra	0		S	sg n
Jaana	Jaana	0		H	sg g
     	Jaana	0		H	sg n
majja	maja	0		S	adt
Gotardt	####				
Grünbergile	####				
on	ole	0		V	b
  	ole	0		V	vad
ära	ära	0		D	
   	ära	0		V	neg o
münud	####				
ja	ja	0		J	
palus	palu	s		S	sg in
     	palu	s		V	s
eeskontrakt	####				
ette	ette	0		D	
    	ette	0		K	
    	esi	tte		S	adt
lugeda	luge	da		V	da
ning	ning	0		J	
üles	üles	0		D	
anda	and	a		V	da
,	,			Z	
kas	kas	0		D	
nemad	tema	d		P	pl n
ise	ise	0		A	
   	ise	0		D	
   	ise	0		P	pl n
   	ise	0		P	sg n
seda	see	da		P	sg p
majja	maja	0		S	adt
kõige	kõik	0		P	sg g
     	kõige	0		D	
nende	see	de		P	pl g
     	tema	de		P	pl g
eeskontrahis	ees_kontraht	s		S	sg in
lepitud	leppi	tud		V	tud
       	lepi=tu	d		S	pl n
       	lepi=tud	0		A	
       	lepi=tud	0		A	sg n
       	lepi=tud	d		A	pl n
tingimistega	tingimine	tega		S	pl kom
tahtva	tahtev	0		A	sg g
võtta	võt	a		V	da
,	,			Z	
siis	siis	0		D	
    	siis	0		J	
herrale	####				
see	see	0		P	sg n
raha	raha	0		S	sg g
    	raha	0		S	sg n
    	raha	0		S	sg p
nelja	neli	0		N	adt
     	neli	0		N	sg g
     	neli	0		N	sg p
nädala	nädal	0		S	sg g
sees	sees	0		D	
    	sees	0		K	
sisse	siss	e		S	pl p
     	sisse	0		D	
     	sisse	0		K	
maksa	maks	0		S	adt
     	maks	0		S	sg g
     	maks	0		V	o
     	maks	0		S	sg p
ent	ent	0		J	
kui	kui	0		D	
   	kui	0		J	
seda	see	da		P	sg p
ei	ei	0		D	
  	ei	0		V	neg
ta	tema	0		P	sg g
  	tema	0		P	sg n
,	,			Z	
peavad	pida	vad		V	vad
Jüripäeval	jüri_päev	l		S	sg ad
1871	1871	0		N	?
on	ole	0		V	b
  	ole	0		V	vad
(	(			Z	
m	m	0		Y	?
)	)			Z	
aast	####				
majast	maja	st		S	sg el
väljaminema	####				
.	.			Z	
kutsuti	kutsu	ti		V	ti
Jaana	Jaana	0		H	sg g
     	Jaana	0		H	sg n
peremehe	pere_mees	0		S	sg g
Jaan	Jaan	0		H	sg n
    	jaan	0		S	sg n
    	jaan	0		Y	?
Mandli	mandel	0		S	sg g
ja	ja	0		J	
Jaan	Jaan	0		H	sg n
    	jaan	0		S	sg n
    	jaan	0		Y	?
Lavi	####				
ette	ette	0		D	
    	ette	0		K	
    	esi	tte		S	adt
,	,			Z	
sai	saa	i		V	s
   	sai	0		S	sg n
eeskontraht	ees_kontraht	0		S	sg n
ette	ette	0		D	
    	ette	0		K	
    	esi	tte		S	adt
loetud	loetu	d		S	pl n
      	loetud	0		A	
      	loetud	0		A	sg n
      	loetud	d		A	pl n
      	luge	tud		V	tud
ja	ja	0		J	
ütledus	####				
,	,			Z	
kui	kui	0		D	
   	kui	0		J	
nemad	tema	d		P	pl n
ise	ise	0		A	
   	ise	0		D	
   	ise	0		P	pl n
   	ise	0		P	sg n
nelja	neli	0		N	adt
     	neli	0		N	sg g
     	neli	0		N	sg p
nädala	nädal	0		S	sg g
sees	sees	0		D	
    	sees	0		K	
kõige	kõik	0		P	sg g
     	kõige	0		D	
nende	see	de		P	pl g
     	tema	de		P	pl g
eeskontrahis	ees_kontraht	s		S	sg in
lepitud	leppi	tud		V	tud
       	lepi=tu	d		S	pl n
       	lepi=tud	0		A	
       	lepi=tud	0		A	sg n
       	lepi=tud	d		A	pl n
tingimistega	tingimine	tega		S	pl kom
ei	ei	0		D	
  	ei	0		V	neg
võtta	võt	a		V	da
ja	ja	0		J	
herrale	####				
see	see	0		P	sg n
raha	raha	0		S	sg g
    	raha	0		S	sg n
    	raha	0		S	sg p
sisse	siss	e		S	pl p
     	sisse	0		D	
     	sisse	0		K	
ei	ei	0		D	
  	ei	0		V	neg
maksa	maks	0		S	adt
     	maks	0		S	sg g
     	maks	0		V	o
     	maks	0		S	sg p
,	,			Z	
siis	siis	0		D	
    	siis	0		J	
oma	oma	0		A	sg g
   	oma	0		D	
   	oma	0		P	sg g
   	oma	0		S	sg g
   	oma	0		V	o
   	oma	0		A	sg n
   	oma	0		A	sg p
   	oma	0		P	sg n
   	oma	0		P	sg p
   	oma	0		S	sg n
   	oma	0		S	sg p
nem	####				
(	(			Z	
m	m	0		Y	?
)	)			Z	
a	a	0		Y	?
on	ole	0		V	b
  	ole	0		V	vad
(	(			Z	
m	m	0		Y	?
)	)			Z	
a	a	0		Y	?
ees	ees	0		D	
   	ees	0		K	
   	esi	s		S	sg in
õiguse	õigus	0		S	sg g
kaotanud	kaota	nud		V	nud
        	kaota=nu	d		S	pl n
        	kaota=nud	0		A	
        	kaota=nud	0		A	sg n
        	kaota=nud	d		A	pl n
ning	ning	0		J	
peavad	pida	vad		V	vad
Jüripäeval	jüri_päev	l		S	sg ad
1871	1871	0		N	?
on	ole	0		V	b
  	ole	0		V	vad
(	(			Z	
m	m	0		Y	?
)	)			Z	
aast	####				
majast	maja	st		S	sg el
välja	välja	0		D	
     	välja	0		V	o
     	väli	0		S	adt
     	väli	0		S	sg g
     	väli	0		S	sg p
minema	mine	ma		V	ma
.	.			Z	
_	_			Z	
kirjutaja	kirjutaja	0		S	sg g
         	kirjutaja	0		S	sg n
H	H	0		Y	?
.	.			Z	
_	_			Z	
Undrits	####				
