Viido	####				
kirrilov	####				
kaebas	kaeba	s		V	s
kohtu	kohtu	0		V	o
     	kohus	0		S	sg g
ees	ees	0		D	
   	ees	0		K	
   	esi	s		S	sg in
,	,			Z	
et	et	0		J	
Karl	Karl	0		H	sg n
minu	mina	0		P	sg g
oleva	olev	0		A	sg g
     	olev	0		S	sg g
teda	tema	da		P	sg p
pistoli	####				
vargaks	varas	ks		S	sg tr
pannud	pan=nu	d		S	pl n
      	pan=nud	0		A	
      	pan=nud	0		A	sg n
      	pan=nud	d		A	pl n
      	pane	nud		V	nud
,	,			Z	
kohtu	kohtu	0		V	o
     	kohus	0		S	sg g
ees	ees	0		D	
   	ees	0		K	
   	esi	s		S	sg in
,	,			Z	
ja	ja	0		J	
tema	tema	0		P	sg g
    	tema	0		P	sg n
oleva	olev	0		A	sg g
     	olev	0		S	sg g
selle	see	0		P	sg g
     	sell	e		S	pl p
eest	eest	0		D	
    	eest	0		K	
    	esi	st		S	sg el
1	1	0		N	?
rubla	rubla	0		S	sg g
     	rubla	0		S	sg n
     	rubla	0		S	sg p
65	65	0		N	?
kop	kop	0		Y	?
trahvi	trahv	0		S	adt
      	trahv	0		S	sg g
      	trahvi	0		V	o
      	trahv	0		S	sg p
maksnud	maks	nud		V	nud
       	maks=nu	d		S	pl n
       	maks=nud	0		A	
       	maks=nud	0		A	sg n
       	maks=nud	d		A	pl n
.	.			Z	
ja	ja	0		J	
nüüd	nüüd	0		D	
oleva	olev	0		A	sg g
     	olev	0		S	sg g
pistuli	####				
Viido	####				
Küitsoni	####				
käest	käest	0		K	
     	käsi	st		S	sg el
kätte	kätte	0		K	
     	käsi	tte		S	adt
saanud	saa	nud		V	nud
      	saa=nud	0		A	
      	saa=nud	0		A	sg n
      	saa=nud	d		A	pl n
      	saanu	d		S	pl n
.	.			Z	
Karl	Karl	0		H	sg n
minu	mina	0		P	sg g
ütles	ütle	s		V	s
,	,			Z	
et	et	0		J	
Mina	mina	0		P	sg n
    	mina	0		S	sg g
    	mina	0		S	sg n
    	mina	0		S	sg p
Grünbergi	####				
jutu	jutt	0		S	sg g
perrä	####				
oleva	olev	0		A	sg g
     	olev	0		S	sg g
tema	tema	0		P	sg g
    	tema	0		P	sg n
kaebanud	####				
.	.			Z	
Mina	mina	0		P	sg n
    	mina	0		S	sg g
    	mina	0		S	sg n
    	mina	0		S	sg p
on	ole	0		V	b
  	ole	0		V	vad
kulu	kulg	0		S	sg g
    	kulu	0		S	sg g
    	kulu	0		V	o
    	kulu	0		S	sg n
    	kulu	0		S	sg p
.	.			Z	
Viido	####				
Küitson	####				
ütles	ütle	s		V	s
,	,			Z	
et	et	0		J	
tema	tema	0		P	sg g
    	tema	0		P	sg n
oleva	olev	0		A	sg g
     	olev	0		S	sg g
selle	see	0		P	sg g
     	sell	e		S	pl p
pistoli	####				
leidnud	leid	nud		V	nud
       	leid=nu	d		S	pl n
       	leid=nud	0		A	
       	leid=nud	0		A	sg n
       	leid=nud	d		A	pl n
tare	tare	0		S	sg g
    	tare	0		S	sg n
küljelt	külg	lt		S	sg abl
ratta	ratas	0		S	sg g
puide	####				
seest	seest	0		D	
     	seest	0		K	
.	.			Z	
kohus	kohu	s		V	s
     	kohus	0		S	sg n
mõistis	mõist	is		V	s
,	,			Z	
et	et	0		J	
Karl	Karl	0		H	sg n
minu	mina	0		P	sg g
peab	pida	b		V	b
Viido	####				
Kirilovile	####				
sel	see	l		P	sg ad
   	sel	0		Y	?
1	1	0		N	?
rubla	rubla	0		S	sg g
     	rubla	0		S	sg n
     	rubla	0		S	sg p
15	15	0		N	?
kop	kop	0		Y	?
tagasi	tagasi	0		D	
      	tagasi	0		K	
maksma	maks	ma		V	ma
,	,			Z	
ja	ja	0		J	
võtku	võt	ku		V	gu
oma	oma	0		A	sg g
   	oma	0		D	
   	oma	0		P	sg g
   	oma	0		S	sg g
   	oma	0		V	o
   	oma	0		A	sg n
   	oma	0		A	sg p
   	oma	0		P	sg n
   	oma	0		P	sg p
   	oma	0		S	sg n
   	oma	0		S	sg p
pistol	####				
Viido	####				
Küitsoni	####				
käest	käest	0		K	
     	käsi	st		S	sg el
ära	ära	0		D	
   	ära	0		V	neg o
pea	pea	0		D	
   	pea	0		S	sg g
   	pida	0		V	o
   	pea	0		S	sg n
kohtumees	kohtu_mees	0		S	sg n
Jaan	Jaan	0		H	sg n
    	jaan	0		S	sg n
    	jaan	0		Y	?
Holsting	####				
kohtumees	kohtu_mees	0		S	sg n
Jakob	Jakob	0		H	sg n
Türkson	####				
kohtumees	kohtu_mees	0		S	sg n
Paap	####				
Kress	kress	0		S	sg n
kohtumees	kohtu_mees	0		S	sg n
Joosep	Joosep	0		H	sg n
Ristmann	rist_mann	0		S	sg n
kohtumees	kohtu_mees	0		S	sg n
Frits	frits	0		S	sg n
Konsab	####				
