kohtu	kohtu	0		V	o
     	kohus	0		S	sg g
ees	ees	0		D	
   	ees	0		K	
   	esi	s		S	sg in
kaebas	kaeba	s		V	s
Jaan	Jaan	0		H	sg n
    	jaan	0		S	sg n
    	jaan	0		Y	?
peahn	####				
,	,			Z	
et	et	0		J	
Mihkli	Mihkel	0		H	sg g
      	Mihkli	0		H	sg g
      	mihkel	0		A	sg g
      	mihkel	0		S	sg g
      	Mihkli	0		H	sg n
soldan	####				
olevat	ole	vat		V	vat
      	olev	t		A	sg p
      	olev	t		S	sg p
lasknud	lask	nud		V	nud
       	lask=nu	d		S	pl n
       	lask=nud	0		A	
       	lask=nud	0		A	sg n
       	lask=nud	d		A	pl n
omal	oma	l		A	sg ad
    	oma	l		P	sg ad
    	oma	l		S	sg ad
täkküll	####				
oma	oma	0		A	sg g
   	oma	0		D	
   	oma	0		P	sg g
   	oma	0		S	sg g
   	oma	0		V	o
   	oma	0		A	sg n
   	oma	0		A	sg p
   	oma	0		P	sg n
   	oma	0		P	sg p
   	oma	0		S	sg n
   	oma	0		S	sg p
pead	pea	d		S	pl n
    	pida	d		V	d
    	pea	d		S	sg p
ilma	ilm	0		S	adt
    	ilm	0		S	sg g
    	ilma	0		D	
    	ilma	0		K	
    	ilm	0		S	sg p
hoidmata	hoid	mata		V	mata
        	hoid=mata	0		A	
ümber	ümber	0		D	
     	ümber	0		K	
kõndi	kõnd	0		S	adt
     	kõnd	0		S	sg p
,	,			Z	
kuna	kuna	0		D	
    	kuna	0		J	
siis	siis	0		D	
    	siis	0		J	
M	M	0		O	?
 	M	0		Y	?
.	.			Z	
_	_			Z	
soldani	####				
täkk	täkk	0		S	sg n
juba	juba	0		D	
teist	sina	st		P	pl el
     	tee	ist		S	pl el
     	teist	0		D	
     	teine	t		O	sg p
     	teine	t		P	sg p
aastad	aasta	d		S	pl n
tema	tema	0		P	sg g
    	tema	0		P	sg n
mära	mära	0		S	sg g
    	mära	0		S	sg n
    	mära	0		S	sg p
ära	ära	0		D	
   	ära	0		V	neg o
olevat	ole	vat		V	vat
      	olev	t		A	sg p
      	olev	t		S	sg p
karanud	karga	nud		V	nud
       	kara=nu	d		S	pl n
       	kara=nud	0		A	
       	kara=nud	0		A	sg n
       	kara=nud	d		A	pl n
,	,			Z	
nii	nii	0		D	
et	et	0		J	
tema	tema	0		P	sg g
    	tema	0		P	sg n
selle	see	0		P	sg g
     	sell	e		S	pl p
läbi	läbi	0		D	
    	läbi	0		K	
    	läbi	0		V	o
juba	juba	0		D	
kahju	kahi	0		S	adt
     	kahi	0		S	sg g
     	kahi	0		S	sg p
     	kahju	0		S	sg g
     	kahju	0		S	sg n
     	kahju	0		S	sg p
on	ole	0		V	b
  	ole	0		V	vad
saanud	saa	nud		V	nud
      	saa=nud	0		A	
      	saa=nud	0		A	sg n
      	saa=nud	d		A	pl n
      	saanu	d		S	pl n
ja	ja	0		J	
teine	teine	0		O	sg n
     	teine	0		P	sg n
kevade	kevad	0		S	sg g
      	kevade	0		S	sg g
      	kevade	0		S	sg n
jälle	jälle	0		D	
kahju	kahi	0		S	adt
     	kahi	0		S	sg g
     	kahi	0		S	sg p
     	kahju	0		S	sg g
     	kahju	0		S	sg n
     	kahju	0		S	sg p
saab	saa	b		V	b
saama	saa	ma		V	ma
     	saam	0		S	adt
     	saam	0		S	sg g
     	saam	0		S	sg p
.	.			Z	
nõuab	nõud	b		V	b
kahju	kahi	0		S	adt
     	kahi	0		S	sg g
     	kahi	0		S	sg p
     	kahju	0		S	sg g
     	kahju	0		S	sg n
     	kahju	0		S	sg p
tasumises	tasumine	s		S	sg in
25	25	0		N	?
rbl	rbl	0		Y	?
.	.			Z	
hõb	####				
.	.			Z	
otsus	otsus	0		S	sg n
:	:			Z	
et	et	0		J	
Mihkli	Mihkel	0		H	sg g
      	Mihkli	0		H	sg g
      	mihkel	0		A	sg g
      	mihkel	0		S	sg g
      	Mihkli	0		H	sg n
soldan	####				
mitte	mitte	0		D	
kolme	kolm	0		N	adt
     	kolm	0		N	sg g
     	kolm	0		N	sg p
korralise	korraline	0		A	sg g
kohtu	kohtu	0		V	o
     	kohus	0		S	sg g
kutsumise	kutsumine	0		S	sg g
peale	pea	le		S	sg all
     	peale	0		D	
     	peale	0		K	
kohtu	kohtu	0		V	o
     	kohus	0		S	sg g
ette	ette	0		D	
    	ette	0		K	
    	esi	tte		S	adt
ei	ei	0		D	
  	ei	0		V	neg
ole	ole	0		V	o
tulnud	tul=nud	0		A	
      	tul=nud	0		A	sg n
      	tul=nud	d		A	pl n
      	tule	nud		V	nud
      	tulnu	d		S	pl n
,	,			Z	
siis	siis	0		D	
    	siis	0		J	
mõistis	mõist	is		V	s
kogukonna	kogukond	0		S	sg g
kohus	kohu	s		V	s
     	kohus	0		S	sg n
:	:			Z	
Mihkli	Mihkel	0		H	sg g
      	Mihkli	0		H	sg g
      	mihkel	0		A	sg g
      	mihkel	0		S	sg g
      	Mihkli	0		H	sg n
soldan	####				
peab	pida	b		V	b
Jaan	Jaan	0		H	sg n
    	jaan	0		S	sg n
    	jaan	0		Y	?
pealehn	####				
5	5	0		N	?
rbl	rbl	0		Y	?
.	.			Z	
kahjutasumist	kahju_tasumine	t		S	sg p
selle	see	0		P	sg g
     	sell	e		S	pl p
eest	eest	0		D	
    	eest	0		K	
    	esi	st		S	sg el
maksma	maks	ma		V	ma
,	,			Z	
et	et	0		J	
tema	tema	0		P	sg g
    	tema	0		P	sg n
oma	oma	0		A	sg g
   	oma	0		D	
   	oma	0		P	sg g
   	oma	0		S	sg g
   	oma	0		V	o
   	oma	0		A	sg n
   	oma	0		A	sg p
   	oma	0		P	sg n
   	oma	0		P	sg p
   	oma	0		S	sg n
   	oma	0		S	sg p
täku	täkk	0		S	sg g
hinda	hind	0		S	adt
     	hinda	0		V	o
     	hind	0		S	sg p
pead	pea	d		S	pl n
    	pida	d		V	d
    	pea	d		S	sg p
ümber	ümber	0		D	
     	ümber	0		K	
last	laps	t		S	sg p
    	last	0		S	sg n
hulkuu	####				
ja	ja	0		J	
et	et	0		J	
Jaan	Jaan	0		H	sg n
    	jaan	0		S	sg n
    	jaan	0		Y	?
naPäh	####				
mära	mära	0		S	sg g
    	mära	0		S	sg n
    	mära	0		S	sg p
juba	juba	0		D	
teist	sina	st		P	pl el
     	tee	ist		S	pl el
     	teist	0		D	
     	teine	t		O	sg p
     	teine	t		P	sg p
kord	kord	0		D	
    	kord	0		S	sg n
soldani	####				
täkust	täkk	st		S	sg el
ära	ära	0		D	
   	ära	0		V	neg o
on	ole	0		V	b
  	ole	0		V	vad
karatu	kara=tu	0		S	sg g
      	kara=tu	0		S	sg n
,	,			Z	
kuna	kuna	0		D	
    	kuna	0		J	
peahn	####				
siis	siis	0		D	
    	siis	0		J	
,	,			Z	
kui	kui	0		D	
   	kui	0		J	
määral	määr	l		S	sg ad
poeg	poeg	0		S	sg n
saab	saa	b		V	b
teda	tema	da		P	sg p
näital	####				
aga	aga	0		J	
pruuugi	####				
ei	ei	0		D	
  	ei	0		V	neg
või	või	0		S	sg g
   	või	0		V	o
   	või	0		D	
   	või	0		J	
   	või	0		S	sg n
töö	töö	0		S	sg g
   	töö	0		S	sg n
tarvis	tarvis	0		D	
      	tarvis	0		K	
.	.			Z	
Mihkli	Mihkel	0		H	sg g
      	Mihkli	0		H	sg g
      	mihkel	0		A	sg g
      	mihkel	0		S	sg g
      	Mihkli	0		H	sg n
soldan	####				
saab	saa	b		V	b
teises	teine	s		O	sg in
      	teine	s		P	sg in
kohtu	kohtu	0		V	o
     	kohus	0		S	sg g
päevaks	päev	ks		S	sg tr
kohtu	kohtu	0		V	o
     	kohus	0		S	sg g
otsust	otsus	t		S	sg p
kuulema	kuul_ema	0		S	sg g
       	kuul_ema	0		S	sg n
       	kuul_ema	0		S	sg p
kutsutud	kutsu	tud		V	tud
        	kutsutu	d		S	pl n
        	kutsutud	0		A	
        	kutsutud	0		A	sg n
        	kutsutud	d		A	pl n
.	.			Z	
kui	kui	0		D	
   	kui	0		J	
kogukonna	kogukond	0		S	sg g
kohtu	kohtu	0		V	o
     	kohus	0		S	sg g
otsus	otsus	0		S	sg n
ja	ja	0		J	
seaduse	seadus	0		S	sg g
§§	§§	0		Y	?
773	773	0		N	?
ja	ja	0		J	
t4	####				
kohtus	kohtu	s		V	s
      	kohus	s		S	sg in
käijale	käija	le		S	sg all
ette	ette	0		D	
    	ette	0		K	
    	esi	tte		S	adt
saivad	####				
loetud	loetu	d		S	pl n
      	loetud	0		A	
      	loetud	0		A	sg n
      	loetud	d		A	pl n
      	luge	tud		V	tud
,	,			Z	
siis	siis	0		D	
    	siis	0		J	
ei	ei	0		D	
  	ei	0		V	neg
ole	ole	0		V	o
Jaan	Jaan	0		H	sg n
    	jaan	0		S	sg n
    	jaan	0		Y	?
peahn	####				
selle	see	0		P	sg g
     	sell	e		S	pl p
otsusega	otsus	ga		S	sg kom
rahul	rahu	l		S	sg ad
     	rahul	0		D	
ja	ja	0		J	
palle	pall	e		S	pl p
protokolli	protokoll	0		S	adt
          	protokoll	0		S	sg g
          	protokolli	0		V	o
          	protokoll	0		S	sg p
välja	välja	0		D	
     	välja	0		V	o
     	väli	0		S	adt
     	väli	0		S	sg g
     	väli	0		S	sg p
mis	mis	0		P	pl n
   	mis	0		P	sg n
temale	tema	le		P	sg all
ka	ka	0		D	
loati	####				
.	.			Z	
