ette	ette	0		D	
    	ette	0		K	
    	esi	tte		S	adt
tuli	tuli	0		S	sg n
    	tule	i		V	s
Joosust	####				
Peeter	Peeter	0		H	sg n
Jaanson	Jaanson	0		H	sg n
ja	ja	0		J	
kaebas	kaeba	s		V	s
Märt	Märt	0		H	sg n
Porile	Pori	le		H	sg all
      	pori	le		S	sg all
peale	pea	le		S	sg all
     	peale	0		D	
     	peale	0		K	
,	,			Z	
ja	ja	0		J	
nõuab	nõud	b		V	b
ta	tema	0		P	sg g
  	tema	0		P	sg n
käest	käest	0		K	
     	käsi	st		S	sg el
oma	oma	0		A	sg g
   	oma	0		D	
   	oma	0		P	sg g
   	oma	0		S	sg g
   	oma	0		V	o
   	oma	0		A	sg n
   	oma	0		A	sg p
   	oma	0		P	sg n
   	oma	0		P	sg p
   	oma	0		S	sg n
   	oma	0		S	sg p
hoopist	####				
,	,			Z	
mis	mis	0		P	pl n
   	mis	0		P	sg n
ta	tema	0		P	sg g
  	tema	0		P	sg n
24	24	0		N	?
aasta	aasta	0		S	sg g
     	aasta	0		S	sg n
eest	eest	0		D	
    	eest	0		K	
    	esi	st		S	sg el
talle	tall	e		S	pl p
     	tall	0		S	adt
     	tall	0		S	sg g
     	tema	lle		P	sg all
     	tall	0		S	sg p
andnud	and	nud		V	nud
      	and=nu	d		S	pl n
      	and=nud	0		A	
      	and=nud	0		A	sg n
      	and=nud	d		A	pl n
oli	ole	i		V	s
mitte	mitte	0		D	
hinda	hind	0		S	adt
     	hinda	0		V	o
     	hind	0		S	sg p
ennegi	ennegi	0		D	
hoopist	####				
.	.			Z	
tu	####				
hoopine	####				
maksnud	maks	nud		V	nud
       	maks=nu	d		S	pl n
       	maks=nud	0		A	
       	maks=nud	0		A	sg n
       	maks=nud	d		A	pl n
Jaani	Jaan	0		H	adt
     	Jaan	0		H	sg g
     	Jaani	0		H	sg g
     	jaan	0		S	adt
     	jaan	0		S	sg g
     	Jaan	0		H	sg p
     	Jaani	0		H	sg n
     	jaan	0		S	sg p
päeva	päev	0		S	adt
     	päev	0		S	sg g
     	päev	0		S	sg p
laaatele	####				
36	36	0		N	?
rubla	rubla	0		S	sg g
     	rubla	0		S	sg n
     	rubla	0		S	sg p
.	.			Z	
ja	ja	0		J	
nõud	nõu	d		S	pl n
tuud	####				
sama	sama	0		P	sg g
    	sama	0		P	sg n
    	sama	0		P	sg p
kätte	kätte	0		K	
     	käsi	tte		S	adt
.	.			Z	
Märt	Märt	0		H	sg n
Porile	Pori	le		H	sg all
      	pori	le		S	sg all
ses	see	s		P	sg in
kaebuses	kaebus	s		S	sg in
ette	ette	0		D	
    	ette	0		K	
    	esi	tte		S	adt
kutsutu	kutsutu	0		S	sg g
       	kutsutud	0		A	sg g
       	kutsutu	0		S	sg n
ütleb	ütle	b		V	b
et	et	0		J	
tema	tema	0		P	sg g
    	tema	0		P	sg n
ostnud	ost	nud		V	nud
      	ost=nu	d		S	pl n
      	ost=nud	0		A	
      	ost=nud	0		A	sg n
      	ost=nud	d		A	pl n
küll	küll	0		D	
    	küll	0		S	sg n
Peeter	Peeter	0		H	sg n
Jaanson	Jaanson	0		H	sg n
käest	käest	0		K	
     	käsi	st		S	sg el
hoopuse	####				
ja	ja	0		J	
maksnud	maks	nud		V	nud
       	maks=nu	d		S	pl n
       	maks=nud	0		A	
       	maks=nud	0		A	sg n
       	maks=nud	d		A	pl n
ka	ka	0		D	
hoopuse	####				
eest	eest	0		D	
    	eest	0		K	
    	esi	st		S	sg el
laaatele	####				
13	13	0		N	?
rubla	rubla	0		S	sg g
     	rubla	0		S	sg n
     	rubla	0		S	sg p
äära	####				
nii	nii	0		D	
et	et	0		J	
Peeter	Peeter	0		H	sg n
Jaanson	Jaanson	0		H	sg n
veli	veli	0		S	sg n
Jaan	Jaan	0		H	sg n
    	jaan	0		S	sg n
    	jaan	0		Y	?
Jaanson	Jaanson	0		H	sg n
andnud	and	nud		V	nud
      	and=nu	d		S	pl n
      	and=nud	0		A	
      	and=nud	0		A	sg n
      	and=nud	d		A	pl n
10	10	0		N	?
rubla	rubla	0		S	sg g
     	rubla	0		S	sg n
     	rubla	0		S	sg p
ja	ja	0		J	
3	3	0		N	?
rubla	rubla	0		S	sg g
     	rubla	0		S	sg n
     	rubla	0		S	sg p
andnud	and	nud		V	nud
      	and=nu	d		S	pl n
      	and=nud	0		A	
      	and=nud	0		A	sg n
      	and=nud	d		A	pl n
tema	tema	0		P	sg g
    	tema	0		P	sg n
asi	asi	0		S	sg n
   	asi	0		V	o
,	,			Z	
siis	siis	0		D	
    	siis	0		J	
sama	sama	0		P	sg g
    	sama	0		P	sg n
    	sama	0		P	sg p
laada	laat	0		S	sg g
peal	pea	l		S	sg ad
    	peal	0		D	
    	peal	0		K	
.	.			Z	
peale	pea	le		S	sg all
     	peale	0		D	
     	peale	0		K	
seda	see	da		P	sg p
andnud	and	nud		V	nud
      	and=nu	d		S	pl n
      	and=nud	0		A	
      	and=nud	0		A	sg n
      	and=nud	d		A	pl n
tema	tema	0		P	sg g
    	tema	0		P	sg n
Jaan	Jaan	0		H	sg n
    	jaan	0		S	sg n
    	jaan	0		Y	?
Jaansonil	Jaanson	l		H	sg ad
ühe	üks	0		N	sg g
   	üks	0		P	sg g
   	ühe	0		S	sg n
lehma	lehm	0		S	adt
     	lehm	0		S	sg g
     	lehm	0		S	sg p
9	9	0		N	?
rubla	rubla	0		S	sg g
     	rubla	0		S	sg n
     	rubla	0		S	sg p
eest	eest	0		D	
    	eest	0		K	
    	esi	st		S	sg el
,	,			Z	
ja	ja	0		J	
ühe	üks	0		N	sg g
   	üks	0		P	sg g
   	ühe	0		S	sg n
rubla	rubla	0		S	sg g
     	rubla	0		S	sg n
     	rubla	0		S	sg p
maksnud	maks	nud		V	nud
       	maks=nu	d		S	pl n
       	maks=nud	0		A	
       	maks=nud	0		A	sg n
       	maks=nud	d		A	pl n
Jaan	Jaan	0		H	sg n
    	jaan	0		S	sg n
    	jaan	0		Y	?
Jaanson	Jaanson	0		H	sg n
eest	eest	0		D	
    	eest	0		K	
    	esi	st		S	sg el
pearahas	pea_raha	s		S	sg in
.	.			Z	
ja	ja	0		J	
nii	nii	0		D	
saanud	saa	nud		V	nud
      	saa=nud	0		A	
      	saa=nud	0		A	sg n
      	saa=nud	d		A	pl n
      	saanu	d		S	pl n
see	see	0		P	sg n
raha	raha	0		S	sg g
    	raha	0		S	sg n
    	raha	0		S	sg p
tasa	tasa	0		D	
.	.			Z	
ja	ja	0		J	
loab	####				
10	10	0		N	?
rubla	rubla	0		S	sg g
     	rubla	0		S	sg n
     	rubla	0		S	sg p
ära	ära	0		D	
   	ära	0		V	neg o
maksa	maks	0		S	adt
     	maks	0		S	sg g
     	maks	0		V	o
     	maks	0		S	sg p
,	,			Z	
kui	kui	0		D	
   	kui	0		J	
Jaan	Jaan	0		H	sg n
    	jaan	0		S	sg n
    	jaan	0		Y	?
Jaanson	Jaanson	0		H	sg n
Peetrile	Peeter	le		H	sg all
        	Peetri	le		H	sg all
maksnud	maks	nud		V	nud
       	maks=nu	d		S	pl n
       	maks=nud	0		A	
       	maks=nud	0		A	sg n
       	maks=nud	d		A	pl n
ei	ei	0		D	
  	ei	0		V	neg
ole	ole	0		V	o
.	.			Z	
otsus	otsus	0		S	sg n
:	:			Z	
kogukonna	kogukond	0		S	sg g
kohus	kohu	s		V	s
     	kohus	0		S	sg n
mõistab	mõist	b		V	b
et	et	0		J	
Mart	Mart	0		H	sg n
    	mart	0		S	sg n
Porile	Pori	le		H	sg all
      	pori	le		S	sg all
peab	pida	b		V	b
10	10	0		N	?
rubl	####				
.	.			Z	
Peeter	Peeter	0		H	sg n
Jaansonil	Jaanson	l		H	sg ad
ära	ära	0		D	
   	ära	0		V	neg o
maksma	maks	ma		V	ma
,	,			Z	
kätte	kätte	0		K	
     	käsi	tte		S	adt
nädala	nädal	0		S	sg g
sisen	####				
,	,			Z	
ent	ent	0		J	
kolm	kolm	0		N	sg n
rubla	rubla	0		S	sg g
     	rubla	0		S	sg n
     	rubla	0		S	sg p
mis	mis	0		P	pl n
   	mis	0		P	sg n
vaidlemise	vaidlemine	0		S	sg g
al	####				
on	ole	0		V	b
  	ole	0		V	vad
,	,			Z	
jääb	jää	b		V	b
tühjaks	tühi	ks		A	sg tr
.	.			Z	
otsus	otsus	0		S	sg n
kuulutati	kuuluta	ti		V	ti
§	§	0		Y	?
773	773	0		N	?
ja	ja	0		J	
774	774	0		N	?
p	p	0		Y	?
.	.			Z	
T	T	0		Y	?
.	.			Z	
_S	####				
.	.			Z	
Märt	Märt	0		H	sg n
Porilo	####				
loab	####				
ka	ka	0		D	
seda	see	da		P	sg p
3	3	0		N	?
rubla	rubla	0		S	sg g
     	rubla	0		S	sg n
     	rubla	0		S	sg p
ära	ära	0		D	
   	ära	0		V	neg o
maksa	maks	0		S	adt
     	maks	0		S	sg g
     	maks	0		V	o
     	maks	0		S	sg p
ja	ja	0		J	
lepisid	####				
ära	ära	0		D	
   	ära	0		V	neg o
.	.			Z	
peakohtumees	pea_kohtu_mees	0		S	sg n
Jaan	Jaan	0		H	sg n
    	jaan	0		S	sg n
    	jaan	0		Y	?
Luik	luik	0		S	sg n
kohtumees	kohtu_mees	0		S	sg n
Peeter	Peeter	0		H	sg n
talumees	talu_mees	0		S	sg n
[	[			Z	
allkiri	all_kiri	0		S	sg n
]	]			Z	
do	####				
.	.			Z	
:	:			Z	
Johan	Johan	0		H	sg n
Punnak	####				
[	[			Z	
allkiri	all_kiri	0		S	sg n
]	]			Z	
do	####				
;	;			Z	
:	:			Z	
Jaan	Jaan	0		H	sg n
    	jaan	0		S	sg n
    	jaan	0		Y	?
Hengo	####				
xxx	####				
15	15	0		N	?
Februar	####				
1878	1878	0		N	?
10	10	0		N	?
rubl	####				
.	.			Z	
Jaansonil	Jaanson	l		H	sg ad
välja	välja	0		D	
     	välja	0		V	o
     	väli	0		S	adt
     	väli	0		S	sg g
     	väli	0		S	sg p
makstud	maks	tud		V	tud
       	maks=tu	d		S	pl n
       	maks=tud	0		A	
       	maks=tud	0		A	sg n
       	maks=tud	d		A	pl n
.	.			Z	
17	17	0		N	?
märts	märts	0		S	sg n
1879	1879	0		N	?
P	P	0		Y	?
.	.			Z	
_	_			Z	
Jaansonil	Jaanson	l		H	sg ad
koopia	koopia	0		S	sg g
      	koopia	0		S	sg n
