protokolli	protokoll	0		S	adt
          	protokoll	0		S	sg g
          	protokolli	0		V	o
          	protokoll	0		S	sg p
Nr.	Nr	0		Y	?
27	27	0		N	?
perra	####				
sest	see	st		P	sg el
    	sest	0		J	
21	21	0		N	?
Septembrist	september	st		S	sg el
oli	ole	i		V	s
härra	härra	0		S	sg g
     	härra	0		S	sg n
käest	käest	0		K	
     	käsi	st		S	sg el
selle	see	0		P	sg g
     	sell	e		S	pl p
üle	üle	0		D	
   	üle	0		K	
tunnistus	tunnistus	0		S	sg n
toodud	too	dud		V	tud
      	toodu	d		S	pl n
      	toodud	0		A	
      	toodud	0		A	sg n
      	toodud	d		A	pl n
et	et	0		J	
II	II	0		O	?
  	II	0		Y	?
  	jj	0		Y	?
kort	####				
savi	savi	0		S	sg g
    	savi	0		S	sg n
    	savi	0		S	sg p
kivi	kivi	0		S	sg g
    	kivi	0		S	sg n
    	kivi	0		S	sg p
oma	oma	0		A	sg g
   	oma	0		D	
   	oma	0		P	sg g
   	oma	0		S	sg g
   	oma	0		V	o
   	oma	0		A	sg n
   	oma	0		A	sg p
   	oma	0		P	sg n
   	oma	0		P	sg p
   	oma	0		S	sg n
   	oma	0		S	sg p
lubatu	lubatu	0		A	sg g
      	lubatud	0		A	sg g
      	lubatu	0		A	sg n
olnud	ol=nud	0		A	
     	ol=nud	0		A	sg n
     	ol=nud	d		A	pl n
     	ole	nud		V	nud
     	olnu	d		S	pl n
.	.			Z	
Mõistet	mõiste	t		S	sg p
:	:			Z	
Alexander	Alexander	0		H	sg n
Lenits	####				
peab	pida	b		V	b
kivi	kivi	0		S	sg g
    	kivi	0		S	sg n
    	kivi	0		S	sg p
eest	eest	0		D	
    	eest	0		K	
    	esi	st		S	sg el
veel	veel	0		D	
    	vesi	l		S	sg ad
80	80	0		N	?
kop	kop	0		Y	?
.	.			Z	
perra	####				
maksma	maks	ma		V	ma
ning	ning	0		J	
hobuste	hobune	te		S	pl g
mõisa	mõis	0		S	sg g
viimise	viimine	0		S	sg g
eest	eest	0		D	
    	eest	0		K	
    	esi	st		S	sg el
1	1	0		N	?
rubla	rubla	0		S	sg g
     	rubla	0		S	sg n
     	rubla	0		S	sg p
Trimohv	####				
Mihkli	Mihkel	0		H	sg g
      	Mihkli	0		H	sg g
      	mihkel	0		A	sg g
      	mihkel	0		S	sg g
      	Mihkli	0		H	sg n
heaks	hea	ks		A	sg tr
     	hea	ks		S	sg tr
     	heaks	0		D	
     	heaks	0		K	
.	.			Z	
see	see	0		P	sg n
mõistmine	mõistmine	0		S	sg n
on	ole	0		V	b
  	ole	0		V	vad
§	§	0		Y	?
773	773	0		N	?
ja	ja	0		J	
774	774	0		N	?
perra	####				
kuulutatud	kuuluta	tud		V	tud
          	kuuluta=tu	d		S	pl n
          	kuuluta=tud	0		A	
          	kuuluta=tud	0		A	sg n
          	kuuluta=tud	d		A	pl n
.	.			Z	
peakohtumees	pea_kohtu_mees	0		S	sg n
Jüri	Jüri	0		H	sg g
    	Jüri	0		H	sg n
Valdmann	vald_mann	0		S	sg n
XXX	XXX	0		O	?
   	XXX	0		Y	?
kohtumees	kohtu_mees	0		S	sg n
Hendrik	Hendrik	0		H	sg n
maksa	maks	0		S	adt
     	maks	0		S	sg g
     	maks	0		V	o
     	maks	0		S	sg p
XXX	XXX	0		O	?
   	XXX	0		Y	?
kohtumees	kohtu_mees	0		S	sg n
Tanel	Tanel	0		H	sg n
Purge	####				
XXX	XXX	0		O	?
   	XXX	0		Y	?
kohtumees	kohtu_mees	0		S	sg n
Jakob	Jakob	0		H	sg n
Kõiv	kõiv	0		S	sg n
XXX	XXX	0		O	?
   	XXX	0		Y	?
kirjutaja	kirjutaja	0		S	sg g
         	kirjutaja	0		S	sg n
/	/			Z	
Jõgeva	Jõgeva	0		H	sg g
      	Jõgeva	0		H	sg n
      	jõgeva	0		G	
/	/			Z	
