Gottlieb	Gottlieb	0		H	sg n
Kütt	kütt	0		S	sg n
vastut	####				
küsimise	küsimine	0		S	sg g
päle	####				
tema	tema	0		P	sg g
    	tema	0		P	sg n
ei	ei	0		D	
  	ei	0		V	neg
tea	tead	0		V	o
mittagi	####				
selle	see	0		P	sg g
     	sell	e		S	pl p
Liistaku	liistak	0		S	sg g
Jaani	Jaan	0		H	adt
     	Jaan	0		H	sg g
     	Jaani	0		H	sg g
     	jaan	0		S	adt
     	jaan	0		S	sg g
     	Jaan	0		H	sg p
     	Jaani	0		H	sg n
     	jaan	0		S	sg p
posti	post	0		S	adt
     	post	0		S	sg g
     	post	0		S	sg p
ameti	amet	0		S	sg g
vutmise	####				
pärast	pära	st		S	sg el
      	pärane	t		A	sg p
      	pärast	0		D	
      	pärast	0		K	
Tsirna	####				
Jakob	Jakob	0		H	sg n
eest	eest	0		D	
    	eest	0		K	
    	esi	st		S	sg el
,	,			Z	
kui	kui	0		D	
   	kui	0		J	
nemad	tema	d		P	pl n
härra	härra	0		S	sg g
     	härra	0		S	sg n
man	man	0		D	
   	man	0		K	
on	ole	0		V	b
  	ole	0		V	vad
leinud	####				
,	,			Z	
sus	sina	s		P	sg in
nemad	tema	d		P	pl n
õnda	####				
vahel	vahe	l		S	sg ad
     	vahel	0		D	
     	vahel	0		K	
kõnelenud	kõnele	nud		V	nud
         	kõnele=nu	d		S	pl n
         	kõnele=nud	0		A	
         	kõnele=nud	0		A	sg n
         	kõnele=nud	d		A	pl n
ja	ja	0		J	
ka	ka	0		D	
kuulnud	kuul	nud		V	nud
       	kuul=nud	0		A	
       	kuul=nud	0		A	sg n
       	kuul=nud	d		A	pl n
       	kuulnu	d		S	pl n
6	6	0		N	?
rubla	rubla	0		S	sg g
     	rubla	0		S	sg n
     	rubla	0		S	sg p
kõnelevat	kõnele	vat		V	vat
         	kõnelev	t		A	sg p
mis	mis	0		P	pl n
   	mis	0		P	sg n
nie	####				
kuus	kuu	s		S	sg in
    	kuus	0		N	sg n
rubla	rubla	0		S	sg g
     	rubla	0		S	sg n
     	rubla	0		S	sg p
ole	ole	0		V	o
tema	tema	0		P	sg g
    	tema	0		P	sg n
mitte	mitte	0		D	
ei	ei	0		D	
  	ei	0		V	neg
tea	tead	0		V	o
,	,			Z	
kui	kui	0		D	
   	kui	0		J	
härra	härra	0		S	sg g
     	härra	0		S	sg n
mant	mant	0		D	
    	mant	0		K	
    	mant	0		S	sg n
tagasi	tagasi	0		D	
      	tagasi	0		K	
tulnud	tul=nud	0		A	
      	tul=nud	0		A	sg n
      	tul=nud	d		A	pl n
      	tule	nud		V	nud
      	tulnu	d		S	pl n
sus	sina	s		P	sg in
ei	ei	0		D	
  	ei	0		V	neg
ole	ole	0		V	o
muud	muu	d		P	pl n
    	muu	d		S	pl n
    	muu	d		V	d
    	muu	d		P	sg p
    	muu	d		S	sg p
tuu	####				
olnud	ol=nud	0		A	
     	ol=nud	0		A	sg n
     	ol=nud	d		A	pl n
     	ole	nud		V	nud
     	olnu	d		S	pl n
et	et	0		J	
eeste	####				
kül	####				
läks	mine	s		V	s
.	.			Z	
Halla	hall	0		S	adt
     	hall	0		S	sg g
     	hall	0		S	sg p
Viido	####				
tunnist	tund	st		S	sg el
       	tunnine	t		A	sg p
tema	tema	0		P	sg g
    	tema	0		P	sg n
on	ole	0		V	b
  	ole	0		V	vad
kül	####				
kuulnud	kuul	nud		V	nud
       	kuul=nud	0		A	
       	kuul=nud	0		A	sg n
       	kuul=nud	d		A	pl n
       	kuulnu	d		S	pl n
et	et	0		J	
Liistaku	liistak	0		S	sg g
Jaan	Jaan	0		H	sg n
    	jaan	0		S	sg n
    	jaan	0		Y	?
on	ole	0		V	b
  	ole	0		V	vad
posti	post	0		S	adt
     	post	0		S	sg g
     	post	0		S	sg p
amete	####				
õnda	####				
kette	kett	e		S	pl p
vatnud	####				
,	,			Z	
ja	ja	0		J	
ei	ei	0		D	
  	ei	0		V	neg
ole	ole	0		V	o
mitte	mitte	0		D	
kuulnud	kuul	nud		V	nud
       	kuul=nud	0		A	
       	kuul=nud	0		A	sg n
       	kuul=nud	d		A	pl n
       	kuulnu	d		S	pl n
kuida	####				
nad	tema	d		P	pl n
on	ole	0		V	b
  	ole	0		V	vad
vahetanud	vaheta	nud		V	nud
         	vaheta=nu	d		S	pl n
         	vaheta=nud	0		A	
         	vaheta=nud	0		A	sg n
         	vaheta=nud	d		A	pl n
,	,			Z	
Liistaku	liistak	0		S	sg g
Jaan	Jaan	0		H	sg n
    	jaan	0		S	sg n
    	jaan	0		Y	?
on	ole	0		V	b
  	ole	0		V	vad
kül	####				
ütelnud	ütle	nud		V	nud
       	ütel=nu	d		S	pl n
       	ütel=nud	0		A	
       	ütel=nud	0		A	sg n
       	ütel=nud	d		A	pl n
tema	tema	0		P	sg g
    	tema	0		P	sg n
on	ole	0		V	b
  	ole	0		V	vad
paele	paas	le		S	sg all
saanud	saa	nud		V	nud
      	saa=nud	0		A	
      	saa=nud	0		A	sg n
      	saa=nud	d		A	pl n
      	saanu	d		S	pl n
kui	kui	0		D	
   	kui	0		J	
palo	####				
tuda	####				
ta	tema	0		P	sg g
  	tema	0		P	sg n
ei	ei	0		D	
  	ei	0		V	neg
ole	ole	0		V	o
ütelnud	ütle	nud		V	nud
       	ütel=nu	d		S	pl n
       	ütel=nud	0		A	
       	ütel=nud	0		A	sg n
       	ütel=nud	d		A	pl n
.	.			Z	
mõistetud	mõist	tud		V	tud
         	mõiste=tu	d		S	pl n
         	mõiste=tud	0		A	
         	mõiste=tud	0		A	sg n
         	mõiste=tud	d		A	pl n
:	:			Z	
et	et	0		J	
kedagi	keegi	dagi		P	sg p
tunnistajit	####				
ei	ei	0		D	
  	ei	0		V	neg
ole	ole	0		V	o
raha	raha	0		S	sg g
    	raha	0		S	sg n
    	raha	0		S	sg p
paele	paas	le		S	sg all
lubamise	lubamine	0		S	sg g
pärast	pära	st		S	sg el
      	pärane	t		A	sg p
      	pärast	0		D	
      	pärast	0		K	
sus	sina	s		P	sg in
peab	pida	b		V	b
Liistaku	liistak	0		S	sg g
Jaen	####				
nie	####				
kui	kui	0		D	
   	kui	0		J	
tema	tema	0		P	sg g
    	tema	0		P	sg n
on	ole	0		V	b
  	ole	0		V	vad
härra	härra	0		S	sg g
     	härra	0		S	sg n
keest	kee	st		S	sg el
vatnud	####				
pidanud	pida	nud		V	nud
       	pida=nu	d		S	pl n
       	pida=nud	0		A	
       	pida=nud	0		A	sg n
       	pida=nud	d		A	pl n
Liistaku	liistak	0		S	sg g
Jaanil	Jaan	l		H	sg ad
      	Jaani	l		H	sg ad
      	jaan	l		S	sg ad
kep	####				
veel	veel	0		D	
    	vesi	l		S	sg ad
luba	luba	0		S	sg n
    	luba	0		V	o
    	luba	0		S	sg p
tunnistajit	####				
otsita	otsi	ta		V	ta
.	.			Z	
