Konsa	####				
Jaanile	Jaan	le		H	sg all
       	Jaani	le		H	sg all
       	jaan	le		S	sg all
sai	saa	i		V	s
   	sai	0		S	sg n
siin	siin	0		D	
    	siin	0		S	sg n
kohtu	kohtu	0		V	o
     	kohus	0		S	sg g
ees	ees	0		D	
   	ees	0		K	
   	esi	s		S	sg in
mõisa	mõis	0		S	sg g
valitselle	####				
läbi	läbi	0		D	
    	läbi	0		K	
    	läbi	0		V	o
üteltud	####				
,	,			Z	
et	et	0		J	
mõisa	mõis	0		S	sg g
pärisherr	####				
on	ole	0		V	b
  	ole	0		V	vad
temale	tema	le		P	sg all
kül	####				
luba	luba	0		S	sg n
    	luba	0		V	o
    	luba	0		S	sg p
andnud	and	nud		V	nud
      	and=nu	d		S	pl n
      	and=nud	0		A	
      	and=nud	0		A	sg n
      	and=nud	d		A	pl n
Liuta	liug	ta		S	sg ab
küla	küla	0		S	sg g
    	küla	0		S	sg n
    	küla	0		S	sg p
hobuse	hobune	0		S	sg g
heitmise	heitmine	0		S	sg g
platse	plats	e		S	pl p
läbi	läbi	0		D	
    	läbi	0		K	
    	läbi	0		V	o
üks	üks	0		N	sg n
   	üks	0		P	sg n
kraav	kraav	0		S	sg n
kaebavad	kaeba	vad		V	vad
        	kaebav	d		A	pl n
,	,			Z	
aga	aga	0		J	
jaab	####				
see	see	0		P	sg n
plats	plats	0		S	sg n
     	plats	0		I	
nii	nii	0		D	
sama	sama	0		P	sg g
    	sama	0		P	sg n
    	sama	0		P	sg p
kui	kui	0		D	
   	kui	0		J	
nud	####				
edaspidi	edas_pidi	0		D	
Liuti	liu=ti	0		D	
külale	küla	le		S	sg all
käi	käi	0		S	sg n
   	käi	0		V	o
ja	ja	0		J	
on	ole	0		V	b
  	ole	0		V	vad
Konsale	####				
mitte	mitte	0		D	
üks	üks	0		N	sg n
   	üks	0		P	sg n
õigus	õigus	0		S	sg n
selle	see	0		P	sg g
     	sell	e		S	pl p
platse	plats	e		S	pl p
või	või	0		S	sg g
   	või	0		V	o
   	või	0		D	
   	või	0		J	
   	või	0		S	sg n
platsi	plats	0		S	adt
      	plats	0		S	sg g
      	plats	0		S	sg p
tukki	tukk	0		S	adt
     	tukk	i		S	pl p
     	tukk	0		S	sg p
paele	paas	le		S	sg all
.	.			Z	
man	man	0		D	
   	man	0		K	
olseva	####				
Liuti	liu=ti	0		D	
kohtumees	kohtu_mees	0		S	sg n
Kristjan	Kristjan	0		H	sg n
Kressmann	kress_mann	0		S	sg n
,	,			Z	
peremehed	pere_mees	d		S	pl n
Daniel	Daniel	0		H	sg n
raudast	####				
Geor	####				
Prasimas	####				
,	,			Z	
Kristjan	Kristjan	0		H	sg n
Hendekont	####				
,	,			Z	
ja	ja	0		J	
Jaan	Jaan	0		H	sg n
    	jaan	0		S	sg n
    	jaan	0		Y	?
mõisalu	mõis_ala	u		S	pl p
.	.			Z	
