ette	ette	0		D	
    	ette	0		K	
    	esi	tte		S	adt
tuli	tuli	0		S	sg n
    	tule	i		V	s
Hendrik	Hendrik	0		H	sg n
Lukats	####				
oman	oma	n		V	n
kaebosen	####				
Johann	Johann	0		H	sg n
Valk	valk	0		S	sg n
vastu	vastu	0		D	
     	vastu	0		K	
,	,			Z	
ja	ja	0		J	
nõuab	nõud	b		V	b
tema	tema	0		P	sg g
    	tema	0		P	sg n
käest	käest	0		K	
     	käsi	st		S	sg el
2	2	0		N	?
rubla	rubla	0		S	sg g
     	rubla	0		S	sg n
     	rubla	0		S	sg p
teises	teine	s		O	sg in
      	teine	s		P	sg in
käerah_as	####				
.	.			Z	
