N	N	0		Y	?
15.	15.	0		O	?
Vaimel	####				
kogukonna	kogukond	0		S	sg g
Kohtus	kohtu	s		V	s
      	kohus	s		S	sg in
sel	see	l		P	sg ad
   	sel	0		Y	?
1	1	0		N	?
Märtsil	märts	l		S	sg ad
1874	1874	0		N	?
peakohtumees	pea_kohtu_mees	0		S	sg n
Peeter	Peeter	0		H	sg n
Pil	####				
abi	abi	0		S	sg g
   	abi	0		S	sg n
   	abi	0		S	sg p
Mihkel	Mihkel	0		H	sg n
      	mihkel	0		A	sg n
      	mihkel	0		S	sg n
Traks	traks	0		A	sg n
     	traks	0		S	sg n
dito	####				
Jaan	Jaan	0		H	sg n
    	jaan	0		S	sg n
    	jaan	0		Y	?
Vaiso	####				
Tänäsetsel	####				
päeval	päev	l		S	sg ad
sai	saa	i		V	s
   	sai	0		S	sg n
kolimaja	koli_maja	0		S	sg g
        	koli_maja	0		S	sg n
        	koli_maja	0		S	sg p
meister	meister	0		S	sg n
Hendrik	Hendrik	0		H	sg n
Ortus	####				
ette	ette	0		D	
    	ette	0		K	
    	esi	tte		S	adt
kutsutud	kutsu	tud		V	tud
        	kutsutu	d		S	pl n
        	kutsutud	0		A	
        	kutsutud	0		A	sg n
        	kutsutud	d		A	pl n
ja	ja	0		J	
kusiti	kusiti	0		S	sg g
      	kusiti	0		S	sg n
:	:			Z	
mispärast	mis_pärast	0		D	
tema	tema	0		P	sg g
    	tema	0		P	sg n
mitte	mitte	0		D	
sel	see	l		P	sg ad
   	sel	0		Y	?
22	22	0		N	?
Veebruail	####				
kogukonna	kogukond	0		S	sg g
kohtu	kohtu	0		V	o
     	kohus	0		S	sg g
ette	ette	0		D	
    	ette	0		K	
    	esi	tte		S	adt
ei	ei	0		D	
  	ei	0		V	neg
tule	tuli	0		S	sg g
    	tule	0		V	o
,	,			Z	
kui	kui	0		D	
   	kui	0		J	
temale	tema	le		P	sg all
käsk	käsk	0		S	sg n
on	ole	0		V	b
  	ole	0		V	vad
saanud	saa	nud		V	nud
      	saa=nud	0		A	
      	saa=nud	0		A	sg n
      	saa=nud	d		A	pl n
      	saanu	d		S	pl n
antud	an=tu	d		S	pl n
     	and	tud		V	tud
     	antud	0		A	
     	antud	0		A	sg n
     	antud	d		A	pl n
?	?			Z	
seepeale	see_peale	0		D	
on	ole	0		V	b
  	ole	0		V	vad
kogukonna	kogukond	0		S	sg g
kohtu	kohtu	0		V	o
     	kohus	0		S	sg g
ees	ees	0		D	
   	ees	0		K	
   	esi	s		S	sg in
Hendrik	Hendrik	0		H	sg n
Ortus	####				
vastust	vastus	t		S	sg p
andnud	and	nud		V	nud
      	and=nu	d		S	pl n
      	and=nud	0		A	
      	and=nud	0		A	sg n
      	and=nud	d		A	pl n
:	:			Z	
mispärast	mis_pärast	0		D	
temale	tema	le		P	sg all
ei	ei	0		D	
  	ei	0		V	neg
sa	sina	0		P	sg n
üteltud	####				
näärätti	näär_ätt	0		S	adt
        	näär_ätt	0		S	sg p
asja	asi	0		S	adt
    	asi	0		S	sg g
    	asi	0		S	sg p
pärast	pära	st		S	sg el
      	pärane	t		A	sg p
      	pärast	0		D	
      	pärast	0		K	
tema	tema	0		P	sg g
    	tema	0		P	sg n
kohtu	kohtu	0		V	o
     	kohus	0		S	sg g
ette	ette	0		D	
    	ette	0		K	
    	esi	tte		S	adt
taliseti	tali_sett	0		S	sg g
,	,			Z	
selle	see	0		P	sg g
     	sell	e		S	pl p
ei	ei	0		D	
  	ei	0		V	neg
või	või	0		S	sg g
   	või	0		V	o
   	või	0		D	
   	või	0		J	
   	või	0		S	sg n
tema	tema	0		P	sg g
    	tema	0		P	sg n
mitte	mitte	0		D	
tulla	tule	a		V	da
.	.			Z	
kui	kui	0		D	
   	kui	0		J	
nüüd	nüüd	0		D	
Hendrik	Hendrik	0		H	sg n
Ortus	####				
ei	ei	0		D	
  	ei	0		V	neg
tule	tuli	0		S	sg g
    	tule	0		V	o
kohtu	kohtu	0		V	o
     	kohus	0		S	sg g
ette	ette	0		D	
    	ette	0		K	
    	esi	tte		S	adt
siis	siis	0		D	
    	siis	0		J	
on	ole	0		V	b
  	ole	0		V	vad
kogukonna	kogukond	0		S	sg g
kohus	kohu	s		V	s
     	kohus	0		S	sg n
§	§	0		Y	?
775	775	0		N	?
perra	####				
arvatud	arva	tud		V	tud
       	arva=tu	d		S	pl n
       	arva=tud	0		A	
       	arva=tud	0		A	sg n
       	arva=tud	d		A	pl n
.	.			Z	
mõistus	mõistus	0		S	sg n
:	:			Z	
Hendrik	Hendrik	0		H	sg n
Ortus	####				
maksab	maks	b		V	b
30	30	0		N	?
kop	kop	0		Y	?
.	.			Z	
valla	vald	0		S	sg g
     	valla	0		D	
vaeste	vaene	te		A	pl g
      	vaene	te		S	pl g
laadikohe	laadi_kohe	0		A	sg n
.	.			Z	
peakohtumees	pea_kohtu_mees	0		S	sg n
:	:			Z	
Peeter	Peeter	0		H	sg n
Pihl	pihl	0		S	sg n
[	[			Z	
allkiri	all_kiri	0		S	sg n
]	]			Z	
abi	abi	0		S	sg g
   	abi	0		S	sg n
   	abi	0		S	sg p
:	:			Z	
Mihkel	Mihkel	0		H	sg n
      	mihkel	0		A	sg n
      	mihkel	0		S	sg n
Traks	traks	0		A	sg n
     	traks	0		S	sg n
[	[			Z	
allkiri	all_kiri	0		S	sg n
]	]			Z	
dito	####				
:	:			Z	
Jaan	Jaan	0		H	sg n
    	jaan	0		S	sg n
    	jaan	0		Y	?
Väiso	####				
[	[			Z	
allkiri	all_kiri	0		S	sg n
]	]			Z	
kirjutaja	kirjutaja	0		S	sg g
         	kirjutaja	0		S	sg n
Johangruk	####				
[	[			Z	
allkiri	all_kiri	0		S	sg n
]	]			Z	
