kaebasid	kaeba	sid		V	sid
Jaan	Jaan	0		H	sg n
    	jaan	0		S	sg n
    	jaan	0		Y	?
ja	ja	0		J	
Peeter	Peeter	0		H	sg n
Rämman	####				
et	et	0		J	
nende	see	de		P	pl g
     	tema	de		P	pl g
kodapoolik	koda_poolik	0		A	sg n
          	koda_poolik	0		S	sg n
Villem	Villem	0		H	sg n
Meening	####				
on	ole	0		V	b
  	ole	0		V	vad
lubanud	luba	nud		V	nud
       	luba=nu	d		S	pl n
       	luba=nud	0		A	
       	luba=nud	0		A	sg n
       	luba=nud	d		A	pl n
see	see	0		P	sg n
eest	eest	0		D	
    	eest	0		K	
    	esi	st		S	sg el
et	et	0		J	
temal	tema	l		P	sg ad
1	1	0		N	?
hobune	hobune	0		S	sg n
1	1	0		N	?
lehm	lehm	0		S	sg n
3	3	0		N	?
lammast	lammas	t		S	sg p
on	ole	0		V	b
  	ole	0		V	vad
nende	see	de		P	pl g
     	tema	de		P	pl g
karjas	kari	s		S	sg in
käinud	käi	nud		V	nud
      	käi=nud	0		A	
      	käi=nud	0		A	sg n
      	käi=nud	d		A	pl n
      	käinu	d		S	pl n
Karjuse	karjus	0		S	sg g
palgas	palk	s		S	sg in
4	4	0		N	?
mööda	mööda	0		A	
     	mööda	0		D	
     	mööda	0		K	
vilja	vili	0		S	adt
     	vili	0		S	sg g
     	vili	0		S	sg p
anda	and	a		V	da
ja	ja	0		J	
hobusega	hobune	ga		S	sg kom
lubanud	luba	nud		V	nud
       	luba=nu	d		S	pl n
       	luba=nud	0		A	
       	luba=nud	0		A	sg n
       	luba=nud	d		A	pl n
suvel	suvi	l		S	sg ad
2	2	0		N	?
päeva	päev	0		S	adt
     	päev	0		S	sg g
     	päev	0		S	sg p
nädalas	nädal	s		S	sg in
teha	tege	a		V	da
.	.			Z	
ja	ja	0		J	
on	ole	0		V	b
  	ole	0		V	vad
hobusega	hobune	ga		S	sg kom
ennegi	ennegi	0		D	
üle	üle	0		D	
   	üle	0		K	
suve	suvi	0		S	sg g
    	suvi	0		S	sg p
5	5	0		N	?
päeva	päev	0		S	adt
     	päev	0		S	sg g
     	päev	0		S	sg p
teinud	tege	nud		V	nud
      	tei=nud	0		A	
      	tei=nud	0		A	sg n
      	tei=nud	d		A	pl n
      	teinu	d		S	pl n
ja	ja	0		J	
karjusele	karjus	le		S	sg all
ei	ei	0		D	
  	ei	0		V	neg
ole	ole	0		V	o
vilja	vili	0		S	adt
     	vili	0		S	sg g
     	vili	0		S	sg p
sugugi	sugugi	0		D	
maksnud	maks	nud		V	nud
       	maks=nu	d		S	pl n
       	maks=nud	0		A	
       	maks=nud	0		A	sg n
       	maks=nud	d		A	pl n
.	.			Z	
ette	ette	0		D	
    	ette	0		K	
    	esi	tte		S	adt
tuli	tuli	0		S	sg n
    	tule	i		V	s
Villem	Villem	0		H	sg n
ja	ja	0		J	
ütles	ütle	s		V	s
et	et	0		J	
see	see	0		P	sg n
mitte	mitte	0		D	
õige	õige	0		A	sg g
    	õige	0		A	sg n
    	õige	0		D	
ei	ei	0		D	
  	ei	0		V	neg
ole	ole	0		V	o
et	et	0		J	
tema	tema	0		P	sg g
    	tema	0		P	sg n
hobuse	hobune	0		S	sg g
päevade	päev	de		S	pl g
ja	ja	0		J	
3	3	0		N	?
mööda	mööda	0		A	
     	mööda	0		D	
     	mööda	0		K	
Karjuse	karjus	0		S	sg g
palgas	palk	s		S	sg in
oli	ole	i		V	s
lubanud	luba	nud		V	nud
       	luba=nu	d		S	pl n
       	luba=nud	0		A	
       	luba=nud	0		A	sg n
       	luba=nud	d		A	pl n
.	.			Z	
ent	ent	0		J	
tema	tema	0		P	sg g
    	tema	0		P	sg n
hobune	hobune	0		S	sg n
on	ole	0		V	b
  	ole	0		V	vad
küll	küll	0		D	
    	küll	0		S	sg n
Jaani	Jaan	0		H	adt
     	Jaan	0		H	sg g
     	Jaani	0		H	sg g
     	jaan	0		S	adt
     	jaan	0		S	sg g
     	Jaan	0		H	sg p
     	Jaani	0		H	sg n
     	jaan	0		S	sg p
ja	ja	0		J	
Peetri	Peeter	0		H	sg g
      	Peetri	0		H	sg g
      	Peetri	0		H	sg n
käes	käes	0		K	
    	käsi	s		S	sg in
töö	töö	0		S	sg g
   	töö	0		S	sg n
teha	tege	a		V	da
olnud	ol=nud	0		A	
     	ol=nud	0		A	sg n
     	ol=nud	d		A	pl n
     	ole	nud		V	nud
     	olnu	d		S	pl n
ja	ja	0		J	
ise	ise	0		A	
   	ise	0		D	
   	ise	0		P	pl n
   	ise	0		P	sg n
on	ole	0		V	b
  	ole	0		V	vad
jälle	jälle	0		D	
sauna	saun	0		S	adt
     	saun	0		S	sg g
     	saun	0		S	sg p
raiunud	raiu	nud		V	nud
       	raiu=nu	d		S	pl n
       	raiu=nud	0		A	
       	raiu=nud	0		A	sg n
       	raiu=nud	d		A	pl n
.	.			Z	
kohus	kohu	s		V	s
     	kohus	0		S	sg n
mõist	####				
Villemil	Villem	l		H	sg ad
Karjuse	karjus	0		S	sg g
palgas	palk	s		S	sg in
2	2	0		N	?
mööda	mööda	0		A	
     	mööda	0		D	
     	mööda	0		K	
vilja	vili	0		S	adt
     	vili	0		S	sg g
     	vili	0		S	sg p
maksa	maks	0		S	adt
     	maks	0		S	sg g
     	maks	0		V	o
     	maks	0		S	sg p
.	.			Z	
K	K	0		Y	?
.	.			Z	
_	_			Z	
Rämmand	####				
J	J	0		Y	?
.	.			Z	
_	_			Z	
Parmson	####				
P	P	0		Y	?
.	.			Z	
_	_			Z	
Urgard	####				
