11	11	0		N	?
Märtsil	märts	l		S	sg ad
1894	1894	0		N	?
aastal	aasta	l		S	sg ad
on	ole	0		V	b
  	ole	0		V	vad
Krootuse	####				
vallakohtu	valla_kohus	0		S	sg g
poolt	pool	t		N	sg p
     	pool	t		S	sg p
     	poolt	0		D	
     	poolt	0		K	
ustavaks	ustav	ks		A	sg tr
tunnistud	####				
kirjalik	kirjalik	0		A	sg n
leping	leping	0		S	sg n
,	,			Z	
mis	mis	0		P	pl n
   	mis	0		P	sg n
tänasel	tänane	l		A	sg ad
päeval	päev	l		S	sg ad
tehtus	tehtu	s		S	sg in
      	tehtud	s		A	sg in
      	tehtus	0		S	sg n
hea	hea	0		A	sg g
   	hea	0		A	sg n
   	hea	0		S	sg g
   	hea	0		S	sg n
talu	talu	0		S	sg g
    	talu	0		V	o
    	talu	0		S	sg n
    	talu	0		S	sg p
omaniku	omanik	0		S	sg g
Jaan	Jaan	0		H	sg n
    	jaan	0		S	sg n
    	jaan	0		Y	?
Davita	####				
poeg	poeg	0		S	sg n
Rohkt	####				
ja	ja	0		J	
Võru	Võru	0		H	sg g
    	Võru	0		H	sg n
    	võru	0		S	sg g
    	võru	0		S	sg n
    	võru	0		S	sg p
Kreisi	kreis	0		S	adt
      	kreis	0		S	sg g
      	kreis	0		S	sg p
Valgjärve	Valg_järve	0		H	sg g
         	Valg_järve	0		H	sg n
vallaliikme	valla_liige	0		S	sg g
Jaan	Jaan	0		H	sg n
    	jaan	0		S	sg n
    	jaan	0		Y	?
Villemi	Villem	0		H	sg g
poeg	poeg	0		S	sg n
Vihm	vihm	0		S	sg n
vahel	vahe	l		S	sg ad
     	vahel	0		D	
     	vahel	0		K	
viimase	viimane	0		A	sg g
läbi	läbi	0		D	
    	läbi	0		K	
    	läbi	0		V	o
esimese	esimene	0		O	sg g
       	esimene	0		P	sg g
käest	käest	0		K	
     	käsi	st		S	sg el
hea	hea	0		A	sg g
   	hea	0		A	sg n
   	hea	0		S	sg g
   	hea	0		S	sg n
talu	talu	0		S	sg g
    	talu	0		V	o
    	talu	0		S	sg n
    	talu	0		S	sg p
rendi	rent	0		S	sg g
     	renti	0		V	o
peale	pea	le		S	sg all
     	peale	0		D	
     	peale	0		K	
võtmise	võtmine	0		S	sg g
üle	üle	0		D	
   	üle	0		K	
ühes	üks	s		N	sg in
    	üks	s		P	sg in
    	ühes	0		D	
    	ühes	0		K	
aastas	aasta	s		S	sg in
23	23	0		N	?
aprillist	aprill	st		S	sg el
1899	1899	0		N	?
a.	a	0		Y	?
peale	pea	le		S	sg all
     	peale	0		D	
     	peale	0		K	
,	,			Z	
aasta	aasta	0		S	sg g
     	aasta	0		S	sg n
rendi	rent	0		S	sg g
     	renti	0		V	o
260	260	0		N	?
rubla	rubla	0		S	sg g
     	rubla	0		S	sg n
     	rubla	0		S	sg p
eest	eest	0		D	
    	eest	0		K	
    	esi	st		S	sg el
,	,			Z	
mis	mis	0		P	pl n
   	mis	0		P	sg n
maksa	maks	0		S	adt
     	maks	0		S	sg g
     	maks	0		V	o
     	maks	0		S	sg p
on	ole	0		V	b
  	ole	0		V	vad
puhta	puhta	0		D	
     	puhas	0		A	sg g
rahaga	raha	ga		S	sg kom
kahel	kaks	l		N	sg ad
tähtajal	täht_aeg	l		S	sg ad
.	.			Z	
esimene	esimene	0		O	sg n
       	esimene	0		P	sg n
pool	pool	0		K	
    	pool	0		N	sg n
    	pool	0		S	sg n
1	1	0		N	?
aprillil	aprill	l		S	sg ad
ja	ja	0		J	
teine	teine	0		O	sg n
     	teine	0		P	sg n
pool	pool	0		K	
    	pool	0		N	sg n
    	pool	0		S	sg n
esimesel	esimene	l		O	sg ad
        	esimene	l		P	sg ad
oktoobril	oktoober	l		S	sg ad
see	see	0		P	sg n
aasta	aasta	0		S	sg g
     	aasta	0		S	sg n
.	.			Z	
kohtueesistuja	kohtu_ees_istuja	0		S	sg g
              	kohtu_ees_istuja	0		S	sg n
J	J	0		Y	?
.	.			Z	
_	_			Z	
Raig	raig	0		S	sg n
[	[			Z	
allkiri	all_kiri	0		S	sg n
]	]			Z	
kirjuta	kirju	ta		A	sg ab
       	kirjuta	0		V	o
k	k	0		Y	?
Kudu	kudu	0		S	sg g
    	kudu	0		S	sg n
    	kudu	0		S	sg p
[	[			Z	
allkiri	all_kiri	0		S	sg n
]	]			Z	
