Kaebas	kaeba	s		V	s
Mihkel	Mihkel	0		H	sg n
      	mihkel	0		A	sg n
      	mihkel	0		S	sg n
Freimann	####				
Veriorast	Veri_ora	st		H	sg el
,	,			Z	
et	et	0		J	
tema	tema	0		P	sg g
    	tema	0		P	sg n
poeg	poeg	0		S	sg n
Frits	frits	0		S	sg n
endise	endine	0		A	sg g
vallavanema	valla_vanem	0		S	sg g
Juhan	Juhan	0		H	sg n
Leplandiga	####				
tema	tema	0		P	sg g
    	tema	0		P	sg n
kirjutus	kirjutus	0		S	sg n
pulda	####				
Kahkvale	kahk_vale	0		A	sg g
        	kahk_vale	0		A	sg n
        	kahk_vale	0		S	sg g
        	kahk_vale	0		S	sg n
on	ole	0		V	b
  	ole	0		V	vad
toonud	too	nud		V	nud
      	too=nu	d		S	pl n
      	too=nud	0		A	
      	too=nud	0		A	sg n
      	too=nud	d		A	pl n
mis	mis	0		P	pl n
   	mis	0		P	sg n
nüid	####				
siin	siin	0		D	
    	siin	0		S	sg n
Kahva	kahv	0		S	adt
     	kahv	0		S	sg g
     	kahv	0		S	sg p
kohtu	kohtu	0		V	o
     	kohus	0		S	sg g
maeaks	####				
on	ole	0		V	b
  	ole	0		V	vad
,	,			Z	
keda	kes	da		P	pl p
    	kes	da		P	sg p
Juhan	Juhan	0		H	sg n
Lepland	####				
äära	####				
ei	ei	0		D	
  	ei	0		V	neg
andvad	andev	d		A	pl n
.	.			Z	
nõuab	nõud	b		V	b
seda	see	da		P	sg p
puldi	pult	0		S	sg g
Juhan	Juhan	0		H	sg n
Leplandi	####				
käest	käest	0		K	
     	käsi	st		S	sg el
kätte	kätte	0		K	
     	käsi	tte		S	adt
saada	saa	da		V	da
     	saat	0		V	o
     	saa	da		V	ta
.	.			Z	
Juhan	Juhan	0		H	sg n
Lepland	####				
and	and	0		S	sg n
vastust	vastus	t		S	sg p
,	,			Z	
et	et	0		J	
tema	tema	0		P	sg g
    	tema	0		P	sg n
puldi	pult	0		S	sg g
mitte	mitte	0		D	
toonud	too	nud		V	nud
      	too=nu	d		S	pl n
      	too=nud	0		A	
      	too=nud	0		A	sg n
      	too=nud	d		A	pl n
ei	ei	0		D	
  	ei	0		V	neg
ole	ole	0		V	o
vaid	vaid	0		D	
    	vaid	0		J	
pulda	####				
on	ole	0		V	b
  	ole	0		V	vad
endise	endine	0		A	sg g
kirjutaja	kirjutaja	0		S	sg g
         	kirjutaja	0		S	sg n
Frits	frits	0		S	sg n
oma	oma	0		A	sg g
   	oma	0		D	
   	oma	0		P	sg g
   	oma	0		S	sg g
   	oma	0		V	o
   	oma	0		A	sg n
   	oma	0		A	sg p
   	oma	0		P	sg n
   	oma	0		P	sg p
   	oma	0		S	sg n
   	oma	0		S	sg p
kraamis	kraam	s		S	sg in
       	kraami	s		V	s
siia	siia	0		D	
    	siig	0		S	sg g
toonud	too	nud		V	nud
      	too=nu	d		S	pl n
      	too=nud	0		A	
      	too=nud	0		A	sg n
      	too=nud	d		A	pl n
.	.			Z	
kuna	kuna	0		D	
    	kuna	0		J	
aga	aga	0		J	
kirjutaja	kirjutaja	0		S	sg g
         	kirjutaja	0		S	sg n
Frits	frits	0		S	sg n
Freimann	####				
Usenitsa	####				
Tohva	####				
Undi	Unt	0		H	sg g
    	und	i		S	pl p
raamatus	raamat	s		S	sg in
4	4	0		N	?
mõõdu	mõõt	0		S	sg g
2	2	0		N	?
karnitsat	karnits	t		S	sg p
rüki	rükki	0		V	o
tasa	tasa	0		D	
on	ole	0		V	b
  	ole	0		V	vad
kirjutanud	kirjuta	nud		V	nud
          	kirjutanu	d		S	pl n
          	kirjutanud	0		A	
          	kirjutanud	0		A	sg n
          	kirjutanud	d		A	pl n
ilma	ilm	0		S	adt
    	ilm	0		S	sg g
    	ilma	0		D	
    	ilma	0		K	
    	ilm	0		S	sg p
et	et	0		J	
Undo	####				
seda	see	da		P	sg p
oma	oma	0		A	sg g
   	oma	0		D	
   	oma	0		P	sg g
   	oma	0		S	sg g
   	oma	0		V	o
   	oma	0		A	sg n
   	oma	0		A	sg p
   	oma	0		P	sg n
   	oma	0		P	sg p
   	oma	0		S	sg n
   	oma	0		S	sg p
võlga	võlg	0		S	adt
     	võlg	0		S	sg p
äära	####				
oleks	ole	ks		V	ks
maksnud	maks	nud		V	nud
       	maks=nu	d		S	pl n
       	maks=nud	0		A	
       	maks=nud	0		A	sg n
       	maks=nud	d		A	pl n
,	,			Z	
mida	mis	da		P	pl p
    	mis	da		P	sg p
vöölmündri	####				
temale	tema	le		P	sg all
üles	üles	0		D	
olla	ole	a		V	da
andnud	and	nud		V	nud
      	and=nu	d		S	pl n
      	and=nud	0		A	
      	and=nud	0		A	sg n
      	and=nud	d		A	pl n
.	.			Z	
Peale	pea	le		S	sg all
     	peale	0		D	
     	peale	0		K	
selle	see	0		P	sg g
     	sell	e		S	pl p
on	ole	0		V	b
  	ole	0		V	vad
Frits	frits	0		S	sg n
Freimannil	####				
siin	siin	0		D	
    	siin	0		S	sg n
veel	veel	0		D	
    	vesi	l		S	sg ad
palju	palju	0		D	
     	palju	0		P	sg g
     	palju	0		P	sg n
asju	asi	u		S	pl p
õiendada	õienda	da		V	da
ja	ja	0		J	
sellepärast	selle_pärast	0		D	
on	ole	0		V	b
  	ole	0		V	vad
see	see	0		P	sg n
pult	pult	0		S	sg n
nende	see	de		P	pl g
     	tema	de		P	pl g
kahjusse	kahi	sse		S	sg ill
        	kahju	sse		S	sg ill
tasumiseks	tasumine	ks		S	sg tr
siin	siin	0		D	
    	siin	0		S	sg n
kinni	kinni	0		D	
keelatud	keela	tud		V	tud
        	keelatu	d		S	pl n
        	keelatud	0		A	
        	keelatud	0		A	sg n
        	keelatud	d		A	pl n
saanud	saa	nud		V	nud
      	saa=nud	0		A	
      	saa=nud	0		A	sg n
      	saa=nud	d		A	pl n
      	saanu	d		S	pl n
.	.			Z	
kuna	kuna	0		D	
    	kuna	0		J	
avalik	avalik	0		A	sg n
on	ole	0		V	b
  	ole	0		V	vad
,	,			Z	
et	et	0		J	
endine	endine	0		A	sg n
kirjutaja	kirjutaja	0		S	sg g
         	kirjutaja	0		S	sg n
Frits	frits	0		S	sg n
Freimann	####				
oma	oma	0		A	sg g
   	oma	0		D	
   	oma	0		P	sg g
   	oma	0		S	sg g
   	oma	0		V	o
   	oma	0		A	sg n
   	oma	0		A	sg p
   	oma	0		P	sg n
   	oma	0		P	sg p
   	oma	0		S	sg n
   	oma	0		S	sg p
ameti	amet	0		S	sg g
talituses	talitus	s		S	sg in
vallale	vald	le		S	sg all
palju	palju	0		D	
     	palju	0		P	sg g
     	palju	0		P	sg n
kahju	kahi	0		S	adt
     	kahi	0		S	sg g
     	kahi	0		S	sg p
     	kahju	0		S	sg g
     	kahju	0		S	sg n
     	kahju	0		S	sg p
on	ole	0		V	b
  	ole	0		V	vad
saatnud	saat	nud		V	nud
       	saat=nu	d		S	pl n
       	saat=nud	0		A	
       	saat=nud	0		A	sg n
       	saat=nud	d		A	pl n
siis	siis	0		D	
    	siis	0		J	
tegi	sina	0	gi	P	pl g
    	tege	i		V	s
    	sina	0	gi	P	pl n
kohus	kohu	s		V	s
     	kohus	0		S	sg n
otsuseks	otsus	ks		S	sg tr
:	:			Z	
Mihkel	Mihkel	0		H	sg n
      	mihkel	0		A	sg n
      	mihkel	0		S	sg n
Freimanni	####				
nõudmine	nõudmine	0		S	sg n
tühjaks	tühi	ks		A	sg tr
arvatud	arva	tud		V	tud
       	arva=tu	d		S	pl n
       	arva=tud	0		A	
       	arva=tud	0		A	sg n
       	arva=tud	d		A	pl n
ning	ning	0		J	
see	see	0		P	sg n
pult	pult	0		S	sg n
saab	saa	b		V	b
,	,			Z	
eestuleval	ees_tulev	l		A	sg ad
oksjoni	oksjon	0		S	sg g
päeval	päev	l		S	sg ad
enam	enam	0		C	sg n
    	enam	0		D	
pakkumise	pakkumine	0		S	sg g
teel	tee	l		S	sg ad
    	teel	0		K	
välja	välja	0		D	
     	välja	0		V	o
     	väli	0		S	adt
     	väli	0		S	sg g
     	väli	0		S	sg p
müidud	####				
valla	vald	0		S	sg g
     	valla	0		D	
kahjusse	kahi	sse		S	sg ill
        	kahju	sse		S	sg ill
tasumiseks	tasumine	ks		S	sg tr
.	.			Z	
see	see	0		P	sg n
otsus	otsus	0		S	sg n
L	L	0		O	?
 	L	0		Y	?
.	.			Z	
T	T	0		Y	?
.	.			Z	
S	S	0		Y	?
§	§	0		Y	?
773	773	0		N	?
ja	ja	0		J	
774	774	0		N	?
perra	####				
kuulutud	kuulu	tud		V	tud
        	kuulu=tu	d		S	pl n
        	kuulu=tud	0		A	
        	kuulu=tud	0		A	sg n
        	kuulu=tud	d		A	pl n
.	.			Z	
Mihkel	Mihkel	0		H	sg n
      	mihkel	0		A	sg n
      	mihkel	0		S	sg n
Freimann	####				
palub	palu	b		V	b
suuremat	suurem	t		C	sg p
kohut	kohus	t		S	sg p
.	.			Z	
Opuseleht	####				
välja	välja	0		D	
     	välja	0		V	o
     	väli	0		S	adt
     	väli	0		S	sg g
     	väli	0		S	sg p
andud	andu	d		V	d
sellsamal	####				
päeval	päev	l		S	sg ad
.	.			Z	
