Karraske	####				
kogukonna	kogukond	0		S	sg g
kohus	kohu	s		V	s
     	kohus	0		S	sg n
sel	see	l		P	sg ad
   	sel	0		Y	?
17	17	0		N	?
rokt	####				
1880	1880	0		N	?
mann	mann	0		S	sg n
olid	ole	id		V	sid
peamees	pea_mees	0		S	sg n
Jaan	Jaan	0		H	sg n
    	jaan	0		S	sg n
    	jaan	0		Y	?
tulnud	tul=nud	0		A	
      	tul=nud	0		A	sg n
      	tul=nud	d		A	pl n
      	tule	nud		V	nud
      	tulnu	d		S	pl n
do	####				
do	####				
kohtumees	kohtu_mees	0		S	sg n
Jaan	Jaan	0		H	sg n
    	jaan	0		S	sg n
    	jaan	0		Y	?
älepson	####				
do	####				
do	####				
teine	teine	0		O	sg n
     	teine	0		P	sg n
do	####				
Samuel	Samuel	0		H	sg n
Raig	raig	0		S	sg n
tuli	tuli	0		S	sg n
    	tule	i		V	s
ette	ette	0		D	
    	ette	0		K	
    	esi	tte		S	adt
Saksa	saks	0		S	adt
     	saks	0		S	sg g
     	saksa	0		G	
     	saks	0		S	sg p
metsavaht	metsa_vaht	0		S	sg n
Jaan	Jaan	0		H	sg n
    	jaan	0		S	sg n
    	jaan	0		Y	?
Uibo	Uibo	0		H	sg g
    	Uibo	0		H	sg n
ja	ja	0		J	
kaebas	kaeba	s		V	s
et	et	0		J	
Kähi	####				
mees	mees	0		S	sg n
    	mesi	s		S	sg in
Johann	Johann	0		H	sg n
Vestberg	####				
oleva	olev	0		A	sg g
     	olev	0		S	sg g
palumetsast	palu_mets	st		S	sg el
üks	üks	0		N	sg n
   	üks	0		P	sg n
kuiv	kuiv	0		A	sg n
    	kuiv	0		S	sg n
koritud	####				
kuuse	kuune	0		A	sg g
     	kuusk	0		S	sg g
puu	puu	0		S	sg g
   	puu	0		S	sg n
mis	mis	0		P	pl n
   	mis	0		P	sg n
tuuest	####				
14	14	0		N	?
1	1	0		N	?
/	/			Z	
2	2	0		N	?
tuli	tuli	0		S	sg n
    	tule	i		V	s
jäme	jäme	0		A	sg n
kanno	####				
pealt	pea	lt		S	sg abl
     	pealt	0		D	
     	pealt	0		K	
oli	ole	i		V	s
maha	maha	0		D	
raiunud	raiu	nud		V	nud
       	raiu=nu	d		S	pl n
       	raiu=nud	0		A	
       	raiu=nud	0		A	sg n
       	raiu=nud	d		A	pl n
ning	ning	0		J	
enda	ise	0		P	sg g
koju	kodu	0		S	adt
taha	taht	0		V	o
    	taha	0		D	
    	taha	0		K	
suhu	suu	0		S	adt
ära	ära	0		D	
   	ära	0		V	neg o
viinu	viin	u		S	pl p
,	,			Z	
nõudis	nõud	is		V	s
ega	ega	0		D	
   	ega	0		J	
tuli	tuli	0		S	sg n
    	tule	i		V	s
pealt	pea	lt		S	sg abl
     	pealt	0		D	
     	pealt	0		K	
25	25	0		N	?
kop	kop	0		Y	?
teeb	tege	b		V	b
ühe	üks	0		N	sg g
   	üks	0		P	sg g
   	ühe	0		S	sg n
kokku	kokku	0		D	
     	kogu	0		S	adt
3	3	0		N	?
rubla	rubla	0		S	sg g
     	rubla	0		S	sg n
     	rubla	0		S	sg p
26	26	0		N	?
1	1	0		N	?
/	/			Z	
2	2	0		N	?
kop	kop	0		Y	?
välja	välja	0		D	
     	välja	0		V	o
     	väli	0		S	adt
     	väli	0		S	sg g
     	väli	0		S	sg p
andis	and	is		V	s
tun	####				
(	(			Z	
n	n	0		Y	?
)	)			Z	
istaja	ist_aeg	0		S	sg g
Karel	####				
Matsen	####				
.	.			Z	
_	_			Z	
sai	saa	i		V	s
   	sai	0		S	sg n
ette	ette	0		D	
    	ette	0		K	
    	esi	tte		S	adt
kutsudatud	####				
Kähi	####				
mees	mees	0		S	sg n
    	mesi	s		S	sg in
Johann	Johann	0		H	sg n
Vestberg	####				
ning	ning	0		J	
ülevane	####				
kaebus	kaebus	0		S	sg n
ja	ja	0		J	
noudmine	####				
temale	tema	le		P	sg all
ette	ette	0		D	
    	ette	0		K	
    	esi	tte		S	adt
loetud	loetu	d		S	pl n
      	loetud	0		A	
      	loetud	0		A	sg n
      	loetud	d		A	pl n
      	luge	tud		V	tud
kes	kes	0		P	pl n
   	kes	0		P	sg n
koguniste	####				
ära	ära	0		D	
   	ära	0		V	neg o
salgas	salga	s		V	s
      	salk	s		S	sg in
ja	ja	0		J	
ütles	ütle	s		V	s
ega	ega	0		D	
   	ega	0		J	
tema	tema	0		P	sg g
    	tema	0		P	sg n
tolle	toll	e		S	pl p
     	too	0		P	sg g
vaht	vaht	0		S	sg n
ei	ei	0		D	
  	ei	0		V	neg
ole	ole	0		V	o
kes	kes	0		P	pl n
   	kes	0		P	sg n
sinna	sinna	0		D	
noid	too	d		P	pl p
puid	puu	id		S	pl p
on	ole	0		V	b
  	ole	0		V	vad
toonud	too	nud		V	nud
      	too=nu	d		S	pl n
      	too=nud	0		A	
      	too=nud	0		A	sg n
      	too=nud	d		A	pl n
,	,			Z	
ning	ning	0		J	
ise	ise	0		A	
   	ise	0		D	
   	ise	0		P	pl n
   	ise	0		P	sg n
ka	ka	0		D	
ei	ei	0		D	
  	ei	0		V	neg
ole	ole	0		V	o
ühtegi	ühte	0	gi	D	
      	üks	0	gi	N	adt
      	üks	0	gi	P	adt
      	ühe	0	gi	S	sg g
      	üks	0	gi	N	sg p
      	üks	0	gi	P	sg p
võera	####				
metsas	mets	s		S	sg in
käinud	käi	nud		V	nud
      	käi=nud	0		A	
      	käi=nud	0		A	sg n
      	käi=nud	d		A	pl n
      	käinu	d		S	pl n
ei	ei	0		D	
  	ei	0		V	neg
teadvat	tead	vat		V	vat
       	teadev	t		A	sg p
tollest	too	st		P	sg el
midaga	####				
ütelda	ütle	da		V	da
      	ütle	da		V	ta
kes	kes	0		P	pl n
   	kes	0		P	sg n
noid	too	d		P	pl p
puid	puu	id		S	pl p
sinna	sinna	0		D	
on	ole	0		V	b
  	ole	0		V	vad
viinu	viin	u		S	pl p
.	.			Z	
_	_			Z	
sai	saa	i		V	s
   	sai	0		S	sg n
ette	ette	0		D	
    	ette	0		K	
    	esi	tte		S	adt
kutsudatud	####				
tunnistaja	tunnistaja	0		S	sg g
          	tunnistaja	0		S	sg n
Kahri	####				
valla	vald	0		S	sg g
     	valla	0		D	
vöörmunder	vöör_munder	0		S	sg n
Karel	####				
Matsin	mat	sin		V	sin
ja	ja	0		J	
kohtu	kohtu	0		V	o
     	kohus	0		S	sg g
poolt	pool	t		N	sg p
     	pool	t		S	sg p
     	poolt	0		D	
     	poolt	0		K	
tema	tema	0		P	sg g
    	tema	0		P	sg n
käest	käest	0		K	
     	käsi	st		S	sg el
sai	saa	i		V	s
   	sai	0		S	sg n
kussitud	####				
mis	mis	0		P	pl n
   	mis	0		P	sg n
tema	tema	0		P	sg g
    	tema	0		P	sg n
sest	see	st		P	sg el
    	sest	0		J	
puuvargusest	puu_vargus	st		S	sg el
võib	või	b		V	b
tunnistada	tunnista	da		V	da
kes	kes	0		P	pl n
   	kes	0		P	sg n
ütles	ütle	s		V	s
,	,			Z	
kui	kui	0		D	
   	kui	0		J	
Karraske	####				
mõtsavaht	####				
Jaan	Jaan	0		H	sg n
    	jaan	0		S	sg n
    	jaan	0		Y	?
Uibo	Uibo	0		H	sg g
    	Uibo	0		H	sg n
minu	mina	0		P	sg g
poole	pool	0		N	sg g
     	pool	0		S	sg g
     	pool	e		S	pl p
     	poole	0		K	
     	poole	0		S	sg n
tuli	tuli	0		S	sg n
    	tule	i		V	s
mind	mina	d		P	sg p
ühes	üks	s		N	sg in
    	üks	s		P	sg in
    	ühes	0		D	
    	ühes	0		K	
kutsus	kutsu	s		V	s
      	kutsu	s		S	sg in
puid	puu	id		S	pl p
otsima	otsi	ma		V	ma
siis	siis	0		D	
    	siis	0		J	
läksime	mine	sime		V	sime
jälgi	jälg	i		S	pl p
     	jälgi	0		V	o
     	jälk	0		A	sg g
pitte	####				
kuni	kuni	0		J	
    	kuni	0		K	
üle	üle	0		D	
   	üle	0		K	
soo	soo	0		I	
   	soo	0		S	sg g
   	sugu	0		S	sg g
   	soo	0		S	sg n
mooda	####				
Johann	Johann	0		H	sg n
Vestberg	####				
majja	maja	0		S	adt
taha	taht	0		V	o
    	taha	0		D	
    	taha	0		K	
kadastiku	kadastik	0		S	sg g
kus	kus	0		D	
sinna	sinna	0		D	
olid	ole	id		V	sid
maha	maha	0		D	
pantud	####				
,	,			Z	
Johann	Johann	0		H	sg n
Vestberg	####				
ratta	ratas	0		S	sg g
olid	ole	id		V	sid
kuuse	kuune	0		A	sg g
     	kuusk	0		S	sg g
vaguga	####				
koos	koos	0		D	
    	koos	0		K	
    	koos	0		S	sg n
    	kubu	s		S	sg in
kirves	kirves	0		S	sg n
      	kirves	s		S	sg in
vaguga	####				
mehe	mees	0		S	sg g
nii	nii	0		D	
sama	sama	0		P	sg g
    	sama	0		P	sg n
    	sama	0		P	sg p
vaguga	####				
koos	koos	0		D	
    	koos	0		K	
    	koos	0		S	sg n
    	kubu	s		S	sg in
obose	####				
jälle	jälle	0		D	
sündsid	####				
ühe	üks	0		N	sg g
   	üks	0		P	sg g
   	ühe	0		S	sg n
no	no	0		I	
tähe	täht	0		S	sg g
kõik	kõik	0		P	pl n
    	kõik	0		S	sg n
    	kõik	0		P	sg n
tunnistavad	tunnista	vad		V	vad
           	tunnista=v	d		A	pl n
et	et	0		J	
Johann	Johann	0		H	sg n
Vestberg	####				
see	see	0		P	sg n
kuid	kuu	id		S	pl p
    	kuid	0		J	
kuuse	kuune	0		A	sg g
     	kuusk	0		S	sg g
ära	ära	0		D	
   	ära	0		V	neg o
tooja	too=ja	0		S	sg g
     	too=ja	0		S	sg n
on	ole	0		V	b
  	ole	0		V	vad
olnud	ol=nud	0		A	
     	ol=nud	0		A	sg n
     	ol=nud	d		A	pl n
     	ole	nud		V	nud
     	olnu	d		S	pl n
.	.			Z	
_	_			Z	
otsus	otsus	0		S	sg n
kohus	kohu	s		V	s
     	kohus	0		S	sg n
mõistis	mõist	is		V	s
tunnistuse	tunnistus	0		S	sg g
perrä	####				
et	et	0		J	
Johann	Johann	0		H	sg n
Vestberg	####				
nimelt	nimelt	0		D	
      	nimi	lt		S	sg abl
see	see	0		P	sg n
kurja	kuri	0		A	adt
     	kuri	0		A	sg g
     	kuri	0		S	adt
     	kuri	0		S	sg g
     	kuri	0		A	sg p
     	kuri	0		S	sg p
tegija	tegija	0		S	sg g
      	tegija	0		S	sg n
on	ole	0		V	b
  	ole	0		V	vad
olnud	ol=nud	0		A	
     	ol=nud	0		A	sg n
     	ol=nud	d		A	pl n
     	ole	nud		V	nud
     	olnu	d		S	pl n
siis	siis	0		D	
    	siis	0		J	
maksab	maks	b		V	b
tema	tema	0		P	sg g
    	tema	0		P	sg n
Karraske	####				
mõisa	mõis	0		S	sg g
valitsuse	valitsus	0		S	sg g
heaks	hea	ks		A	sg tr
     	hea	ks		S	sg tr
     	heaks	0		D	
     	heaks	0		K	
/	/			Z	
145	145	0		N	?
/	/			Z	
üks	üks	0		N	sg n
   	üks	0		P	sg n
rubla	rubla	0		S	sg g
     	rubla	0		S	sg n
     	rubla	0		S	sg p
45	45	0		N	?
kop	kop	0		Y	?
ja	ja	0		J	
valla	vald	0		S	sg g
     	valla	0		D	
vaeste	vaene	te		A	pl g
      	vaene	te		S	pl g
laadi	laad	0		S	adt
     	laad	0		S	sg g
     	laadi	0		D	
     	laadi	0		V	o
     	laad	0		S	sg p
/	/			Z	
1	1	0		N	?
/	/			Z	
üks	üks	0		N	sg n
   	üks	0		P	sg n
rubla	rubla	0		S	sg g
     	rubla	0		S	sg n
     	rubla	0		S	sg p
trahvi	trahv	0		S	adt
      	trahv	0		S	sg g
      	trahvi	0		V	o
      	trahv	0		S	sg p
mis	mis	0		P	pl n
   	mis	0		P	sg n
8	8	0		N	?
päeva	päev	0		S	adt
     	päev	0		S	sg g
     	päev	0		S	sg p
aja	aeg	0		S	sg g
   	aja	0		V	o
sees	sees	0		D	
    	sees	0		K	
peab	pida	b		V	b
makstud	maks	tud		V	tud
       	maks=tu	d		S	pl n
       	maks=tud	0		A	
       	maks=tud	0		A	sg n
       	maks=tud	d		A	pl n
olema	ole	ma		V	ma
.	.			Z	
_	_			Z	
sai	saa	i		V	s
   	sai	0		S	sg n
kohtu	kohtu	0		V	o
     	kohus	0		S	sg g
mõistmine	mõistmine	0		S	sg n
ja	ja	0		J	
§§	§§	0		Y	?
772 773	772773	0		N	?
ja	ja	0		J	
774	774	0		N	?
kohtus	kohtu	s		V	s
      	kohus	s		S	sg in
kaale	kaal	e		S	pl p
ette	ette	0		D	
    	ette	0		K	
    	esi	tte		S	adt
loetud	loetu	d		S	pl n
      	loetud	0		A	
      	loetud	0		A	sg n
      	loetud	d		A	pl n
      	luge	tud		V	tud
ning	ning	0		J	
läksid	mine	sid		V	sid
rahus	rahu	s		S	sg in
välja	välja	0		D	
     	välja	0		V	o
     	väli	0		S	adt
     	väli	0		S	sg g
     	väli	0		S	sg p
.	.			Z	
_	_			Z	
peakohtumees	pea_kohtu_mees	0		S	sg n
Jaan	Jaan	0		H	sg n
    	jaan	0		S	sg n
    	jaan	0		Y	?
tulnud	tul=nud	0		A	
      	tul=nud	0		A	sg n
      	tul=nud	d		A	pl n
      	tule	nud		V	nud
      	tulnu	d		S	pl n
XXX	XXX	0		O	?
   	XXX	0		Y	?
kohtumees	kohtu_mees	0		S	sg n
Jaan	Jaan	0		H	sg n
    	jaan	0		S	sg n
    	jaan	0		Y	?
Lepason	####				
XXX	XXX	0		O	?
   	XXX	0		Y	?
teine	teine	0		O	sg n
     	teine	0		P	sg n
do	####				
Samuel	Samuel	0		H	sg n
Raig	raig	0		S	sg n
XXX	XXX	0		O	?
   	XXX	0		Y	?
