Räpina	Räpina	0		H	sg g
      	räpp	na		S	sg es
      	Räpina	0		H	sg n
mõisa	mõis	0		S	sg g
valitsuse	valitsus	0		S	sg g
poolest	pool	st		N	sg el
       	pool	st		S	sg el
       	poolene	t		A	sg p
       	poolest	0		K	
kaebati	####				
kohtu	kohtu	0		V	o
     	kohus	0		S	sg g
ees	ees	0		D	
   	ees	0		K	
   	esi	s		S	sg in
et	et	0		J	
Võõpsu	####				
metsas	mets	s		S	sg in
on	ole	0		V	b
  	ole	0		V	vad
Jaan	Jaan	0		H	sg n
    	jaan	0		S	sg n
    	jaan	0		Y	?
Madisson	####				
5	5	0		N	?
kõivu	kõiv	0		S	adt
     	kõiv	0		S	sg g
     	kõiv	0		S	sg p
ära	ära	0		D	
   	ära	0		V	neg o
kornud	####				
korjad	korja	d		V	d
on	ole	0		V	b
  	ole	0		V	vad
olnud	ol=nud	0		A	
     	ol=nud	0		A	sg n
     	ol=nud	d		A	pl n
     	ole	nud		V	nud
     	olnu	d		S	pl n
1	1	0		N	?
Jaan	Jaan	0		H	sg n
    	jaan	0		S	sg n
    	jaan	0		Y	?
Madisson	####				
2	2	0		N	?
Hendrik	Hendrik	0		H	sg n
Madisson	####				
3	3	0		N	?
Musta	must	0		A	adt
     	must	0		A	sg g
     	must	0		S	adt
     	must	0		S	sg g
     	musta	0		V	o
     	must	0		A	sg p
     	must	0		S	sg p
Mikkita	####				
poeg	poeg	0		S	sg n
Miska	####				
4	4	0		N	?
Kisa	kisa	0		S	sg g
    	kisa	0		V	o
    	kisa	0		S	sg n
    	kisa	0		S	sg p
Tepani	####				
poeg	poeg	0		S	sg n
Vanka	vanka	0		S	sg g
     	vanka	0		S	sg n
5	5	0		N	?
Kuse	kusi	0		S	sg g
    	kuse	0		V	o
poeg	poeg	0		S	sg n
juukku	####				
kohus	kohu	s		V	s
     	kohus	0		S	sg n
mõistis	mõist	is		V	s
et	et	0		J	
iga	iga	0		P	sg g
   	iga	0		P	sg n
   	iga	0		P	sg p
   	iga	0		S	sg n
   	iga	0		S	sg p
üks	üks	0		N	sg n
   	üks	0		P	sg n
pois	poi	s		S	sg in
peab	pida	b		V	b
20	20	0		N	?
kop	kop	0		Y	?
maksma	maks	ma		V	ma
mõisa	mõis	0		S	sg g
valitsuse	valitsus	0		S	sg g
nõudmise	nõudmine	0		S	sg g
perrä	####				
.	.			Z	
