Jaan	Jaan	0		H	sg n
    	jaan	0		S	sg n
    	jaan	0		Y	?
Lepmann	####				
tuli	tuli	0		S	sg n
    	tule	i		V	s
kohtu	kohtu	0		V	o
     	kohus	0		S	sg g
ette	ette	0		D	
    	ette	0		K	
    	esi	tte		S	adt
ja	ja	0		J	
kaebas	kaeba	s		V	s
,	,			Z	
et	et	0		J	
tema	tema	0		P	sg g
    	tema	0		P	sg n
on	ole	0		V	b
  	ole	0		V	vad
esiti	esiti	0		D	
kevajäl	####				
Andres	Andre	s		H	sg in
      	Andres	0		H	sg n
Loritsemann	####				
man	man	0		D	
   	man	0		K	
sulaseks	sulane	ks		S	sg tr
olnud	ol=nud	0		A	
     	ol=nud	0		A	sg n
     	ol=nud	d		A	pl n
     	ole	nud		V	nud
     	olnu	d		S	pl n
1	1	0		N	?
kuu	kuu	0		S	sg g
   	kuu	0		S	sg n
aegu	aeg	u		S	pl p
    	aegu	0		K	
    	aegu	0		V	o
.	.			Z	
peale	pea	le		S	sg all
     	peale	0		D	
     	peale	0		K	
seda	see	da		P	sg p
on	ole	0		V	b
  	ole	0		V	vad
Vilip	####				
Narusk	####				
teda	tema	da		P	sg p
endale	ise	le		P	sg all
palganud	palka	nud		V	nud
        	palga=nu	d		S	pl n
        	palga=nud	0		A	
        	palga=nud	0		A	sg n
        	palga=nud	d		A	pl n
sulaseks	sulane	ks		S	sg tr
11	11	0		N	?
kuu	kuu	0		S	sg g
   	kuu	0		S	sg n
aasta	aasta	0		S	sg g
     	aasta	0		S	sg n
peale	pea	le		S	sg all
     	peale	0		D	
     	peale	0		K	
ees	ees	0		D	
   	ees	0		K	
   	esi	s		S	sg in
tuleva	tulev	0		A	sg g
Jüri	Jüri	0		H	sg g
    	Jüri	0		H	sg n
päevani	päev	ni		S	sg ter
.	.			Z	
ja	ja	0		J	
kui	kui	0		D	
   	kui	0		J	
ju	ju	0		D	
Jaan	Jaan	0		H	sg n
    	jaan	0		S	sg n
    	jaan	0		Y	?
Lepmann	####				
Vilipi	####				
manu	manu	0		D	
    	manu	0		K	
oli	ole	i		V	s
ära	ära	0		D	
   	ära	0		V	neg o
läinud	läinu	d		S	pl n
      	läinud	0		A	
      	läinud	0		A	sg n
      	läinud	d		A	pl n
      	mine	nud		V	nud
,	,			Z	
siis	siis	0		D	
    	siis	0		J	
on	ole	0		V	b
  	ole	0		V	vad
Andres	Andre	s		H	sg in
      	Andres	0		H	sg n
Lorits	####				
pärast	pära	st		S	sg el
      	pärane	t		A	sg p
      	pärast	0		D	
      	pärast	0		K	
keinu	####				
Jaani	Jaan	0		H	adt
     	Jaan	0		H	sg g
     	Jaani	0		H	sg g
     	jaan	0		S	adt
     	jaan	0		S	sg g
     	Jaan	0		H	sg p
     	Jaani	0		H	sg n
     	jaan	0		S	sg p
tagasi	tagasi	0		D	
      	tagasi	0		K	
kutsman	####				
,	,			Z	
aga	aga	0		J	
Vilip	####				
ei	ei	0		D	
  	ei	0		V	neg
ole	ole	0		V	o
lasknud	lask	nud		V	nud
       	lask=nu	d		S	pl n
       	lask=nud	0		A	
       	lask=nud	0		A	sg n
       	lask=nud	d		A	pl n
sulast	sula	st		A	sg el
      	sula	st		S	sg el
      	sulane	t		S	sg p
endi	ise	0		P	pl g
mant	mant	0		D	
    	mant	0		K	
    	mant	0		S	sg n
ära	ära	0		D	
   	ära	0		V	neg o
ja	ja	0		J	
Andres	Andre	s		H	sg in
      	Andres	0		H	sg n
on	ole	0		V	b
  	ole	0		V	vad
tühjalt	tühi	lt		A	sg abl
       	tühjalt	0		D	
ära	ära	0		D	
   	ära	0		V	neg o
läinud	läinu	d		S	pl n
      	läinud	0		A	
      	läinud	0		A	sg n
      	läinud	d		A	pl n
      	mine	nud		V	nud
ning	ning	0		J	
Jaan	Jaan	0		H	sg n
    	jaan	0		S	sg n
    	jaan	0		Y	?
Vilipi	####				
manu	manu	0		D	
    	manu	0		K	
sulaseks	sulane	ks		S	sg tr
jäänud	jää	nud		V	nud
      	jäänu	d		S	pl n
      	jäänud	0		A	
      	jäänud	0		A	sg n
      	jäänud	d		A	pl n
.	.			Z	
Aga	aga	0		J	
kui	kui	0		D	
   	kui	0		J	
ju	ju	0		D	
töö	töö	0		S	sg g
   	töö	0		S	sg n
aeg	aeg	0		S	sg n
mööda	mööda	0		A	
     	mööda	0		D	
     	mööda	0		K	
hakkas	hakka	s		V	s
sama	sama	0		P	sg g
    	sama	0		P	sg n
    	sama	0		P	sg p
ütles	ütle	s		V	s
Jaan	Jaan	0		H	sg n
    	jaan	0		S	sg n
    	jaan	0		Y	?
siis	siis	0		D	
    	siis	0		J	
on	ole	0		V	b
  	ole	0		V	vad
Vilip	####				
teda	tema	da		P	sg p
ära	ära	0		D	
   	ära	0		V	neg o
ajanud	aja	nud		V	nud
      	aja=nu	d		S	pl n
      	aja=nud	0		A	
      	aja=nud	0		A	sg n
      	aja=nud	d		A	pl n
.	.			Z	
et	et	0		J	
nüüd	nüüd	0		D	
sulast	sula	st		A	sg el
      	sula	st		S	sg el
      	sulane	t		S	sg p
kohegi	kohe	0	gi	A	sg n
      	kohe	0	gi	D	
tarvis	tarvis	0		D	
      	tarvis	0		K	
ei	ei	0		D	
  	ei	0		V	neg
ole	ole	0		V	o
enam	enam	0		C	sg n
    	enam	0		D	
ja	ja	0		J	
Jaanile	Jaan	le		H	sg all
       	Jaani	le		H	sg all
       	jaan	le		S	sg all
kohegi	kohe	0	gi	A	sg n
      	kohe	0	gi	D	
mindi	mine	di		V	ti
ei	ei	0		D	
  	ei	0		V	neg
ole	ole	0		V	o
mis	mis	0		P	pl n
   	mis	0		P	sg n
Vilip	####				
ka	ka	0		D	
ise	ise	0		A	
   	ise	0		D	
   	ise	0		P	pl n
   	ise	0		P	sg n
salata	salga	ta		V	da
      	sala	ta		S	sg ab
      	salga	ta		V	ta
ei	ei	0		D	
  	ei	0		V	neg
või	või	0		S	sg g
   	või	0		V	o
   	või	0		D	
   	või	0		J	
   	või	0		S	sg n
muud	muu	d		P	pl n
    	muu	d		S	pl n
    	muu	d		V	d
    	muu	d		P	sg p
    	muu	d		S	sg p
kui	kui	0		D	
   	kui	0		J	
ütles	ütle	s		V	s
et	et	0		J	
Jaan	Jaan	0		H	sg n
    	jaan	0		S	sg n
    	jaan	0		Y	?
ei	ei	0		D	
  	ei	0		V	neg
ole	ole	0		V	o
jõudnud	jõud	nud		V	nud
       	jõud=nu	d		S	pl n
       	jõud=nud	0		A	
       	jõud=nud	0		A	sg n
       	jõud=nud	d		A	pl n
tööd	töö	d		S	pl n
    	töö	d		S	sg p
teha	tege	a		V	da
et	et	0		J	
see	see	0		P	sg n
pärast	pära	st		S	sg el
      	pärane	t		A	sg p
      	pärast	0		D	
      	pärast	0		K	
suvel	suvi	l		S	sg ad
ära	ära	0		D	
   	ära	0		V	neg o
lasknud	lask	nud		V	nud
       	lask=nu	d		S	pl n
       	lask=nud	0		A	
       	lask=nud	0		A	sg n
       	lask=nud	d		A	pl n
vallale	vald	le		S	sg all
.	.			Z	
et	et	0		J	
Jaan	Jaan	0		H	sg n
    	jaan	0		S	sg n
    	jaan	0		Y	?
Vilipi	####				
pärast	pära	st		S	sg el
      	pärane	t		A	sg p
      	pärast	0		D	
      	pärast	0		K	
ilma	ilm	0		S	adt
    	ilm	0		S	sg g
    	ilma	0		D	
    	ilma	0		K	
    	ilm	0		S	sg p
aasta	aasta	0		S	sg g
     	aasta	0		S	sg n
teenistuse	teenistus	0		S	sg g
leiva	leib	0		S	sg g
ja	ja	0		J	
palgata	palk	ta		S	sg ab
       	palka	ta		V	da
       	palka	ta		V	ta
on	ole	0		V	b
  	ole	0		V	vad
jäänud	jää	nud		V	nud
      	jäänu	d		S	pl n
      	jäänud	0		A	
      	jäänud	0		A	sg n
      	jäänud	d		A	pl n
.	.			Z	
Andres	Andre	s		H	sg in
      	Andres	0		H	sg n
Lorits	####				
ütles	ütle	s		V	s
sulase	sulane	0		S	sg g
mineku	minek	0		S	sg g
ning	ning	0		J	
endi	ise	0		P	pl g
käimise	käimine	0		S	sg g
niidu	niit	0		S	sg g
õige	õige	0		A	sg g
    	õige	0		A	sg n
    	õige	0		D	
olevat	ole	vat		V	vat
      	olev	t		A	sg p
      	olev	t		S	sg p
.	.			Z	
kohus	kohu	s		V	s
     	kohus	0		S	sg n
mõistis	mõist	is		V	s
,	,			Z	
et	et	0		J	
Vilip	####				
lepitud	leppi	tud		V	tud
       	lepi=tu	d		S	pl n
       	lepi=tud	0		A	
       	lepi=tud	0		A	sg n
       	lepi=tud	d		A	pl n
aastaja	####				
palga	palk	0		S	sg g
Jaanile	Jaan	le		H	sg all
       	Jaani	le		H	sg all
       	jaan	le		S	sg all
peab	pida	b		V	b
ära	ära	0		D	
   	ära	0		V	neg o
maksma	maks	ma		V	ma
5	5	0		N	?
rubla	rubla	0		S	sg g
     	rubla	0		S	sg n
     	rubla	0		S	sg p
hõbe	hõbe	0		S	sg n
ja	ja	0		J	
ka	ka	0		D	
veel	veel	0		D	
    	vesi	l		S	sg ad
pearaha	pea_raha	0		S	sg g
       	pea_raha	0		S	sg n
       	pea_raha	0		S	sg p
ning	ning	0		J	
moonaks	moon	ks		S	sg tr
andma	and	ma		V	ma
1	1	0		N	?
vakk	vakk	0		S	sg n
rukkid	rukis	d		S	pl n
1	1	0		N	?
vakk	vakk	0		S	sg n
kesvi	kesv	i		S	pl p
3	3	0		N	?
vakka	vakk	0		S	adt
     	vakk	0		S	sg p
     	vakka	0		D	
kartulid	kartul	d		S	pl n
ja	ja	0		J	
ehk	ehk	0		D	
   	ehk	0		J	
kui	kui	0		D	
   	kui	0		J	
Vilip	####				
Narusk	####				
tahab	taht	b		V	b
võtku	võt	ku		V	gu
sulane	sulane	0		S	sg n
      	sulane	0		V	o
tagasi	tagasi	0		D	
      	tagasi	0		K	
lepitud	leppi	tud		V	tud
       	lepi=tu	d		S	pl n
       	lepi=tud	0		A	
       	lepi=tud	0		A	sg n
       	lepi=tud	d		A	pl n
viisi	viis	0		S	adt
     	viis	0		S	sg g
     	viis	i		N	pl p
     	viisi	0		K	
     	viis	0		S	sg p
perrä	####				
,	,			Z	
pea	pea	0		D	
   	pea	0		S	sg g
   	pida	0		V	o
   	pea	0		S	sg n
kohtu	kohtu	0		V	o
     	kohus	0		S	sg g
mees	mees	0		S	sg n
    	mesi	s		S	sg in
Paap	####				
Kiudorv	kiud_orv	0		S	sg n
kohtu	kohtu	0		V	o
     	kohus	0		S	sg g
mees	mees	0		S	sg n
    	mesi	s		S	sg in
Kristjan	Kristjan	0		H	sg n
Võsoberg	####				
kohtu	kohtu	0		V	o
     	kohus	0		S	sg g
mees	mees	0		S	sg n
    	mesi	s		S	sg in
Jaan	Jaan	0		H	sg n
    	jaan	0		S	sg n
    	jaan	0		Y	?
Holsting	####				
kohtu	kohtu	0		V	o
     	kohus	0		S	sg g
mees	mees	0		S	sg n
    	mesi	s		S	sg in
Jakob	Jakob	0		H	sg n
Türkson	####				
kohtu	kohtu	0		V	o
     	kohus	0		S	sg g
mees	mees	0		S	sg n
    	mesi	s		S	sg in
Paap	####				
Kress	kress	0		S	sg n
