ette	ette	0		D	
    	ette	0		K	
    	esi	tte		S	adt
tuli	tuli	0		S	sg n
    	tule	i		V	s
soldat	soldat	0		S	sg n
Jaan	Jaan	0		H	sg n
    	jaan	0		S	sg n
    	jaan	0		Y	?
Põder	põder	0		S	sg n
ja	ja	0		J	
kaebas	kaeba	s		V	s
Peeter	Peeter	0		H	sg n
Parand	####				
vastu	vastu	0		D	
     	vastu	0		K	
,	,			Z	
et	et	0		J	
Parand	####				
olevad	olev	d		A	pl n
      	olev	d		S	pl n
tema	tema	0		P	sg g
    	tema	0		P	sg n
kroonud	kroonu	d		S	pl n
poolt	pool	t		N	sg p
     	pool	t		S	sg p
     	poolt	0		D	
     	poolt	0		K	
antud	an=tu	d		S	pl n
     	and	tud		V	tud
     	antud	0		A	
     	antud	0		A	sg n
     	antud	d		A	pl n
ma	mina	0		P	sg n
tema	tema	0		P	sg g
    	tema	0		P	sg n
käest	käest	0		K	
     	käsi	st		S	sg el
ära	ära	0		D	
   	ära	0		V	neg o
võtnud	võt	nud		V	nud
      	võt=nu	d		S	pl n
      	võt=nud	0		A	
      	võt=nud	0		A	sg n
      	võt=nud	d		A	pl n
ja	ja	0		J	
teisele	teine	le		O	sg all
       	teine	le		P	sg all
andnud	and	nud		V	nud
      	and=nu	d		S	pl n
      	and=nud	0		A	
      	and=nud	0		A	sg n
      	and=nud	d		A	pl n
.	.			Z	
otsus	otsus	0		S	sg n
:	:			Z	
kogukonna	kogukond	0		S	sg g
kohus	kohu	s		V	s
     	kohus	0		S	sg n
ei	ei	0		D	
  	ei	0		V	neg
võtta	võt	a		V	da
seda	see	da		P	sg p
kaebust	kaebus	t		S	sg p
vastu	vastu	0		D	
     	vastu	0		K	
,	,			Z	
tema	tema	0		P	sg g
    	tema	0		P	sg n
võib	või	b		V	b
Reirulemise	####				
kohtus	kohtu	s		V	s
      	kohus	s		S	sg in
kaebata	####				
.	.			Z	
peakohtumees	pea_kohtu_mees	0		S	sg n
Jaan	Jaan	0		H	sg n
    	jaan	0		S	sg n
    	jaan	0		Y	?
Luik	luik	0		S	sg n
kohtumees	kohtu_mees	0		S	sg n
Peeter	Peeter	0		H	sg n
talumees	talu_mees	0		S	sg n
Johan	Johan	0		H	sg n
Punnak	####				
Jaan	Jaan	0		H	sg n
    	jaan	0		S	sg n
    	jaan	0		Y	?
Hengo	####				
