sel	see	l		P	sg ad
   	sel	0		Y	?
samal	sama	l		P	sg ad
päeval	päev	l		S	sg ad
.	.			Z	
ette	ette	0		D	
    	ette	0		K	
    	esi	tte		S	adt
tuli	tuli	0		S	sg n
    	tule	i		V	s
Karl	Karl	0		H	sg n
Narruskov	####				
,	,			Z	
ja	ja	0		J	
tegij	####				
oma	oma	0		A	sg g
   	oma	0		D	
   	oma	0		P	sg g
   	oma	0		S	sg g
   	oma	0		V	o
   	oma	0		A	sg n
   	oma	0		A	sg p
   	oma	0		P	sg n
   	oma	0		P	sg p
   	oma	0		S	sg n
   	oma	0		S	sg p
poja	poeg	0		S	sg g
    	poja	0		S	sg g
    	poja	0		S	sg n
    	poja	0		S	sg p
Viidole	####				
omast	oma	st		A	sg el
     	oma	st		P	sg el
     	oma	st		S	sg el
     	omane	t		A	sg p
varandusest	varandus	st		S	sg el
jagu	jagu	0		S	sg n
    	jagu	0		V	o
    	jagu	0		S	sg p
.	.			Z	
1	1	0		N	?
hobune	hobune	0		S	sg n
5	5	0		N	?
lehma	lehm	0		S	adt
     	lehm	0		S	sg g
     	lehm	0		S	sg p
4	4	0		N	?
lammast	lammas	t		S	sg p
4	4	0		N	?
Tikka	tikk	0		S	adt
     	tikk	0		S	sg p
2	2	0		N	?
adra	ader	0		S	sg g
,	,			Z	
ühe	üks	0		N	sg g
   	üks	0		P	sg g
   	ühe	0		S	sg n
raud	raud	0		S	sg n
sõitud	####				
ja	ja	0		J	
ühe	üks	0		N	sg g
   	üks	0		P	sg g
   	ühe	0		S	sg n
vanguri	####				
3	3	0		N	?
paha	pahk	0		S	sg g
    	paha	0		A	sg g
    	paha	0		A	sg n
    	paha	0		A	sg p
    	paha	0		S	sg g
    	paha	0		S	sg n
    	paha	0		S	sg p
2	2	0		N	?
vikatit	vikat	t		S	sg p
5	5	0		N	?
sirpu	####				
2	2	0		N	?
söögi	söö	0	gi	V	o
     	söök	0		S	sg g
lauda	laud	0		S	adt
     	laut	0		S	sg g
     	laud	0		S	sg p
3	3	0		N	?
suurt	suur	t		A	sg p
tõrtut	####				
1	1	0		N	?
vilja	vili	0		S	adt
     	vili	0		S	sg g
     	vili	0		S	sg p
vakk	vakk	0		S	sg n
1	1	0		N	?
mööti	####				
1	1	0		N	?
kap	####				
ja	ja	0		J	
20	20	0		N	?
vilja	vili	0		S	adt
     	vili	0		S	sg g
     	vili	0		S	sg p
kotti	kott	0		S	adt
     	kotti	0		D	
     	kott	i		S	pl p
     	kott	0		S	sg p
ning	ning	0		J	
tema	tema	0		P	sg g
    	tema	0		P	sg n
ise	ise	0		A	
   	ise	0		D	
   	ise	0		P	pl n
   	ise	0		P	sg n
jääb	jää	b		V	b
Viido	####				
hoole	hoog	le		S	sg all
     	hool	0		S	sg g
     	hoole	0		S	sg n
alla	alla	0		D	
    	alla	0		K	
oma	oma	0		A	sg g
   	oma	0		D	
   	oma	0		P	sg g
   	oma	0		S	sg g
   	oma	0		V	o
   	oma	0		A	sg n
   	oma	0		A	sg p
   	oma	0		P	sg n
   	oma	0		P	sg p
   	oma	0		S	sg n
   	oma	0		S	sg p
naisega	naine	ga		S	sg kom
nii	nii	0		D	
kaua	kaua	0		D	
kui	kui	0		D	
   	kui	0		J	
tema	tema	0		P	sg g
    	tema	0		P	sg n
elab	ela	b		V	b
.	.			Z	
peakohtumees	pea_kohtu_mees	0		S	sg n
:	:			Z	
K	K	0		Y	?
.	.			Z	
_	_			Z	
Rämmann	####				
XXX	XXX	0		O	?
   	XXX	0		Y	?
abi	abi	0		S	sg g
   	abi	0		S	sg n
   	abi	0		S	sg p
K	K	0		Y	?
.	.			Z	
_	_			Z	
Hanson	####				
XXX	XXX	0		O	?
   	XXX	0		Y	?
abi	abi	0		S	sg g
   	abi	0		S	sg n
   	abi	0		S	sg p
F. Runhanson	####				
XXX	XXX	0		O	?
   	XXX	0		Y	?
Karl	Karl	0		H	sg n
Narruskov	####				
XXX	XXX	0		O	?
   	XXX	0		Y	?
