Jusal	####				
sel	see	l		P	sg ad
   	sel	0		Y	?
3tal	####				
Novemb	####				
1867.	1867.	0		O	?
oli	ole	i		V	s
kogukonna	kogukond	0		S	sg g
kohus	kohu	s		V	s
     	kohus	0		S	sg n
koos	koos	0		D	
    	koos	0		K	
    	koos	0		S	sg n
    	kubu	s		S	sg in
,	,			Z	
nimelt	nimelt	0		D	
      	nimi	lt		S	sg abl
:	:			Z	
peakohtumees	pea_kohtu_mees	0		S	sg n
Mihkli	Mihkel	0		H	sg g
      	Mihkli	0		H	sg g
      	mihkel	0		A	sg g
      	mihkel	0		S	sg g
      	Mihkli	0		H	sg n
Raig	raig	0		S	sg n
kohtumees	kohtu_mees	0		S	sg n
Juhan	Juhan	0		H	sg n
Mandli	mandel	0		S	sg g
hooned	hoone	d		S	pl n
kohtumees	kohtu_mees	0		S	sg n
Karl	Karl	0		H	sg n
Gründal	####				
Jaani	Jaan	0		H	adt
     	Jaan	0		H	sg g
     	Jaani	0		H	sg g
     	jaan	0		S	adt
     	jaan	0		S	sg g
     	Jaan	0		H	sg p
     	Jaani	0		H	sg n
     	jaan	0		S	sg p
valla	vald	0		S	sg g
     	valla	0		D	
metsa	mets	0		S	adt
     	mets	0		S	sg g
     	mets	0		S	sg p
vaht	vaht	0		S	sg n
J	J	0		Y	?
.	.			Z	
_	_			Z	
randa	rand	0		S	adt
     	rand	0		S	sg p
tuli	tuli	0		S	sg n
    	tule	i		V	s
ette	ette	0		D	
    	ette	0		K	
    	esi	tte		S	adt
kaebas	kaeba	s		V	s
Karaski	kara	s	ki	S	sg in
       	karask	0		S	sg g
mees	mees	0		S	sg n
    	mesi	s		S	sg in
Kusta	Kusta	0		H	sg g
     	Kusta	0		H	sg n
     	kuse	ta		V	da
     	kuse	ta		V	ta
heal	hea	l		A	sg ad
    	hea	l		S	sg ad
on	ole	0		V	b
  	ole	0		V	vad
Jani	Jan	0		H	adt
    	Jan	0		H	sg g
    	Jan	0		H	sg p
´	’			Z	
mõisa	mõis	0		S	sg g
metsast	mets	st		S	sg el
       	metsane	t		A	sg p
,	,			Z	
kohdo	####				
mees	mees	0		S	sg n
    	mesi	s		S	sg in
Juhan	Juhan	0		H	sg n
Mandli	mandel	0		S	sg g
üle	üle	0		D	
   	üle	0		K	
kaemiste	kae=mine	te		S	pl g
perra	####				
üks	üks	0		N	sg n
   	üks	0		P	sg n
isa	isa	0		S	sg g
   	isa	0		S	sg n
   	isa	0		S	sg p
usta	usku	ta		V	ta
puid	puu	id		S	pl p
sauna	saun	0		S	adt
     	saun	0		S	sg g
     	saun	0		S	sg p
kütta	küt	a		V	da
varastanu	varasta=nu	0		S	sg g
         	varasta=nu	0		S	sg n
,	,			Z	
Gusta	####				
seal	seal	0		D	
    	siga	l		A	sg ad
    	siga	l		S	sg ad
ei	ei	0		D	
  	ei	0		V	neg
või	või	0		S	sg g
   	või	0		V	o
   	või	0		D	
   	või	0		J	
   	või	0		S	sg n
ka	ka	0		D	
seda	see	da		P	sg p
salata	salga	ta		V	da
      	sala	ta		S	sg ab
      	salga	ta		V	ta
,	,			Z	
sest	see	st		P	sg el
    	sest	0		J	
et	et	0		J	
õkva	õkva	0		D	
jälge	jälg	0		S	adt
     	jälg	0		S	sg p
pidi	pida	i		V	s
    	pidi	0		K	
metsa	mets	0		S	adt
     	mets	0		S	sg g
     	mets	0		S	sg p
vaht	vaht	0		S	sg n
perra	####				
oli	ole	i		V	s
tulnud	tul=nud	0		A	
      	tul=nud	0		A	sg n
      	tul=nud	d		A	pl n
      	tule	nud		V	nud
      	tulnu	d		S	pl n
.	.			Z	
Karraski	kard	s	ki	S	sg in
kogukonna	kogukond	0		S	sg g
kohus	kohu	s		V	s
     	kohus	0		S	sg n
mõist	####				
:	:			Z	
Kusta	Kusta	0		H	sg g
     	Kusta	0		H	sg n
     	kuse	ta		V	da
     	kuse	ta		V	ta
seal	seal	0		D	
    	siga	l		A	sg ad
    	siga	l		S	sg ad
peab	pida	b		V	b
,	,			Z	
30	30	0		N	?
kop	kop	0		Y	?
puie	####				
eest	eest	0		D	
    	eest	0		K	
    	esi	st		S	sg el
,	,			Z	
70	70	0		N	?
vargose	####				
trahvi	trahv	0		S	adt
      	trahv	0		S	sg g
      	trahvi	0		V	o
      	trahv	0		S	sg p
,	,			Z	
üle	üle	0		D	
   	üle	0		K	
kõige	kõik	0		P	sg g
     	kõige	0		D	
üks	üks	0		N	sg n
   	üks	0		P	sg n
rubla	rubla	0		S	sg g
     	rubla	0		S	sg n
     	rubla	0		S	sg p
,	,			Z	
kätte	kätte	0		K	
     	käsi	tte		S	adt
nädalaga	nädal	ga		S	sg kom
ara	arg	0		A	sg g
maksma	maks	ma		V	ma
