kaebas	kaeba	s		V	s
see	see	0		P	sg n
mõisa	mõis	0		S	sg g
härra	härra	0		S	sg g
     	härra	0		S	sg n
et	et	0		J	
tema	tema	0		P	sg g
    	tema	0		P	sg n
on	ole	0		V	b
  	ole	0		V	vad
pool	pool	0		K	
    	pool	0		N	sg n
    	pool	0		S	sg n
armo	####				
pärast	pära	st		S	sg el
      	pärane	t		A	sg p
      	pärast	0		D	
      	pärast	0		K	
Kusta	Kusta	0		H	sg g
     	Kusta	0		H	sg n
     	kuse	ta		V	da
     	kuse	ta		V	ta
Musta	must	0		A	adt
     	must	0		A	sg g
     	must	0		S	adt
     	must	0		S	sg g
     	musta	0		V	o
     	must	0		A	sg p
     	must	0		S	sg p
enda	ise	0		P	sg g
manu	manu	0		D	
    	manu	0		K	
pidanud	pida	nud		V	nud
       	pida=nu	d		S	pl n
       	pida=nud	0		A	
       	pida=nud	0		A	sg n
       	pida=nud	d		A	pl n
et	et	0		J	
tema	tema	0		P	sg g
    	tema	0		P	sg n
üks	üks	0		N	sg n
   	üks	0		P	sg n
vaene	vaen	e		S	pl p
     	vaene	0		A	sg n
     	vaene	0		S	sg n
Laits	####				
on	ole	0		V	b
  	ole	0		V	vad
ja	ja	0		J	
ka	ka	0		D	
veel	veel	0		D	
    	vesi	l		S	sg ad
vähemat	vähem	t		C	sg p
sõsarit	####				
ja	ja	0		J	
Veli	veli	0		S	sg n
on	ole	0		V	b
  	ole	0		V	vad
,	,			Z	
ent	ent	0		J	
nüüd	nüüd	0		D	
ei	ei	0		D	
  	ei	0		V	neg
taha	taht	0		V	o
    	taha	0		D	
    	taha	0		K	
tema	tema	0		P	sg g
    	tema	0		P	sg n
enam	enam	0		C	sg n
    	enam	0		D	
härra	härra	0		S	sg g
     	härra	0		S	sg n
senna	senna	0		S	sg g
     	senna	0		S	sg n
kuulda	kuul	da		V	da
      	kuul	da		V	ta
ja	ja	0		J	
ei	ei	0		D	
  	ei	0		V	neg
ole	ole	0		V	o
mitte	mitte	0		D	
tööse	####				
läinud	läinu	d		S	pl n
      	läinud	0		A	
      	läinud	0		A	sg n
      	läinud	d		A	pl n
      	mine	nud		V	nud
.	.			Z	
ette	ette	0		D	
    	ette	0		K	
    	esi	tte		S	adt
tuli	tuli	0		S	sg n
    	tule	i		V	s
Kusta	Kusta	0		H	sg g
     	Kusta	0		H	sg n
     	kuse	ta		V	da
     	kuse	ta		V	ta
Musta	must	0		A	adt
     	must	0		A	sg g
     	must	0		S	adt
     	must	0		S	sg g
     	musta	0		V	o
     	must	0		A	sg p
     	must	0		S	sg p
ja	ja	0		J	
ütles	ütle	s		V	s
et	et	0		J	
tema	tema	0		P	sg g
    	tema	0		P	sg n
selle	see	0		P	sg g
     	sell	e		S	pl p
ei	ei	0		D	
  	ei	0		V	neg
ole	ole	0		V	o
tööse	####				
läinud	läinu	d		S	pl n
      	läinud	0		A	
      	läinud	0		A	sg n
      	läinud	d		A	pl n
      	mine	nud		V	nud
et	et	0		J	
härra	härra	0		S	sg g
     	härra	0		S	sg n
ei	ei	0		D	
  	ei	0		V	neg
ole	ole	0		V	o
mitte	mitte	0		D	
tema	tema	0		P	sg g
    	tema	0		P	sg n
päevade	päev	de		S	pl g
ära	ära	0		D	
   	ära	0		V	neg o
seletanud	seleta	nud		V	nud
         	seleta=nu	d		S	pl n
         	seleta=nud	0		A	
         	seleta=nud	0		A	sg n
         	seleta=nud	d		A	pl n
.	.			Z	
kohus	kohu	s		V	s
     	kohus	0		S	sg n
mõist	####				
et	et	0		J	
Kusta	Kusta	0		H	sg g
     	Kusta	0		H	sg n
     	kuse	ta		V	da
     	kuse	ta		V	ta
Musta	must	0		A	adt
     	must	0		A	sg g
     	must	0		S	adt
     	must	0		S	sg g
     	musta	0		V	o
     	must	0		A	sg p
     	must	0		S	sg p
mitte	mitte	0		D	
härra	härra	0		S	sg g
     	härra	0		S	sg n
sõna	sõna	0		S	sg g
    	sõna	0		V	o
    	sõna	0		S	sg n
    	sõna	0		S	sg p
ei	ei	0		D	
  	ei	0		V	neg
ole	ole	0		V	o
kulenud	####				
kes	kes	0		P	pl n
   	kes	0		P	sg n
temale	tema	le		P	sg all
on	ole	0		V	b
  	ole	0		V	vad
armu	arm	0		S	adt
    	arm	0		S	sg g
    	armu	0		V	o
    	arm	0		S	sg p
näidanud	näita	nud		V	nud
        	näida=nu	d		S	pl n
        	näida=nud	0		A	
        	näida=nud	0		A	sg n
        	näida=nud	d		A	pl n
maksanb	####				
1	1	0		N	?
rbl	rbl	0		Y	?
trahvi	trahv	0		S	adt
      	trahv	0		S	sg g
      	trahvi	0		V	o
      	trahv	0		S	sg p
.	.			Z	
Kristjan	Kristjan	0		H	sg n
Rämman	####				
Kusta	Kusta	0		H	sg g
     	Kusta	0		H	sg n
     	kuse	ta		V	da
     	kuse	ta		V	ta
Hanson	####				
Frits	frits	0		S	sg n
Runhanson	####				
