N 159	N159	0		Y	?
,	,			Z	
25	25	0		N	?
Julil	####				
19	19	0		N	?
Augustil	august	l		S	sg ad
        	August	l		H	sg ad
peale	pea	le		S	sg all
     	peale	0		D	
     	peale	0		K	
ette	ette	0		D	
    	ette	0		K	
    	esi	tte		S	adt
lugemise	lugemine	0		S	sg g
Mina	mina	0		P	sg n
    	mina	0		S	sg g
    	mina	0		S	sg n
    	mina	0		S	sg p
Heisson	####				
16	16	0		N	?
aastaiga	aas_tai	ga		S	sg kom
        	aas_taig	0		S	adt
        	aas_taig	0		S	sg p
        	aas_taiga	0		S	sg g
        	aas_taiga	0		S	sg n
vana	vana	0		A	sg g
    	vana	0		A	sg n
    	vana	0		A	sg p
    	vana	0		S	sg g
    	vana	0		S	sg n
    	vana	0		S	sg p
tunnistas	tunnista	s		V	s
näinud	näi	nud		V	nud
      	näge	nud		V	nud
      	näi=nud	0		A	
      	näi=nud	0		A	sg n
      	näi=nud	d		A	pl n
      	näinu	d		S	pl n
,	,			Z	
kui	kui	0		D	
   	kui	0		J	
esiti	esiti	0		D	
on	ole	0		V	b
  	ole	0		V	vad
Mihkli	Mihkel	0		H	sg g
      	Mihkli	0		H	sg g
      	mihkel	0		A	sg g
      	mihkel	0		S	sg g
      	Mihkli	0		H	sg n
härg	härg	0		S	sg n
rukis	rukis	0		S	sg n
läinud	läinu	d		S	pl n
      	läinud	0		A	
      	läinud	0		A	sg n
      	läinud	d		A	pl n
      	mine	nud		V	nud
,	,			Z	
ja	ja	0		J	
pärast	pära	st		S	sg el
      	pärane	t		A	sg p
      	pärast	0		D	
      	pärast	0		K	
on	ole	0		V	b
  	ole	0		V	vad
1	1	0		N	?
lehm	lehm	0		S	sg n
kinga	king	0		S	adt
     	king	0		S	sg g
     	king	0		S	sg p
läinud	läinu	d		S	pl n
      	läinud	0		A	
      	läinud	0		A	sg n
      	läinud	d		A	pl n
      	mine	nud		V	nud
Adam	####				
häidsoni	####				
rüki	rükki	0		V	o
ja	ja	0		J	
võras	võra	s		S	sg in
     	võra	s		V	s
karjus	karju	s		V	s
      	karjus	0		S	sg n
on	ole	0		V	b
  	ole	0		V	vad
Mihkli	Mihkel	0		H	sg g
      	Mihkli	0		H	sg g
      	mihkel	0		A	sg g
      	mihkel	0		S	sg g
      	Mihkli	0		H	sg n
Sead	sead	d		V	d
    	siga	d		A	pl n
    	siga	d		S	pl n
Adami	####				
röast	####				
välja	välja	0		D	
     	välja	0		V	o
     	väli	0		S	adt
     	väli	0		S	sg g
     	väli	0		S	sg p
aianud	####				
.	.			Z	
Jakob	Jakob	0		H	sg n
Tilkson	####				
tunnistas	tunnista	s		V	s
,	,			Z	
et	et	0		J	
tema	tema	0		P	sg g
    	tema	0		P	sg n
on	ole	0		V	b
  	ole	0		V	vad
näinud	näi	nud		V	nud
      	näge	nud		V	nud
      	näi=nud	0		A	
      	näi=nud	0		A	sg n
      	näi=nud	d		A	pl n
      	näinu	d		S	pl n
kui	kui	0		D	
   	kui	0		J	
Tane	####				
Hendrik	Hendrik	0		H	sg n
Peedoki	pee_dokk	0		S	sg g
elajad	elajas	d		S	pl n
7	7	0		N	?
elajad	elajas	d		S	pl n
oleva	olev	0		A	sg g
     	olev	0		S	sg g
Adam	####				
häidsoni	####				
röän	####				
olnud	ol=nud	0		A	
     	ol=nud	0		A	sg n
     	ol=nud	d		A	pl n
     	ole	nud		V	nud
     	olnu	d		S	pl n
,	,			Z	
Hendrik	Hendrik	0		H	sg n
Peedoki	pee_dokk	0		S	sg g
karjus	karju	s		V	s
      	karjus	0		S	sg n
Mina	mina	0		P	sg n
    	mina	0		S	sg g
    	mina	0		S	sg n
    	mina	0		S	sg p
häidson	####				
on	ole	0		V	b
  	ole	0		V	vad
välja	välja	0		D	
     	välja	0		V	o
     	väli	0		S	adt
     	väli	0		S	sg g
     	väli	0		S	sg p
aianud	####				
.	.			Z	
tunnistuse	tunnistus	0		S	sg g
pärast	pära	st		S	sg el
      	pärane	t		A	sg p
      	pärast	0		D	
      	pärast	0		K	
jääs	jää	s		S	sg in
poolele	pool	le		N	sg all
       	pool	le		S	sg all
