Kahkval	####				
sel	see	l		P	sg ad
   	sel	0		Y	?
15	15	0		N	?
april	####				
1868.	1868.	0		O	?
kaebas	kaeba	s		V	s
metsasaks	metsa_saks	0		S	sg n
J	J	0		Y	?
.	.			Z	
_	_			Z	
Rooosnek	####				
,	,			Z	
et	et	0		J	
Peeter	Peeter	0		H	sg n
Sepp	sepp	0		S	sg n
ja	ja	0		J	
Andre	Andre	0		H	sg g
     	Andre	0		H	sg n
Himmis	####				
on	ole	0		V	b
  	ole	0		V	vad
3	3	0		N	?
pedajat	pedajas	t		S	sg p
metsast	mets	st		S	sg el
       	metsane	t		A	sg p
raiunud	raiu	nud		V	nud
       	raiu=nu	d		S	pl n
       	raiu=nud	0		A	
       	raiu=nud	0		A	sg n
       	raiu=nud	d		A	pl n
kaks	kaks	0		N	sg n
pedajat	pedajas	t		S	sg p
on	ole	0		V	b
  	ole	0		V	vad
kannust	kann	st		S	sg el
       	kannus	t		S	sg p
10	10	0		N	?
tuli	tuli	0		S	sg n
    	tule	i		V	s
ja	ja	0		J	
üks	üks	0		N	sg n
   	üks	0		P	sg n
12ned	####				
tuli	tuli	0		S	sg n
    	tule	i		V	s
jäme	jäme	0		A	sg n
olnud	ol=nud	0		A	
     	ol=nud	0		A	sg n
     	ol=nud	d		A	pl n
     	ole	nud		V	nud
     	olnu	d		S	pl n
ja	ja	0		J	
Järvepa	####				
küla	küla	0		S	sg g
    	küla	0		S	sg n
    	küla	0		S	sg p
ära	ära	0		D	
   	ära	0		V	neg o
viinud	vii	nud		V	nud
      	vii=nu	d		S	pl n
      	vii=nud	0		A	
      	vii=nud	0		A	sg n
      	vii=nud	d		A	pl n
ja	ja	0		J	
ära	ära	0		D	
   	ära	0		V	neg o
müünud	müü	nud		V	nud
      	müü=nu	d		S	pl n
      	müü=nud	0		A	
      	müü=nud	0		A	sg n
      	müü=nud	d		A	pl n
.	.			Z	
ette	ette	0		D	
    	ette	0		K	
    	esi	tte		S	adt
tuleva	tulev	0		A	sg g
nimetatud	nimeta	tud		V	tud
         	nimetatu	d		S	pl n
         	nimetatud	0		A	
         	nimetatud	0		A	sg n
         	nimetatud	d		A	pl n
poisid	poi	sid		S	pl p
      	poiss	d		S	pl n
ja	ja	0		J	
õige	õige	0		A	sg g
    	õige	0		A	sg n
    	õige	0		D	
küll	küll	0		D	
    	küll	0		S	sg n
olevat	ole	vat		V	vat
      	olev	t		A	sg p
      	olev	t		S	sg p
,	,			Z	
et	et	0		J	
nemad	tema	d		P	pl n
on	ole	0		V	b
  	ole	0		V	vad
viinud	vii	nud		V	nud
      	vii=nu	d		S	pl n
      	vii=nud	0		A	
      	vii=nud	0		A	sg n
      	vii=nud	d		A	pl n
venelaste	venelane	te		S	pl g
petmise	petmine	0		S	sg g
peale	pea	le		S	sg all
     	peale	0		D	
     	peale	0		K	
ilma	ilm	0		S	adt
    	ilm	0		S	sg g
    	ilma	0		D	
    	ilma	0		K	
    	ilm	0		S	sg p
vanemite	####				
teadmata	tead	mata		V	mata
        	tead=mata	0		A	
,	,			Z	
et	et	0		J	
saia	sai	0		S	adt
    	sai	0		S	sg g
    	sai	0		S	sg p
raha	raha	0		S	sg g
    	raha	0		S	sg n
    	raha	0		S	sg p
saaks	saa	ks		V	ks
.	.			Z	
kohus	kohu	s		V	s
     	kohus	0		S	sg n
mõist	####				
,	,			Z	
et	et	0		J	
poisid	poi	sid		S	pl p
      	poiss	d		S	pl n
peavad	pida	vad		V	vad
kumbgi	####				
üks	üks	0		N	sg n
   	üks	0		P	sg n
rubla	rubla	0		S	sg g
     	rubla	0		S	sg n
     	rubla	0		S	sg p
trhvi	####				
maksma	maks	ma		V	ma
,	,			Z	
et	et	0		J	
oma	oma	0		A	sg g
   	oma	0		D	
   	oma	0		P	sg g
   	oma	0		S	sg g
   	oma	0		V	o
   	oma	0		A	sg n
   	oma	0		A	sg p
   	oma	0		P	sg n
   	oma	0		P	sg p
   	oma	0		S	sg n
   	oma	0		S	sg p
loaga	luba	ga		S	sg kom
     	luga	ga		S	sg kom
metsast	mets	st		S	sg el
       	metsane	t		A	sg p
tutisevat	####				
raiuda	raiu	da		V	da
ja	ja	0		J	
venemale	vene_male	0		S	sg g
        	vene_male	0		S	sg n
müja	####				
viia	vii	a		V	da
.	.			Z	
Jaan	Jaan	0		H	sg n
    	jaan	0		S	sg n
    	jaan	0		Y	?
Rämman	####				
Peeter	Peeter	0		H	sg n
Urgand	urg_and	0		S	sg n
Jakob	Jakob	0		H	sg n
Parmson	####				
