ette	ette	0		D	
    	ette	0		K	
    	esi	tte		S	adt
tuli	tuli	0		S	sg n
    	tule	i		V	s
Mihkel	Mihkel	0		H	sg n
      	mihkel	0		A	sg n
      	mihkel	0		S	sg n
Kerstes	####				
ja	ja	0		J	
kaebas	kaeba	s		V	s
Jüri	Jüri	0		H	sg g
    	Jüri	0		H	sg n
vokk	vokk	0		S	sg n
peale	pea	le		S	sg all
     	peale	0		D	
     	peale	0		K	
kelle	kes	0		P	pl g
     	kes	0		P	sg g
käest	käest	0		K	
     	käsi	st		S	sg el
temal	tema	l		P	sg ad
1	1	0		N	?
rbl	rbl	0		Y	?
14	14	0		N	?
kop	kop	0		Y	?
maksa	maks	0		S	adt
     	maks	0		S	sg g
     	maks	0		V	o
     	maks	0		S	sg p
on	ole	0		V	b
  	ole	0		V	vad
Juri	Juri	0		H	sg g
    	Juri	0		H	sg n
vokk	vokk	0		S	sg n
on	ole	0		V	b
  	ole	0		V	vad
Sõerest	####				
mõisas	mõis	s		S	sg in
sulasen	####				
olnud	ol=nud	0		A	
     	ol=nud	0		A	sg n
     	ol=nud	d		A	pl n
     	ole	nud		V	nud
     	olnu	d		S	pl n
siis	siis	0		D	
    	siis	0		J	
oli	ole	i		V	s
võtnud	võt	nud		V	nud
      	võt=nu	d		S	pl n
      	võt=nud	0		A	
      	võt=nud	0		A	sg n
      	võt=nud	d		A	pl n
pärast	pära	st		S	sg el
      	pärane	t		A	sg p
      	pärast	0		D	
      	pärast	0		K	
kui	kui	0		D	
   	kui	0		J	
tema	tema	0		P	sg g
    	tema	0		P	sg n
sealt	sealt	0		D	
     	siga	lt		A	sg abl
     	siga	lt		S	sg abl
äära	####				
tulnud	tul=nud	0		A	
      	tul=nud	0		A	sg n
      	tul=nud	d		A	pl n
      	tule	nud		V	nud
      	tulnu	d		S	pl n
ning	ning	0		J	
tahtnud	taht	nud		V	nud
       	taht=nu	d		S	pl n
       	taht=nud	0		A	
       	taht=nud	0		A	sg n
       	taht=nud	d		A	pl n
teda	tema	da		P	sg p
panti	pant	0		S	adt
     	pant	0		S	sg p
ent	ent	0		J	
Juri	Juri	0		H	sg g
    	Juri	0		H	sg n
vokk	vokk	0		S	sg n
on	ole	0		V	b
  	ole	0		V	vad
nakanud	nakka	nud		V	nud
       	naka=nu	d		S	pl n
       	naka=nud	0		A	
       	naka=nud	0		A	sg n
       	naka=nud	d		A	pl n
paluma	palu	ma		V	ma
ja	ja	0		J	
loanud	####				
äära	####				
maksa	maks	0		S	adt
     	maks	0		S	sg g
     	maks	0		V	o
     	maks	0		S	sg p
ning	ning	0		J	
nõud	nõu	d		S	pl n
seda	see	da		P	sg p
nüüd	nüüd	0		D	
kätte	kätte	0		K	
     	käsi	tte		S	adt
saata	saat	a		V	da
.	.			Z	
sai	saa	i		V	s
   	sai	0		S	sg n
Juri	Juri	0		H	sg g
    	Juri	0		H	sg n
vokk	vokk	0		S	sg n
sen	sen	0		Y	?
kaebuse	kaebus	0		S	sg g
kusitud	####				
ütles	ütle	s		V	s
mina	mina	0		P	sg n
    	mina	0		S	sg g
    	mina	0		S	sg n
    	mina	0		S	sg p
tema	tema	0		P	sg g
    	tema	0		P	sg n
käest	käest	0		K	
     	käsi	st		S	sg el
ole	ole	0		V	o
võtnud	võt	nud		V	nud
      	võt=nu	d		S	pl n
      	võt=nud	0		A	
      	võt=nud	0		A	sg n
      	võt=nud	d		A	pl n
seda	see	da		P	sg p
oleks	ole	ks		V	ks
mina	mina	0		P	sg n
    	mina	0		S	sg g
    	mina	0		S	sg n
    	mina	0		S	sg p
kõik	kõik	0		P	pl n
    	kõik	0		S	sg n
    	kõik	0		P	sg n
ka	ka	0		D	
äära	####				
maksnud	maks	nud		V	nud
       	maks=nu	d		S	pl n
       	maks=nud	0		A	
       	maks=nud	0		A	sg n
       	maks=nud	d		A	pl n
.	.			Z	
Mihkel	Mihkel	0		H	sg n
      	mihkel	0		A	sg n
      	mihkel	0		S	sg n
Kärsten	####				
and	and	0		S	sg n
tunnistajaks	tunnistaja	ks		S	sg tr
Jaan	Jaan	0		H	sg n
    	jaan	0		S	sg n
    	jaan	0		Y	?
leisse	####				
ja	ja	0		J	
Aam	aam	0		S	sg n
Teier	####				
.	.			Z	
otsus	otsus	0		S	sg n
toiseks	####				
korras	kord	s		S	sg in
      	korras	0		A	
ette	ette	0		D	
    	ette	0		K	
    	esi	tte		S	adt
talita	tali	ta		S	sg ab
      	talita	0		V	o
.	.			Z	
