Karraske	####				
kogukonna	kogukond	0		S	sg g
kohus	kohu	s		V	s
     	kohus	0		S	sg n
Jusal	####				
sel	see	l		P	sg ad
   	sel	0		Y	?
5	5	0		N	?
septembril	september	l		S	sg ad
1875	1875	0		N	?
mann	mann	0		S	sg n
olid	ole	id		V	sid
peakohtumees	pea_kohtu_mees	0		S	sg n
Jaan	Jaan	0		H	sg n
    	jaan	0		S	sg n
    	jaan	0		Y	?
tulus	tulu	s		S	sg in
     	tulus	0		A	sg n
do	####				
do	####				
kohtumees	kohtu_mees	0		S	sg n
Jakob	Jakob	0		H	sg n
Uibo	Uibo	0		H	sg g
    	Uibo	0		H	sg n
do	####				
do	####				
teine	teine	0		O	sg n
     	teine	0		P	sg n
do	####				
Mihkel	Mihkel	0		H	sg n
      	mihkel	0		A	sg n
      	mihkel	0		S	sg n
Võsu	Võsu	0		H	sg g
    	võsu	0		G	
    	võsu	0		S	sg g
    	võsu	0		V	o
    	Võsu	0		H	sg n
    	võsu	0		S	sg n
    	võsu	0		S	sg p
tuli	tuli	0		S	sg n
    	tule	i		V	s
ette	ette	0		D	
    	ette	0		K	
    	esi	tte		S	adt
Pragi	####				
vallast	vald	st		S	sg el
Jaan	Jaan	0		H	sg n
    	jaan	0		S	sg n
    	jaan	0		Y	?
Pragi	####				
ja	ja	0		J	
kaebas	kaeba	s		V	s
oma	oma	0		A	sg g
   	oma	0		D	
   	oma	0		P	sg g
   	oma	0		S	sg g
   	oma	0		V	o
   	oma	0		A	sg n
   	oma	0		A	sg p
   	oma	0		P	sg n
   	oma	0		P	sg p
   	oma	0		S	sg n
   	oma	0		S	sg p
siin	siin	0		D	
    	siin	0		S	sg n
oleva	olev	0		A	sg g
     	olev	0		S	sg g
Via	Via			H	?
Hendrik	Hendrik	0		H	sg n
talu	talu	0		S	sg g
    	talu	0		V	o
    	talu	0		S	sg n
    	talu	0		S	sg p
rentnik	rentnik	0		S	sg n
Jaan	Jaan	0		H	sg n
    	jaan	0		S	sg n
    	jaan	0		Y	?
Mark	Mark	0		H	sg n
    	mark	0		S	sg n
peale	pea	le		S	sg all
     	peale	0		D	
     	peale	0		K	
,	,			Z	
et	et	0		J	
üks	üks	0		N	sg n
   	üks	0		P	sg n
tükk	tükk	0		S	sg n
selle	see	0		P	sg g
     	sell	e		S	pl p
talu	talu	0		S	sg g
    	talu	0		V	o
    	talu	0		S	sg n
    	talu	0		S	sg p
maast	maa	st		S	sg el
kelle	kes	0		P	pl g
     	kes	0		P	sg g
üle	üle	0		D	
   	üle	0		K	
kontrahi	kontraht	0		S	sg g
ei	ei	0		D	
  	ei	0		V	neg
ole	ole	0		V	o
,	,			Z	
ennegi	ennegi	0		D	
meil	meil	0		S	sg n
    	mina	l		P	pl ad
suusõnaga	suu_sõna	ga		S	sg kom
oli	ole	i		V	s
kaup	kaup	0		S	sg n
tehtu	tehtu	0		S	sg g
     	tehtud	0		A	sg g
     	tehtu	0		S	sg n
oli	ole	i		V	s
,	,			Z	
ei	ei	0		D	
  	ei	0		V	neg
ole	ole	0		V	o
Jaan	Jaan	0		H	sg n
    	jaan	0		S	sg n
    	jaan	0		Y	?
Mark	Mark	0		H	sg n
    	mark	0		S	sg n
mitte	mitte	0		D	
nõnda	nõnda	0		D	
pidanud	pida	nud		V	nud
       	pida=nu	d		S	pl n
       	pida=nud	0		A	
       	pida=nud	0		A	sg n
       	pida=nud	d		A	pl n
kuidas	kuidas	0		D	
tema	tema	0		P	sg g
    	tema	0		P	sg n
kätte	kätte	0		K	
     	käsi	tte		S	adt
on	ole	0		V	b
  	ole	0		V	vad
saanud	saa	nud		V	nud
      	saa=nud	0		A	
      	saa=nud	0		A	sg n
      	saa=nud	d		A	pl n
      	saanu	d		S	pl n
,	,			Z	
nõnda	nõnda	0		D	
pidi	pida	i		V	s
    	pidi	0		K	
tema	tema	0		P	sg g
    	tema	0		P	sg n
ka	ka	0		D	
ega	ega	0		D	
   	ega	0		J	
aasta	aasta	0		S	sg g
     	aasta	0		S	sg n
pedama	####				
.	.			Z	
_	_			Z	
1malt	####				
ei	ei	0		D	
  	ei	0		V	neg
ole	ole	0		V	o
tema	tema	0		P	sg g
    	tema	0		P	sg n
mitte	mitte	0		D	
kaks	kaks	0		N	sg n
vakamaad	vaka_maa	d		S	pl n
        	vaka_maa	d		S	sg p
rüga	rüga	0		V	o
teinud	tege	nud		V	nud
      	tei=nud	0		A	
      	tei=nud	0		A	sg n
      	tei=nud	d		A	pl n
      	teinu	d		S	pl n
nõnda	nõnda	0		D	
kui	kui	0		D	
   	kui	0		J	
vastu	vastu	0		D	
     	vastu	0		K	
on	ole	0		V	b
  	ole	0		V	vad
võtnud	võt	nud		V	nud
      	võt=nu	d		S	pl n
      	võt=nud	0		A	
      	võt=nud	0		A	sg n
      	võt=nud	d		A	pl n
.	.			Z	
_	_			Z	
teiselt	teine	lt		O	sg abl
       	teine	lt		P	sg abl
ole	ole	0		V	o
mina	mina	0		P	sg n
    	mina	0		S	sg g
    	mina	0		S	sg n
    	mina	0		S	sg p
temale	tema	le		P	sg all
Jakobi	Jakob	0		H	sg g
päeval	päev	l		S	sg ad
tema	tema	0		P	sg g
    	tema	0		P	sg n
majas	maja	s		S	sg in
vallavanema	valla_vanem	0		S	sg g
ees	ees	0		D	
   	ees	0		K	
   	esi	s		S	sg in
üles	üles	0		D	
andnud	and	nud		V	nud
      	and=nu	d		S	pl n
      	and=nud	0		A	
      	and=nud	0		A	sg n
      	and=nud	d		A	pl n
tolle	toll	e		S	pl p
     	too	0		P	sg g
pärast	pära	st		S	sg el
      	pärane	t		A	sg p
      	pärast	0		D	
      	pärast	0		K	
et	et	0		J	
ei	ei	0		D	
  	ei	0		V	neg
ole	ole	0		V	o
lepingu	leping	0		S	sg g
perra	####				
maad	maa	d		S	pl n
    	maa	d		S	sg p
pidanud	pida	nud		V	nud
       	pida=nu	d		S	pl n
       	pida=nud	0		A	
       	pida=nud	0		A	sg n
       	pida=nud	d		A	pl n
,	,			Z	
nüüd	nüüd	0		D	
palu	pala	u		S	pl p
    	palu	0		S	sg g
    	palu	0		V	o
    	palu	0		S	sg n
    	palu	0		S	sg p
mina	mina	0		P	sg n
    	mina	0		S	sg g
    	mina	0		S	sg n
    	mina	0		S	sg p
kohut	kohus	t		S	sg p
et	et	0		J	
tolle	toll	e		S	pl p
     	too	0		P	sg g
asja	asi	0		S	adt
    	asi	0		S	sg g
    	asi	0		S	sg p
üle	üle	0		D	
   	üle	0		K	
kuleldud	####				
ja	ja	0		J	
tem	####				
(	(			Z	
m	m	0		Y	?
)	)			Z	
a	a	0		Y	?
kätte	kätte	0		K	
     	käsi	tte		S	adt
mina	mina	0		P	sg n
    	mina	0		S	sg g
    	mina	0		S	sg n
    	mina	0		S	sg p
enam	enam	0		C	sg n
    	enam	0		D	
toot	####				
lisnat	####				
maad	maa	d		S	pl n
    	maa	d		S	sg p
ei	ei	0		D	
  	ei	0		V	neg
jätta	jät	a		V	da
kelle	kes	0		P	pl g
     	kes	0		P	sg g
üle	üle	0		D	
   	üle	0		K	
meil	meil	0		S	sg n
    	mina	l		P	pl ad
kontrahi	kontraht	0		S	sg g
ei	ei	0		D	
  	ei	0		V	neg
ole	ole	0		V	o
.	.			Z	
_	_			Z	
kutsuti	kutsu	ti		V	ti
ette	ette	0		D	
    	ette	0		K	
    	esi	tte		S	adt
Jaan	Jaan	0		H	sg n
    	jaan	0		S	sg n
    	jaan	0		Y	?
Mark	Mark	0		H	sg n
    	mark	0		S	sg n
ja	ja	0		J	
sai	saa	i		V	s
   	sai	0		S	sg n
tema	tema	0		P	sg g
    	tema	0		P	sg n
pärison	####				
(	(			Z	
m	m	0		Y	?
)	)			Z	
ange	####				
Jaan	Jaan	0		H	sg n
    	jaan	0		S	sg n
    	jaan	0		Y	?
Pragi	####				
kaebus	kaebus	0		S	sg n
ette	ette	0		D	
    	ette	0		K	
    	esi	tte		S	adt
loetud	loetu	d		S	pl n
      	loetud	0		A	
      	loetud	0		A	sg n
      	loetud	d		A	pl n
      	luge	tud		V	tud
tolle	toll	e		S	pl p
     	too	0		P	sg g
peale	pea	le		S	sg all
     	peale	0		D	
     	peale	0		K	
ütles	ütle	s		V	s
Jaan	Jaan	0		H	sg n
    	jaan	0		S	sg n
    	jaan	0		Y	?
Mark	Mark	0		H	sg n
    	mark	0		S	sg n
mina	mina	0		P	sg n
    	mina	0		S	sg g
    	mina	0		S	sg n
    	mina	0		S	sg p
ei	ei	0		D	
  	ei	0		V	neg
tunne	tund	0		V	o
     	tunne	0		S	sg n
sukkugi	####				
kes	kes	0		P	pl n
   	kes	0		P	sg n
Jaan	Jaan	0		H	sg n
    	jaan	0		S	sg n
    	jaan	0		Y	?
Pragi	####				
on	ole	0		V	b
  	ole	0		V	vad
,	,			Z	
ei	ei	0		D	
  	ei	0		V	neg
ole	ole	0		V	o
ka	ka	0		D	
temaga	tema	ga		P	sg kom
ühtegi	ühte	0	gi	D	
      	üks	0	gi	N	adt
      	üks	0	gi	P	adt
      	ühe	0	gi	S	sg g
      	üks	0	gi	N	sg p
      	üks	0	gi	P	sg p
lepingut	leping	t		S	sg p
teinud	tege	nud		V	nud
      	tei=nud	0		A	
      	tei=nud	0		A	sg n
      	tei=nud	d		A	pl n
      	teinu	d		S	pl n
tolle	toll	e		S	pl p
     	too	0		P	sg g
peal	pea	l		S	sg ad
    	peal	0		D	
    	peal	0		K	
on	ole	0		V	b
  	ole	0		V	vad
mull	mull	0		S	sg n
maearu	####				
kõrtsimees	kõrtsi_mees	0		S	sg n
Peeter	Peeter	0		H	sg n
uldder	####				
tunnistaja	tunnistaja	0		S	sg g
          	tunnistaja	0		S	sg n
et	et	0		J	
olles	ole	es		V	des
Jaan	Jaan	0		H	sg n
    	jaan	0		S	sg n
    	jaan	0		Y	?
neimanga	####				
kaup	kaup	0		S	sg n
teinud	tege	nud		V	nud
      	tei=nud	0		A	
      	tei=nud	0		A	sg n
      	tei=nud	d		A	pl n
      	teinu	d		S	pl n
ja	ja	0		J	
tahan	taht	n		V	n
ka	ka	0		D	
et	et	0		J	
Jaan	Jaan	0		H	sg n
    	jaan	0		S	sg n
    	jaan	0		Y	?
neimann	####				
tuleb	tule	b		V	b
ja	ja	0		J	
minu	mina	0		P	sg g
peale	pea	le		S	sg all
     	peale	0		D	
     	peale	0		K	
kaebust	kaebus	t		S	sg p
testab	####				
.	.			Z	
_	_			Z	
asi	asi	0		S	sg n
   	asi	0		V	o
jäi	jää	i		V	s
teise	teine	0		O	adt
     	teine	0		O	sg g
     	teine	0		P	adt
     	teine	0		P	sg g
kohtu	kohtu	0		V	o
     	kohus	0		S	sg g
päeva	päev	0		S	adt
     	päev	0		S	sg g
     	päev	0		S	sg p
peale	pea	le		S	sg all
     	peale	0		D	
     	peale	0		K	
kuni	kuni	0		J	
    	kuni	0		K	
J	J	0		Y	?
.	.			Z	
_	_			Z	
neimann	####				
saab	saa	b		V	b
kohtu	kohtu	0		V	o
     	kohus	0		S	sg g
ette	ette	0		D	
    	ette	0		K	
    	esi	tte		S	adt
talitused	talitus	d		S	pl n
.	.			Z	
_	_			Z	
(	(			Z	
Alla	alla	0		D	
    	alla	0		K	
    	Alla	0		H	sg g
    	Alla	0		H	sg n
kiri	kiri	0		S	sg n
nagu	nagu	0		D	
    	nagu	0		J	
üleval	ülev	l		A	sg ad
      	üleval	0		D	
)	)			Z	
