Peeter	Peeter	0		H	sg n
Rauba	####				
võtab	võt	b		V	b
Jüri	Jüri	0		H	sg g
    	Jüri	0		H	sg n
paevast	####				
1869	1869	0		N	?
aasta	aasta	0		S	sg g
     	aasta	0		S	sg n
peal	pea	l		S	sg ad
    	peal	0		D	
    	peal	0		K	
Tartu	Tartu	0		H	adt
     	Tartu	0		H	sg g
     	Tartu	0		H	sg n
     	tartu	0		G	
posti	post	0		S	adt
     	post	0		S	sg g
     	post	0		S	sg p
mehe	mees	0		S	sg g
amet	amet	0		S	sg n
,	,			Z	
tema	tema	0		P	sg g
    	tema	0		P	sg n
peab	pida	b		V	b
iga	iga	0		P	sg g
   	iga	0		P	sg n
   	iga	0		P	sg p
   	iga	0		S	sg n
   	iga	0		S	sg p
nädal	nädal	0		S	sg n
üks	üks	0		N	sg n
   	üks	0		P	sg n
kord	kord	0		D	
    	kord	0		S	sg n
tellitud	telli	tud		V	tud
        	telli=tu	d		S	pl n
        	telli=tud	0		A	
        	telli=tud	0		A	sg n
        	telli=tud	d		A	pl n
ajal	aeg	l		S	sg ad
    	ajal	0		K	
hobusega	hobune	ga		S	sg kom
Räpina	Räpina	0		H	sg g
      	räpp	na		S	sg es
      	Räpina	0		H	sg n
mõisa	mõis	0		S	sg g
tulla	tule	a		V	da
,	,			Z	
kirjad	kirja	d		V	d
      	kiri	d		S	pl n
vastu	vastu	0		D	
     	vastu	0		K	
võtta	võt	a		V	da
ning	ning	0		J	
iga	iga	0		P	sg g
   	iga	0		P	sg n
   	iga	0		P	sg p
   	iga	0		S	sg n
   	iga	0		S	sg p
mõisa	mõis	0		S	sg g
jaus	####				
20	20	0		N	?
m	m	0		Y	?
vori	####				
viia	vii	a		V	da
ning	ning	0		J	
tua	####				
.	.			Z	
(	(			Z	
muu	muu	0		P	sg g
   	muu	0		S	sg g
   	muu	0		V	o
   	muu	0		P	sg n
   	muu	0		S	sg n
inimeste	inimene	te		S	pl g
käest	käest	0		K	
     	käsi	st		S	sg el
on	ole	0		V	b
  	ole	0		V	vad
luba	luba	0		S	sg n
    	luba	0		V	o
    	luba	0		S	sg p
hinna	hind	0		S	sg g
eest	eest	0		D	
    	eest	0		K	
    	esi	st		S	sg el
vori	####				
peale	pea	le		S	sg all
     	peale	0		D	
     	peale	0		K	
võtta	võt	a		V	da
)	)			Z	
aasta	aasta	0		S	sg g
     	aasta	0		S	sg n
palk	palk	0		S	sg n
on	ole	0		V	b
  	ole	0		V	vad
80	80	0		N	?
rubla	rubla	0		S	sg g
     	rubla	0		S	sg n
     	rubla	0		S	sg p
ent	ent	0		J	
posti	post	0		S	adt
     	post	0		S	sg g
     	post	0		S	sg p
mees	mees	0		S	sg n
    	mesi	s		S	sg in
vastab	vasta	b		V	b
to	####				
eest	eest	0		D	
    	eest	0		K	
    	esi	st		S	sg el
et	et	0		J	
mitte	mitte	0		D	
raamatu	raamat	0		S	sg g
ega	ega	0		D	
   	ega	0		J	
asju	asi	u		S	pl p
ära	ära	0		D	
   	ära	0		V	neg o
ei	ei	0		D	
  	ei	0		V	neg
kaotada	kaota	da		V	da
.	.			Z	
Oppetaja	####				
mõisa	mõis	0		S	sg g
ning	ning	0		J	
Tolama	####				
mõisa	mõis	0		S	sg g
on	ole	0		V	b
  	ole	0		V	vad
vaia	vai	0		S	adt
    	vai	0		S	sg g
    	vaia	0		V	o
    	vai	0		S	sg p
iga	iga	0		P	sg g
   	iga	0		P	sg n
   	iga	0		P	sg p
   	iga	0		S	sg n
   	iga	0		S	sg p
körd	####				
sisse	siss	e		S	pl p
     	sisse	0		D	
     	sisse	0		K	
mina	mina	0		P	sg n
    	mina	0		S	sg g
    	mina	0		S	sg n
    	mina	0		S	sg p
raamatud	raamat	d		S	pl n
vastu	vastu	0		D	
     	vastu	0		K	
võtta	võt	a		V	da
ning	ning	0		J	
jälle	jälle	0		D	
kätte	kätte	0		K	
     	käsi	tte		S	adt
tua	####				
.	.			Z	
Räpina	Räpina	0		H	sg g
      	räpp	na		S	sg es
      	Räpina	0		H	sg n
kogukonnakohtus	kogukonna_kohus	s		S	sg in
sel	see	l		P	sg ad
   	sel	0		Y	?
25	25	0		N	?
Vebruaril	####				
1869.	1869.	0		O	?
Peeter	Peeter	0		H	sg n
Rauba	####				
XXX	XXX	0		O	?
   	XXX	0		Y	?
