Jakob	Jakob	0		H	sg n
Schmals	####				
maksis	maks	is		V	s
      	maksi	s		S	sg in
oma	oma	0		A	sg g
   	oma	0		D	
   	oma	0		P	sg g
   	oma	0		S	sg g
   	oma	0		V	o
   	oma	0		A	sg n
   	oma	0		A	sg p
   	oma	0		P	sg n
   	oma	0		P	sg p
   	oma	0		S	sg n
   	oma	0		S	sg p
naisele	naine	le		S	sg all
3	3	0		N	?
rub	####				
trahvi	trahv	0		S	adt
      	trahv	0		S	sg g
      	trahvi	0		V	o
      	trahv	0		S	sg p
raha	raha	0		S	sg g
    	raha	0		S	sg n
    	raha	0		S	sg p
sisse	siss	e		S	pl p
     	sisse	0		D	
     	sisse	0		K	
,	,			Z	
ja	ja	0		J	
see	see	0		P	sg n
Jaan	Jaan	0		H	sg n
    	jaan	0		S	sg n
    	jaan	0		Y	?
Takkile	####				
mõistetatud	####				
6	6	0		N	?
R 34	R34	0		Y	?
kop	kop	0		Y	?
.	.			Z	
