Peeter	Peeter	0		H	sg n
Konsa	####				
kaebas	kaeba	s		V	s
et	et	0		J	
Kristjan	Kristjan	0		H	sg n
Handeksind	####				
ja	ja	0		J	
Kristjan	Kristjan	0		H	sg n
Naglandi	####				
Sead	sead	d		V	d
    	siga	d		A	pl n
    	siga	d		S	pl n
6	6	0		N	?
tükki	tükk	0		S	adt
     	tükk	0		S	sg p
     	tükki	0		D	
on	ole	0		V	b
  	ole	0		V	vad
Peeter	Peeter	0		H	sg n
Konsa	####				
kara	kara	0		S	sg g
    	kara	0		S	sg n
    	kara	0		S	sg p
olnud	ol=nud	0		A	
     	ol=nud	0		A	sg n
     	ol=nud	d		A	pl n
     	ole	nud		V	nud
     	olnu	d		S	pl n
.	.			Z	
Kristjan	Kristjan	0		H	sg n
häskindend	####				
ja	ja	0		J	
Kristjan	Kristjan	0		H	sg n
Nagland	####				
saivad	####				
ette	ette	0		D	
    	ette	0		K	
    	esi	tte		S	adt
kutsutu	kutsutu	0		S	sg g
       	kutsutud	0		A	sg g
       	kutsutu	0		S	sg n
ja	ja	0		J	
küsitud	küsi	tud		V	tud
       	küsi=tu	d		S	pl n
       	küsi=tud	0		A	
       	küsi=tud	0		A	sg n
       	küsi=tud	d		A	pl n
ütleva	ütlev	0		A	sg g
õige	õige	0		A	sg g
    	õige	0		A	sg n
    	õige	0		D	
olevat	ole	vat		V	vat
      	olev	t		A	sg p
      	olev	t		S	sg p
.	.			Z	
kohus	kohu	s		V	s
     	kohus	0		S	sg n
mõistis	mõist	is		V	s
et	et	0		J	
iga	iga	0		P	sg g
   	iga	0		P	sg n
   	iga	0		P	sg p
   	iga	0		S	sg n
   	iga	0		S	sg p
Sea	sead	0		V	o
   	siga	0		A	sg g
   	siga	0		S	sg g
eest	eest	0		D	
    	eest	0		K	
    	esi	st		S	sg el
10	10	0		N	?
kop	kop	0		Y	?
see	see	0		P	sg n
on	ole	0		V	b
  	ole	0		V	vad
60	60	0		N	?
kop	kop	0		Y	?
söötjad	söötja	d		S	pl n
peavad	pida	vad		V	vad
trahvi	trahv	0		S	adt
      	trahv	0		S	sg g
      	trahvi	0		V	o
      	trahv	0		S	sg p
maksma	maks	ma		V	ma
Konsale	####				
9	9	0		N	?
oktoobril	oktoober	l		S	sg ad
peab	pida	b		V	b
maksu	maks	0		S	adt
     	maks	0		S	sg g
     	maks	u		S	pl p
     	maks	0		S	sg p
olema	ole	ma		V	ma
.	.			Z	
pea	pea	0		D	
   	pea	0		S	sg g
   	pida	0		V	o
   	pea	0		S	sg n
kohtumees	kohtu_mees	0		S	sg n
Rein	Rein	0		H	sg n
Pabusk	####				
kohtu	kohtu	0		V	o
     	kohus	0		S	sg g
mees	mees	0		S	sg n
    	mesi	s		S	sg in
Gustav	Gustav	0		H	sg n
Narusk	####				
kohtu	kohtu	0		V	o
     	kohus	0		S	sg g
mees	mees	0		S	sg n
    	mesi	s		S	sg in
Jaan	Jaan	0		H	sg n
    	jaan	0		S	sg n
    	jaan	0		Y	?
Klimann	####				
