ville	vill	e		S	pl p
sel	see	l		P	sg ad
   	sel	0		Y	?
7	7	0		N	?
april	####				
1876.	1876.	0		O	?
ette	ette	0		D	
    	ette	0		K	
    	esi	tte		S	adt
tuli	tuli	0		S	sg n
    	tule	i		V	s
Jaan	Jaan	0		H	sg n
    	jaan	0		S	sg n
    	jaan	0		Y	?
Thalfeldt	####				
ja	ja	0		J	
kaebas	kaeba	s		V	s
et	et	0		J	
Johan	Johan	0		H	sg n
Thalfeldt	####				
ütelnud	ütle	nud		V	nud
       	ütel=nu	d		S	pl n
       	ütel=nud	0		A	
       	ütel=nud	0		A	sg n
       	ütel=nud	d		A	pl n
sin	####				
kohtu	kohtu	0		V	o
     	kohus	0		S	sg g
ees	ees	0		D	
   	ees	0		K	
   	esi	s		S	sg in
et	et	0		J	
minul	mina	l		P	sg ad
võlas	võlg	s		S	sg in
kontrakt	####				
olevat	ole	vat		V	vat
      	olev	t		A	sg p
      	olev	t		S	sg p
ning	ning	0		J	
mina	mina	0		P	sg n
    	mina	0		S	sg g
    	mina	0		S	sg n
    	mina	0		S	sg p
mitte	mitte	0		D	
Karraski	kard	s	ki	S	sg in
maja	maja	0		S	sg g
    	maja	0		S	sg n
    	maja	0		S	sg p
pidaja	pidaja	0		S	sg g
      	pidaja	0		S	sg n
ei	ei	0		D	
  	ei	0		V	neg
olevat	ole	vat		V	vat
      	olev	t		A	sg p
      	olev	t		S	sg p
ning	ning	0		J	
palub	palu	b		V	b
seda	see	da		P	sg p
tõttes	####				
teha	tege	a		V	da
lasta	lask	ta		V	da
     	lask	ta		V	ta
mis	mis	0		P	pl n
   	mis	0		P	sg n
pärast	pära	st		S	sg el
      	pärane	t		A	sg p
      	pärast	0		D	
      	pärast	0		K	
mina	mina	0		P	sg n
    	mina	0		S	sg g
    	mina	0		S	sg n
    	mina	0		S	sg p
peremees	pere_mees	0		S	sg n
ei	ei	0		D	
  	ei	0		V	neg
ole	ole	0		V	o
?	?			Z	
Johan	Johan	0		H	sg n
Thalfeldt	####				
ütles	ütle	s		V	s
et	et	0		J	
minu	mina	0		P	sg g
veli	veli	0		S	sg n
jaan	jaan	0		S	sg n
    	jaan	0		Y	?
ei	ei	0		D	
  	ei	0		V	neg
tohi	tohti	0		V	o
kohtu	kohtu	0		V	o
     	kohus	0		S	sg g
mõistmise	mõistmine	0		S	sg g
perra	####				
mitte	mitte	0		D	
majast	maja	st		S	sg el
midagi	miski	dagi		P	sg p
müüa	müü	a		V	da
,	,			Z	
ent	ent	0		J	
nüüd	nüüd	0		D	
läks	mine	s		V	s
tema	tema	0		P	sg g
    	tema	0		P	sg n
läbi	läbi	0		D	
    	läbi	0		K	
    	läbi	0		V	o
lae	laad	0		S	sg g
   	laadi	0		V	o
   	lagi	0		S	sg g
sisse	siss	e		S	pl p
     	sisse	0		D	
     	sisse	0		K	
ning	ning	0		J	
viisi	viis	0		S	adt
     	viis	0		S	sg g
     	viis	i		N	pl p
     	viisi	0		K	
     	viis	0		S	sg p
need	see	d		P	pl n
lina	lina	0		S	sg g
    	lina	0		S	sg n
    	lina	0		S	sg p
ilma	ilm	0		S	adt
    	ilm	0		S	sg g
    	ilma	0		D	
    	ilma	0		K	
    	ilm	0		S	sg p
lubada	luba	da		V	da
ära	ära	0		D	
   	ära	0		V	neg o
ning	ning	0		J	
selle	see	0		P	sg g
     	sell	e		S	pl p
pärast	pära	st		S	sg el
      	pärane	t		A	sg p
      	pärast	0		D	
      	pärast	0		K	
ütli	####				
mina	mina	0		P	sg n
    	mina	0		S	sg g
    	mina	0		S	sg n
    	mina	0		S	sg p
et	et	0		J	
temal	tema	l		P	sg ad
võlas	võlg	s		S	sg in
kontrakt	####				
on	ole	0		V	b
  	ole	0		V	vad
.	.			Z	
Jaan	Jaan	0		H	sg n
    	jaan	0		S	sg n
    	jaan	0		Y	?
Thalfeldt	####				
ütles	ütle	s		V	s
et	et	0		J	
Juhan	Juhan	0		H	sg n
Thalfeldt	####				
oli	ole	i		V	s
võtme	võti	0		S	sg g
ära	ära	0		D	
   	ära	0		V	neg o
võtnud	võt	nud		V	nud
      	võt=nu	d		S	pl n
      	võt=nud	0		A	
      	võt=nud	0		A	sg n
      	võt=nud	d		A	pl n
ning	ning	0		J	
minul	mina	l		P	sg ad
oli	ole	i		V	s
lina	lina	0		S	sg g
    	lina	0		S	sg n
    	lina	0		S	sg p
kaup	kaup	0		S	sg n
tehtu	tehtu	0		S	sg g
     	tehtud	0		A	sg g
     	tehtu	0		S	sg n
ning	ning	0		J	
raha	raha	0		S	sg g
    	raha	0		S	sg n
    	raha	0		S	sg p
tarvis	tarvis	0		D	
      	tarvis	0		K	
sellepärast	selle_pärast	0		D	
võtti	####				
mina	mina	0		P	sg n
    	mina	0		S	sg g
    	mina	0		S	sg n
    	mina	0		S	sg p
need	see	d		P	pl n
lina	lina	0		S	sg g
    	lina	0		S	sg n
    	lina	0		S	sg p
ja	ja	0		J	
müüsin	müü	sin		V	sin
ära	ära	0		D	
   	ära	0		V	neg o
ning	ning	0		J	
küse	####				
tema	tema	0		P	sg g
    	tema	0		P	sg n
käest	käest	0		K	
     	käsi	st		S	sg el
võttind	võtt_ind	0		S	sg n
ent	ent	0		J	
Johan	Johan	0		H	sg n
ei	ei	0		D	
  	ei	0		V	neg
anna	and	0		V	o
    	anna	0		S	sg g
    	anna	0		S	sg n
.	.			Z	
Johan	Johan	0		H	sg n
Thalfeldt	####				
ütles	ütle	s		V	s
et	et	0		J	
Jaan	Jaan	0		H	sg n
    	jaan	0		S	sg n
    	jaan	0		Y	?
on	ole	0		V	b
  	ole	0		V	vad
võtnud	võt	nud		V	nud
      	võt=nu	d		S	pl n
      	võt=nud	0		A	
      	võt=nud	0		A	sg n
      	võt=nud	d		A	pl n
vanast	vana	st		A	sg el
      	vana	st		S	sg el
Levi	Lev	0		H	adt
    	Lev	0		H	sg g
    	levi	0		S	sg g
    	levi	0		V	o
    	Lev	0		H	sg p
    	levi	0		S	sg n
    	levi	0		S	sg p
valla	vald	0		S	sg g
     	valla	0		D	
laadikust	laadik	st		S	sg el
kus	kus	0		D	
minu	mina	0		P	sg g
raha	raha	0		S	sg g
    	raha	0		S	sg n
    	raha	0		S	sg p
500	500	0		N	?
rubla	rubla	0		S	sg g
     	rubla	0		S	sg n
     	rubla	0		S	sg p
sees	sees	0		D	
    	sees	0		K	
seisis	seis	is		V	s
ilma	ilm	0		S	adt
    	ilm	0		S	sg g
    	ilma	0		D	
    	ilma	0		K	
    	ilm	0		S	sg p
minu	mina	0		P	sg g
teadmata	tead	mata		V	mata
        	tead=mata	0		A	
välja	välja	0		D	
     	välja	0		V	o
     	väli	0		S	adt
     	väli	0		S	sg g
     	väli	0		S	sg p
ja	ja	0		J	
sellega	see	ga		P	sg kom
enda	ise	0		P	sg g
peale	pea	le		S	sg all
     	peale	0		D	
     	peale	0		K	
kontrahi	kontraht	0		S	sg g
teha	tege	a		V	da
lasknud	lask	nud		V	nud
       	lask=nu	d		S	pl n
       	lask=nud	0		A	
       	lask=nud	0		A	sg n
       	lask=nud	d		A	pl n
minu	mina	0		P	sg g
raha	raha	0		S	sg g
    	raha	0		S	sg n
    	raha	0		S	sg p
eest	eest	0		D	
    	eest	0		K	
    	esi	st		S	sg el
ning	ning	0		J	
on	ole	0		V	b
  	ole	0		V	vad
seda	see	da		P	sg p
näinud	näi	nud		V	nud
      	näge	nud		V	nud
      	näi=nud	0		A	
      	näi=nud	0		A	sg n
      	näi=nud	d		A	pl n
      	näinu	d		S	pl n
Peeter	Peeter	0		H	sg n
Thalfeldt	####				
.	.			Z	
Jaan	Jaan	0		H	sg n
    	jaan	0		S	sg n
    	jaan	0		Y	?
Thalfeldt	####				
ütles	ütle	s		V	s
et	et	0		J	
see	see	0		P	sg n
laadik	laadik	0		S	sg n
oli	ole	i		V	s
minu	mina	0		P	sg g
valitsuse	valitsus	0		S	sg g
al	####				
ning	ning	0		J	
mina	mina	0		P	sg n
    	mina	0		S	sg g
    	mina	0		S	sg n
    	mina	0		S	sg p
ei	ei	0		D	
  	ei	0		V	neg
tea	tead	0		V	o
tema	tema	0		P	sg g
    	tema	0		P	sg n
rahast	raha	st		S	sg el
midagi	miski	dagi		P	sg p
eg	####				
ole	ole	0		V	o
oma	oma	0		A	sg g
   	oma	0		D	
   	oma	0		P	sg g
   	oma	0		S	sg g
   	oma	0		V	o
   	oma	0		A	sg n
   	oma	0		A	sg p
   	oma	0		P	sg n
   	oma	0		P	sg p
   	oma	0		S	sg n
   	oma	0		S	sg p
rahaga	raha	ga		S	sg kom
maja	maja	0		S	sg g
    	maja	0		S	sg n
    	maja	0		S	sg p
ostnud	ost	nud		V	nud
      	ost=nu	d		S	pl n
      	ost=nud	0		A	
      	ost=nud	0		A	sg n
      	ost=nud	d		A	pl n
.	.			Z	
tunnistaja	tunnistaja	0		S	sg g
          	tunnistaja	0		S	sg n
Peeter	Peeter	0		H	sg n
Thalfeldt	####				
ütles	ütle	s		V	s
välja	välja	0		D	
     	välja	0		V	o
     	väli	0		S	adt
     	väli	0		S	sg g
     	väli	0		S	sg p
et	et	0		J	
mina	mina	0		P	sg n
    	mina	0		S	sg g
    	mina	0		S	sg n
    	mina	0		S	sg p
ole	ole	0		V	o
seda	see	da		P	sg p
näinud	näi	nud		V	nud
      	näge	nud		V	nud
      	näi=nud	0		A	
      	näi=nud	0		A	sg n
      	näi=nud	d		A	pl n
      	näinu	d		S	pl n
kui	kui	0		D	
   	kui	0		J	
Jaan	Jaan	0		H	sg n
    	jaan	0		S	sg n
    	jaan	0		Y	?
500	500	0		N	?
rubla	rubla	0		S	sg g
     	rubla	0		S	sg n
     	rubla	0		S	sg p
Juhani	Juhan	0		H	sg g
      	juha	ni		S	sg ter
raha	raha	0		S	sg g
    	raha	0		S	sg n
    	raha	0		S	sg p
laadikust	laadik	st		S	sg el
võttis	võt	is		V	s
maja	maja	0		S	sg g
    	maja	0		S	sg n
    	maja	0		S	sg p
ostmise	ostmine	0		S	sg g
tarvis	tarvis	0		D	
      	tarvis	0		K	
.	.			Z	
Jaan	Jaan	0		H	sg n
    	jaan	0		S	sg n
    	jaan	0		Y	?
Thalfeldt	####				
ütles	ütle	s		V	s
et	et	0		J	
Peeter	Peeter	0		H	sg n
on	ole	0		V	b
  	ole	0		V	vad
minu	mina	0		P	sg g
viha	viht	0		S	sg g
    	viha	0		A	sg g
    	viha	0		A	sg n
    	viha	0		A	sg p
    	viha	0		S	sg g
    	viha	0		S	sg n
    	viha	0		S	sg p
mees	mees	0		S	sg n
    	mesi	s		S	sg in
ja	ja	0		J	
käsup	####				
minu	mina	0		P	sg g
vastu	vastu	0		D	
     	vastu	0		K	
kohut	kohus	t		S	sg p
,	,			Z	
selle	see	0		P	sg g
     	sell	e		S	pl p
pärast	pära	st		S	sg el
      	pärane	t		A	sg p
      	pärast	0		D	
      	pärast	0		K	
mina	mina	0		P	sg n
    	mina	0		S	sg g
    	mina	0		S	sg n
    	mina	0		S	sg p
teda	tema	da		P	sg p
tunnistajaks	tunnistaja	ks		S	sg tr
ei	ei	0		D	
  	ei	0		V	neg
taha	taht	0		V	o
    	taha	0		D	
    	taha	0		K	
.	.			Z	
II	II	0		O	?
  	II	0		Y	?
  	jj	0		Y	?
tunnistaja	tunnistaja	0		S	sg g
          	tunnistaja	0		S	sg n
Johan	Johan	0		H	sg n
Kausaar	####				
ütles	ütle	s		V	s
välja	välja	0		D	
     	välja	0		V	o
     	väli	0		S	adt
     	väli	0		S	sg g
     	väli	0		S	sg p
et	et	0		J	
Jaan	Jaan	0		H	sg n
    	jaan	0		S	sg n
    	jaan	0		Y	?
Thalfeldt	####				
ütles	ütle	s		V	s
kui	kui	0		D	
   	kui	0		J	
Penti	Pent	0		H	adt
     	Pent	0		H	sg p
kohtu	kohtu	0		V	o
     	kohus	0		S	sg g
man	man	0		D	
   	man	0		K	
küsiti	küsi	ti		V	ti
kustest	####				
see	see	0		P	sg n
raha	raha	0		S	sg g
    	raha	0		S	sg n
    	raha	0		S	sg p
maja	maja	0		S	sg g
    	maja	0		S	sg n
    	maja	0		S	sg p
ostmise	ostmine	0		S	sg g
tarvis	tarvis	0		D	
      	tarvis	0		K	
oled	ole	d		V	d
saanud	saa	nud		V	nud
      	saa=nud	0		A	
      	saa=nud	0		A	sg n
      	saa=nud	d		A	pl n
      	saanu	d		S	pl n
siis	siis	0		D	
    	siis	0		J	
ütles	ütle	s		V	s
Jaan	Jaan	0		H	sg n
    	jaan	0		S	sg n
    	jaan	0		Y	?
Thalfeldt	####				
välja	välja	0		D	
     	välja	0		V	o
     	väli	0		S	adt
     	väli	0		S	sg g
     	väli	0		S	sg p
et	et	0		J	
see	see	0		P	sg n
oli	ole	i		V	s
maja	maja	0		S	sg g
    	maja	0		S	sg n
    	maja	0		S	sg p
raha	raha	0		S	sg g
    	raha	0		S	sg n
    	raha	0		S	sg p
.	.			Z	
mõistet	mõiste	t		S	sg p
:	:			Z	
et	et	0		J	
Jaan	Jaan	0		H	sg n
    	jaan	0		S	sg n
    	jaan	0		Y	?
Thalfeldt	####				
siis	siis	0		D	
    	siis	0		J	
kui	kui	0		D	
   	kui	0		J	
tema	tema	0		P	sg g
    	tema	0		P	sg n
seda	see	da		P	sg p
majja	maja	0		S	adt
ostse	####				
,	,			Z	
veel	veel	0		D	
    	vesi	l		S	sg ad
sen	sen	0		Y	?
majas	maja	s		S	sg in
ei	ei	0		D	
  	ei	0		V	neg
ella	####				
ning	ning	0		J	
ka	ka	0		D	
kaks	kaks	0		N	sg n
tunnistajat	tunnistaja	t		S	sg p
tunnistavad	tunnista	vad		V	vad
           	tunnista=v	d		A	pl n
et	et	0		J	
Jaan	Jaan	0		H	sg n
    	jaan	0		S	sg n
    	jaan	0		Y	?
seda	see	da		P	sg p
majja	maja	0		S	adt
oma	oma	0		A	sg g
   	oma	0		D	
   	oma	0		P	sg g
   	oma	0		S	sg g
   	oma	0		V	o
   	oma	0		A	sg n
   	oma	0		A	sg p
   	oma	0		P	sg n
   	oma	0		P	sg p
   	oma	0		S	sg n
   	oma	0		S	sg p
rahaga	raha	ga		S	sg kom
ei	ei	0		D	
  	ei	0		V	neg
ole	ole	0		V	o
ostnud	ost	nud		V	nud
      	ost=nu	d		S	pl n
      	ost=nud	0		A	
      	ost=nud	0		A	sg n
      	ost=nud	d		A	pl n
,	,			Z	
sest	see	st		P	sg el
    	sest	0		J	
et	et	0		J	
tema	tema	0		P	sg g
    	tema	0		P	sg n
lühikese	lühike	0		A	sg g
aja	aeg	0		S	sg g
   	aja	0		V	o
peremees	pere_mees	0		S	sg n
on	ole	0		V	b
  	ole	0		V	vad
olnud	ol=nud	0		A	
     	ol=nud	0		A	sg n
     	ol=nud	d		A	pl n
     	ole	nud		V	nud
     	olnu	d		S	pl n
,	,			Z	
siis	siis	0		D	
    	siis	0		J	
on	ole	0		V	b
  	ole	0		V	vad
arvata	arva	ta		V	da
      	arva	ta		V	ta
      	arvata	0		D	
et	et	0		J	
see	see	0		P	sg n
tema	tema	0		P	sg g
    	tema	0		P	sg n
raha	raha	0		S	sg g
    	raha	0		S	sg n
    	raha	0		S	sg p
ei	ei	0		D	
  	ei	0		V	neg
ole	ole	0		V	o
ega	ega	0		D	
   	ega	0		J	
maja	maja	0		S	sg g
    	maja	0		S	sg n
    	maja	0		S	sg p
raha	raha	0		S	sg g
    	raha	0		S	sg n
    	raha	0		S	sg p
,	,			Z	
ning	ning	0		J	
selle	see	0		P	sg g
     	sell	e		S	pl p
pärast	pära	st		S	sg el
      	pärane	t		A	sg p
      	pärast	0		D	
      	pärast	0		K	
Jaan	Jaan	0		H	sg n
    	jaan	0		S	sg n
    	jaan	0		Y	?
Thalfeldt	####				
kaebust	kaebus	t		S	sg p
vastu	vastu	0		D	
     	vastu	0		K	
Johan	Johan	0		H	sg n
Thalfeldt	####				
see	see	0		P	sg n
kohus	kohu	s		V	s
     	kohus	0		S	sg n
tühjaks	tühi	ks		A	sg tr
arvanud	arva	nud		V	nud
       	arva=nu	d		S	pl n
       	arva=nud	0		A	
       	arva=nud	0		A	sg n
       	arva=nud	d		A	pl n
.	.			Z	
see	see	0		P	sg n
mõistmine	mõistmine	0		S	sg n
on	ole	0		V	b
  	ole	0		V	vad
§	§	0		Y	?
773	773	0		N	?
ja	ja	0		J	
774	774	0		N	?
perra	####				
mõlemaile	mõlema	ile		P	pl all
kuulutada	kuuluta	da		V	da
ja	ja	0		J	
õppus	õppus	0		S	sg n
leht	leht	0		S	sg n
antud	an=tu	d		S	pl n
     	and	tud		V	tud
     	antud	0		A	
     	antud	0		A	sg n
     	antud	d		A	pl n
peakohtumehe	pea_kohtu_mees	0		S	sg g
abi	abi	0		S	sg g
   	abi	0		S	sg n
   	abi	0		S	sg p
Jaan	Jaan	0		H	sg n
    	jaan	0		S	sg n
    	jaan	0		Y	?
Taal	Taal	0		H	sg n
XXX	XXX	0		O	?
   	XXX	0		Y	?
abikohtumees	abi_kohtu_mees	0		S	sg n
Joh	####				
.	.			Z	
suits	suits	0		S	sg n
XXX	XXX	0		O	?
   	XXX	0		Y	?
""""	""""			Z	
Johan	Johan	0		H	sg n
Kausaar	####				
XXX	XXX	0		O	?
   	XXX	0		Y	?
kirjut	kirju	t		A	sg p
.	.			Z	
[	[			Z	
allkiri	all_kiri	0		S	sg n
]	]			Z	
Jõgeva	Jõgeva	0		H	sg g
      	Jõgeva	0		H	sg n
      	jõgeva	0		G	
N	N	0		Y	?
12.	12.	0		O	?
Johan	Johan	0		H	sg n
Thalfeldt	####				
õppus	õppus	0		S	sg n
leht	leht	0		S	sg n
välja	välja	0		D	
     	välja	0		V	o
     	väli	0		S	adt
     	väli	0		S	sg g
     	väli	0		S	sg p
saanud	saa	nud		V	nud
      	saa=nud	0		A	
      	saa=nud	0		A	sg n
      	saa=nud	d		A	pl n
      	saanu	d		S	pl n
ja	ja	0		J	
kopia	####				
sel	see	l		P	sg ad
   	sel	0		Y	?
12	12	0		N	?
april	####				
.	.			Z	
