Tänäsetsel	####				
üleval	ülev	l		A	sg ad
      	üleval	0		D	
nimetatud	nimeta	tud		V	tud
         	nimetatu	d		S	pl n
         	nimetatud	0		A	
         	nimetatud	0		A	sg n
         	nimetatud	d		A	pl n
päeval	päev	l		S	sg ad
olid	ole	id		V	sid
Kundi	####				
maja	maja	0		S	sg g
    	maja	0		S	sg n
    	maja	0		S	sg p
jalas	jalg	s		S	sg in
     	jalas	0		D	
     	jalas	0		S	sg n
perenaise	pere_naine	0		S	sg g
Daniel	Daniel	0		H	sg n
vöörmündri	vöörmünder	0		S	sg g
siia	siia	0		D	
    	siig	0		S	sg g
kog	####				
.	.			Z	
kohtu	kohtu	0		V	o
     	kohus	0		S	sg g
ette	ette	0		D	
    	ette	0		K	
    	esi	tte		S	adt
kutsutu	kutsutu	0		S	sg g
       	kutsutud	0		A	sg g
       	kutsutu	0		S	sg n
,	,			Z	
et	et	0		J	
nema	####				
siia	siia	0		D	
    	siig	0		S	sg g
kog	####				
.	.			Z	
kohtule	kohus	le		S	sg all
vastust	vastus	t		S	sg p
anas	####				
selle	see	0		P	sg g
     	sell	e		S	pl p
nimetada	nimeta	da		V	da
majapidamise	maja_pidamine	0		S	sg g
üle	üle	0		D	
   	üle	0		K	
.	.			Z	
Vöörmünder	vöörmünder	0		S	sg n
koolmeister	kool_meister	0		S	sg n
Ganeberg	####				
andis	and	is		V	s
siis	siis	0		D	
    	siis	0		J	
siin	siin	0		D	
    	siin	0		S	sg n
kog	####				
.	.			Z	
kohtu	kohtu	0		V	o
     	kohus	0		S	sg g
ees	ees	0		D	
   	ees	0		K	
   	esi	s		S	sg in
seda	see	da		P	sg p
otsust	otsus	t		S	sg p
,	,			Z	
et	et	0		J	
salas	sala	s		S	sg in
L. Daniel	####				
poeg	poeg	0		S	sg n
Gustav	Gustav	0		H	sg n
asi	asi	0		S	sg n
   	asi	0		V	o
olid	ole	id		V	sid
mees	mees	0		S	sg n
    	mesi	s		S	sg in
,	,			Z	
kes	kes	0		P	pl n
   	kes	0		P	sg n
24	24	0		N	?
aastad	aasta	d		S	pl n
vana	vana	0		A	sg g
    	vana	0		A	sg n
    	vana	0		A	sg p
    	vana	0		S	sg g
    	vana	0		S	sg n
    	vana	0		S	sg p
ja	ja	0		J	
seda	see	da		P	sg p
maja	maja	0		S	sg g
    	maja	0		S	sg n
    	maja	0		S	sg p
oma	oma	0		A	sg g
   	oma	0		D	
   	oma	0		P	sg g
   	oma	0		S	sg g
   	oma	0		V	o
   	oma	0		A	sg n
   	oma	0		A	sg p
   	oma	0		P	sg n
   	oma	0		P	sg p
   	oma	0		S	sg n
   	oma	0		S	sg p
emaga	ema	ga		S	sg kom
valitsep	####				
nii	nii	0		D	
kui	kui	0		D	
   	kui	0		J	
kord	kord	0		D	
    	kord	0		S	sg n
ja	ja	0		J	
kohus	kohu	s		V	s
     	kohus	0		S	sg n
on	ole	0		V	b
  	ole	0		V	vad
ja	ja	0		J	
selle	see	0		P	sg g
     	sell	e		S	pl p
läbi	läbi	0		D	
    	läbi	0		K	
    	läbi	0		V	o
,	,			Z	
niipalju	nii_palju	0		D	
kui	kui	0		D	
   	kui	0		J	
tema	tema	0		P	sg g
    	tema	0		P	sg n
nende	see	de		P	pl g
     	tema	de		P	pl g
asju	asi	u		S	pl p
üle	üle	0		D	
   	üle	0		K	
kaenud	kae	nud		V	nud
      	kae=nu	d		S	pl n
      	kae=nud	0		A	
      	kae=nud	0		A	sg n
      	kae=nud	d		A	pl n
on	ole	0		V	b
  	ole	0		V	vad
,	,			Z	
see	see	0		P	sg n
Kundi	####				
maja	maja	0		S	sg g
    	maja	0		S	sg n
    	maja	0		S	sg p
tallitud	talli=tu	d		A	pl n
ja	ja	0		J	
valitsus	valitsus	0		S	sg n
kõige	kõik	0		P	sg g
     	kõige	0		D	
pareman	####				
korras	kord	s		S	sg in
      	korras	0		A	
on	ole	0		V	b
  	ole	0		V	vad
.	.			Z	
Vöörmünder	vöörmünder	0		S	sg n
,	,			Z	
koolmeister	kool_meister	0		S	sg n
Tõnu	Tõnu	0		H	sg g
    	Tõnu	0		H	sg n
Fehtler	####				
ei	ei	0		D	
  	ei	0		V	neg
ole	ole	0		V	o
mitte	mitte	0		D	
tulnud	tul=nud	0		A	
      	tul=nud	0		A	sg n
      	tul=nud	d		A	pl n
      	tule	nud		V	nud
      	tulnu	d		S	pl n
.	.			Z	
G. Veits	####				
XXX	XXX	0		O	?
   	XXX	0		Y	?
A	A	0		Y	?
.	.			Z	
_	_			Z	
Org	org	0		S	sg n
+	+			Z	
+	+			Z	
+	+			Z	
G. Kolk	####				
XXX	XXX	0		O	?
   	XXX	0		Y	?
kirjutaja	kirjutaja	0		S	sg g
         	kirjutaja	0		S	sg n
Luik	luik	0		S	sg n
[	[			Z	
allkiri	all_kiri	0		S	sg n
]	]			Z	
