Kristjan	Kristjan	0		H	sg n
Noorrusberg	####				
Meeksist	Meeksi	st		H	sg el
kaebas	kaeba	s		V	s
kohtu	kohtu	0		V	o
     	kohus	0		S	sg g
ees	ees	0		D	
   	ees	0		K	
   	esi	s		S	sg in
,	,			Z	
et	et	0		J	
temal	tema	l		P	sg ad
on	ole	0		V	b
  	ole	0		V	vad
6ta	6	ta		N	sg ab
märtsil	märts	l		S	sg ad
õhtago	####				
rama	####				
kõrtsima	####				
3	3	0		N	?
leisikat	leisikas	t		S	sg p
linu	lina	u		S	pl p
ja	ja	0		J	
üks	üks	0		N	sg n
   	üks	0		P	sg n
rõevas	####				
saani	saan	0		S	adt
     	saan	0		S	sg g
     	saan	0		S	sg p
pealt	pea	lt		S	sg abl
     	pealt	0		D	
     	pealt	0		K	
ära	ära	0		D	
   	ära	0		V	neg o
varasteodo	####				
.	.			Z	
7ma	####				
märtsil	märts	l		S	sg ad
on	ole	0		V	b
  	ole	0		V	vad
Kristjan	Kristjan	0		H	sg n
on	ole	0		V	b
  	ole	0		V	vad
3	3	0		N	?
leisikat	leisikas	t		S	sg p
linad	lina	d		S	pl n
Räpina	Räpina	0		H	sg g
      	räpp	na		S	sg es
      	Räpina	0		H	sg n
mees	mees	0		S	sg n
    	mesi	s		S	sg in
Jaan	Jaan	0		H	sg n
    	jaan	0		S	sg n
    	jaan	0		Y	?
Hersbergi	####				
aidast	ait	st		S	sg el
kätte	kätte	0		K	
     	käsi	tte		S	adt
saanud	saa	nud		V	nud
      	saa=nud	0		A	
      	saa=nud	0		A	sg n
      	saa=nud	d		A	pl n
      	saanu	d		S	pl n
,	,			Z	
aga	aga	0		J	
rõevast	####				
ei	ei	0		D	
  	ei	0		V	neg
ole	ole	0		V	o
mitte	mitte	0		D	
kätte	kätte	0		K	
     	käsi	tte		S	adt
saanud	saa	nud		V	nud
      	saa=nud	0		A	
      	saa=nud	0		A	sg n
      	saa=nud	d		A	pl n
      	saanu	d		S	pl n
.	.			Z	
Jaan	Jaan	0		H	sg n
    	jaan	0		S	sg n
    	jaan	0		Y	?
Hersbergi	####				
käest	käest	0		K	
     	käsi	st		S	sg el
sai	saa	i		V	s
   	sai	0		S	sg n
küsitud	küsi	tud		V	tud
       	küsi=tu	d		S	pl n
       	küsi=tud	0		A	
       	küsi=tud	0		A	sg n
       	küsi=tud	d		A	pl n
,	,			Z	
ütles	ütle	s		V	s
tema	tema	0		P	sg g
    	tema	0		P	sg n
,	,			Z	
et	et	0		J	
tema	tema	0		P	sg g
    	tema	0		P	sg n
on	ole	0		V	b
  	ole	0		V	vad
kätte	kätte	0		K	
     	käsi	tte		S	adt
saanud	saa	nud		V	nud
      	saa=nud	0		A	
      	saa=nud	0		A	sg n
      	saa=nud	d		A	pl n
      	saanu	d		S	pl n
Joosep	Joosep	0		H	sg n
Vätsoni	####				
käest	käest	0		K	
     	käsi	st		S	sg el
selle	see	0		P	sg g
     	sell	e		S	pl p
pärast	pära	st		S	sg el
      	pärane	t		A	sg p
      	pärast	0		D	
      	pärast	0		K	
on	ole	0		V	b
  	ole	0		V	vad
tema	tema	0		P	sg g
    	tema	0		P	sg n
Aita	ait	0		S	adt
    	ait	0		S	sg p
    	aita	0		V	o
    	Aita	0		H	sg g
    	Aita	0		H	sg n
need	see	d		P	pl n
linad	lina	d		S	pl n
saanudvad	####				
.	.			Z	
Jaan	Jaan	0		H	sg n
    	jaan	0		S	sg n
    	jaan	0		Y	?
Hersberg	####				
on	ole	0		V	b
  	ole	0		V	vad
oma	oma	0		A	sg g
   	oma	0		D	
   	oma	0		P	sg g
   	oma	0		S	sg g
   	oma	0		V	o
   	oma	0		A	sg n
   	oma	0		A	sg p
   	oma	0		P	sg n
   	oma	0		P	sg p
   	oma	0		S	sg n
   	oma	0		S	sg p
nurme	nurm	0		S	adt
     	nurm	0		S	sg g
     	nurm	0		S	sg p
pealt	pea	lt		S	sg abl
     	pealt	0		D	
     	pealt	0		K	
need	see	d		P	pl n
linad	lina	d		S	pl n
Joosep	Joosep	0		H	sg n
Vätsoni	####				
käest	käest	0		K	
     	käsi	st		S	sg el
ära	ära	0		D	
   	ära	0		V	neg o
võtnud	võt	nud		V	nud
      	võt=nu	d		S	pl n
      	võt=nud	0		A	
      	võt=nud	0		A	sg n
      	võt=nud	d		A	pl n
.	.			Z	
Kristjan	Kristjan	0		H	sg n
Noorusberg	####				
arvad	arva	d		V	d
oma	oma	0		A	sg g
   	oma	0		D	
   	oma	0		P	sg g
   	oma	0		S	sg g
   	oma	0		V	o
   	oma	0		A	sg n
   	oma	0		A	sg p
   	oma	0		P	sg n
   	oma	0		P	sg p
   	oma	0		S	sg n
   	oma	0		S	sg p
linad	lina	d		S	pl n
3	3	0		N	?
R 1	R1	0		Y	?
leisikas	leisikas	0		S	sg n
        	leisikas	s		S	sg in
maksa	maks	0		S	adt
     	maks	0		S	sg g
     	maks	0		V	o
     	maks	0		S	sg p
kokku	kokku	0		D	
     	kogu	0		S	adt
9	9	0		N	?
rubla	rubla	0		S	sg g
     	rubla	0		S	sg n
     	rubla	0		S	sg p
.	.			Z	
Joosep	Joosep	0		H	sg n
Vätsoni	####				
käest	käest	0		K	
     	käsi	st		S	sg el
sai	saa	i		V	s
   	sai	0		S	sg n
küsitud	küsi	tud		V	tud
       	küsi=tu	d		S	pl n
       	küsi=tud	0		A	
       	küsi=tud	0		A	sg n
       	küsi=tud	d		A	pl n
,	,			Z	
ütles	ütle	s		V	s
tema	tema	0		P	sg g
    	tema	0		P	sg n
et	et	0		J	
tema	tema	0		P	sg g
    	tema	0		P	sg n
on	ole	0		V	b
  	ole	0		V	vad
leidnud	leid	nud		V	nud
       	leid=nu	d		S	pl n
       	leid=nud	0		A	
       	leid=nud	0		A	sg n
       	leid=nud	d		A	pl n
2	2	0		N	?
leisikat	leisikas	t		S	sg p
linu	lina	u		S	pl p
,	,			Z	
ja	ja	0		J	
Joosep	Joosep	0		H	sg n
on	ole	0		V	b
  	ole	0		V	vad
1	1	0		N	?
leisikas	leisikas	0		S	sg n
        	leisikas	s		S	sg in
leidnud	leid	nud		V	nud
       	leid=nu	d		S	pl n
       	leid=nud	0		A	
       	leid=nud	0		A	sg n
       	leid=nud	d		A	pl n
tee	tee	0		S	sg g
   	tege	0		V	o
   	tee	0		S	sg n
pealt	pea	lt		S	sg abl
     	pealt	0		D	
     	pealt	0		K	
.	.			Z	
Joosep	Joosep	0		H	sg n
Vätson	####				
ütles	ütle	s		V	s
,	,			Z	
et	et	0		J	
Joosep	Joosep	0		H	sg n
Hersberg	####				
on	ole	0		V	b
  	ole	0		V	vad
selle	see	0		P	sg g
     	sell	e		S	pl p
teki	tekk	0		S	sg g
    	tekki	0		V	o
ka	ka	0		D	
tema	tema	0		P	sg g
    	tema	0		P	sg n
käest	käest	0		K	
     	käsi	st		S	sg el
ära	ära	0		D	
   	ära	0		V	neg o
võtnud	võt	nud		V	nud
      	võt=nu	d		S	pl n
      	võt=nud	0		A	
      	võt=nud	0		A	sg n
      	võt=nud	d		A	pl n
,	,			Z	
Joosep	Joosep	0		H	sg n
Vätson	####				
ütles	ütle	s		V	s
et	et	0		J	
rõevas	####				
on	ole	0		V	b
  	ole	0		V	vad
nende	see	de		P	pl g
     	tema	de		P	pl g
kätte	kätte	0		K	
     	käsi	tte		S	adt
puna	puna	0		S	sg g
    	puna	0		V	o
    	puna	0		S	sg n
    	puna	0		S	sg p
linu	lina	u		S	pl p
peale	pea	le		S	sg all
     	peale	0		D	
     	peale	0		K	
tee	tee	0		S	sg g
   	tege	0		V	o
   	tee	0		S	sg n
peal	pea	l		S	sg ad
    	peal	0		D	
    	peal	0		K	
maas	maa	s		S	sg in
    	maas	0		D	
olnud	ol=nud	0		A	
     	ol=nud	0		A	sg n
     	ol=nud	d		A	pl n
     	ole	nud		V	nud
     	olnu	d		S	pl n
.	.			Z	
Joosep	Joosep	0		H	sg n
Vatson	####				
ütles	ütle	s		V	s
jälle	jälle	0		D	
et	et	0		J	
tema	tema	0		P	sg g
    	tema	0		P	sg n
on	ole	0		V	b
  	ole	0		V	vad
nurme	nurm	0		S	adt
     	nurm	0		S	sg g
     	nurm	0		S	sg p
pealt	pea	lt		S	sg abl
     	pealt	0		D	
     	pealt	0		K	
leidnud	leid	nud		V	nud
       	leid=nu	d		S	pl n
       	leid=nud	0		A	
       	leid=nud	0		A	sg n
       	leid=nud	d		A	pl n
need	see	d		P	pl n
2	2	0		N	?
leisikat	leisikas	t		S	sg p
linu	lina	u		S	pl p
kus	kus	0		D	
rõevas	####				
peale	pea	le		S	sg all
     	peale	0		D	
     	peale	0		K	
oli	ole	i		V	s
pantud	####				
.	.			Z	
Joosep	Joosep	0		H	sg n
Hersberg	####				
tunnistas	tunnista	s		V	s
et	et	0		J	
tema	tema	0		P	sg g
    	tema	0		P	sg n
on	ole	0		V	b
  	ole	0		V	vad
näinud	näi	nud		V	nud
      	näge	nud		V	nud
      	näi=nud	0		A	
      	näi=nud	0		A	sg n
      	näi=nud	d		A	pl n
      	näinu	d		S	pl n
kui	kui	0		D	
   	kui	0		J	
Joosep	Joosep	0		H	sg n
Vätson	####				
on	ole	0		V	b
  	ole	0		V	vad
nurme	nurm	0		S	adt
     	nurm	0		S	sg g
     	nurm	0		S	sg p
mööda	mööda	0		A	
     	mööda	0		D	
     	mööda	0		K	
käinud	käi	nud		V	nud
      	käi=nud	0		A	
      	käi=nud	0		A	sg n
      	käi=nud	d		A	pl n
      	käinu	d		S	pl n
siis	siis	0		D	
    	siis	0		J	
kui	kui	0		D	
   	kui	0		J	
Joosep	Joosep	0		H	sg n
senna	senna	0		S	sg g
     	senna	0		S	sg n
on	ole	0		V	b
  	ole	0		V	vad
läinud	läinu	d		S	pl n
      	läinud	0		A	
      	läinud	0		A	sg n
      	läinud	d		A	pl n
      	mine	nud		V	nud
siis	siis	0		D	
    	siis	0		J	
on	ole	0		V	b
  	ole	0		V	vad
Joosep	Joosep	0		H	sg n
Vätson	####				
ütelnud	ütle	nud		V	nud
       	ütel=nu	d		S	pl n
       	ütel=nud	0		A	
       	ütel=nud	0		A	sg n
       	ütel=nud	d		A	pl n
et	et	0		J	
mul	mina	l		P	sg ad
on	ole	0		V	b
  	ole	0		V	vad
üks	üks	0		N	sg n
   	üks	0		P	sg n
asi	asi	0		S	sg n
   	asi	0		V	o
ära	ära	0		D	
   	ära	0		V	neg o
kaunu	kaun	u		S	pl p
sinna	sinna	0		D	
olid	ole	id		V	sid
ära	ära	0		D	
   	ära	0		V	neg o
võtnud	võt	nud		V	nud
      	võt=nu	d		S	pl n
      	võt=nud	0		A	
      	võt=nud	0		A	sg n
      	võt=nud	d		A	pl n
tema	tema	0		P	sg g
    	tema	0		P	sg n
pooleks	pool	ks		N	sg tr
       	pool	ks		S	sg tr
       	pooleks	0		D	
,	,			Z	
siis	siis	0		D	
    	siis	0		J	
on	ole	0		V	b
  	ole	0		V	vad
Joosep	Joosep	0		H	sg n
leidnud	leid	nud		V	nud
       	leid=nu	d		S	pl n
       	leid=nud	0		A	
       	leid=nud	0		A	sg n
       	leid=nud	d		A	pl n
2	2	0		N	?
leisikat	leisikas	t		S	sg p
linu	lina	u		S	pl p
ja	ja	0		J	
peale	pea	le		S	sg all
     	peale	0		D	
     	peale	0		K	
selle	see	0		P	sg g
     	sell	e		S	pl p
1	1	0		N	?
leisikas	leisikas	0		S	sg n
        	leisikas	s		S	sg in
linu	lina	u		S	pl p
,	,			Z	
ja	ja	0		J	
on	ole	0		V	b
  	ole	0		V	vad
oma	oma	0		A	sg g
   	oma	0		D	
   	oma	0		P	sg g
   	oma	0		S	sg g
   	oma	0		V	o
   	oma	0		A	sg n
   	oma	0		A	sg p
   	oma	0		P	sg n
   	oma	0		P	sg p
   	oma	0		S	sg n
   	oma	0		S	sg p
koju	kodu	0		S	adt
viinud	vii	nud		V	nud
      	vii=nu	d		S	pl n
      	vii=nud	0		A	
      	vii=nud	0		A	sg n
      	vii=nud	d		A	pl n
.	.			Z	
Joosep	Joosep	0		H	sg n
Hersberg	####				
ütles	ütle	s		V	s
,	,			Z	
et	et	0		J	
Joosep	Joosep	0		H	sg n
Vatson	####				
on	ole	0		V	b
  	ole	0		V	vad
tema	tema	0		P	sg g
    	tema	0		P	sg n
käest	käest	0		K	
     	käsi	st		S	sg el
nõudnud	nõud	nud		V	nud
       	nõud=nu	d		S	pl n
       	nõud=nud	0		A	
       	nõud=nud	0		A	sg n
       	nõud=nud	d		A	pl n
1	1	0		N	?
/	/			Z	
2	2	0		N	?
hinda	hind	0		S	adt
     	hinda	0		V	o
     	hind	0		S	sg p
nende	see	de		P	pl g
     	tema	de		P	pl g
linu	lina	u		S	pl p
eest	eest	0		D	
    	eest	0		K	
    	esi	st		S	sg el
5	5	0		N	?
rubla	rubla	0		S	sg g
     	rubla	0		S	sg n
     	rubla	0		S	sg p
.	.			Z	
kohus	kohu	s		V	s
     	kohus	0		S	sg n
mõistis	mõist	is		V	s
,	,			Z	
et	et	0		J	
Joosep	Joosep	0		H	sg n
Vätson	####				
selle	see	0		P	sg g
     	sell	e		S	pl p
varguse	vargus	0		S	sg g
eest	eest	0		D	
    	eest	0		K	
    	esi	st		S	sg el
15	15	0		N	?
vitsa	vits	0		S	adt
     	vits	0		S	sg g
     	vits	0		S	sg p
löögiga	löök	ga		S	sg kom
peab	pida	b		V	b
trahvitud	trahvi	tud		V	tud
         	trahvi=tu	d		S	pl n
         	trahvi=tud	0		A	
         	trahvi=tud	0		A	sg n
         	trahvi=tud	d		A	pl n
sama	sama	0		P	sg g
    	sama	0		P	sg n
    	sama	0		P	sg p
,	,			Z	
ja	ja	0		J	
peale	pea	le		S	sg all
     	peale	0		D	
     	peale	0		K	
selle	see	0		P	sg g
     	sell	e		S	pl p
maksab	maks	b		V	b
Joosep	Joosep	0		H	sg n
Vätson	####				
ja	ja	0		J	
Joosep	Joosep	0		H	sg n
Hersberg	####				
kumbagi	kumbki	gi		P	adt
       	kumbki	gi		P	sg p
50	50	0		N	?
kop	kop	0		Y	?
rõivad	rõivas	d		S	pl n
eest	eest	0		D	
    	eest	0		K	
    	esi	st		S	sg el
.	.			Z	
