Aste	aste	0		S	sg g
    	aste	0		S	sg n
ette	ette	0		D	
    	ette	0		K	
    	esi	tte		S	adt
siit	siit	0		D	
vallast	vald	st		S	sg el
taluomanik	talu_omanik	0		S	sg n
Joh	####				
.	.			Z	
Niilbe	####				
ja	ja	0		J	
kaebas	kaeba	s		V	s
,	,			Z	
et	et	0		J	
siit	siit	0		D	
sulane	sulane	0		S	sg n
      	sulane	0		V	o
M	M	0		O	?
 	M	0		Y	?
.	.			Z	
_	_			Z	
Puistaja	puista=ja	0		S	sg g
        	puista=ja	0		S	sg n
seda	see	da		P	sg p
lepingut	leping	t		S	sg p
,	,			Z	
mis	mis	0		P	pl n
   	mis	0		P	sg n
siin	siin	0		D	
    	siin	0		S	sg n
5.	5.	0		O	?
Mail	Mai	l		H	sg ad
    	maa	il		S	pl ad
    	mai	l		S	sg ad
    	mail	0		S	sg n
c	c	0		Y	?
.	.			Z	
№	№	0		Y	?
33	33	0		N	?
all	all	0		D	
   	all	0		K	
sisse	siss	e		S	pl p
     	sisse	0		D	
     	sisse	0		K	
on	ole	0		V	b
  	ole	0		V	vad
kirjutatud	kirjuta	tud		V	tud
          	kirjutatu	d		S	pl n
          	kirjutatud	0		A	
          	kirjutatud	0		A	sg n
          	kirjutatud	d		A	pl n
ja	ja	0		J	
mille	mis	0		P	pl g
     	mis	0		P	sg g
järel	järel	0		D	
     	järel	0		K	
J	J	0		Y	?
.	.			Z	
_	_			Z	
Puistaja	puista=ja	0		S	sg g
        	puista=ja	0		S	sg n
varsti	varsti	0		D	
35	35	0		N	?
rubl	####				
.	.			Z	
eest	eest	0		D	
    	eest	0		K	
    	esi	st		S	sg el
tema	tema	0		P	sg g
    	tema	0		P	sg n
teenistusse	teenistus	se		S	adt
pidi	pida	i		V	s
    	pidi	0		K	
astuma	astu	ma		V	ma
,	,			Z	
mitte	mitte	0		D	
ei	ei	0		D	
  	ei	0		V	neg
olla	ole	a		V	da
täitnud	täit	nud		V	nud
       	täit=nu	d		S	pl n
       	täit=nud	0		A	
       	täit=nud	0		A	sg n
       	täit=nud	d		A	pl n
.	.			Z	
Kaebaja	kaebaja	0		S	sg g
       	kaebaja	0		S	sg n
nõudis	nõud	is		V	s
aastapalga	aasta_palk	0		S	sg g
maksmist	maksmine	t		S	sg p
(	(			Z	
35	35	0		N	?
rubl	####				
.	.			Z	
)	)			Z	
.	.			Z	
J	J	0		Y	?
.	.			Z	
_	_			Z	
Puistaja	puista=ja	0		S	sg g
        	puista=ja	0		S	sg n
vabandas	vabanda	s		V	s
:	:			Z	
tema	tema	0		P	sg g
    	tema	0		P	sg n
olla	ole	a		V	da
kül	####				
kord	kord	0		D	
    	kord	0		S	sg n
selle	see	0		P	sg g
     	sell	e		S	pl p
nõuuga	####				
Niilbe	####				
pool	pool	0		K	
    	pool	0		N	sg n
    	pool	0		S	sg n
käinud	käi	nud		V	nud
      	käi=nud	0		A	
      	käi=nud	0		A	sg n
      	käi=nud	d		A	pl n
      	käinu	d		S	pl n
,	,			Z	
et	et	0		J	
senna	senna	0		S	sg g
     	senna	0		S	sg n
teenistusse	teenistus	se		S	adt
heita	heit	a		V	da
,	,			Z	
aga	aga	0		J	
Niilbet	####				
ei	ei	0		D	
  	ei	0		V	neg
olla	ole	a		V	da
kodus	kodu	s		S	sg in
olnud	ol=nud	0		A	
     	ol=nud	0		A	sg n
     	ol=nud	d		A	pl n
     	ole	nud		V	nud
     	olnu	d		S	pl n
ja	ja	0		J	
ei	ei	0		D	
  	ei	0		V	neg
saanud	saa	nud		V	nud
      	saa=nud	0		A	
      	saa=nud	0		A	sg n
      	saa=nud	d		A	pl n
      	saanu	d		S	pl n
tema	tema	0		P	sg g
    	tema	0		P	sg n
siis	siis	0		D	
    	siis	0		J	
mingaid	####				
otsust	otsus	t		S	sg p
.	.			Z	
kui	kui	0		D	
   	kui	0		J	
siis	siis	0		D	
    	siis	0		J	
peale	pea	le		S	sg all
     	peale	0		D	
     	peale	0		K	
selle	see	0		P	sg g
     	sell	e		S	pl p
ka	ka	0		D	
Niilbe	####				
temale	tema	le		P	sg all
midagi	miski	dagi		P	sg p
teadmist	teadmine	t		S	sg p
ei	ei	0		D	
  	ei	0		V	neg
ole	ole	0		V	o
saatnud	saat	nud		V	nud
       	saat=nu	d		S	pl n
       	saat=nud	0		A	
       	saat=nud	0		A	sg n
       	saat=nud	d		A	pl n
ja	ja	0		J	
ka	ka	0		D	
mõned	mõni	d		P	pl n
muud	muu	d		P	pl n
    	muu	d		S	pl n
    	muu	d		V	d
    	muu	d		P	sg p
    	muu	d		S	sg p
talle	tall	e		S	pl p
     	tall	0		S	adt
     	tall	0		S	sg g
     	tema	lle		P	sg all
     	tall	0		S	sg p
nõuu	####				
olla	ole	a		V	da
andnud	and	nud		V	nud
      	and=nu	d		S	pl n
      	and=nud	0		A	
      	and=nud	0		A	sg n
      	and=nud	d		A	pl n
,	,			Z	
et	et	0		J	
mitte	mitte	0		D	
senna	senna	0		S	sg g
     	senna	0		S	sg n
ei	ei	0		D	
  	ei	0		V	neg
peaks	pea	ks		S	sg tr
     	pida	ks		V	ks
minema	mine	ma		V	ma
,	,			Z	
siis	siis	0		D	
    	siis	0		J	
olla	ole	a		V	da
ta	tema	0		P	sg g
  	tema	0		P	sg n
ka	ka	0		D	
asja	asi	0		S	adt
    	asi	0		S	sg g
    	asi	0		S	sg p
katki	katki	0		D	
jätnud	jät	nud		V	nud
      	jät=nu	d		S	pl n
      	jät=nud	0		A	
      	jät=nud	0		A	sg n
      	jät=nud	d		A	pl n
.	.			Z	
otsus	otsus	0		S	sg n
:	:			Z	
et	et	0		J	
Puistaja	puista=ja	0		S	sg g
        	puista=ja	0		S	sg n
seda	see	da		P	sg p
üll	üll	0		D	
.	.			Z	
kinnit	####				
.	.			Z	
nende	see	de		P	pl g
     	tema	de		P	pl g
eneste	ise	te		P	pl g
vahel	vahe	l		S	sg ad
     	vahel	0		D	
     	vahel	0		K	
siin	siin	0		D	
    	siin	0		S	sg n
kohtu	kohtu	0		V	o
     	kohus	0		S	sg g
juures	juur	s		S	sg in
      	juures	0		D	
      	juures	0		K	
tehtus	tehtu	s		S	sg in
      	tehtud	s		A	sg in
      	tehtus	0		S	sg n
lepingut	leping	t		S	sg p
poole	pool	0		N	sg g
     	pool	0		S	sg g
     	pool	e		S	pl p
     	poole	0		K	
     	poole	0		S	sg n
täitnud	täit	nud		V	nud
       	täit=nu	d		S	pl n
       	täit=nud	0		A	
       	täit=nud	0		A	sg n
       	täit=nud	d		A	pl n
,	,			Z	
siis	siis	0		D	
    	siis	0		J	
on	ole	0		V	b
  	ole	0		V	vad
tall	tall	0		S	sg n
selle	see	0		P	sg g
     	sell	e		S	pl p
eest	eest	0		D	
    	eest	0		K	
    	esi	st		S	sg el
Niilbe	####				
heaks	hea	ks		A	sg tr
     	hea	ks		S	sg tr
     	heaks	0		D	
     	heaks	0		K	
aasta	aasta	0		S	sg g
     	aasta	0		S	sg n
palk	palk	0		S	sg n
35	35	0		N	?
rubl	####				
.	.			Z	
tuleva	tulev	0		A	sg g
aastani	aasta	ni		S	sg ter
siia	siia	0		D	
    	siig	0		S	sg g
äraamaksta	####				
.	.			Z	
see	see	0		P	sg n
otsus	otsus	0		S	sg n
sai	saa	i		V	s
   	sai	0		S	sg n
nende	see	de		P	pl g
     	tema	de		P	pl g
kohtukäiatele	####				
Liivl	####				
.	.			Z	
talur	####				
.	.			Z	
sead	sead	d		V	d
    	siga	d		A	pl n
    	siga	d		S	pl n
.	.			Z	
§	§	0		Y	?
773	773	0		N	?
järel	järel	0		D	
     	järel	0		K	
kuulutatud	kuuluta	tud		V	tud
          	kuuluta=tu	d		S	pl n
          	kuuluta=tud	0		A	
          	kuuluta=tud	0		A	sg n
          	kuuluta=tud	d		A	pl n
.	.			Z	
Joh	####				
.	.			Z	
Puistaja	puista=ja	0		S	sg g
        	puista=ja	0		S	sg n
andis	and	is		V	s
üles	üles	0		D	
,	,			Z	
et	et	0		J	
edasi	edasi	0		D	
     	edasi	0		K	
tahab	taht	b		V	b
kaeata	####				
.	.			Z	
kopia	####				
andud	andu	d		V	d
15.	15.	0		O	?
juunil	juuni	l		S	sg ad
c	c	0		Y	?
.	.			Z	
kohtumees	kohtu_mees	0		S	sg n
:	:			Z	
A	A	0		Y	?
.	.			Z	
_	_			Z	
Luk	####				
xxx	####				
d	d	0		Y	?
.	.			Z	
:	:			Z	
P	P	0		Y	?
.	.			Z	
_	_			Z	
Aabel	Aabel	0		H	sg n
xxx	####				
abiline	abiline	0		S	sg n
:	:			Z	
V. Visse	####				
xxx	####				
kirjutaja	kirjutaja	0		S	sg g
         	kirjutaja	0		S	sg n
as	####				
.	.			Z	
Tuping	####				
[	[			Z	
allkiri	all_kiri	0		S	sg n
]	]			Z	
