sel	see	l		P	sg ad
   	sel	0		Y	?
samal	sama	l		P	sg ad
päeval	päev	l		S	sg ad
.	.			Z	
poleli	####				
jäänud	jää	nud		V	nud
      	jäänu	d		S	pl n
      	jäänud	0		A	
      	jäänud	0		A	sg n
      	jäänud	d		A	pl n
kaebus	kaebus	0		S	sg n
asjas	asi	s		S	sg in
sest	see	st		P	sg el
    	sest	0		J	
20	20	0		N	?
Veebr	Veebr	0		Y	?
.	.			Z	
No	no	0		I	
24	24	0		N	?
loeti	luge	ti		V	ti
kaebatav	####				
Peeter	Peeter	0		H	sg n
Liikkerile	####				
ette	ette	0		D	
    	ette	0		K	
    	esi	tte		S	adt
kes	kes	0		P	pl n
   	kes	0		P	sg n
selle	see	0		P	sg g
     	sell	e		S	pl p
päele	####				
ütles	ütle	s		V	s
.	.			Z	
""""	""""			Z	
Mina	mina	0		P	sg n
    	mina	0		S	sg g
    	mina	0		S	sg n
    	mina	0		S	sg p
ei	ei	0		D	
  	ei	0		V	neg
ole	ole	0		V	o
Kusta	Kusta	0		H	sg g
     	Kusta	0		H	sg n
     	kuse	ta		V	da
     	kuse	ta		V	ta
Ehtide	####				
mitte	mitte	0		D	
sõimanud	sõima	nud		V	nud
        	sõima=nu	d		S	pl n
        	sõima=nud	0		A	
        	sõima=nud	0		A	sg n
        	sõima=nud	d		A	pl n
ega	ega	0		D	
   	ega	0		J	
teutanud	####				
,	,			Z	
paljalt	paljalt	0		D	
       	paljas	lt		A	sg abl
kuulin	####				
mina	mina	0		P	sg n
    	mina	0		S	sg g
    	mina	0		S	sg n
    	mina	0		S	sg p
tema	tema	0		P	sg g
    	tema	0		P	sg n
pool	pool	0		K	
    	pool	0		N	sg n
    	pool	0		S	sg n
sõsara	sõsar	0		S	sg g
käest	käest	0		K	
     	käsi	st		S	sg el
,	,			Z	
et	et	0		J	
Ehtide	####				
peale	pea	le		S	sg all
     	peale	0		D	
     	peale	0		K	
on	ole	0		V	b
  	ole	0		V	vad
vargust	vargus	t		S	sg p
on	ole	0		V	b
  	ole	0		V	vad
arvatud	arva	tud		V	tud
       	arva=tu	d		S	pl n
       	arva=tud	0		A	
       	arva=tud	0		A	sg n
       	arva=tud	d		A	pl n
.	.			Z	
peakohtumees	pea_kohtu_mees	0		S	sg n
J	J	0		Y	?
.	.			Z	
_	_			Z	
roht	####				
tunnistas	tunnista	s		V	s
.	.			Z	
""""	""""			Z	
Kusta	Kusta	0		H	sg g
     	Kusta	0		H	sg n
     	kuse	ta		V	da
     	kuse	ta		V	ta
Ehtide	####				
sõsar	sõsar	0		S	sg n
ütles	ütle	s		V	s
mulle	mull	e		S	pl p
     	mina	lle		P	sg all
     	mulle	0		S	sg n
küll	küll	0		D	
    	küll	0		S	sg n
,	,			Z	
et	et	0		J	
tema	tema	0		P	sg g
    	tema	0		P	sg n
veel	veel	0		D	
    	vesi	l		S	sg ad
Kusta	Kusta	0		H	sg g
     	Kusta	0		H	sg n
     	kuse	ta		V	da
     	kuse	ta		V	ta
on	ole	0		V	b
  	ole	0		V	vad
hoopose	####				
vargust	vargus	t		S	sg p
ajanud	aja	nud		V	nud
      	aja=nu	d		S	pl n
      	aja=nud	0		A	
      	aja=nud	0		A	sg n
      	aja=nud	d		A	pl n
.	.			Z	
_	_			Z	
otsus	otsus	0		S	sg n
.	.			Z	
tühjaks	tühi	ks		A	sg tr
mõista	mõist	0		V	o
      	mõist	a		V	da
.	.			Z	
allkirjad	all_kiri	d		S	pl n
