Taniel	####				
Glaasmann	####				
käest	käest	0		K	
     	käsi	st		S	sg el
August	august	0		S	sg n
      	auk	st		S	sg el
      	August	0		H	sg n
Anderson	####				
laenanud	laena	nud		V	nud
        	laena=nu	d		S	pl n
        	laena=nud	0		A	
        	laena=nud	0		A	sg n
        	laena=nud	d		A	pl n
2	2	0		N	?
rbl	rbl	0		Y	?
60	60	0		N	?
kop	kop	0		Y	?
ja	ja	0		J	
lupap	####				
sel	see	l		P	sg ad
   	sel	0		Y	?
1	1	0		N	?
Novembril	november	l		S	sg ad
1886	1886	0		N	?
ära	ära	0		D	
   	ära	0		V	neg o
maksa	maks	0		S	adt
     	maks	0		S	sg g
     	maks	0		V	o
     	maks	0		S	sg p
August	august	0		S	sg n
      	auk	st		S	sg el
      	August	0		H	sg n
Anderson	####				
tunnistaja	tunnistaja	0		S	sg g
          	tunnistaja	0		S	sg n
:	:			Z	
H	H	0		Y	?
.	.			Z	
_	_			Z	
Liivak	liivak	0		S	sg n
P	P	0		Y	?
.	.			Z	
_	_			Z	
Urtson	####				
