ette	ette	0		D	
    	ette	0		K	
    	esi	tte		S	adt
tuli	tuli	0		S	sg n
    	tule	i		V	s
vallavanem	valla_vanem	0		S	sg n
J	J	0		Y	?
.	.			Z	
_Kukk	####				
ja	ja	0		J	
palus	palu	s		S	sg in
     	palu	s		V	s
seda	see	da		P	sg p
protokolli	protokoll	0		S	adt
          	protokoll	0		S	sg g
          	protokolli	0		V	o
          	protokoll	0		S	sg p
sisse	siss	e		S	pl p
     	sisse	0		D	
     	sisse	0		K	
kirjutada	kirjuta	da		V	da
,	,			Z	
et	et	0		J	
Jakob	Jakob	0		H	sg n
Jaanson	Jaanson	0		H	sg n
,	,			Z	
kes	kes	0		P	pl n
   	kes	0		P	sg n
siin	siin	0		D	
    	siin	0		S	sg n
valla	vald	0		S	sg g
     	valla	0		D	
sakka	####				
ametid	amet	d		S	pl n
talitab	talita	b		V	b
ning	ning	0		J	
siin	siin	0		D	
    	siin	0		S	sg n
valla	vald	0		S	sg g
     	valla	0		D	
majas	maja	s		S	sg in
elab	ela	b		V	b
,	,			Z	
on	ole	0		V	b
  	ole	0		V	vad
kõik	kõik	0		P	pl n
    	kõik	0		S	sg n
    	kõik	0		P	sg n
oma	oma	0		A	sg g
   	oma	0		D	
   	oma	0		P	sg g
   	oma	0		S	sg g
   	oma	0		V	o
   	oma	0		A	sg n
   	oma	0		A	sg p
   	oma	0		P	sg n
   	oma	0		P	sg p
   	oma	0		S	sg n
   	oma	0		S	sg p
(	(			Z	
Jaansoni	Jaanson	0		H	sg g
)	)			Z	
siin	siin	0		D	
    	siin	0		S	sg n
Misso	Misso	0		H	sg g
     	Misso	0		H	sg n
vallamajas	valla_maja	s		S	sg in
olevat	ole	vat		V	vat
      	olev	t		A	sg p
      	olev	t		S	sg p
varandus	varandus	0		S	sg n
tema	tema	0		P	sg g
    	tema	0		P	sg n
võla	võlg	0		S	sg g
peale	pea	le		S	sg all
     	peale	0		D	
     	peale	0		K	
tema	tema	0		P	sg g
    	tema	0		P	sg n
J	J	0		Y	?
.	.			Z	
_	_			Z	
Kukk	kukk	0		S	sg n
heaks	hea	ks		A	sg tr
     	hea	ks		S	sg tr
     	heaks	0		D	
     	heaks	0		K	
ära	ära	0		D	
   	ära	0		V	neg o
kirjutanud	kirjuta	nud		V	nud
          	kirjutanu	d		S	pl n
          	kirjutanud	0		A	
          	kirjutanud	0		A	sg n
          	kirjutanud	d		A	pl n
sel	see	l		P	sg ad
   	sel	0		Y	?
1	1	0		N	?
Septembril	september	l		S	sg ad
1886	1886	0		N	?
aastal	aasta	l		S	sg ad
64	64	0		N	?
rbl	rbl	0		Y	?
.	.			Z	
75	75	0		N	?
kop	kop	0		Y	?
.	.			Z	
eest	eest	0		D	
    	eest	0		K	
    	esi	st		S	sg el
ning	ning	0		J	
sel	see	l		P	sg ad
   	sel	0		Y	?
10.	10.	0		O	?
Vebruaril	####				
1887	1887	0		N	?
veel	veel	0		D	
    	vesi	l		S	sg ad
35	35	0		N	?
rbl	rbl	0		Y	?
.	.			Z	
eest	eest	0		D	
    	eest	0		K	
    	esi	st		S	sg el
.	.			Z	
üle	üle	0		D	
   	üle	0		K	
kõige	kõik	0		P	sg g
     	kõige	0		D	
99	99	0		N	?
rbl	rbl	0		Y	?
75	75	0		N	?
kop	kop	0		Y	?
.	.			Z	
vala	vala	0		V	o
eest	eest	0		D	
    	eest	0		K	
    	esi	st		S	sg el
.	.			Z	
see	see	0		P	sg n
võlg	võlg	0		S	sg n
on	ole	0		V	b
  	ole	0		V	vad
puhast	puhas	t		A	sg p
raha	raha	0		S	sg g
    	raha	0		S	sg n
    	raha	0		S	sg p
laenatud	laena	tud		V	tud
        	laena=tu	d		S	pl n
        	laena=tud	0		A	
        	laena=tud	0		A	sg n
        	laena=tud	d		A	pl n
50	50	0		N	?
rbl	rbl	0		Y	?
.	.			Z	
üks	üks	0		N	sg n
   	üks	0		P	sg n
kord	kord	0		D	
    	kord	0		S	sg n
ja	ja	0		J	
teine	teine	0		O	sg n
     	teine	0		P	sg n
kord	kord	0		D	
    	kord	0		S	sg n
35	35	0		N	?
rbl	rbl	0		Y	?
.	.			Z	
puhast	puhas	t		A	sg p
raha	raha	0		S	sg g
    	raha	0		S	sg n
    	raha	0		S	sg p
,	,			Z	
ning	ning	0		J	
14	14	0		N	?
rbl	rbl	0		Y	?
.	.			Z	
75	75	0		N	?
kop	kop	0		Y	?
.	.			Z	
eest	eest	0		D	
    	eest	0		K	
    	esi	st		S	sg el
on	ole	0		V	b
  	ole	0		V	vad
Jaanson	Jaanson	0		H	sg n
võtnud	võt	nud		V	nud
      	võt=nu	d		S	pl n
      	võt=nud	0		A	
      	võt=nud	0		A	sg n
      	võt=nud	d		A	pl n
võida	või	da		V	da
     	võid	a		V	da
     	võit	0		V	o
     	või	da		V	ta
,	,			Z	
liha	liha	0		S	sg g
    	liha	0		S	sg n
    	liha	0		S	sg p
ja	ja	0		J	
muud	muu	d		P	pl n
    	muu	d		S	pl n
    	muu	d		V	d
    	muu	d		P	sg p
    	muu	d		S	sg p
tõidu	####				
kraami	kraam	0		S	adt
      	kraam	0		S	sg g
      	kraami	0		V	o
      	kraam	0		S	sg p
ja	ja	0		J	
oma	oma	0		A	sg g
   	oma	0		D	
   	oma	0		P	sg g
   	oma	0		S	sg g
   	oma	0		V	o
   	oma	0		A	sg n
   	oma	0		A	sg p
   	oma	0		P	sg n
   	oma	0		P	sg p
   	oma	0		S	sg n
   	oma	0		S	sg p
ka	ka	0		D	
nende	see	de		P	pl g
     	tema	de		P	pl g
võlgade	võlg	de		S	pl g
üle	üle	0		D	
   	üle	0		K	
kvitungi	####				
.	.			Z	
Jakob	Jakob	0		H	sg n
Jaanson	Jaanson	0		H	sg n
tunnistas	tunnista	s		V	s
seda	see	da		P	sg p
oma	oma	0		A	sg g
   	oma	0		D	
   	oma	0		P	sg g
   	oma	0		S	sg g
   	oma	0		V	o
   	oma	0		A	sg n
   	oma	0		A	sg p
   	oma	0		P	sg n
   	oma	0		P	sg p
   	oma	0		S	sg n
   	oma	0		S	sg p
varanduse	varandus	0		S	sg g
ära	ära	0		D	
   	ära	0		V	neg o
kirjutamist	kirjutamine	t		S	sg p
J	J	0		Y	?
.	.			Z	
_Kukkele	####				
tema	tema	0		P	sg g
    	tema	0		P	sg n
võla	võlg	0		S	sg g
eest	eest	0		D	
    	eest	0		K	
    	esi	st		S	sg el
õiges	õige	s		A	sg in
nii	nii	0		D	
kui	kui	0		D	
   	kui	0		J	
ka	ka	0		D	
tema	tema	0		P	sg g
    	tema	0		P	sg n
kvitungi	####				
näütäeva	####				
kus	kus	0		D	
ka	ka	0		D	
kohtumees	kohtu_mees	0		S	sg n
Tanel	Tanel	0		H	sg n
Pilt	pilt	0		S	sg n
ala	ala	0		S	sg g
   	ala	0		S	sg n
   	ala	0		S	sg p
on	ole	0		V	b
  	ole	0		V	vad
kirjutanud	kirjuta	nud		V	nud
          	kirjutanu	d		S	pl n
          	kirjutanud	0		A	
          	kirjutanud	0		A	sg n
          	kirjutanud	d		A	pl n
.	.			Z	
otsus	otsus	0		S	sg n
:	:			Z	
seda	see	da		P	sg p
sisse	siss	e		S	pl p
     	sisse	0		D	
     	sisse	0		K	
kirjutada	kirjuta	da		V	da
,	,			Z	
kui	kui	0		D	
   	kui	0		J	
sündunud	####				
.	.			Z	
peakohtumees	pea_kohtu_mees	0		S	sg n
K	K	0		Y	?
.	.			Z	
_	_			Z	
Lõhmus	lõhmus	0		S	sg n
kohtumees	kohtu_mees	0		S	sg n
T.Pilt	####				
kohtumees	kohtu_mees	0		S	sg n
Jaan	Jaan	0		H	sg n
    	jaan	0		S	sg n
    	jaan	0		Y	?
Oppar	####				
XXX	XXX	0		O	?
   	XXX	0		Y	?
kirjutaja	kirjutaja	0		S	sg g
         	kirjutaja	0		S	sg n
/	/			Z	
Joh	####				
.	.			Z	
Jõgeva	Jõgeva	0		H	sg g
      	Jõgeva	0		H	sg n
      	jõgeva	0		G	
/	/			Z	
