Schlogi	####				
proua	proua	0		S	sg g
     	proua	0		S	sg n
Võõpsust	####				
kaebas	kaeba	s		V	s
kohtu	kohtu	0		V	o
     	kohus	0		S	sg g
eest	eest	0		D	
    	eest	0		K	
    	esi	st		S	sg el
et	et	0		J	
Jaan	Jaan	0		H	sg n
    	jaan	0		S	sg n
    	jaan	0		Y	?
Puksand	puks_and	0		S	sg n
Lokutajalt	####				
teda	tema	da		P	sg p
on	ole	0		V	b
  	ole	0		V	vad
sõimanud	sõima	nud		V	nud
        	sõima=nu	d		S	pl n
        	sõima=nud	0		A	
        	sõima=nud	0		A	sg n
        	sõima=nud	d		A	pl n
,	,			Z	
siis	siis	0		D	
    	siis	0		J	
kui	kui	0		D	
   	kui	0		J	
Sead	sead	d		V	d
    	siga	d		A	pl n
    	siga	d		S	pl n
lina	lina	0		S	sg g
    	lina	0		S	sg n
    	lina	0		S	sg p
on	ole	0		V	b
  	ole	0		V	vad
olnud	ol=nud	0		A	
     	ol=nud	0		A	sg n
     	ol=nud	d		A	pl n
     	ole	nud		V	nud
     	olnu	d		S	pl n
,	,			Z	
peale	pea	le		S	sg all
     	peale	0		D	
     	peale	0		K	
selle	see	0		P	sg g
     	sell	e		S	pl p
Jaan	Jaan	0		H	sg n
    	jaan	0		S	sg n
    	jaan	0		Y	?
on	ole	0		V	b
  	ole	0		V	vad
nii	nii	0		D	
sõimanud	sõima	nud		V	nud
        	sõima=nu	d		S	pl n
        	sõima=nud	0		A	
        	sõima=nud	0		A	sg n
        	sõima=nud	d		A	pl n
Schlogi	####				
prouvat	####				
sinna	sinna	0		D	
kuradi	kurat	0		S	sg g
hake	hake	0		S	sg n
söötät	####				
minu	mina	0		P	sg g
vilja	vili	0		S	adt
     	vili	0		S	sg g
     	vili	0		S	sg p
sinna	sinna	0		D	
kuradi	kurat	0		S	sg g
hake	hake	0		S	sg n
olid	ole	id		V	sid
ise	ise	0		A	
   	ise	0		D	
   	ise	0		P	pl n
   	ise	0		P	sg n
Sant	sant	0		A	sg n
    	sant	0		S	sg n
ja	ja	0		J	
teed	tee	d		S	pl n
    	tege	d		V	d
    	tee	d		S	sg p
sandega	####				
tööd	töö	d		S	pl n
    	töö	d		S	sg p
ja	ja	0		J	
kui	kui	0		D	
   	kui	0		J	
Schlogi	####				
proua	proua	0		S	sg g
     	proua	0		S	sg n
on	ole	0		V	b
  	ole	0		V	vad
Jaanile	Jaan	le		H	sg all
       	Jaani	le		H	sg all
       	jaan	le		S	sg all
vastu	vastu	0		D	
     	vastu	0		K	
ütelnud	ütle	nud		V	nud
       	ütel=nu	d		S	pl n
       	ütel=nud	0		A	
       	ütel=nud	0		A	sg n
       	ütel=nud	d		A	pl n
et	et	0		J	
Jaan	Jaan	0		H	sg n
    	jaan	0		S	sg n
    	jaan	0		Y	?
,	,			Z	
kas	kas	0		D	
sinna	sinna	0		D	
olid	ole	id		V	sid
jobunud	####				
,	,			Z	
siis	siis	0		D	
    	siis	0		J	
on	ole	0		V	b
  	ole	0		V	vad
Jaan	Jaan	0		H	sg n
    	jaan	0		S	sg n
    	jaan	0		Y	?
Schlogi	####				
proual	proua	l		S	sg ad
vastu	vastu	0		D	
     	vastu	0		K	
ütelnud	ütle	nud		V	nud
       	ütel=nu	d		S	pl n
       	ütel=nud	0		A	
       	ütel=nud	0		A	sg n
       	ütel=nud	d		A	pl n
et	et	0		J	
sinna	sinna	0		D	
olid	ole	id		V	sid
ise	ise	0		A	
   	ise	0		D	
   	ise	0		P	pl n
   	ise	0		P	sg n
kuradi	kurat	0		S	sg g
hake	hake	0		S	sg n
joodik	joodik	0		A	sg n
      	joodik	0		S	sg n
ja	ja	0		J	
sagu	sagu	0		S	sg n
    	sagu	0		S	sg p
sa	sina	0		P	sg n
viina	viin	0		S	adt
     	viin	0		S	sg g
     	viin	0		S	sg p
surma	surm	0		S	adt
     	surm	0		S	sg g
     	surma	0		V	o
     	surm	0		S	sg p
koolma	kool	ma		V	ma
.	.			Z	
ja	ja	0		J	
ka	ka	0		D	
on	ole	0		V	b
  	ole	0		V	vad
Jaan	Jaan	0		H	sg n
    	jaan	0		S	sg n
    	jaan	0		Y	?
veel	veel	0		D	
    	vesi	l		S	sg ad
palju	palju	0		D	
     	palju	0		P	sg g
     	palju	0		P	sg n
muid	muu	id		P	pl p
sõimu	sõim	0		S	adt
     	sõim	0		S	sg g
     	sõim	0		S	sg p
sanu	####				
ütelnud	ütle	nud		V	nud
       	ütel=nu	d		S	pl n
       	ütel=nud	0		A	
       	ütel=nud	0		A	sg n
       	ütel=nud	d		A	pl n
.	.			Z	
Jaan	Jaan	0		H	sg n
    	jaan	0		S	sg n
    	jaan	0		Y	?
Puksand	puks_and	0		S	sg n
ütles	ütle	s		V	s
et	et	0		J	
teme	####				
ei	ei	0		D	
  	ei	0		V	neg
ole	ole	0		V	o
mitte	mitte	0		D	
Schlogi	####				
prouvat	####				
sõimanud	sõima	nud		V	nud
        	sõima=nu	d		S	pl n
        	sõima=nud	0		A	
        	sõima=nud	0		A	sg n
        	sõima=nud	d		A	pl n
,	,			Z	
ja	ja	0		J	
proua	proua	0		S	sg g
     	proua	0		S	sg n
on	ole	0		V	b
  	ole	0		V	vad
ütelnud	ütle	nud		V	nud
       	ütel=nu	d		S	pl n
       	ütel=nud	0		A	
       	ütel=nud	0		A	sg n
       	ütel=nud	d		A	pl n
Jaanile	Jaan	le		H	sg all
       	Jaani	le		H	sg all
       	jaan	le		S	sg all
sinna	sinna	0		D	
olid	ole	id		V	sid
saand	####				
siis	siis	0		D	
    	siis	0		J	
Jaan	Jaan	0		H	sg n
    	jaan	0		S	sg n
    	jaan	0		Y	?
on	ole	0		V	b
  	ole	0		V	vad
ütelnud	ütle	nud		V	nud
       	ütel=nu	d		S	pl n
       	ütel=nud	0		A	
       	ütel=nud	0		A	sg n
       	ütel=nud	d		A	pl n
proul	####				
et	et	0		J	
sinna	sinna	0		D	
teed	tee	d		S	pl n
    	tege	d		V	d
    	tee	d		S	sg p
saantega	####				
tööd	töö	d		S	pl n
    	töö	d		S	sg p
,	,			Z	
ja	ja	0		J	
muut	muut	0		S	sg n
ei	ei	0		D	
  	ei	0		V	neg
oleva	olev	0		A	sg g
     	olev	0		S	sg g
Jaan	Jaan	0		H	sg n
    	jaan	0		S	sg n
    	jaan	0		Y	?
mitte	mitte	0		D	
sõimanud	sõima	nud		V	nud
        	sõima=nu	d		S	pl n
        	sõima=nud	0		A	
        	sõima=nud	0		A	sg n
        	sõima=nud	d		A	pl n
.	.			Z	
Vöölmünder	####				
Karl	Karl	0		H	sg n
minu	mina	0		P	sg g
tunnistas	tunnista	s		V	s
:	:			Z	
et	et	0		J	
siis	siis	0		D	
    	siis	0		J	
kui	kui	0		D	
   	kui	0		J	
tema	tema	0		P	sg g
    	tema	0		P	sg n
prouvat	####				
linu	lina	u		S	pl p
on	ole	0		V	b
  	ole	0		V	vad
kutsunud	kutsu	nud		V	nud
        	kutsu=nu	d		S	pl n
        	kutsu=nud	0		A	
        	kutsu=nud	0		A	sg n
        	kutsu=nud	d		A	pl n
kaema	kae	ma		V	ma
siis	siis	0		D	
    	siis	0		J	
proua	proua	0		S	sg g
     	proua	0		S	sg n
on	ole	0		V	b
  	ole	0		V	vad
ütelnud	ütle	nud		V	nud
       	ütel=nu	d		S	pl n
       	ütel=nud	0		A	
       	ütel=nud	0		A	sg n
       	ütel=nud	d		A	pl n
et	et	0		J	
maksku	maks	ku		V	gu
Jaan	Jaan	0		H	sg n
    	jaan	0		S	sg n
    	jaan	0		Y	?
tood	too	d		V	d
ära	ära	0		D	
   	ära	0		V	neg o
mis	mis	0		P	pl n
   	mis	0		P	sg n
tema	tema	0		P	sg g
    	tema	0		P	sg n
Sead	sead	d		V	d
    	siga	d		A	pl n
    	siga	d		S	pl n
minul	mina	l		P	sg ad
vineval	####				
aastal	aasta	l		S	sg ad
kartuled	####				
ära	ära	0		D	
   	ära	0		V	neg o
seda	see	da		P	sg p
,	,			Z	
siis	siis	0		D	
    	siis	0		J	
Jaan	Jaan	0		H	sg n
    	jaan	0		S	sg n
    	jaan	0		Y	?
on	ole	0		V	b
  	ole	0		V	vad
prouale	proua	le		S	sg all
vastu	vastu	0		D	
     	vastu	0		K	
ütelnud	ütle	nud		V	nud
       	ütel=nu	d		S	pl n
       	ütel=nud	0		A	
       	ütel=nud	0		A	sg n
       	ütel=nud	d		A	pl n
et	et	0		J	
mina	mina	0		P	sg n
    	mina	0		S	sg g
    	mina	0		S	sg n
    	mina	0		S	sg p
tein	####				
selle	see	0		P	sg g
     	sell	e		S	pl p
eest	eest	0		D	
    	eest	0		K	
    	esi	st		S	sg el
läiniku	####				
täie	täis	0		A	sg g
    	täis	0		S	sg g
koort	koor	t		S	sg p
ja	ja	0		J	
võid	või	d		S	pl n
    	või	d		V	d
    	või	d		S	sg p
,	,			Z	
siis	siis	0		D	
    	siis	0		J	
proua	proua	0		S	sg g
     	proua	0		S	sg n
on	ole	0		V	b
  	ole	0		V	vad
Jaanile	Jaan	le		H	sg all
       	Jaani	le		H	sg all
       	jaan	le		S	sg all
vastu	vastu	0		D	
     	vastu	0		K	
ütelnud	ütle	nud		V	nud
       	ütel=nu	d		S	pl n
       	ütel=nud	0		A	
       	ütel=nud	0		A	sg n
       	ütel=nud	d		A	pl n
et	et	0		J	
sul	sina	l		P	sg ad
sandil	sant	l		A	sg ad
      	sant	l		S	sg ad
ei	ei	0		D	
  	ei	0		V	neg
ole	ole	0		V	o
endale	ise	le		P	sg all
,	,			Z	
siis	siis	0		D	
    	siis	0		J	
Jaan	Jaan	0		H	sg n
    	jaan	0		S	sg n
    	jaan	0		Y	?
on	ole	0		V	b
  	ole	0		V	vad
ütelnud	ütle	nud		V	nud
       	ütel=nu	d		S	pl n
       	ütel=nud	0		A	
       	ütel=nud	0		A	sg n
       	ütel=nud	d		A	pl n
et	et	0		J	
sinna	sinna	0		D	
ei	ei	0		D	
  	ei	0		V	neg
sa	sina	0		P	sg n
muido	####				
eladagi	ela	da	gi	V	da
kui	kui	0		D	
   	kui	0		J	
andis	and	is		V	s
ei	ei	0		D	
  	ei	0		V	neg
teed	tee	d		S	pl n
    	tege	d		V	d
    	tee	d		S	sg p
,	,			Z	
siis	siis	0		D	
    	siis	0		J	
proua	proua	0		S	sg g
     	proua	0		S	sg n
on	ole	0		V	b
  	ole	0		V	vad
ütelnud	ütle	nud		V	nud
       	ütel=nu	d		S	pl n
       	ütel=nud	0		A	
       	ütel=nud	0		A	sg n
       	ütel=nud	d		A	pl n
sinule	sina	le		P	sg all
ei	ei	0		D	
  	ei	0		V	neg
läve	lävi	0		S	sg g
    	lävi	0		S	sg p
ja	ja	0		J	
sinna	sinna	0		D	
häbemata	häbemata	0		D	
joodik	joodik	0		A	sg n
      	joodik	0		S	sg n
käid	käi	d		V	d
minu	mina	0		P	sg g
siia	siia	0		D	
    	siig	0		S	sg g
nurme	nurm	0		S	adt
     	nurm	0		S	sg g
     	nurm	0		S	sg p
peale	pea	le		S	sg all
     	peale	0		D	
     	peale	0		K	
Suuskma	####				
seda	see	da		P	sg p
seda	see	da		P	sg p
mina	mina	0		P	sg n
    	mina	0		S	sg g
    	mina	0		S	sg n
    	mina	0		S	sg p
taha	taht	0		V	o
    	taha	0		D	
    	taha	0		K	
kaebata	####				
et	et	0		J	
sa	sina	0		P	sg n
tuled	tuli	d		S	pl n
     	tule	d		V	d
minu	mina	0		P	sg g
nurme	nurm	0		S	adt
     	nurm	0		S	sg g
     	nurm	0		S	sg p
peale	pea	le		S	sg all
     	peale	0		D	
     	peale	0		K	
haugutama	hauku	tama		V	tama
         	hauguta	ma		V	ma
sea	sead	0		V	o
   	siga	0		A	sg g
   	siga	0		S	sg g
.	.			Z	
ja	ja	0		J	
peale	pea	le		S	sg all
     	peale	0		D	
     	peale	0		K	
selle	see	0		P	sg g
     	sell	e		S	pl p
oleva	olev	0		A	sg g
     	olev	0		S	sg g
mõlema	mõlema	0		P	sg g
vastamise	vastamine	0		S	sg g
jageelesnud	####				
.	.			Z	
see	see	0		P	sg n
tüli	tüli	0		S	sg g
    	tüli	0		S	sg n
    	tüli	0		S	sg p
on	ole	0		V	b
  	ole	0		V	vad
olnud	ol=nud	0		A	
     	ol=nud	0		A	sg n
     	ol=nud	d		A	pl n
     	ole	nud		V	nud
     	olnu	d		S	pl n
Võõpsu	####				
karjamõisa	karja_mõis	0		S	sg g
nurme	nurm	0		S	adt
     	nurm	0		S	sg g
     	nurm	0		S	sg p
peal	pea	l		S	sg ad
    	peal	0		D	
    	peal	0		K	
linu	lina	u		S	pl p
kakjademann	####				
Hans	Hans	0		H	sg n
Madis	Madis	0		H	sg n
     	madis	0		S	sg n
tunnistas	tunnista	s		V	s
et	et	0		J	
Jaan	Jaan	0		H	sg n
    	jaan	0		S	sg n
    	jaan	0		Y	?
Puksand	puks_and	0		S	sg n
on	ole	0		V	b
  	ole	0		V	vad
prouale	proua	le		S	sg all
ütelnud	ütle	nud		V	nud
       	ütel=nu	d		S	pl n
       	ütel=nud	0		A	
       	ütel=nud	0		A	sg n
       	ütel=nud	d		A	pl n
,	,			Z	
et	et	0		J	
sinna	sinna	0		D	
saad	saa	d		V	d
    	saad	0		S	sg n
viina	viin	0		S	adt
     	viin	0		S	sg g
     	viin	0		S	sg p
surma	surm	0		S	adt
     	surm	0		S	sg g
     	surma	0		V	o
     	surm	0		S	sg p
koolma	kool	ma		V	ma
;	;			Z	
seda	see	da		P	sg p
on	ole	0		V	b
  	ole	0		V	vad
tema	tema	0		P	sg g
    	tema	0		P	sg n
kuulu	kuuld	0		S	sg g
     	kuulu	0		V	o
.	.			Z	
tunnistuse	tunnistus	0		S	sg g
pärast	pära	st		S	sg el
      	pärane	t		A	sg p
      	pärast	0		D	
      	pärast	0		K	
jääs	jää	s		S	sg in
poolele	pool	le		N	sg all
       	pool	le		S	sg all
.	.			Z	
