kaebas	kaeba	s		V	s
Ants	Ants	0		H	sg n
Liivak	liivak	0		S	sg n
et	et	0		J	
Kusta	Kusta	0		H	sg g
     	Kusta	0		H	sg n
     	kuse	ta		V	da
     	kuse	ta		V	ta
Söukand	####				
ning	ning	0		J	
Jaan	Jaan	0		H	sg n
    	jaan	0		S	sg n
    	jaan	0		Y	?
Karsna	####				
kari	kari	0		S	sg g
    	kari	0		S	sg n
    	kari	0		S	sg p
olid	ole	id		V	sid
mõisa	mõis	0		S	sg g
mõtsas	####				
olnud	ol=nud	0		A	
     	ol=nud	0		A	sg n
     	ol=nud	d		A	pl n
     	ole	nud		V	nud
     	olnu	d		S	pl n
ning	ning	0		J	
nõuab	nõud	b		V	b
selle	see	0		P	sg g
     	sell	e		S	pl p
eest	eest	0		D	
    	eest	0		K	
    	esi	st		S	sg el
1	1	0		N	?
rbl	rbl	0		Y	?
kummagi	kumbki	gi		P	sg g
eest	eest	0		D	
    	eest	0		K	
    	esi	st		S	sg el
.	.			Z	
tuli	tuli	0		S	sg n
    	tule	i		V	s
ette	ette	0		D	
    	ette	0		K	
    	esi	tte		S	adt
Peeter	Peeter	0		H	sg n
Karsna	####				
ning	ning	0		J	
tunnist	tund	st		S	sg el
       	tunnine	t		A	sg p
et	et	0		J	
olid	ole	id		V	sid
olnud	ol=nud	0		A	
     	ol=nud	0		A	sg n
     	ol=nud	d		A	pl n
     	ole	nud		V	nud
     	olnu	d		S	pl n
küll	küll	0		D	
    	küll	0		S	sg n
karjaga	kari	ga		S	sg kom
mõtsas	####				
käinud	käi	nud		V	nud
      	käi=nud	0		A	
      	käi=nud	0		A	sg n
      	käi=nud	d		A	pl n
      	käinu	d		S	pl n
.	.			Z	
otsus	otsus	0		S	sg n
.	.			Z	
Leppisid	leppi	sid		V	sid
enda	ise	0		P	sg g
vahel	vahe	l		S	sg ad
     	vahel	0		D	
     	vahel	0		K	
niiviisi	nii_viisi	0		D	
ära	ära	0		D	
   	ära	0		V	neg o
et	et	0		J	
peremehed	pere_mees	d		S	pl n
ei	ei	0		D	
  	ei	0		V	neg
tohi	tohti	0		V	o
ennam	####				
mõisa	mõis	0		S	sg g
metsa	mets	0		S	adt
     	mets	0		S	sg g
     	mets	0		S	sg p
karja	kari	0		S	adt
     	kari	0		S	sg g
     	kari	0		S	sg p
lasta	lask	ta		V	da
     	lask	ta		V	ta
ja	ja	0		J	
kui	kui	0		D	
   	kui	0		J	
peremehed	pere_mees	d		S	pl n
seda	see	da		P	sg p
peasi	####				
vastu	vastu	0		D	
     	vastu	0		K	
keeldud	keeldu	d		V	d
tegema	tege	ma		V	ma
siis	siis	0		D	
    	siis	0		J	
maksab	maks	b		V	b
iga	iga	0		P	sg g
   	iga	0		P	sg n
   	iga	0		P	sg p
   	iga	0		S	sg n
   	iga	0		S	sg p
peremees	pere_mees	0		S	sg n
5	5	0		N	?
rbl	rbl	0		Y	?
hõb	####				
.	.			Z	
trahvi	trahv	0		S	adt
      	trahv	0		S	sg g
      	trahvi	0		V	o
      	trahv	0		S	sg p
.	.			Z	
Peakohtunik	pea_kohtunik	0		S	sg n
:	:			Z	
Peeter	Peeter	0		H	sg n
Urtson	####				
kohutnik	####				
:	:			Z	
Kusta	Kusta	0		H	sg g
     	Kusta	0		H	sg n
     	kuse	ta		V	da
     	kuse	ta		V	ta
Rämman	####				
kohtunik	kohtunik	0		S	sg n
:	:			Z	
Jooosep	####				
Oinberg	####				
