kaebaja	kaebaja	0		S	sg g
       	kaebaja	0		S	sg n
.	.			Z	
Käepängis	####				
Adam	####				
Duberg	####				
teie	sina	0		P	pl g
    	sina	0		P	pl n
kaebust	kaebus	t		S	sg p
vastu	vastu	0		D	
     	vastu	0		K	
Jakob	Jakob	0		H	sg n
Haller	####				
tüteer	####				
Mai	Mai	0		H	sg g
   	Mai	0		H	sg n
   	mai	0		S	sg g
   	mai	0		S	sg n
Haller	####				
,	,			Z	
teenistuselepingi	####				
murdmisen	####				
ette	ette	0		D	
    	ette	0		K	
    	esi	tte		S	adt
,	,			Z	
kuna	kuna	0		D	
    	kuna	0		J	
seesama	see_sama	0		P	sg n
enda	ise	0		P	sg g
aastateenistuste	aasta_teenistus	te		S	pl g
leppinud	leppi	nud		V	nud
        	leppi=nu	d		S	pl n
        	leppi=nud	0		A	
        	leppi=nud	0		A	sg n
        	leppi=nud	d		A	pl n
_	_			Z	
ja	ja	0		J	
käeraha	käe_raha	0		S	sg g
       	käe_raha	0		S	sg n
       	käe_raha	0		S	sg p
võtnud	võt	nud		V	nud
      	võt=nu	d		S	pl n
      	võt=nud	0		A	
      	võt=nud	0		A	sg n
      	võt=nud	d		A	pl n
,	,			Z	
ometa	####				
mitte	mitte	0		D	
teenistusse	teenistus	se		S	adt
ostnud	ost	nud		V	nud
      	ost=nu	d		S	pl n
      	ost=nud	0		A	
      	ost=nud	0		A	sg n
      	ost=nud	d		A	pl n
,	,			Z	
selle	see	0		P	sg g
     	sell	e		S	pl p
palu	pala	u		S	pl p
    	palu	0		S	sg g
    	palu	0		V	o
    	palu	0		S	sg n
    	palu	0		S	sg p
kohut	kohus	t		S	sg p
,	,			Z	
et	et	0		J	
Mai	Mai	0		H	sg g
   	Mai	0		H	sg n
   	mai	0		S	sg g
   	mai	0		S	sg n
Haller	####				
saaks	saa	ks		V	ks
lepingu	leping	0		S	sg g
perra	####				
teenistusse	teenistus	se		S	adt
unnistus	####				
.	.			Z	
kaebatav	####				
.	.			Z	
Mai	Mai	0		H	sg g
   	Mai	0		H	sg n
   	mai	0		S	sg g
   	mai	0		S	sg n
Haller	####				
tuli	tuli	0		S	sg n
    	tule	i		V	s
oma	oma	0		A	sg g
   	oma	0		D	
   	oma	0		P	sg g
   	oma	0		S	sg g
   	oma	0		V	o
   	oma	0		A	sg n
   	oma	0		A	sg p
   	oma	0		P	sg n
   	oma	0		P	sg p
   	oma	0		S	sg n
   	oma	0		S	sg p
isa	isa	0		S	sg g
   	isa	0		S	sg n
   	isa	0		S	sg p
Jakob	Jakob	0		H	sg n
Haller	####				
olmannemisen	####				
ette	ette	0		D	
    	ette	0		K	
    	esi	tte		S	adt
,	,			Z	
ja	ja	0		J	
ütles	ütle	s		V	s
_	_			Z	
mina	mina	0		P	sg n
    	mina	0		S	sg g
    	mina	0		S	sg n
    	mina	0		S	sg p
küll	küll	0		D	
    	küll	0		S	sg n
Adam	####				
Dubergiga	####				
teenistuse	teenistus	0		S	sg g
lepingut	leping	t		S	sg p
kõneli	####				
_	_			Z	
ning	ning	0		J	
sai	saa	i		V	s
   	sai	0		S	sg n
kõneldus	kõneldu	s		S	sg in
,	,			Z	
et	et	0		J	
isa	isa	0		S	sg g
   	isa	0		S	sg n
   	isa	0		S	sg p
ja	ja	0		J	
ema	ema	0		S	sg g
   	ema	0		S	sg n
   	ema	0		S	sg p
ka	ka	0		D	
sinna	sinna	0		D	
_	_			Z	
kuna	kuna	0		D	
    	kuna	0		J	
Adam	####				
Duberg	####				
minu	mina	0		P	sg g
vanemaid	vanem	id		C	pl p
        	vanem	id		S	pl p
ei	ei	0		D	
  	ei	0		V	neg
võtta	võt	a		V	da
,	,			Z	
siis	siis	0		D	
    	siis	0		J	
ei	ei	0		D	
  	ei	0		V	neg
või	või	0		S	sg g
   	või	0		V	o
   	või	0		D	
   	või	0		J	
   	või	0		S	sg n
ka	ka	0		D	
enam	enam	0		C	sg n
    	enam	0		D	
mina	mina	0		P	sg n
    	mina	0		S	sg g
    	mina	0		S	sg n
    	mina	0		S	sg p
.	.			Z	
Adam	####				
Duberg	####				
ütles	ütle	s		V	s
ka	ka	0		D	
ise	ise	0		A	
   	ise	0		D	
   	ise	0		P	pl n
   	ise	0		P	sg n
,	,			Z	
et	et	0		J	
Mai	Mai	0		H	sg g
   	Mai	0		H	sg n
   	mai	0		S	sg g
   	mai	0		S	sg n
Haller	####				
küll	küll	0		D	
    	küll	0		S	sg n
vanemite	####				
pärast	pära	st		S	sg el
      	pärane	t		A	sg p
      	pärast	0		D	
      	pärast	0		K	
kõnelnud	kõnel=nu	d		S	pl n
        	kõnel=nud	0		A	
        	kõnel=nud	0		A	sg n
        	kõnel=nud	d		A	pl n
        	kõnele	nud		V	nud
_	_			Z	
ega	ega	0		D	
   	ega	0		J	
isa	isa	0		S	sg g
   	isa	0		S	sg n
   	isa	0		S	sg p
ehk	ehk	0		D	
   	ehk	0		J	
vanemase	vanem_ase	0		S	sg n
kord	kord	0		D	
    	kord	0		S	sg n
mitte	mitte	0		D	
seal	seal	0		D	
    	siga	l		A	sg ad
    	siga	l		S	sg ad
olnud	ol=nud	0		A	
     	ol=nud	0		A	sg n
     	ol=nud	d		A	pl n
     	ole	nud		V	nud
     	olnu	d		S	pl n
_	_			Z	
siis	siis	0		D	
    	siis	0		J	
peale	pea	le		S	sg all
     	peale	0		D	
     	peale	0		K	
lepingu	leping	0		S	sg g
tema	tema	0		P	sg g
    	tema	0		P	sg n
isa	isa	0		S	sg g
   	isa	0		S	sg n
   	isa	0		S	sg p
manu	manu	0		D	
    	manu	0		K	
läinud	läinu	d		S	pl n
      	läinud	0		A	
      	läinud	0		A	sg n
      	läinud	d		A	pl n
      	mine	nud		V	nud
ning	ning	0		J	
selle	see	0		P	sg g
     	sell	e		S	pl p
käest	käest	0		K	
     	käsi	st		S	sg el
nõudnud	nõud	nud		V	nud
       	nõud=nu	d		S	pl n
       	nõud=nud	0		A	
       	nõud=nud	0		A	sg n
       	nõud=nud	d		A	pl n
_	_			Z	
kas	kas	0		D	
ühes	üks	s		N	sg in
    	üks	s		P	sg in
    	ühes	0		D	
    	ühes	0		K	
tuleva	tulev	0		A	sg g
ehk	ehk	0		D	
   	ehk	0		J	
mitte	mitte	0		D	
_	_			Z	
need	see	d		P	pl n
siis	siis	0		D	
    	siis	0		J	
see	see	0		P	sg n
kord	kord	0		D	
    	kord	0		S	sg n
ühtegi	ühte	0	gi	D	
      	üks	0	gi	N	adt
      	üks	0	gi	P	adt
      	ühe	0	gi	S	sg g
      	üks	0	gi	N	sg p
      	üks	0	gi	P	sg p
otsust	otsus	t		S	sg p
andnud	and	nud		V	nud
      	and=nu	d		S	pl n
      	and=nud	0		A	
      	and=nud	0		A	sg n
      	and=nud	d		A	pl n
,	,			Z	
ja	ja	0		J	
enamiste	####				
ütelnud	ütle	nud		V	nud
       	ütel=nu	d		S	pl n
       	ütel=nud	0		A	
       	ütel=nud	0		A	sg n
       	ütel=nud	d		A	pl n
,	,			Z	
et	et	0		J	
temast	tema	st		P	sg el
küll	küll	0		D	
    	küll	0		S	sg n
palju	palju	0		D	
     	palju	0		P	sg g
     	palju	0		P	sg n
minejat	mineja	t		S	sg p
ei	ei	0		D	
  	ei	0		V	neg
sa	sina	0		P	sg n
_	_			Z	
selle	see	0		P	sg g
     	sell	e		S	pl p
et	et	0		J	
sittamaa	####				
Allapralõh	####				
.	.			Z	
tunnistuusi	####				
ühtegi	ühte	0	gi	D	
      	üks	0	gi	N	adt
      	üks	0	gi	P	adt
      	ühe	0	gi	S	sg g
      	üks	0	gi	N	sg p
      	üks	0	gi	P	sg p
ei	ei	0		D	
  	ei	0		V	neg
ole	ole	0		V	o
enne	enne	0		D	
    	enne	0		K	
    	enne	0		S	sg n
kui	kui	0		D	
   	kui	0		J	
ka	ka	0		D	
nüüd	nüüd	0		D	
,	,			Z	
selle	see	0		P	sg g
     	sell	e		S	pl p
arvad	arva	d		V	d
kohus	kohu	s		V	s
     	kohus	0		S	sg n
otsusele	otsus	le		S	sg all
mina	mina	0		P	sg n
    	mina	0		S	sg g
    	mina	0		S	sg n
    	mina	0		S	sg p
ja	ja	0		J	
mõistis	mõist	is		V	s
:	:			Z	
Adam	####				
Duberg	####				
kaebus	kaebus	0		S	sg n
vastu	vastu	0		D	
     	vastu	0		K	
Mai	Mai	0		H	sg g
   	Mai	0		H	sg n
   	mai	0		S	sg g
   	mai	0		S	sg n
Haller	####				
,	,			Z	
teenistuse	teenistus	0		S	sg g
lepingu	leping	0		S	sg g
murdmisen	####				
,	,			Z	
on	ole	0		V	b
  	ole	0		V	vad
eesmalt	####				
juba	juba	0		D	
ilmettekaemata	####				
ja	ja	0		J	
korrata	kord	ta		S	sg ab
       	korda	ta		V	da
       	korda	ta		V	ta
tehtud	tehtu	d		S	pl n
      	tehtud	0		A	
      	tehtud	0		A	sg n
      	tehtud	d		A	pl n
      	tege	tud		V	tud
saanud	saa	nud		V	nud
      	saa=nud	0		A	
      	saa=nud	0		A	sg n
      	saa=nud	d		A	pl n
      	saanu	d		S	pl n
_	_			Z	
kui	kui	0		D	
   	kui	0		J	
Mai	Mai	0		H	sg g
   	Mai	0		H	sg n
   	mai	0		S	sg g
   	mai	0		S	sg n
Haller	####				
lepingu	leping	0		S	sg g
tegemise	tegemine	0		S	sg g
man	man	0		D	
   	man	0		K	
vanemite	####				
pärast	pära	st		S	sg el
      	pärane	t		A	sg p
      	pärast	0		D	
      	pärast	0		K	
kõneli	####				
_	_			Z	
siis	siis	0		D	
    	siis	0		J	
ei	ei	0		D	
  	ei	0		V	neg
või	või	0		S	sg g
   	või	0		V	o
   	või	0		D	
   	või	0		J	
   	või	0		S	sg n
mitte	mitte	0		D	
vanemisega	####				
selgeste	####				
kokukõneldus	####				
sama	sama	0		P	sg g
    	sama	0		P	sg n
    	sama	0		P	sg p
_	_			Z	
ning	ning	0		J	
siis	siis	0		D	
    	siis	0		J	
veel	veel	0		D	
    	vesi	l		S	sg ad
käeraha	käe_raha	0		S	sg g
       	käe_raha	0		S	sg n
       	käe_raha	0		S	sg p
andma	and	ma		V	ma
,	,			Z	
kas	kas	0		D	
üksinda	üksinda	0		D	
ehk	ehk	0		D	
   	ehk	0		J	
vanemisega	####				
_	_			Z	
ning	ning	0		J	
siis	siis	0		D	
    	siis	0		J	
pidanud	pida	nud		V	nud
       	pida=nu	d		S	pl n
       	pida=nud	0		A	
       	pida=nud	0		A	sg n
       	pida=nud	d		A	pl n
ka	ka	0		D	
kaks	kaks	0		N	sg n
tunnistajat	tunnistaja	t		S	sg p
_	_			Z	
nõnda	nõnda	0		D	
kui	kui	0		D	
   	kui	0		J	
seadus	seadu	s		V	s
      	seadus	0		A	sg n
      	seadus	0		S	sg n
nõuab	nõud	b		V	b
manu	manu	0		D	
    	manu	0		K	
võtma	võt	ma		V	ma
_	_			Z	
nüüd	nüüd	0		D	
on	ole	0		V	b
  	ole	0		V	vad
küll	küll	0		D	
    	küll	0		S	sg n
teenistuse	teenistus	0		S	sg g
kaup	kaup	0		S	sg n
tehtu	tehtu	0		S	sg g
     	tehtud	0		A	sg g
     	tehtu	0		S	sg n
_	_			Z	
ega	ega	0		D	
   	ega	0		J	
mitte	mitte	0		D	
nõnda	nõnda	0		D	
kui	kui	0		D	
   	kui	0		J	
pidi	pida	i		V	s
    	pidi	0		K	
olema	ole	ma		V	ma
_	_			Z	
selle	see	0		P	sg g
     	sell	e		S	pl p
on	ole	0		V	b
  	ole	0		V	vad
kohus	kohu	s		V	s
     	kohus	0		S	sg n
pidanud	pida	nud		V	nud
       	pida=nu	d		S	pl n
       	pida=nud	0		A	
       	pida=nud	0		A	sg n
       	pida=nud	d		A	pl n
seda	see	da		P	sg p
lepingut	leping	t		S	sg p
tühjaks	tühi	ks		A	sg tr
arvama	arva	ma		V	ma
.	.			Z	
kohtu	kohtu	0		V	o
     	kohus	0		S	sg g
poolt	pool	t		N	sg p
     	pool	t		S	sg p
     	poolt	0		D	
     	poolt	0		K	
on	ole	0		V	b
  	ole	0		V	vad
siiski	siiski	0		D	
keelamata	keela	mata		V	mata
         	keela=mata	0		A	
_	_			Z	
kui	kui	0		D	
   	kui	0		J	
Adam	####				
Duberg	####				
Mai	Mai	0		H	sg g
   	Mai	0		H	sg n
   	mai	0		S	sg g
   	mai	0		S	sg n
Halleri	####				
vanema	vanem	0		C	sg g
      	vanem	0		S	sg g
sinna	sinna	0		D	
võtab	võt	b		V	b
_	_			Z	
siis	siis	0		D	
    	siis	0		J	
tagu	####				
selge	selge	0		A	sg g
     	selge	0		A	sg n
leping	leping	0		S	sg n
_	_			Z	
ja	ja	0		J	
mmiku	####				
.	.			Z	
