Meelva	####				
küla	küla	0		S	sg g
    	küla	0		S	sg n
    	küla	0		S	sg p
peremehed	pere_mees	d		S	pl n
,	,			Z	
Hans	Hans	0		H	sg n
vares	vare	s		S	sg in
     	vares	0		S	sg n
Karl	Karl	0		H	sg n
vakahats	####				
,	,			Z	
ning	ning	0		J	
Jaan	Jaan	0		H	sg n
    	jaan	0		S	sg n
    	jaan	0		Y	?
vakahats	####				
kaebasid	kaeba	sid		V	sid
kohtu	kohtu	0		V	o
     	kohus	0		S	sg g
ees	ees	0		D	
   	ees	0		K	
   	esi	s		S	sg in
,	,			Z	
et	et	0		J	
Tammustu	####				
küla	küla	0		S	sg g
    	küla	0		S	sg n
    	küla	0		S	sg p
peremehed	pere_mees	d		S	pl n
nende	see	de		P	pl g
     	tema	de		P	pl g
heinu	hein	u		S	pl p
kuhjad	kuhja	d		V	d
      	kuhi	d		S	pl n
ära	ära	0		D	
   	ära	0		V	neg o
on	ole	0		V	b
  	ole	0		V	vad
söötnud	sööt	nud		V	nud
       	sööt=nu	d		S	pl n
       	sööt=nud	0		A	
       	sööt=nud	0		A	sg n
       	sööt=nud	d		A	pl n
.	.			Z	
söödjad	####				
peavad	pida	vad		V	vad
olema	ole	ma		V	ma
1	1	0		N	?
Kristjan	Kristjan	0		H	sg n
Tolstberg	####				
,	,			Z	
2	2	0		N	?
Viido	####				
Pedmanson	####				
,	,			Z	
3	3	0		N	?
Karl	Karl	0		H	sg n
Jagoson	####				
,	,			Z	
4	4	0		N	?
Jaan	Jaan	0		H	sg n
    	jaan	0		S	sg n
    	jaan	0		Y	?
Hindov	####				
ning	ning	0		J	
5	5	0		N	?
Kristjan	Kristjan	0		H	sg n
Punnisson	####				
ja	ja	0		J	
6	6	0		N	?
Jaan	Jaan	0		H	sg n
    	jaan	0		S	sg n
    	jaan	0		Y	?
essoon	####				
,	,			Z	
7	7	0		N	?
Paap	####				
Hedoks	####				
küsitud	küsi	tud		V	tud
       	küsi=tu	d		S	pl n
       	küsi=tud	0		A	
       	küsi=tud	0		A	sg n
       	küsi=tud	d		A	pl n
sai	saa	i		V	s
   	sai	0		S	sg n
:	:			Z	
Kristjan	Kristjan	0		H	sg n
Tolstberg	####				
ütles	ütle	s		V	s
et	et	0		J	
karja	kari	0		S	adt
     	kari	0		S	sg g
     	kari	0		S	sg p
laps	laps	0		S	sg n
on	ole	0		V	b
  	ole	0		V	vad
lasknud	lask	nud		V	nud
       	lask=nu	d		S	pl n
       	lask=nud	0		A	
       	lask=nud	0		A	sg n
       	lask=nud	d		A	pl n
tema	tema	0		P	sg g
    	tema	0		P	sg n
elajad	elajas	d		S	pl n
kuhja	kuhja	0		V	o
     	kuhi	0		S	adt
     	kuhi	0		S	sg g
     	kuhi	0		S	sg p
peal	pea	l		S	sg ad
    	peal	0		D	
    	peal	0		K	
sööva	sööv	0		A	sg g
Karl	Karl	0		H	sg n
Jagoson	####				
,	,			Z	
Viido	####				
Pedmanson	####				
ei	ei	0		D	
  	ei	0		V	neg
ole	ole	0		V	o
kohtu	kohtu	0		V	o
     	kohus	0		S	sg g
manu	manu	0		D	
    	manu	0		K	
tulnud	tul=nud	0		A	
      	tul=nud	0		A	sg n
      	tul=nud	d		A	pl n
      	tule	nud		V	nud
      	tulnu	d		S	pl n
.	.			Z	
Jaan	Jaan	0		H	sg n
    	jaan	0		S	sg n
    	jaan	0		Y	?
Hindov	####				
ei	ei	0		D	
  	ei	0		V	neg
ole	ole	0		V	o
tulnud	tul=nud	0		A	
      	tul=nud	0		A	sg n
      	tul=nud	d		A	pl n
      	tule	nud		V	nud
      	tulnu	d		S	pl n
.	.			Z	
Kristjan	Kristjan	0		H	sg n
Punnisson	####				
ütles	ütle	s		V	s
et	et	0		J	
tema	tema	0		P	sg g
    	tema	0		P	sg n
elaja	elajas	0		S	sg g
jalg	jalg	0		S	sg n
ei	ei	0		D	
  	ei	0		V	neg
ole	ole	0		V	o
saanud	saa	nud		V	nud
      	saa=nud	0		A	
      	saa=nud	0		A	sg n
      	saa=nud	d		A	pl n
      	saanu	d		S	pl n
senna	senna	0		S	sg g
     	senna	0		S	sg n
kuhja	kuhja	0		V	o
     	kuhi	0		S	adt
     	kuhi	0		S	sg g
     	kuhi	0		S	sg p
manu	manu	0		D	
    	manu	0		K	
,	,			Z	
Jaan	Jaan	0		H	sg n
    	jaan	0		S	sg n
    	jaan	0		Y	?
essoon	####				
tunnistas	tunnista	s		V	s
sanu	####				
kui	kui	0		D	
   	kui	0		J	
Kristjani	Kristjan	0		H	sg g
kari	kari	0		S	sg g
    	kari	0		S	sg n
    	kari	0		S	sg p
on	ole	0		V	b
  	ole	0		V	vad
käinud	käi	nud		V	nud
      	käi=nud	0		A	
      	käi=nud	0		A	sg n
      	käi=nud	d		A	pl n
      	käinu	d		S	pl n
seal	seal	0		D	
    	siga	l		A	sg ad
    	siga	l		S	sg ad
,	,			Z	
ja	ja	0		J	
nii	nii	0		D	
sama	sama	0		P	sg g
    	sama	0		P	sg n
    	sama	0		P	sg p
tunnistas	tunnista	s		V	s
karjus	karju	s		V	s
      	karjus	0		S	sg n
Jakob	Jakob	0		H	sg n
Tolstberg	####				
.	.			Z	
Jaan	Jaan	0		H	sg n
    	jaan	0		S	sg n
    	jaan	0		Y	?
essoon	####				
tunnistas	tunnista	s		V	s
,	,			Z	
et	et	0		J	
tema	tema	0		P	sg g
    	tema	0		P	sg n
elajad	elajas	d		S	pl n
ei	ei	0		D	
  	ei	0		V	neg
ole	ole	0		V	o
olnud	ol=nud	0		A	
     	ol=nud	0		A	sg n
     	ol=nud	d		A	pl n
     	ole	nud		V	nud
     	olnu	d		S	pl n
mitte	mitte	0		D	
Meelva	####				
niidu	niit	0		S	sg g
peal	pea	l		S	sg ad
    	peal	0		D	
    	peal	0		K	
,	,			Z	
kahju	kahi	0		S	adt
     	kahi	0		S	sg g
     	kahi	0		S	sg p
     	kahju	0		S	sg g
     	kahju	0		S	sg n
     	kahju	0		S	sg p
üle	üle	0		D	
   	üle	0		K	
kaeman	####				
on	ole	0		V	b
  	ole	0		V	vad
olnud	ol=nud	0		A	
     	ol=nud	0		A	sg n
     	ol=nud	d		A	pl n
     	ole	nud		V	nud
     	olnu	d		S	pl n
kohtumees	kohtu_mees	0		S	sg n
Gustav	Gustav	0		H	sg n
Tolmuk	####				
Vöölmünder	####				
Vidrik	####				
Mellberg	####				
Frits	frits	0		S	sg n
solnask	####				
,	,			Z	
kahju	kahi	0		S	adt
     	kahi	0		S	sg g
     	kahi	0		S	sg p
     	kahju	0		S	sg g
     	kahju	0		S	sg n
     	kahju	0		S	sg p
on	ole	0		V	b
  	ole	0		V	vad
arvatud	arva	tud		V	tud
       	arva=tu	d		S	pl n
       	arva=tud	0		A	
       	arva=tud	0		A	sg n
       	arva=tud	d		A	pl n
Paap	####				
Jagondil	####				
1	1	0		N	?
rubla	rubla	0		S	sg g
     	rubla	0		S	sg n
     	rubla	0		S	sg p
eest	eest	0		D	
    	eest	0		K	
    	esi	st		S	sg el
Issak	####				
Pabuskil	####				
1	1	0		N	?
rubla	rubla	0		S	sg g
     	rubla	0		S	sg n
     	rubla	0		S	sg p
eest	eest	0		D	
    	eest	0		K	
    	esi	st		S	sg el
Karl	Karl	0		H	sg n
hakatatsil	####				
2	2	0		N	?
rubla	rubla	0		S	sg g
     	rubla	0		S	sg n
     	rubla	0		S	sg p
eest	eest	0		D	
    	eest	0		K	
    	esi	st		S	sg el
Hans	Hans	0		H	sg n
vares	vare	s		S	sg in
     	vares	0		S	sg n
2	2	0		N	?
rubla	rubla	0		S	sg g
     	rubla	0		S	sg n
     	rubla	0		S	sg p
eest	eest	0		D	
    	eest	0		K	
    	esi	st		S	sg el
Jaan	Jaan	0		H	sg n
    	jaan	0		S	sg n
    	jaan	0		Y	?
hakatatsil	####				
2	2	0		N	?
rubla	rubla	0		S	sg g
     	rubla	0		S	sg n
     	rubla	0		S	sg p
eest	eest	0		D	
    	eest	0		K	
    	esi	st		S	sg el
kohus	kohu	s		V	s
     	kohus	0		S	sg n
mõistis	mõist	is		V	s
,	,			Z	
et	et	0		J	
need	see	d		P	pl n
lassidsed	####				
peavad	pida	vad		V	vad
trahvi	trahv	0		S	adt
      	trahv	0		S	sg g
      	trahvi	0		V	o
      	trahv	0		S	sg p
maksma	maks	ma		V	ma
nii	nii	0		D	
kui	kui	0		D	
   	kui	0		J	
siin	siin	0		D	
    	siin	0		S	sg n
õlen	####				
on	ole	0		V	b
  	ole	0		V	vad
üles	üles	0		D	
tähenteodo	####				
peavad	pida	vad		V	vad
maksma	maks	ma		V	ma
Kristjan	Kristjan	0		H	sg n
Tolstberg	####				
2	2	0		N	?
rubla	rubla	0		S	sg g
     	rubla	0		S	sg n
     	rubla	0		S	sg p
Viido	####				
ja	ja	0		J	
Paap	####				
Pedmanson	####				
2	2	0		N	?
rubla	rubla	0		S	sg g
     	rubla	0		S	sg n
     	rubla	0		S	sg p
Jaan	Jaan	0		H	sg n
    	jaan	0		S	sg n
    	jaan	0		Y	?
essoon	####				
1	1	0		N	?
R	R	0		Y	?
Paap	####				
Hedoks	####				
1	1	0		N	?
rubla	rubla	0		S	sg g
     	rubla	0		S	sg n
     	rubla	0		S	sg p
Jaan	Jaan	0		H	sg n
    	jaan	0		S	sg n
    	jaan	0		Y	?
Hindov	####				
67	67	0		N	?
kop	kop	0		Y	?
Karl	Karl	0		H	sg n
Jagoson	####				
67	67	0		N	?
kop	kop	0		Y	?
Kristjan	Kristjan	0		H	sg n
Punnisson	####				
67	67	0		N	?
kop	kop	0		Y	?
6	6	0		N	?
Novembril	november	l		S	sg ad
peab	pida	b		V	b
makstud	maks	tud		V	tud
       	maks=tu	d		S	pl n
       	maks=tud	0		A	
       	maks=tud	0		A	sg n
       	maks=tud	d		A	pl n
olema	ole	ma		V	ma
