ette	ette	0		D	
    	ette	0		K	
    	esi	tte		S	adt
tuli	tuli	0		S	sg n
    	tule	i		V	s
kirepi	####				
mölder	mölder	0		S	sg n
Gustav	Gustav	0		H	sg n
Roose	roos	e		S	pl p
ja	ja	0		J	
pani	pan	0		S	adt
    	pani	0		S	sg g
    	pane	i		V	s
    	pan	0		S	sg g
    	pan	0		S	sg p
    	pani	0		S	sg n
kogukonna	kogukond	0		S	sg g
kohtule	kohus	le		S	sg all
ette	ette	0		D	
    	ette	0		K	
    	esi	tte		S	adt
,	,			Z	
et	et	0		J	
tema	tema	0		P	sg g
    	tema	0		P	sg n
olevat	ole	vat		V	vat
      	olev	t		A	sg p
      	olev	t		S	sg p
Vastse	vastne	0		A	sg g
      	vastne	0		S	sg g
kakseritsa	####				
mõisavalitsusele	mõisa_valitsus	le		S	sg all
kirepi	####				
veski	veski	0		S	sg g
     	veski	0		S	sg n
ja	ja	0		J	
kõrtsi	kõrts	0		S	adt
      	kõrts	0		S	sg g
      	kõrts	0		S	sg p
eest	eest	0		D	
    	eest	0		K	
    	esi	st		S	sg el
1	1	0		N	?
poole	pool	0		N	sg g
     	pool	0		S	sg g
     	pool	e		S	pl p
     	poole	0		K	
     	poole	0		S	sg n
1886	1886	0		N	?
aasta	aasta	0		S	sg g
     	aasta	0		S	sg n
eest	eest	0		D	
    	eest	0		K	
    	esi	st		S	sg el
renti	rent	0		S	adt
     	rent	0		S	sg p
pakkunu	pakku=nu	0		S	sg g
       	pakku=nu	0		S	sg n
,	,			Z	
ent	ent	0		J	
ei	ei	0		D	
  	ei	0		V	neg
olevat	ole	vat		V	vat
      	olev	t		A	sg p
      	olev	t		S	sg p
vastu	vastu	0		D	
     	vastu	0		K	
võetud	võe=tu	d		S	pl n
      	võetud	0		A	
      	võetud	0		A	sg n
      	võetud	d		A	pl n
      	võt	tud		V	tud
,	,			Z	
selle	see	0		P	sg g
     	sell	e		S	pl p
pärast	pära	st		S	sg el
      	pärane	t		A	sg p
      	pärast	0		D	
      	pärast	0		K	
paluvat	palu	vat		V	vat
       	paluv	t		A	sg p
tema	tema	0		P	sg g
    	tema	0		P	sg n
kogukonna	kogukond	0		S	sg g
kohut	kohus	t		S	sg p
seda	see	da		P	sg p
renti	rent	0		S	adt
     	rent	0		S	sg p
kakssaada	####				
viiskümmend	viis_kümmend	0		N	sg n
rubla	rubla	0		S	sg g
     	rubla	0		S	sg n
     	rubla	0		S	sg p
vastu	vastu	0		D	
     	vastu	0		K	
võtta	võt	a		V	da
.	.			Z	
otsus	otsus	0		S	sg n
:	:			Z	
seda	see	da		P	sg p
täita	täi	ta		S	sg ab
     	täi	ta		V	ta
     	täit	a		V	da
     	täita	0		V	o
ja	ja	0		J	
seda	see	da		P	sg p
mõisavalitsusele	mõisa_valitsus	le		S	sg all
teatudstada	####				
.	.			Z	
peakohtumees	pea_kohtu_mees	0		S	sg n
J	J	0		Y	?
.	.			Z	
_	_			Z	
Kabist	####				
[	[			Z	
allkiri	all_kiri	0		S	sg n
]	]			Z	
kohtumees	kohtu_mees	0		S	sg n
:	:			Z	
P	P	0		Y	?
.	.			Z	
_	_			Z	
Klaas	klaas	0		S	sg n
[	[			Z	
allkiri	all_kiri	0		S	sg n
]	]			Z	
