No	no	0		I	
116	116	0		N	?
edasiminek	edasi_minek	0		S	sg n
.	.			Z	
tuli	tuli	0		S	sg n
    	tule	i		V	s
ette	ette	0		D	
    	ette	0		K	
    	esi	tte		S	adt
Viidu	vii=du	0		S	sg g
     	vii=du	0		S	sg n
kübar	kübar	0		S	sg n
ning	ning	0		J	
tunnist	tund	st		S	sg el
       	tunnine	t		A	sg p
et	et	0		J	
Jakob	Jakob	0		H	sg n
Parmann	####				
oli	ole	i		V	s
ütelnud	ütle	nud		V	nud
       	ütel=nu	d		S	pl n
       	ütel=nud	0		A	
       	ütel=nud	0		A	sg n
       	ütel=nud	d		A	pl n
et	et	0		J	
minu	mina	0		P	sg g
vigel	vigel	0		S	sg n
jäi	jää	i		V	s
Glaasmanni	####				
kätte	kätte	0		K	
     	käsi	tte		S	adt
ning	ning	0		J	
ei	ei	0		D	
  	ei	0		V	neg
tea	tead	0		V	o
kus	kus	0		D	
on	ole	0		V	b
  	ole	0		V	vad
jäänud	jää	nud		V	nud
      	jäänu	d		S	pl n
      	jäänud	0		A	
      	jäänud	0		A	sg n
      	jäänud	d		A	pl n
ning	ning	0		J	
Jooosep	####				
Söukand	####				
oli	ole	i		V	s
ütelnud	ütle	nud		V	nud
       	ütel=nu	d		S	pl n
       	ütel=nud	0		A	
       	ütel=nud	0		A	sg n
       	ütel=nud	d		A	pl n
et	et	0		J	
mina	mina	0		P	sg n
    	mina	0		S	sg g
    	mina	0		S	sg n
    	mina	0		S	sg p
vast	vast	0		D	
ikka	ikka	0		D	
    	iga	0		S	adt
tea	tead	0		V	o
ja	ja	0		J	
tema	tema	0		P	sg g
    	tema	0		P	sg n
(	(			Z	
Kübard	####				
)	)			Z	
oli	ole	i		V	s
küsinud	küsi	nud		V	nud
       	küsi=nu	d		S	pl n
       	küsi=nud	0		A	
       	küsi=nud	0		A	sg n
       	küsi=nud	d		A	pl n
vast	vast	0		D	
August	august	0		S	sg n
      	auk	st		S	sg el
      	August	0		H	sg n
Anderson	####				
viisi	viis	0		S	adt
     	viis	0		S	sg g
     	viis	i		N	pl p
     	viisi	0		K	
     	viis	0		S	sg p
ja	ja	0		J	
Jooosep	####				
Söukand	####				
oli	ole	i		V	s
ütelnud	ütle	nud		V	nud
       	ütel=nu	d		S	pl n
       	ütel=nud	0		A	
       	ütel=nud	0		A	sg n
       	ütel=nud	d		A	pl n
et	et	0		J	
vast	vast	0		D	
on	ole	0		V	b
  	ole	0		V	vad
ka	ka	0		D	
nii	nii	0		D	
.	.			Z	
Vastat	####				
Jooosep	####				
Söukand	####				
et	et	0		J	
tema	tema	0		P	sg g
    	tema	0		P	sg n
teab	tead	b		V	b
küll	küll	0		D	
    	küll	0		S	sg n
ühe	üks	0		N	sg g
   	üks	0		P	sg g
   	ühe	0		S	sg n
kaheharuga	kahe_haru	ga		S	sg kom
vigel	vigel	0		S	sg n
(	(			Z	
raudarutega	####				
)	)			Z	
ja	ja	0		J	
see	see	0		P	sg n
olevat	ole	vat		V	vat
      	olev	t		A	sg p
      	olev	t		S	sg p
Mihkel	Mihkel	0		H	sg n
      	mihkel	0		A	sg n
      	mihkel	0		S	sg n
Hansoni	####				
pool	pool	0		K	
    	pool	0		N	sg n
    	pool	0		S	sg n
,	,			Z	
vast	vast	0		D	
on	ole	0		V	b
  	ole	0		V	vad
see	see	0		P	sg n
Glaasmanni	####				
oma	oma	0		A	sg g
   	oma	0		D	
   	oma	0		P	sg g
   	oma	0		S	sg g
   	oma	0		V	o
   	oma	0		A	sg n
   	oma	0		A	sg p
   	oma	0		P	sg n
   	oma	0		P	sg p
   	oma	0		S	sg n
   	oma	0		S	sg p
ja	ja	0		J	
Viidu	vii=du	0		S	sg g
     	vii=du	0		S	sg n
kübard	####				
olevat	ole	vat		V	vat
      	olev	t		A	sg p
      	olev	t		S	sg p
seletanud	seleta	nud		V	nud
         	seleta=nu	d		S	pl n
         	seleta=nud	0		A	
         	seleta=nud	0		A	sg n
         	seleta=nud	d		A	pl n
et	et	0		J	
niisugune	nii_sugune	0		P	sg n
vigel	vigel	0		S	sg n
on	ole	0		V	b
  	ole	0		V	vad
laasmGanel	####				
olnud	ol=nud	0		A	
     	ol=nud	0		A	sg n
     	ol=nud	d		A	pl n
     	ole	nud		V	nud
     	olnu	d		S	pl n
ja	ja	0		J	
tema	tema	0		P	sg g
    	tema	0		P	sg n
on	ole	0		V	b
  	ole	0		V	vad
näinud	näi	nud		V	nud
      	näge	nud		V	nud
      	näi=nud	0		A	
      	näi=nud	0		A	sg n
      	näi=nud	d		A	pl n
      	näinu	d		S	pl n
et	et	0		J	
Hansonil	####				
olevat	ole	vat		V	vat
      	olev	t		A	sg p
      	olev	t		S	sg p
niisamasugune	nii_sama_sugune	0		P	sg n
ja	ja	0		J	
selle	see	0		P	sg g
     	sell	e		S	pl p
olevat	ole	vat		V	vat
      	olev	t		A	sg p
      	olev	t		S	sg p
arvanud	arva	nud		V	nud
       	arva=nu	d		S	pl n
       	arva=nud	0		A	
       	arva=nud	0		A	sg n
       	arva=nud	d		A	pl n
et	et	0		J	
see	see	0		P	sg n
Glaasmanni	####				
oma	oma	0		A	sg g
   	oma	0		D	
   	oma	0		P	sg g
   	oma	0		S	sg g
   	oma	0		V	o
   	oma	0		A	sg n
   	oma	0		A	sg p
   	oma	0		P	sg n
   	oma	0		P	sg p
   	oma	0		S	sg n
   	oma	0		S	sg p
on	ole	0		V	b
  	ole	0		V	vad
küsiti	küsi	ti		V	ti
Glaasmanni	####				
käest	käest	0		K	
     	käsi	st		S	sg el
mitmeharuga	mitme_haru	ga		S	sg kom
temal	tema	l		P	sg ad
vigel	vigel	0		S	sg n
olevat	ole	vat		V	vat
      	olev	t		A	sg p
      	olev	t		S	sg p
ja	ja	0		J	
tema	tema	0		P	sg g
    	tema	0		P	sg n
vastat	####				
et	et	0		J	
on	ole	0		V	b
  	ole	0		V	vad
kolmearuga	kolme_aru	ga		S	sg kom
.	.			Z	
tuli	tuli	0		S	sg n
    	tule	i		V	s
ette	ette	0		D	
    	ette	0		K	
    	esi	tte		S	adt
Jakob	Jakob	0		H	sg n
Parmann	####				
ning	ning	0		J	
tunnist	tund	st		S	sg el
       	tunnine	t		A	sg p
et	et	0		J	
tema	tema	0		P	sg g
    	tema	0		P	sg n
oli	ole	i		V	s
konnelnud	####				
teisele	teine	le		O	sg all
       	teine	le		P	sg all
mehile	####				
et	et	0		J	
tema	tema	0		P	sg g
    	tema	0		P	sg n
olevat	ole	vat		V	vat
      	olev	t		A	sg p
      	olev	t		S	sg p
Glaasmanni	####				
poole	pool	0		N	sg g
     	pool	0		S	sg g
     	pool	e		S	pl p
     	poole	0		K	
     	poole	0		S	sg n
vigla	vigel	0		S	sg g
jätnud	jät	nud		V	nud
      	jät=nu	d		S	pl n
      	jät=nud	0		A	
      	jät=nud	0		A	sg n
      	jät=nud	d		A	pl n
ja	ja	0		J	
ei	ei	0		D	
  	ei	0		V	neg
tea	tead	0		V	o
kes	kes	0		P	pl n
   	kes	0		P	sg n
seda	see	da		P	sg p
on	ole	0		V	b
  	ole	0		V	vad
võtnud	võt	nud		V	nud
      	võt=nu	d		S	pl n
      	võt=nud	0		A	
      	võt=nud	0		A	sg n
      	võt=nud	d		A	pl n
ja	ja	0		J	
Viidu	vii=du	0		S	sg g
     	vii=du	0		S	sg n
kübard	####				
oli	ole	i		V	s
ütelnud	ütle	nud		V	nud
       	ütel=nu	d		S	pl n
       	ütel=nud	0		A	
       	ütel=nud	0		A	sg n
       	ütel=nud	d		A	pl n
et	et	0		J	
vast	vast	0		D	
August	august	0		S	sg n
      	auk	st		S	sg el
      	August	0		H	sg n
Anderson	####				
on	ole	0		V	b
  	ole	0		V	vad
võtnud	võt	nud		V	nud
      	võt=nu	d		S	pl n
      	võt=nud	0		A	
      	võt=nud	0		A	sg n
      	võt=nud	d		A	pl n
ja	ja	0		J	
Jooosep	####				
Söukand	####				
oli	ole	i		V	s
ütelnud	ütle	nud		V	nud
       	ütel=nu	d		S	pl n
       	ütel=nud	0		A	
       	ütel=nud	0		A	sg n
       	ütel=nud	d		A	pl n
mina	mina	0		P	sg n
    	mina	0		S	sg g
    	mina	0		S	sg n
    	mina	0		S	sg p
tea	tead	0		V	o
kes	kes	0		P	pl n
   	kes	0		P	sg n
seda	see	da		P	sg p
võtte	võtt	e		S	pl p
     	võte	0		S	sg g
vast	vast	0		D	
August	august	0		S	sg n
      	auk	st		S	sg el
      	August	0		H	sg n
Andersonil	####				
mööda	mööda	0		A	
     	mööda	0		D	
     	mööda	0		K	
ei	ei	0		D	
  	ei	0		V	neg
lä	####				
Peakohtunik	pea_kohtunik	0		S	sg n
:	:			Z	
Peeter	Peeter	0		H	sg n
Urtson	####				
kohtunik	kohtunik	0		S	sg n
:	:			Z	
Kusta	Kusta	0		H	sg g
     	Kusta	0		H	sg n
     	kuse	ta		V	da
     	kuse	ta		V	ta
Rämman	####				
kohtunik	kohtunik	0		S	sg n
:	:			Z	
Jooosep	####				
Oinberg	####				
