kaebas	kaeba	s		V	s
Liina	Lii	na		H	sg es
     	Liina	0		H	sg g
     	Liina	0		H	sg n
Kärtmann	####				
,	,			Z	
et	et	0		J	
Viidu	vii=du	0		S	sg g
     	vii=du	0		S	sg n
kübard	####				
olevat	ole	vat		V	vat
      	olev	t		A	sg p
      	olev	t		S	sg p
teda	tema	da		P	sg p
peksnud	peks	nud		V	nud
       	peks=nu	d		S	pl n
       	peks=nud	0		A	
       	peks=nud	0		A	sg n
       	peks=nud	d		A	pl n
rehavarrega	reha_vars	ga		S	sg kom
ja	ja	0		J	
põlvega	põlv	ga		S	sg kom
       	põli	ga		S	sg kom
ja	ja	0		J	
sellest	see	st		P	sg el
olevat	ole	vat		V	vat
      	olev	t		A	sg p
      	olev	t		S	sg p
tema	tema	0		P	sg g
    	tema	0		P	sg n
väikene	väikene	0		A	sg n
last	laps	t		S	sg p
    	last	0		S	sg n
ääraheitinud	####				
ja	ja	0		J	
vigaseks	vigane	ks		A	sg tr
        	vigane	ks		S	sg tr
saanud	saa	nud		V	nud
      	saa=nud	0		A	
      	saa=nud	0		A	sg n
      	saa=nud	d		A	pl n
      	saanu	d		S	pl n
.	.			Z	
vastutas	vastuta	s		V	s
Viidu	vii=du	0		S	sg g
     	vii=du	0		S	sg n
kübard	####				
,	,			Z	
et	et	0		J	
tema	tema	0		P	sg g
    	tema	0		P	sg n
ei	ei	0		D	
  	ei	0		V	neg
olevat	ole	vat		V	vat
      	olev	t		A	sg p
      	olev	t		S	sg p
mitte	mitte	0		D	
Liina	Lii	na		H	sg es
     	Liina	0		H	sg g
     	Liina	0		H	sg n
Kärtmannile	####				
löönud	löö	nud		V	nud
      	löö=nu	d		S	pl n
      	löö=nud	0		A	
      	löö=nud	0		A	sg n
      	löö=nud	d		A	pl n
;	;			Z	
tema	tema	0		P	sg g
    	tema	0		P	sg n
läinud	läinu	d		S	pl n
      	läinud	0		A	
      	läinud	0		A	sg n
      	läinud	d		A	pl n
      	mine	nud		V	nud
ennegi	ennegi	0		D	
Liina	Lii	na		H	sg es
     	Liina	0		H	sg g
     	Liina	0		H	sg n
Kärtmanni	####				
tare	tare	0		S	sg g
    	tare	0		S	sg n
ütlema	ütle	ma		V	ma
ja	ja	0		J	
perra	####				
kusima	####				
,	,			Z	
mispärast	mis_pärast	0		D	
L. Kärtmann	####				
tema	tema	0		P	sg g
    	tema	0		P	sg n
naisele	naine	le		S	sg all
on	ole	0		V	b
  	ole	0		V	vad
löönud	löö	nud		V	nud
      	löö=nu	d		S	pl n
      	löö=nud	0		A	
      	löö=nud	0		A	sg n
      	löö=nud	d		A	pl n
.	.			Z	
tunnistas	tunnista	s		V	s
Natalka	####				
Sabal	saba	l		S	sg ad
Paapu	####				
naine	naine	0		S	sg n
,	,			Z	
et	et	0		J	
Viidu	vii=du	0		S	sg g
     	vii=du	0		S	sg n
kübard	####				
tulnud	tul=nud	0		A	
      	tul=nud	0		A	sg n
      	tul=nud	d		A	pl n
      	tule	nud		V	nud
      	tulnu	d		S	pl n
tare	tare	0		S	sg g
    	tare	0		S	sg n
läve	lävi	0		S	sg g
    	lävi	0		S	sg p
manud	####				
ja	ja	0		J	
jäänud	jää	nud		V	nud
      	jäänu	d		S	pl n
      	jäänud	0		A	
      	jäänud	0		A	sg n
      	jäänud	d		A	pl n
sinna	sinna	0		D	
seisma	seis	ma		V	ma
,	,			Z	
ent	ent	0		J	
peksmist	peksmine	t		S	sg p
ei	ei	0		D	
  	ei	0		V	neg
olevat	ole	vat		V	vat
      	olev	t		A	sg p
      	olev	t		S	sg p
tema	tema	0		P	sg g
    	tema	0		P	sg n
näinud	näi	nud		V	nud
      	näge	nud		V	nud
      	näi=nud	0		A	
      	näi=nud	0		A	sg n
      	näi=nud	d		A	pl n
      	näinu	d		S	pl n
.	.			Z	
otsus	otsus	0		S	sg n
.	.			Z	
mõistis	mõist	is		V	s
kohus	kohu	s		V	s
     	kohus	0		S	sg n
,	,			Z	
et	et	0		J	
Viidu	vii=du	0		S	sg g
     	vii=du	0		S	sg n
kübard	####				
peab	pida	b		V	b
24	24	0		N	?
tunni	tund	0		S	sg g
turmin	####				
olema	ole	ma		V	ma
,	,			Z	
sellepärast	selle_pärast	0		D	
et	et	0		J	
tema	tema	0		P	sg g
    	tema	0		P	sg n
läks	mine	s		V	s
teise	teine	0		O	adt
     	teine	0		O	sg g
     	teine	0		P	adt
     	teine	0		P	sg g
majja	maja	0		S	adt
tülitsema	tülitse	ma		V	ma
.	.			Z	
peakohtumees	pea_kohtu_mees	0		S	sg n
Joh	####				
.	.			Z	
Lepland	####				
kohtumees	kohtu_mees	0		S	sg n
Jaan	Jaan	0		H	sg n
    	jaan	0		S	sg n
    	jaan	0		Y	?
kiräitsing	####				
kohtumehe	kohtu_mees	0		S	sg g
asemik	asemik	0		S	sg n
J	J	0		Y	?
.	.			Z	
_	_			Z	
Leppind	lepp_ind	0		S	sg n
see	see	0		P	sg n
otsus	otsus	0		S	sg n
sai	saa	i		V	s
   	sai	0		S	sg n
mõlembaile	####				
kohtukäijatele	kohtu_käija	tele		S	pl all
sellsamal	####				
päeval	päev	l		S	sg ad
talurahva	talu_rahvas	0		S	sg g
seaduse	seadus	0		S	sg g
raamatu	raamat	0		S	sg g
1860	1860	0		N	?
aastast	aasta	st		S	sg el
       	aastane	t		A	sg p
§	§	0		Y	?
772	772	0		N	?
ja	ja	0		J	
§	§	0		Y	?
773	773	0		N	?
pohjuse	####				
peal	pea	l		S	sg ad
    	peal	0		D	
    	peal	0		K	
kuulutatud	kuuluta	tud		V	tud
          	kuuluta=tu	d		S	pl n
          	kuuluta=tud	0		A	
          	kuuluta=tud	0		A	sg n
          	kuuluta=tud	d		A	pl n
,	,			Z	
mis	mis	0		P	pl n
   	mis	0		P	sg n
peale	pea	le		S	sg all
     	peale	0		D	
     	peale	0		K	
Liina	Lii	na		H	sg es
     	Liina	0		H	sg g
     	Liina	0		H	sg n
Kärtmann	####				
27dal	####				
selle	see	0		P	sg g
     	sell	e		S	pl p
kuu	kuu	0		S	sg g
   	kuu	0		S	sg n
päeval	päev	l		S	sg ad
kohtule	kohus	le		S	sg all
kuulutas	kuuluta	s		V	s
,	,			Z	
et	et	0		J	
tema	tema	0		P	sg g
    	tema	0		P	sg n
selle	see	0		P	sg g
     	sell	e		S	pl p
otsusega	otsus	ga		S	sg kom
rahul	rahu	l		S	sg ad
     	rahul	0		D	
ei	ei	0		D	
  	ei	0		V	neg
ole	ole	0		V	o
ja	ja	0		J	
suuremat	suurem	t		C	sg p
kohut	kohus	t		S	sg p
tahab	taht	b		V	b
käiva	käiv	0		A	sg g
.	.			Z	
protokolli	protokoll	0		S	adt
          	protokoll	0		S	sg g
          	protokolli	0		V	o
          	protokoll	0		S	sg p
äärakiri	####				
äära	####				
saatetud	saate=tu	d		A	pl n
.	.			Z	
