№	№	0		Y	?
852	852	0		N	?
Karl	Karl	0		H	sg n
kasvand	kasv_and	0		S	sg n
tunnist	tund	st		S	sg el
       	tunnine	t		A	sg p
mina	mina	0		P	sg n
    	mina	0		S	sg g
    	mina	0		S	sg n
    	mina	0		S	sg p
näin	näi	n		V	n
et	et	0		J	
Mango	mango	0		S	sg g
     	mango	0		S	sg n
Minal	mina	l		S	sg ad
midagi	miski	dagi		P	sg p
käes	käes	0		K	
    	käsi	s		S	sg in
oli	ole	i		V	s
aga	aga	0		J	
kas	kas	0		D	
tema	tema	0		P	sg g
    	tema	0		P	sg n
Julia	Julia	0		H	sg g
     	Julia	0		H	sg n
Reemetsa	ree_mets	0		S	adt
        	ree_mets	0		S	sg g
        	ree_mets	0		S	sg p
lõi	loo	i		V	s
   	löö	i		V	s
või	või	0		S	sg g
   	või	0		V	o
   	või	0		D	
   	või	0		J	
   	või	0		S	sg n
mitte	mitte	0		D	
aga	aga	0		J	
karja	kari	0		S	adt
     	kari	0		S	sg g
     	kari	0		S	sg p
ei	ei	0		D	
  	ei	0		V	neg
lase	lask	0		V	o
    	lase	0		S	sg n
tema	tema	0		P	sg g
    	tema	0		P	sg n
ühe	üks	0		N	sg g
   	üks	0		P	sg g
   	ühe	0		S	sg n
Frits	frits	0		S	sg n
Viiari	####				
karjaga	kari	ga		S	sg kom
,	,			Z	
seal	seal	0		D	
    	siga	l		A	sg ad
    	siga	l		S	sg ad
kül	####				
tumm	tumm	0		A	sg n
    	tumm	0		S	sg n
Julia	Julia	0		H	sg g
     	Julia	0		H	sg n
Reemets	ree_mets	0		S	sg n
kovalt	####				
eli	####				
tegij	####				
.	.			Z	
Jaan	Jaan	0		H	sg n
    	jaan	0		S	sg n
    	jaan	0		Y	?
Tropsin	####				
tunnist	tund	st		S	sg el
       	tunnine	t		A	sg p
mina	mina	0		P	sg n
    	mina	0		S	sg g
    	mina	0		S	sg n
    	mina	0		S	sg p
ei	ei	0		D	
  	ei	0		V	neg
näe	näge	0		V	o
mitte	mitte	0		D	
Julia	Julia	0		H	sg g
     	Julia	0		H	sg n
Reemetsa	ree_mets	0		S	adt
        	ree_mets	0		S	sg g
        	ree_mets	0		S	sg p
löömist	löömine	t		S	sg p
ega	ega	0		D	
   	ega	0		J	
tea	tead	0		V	o
nende	see	de		P	pl g
     	tema	de		P	pl g
tulitsemisest	####				
mitte	mitte	0		D	
midagi	miski	dagi		P	sg p
karja	kari	0		S	adt
     	kari	0		S	sg g
     	kari	0		S	sg p
nema	####				
kül	####				
lahutid	####				
ja	ja	0		J	
suur	suur	0		A	sg n
kära	kära	0		S	sg g
    	kära	0		V	o
    	kära	0		S	sg n
    	kära	0		S	sg p
oli	ole	i		V	s
.	.			Z	
Mõistetud	mõist	tud		V	tud
         	mõiste=tu	d		S	pl n
         	mõiste=tud	0		A	
         	mõiste=tud	0		A	sg n
         	mõiste=tud	d		A	pl n
:	:			Z	
et	et	0		J	
midagi	miski	dagi		P	sg p
tunnistust	tunnistus	t		S	sg p
ei	ei	0		D	
  	ei	0		V	neg
ole	ole	0		V	o
siis	siis	0		D	
    	siis	0		J	
otsus	otsus	0		S	sg n
:	:			Z	
Mihkel	Mihkel	0		H	sg n
      	mihkel	0		A	sg n
      	mihkel	0		S	sg n
Mitting	####				
kaebtus	####				
vastu	vastu	0		D	
     	vastu	0		K	
Mango	mango	0		S	sg g
     	mango	0		S	sg n
Miena	####				
tühjaks	tühi	ks		A	sg tr
arvatud	arva	tud		V	tud
       	arva=tu	d		S	pl n
       	arva=tud	0		A	
       	arva=tud	0		A	sg n
       	arva=tud	d		A	pl n
puuduliku	puudulik	0		A	sg g
tunnistuse	tunnistus	0		S	sg g
pärast	pära	st		S	sg el
      	pärane	t		A	sg p
      	pärast	0		D	
      	pärast	0		K	
.	.			Z	
see	see	0		P	sg n
otsus	otsus	0		S	sg n
§§	§§	0		Y	?
773	773	0		N	?
ja	ja	0		J	
774	774	0		N	?
järel	järel	0		D	
     	järel	0		K	
kuulutatud	kuuluta	tud		V	tud
          	kuuluta=tu	d		S	pl n
          	kuuluta=tud	0		A	
          	kuuluta=tud	0		A	sg n
          	kuuluta=tud	d		A	pl n
.	.			Z	
