ette	ette	0		D	
    	ette	0		K	
    	esi	tte		S	adt
tuli	tuli	0		S	sg n
    	tule	i		V	s
Vastseliina	Vastseliina	0		H	adt
           	Vastseliina	0		H	sg g
           	Vastseliina	0		H	sg n
vallast	vald	st		S	sg el
Andre	Andre	0		H	sg g
     	Andre	0		H	sg n
Parm	parm	0		S	sg n
ja	ja	0		J	
kaebas	kaeba	s		V	s
,	,			Z	
et	et	0		J	
tema	tema	0		P	sg g
    	tema	0		P	sg n
olevat	ole	vat		V	vat
      	olev	t		A	sg p
      	olev	t		S	sg p
Lõvaki	####				
Johan	Johan	0		H	sg n
Raudsepa	raud_sepp	0		S	sg g
käest	käest	0		K	
     	käsi	st		S	sg el
kaheksa	kaheksa	0		N	sg g
       	kaheksa	0		N	sg n
aastat	aasta	t		S	sg p
tagasi	tagasi	0		D	
      	tagasi	0		K	
ühe	üks	0		N	sg g
   	üks	0		P	sg g
   	ühe	0		S	sg n
püssi	püss	0		S	adt
     	püss	0		S	sg g
     	püss	0		S	sg p
ostnud	ost	nud		V	nud
      	ost=nu	d		S	pl n
      	ost=nud	0		A	
      	ost=nud	0		A	sg n
      	ost=nud	d		A	pl n
,	,			Z	
6	6	0		N	?
rubla	rubla	0		S	sg g
     	rubla	0		S	sg n
     	rubla	0		S	sg p
eest	eest	0		D	
    	eest	0		K	
    	esi	st		S	sg el
,	,			Z	
ent	ent	0		J	
see	see	0		P	sg n
proovi	proov	0		S	adt
      	proov	0		S	sg g
      	proovi	0		V	o
      	proov	0		S	sg p
perra	####				
kõlblik	kõlblik	0		A	sg n
ei	ei	0		D	
  	ei	0		V	neg
olevat	ole	vat		V	vat
      	olev	t		A	sg p
      	olev	t		S	sg p
olnud	ol=nud	0		A	
     	ol=nud	0		A	sg n
     	ol=nud	d		A	pl n
     	ole	nud		V	nud
     	olnu	d		S	pl n
,	,			Z	
selle	see	0		P	sg g
     	sell	e		S	pl p
pärast	pära	st		S	sg el
      	pärane	t		A	sg p
      	pärast	0		D	
      	pärast	0		K	
olevat	ole	vat		V	vat
      	olev	t		A	sg p
      	olev	t		S	sg p
tema	tema	0		P	sg g
    	tema	0		P	sg n
selle	see	0		P	sg g
     	sell	e		S	pl p
püssi	püss	0		S	adt
     	püss	0		S	sg g
     	püss	0		S	sg p
Jaan	Jaan	0		H	sg n
    	jaan	0		S	sg n
    	jaan	0		Y	?
Tootsi	Tootsi	0		H	adt
      	Tootsi	0		H	sg g
      	Tootsi	0		H	sg n
läbi	läbi	0		D	
    	läbi	0		K	
    	läbi	0		V	o
teisel	teine	l		O	sg ad
      	teine	l		P	sg ad
päeval	päev	l		S	sg ad
tagasi	tagasi	0		D	
      	tagasi	0		K	
saatnud	saat	nud		V	nud
       	saat=nu	d		S	pl n
       	saat=nud	0		A	
       	saat=nud	0		A	sg n
       	saat=nud	d		A	pl n
,	,			Z	
ent	ent	0		J	
Johan	Johan	0		H	sg n
Raudsep	####				
ütlevat	ütle	vat		V	vat
       	ütlev	t		A	sg p
,	,			Z	
et	et	0		J	
tema	tema	0		P	sg g
    	tema	0		P	sg n
seda	see	da		P	sg p
püssi	püss	0		S	adt
     	püss	0		S	sg g
     	püss	0		S	sg p
kätte	kätte	0		K	
     	käsi	tte		S	adt
ei	ei	0		D	
  	ei	0		V	neg
olevat	ole	vat		V	vat
      	olev	t		A	sg p
      	olev	t		S	sg p
saanud	saa	nud		V	nud
      	saa=nud	0		A	
      	saa=nud	0		A	sg n
      	saa=nud	d		A	pl n
      	saanu	d		S	pl n
,	,			Z	
sellepärast	selle_pärast	0		D	
nõudvat	nõud	vat		V	vat
       	nõudev	t		A	sg p
tema	tema	0		P	sg g
    	tema	0		P	sg n
Jaan	Jaan	0		H	sg n
    	jaan	0		S	sg n
    	jaan	0		Y	?
Tootsi	Tootsi	0		H	adt
      	Tootsi	0		H	sg g
      	Tootsi	0		H	sg n
käest	käest	0		K	
     	käsi	st		S	sg el
seda	see	da		P	sg p
püssi	püss	0		S	adt
     	püss	0		S	sg g
     	püss	0		S	sg p
kahju	kahi	0		S	adt
     	kahi	0		S	sg g
     	kahi	0		S	sg p
     	kahju	0		S	sg g
     	kahju	0		S	sg n
     	kahju	0		S	sg p
6	6	0		N	?
rubla	rubla	0		S	sg g
     	rubla	0		S	sg n
     	rubla	0		S	sg p
.	.			Z	
Vastatud	vasta	tud		V	tud
        	vasta=tu	d		S	pl n
        	vasta=tud	0		A	
        	vasta=tud	0		A	sg n
        	vasta=tud	d		A	pl n
Jaan	Jaan	0		H	sg n
    	jaan	0		S	sg n
    	jaan	0		Y	?
Toots	####				
,	,			Z	
kui	kui	0		D	
   	kui	0		J	
kaebus	kaebus	0		S	sg n
talle	tall	e		S	pl p
     	tall	0		S	adt
     	tall	0		S	sg g
     	tema	lle		P	sg all
     	tall	0		S	sg p
ette	ette	0		D	
    	ette	0		K	
    	esi	tte		S	adt
sai	saa	i		V	s
   	sai	0		S	sg n
pandud	pan=du	d		S	pl n
      	pan=dud	0		A	
      	pan=dud	0		A	sg n
      	pan=dud	d		A	pl n
      	pane	dud		V	tud
,	,			Z	
et	et	0		J	
ema	ema	0		S	sg g
   	ema	0		S	sg n
   	ema	0		S	sg p
olevat	ole	vat		V	vat
      	olev	t		A	sg p
      	olev	t		S	sg p
püssi	püss	0		S	adt
     	püss	0		S	sg g
     	püss	0		S	sg p
viinud	vii	nud		V	nud
      	vii=nu	d		S	pl n
      	vii=nud	0		A	
      	vii=nud	0		A	sg n
      	vii=nud	d		A	pl n
Johan	Johan	0		H	sg n
Raudsepa	raud_sepp	0		S	sg g
majja	maja	0		S	adt
,	,			Z	
Johan	Johan	0		H	sg n
Raudsepa	raud_sepp	0		S	sg g
ei	ei	0		D	
  	ei	0		V	neg
olevat	ole	vat		V	vat
      	olev	t		A	sg p
      	olev	t		S	sg p
kottun	####				
olnud	ol=nud	0		A	
     	ol=nud	0		A	sg n
     	ol=nud	d		A	pl n
     	ole	nud		V	nud
     	olnu	d		S	pl n
ja	ja	0		J	
Villem	Villem	0		H	sg n
Niglan	####				
olevat	ole	vat		V	vat
      	olev	t		A	sg p
      	olev	t		S	sg p
kotus	ko=tus	0		S	sg n
ja	ja	0		J	
tema	tema	0		P	sg g
    	tema	0		P	sg n
pannud	pan=nu	d		S	pl n
      	pan=nud	0		A	
      	pan=nud	0		A	sg n
      	pan=nud	d		A	pl n
      	pane	nud		V	nud
püssi	püss	0		S	adt
     	püss	0		S	sg g
     	püss	0		S	sg p
sängi	säng	0		S	adt
     	säng	0		S	sg g
     	säng	0		S	sg p
peale	pea	le		S	sg all
     	peale	0		D	
     	peale	0		K	
,	,			Z	
see	see	0		P	sg n
asi	asi	0		S	sg n
   	asi	0		V	o
olevat	ole	vat		V	vat
      	olev	t		A	sg p
      	olev	t		S	sg p
kogukonna	kogukond	0		S	sg g
kohtus	kohtu	s		V	s
      	kohus	s		S	sg in
mõistetud	mõist	tud		V	tud
         	mõiste=tu	d		S	pl n
         	mõiste=tud	0		A	
         	mõiste=tud	0		A	sg n
         	mõiste=tud	d		A	pl n
saanud	saa	nud		V	nud
      	saa=nud	0		A	
      	saa=nud	0		A	sg n
      	saa=nud	d		A	pl n
      	saanu	d		S	pl n
.	.			Z	
otsus	otsus	0		S	sg n
:	:			Z	
ette	ette	0		D	
    	ette	0		K	
    	esi	tte		S	adt
kutsu	kutsu	0		V	o
     	kutsu	0		S	sg g
     	kutsu	0		S	sg n
Johan	Johan	0		H	sg n
Raudsep	####				
ja	ja	0		J	
Võrult	Võru	lt		H	sg abl
      	võru	lt		S	sg abl
Villem	Villem	0		H	sg n
Niglan	####				
.	.			Z	
peakohtumees	pea_kohtu_mees	0		S	sg n
J	J	0		Y	?
.	.			Z	
_	_			Z	
Kabist	####				
[	[			Z	
allkiri	all_kiri	0		S	sg n
]	]			Z	
kohtumees	kohtu_mees	0		S	sg n
P	P	0		Y	?
.	.			Z	
Sillaots	silla_ots	0		S	sg n
[	[			Z	
allkiri	all_kiri	0		S	sg n
]	]			Z	
""""	""""			Z	
P	P	0		Y	?
.	.			Z	
_	_			Z	
Klaas	klaas	0		S	sg n
[	[			Z	
allkiri	all_kiri	0		S	sg n
]	]			Z	
Andre	Andre	0		H	sg g
     	Andre	0		H	sg n
Parm	parm	0		S	sg n
ja	ja	0		J	
Johan	Johan	0		H	sg n
Raudsep	####				
oma	oma	0		A	sg g
   	oma	0		D	
   	oma	0		P	sg g
   	oma	0		S	sg g
   	oma	0		V	o
   	oma	0		A	sg n
   	oma	0		A	sg p
   	oma	0		P	sg n
   	oma	0		P	sg p
   	oma	0		S	sg n
   	oma	0		S	sg p
äära	####				
leppinud	leppi	nud		V	nud
        	leppi=nu	d		S	pl n
        	leppi=nud	0		A	
        	leppi=nud	0		A	sg n
        	leppi=nud	d		A	pl n
6	6	0		N	?
rbl	rbl	0		Y	?
.	.			Z	
peale	pea	le		S	sg all
     	peale	0		D	
     	peale	0		K	
.	.			Z	
Kuus	kuu	s		S	sg in
    	kuus	0		N	sg n
rbl	rbl	0		Y	?
.	.			Z	
Andre	Andre	0		H	sg g
     	Andre	0		H	sg n
Parm	parm	0		S	sg n
vastu	vastu	0		D	
     	vastu	0		K	
võtnud	võt	nud		V	nud
      	võt=nu	d		S	pl n
      	võt=nud	0		A	
      	võt=nud	0		A	sg n
      	võt=nud	d		A	pl n
Andre	Andre	0		H	sg g
     	Andre	0		H	sg n
Parm	parm	0		S	sg n
[	[			Z	
allkiri	all_kiri	0		S	sg n
]	]			Z	
