ette	ette	0		D	
    	ette	0		K	
    	esi	tte		S	adt
tuli	tuli	0		S	sg n
    	tule	i		V	s
Jaan	Jaan	0		H	sg n
    	jaan	0		S	sg n
    	jaan	0		Y	?
olekson	####				
ja	ja	0		J	
kaebas	kaeba	s		V	s
Jaan	Jaan	0		H	sg n
    	jaan	0		S	sg n
    	jaan	0		Y	?
Vainu	vainu	0		S	sg g
     	vainu	0		S	sg n
peale	pea	le		S	sg all
     	peale	0		D	
     	peale	0		K	
kes	kes	0		P	pl n
   	kes	0		P	sg n
olevad	olev	d		A	pl n
      	olev	d		S	pl n
vastu	vastu	0		D	
     	vastu	0		K	
seadust	seadus	t		S	sg p
maad	maa	d		S	pl n
    	maa	d		S	sg p
pruukinud	pruuki	nud		V	nud
         	pruuki=nu	d		S	pl n
         	pruuki=nud	0		A	
         	pruuki=nud	0		A	sg n
         	pruuki=nud	d		A	pl n
,	,			Z	
oli	ole	i		V	s
tema	tema	0		P	sg g
    	tema	0		P	sg n
käest	käest	0		K	
     	käsi	st		S	sg el
ühe	üks	0		N	sg g
   	üks	0		P	sg g
   	ühe	0		S	sg n
vakka	vakk	0		S	adt
     	vakk	0		S	sg p
     	vakka	0		D	
maad	maa	d		S	pl n
    	maa	d		S	sg p
valmis	valm	s		S	sg in
      	valmi	s		V	s
      	valmis	0		A	
      	valmis	0		A	sg n
      	valmis	0		D	
      	valmis	s		A	sg in
aritud	####				
maad	maa	d		S	pl n
    	maa	d		S	sg p
ära	ära	0		D	
   	ära	0		V	neg o
võtnud	võt	nud		V	nud
      	võt=nu	d		S	pl n
      	võt=nud	0		A	
      	võt=nud	0		A	sg n
      	võt=nud	d		A	pl n
kohus	kohu	s		V	s
     	kohus	0		S	sg n
tema	tema	0		P	sg g
    	tema	0		P	sg n
lina	lina	0		S	sg g
    	lina	0		S	sg n
    	lina	0		S	sg p
oleks	ole	ks		V	ks
teinud	tege	nud		V	nud
      	tei=nud	0		A	
      	tei=nud	0		A	sg n
      	tei=nud	d		A	pl n
      	teinu	d		S	pl n
.	.			Z	
see	see	0		P	sg n
ma	mina	0		P	sg n
olnud	ol=nud	0		A	
     	ol=nud	0		A	sg n
     	ol=nud	d		A	pl n
     	ole	nud		V	nud
     	olnu	d		S	pl n
kütteta	küte	ta		S	sg ab
ma	mina	0		P	sg n
kohus	kohu	s		V	s
     	kohus	0		S	sg n
lepingu	leping	0		S	sg g
perrä	####				
kolmas	kolmas	0		O	sg n
vili	vili	0		S	sg n
oleks	ole	ks		V	ks
tehtud	tehtu	d		S	pl n
      	tehtud	0		A	
      	tehtud	0		A	sg n
      	tehtud	d		A	pl n
      	tege	tud		V	tud
saanud	saa	nud		V	nud
      	saa=nud	0		A	
      	saa=nud	0		A	sg n
      	saa=nud	d		A	pl n
      	saanu	d		S	pl n
.	.			Z	
sai	saa	i		V	s
   	sai	0		S	sg n
Jaan	Jaan	0		H	sg n
    	jaan	0		S	sg n
    	jaan	0		Y	?
Vainu	vainu	0		S	sg g
     	vainu	0		S	sg n
ette	ette	0		D	
    	ette	0		K	
    	esi	tte		S	adt
kutsutud	kutsu	tud		V	tud
        	kutsutu	d		S	pl n
        	kutsutud	0		A	
        	kutsutud	0		A	sg n
        	kutsutud	d		A	pl n
ja	ja	0		J	
see	see	0		P	sg n
kaebus	kaebus	0		S	sg n
kuulutatud	kuuluta	tud		V	tud
          	kuuluta=tu	d		S	pl n
          	kuuluta=tud	0		A	
          	kuuluta=tud	0		A	sg n
          	kuuluta=tud	d		A	pl n
,	,			Z	
ütleb	ütle	b		V	b
et	et	0		J	
tema	tema	0		P	sg g
    	tema	0		P	sg n
ei	ei	0		D	
  	ei	0		V	neg
olevad	olev	d		A	pl n
      	olev	d		S	pl n
Jaan	Jaan	0		H	sg n
    	jaan	0		S	sg n
    	jaan	0		Y	?
olekson	####				
maad	maa	d		S	pl n
    	maa	d		S	sg p
sugugi	sugugi	0		D	
pruukinud	pruuki	nud		V	nud
         	pruuki=nu	d		S	pl n
         	pruuki=nud	0		A	
         	pruuki=nud	0		A	sg n
         	pruuki=nud	d		A	pl n
,	,			Z	
ennegi	ennegi	0		D	
oma	oma	0		A	sg g
   	oma	0		D	
   	oma	0		P	sg g
   	oma	0		S	sg g
   	oma	0		V	o
   	oma	0		A	sg n
   	oma	0		A	sg p
   	oma	0		P	sg n
   	oma	0		P	sg p
   	oma	0		S	sg n
   	oma	0		S	sg p
krunti	krunt	0		S	adt
      	krunt	0		S	sg p
.	.			Z	
see	see	0		P	sg n
leping	leping	0		S	sg n
ei	ei	0		D	
  	ei	0		V	neg
puutuvad	puutu	vad		V	vad
        	puutuv	d		A	pl n
temale	tema	le		P	sg all
midagi	miski	dagi		P	sg p
,	,			Z	
kelle	kes	0		P	pl g
     	kes	0		P	sg g
perrä	####				
siin	siin	0		D	
    	siin	0		S	sg n
valla	vald	0		S	sg g
     	valla	0		D	
eletas	####				
.	.			Z	
Jaan	Jaan	0		H	sg n
    	jaan	0		S	sg n
    	jaan	0		Y	?
Vainu	vainu	0		S	sg g
     	vainu	0		S	sg n
ütleb	ütle	b		V	b
et	et	0		J	
tema	tema	0		P	sg g
    	tema	0		P	sg n
jätnud	jät	nud		V	nud
      	jät=nu	d		S	pl n
      	jät=nud	0		A	
      	jät=nud	0		A	sg n
      	jät=nud	d		A	pl n
ka	ka	0		D	
oma	oma	0		A	sg g
   	oma	0		D	
   	oma	0		P	sg g
   	oma	0		S	sg g
   	oma	0		V	o
   	oma	0		A	sg n
   	oma	0		A	sg p
   	oma	0		P	sg n
   	oma	0		P	sg p
   	oma	0		S	sg n
   	oma	0		S	sg p
vastse	vastne	0		A	sg g
      	vastne	0		S	sg g
ma	mina	0		P	sg n
teistele	teine	tele		O	pl all
        	teine	tele		P	pl all
.	.			Z	
otsus	otsus	0		S	sg n
:	:			Z	
kogukonna	kogukond	0		S	sg g
kohus	kohu	s		V	s
     	kohus	0		S	sg n
mõistab	mõist	b		V	b
,	,			Z	
et	et	0		J	
Jaan	Jaan	0		H	sg n
    	jaan	0		S	sg n
    	jaan	0		Y	?
olekson	####				
ei	ei	0		D	
  	ei	0		V	neg
või	või	0		S	sg g
   	või	0		V	o
   	või	0		D	
   	või	0		J	
   	või	0		S	sg n
enam	enam	0		C	sg n
    	enam	0		D	
Jaan	Jaan	0		H	sg n
    	jaan	0		S	sg n
    	jaan	0		Y	?
Vainu	vainu	0		S	sg g
     	vainu	0		S	sg n
krundi	krunt	0		S	sg g
      	krunti	0		V	o
sisse	siss	e		S	pl p
     	sisse	0		D	
     	sisse	0		K	
pärida	päri	da		V	da
,	,			Z	
sest	see	st		P	sg el
    	sest	0		J	
et	et	0		J	
Jaan	Jaan	0		H	sg n
    	jaan	0		S	sg n
    	jaan	0		Y	?
olekson	####				
sööti	sööt	i		S	pl p
     	sööt	0		S	adt
     	sööt	0		S	sg p
     	sööti	0		D	
on	ole	0		V	b
  	ole	0		V	vad
kütnud	küt	nud		V	nud
      	küt=nu	d		S	pl n
      	küt=nud	0		A	
      	küt=nud	0		A	sg n
      	küt=nud	d		A	pl n
ei	ei	0		D	
  	ei	0		V	neg
mitte	mitte	0		D	
metsa	mets	0		S	adt
     	mets	0		S	sg g
     	mets	0		S	sg p
enda	ise	0		P	sg g
.	.			Z	
otsus	otsus	0		S	sg n
kuulutati	kuuluta	ti		V	ti
