see	see	0		P	sg n
peaker	####				
sell	sell	0		S	sg n
Reinhold	####				
Jakobson	Jakobson	0		H	sg n
kaebas	kaeba	s		V	s
,	,			Z	
Jakob	Jakob	0		H	sg n
Schmals	####				
kus	kus	0		D	
teenistuses	teenistus	s		S	sg in
           	teenistuses	0		A	
           	teenistuses	0		D	
ta	tema	0		P	sg g
  	tema	0		P	sg n
on	ole	0		V	b
  	ole	0		V	vad
olnud	ol=nud	0		A	
     	ol=nud	0		A	sg n
     	ol=nud	d		A	pl n
     	ole	nud		V	nud
     	olnu	d		S	pl n
on	ole	0		V	b
  	ole	0		V	vad
tema	tema	0		P	sg g
    	tema	0		P	sg n
armtud	####				
löönud	löö	nud		V	nud
      	löö=nu	d		S	pl n
      	löö=nud	0		A	
      	löö=nud	0		A	sg n
      	löö=nud	d		A	pl n
ja	ja	0		J	
temast	tema	st		P	sg el
paest	paas	st		S	sg el
     	paene	t		A	sg p
jauksed	####				
valla	vald	0		S	sg g
     	valla	0		D	
kisknud	####				
,	,			Z	
siis	siis	0		D	
    	siis	0		J	
ta	tema	0		P	sg g
  	tema	0		P	sg n
on	ole	0		V	b
  	ole	0		V	vad
veel	veel	0		D	
    	vesi	l		S	sg ad
tema	tema	0		P	sg g
    	tema	0		P	sg n
armtud	####				
löönud	löö	nud		V	nud
      	löö=nu	d		S	pl n
      	löö=nud	0		A	
      	löö=nud	0		A	sg n
      	löö=nud	d		A	pl n
ja	ja	0		J	
temast	tema	st		P	sg el
paest	paas	st		S	sg el
     	paene	t		A	sg p
jauksed	####				
valla	vald	0		S	sg g
     	valla	0		D	
kisknud	####				
,	,			Z	
siis	siis	0		D	
    	siis	0		J	
ta	tema	0		P	sg g
  	tema	0		P	sg n
on	ole	0		V	b
  	ole	0		V	vad
veel	veel	0		D	
    	vesi	l		S	sg ad
tema	tema	0		P	sg g
    	tema	0		P	sg n
käsk	käsk	0		S	sg n
,	,			Z	
tema	tema	0		P	sg g
    	tema	0		P	sg n
passi	pass	0		S	adt
     	pass	0		S	sg g
     	passi	0		V	o
     	pass	0		S	sg p
,	,			Z	
ja	ja	0		J	
selle	see	0		P	sg g
     	sell	e		S	pl p
tunnistuse	tunnistus	0		S	sg g
raamat	raamat	0		S	sg n
kinni	kinni	0		D	
pannud	pan=nu	d		S	pl n
      	pan=nud	0		A	
      	pan=nud	0		A	sg n
      	pan=nud	d		A	pl n
      	pane	nud		V	nud
,	,			Z	
ja	ja	0		J	
mitte	mitte	0		D	
velje	velg	0		S	sg g
     	veli	0		S	adt
     	veli	0		S	sg g
     	veli	0		S	sg p
andnud	and	nud		V	nud
      	and=nu	d		S	pl n
      	and=nud	0		A	
      	and=nud	0		A	sg n
      	and=nud	d		A	pl n
.	.			Z	
Jakob	Jakob	0		H	sg n
Schmals	####				
ette	ette	0		D	
    	ette	0		K	
    	esi	tte		S	adt
kutsutud	kutsu	tud		V	tud
        	kutsutu	d		S	pl n
        	kutsutud	0		A	
        	kutsutud	0		A	sg n
        	kutsutud	d		A	pl n
seletas	seleta	s		V	s
:	:			Z	
peaker	####				
sell	sell	0		S	sg n
Jakobson	Jakobson	0		H	sg n
on	ole	0		V	b
  	ole	0		V	vad
jobunud	####				
olnud	ol=nud	0		A	
     	ol=nud	0		A	sg n
     	ol=nud	d		A	pl n
     	ole	nud		V	nud
     	olnu	d		S	pl n
ja	ja	0		J	
magama	maga	ma		V	ma
jäänud	jää	nud		V	nud
      	jäänu	d		S	pl n
      	jäänud	0		A	
      	jäänud	0		A	sg n
      	jäänud	d		A	pl n
,	,			Z	
ja	ja	0		J	
mitte	mitte	0		D	
valmistud	valmistu	d		V	d
kriglit	####				
pidisid	####				
tema	tema	0		P	sg g
    	tema	0		P	sg n
läbi	läbi	0		D	
    	läbi	0		K	
    	läbi	0		V	o
urga	####				
mind	mina	d		P	sg p
,	,			Z	
siis	siis	0		D	
    	siis	0		J	
ta	tema	0		P	sg g
  	tema	0		P	sg n
on	ole	0		V	b
  	ole	0		V	vad
tema	tema	0		P	sg g
    	tema	0		P	sg n
man	man	0		D	
   	man	0		K	
läinud	läinu	d		S	pl n
      	läinud	0		A	
      	läinud	0		A	sg n
      	läinud	d		A	pl n
      	mine	nud		V	nud
ja	ja	0		J	
tema	tema	0		P	sg g
    	tema	0		P	sg n
iluse	####				
viisega	####				
üles	üles	0		D	
anud	anu	d		V	d
,	,			Z	
Jakobson	Jakobson	0		H	sg n
aga	aga	0		J	
on	ole	0		V	b
  	ole	0		V	vad
tema	tema	0		P	sg g
    	tema	0		P	sg n
paele	paas	le		S	sg all
karganud	####				
üks	üks	0		N	sg n
   	üks	0		P	sg n
hallo	hallo	0		I	
puu	puu	0		S	sg g
   	puu	0		S	sg n
võttnu	####				
ja	ja	0		J	
tema	tema	0		P	sg g
    	tema	0		P	sg n
paele	paas	le		S	sg all
tükinud	####				
,	,			Z	
malss	####				
on	ole	0		V	b
  	ole	0		V	vad
tema	tema	0		P	sg g
    	tema	0		P	sg n
siis	siis	0		D	
    	siis	0		J	
justega	####				
kinni	kinni	0		D	
võttnu	####				
,	,			Z	
ja	ja	0		J	
maha	maha	0		D	
tõmbanud	####				
,	,			Z	
ja	ja	0		J	
kinni	kinni	0		D	
pidanud	pida	nud		V	nud
       	pida=nu	d		S	pl n
       	pida=nud	0		A	
       	pida=nud	0		A	sg n
       	pida=nud	d		A	pl n
,	,			Z	
paele	paas	le		S	sg all
seda	see	da		P	sg p
ta	tema	0		P	sg g
  	tema	0		P	sg n
on	ole	0		V	b
  	ole	0		V	vad
tema	tema	0		P	sg g
    	tema	0		P	sg n
lahti	laht	i		S	pl p
     	lahti	0		D	
lasknud	lask	nud		V	nud
       	lask=nu	d		S	pl n
       	lask=nud	0		A	
       	lask=nud	0		A	sg n
       	lask=nud	d		A	pl n
ja	ja	0		J	
ära	ära	0		D	
   	ära	0		V	neg o
juuksnud	####				
.	.			Z	
Jakobson	Jakobson	0		H	sg n
ütles	ütle	s		V	s
selle	see	0		P	sg g
     	sell	e		S	pl p
vastu	vastu	0		D	
     	vastu	0		K	
seda	see	da		P	sg p
õige	õige	0		A	sg g
    	õige	0		A	sg n
    	õige	0		D	
ei	ei	0		D	
  	ei	0		V	neg
olevat	ole	vat		V	vat
      	olev	t		A	sg p
      	olev	t		S	sg p
ta	tema	0		P	sg g
  	tema	0		P	sg n
on	ole	0		V	b
  	ole	0		V	vad
Schmals	####				
mitte	mitte	0		D	
löönud	löö	nud		V	nud
      	löö=nu	d		S	pl n
      	löö=nud	0		A	
      	löö=nud	0		A	sg n
      	löö=nud	d		A	pl n
,	,			Z	
ja	ja	0		J	
mitte	mitte	0		D	
puu	puu	0		S	sg g
   	puu	0		S	sg n
loaga	luba	ga		S	sg kom
     	luga	ga		S	sg kom
tema	tema	0		P	sg g
    	tema	0		P	sg n
paele	paas	le		S	sg all
tükinud	####				
;	;			Z	
tunnistajad	tunnistaja	d		S	pl n
selle	see	0		P	sg g
     	sell	e		S	pl p
taplesi	####				
man	man	0		D	
   	man	0		K	
on	ole	0		V	b
  	ole	0		V	vad
mitte	mitte	0		D	
olnud	ol=nud	0		A	
     	ol=nud	0		A	sg n
     	ol=nud	d		A	pl n
     	ole	nud		V	nud
     	olnu	d		S	pl n
.	.			Z	
Schmals	####				
tunnistas	tunnista	s		V	s
ehk	ehk	0		D	
   	ehk	0		J	
ta	tema	0		P	sg g
  	tema	0		P	sg n
Jakobsoni	Jakobson	0		H	adt
         	Jakobson	0		H	sg g
         	Jakobson	0		H	sg p
pass	pass	0		S	sg n
,	,			Z	
selle	see	0		P	sg g
     	sell	e		S	pl p
raamat	raamat	0		S	sg n
(	(			Z	
?	?			Z	
?	?			Z	
)	)			Z	
ja	ja	0		J	
käsk	käsk	0		S	sg n
on	ole	0		V	b
  	ole	0		V	vad
kinni	kinni	0		D	
pannud	pan=nu	d		S	pl n
      	pan=nud	0		A	
      	pan=nud	0		A	sg n
      	pan=nud	d		A	pl n
      	pane	nud		V	nud
selle	see	0		P	sg g
     	sell	e		S	pl p
pärast	pära	st		S	sg el
      	pärane	t		A	sg p
      	pärast	0		D	
      	pärast	0		K	
ehk	ehk	0		D	
   	ehk	0		J	
Jakobson	Jakobson	0		H	sg n
pidis	####				
mitte	mitte	0		D	
ära	ära	0		D	
   	ära	0		V	neg o
joosta	jooks	ta		V	da
      	jooks	ta		V	ta
ja	ja	0		J	
enne	enne	0		D	
    	enne	0		K	
    	enne	0		S	sg n
oma	oma	0		A	sg g
   	oma	0		D	
   	oma	0		P	sg g
   	oma	0		S	sg g
   	oma	0		V	o
   	oma	0		A	sg n
   	oma	0		A	sg p
   	oma	0		P	sg n
   	oma	0		P	sg p
   	oma	0		S	sg n
   	oma	0		S	sg p
rehknungi	####				
seletama	seleta	ma		V	ma
.	.			Z	
peaker	####				
sell	sell	0		S	sg n
Jakobson	Jakobson	0		H	sg n
andis	and	is		V	s
kohtule	kohus	le		S	sg all
oma	oma	0		A	sg g
   	oma	0		D	
   	oma	0		P	sg g
   	oma	0		S	sg g
   	oma	0		V	o
   	oma	0		A	sg n
   	oma	0		A	sg p
   	oma	0		P	sg n
   	oma	0		P	sg p
   	oma	0		S	sg n
   	oma	0		S	sg p
rehknungi	####				
raamat	raamat	0		S	sg n
kätte	kätte	0		K	
     	käsi	tte		S	adt
selle	see	0		P	sg g
     	sell	e		S	pl p
järel	järel	0		D	
     	järel	0		K	
on	ole	0		V	b
  	ole	0		V	vad
Schmals	####				
temal	tema	l		P	sg ad
andnud	and	nud		V	nud
      	and=nu	d		S	pl n
      	and=nud	0		A	
      	and=nud	0		A	sg n
      	and=nud	d		A	pl n
240	240	0		N	?
rub	####				
29	29	0		N	?
koop	koop	0		Y	?
.	.			Z	
siis	siis	0		D	
    	siis	0		J	
peaker	####				
sell	sell	0		S	sg n
ütles	ütle	s		V	s
Schmals	####				
on	ole	0		V	b
  	ole	0		V	vad
tema	tema	0		P	sg g
    	tema	0		P	sg n
iga	iga	0		P	sg g
   	iga	0		P	sg n
   	iga	0		P	sg p
   	iga	0		S	sg n
   	iga	0		S	sg p
nadale	####				
est	####				
lubanud	luba	nud		V	nud
       	luba=nu	d		S	pl n
       	luba=nud	0		A	
       	luba=nud	0		A	sg n
       	luba=nud	d		A	pl n
2	2	0		N	?
rub	####				
makse	maks	e		S	pl p
     	makse	0		S	sg g
     	makse	0		S	sg n
see	see	0		P	sg n
teeb	tege	b		V	b
kätte	kätte	0		K	
     	käsi	tte		S	adt
aasta	aasta	0		S	sg g
     	aasta	0		S	sg n
,	,			Z	
ja	ja	0		J	
21	21	0		N	?
nädale	####				
est	####				
nii	nii	0		D	
palju	palju	0		D	
     	palju	0		P	sg g
     	palju	0		P	sg n
kui	kui	0		D	
   	kui	0		J	
250	250	0		N	?
rubla	rubla	0		S	sg g
     	rubla	0		S	sg n
     	rubla	0		S	sg p
.	.			Z	
Schmals	####				
ütles	ütle	s		V	s
selle	see	0		P	sg g
     	sell	e		S	pl p
vastu	vastu	0		D	
     	vastu	0		K	
,	,			Z	
ta	tema	0		P	sg g
  	tema	0		P	sg n
on	ole	0		V	b
  	ole	0		V	vad
Jakobsoniga	Jakobson	ga		H	sg kom
nõnda	nõnda	0		D	
viis	vii	s		V	s
    	viis	0		N	sg n
    	viis	0		S	sg n
kauplenud	####				
,	,			Z	
ehk	ehk	0		D	
   	ehk	0		J	
ta	tema	0		P	sg g
  	tema	0		P	sg n
temale	tema	le		P	sg all
8	8	0		N	?
kuul	kuu	l		S	sg ad
    	kuul	0		S	sg n
aastan	####				
2	2	0		N	?
rubla	rubla	0		S	sg g
     	rubla	0		S	sg n
     	rubla	0		S	sg p
ja	ja	0		J	
4	4	0		N	?
kuul	kuu	l		S	sg ad
    	kuul	0		S	sg n
aastan	####				
1	1	0		N	?
1	1	0		N	?
/	/			Z	
2	2	0		N	?
rubl	####				
palk	palk	0		S	sg n
on	ole	0		V	b
  	ole	0		V	vad
lubanud	luba	nud		V	nud
       	luba=nu	d		S	pl n
       	luba=nud	0		A	
       	luba=nud	0		A	sg n
       	luba=nud	d		A	pl n
,	,			Z	
siis	siis	0		D	
    	siis	0		J	
temal	tema	l		P	sg ad
on	ole	0		V	b
  	ole	0		V	vad
kahe	kaks	0		N	sg g
aasta	aasta	0		S	sg g
     	aasta	0		S	sg n
ja	ja	0		J	
21	21	0		N	?
nädale	####				
est	####				
,	,			Z	
temal	tema	l		P	sg ad
anda	and	a		V	da
mitte	mitte	0		D	
enam	enam	0		C	sg n
    	enam	0		D	
kui	kui	0		D	
   	kui	0		J	
423	423	0		N	?
rubla	rubla	0		S	sg g
     	rubla	0		S	sg n
     	rubla	0		S	sg p
.	.			Z	
mõisteti	mõist	ti		V	ti
.	.			Z	
Schmals	####				
peab	pida	b		V	b
Jakobsonile	Jakobson	le		H	sg all
tema	tema	0		P	sg g
    	tema	0		P	sg n
pass	pass	0		S	sg n
,	,			Z	
selle	see	0		P	sg g
     	sell	e		S	pl p
raamat	raamat	0		S	sg n
ja	ja	0		J	
käsk	käsk	0		S	sg n
kätte	kätte	0		K	
     	käsi	tte		S	adt
anda	and	a		V	da
,	,			Z	
ja	ja	0		J	
Jakobson	Jakobson	0		H	sg n
peab	pida	b		V	b
selle	see	0		P	sg g
     	sell	e		S	pl p
üle	üle	0		D	
   	üle	0		K	
oma	oma	0		A	sg g
   	oma	0		D	
   	oma	0		P	sg g
   	oma	0		S	sg g
   	oma	0		V	o
   	oma	0		A	sg n
   	oma	0		A	sg p
   	oma	0		P	sg n
   	oma	0		P	sg p
   	oma	0		S	sg n
   	oma	0		S	sg p
tunnistus	tunnistus	0		S	sg n
kohtu	kohtu	0		V	o
     	kohus	0		S	sg g
ette	ette	0		D	
    	ette	0		K	
    	esi	tte		S	adt
tooma	too	ma		V	ma
ehk	ehk	0		D	
   	ehk	0		J	
Schmals	####				
on	ole	0		V	b
  	ole	0		V	vad
temale	tema	le		P	sg all
iga	iga	0		P	sg g
   	iga	0		P	sg n
   	iga	0		P	sg p
   	iga	0		S	sg n
   	iga	0		S	sg p
nädale	####				
aastan	####				
2	2	0		N	?
rub	####				
palk	palk	0		S	sg n
lubanud	luba	nud		V	nud
       	luba=nu	d		S	pl n
       	luba=nud	0		A	
       	luba=nud	0		A	sg n
       	luba=nud	d		A	pl n
,	,			Z	
siis	siis	0		D	
    	siis	0		J	
ta	tema	0		P	sg g
  	tema	0		P	sg n
saab	saa	b		V	b
seda	see	da		P	sg p
raha	raha	0		S	sg g
    	raha	0		S	sg n
    	raha	0		S	sg p
kätte	kätte	0		K	
     	käsi	tte		S	adt
mis	mis	0		P	pl n
   	mis	0		P	sg n
tema	tema	0		P	sg g
    	tema	0		P	sg n
naudetud	####				
palgast	palk	st		S	sg el
pudup	####				
,	,			Z	
üle	üle	0		D	
   	üle	0		K	
seda	see	da		P	sg p
??	??			Z	
mis	mis	0		P	pl n
   	mis	0		P	sg n
nende	see	de		P	pl g
     	tema	de		P	pl g
vahel	vahe	l		S	sg ad
     	vahel	0		D	
     	vahel	0		K	
on	ole	0		V	b
  	ole	0		V	vad
olnud	ol=nud	0		A	
     	ol=nud	0		A	sg n
     	ol=nud	d		A	pl n
     	ole	nud		V	nud
     	olnu	d		S	pl n
,	,			Z	
kohus	kohu	s		V	s
     	kohus	0		S	sg n
ei	ei	0		D	
  	ei	0		V	neg
või	või	0		S	sg g
   	või	0		V	o
   	või	0		D	
   	või	0		J	
   	või	0		S	sg n
midake	####				
mõista	mõist	0		V	o
      	mõist	a		V	da
selle	see	0		P	sg g
     	sell	e		S	pl p
pärast	pära	st		S	sg el
      	pärane	t		A	sg p
      	pärast	0		D	
      	pärast	0		K	
ehk	ehk	0		D	
   	ehk	0		J	
tunnistajad	tunnistaja	d		S	pl n
on	ole	0		V	b
  	ole	0		V	vad
mitte	mitte	0		D	
man	man	0		D	
   	man	0		K	
olnud	ol=nud	0		A	
     	ol=nud	0		A	sg n
     	ol=nud	d		A	pl n
     	ole	nud		V	nud
     	olnu	d		S	pl n
.	.			Z	
