meie	mina	0		P	pl g
    	mina	0		P	pl n
meeletatud	####				
kohtumehe	kohtu_mees	0		S	sg g
tunnistame	tunnista	me		V	me
,	,			Z	
et	et	0		J	
oleme	ole	me		V	me
mõisa	mõis	0		S	sg g
käest	käest	0		K	
     	käsi	st		S	sg el
kate	kate	0		S	sg n
ja	ja	0		J	
teist	sina	st		P	pl el
     	tee	ist		S	pl el
     	teist	0		D	
     	teine	t		O	sg p
     	teine	t		P	sg p
küüni	küün	0		S	adt
     	küün	0		S	sg g
     	küündi	0		V	o
     	küün	0		S	sg p
6	6	0		N	?
jala	jalg	0		S	sg g
    	jala	0		D	
list	list	0		S	sg n
sülda	süld	0		S	adt
     	süld	0		S	sg p
puud	puu	d		S	pl n
    	puud	0		S	sg n
    	puu	d		S	sg p
vastu	vastu	0		D	
     	vastu	0		K	
võtnud	võt	nud		V	nud
      	võt=nu	d		S	pl n
      	võt=nud	0		A	
      	võt=nud	0		A	sg n
      	võt=nud	d		A	pl n
kroonu	kroonu	0		S	sg g
      	kroonu	0		S	sg n
väele	väele	0		K	
     	vägi	le		S	sg all
vija	####				
mineva	minev	0		A	sg g
aasta	aasta	0		S	sg g
     	aasta	0		S	sg n
,	,			Z	
s	s	0		Y	?
ele	####				
pärast	pära	st		S	sg el
      	pärane	t		A	sg p
      	pärast	0		D	
      	pärast	0		K	
,	,			Z	
et	et	0		J	
vallal	vald	l		S	sg ad
tol	too	l		P	sg ad
korral	kord	l		S	sg ad
      	korral	0		D	
      	korral	0		K	
ei	ei	0		D	
  	ei	0		V	neg
olla	ole	a		V	da
ja	ja	0		J	
lubame	luba	me		V	me
,	,			Z	
et	et	0		J	
need	see	d		P	pl n
puud	puu	d		S	pl n
    	puud	0		S	sg n
    	puu	d		S	sg p
sel	see	l		P	sg ad
   	sel	0		Y	?
aastal	aasta	l		S	sg ad
mõisa	mõis	0		S	sg g
jälle	jälle	0		D	
teisste	####				
tasutud	tasu	tud		V	tud
       	tasu=tu	d		S	pl n
       	tasu=tud	0		A	
       	tasu=tud	0		A	sg n
       	tasu=tud	d		A	pl n
saavad	saa	vad		V	vad
      	saav	d		A	pl n
      	saav	d		S	pl n
.	.			Z	
