proklamtš	####				
.	.			Z	
ürv	####				
David	David	0		H	sg n
Tõnis	Tõnis	0		H	sg n
mit	####				
Mai	Mai	0		H	sg g
   	Mai	0		H	sg n
   	mai	0		S	sg g
   	mai	0		S	sg n
Kolk	kolk	0		S	sg n
ma	mina	0		P	sg n
12	12	0		N	?
usta	usku	ta		V	ta
.	.			Z	
c	c	0		Y	?
.	.			Z	
