ette	ette	0		D	
    	ette	0		K	
    	esi	tte		S	adt
tuli	tuli	0		S	sg n
    	tule	i		V	s
Mihkel	Mihkel	0		H	sg n
      	mihkel	0		A	sg n
      	mihkel	0		S	sg n
Pihho	####				
ja	ja	0		J	
kaebas	kaeba	s		V	s
et	et	0		J	
tema	tema	0		P	sg g
    	tema	0		P	sg n
olevat	ole	vat		V	vat
      	olev	t		A	sg p
      	olev	t		S	sg p
u	u	0		Y	?
5e	5e	0		Y	?
vakka	vakk	0		S	adt
     	vakk	0		S	sg p
     	vakka	0		D	
ale	ale	0		S	sg g
   	ale	0		S	sg n
maad	maa	d		S	pl n
    	maa	d		S	sg p
ja	ja	0		J	
1	1	0		N	?
niit	niis	t		S	sg p
    	niit	0		S	sg n
oma	oma	0		A	sg g
   	oma	0		D	
   	oma	0		P	sg g
   	oma	0		S	sg g
   	oma	0		V	o
   	oma	0		A	sg n
   	oma	0		A	sg p
   	oma	0		P	sg n
   	oma	0		P	sg p
   	oma	0		S	sg n
   	oma	0		S	sg p
velje	velg	0		S	sg g
     	veli	0		S	adt
     	veli	0		S	sg g
     	veli	0		S	sg p
Karl	Karl	0		H	sg n
Pihuri	####				
käest	käest	0		K	
     	käsi	st		S	sg el
24	24	0		N	?
aasta	aasta	0		S	sg g
     	aasta	0		S	sg n
peale	pea	le		S	sg all
     	peale	0		D	
     	peale	0		K	
renti	rent	0		S	adt
     	rent	0		S	sg p
peale	pea	le		S	sg all
     	peale	0		D	
     	peale	0		K	
võtnud	võt	nud		V	nud
      	võt=nu	d		S	pl n
      	võt=nud	0		A	
      	võt=nud	0		A	sg n
      	võt=nud	d		A	pl n
nõnda	nõnda	0		D	
et	et	0		J	
12	12	0		N	?
rbl	rbl	0		Y	?
aastast	aasta	st		S	sg el
       	aastane	t		A	sg p
renti	rent	0		S	adt
     	rent	0		S	sg p
maksab	maks	b		V	b
ning	ning	0		J	
lehma	lehm	0		S	adt
     	lehm	0		S	sg g
     	lehm	0		S	sg p
karjas	kari	s		S	sg in
käimise	käimine	0		S	sg g
eest	eest	0		D	
    	eest	0		K	
    	esi	st		S	sg el
1	1	0		N	?
rbl	rbl	0		Y	?
ja	ja	0		J	
2	2	0		N	?
jalgasi	jalg_asi	0		S	sg n
päeva	päev	0		S	adt
     	päev	0		S	sg g
     	päev	0		S	sg p
tüüd	####				
teha	tege	a		V	da
,	,			Z	
ent	ent	0		J	
nüüd	nüüd	0		D	
19	19	0		N	?
rbl	rbl	0		Y	?
renti	rent	0		S	adt
     	rent	0		S	sg p
ette	ette	0		D	
    	ette	0		K	
    	esi	tte		S	adt
ära	ära	0		D	
   	ära	0		V	neg o
maksnud	maks	nud		V	nud
       	maks=nu	d		S	pl n
       	maks=nud	0		A	
       	maks=nud	0		A	sg n
       	maks=nud	d		A	pl n
ja	ja	0		J	
Karl	Karl	0		H	sg n
Pihho	####				
tema	tema	0		P	sg g
    	tema	0		P	sg n
käest	käest	0		K	
     	käsi	st		S	sg el
maa	maa	0		S	sg g
   	maa	0		S	sg n
ära	ära	0		D	
   	ära	0		V	neg o
võtnud	võt	nud		V	nud
      	võt=nu	d		S	pl n
      	võt=nud	0		A	
      	võt=nud	0		A	sg n
      	võt=nud	d		A	pl n
kus	kus	0		D	
temal	tema	l		P	sg ad
10	10	0		N	?
N	N	0		Y	?
ristik	ristik	0		S	sg n
heina	hein	0		S	adt
     	hein	0		S	sg g
     	hein	0		S	sg p
seemneid	seeme	id		S	pl p
külvatud	külva	tud		V	tud
        	külva=tu	d		S	pl n
        	külva=tud	0		A	
        	külva=tud	0		A	sg n
        	külva=tud	d		A	pl n
oli	ole	i		V	s
siis	siis	0		D	
    	siis	0		J	
nõuab	nõud	b		V	b
Mihkel	Mihkel	0		H	sg n
      	mihkel	0		A	sg n
      	mihkel	0		S	sg n
Pihho	####				
nüüd	nüüd	0		D	
oma	oma	0		A	sg g
   	oma	0		D	
   	oma	0		P	sg g
   	oma	0		S	sg g
   	oma	0		V	o
   	oma	0		A	sg n
   	oma	0		A	sg p
   	oma	0		P	sg n
   	oma	0		P	sg p
   	oma	0		S	sg n
   	oma	0		S	sg p
maad	maa	d		S	pl n
    	maa	d		S	sg p
tagasi	tagasi	0		D	
      	tagasi	0		K	
.	.			Z	
Karl	Karl	0		H	sg n
Pihho	####				
ütles	ütle	s		V	s
et	et	0		J	
43	43	0		N	?
rbl	rbl	0		Y	?
on	ole	0		V	b
  	ole	0		V	vad
küll	küll	0		D	
    	küll	0		S	sg n
Mihkel	Mihkel	0		H	sg n
      	mihkel	0		A	sg n
      	mihkel	0		S	sg n
Pihho	####				
käest	käest	0		K	
     	käsi	st		S	sg el
minule	mina	le		P	sg all
saanud	saa	nud		V	nud
      	saa=nud	0		A	
      	saa=nud	0		A	sg n
      	saa=nud	d		A	pl n
      	saanu	d		S	pl n
,	,			Z	
ent	ent	0		J	
see	see	0		P	sg n
leping	leping	0		S	sg n
ei	ei	0		D	
  	ei	0		V	neg
sa	sina	0		P	sg n
vasta	vasta	0		V	o
tehtud	tehtu	d		S	pl n
      	tehtud	0		A	
      	tehtud	0		A	sg n
      	tehtud	d		A	pl n
      	tege	tud		V	tud
ent	ent	0		J	
see	see	0		P	sg n
ma	mina	0		P	sg n
on	ole	0		V	b
  	ole	0		V	vad
nüüd	nüüd	0		D	
kõik	kõik	0		P	pl n
    	kõik	0		S	sg n
    	kõik	0		P	sg n
Jaan	Jaan	0		H	sg n
    	jaan	0		S	sg n
    	jaan	0		Y	?
kiha	kiha	0		S	sg g
    	kiha	0		V	o
    	kiha	0		S	sg n
    	kiha	0		S	sg p
käes	käes	0		K	
    	käsi	s		S	sg in
sest	see	st		P	sg el
    	sest	0		J	
mina	mina	0		P	sg n
    	mina	0		S	sg g
    	mina	0		S	sg n
    	mina	0		S	sg p
jäi	jää	i		V	s
kroopantis	####				
ja	ja	0		J	
ei	ei	0		D	
  	ei	0		V	neg
jõua	jõud	0		V	o
selle	see	0		P	sg g
     	sell	e		S	pl p
maa	maa	0		S	sg g
   	maa	0		S	sg n
eest	eest	0		D	
    	eest	0		K	
    	esi	st		S	sg el
maksa	maks	0		S	adt
     	maks	0		S	sg g
     	maks	0		V	o
     	maks	0		S	sg p
ning	ning	0		J	
Mihkel	Mihkel	0		H	sg n
      	mihkel	0		A	sg n
      	mihkel	0		S	sg n
Pihho	####				
on	ole	0		V	b
  	ole	0		V	vad
ju	ju	0		D	
veel	veel	0		D	
    	vesi	l		S	sg ad
sel	see	l		P	sg ad
   	sel	0		Y	?
suvel	suvi	l		S	sg ad
4ja	####				
vakka	vakk	0		S	adt
     	vakk	0		S	sg p
     	vakka	0		D	
maa	maa	0		S	sg g
   	maa	0		S	sg n
minu	mina	0		P	sg g
maa	maa	0		S	sg g
   	maa	0		S	sg n
peale	pea	le		S	sg all
     	peale	0		D	
     	peale	0		K	
see	see	0		P	sg n
on	ole	0		V	b
  	ole	0		V	vad
2	2	0		N	?
vakka	vakk	0		S	adt
     	vakk	0		S	sg p
     	vakka	0		D	
ale	ale	0		S	sg g
   	ale	0		S	sg n
rüki	rükki	0		V	o
ja	ja	0		J	
2	2	0		N	?
vakka	vakk	0		S	adt
     	vakk	0		S	sg p
     	vakka	0		D	
ale	ale	0		S	sg g
   	ale	0		S	sg n
tõugu	tõug	0		S	adt
     	tõuk	0		S	sg g
     	tõug	0		S	sg p
ning	ning	0		J	
see	see	0		P	sg n
ühe	üks	0		N	sg g
   	üks	0		P	sg g
   	ühe	0		S	sg n
vakka	vakk	0		S	adt
     	vakk	0		S	sg p
     	vakka	0		D	
ale	ale	0		S	sg g
   	ale	0		S	sg n
maad	maa	d		S	pl n
    	maa	d		S	sg p
ja	ja	0		J	
see	see	0		P	sg n
kuurma	####				
ale	ale	0		S	sg g
   	ale	0		S	sg n
heina	hein	0		S	adt
     	hein	0		S	sg g
     	hein	0		S	sg p
maad	maa	d		S	pl n
    	maa	d		S	sg p
ei	ei	0		D	
  	ei	0		V	neg
ole	ole	0		V	o
Mihkel	Mihkel	0		H	sg n
      	mihkel	0		A	sg n
      	mihkel	0		S	sg n
Pihho	####				
sel	see	l		P	sg ad
   	sel	0		Y	?
suvel	suvi	l		S	sg ad
saanud	saa	nud		V	nud
      	saa=nud	0		A	
      	saa=nud	0		A	sg n
      	saa=nud	d		A	pl n
      	saanu	d		S	pl n
.	.			Z	
mõistet	mõiste	t		S	sg p
:	:			Z	
et	et	0		J	
Karl	Karl	0		H	sg n
Pihho	####				
maja	maja	0		S	sg g
    	maja	0		S	sg n
    	maja	0		S	sg p
võla	võlg	0		S	sg g
pärast	pära	st		S	sg el
      	pärane	t		A	sg p
      	pärast	0		D	
      	pärast	0		K	
ära	ära	0		D	
   	ära	0		V	neg o
on	ole	0		V	b
  	ole	0		V	vad
müdud	####				
ent	ent	0		J	
Mihkel	Mihkel	0		H	sg n
      	mihkel	0		A	sg n
      	mihkel	0		S	sg n
Pihho	####				
renti	rent	0		S	adt
     	rent	0		S	sg p
ka	ka	0		D	
ju	ju	0		D	
23	23	0		N	?
rbl	rbl	0		Y	?
tasu	tasu	0		S	sg g
    	tasu	0		V	o
    	tasu	0		S	sg n
    	tasu	0		S	sg p
on	ole	0		V	b
  	ole	0		V	vad
saanud	saa	nud		V	nud
      	saa=nud	0		A	
      	saa=nud	0		A	sg n
      	saa=nud	d		A	pl n
      	saanu	d		S	pl n
,	,			Z	
siis	siis	0		D	
    	siis	0		J	
peab	pida	b		V	b
Karl	Karl	0		H	sg n
Pihho	####				
11	11	0		N	?
rbl	rbl	0		Y	?
renti	rent	0		S	adt
     	rent	0		S	sg p
ja	ja	0		J	
1	1	0		N	?
rbl	rbl	0		Y	?
10	10	0		N	?
koop	koop	0		Y	?
protsenti	protsent	0		S	adt
         	protsent	0		S	sg p
Mihkel	Mihkel	0		H	sg n
      	mihkel	0		A	sg n
      	mihkel	0		S	sg n
Pihhoole	####				
tagasi	tagasi	0		D	
      	tagasi	0		K	
maksma	maks	ma		V	ma
.	.			Z	
see	see	0		P	sg n
mõistmine	mõistmine	0		S	sg n
on	ole	0		V	b
  	ole	0		V	vad
§	§	0		Y	?
773	773	0		N	?
ja	ja	0		J	
774	774	0		N	?
perrä	####				
kuulutatud	kuuluta	tud		V	tud
          	kuuluta=tu	d		S	pl n
          	kuuluta=tud	0		A	
          	kuuluta=tud	0		A	sg n
          	kuuluta=tud	d		A	pl n
ja	ja	0		J	
õppus	õppus	0		S	sg n
leht	leht	0		S	sg n
välja	välja	0		D	
     	välja	0		V	o
     	väli	0		S	adt
     	väli	0		S	sg g
     	väli	0		S	sg p
antud	an=tu	d		S	pl n
     	and	tud		V	tud
     	antud	0		A	
     	antud	0		A	sg n
     	antud	d		A	pl n
.	.			Z	
peakohtumees	pea_kohtu_mees	0		S	sg n
K	K	0		Y	?
.	.			Z	
_Lõhmus	####				
[	[			Z	
allkiri	all_kiri	0		S	sg n
]	]			Z	
kohtumees	kohtu_mees	0		S	sg n
Peeter	Peeter	0		H	sg n
Prants	####				
[	[			Z	
allkiri	all_kiri	0		S	sg n
]	]			Z	
kohtumees	kohtu_mees	0		S	sg n
Jaan	Jaan	0		H	sg n
    	jaan	0		S	sg n
    	jaan	0		Y	?
Oppar	####				
XXX	XXX	0		O	?
   	XXX	0		Y	?
kirjutaja	kirjutaja	0		S	sg g
         	kirjutaja	0		S	sg n
J	J	0		Y	?
.	.			Z	
_Jõõgeva	####				
