Märt	Märt	0		H	sg n
olin	ole	in		V	sin
kaebas	kaeba	s		V	s
Davit	####				
Rämmatsi	####				
peale	pea	le		S	sg all
     	peale	0		D	
     	peale	0		K	
,	,			Z	
et	et	0		J	
see	see	0		P	sg n
Davit	####				
teha	tege	a		V	da
oli	ole	i		V	s
sõimanud	sõima	nud		V	nud
        	sõima=nu	d		S	pl n
        	sõima=nud	0		A	
        	sõima=nud	0		A	sg n
        	sõima=nud	d		A	pl n
ja	ja	0		J	
kirvega	kirves	ga		S	sg kom
kõrva	kõrv	0		S	adt
     	kõrv	0		S	sg g
     	kõrv	0		S	sg p
peale	pea	le		S	sg all
     	peale	0		D	
     	peale	0		K	
löönud	löö	nud		V	nud
      	löö=nu	d		S	pl n
      	löö=nud	0		A	
      	löö=nud	0		A	sg n
      	löö=nud	d		A	pl n
.	.			Z	
seda	see	da		P	sg p
löömist	löömine	t		S	sg p
tunnistid	####				
kõik	kõik	0		P	pl n
    	kõik	0		S	sg n
    	kõik	0		P	sg n
kohtumehe	kohtu_mees	0		S	sg g
et	et	0		J	
Märt	Märt	0		H	sg n
kõrv	kõrv	0		S	sg n
väga	väga	0		D	
halvaste	####				
löödud	löö	dud		V	tud
      	löödu	d		S	pl n
      	löödud	0		A	
      	löödud	0		A	sg n
      	löödud	d		A	pl n
oli	ole	i		V	s
,	,			Z	
ning	ning	0		J	
see	see	0		P	sg n
löömine	löömine	0		S	sg n
oli	ole	i		V	s
tulnud	tul=nud	0		A	
      	tul=nud	0		A	sg n
      	tul=nud	d		A	pl n
      	tule	nud		V	nud
      	tulnu	d		S	pl n
:	:			Z	
David	David	0		H	sg n
Ramats	####				
on	ole	0		V	b
  	ole	0		V	vad
mõisa	mõis	0		S	sg g
metsas	mets	s		S	sg in
puid	puu	id		S	pl p
raiunud	raiu	nud		V	nud
       	raiu=nu	d		S	pl n
       	raiu=nud	0		A	
       	raiu=nud	0		A	sg n
       	raiu=nud	d		A	pl n
,	,			Z	
ning	ning	0		J	
Märt	Märt	0		H	sg n
kui	kui	0		D	
   	kui	0		J	
metsavahi	metsa_vaht	0		S	sg g
sulane	sulane	0		S	sg n
      	sulane	0		V	o
selle	see	0		P	sg g
     	sell	e		S	pl p
pera	####				
pidi	pida	i		V	s
    	pidi	0		K	
kaema	kae	ma		V	ma
ja	ja	0		J	
on	ole	0		V	b
  	ole	0		V	vad
Davide	####				
käest	käest	0		K	
     	käsi	st		S	sg el
kirvest	kirves	st		S	sg el
       	kirves	t		S	sg p
tahtnud	taht	nud		V	nud
       	taht=nu	d		S	pl n
       	taht=nud	0		A	
       	taht=nud	0		A	sg n
       	taht=nud	d		A	pl n
ära	ära	0		D	
   	ära	0		V	neg o
võtta	võt	a		V	da
,	,			Z	
ning	ning	0		J	
David	David	0		H	sg n
on	ole	0		V	b
  	ole	0		V	vad
vastu	vastu	0		D	
     	vastu	0		K	
pannud	pan=nu	d		S	pl n
      	pan=nud	0		A	
      	pan=nud	0		A	sg n
      	pan=nud	d		A	pl n
      	pane	nud		V	nud
ja	ja	0		J	
selle	see	0		P	sg g
     	sell	e		S	pl p
man	man	0		D	
   	man	0		K	
kirvega	kirves	ga		S	sg kom
Märtile	####				
kõrva	kõrv	0		S	adt
     	kõrv	0		S	sg g
     	kõrv	0		S	sg p
peale	pea	le		S	sg all
     	peale	0		D	
     	peale	0		K	
löönud	löö	nud		V	nud
      	löö=nu	d		S	pl n
      	löö=nud	0		A	
      	löö=nud	0		A	sg n
      	löö=nud	d		A	pl n
.	.			Z	
tunnistaja	tunnistaja	0		S	sg g
          	tunnistaja	0		S	sg n
Karl	Karl	0		H	sg n
Raudsep	####				
tunnist	tund	st		S	sg el
       	tunnine	t		A	sg p
et	et	0		J	
tema	tema	0		P	sg g
    	tema	0		P	sg n
man	man	0		D	
   	man	0		K	
on	ole	0		V	b
  	ole	0		V	vad
olnud	ol=nud	0		A	
     	ol=nud	0		A	sg n
     	ol=nud	d		A	pl n
     	ole	nud		V	nud
     	olnu	d		S	pl n
kui	kui	0		D	
   	kui	0		J	
Märt	Märt	0		H	sg n
Davide	####				
käest	käest	0		K	
     	käsi	st		S	sg el
kirvest	kirves	st		S	sg el
       	kirves	t		S	sg p
on	ole	0		V	b
  	ole	0		V	vad
tahtnud	taht	nud		V	nud
       	taht=nu	d		S	pl n
       	taht=nud	0		A	
       	taht=nud	0		A	sg n
       	taht=nud	d		A	pl n
ära	ära	0		D	
   	ära	0		V	neg o
võtta	võt	a		V	da
,	,			Z	
David	David	0		H	sg n
on	ole	0		V	b
  	ole	0		V	vad
Märt	Märt	0		H	sg n
jusist	####				
kinnivõtnud	kinni_võt=nu	d		S	pl n
           	kinni_võt=nud	0		A	
           	kinni_võt=nud	0		A	sg n
           	kinni_võt=nud	d		A	pl n
ning	ning	0		J	
kirvega	kirves	ga		S	sg kom
kõrva	kõrv	0		S	adt
     	kõrv	0		S	sg g
     	kõrv	0		S	sg p
peale	pea	le		S	sg all
     	peale	0		D	
     	peale	0		K	
löönud	löö	nud		V	nud
      	löö=nu	d		S	pl n
      	löö=nud	0		A	
      	löö=nud	0		A	sg n
      	löö=nud	d		A	pl n
.	.			Z	
otsus	otsus	0		S	sg n
David	David	0		H	sg n
Rämmats	####				
pead	pea	d		S	pl n
    	pida	d		V	d
    	pea	d		S	sg p
Märtele	####				
1	1	0		N	?
R	R	0		Y	?
.	.			Z	
hõb	####				
.	.			Z	
valuraha	valu_raha	0		S	sg g
        	valu_raha	0		S	sg n
        	valu_raha	0		S	sg p
nädala	nädal	0		S	sg g
pärast	pära	st		S	sg el
      	pärane	t		A	sg p
      	pärast	0		D	
      	pärast	0		K	
maksma	maks	ma		V	ma
,	,			Z	
ning	ning	0		J	
saab	saa	b		V	b
selle	see	0		P	sg g
     	sell	e		S	pl p
suure	suur	0		A	sg g
julguse	julgus	0		S	sg g
eet	####				
25	25	0		N	?
vitsa	vits	0		S	adt
     	vits	0		S	sg g
     	vits	0		S	sg p
löki	####				
karistust	karistus	t		S	sg p
.	.			Z	
