Johann	Johann	0		H	sg n
vallner	####				
and	and	0		S	sg n
selle	see	0		P	sg g
     	sell	e		S	pl p
kohtu	kohtu	0		V	o
     	kohus	0		S	sg g
ees	ees	0		D	
   	ees	0		K	
   	esi	s		S	sg in
üles	üles	0		D	
,	,			Z	
et	et	0		J	
õigeoussu	####				
Kiriku	kirik	0		S	sg g
Vöölmöndre	####				
Karl	Karl	0		H	sg n
Treumuthi	####				
koer	koer	0		A	sg n
    	koer	0		S	sg n
tema	tema	0		P	sg g
    	tema	0		P	sg n
poega	poeg	0		S	adt
     	pood	ga		S	sg kom
     	poeg	0		S	sg p
Karlit	####				
sügise	sügis	0		S	sg g
purnud	####				
on	ole	0		V	b
  	ole	0		V	vad
,	,			Z	
ning	ning	0		J	
nimelt	nimelt	0		D	
      	nimi	lt		S	sg abl
olevat	ole	vat		V	vat
      	olev	t		A	sg p
      	olev	t		S	sg p
see	see	0		P	sg n
koer	koer	0		A	sg n
    	koer	0		S	sg n
tool	tool	0		S	sg n
samal	sama	l		P	sg ad
korras	kord	s		S	sg in
      	korras	0		A	
marru	maru	0		A	adt
     	maru	0		S	adt
läinud	läinu	d		S	pl n
      	läinud	0		A	
      	läinud	0		A	sg n
      	läinud	d		A	pl n
      	mine	nud		V	nud
,	,			Z	
ja	ja	0		J	
Joh	####				
:	:			Z	
vallner	####				
pidi	pida	i		V	s
    	pidi	0		K	
selle	see	0		P	sg g
     	sell	e		S	pl p
mõisa	mõis	0		S	sg g
kohtu	kohtu	0		V	o
     	kohus	0		S	sg g
käsu	käsk	0		S	sg g
peale	pea	le		S	sg all
     	peale	0		D	
     	peale	0		K	
oma	oma	0		A	sg g
   	oma	0		D	
   	oma	0		P	sg g
   	oma	0		S	sg g
   	oma	0		V	o
   	oma	0		A	sg n
   	oma	0		A	sg p
   	oma	0		P	sg n
   	oma	0		P	sg p
   	oma	0		S	sg n
   	oma	0		S	sg p
poega	poeg	0		S	adt
     	pood	ga		S	sg kom
     	poeg	0		S	sg p
Karlit	####				
Võru	Võru	0		H	sg g
    	Võru	0		H	sg n
    	võru	0		S	sg g
    	võru	0		S	sg n
    	võru	0		S	sg p
tutre	####				
alla	alla	0		D	
    	alla	0		K	
veema	####				
,	,			Z	
ning	ning	0		J	
on	ole	0		V	b
  	ole	0		V	vad
selle	see	0		P	sg g
     	sell	e		S	pl p
oma	oma	0		A	sg g
   	oma	0		D	
   	oma	0		P	sg g
   	oma	0		S	sg g
   	oma	0		V	o
   	oma	0		A	sg n
   	oma	0		A	sg p
   	oma	0		P	sg n
   	oma	0		P	sg p
   	oma	0		S	sg n
   	oma	0		S	sg p
poja	poeg	0		S	sg g
    	poja	0		S	sg g
    	poja	0		S	sg n
    	poja	0		S	sg p
eest	eest	0		D	
    	eest	0		K	
    	esi	st		S	sg el
5	5	0		N	?
R	R	0		Y	?
.	.			Z	
85	85	0		N	?
kop	kop	0		Y	?
.	.			Z	
hõb	####				
.	.			Z	
tutre	####				
raha	raha	0		S	sg g
    	raha	0		S	sg n
    	raha	0		S	sg p
pidanud	pida	nud		V	nud
       	pida=nu	d		S	pl n
       	pida=nud	0		A	
       	pida=nud	0		A	sg n
       	pida=nud	d		A	pl n
maksma	maks	ma		V	ma
.	.			Z	
Karl	Karl	0		H	sg n
Treumuth	####				
,	,			Z	
ei	ei	0		D	
  	ei	0		V	neg
või	või	0		S	sg g
   	või	0		V	o
   	või	0		D	
   	või	0		J	
   	või	0		S	sg n
seda	see	da		P	sg p
salata	salga	ta		V	da
      	sala	ta		S	sg ab
      	salga	ta		V	ta
,	,			Z	
et	et	0		J	
tema	tema	0		P	sg g
    	tema	0		P	sg n
koer	koer	0		A	sg n
    	koer	0		S	sg n
Joh	####				
:	:			Z	
Treumuthi	####				
poega	poeg	0		S	adt
     	pood	ga		S	sg kom
     	poeg	0		S	sg p
Karlit	####				
purnud	####				
oli	ole	i		V	s
,	,			Z	
ja	ja	0		J	
ka	ka	0		D	
peale	pea	le		S	sg all
     	peale	0		D	
     	peale	0		K	
selle	see	0		P	sg g
     	sell	e		S	pl p
marru	maru	0		A	adt
     	maru	0		S	adt
läinud	läinu	d		S	pl n
      	läinud	0		A	
      	läinud	0		A	sg n
      	läinud	d		A	pl n
      	mine	nud		V	nud
.	.			Z	
otsus	otsus	0		S	sg n
:	:			Z	
et	et	0		J	
Karl	Karl	0		H	sg n
Treumuth	####				
,	,			Z	
ei	ei	0		D	
  	ei	0		V	neg
ole	ole	0		V	o
selle	see	0		P	sg g
     	sell	e		S	pl p
kohtu	kohtu	0		V	o
     	kohus	0		S	sg g
poolt	pool	t		N	sg p
     	pool	t		S	sg p
     	poolt	0		D	
     	poolt	0		K	
antud	an=tu	d		S	pl n
     	and	tud		V	tud
     	antud	0		A	
     	antud	0		A	sg n
     	antud	d		A	pl n
käskmist	####				
kuulda	kuul	da		V	da
      	kuul	da		V	ta
võtnud	võt	nud		V	nud
      	võt=nu	d		S	pl n
      	võt=nud	0		A	
      	võt=nud	0		A	sg n
      	võt=nud	d		A	pl n
oma	oma	0		A	sg g
   	oma	0		D	
   	oma	0		P	sg g
   	oma	0		S	sg g
   	oma	0		V	o
   	oma	0		A	sg n
   	oma	0		A	sg p
   	oma	0		P	sg n
   	oma	0		P	sg p
   	oma	0		S	sg n
   	oma	0		S	sg p
koera	koer	0		A	adt
     	koer	0		A	sg g
     	koer	0		S	adt
     	koer	0		S	sg g
     	koer	0		A	sg p
     	koer	0		S	sg p
ära	ära	0		D	
   	ära	0		V	neg o
tappa	tap	a		V	da
     	tapp	0		S	adt
     	tapp	0		S	sg p
,	,			Z	
nõnda	nõnda	0		D	
kui	kui	0		D	
   	kui	0		J	
kõigile	kõik	le		P	pl all
selle	see	0		P	sg g
     	sell	e		S	pl p
valla	vald	0		S	sg g
     	valla	0		D	
peremeestele	pere_mees	tele		S	pl all
käsk	käsk	0		S	sg n
sai	saa	i		V	s
   	sai	0		S	sg n
antud	an=tu	d		S	pl n
     	and	tud		V	tud
     	antud	0		A	
     	antud	0		A	sg n
     	antud	d		A	pl n
:	:			Z	
oma	oma	0		A	sg g
   	oma	0		D	
   	oma	0		P	sg g
   	oma	0		S	sg g
   	oma	0		V	o
   	oma	0		A	sg n
   	oma	0		A	sg p
   	oma	0		P	sg n
   	oma	0		P	sg p
   	oma	0		S	sg n
   	oma	0		S	sg p
koera	koer	0		A	adt
     	koer	0		A	sg g
     	koer	0		S	adt
     	koer	0		S	sg g
     	koer	0		A	sg p
     	koer	0		S	sg p
kinni	kinni	0		D	
hoita	hoid	ta		V	ta
ehk	ehk	0		D	
   	ehk	0		J	
ära	ära	0		D	
   	ära	0		V	neg o
tappa	tap	a		V	da
     	tapp	0		S	adt
     	tapp	0		S	sg p
;	;			Z	
sai	saa	i		V	s
   	sai	0		S	sg n
mõistetud	mõist	tud		V	tud
         	mõiste=tu	d		S	pl n
         	mõiste=tud	0		A	
         	mõiste=tud	0		A	sg n
         	mõiste=tud	d		A	pl n
,	,			Z	
et	et	0		J	
Karl	Karl	0		H	sg n
Treumuth	####				
selle	see	0		P	sg g
     	sell	e		S	pl p
Johann	Johann	0		H	sg n
Treumuthi	####				
kulu	kulg	0		S	sg g
    	kulu	0		S	sg g
    	kulu	0		V	o
    	kulu	0		S	sg n
    	kulu	0		S	sg p
5	5	0		N	?
R	R	0		Y	?
.	.			Z	
85	85	0		N	?
kop	kop	0		Y	?
.	.			Z	
hõbe	hõbe	0		S	sg n
pead	pea	d		S	pl n
    	pida	d		V	d
    	pea	d		S	sg p
tagasi	tagasi	0		D	
      	tagasi	0		K	
tasuma	tasu	ma		V	ma
.	.			Z	
Viimselt	viimne	lt		A	sg abl
        	viimse=lt	0		D	
tunnist	tund	st		S	sg el
       	tunnine	t		A	sg p
Karl	Karl	0		H	sg n
Treumuth	####				
ise	ise	0		A	
   	ise	0		D	
   	ise	0		P	pl n
   	ise	0		P	sg n
,	,			Z	
et	et	0		J	
kui	kui	0		D	
   	kui	0		J	
tema	tema	0		P	sg g
    	tema	0		P	sg n
koer	koer	0		A	sg n
    	koer	0		S	sg n
arunn	####				
ära	ära	0		D	
   	ära	0		V	neg o
oli	ole	i		V	s
läinud	läinu	d		S	pl n
      	läinud	0		A	
      	läinud	0		A	sg n
      	läinud	d		A	pl n
      	mine	nud		V	nud
,	,			Z	
et	et	0		J	
ta	tema	0		P	sg g
  	tema	0		P	sg n
ka	ka	0		D	
muid	muu	id		P	pl p
valla	vald	0		S	sg g
     	valla	0		D	
koere	####				
purnud	####				
on	ole	0		V	b
  	ole	0		V	vad
.	.			Z	
