Pulli	pull	0		A	adt
     	pull	0		A	sg g
     	pull	0		S	adt
     	pull	0		S	sg g
     	pulli	0		V	o
     	pull	0		A	sg p
     	pull	0		S	sg p
Karl	Karl	0		H	sg n
Puill	####				
anna	and	0		V	o
    	anna	0		S	sg g
    	anna	0		S	sg n
õnda	####				
Laste	laps	te		S	pl g
     	last	e		S	pl p
Häh	häh	0		I	
üles	üles	0		D	
,	,			Z	
kui	kui	0		D	
   	kui	0		J	
tema	tema	0		P	sg g
    	tema	0		P	sg n
endale	ise	le		P	sg all
teise	teine	0		O	adt
     	teine	0		O	sg g
     	teine	0		P	adt
     	teine	0		P	sg g
naise	naine	0		S	sg g
võttis	võt	is		V	s
:	:			Z	
kaks	kaks	0		N	sg n
Lehmak	####				
,	,			Z	
kaks	kaks	0		N	sg n
kõhva	####				
,	,			Z	
üks	üks	0		N	sg n
   	üks	0		P	sg n
Pulle	pull	e		A	pl p
     	pull	e		S	pl p
,	,			Z	
Neli	neli	0		N	sg n
lammast	lammas	t		S	sg p
.	.			Z	
kaks	kaks	0		N	sg n
siga	siga	0		A	sg n
    	siga	0		A	sg p
    	siga	0		S	sg n
    	siga	0		S	sg p
.	.			Z	
üks	üks	0		N	sg n
   	üks	0		P	sg n
kits	kits	0		S	sg n
,	,			Z	
üks	üks	0		N	sg n
   	üks	0		P	sg n
Sikk	sikk	0		S	sg n
.	.			Z	
üks	üks	0		N	sg n
   	üks	0		P	sg n
Kask	kask	0		S	sg n
,	,			Z	
üks	üks	0		N	sg n
   	üks	0		P	sg n
ärksk	####				
.	.			Z	
Neli	neli	0		N	sg n
amet	amet	0		S	sg n
.	.			Z	
kaks	kaks	0		N	sg n
Undrikok	####				
,	,			Z	
kaks	kaks	0		N	sg n
pölle	####				
,	,			Z	
kaks	kaks	0		N	sg n
räti	rätt	0		S	sg g
.	.			Z	
tema	tema	0		P	sg g
    	tema	0		P	sg n
Laste	laps	te		S	pl g
     	last	e		S	pl p
on	ole	0		V	b
  	ole	0		V	vad
:	:			Z	
Peeter	Peeter	0		H	sg n
ja	ja	0		J	
Liso	####				
vana	vana	0		A	sg g
    	vana	0		A	sg n
    	vana	0		A	sg p
    	vana	0		S	sg g
    	vana	0		S	sg n
    	vana	0		S	sg p
Ans	####				
mõis	mõis	0		S	sg n
sell	sell	0		S	sg n
4mal	####				
oktb	####				
35.18	35.18	0		N	?
