Peeter	Peeter	0		H	sg n
possi	####				
ja	ja	0		J	
Jakob	Jakob	0		H	sg n
Ruus	####				
vahel	vahe	l		S	sg ad
     	vahel	0		D	
     	vahel	0		K	
on	ole	0		V	b
  	ole	0		V	vad
nii	nii	0		D	
leping	leping	0		S	sg n
saanud	saa	nud		V	nud
      	saa=nud	0		A	
      	saa=nud	0		A	sg n
      	saa=nud	d		A	pl n
      	saanu	d		S	pl n
võlanõudmise	võla_nõudmine	0		S	sg g
pärast	pära	st		S	sg el
      	pärane	t		A	sg p
      	pärast	0		D	
      	pärast	0		K	
,	,			Z	
et	et	0		J	
Peeter	Peeter	0		H	sg n
possi	####				
maksab	maks	b		V	b
Jakob	Jakob	0		H	sg n
Ruus	####				
heaks	hea	ks		A	sg tr
     	hea	ks		S	sg tr
     	heaks	0		D	
     	heaks	0		K	
4	4	0		N	?
rbl	rbl	0		Y	?
.	.			Z	
90	90	0		N	?
kop	kop	0		Y	?
.	.			Z	
kuni	kuni	0		J	
    	kuni	0		K	
1.	1.	0		O	?
märtsini	märts	ni		S	sg ter
sel	see	l		P	sg ad
   	sel	0		Y	?
aastal	aasta	l		S	sg ad
.	.			Z	
oma	oma	0		A	sg g
   	oma	0		D	
   	oma	0		P	sg g
   	oma	0		S	sg g
   	oma	0		V	o
   	oma	0		A	sg n
   	oma	0		A	sg p
   	oma	0		P	sg n
   	oma	0		P	sg p
   	oma	0		S	sg n
   	oma	0		S	sg p
ka	ka	0		D	
mõlema	mõlema	0		P	sg g
sellega	see	ga		P	sg kom
rahul	rahu	l		S	sg ad
     	rahul	0		D	
ja	ja	0		J	
Samuel	Samuel	0		H	sg n
Dolf	####				
maksab	maks	b		V	b
Peeter	Peeter	0		H	sg n
possi	####				
palgast	palk	st		S	sg el
see	see	0		P	sg n
raha	raha	0		S	sg g
    	raha	0		S	sg n
    	raha	0		S	sg p
välja	välja	0		D	
     	välja	0		V	o
     	väli	0		S	adt
     	väli	0		S	sg g
     	väli	0		S	sg p
.	.			Z	
otsus	otsus	0		S	sg n
:	:			Z	
seda	see	da		P	sg p
kirjuta	kirju	ta		A	sg ab
       	kirjuta	0		V	o
.	.			Z	
peakohtumees	pea_kohtu_mees	0		S	sg n
K	K	0		Y	?
.	.			Z	
_Lõhmus	####				
kohtumees	kohtu_mees	0		S	sg n
T. Pilt	####				
kohtumees	kohtu_mees	0		S	sg n
Jaan	Jaan	0		H	sg n
    	jaan	0		S	sg n
    	jaan	0		Y	?
Oppar	####				
XXX	XXX	0		O	?
   	XXX	0		Y	?
kirj	####				
.	.			Z	
asemel	ase	l		S	sg ad
      	asemel	0		K	
/	/			Z	
allkiri	all_kiri	0		S	sg n
/	/			Z	
