tuli	tuli	0		S	sg n
    	tule	i		V	s
ette	ette	0		D	
    	ette	0		K	
    	esi	tte		S	adt
Via	Via			H	?
Pikka	pikk	0		A	adt
     	pikk	0		A	sg p
     	pikk	0		S	adt
     	pikk	0		S	sg p
     	pikka	0		D	
pärisomanik	päris_omanik	0		S	sg n
Jaan	Jaan	0		H	sg n
    	jaan	0		S	sg n
    	jaan	0		Y	?
Bragi	####				
,	,			Z	
ja	ja	0		J	
palle	pall	e		S	pl p
kohut	kohus	t		S	sg p
,	,			Z	
et	et	0		J	
tema	tema	0		P	sg g
    	tema	0		P	sg n
omal	oma	l		A	sg ad
    	oma	l		P	sg ad
    	oma	l		S	sg ad
rentnikul	rentnik	l		S	sg ad
Jaan	Jaan	0		H	sg n
    	jaan	0		S	sg n
    	jaan	0		Y	?
Mark´il	####				
tahab	taht	b		V	b
sedaviisi	seda_viisi	0		D	
üles	üles	0		D	
ütelda_	####				
,	,			Z	
et	et	0		J	
tem	####				
(	(			Z	
m	m	0		Y	?
)	)			Z	
a	a	0		Y	?
(	(			Z	
J	J	0		Y	?
.	.			Z	
_	_			Z	
Bragi	####				
)	)			Z	
see	see	0		P	sg n
mäe	mägi	0		S	sg g
maa	maa	0		S	sg g
   	maa	0		S	sg n
,	,			Z	
mis	mis	0		P	pl n
   	mis	0		P	sg n
suusõnaga	suu_sõna	ga		S	sg kom
on	ole	0		V	b
  	ole	0		V	vad
lepitud	leppi	tud		V	tud
       	lepi=tu	d		S	pl n
       	lepi=tud	0		A	
       	lepi=tud	0		A	sg n
       	lepi=tud	d		A	pl n
,	,			Z	
tuleva	tulev	0		A	sg g
aasta	aasta	0		S	sg g
     	aasta	0		S	sg n
,	,			Z	
see	see	0		P	sg n
on	ole	0		V	b
  	ole	0		V	vad
Jüri	Jüri	0		H	sg g
    	Jüri	0		H	sg n
päeval	päev	l		S	sg ad
1878	1878	0		N	?
,	,			Z	
Jaan	Jaan	0		H	sg n
    	jaan	0		S	sg n
    	jaan	0		Y	?
Mark´i	####				
käest	käest	0		K	
     	käsi	st		S	sg el
ära	ära	0		D	
   	ära	0		V	neg o
tah_	####				
ap	####				
võtta	võt	a		V	da
,	,			Z	
selle	see	0		P	sg g
     	sell	e		S	pl p
,	,			Z	
et	et	0		J	
lepingut	leping	t		S	sg p
ei	ei	0		D	
  	ei	0		V	neg
ole	ole	0		V	o
pidanud	pida	nud		V	nud
       	pida=nu	d		S	pl n
       	pida=nud	0		A	
       	pida=nud	0		A	sg n
       	pida=nud	d		A	pl n
,	,			Z	
ehk	ehk	0		D	
   	ehk	0		J	
ei	ei	0		D	
  	ei	0		V	neg
ole	ole	0		V	o
täitnud	täit	nud		V	nud
       	täit=nu	d		S	pl n
       	täit=nud	0		A	
       	täit=nud	0		A	sg n
       	täit=nud	d		A	pl n
,	,			Z	
ent	ent	0		J	
,	,			Z	
et	et	0		J	
Jaan	Jaan	0		H	sg n
    	jaan	0		S	sg n
    	jaan	0		Y	?
Mark	Mark	0		H	sg n
    	mark	0		S	sg n
ei	ei	0		D	
  	ei	0		V	neg
ole	ole	0		V	o
kolme	kolm	0		N	adt
     	kolm	0		N	sg g
     	kolm	0		N	sg p
kohtu	kohtu	0		V	o
     	kohus	0		S	sg g
päeva	päev	0		S	adt
     	päev	0		S	sg g
     	päev	0		S	sg p
kutsumise	kutsumine	0		S	sg g
peale	pea	le		S	sg all
     	peale	0		D	
     	peale	0		K	
,	,			Z	
kohtu	kohtu	0		V	o
     	kohus	0		S	sg g
ette	ette	0		D	
    	ette	0		K	
    	esi	tte		S	adt
tulnud	tul=nud	0		A	
      	tul=nud	0		A	sg n
      	tul=nud	d		A	pl n
      	tule	nud		V	nud
      	tulnu	d		S	pl n
,	,			Z	
siis	siis	0		D	
    	siis	0		J	
jäi	jää	i		V	s
kohtu	kohtu	0		V	o
     	kohus	0		S	sg g
hoole	hoog	le		S	sg all
     	hool	0		S	sg g
     	hoole	0		S	sg n
alla	alla	0		D	
    	alla	0		K	
,	,			Z	
üles	üles	0		D	
ütlemine	ütlemine	0		S	sg n
kindmas	####				
.	.			Z	
_	_			Z	
(	(			Z	
allkiri	all_kiri	0		S	sg n
)	)			Z	
