Johan	Johan	0		H	sg n
Ainson	####				
on	ole	0		V	b
  	ole	0		V	vad
ennast	ise	t		P	sg p
nii	nii	0		D	
viisi	viis	0		S	adt
     	viis	0		S	sg g
     	viis	i		N	pl p
     	viisi	0		K	
     	viis	0		S	sg p
Silabae	####				
aidamehes	aida_mees	s		S	sg in
palganut	palga=nu	t		S	sg p
,	,			Z	
et	et	0		J	
tema	tema	0		P	sg g
    	tema	0		P	sg n
jüripaevast	####				
1866	1866	0		N	?
ühe	üks	0		N	sg g
   	üks	0		P	sg g
   	ühe	0		S	sg n
aasta	aasta	0		S	sg g
     	aasta	0		S	sg n
pale	pale	0		S	sg g
    	pale	0		S	sg n
12	12	0		N	?
vakka	vakk	0		S	adt
     	vakk	0		S	sg p
     	vakka	0		D	
rukki	rukis	0		S	adt
     	rukis	0		S	sg g
2	2	0		N	?
vakka	vakk	0		S	adt
     	vakk	0		S	sg p
     	vakka	0		D	
kesvi	kesv	i		S	pl p
2	2	0		N	?
vakka	vakk	0		S	adt
     	vakk	0		S	sg p
     	vakka	0		D	
soormad	####				
2	2	0		N	?
vakka	vakk	0		S	adt
     	vakk	0		S	sg p
     	vakka	0		D	
herned	hernes	d		S	pl n
55	55	0		N	?
rubla	rubla	0		S	sg g
     	rubla	0		S	sg n
     	rubla	0		S	sg p
palka	palk	0		S	adt
     	palka	0		V	o
     	palk	0		S	sg p
9	9	0		N	?
sülda	süld	0		S	adt
     	süld	0		S	sg p
puid	puu	id		S	pl p
korter	korter	0		S	sg n
ning	ning	0		J	
vakamaa	vaka_maa	0		S	sg g
       	vaka_maa	0		S	sg n
aiamaad	aia_maa	d		S	pl n
       	aia_maa	d		S	sg p
Silabae	####				
rehe	rehi	0		S	sg g
man	man	0		D	
   	man	0		K	
1	1	0		N	?
/	/			Z	
4	4	0		N	?
põllus	põld	s		S	sg in
3	3	0		N	?
/	/			Z	
4	4	0		N	?
pidab	####				
1	1	0		N	?
lehm	lehm	0		S	sg n
ja	ja	0		J	
1	1	0		N	?
hobun	####				
mõisa	mõis	0		S	sg g
lautan	####				
,	,			Z	
saab	saa	b		V	b
paeva	####				
hoopusel	####				
1	1	0		N	?
vakk	vakk	0		S	sg n
kaerät	####				
.	.			Z	
Räpina	Räpina	0		H	sg g
      	räpp	na		S	sg es
      	Räpina	0		H	sg n
sel	see	l		P	sg ad
   	sel	0		Y	?
14	14	0		N	?
Februar	####				
1866	1866	0		N	?
Johan	Johan	0		H	sg n
Ainson	####				
selle	see	0		P	sg g
     	sell	e		S	pl p
valla	vald	0		S	sg g
     	valla	0		D	
ameti	amet	0		S	sg g
pale	pale	0		S	sg g
    	pale	0		S	sg n
,	,			Z	
kus	kus	0		D	
ta	tema	0		P	sg g
  	tema	0		P	sg n
iga	iga	0		P	sg g
   	iga	0		P	sg n
   	iga	0		P	sg p
   	iga	0		S	sg n
   	iga	0		S	sg p
päeves	####				
ja	ja	0		J	
neljapäev	nelja_päev	0		S	sg n
pärast	pära	st		S	sg el
      	pärane	t		A	sg p
      	pärast	0		D	
      	pärast	0		K	
launa	laug	na		S	sg es
on	ole	0		V	b
  	ole	0		V	vad
,	,			Z	
võib	või	b		V	b
ju	ju	0		D	
Ainson	####				
ka	ka	0		D	
sedaaasta	####				
jääda	jää	da		V	da
     	jää	da		V	ta
A	A	0		Y	?
.	.			Z	
J	J	0		Y	?
..	..			Z	
mut	####				
