Karl	Karl	0		H	sg n
Tensing	####				
tunnistas	tunnista	s		V	s
et	et	0		J	
tema	tema	0		P	sg g
    	tema	0		P	sg n
silmad	silm	d		S	pl n
      	silma	d		V	d
seda	see	da		P	sg p
mitte	mitte	0		D	
ei	ei	0		D	
  	ei	0		V	neg
ole	ole	0		V	o
näinud	näi	nud		V	nud
      	näge	nud		V	nud
      	näi=nud	0		A	
      	näi=nud	0		A	sg n
      	näi=nud	d		A	pl n
      	näinu	d		S	pl n
et	et	0		J	
Sep	####				
Peeter	Peeter	0		H	sg n
kasvandol	####				
saavaraga	saav_arg	ga		A	sg kom
oli	ole	i		V	s
löönud	löö	nud		V	nud
      	löö=nu	d		S	pl n
      	löö=nud	0		A	
      	löö=nud	0		A	sg n
      	löö=nud	d		A	pl n
,	,			Z	
kui	kui	0		D	
   	kui	0		J	
Peeter	Peeter	0		H	sg n
Seppäga	####				
rõselema	####				
on	ole	0		V	b
  	ole	0		V	vad
läinud	läinu	d		S	pl n
      	läinud	0		A	
      	läinud	0		A	sg n
      	läinud	d		A	pl n
      	mine	nud		V	nud
,	,			Z	
on	ole	0		V	b
  	ole	0		V	vad
tema	tema	0		P	sg g
    	tema	0		P	sg n
ära	ära	0		D	
   	ära	0		V	neg o
sepikust	sepik	st		S	sg el
välja	välja	0		D	
     	välja	0		V	o
     	väli	0		S	adt
     	väli	0		S	sg g
     	väli	0		S	sg p
läinud	läinu	d		S	pl n
      	läinud	0		A	
      	läinud	0		A	sg n
      	läinud	d		A	pl n
      	mine	nud		V	nud
.	.			Z	
ja	ja	0		J	
kui	kui	0		D	
   	kui	0		J	
Peeter	Peeter	0		H	sg n
välja	välja	0		D	
     	välja	0		V	o
     	väli	0		S	adt
     	väli	0		S	sg g
     	väli	0		S	sg p
on	ole	0		V	b
  	ole	0		V	vad
tulnud	tul=nud	0		A	
      	tul=nud	0		A	sg n
      	tul=nud	d		A	pl n
      	tule	nud		V	nud
      	tulnu	d		S	pl n
Seppakoast	####				
on	ole	0		V	b
  	ole	0		V	vad
ütelnud	ütle	nud		V	nud
       	ütel=nu	d		S	pl n
       	ütel=nud	0		A	
       	ütel=nud	0		A	sg n
       	ütel=nud	d		A	pl n
kas	kas	0		D	
näed	näge	d		V	d
mul	mina	l		P	sg ad
Veri	veri	0		S	sg n
ja	ja	0		J	
on	ole	0		V	b
  	ole	0		V	vad
pühkinud	pühki	nud		V	nud
        	pühki=nu	d		S	pl n
        	pühki=nud	0		A	
        	pühki=nud	0		A	sg n
        	pühki=nud	d		A	pl n
abemid	####				
.	.			Z	
