Preestri	preester	0		S	sg g
härra	härra	0		S	sg g
     	härra	0		S	sg n
teadaandmise	teada_andmine	0		S	sg g
peale	pea	le		S	sg all
     	peale	0		D	
     	peale	0		K	
d	d	0		Y	?
.	.			Z	
d	d	0		Y	?
.	.			Z	
21	21	0		N	?
aprillil	aprill	l		S	sg ad
s	s	0		Y	?
.	.			Z	
a.	a	0		Y	?
No	no	0		I	
100	100	0		N	?
:	:			Z	
et	et	0		J	
Kusta	Kusta	0		H	sg g
     	Kusta	0		H	sg n
     	kuse	ta		V	da
     	kuse	ta		V	ta
Lepson	####				
,	,			Z	
Joosepi	Joosep	0		H	sg g
poeg	poeg	0		S	sg n
olevat	ole	vat		V	vat
      	olev	t		A	sg p
      	olev	t		S	sg p
õigeusu	õige_usk	0		S	sg g
Kiriku	kirik	0		S	sg g
ees	ees	0		D	
   	ees	0		K	
   	esi	s		S	sg in
tundsinud	####				
,	,			Z	
kui	kui	0		D	
   	kui	0		J	
kirikun	####				
palvadest	####				
peeti	peet	0		S	adt
     	pida	ti		V	ti
     	peet	0		S	sg p
.	.			Z	
vastutas	vastuta	s		V	s
Kustav	kus=tav	0		A	sg n
      	kuse	tav		V	tav
Lepson	####				
,	,			Z	
ja	ja	0		J	
ei	ei	0		D	
  	ei	0		V	neg
salga	salga	0		V	o
     	salk	0		S	sg g
,	,			Z	
et	et	0		J	
tema	tema	0		P	sg g
    	tema	0		P	sg n
kõrratu	####				
olemist	olem	st		S	sg el
       	olemine	t		S	sg p
on	ole	0		V	b
  	ole	0		V	vad
kiriku	kirik	0		S	sg g
man	man	0		D	
   	man	0		K	
üles	üles	0		D	
näitnud	####				
.	.			Z	
otsus	otsus	0		S	sg n
.	.			Z	
kohus	kohu	s		V	s
     	kohus	0		S	sg n
mõistis	mõist	is		V	s
,	,			Z	
et	et	0		J	
Kustav	kus=tav	0		A	sg n
      	kuse	tav		V	tav
Lepson	####				
saab	saa	b		V	b
10	10	0		N	?
vitsa	vits	0		S	adt
     	vits	0		S	sg g
     	vits	0		S	sg p
lööki	löök	0		S	adt
     	löök	0		S	sg p
selle	see	0		P	sg g
     	sell	e		S	pl p
eest	eest	0		D	
    	eest	0		K	
    	esi	st		S	sg el
,	,			Z	
et	et	0		J	
kiriku	kirik	0		S	sg g
man	man	0		D	
   	man	0		K	
halvaste	####				
enda	ise	0		P	sg g
ülespidanud	üles_pida=nu	d		S	pl n
           	üles_pida=nud	0		A	
           	üles_pida=nud	0		A	sg n
           	üles_pida=nud	d		A	pl n
on	ole	0		V	b
  	ole	0		V	vad
.	.			Z	
sai	saa	i		V	s
   	sai	0		S	sg n
tänatsel	####				
päeval	päev	l		S	sg ad
kätte	kätte	0		K	
     	käsi	tte		S	adt
.	.			Z	
peakohtumees	pea_kohtu_mees	0		S	sg n
Joh	####				
.	.			Z	
Lepland	####				
kohtumees	kohtu_mees	0		S	sg n
Jaan	Jaan	0		H	sg n
    	jaan	0		S	sg n
    	jaan	0		Y	?
kiräitsing	####				
kohtumees	kohtu_mees	0		S	sg n
Joosep	Joosep	0		H	sg n
Oinberg	####				
kirjutaja	kirjutaja	0		S	sg g
         	kirjutaja	0		S	sg n
D	D	0		O	?
 	D	0		Y	?
.	.			Z	
_	_			Z	
Otsing	otsing	0		S	sg n
