kaebas	kaeba	s		V	s
Mina	mina	0		P	sg n
    	mina	0		S	sg g
    	mina	0		S	sg n
    	mina	0		S	sg p
Veerland	####				
et	et	0		J	
Julia	Julia	0		H	sg g
     	Julia	0		H	sg n
Märdikuse	####				
on	ole	0		V	b
  	ole	0		V	vad
teda	tema	da		P	sg p
ilma	ilm	0		S	adt
    	ilm	0		S	sg g
    	ilma	0		D	
    	ilma	0		K	
    	ilm	0		S	sg p
süida	####				
oma	oma	0		A	sg g
   	oma	0		D	
   	oma	0		P	sg g
   	oma	0		S	sg g
   	oma	0		V	o
   	oma	0		A	sg n
   	oma	0		A	sg p
   	oma	0		P	sg n
   	oma	0		P	sg p
   	oma	0		S	sg n
   	oma	0		S	sg p
raha	raha	0		S	sg g
    	raha	0		S	sg n
    	raha	0		S	sg p
vargaks	varas	ks		S	sg tr
teinud	tege	nud		V	nud
      	tei=nud	0		A	
      	tei=nud	0		A	sg n
      	tei=nud	d		A	pl n
      	teinu	d		S	pl n
kellest	kes	st		P	pl el
       	kes	st		P	sg el
tema	tema	0		P	sg g
    	tema	0		P	sg n
midagi	miski	dagi		P	sg p
ei	ei	0		D	
  	ei	0		V	neg
tea	tead	0		V	o
,	,			Z	
ning	ning	0		J	
see	see	0		P	sg n
läbi	läbi	0		D	
    	läbi	0		K	
    	läbi	0		V	o
tema	tema	0		P	sg g
    	tema	0		P	sg n
auu	####				
väga	väga	0		D	
rikkunud	rikku	nud		V	nud
        	rikku=nu	d		S	pl n
        	rikku=nud	0		A	
        	rikku=nud	0		A	sg n
        	rikku=nud	d		A	pl n
on	ole	0		V	b
  	ole	0		V	vad
.	.			Z	
tunnistaja	tunnistaja	0		S	sg g
          	tunnistaja	0		S	sg n
Marie	Marie	0		H	sg g
     	Marie	0		H	sg n
Krega	####				
ütles	ütle	s		V	s
et	et	0		J	
see	see	0		P	sg n
õige	õige	0		A	sg g
    	õige	0		A	sg n
    	õige	0		D	
on	ole	0		V	b
  	ole	0		V	vad
et	et	0		J	
Julia	Julia	0		H	sg g
     	Julia	0		H	sg n
on	ole	0		V	b
  	ole	0		V	vad
ütelnud	ütle	nud		V	nud
       	ütel=nu	d		S	pl n
       	ütel=nud	0		A	
       	ütel=nud	0		A	sg n
       	ütel=nud	d		A	pl n
et	et	0		J	
Mina	mina	0		P	sg n
    	mina	0		S	sg g
    	mina	0		S	sg n
    	mina	0		S	sg p
on	ole	0		V	b
  	ole	0		V	vad
tema	tema	0		P	sg g
    	tema	0		P	sg n
5	5	0		N	?
rubla	rubla	0		S	sg g
     	rubla	0		S	sg n
     	rubla	0		S	sg p
raha	raha	0		S	sg g
    	raha	0		S	sg n
    	raha	0		S	sg p
ära	ära	0		D	
   	ära	0		V	neg o
varastanud	varasta	nud		V	nud
          	varasta=nu	d		S	pl n
          	varasta=nud	0		A	
          	varasta=nud	0		A	sg n
          	varasta=nud	d		A	pl n
.	.			Z	
ette	ette	0		D	
    	ette	0		K	
    	esi	tte		S	adt
tuli	tuli	0		S	sg n
    	tule	i		V	s
Julia	Julia	0		H	sg g
     	Julia	0		H	sg n
Märdikuse	####				
ja	ja	0		J	
ütles	ütle	s		V	s
et	et	0		J	
muid	muu	id		P	pl p
kedagi	keegi	dagi		P	sg p
ei	ei	0		D	
  	ei	0		V	neg
ole	ole	0		V	o
tare	tare	0		S	sg g
    	tare	0		S	sg n
jäänud	jää	nud		V	nud
      	jäänu	d		S	pl n
      	jäänud	0		A	
      	jäänud	0		A	sg n
      	jäänud	d		A	pl n
kui	kui	0		D	
   	kui	0		J	
Mina	mina	0		P	sg n
    	mina	0		S	sg g
    	mina	0		S	sg n
    	mina	0		S	sg p
Veerland	####				
ja	ja	0		J	
kui	kui	0		D	
   	kui	0		J	
nemad	tema	d		P	pl n
lauda	laud	0		S	adt
     	laut	0		S	sg g
     	laud	0		S	sg p
mant	mant	0		D	
    	mant	0		K	
    	mant	0		S	sg n
tagasi	tagasi	0		D	
      	tagasi	0		K	
on	ole	0		V	b
  	ole	0		V	vad
tulnud	tul=nud	0		A	
      	tul=nud	0		A	sg n
      	tul=nud	d		A	pl n
      	tule	nud		V	nud
      	tulnu	d		S	pl n
on	ole	0		V	b
  	ole	0		V	vad
Mina	mina	0		P	sg n
    	mina	0		S	sg g
    	mina	0		S	sg n
    	mina	0		S	sg p
nakanud	nakka	nud		V	nud
       	naka=nu	d		S	pl n
       	naka=nud	0		A	
       	naka=nud	0		A	sg n
       	naka=nud	d		A	pl n
rõivat	####				
taga	taga	0		D	
    	taga	0		K	
    	taga	0		V	o
otsima	otsi	ma		V	ma
ja	ja	0		J	
ütelnud	ütle	nud		V	nud
       	ütel=nu	d		S	pl n
       	ütel=nud	0		A	
       	ütel=nud	0		A	sg n
       	ütel=nud	d		A	pl n
et	et	0		J	
rõid	####				
ära	ära	0		D	
   	ära	0		V	neg o
on	ole	0		V	b
  	ole	0		V	vad
varastatud	varasta	tud		V	tud
          	varastatu	d		S	pl n
          	varastatud	0		A	
          	varastatud	0		A	sg n
          	varastatud	d		A	pl n
kui	kui	0		D	
   	kui	0		J	
rõivat	####				
on	ole	0		V	b
  	ole	0		V	vad
taga	taga	0		D	
    	taga	0		K	
    	taga	0		V	o
otsima	otsi	ma		V	ma
nakanud	nakka	nud		V	nud
       	naka=nu	d		S	pl n
       	naka=nud	0		A	
       	naka=nud	0		A	sg n
       	naka=nud	d		A	pl n
on	ole	0		V	b
  	ole	0		V	vad
rõevat	####				
Võrusest	####				
leitud	leid	tud		V	tud
      	leitu	d		S	pl n
      	leitud	0		A	
      	leitud	0		A	sg n
      	leitud	d		A	pl n
kokku	kokku	0		D	
     	kogu	0		S	adt
köidetud	köit	tud		V	tud
        	köide=tu	d		S	pl n
        	köide=tud	0		A	
        	köide=tud	0		A	sg n
        	köide=tud	d		A	pl n
,	,			Z	
ja	ja	0		J	
tema	tema	0		P	sg g
    	tema	0		P	sg n
raha	raha	0		S	sg g
    	raha	0		S	sg n
    	raha	0		S	sg p
on	ole	0		V	b
  	ole	0		V	vad
ära	ära	0		D	
   	ära	0		V	neg o
olnud	ol=nud	0		A	
     	ol=nud	0		A	sg n
     	ol=nud	d		A	pl n
     	ole	nud		V	nud
     	olnu	d		S	pl n
.	.			Z	
kohus	kohu	s		V	s
     	kohus	0		S	sg n
mõist	####				
et	et	0		J	
ühtegi	ühte	0	gi	D	
      	üks	0	gi	N	adt
      	üks	0	gi	P	adt
      	ühe	0	gi	S	sg g
      	üks	0	gi	N	sg p
      	üks	0	gi	P	sg p
tunnistust	tunnistus	t		S	sg p
ei	ei	0		D	
  	ei	0		V	neg
ole	ole	0		V	o
et	et	0		J	
Mina	mina	0		P	sg n
    	mina	0		S	sg g
    	mina	0		S	sg n
    	mina	0		S	sg p
Veerland	####				
see	see	0		P	sg n
raha	raha	0		S	sg g
    	raha	0		S	sg n
    	raha	0		S	sg p
oli	ole	i		V	s
varastanud	varasta	nud		V	nud
          	varasta=nu	d		S	pl n
          	varasta=nud	0		A	
          	varasta=nud	0		A	sg n
          	varasta=nud	d		A	pl n
pidi	pida	i		V	s
    	pidi	0		K	
Julia	Julia	0		H	sg g
     	Julia	0		H	sg n
Märdikuse	####				
Mina	mina	0		P	sg n
    	mina	0		S	sg g
    	mina	0		S	sg n
    	mina	0		S	sg p
Veerlandi	veer_lant	0		S	sg g
käest	käest	0		K	
     	käsi	st		S	sg el
sin	####				
kohtu	kohtu	0		V	o
     	kohus	0		S	sg g
ees	ees	0		D	
   	ees	0		K	
   	esi	s		S	sg in
andis	and	is		V	s
paluma	palu	ma		V	ma
et	et	0		J	
ilma	ilm	0		S	adt
    	ilm	0		S	sg g
    	ilma	0		D	
    	ilma	0		K	
    	ilm	0		S	sg p
süida	####				
Minat	####				
on	ole	0		V	b
  	ole	0		V	vad
trotsinud	trotsi	nud		V	nud
         	trotsi=nu	d		S	pl n
         	trotsi=nud	0		A	
         	trotsi=nud	0		A	sg n
         	trotsi=nud	d		A	pl n
.	.			Z	
peakohtumees	pea_kohtu_mees	0		S	sg n
K	K	0		Y	?
.	.			Z	
_	_			Z	
Rämman	####				
XXX	XXX	0		O	?
   	XXX	0		Y	?
abi	abi	0		S	sg g
   	abi	0		S	sg n
   	abi	0		S	sg p
Jakob	Jakob	0		H	sg n
Parmson	####				
XXX	XXX	0		O	?
   	XXX	0		Y	?
abi	abi	0		S	sg g
   	abi	0		S	sg n
   	abi	0		S	sg p
Peeter	Peeter	0		H	sg n
Urgard	####				
XXX	XXX	0		O	?
   	XXX	0		Y	?
