ette	ette	0		D	
    	ette	0		K	
    	esi	tte		S	adt
tuli	tuli	0		S	sg n
    	tule	i		V	s
läks	mine	s		V	s
Mari	Mari	0		H	sg g
    	mari	0		S	sg g
    	mari	0		S	sg n
    	Mari	0		H	sg n
    	mari	0		S	sg p
Karpsep	####				
,	,			Z	
ning	ning	0		J	
palle	pall	e		S	pl p
kogukonna	kogukond	0		S	sg g
kohut	kohus	t		S	sg p
,	,			Z	
tema	tema	0		P	sg g
    	tema	0		P	sg n
tahab	taht	b		V	b
oma	oma	0		A	sg g
   	oma	0		D	
   	oma	0		P	sg g
   	oma	0		S	sg g
   	oma	0		V	o
   	oma	0		A	sg n
   	oma	0		A	sg p
   	oma	0		P	sg n
   	oma	0		P	sg p
   	oma	0		S	sg n
   	oma	0		S	sg p
väimehe	väi_mees	0		S	sg g
Kusta	Kusta	0		H	sg g
     	Kusta	0		H	sg n
     	kuse	ta		V	da
     	kuse	ta		V	ta
Parsoni	####				
mant	mant	0		D	
    	mant	0		K	
    	mant	0		S	sg n
,	,			Z	
teise	teine	0		O	adt
     	teine	0		O	sg g
     	teine	0		P	adt
     	teine	0		P	sg g
väimehe	väi_mees	0		S	sg g
Hans	Hans	0		H	sg n
Liivaku	liivak	0		S	sg g
poole	pool	0		N	sg g
     	pool	0		S	sg g
     	pool	e		S	pl p
     	poole	0		K	
     	poole	0		S	sg n
ära	ära	0		D	
   	ära	0		V	neg o
mina	mina	0		P	sg n
    	mina	0		S	sg g
    	mina	0		S	sg n
    	mina	0		S	sg p
,	,			Z	
ent	ent	0		J	
Kusta	Kusta	0		H	sg g
     	Kusta	0		H	sg n
     	kuse	ta		V	da
     	kuse	ta		V	ta
Parson	####				
ei	ei	0		D	
  	ei	0		V	neg
tahtvat	taht	vat		V	vat
       	tahtev	t		A	sg p
tema	tema	0		P	sg g
    	tema	0		P	sg n
jagu	jagu	0		S	sg n
    	jagu	0		V	o
    	jagu	0		S	sg p
krami	####				
välja	välja	0		D	
     	välja	0		V	o
     	väli	0		S	adt
     	väli	0		S	sg g
     	väli	0		S	sg p
anda	and	a		V	da
,	,			Z	
ning	ning	0		J	
nimelt	nimelt	0		D	
      	nimi	lt		S	sg abl
olevat	ole	vat		V	vat
      	olev	t		A	sg p
      	olev	t		S	sg p
Kustavi	####				
käes	käes	0		K	
    	käsi	s		S	sg in
:	:			Z	
1	1	0		N	?
lehm	lehm	0		S	sg n
2	2	0		N	?
vaka	vakk	0		S	sg g
rüki	rükki	0		V	o
1	1	0		N	?
vaka	vakk	0		S	sg g
kesvi	kesv	i		S	pl p
10	10	0		N	?
rubla	rubla	0		S	sg g
     	rubla	0		S	sg n
     	rubla	0		S	sg p
raha	raha	0		S	sg g
    	raha	0		S	sg n
    	raha	0		S	sg p
ja	ja	0		J	
1	1	0		N	?
Krist	####				
rõivaatega	####				
Gusta	####				
Parson	####				
tuli	tuli	0		S	sg n
    	tule	i		V	s
ette	ette	0		D	
    	ette	0		K	
    	esi	tte		S	adt
ning	ning	0		J	
ütles	ütle	s		V	s
tema	tema	0		P	sg g
    	tema	0		P	sg n
ei	ei	0		D	
  	ei	0		V	neg
aja	aeg	0		S	sg g
   	aja	0		V	o
mitte	mitte	0		D	
oma	oma	0		A	sg g
   	oma	0		D	
   	oma	0		P	sg g
   	oma	0		S	sg g
   	oma	0		V	o
   	oma	0		A	sg n
   	oma	0		A	sg p
   	oma	0		P	sg n
   	oma	0		P	sg p
   	oma	0		S	sg n
   	oma	0		S	sg p
naise	naine	0		S	sg g
ema	ema	0		S	sg g
   	ema	0		S	sg n
   	ema	0		S	sg p
enda	ise	0		P	sg g
mant	mant	0		D	
    	mant	0		K	
    	mant	0		S	sg n
,	,			Z	
ent	ent	0		J	
kui	kui	0		D	
   	kui	0		J	
tema	tema	0		P	sg g
    	tema	0		P	sg n
halistab	####				
ise	ise	0		A	
   	ise	0		D	
   	ise	0		P	pl n
   	ise	0		P	sg n
mina	mina	0		P	sg n
    	mina	0		S	sg g
    	mina	0		S	sg n
    	mina	0		S	sg p
siis	siis	0		D	
    	siis	0		J	
on	ole	0		V	b
  	ole	0		V	vad
see	see	0		P	sg n
tema	tema	0		P	sg g
    	tema	0		P	sg n
poolt	pool	t		N	sg p
     	pool	t		S	sg p
     	poolt	0		D	
     	poolt	0		K	
kelmata	####				
;	;			Z	
ent	ent	0		J	
tema	tema	0		P	sg g
    	tema	0		P	sg n
nõuab	nõud	b		V	b
ema	ema	0		S	sg g
   	ema	0		S	sg n
   	ema	0		S	sg p
lehma	lehm	0		S	adt
     	lehm	0		S	sg g
     	lehm	0		S	sg p
söötmise	söötmine	0		S	sg g
eest	eest	0		D	
    	eest	0		K	
    	esi	st		S	sg el
5	5	0		N	?
rbl	rbl	0		Y	?
.	.			Z	
hõb	####				
.	.			Z	
Hans	Hans	0		H	sg n
Liivak	liivak	0		S	sg n
,	,			Z	
tuli	tuli	0		S	sg n
    	tule	i		V	s
ette	ette	0		D	
    	ette	0		K	
    	esi	tte		S	adt
ning	ning	0		J	
tunnist	tund	st		S	sg el
       	tunnine	t		A	sg p
tema	tema	0		P	sg g
    	tema	0		P	sg n
tahab	taht	b		V	b
oma	oma	0		A	sg g
   	oma	0		D	
   	oma	0		P	sg g
   	oma	0		S	sg g
   	oma	0		V	o
   	oma	0		A	sg n
   	oma	0		A	sg p
   	oma	0		P	sg n
   	oma	0		P	sg p
   	oma	0		S	sg n
   	oma	0		S	sg p
naise	naine	0		S	sg g
ema	ema	0		S	sg g
   	ema	0		S	sg n
   	ema	0		S	sg p
enda	ise	0		P	sg g
pool	pool	0		K	
    	pool	0		N	sg n
    	pool	0		S	sg n
pidada	pida	da		V	da
võtta	võt	a		V	da
seni	seni	0		D	
kui	kui	0		D	
   	kui	0		J	
tema	tema	0		P	sg g
    	tema	0		P	sg n
elab	ela	b		V	b
,	,			Z	
ning	ning	0		J	
tema	tema	0		P	sg g
    	tema	0		P	sg n
eest	eest	0		D	
    	eest	0		K	
    	esi	st		S	sg el
korra	kord	0		S	sg g
pärast	pära	st		S	sg el
      	pärane	t		A	sg p
      	pärast	0		D	
      	pärast	0		K	
hoolt	hoog	lt		S	sg abl
     	hool	t		S	sg p
pidada	pida	da		V	da
.	.			Z	
otsus	otsus	0		S	sg n
:	:			Z	
et	et	0		J	
Hans	Hans	0		H	sg n
Liivak	liivak	0		S	sg n
oma	oma	0		A	sg g
   	oma	0		D	
   	oma	0		P	sg g
   	oma	0		S	sg g
   	oma	0		V	o
   	oma	0		A	sg n
   	oma	0		A	sg p
   	oma	0		P	sg n
   	oma	0		P	sg p
   	oma	0		S	sg n
   	oma	0		S	sg p
naise	naine	0		S	sg g
ema	ema	0		S	sg g
   	ema	0		S	sg n
   	ema	0		S	sg p
Mari	Mari	0		H	sg g
    	mari	0		S	sg g
    	mari	0		S	sg n
    	Mari	0		H	sg n
    	mari	0		S	sg p
Karpsepa	karp_sepp	0		S	sg g
enda	ise	0		P	sg g
poole	pool	0		N	sg g
     	pool	0		S	sg g
     	pool	e		S	pl p
     	poole	0		K	
     	poole	0		S	sg n
tahab	taht	b		V	b
võtta	võt	a		V	da
,	,			Z	
siis	siis	0		D	
    	siis	0		J	
jääb	jää	b		V	b
kõik	kõik	0		P	pl n
    	kõik	0		S	sg n
    	kõik	0		P	sg n
see	see	0		P	sg n
kraam	kraam	0		S	sg n
ja	ja	0		J	
varandus	varandus	0		S	sg n
mis	mis	0		P	pl n
   	mis	0		P	sg n
Mari	Mari	0		H	sg g
    	mari	0		S	sg g
    	mari	0		S	sg n
    	Mari	0		H	sg n
    	mari	0		S	sg p
Karpsepal	karp_sepp	l		S	sg ad
muidu	muidu	0		D	
inemeste	####				
käest	käest	0		K	
     	käsi	st		S	sg el
veel	veel	0		D	
    	vesi	l		S	sg ad
saata	saat	a		V	da
on	ole	0		V	b
  	ole	0		V	vad
üksinda	üksinda	0		D	
Hans	Hans	0		H	sg n
Liivaku	liivak	0		S	sg g
ja	ja	0		J	
tema	tema	0		P	sg g
    	tema	0		P	sg n
naise	naine	0		S	sg g
päralt	pära	lt		S	sg abl
      	päralt	0		K	
,	,			Z	
ent	ent	0		J	
peaks	pea	ks		S	sg tr
     	pida	ks		V	ks
olema	ole	ma		V	ma
et	et	0		J	
Mari	Mari	0		H	sg g
    	mari	0		S	sg g
    	mari	0		S	sg n
    	Mari	0		H	sg n
    	mari	0		S	sg p
Karpsep	####				
Hans	Hans	0		H	sg n
Liivaku	liivak	0		S	sg g
mant	mant	0		D	
    	mant	0		K	
    	mant	0		S	sg n
ilmasinda	####				
peaks	pea	ks		S	sg tr
     	pida	ks		V	ks
mant	mant	0		D	
    	mant	0		K	
    	mant	0		S	sg n
minema	mine	ma		V	ma
,	,			Z	
siis	siis	0		D	
    	siis	0		J	
ei	ei	0		D	
  	ei	0		V	neg
tohi	tohti	0		V	o
tema	tema	0		P	sg g
    	tema	0		P	sg n
ühtegi	ühte	0	gi	D	
      	üks	0	gi	N	adt
      	üks	0	gi	P	adt
      	ühe	0	gi	S	sg g
      	üks	0	gi	N	sg p
      	üks	0	gi	P	sg p
head	hea	d		A	pl n
    	hea	d		A	sg p
    	hea	d		S	pl n
    	hea	d		S	sg p
Hans	Hans	0		H	sg n
Liivaku	liivak	0		S	sg g
käest	käest	0		K	
     	käsi	st		S	sg el
taga	taga	0		D	
    	taga	0		K	
    	taga	0		V	o
sanõu	####				
;	;			Z	
kui	kui	0		D	
   	kui	0		J	
peaks	pea	ks		S	sg tr
     	pida	ks		V	ks
Mari	Mari	0		H	sg g
    	mari	0		S	sg g
    	mari	0		S	sg n
    	Mari	0		H	sg n
    	mari	0		S	sg p
Karpson	####				
ära	ära	0		D	
   	ära	0		V	neg o
kolma	####				
,	,			Z	
siis	siis	0		D	
    	siis	0		J	
on	ole	0		V	b
  	ole	0		V	vad
Hans	Hans	0		H	sg n
Viirakul	viir_aku	l		S	sg ad
?	?			Z	
õigus	õigus	0		S	sg n
??	??			Z	
ning	ning	0		J	
see	see	0		P	sg n
nõudja	nõud=ja	0		S	sg g
      	nõud=ja	0		S	sg n
võlgnikusse	võlgnik	sse		S	sg ill
käest	käest	0		K	
     	käsi	st		S	sg el
.	.			Z	
Gusta	####				
Parson	####				
saab	saa	b		V	b
selle	see	0		P	sg g
     	sell	e		S	pl p
aja	aeg	0		S	sg g
   	aja	0		V	o
eest	eest	0		D	
    	eest	0		K	
    	esi	st		S	sg el
,	,			Z	
et	et	0		J	
tema	tema	0		P	sg g
    	tema	0		P	sg n
oma	oma	0		A	sg g
   	oma	0		D	
   	oma	0		P	sg g
   	oma	0		S	sg g
   	oma	0		V	o
   	oma	0		A	sg n
   	oma	0		A	sg p
   	oma	0		P	sg n
   	oma	0		P	sg p
   	oma	0		S	sg n
   	oma	0		S	sg p
naise	naine	0		S	sg g
lehma	lehm	0		S	adt
     	lehm	0		S	sg g
     	lehm	0		S	sg p
ülespidanud	üles_pida=nu	d		S	pl n
           	üles_pida=nud	0		A	
           	üles_pida=nud	0		A	sg n
           	üles_pida=nud	d		A	pl n
4	4	0		N	?
rbl	rbl	0		Y	?
.	.			Z	
ning	ning	0		J	
kõik	kõik	0		P	pl n
    	kõik	0		S	sg n
    	kõik	0		P	sg n
mu	mina	0		P	sg g
kraam	kraam	0		S	sg n
peab	pida	b		V	b
Gusta	####				
Parson	####				
Mari	Mari	0		H	sg g
    	mari	0		S	sg g
    	mari	0		S	sg n
    	Mari	0		H	sg n
    	mari	0		S	sg p
Karpsepale	karp_sepp	le		S	sg all
tagasi	tagasi	0		D	
      	tagasi	0		K	
andma	and	ma		V	ma
.	.			Z	
peakohtumees	pea_kohtu_mees	0		S	sg n
G. Anderson	####				
kohtumees	kohtu_mees	0		S	sg n
P	P	0		Y	?
.	.			Z	
Sabbal	####				
kohtumees	kohtu_mees	0		S	sg n
J	J	0		Y	?
.	.			Z	
_	_			Z	
Parmak	####				
sel	see	l		P	sg ad
   	sel	0		Y	?
28	28	0		N	?
Fb	####				
.	.			Z	
1877	1877	0		N	?
aasta	aasta	0		S	sg g
     	aasta	0		S	sg n
sai	saa	i		V	s
   	sai	0		S	sg n
vallavanem	valla_vanem	0		S	sg n
poolt	pool	t		N	sg p
     	pool	t		S	sg p
     	poolt	0		D	
     	poolt	0		K	
Hans	Hans	0		H	sg n
Liivaku	liivak	0		S	sg g
kätte	kätte	0		K	
     	käsi	tte		S	adt
kadunud	kadu	nud		V	nud
       	kadunu	d		S	pl n
       	kadunud	0		A	
       	kadunud	0		A	sg n
       	kadunud	d		A	pl n
Mari	Mari	0		H	sg g
    	mari	0		S	sg g
    	mari	0		S	sg n
    	Mari	0		H	sg n
    	mari	0		S	sg p
Karpsoni	karp_soni	0		S	sg g
        	karp_soni	0		S	sg n
        	karp_soni	0		S	sg p
hea	hea	0		A	sg g
   	hea	0		A	sg n
   	hea	0		S	sg g
   	hea	0		S	sg n
50	50	0		N	?
rbl	rbl	0		Y	?
.	.			Z	
ära	ära	0		D	
   	ära	0		V	neg o
makstud	maks	tud		V	tud
       	maks=tu	d		S	pl n
       	maks=tud	0		A	
       	maks=tud	0		A	sg n
       	maks=tud	d		A	pl n
.	.			Z	
