Tänatsel	####				
päeval	päev	l		S	sg ad
sai	saa	i		V	s
   	sai	0		S	sg n
katonud	####				
Kallaste	Kallas	te		H	pl g
        	Kallaste	0		H	sg g
        	kallas	te		S	pl g
        	Kallaste	0		H	sg n
Jaan	Jaan	0		H	sg n
    	jaan	0		S	sg n
    	jaan	0		Y	?
Kallase	Kallas	0		H	sg g
perra	####				
jäänud	jää	nud		V	nud
      	jäänu	d		S	pl n
      	jäänud	0		A	
      	jäänud	0		A	sg n
      	jäänud	d		A	pl n
varandus	varandus	0		S	sg n
protokolli	protokoll	0		S	adt
          	protokoll	0		S	sg g
          	protokolli	0		V	o
          	protokoll	0		S	sg p
üles	üles	0		D	
kirjutatud	kirjuta	tud		V	tud
          	kirjutatu	d		S	pl n
          	kirjutatud	0		A	
          	kirjutatud	0		A	sg n
          	kirjutatud	d		A	pl n
,	,			Z	
mis	mis	0		P	pl n
   	mis	0		P	sg n
kogukonna	kogukond	0		S	sg g
kohtu	kohtu	0		V	o
     	kohus	0		S	sg g
meeste	meene	te		A	pl g
      	mees	te		S	pl g
üle	üle	0		D	
   	üle	0		K	
kaemisel	kae=mine	l		S	sg ad
Kallaste	Kallas	te		H	pl g
        	Kallaste	0		H	sg g
        	kallas	te		S	pl g
        	Kallaste	0		H	sg n
talus	talu	s		S	sg in
     	talu	s		V	s
leida	leid	a		V	da
oli	ole	i		V	s
,	,			Z	
nimelt	nimelt	0		D	
      	nimi	lt		S	sg abl
:	:			Z	
1.	1.	0		O	?
rehe	rehi	0		S	sg g
tare	tare	0		S	sg g
    	tare	0		S	sg n
ja	ja	0		J	
rehe	rehi	0		S	sg g
alune	alune	0		A	sg n
     	alune	0		S	sg n
ning	ning	0		J	
selle	see	0		P	sg g
     	sell	e		S	pl p
otsas	ots	s		S	sg in
     	otsa	s		V	s
     	otsas	0		D	
     	otsas	0		K	
üks	üks	0		N	sg n
   	üks	0		P	sg n
aiang	####				
,	,			Z	
rehe	rehi	0		S	sg g
elutsel	####				
ei	ei	0		D	
  	ei	0		V	neg
ole	ole	0		V	o
varju	varju	0		V	o
     	vari	0		S	adt
     	vari	0		S	sg g
     	vari	u		S	pl p
     	vari	0		S	sg p
ees	ees	0		D	
   	ees	0		K	
   	esi	s		S	sg in
_	_			Z	
keskmese	####				
ole	ole	0		V	o
katuse	katus	0		S	sg g
all	all	0		D	
   	all	0		K	
.	.			Z	
2.	2.	0		O	?
1	1	0		N	?
ak	####				
vana	vana	0		A	sg g
    	vana	0		A	sg n
    	vana	0		A	sg p
    	vana	0		S	sg g
    	vana	0		S	sg n
    	vana	0		S	sg p
ja	ja	0		J	
kõhn	kõhn	0		A	sg n
katuse	katus	0		S	sg g
all	all	0		D	
   	all	0		K	
.	.			Z	
3.	3.	0		O	?
üks	üks	0		N	sg n
   	üks	0		P	sg n
saun	saun	0		S	sg n
ja	ja	0		J	
üks	üks	0		N	sg n
   	üks	0		P	sg n
koda	koda	0		S	sg n
    	koda	0		S	sg p
,	,			Z	
saun	saun	0		S	sg n
ilma	ilm	0		S	adt
    	ilm	0		S	sg g
    	ilma	0		D	
    	ilma	0		K	
    	ilm	0		S	sg p
katuseta	katus	ta		S	sg ab
ja	ja	0		J	
koda	koda	0		S	sg n
    	koda	0		S	sg p
keskmatse	kesk_mats	e		A	pl p
         	kesk_mats	e		S	pl p
laua	laud	0		S	sg g
katuse	katus	0		S	sg g
all	all	0		D	
   	all	0		K	
.	.			Z	
4.	4.	0		O	?
üks	üks	0		N	sg n
   	üks	0		P	sg n
laut	laut	0		S	sg n
ja	ja	0		J	
üks	üks	0		N	sg n
   	üks	0		P	sg n
ole	ole	0		V	o
õlgusk	õlg_usk	0		S	sg n
keskmise	keskmine	0		A	sg g
ole	ole	0		V	o
katuse	katus	0		S	sg g
all	all	0		D	
   	all	0		K	
.	.			Z	
5.	5.	0		O	?
üks	üks	0		N	sg n
   	üks	0		P	sg n
heina	hein	0		S	adt
     	hein	0		S	sg g
     	hein	0		S	sg p
küün	küün	0		S	sg n
vana	vana	0		A	sg g
    	vana	0		A	sg n
    	vana	0		A	sg p
    	vana	0		S	sg g
    	vana	0		S	sg n
    	vana	0		S	sg p
ja	ja	0		J	
keskmise	keskmine	0		A	sg g
katuse	katus	0		S	sg g
all	all	0		D	
   	all	0		K	
.	.			Z	
naise	naine	0		S	sg g
sisse	siss	e		S	pl p
     	sisse	0		D	
     	sisse	0		K	
toodud	too	dud		V	tud
      	toodu	d		S	pl n
      	toodud	0		A	
      	toodud	0		A	sg n
      	toodud	d		A	pl n
varandus	varandus	0		S	sg n
:	:			Z	
1	1	0		N	?
lehm	lehm	0		S	sg n
hinna	hind	0		S	sg g
perra	####				
15	15	0		N	?
rbl	rbl	0		Y	?
.	.			Z	
1	1	0		N	?
hõhv	####				
""""	""""			Z	
8	8	0		N	?
""""	""""			Z	
1	1	0		N	?
lammas	lammas	0		S	sg n
kätte	kätte	0		K	
     	käsi	tte		S	adt
pojaga	poeg	ga		S	sg kom
      	poja	ga		S	sg kom
5	5	0		N	?
""""	""""			Z	
1	1	0		N	?
kast	kast	0		S	sg n
kõige	kõik	0		P	sg g
     	kõige	0		D	
rõivaga	rõivas	ga		S	sg kom
20	20	0		N	?
""""	""""			Z	
maja	maja	0		S	sg g
    	maja	0		S	sg n
    	maja	0		S	sg p
kraam	kraam	0		S	sg n
üks	üks	0		N	sg n
   	üks	0		P	sg n
hoopine	####				
hinna	hind	0		S	sg g
perra	####				
15	15	0		N	?
rbl	rbl	0		Y	?
.	.			Z	
hobuse	hobune	0		S	sg g
riista	riist	0		S	adt
      	riist	0		S	sg g
      	riist	0		S	sg p
5	5	0		N	?
""""	""""			Z	
1	1	0		N	?
regi	regi	0		S	sg n
3	3	0		N	?
""""	""""			Z	
ühe	üks	0		N	sg g
   	üks	0		P	sg g
   	ühe	0		S	sg n
raud	raud	0		S	sg n
vankri	vanker	0		S	sg g
8	8	0		N	?
""""	""""			Z	
1	1	0		N	?
lehm	lehm	0		S	sg n
15	15	0		N	?
""""	""""			Z	
1	1	0		N	?
hõhv	####				
10	10	0		N	?
""""	""""			Z	
1	1	0		N	?
hõhv	####				
10	10	0		N	?
""""	""""			Z	
1	1	0		N	?
härg	härg	0		S	sg n
8	8	0		N	?
""""	""""			Z	
üks	üks	0		N	sg n
   	üks	0		P	sg n
suviline	suviline	0		S	sg n
vasik	####				
5	5	0		N	?
""""	""""			Z	
üks	üks	0		N	sg n
   	üks	0		P	sg n
teine	teine	0		O	sg n
     	teine	0		P	sg n
suviline	suviline	0		S	sg n
vasik	####				
6	6	0		N	?
""""	""""			Z	
2	2	0		N	?
lammast	lammas	t		S	sg p
6	6	0		N	?
""""	""""			Z	
3	3	0		N	?
siga	siga	0		A	sg n
    	siga	0		A	sg p
    	siga	0		S	sg n
    	siga	0		S	sg p
9	9	0		N	?
""""	""""			Z	
1	1	0		N	?
ader	ader	0		S	sg n
1	1	0		N	?
""""	""""			Z	
1	1	0		N	?
rist	rist	0		S	sg n
saag	saag	0		S	sg n
1	1	0		N	?
""""	""""			Z	
1	1	0		N	?
katla	katel	0		S	sg g
2	2	0		N	?
""""	""""			Z	
1	1	0		N	?
Pan	pan	0		S	sg n
20	20	0		N	?
kop	kop	0		Y	?
.	.			Z	
3	3	0		N	?
Pangi	pang	i		S	pl p
     	pan	0	gi	S	sg n
50	50	0		N	?
""""	""""			Z	
3	3	0		N	?
lännikut	lännik	t		S	sg p
ja	ja	0		J	
üks	üks	0		N	sg n
   	üks	0		P	sg n
nüssik	####				
1	1	0		N	?
""""	""""			Z	
1	1	0		N	?
sõgel	####				
7	7	0		N	?
""""	""""			Z	
3	3	0		N	?
kausi	kauss	0		S	sg g
15	15	0		N	?
""""	""""			Z	
1	1	0		N	?
kapsa	kapsa	0		V	o
     	kapsas	0		S	sg g
tõrtud	####				
1	1	0		N	?
""""	""""			Z	
1	1	0		N	?
kolm	kolm	0		N	sg n
jalg	jalg	0		S	sg n
50	50	0		N	?
""""	""""			Z	
1	1	0		N	?
vikat	vikat	0		S	sg n
10	10	0		N	?
""""	""""			Z	
1	1	0		N	?
kirves	kirves	0		S	sg n
      	kirves	s		S	sg in
25	25	0		N	?
""""	""""			Z	
2	2	0		N	?
sirpi	sirp	0		S	adt
     	sirp	0		S	sg p
20	20	0		N	?
""""	""""			Z	
3	3	0		N	?
truih	####				
60	60	0		N	?
""""	""""			Z	
1	1	0		N	?
kaasta	####				
akkims	####				
5	5	0		N	?
""""	""""			Z	
1	1	0		N	?
käsi	käski	0		V	o
    	käsi	0		S	pl p
    	käsi	0		S	sg n
    	käsi	0		D	
kivi	kivi	0		S	sg g
    	kivi	0		S	sg n
    	kivi	0		S	sg p
1	1	0		N	?
""""	""""			Z	
1	1	0		N	?
vilja	vili	0		S	adt
     	vili	0		S	sg g
     	vili	0		S	sg p
ruih	####				
15	15	0		N	?
""""	""""			Z	
2	2	0		N	?
vilja	vili	0		S	adt
     	vili	0		S	sg g
     	vili	0		S	sg p
pandmise	####				
xx	####				
1	1	0		N	?
""""	""""			Z	
2	2	0		N	?
vilja	vili	0		S	adt
     	vili	0		S	sg g
     	vili	0		S	sg p
tõrtud	####				
60	60	0		N	?
""""	""""			Z	
3	3	0		N	?
väikest	väike	t		A	sg p
       	väikene	t		A	sg p
pütti	pütt	0		S	adt
     	pütt	0		S	sg p
10	10	0		N	?
""""	""""			Z	
1	1	0		N	?
kast	kast	0		S	sg n
15	15	0		N	?
""""	""""			Z	
1	1	0		N	?
kõrv	kõrv	0		S	sg n
25	25	0		N	?
""""	""""			Z	
1	1	0		N	?
kirst	kirst	0		S	sg n
50	50	0		N	?
""""	""""			Z	
üksi	üksi	0		D	
varega	vare	ga		S	sg kom
osa	osa	0		S	sg g
   	osa	0		S	sg n
   	osa	0		S	sg p
korda	kord	0		S	adt
     	korda	0		V	o
     	kord	0		S	sg p
25	25	0		N	?
""""	""""			Z	
3	3	0		N	?
lamba	lammas	0		S	sg g
nahka	nahk	0		S	adt
     	nahk	0		S	sg p
     	nahka	0		D	
1	1	0		N	?
""""	""""			Z	
50	50	0		N	?
""""	""""			Z	
3	3	0		N	?
vilja	vili	0		S	adt
     	vili	0		S	sg g
     	vili	0		S	sg p
kotti	kott	0		S	adt
     	kotti	0		D	
     	kott	i		S	pl p
     	kott	0		S	sg p
1	1	0		N	?
""""	""""			Z	
5	5	0		N	?
luitsad	####				
5	5	0		N	?
""""	""""			Z	
1	1	0		N	?
kulp	kulp	0		S	sg n
5	5	0		N	?
""""	""""			Z	
kadunud	kadu	nud		V	nud
       	kadunu	d		S	pl n
       	kadunud	0		A	
       	kadunud	0		A	sg n
       	kadunud	d		A	pl n
Jaan	Jaan	0		H	sg n
    	jaan	0		S	sg n
    	jaan	0		Y	?
Kallase	Kallas	0		H	sg g
rõivad	rõivas	d		S	pl n
1	1	0		N	?
kasuk	####				
hinna	hind	0		S	sg g
perra	####				
5	5	0		N	?
""""	""""			Z	
_	_			Z	
""""	""""			Z	
1	1	0		N	?
lühikene	lühi=kene	0		S	sg n
särk	särk	0		S	sg n
2	2	0		N	?
""""	""""			Z	
1	1	0		N	?
paar	paar	0		N	sg n
    	paar	0		S	sg n
vilastikk	####				
pükse	püks	e		S	pl p
50	50	0		N	?
""""	""""			Z	
ühe	üks	0		N	sg g
   	üks	0		P	sg g
   	ühe	0		S	sg n
palitu	palitu	0		S	sg g
      	palitu	0		S	sg n
os	####				
villast	vill	st		S	sg el
       	villa	st		S	sg el
       	villane	t		A	sg p
rõevast	####				
5	5	0		N	?
""""	""""			Z	
Summa	summ	0		S	adt
     	summ	0		S	sg g
     	summ	0		S	sg p
     	summa	0		S	sg g
     	summa	0		S	sg n
175	175	0		N	?
rbl	rbl	0		Y	?
.	.			Z	
26	26	0		N	?
kop	kop	0		Y	?
.	.			Z	
see	see	0		P	sg n
ees	ees	0		D	
   	ees	0		K	
   	esi	s		S	sg in
nimetatud	nimeta	tud		V	tud
         	nimetatu	d		S	pl n
         	nimetatud	0		A	
         	nimetatud	0		A	sg n
         	nimetatud	d		A	pl n
varandus	varandus	0		S	sg n
jääb	jää	b		V	b
katonud	####				
Jaan	Jaan	0		H	sg n
    	jaan	0		S	sg n
    	jaan	0		Y	?
Kallase	Kallas	0		H	sg g
alaealiste	ala_ealine	te		A	pl g
laste	laps	te		S	pl g
     	last	e		S	pl p
Vöörmünder	vöörmünder	0		S	sg n
Jaan	Jaan	0		H	sg n
    	jaan	0		S	sg n
    	jaan	0		Y	?
Lauk	lauk	0		S	sg n
Vastsest	vastne	st		A	sg el
        	vastne	st		S	sg el
Kaseritsast	####				
ja	ja	0		J	
Johan	Johan	0		H	sg n
Noortoots	####				
Hanjast	hanja	st		S	sg el
üle	üle	0		D	
   	üle	0		K	
valitsemise	valitsemine	0		S	sg g
ja	ja	0		J	
vastutamise	vastutamine	0		S	sg g
ala	ala	0		S	sg g
   	ala	0		S	sg n
   	ala	0		S	sg p
,	,			Z	
kuni	kuni	0		J	
    	kuni	0		K	
laste	laps	te		S	pl g
     	last	e		S	pl p
täis	täi	s		S	sg in
    	täi	s		V	s
    	täis	0		A	
    	täis	0		A	sg n
    	täis	0		D	
    	täis	0		S	sg n
ealiseks	ealine	ks		A	sg tr
oma	oma	0		A	sg g
   	oma	0		D	
   	oma	0		P	sg g
   	oma	0		S	sg g
   	oma	0		V	o
   	oma	0		A	sg n
   	oma	0		A	sg p
   	oma	0		P	sg n
   	oma	0		P	sg p
   	oma	0		S	sg n
   	oma	0		S	sg p
kasvanud	kasva	nud		V	nud
        	kasva=nu	d		S	pl n
        	kasva=nud	0		A	
        	kasva=nud	0		A	sg n
        	kasva=nud	d		A	pl n
.	.			Z	
Protokoll	protokoll	0		S	sg n
on	ole	0		V	b
  	ole	0		V	vad
ette	ette	0		D	
    	ette	0		K	
    	esi	tte		S	adt
loetud	loetu	d		S	pl n
      	loetud	0		A	
      	loetud	0		A	sg n
      	loetud	d		A	pl n
      	luge	tud		V	tud
ja	ja	0		J	
vöörmündrist	vöörmünder	st		S	sg el
ala	ala	0		S	sg g
   	ala	0		S	sg n
   	ala	0		S	sg p
kirjutatud	kirjuta	tud		V	tud
          	kirjutatu	d		S	pl n
          	kirjutatud	0		A	
          	kirjutatud	0		A	sg n
          	kirjutatud	d		A	pl n
.	.			Z	
Vöörmünder	vöörmünder	0		S	sg n
Johan	Johan	0		H	sg n
Noortoots	####				
[	[			Z	
allkiri	all_kiri	0		S	sg n
]	]			Z	
Hanjast	hanja	st		S	sg el
""""	""""			Z	
Jaan	Jaan	0		H	sg n
    	jaan	0		S	sg n
    	jaan	0		Y	?
Lauk	lauk	0		S	sg n
[	[			Z	
allkiri	all_kiri	0		S	sg n
]	]			Z	
Vastse	vastne	0		A	sg g
      	vastne	0		S	sg g
Kaseritsast	####				
peakohtumees	pea_kohtu_mees	0		S	sg n
J	J	0		Y	?
.	.			Z	
_	_			Z	
Kabist	####				
[	[			Z	
allkiri	all_kiri	0		S	sg n
]	]			Z	
kohtumees	kohtu_mees	0		S	sg n
P	P	0		Y	?
.	.			Z	
Sillaots	silla_ots	0		S	sg n
[	[			Z	
allkiri	all_kiri	0		S	sg n
]	]			Z	
""""	""""			Z	
P	P	0		Y	?
.	.			Z	
_	_			Z	
Klaas	klaas	0		S	sg n
[	[			Z	
allkiri	all_kiri	0		S	sg n
]	]			Z	
