Neljandalt	neljas	lt		O	sg abl
.	.			Z	
tuli	tuli	0		S	sg n
    	tule	i		V	s
ette	ette	0		D	
    	ette	0		K	
    	esi	tte		S	adt
veskimõisa	veski_mõis	0		S	sg g
vallamees	valla_mees	0		S	sg n
Johan	Johan	0		H	sg n
(	(			Z	
n	n	0		Y	?
)	)			Z	
Keatud	####				
,	,			Z	
ja	ja	0		J	
kaebas	kaeba	s		V	s
et	et	0		J	
tema	tema	0		P	sg g
    	tema	0		P	sg n
andnud	and	nud		V	nud
      	and=nu	d		S	pl n
      	and=nud	0		A	
      	and=nud	0		A	sg n
      	and=nud	d		A	pl n
Mäe	mägi	0		S	sg g
Musti	must	i		A	pl p
     	must	i		S	pl p
kõrtsimehel	kõrtsi_mees	l		S	sg ad
Jaan	Jaan	0		H	sg n
    	jaan	0		S	sg n
    	jaan	0		Y	?
keplannil	####				
vana	vana	0		A	sg g
    	vana	0		A	sg n
    	vana	0		A	sg p
    	vana	0		S	sg g
    	vana	0		S	sg n
    	vana	0		S	sg p
Prangli	Prangli	0		H	sg g
       	Prangli	0		H	sg n
kõrtsi	kõrts	0		S	adt
      	kõrts	0		S	sg g
      	kõrts	0		S	sg p
juures	juur	s		S	sg in
      	juures	0		D	
      	juures	0		K	
/	/			Z	
25	25	0		N	?
/	/			Z	
kakskümmend	kaks_kümmend	0		N	sg n
viis	vii	s		V	s
    	viis	0		N	sg n
    	viis	0		S	sg n
rubla	rubla	0		S	sg g
     	rubla	0		S	sg n
     	rubla	0		S	sg p
selget	selge	t		A	sg p
raha	raha	0		S	sg g
    	raha	0		S	sg n
    	raha	0		S	sg p
võlgu	võlg	u		S	pl p
     	võlgu	0		D	
,	,			Z	
palle	pall	e		S	pl p
et	et	0		J	
kohus	kohu	s		V	s
     	kohus	0		S	sg n
teda	tema	da		P	sg p
ära	ära	0		D	
   	ära	0		V	neg o
maksmisele	maksmine	le		S	sg all
sunnis	sund	s		S	sg in
,	,			Z	
Jaan	Jaan	0		H	sg n
    	jaan	0		S	sg n
    	jaan	0		Y	?
planki	plank	0		A	adt
      	plank	0		A	sg p
      	plank	0		S	adt
      	plank	0		S	sg p
ei	ei	0		D	
  	ei	0		V	neg
ole	ole	0		V	o
kohtu	kohtu	0		V	o
     	kohus	0		S	sg g
ette	ette	0		D	
    	ette	0		K	
    	esi	tte		S	adt
taliteodo	####				
,	,			Z	
selle	see	0		P	sg g
     	sell	e		S	pl p
pärast	pära	st		S	sg el
      	pärane	t		A	sg p
      	pärast	0		D	
      	pärast	0		K	
jääb	jää	b		V	b
siis	siis	0		D	
    	siis	0		J	
kaebus	kaebus	0		S	sg n
teise	teine	0		O	adt
     	teine	0		O	sg g
     	teine	0		P	adt
     	teine	0		P	sg g
kohtu	kohtu	0		V	o
     	kohus	0		S	sg g
päeva	päev	0		S	adt
     	päev	0		S	sg g
     	päev	0		S	sg p
peale	pea	le		S	sg all
     	peale	0		D	
     	peale	0		K	
seletada	seleta	da		V	da
,	,			Z	
tolle	toll	e		S	pl p
     	too	0		P	sg g
käsu	käsk	0		S	sg g
peale	pea	le		S	sg all
     	peale	0		D	
     	peale	0		K	
läks	mine	s		V	s
tem	####				
(	(			Z	
m	m	0		Y	?
)	)			Z	
a	a	0		Y	?
ära	ära	0		D	
   	ära	0		V	neg o
.	.			Z	
peakohtumees	pea_kohtu_mees	0		S	sg n
Jaan	Jaan	0		H	sg n
    	jaan	0		S	sg n
    	jaan	0		Y	?
tulnud	tul=nud	0		A	
      	tul=nud	0		A	sg n
      	tul=nud	d		A	pl n
      	tule	nud		V	nud
      	tulnu	d		S	pl n
XXX	XXX	0		O	?
   	XXX	0		Y	?
kohtumees	kohtu_mees	0		S	sg n
Jakob	Jakob	0		H	sg n
Uibo	Uibo	0		H	sg g
    	Uibo	0		H	sg n
XXX	XXX	0		O	?
   	XXX	0		Y	?
teine	teine	0		O	sg n
     	teine	0		P	sg n
do	####				
Jaan	Jaan	0		H	sg n
    	jaan	0		S	sg n
    	jaan	0		Y	?
älepson	####				
XXX	XXX	0		O	?
   	XXX	0		Y	?
