Peeter	Peeter	0		H	sg n
Vald	vald	0		S	sg n
kaebas	kaeba	s		V	s
,	,			Z	
et	et	0		J	
kõrtsimees	kõrtsi_mees	0		S	sg n
Jüri	Jüri	0		H	sg g
    	Jüri	0		H	sg n
Kets	kets	0		S	sg n
olevat	ole	vat		V	vat
      	olev	t		A	sg p
      	olev	t		S	sg p
aprilli	aprill	0		S	adt
       	aprill	0		S	sg g
       	aprill	0		S	sg p
kuul	kuu	l		S	sg ad
    	kuul	0		S	sg n
28	28	0		N	?
rbl	rbl	0		Y	?
.	.			Z	
68	68	0		N	?
kop	kop	0		Y	?
.	.			Z	
võlgu	võlg	u		S	pl p
     	võlgu	0		D	
võtnud	võt	nud		V	nud
      	võt=nu	d		S	pl n
      	võt=nud	0		A	
      	võt=nud	0		A	sg n
      	võt=nud	d		A	pl n
ja	ja	0		J	
loanud	####				
Mai	Mai	0		H	sg g
   	Mai	0		H	sg n
   	mai	0		S	sg g
   	mai	0		S	sg n
kuul	kuu	l		S	sg ad
    	kuul	0		S	sg n
selsamal	see_sama	l		P	sg ad
aastal	aasta	l		S	sg ad
ära	ära	0		D	
   	ära	0		V	neg o
maksa	maks	0		S	adt
     	maks	0		S	sg g
     	maks	0		V	o
     	maks	0		S	sg p
,	,			Z	
et	et	0		J	
tema	tema	0		P	sg g
    	tema	0		P	sg n
aga	aga	0		J	
nüüd	nüüd	0		D	
seni	seni	0		D	
ajani	aeg	ni		S	sg ter
maksnud	maks	nud		V	nud
       	maks=nu	d		S	pl n
       	maks=nud	0		A	
       	maks=nud	0		A	sg n
       	maks=nud	d		A	pl n
ei	ei	0		D	
  	ei	0		V	neg
olevat	ole	vat		V	vat
      	olev	t		A	sg p
      	olev	t		S	sg p
,	,			Z	
siis	siis	0		D	
    	siis	0		J	
palle	pall	e		S	pl p
seesama	see_sama	0		P	sg n
,	,			Z	
et	et	0		J	
kog	####				
.	.			Z	
kohus	kohu	s		V	s
     	kohus	0		S	sg n
Jüri	Jüri	0		H	sg g
    	Jüri	0		H	sg n
Ketsa	####				
sunnis	sund	s		S	sg in
seda	see	da		P	sg p
raha	raha	0		S	sg g
    	raha	0		S	sg n
    	raha	0		S	sg p
temale	tema	le		P	sg all
ära	ära	0		D	
   	ära	0		V	neg o
maksa	maks	0		S	adt
     	maks	0		S	sg g
     	maks	0		V	o
     	maks	0		S	sg p
.	.			Z	
Jüri	Jüri	0		H	sg g
    	Jüri	0		H	sg n
Kets	kets	0		S	sg n
vastutas	vastuta	s		V	s
selle	see	0		P	sg g
     	sell	e		S	pl p
kaebduse	####				
peale	pea	le		S	sg all
     	peale	0		D	
     	peale	0		K	
,	,			Z	
et	et	0		J	
temal	tema	l		P	sg ad
olevat	ole	vat		V	vat
      	olev	t		A	sg p
      	olev	t		S	sg p
küll	küll	0		D	
    	küll	0		S	sg n
28	28	0		N	?
rbl	rbl	0		Y	?
.	.			Z	
68	68	0		N	?
kop	kop	0		Y	?
.	.			Z	
P	P	0		Y	?
.	.			Z	
_	_			Z	
Vald'ile	####				
maksa	maks	0		S	adt
     	maks	0		S	sg g
     	maks	0		V	o
     	maks	0		S	sg p
ja	ja	0		J	
lubas	luba	s		V	s
seda	see	da		P	sg p
esiks	esi	ks		S	pl tr
ära	ära	0		D	
   	ära	0		V	neg o
maksa	maks	0		S	adt
     	maks	0		S	sg g
     	maks	0		V	o
     	maks	0		S	sg p
.	.			Z	
Kohtus	kohtu	s		V	s
      	kohus	s		S	sg in
käijad	käija	d		S	pl n
sellepa	####				
sellega	see	ga		P	sg kom
kokku	kokku	0		D	
     	kogu	0		S	adt
,	,			Z	
et	et	0		J	
Jüri	Jüri	0		H	sg g
    	Jüri	0		H	sg n
Kets	kets	0		S	sg n
maksab	maks	b		V	b
see	see	0		P	sg n
28	28	0		N	?
rbl	rbl	0		Y	?
.	.			Z	
68	68	0		N	?
kop	kop	0		Y	?
.	.			Z	
1	1	0		N	?
Märtsisni	####				
s	s	0		Y	?
.	.			Z	
a.	a	0		Y	?
P	P	0		Y	?
.	.			Z	
_	_			Z	
Valdile	####				
ära	ära	0		D	
   	ära	0		V	neg o
.	.			Z	
