Liisu	liisk	0		S	sg g
     	liisu	0		V	o
Permann	####				
kaebas	kaeba	s		V	s
kohtu	kohtu	0		V	o
     	kohus	0		S	sg g
ees	ees	0		D	
   	ees	0		K	
   	esi	s		S	sg in
,	,			Z	
et	et	0		J	
soldat	soldat	0		S	sg n
kohtumaja	kohtu_maja	0		S	sg g
         	kohtu_maja	0		S	sg n
         	kohtu_maja	0		S	sg p
kassak	####				
Frits	frits	0		S	sg n
Parmson	####				
on	ole	0		V	b
  	ole	0		V	vad
1871	1871	0		N	?
keskmise	keskmine	0		A	sg g
suvise	suvine	0		A	sg g
pühade	püha	de		A	pl g
      	püha	de		S	pl g
      	pühade	0		A	
      	pühade	0		D	
päev	päev	0		S	sg n
(	(			Z	
temale	tema	le		P	sg all
)	)			Z	
kirriko	####				
mõisa	mõis	0		S	sg g
ajamanno	####				
tee	tee	0		S	sg g
   	tege	0		V	o
   	tee	0		S	sg n
peal	pea	l		S	sg ad
    	peal	0		D	
    	peal	0		K	
temale	tema	le		P	sg all
perrä	####				
tulnud	tul=nud	0		A	
      	tul=nud	0		A	sg n
      	tul=nud	d		A	pl n
      	tule	nud		V	nud
      	tulnu	d		S	pl n
kõrtsi	kõrts	0		S	adt
      	kõrts	0		S	sg g
      	kõrts	0		S	sg p
poolt	pool	t		N	sg p
     	pool	t		S	sg p
     	poolt	0		D	
     	poolt	0		K	
kohtu	kohtu	0		V	o
     	kohus	0		S	sg g
maja	maja	0		S	sg g
    	maja	0		S	sg n
    	maja	0		S	sg p
poole	pool	0		N	sg g
     	pool	0		S	sg g
     	pool	e		S	pl p
     	poole	0		K	
     	poole	0		S	sg n
,	,			Z	
peale	pea	le		S	sg all
     	peale	0		D	
     	peale	0		K	
kirriko	####				
,	,			Z	
ja	ja	0		J	
on	ole	0		V	b
  	ole	0		V	vad
tema	tema	0		P	sg g
    	tema	0		P	sg n
ümbert	ümbert	0		D	
      	ümbert	0		K	
kindi	####				
võtnudja	####				
on	ole	0		V	b
  	ole	0		V	vad
ütelnud	ütle	nud		V	nud
       	ütel=nu	d		S	pl n
       	ütel=nud	0		A	
       	ütel=nud	0		A	sg n
       	ütel=nud	d		A	pl n
et	et	0		J	
tule	tuli	0		S	sg g
    	tule	0		V	o
minu	mina	0		P	sg g
poole	pool	0		N	sg g
     	pool	0		S	sg g
     	pool	e		S	pl p
     	poole	0		K	
     	poole	0		S	sg n
ja	ja	0		J	
võtta	võt	a		V	da
,	,			Z	
velje	velg	0		S	sg g
     	veli	0		S	adt
     	veli	0		S	sg g
     	veli	0		S	sg p
saapad	saabas	d		S	pl n
ära	ära	0		D	
   	ära	0		V	neg o
,	,			Z	
ühes	üks	s		N	sg in
    	üks	s		P	sg in
    	ühes	0		D	
    	ühes	0		K	
on	ole	0		V	b
  	ole	0		V	vad
ka	ka	0		D	
veel	veel	0		D	
    	vesi	l		S	sg ad
olnud	ol=nud	0		A	
     	ol=nud	0		A	sg n
     	ol=nud	d		A	pl n
     	ole	nud		V	nud
     	olnu	d		S	pl n
Lina	lina	0		S	sg g
    	lina	0		S	sg n
    	lina	0		S	sg p
Küitson	####				
.	.			Z	
ja	ja	0		J	
siis	siis	0		D	
    	siis	0		J	
kui	kui	0		D	
   	kui	0		J	
nemad	tema	d		P	pl n
kohtu	kohtu	0		V	o
     	kohus	0		S	sg g
majja	maja	0		S	adt
Fritsi	####				
tare	tare	0		S	sg g
    	tare	0		S	sg n
on	ole	0		V	b
  	ole	0		V	vad
läinud	läinu	d		S	pl n
      	läinud	0		A	
      	läinud	0		A	sg n
      	läinud	d		A	pl n
      	mine	nud		V	nud
siis	siis	0		D	
    	siis	0		J	
on	ole	0		V	b
  	ole	0		V	vad
teide	####				
tüdruk	tüdruk	0		S	sg n
Lina	lina	0		S	sg g
    	lina	0		S	sg n
    	lina	0		S	sg p
Küitson	####				
ära	ära	0		D	
   	ära	0		V	neg o
läinud	läinu	d		S	pl n
      	läinud	0		A	
      	läinud	0		A	sg n
      	läinud	d		A	pl n
      	mine	nud		V	nud
,	,			Z	
ja	ja	0		J	
teda	tema	da		P	sg p
ei	ei	0		D	
  	ei	0		V	neg
ole	ole	0		V	o
Frits	frits	0		S	sg n
ära	ära	0		D	
   	ära	0		V	neg o
lasnud	####				
,	,			Z	
ja	ja	0		J	
on	ole	0		V	b
  	ole	0		V	vad
ukse	uks	0		S	sg g
eest	eest	0		D	
    	eest	0		K	
    	esi	st		S	sg el
kindi	####				
pannud	pan=nu	d		S	pl n
      	pan=nud	0		A	
      	pan=nud	0		A	sg n
      	pan=nud	d		A	pl n
      	pane	nud		V	nud
,	,			Z	
ja	ja	0		J	
on	ole	0		V	b
  	ole	0		V	vad
sängi	säng	0		S	adt
     	säng	0		S	sg g
     	säng	0		S	sg p
Liisu	liisk	0		S	sg g
     	liisu	0		V	o
Kärtmani	####				
pannud	pan=nu	d		S	pl n
      	pan=nud	0		A	
      	pan=nud	0		A	sg n
      	pan=nud	d		A	pl n
      	pane	nud		V	nud
,	,			Z	
ja	ja	0		J	
on	ole	0		V	b
  	ole	0		V	vad
ise	ise	0		A	
   	ise	0		D	
   	ise	0		P	pl n
   	ise	0		P	sg n
peale	pea	le		S	sg all
     	peale	0		D	
     	peale	0		K	
läinud	läinu	d		S	pl n
      	läinud	0		A	
      	läinud	0		A	sg n
      	läinud	d		A	pl n
      	mine	nud		V	nud
,	,			Z	
ja	ja	0		J	
on	ole	0		V	b
  	ole	0		V	vad
ütelnud	ütle	nud		V	nud
       	ütel=nu	d		S	pl n
       	ütel=nud	0		A	
       	ütel=nud	0		A	sg n
       	ütel=nud	d		A	pl n
ära	ära	0		D	
   	ära	0		V	neg o
tännita	####				
,	,			Z	
ja	ja	0		J	
siis	siis	0		D	
    	siis	0		J	
olevat	ole	vat		V	vat
      	olev	t		A	sg p
      	olev	t		S	sg p
Frits	frits	0		S	sg n
teda	tema	da		P	sg p
ära	ära	0		D	
   	ära	0		V	neg o
narnu	####				
,	,			Z	
ja	ja	0		J	
temal	tema	l		P	sg ad
on	ole	0		V	b
  	ole	0		V	vad
20	20	0		N	?
Vebruaril	####				
1872	1872	0		N	?
aastal	aasta	l		S	sg ad
tütar	tütar	0		S	sg n
sündinud	sündi	nud		V	nud
        	sündinu	d		S	pl n
        	sündinud	0		A	
        	sündinud	0		A	sg n
        	sündinud	d		A	pl n
,	,			Z	
selle	see	0		P	sg g
     	sell	e		S	pl p
Fritsiga	frits_iga	0		S	sg n
        	frits_iga	0		S	sg p
kokku	kokku	0		D	
     	kogu	0		S	adt
elamise	elamine	0		S	sg g
pärast	pära	st		S	sg el
      	pärane	t		A	sg p
      	pärast	0		D	
      	pärast	0		K	
.	.			Z	
ja	ja	0		J	
Frits	frits	0		S	sg n
ei	ei	0		D	
  	ei	0		V	neg
olevat	ole	vat		V	vat
      	olev	t		A	sg p
      	olev	t		S	sg p
temale	tema	le		P	sg all
midagi	miski	dagi		P	sg p
maksnud	maks	nud		V	nud
       	maks=nu	d		S	pl n
       	maks=nud	0		A	
       	maks=nud	0		A	sg n
       	maks=nud	d		A	pl n
.	.			Z	
Liisu	liisk	0		S	sg g
     	liisu	0		V	o
Pärtmann	####				
nõuab	nõud	b		V	b
lapse	laps	0		S	sg g
üles	üles	0		D	
pidamise	pidamine	0		S	sg g
tarvis	tarvis	0		D	
      	tarvis	0		K	
Fritsi	####				
käest	käest	0		K	
     	käsi	st		S	sg el
60	60	0		N	?
rubla	rubla	0		S	sg g
     	rubla	0		S	sg n
     	rubla	0		S	sg p
.	.			Z	
soldat	soldat	0		S	sg n
Frits	frits	0		S	sg n
Parmsoni	parm_soni	0		S	sg g
        	parm_soni	0		S	sg n
        	parm_soni	0		S	sg p
käest	käest	0		K	
     	käsi	st		S	sg el
sai	saa	i		V	s
   	sai	0		S	sg n
küsitud	küsi	tud		V	tud
       	küsi=tu	d		S	pl n
       	küsi=tud	0		A	
       	küsi=tud	0		A	sg n
       	küsi=tud	d		A	pl n
,	,			Z	
ütles	ütle	s		V	s
tema	tema	0		P	sg g
    	tema	0		P	sg n
,	,			Z	
et	et	0		J	
tema	tema	0		P	sg g
    	tema	0		P	sg n
ei	ei	0		D	
  	ei	0		V	neg
ole	ole	0		V	o
mitte	mitte	0		D	
temaga	tema	ga		P	sg kom
elanud	ela	nud		V	nud
      	ela=nu	d		S	pl n
      	ela=nud	0		A	
      	ela=nud	0		A	sg n
      	ela=nud	d		A	pl n
,	,			Z	
ja	ja	0		J	
iga	iga	0		P	sg g
   	iga	0		P	sg n
   	iga	0		P	sg p
   	iga	0		S	sg n
   	iga	0		S	sg p
ei	ei	0		D	
  	ei	0		V	neg
ole	ole	0		V	o
temaga	tema	ga		P	sg kom
mitte	mitte	0		D	
sängin	####				
olnud	ol=nud	0		A	
     	ol=nud	0		A	sg n
     	ol=nud	d		A	pl n
     	ole	nud		V	nud
     	olnu	d		S	pl n
,	,			Z	
ja	ja	0		J	
ei	ei	0		D	
  	ei	0		V	neg
ütle	ütle	0		V	o
sest	see	st		P	sg el
    	sest	0		J	
midagi	miski	dagi		P	sg p
teada	tead	a		V	da
,	,			Z	
ja	ja	0		J	
ei	ei	0		D	
  	ei	0		V	neg
pea	pea	0		D	
   	pea	0		S	sg g
   	pida	0		V	o
   	pea	0		S	sg n
selle	see	0		P	sg g
     	sell	e		S	pl p
lapsega	laps	ga		S	sg kom
midagi	miski	dagi		P	sg p
tegemist	tegemine	t		S	sg p
olema	ole	ma		V	ma
,	,			Z	
ja	ja	0		J	
ütleb	ütle	b		V	b
et	et	0		J	
Liisu	liisk	0		S	sg g
     	liisu	0		V	o
on	ole	0		V	b
  	ole	0		V	vad
petnud	pet	nud		V	nud
      	pet=nu	d		S	pl n
      	pet=nud	0		A	
      	pet=nud	0		A	sg n
      	pet=nud	d		A	pl n
.	.			Z	
tares	tare	s		S	sg in
ollekid	####				
,	,			Z	
ei	ei	0		D	
  	ei	0		V	neg
ütle	ütle	0		V	o
Frits	frits	0		S	sg n
mäletavad	mäleta	vad		V	vad
         	mäleta=v	d		A	pl n
Lina	lina	0		S	sg g
    	lina	0		S	sg n
    	lina	0		S	sg p
Küitsoni	####				
tunnistuse	tunnistus	0		S	sg g
pärast	pära	st		S	sg el
      	pärane	t		A	sg p
      	pärast	0		D	
      	pärast	0		K	
jääs	jää	s		S	sg in
poolele	pool	le		N	sg all
       	pool	le		S	sg all
.	.			Z	
