No	no	0		I	
243	243	0		N	?
protokolli	protokoll	0		S	adt
          	protokoll	0		S	sg g
          	protokolli	0		V	o
          	protokoll	0		S	sg p
edesiminek	####				
.	.			Z	
tuli	tuli	0		S	sg n
    	tule	i		V	s
ette	ette	0		D	
    	ette	0		K	
    	esi	tte		S	adt
Karl	Karl	0		H	sg n
Otsing	otsing	0		S	sg n
ning	ning	0		J	
vastat	####				
et	et	0		J	
tema	tema	0		P	sg g
    	tema	0		P	sg n
on	ole	0		V	b
  	ole	0		V	vad
see	see	0		P	sg n
palga	palk	0		S	sg g
ära	ära	0		D	
   	ära	0		V	neg o
maksnud	maks	nud		V	nud
       	maks=nu	d		S	pl n
       	maks=nud	0		A	
       	maks=nud	0		A	sg n
       	maks=nud	d		A	pl n
ükskord	üks_kord	0		D	
andnud	and	nud		V	nud
      	and=nu	d		S	pl n
      	and=nud	0		A	
      	and=nud	0		A	sg n
      	and=nud	d		A	pl n
1	1	0		N	?
rbl	rbl	0		Y	?
.	.			Z	
ja	ja	0		J	
olevat	ole	vat		V	vat
      	olev	t		A	sg p
      	olev	t		S	sg p
ka	ka	0		D	
Hendrik	Hendrik	0		H	sg n
rummast	####				
elajad	elajas	d		S	pl n
käivad	käi	vad		V	vad
      	käiv	d		A	pl n
tema	tema	0		P	sg g
    	tema	0		P	sg n
maa	maa	0		S	sg g
   	maa	0		S	sg n
peal	pea	l		S	sg ad
    	peal	0		D	
    	peal	0		K	
karjas	kari	s		S	sg in
.	.			Z	
otsus	otsus	0		S	sg n
.	.			Z	
kaebus	kaebus	0		S	sg n
tühi	tühi	0		A	sg n
.	.			Z	
