Hendrik	Hendrik	0		H	sg n
Tillmanni	till_mann	0		S	adt
         	till_mann	0		S	sg g
         	till_mann	0		S	sg p
saagi	saa	0	gi	V	o
     	saag	0		S	adt
     	saak	0		S	sg g
     	saag	0		S	sg p
est	####				
,	,			Z	
mis	mis	0		P	pl n
   	mis	0		P	sg n
katki	katki	0		D	
tehtu	tehtu	0		S	sg g
     	tehtud	0		A	sg g
     	tehtu	0		S	sg n
sai	saa	i		V	s
   	sai	0		S	sg n
peab	pida	b		V	b
Gustav	Gustav	0		H	sg n
vessoberg	####				
2	2	0		N	?
rubla	rubla	0		S	sg g
     	rubla	0		S	sg n
     	rubla	0		S	sg p
ja	ja	0		J	
Viido	####				
Tolmuk	####				
30	30	0		N	?
koop	koop	0		Y	?
Hendrik	Hendrik	0		H	sg n
Tilmannile	####				
kahju	kahi	0		S	adt
     	kahi	0		S	sg g
     	kahi	0		S	sg p
     	kahju	0		S	sg g
     	kahju	0		S	sg n
     	kahju	0		S	sg p
raha	raha	0		S	sg g
    	raha	0		S	sg n
    	raha	0		S	sg p
maksa	maks	0		S	adt
     	maks	0		S	sg g
     	maks	0		V	o
     	maks	0		S	sg p
selle	see	0		P	sg g
     	sell	e		S	pl p
pärast	pära	st		S	sg el
      	pärane	t		A	sg p
      	pärast	0		D	
      	pärast	0		K	
et	et	0		J	
nende	see	de		P	pl g
     	tema	de		P	pl g
süü	süü	0		S	sg g
   	süü	0		S	sg n
läbi	läbi	0		D	
    	läbi	0		K	
    	läbi	0		V	o
see	see	0		P	sg n
kahju	kahi	0		S	adt
     	kahi	0		S	sg g
     	kahi	0		S	sg p
     	kahju	0		S	sg g
     	kahju	0		S	sg n
     	kahju	0		S	sg p
on	ole	0		V	b
  	ole	0		V	vad
sündinud	sündi	nud		V	nud
        	sündinu	d		S	pl n
        	sündinud	0		A	
        	sündinud	0		A	sg n
        	sündinud	d		A	pl n
.	.			Z	
