Krabi	krabi	0		S	sg g
     	krabi	0		S	sg n
     	krabi	0		S	sg p
proua	proua	0		S	sg g
     	proua	0		S	sg n
andis	and	is		V	s
oma	oma	0		A	sg g
   	oma	0		D	
   	oma	0		P	sg g
   	oma	0		S	sg g
   	oma	0		V	o
   	oma	0		A	sg n
   	oma	0		A	sg p
   	oma	0		P	sg n
   	oma	0		P	sg p
   	oma	0		S	sg n
   	oma	0		S	sg p
varasteodo	####				
asjad	asi	d		S	pl n
kohtu	kohtu	0		V	o
     	kohus	0		S	sg g
ees	ees	0		D	
   	ees	0		K	
   	esi	s		S	sg in
üles	üles	0		D	
ja	ja	0		J	
nimelt	nimelt	0		D	
      	nimi	lt		S	sg abl
1867	1867	0		N	?
aastal	aasta	l		S	sg ad
sügise	sügis	0		S	sg g
Ait	ait	0		S	sg n
lõhoto	####				
ära	ära	0		D	
   	ära	0		V	neg o
on	ole	0		V	b
  	ole	0		V	vad
varasteodo	####				
1	1	0		N	?
hõbe	hõbe	0		S	sg n
korter	korter	0		S	sg n
Ur	####				
1	1	0		N	?
puud	puu	d		S	pl n
    	puud	0		S	sg n
    	puu	d		S	sg p
villased	villane	d		A	pl n
lõngo	####				
2	2	0		N	?
puuda	puud	0		S	adt
     	puud	0		S	sg g
     	puud	0		S	sg p
villu	vill	u		S	pl p
     	vilu	0		A	adt
     	vilu	0		S	adt
1	1	0		N	?
pund	####				
poom	poom	0		S	sg n
villu	vill	u		S	pl p
     	vilu	0		A	adt
     	vilu	0		S	adt
te	sina	0		P	pl g
  	sina	0		P	pl n
ning	ning	0		J	
sõidu	sõit	0		S	sg g
hobuse	hobune	0		S	sg g
riistad	riist	d		S	pl n
1	1	0		N	?
sõidu	sõit	0		S	sg g
kell	kell	0		S	sg n
1	1	0		N	?
paar	paar	0		N	sg n
    	paar	0		S	sg n
kalevased	kale_vask	d		S	pl n
püksis	püks	s		S	sg in
1	1	0		N	?
siidi	siid	0		S	adt
     	siid	0		S	sg g
     	siid	0		S	sg p
vest	vest	0		S	sg n
1	1	0		N	?
siidi	siid	0		S	adt
     	siid	0		S	sg g
     	siid	0		S	sg p
kaela	kael	0		S	adt
     	kael	0		S	sg g
     	kaela	0		K	
     	kael	0		S	sg p
rätt	rätt	0		S	sg n
1	1	0		N	?
paar	paar	0		N	sg n
    	paar	0		S	sg n
Glase	####				
kindad	kinnas	d		S	pl n
1	1	0		N	?
Stahl	####				
Schalistega	####				
rihm	rihm	0		S	sg n
2	2	0		N	?
suurt	suur	t		A	sg p
kotti	kott	0		S	adt
     	kotti	0		D	
     	kott	i		S	pl p
     	kott	0		S	sg p
1868	1868	0		N	?
suvel	suvi	l		S	sg ad
metsa	mets	0		S	adt
     	mets	0		S	sg g
     	mets	0		S	sg p
põlemise	põlemine	0		S	sg g
aeg	aeg	0		S	sg n
varasteodo	####				
kambrist	kamber	st		S	sg el
läbi	läbi	0		D	
    	läbi	0		K	
    	läbi	0		V	o
akna	aken	0		S	sg g
1	1	0		N	?
kuulda	kuul	da		V	da
      	kuul	da		V	ta
Ur	####				
kapselega	####				
masirhffi	####				
kettiga	kett_iga	0		S	sg n
       	kett_iga	0		S	sg p
ja	ja	0		J	
trodlega	####				
2	2	0		N	?
Savar	####				
kivi	kivi	0		S	sg g
    	kivi	0		S	sg n
    	kivi	0		S	sg p
2	2	0		N	?
Schmaraht	####				
kivi	kivi	0		S	sg g
    	kivi	0		S	sg n
    	kivi	0		S	sg p
kulaga	kula	ga		S	sg kom
siisi	####				
valitud	valitud	0		A	
       	valitud	0		A	sg n
       	valitud	d		A	pl n
       	vali	tud		V	tud
       	valitu	d		S	pl n
usk	usk	0		S	sg n
lootus	lootus	0		S	sg n
arm	arm	0		S	sg n
3	3	0		N	?
suurt	suur	t		A	sg p
prill	prill	0		S	sg n
juuti	juut	0		S	adt
     	juut	0		S	sg p
kivi	kivi	0		S	sg g
    	kivi	0		S	sg n
    	kivi	0		S	sg p
6	6	0		N	?
iluksest	####				
prillandi	prill_and	0		S	adt
         	prill_and	0		S	sg p
kivi	kivi	0		S	sg g
    	kivi	0		S	sg n
    	kivi	0		S	sg p
mitmesuguse	mitme_sugune	0		P	sg g
kuulda	kuul	da		V	da
      	kuul	da		V	ta
asjade	asi	de		S	pl g
seest	seest	0		D	
     	seest	0		K	
palju	palju	0		D	
     	palju	0		P	sg g
     	palju	0		P	sg n
kraat	kraat	0		S	sg n
kivisi	####				
ja	ja	0		J	
1	1	0		N	?
suur	suur	0		A	sg n
1	1	0		N	?
kuuldrist	kuuld_rist	0		S	sg n
2	2	0		N	?
tangussuse	####				
kullast	kuld	st		S	sg el
       	kullane	t		A	sg p
Medaliga	medal	ga		S	sg kom
kõige	kõik	0		P	sg g
     	kõige	0		D	
Karobatsiga	####				
1	1	0		N	?
väike	väike	0		A	sg n
kast	kast	0		S	sg n
kõige	kõik	0		P	sg g
     	kõige	0		D	
täiega	täis	ga		A	sg kom
      	täis	ga		S	sg kom
kus	kus	0		D	
3	3	0		N	?
kübarad	kübar	d		S	pl n
oli	ole	i		V	s
ja	ja	0		J	
1	1	0		N	?
sinine	sinine	0		A	sg n
      	sinine	0		S	sg n
metsamine	####				
Mantilja	mantilja	0		S	sg g
        	mantilja	0		S	sg n
ja	ja	0		J	
mitme	mitu	0		P	sg g
sugused	sugune	d		A	pl n
sameti	samet	0		S	sg g
ja	ja	0		J	
siidi	siid	0		S	adt
     	siid	0		S	sg g
     	siid	0		S	sg p
laadpäe	####				
1	1	0		N	?
Tanno	####				
sulgega	####				
ja	ja	0		J	
praba	####				
pidasega	####				
kõige	kõik	0		P	sg g
     	kõige	0		D	
peletega	####				
1	1	0		N	?
kulatud	kula=tu	d		A	pl n
kam	####				
1	1	0		N	?
/	/			Z	
2	2	0		N	?
pärlitega	pärl	tega		S	pl kom
1	1	0		N	?
kulatud	kula=tu	d		A	pl n
putket	putket	0		X	
1	1	0		N	?
Atlas	Atlas	0		H	sg n
     	atlas	0		S	sg n
siidi	siid	0		S	adt
     	siid	0		S	sg g
     	siid	0		S	sg p
pöll	####				
4	4	0		N	?
Peetis	peetis	0		A	
      	peetis	0		D	
rättid	####				
1	1	0		N	?
Satule	####				
kopist	####				
kõige	kõik	0		P	sg g
     	kõige	0		D	
täiega	täis	ga		A	sg kom
      	täis	ga		S	sg kom
1	1	0		N	?
siidi	siid	0		S	adt
     	siid	0		S	sg g
     	siid	0		S	sg p
vihma	vihm	0		S	adt
     	vihm	0		S	sg g
     	vihm	0		S	sg p
vari	vari	0		S	sg n
mis	mis	0		P	pl n
   	mis	0		P	sg n
uus	uus	0		A	sg n
oli	ole	i		V	s
isbevini	####				
peal	pea	l		S	sg ad
    	peal	0		D	
    	peal	0		K	
1	1	0		N	?
tükk	tükk	0		S	sg n
vana	vana	0		A	sg g
    	vana	0		A	sg n
    	vana	0		A	sg p
    	vana	0		S	sg g
    	vana	0		S	sg n
    	vana	0		S	sg p
siidi	siid	0		S	adt
     	siid	0		S	sg g
     	siid	0		S	sg p
rõevast	####				
1	1	0		N	?
naisterahva	naiste_rahvas	0		S	sg g
amme	amm	0		S	adt
    	amm	0		S	sg g
    	amm	0		S	sg p
1	1	0		N	?
projust	####				
tasku	tasku	0		S	adt
     	tasku	0		S	sg g
     	tasku	0		S	sg n
väits	väits	0		S	sg n
1	1	0		N	?
hinglise	####				
käri	####				
1	1	0		N	?
paar	paar	0		N	sg n
    	paar	0		S	sg n
toflid	####				
1	1	0		N	?
ammurise	####				
sul	sina	l		P	sg ad
Mis	mis	0		P	pl n
   	mis	0		P	sg n
Krabi	krabi	0		S	sg g
     	krabi	0		S	sg n
     	krabi	0		S	sg p
proua	proua	0		S	sg g
     	proua	0		S	sg n
on	ole	0		V	b
  	ole	0		V	vad
unnetanud	####				
annab	and	b		V	b
tema	tema	0		P	sg g
    	tema	0		P	sg n
ise	ise	0		A	
   	ise	0		D	
   	ise	0		P	pl n
   	ise	0		P	sg n
veel	veel	0		D	
    	vesi	l		S	sg ad
keiserliku	keiserlik	0		A	sg g
kohtu	kohtu	0		V	o
     	kohus	0		S	sg g
ees	ees	0		D	
   	ees	0		K	
   	esi	s		S	sg in
Verol	####				
üles	üles	0		D	
.	.			Z	
pea	pea	0		D	
   	pea	0		S	sg g
   	pida	0		V	o
   	pea	0		S	sg n
kohtumees	kohtu_mees	0		S	sg n
Paap	####				
Kiudorv	kiud_orv	0		S	sg n
kohtumees	kohtu_mees	0		S	sg n
Kristjan	Kristjan	0		H	sg n
Võsoberg	####				
kohtumees	kohtu_mees	0		S	sg n
Jaan	Jaan	0		H	sg n
    	jaan	0		S	sg n
    	jaan	0		Y	?
Holsting	####				
kohtumees	kohtu_mees	0		S	sg n
Jakob	Jakob	0		H	sg n
Türkson	####				
kohtumees	kohtu_mees	0		S	sg n
Hendrik	Hendrik	0		H	sg n
tosing	####				
