Hurmist	####				
Johann	Johann	0		H	sg n
Sikk	sikk	0		S	sg n
kaebas	kaeba	s		V	s
et	et	0		J	
temale	tema	le		P	sg all
on	ole	0		V	b
  	ole	0		V	vad
14	14	0		N	?
rubla	rubla	0		S	sg g
     	rubla	0		S	sg n
     	rubla	0		S	sg p
Jaan	Jaan	0		H	sg n
    	jaan	0		S	sg n
    	jaan	0		Y	?
Rangi	####				
käest	käest	0		K	
     	käsi	st		S	sg el
saada	saa	da		V	da
     	saat	0		V	o
     	saa	da		V	ta
mis	mis	0		P	pl n
   	mis	0		P	sg n
ta	tema	0		P	sg g
  	tema	0		P	sg n
palub	palu	b		V	b
kohut	kohus	t		S	sg p
välja	välja	0		D	
     	välja	0		V	o
     	väli	0		S	adt
     	väli	0		S	sg g
     	väli	0		S	sg p
nõuda	nõud	a		V	da
.	.			Z	
Jaan	Jaan	0		H	sg n
    	jaan	0		S	sg n
    	jaan	0		Y	?
Rangi	####				
vastab	vasta	b		V	b
et	et	0		J	
temale	tema	le		P	sg all
meta	meta	0		S	sg g
    	meta	0		S	sg n
niipalju	nii_palju	0		D	
Sikkale	####				
maksa	maks	0		S	adt
     	maks	0		S	sg g
     	maks	0		V	o
     	maks	0		S	sg p
ei	ei	0		D	
  	ei	0		V	neg
ole	ole	0		V	o
ja	ja	0		J	
andis	and	is		V	s
rehnungi	rehnung	0		S	sg g
ette	ette	0		D	
    	ette	0		K	
    	esi	tte		S	adt
millejärel	mille_järel	0		D	
tema	tema	0		P	sg g
    	tema	0		P	sg n
28	28	0		N	?
rubla	rubla	0		S	sg g
     	rubla	0		S	sg n
     	rubla	0		S	sg p
ja	ja	0		J	
83	83	0		N	?
kop	kop	0		Y	?
.	.			Z	
Johann	Johann	0		H	sg n
Sikale	####				
on	ole	0		V	b
  	ole	0		V	vad
väljaanud	####				
.	.			Z	
peale	pea	le		S	sg all
     	peale	0		D	
     	peale	0		K	
selle	see	0		P	sg g
     	sell	e		S	pl p
olla	ole	a		V	da
Sikk	sikk	0		S	sg n
9	9	0		N	?
päeva	päev	0		S	adt
     	päev	0		S	sg g
     	päev	0		S	sg p
äära	####				
viitnud	viit	nud		V	nud
       	viit=nu	d		S	pl n
       	viit=nud	0		A	
       	viit=nud	0		A	sg n
       	viit=nud	d		A	pl n
kui	kui	0		D	
   	kui	0		J	
tema	tema	0		P	sg g
    	tema	0		P	sg n
juures	juur	s		S	sg in
      	juures	0		D	
      	juures	0		K	
on	ole	0		V	b
  	ole	0		V	vad
sulaseks	sulane	ks		S	sg tr
olnud	ol=nud	0		A	
     	ol=nud	0		A	sg n
     	ol=nud	d		A	pl n
     	ole	nud		V	nud
     	olnu	d		S	pl n
ja	ja	0		J	
nõuab	nõud	b		V	b
iga	iga	0		P	sg g
   	iga	0		P	sg n
   	iga	0		P	sg p
   	iga	0		S	sg n
   	iga	0		S	sg p
päeva	päev	0		S	adt
     	päev	0		S	sg g
     	päev	0		S	sg p
eest	eest	0		D	
    	eest	0		K	
    	esi	st		S	sg el
40	40	0		N	?
kop	kop	0		Y	?
.	.			Z	
see	see	0		P	sg n
teeb	tege	b		V	b
3	3	0		N	?
rub	####				
60	60	0		N	?
kop	kop	0		Y	?
välja	välja	0		D	
     	välja	0		V	o
     	väli	0		S	adt
     	väli	0		S	sg g
     	väli	0		S	sg p
.	.			Z	
rehnungi	rehnung	0		S	sg g
vastastiku	vastas_tikk	0		S	sg g
seletates	####				
tuli	tuli	0		S	sg n
    	tule	i		V	s
välja	välja	0		D	
     	välja	0		V	o
     	väli	0		S	adt
     	väli	0		S	sg g
     	väli	0		S	sg p
et	et	0		J	
rangele	range	le		A	sg all
on	ole	0		V	b
  	ole	0		V	vad
Johann	Johann	0		H	sg n
Sikkale	####				
29	29	0		N	?
rubla	rubla	0		S	sg g
     	rubla	0		S	sg n
     	rubla	0		S	sg p
75	75	0		N	?
kop	kop	0		Y	?
.	.			Z	
maksa	maks	0		S	adt
     	maks	0		S	sg g
     	maks	0		V	o
     	maks	0		S	sg p
,	,			Z	
kus	kus	0		D	
4	4	0		N	?
päeva	päev	0		S	adt
     	päev	0		S	sg g
     	päev	0		S	sg p
äraviitmise	ära_viitmine	0		S	sg g
eest	eest	0		D	
    	eest	0		K	
    	esi	st		S	sg el
160	160	0		N	?
kop	kop	0		Y	?
.	.			Z	
on	ole	0		V	b
  	ole	0		V	vad
rangele	range	le		A	sg all
juba	juba	0		D	
maha	maha	0		D	
arvatud	arva	tud		V	tud
       	arva=tu	d		S	pl n
       	arva=tud	0		A	
       	arva=tud	0		A	sg n
       	arva=tud	d		A	pl n
saanud	saa	nud		V	nud
      	saa=nud	0		A	
      	saa=nud	0		A	sg n
      	saa=nud	d		A	pl n
      	saanu	d		S	pl n
.	.			Z	
Mõistus	mõistus	0		S	sg n
.	.			Z	
kogukonna	kogukond	0		S	sg g
kohus	kohu	s		V	s
     	kohus	0		S	sg n
mõistab	mõist	b		V	b
et	et	0		J	
Rangi	####				
peab	pida	b		V	b
see	see	0		P	sg n
29	29	0		N	?
rubla	rubla	0		S	sg g
     	rubla	0		S	sg n
     	rubla	0		S	sg p
75	75	0		N	?
kop	kop	0		Y	?
.	.			Z	
2	2	0		N	?
nädala	nädal	0		S	sg g
sees	sees	0		D	
    	sees	0		K	
Johann	Johann	0		H	sg n
Sikkale	####				
väljamaksma	####				
.	.			Z	
otsus	otsus	0		S	sg n
sai	saa	i		V	s
   	sai	0		S	sg n
T	T	0		Y	?
.	.			Z	
r	r	0		Y	?
.	.			Z	
s	s	0		Y	?
.	.			Z	
r	r	0		Y	?
.	.			Z	
§§	§§	0		Y	?
773	773	0		N	?
ja	ja	0		J	
774	774	0		N	?
järel	järel	0		D	
     	järel	0		K	
etteloetud	ette_loetu	d		S	pl n
          	ette_loetud	0		A	
          	ette_loetud	0		A	sg n
          	ette_loetud	d		A	pl n
mõlemad	mõlema	d		P	pl n
olid	ole	id		V	sid
otsusega	otsus	ga		S	sg kom
rahul	rahu	l		S	sg ad
     	rahul	0		D	
.	.			Z	
äära	####				
täitetatud	####				
.	.			Z	
