kaebas	kaeba	s		V	s
metsasaks	metsa_saks	0		S	sg n
J	J	0		Y	?
.	.			Z	
_	_			Z	
Rooosnetsk	####				
,	,			Z	
et	et	0		J	
Johan	Johan	0		H	sg n
sell	sell	0		S	sg n
ja	ja	0		J	
tenis	####				
Oinling	####				
on	ole	0		V	b
  	ole	0		V	vad
ilma	ilm	0		S	adt
    	ilm	0		S	sg g
    	ilma	0		D	
    	ilma	0		K	
    	ilm	0		S	sg p
tema	tema	0		P	sg g
    	tema	0		P	sg n
lubada	luba	da		V	da
oma	oma	0		A	sg g
   	oma	0		D	
   	oma	0		P	sg g
   	oma	0		S	sg g
   	oma	0		V	o
   	oma	0		A	sg n
   	oma	0		A	sg p
   	oma	0		P	sg n
   	oma	0		P	sg p
   	oma	0		S	sg n
   	oma	0		S	sg p
tare	tare	0		S	sg g
    	tare	0		S	sg n
ehitamise	ehitamine	0		S	sg g
tarvis	tarvis	0		D	
      	tarvis	0		K	
38	38	0		N	?
puud	puu	d		S	pl n
    	puud	0		S	sg n
    	puu	d		S	sg p
,	,			Z	
see	see	0		P	sg n
on	ole	0		V	b
  	ole	0		V	vad
üle	üle	0		D	
   	üle	0		K	
kõige	kõik	0		P	sg g
     	kõige	0		D	
274	274	0		N	?
tuli	tuli	0		S	sg n
    	tule	i		V	s
Palke	palk	e		S	pl p
vedanud	veda	nud		V	nud
       	veda=nu	d		S	pl n
       	veda=nud	0		A	
       	veda=nud	0		A	sg n
       	veda=nud	d		A	pl n
.	.			Z	
ette	ette	0		D	
    	ette	0		K	
    	esi	tte		S	adt
tuli	tuli	0		S	sg n
    	tule	i		V	s
tenis	####				
Oinling	####				
ja	ja	0		J	
ütles	ütle	s		V	s
,	,			Z	
et	et	0		J	
tema	tema	0		P	sg g
    	tema	0		P	sg n
omast	oma	st		A	sg el
     	oma	st		P	sg el
     	oma	st		S	sg el
     	omane	t		A	sg p
metsast	mets	st		S	sg el
       	metsane	t		A	sg p
36	36	0		N	?
Palke	palk	e		S	pl p
toonud	too	nud		V	nud
      	too=nu	d		S	pl n
      	too=nud	0		A	
      	too=nud	0		A	sg n
      	too=nud	d		A	pl n
kust	kusi	t		S	sg p
    	kust	0		D	
luba	luba	0		S	sg n
    	luba	0		V	o
    	luba	0		S	sg p
oli	ole	i		V	s
ja	ja	0		J	
mõisa	mõis	0		S	sg g
metsast	mets	st		S	sg el
       	metsane	t		A	sg p
Pahaoja	paha_oja	0		S	sg g
       	paha_oja	0		S	sg n
       	paha_oja	0		S	sg p
poolt	pool	t		N	sg p
     	pool	t		S	sg p
     	poolt	0		D	
     	poolt	0		K	
8	8	0		N	?
palke	palk	e		S	pl p
,	,			Z	
krissa	####				
puustusest	puustus	st		S	sg el
8	8	0		N	?
palke	palk	e		S	pl p
ja	ja	0		J	
1	1	0		N	?
tulp	tulp	0		S	sg n
,	,			Z	
ja	ja	0		J	
Johann	Johann	0		H	sg n
on	ole	0		V	b
  	ole	0		V	vad
niisama	nii_sama	0		D	
toonud	too	nud		V	nud
      	too=nu	d		S	pl n
      	too=nud	0		A	
      	too=nud	0		A	sg n
      	too=nud	d		A	pl n
kui	kui	0		D	
   	kui	0		J	
tema	tema	0		P	sg g
    	tema	0		P	sg n
.	.			Z	
sel	see	l		P	sg ad
   	sel	0		Y	?
27	27	0		N	?
Julil	####				
1872	1872	0		N	?
tuli	tuli	0		S	sg n
    	tule	i		V	s
ette	ette	0		D	
    	ette	0		K	
    	esi	tte		S	adt
Johan	Johan	0		H	sg n
Sepp	sepp	0		S	sg n
,	,			Z	
ja	ja	0		J	
ütles	ütle	s		V	s
,	,			Z	
et	et	0		J	
tema	tema	0		P	sg g
    	tema	0		P	sg n
tare	tare	0		S	sg g
    	tare	0		S	sg n
on	ole	0		V	b
  	ole	0		V	vad
väga	väga	0		D	
mäda	mäda	0		A	sg g
    	mäda	0		A	sg n
    	mäda	0		A	sg p
    	mäda	0		S	sg g
    	mäda	0		S	sg n
    	mäda	0		S	sg p
olnud	ol=nud	0		A	
     	ol=nud	0		A	sg n
     	ol=nud	d		A	pl n
     	ole	nud		V	nud
     	olnu	d		S	pl n
,	,			Z	
ja	ja	0		J	
tema	tema	0		P	sg g
    	tema	0		P	sg n
on	ole	0		V	b
  	ole	0		V	vad
oma	oma	0		A	sg g
   	oma	0		D	
   	oma	0		P	sg g
   	oma	0		S	sg g
   	oma	0		V	o
   	oma	0		A	sg n
   	oma	0		A	sg p
   	oma	0		P	sg n
   	oma	0		P	sg p
   	oma	0		S	sg n
   	oma	0		S	sg p
poolema	pool_ema	0		S	sg g
       	pool_ema	0		S	sg n
       	pool_ema	0		S	sg p
mehega	mees	ga		S	sg kom
nõu	nõu	0		S	sg g
   	nõu	0		S	sg n
   	nõu	0		S	sg p
pidanud	pida	nud		V	nud
       	pida=nu	d		S	pl n
       	pida=nud	0		A	
       	pida=nud	0		A	sg n
       	pida=nud	d		A	pl n
,	,			Z	
et	et	0		J	
vaja	vaja	0		D	
    	vaja	0		V	o
ehitada	ehita	da		V	da
ja	ja	0		J	
metsasaksa	metsa_saks	0		S	adt
          	metsa_saks	0		S	sg g
          	metsa_saks	0		S	sg p
käest	käest	0		K	
     	käsi	st		S	sg el
luba	luba	0		S	sg n
    	luba	0		V	o
    	luba	0		S	sg p
küsida	küsi	da		V	da
.	.			Z	
läinud	läinu	d		S	pl n
      	läinud	0		A	
      	läinud	0		A	sg n
      	läinud	d		A	pl n
      	mine	nud		V	nud
metsasaksa	metsa_saks	0		S	adt
          	metsa_saks	0		S	sg g
          	metsa_saks	0		S	sg p
poole	pool	0		N	sg g
     	pool	0		S	sg g
     	pool	e		S	pl p
     	poole	0		K	
     	poole	0		S	sg n
küsima	küsi	ma		V	ma
,	,			Z	
siis	siis	0		D	
    	siis	0		J	
on	ole	0		V	b
  	ole	0		V	vad
metsasaks	metsa_saks	0		S	sg n
ütelnud	ütle	nud		V	nud
       	ütel=nu	d		S	pl n
       	ütel=nud	0		A	
       	ütel=nud	0		A	sg n
       	ütel=nud	d		A	pl n
,	,			Z	
et	et	0		J	
tema	tema	0		P	sg g
    	tema	0		P	sg n
selle	see	0		P	sg g
     	sell	e		S	pl p
ei	ei	0		D	
  	ei	0		V	neg
luba	luba	0		S	sg n
    	luba	0		V	o
    	luba	0		S	sg p
,	,			Z	
et	et	0		J	
nemad	tema	d		P	pl n
vedad	veda	d		S	pl n
küll	küll	0		D	
    	küll	0		S	sg n
palke	palk	e		S	pl p
,	,			Z	
aga	aga	0		J	
ei	ei	0		D	
  	ei	0		V	neg
ehita	ehti	ta		V	ta
     	ehita	0		V	o
valmis	valm	s		S	sg in
      	valmi	s		V	s
      	valmis	0		A	
      	valmis	0		A	sg n
      	valmis	0		D	
      	valmis	s		A	sg in
,	,			Z	
ja	ja	0		J	
ütelnud	ütle	nud		V	nud
       	ütel=nu	d		S	pl n
       	ütel=nud	0		A	
       	ütel=nud	0		A	sg n
       	ütel=nud	d		A	pl n
kui	kui	0		D	
   	kui	0		J	
teie	sina	0		P	pl g
    	sina	0		P	pl n
valmis	valm	s		S	sg in
      	valmi	s		V	s
      	valmis	0		A	
      	valmis	0		A	sg n
      	valmis	0		D	
      	valmis	s		A	sg in
ehita	ehti	ta		V	ta
     	ehita	0		V	o
,	,			Z	
siis	siis	0		D	
    	siis	0		J	
aunas	aun	s		S	sg in
mina	mina	0		P	sg n
    	mina	0		S	sg g
    	mina	0		S	sg n
    	mina	0		S	sg p
,	,			Z	
ja	ja	0		J	
lähen	mine	n		V	n
näidama	näi	dama		V	tama
.	.			Z	
Johan	Johan	0		H	sg n
on	ole	0		V	b
  	ole	0		V	vad
3	3	0		N	?
nädalat	nädal	t		S	sg p
ootnud	####				
,	,			Z	
ja	ja	0		J	
metsasaks	metsa_saks	0		S	sg n
ei	ei	0		D	
  	ei	0		V	neg
ole	ole	0		V	o
naitama	####				
tulnud	tul=nud	0		A	
      	tul=nud	0		A	sg n
      	tul=nud	d		A	pl n
      	tule	nud		V	nud
      	tulnu	d		S	pl n
.	.			Z	
peale	pea	le		S	sg all
     	peale	0		D	
     	peale	0		K	
to	####				
on	ole	0		V	b
  	ole	0		V	vad
Niitsiku	niit_sikk	0		S	sg g
kõrtsi	kõrts	0		S	adt
      	kõrts	0		S	sg g
      	kõrts	0		S	sg p
man	man	0		D	
   	man	0		K	
metsasaksaga	metsa_saks	ga		S	sg kom
kokku	kokku	0		D	
     	kogu	0		S	adt
saanud	saa	nud		V	nud
      	saa=nud	0		A	
      	saa=nud	0		A	sg n
      	saa=nud	d		A	pl n
      	saanu	d		S	pl n
ja	ja	0		J	
metsasaks	metsa_saks	0		S	sg n
on	ole	0		V	b
  	ole	0		V	vad
tema	tema	0		P	sg g
    	tema	0		P	sg n
käest	käest	0		K	
     	käsi	st		S	sg el
küsinud	küsi	nud		V	nud
       	küsi=nu	d		S	pl n
       	küsi=nud	0		A	
       	küsi=nud	0		A	sg n
       	küsi=nud	d		A	pl n
?	?			Z	
kas	kas	0		D	
maja	maja	0		S	sg g
    	maja	0		S	sg n
    	maja	0		S	sg p
tegema	tege	ma		V	ma
ei	ei	0		D	
  	ei	0		V	neg
nakka	nakka	0		V	o
?	?			Z	
Johann	Johann	0		H	sg n
vastudanud	####				
,	,			Z	
nüüd	nüüd	0		D	
on	ole	0		V	b
  	ole	0		V	vad
lummi	lumm	i		S	pl p
ära	ära	0		D	
   	ära	0		V	neg o
läinud	läinu	d		S	pl n
      	läinud	0		A	
      	läinud	0		A	sg n
      	läinud	d		A	pl n
      	mine	nud		V	nud
ja	ja	0		J	
kus	kus	0		D	
nüüd	nüüd	0		D	
enam	enam	0		C	sg n
    	enam	0		D	
vedada	veda	da		V	da
.	.			Z	
see	see	0		P	sg n
peale	pea	le		S	sg all
     	peale	0		D	
     	peale	0		K	
on	ole	0		V	b
  	ole	0		V	vad
metsasaks	metsa_saks	0		S	sg n
ütelnud	ütle	nud		V	nud
       	ütel=nu	d		S	pl n
       	ütel=nud	0		A	
       	ütel=nud	0		A	sg n
       	ütel=nud	d		A	pl n
;	;			Z	
tulge	tule	ge		V	ge
ega	ega	0		D	
   	ega	0		J	
üks	üks	0		N	sg n
   	üks	0		P	sg n
ühe	üks	0		N	sg g
   	üks	0		P	sg g
   	ühe	0		S	sg n
hobusega	hobune	ga		S	sg kom
ja	ja	0		J	
teine	teine	0		O	sg n
     	teine	0		P	sg n
pange	pang	0		S	adt
     	pang	0		S	sg g
     	pane	ge		V	ge
     	pang	0		S	sg p
kõrva	kõrv	0		S	adt
     	kõrv	0		S	sg g
     	kõrv	0		S	sg p
venemaale	vene_maa	le		S	sg all
õlgi	õlg	i		S	pl p
tooma	too	ma		V	ma
,	,			Z	
siis	siis	0		D	
    	siis	0		J	
vedama	veda	ma		V	ma
.	.			Z	
Saks	saks	0		S	sg n
ei	ei	0		D	
  	ei	0		V	neg
ole	ole	0		V	o
näitama	näita	ma		V	ma
tulnud	tul=nud	0		A	
      	tul=nud	0		A	sg n
      	tul=nud	d		A	pl n
      	tule	nud		V	nud
      	tulnu	d		S	pl n
,	,			Z	
ja	ja	0		J	
nemad	tema	d		P	pl n
on	ole	0		V	b
  	ole	0		V	vad
üle	üle	0		D	
   	üle	0		K	
Pahaoja	paha_oja	0		S	sg g
       	paha_oja	0		S	sg n
       	paha_oja	0		S	sg p
vedama	veda	ma		V	ma
alustanud	alusta	nud		V	nud
         	alusta=nu	d		S	pl n
         	alusta=nud	0		A	
         	alusta=nud	0		A	sg n
         	alusta=nud	d		A	pl n
,	,			Z	
ja	ja	0		J	
palja	paljas	0		A	sg g
teega	tee	ga		S	sg kom
veel	veel	0		D	
    	vesi	l		S	sg ad
maja	maja	0		S	sg g
    	maja	0		S	sg n
    	maja	0		S	sg p
välja	välja	0		D	
     	välja	0		V	o
     	väli	0		S	adt
     	väli	0		S	sg g
     	väli	0		S	sg p
vedanud	veda	nud		V	nud
       	veda=nu	d		S	pl n
       	veda=nud	0		A	
       	veda=nud	0		A	sg n
       	veda=nud	d		A	pl n
,	,			Z	
ja	ja	0		J	
et	et	0		J	
meistri	meister	0		S	sg g
on	ole	0		V	b
  	ole	0		V	vad
man	man	0		D	
   	man	0		K	
olnud	ol=nud	0		A	
     	ol=nud	0		A	sg n
     	ol=nud	d		A	pl n
     	ole	nud		V	nud
     	olnu	d		S	pl n
ei	ei	0		D	
  	ei	0		V	neg
ole	ole	0		V	o
aga	aga	0		J	
neil	see	l		P	pl ad
    	tema	l		P	pl ad
pikkemalt	pikk_ema	lt		S	sg abl
vedada	veda	da		V	da
olnud	ol=nud	0		A	
     	ol=nud	0		A	sg n
     	ol=nud	d		A	pl n
     	ole	nud		V	nud
     	olnu	d		S	pl n
.	.			Z	
metsasaks	metsa_saks	0		S	sg n
J	J	0		Y	?
.	.			Z	
_	_			Z	
Roosnek	####				
ütles	ütle	s		V	s
,	,			Z	
tema	tema	0		P	sg g
    	tema	0		P	sg n
ei	ei	0		D	
  	ei	0		V	neg
ole	ole	0		V	o
mitte	mitte	0		D	
Johan	Johan	0		H	sg n
Seppale	####				
suurest	suur	st		A	sg el
metsast	mets	st		S	sg el
       	metsane	t		A	sg p
,	,			Z	
ent	ent	0		J	
on	ole	0		V	b
  	ole	0		V	vad
nende	see	de		P	pl g
     	tema	de		P	pl g
oma	oma	0		A	sg g
   	oma	0		D	
   	oma	0		P	sg g
   	oma	0		S	sg g
   	oma	0		V	o
   	oma	0		A	sg n
   	oma	0		A	sg p
   	oma	0		P	sg n
   	oma	0		P	sg p
   	oma	0		S	sg n
   	oma	0		S	sg p
krundi	krunt	0		S	sg g
      	krunti	0		V	o
pealt	pea	lt		S	sg abl
     	pealt	0		D	
     	pealt	0		K	
lubanud	luba	nud		V	nud
       	luba=nu	d		S	pl n
       	luba=nud	0		A	
       	luba=nud	0		A	sg n
       	luba=nud	d		A	pl n
,	,			Z	
ja	ja	0		J	
to	####				
kord	kord	0		D	
    	kord	0		S	sg n
,	,			Z	
kui	kui	0		D	
   	kui	0		J	
Johan	Johan	0		H	sg n
on	ole	0		V	b
  	ole	0		V	vad
tema	tema	0		P	sg g
    	tema	0		P	sg n
käest	käest	0		K	
     	käsi	st		S	sg el
küsinud	küsi	nud		V	nud
       	küsi=nu	d		S	pl n
       	küsi=nud	0		A	
       	küsi=nud	0		A	sg n
       	küsi=nud	d		A	pl n
on	ole	0		V	b
  	ole	0		V	vad
ju	ju	0		D	
Johanil	Johan	l		H	sg ad
üalgid	####				
veetud	vee=tu	d		S	pl n
      	vee=tud	0		A	
      	vee=tud	0		A	sg n
      	vee=tud	d		A	pl n
      	veetu	d		A	pl n
      	veda	tud		V	tud
olnud	ol=nud	0		A	
     	ol=nud	0		A	sg n
     	ol=nud	d		A	pl n
     	ole	nud		V	nud
     	olnu	d		S	pl n
,	,			Z	
ja	ja	0		J	
ütelnud	ütle	nud		V	nud
       	ütel=nu	d		S	pl n
       	ütel=nud	0		A	
       	ütel=nud	0		A	sg n
       	ütel=nud	d		A	pl n
veel	veel	0		D	
    	vesi	l		S	sg ad
puudus	puudu	s		V	s
      	puudus	0		S	sg n
olevat	ole	vat		V	vat
      	olev	t		A	sg p
      	olev	t		S	sg p
,	,			Z	
tema	tema	0		P	sg g
    	tema	0		P	sg n
ei	ei	0		D	
  	ei	0		V	neg
ole	ole	0		V	o
mitte	mitte	0		D	
enam	enam	0		C	sg n
    	enam	0		D	
lubanud	luba	nud		V	nud
       	luba=nu	d		S	pl n
       	luba=nud	0		A	
       	luba=nud	0		A	sg n
       	luba=nud	d		A	pl n
,	,			Z	
ja	ja	0		J	
ütelnud	ütle	nud		V	nud
       	ütel=nu	d		S	pl n
       	ütel=nud	0		A	
       	ütel=nud	0		A	sg n
       	ütel=nud	d		A	pl n
,	,			Z	
siis	siis	0		D	
    	siis	0		J	
jääb	jää	b		V	b
sinu	sina	0		P	sg g
tare	tare	0		S	sg g
    	tare	0		S	sg n
pooleli	pooleli	0		D	
,	,			Z	
ja	ja	0		J	
mina	mina	0		P	sg n
    	mina	0		S	sg g
    	mina	0		S	sg n
    	mina	0		S	sg p
enam	enam	0		C	sg n
    	enam	0		D	
ei	ei	0		D	
  	ei	0		V	neg
luba	luba	0		S	sg n
    	luba	0		V	o
    	luba	0		S	sg p
,	,			Z	
ja	ja	0		J	
Johan	Johan	0		H	sg n
olnis	####				
peale	pea	le		S	sg all
     	peale	0		D	
     	peale	0		K	
to	####				
oma	oma	0		A	sg g
   	oma	0		D	
   	oma	0		P	sg g
   	oma	0		S	sg g
   	oma	0		V	o
   	oma	0		A	sg n
   	oma	0		A	sg p
   	oma	0		P	sg n
   	oma	0		P	sg p
   	oma	0		S	sg n
   	oma	0		S	sg p
võimusega	võimus	ga		S	sg kom
vedanud	veda	nud		V	nud
       	veda=nu	d		S	pl n
       	veda=nud	0		A	
       	veda=nud	0		A	sg n
       	veda=nud	d		A	pl n
.	.			Z	
sel	see	l		P	sg ad
   	sel	0		Y	?
17	17	0		N	?
Julil	####				
1872.	1872.	0		O	?
mõist	####				
kohus	kohu	s		V	s
     	kohus	0		S	sg n
,	,			Z	
et	et	0		J	
kaebaja	kaebaja	0		S	sg g
       	kaebaja	0		S	sg n
J	J	0		Y	?
.	.			Z	
_	_			Z	
Roosnek	####				
ei	ei	0		D	
  	ei	0		V	neg
ole	ole	0		V	o
mitte	mitte	0		D	
5	5	0		N	?
kohtu	kohtu	0		V	o
     	kohus	0		S	sg g
päeva	päev	0		S	adt
     	päev	0		S	sg g
     	päev	0		S	sg p
kohtu	kohtu	0		V	o
     	kohus	0		S	sg g
kostmise	kostmine	0		S	sg g
peale	pea	le		S	sg all
     	peale	0		D	
     	peale	0		K	
tulnud	tul=nud	0		A	
      	tul=nud	0		A	sg n
      	tul=nud	d		A	pl n
      	tule	nud		V	nud
      	tulnu	d		S	pl n
ja	ja	0		J	
kaebatav	####				
Johan	Johan	0		H	sg n
Sepp	sepp	0		S	sg n
ilmaasjad	ilma_asi	d		S	pl n
käinud	käi	nud		V	nud
      	käi=nud	0		A	
      	käi=nud	0		A	sg n
      	käi=nud	d		A	pl n
      	käinu	d		S	pl n
,	,			Z	
T	T	0		Y	?
.	.			Z	
rahva	rahvas	0		S	sg g
seaduse	seadus	0		S	sg g
perra	####				
1860	1860	0		N	?
§	§	0		Y	?
825	825	0		N	?
üle	üle	0		D	
   	üle	0		K	
5	5	0		N	?
korra	kord	0		S	sg g
käimise	käimine	0		S	sg g
1	1	0		N	?
rbl	rbl	0		Y	?
,	,			Z	
25	25	0		N	?
kop	kop	0		Y	?
.	.			Z	
välja	välja	0		D	
     	välja	0		V	o
     	väli	0		S	adt
     	väli	0		S	sg g
     	väli	0		S	sg p
maksa	maks	0		S	adt
     	maks	0		S	sg g
     	maks	0		V	o
     	maks	0		S	sg p
,	,			Z	
ja	ja	0		J	
et	et	0		J	
aasta	aasta	0		S	sg g
     	aasta	0		S	sg n
pärast	pära	st		S	sg el
      	pärane	t		A	sg p
      	pärast	0		D	
      	pärast	0		K	
veel	veel	0		D	
    	vesi	l		S	sg ad
kaebama	kaeba	ma		V	ma
nakas	####				
,	,			Z	
kus	kus	0		D	
ka	ka	0		D	
ühtegi	ühte	0	gi	D	
      	üks	0	gi	N	adt
      	üks	0	gi	P	adt
      	ühe	0	gi	S	sg g
      	üks	0	gi	N	sg p
      	üks	0	gi	P	sg p
tunnistust	tunnistus	t		S	sg p
ei	ei	0		D	
  	ei	0		V	neg
ole	ole	0		V	o
,	,			Z	
et	et	0		J	
J	J	0		Y	?
.	.			Z	
_	_			Z	
Sepp	sepp	0		S	sg n
ilma	ilm	0		S	adt
    	ilm	0		S	sg g
    	ilma	0		D	
    	ilma	0		K	
    	ilm	0		S	sg p
lubada	luba	da		V	da
oli	ole	i		V	s
raiunud	raiu	nud		V	nud
       	raiu=nu	d		S	pl n
       	raiu=nud	0		A	
       	raiu=nud	0		A	sg n
       	raiu=nud	d		A	pl n
ja	ja	0		J	
ka	ka	0		D	
metsasaks	metsa_saks	0		S	sg n
ise	ise	0		A	
   	ise	0		D	
   	ise	0		P	pl n
   	ise	0		P	sg n
ütles	ütle	s		V	s
Johani	Johan	0		H	sg g
krundi	krunt	0		S	sg g
      	krunti	0		V	o
pealt	pea	lt		S	sg abl
     	pealt	0		D	
     	pealt	0		K	
lubanud	luba	nud		V	nud
       	luba=nu	d		S	pl n
       	luba=nud	0		A	
       	luba=nud	0		A	sg n
       	luba=nud	d		A	pl n
on	ole	0		V	b
  	ole	0		V	vad
.	.			Z	
peakohtumees	pea_kohtu_mees	0		S	sg n
:	:			Z	
Kristjan	Kristjan	0		H	sg n
Rämman	####				
abi	abi	0		S	sg g
   	abi	0		S	sg n
   	abi	0		S	sg p
:	:			Z	
Kusta	Kusta	0		H	sg g
     	Kusta	0		H	sg n
     	kuse	ta		V	da
     	kuse	ta		V	ta
Hanson	####				
abi	abi	0		S	sg g
   	abi	0		S	sg n
   	abi	0		S	sg p
:	:			Z	
Frits	frits	0		S	sg n
Runhanson	####				
