teine	teine	0		O	sg n
     	teine	0		P	sg n
kohus	kohu	s		V	s
     	kohus	0		S	sg n
selsamal	see_sama	l		P	sg ad
päeval	päev	l		S	sg ad
man	man	0		D	
   	man	0		K	
oleja	ole=ja	0		S	sg g
     	ole=ja	0		S	sg n
nisama	####				
.	.			Z	
Kriutudsest	####				
Peeter	Peeter	0		H	sg n
Kõrge	kõrge	0		A	sg g
     	kõrge	0		A	sg n
naine	naine	0		S	sg n
Liili	####				
tuli	tuli	0		S	sg n
    	tule	i		V	s
ette	ette	0		D	
    	ette	0		K	
    	esi	tte		S	adt
ja	ja	0		J	
kaebas	kaeba	s		V	s
Rudolf	Rudolf	0		H	sg n
Grünbergi	####				
peale	pea	le		S	sg all
     	peale	0		D	
     	peale	0		K	
,	,			Z	
et	et	0		J	
see	see	0		P	sg n
ei	ei	0		D	
  	ei	0		V	neg
maksvat	maks	vat		V	vat
       	maksev	t		A	sg p
tale	####				
tem	####				
(	(			Z	
m	m	0		Y	?
)	)			Z	
a	a	0		Y	?
laste	laps	te		S	pl g
     	last	e		S	pl p
teenitud	teeni	tud		V	tud
        	teeni=tu	d		S	pl n
        	teenitud	0		A	
        	teenitud	0		A	sg n
        	teenitud	d		A	pl n
palka	palk	0		S	adt
     	palka	0		V	o
     	palk	0		S	sg p
80	80	0		N	?
kopikat	kopikas	t		S	sg p
ära	ära	0		D	
   	ära	0		V	neg o
.	.			Z	
Rudolf	Rudolf	0		H	sg n
Grünberg	####				
ütles	ütle	s		V	s
:	:			Z	
see	see	0		P	sg n
tem	####				
(	(			Z	
m	m	0		Y	?
)	)			Z	
a	a	0		Y	?
poeg	poeg	0		S	sg n
on	ole	0		V	b
  	ole	0		V	vad
väga	väga	0		D	
kelm	kelm	0		A	sg n
    	kelm	0		S	sg n
pois	poi	s		S	sg in
,	,			Z	
ja	ja	0		J	
on	ole	0		V	b
  	ole	0		V	vad
mulle	mull	e		S	pl p
     	mina	lle		P	sg all
     	mulle	0		S	sg n
kurja	kuri	0		A	adt
     	kuri	0		A	sg g
     	kuri	0		S	adt
     	kuri	0		S	sg g
     	kuri	0		A	sg p
     	kuri	0		S	sg p
teinud	tege	nud		V	nud
      	tei=nud	0		A	
      	tei=nud	0		A	sg n
      	tei=nud	d		A	pl n
      	teinu	d		S	pl n
;	;			Z	
vihmavarju	vihma_vari	0		S	adt
          	vihma_vari	0		S	sg g
          	vihma_vari	0		S	sg p
ära	ära	0		D	
   	ära	0		V	neg o
lahkunud	lahku	nud		V	nud
        	lahkunu	d		S	pl n
        	lahkunud	0		A	
        	lahkunud	0		A	sg n
        	lahkunud	d		A	pl n
,	,			Z	
ühe	üks	0		N	sg g
   	üks	0		P	sg g
   	ühe	0		S	sg n
kalla	kalla	0		V	o
     	kalla	0		S	sg g
     	kalla	0		S	sg n
talve	talv	0		S	adt
     	talv	0		S	sg g
     	tali	0		S	adt
     	tali	0		S	sg g
     	talv	0		S	sg p
     	tali	0		S	sg p
mütsi	müts	0		S	adt
     	müts	0		S	sg g
     	müts	0		S	sg p
äravarastanud	ära_varasta=nu	d		S	pl n
             	ära_varasta=nud	0		A	
             	ära_varasta=nud	0		A	sg n
             	ära_varasta=nud	d		A	pl n
ning	ning	0		J	
lag	####				
pulga	pulk	0		S	sg g
välja	välja	0		D	
     	välja	0		V	o
     	väli	0		S	adt
     	väli	0		S	sg g
     	väli	0		S	sg p
kisku	kisk	0		S	adt
     	kisk	0		S	sg p
,	,			Z	
selle	see	0		P	sg g
     	sell	e		S	pl p
ei	ei	0		D	
  	ei	0		V	neg
või	või	0		S	sg g
   	või	0		V	o
   	või	0		D	
   	või	0		J	
   	või	0		S	sg n
ma	mina	0		P	sg n
seda	see	da		P	sg p
80	80	0		N	?
kopikat	kopikas	t		S	sg p
maksa	maks	0		S	adt
     	maks	0		S	sg g
     	maks	0		V	o
     	maks	0		S	sg p
.	.			Z	
kohus	kohu	s		V	s
     	kohus	0		S	sg n
mõist	####				
:	:			Z	
et	et	0		J	
Rudolfi	Rudolf	0		H	sg g
kahju	kahi	0		S	adt
     	kahi	0		S	sg g
     	kahi	0		S	sg p
     	kahju	0		S	sg g
     	kahju	0		S	sg n
     	kahju	0		S	sg p
on	ole	0		V	b
  	ole	0		V	vad
saanud	saa	nud		V	nud
      	saa=nud	0		A	
      	saa=nud	0		A	sg n
      	saa=nud	d		A	pl n
      	saanu	d		S	pl n
sele	####				
poisi	poiss	0		S	sg g
läbi	läbi	0		D	
    	läbi	0		K	
    	läbi	0		V	o
ja	ja	0		J	
ühtegi	ühte	0	gi	D	
      	üks	0	gi	N	adt
      	üks	0	gi	P	adt
      	ühe	0	gi	S	sg g
      	üks	0	gi	N	sg p
      	üks	0	gi	P	sg p
tunnistust	tunnistus	t		S	sg p
sele	####				
üle	üle	0		D	
   	üle	0		K	
ei	ei	0		D	
  	ei	0		V	neg
ole	ole	0		V	o
;	;			Z	
siis	siis	0		D	
    	siis	0		J	
maksab	maks	b		V	b
Rudolf	Rudolf	0		H	sg n
Liis	Liis	0		H	sg n
    	Lii	s		H	sg in
Kõrgele	kõrge	le		A	sg all
       	kõrgele	0		D	
ennegi	ennegi	0		D	
40	40	0		N	?
kop	kop	0		Y	?
.	.			Z	
8	8	0		N	?
päeva	päev	0		S	adt
     	päev	0		S	sg g
     	päev	0		S	sg p
pärast	pära	st		S	sg el
      	pärane	t		A	sg p
      	pärast	0		D	
      	pärast	0		K	
kohtu	kohtu	0		V	o
     	kohus	0		S	sg g
lava	lava	0		S	sg g
    	lava	0		S	sg n
    	lava	0		S	sg p
peale	pea	le		S	sg all
     	peale	0		D	
     	peale	0		K	
äära	####				
.	.			Z	
_	_			Z	
selle	see	0		P	sg g
     	sell	e		S	pl p
mõistmisega	mõistmine	ga		S	sg kom
olid	ole	id		V	sid
mõlema	mõlema	0		P	sg g
rahule	rahu	le		S	sg all
      	rahule	0		D	
.	.			Z	
_	_			Z	
pea	pea	0		D	
   	pea	0		S	sg g
   	pida	0		V	o
   	pea	0		S	sg n
kohtumees	kohtu_mees	0		S	sg n
Jaan	Jaan	0		H	sg n
    	jaan	0		S	sg n
    	jaan	0		Y	?
tulnud	tul=nud	0		A	
      	tul=nud	0		A	sg n
      	tul=nud	d		A	pl n
      	tule	nud		V	nud
      	tulnu	d		S	pl n
XXX	XXX	0		O	?
   	XXX	0		Y	?
kohtu	kohtu	0		V	o
     	kohus	0		S	sg g
mees	mees	0		S	sg n
    	mesi	s		S	sg in
Jaan	Jaan	0		H	sg n
    	jaan	0		S	sg n
    	jaan	0		Y	?
Värs	####				
XXX	XXX	0		O	?
   	XXX	0		Y	?
do	####				
Peeter	Peeter	0		H	sg n
Mandli	mandel	0		S	sg g
XXX	XXX	0		O	?
   	XXX	0		Y	?
