tosikas	####				
karits	####				
Madis	Madis	0		H	sg n
     	madis	0		S	sg n
ole	ole	0		V	o
rama	####				
rahe	rahe	0		S	sg g
    	rahe	0		S	sg n
Peetri	Peeter	0		H	sg g
      	Peetri	0		H	sg g
      	Peetri	0		H	sg n
hobuse	hobune	0		S	sg g
lomise	####				
pärast	pära	st		S	sg el
      	pärane	t		A	sg p
      	pärast	0		D	
      	pärast	0		K	
ette	ette	0		D	
    	ette	0		K	
    	esi	tte		S	adt
kutsutud	kutsu	tud		V	tud
        	kutsutu	d		S	pl n
        	kutsutud	0		A	
        	kutsutud	0		A	sg n
        	kutsutud	d		A	pl n
ja	ja	0		J	
tema	tema	0		P	sg g
    	tema	0		P	sg n
tunnistab	tunnista	b		V	b
et	et	0		J	
2	2	0		N	?
hobust	hobu	st		S	sg el
      	hobune	t		S	sg p
on	ole	0		V	b
  	ole	0		V	vad
Veriora	Veri_ora	0		H	sg g
       	Veri_ora	0		H	sg n
kõrtsi	kõrts	0		S	adt
      	kõrts	0		S	sg g
      	kõrts	0		S	sg p
man	man	0		D	
   	man	0		K	
valla	vald	0		S	sg g
     	valla	0		D	
olnud	ol=nud	0		A	
     	ol=nud	0		A	sg n
     	ol=nud	d		A	pl n
     	ole	nud		V	nud
     	olnu	d		S	pl n
üks	üks	0		N	sg n
   	üks	0		P	sg n
Tannud	####				
Lest	lest	0		S	sg n
ja	ja	0		J	
Vilt	vilt	0		S	sg n
Jaani	Jaan	0		H	adt
     	Jaan	0		H	sg g
     	Jaani	0		H	sg g
     	jaan	0		S	adt
     	jaan	0		S	sg g
     	Jaan	0		H	sg p
     	Jaani	0		H	sg n
     	jaan	0		S	sg p
hobune	hobune	0		S	sg n
.	.			Z	
allkiri	all_kiri	0		S	sg n
loetaamatu	####				
