proklamtš	####				
.	.			Z	
ürv	####				
Rein	Rein	0		H	sg n
Reile	####				
mit	####				
Triina	####				
Põder	põder	0		S	sg n
ma	mina	0		P	sg n
3t	3t	0		Y	?
Septbr	####				
.	.			Z	
c	c	0		Y	?
.	.			Z	
