1898.	1898.	0		O	?
a.	a	0		Y	?
29.	29.	0		O	?
aprillil	aprill	l		S	sg ad
ilmusid	ilmu	sid		V	sid
ette	ette	0		D	
    	ette	0		K	
    	esi	tte		S	adt
Krootuse	####				
vallast	vald	st		S	sg el
Kokkeri	####				
talust	talu	st		S	sg el
Mihkel	Mihkel	0		H	sg n
      	mihkel	0		A	sg n
      	mihkel	0		S	sg n
Jakobi	Jakob	0		H	sg g
p	p	0		Y	?
.	.			Z	
Uebu	####				
ja	ja	0		J	
Valgemõisast	valge_mõis	st		S	sg el
alaealise	ala_ealine	0		A	sg g
Elisabeth	Elisabeth	0		H	sg n
Kubja	####				
isa	isa	0		S	sg g
   	isa	0		S	sg n
   	isa	0		S	sg p
Jaan	Jaan	0		H	sg n
    	jaan	0		S	sg n
    	jaan	0		Y	?
Maie	Maie	0		H	sg g
    	Maie	0		H	sg n
poeg	poeg	0		S	sg n
Kubjaga	####				
andsid	and	sid		V	sid
üles	üles	0		D	
,	,			Z	
et	et	0		J	
soovivad	soovi	vad		V	vad
        	sooviv	d		A	pl n
järgmise	järgmine	0		A	sg g
siisuga	####				
heaste	####				
läbi	läbi	0		D	
    	läbi	0		K	
    	läbi	0		V	o
mõeldud	mõel=du	d		S	pl n
       	mõel=dud	0		A	
       	mõel=dud	0		A	sg n
       	mõel=dud	d		A	pl n
       	mõtle	dud		V	tud
ja	ja	0		J	
kokkukõneltud	####				
lepingut	leping	t		S	sg p
teha	tege	a		V	da
mida	mis	da		P	pl p
    	mis	da		P	sg p
kinnitada	kinnita	da		V	da
palusid	palu	sid		S	pl p
       	palu	sid		V	sid
.	.			Z	
Mihkel	Mihkel	0		H	sg n
      	mihkel	0		A	sg n
      	mihkel	0		S	sg n
Uebu	####				
lasep	####				
Elisabeth	Elisabeth	0		H	sg n
Kubjal	####				
juusa	####				
Hendriku	Hendrik	0		H	sg g
talu	talu	0		S	sg g
    	talu	0		V	o
    	talu	0		S	sg n
    	talu	0		S	sg p
maa	maa	0		S	sg g
   	maa	0		S	sg n
peale	pea	le		S	sg all
     	peale	0		D	
     	peale	0		K	
tare	tare	0		S	sg g
    	tare	0		S	sg n
teha	tege	a		V	da
missuguse	mis_sugune	0		P	sg g
tare	tare	0		S	sg g
    	tare	0		S	sg n
tarvis	tarvis	0		D	
      	tarvis	0		K	
poole	pool	0		N	sg g
     	pool	0		S	sg g
     	pool	e		S	pl p
     	poole	0		K	
     	poole	0		S	sg n
vakamaa	vaka_maa	0		S	sg g
       	vaka_maa	0		S	sg n
maad	maa	d		S	pl n
    	maa	d		S	sg p
saab	saa	b		V	b
mis	mis	0		P	pl n
   	mis	0		P	sg n
õkva	õkva	0		D	
selle	see	0		P	sg g
     	sell	e		S	pl p
tee	tee	0		S	sg g
   	tege	0		V	o
   	tee	0		S	sg n
äres	####				
,	,			Z	
mis	mis	0		P	pl n
   	mis	0		P	sg n
Hilba	####				
suure	suur	0		A	sg g
tee	tee	0		S	sg g
   	tege	0		V	o
   	tee	0		S	sg n
pealt	pea	lt		S	sg abl
     	pealt	0		D	
     	pealt	0		K	
tuleb	tule	b		V	b
ja	ja	0		J	
Tähttorni	täht_torn	0		S	adt
         	täht_torn	0		S	sg g
         	täht_torn	0		S	sg p
poole	pool	0		N	sg g
     	pool	0		S	sg g
     	pool	e		S	pl p
     	poole	0		K	
     	poole	0		S	sg n
lähab	####				
.	.			Z	
see	see	0		P	sg n
maa	maa	0		S	sg g
   	maa	0		S	sg n
täna	täna	0		D	
    	täna	0		V	o
on	ole	0		V	b
  	ole	0		V	vad
Mihkel	Mihkel	0		H	sg n
      	mihkel	0		A	sg n
      	mihkel	0		S	sg n
Võso	####				
talu	talu	0		S	sg g
    	talu	0		V	o
    	talu	0		S	sg n
    	talu	0		S	sg p
piiris	piir	s		S	sg in
kinni	kinni	0		D	
.	.			Z	
Elisabeth	Elisabeth	0		H	sg n
Kubja	####				
maksab	maks	b		V	b
iga	iga	0		P	sg g
   	iga	0		P	sg n
   	iga	0		P	sg p
   	iga	0		S	sg n
   	iga	0		S	sg p
aasta	aasta	0		S	sg g
     	aasta	0		S	sg n
selle	see	0		P	sg g
     	sell	e		S	pl p
maatükki	maa_tükk	0		S	adt
        	maa_tükk	0		S	sg p
eest	eest	0		D	
    	eest	0		K	
    	esi	st		S	sg el
esimesel	esimene	l		O	sg ad
        	esimene	l		P	sg ad
neljal	neli	l		N	sg ad
aastatele	aasta	tele		S	pl all
neli	neli	0		N	sg n
rubla	rubla	0		S	sg g
     	rubla	0		S	sg n
     	rubla	0		S	sg p
ja	ja	0		J	
igel	####				
järgmisel	järgmine	l		A	sg ad
aastal	aasta	l		S	sg ad
viis	vii	s		V	s
    	viis	0		N	sg n
    	viis	0		S	sg n
rbl	rbl	0		Y	?
Mihkel	Mihkel	0		H	sg n
      	mihkel	0		A	sg n
      	mihkel	0		S	sg n
Uibole	Uibo	le		H	sg all
renti	rent	0		S	adt
     	rent	0		S	sg p
.	.			Z	
see	see	0		P	sg n
maa	maa	0		S	sg g
   	maa	0		S	sg n
seisab	seis	b		V	b
lisabeth	####				
Kubja	####				
käes	käes	0		K	
    	käsi	s		S	sg in
kolmkümmend	kolm_kümmend	0		N	sg n
järestiku	####				
aastat	aasta	t		S	sg p
.	.			Z	
Peale	pea	le		S	sg all
     	peale	0		D	
     	peale	0		K	
selle	see	0		P	sg g
     	sell	e		S	pl p
aja	aeg	0		S	sg g
   	aja	0		V	o
mööda	mööda	0		A	
     	mööda	0		D	
     	mööda	0		K	
mineku	minek	0		S	sg g
peab	pida	b		V	b
Elisabeth	Elisabeth	0		H	sg n
Kubja	####				
oma	oma	0		A	sg g
   	oma	0		D	
   	oma	0		P	sg g
   	oma	0		S	sg g
   	oma	0		V	o
   	oma	0		A	sg n
   	oma	0		A	sg p
   	oma	0		P	sg n
   	oma	0		P	sg p
   	oma	0		S	sg n
   	oma	0		S	sg p
lutare	####				
nimetatud	nimeta	tud		V	tud
         	nimetatu	d		S	pl n
         	nimetatud	0		A	
         	nimetatud	0		A	sg n
         	nimetatud	d		A	pl n
maa	maa	0		S	sg g
   	maa	0		S	sg n
pealt	pea	lt		S	sg abl
     	pealt	0		D	
     	pealt	0		K	
äära	####				
vetama	####				
ja	ja	0		J	
maa	maa	0		S	sg g
   	maa	0		S	sg n
Uebule	####				
kätte	kätte	0		K	
     	käsi	tte		S	adt
andma	and	ma		V	ma
.	.			Z	
Rendi	rent	0		S	sg g
     	renti	0		V	o
peab	pida	b		V	b
Elisabeth	Elisabeth	0		H	sg n
Kubja	####				
iga	iga	0		P	sg g
   	iga	0		P	sg n
   	iga	0		P	sg p
   	iga	0		S	sg n
   	iga	0		S	sg p
aasta	aasta	0		S	sg g
     	aasta	0		S	sg n
25	25	0		N	?
märtsil	märts	l		S	sg ad
maksma	maks	ma		V	ma
.	.			Z	
Mihkel	Mihkel	0		H	sg n
      	mihkel	0		A	sg n
      	mihkel	0		S	sg n
Uibo	Uibo	0		H	sg g
    	Uibo	0		H	sg n
[	[			Z	
allkiri	all_kiri	0		S	sg n
]	]			Z	
Jaan	Jaan	0		H	sg n
    	jaan	0		S	sg n
    	jaan	0		Y	?
Kubja	####				
[	[			Z	
allkiri	all_kiri	0		S	sg n
]	]			Z	
üks	üks	0		N	sg n
   	üks	0		P	sg n
attus	####				
kaheksasada	kaheksa_sada	0		N	sg n
üheksakümnekaheksamal	####				
aastal	aasta	l		S	sg ad
aprillikuu	aprilli_kuu	0		S	sg g
          	aprilli_kuu	0		S	sg n
kahekümne	kaks_kümmend	0		N	sg g
üheksamal	####				
päeval	päev	l		S	sg ad
on	ole	0		V	b
  	ole	0		V	vad
Krootuse	####				
vallakohus	valla_kohus	0		S	sg n
Kiuma	####				
vallamajas	valla_maja	s		S	sg in
eesseisvat	ees_seisev	t		A	sg p
suusõnalist	suu_sõnaline	t		A	sg p
lepingut	leping	t		S	sg p
,	,			Z	
mis	mis	0		P	pl n
   	mis	0		P	sg n
Krootuse	####				
vallast	vald	st		S	sg el
Kokkeri	####				
talust	talu	st		S	sg el
talupoja	talu_poeg	0		S	sg g
Mihkel	Mihkel	0		H	sg n
      	mihkel	0		A	sg n
      	mihkel	0		S	sg n
Jakobi	Jakob	0		H	sg g
poeg	poeg	0		S	sg n
Uebu	####				
ja	ja	0		J	
Valgemõisast	valge_mõis	st		S	sg el
,	,			Z	
sealsamas	seal_samas	0		D	
valla	vald	0		S	sg g
     	valla	0		D	
Jaan	Jaan	0		H	sg n
    	jaan	0		S	sg n
    	jaan	0		Y	?
Maie	Maie	0		H	sg g
    	Maie	0		H	sg n
poeg	poeg	0		S	sg n
Kubja	####				
vahel	vahe	l		S	sg ad
     	vahel	0		D	
     	vahel	0		K	
tehtus	tehtu	s		S	sg in
      	tehtud	s		A	sg in
      	tehtus	0		S	sg n
_	_			Z	
kinnitanud	kinnita	nud		V	nud
          	kinnita=nu	d		S	pl n
          	kinnita=nud	0		A	
          	kinnita=nud	0		A	sg n
          	kinnita=nud	d		A	pl n
,	,			Z	
mis	mis	0		P	pl n
   	mis	0		P	sg n
juures	juur	s		S	sg in
      	juures	0		D	
      	juures	0		K	
vallakohus	valla_kohus	0		S	sg n
tunnistab	tunnista	b		V	b
,	,			Z	
et	et	0		J	
lepingu	leping	0		S	sg g
osalised	osaline	d		A	pl n
kohtule	kohus	le		S	sg all
pealelikult	####				
tutavad	####				
,	,			Z	
niisama	nii_sama	0		D	
Jaan	Jaan	0		H	sg n
    	jaan	0		S	sg n
    	jaan	0		Y	?
Kubja	####				
,	,			Z	
kes	kes	0		P	pl n
   	kes	0		P	sg n
oma	oma	0		A	sg g
   	oma	0		D	
   	oma	0		P	sg g
   	oma	0		S	sg g
   	oma	0		V	o
   	oma	0		A	sg n
   	oma	0		A	sg p
   	oma	0		P	sg n
   	oma	0		P	sg p
   	oma	0		S	sg n
   	oma	0		S	sg p
mittetäisealise	mitte_täis_ea=line	0		A	sg g
tütre	tütar	0		S	sg g
Elisabeth	Elisabeth	0		H	sg n
Kubja	####				
eest	eest	0		D	
    	eest	0		K	
    	esi	st		S	sg el
seisis	seis	is		V	s
,	,			Z	
et	et	0		J	
neil	see	l		P	pl ad
    	tema	l		P	pl ad
s.o.	s.o	0		Y	?
Mihkel	Mihkel	0		H	sg n
      	mihkel	0		A	sg n
      	mihkel	0		S	sg n
Uibul	####				
ja	ja	0		J	
Jaan	Jaan	0		H	sg n
    	jaan	0		S	sg n
    	jaan	0		Y	?
Kubjal	####				
,	,			Z	
viimasel	viimane	l		A	sg ad
ka	ka	0		D	
oma	oma	0		A	sg g
   	oma	0		D	
   	oma	0		P	sg g
   	oma	0		S	sg g
   	oma	0		V	o
   	oma	0		A	sg n
   	oma	0		A	sg p
   	oma	0		P	sg n
   	oma	0		P	sg p
   	oma	0		S	sg n
   	oma	0		S	sg p
tütre	tütar	0		S	sg g
Elisabeth	Elisabeth	0		H	sg n
nimel	nimel	0		K	
     	nimi	l		S	sg ad
,	,			Z	
seaduslik	seaduslik	0		A	sg n
õigus	õigus	0		S	sg n
ahisi	####				
teha	tege	a		V	da
ja	ja	0		J	
et	et	0		J	
peale	pea	le		S	sg all
     	peale	0		D	
     	peale	0		K	
selle	see	0		P	sg g
     	sell	e		S	pl p
lepingu	leping	0		S	sg g
ettelug_emise	####				
Mihkel	Mihkel	0		H	sg n
      	mihkel	0		A	sg n
      	mihkel	0		S	sg n
Uebu	####				
ja	ja	0		J	
Jaan	Jaan	0		H	sg n
    	jaan	0		S	sg n
    	jaan	0		Y	?
Kubja	####				
lepingule	leping	le		S	sg all
,	,			Z	
temaga	tema	ga		P	sg kom
täiesti	täiesti	0		D	
rahul	rahu	l		S	sg ad
     	rahul	0		D	
oli	ole	i		V	s
,	,			Z	
tõesti	tõesti	0		D	
oma	oma	0		A	sg g
   	oma	0		D	
   	oma	0		P	sg g
   	oma	0		S	sg g
   	oma	0		V	o
   	oma	0		A	sg n
   	oma	0		A	sg p
   	oma	0		P	sg n
   	oma	0		P	sg p
   	oma	0		S	sg n
   	oma	0		S	sg p
käega	käsi	ga		S	sg kom
alla	alla	0		D	
    	alla	0		K	
kirjutanud	kirjuta	nud		V	nud
          	kirjutanu	d		S	pl n
          	kirjutanud	0		A	
          	kirjutanud	0		A	sg n
          	kirjutanud	d		A	pl n
on	ole	0		V	b
  	ole	0		V	vad
.	.			Z	
Peale	pea	le		S	sg all
     	peale	0		D	
     	peale	0		K	
kirjutus	kirjutus	0		S	sg n
""""	""""			Z	
mittetäisealine	mitte_täis_ea=line	0		A	sg n
""""	""""			Z	
õigeks	õige	ks		A	sg tr
lugeda	luge	da		V	da
niisama	nii_sama	0		D	
sõna	sõna	0		S	sg g
    	sõna	0		V	o
    	sõna	0		S	sg n
    	sõna	0		S	sg p
""""	""""			Z	
ka	ka	0		D	
""""	""""			Z	
.	.			Z	
kohtueesistuja	kohtu_ees_istuja	0		S	sg g
              	kohtu_ees_istuja	0		S	sg n
S	S	0		Y	?
Raig	raig	0		S	sg n
[	[			Z	
allkiri	all_kiri	0		S	sg n
]	]			Z	
kirjut	kirju	t		A	sg p
.	.			Z	
kuduk	####				
[	[			Z	
allkiri	all_kiri	0		S	sg n
]	]			Z	
