Kahkva	####				
Peremees	pere_mees	0		S	sg n
karits	####				
Peedo	####				
kaebab	kaeba	b		V	b
,	,			Z	
et	et	0		J	
tema	tema	0		P	sg g
    	tema	0		P	sg n
on	ole	0		V	b
  	ole	0		V	vad
Schtsimalle	####				
oma	oma	0		A	sg g
   	oma	0		D	
   	oma	0		P	sg g
   	oma	0		S	sg g
   	oma	0		V	o
   	oma	0		A	sg n
   	oma	0		A	sg p
   	oma	0		P	sg n
   	oma	0		P	sg p
   	oma	0		S	sg n
   	oma	0		S	sg p
lina	lina	0		S	sg g
    	lina	0		S	sg n
    	lina	0		S	sg p
masin	masin	0		S	sg n
linu	lina	u		S	pl p
kolge	kolge	0		S	sg g
     	kolge	0		S	sg n
andnud	and	nud		V	nud
      	and=nu	d		S	pl n
      	and=nud	0		A	
      	and=nud	0		A	sg n
      	and=nud	d		A	pl n
ja	ja	0		J	
talle	tall	e		S	pl p
     	tall	0		S	adt
     	tall	0		S	sg g
     	tema	lle		P	sg all
     	tall	0		S	sg p
ühe	üks	0		N	sg g
   	üks	0		P	sg g
   	ühe	0		S	sg n
meki	mekk	0		S	sg g
    	mekki	0		V	o
sul	sina	l		P	sg ad
saia	sai	0		S	adt
    	sai	0		S	sg g
    	sai	0		S	sg p
on	ole	0		V	b
  	ole	0		V	vad
Schsmalt	####				
vastut	####				
tema	tema	0		P	sg g
    	tema	0		P	sg n
on	ole	0		V	b
  	ole	0		V	vad
kül	####				
masina	masin	0		S	sg g
vatnud	####				
ja	ja	0		J	
kiek	####				
ka	ka	0		D	
maksnud	maks	nud		V	nud
       	maks=nu	d		S	pl n
       	maks=nud	0		A	
       	maks=nud	0		A	sg n
       	maks=nud	d		A	pl n
mis	mis	0		P	pl n
   	mis	0		P	sg n
kõneldud	kõnel=dud	0		A	
        	kõnel=dud	0		A	sg n
        	kõnel=dud	d		A	pl n
        	kõneldu	d		S	pl n
        	kõnele	dud		V	tud
ole	ole	0		V	o
.	.			Z	
mõistetud	mõist	tud		V	tud
         	mõiste=tu	d		S	pl n
         	mõiste=tud	0		A	
         	mõiste=tud	0		A	sg n
         	mõiste=tud	d		A	pl n
:	:			Z	
tunnistus	tunnistus	0		S	sg n
selle	see	0		P	sg g
     	sell	e		S	pl p
asja	asi	0		S	adt
    	asi	0		S	sg g
    	asi	0		S	sg p
man	man	0		D	
   	man	0		K	
ei	ei	0		D	
  	ei	0		V	neg
ole	ole	0		V	o
sus	sina	s		P	sg in
peavad	pida	vad		V	vad
rahu	rahu	0		S	sg g
    	rahu	0		S	sg n
    	rahu	0		S	sg p
kehma	####				
.	.			Z	
