kogukonna	kogukond	0		S	sg g
kohtu	kohtu	0		V	o
     	kohus	0		S	sg g
poolt	pool	t		N	sg p
     	pool	t		S	sg p
     	poolt	0		D	
     	poolt	0		K	
on	ole	0		V	b
  	ole	0		V	vad
Keriko	####				
Velmendre	####				
palk	palk	0		S	sg n
päeva	päev	0		S	adt
     	päev	0		S	sg g
     	päev	0		S	sg p
asemalle	ase_mall	e		S	pl p
6	6	0		N	?
rubla	rubla	0		S	sg g
     	rubla	0		S	sg n
     	rubla	0		S	sg p
astas	####				
lubatu	lubatu	0		A	sg g
      	lubatud	0		A	sg g
      	lubatu	0		A	sg n
.	.			Z	
