N 48	N48	0		Y	?
Vaimel	####				
kogukonna	kogukond	0		S	sg g
kohtus	kohtu	s		V	s
      	kohus	s		S	sg in
sel	see	l		P	sg ad
   	sel	0		Y	?
2	2	0		N	?
Augustil	august	l		S	sg ad
        	August	l		H	sg ad
1874	1874	0		N	?
peakohtumees	pea_kohtu_mees	0		S	sg n
P	P	0		Y	?
.	.			Z	
_	_			Z	
Pihl	pihl	0		S	sg n
abi	abi	0		S	sg g
   	abi	0		S	sg n
   	abi	0		S	sg p
M	M	0		O	?
 	M	0		Y	?
.	.			Z	
_	_			Z	
Traks	traks	0		A	sg n
     	traks	0		S	sg n
dito	####				
J	J	0		Y	?
.	.			Z	
_	_			Z	
Väiso	####				
vallavanem	valla_vanem	0		S	sg n
A	A	0		Y	?
sul	sina	l		P	sg ad
on	ole	0		V	b
  	ole	0		V	vad
andnud	and	nud		V	nud
      	and=nu	d		S	pl n
      	and=nud	0		A	
      	and=nud	0		A	sg n
      	and=nud	d		A	pl n
kogukonna	kogukond	0		S	sg g
kohtu	kohtu	0		V	o
     	kohus	0		S	sg g
ees	ees	0		D	
   	ees	0		K	
   	esi	s		S	sg in
üles	üles	0		D	
,	,			Z	
et	et	0		J	
tema	tema	0		P	sg g
    	tema	0		P	sg n
on	ole	0		V	b
  	ole	0		V	vad
läinud	läinu	d		S	pl n
      	läinud	0		A	
      	läinud	0		A	sg n
      	läinud	d		A	pl n
      	mine	nud		V	nud
kolimaja	koli_maja	0		S	sg g
        	koli_maja	0		S	sg n
        	koli_maja	0		S	sg p
meestrit	####				
sundimaa	####				
milles	mis	s		P	pl in
      	mis	s		P	sg in
tema	tema	0		P	sg g
    	tema	0		P	sg n
maja	maja	0		S	sg g
    	maja	0		S	sg n
    	maja	0		S	sg p
valmis	valm	s		S	sg in
      	valmi	s		V	s
      	valmis	0		A	
      	valmis	0		A	sg n
      	valmis	0		D	
      	valmis	s		A	sg in
ei	ei	0		D	
  	ei	0		V	neg
tee	tee	0		S	sg g
   	tege	0		V	o
   	tee	0		S	sg n
siis	siis	0		D	
    	siis	0		J	
on	ole	0		V	b
  	ole	0		V	vad
tema	tema	0		P	sg g
    	tema	0		P	sg n
seepeale	see_peale	0		D	
vallavanemat	valla_vanem	t		S	sg p
vastu	vastu	0		D	
     	vastu	0		K	
kostnud	kost	nud		V	nud
       	kost=nu	d		S	pl n
       	kost=nud	0		A	
       	kost=nud	0		A	sg n
       	kost=nud	d		A	pl n
:	:			Z	
kui	kui	0		D	
   	kui	0		J	
tema	tema	0		P	sg g
    	tema	0		P	sg n
see	see	0		P	sg n
kappi	kapp	0		S	adt
     	kapp	0		S	sg p
ära	ära	0		D	
   	ära	0		V	neg o
teeb	tege	b		V	b
mis	mis	0		P	pl n
   	mis	0		P	sg n
temal	tema	l		P	sg ad
ees	ees	0		D	
   	ees	0		K	
   	esi	s		S	sg in
teha	tege	a		V	da
on	ole	0		V	b
  	ole	0		V	vad
,	,			Z	
siis	siis	0		D	
    	siis	0		J	
paneb	pane	b		V	b
tema	tema	0		P	sg g
    	tema	0		P	sg n
oma	oma	0		A	sg g
   	oma	0		D	
   	oma	0		P	sg g
   	oma	0		S	sg g
   	oma	0		V	o
   	oma	0		A	sg n
   	oma	0		A	sg p
   	oma	0		P	sg n
   	oma	0		P	sg p
   	oma	0		S	sg n
   	oma	0		S	sg p
tares	tare	s		S	sg in
kotti	kott	0		S	adt
     	kotti	0		D	
     	kott	i		S	pl p
     	kott	0		S	sg p
ja	ja	0		J	
jättab	####				
kolimaja	koli_maja	0		S	sg g
        	koli_maja	0		S	sg n
        	koli_maja	0		S	sg p
poolele	pool	le		N	sg all
       	pool	le		S	sg all
ning	ning	0		J	
läheb	mine	b		V	b
ära	ära	0		D	
   	ära	0		V	neg o
,	,			Z	
siis	siis	0		D	
    	siis	0		J	
on	ole	0		V	b
  	ole	0		V	vad
vallavanem	valla_vanem	0		S	sg n
tema	tema	0		P	sg g
    	tema	0		P	sg n
töö	töö	0		S	sg g
   	töö	0		S	sg n
riista	riist	0		S	adt
      	riist	0		S	sg g
      	riist	0		S	sg p
kinni	kinni	0		D	
pannud	pan=nu	d		S	pl n
      	pan=nud	0		A	
      	pan=nud	0		A	sg n
      	pan=nud	d		A	pl n
      	pane	nud		V	nud
.	.			Z	
seepeale	see_peale	0		D	
on	ole	0		V	b
  	ole	0		V	vad
tema	tema	0		P	sg g
    	tema	0		P	sg n
ette	ette	0		D	
    	ette	0		K	
    	esi	tte		S	adt
tulnud	tul=nud	0		A	
      	tul=nud	0		A	sg n
      	tul=nud	d		A	pl n
      	tule	nud		V	nud
      	tulnu	d		S	pl n
ja	ja	0		J	
on	ole	0		V	b
  	ole	0		V	vad
kostnud	kost	nud		V	nud
       	kost=nu	d		S	pl n
       	kost=nud	0		A	
       	kost=nud	0		A	sg n
       	kost=nud	d		A	pl n
valla	vald	0		S	sg g
     	valla	0		D	
vanem	vanem	0		C	sg n
     	vanem	0		S	sg n
ei	ei	0		D	
  	ei	0		V	neg
ole	ole	0		V	o
temale	tema	le		P	sg all
mitte	mitte	0		D	
töö	töö	0		S	sg g
   	töö	0		S	sg n
meeste	meene	te		A	pl g
      	mees	te		S	pl g
ega	ega	0		D	
   	ega	0		J	
poisikeisi	####				
andnud	and	nud		V	nud
      	and=nu	d		S	pl n
      	and=nud	0		A	
      	and=nud	0		A	sg n
      	and=nud	d		A	pl n
vallast	vald	st		S	sg el
kellega	kes	ga		P	pl kom
       	kes	ga		P	sg kom
tema	tema	0		P	sg g
    	tema	0		P	sg n
tööd	töö	d		S	pl n
    	töö	d		S	sg p
võib	või	b		V	b
teha	tege	a		V	da
selle	see	0		P	sg g
     	sell	e		S	pl p
pärast	pära	st		S	sg el
      	pärane	t		A	sg p
      	pärast	0		D	
      	pärast	0		K	
on	ole	0		V	b
  	ole	0		V	vad
see	see	0		P	sg n
töö	töö	0		S	sg g
   	töö	0		S	sg n
tegemata	tege	mata		V	mata
        	tegemata	0		A	
.	.			Z	
ja	ja	0		J	
tema	tema	0		P	sg g
    	tema	0		P	sg n
palub	palu	b		V	b
et	et	0		J	
temale	tema	le		P	sg all
üheski	üks	s	ki	N	sg in
      	üks	s	ki	P	sg in
      	ühes	0	ki	D	
      	ühes	0	ki	K	
naddali	####				
üks	üks	0		N	sg n
   	üks	0		P	sg n
töömees	töö_mees	0		S	sg n
manu	manu	0		D	
    	manu	0		K	
antaks	and	taks		V	taks
kes	kes	0		P	pl n
   	kes	0		P	sg n
otsi	otsi	0		V	o
    	ots	i		S	pl p
otse	otse	0		D	
man	man	0		D	
   	man	0		K	
on	ole	0		V	b
  	ole	0		V	vad
siis	siis	0		D	
    	siis	0		J	
saab	saa	b		V	b
töö	töö	0		S	sg g
   	töö	0		S	sg n
jälle	jälle	0		D	
edasi	edasi	0		D	
     	edasi	0		K	
minema	mine	ma		V	ma
.	.			Z	
kogukonna	kogukond	0		S	sg g
kohtu	kohtu	0		V	o
     	kohus	0		S	sg g
valla	vald	0		S	sg g
     	valla	0		D	
valitsuse	valitsus	0		S	sg g
ja	ja	0		J	
kolme	kolm	0		N	adt
     	kolm	0		N	sg g
     	kolm	0		N	sg p
nuumehe	nuum_ehe	0		A	sg n
       	nuum_ehe	0		S	sg n
poolt	pool	t		N	sg p
     	pool	t		S	sg p
     	poolt	0		D	
     	poolt	0		K	
on	ole	0		V	b
  	ole	0		V	vad
Jaan	Jaan	0		H	sg n
    	jaan	0		S	sg n
    	jaan	0		Y	?
Kukk	kukk	0		S	sg n
12	12	0		N	?
päevaks	päev	ks		S	sg tr
Ortesse	####				
manu	manu	0		D	
    	manu	0		K	
töösse	töö	sse		S	sg ill
pantud	####				
saab	saa	b		V	b
70	70	0		N	?
koop	koop	0		Y	?
paevast	####				
palga	palk	0		S	sg g
oma	oma	0		A	sg g
   	oma	0		D	
   	oma	0		P	sg g
   	oma	0		S	sg g
   	oma	0		V	o
   	oma	0		A	sg n
   	oma	0		A	sg p
   	oma	0		P	sg n
   	oma	0		P	sg p
   	oma	0		S	sg n
   	oma	0		S	sg p
söögika	####				
.	.			Z	
vallavanem	valla_vanem	0		S	sg n
A	A	0		Y	?
.	.			Z	
_	_			Z	
sul	sina	l		P	sg ad
peakohtumees	pea_kohtu_mees	0		S	sg n
P	P	0		Y	?
.	.			Z	
_	_			Z	
Pihl	pihl	0		S	sg n
[	[			Z	
allkiri	all_kiri	0		S	sg n
]	]			Z	
abi	abi	0		S	sg g
   	abi	0		S	sg n
   	abi	0		S	sg p
Mihkel	Mihkel	0		H	sg n
      	mihkel	0		A	sg n
      	mihkel	0		S	sg n
Traks	traks	0		A	sg n
     	traks	0		S	sg n
[	[			Z	
allkiri	all_kiri	0		S	sg n
]	]			Z	
dito	####				
Jaan	Jaan	0		H	sg n
    	jaan	0		S	sg n
    	jaan	0		Y	?
Väiso	####				
[	[			Z	
allkiri	all_kiri	0		S	sg n
]	]			Z	
nõumees	nõu_mees	0		S	sg n
Mihkel	Mihkel	0		H	sg n
      	mihkel	0		A	sg n
      	mihkel	0		S	sg n
Runthal	####				
[	[			Z	
allkiri	all_kiri	0		S	sg n
]	]			Z	
Peet	Peet	0		H	sg n
    	peet	0		S	sg n
Lepp	lepp	0		S	sg n
+	+			Z	
+	+			Z	
+	+			Z	
P	P	0		Y	?
.	.			Z	
_	_			Z	
Pahl	####				
+	+			Z	
+	+			Z	
+	+			Z	
kirjutaja	kirjutaja	0		S	sg g
         	kirjutaja	0		S	sg n
Johangruk	####				
[	[			Z	
allkiri	all_kiri	0		S	sg n
]	]			Z	
