poleli	####				
jäänud	jää	nud		V	nud
      	jäänu	d		S	pl n
      	jäänud	0		A	
      	jäänud	0		A	sg n
      	jäänud	d		A	pl n
kaebus	kaebus	0		S	sg n
ajas	aeg	s		S	sg in
    	aja	s		V	s
sest	see	st		P	sg el
    	sest	0		J	
2	2	0		N	?
jaanuar	jaanuar	0		S	sg n
sub	####				
№	№	0		Y	?
14	14	0		N	?
tuli	tuli	0		S	sg n
    	tule	i		V	s
kaebatav	####				
Mihkel	Mihkel	0		H	sg n
      	mihkel	0		A	sg n
      	mihkel	0		S	sg n
Järg	järg	0		S	sg n
ette	ette	0		D	
    	ette	0		K	
    	esi	tte		S	adt
kes	kes	0		P	pl n
   	kes	0		P	sg n
selle	see	0		P	sg g
     	sell	e		S	pl p
kaebuse	kaebus	0		S	sg g
peale	pea	le		S	sg all
     	peale	0		D	
     	peale	0		K	
ütles	ütle	s		V	s
.	.			Z	
""""	""""			Z	
meil	meil	0		S	sg n
    	mina	l		P	pl ad
oli	ole	i		V	s
Jaan	Jaan	0		H	sg n
    	jaan	0		S	sg n
    	jaan	0		Y	?
Uibuga	####				
nõnda	nõnda	0		D	
lepitud	leppi	tud		V	tud
       	lepi=tu	d		S	pl n
       	lepi=tud	0		A	
       	lepi=tud	0		A	sg n
       	lepi=tud	d		A	pl n
,	,			Z	
et	et	0		J	
kui	kui	0		D	
   	kui	0		J	
minu	mina	0		P	sg g
tütar	tütar	0		S	sg n
tema	tema	0		P	sg g
    	tema	0		P	sg n
mant	mant	0		D	
    	mant	0		K	
    	mant	0		S	sg n
äära	####				
tuleb	tule	b		V	b
,	,			Z	
meie	mina	0		P	pl g
    	mina	0		P	pl n
siis	siis	0		D	
    	siis	0		J	
teenitud	teeni	tud		V	tud
        	teeni=tu	d		S	pl n
        	teenitud	0		A	
        	teenitud	0		A	sg n
        	teenitud	d		A	pl n
palka	palk	0		S	adt
     	palka	0		V	o
     	palk	0		S	sg p
,	,			Z	
ja	ja	0		J	
Jaan	Jaan	0		H	sg n
    	jaan	0		S	sg n
    	jaan	0		Y	?
Uibo	Uibo	0		H	sg g
    	Uibo	0		H	sg n
mitte	mitte	0		D	
enam	enam	0		C	sg n
    	enam	0		D	
neid	neid	0		S	sg n
    	see	d		P	pl p
    	tema	d		P	pl p
3	3	0		N	?
R	R	0		Y	?
.	.			Z	
nõuab	nõud	b		V	b
,	,			Z	
ning	ning	0		J	
andsime	and	sime		V	sime
selle	see	0		P	sg g
     	sell	e		S	pl p
oma	oma	0		A	sg g
   	oma	0		D	
   	oma	0		P	sg g
   	oma	0		S	sg g
   	oma	0		V	o
   	oma	0		A	sg n
   	oma	0		A	sg p
   	oma	0		P	sg n
   	oma	0		P	sg p
   	oma	0		S	sg n
   	oma	0		S	sg p
lepingu	leping	0		S	sg g
kinnitamises	kinnitamine	s		S	sg in
ühe	üks	0		N	sg g
   	üks	0		P	sg g
   	ühe	0		S	sg n
teisele	teine	le		O	sg all
       	teine	le		P	sg all
veel	veel	0		D	
    	vesi	l		S	sg ad
kätt	käsi	tt		S	sg p
.	.			Z	
otsus	otsus	0		S	sg n
:	:			Z	
Jaan	Jaan	0		H	sg n
    	jaan	0		S	sg n
    	jaan	0		Y	?
Uibo	Uibo	0		H	sg g
    	Uibo	0		H	sg n
kaebus	kaebus	0		S	sg n
tühjaks	tühi	ks		A	sg tr
mõista	mõist	0		V	o
      	mõist	a		V	da
.	.			Z	
otsus	otsus	0		S	sg n
ette	ette	0		D	
    	ette	0		K	
    	esi	tte		S	adt
kuulutud	kuulu	tud		V	tud
        	kuulu=tu	d		S	pl n
        	kuulu=tud	0		A	
        	kuulu=tud	0		A	sg n
        	kuulu=tud	d		A	pl n
§	§	0		Y	?
773	773	0		N	?
järel	järel	0		D	
     	järel	0		K	
.	.			Z	
Jaan	Jaan	0		H	sg n
    	jaan	0		S	sg n
    	jaan	0		Y	?
Uibo	Uibo	0		H	sg g
    	Uibo	0		H	sg n
palus	palu	s		S	sg in
     	palu	s		V	s
õppuslehte	õppus_leht	0		S	adt
          	õppus_leht	0		S	sg p
välja	välja	0		D	
     	välja	0		V	o
     	väli	0		S	adt
     	väli	0		S	sg g
     	väli	0		S	sg p
mis	mis	0		P	pl n
   	mis	0		P	sg n
ka	ka	0		D	
loati	####				
.	.			Z	
Peakohtumees	pea_kohtu_mees	0		S	sg n
J	J	0		Y	?
.	.			Z	
_Roht	####				
kohtumees	kohtu_mees	0		S	sg n
M	M	0		O	?
 	M	0		Y	?
.	.			Z	
_	_			Z	
Võso	####				
""""	""""			Z	
J	J	0		Y	?
.	.			Z	
_	_			Z	
Mandli	mandel	0		S	sg g
kirjutaja	kirjutaja	0		S	sg g
         	kirjutaja	0		S	sg n
A	A	0		Y	?
.	.			Z	
_	_			Z	
Mule	####				
[	[			Z	
allkiri	all_kiri	0		S	sg n
]	]			Z	
Oppuseleht	####				
Jaan	Jaan	0		H	sg n
    	jaan	0		S	sg n
    	jaan	0		Y	?
Uibo	Uibo	0		H	sg g
    	Uibo	0		H	sg n
kätte	kätte	0		K	
     	käsi	tte		S	adt
andud	andu	d		V	d
4.	4.	0		O	?
Veebruar	veebruar	0		S	sg n
1887	1887	0		N	?
koopia	koopia	0		S	sg g
      	koopia	0		S	sg n
kihel	####				
.	.			Z	
kohtu	kohtu	0		V	o
     	kohus	0		S	sg g
saadetud	saat	tud		V	tud
        	saade=tu	d		S	pl n
        	saadetud	0		A	
        	saadetud	0		A	sg n
        	saadetud	d		A	pl n
7.	7.	0		O	?
Vebruaril	####				
1887	1887	0		N	?
kihelkonna	kihelkond	0		S	sg g
kohtu	kohtu	0		V	o
     	kohus	0		S	sg g
poolt	pool	t		N	sg p
     	pool	t		S	sg p
     	poolt	0		D	
     	poolt	0		K	
see	see	0		P	sg n
14	14	0		N	?
aprillil	aprill	l		S	sg ad
1887	1887	0		N	?
kinitud	####				
/	/			Z	
ametniku	ametnik	0		S	sg g
allkiri	all_kiri	0		S	sg n
/	/			Z	
