ette	ette	0		D	
    	ette	0		K	
    	esi	tte		S	adt
tuli	tuli	0		S	sg n
    	tule	i		V	s
Jakob	Jakob	0		H	sg n
Siska	####				
ja	ja	0		J	
kaebas	kaeba	s		V	s
,	,			Z	
et	et	0		J	
kirikumõisa	kiriku_mõis	0		S	sg g
kari	kari	0		S	sg g
    	kari	0		S	sg n
    	kari	0		S	sg p
olevat	ole	vat		V	vat
      	olev	t		A	sg p
      	olev	t		S	sg p
tema	tema	0		P	sg g
    	tema	0		P	sg n
rukki	rukis	0		S	adt
     	rukis	0		S	sg g
,	,			Z	
mis	mis	0		P	pl n
   	mis	0		P	sg n
Hanja	hanja	0		S	sg g
     	hanja	0		S	sg n
ma	mina	0		P	sg n
peal	pea	l		S	sg ad
    	peal	0		D	
    	peal	0		K	
on	ole	0		V	b
  	ole	0		V	vad
,	,			Z	
äärasöötnud	####				
.	.			Z	
Kirikumõisa	kiriku_mõis	0		S	sg g
ja	ja	0		J	
kellamehe	kella_mees	0		S	sg g
kari	kari	0		S	sg g
    	kari	0		S	sg n
    	kari	0		S	sg p
olevat	ole	vat		V	vat
      	olev	t		A	sg p
      	olev	t		S	sg p
ühes	üks	s		N	sg in
    	üks	s		P	sg in
    	ühes	0		D	
    	ühes	0		K	
ollenud	####				
.	.			Z	
Jakob	Jakob	0		H	sg n
Troska	troska	0		S	sg g
      	troska	0		S	sg n
ütleb	ütle	b		V	b
,	,			Z	
et	et	0		J	
olevat	ole	vat		V	vat
      	olev	t		A	sg p
      	olev	t		S	sg p
ikka	ikka	0		D	
    	iga	0		S	adt
elaja	elajas	0		S	sg g
peal	pea	l		S	sg ad
    	peal	0		D	
    	peal	0		K	
käinud	käi	nud		V	nud
      	käi=nud	0		A	
      	käi=nud	0		A	sg n
      	käi=nud	d		A	pl n
      	käinu	d		S	pl n
,	,			Z	
sest	see	st		P	sg el
    	sest	0		J	
siis	siis	0		D	
    	siis	0		J	
oli	ole	i		V	s
veel	veel	0		D	
    	vesi	l		S	sg ad
oras	ora	s		S	sg in
    	oras	0		S	sg n
veike	####				
.	.			Z	
Jakob	Jakob	0		H	sg n
Siska	####				
nõud	nõu	d		S	pl n
4	4	0		N	?
mõõdu	mõõt	0		S	sg g
rüki	rükki	0		V	o
.	.			Z	
otsus	otsus	0		S	sg n
:	:			Z	
Joakit	####				
karjuse	karjus	0		S	sg g
ja	ja	0		J	
Dahrsneek	####				
tüdruku	tüdruk	0		S	sg g
ülekuleldud	####				
tuleval	tulev	l		A	sg ad
kohtu	kohtu	0		V	o
     	kohus	0		S	sg g
päeval	päev	l		S	sg ad
.	.			Z	
peakohtumees	pea_kohtu_mees	0		S	sg n
:	:			Z	
J	J	0		Y	?
.	.			Z	
_	_			Z	
Kroon	kroon	0		S	sg n
[	[			Z	
allkiri	all_kiri	0		S	sg n
]	]			Z	
kohtumees	kohtu_mees	0		S	sg n
:	:			Z	
J	J	0		Y	?
.	.			Z	
_	_			Z	
Pruuli	pruul	0		S	adt
      	pruul	0		S	sg g
      	pruuli	0		V	o
      	pruul	0		S	sg p
[	[			Z	
allkiri	all_kiri	0		S	sg n
]	]			Z	
""""	""""			Z	
J	J	0		Y	?
.	.			Z	
_	_			Z	
meister	meister	0		S	sg n
[	[			Z	
allkiri	all_kiri	0		S	sg n
]	]			Z	
kirjutaja	kirjutaja	0		S	sg g
         	kirjutaja	0		S	sg n
:	:			Z	
J	J	0		Y	?
.	.			Z	
_	_			Z	
otre	####				
