tuli	tuli	0		S	sg n
    	tule	i		V	s
ette	ette	0		D	
    	ette	0		K	
    	esi	tte		S	adt
Karraske	####				
,	,			Z	
Otsa	ots	0		S	adt
    	ots	0		S	sg g
    	otsa	0		D	
    	otsa	0		K	
    	otsa	0		V	o
    	ots	0		S	sg p
majja	maja	0		S	adt
vastne	vastne	0		A	sg n
      	vastne	0		S	sg n
päris	päri	s		V	s
     	päris	0		A	
     	päris	0		D	
omanik	omanik	0		S	sg n
Jaan	Jaan	0		H	sg n
    	jaan	0		S	sg n
    	jaan	0		Y	?
Mark	Mark	0		H	sg n
    	mark	0		S	sg n
,	,			Z	
ja	ja	0		J	
kaebas	kaeba	s		V	s
,	,			Z	
oma	oma	0		A	sg g
   	oma	0		D	
   	oma	0		P	sg g
   	oma	0		S	sg g
   	oma	0		V	o
   	oma	0		A	sg n
   	oma	0		A	sg p
   	oma	0		P	sg n
   	oma	0		P	sg p
   	oma	0		S	sg n
   	oma	0		S	sg p
ees	ees	0		D	
   	ees	0		K	
   	esi	s		S	sg in
oleva	olev	0		A	sg g
     	olev	0		S	sg g
päris	päri	s		V	s
     	päris	0		A	
     	päris	0		D	
omaniku	omanik	0		S	sg g
Johan	Johan	0		H	sg n
kuhi	kuhi	0		S	sg n
peale	pea	le		S	sg all
     	peale	0		D	
     	peale	0		K	
mõne	mõni	0		P	sg g
suguses	sugune	s		A	sg in
asjus	asi	us		S	pl in
,	,			Z	
kui	kui	0		D	
   	kui	0		J	
nim	nim	0		Y	?
(	(			Z	
m	m	0		Y	?
)	)			Z	
elt	####				
:	:			Z	
1	1	0		N	?
,	,			Z	
elt	####				
et	et	0		J	
oleva	olev	0		A	sg g
     	olev	0		S	sg g
perra	####				
ostmise	ostmine	0		S	sg g
lepingut	leping	t		S	sg p
metsast	mets	st		S	sg el
       	metsane	t		A	sg p
10	10	0		N	?
palki	palk	0		S	adt
     	palk	0		S	sg p
maha	maha	0		D	
raiunud	raiu	nud		V	nud
       	raiu=nu	d		S	pl n
       	raiu=nud	0		A	
       	raiu=nud	0		A	sg n
       	raiu=nud	d		A	pl n
ja	ja	0		J	
ära	ära	0		D	
   	ära	0		V	neg o
toonud	too	nud		V	nud
      	too=nu	d		S	pl n
      	too=nud	0		A	
      	too=nud	0		A	sg n
      	too=nud	d		A	pl n
,	,			Z	
2	2	0		N	?
,	,			Z	
üks	üks	0		N	sg n
   	üks	0		P	sg n
kõrvaline	kõrvaline	0		A	sg n
hoooned	####				
ära	ära	0		D	
   	ära	0		V	neg o
lautanud	lau_tanu	d		S	pl n
ja	ja	0		J	
ära	ära	0		D	
   	ära	0		V	neg o
palutanud	palu_tanu	d		S	pl n
,	,			Z	
ning	ning	0		J	
_	_			Z	
3	3	0		N	?
,	,			Z	
aija	####				
lagunud	lagu	nud		V	nud
       	lagu=nu	d		S	pl n
       	lagu=nud	0		A	
       	lagu=nud	0		A	sg n
       	lagu=nud	d		A	pl n
ja	ja	0		J	
aja	aeg	0		S	sg g
   	aja	0		V	o
puu	puu	0		S	sg g
   	puu	0		S	sg n
kõik	kõik	0		P	pl n
    	kõik	0		S	sg n
    	kõik	0		P	sg n
ära	ära	0		D	
   	ära	0		V	neg o
kaonu	####				
,	,			Z	
ja	ja	0		J	
nõudis	nõud	is		V	s
selle	see	0		P	sg g
     	sell	e		S	pl p
puudud	puudu	d		V	d
est	####				
kahjutasumist	kahju_tasumine	t		S	sg p
,	,			Z	
30.	30.	0		O	?
rubla	rubla	0		S	sg g
     	rubla	0		S	sg n
     	rubla	0		S	sg p
,	,			Z	
ning	ning	0		J	
palle	pall	e		S	pl p
kohut	kohus	t		S	sg p
seda	see	da		P	sg p
asja	asi	0		S	adt
    	asi	0		S	sg g
    	asi	0		S	sg p
selle_	####				
ta	tema	0		P	sg g
  	tema	0		P	sg n
.	.			Z	
_	_			Z	
sai	saa	i		V	s
   	sai	0		S	sg n
ette	ette	0		D	
    	ette	0		K	
    	esi	tte		S	adt
kutsutud	kutsu	tud		V	tud
        	kutsutu	d		S	pl n
        	kutsutud	0		A	
        	kutsutud	0		A	sg n
        	kutsutud	d		A	pl n
Johan	Johan	0		H	sg n
kuhi	kuhi	0		S	sg n
,	,			Z	
ning	ning	0		J	
ülevane	####				
kaebus	kaebus	0		S	sg n
,	,			Z	
ja	ja	0		J	
nõudmine	nõudmine	0		S	sg n
ette	ette	0		D	
    	ette	0		K	
    	esi	tte		S	adt
loetud	loetu	d		S	pl n
      	loetud	0		A	
      	loetud	0		A	sg n
      	loetud	d		A	pl n
      	luge	tud		V	tud
,	,			Z	
kes	kes	0		P	pl n
   	kes	0		P	sg n
selle	see	0		P	sg g
     	sell	e		S	pl p
peale	pea	le		S	sg all
     	peale	0		D	
     	peale	0		K	
midagi	miski	dagi		P	sg p
vastust	vastus	t		S	sg p
ei	ei	0		D	
  	ei	0		V	neg
või	või	0		S	sg g
   	või	0		V	o
   	või	0		D	
   	või	0		J	
   	või	0		S	sg n
anda	and	a		V	da
,	,			Z	
ent	ent	0		J	
näki	näkk	0		S	sg g
    	näkki	0		V	o
kohtu	kohtu	0		V	o
     	kohus	0		S	sg g
poolt	pool	t		N	sg p
     	pool	t		S	sg p
     	poolt	0		D	
     	poolt	0		K	
suudlane	####				
olevat	ole	vat		V	vat
      	olev	t		A	sg p
      	olev	t		S	sg p
.	.			Z	
_	_			Z	
otsua	####				
.	.			Z	
enne	enne	0		D	
    	enne	0		K	
    	enne	0		S	sg n
kui	kui	0		D	
   	kui	0		J	
kohus	kohu	s		V	s
     	kohus	0		S	sg n
veel	veel	0		D	
    	vesi	l		S	sg ad
sai	saa	i		V	s
   	sai	0		S	sg n
otsust	otsus	t		S	sg p
tegema	tege	ma		V	ma
,	,			Z	
tuleva	tulev	0		A	sg g
sisse	siss	e		S	pl p
     	sisse	0		D	
     	sisse	0		K	
ning	ning	0		J	
aneva	####				
üles	üles	0		D	
,	,			Z	
et	et	0		J	
olid	ole	id		V	sid
ära	ära	0		D	
   	ära	0		V	neg o
lepinud	####				
,	,			Z	
ning	ning	0		J	
nimelt	nimelt	0		D	
      	nimi	lt		S	sg abl
seda	see	da		P	sg p
viisi	viis	0		S	adt
     	viis	0		S	sg g
     	viis	i		N	pl p
     	viisi	0		K	
     	viis	0		S	sg p
,	,			Z	
et	et	0		J	
Johan	Johan	0		H	sg n
kuhi	kuhi	0		S	sg n
maksab	maks	b		V	b
,	,			Z	
Jaan	Jaan	0		H	sg n
    	jaan	0		S	sg n
    	jaan	0		Y	?
Mark´il	####				
15.	15.	0		O	?
rubla	rubla	0		S	sg g
     	rubla	0		S	sg n
     	rubla	0		S	sg p
,	,			Z	
ning	ning	0		J	
ei	ei	0		D	
  	ei	0		V	neg
ole	ole	0		V	o
perra	####				
seda	see	da		P	sg p
enam	enam	0		C	sg n
    	enam	0		D	
,	,			Z	
kumb	kumb	0		P	sg n
,	,			Z	
kummagiga	####				
,	,			Z	
Otsa	ots	0		S	adt
    	ots	0		S	sg g
    	otsa	0		D	
    	otsa	0		K	
    	otsa	0		V	o
    	ots	0		S	sg p
maja	maja	0		S	sg g
    	maja	0		S	sg n
    	maja	0		S	sg p
ära	ära	0		D	
   	ära	0		V	neg o
andmise	andmine	0		S	sg g
,	,			Z	
ehk	ehk	0		D	
   	ehk	0		J	
vastu	vastu	0		D	
     	vastu	0		K	
võtmise	võtmine	0		S	sg g
vahel	vahe	l		S	sg ad
     	vahel	0		D	
     	vahel	0		K	
midagi	miski	dagi		P	sg p
nõudmist	nõudmine	t		S	sg p
.	.			Z	
_	_			Z	
ja	ja	0		J	
läksid	mine	sid		V	sid
rahul	rahu	l		S	sg ad
     	rahul	0		D	
välja	välja	0		D	
     	välja	0		V	o
     	väli	0		S	adt
     	väli	0		S	sg g
     	väli	0		S	sg p
,	,			Z	
aga	aga	0		J	
Johan	Johan	0		H	sg n
kuhi	kuhi	0		S	sg n
,	,			Z	
maksis	maks	is		V	s
      	maksi	s		S	sg in
kohtu	kohtu	0		V	o
     	kohus	0		S	sg g
laua	laud	0		S	sg g
peale	pea	le		S	sg all
     	peale	0		D	
     	peale	0		K	
see	see	0		P	sg n
raha	raha	0		S	sg g
    	raha	0		S	sg n
    	raha	0		S	sg p
välja	välja	0		D	
     	välja	0		V	o
     	väli	0		S	adt
     	väli	0		S	sg g
     	väli	0		S	sg p
,	,			Z	
see	see	0		P	sg n
on	ole	0		V	b
  	ole	0		V	vad
15.	15.	0		O	?
rubla	rubla	0		S	sg g
     	rubla	0		S	sg n
     	rubla	0		S	sg p
,	,			Z	
ning	ning	0		J	
sai	saa	i		V	s
   	sai	0		S	sg n
ka	ka	0		D	
varsti	varsti	0		D	
Jaan	Jaan	0		H	sg n
    	jaan	0		S	sg n
    	jaan	0		Y	?
Mark´il	####				
kätte	kätte	0		K	
     	käsi	tte		S	adt
antud	an=tu	d		S	pl n
     	and	tud		V	tud
     	antud	0		A	
     	antud	0		A	sg n
     	antud	d		A	pl n
kohtu	kohtu	0		V	o
     	kohus	0		S	sg g
poolt	pool	t		N	sg p
     	pool	t		S	sg p
     	poolt	0		D	
     	poolt	0		K	
.	.			Z	
_	_			Z	
eenista	####				
,	,			Z	
Jaan	Jaan	0		H	sg n
    	jaan	0		S	sg n
    	jaan	0		Y	?
tulnud	tul=nud	0		A	
      	tul=nud	0		A	sg n
      	tul=nud	d		A	pl n
      	tule	nud		V	nud
      	tulnu	d		S	pl n
.	.			Z	
XXX	XXX	0		O	?
   	XXX	0		Y	?
mannista	####				
,	,			Z	
Jakob	Jakob	0		H	sg n
Uibo	Uibo	0		H	sg g
    	Uibo	0		H	sg n
.	.			Z	
XXX	XXX	0		O	?
   	XXX	0		Y	?
do	####				
,	,			Z	
Jaan	Jaan	0		H	sg n
    	jaan	0		S	sg n
    	jaan	0		Y	?
palepson	####				
.	.			Z	
XXX	XXX	0		O	?
   	XXX	0		Y	?
