Peeter	Peeter	0		H	sg n
Kärbe	kärbe	0		S	sg n
tuli	tuli	0		S	sg n
    	tule	i		V	s
ette	ette	0		D	
    	ette	0		K	
    	esi	tte		S	adt
ja	ja	0		J	
andis	and	is		V	s
üles	üles	0		D	
et	et	0		J	
vallavalitsuse	valla_valitsus	0		S	sg g
poolt	pool	t		N	sg p
     	pool	t		S	sg p
     	poolt	0		D	
     	poolt	0		K	
olla	ole	a		V	da
tunnistus	tunnistus	0		S	sg n
keiserliku	keiserlik	0		A	sg g
Võru	Võru	0		H	sg g
    	Võru	0		H	sg n
    	võru	0		S	sg g
    	võru	0		S	sg n
    	võru	0		S	sg p
Silla	sild	0		S	sg g
kohtule	kohus	le		S	sg all
saadetud	saat	tud		V	tud
        	saade=tu	d		S	pl n
        	saadetud	0		A	
        	saadetud	0		A	sg n
        	saadetud	d		A	pl n
,	,			Z	
et	et	0		J	
tema	tema	0		P	sg g
    	tema	0		P	sg n
olla	ole	a		V	da
linu	lina	u		S	pl p
Viru	Viru	0		H	sg g
    	viru	0		G	
    	viru	0		S	sg g
    	viru	0		V	o
    	Viru	0		H	sg n
    	viru	0		S	sg n
    	viru	0		S	sg p
sillaotsas	silla_ots	s		S	sg in
jões	jõgi	s		S	sg in
leotanud	leota	nud		V	nud
        	leota=nu	d		S	pl n
        	leota=nud	0		A	
        	leota=nud	0		A	sg n
        	leota=nud	d		A	pl n
,	,			Z	
kus	kus	0		D	
see	see	0		P	sg n
mitte	mitte	0		D	
lubatud	luba	tud		V	tud
       	luba=tu	d		S	pl n
       	lubatu	d		A	pl n
       	lubatud	0		A	
       	lubatud	0		A	sg n
       	lubatud	d		A	pl n
ei	ei	0		D	
  	ei	0		V	neg
ole	ole	0		V	o
,	,			Z	
et	et	0		J	
aga	aga	0		J	
mina	mina	0		P	sg n
    	mina	0		S	sg g
    	mina	0		S	sg n
    	mina	0		S	sg p
linad	lina	d		S	pl n
Viru	Viru	0		H	sg g
    	viru	0		G	
    	viru	0		S	sg g
    	viru	0		V	o
    	Viru	0		H	sg n
    	viru	0		S	sg n
    	viru	0		S	sg p
sillaotsas	silla_ots	s		S	sg in
loatud	loa=tu	d		A	pl n
leus	leu	s		S	sg in
ooles	####				
leotanud	leota	nud		V	nud
        	leota=nu	d		S	pl n
        	leota=nud	0		A	
        	leota=nud	0		A	sg n
        	leota=nud	d		A	pl n
kus	kus	0		D	
kõik	kõik	0		P	pl n
    	kõik	0		S	sg n
    	kõik	0		P	sg n
külla	küll	0		S	adt
     	küll	0		S	sg g
     	küla	0		S	adt
     	küll	0		S	sg p
on	ole	0		V	b
  	ole	0		V	vad
leotanud	leota	nud		V	nud
        	leota=nu	d		S	pl n
        	leota=nud	0		A	
        	leota=nud	0		A	sg n
        	leota=nud	d		A	pl n
võivad	või	vad		V	vad
      	võiv	d		A	pl n
siin	siin	0		D	
    	siin	0		S	sg n
minust	mina	st		P	sg el
üles	üles	0		D	
andud	andu	d		V	d
tunnistajad	tunnistaja	d		S	pl n
Johan	Johan	0		H	sg n
Punak	####				
todud	####				
mõisast	mõis	st		S	sg el
ja	ja	0		J	
Kährist	####				
Jaan	Jaan	0		H	sg n
    	jaan	0		S	sg n
    	jaan	0		Y	?
Väiko	####				
,	,			Z	
Kaarli	Kaarel	0		H	sg g
      	Kaarli	0		H	sg g
      	Kaarli	0		H	sg n
Juur	juur	0		S	sg n
,	,			Z	
Johann	Johann	0		H	sg n
Kurvits	kurvits	0		S	sg n
,	,			Z	
Peeter	Peeter	0		H	sg n
pearl	####				
ja	ja	0		J	
Liis	Liis	0		H	sg n
    	Lii	s		H	sg in
Troon	troon	0		S	sg n
tõeks	tõde	ks		S	sg tr
     	tõsi	ks		S	sg tr
tunnistada	tunnista	da		V	da
nende	see	de		P	pl g
     	tema	de		P	pl g
nimetatud	nimeta	tud		V	tud
         	nimetatu	d		S	pl n
         	nimetatud	0		A	
         	nimetatud	0		A	sg n
         	nimetatud	d		A	pl n
meeste	meene	te		A	pl g
      	mees	te		S	pl g
tunnistust	tunnistus	t		S	sg p
palus	palu	s		S	sg in
     	palu	s		V	s
mina	mina	0		P	sg n
    	mina	0		S	sg g
    	mina	0		S	sg n
    	mina	0		S	sg p
üles	üles	0		D	
võtta	võt	a		V	da
tõeks	tõde	ks		S	sg tr
     	tõsi	ks		S	sg tr
tegemiseks	tegemine	ks		S	sg tr
,	,			Z	
et	et	0		J	
mina	mina	0		P	sg n
    	mina	0		S	sg g
    	mina	0		S	sg n
    	mina	0		S	sg p
keelaud	kee_laud	0		S	sg n
koha	koht	0		S	sg g
    	koha	0		S	sg g
    	koha	0		V	o
    	koha	0		S	sg n
    	koha	0		S	sg p
peal	pea	l		S	sg ad
    	peal	0		D	
    	peal	0		K	
linaleotamisest	lina_leotamine	st		S	sg el
puhas	puhas	0		A	sg n
ooles	####				
.	.			Z	
I	I	0		O	?
 	I	0		Y	?
 	j	0		Y	?
.	.			Z	
_	_			Z	
Liis	Liis	0		H	sg n
    	Lii	s		H	sg in
Troon	troon	0		S	sg n
tunnistab	tunnista	b		V	b
:	:			Z	
Mina	mina	0		P	sg n
    	mina	0		S	sg g
    	mina	0		S	sg n
    	mina	0		S	sg p
ei	ei	0		D	
  	ei	0		V	neg
tä	####				
Peeter	Peeter	0		H	sg n
Kärbe	kärbe	0		S	sg n
lina	lina	0		S	sg g
    	lina	0		S	sg n
    	lina	0		S	sg p
leotamisest	leotamine	st		S	sg el
muud	muu	d		P	pl n
    	muu	d		S	pl n
    	muu	d		V	d
    	muu	d		P	sg p
    	muu	d		S	sg p
midagi	miski	dagi		P	sg p
kui	kui	0		D	
   	kui	0		J	
et	et	0		J	
linad	lina	d		S	pl n
ühel	üks	l		N	sg ad
    	üks	l		P	sg ad
päeval	päev	l		S	sg ad
katkutud	katku	tud		V	tud
        	katku=tu	d		S	pl n
        	katku=tud	0		A	
        	katku=tud	0		A	sg n
        	katku=tud	d		A	pl n
ja	ja	0		J	
ka	ka	0		D	
liku	####				
veetud	vee=tu	d		S	pl n
      	vee=tud	0		A	
      	vee=tud	0		A	sg n
      	vee=tud	d		A	pl n
      	veetu	d		A	pl n
      	veda	tud		V	tud
said	saa	id		V	sid
.	.			Z	
II	II	0		O	?
  	II	0		Y	?
  	jj	0		Y	?
.	.			Z	
Jaan	Jaan	0		H	sg n
    	jaan	0		S	sg n
    	jaan	0		Y	?
Väiko	####				
tunnistab	tunnista	b		V	b
:	:			Z	
kui	kui	0		D	
   	kui	0		J	
mina	mina	0		P	sg n
    	mina	0		S	sg g
    	mina	0		S	sg n
    	mina	0		S	sg p
oma	oma	0		A	sg g
   	oma	0		D	
   	oma	0		P	sg g
   	oma	0		S	sg g
   	oma	0		V	o
   	oma	0		A	sg n
   	oma	0		A	sg p
   	oma	0		P	sg n
   	oma	0		P	sg p
   	oma	0		S	sg n
   	oma	0		S	sg p
linu	lina	u		S	pl p
liku	####				
viisin	vii	sin		V	sin
siis	siis	0		D	
    	siis	0		J	
oli	ole	i		V	s
sinnasamasse	sinna_samasse	0		D	
meie	mina	0		P	pl g
    	mina	0		P	pl n
linade	lina	de		S	pl g
juurde	juur	de		S	adt
      	juurde	0		D	
      	juurde	0		K	
linu	lina	u		S	pl p
likkun	####				
pandud	pan=du	d		S	pl n
      	pan=dud	0		A	
      	pan=dud	0		A	sg n
      	pan=dud	d		A	pl n
      	pane	dud		V	tud
miled	####				
Kaarli	Kaarel	0		H	sg g
      	Kaarli	0		H	sg g
      	Kaarli	0		H	sg n
Juur	juur	0		S	sg n
ütles	ütle	s		V	s
Peeter	Peeter	0		H	sg n
Kärbe	kärbe	0		S	sg n
linad	lina	d		S	pl n
olevad	olev	d		A	pl n
      	olev	d		S	pl n
.	.			Z	
III	III	0		O	?
   	III	0		Y	?
.	.			Z	
Kaarli	Kaarel	0		H	sg g
      	Kaarli	0		H	sg g
      	Kaarli	0		H	sg n
Juur	juur	0		S	sg n
tunnistab	tunnista	b		V	b
:	:			Z	
Peeter	Peeter	0		H	sg n
Kärbe	kärbe	0		S	sg n
olletas	####				
küll	küll	0		D	
    	küll	0		S	sg n
oma	oma	0		A	sg g
   	oma	0		D	
   	oma	0		P	sg g
   	oma	0		S	sg g
   	oma	0		V	o
   	oma	0		A	sg n
   	oma	0		A	sg p
   	oma	0		P	sg n
   	oma	0		P	sg p
   	oma	0		S	sg n
   	oma	0		S	sg p
linu	lina	u		S	pl p
sealsamas	seal_samas	0		D	
leotuses	leotus	s		S	sg in
kus	kus	0		D	
mina	mina	0		P	sg n
    	mina	0		S	sg g
    	mina	0		S	sg n
    	mina	0		S	sg p
ja	ja	0		J	
ka	ka	0		D	
teistki	sina	st	ki	P	pl el
       	tee	ist	ki	S	pl el
       	teist	0	ki	D	
       	teine	t	ki	O	sg p
       	teine	t	ki	P	sg p
leotasid	leota	sid		V	sid
kas	kas	0		D	
tema	tema	0		P	sg g
    	tema	0		P	sg n
mujal	mujal	0		D	
ka	ka	0		D	
veel	veel	0		D	
    	vesi	l		S	sg ad
olletas	####				
sellest	see	st		P	sg el
ei	ei	0		D	
  	ei	0		V	neg
tä	####				
mina	mina	0		P	sg n
    	mina	0		S	sg g
    	mina	0		S	sg n
    	mina	0		S	sg p
midagi	miski	dagi		P	sg p
.	.			Z	
küüni	küün	0		S	adt
     	küün	0		S	sg g
     	küündi	0		V	o
     	küün	0		S	sg p
juures	juur	s		S	sg in
      	juures	0		D	
      	juures	0		K	
austas	austa	s		V	s
olletas	####				
tema	tema	0		P	sg g
    	tema	0		P	sg n
ka	ka	0		D	
aga	aga	0		J	
see	see	0		P	sg n
ei	ei	0		D	
  	ei	0		V	neg
puudu	puudu	0		D	
     	puudu	0		V	o
meta	meta	0		S	sg g
    	meta	0		S	sg n
jõkke	jõgi	0		S	adt
.	.			Z	
IV	IV	0		O	?
  	IV	0		Y	?
.	.			Z	
Johann	Johann	0		H	sg n
Kurvits	kurvits	0		S	sg n
tunnistab	tunnista	b		V	b
:	:			Z	
Peeter	Peeter	0		H	sg n
Kärbe	kärbe	0		S	sg n
olletas	####				
oma	oma	0		A	sg g
   	oma	0		D	
   	oma	0		P	sg g
   	oma	0		S	sg g
   	oma	0		V	o
   	oma	0		A	sg n
   	oma	0		A	sg p
   	oma	0		P	sg n
   	oma	0		P	sg p
   	oma	0		S	sg n
   	oma	0		S	sg p
linad	lina	d		S	pl n
sealsamas	seal_samas	0		D	
leotuses	leotus	s		S	sg in
kus	kus	0		D	
meie	mina	0		P	pl g
    	mina	0		P	pl n
leotasime	leota	sime		V	sime
.	.			Z	
otsus	otsus	0		S	sg n
niisugust	nii_sugune	t		P	sg p
tunnistust	tunnistus	t		S	sg p
protokolli	protokoll	0		S	adt
          	protokoll	0		S	sg g
          	protokolli	0		V	o
          	protokoll	0		S	sg p
üles	üles	0		D	
võtta	võt	a		V	da
.	.			Z	
äärakiri	####				
14	14	0		N	?
Märtsil	märts	l		S	sg ad
1884	1884	0		N	?
Kärbele	####				
välja	välja	0		D	
     	välja	0		V	o
     	väli	0		S	adt
     	väli	0		S	sg g
     	väli	0		S	sg p
andud	andu	d		V	d
