neljas	neli	s		N	sg in
      	neljas	0		O	sg n
kohus	kohu	s		V	s
     	kohus	0		S	sg n
sel	see	l		P	sg ad
   	sel	0		Y	?
sam	####				
(	(			Z	
m	m	0		Y	?
)	)			Z	
al	####				
päeval	päev	l		S	sg ad
kohtumehe	kohtu_mees	0		S	sg g
need	see	d		P	pl n
sam	####				
(	(			Z	
m	m	0		Y	?
)	)			Z	
a	a	0		Y	?
ülesütlemine	üles_ütlemine	0		S	sg n
tuli	tuli	0		S	sg n
    	tule	i		V	s
ette	ette	0		D	
    	ette	0		K	
    	esi	tte		S	adt
Karraske	####				
mõisa	mõis	0		S	sg g
rentnik	rentnik	0		S	sg n
Heinrich	Heinrich	0		H	sg n
Sirahk	####				
ja	ja	0		J	
palle	pall	e		S	pl p
et	et	0		J	
tema	tema	0		P	sg g
    	tema	0		P	sg n
kandi	kant	0		S	sg g
     	kanti	0		V	o
mehel	mees	l		S	sg ad
Jakob	Jakob	0		H	sg n
rattasel	####				
saaks	saa	ks		V	ks
kogukonna	kogukond	0		S	sg g
kohtu	kohtu	0		V	o
     	kohus	0		S	sg g
poolt	pool	t		N	sg p
     	pool	t		S	sg p
     	poolt	0		D	
     	poolt	0		K	
üles	üles	0		D	
ütledus	####				
,	,			Z	
tolle	toll	e		S	pl p
     	too	0		P	sg g
pärast	pära	st		S	sg el
      	pärane	t		A	sg p
      	pärast	0		D	
      	pärast	0		K	
et	et	0		J	
Jakob	Jakob	0		H	sg n
Ratuks	####				
olevat	ole	vat		V	vat
      	olev	t		A	sg p
      	olev	t		S	sg p
Hilba	####				
möldrile	mölder	le		S	sg all
pikki	pikk	i		A	pl p
     	pikk	i		S	pl p
õlgi	õlg	i		S	pl p
müünud	müü	nud		V	nud
      	müü=nu	d		S	pl n
      	müü=nud	0		A	
      	müü=nud	0		A	sg n
      	müü=nud	d		A	pl n
,	,			Z	
selle	see	0		P	sg g
     	sell	e		S	pl p
et	et	0		J	
H	H	0		Y	?
.	.			Z	
_	_			Z	
Sirachil	####				
ei	ei	0		D	
  	ei	0		V	neg
ole	ole	0		V	o
mitte	mitte	0		D	
päris	päri	s		V	s
     	päris	0		A	
     	päris	0		D	
härra	härra	0		S	sg g
     	härra	0		S	sg n
käest	käest	0		K	
     	käsi	st		S	sg el
ühtegi	ühte	0	gi	D	
      	üks	0	gi	N	adt
      	üks	0	gi	P	adt
      	ühe	0	gi	S	sg g
      	üks	0	gi	N	sg p
      	üks	0	gi	P	sg p
tähte	täht	0		S	adt
     	täht	0		S	sg p
ette	ette	0		D	
    	ette	0		K	
    	esi	tte		S	adt
näidata	näita	ta		V	da
       	näita	ta		V	ta
,	,			Z	
nii	nii	0		D	
sama	sama	0		P	sg g
    	sama	0		P	sg n
    	sama	0		P	sg p
ka	ka	0		D	
ei	ei	0		D	
  	ei	0		V	neg
ole	ole	0		V	o
kum	####				
(	(			Z	
m	m	0		Y	?
)	)			Z	
algil	alk	l		S	sg ad
kontrakti	####				
kus	kus	0		D	
nende	see	de		P	pl g
     	tema	de		P	pl g
leping	leping	0		S	sg n
on	ole	0		V	b
  	ole	0		V	vad
,	,			Z	
ei	ei	0		D	
  	ei	0		V	neg
võtta	võt	a		V	da
kogukonna	kogukond	0		S	sg g
kohus	kohu	s		V	s
     	kohus	0		S	sg n
mitte	mitte	0		D	
Heinrich	Heinrich	0		H	sg n
Sirahk	####				
üles	üles	0		D	
ütlemist	ütlemine	t		S	sg p
kuulmas	kuul	mas		V	mas
,	,			Z	
selle	see	0		P	sg g
     	sell	e		S	pl p
et	et	0		J	
juba	juba	0		D	
üles	üles	0		D	
ütlemine	ütlemine	0		S	sg n
aeg	aeg	0		S	sg n
mööda	mööda	0		A	
     	mööda	0		D	
     	mööda	0		K	
on	ole	0		V	b
  	ole	0		V	vad
ja	ja	0		J	
ühtegi	ühte	0	gi	D	
      	üks	0	gi	N	adt
      	üks	0	gi	P	adt
      	ühe	0	gi	S	sg g
      	üks	0	gi	N	sg p
      	üks	0	gi	P	sg p
tunnistust	tunnistus	t		S	sg p
ei	ei	0		D	
  	ei	0		V	neg
ole	ole	0		V	o
et	et	0		J	
on	ole	0		V	b
  	ole	0		V	vad
õlgi	õlg	i		S	pl p
müünud	müü	nud		V	nud
      	müü=nu	d		S	pl n
      	müü=nud	0		A	
      	müü=nud	0		A	sg n
      	müü=nud	d		A	pl n
.	.			Z	
_	_			Z	
tolle	toll	e		S	pl p
     	too	0		P	sg g
peale	pea	le		S	sg all
     	peale	0		D	
     	peale	0		K	
ütles	ütle	s		V	s
Heinrich	Heinrich	0		H	sg n
Sirahk	####				
et	et	0		J	
mina	mina	0		P	sg n
    	mina	0		S	sg g
    	mina	0		S	sg n
    	mina	0		S	sg p
ütle	ütle	0		V	o
talle	tall	e		S	pl p
     	tall	0		S	adt
     	tall	0		S	sg g
     	tema	lle		P	sg all
     	tall	0		S	sg p
enda	ise	0		P	sg g
vastutamise	vastutamine	0		S	sg g
peale	pea	le		S	sg all
     	peale	0		D	
     	peale	0		K	
siin	siin	0		D	
    	siin	0		S	sg n
kogukonna	kogukond	0		S	sg g
kohtu	kohtu	0		V	o
     	kohus	0		S	sg g
ees	ees	0		D	
   	ees	0		K	
   	esi	s		S	sg in
üles	üles	0		D	
et	et	0		J	
tema	tema	0		P	sg g
    	tema	0		P	sg n
Jüri	Jüri	0		H	sg g
    	Jüri	0		H	sg n
päeval	päev	l		S	sg ad
omast	oma	st		A	sg el
     	oma	st		P	sg el
     	oma	st		S	sg el
     	omane	t		A	sg p
majast	maja	st		S	sg el
välja	välja	0		D	
     	välja	0		V	o
     	väli	0		S	adt
     	väli	0		S	sg g
     	väli	0		S	sg p
peab	pida	b		V	b
minema	mine	ma		V	ma
.	.			Z	
_	_			Z	
(	(			Z	
Alla	alla	0		D	
    	alla	0		K	
    	Alla	0		H	sg g
    	Alla	0		H	sg n
kiri	kiri	0		S	sg n
nii	nii	0		D	
sam	####				
(	(			Z	
m	m	0		Y	?
)	)			Z	
a	a	0		Y	?
kui	kui	0		D	
   	kui	0		J	
oleval	olev	l		A	sg ad
      	olev	l		S	sg ad
)	)			Z	
