Jaan	Jaan	0		H	sg n
    	jaan	0		S	sg n
    	jaan	0		Y	?
Villakon	####				
tunnistab	tunnista	b		V	b
tema	tema	0		P	sg g
    	tema	0		P	sg n
on	ole	0		V	b
  	ole	0		V	vad
oma	oma	0		A	sg g
   	oma	0		D	
   	oma	0		P	sg g
   	oma	0		S	sg g
   	oma	0		V	o
   	oma	0		A	sg n
   	oma	0		A	sg p
   	oma	0		P	sg n
   	oma	0		P	sg p
   	oma	0		S	sg n
   	oma	0		S	sg p
jahvatud	####				
jahvatanud	jahvata	nud		V	nud
          	jahvata=nu	d		S	pl n
          	jahvata=nud	0		A	
          	jahvata=nud	0		A	sg n
          	jahvata=nud	d		A	pl n
siis	siis	0		D	
    	siis	0		J	
paele	paas	le		S	sg all
tema	tema	0		P	sg g
    	tema	0		P	sg n
on	ole	0		V	b
  	ole	0		V	vad
Linte	lint	e		S	pl p
Jaan	Jaan	0		H	sg n
    	jaan	0		S	sg n
    	jaan	0		Y	?
horaks	####				
ühe	üks	0		N	sg g
   	üks	0		P	sg g
   	ühe	0		S	sg n
6	6	0		N	?
vakkalise	####				
kotti	kott	0		S	adt
     	kotti	0		D	
     	kott	i		S	pl p
     	kott	0		S	sg p
rabatud	raba	tud		V	tud
       	raba=tu	d		S	pl n
       	rabatud	0		A	
       	rabatud	0		A	sg n
       	rabatud	d		A	pl n
üssiti	####				
jahvatanud	jahvata	nud		V	nud
          	jahvata=nu	d		S	pl n
          	jahvata=nud	0		A	
          	jahvata=nud	0		A	sg n
          	jahvata=nud	d		A	pl n
,	,			Z	
tu	####				
kott	kott	0		S	sg n
kus	kus	0		D	
üssiti	####				
ole	ole	0		V	o
mustem	mustem	0		C	sg n
ja	ja	0		J	
suust	suu	st		S	sg el
ole	ole	0		V	o
katki	katki	0		D	
.	.			Z	
