sellsamal	####				
päeval	päev	l		S	sg ad
5.	5.	0		O	?
april	####				
1885	1885	0		N	?
man	man	0		D	
   	man	0		K	
olid	ole	id		V	sid
neesama	####				
.	.			Z	
ette	ette	0		D	
    	ette	0		K	
    	esi	tte		S	adt
tuli	tuli	0		S	sg n
    	tule	i		V	s
Katri	Katri	0		H	sg g
     	Katri	0		H	sg n
Loodus	loodu	s		S	sg in
      	loodud	s		A	sg in
      	loodus	0		S	sg n
Karistast	####				
man	man	0		D	
   	man	0		K	
seisis	seis	is		V	s
tema	tema	0		P	sg g
    	tema	0		P	sg n
mees	mees	0		S	sg n
    	mesi	s		S	sg in
Ants	Ants	0		H	sg n
Loodus	loodu	s		S	sg in
      	loodud	s		A	sg in
      	loodus	0		S	sg n
ja	ja	0		J	
kaebas	kaeba	s		V	s
et	et	0		J	
Peeter	Peeter	0		H	sg n
koot	koot	0		S	sg n
tütre	tütar	0		S	sg g
Leena	Lee	na		H	sg es
     	Leena	0		H	sg g
     	Leena	0		H	sg n
ja	ja	0		J	
Marie	Marie	0		H	sg g
     	Marie	0		H	sg n
koot	koot	0		S	sg n
Karaski	kara	s	ki	S	sg in
       	karask	0		S	sg g
mõisast	mõis	st		S	sg el
oma	oma	0		A	sg g
   	oma	0		D	
   	oma	0		P	sg g
   	oma	0		S	sg g
   	oma	0		V	o
   	oma	0		A	sg n
   	oma	0		A	sg p
   	oma	0		P	sg n
   	oma	0		P	sg p
   	oma	0		S	sg n
   	oma	0		S	sg p
tema	tema	0		P	sg g
    	tema	0		P	sg n
Suure	suur	0		A	sg g
Reede	reede	0		S	sg g
     	reede	0		S	sg n
koolimajast	kooli_maja	st		S	sg el
palve	palve	0		S	sg g
     	palve	0		S	sg n
tunnist	tund	st		S	sg el
       	tunnine	t		A	sg p
tulles	tule	es		V	des
hoopuse	####				
jalgu	jalg	u		S	pl p
     	jalgu	0		D	
alla	alla	0		D	
    	alla	0		K	
ajanud	aja	nud		V	nud
      	aja=nu	d		S	pl n
      	aja=nud	0		A	
      	aja=nud	0		A	sg n
      	aja=nud	d		A	pl n
ja	ja	0		J	
reega	regi	ga		S	sg kom
üle	üle	0		D	
   	üle	0		K	
sõitnud	sõit	nud		V	nud
       	sõit=nu	d		S	pl n
       	sõit=nud	0		A	
       	sõit=nud	0		A	sg n
       	sõit=nud	d		A	pl n
_	_			Z	
tunnistaja	tunnistaja	0		S	sg g
          	tunnistaja	0		S	sg n
Johan	Johan	0		H	sg n
soldan	####				
ja	ja	0		J	
Liis	Liis	0		H	sg n
    	Lii	s		H	sg in
Sõõrt	####				
Karaskin	####				
_	_			Z	
kaebaja	kaebaja	0		S	sg g
       	kaebaja	0		S	sg n
olla	ole	a		V	da
nüüd	nüüd	0		D	
tervisest	tervis	st		S	sg el
saand	####				
nõud	nõu	d		S	pl n
10	10	0		N	?
rubl	####				
rohitsemise	rohitse=mine	0		S	sg g
ja	ja	0		J	
valu	valu	0		S	sg g
    	valu	0		V	o
    	valu	0		S	sg n
    	valu	0		S	sg p
raha	raha	0		S	sg g
    	raha	0		S	sg n
    	raha	0		S	sg p
ja	ja	0		J	
palle	pall	e		S	pl p
seda	see	da		P	sg p
sisse	siss	e		S	pl p
     	sisse	0		D	
     	sisse	0		K	
nõuda	nõud	a		V	da
.	.			Z	
ette	ette	0		D	
    	ette	0		K	
    	esi	tte		S	adt
kutsuti	kutsu	ti		V	ti
Johan	Johan	0		H	sg n
soldan	####				
kes	kes	0		P	pl n
   	kes	0		P	sg n
tunnist	tund	st		S	sg el
       	tunnine	t		A	sg p
et	et	0		J	
tema	tema	0		P	sg g
    	tema	0		P	sg n
peale	pea	le		S	sg all
     	peale	0		D	
     	peale	0		K	
ajamist	ajam	st		S	sg el
       	ajamine	t		S	sg p
ei	ei	0		D	
  	ei	0		V	neg
ole	ole	0		V	o
näinud	näi	nud		V	nud
      	näge	nud		V	nud
      	näi=nud	0		A	
      	näi=nud	0		A	sg n
      	näi=nud	d		A	pl n
      	näinu	d		S	pl n
,	,			Z	
ega	ega	0		D	
   	ega	0		J	
seda	see	da		P	sg p
kui	kui	0		D	
   	kui	0		J	
Katri	Katri	0		H	sg g
     	Katri	0		H	sg n
Loodus	loodu	s		S	sg in
      	loodud	s		A	sg in
      	loodus	0		S	sg n
ree	regi	0		S	sg g
alt	alt	0		S	sg n
   	alt	0		D	
   	alt	0		K	
välja	välja	0		D	
     	välja	0		V	o
     	väli	0		S	adt
     	väli	0		S	sg g
     	väli	0		S	sg p
võetud	võe=tu	d		S	pl n
      	võetud	0		A	
      	võetud	0		A	sg n
      	võetud	d		A	pl n
      	võt	tud		V	tud
on	ole	0		V	b
  	ole	0		V	vad
.	.			Z	
Jääs	jää	s		S	sg in
pooleli	pooleli	0		D	
selle	see	0		P	sg g
     	sell	e		S	pl p
et	et	0		J	
Peeter	Peeter	0		H	sg n
koot	koot	0		S	sg n
ja	ja	0		J	
Liis	Liis	0		H	sg n
    	Lii	s		H	sg in
Sõõrt	####				
ette	ette	0		D	
    	ette	0		K	
    	esi	tte		S	adt
kutsutu	kutsutu	0		S	sg g
       	kutsutud	0		A	sg g
       	kutsutu	0		S	sg n
ei	ei	0		D	
  	ei	0		V	neg
ole	ole	0		V	o
.	.			Z	
