Lilo	####				
Rihm	rihm	0		S	sg n
oli	ole	i		V	s
eesseisva	ees_seisev	0		A	sg g
otsuse	otsus	0		S	sg g
kuulutamise	kuulutamine	0		S	sg g
juures	juur	s		S	sg in
      	juures	0		D	
      	juures	0		K	
purjus	purjus	0		A	
      	purjus	0		D	
peaga	pea	ga		S	sg kom
kohtu	kohtu	0		V	o
     	kohus	0		S	sg g
ette	ette	0		D	
    	ette	0		K	
    	esi	tte		S	adt
tulnud	tul=nud	0		A	
      	tul=nud	0		A	sg n
      	tul=nud	d		A	pl n
      	tule	nud		V	nud
      	tulnu	d		S	pl n
ja	ja	0		J	
kõneli	####				
mitmed	mitu	d		P	pl n
pruud	####				
sõnad	sõna	d		S	pl n
     	sõna	d		V	d
,	,			Z	
sellepäärast	####				
sai	saa	i		V	s
   	sai	0		S	sg n
ta	tema	0		P	sg g
  	tema	0		P	sg n
24	24	0		N	?
tunnis	tund	s		S	sg in
kinnipandud	kinni_pan=du	d		S	pl n
           	kinni_pan=dud	0		A	
           	kinni_pan=dud	0		A	sg n
           	kinni_pan=dud	d		A	pl n
.	.			Z	
peakohtumees	pea_kohtu_mees	0		S	sg n
:	:			Z	
J	J	0		Y	?
.	.			Z	
_	_			Z	
Niilbe	####				
kohtumees	kohtu_mees	0		S	sg n
:	:			Z	
A	A	0		Y	?
.	.			Z	
_	_			Z	
Luk	####				
XXX	XXX	0		O	?
   	XXX	0		Y	?
d	d	0		Y	?
.	.			Z	
:	:			Z	
P	P	0		Y	?
.	.			Z	
_Abel	####				
XXX	XXX	0		O	?
   	XXX	0		Y	?
kirjutaja	kirjutaja	0		S	sg g
         	kirjutaja	0		S	sg n
as	####				
.	.			Z	
Tuping	####				
