Karraske	####				
kogukonna	kogukond	0		S	sg g
kohus	kohu	s		V	s
     	kohus	0		S	sg n
Jusal	####				
sel	see	l		P	sg ad
   	sel	0		Y	?
26dal	####				
oktoobril	oktoober	l		S	sg ad
73	73	0		N	?
mann	mann	0		S	sg n
olid	ole	id		V	sid
peamees	pea_mees	0		S	sg n
Jaan	Jaan	0		H	sg n
    	jaan	0		S	sg n
    	jaan	0		Y	?
tulus	tulu	s		S	sg in
     	tulus	0		A	sg n
XXX	XXX	0		O	?
   	XXX	0		Y	?
mannista	####				
_	_			Z	
Peeter	Peeter	0		H	sg n
Mandli	mandel	0		S	sg g
XXX	XXX	0		O	?
   	XXX	0		Y	?
do	####				
_	_			Z	
Jakob	Jakob	0		H	sg n
Uibo	Uibo	0		H	sg g
    	Uibo	0		H	sg n
XXX	XXX	0		O	?
   	XXX	0		Y	?
Maidla	Maidla	0		H	sg g
      	maidel	0		S	sg g
      	Maidla	0		H	sg n
kõrtsimees	kõrtsi_mees	0		S	sg n
Hendrik	Hendrik	0		H	sg n
Timoks	Timo	ks		H	sg tr
tuli	tuli	0		S	sg n
    	tule	i		V	s
ette	ette	0		D	
    	ette	0		K	
    	esi	tte		S	adt
ja	ja	0		J	
kaebas	kaeba	s		V	s
Karraske	####				
mõisa	mõis	0		S	sg g
moonamehe	moona_mees	0		S	sg g
Hans	Hans	0		H	sg n
Krooni	kroon	0		S	adt
      	kroon	0		S	sg g
      	krooni	0		V	o
      	kroon	0		S	sg p
peale	pea	le		S	sg all
     	peale	0		D	
     	peale	0		K	
,	,			Z	
et	et	0		J	
temal	tema	l		P	sg ad
olevat	ole	vat		V	vat
      	olev	t		A	sg p
      	olev	t		S	sg p
4	4	0		N	?
r	r	0		Y	?
43.	43.	0		O	?
neli	neli	0		N	sg n
rubla	rubla	0		S	sg g
     	rubla	0		S	sg n
     	rubla	0		S	sg p
43	43	0		N	?
kop	kop	0		Y	?
tema	tema	0		P	sg g
    	tema	0		P	sg n
käest	käest	0		K	
     	käsi	st		S	sg el
saada	saa	da		V	da
     	saat	0		V	o
     	saa	da		V	ta
.	.			Z	
kutsuti	kutsu	ti		V	ti
ette	ette	0		D	
    	ette	0		K	
    	esi	tte		S	adt
Hans	Hans	0		H	sg n
Kroon	kroon	0		S	sg n
kes	kes	0		P	pl n
   	kes	0		P	sg n
mitte	mitte	0		D	
ei	ei	0		D	
  	ei	0		V	neg
salga	salga	0		V	o
     	salk	0		S	sg g
,	,			Z	
ega	ega	0		D	
   	ega	0		J	
ütles	ütle	s		V	s
too	too	0		P	sg n
   	too	0		V	o
on	ole	0		V	b
  	ole	0		V	vad
kül	####				
õige	õige	0		A	sg g
    	õige	0		A	sg n
    	õige	0		D	
et	et	0		J	
mina	mina	0		P	sg n
    	mina	0		S	sg g
    	mina	0		S	sg n
    	mina	0		S	sg p
4	4	0		N	?
ruba	####				
43	43	0		N	?
kop	kop	0		Y	?
temale	tema	le		P	sg all
võlgu	võlg	u		S	pl p
     	võlgu	0		D	
ole	ole	0		V	o
,	,			Z	
aga	aga	0		J	
Hendrik	Hendrik	0		H	sg n
Timoks	Timo	ks		H	sg tr
on	ole	0		V	b
  	ole	0		V	vad
minul	mina	l		P	sg ad
üks	üks	0		N	sg n
   	üks	0		P	sg n
kirves	kirves	0		S	sg n
      	kirves	s		S	sg in
ära	ära	0		D	
   	ära	0		V	neg o
kaotanu	kaota=nu	0		S	sg g
       	kaota=nu	0		S	sg n
,	,			Z	
ja	ja	0		J	
tolle	toll	e		S	pl p
     	too	0		P	sg g
kirve	kirves	0		S	sg g
eest	eest	0		D	
    	eest	0		K	
    	esi	st		S	sg el
voeti	voe=ti	0		D	
mull	mull	0		S	sg n
üks	üks	0		N	sg n
   	üks	0		P	sg n
rubla	rubla	0		S	sg g
     	rubla	0		S	sg n
     	rubla	0		S	sg p
palgast	palk	st		S	sg el
maha	maha	0		D	
,	,			Z	
seda	see	da		P	sg p
võin	või	n		V	n
mina	mina	0		P	sg n
    	mina	0		S	sg g
    	mina	0		S	sg n
    	mina	0		S	sg p
Redlich	####				
härra	härra	0		S	sg g
     	härra	0		S	sg n
käest	käest	0		K	
     	käsi	st		S	sg el
täht	täht	0		S	sg n
paleldud	####				
et	et	0		J	
to	####				
õige	õige	0		A	sg g
    	õige	0		A	sg n
    	õige	0		D	
on	ole	0		V	b
  	ole	0		V	vad
,	,			Z	
ja	ja	0		J	
palle	pall	e		S	pl p
et	et	0		J	
temal	tema	l		P	sg ad
mitte	mitte	0		D	
varsti	varsti	0		D	
raha	raha	0		S	sg g
    	raha	0		S	sg n
    	raha	0		S	sg p
ei	ei	0		D	
  	ei	0		V	neg
ole	ole	0		V	o
maksa	maks	0		S	adt
     	maks	0		S	sg g
     	maks	0		V	o
     	maks	0		S	sg p
kannatada	kannata	da		V	da
seni	seni	0		D	
kui	kui	0		D	
   	kui	0		J	
1	1	0		N	?
aprili	####				
kuu	kuu	0		S	sg g
   	kuu	0		S	sg n
päevani	päev	ni		S	sg ter
1874.	1874.	0		O	?
ja	ja	0		J	
Hendrik	Hendrik	0		H	sg n
Timoks	Timo	ks		H	sg tr
oli	ole	i		V	s
ka	ka	0		D	
tullega	####				
rahu	rahu	0		S	sg g
    	rahu	0		S	sg n
    	rahu	0		S	sg p
.	.			Z	
kui	kui	0		D	
   	kui	0		J	
peaks	pea	ks		S	sg tr
     	pida	ks		V	ks
Hans	Hans	0		H	sg n
Kroon	kroon	0		S	sg n
tolle	toll	e		S	pl p
     	too	0		P	sg g
peale	pea	le		S	sg all
     	peale	0		D	
     	peale	0		K	
täht	täht	0		S	sg n
saama	saa	ma		V	ma
     	saam	0		S	adt
     	saam	0		S	sg g
     	saam	0		S	sg p
,	,			Z	
et	et	0		J	
temal	tema	l		P	sg ad
vistist	vist	st		S	sg el
on	ole	0		V	b
  	ole	0		V	vad
1	1	0		N	?
rubla	rubla	0		S	sg g
     	rubla	0		S	sg n
     	rubla	0		S	sg p
kirve	kirves	0		S	sg g
eest	eest	0		D	
    	eest	0		K	
    	esi	st		S	sg el
maha	maha	0		D	
võetud	võe=tu	d		S	pl n
      	võetud	0		A	
      	võetud	0		A	sg n
      	võetud	d		A	pl n
      	võt	tud		V	tud
siis	siis	0		D	
    	siis	0		J	
saab	saa	b		V	b
Hendrik	Hendrik	0		H	sg n
Timoks	Timo	ks		H	sg tr
ennegi	ennegi	0		D	
3	3	0		N	?
ruba	####				
43	43	0		N	?
kop	kop	0		Y	?
Hans	Hans	0		H	sg n
Krooni	kroon	0		S	adt
      	kroon	0		S	sg g
      	krooni	0		V	o
      	kroon	0		S	sg p
käest	käest	0		K	
     	käsi	st		S	sg el
ja	ja	0		J	
tullega	####				
olid	ole	id		V	sid
mõlema	mõlema	0		P	sg g
rahho	####				
.	.			Z	
_	_			Z	
_	_			Z	
_	_			Z	
_	_			Z	
allkiri	all_kiri	0		S	sg n
