Karraske	####				
kogukonna	kogukond	0		S	sg g
kohus	kohu	s		V	s
     	kohus	0		S	sg n
sel	see	l		P	sg ad
   	sel	0		Y	?
20al	####				
juulil	juuli	l		S	sg ad
1879.	1879.	0		O	?
mann	mann	0		S	sg n
olid	ole	id		V	sid
kog	####				
:	:			Z	
kohtu	kohtu	0		V	o
     	kohus	0		S	sg g
eenista	####				
:	:			Z	
Jaan	Jaan	0		H	sg n
    	jaan	0		S	sg n
    	jaan	0		Y	?
tulnud	tul=nud	0		A	
      	tul=nud	0		A	sg n
      	tul=nud	d		A	pl n
      	tule	nud		V	nud
      	tulnu	d		S	pl n
.	.			Z	
""""	""""			Z	
""""	""""			Z	
do	####				
do	####				
mannista	####				
:	:			Z	
Jakob	Jakob	0		H	sg n
Uibo	Uibo	0		H	sg g
    	Uibo	0		H	sg n
.	.			Z	
""""	""""			Z	
""""	""""			Z	
do	####				
do	####				
do	####				
:	:			Z	
Jaan	Jaan	0		H	sg n
    	jaan	0		S	sg n
    	jaan	0		Y	?
Lepason	####				
.	.			Z	
tuli	tuli	0		S	sg n
    	tule	i		V	s
ette	ette	0		D	
    	ette	0		K	
    	esi	tte		S	adt
tiinud	tiin	d		S	pl n
maja	maja	0		S	sg g
    	maja	0		S	sg n
    	maja	0		S	sg p
pärisomanik	päris_omanik	0		S	sg n
Jüri	Jüri	0		H	sg g
    	Jüri	0		H	sg n
palus	palu	s		S	sg in
     	palu	s		V	s
,	,			Z	
ja	ja	0		J	
palle	pall	e		S	pl p
kohut	kohus	t		S	sg p
,	,			Z	
et	et	0		J	
kohus	kohu	s		V	s
     	kohus	0		S	sg n
tema	tema	0		P	sg g
    	tema	0		P	sg n
alla	alla	0		D	
    	alla	0		K	
maja	maja	0		S	sg g
    	maja	0		S	sg n
    	maja	0		S	sg p
rentnik	rentnik	0		S	sg n
Johan	Johan	0		H	sg n
Laan	####				
´	’			Z	
bil	####				
üles	üles	0		D	
ütles	ütle	s		V	s
,	,			Z	
kon_	####				
trahi	####				
aeg	aeg	0		S	sg n
on	ole	0		V	b
  	ole	0		V	vad
täis	täi	s		S	sg in
    	täi	s		V	s
    	täis	0		A	
    	täis	0		A	sg n
    	täis	0		D	
    	täis	0		S	sg n
,	,			Z	
ja	ja	0		J	
tema	tema	0		P	sg g
    	tema	0		P	sg n
Jüri	Jüri	0		H	sg g
    	Jüri	0		H	sg n
palus	palu	s		S	sg in
     	palu	s		V	s
tahtva	tahtev	0		A	sg g
renti	rent	0		S	adt
     	rent	0		S	sg p
rohkem	rohkem	0		D	
,	,			Z	
ning	ning	0		J	
kautsion	####				
sisse	siss	e		S	pl p
     	sisse	0		D	
     	sisse	0		K	
,	,			Z	
see	see	0		P	sg n
on	ole	0		V	b
  	ole	0		V	vad
eestuleval	ees_tulev	l		A	sg ad
ajal	aeg	l		S	sg ad
    	ajal	0		K	
,	,			Z	
(	(			Z	
100.	100.	0		O	?
)	)			Z	
üks	üks	0		N	sg n
   	üks	0		P	sg n
sada	sada	0		N	sg n
    	sada	0		N	sg p
rubla	rubla	0		S	sg g
     	rubla	0		S	sg n
     	rubla	0		S	sg p
aasta	aasta	0		S	sg g
     	aasta	0		S	sg n
rent	rent	0		S	sg n
,	,			Z	
ning	ning	0		J	
(	(			Z	
100.	100.	0		O	?
)	)			Z	
üks	üks	0		N	sg n
   	üks	0		P	sg n
sada	sada	0		N	sg n
    	sada	0		N	sg p
rubla	rubla	0		S	sg g
     	rubla	0		S	sg n
     	rubla	0		S	sg p
kautsioniks	####				
sisse	siss	e		S	pl p
     	sisse	0		D	
     	sisse	0		K	
,	,			Z	
kus	kus	0		D	
mina	mina	0		P	sg n
    	mina	0		S	sg g
    	mina	0		S	sg n
    	mina	0		S	sg p
ega	ega	0		D	
   	ega	0		J	
aasta	aasta	0		S	sg g
     	aasta	0		S	sg n
5.	5.	0		O	?
%	%	0		Y	?
maksa	maks	0		S	adt
     	maks	0		S	sg g
     	maks	0		V	o
     	maks	0		S	sg p
,	,			Z	
kui	kui	0		D	
   	kui	0		J	
seda	see	da		P	sg p
täidab	täit	b		V	b
,	,			Z	
võib	või	b		V	b
paika	paik	0		S	adt
     	paika	0		V	o
     	paik	0		S	sg p
jääda	jää	da		V	da
     	jää	da		V	ta
,	,			Z	
ent	ent	0		J	
kui	kui	0		D	
   	kui	0		J	
mitte	mitte	0		D	
,	,			Z	
otsiku	otsik	0		S	sg g
endal	ise	l		P	sg ad
teine	teine	0		O	sg n
     	teine	0		P	sg n
kotus	ko=tus	0		S	sg n
.	.			Z	
_	_			Z	
Johan	Johan	0		H	sg n
Laan	####				
,	,			Z	
ei	ei	0		D	
  	ei	0		V	neg
ole	ole	0		V	o
kohtu	kohtu	0		V	o
     	kohus	0		S	sg g
käsu	käsk	0		S	sg g
peale	pea	le		S	sg all
     	peale	0		D	
     	peale	0		K	
mitte	mitte	0		D	
tulnud	tul=nud	0		A	
      	tul=nud	0		A	sg n
      	tul=nud	d		A	pl n
      	tule	nud		V	nud
      	tulnu	d		S	pl n
,	,			Z	
siis	siis	0		D	
    	siis	0		J	
jäi	jää	i		V	s
üles	üles	0		D	
ütlemise	ütlemine	0		S	sg g
kuulutud	kuulu	tud		V	tud
        	kuulu=tu	d		S	pl n
        	kuulu=tud	0		A	
        	kuulu=tud	0		A	sg n
        	kuulu=tud	d		A	pl n
teise	teine	0		O	adt
     	teine	0		O	sg g
     	teine	0		P	adt
     	teine	0		P	sg g
korra	kord	0		S	sg g
kohtu	kohtu	0		V	o
     	kohus	0		S	sg g
päeva	päev	0		S	adt
     	päev	0		S	sg g
     	päev	0		S	sg p
peale	pea	le		S	sg all
     	peale	0		D	
     	peale	0		K	
.	.			Z	
_	_			Z	
eenista	####				
,	,			Z	
J	J	0		Y	?
.	.			Z	
_	_			Z	
tulnud	tul=nud	0		A	
      	tul=nud	0		A	sg n
      	tul=nud	d		A	pl n
      	tule	nud		V	nud
      	tulnu	d		S	pl n
.	.			Z	
XXX	XXX	0		O	?
   	XXX	0		Y	?
mannista	####				
,	,			Z	
J	J	0		Y	?
.	.			Z	
_	_			Z	
Uibo	Uibo	0		H	sg g
    	Uibo	0		H	sg n
XXX	XXX	0		O	?
   	XXX	0		Y	?
do	####				
,	,			Z	
J	J	0		Y	?
.	.			Z	
_	_			Z	
Lepason	####				
XXX	XXX	0		O	?
   	XXX	0		Y	?
