ette	ette	0		D	
    	ette	0		K	
    	esi	tte		S	adt
tuli	tuli	0		S	sg n
    	tule	i		V	s
Tanel	Tanel	0		H	sg n
Hamk	####				
ja	ja	0		J	
kaebas	kaeba	s		V	s
et	et	0		J	
Johann	Johann	0		H	sg n
Lang	lang	0		S	sg n
olevat	ole	vat		V	vat
      	olev	t		A	sg p
      	olev	t		S	sg p
teda	tema	da		P	sg p
sel	see	l		P	sg ad
   	sel	0		Y	?
10	10	0		N	?
detsember	detsember	0		S	sg n
1882	1882	0		N	?
siin	siin	0		D	
    	siin	0		S	sg n
kohtu	kohtu	0		V	o
     	kohus	0		S	sg g
ees	ees	0		D	
   	ees	0		K	
   	esi	s		S	sg in
tares	tare	s		S	sg in
löönud	löö	nud		V	nud
      	löö=nu	d		S	pl n
      	löö=nud	0		A	
      	löö=nud	0		A	sg n
      	löö=nud	d		A	pl n
ja	ja	0		J	
tema	tema	0		P	sg g
    	tema	0		P	sg n
pead	pea	d		S	pl n
    	pida	d		V	d
    	pea	d		S	sg p
ukse	uks	0		S	sg g
vahele	vahe	le		S	sg all
      	vahele	0		D	
      	vahele	0		K	
piitsitanud	####				
ning	ning	0		J	
nõuab	nõud	b		V	b
200	200	0		N	?
rbl	rbl	0		Y	?
selle	see	0		P	sg g
     	sell	e		S	pl p
löömise	löömine	0		S	sg g
eest	eest	0		D	
    	eest	0		K	
    	esi	st		S	sg el
ja	ja	0		J	
olevat	ole	vat		V	vat
      	olev	t		A	sg p
      	olev	t		S	sg p
tunnistaja	tunnistaja	0		S	sg g
          	tunnistaja	0		S	sg n
Peeter	Peeter	0		H	sg n
tema	tema	0		P	sg g
    	tema	0		P	sg n
ja	ja	0		J	
Karl	Karl	0		H	sg n
Sokk	sokk	0		S	sg n
.	.			Z	
Johann	Johann	0		H	sg n
Lang	lang	0		S	sg n
ei	ei	0		D	
  	ei	0		V	neg
ole	ole	0		V	o
täna	täna	0		D	
    	täna	0		V	o
tulnud	tul=nud	0		A	
      	tul=nud	0		A	sg n
      	tul=nud	d		A	pl n
      	tule	nud		V	nud
      	tulnu	d		S	pl n
.	.			Z	
tunnistaja	tunnistaja	0		S	sg g
          	tunnistaja	0		S	sg n
Peeter	Peeter	0		H	sg n
tema	tema	0		P	sg g
    	tema	0		P	sg n
ütles	ütle	s		V	s
välja	välja	0		D	
     	välja	0		V	o
     	väli	0		S	adt
     	väli	0		S	sg g
     	väli	0		S	sg p
et	et	0		J	
Johann	Johann	0		H	sg n
Lang	lang	0		S	sg n
ütles	ütle	s		V	s
et	et	0		J	
sinna	sinna	0		D	
oled	ole	d		V	d
vana	vana	0		A	sg g
    	vana	0		A	sg n
    	vana	0		A	sg p
    	vana	0		S	sg g
    	vana	0		S	sg n
    	vana	0		S	sg p
arro	####				
emis	emis	0		S	sg n
sinnol	####				
on	ole	0		V	b
  	ole	0		V	vad
suur	suur	0		A	sg n
sukka	sukk	0		S	adt
     	suga	0		S	adt
     	sukk	0		S	sg p
seljan	####				
ning	ning	0		J	
ei	ei	0		D	
  	ei	0		V	neg
maksa	maks	0		S	adt
     	maks	0		S	sg g
     	maks	0		V	o
     	maks	0		S	sg p
minu	mina	0		P	sg g
raha	raha	0		S	sg g
    	raha	0		S	sg n
    	raha	0		S	sg p
ära	ära	0		D	
   	ära	0		V	neg o
ning	ning	0		J	
Tanel	Tanel	0		H	sg n
Hamk	####				
ütles	ütle	s		V	s
jälle	jälle	0		D	
et	et	0		J	
sinna	sinna	0		D	
oled	ole	d		V	d
karum	####				
siis	siis	0		D	
    	siis	0		J	
tõstist	####				
Johann	Johann	0		H	sg n
Lang	lang	0		S	sg n
käe	käsi	0		S	sg g
üles	üles	0		D	
ja	ja	0		J	
lõi	loo	i		V	s
   	löö	i		V	s
rusikaga	rusikas	ga		S	sg kom
päha	####				
nõnda	nõnda	0		D	
et	et	0		J	
Tanel	Tanel	0		H	sg n
Hamk	####				
ukse	uks	0		S	sg g
peale	pea	le		S	sg all
     	peale	0		D	
     	peale	0		K	
kätte	kätte	0		K	
     	käsi	tte		S	adt
ning	ning	0		J	
Johann	Johann	0		H	sg n
Lang	lang	0		S	sg n
piitsitas	piit_sitt	s		A	sg in
         	piit_sitt	s		S	sg in
veel	veel	0		D	
    	vesi	l		S	sg ad
Tanel	Tanel	0		H	sg n
kiha	kiha	0		S	sg g
    	kiha	0		V	o
    	kiha	0		S	sg n
    	kiha	0		S	sg p
pead	pea	d		S	pl n
    	pida	d		V	d
    	pea	d		S	sg p
ukse	uks	0		S	sg g
vahele	vahe	le		S	sg all
      	vahele	0		D	
      	vahele	0		K	
.	.			Z	
Karl	Karl	0		H	sg n
Sokk	sokk	0		S	sg n
tunnistas	tunnista	s		V	s
ka	ka	0		D	
niisama	nii_sama	0		D	
.	.			Z	
otsus	otsus	0		S	sg n
:	:			Z	
Johann	Johann	0		H	sg n
Lang	lang	0		S	sg n
ette	ette	0		D	
    	ette	0		K	
    	esi	tte		S	adt
kutsuda	kutsu	da		V	da
.	.			Z	
peakohtumees	pea_kohtu_mees	0		S	sg n
kohtumees	kohtu_mees	0		S	sg n
kohtumees	kohtu_mees	0		S	sg n
kirjutaja	kirjutaja	0		S	sg g
         	kirjutaja	0		S	sg n
Jõgeva	Jõgeva	0		H	sg g
      	Jõgeva	0		H	sg n
      	jõgeva	0		G	
