Peetri	Peeter	0		H	sg g
      	Peetri	0		H	sg g
      	Peetri	0		H	sg n
Liblik	####				
tuli	tuli	0		S	sg n
    	tule	i		V	s
ette	ette	0		D	
    	ette	0		K	
    	esi	tte		S	adt
kaebas	kaeba	s		V	s
:	:			Z	
et	et	0		J	
Juhan	Juhan	0		H	sg n
Seeme	seeme	0		S	sg n
tema	tema	0		P	sg g
    	tema	0		P	sg n
isa	isa	0		S	sg g
   	isa	0		S	sg n
   	isa	0		S	sg p
ehitatud	ehita	tud		V	tud
        	ehitatu	d		S	pl n
        	ehitatud	0		A	
        	ehitatud	0		A	sg n
        	ehitatud	d		A	pl n
kodapooliko	####				
maja	maja	0		S	sg g
    	maja	0		S	sg n
    	maja	0		S	sg p
tema	tema	0		P	sg g
    	tema	0		P	sg n
käest	käest	0		K	
     	käsi	st		S	sg el
ära	ära	0		D	
   	ära	0		V	neg o
võttab	####				
.	.			Z	
et	et	0		J	
see	see	0		P	sg n
maja	maja	0		S	sg g
    	maja	0		S	sg n
    	maja	0		S	sg p
Peetri	Peeter	0		H	sg g
      	Peetri	0		H	sg g
      	Peetri	0		H	sg n
Kantsleri	kantsler	0		S	sg g
tunnistuse	tunnistus	0		S	sg g
perra	####				
,	,			Z	
nii	nii	0		D	
kui	kui	0		D	
   	kui	0		J	
mesilasel	mesilane	l		S	sg ad
olevat	ole	vat		V	vat
      	olev	t		A	sg p
      	olev	t		S	sg p
sealt	sealt	0		D	
     	siga	lt		A	sg abl
     	siga	lt		S	sg abl
ja	ja	0		J	
talt	tema	lt		P	sg abl
nimelt	nimelt	0		D	
      	nimi	lt		S	sg abl
suurem	suurem	0		C	sg n
otsa	ots	0		S	adt
    	ots	0		S	sg g
    	otsa	0		D	
    	otsa	0		K	
    	otsa	0		V	o
    	ots	0		S	sg p
Sereste	####				
metsast	mets	st		S	sg el
       	metsane	t		A	sg p
varastatud	varasta	tud		V	tud
          	varastatu	d		S	pl n
          	varastatud	0		A	
          	varastatud	0		A	sg n
          	varastatud	d		A	pl n
,	,			Z	
kelle	kes	0		P	pl g
     	kes	0		P	sg g
est	####				
ta	tema	0		P	sg g
  	tema	0		P	sg n
ka	ka	0		D	
oma	oma	0		A	sg g
   	oma	0		D	
   	oma	0		P	sg g
   	oma	0		S	sg g
   	oma	0		V	o
   	oma	0		A	sg n
   	oma	0		A	sg p
   	oma	0		P	sg n
   	oma	0		P	sg p
   	oma	0		S	sg n
   	oma	0		S	sg p
trahvi	trahv	0		S	adt
      	trahv	0		S	sg g
      	trahvi	0		V	o
      	trahv	0		S	sg p
kannud	kann	d		S	pl n
olevat	ole	vat		V	vat
      	olev	t		A	sg p
      	olev	t		S	sg p
,	,			Z	
ei	ei	0		D	
  	ei	0		V	neg
või	või	0		S	sg g
   	või	0		V	o
   	või	0		D	
   	või	0		J	
   	või	0		S	sg n
kogukonna	kogukond	0		S	sg g
kohus	kohu	s		V	s
     	kohus	0		S	sg n
mitte	mitte	0		D	
ilma	ilm	0		S	adt
    	ilm	0		S	sg g
    	ilma	0		D	
    	ilma	0		K	
    	ilm	0		S	sg p
Juhanile	Juhan	le		H	sg all
ära	ära	0		D	
   	ära	0		V	neg o
lubada	luba	da		V	da
,	,			Z	
ega	ega	0		D	
   	ega	0		J	
mõisteti	mõist	ti		V	ti
:	:			Z	
Juhan	Juhan	0		H	sg n
peab	pida	b		V	b
talle	tall	e		S	pl p
     	tall	0		S	adt
     	tall	0		S	sg g
     	tema	lle		P	sg all
     	tall	0		S	sg p
kolmkümment	####				
5	5	0		N	?
rub	####				
hobu	hobu	0		S	sg g
    	hobu	0		S	sg n
    	hobu	0		S	sg p
maksma	maks	ma		V	ma
,	,			Z	
ja	ja	0		J	
mis	mis	0		P	pl n
   	mis	0		P	sg n
rauda	raud	0		S	adt
     	raud	0		S	sg p
man	man	0		D	
   	man	0		K	
on	ole	0		V	b
  	ole	0		V	vad
peale	pea	le		S	sg all
     	peale	0		D	
     	peale	0		K	
see	see	0		P	sg n
võtku	võt	ku		V	gu
ära	ära	0		D	
   	ära	0		V	neg o
ehk	ehk	0		D	
   	ehk	0		J	
kolep	####				
enda	ise	0		P	sg g
vahel	vahe	l		S	sg ad
     	vahel	0		D	
     	vahel	0		K	
.	.			Z	
kui	kui	0		D	
   	kui	0		J	
seda	see	da		P	sg p
ei	ei	0		D	
  	ei	0		V	neg
maksa	maks	0		S	adt
     	maks	0		S	sg g
     	maks	0		V	o
     	maks	0		S	sg p
siis	siis	0		D	
    	siis	0		J	
või	või	0		S	sg g
   	või	0		V	o
   	või	0		D	
   	või	0		J	
   	või	0		S	sg n
peetri	####				
oma	oma	0		A	sg g
   	oma	0		D	
   	oma	0		P	sg g
   	oma	0		S	sg g
   	oma	0		V	o
   	oma	0		A	sg n
   	oma	0		A	sg p
   	oma	0		P	sg n
   	oma	0		P	sg p
   	oma	0		S	sg n
   	oma	0		S	sg p
majja	maja	0		S	adt
müüa	müü	a		V	da
kelle	kes	0		P	pl g
     	kes	0		P	sg g
ta	tema	0		P	sg g
  	tema	0		P	sg n
ise	ise	0		A	
   	ise	0		D	
   	ise	0		P	pl n
   	ise	0		P	sg n
sa	sina	0		P	sg n
saab	saa	b		V	b
.	.			Z	
