Isak	####				
Malla	####				
ent	ent	0		J	
selle	see	0		P	sg g
     	sell	e		S	pl p
kohtu	kohtu	0		V	o
     	kohus	0		S	sg g
ees	ees	0		D	
   	ees	0		K	
   	esi	s		S	sg in
üles	üles	0		D	
et	et	0		J	
temal	tema	l		P	sg ad
Isak	####				
Reile	####				
käest	käest	0		K	
     	käsi	st		S	sg el
saada	saa	da		V	da
     	saat	0		V	o
     	saa	da		V	ta
on	ole	0		V	b
  	ole	0		V	vad
10	10	0		N	?
R	R	0		Y	?
.	.			Z	
hõb	####				
.	.			Z	
Isak	####				
Reile	####				
tunnist	tund	st		S	sg el
       	tunnine	t		A	sg p
et	et	0		J	
see	see	0		P	sg n
õige	õige	0		A	sg g
    	õige	0		A	sg n
    	õige	0		D	
on	ole	0		V	b
  	ole	0		V	vad
et	et	0		J	
tema	tema	0		P	sg g
    	tema	0		P	sg n
Isak	####				
Malla	####				
käest	käest	0		K	
     	käsi	st		S	sg el
on	ole	0		V	b
  	ole	0		V	vad
20	20	0		N	?
R	R	0		Y	?
.	.			Z	
hõb	####				
.	.			Z	
võlgu	võlg	u		S	pl p
     	võlgu	0		D	
võtnud	võt	nud		V	nud
      	võt=nu	d		S	pl n
      	võt=nud	0		A	
      	võt=nud	0		A	sg n
      	võt=nud	d		A	pl n
,	,			Z	
ning	ning	0		J	
olevat	ole	vat		V	vat
      	olev	t		A	sg p
      	olev	t		S	sg p
üleültse	####				
need	see	d		P	pl n
20	20	0		N	?
R	R	0		Y	?
.	.			Z	
hõb	####				
.	.			Z	
ära	ära	0		D	
   	ära	0		V	neg o
maksnud	maks	nud		V	nud
       	maks=nu	d		S	pl n
       	maks=nud	0		A	
       	maks=nud	0		A	sg n
       	maks=nud	d		A	pl n
,	,			Z	
ja	ja	0		J	
nimelt	nimelt	0		D	
      	nimi	lt		S	sg abl
olevat	ole	vat		V	vat
      	olev	t		A	sg p
      	olev	t		S	sg p
tema	tema	0		P	sg g
    	tema	0		P	sg n
2	2	0		N	?
kümnerublist	####				
paperit	####				
andnud	and	nud		V	nud
      	and=nu	d		S	pl n
      	and=nud	0		A	
      	and=nud	0		A	sg n
      	and=nud	d		A	pl n
.	.			Z	
Isak	####				
Malla	####				
tunnist	tund	st		S	sg el
       	tunnine	t		A	sg p
et	et	0		J	
tema	tema	0		P	sg g
    	tema	0		P	sg n
ennegi	ennegi	0		D	
Isak	####				
Reile	####				
käest	käest	0		K	
     	käsi	st		S	sg el
on	ole	0		V	b
  	ole	0		V	vad
oma	oma	0		A	sg g
   	oma	0		D	
   	oma	0		P	sg g
   	oma	0		S	sg g
   	oma	0		V	o
   	oma	0		A	sg n
   	oma	0		A	sg p
   	oma	0		P	sg n
   	oma	0		P	sg p
   	oma	0		S	sg n
   	oma	0		S	sg p
_võllatasumise	####				
peale	pea	le		S	sg all
     	peale	0		D	
     	peale	0		K	
10	10	0		N	?
R	R	0		Y	?
.	.			Z	
hõb	####				
.	.			Z	
kätte	kätte	0		K	
     	käsi	tte		S	adt
saanud	saa	nud		V	nud
      	saa=nud	0		A	
      	saa=nud	0		A	sg n
      	saa=nud	d		A	pl n
      	saanu	d		S	pl n
.	.			Z	
otsus	otsus	0		S	sg n
nida	####				
kui	kui	0		D	
   	kui	0		J	
Isak	####				
Reile	####				
ise	ise	0		A	
   	ise	0		D	
   	ise	0		P	pl n
   	ise	0		P	sg n
tunnist	tund	st		S	sg el
       	tunnine	t		A	sg p
et	et	0		J	
tema	tema	0		P	sg g
    	tema	0		P	sg n
Isak	####				
Malla	####				
käest	käest	0		K	
     	käsi	st		S	sg el
on	ole	0		V	b
  	ole	0		V	vad
20	20	0		N	?
R	R	0		Y	?
.	.			Z	
hõb	####				
.	.			Z	
võlgu	võlg	u		S	pl p
     	võlgu	0		D	
võtnud	võt	nud		V	nud
      	võt=nu	d		S	pl n
      	võt=nud	0		A	
      	võt=nud	0		A	sg n
      	võt=nud	d		A	pl n
,	,			Z	
ja	ja	0		J	
tunnistust	tunnistus	t		S	sg p
ei	ei	0		D	
  	ei	0		V	neg
ole	ole	0		V	o
,	,			Z	
et	et	0		J	
tema	tema	0		P	sg g
    	tema	0		P	sg n
20	20	0		N	?
R	R	0		Y	?
.	.			Z	
hõb	####				
.	.			Z	
on	ole	0		V	b
  	ole	0		V	vad
ära	ära	0		D	
   	ära	0		V	neg o
maksu	maks	0		S	adt
     	maks	0		S	sg g
     	maks	u		S	pl p
     	maks	0		S	sg p
,	,			Z	
ning	ning	0		J	
Isak	####				
Malla	####				
tunnist	tund	st		S	sg el
       	tunnine	t		A	sg p
et	et	0		J	
tema	tema	0		P	sg g
    	tema	0		P	sg n
ennegi	ennegi	0		D	
10	10	0		N	?
R	R	0		Y	?
.	.			Z	
hõb	####				
.	.			Z	
on	ole	0		V	b
  	ole	0		V	vad
kätte	kätte	0		K	
     	käsi	tte		S	adt
saanud	saa	nud		V	nud
      	saa=nud	0		A	
      	saa=nud	0		A	sg n
      	saa=nud	d		A	pl n
      	saanu	d		S	pl n
,	,			Z	
sai	saa	i		V	s
   	sai	0		S	sg n
mõistetud	mõist	tud		V	tud
         	mõiste=tu	d		S	pl n
         	mõiste=tud	0		A	
         	mõiste=tud	0		A	sg n
         	mõiste=tud	d		A	pl n
et	et	0		J	
Isak	####				
Reile	####				
need	see	d		P	pl n
10	10	0		N	?
R	R	0		Y	?
.	.			Z	
hõb	####				
Isak	####				
Malle	Mall	0		H	adt
     	Mall	0		H	sg g
     	Malle	0		H	sg g
     	mall	e		S	pl p
     	Mall	0		H	sg p
     	Malle	0		H	sg n
pead	pea	d		S	pl n
    	pida	d		V	d
    	pea	d		S	sg p
veel	veel	0		D	
    	vesi	l		S	sg ad
maksma	maks	ma		V	ma
.	.			Z	
uva	####				
Verlangen	####				
se	####				
Isak	####				
Reile	####				
verd	veri	0		S	sg p
ihren	####				
rindusch	####				
gestahet	####				
:	:			Z	
das	####				
er	####				
seine	####				
Klagi	####				
be	####				
neine	####				
keiserlihkel	keiser_lihe	l		S	sg ad
kirspichelgechteri	####				
VII	vii	0		V	o
   	vii	0		O	?
Petseerks	####				
Dörptšen	####				
Kreiseks	####				
,	,			Z	
peetriv	####				
seiner	seiner	0		S	sg n
Untsufedenriheit	####				
teise	teine	0		O	adt
     	teine	0		O	sg g
     	teine	0		P	adt
     	teine	0		P	sg g
esiti	esiti	0		D	
Geemnetegerichtlihkel	####				
Urheist	####				
travorgen	####				
kann	kann	0		S	sg n
.	.			Z	
alt	alt	0		S	sg n
   	alt	0		D	
   	alt	0		K	
Antsin	####				
11te	####				
märts	märts	0		S	sg n
52.18	52.18	0		N	?
Gem	####				
.	.			Z	
Ger	####				
.	.			Z	
Vooritseri	####				
Samul	####				
Zimmer	####				
[	[			Z	
XXX	XXX	0		O	?
   	XXX	0		Y	?
]	]			Z	
