Protokoll	protokoll	0		S	sg n
N 25	N25	0		Y	?
manud	####				
1888	1888	0		N	?
a.	a	0		Y	?
tunnistaja	tunnistaja	0		S	sg g
          	tunnistaja	0		S	sg n
Jakob	Jakob	0		H	sg n
Raag	raag	0		S	sg n
60	60	0		N	?
a.	a	0		Y	?
v	v	0		Y	?
.	.			Z	
L	L	0		O	?
 	L	0		Y	?
.	.			Z	
usku	usk	0		S	adt
    	usk	0		S	sg p
tunnist	tund	st		S	sg el
       	tunnine	t		A	sg p
,	,			Z	
et	et	0		J	
mineva	minev	0		A	sg g
suve	suvi	0		S	sg g
    	suvi	0		S	sg p
1887	1887	0		N	?
a.	a	0		Y	?
Jaan	Jaan	0		H	sg n
    	jaan	0		S	sg n
    	jaan	0		Y	?
Mihkelsoni	mihkel_soni	0		S	sg g
          	mihkel_soni	0		S	sg n
          	mihkel_soni	0		S	sg p
oma	oma	0		A	sg g
   	oma	0		D	
   	oma	0		P	sg g
   	oma	0		S	sg g
   	oma	0		V	o
   	oma	0		A	sg n
   	oma	0		A	sg p
   	oma	0		P	sg n
   	oma	0		P	sg p
   	oma	0		S	sg n
   	oma	0		S	sg p
kari	kari	0		S	sg g
    	kari	0		S	sg n
    	kari	0		S	sg p
tema	tema	0		P	sg g
    	tema	0		P	sg n
oman	oma	n		V	n
kaera	kaer	0		S	adt
     	kaer	0		S	sg g
     	kaer	0		S	sg p
olnud	ol=nud	0		A	
     	ol=nud	0		A	sg n
     	ol=nud	d		A	pl n
     	ole	nud		V	nud
     	olnu	d		S	pl n
.	.			Z	
tunnistaja	tunnistaja	0		S	sg g
          	tunnistaja	0		S	sg n
Peeter	Peeter	0		H	sg n
Räim	räim	0		S	sg n
30	30	0		N	?
a.	a	0		Y	?
v	v	0		Y	?
.	.			Z	
Lutteri	####				
usku	usk	0		S	adt
    	usk	0		S	sg p
tunnist	tund	st		S	sg el
       	tunnine	t		A	sg p
,	,			Z	
et	et	0		J	
tema	tema	0		P	sg g
    	tema	0		P	sg n
Jaan	Jaan	0		H	sg n
    	jaan	0		S	sg n
    	jaan	0		Y	?
Mihkelsoni	mihkel_soni	0		S	sg g
          	mihkel_soni	0		S	sg n
          	mihkel_soni	0		S	sg p
vilja	vili	0		S	adt
     	vili	0		S	sg g
     	vili	0		S	sg p
söötmisest	söötmine	st		S	sg el
midagi	miski	dagi		P	sg p
ei	ei	0		D	
  	ei	0		V	neg
teadvat	tead	vat		V	vat
       	teadev	t		A	sg p
.	.			Z	
tunnistaja	tunnistaja	0		S	sg g
          	tunnistaja	0		S	sg n
Losi	####				
vallast	vald	st		S	sg el
Johan	Johan	0		H	sg n
Kändra	####				
38	38	0		N	?
a.	a	0		Y	?
vana	vana	0		A	sg g
    	vana	0		A	sg n
    	vana	0		A	sg p
    	vana	0		S	sg g
    	vana	0		S	sg n
    	vana	0		S	sg p
Lutteri	####				
usku	usk	0		S	adt
    	usk	0		S	sg p
tunnist	tund	st		S	sg el
       	tunnine	t		A	sg p
,	,			Z	
et	et	0		J	
tema	tema	0		P	sg g
    	tema	0		P	sg n
olevat	ole	vat		V	vat
      	olev	t		A	sg p
      	olev	t		S	sg p
näinud	näi	nud		V	nud
      	näge	nud		V	nud
      	näi=nud	0		A	
      	näi=nud	0		A	sg n
      	näi=nud	d		A	pl n
      	näinu	d		S	pl n
,	,			Z	
et	et	0		J	
Jaan	Jaan	0		H	sg n
    	jaan	0		S	sg n
    	jaan	0		Y	?
Mihkelsoni	mihkel_soni	0		S	sg g
          	mihkel_soni	0		S	sg n
          	mihkel_soni	0		S	sg p
suvi	suvi	0		S	sg n
rukki	rukis	0		S	adt
     	rukis	0		S	sg g
veeres	veer	s		S	sg in
      	veere	s		V	s
      	veere	s		S	sg in
      	veeres	0		K	
olnud	ol=nud	0		A	
     	ol=nud	0		A	sg n
     	ol=nud	d		A	pl n
     	ole	nud		V	nud
     	olnu	d		S	pl n
üks	üks	0		N	sg n
   	üks	0		P	sg n
kari	kari	0		S	sg g
    	kari	0		S	sg n
    	kari	0		S	sg p
ja	ja	0		J	
sellest	see	st		P	sg el
karjast	kari	st		S	sg el
       	karjane	t		S	sg p
läinud	läinu	d		S	pl n
      	läinud	0		A	
      	läinud	0		A	sg n
      	läinud	d		A	pl n
      	mine	nud		V	nud
3	3	0		N	?
siga	siga	0		A	sg n
    	siga	0		A	sg p
    	siga	0		S	sg n
    	siga	0		S	sg p
läbi	läbi	0		D	
    	läbi	0		K	
    	läbi	0		V	o
Mihkelsoni	mihkel_soni	0		S	sg g
          	mihkel_soni	0		S	sg n
          	mihkel_soni	0		S	sg p
rukki	rukis	0		S	adt
     	rukis	0		S	sg g
niidu	niit	0		S	sg g
peale	pea	le		S	sg all
     	peale	0		D	
     	peale	0		K	
,	,			Z	
ilma	ilm	0		S	adt
    	ilm	0		S	sg g
    	ilma	0		D	
    	ilma	0		K	
    	ilm	0		S	sg p
et	et	0		J	
oleks	ole	ks		V	ks
rukki	rukis	0		S	adt
     	rukis	0		S	sg g
peal	pea	l		S	sg ad
    	peal	0		D	
    	peal	0		K	
kahju	kahi	0		S	adt
     	kahi	0		S	sg g
     	kahi	0		S	sg p
     	kahju	0		S	sg g
     	kahju	0		S	sg n
     	kahju	0		S	sg p
teinud	tege	nud		V	nud
      	tei=nud	0		A	
      	tei=nud	0		A	sg n
      	tei=nud	d		A	pl n
      	teinu	d		S	pl n
,	,			Z	
_	_			Z	
karjas	kari	s		S	sg in
olnud	ol=nud	0		A	
     	ol=nud	0		A	sg n
     	ol=nud	d		A	pl n
     	ole	nud		V	nud
     	olnu	d		S	pl n
2	2	0		N	?
tütarlast	tütar_laps	t		S	sg p
.	.			Z	
üks	üks	0		N	sg n
   	üks	0		P	sg n
Siga	siga	0		A	sg n
    	siga	0		A	sg p
    	siga	0		S	sg n
    	siga	0		S	sg p
olnud	ol=nud	0		A	
     	ol=nud	0		A	sg n
     	ol=nud	d		A	pl n
     	ole	nud		V	nud
     	olnu	d		S	pl n
kiriv	####				
musta	must	0		A	adt
     	must	0		A	sg g
     	must	0		S	adt
     	must	0		S	sg g
     	musta	0		V	o
     	must	0		A	sg p
     	must	0		S	sg p
kirju	kirju	0		A	sg g
     	kirju	0		A	sg n
     	kiri	u		S	pl p
suur	suur	0		A	sg n
2	2	0		N	?
olnud	ol=nud	0		A	
     	ol=nud	0		A	sg n
     	ol=nud	d		A	pl n
     	ole	nud		V	nud
     	olnu	d		S	pl n
valge	valge	0		A	sg g
     	valge	0		A	sg n
     	valge	0		S	sg g
     	valge	0		S	sg n
vähema	vähem	0		C	sg g
,	,			Z	
kelle	kes	0		P	pl g
     	kes	0		P	sg g
karjast	kari	st		S	sg el
       	karjane	t		S	sg p
need	see	d		P	pl n
sea	sead	0		V	o
   	siga	0		A	sg g
   	siga	0		S	sg g
olnud	ol=nud	0		A	
     	ol=nud	0		A	sg n
     	ol=nud	d		A	pl n
     	ole	nud		V	nud
     	olnu	d		S	pl n
,	,			Z	
ei	ei	0		D	
  	ei	0		V	neg
teadvat	tead	vat		V	vat
       	teadev	t		A	sg p
tema	tema	0		P	sg g
    	tema	0		P	sg n
.	.			Z	
kohtumees	kohtu_mees	0		S	sg n
Peeter	Peeter	0		H	sg n
Sillaots	silla_ots	0		S	sg n
,	,			Z	
kes	kes	0		P	pl n
   	kes	0		P	sg n
kahju	kahi	0		S	adt
     	kahi	0		S	sg g
     	kahi	0		S	sg p
     	kahju	0		S	sg g
     	kahju	0		S	sg n
     	kahju	0		S	sg p
üle	üle	0		D	
   	üle	0		K	
kaenud	kae	nud		V	nud
      	kae=nu	d		S	pl n
      	kae=nud	0		A	
      	kae=nud	0		A	sg n
      	kae=nud	d		A	pl n
,	,			Z	
ütles	ütle	s		V	s
,	,			Z	
et	et	0		J	
Jaan	Jaan	0		H	sg n
    	jaan	0		S	sg n
    	jaan	0		Y	?
Mihkelsoni	mihkel_soni	0		S	sg g
          	mihkel_soni	0		S	sg n
          	mihkel_soni	0		S	sg p
kaera	kaer	0		S	adt
     	kaer	0		S	sg g
     	kaer	0		S	sg p
ja	ja	0		J	
rüga	rüga	0		V	o
olnud	ol=nud	0		A	
     	ol=nud	0		A	sg n
     	ol=nud	d		A	pl n
     	ole	nud		V	nud
     	olnu	d		S	pl n
osa	osa	0		S	sg g
   	osa	0		S	sg n
   	osa	0		S	sg p
söödetud	sööt	tud		V	tud
        	sööde=tu	d		S	pl n
        	sööde=tud	0		A	
        	sööde=tud	0		A	sg n
        	sööde=tud	d		A	pl n
olnud	ol=nud	0		A	
     	ol=nud	0		A	sg n
     	ol=nud	d		A	pl n
     	ole	nud		V	nud
     	olnu	d		S	pl n
kahju	kahi	0		S	adt
     	kahi	0		S	sg g
     	kahi	0		S	sg p
     	kahju	0		S	sg g
     	kahju	0		S	sg n
     	kahju	0		S	sg p
olnud	ol=nud	0		A	
     	ol=nud	0		A	sg n
     	ol=nud	d		A	pl n
     	ole	nud		V	nud
     	olnu	d		S	pl n
arvata	arva	ta		V	da
      	arva	ta		V	ta
      	arvata	0		D	
4	4	0		N	?
mõõdu	mõõt	0		S	sg g
kaeru	kaer	u		S	pl p
ja	ja	0		J	
2	2	0		N	?
mõõdu	mõõt	0		S	sg g
rüki	rükki	0		V	o
,	,			Z	
kelle	kes	0		P	pl g
     	kes	0		P	sg g
elaja	elajas	0		S	sg g
kahju	kahi	0		S	adt
     	kahi	0		S	sg g
     	kahi	0		S	sg p
     	kahju	0		S	sg g
     	kahju	0		S	sg n
     	kahju	0		S	sg p
teinud	tege	nud		V	nud
      	tei=nud	0		A	
      	tei=nud	0		A	sg n
      	tei=nud	d		A	pl n
      	teinu	d		S	pl n
,	,			Z	
ei	ei	0		D	
  	ei	0		V	neg
teadvat	tead	vat		V	vat
       	teadev	t		A	sg p
tema	tema	0		P	sg g
    	tema	0		P	sg n
.	.			Z	
otsus	otsus	0		S	sg n
:	:			Z	
Jaan	Jaan	0		H	sg n
    	jaan	0		S	sg n
    	jaan	0		Y	?
Mihkelsoni	mihkel_soni	0		S	sg g
          	mihkel_soni	0		S	sg n
          	mihkel_soni	0		S	sg p
kaebust	kaebus	t		S	sg p
puudud	puudu	d		V	d
tunnistuse	tunnistus	0		S	sg g
pärast	pära	st		S	sg el
      	pärane	t		A	sg p
      	pärast	0		D	
      	pärast	0		K	
tühjaks	tühi	ks		A	sg tr
arvata	arva	ta		V	da
      	arva	ta		V	ta
      	arvata	0		D	
ja	ja	0		J	
et	et	0		J	
ühtegi	ühte	0	gi	D	
      	üks	0	gi	N	adt
      	üks	0	gi	P	adt
      	ühe	0	gi	S	sg g
      	üks	0	gi	N	sg p
      	üks	0	gi	P	sg p
elajat	elajas	t		S	sg p
omast	oma	st		A	sg el
     	oma	st		P	sg el
     	oma	st		S	sg el
     	omane	t		A	sg p
viljast	vili	st		S	sg el
ei	ei	0		D	
  	ei	0		V	neg
ole	ole	0		V	o
pandnud	####				
.	.			Z	
see	see	0		P	sg n
kohtu	kohtu	0		V	o
     	kohus	0		S	sg g
otsus	otsus	0		S	sg n
on	ole	0		V	b
  	ole	0		V	vad
kuulutatud	kuuluta	tud		V	tud
          	kuuluta=tu	d		S	pl n
          	kuuluta=tud	0		A	
          	kuuluta=tud	0		A	sg n
          	kuuluta=tud	d		A	pl n
ja	ja	0		J	
§	§	0		Y	?
773	773	0		N	?
ja	ja	0		J	
774	774	0		N	?
T	T	0		Y	?
.	.			Z	
S	S	0		Y	?
.	.			Z	
1860	1860	0		N	?
a.	a	0		Y	?
äära	####				
seletatud	seleta	tud		V	tud
         	seleta=tu	d		S	pl n
         	seletatud	0		A	
         	seletatud	0		A	sg n
         	seletatud	d		A	pl n
.	.			Z	
peakohtumees	pea_kohtu_mees	0		S	sg n
:	:			Z	
J	J	0		Y	?
.	.			Z	
_	_			Z	
Kabist	####				
[	[			Z	
allkiri	all_kiri	0		S	sg n
]	]			Z	
kohtumees	kohtu_mees	0		S	sg n
:	:			Z	
P	P	0		Y	?
.	.			Z	
Sillaots	silla_ots	0		S	sg n
[	[			Z	
allkiri	all_kiri	0		S	sg n
]	]			Z	
""""	""""			Z	
P	P	0		Y	?
.	.			Z	
_	_			Z	
Klaas	klaas	0		S	sg n
[	[			Z	
allkiri	all_kiri	0		S	sg n
]	]			Z	
Jaan	Jaan	0		H	sg n
    	jaan	0		S	sg n
    	jaan	0		Y	?
Mihkelsonile	mihkel_soni	le		S	sg all
Ap	####				
.	.			Z	
25.	25.	0		O	?
Mail	Mai	l		H	sg ad
    	maa	il		S	pl ad
    	mai	l		S	sg ad
    	mail	0		S	sg n
1888	1888	0		N	?
välja	välja	0		D	
     	välja	0		V	o
     	väli	0		S	adt
     	väli	0		S	sg g
     	väli	0		S	sg p
antud	an=tu	d		S	pl n
     	and	tud		V	tud
     	antud	0		A	
     	antud	0		A	sg n
     	antud	d		A	pl n
.	.			Z	
