Võõpsust	####				
Potisepa	poti_sepp	0		S	sg g
meister	meister	0		S	sg n
Heendrichson	####				
tunnistas	tunnista	s		V	s
,	,			Z	
et	et	0		J	
Gustav	Gustav	0		H	sg n
Nikke	nikk	e		S	pl p
on	ole	0		V	b
  	ole	0		V	vad
ostnud	ost	nud		V	nud
      	ost=nu	d		S	pl n
      	ost=nud	0		A	
      	ost=nud	0		A	sg n
      	ost=nud	d		A	pl n
koera	koer	0		A	adt
     	koer	0		A	sg g
     	koer	0		S	adt
     	koer	0		S	sg g
     	koer	0		A	sg p
     	koer	0		S	sg p
Võõpsus	####				
Schurade	####				
käest	käest	0		K	
     	käsi	st		S	sg el
12	12	0		N	?
rubla	rubla	0		S	sg g
     	rubla	0		S	sg n
     	rubla	0		S	sg p
eest	eest	0		D	
    	eest	0		K	
    	esi	st		S	sg el
,	,			Z	
ja	ja	0		J	
et	et	0		J	
raha	raha	0		S	sg g
    	raha	0		S	sg n
    	raha	0		S	sg p
ühes	üks	s		N	sg in
    	üks	s		P	sg in
    	ühes	0		D	
    	ühes	0		K	
ei	ei	0		D	
  	ei	0		V	neg
ole	ole	0		V	o
olnud	ol=nud	0		A	
     	ol=nud	0		A	sg n
     	ol=nud	d		A	pl n
     	ole	nud		V	nud
     	olnu	d		S	pl n
,	,			Z	
on	ole	0		V	b
  	ole	0		V	vad
see	see	0		P	sg n
raha	raha	0		S	sg g
    	raha	0		S	sg n
    	raha	0		S	sg p
ühe	üks	0		N	sg g
   	üks	0		P	sg g
   	ühe	0		S	sg n
nädali	####				
peale	pea	le		S	sg all
     	peale	0		D	
     	peale	0		K	
võlgu	võlg	u		S	pl p
     	võlgu	0		D	
jäänud	jää	nud		V	nud
      	jäänu	d		S	pl n
      	jäänud	0		A	
      	jäänud	0		A	sg n
      	jäänud	d		A	pl n
,	,			Z	
ja	ja	0		J	
Nikke	nikk	e		S	pl p
on	ole	0		V	b
  	ole	0		V	vad
Schuratel	####				
ütelnud	ütle	nud		V	nud
       	ütel=nu	d		S	pl n
       	ütel=nud	0		A	
       	ütel=nud	0		A	sg n
       	ütel=nud	d		A	pl n
kui	kui	0		D	
   	kui	0		J	
Teie	sina	0		P	pl g
    	sina	0		P	pl n
ei	ei	0		D	
  	ei	0		V	neg
ussu	####				
minu	mina	0		P	sg g
siin	siin	0		D	
    	siin	0		S	sg n
on	ole	0		V	b
  	ole	0		V	vad
,	,			Z	
Heinrichson	####				
tunnistaja	tunnistaja	0		S	sg g
          	tunnistaja	0		S	sg n
kui	kui	0		D	
   	kui	0		J	
mina	mina	0		P	sg n
    	mina	0		S	sg g
    	mina	0		S	sg n
    	mina	0		S	sg p
üks	üks	0		N	sg n
   	üks	0		P	sg n
kord	kord	0		D	
    	kord	0		S	sg n
Võõpsusse	võõp_suss	e		S	pl p
tulles	tule	es		V	des
siis	siis	0		D	
    	siis	0		J	
teie	sina	0		P	pl g
    	sina	0		P	pl n
võite	või	te		V	te
     	võit	e		S	pl p
minu	mina	0		P	sg g
hall	hall	0		A	sg n
    	hall	0		S	sg n
ruun	ruun	0		S	sg n
eest	eest	0		D	
    	eest	0		K	
    	esi	st		S	sg el
vallale	vald	le		S	sg all
päästa	pääst	0		V	o
      	pääst	a		V	da
ja	ja	0		J	
ära	ära	0		D	
   	ära	0		V	neg o
võtta	võt	a		V	da
.	.			Z	
nii	nii	0		D	
sama	sama	0		P	sg g
    	sama	0		P	sg n
    	sama	0		P	sg p
tunnist	tund	st		S	sg el
       	tunnine	t		A	sg p
Friedrich	Friedrich	0		H	sg n
Veber	####				
ka	ka	0		D	
kõik	kõik	0		P	pl n
    	kõik	0		S	sg n
    	kõik	0		P	sg n
seda	see	da		P	sg p
pealt	pea	lt		S	sg abl
     	pealt	0		D	
     	pealt	0		K	
kuulu	kuuld	0		S	sg g
     	kuulu	0		V	o
.	.			Z	
