sel	see	l		P	sg ad
   	sel	0		Y	?
samal	sama	l		P	sg ad
peal	pea	l		S	sg ad
    	peal	0		D	
    	peal	0		K	
Mihkel	Mihkel	0		H	sg n
      	mihkel	0		A	sg n
      	mihkel	0		S	sg n
Holst	Holst	0		H	sg n
kaebas	kaeba	s		V	s
.	.			Z	
5	5	0		N	?
aastad	aasta	d		S	pl n
tagasi	tagasi	0		D	
      	tagasi	0		K	
võttis	võt	is		V	s
Anni	Ann	0		H	adt
    	Ann	0		H	sg g
    	Ann	0		H	sg p
    	and	0		S	sg g
    	Anni	0		H	sg g
    	Anni	0		H	sg n
Lipp	lipp	0		S	sg n
minu	mina	0		P	sg g
käest	käest	0		K	
     	käsi	st		S	sg el
2	2	0		N	?
naesterahva	####				
Kufti	####				
,	,			Z	
kelle	kes	0		P	pl g
     	kes	0		P	sg g
eest	eest	0		D	
    	eest	0		K	
    	esi	st		S	sg el
mina	mina	0		P	sg n
    	mina	0		S	sg g
    	mina	0		S	sg n
    	mina	0		S	sg p
50	50	0		N	?
kop	kop	0		Y	?
.	.			Z	
kokku	kokku	0		D	
     	kogu	0		S	adt
,	,			Z	
ning	ning	0		J	
kohus	kohu	s		V	s
     	kohus	0		S	sg n
palus	palu	s		S	sg in
     	palu	s		V	s
teda	tema	da		P	sg p
ette	ette	0		D	
    	ette	0		K	
    	esi	tte		S	adt
tallitada	####				
lasta	lask	ta		V	da
     	lask	ta		V	ta
.	.			Z	
jääb	jää	b		V	b
poolele	pool	le		N	sg all
       	pool	le		S	sg all
allkirjad	all_kiri	d		S	pl n
.	.			Z	
kirjutaja	kirjutaja	0		S	sg g
         	kirjutaja	0		S	sg n
A	A	0		Y	?
.	.			Z	
_	_			Z	
lerma	####				
