tuli	tuli	0		S	sg n
    	tule	i		V	s
ette	ette	0		D	
    	ette	0		K	
    	esi	tte		S	adt
Kristjan	Kristjan	0		H	sg n
kübar	kübar	0		S	sg n
ning	ning	0		J	
tunnist	tund	st		S	sg el
       	tunnine	t		A	sg p
et	et	0		J	
Jakob	Jakob	0		H	sg n
Parson	####				
on	ole	0		V	b
  	ole	0		V	vad
temal	tema	l		P	sg ad
ütelnud	ütle	nud		V	nud
       	ütel=nu	d		S	pl n
       	ütel=nud	0		A	
       	ütel=nud	0		A	sg n
       	ütel=nud	d		A	pl n
et	et	0		J	
August	august	0		S	sg n
      	auk	st		S	sg el
      	August	0		H	sg n
Anderson	####				
tahab	taht	b		V	b
minu	mina	0		P	sg g
käest	käest	0		K	
     	käsi	st		S	sg el
kamaaskit	####				
osta	ost	0		V	o
    	ost	a		V	da
ja	ja	0		J	
pakkub	####				
4	4	0		N	?
rbl	rbl	0		Y	?
.	.			Z	
50	50	0		N	?
kop	kop	0		Y	?
.	.			Z	
ja	ja	0		J	
1	1	0		N	?
kirves	kirves	0		S	sg n
      	kirves	s		S	sg in
ehk	ehk	0		D	
   	ehk	0		J	
ühe	üks	0		N	sg g
   	üks	0		P	sg g
   	ühe	0		S	sg n
siraha	####				
ja	ja	0		J	
siis	siis	0		D	
    	siis	0		J	
on	ole	0		V	b
  	ole	0		V	vad
tema	tema	0		P	sg g
    	tema	0		P	sg n
(	(			Z	
Kübar	kübar	0		S	sg n
)	)			Z	
ütelnud	ütle	nud		V	nud
       	ütel=nu	d		S	pl n
       	ütel=nud	0		A	
       	ütel=nud	0		A	sg n
       	ütel=nud	d		A	pl n
et	et	0		J	
müü	müü	0		V	o
äraa	####				
ja	ja	0		J	
siis	siis	0		D	
    	siis	0		J	
on	ole	0		V	b
  	ole	0		V	vad
teist	sina	st		P	pl el
     	tee	ist		S	pl el
     	teist	0		D	
     	teine	t		O	sg p
     	teine	t		P	sg p
kord	kord	0		D	
    	kord	0		S	sg n
Jakob	Jakob	0		H	sg n
Parson	####				
jälle	jälle	0		D	
tulnud	tul=nud	0		A	
      	tul=nud	0		A	sg n
      	tul=nud	d		A	pl n
      	tule	nud		V	nud
      	tulnu	d		S	pl n
ja	ja	0		J	
on	ole	0		V	b
  	ole	0		V	vad
August	august	0		S	sg n
      	auk	st		S	sg el
      	August	0		H	sg n
Anderson	####				
käest	käest	0		K	
     	käsi	st		S	sg el
neid	neid	0		S	sg n
    	see	d		P	pl p
    	tema	d		P	pl p
aeri	####				
küsinud	küsi	nud		V	nud
       	küsi=nu	d		S	pl n
       	küsi=nud	0		A	
       	küsi=nud	0		A	sg n
       	küsi=nud	d		A	pl n
,	,			Z	
ja	ja	0		J	
August	august	0		S	sg n
      	auk	st		S	sg el
      	August	0		H	sg n
Anderson	####				
on	ole	0		V	b
  	ole	0		V	vad
juhatanud	juhata	nud		V	nud
         	juhata=nu	d		S	pl n
         	juhata=nud	0		A	
         	juhata=nud	0		A	sg n
         	juhata=nud	d		A	pl n
et	et	0		J	
rukki	rukis	0		S	adt
     	rukis	0		S	sg g
sees	sees	0		D	
    	sees	0		K	
kivi	kivi	0		S	sg g
    	kivi	0		S	sg n
    	kivi	0		S	sg p
man	man	0		D	
   	man	0		K	
on	ole	0		V	b
  	ole	0		V	vad
,	,			Z	
ja	ja	0		J	
siis	siis	0		D	
    	siis	0		J	
on	ole	0		V	b
  	ole	0		V	vad
Jakob	Jakob	0		H	sg n
Parson	####				
seda	see	da		P	sg p
Kristjan	Kristjan	0		H	sg n
Kübaril	####				
ära	ära	0		D	
   	ära	0		V	neg o
kõnelnud	kõnel=nu	d		S	pl n
        	kõnel=nud	0		A	
        	kõnel=nud	0		A	sg n
        	kõnel=nud	d		A	pl n
        	kõnele	nud		V	nud
et	et	0		J	
nüüd	nüüd	0		D	
lähemi	####				
aeri	####				
otsima	otsi	ma		V	ma
,	,			Z	
ja	ja	0		J	
siis	siis	0		D	
    	siis	0		J	
on	ole	0		V	b
  	ole	0		V	vad
Peeter	Peeter	0		H	sg n
Kübar	kübar	0		S	sg n
rukki	rukis	0		S	adt
     	rukis	0		S	sg g
sisse	siss	e		S	pl p
     	sisse	0		D	
     	sisse	0		K	
ette	ette	0		D	
    	ette	0		K	
    	esi	tte		S	adt
läinud	läinu	d		S	pl n
      	läinud	0		A	
      	läinud	0		A	sg n
      	läinud	d		A	pl n
      	mine	nud		V	nud
,	,			Z	
selle	see	0		P	sg g
     	sell	e		S	pl p
et	et	0		J	
rüga	rüga	0		V	o
on	ole	0		V	b
  	ole	0		V	vad
enne	enne	0		D	
    	enne	0		K	
    	enne	0		S	sg n
ära	ära	0		D	
   	ära	0		V	neg o
sõkud	####				
olnud	ol=nud	0		A	
     	ol=nud	0		A	sg n
     	ol=nud	d		A	pl n
     	ole	nud		V	nud
     	olnu	d		S	pl n
,	,			Z	
ja	ja	0		J	
siis	siis	0		D	
    	siis	0		J	
on	ole	0		V	b
  	ole	0		V	vad
August	august	0		S	sg n
      	auk	st		S	sg el
      	August	0		H	sg n
Anderson	####				
Jakob	Jakob	0		H	sg n
Parsoniga	####				
sinna	sinna	0		D	
kivi	kivi	0		S	sg g
    	kivi	0		S	sg n
    	kivi	0		S	sg p
manu	manu	0		D	
    	manu	0		K	
läinud	läinu	d		S	pl n
      	läinud	0		A	
      	läinud	0		A	sg n
      	läinud	d		A	pl n
      	mine	nud		V	nud
ja	ja	0		J	
on	ole	0		V	b
  	ole	0		V	vad
August	august	0		S	sg n
      	auk	st		S	sg el
      	August	0		H	sg n
Anderson	####				
need	see	d		P	pl n
eraha	####				
Jakob	Jakob	0		H	sg n
Parson	####				
kätte	kätte	0		K	
     	käsi	tte		S	adt
andnud	and	nud		V	nud
      	and=nu	d		S	pl n
      	and=nud	0		A	
      	and=nud	0		A	sg n
      	and=nud	d		A	pl n
,	,			Z	
ja	ja	0		J	
see	see	0		P	sg n
olevat	ole	vat		V	vat
      	olev	t		A	sg p
      	olev	t		S	sg p
ütelnud	ütle	nud		V	nud
       	ütel=nu	d		S	pl n
       	ütel=nud	0		A	
       	ütel=nud	0		A	sg n
       	ütel=nud	d		A	pl n
et	et	0		J	
nee	####				
oma	oma	0		A	sg g
   	oma	0		D	
   	oma	0		P	sg g
   	oma	0		S	sg g
   	oma	0		V	o
   	oma	0		A	sg n
   	oma	0		A	sg p
   	oma	0		P	sg n
   	oma	0		P	sg p
   	oma	0		S	sg n
   	oma	0		S	sg p
veikese	####				
ja	ja	0		J	
on	ole	0		V	b
  	ole	0		V	vad
kivi	kivi	0		S	sg g
    	kivi	0		S	sg n
    	kivi	0		S	sg p
vastu	vastu	0		D	
     	vastu	0		K	
neid	neid	0		S	sg n
    	see	d		P	pl p
    	tema	d		P	pl p
aeri	####				
löönud	löö	nud		V	nud
      	löö=nu	d		S	pl n
      	löö=nud	0		A	
      	löö=nud	0		A	sg n
      	löö=nud	d		A	pl n
et	et	0		J	
ruste	####				
küljest	külg	st		S	sg el
       	küljest	0		D	
       	küljest	0		K	
läheks	mine	ks		V	ks
,	,			Z	
ja	ja	0		J	
siis	siis	0		D	
    	siis	0		J	
on	ole	0		V	b
  	ole	0		V	vad
August	august	0		S	sg n
      	auk	st		S	sg el
      	August	0		H	sg n
Anderson	####				
suuremaid	suurem	id		C	pl p
aeri	####				
lubanud	luba	nud		V	nud
       	luba=nu	d		S	pl n
       	luba=nud	0		A	
       	luba=nud	0		A	sg n
       	luba=nud	d		A	pl n
anda	and	a		V	da
,	,			Z	
ja	ja	0		J	
siis	siis	0		D	
    	siis	0		J	
on	ole	0		V	b
  	ole	0		V	vad
Peeter	Peeter	0		H	sg n
Kübar	kübar	0		S	sg n
rukkist	rukkine	t		A	sg p
       	rukis	st		S	sg el
välja	välja	0		D	
     	välja	0		V	o
     	väli	0		S	adt
     	väli	0		S	sg g
     	väli	0		S	sg p
karanud	karga	nud		V	nud
       	kara=nu	d		S	pl n
       	kara=nud	0		A	
       	kara=nud	0		A	sg n
       	kara=nud	d		A	pl n
ja	ja	0		J	
oli	ole	i		V	s
eraha	####				
August	august	0		S	sg n
      	auk	st		S	sg el
      	August	0		H	sg n
Anderson	####				
käest	käest	0		K	
     	käsi	st		S	sg el
ära	ära	0		D	
   	ära	0		V	neg o
võtnud	võt	nud		V	nud
      	võt=nu	d		S	pl n
      	võt=nud	0		A	
      	võt=nud	0		A	sg n
      	võt=nud	d		A	pl n
.	.			Z	
peakohtumees	pea_kohtu_mees	0		S	sg n
:	:			Z	
Peeter	Peeter	0		H	sg n
Urtson	####				
kohtumees	kohtu_mees	0		S	sg n
:	:			Z	
Kusta	Kusta	0		H	sg g
     	Kusta	0		H	sg n
     	kuse	ta		V	da
     	kuse	ta		V	ta
Rämman	####				
kohtumees	kohtu_mees	0		S	sg n
:	:			Z	
Jooosep	####				
Oinberg	####				
kirjutaja	kirjutaja	0		S	sg g
         	kirjutaja	0		S	sg n
F	F	0		Y	?
Freimann	####				
