Võru	Võru	0		H	sg g
    	Võru	0		H	sg n
    	võru	0		S	sg g
    	võru	0		S	sg n
    	võru	0		S	sg p
linast	lina	st		S	sg el
      	linane	t		A	sg p
Juut	juut	0		S	sg n
Aroon	####				
täitmann	####				
kaebab	kaeba	b		V	b
et	et	0		J	
temale	tema	le		P	sg all
on	ole	0		V	b
  	ole	0		V	vad
oldemäe	####				
koolm	####				
.	.			Z	
Kusta	Kusta	0		H	sg g
     	Kusta	0		H	sg n
     	kuse	ta		V	da
     	kuse	ta		V	ta
Nemltsi	####				
käest	käest	0		K	
     	käsi	st		S	sg el
3	3	0		N	?
rubla	rubla	0		S	sg g
     	rubla	0		S	sg n
     	rubla	0		S	sg p
raha	raha	0		S	sg g
    	raha	0		S	sg n
    	raha	0		S	sg p
saada	saa	da		V	da
     	saat	0		V	o
     	saa	da		V	ta
mis	mis	0		P	pl n
   	mis	0		P	sg n
üle	üle	0		D	
   	üle	0		K	
mulle	mull	e		S	pl p
     	mina	lle		P	sg all
     	mulle	0		S	sg n
tema	tema	0		P	sg g
    	tema	0		P	sg n
käest	käest	0		K	
     	käsi	st		S	sg el
täht	täht	0		S	sg n
on	ole	0		V	b
  	ole	0		V	vad
.	.			Z	
ooldemäe	####				
kuulmeister	kuul_meister	0		S	sg n
Kusta	Kusta	0		H	sg g
     	Kusta	0		H	sg n
     	kuse	ta		V	da
     	kuse	ta		V	ta
Nemlts	####				
vastab	vasta	b		V	b
:	:			Z	
Minule	mina	le		P	sg all
ei	ei	0		D	
  	ei	0		V	neg
ole	ole	0		V	o
Aroon	####				
täitmannile	####				
midagi	miski	dagi		P	sg p
maksmist	maksmine	t		S	sg p
ja	ja	0		J	
mina	mina	0		P	sg n
    	mina	0		S	sg g
    	mina	0		S	sg n
    	mina	0		S	sg p
ei	ei	0		D	
  	ei	0		V	neg
ole	ole	0		V	o
ka	ka	0		D	
temale	tema	le		P	sg all
mmikisugust	####				
tähte	täht	0		S	adt
     	täht	0		S	sg p
annud	####				
see	see	0		P	sg n
üle	üle	0		D	
   	üle	0		K	
,	,			Z	
et	et	0		J	
mina	mina	0		P	sg n
    	mina	0		S	sg g
    	mina	0		S	sg n
    	mina	0		S	sg p
temale	tema	le		P	sg all
3rubla	####				
võlgu	võlg	u		S	pl p
     	võlgu	0		D	
ooles	####				
.	.			Z	
Septembri	september	0		S	sg g
kuu	kuu	0		S	sg g
   	kuu	0		S	sg n
sees	sees	0		D	
    	sees	0		K	
1881	1881	0		N	?
aastal	aasta	l		S	sg ad
nõudis	nõud	is		V	s
küll	küll	0		D	
    	küll	0		S	sg n
täitmann	####				
nii	nii	0		D	
samasugusel	sama_sugune	l		P	sg ad
kummbel	####				
minu	mina	0		P	sg g
käest	käest	0		K	
     	käsi	st		S	sg el
3rubla	####				
aga	aga	0		J	
see	see	0		P	sg n
nõudmine	nõudmine	0		S	sg n
sai	saa	i		V	s
   	sai	0		S	sg n
kogukonna	kogukond	0		S	sg g
kohtu	kohtu	0		V	o
     	kohus	0		S	sg g
otsuse	otsus	0		S	sg g
järel	järel	0		D	
     	järel	0		K	
tühjaks	tühi	ks		A	sg tr
mõistetud	mõist	tud		V	tud
         	mõiste=tu	d		S	pl n
         	mõiste=tud	0		A	
         	mõiste=tud	0		A	sg n
         	mõiste=tud	d		A	pl n
.	.			Z	
Aroon	####				
täitmann	####				
võttis	võt	is		V	s
õppuse	õppus	0		S	sg g
lehe	leht	0		S	sg g
välja	välja	0		D	
     	välja	0		V	o
     	väli	0		S	adt
     	väli	0		S	sg g
     	väli	0		S	sg p
aga	aga	0		J	
seni	seni	0		D	
ajani	aeg	ni		S	sg ter
ei	ei	0		D	
  	ei	0		V	neg
ole	ole	0		V	o
tema	tema	0		P	sg g
    	tema	0		P	sg n
veel	veel	0		D	
    	vesi	l		S	sg ad
meta	meta	0		S	sg g
    	meta	0		S	sg n
edasi	edasi	0		D	
     	edasi	0		K	
kaevanud	kaeba	nud		V	nud
        	kaeva	nud		V	nud
        	kaeva=nu	d		S	pl n
        	kaeva=nud	0		A	
        	kaeva=nud	0		A	sg n
        	kaeva=nud	d		A	pl n
.	.			Z	
Aroon	####				
täitmann	####				
vastab	vasta	b		V	b
:	:			Z	
et	et	0		J	
Kus	kus	0		D	
ise	ise	0		A	
   	ise	0		D	
   	ise	0		P	pl n
   	ise	0		P	sg n
küll	küll	0		D	
    	küll	0		S	sg n
temale	tema	le		P	sg all
ei	ei	0		D	
  	ei	0		V	neg
ole	ole	0		V	o
tähte	täht	0		S	adt
     	täht	0		S	sg p
annud	####				
vaid	vaid	0		D	
    	vaid	0		J	
tema	tema	0		P	sg g
    	tema	0		P	sg n
veel	veel	0		D	
    	vesi	l		S	sg ad
Peeter	Peeter	0		H	sg n
on	ole	0		V	b
  	ole	0		V	vad
tema	tema	0		P	sg g
    	tema	0		P	sg n
käsu	käsk	0		S	sg g
peale	pea	le		S	sg all
     	peale	0		D	
     	peale	0		K	
tähe	täht	0		S	sg g
kirjutanud	kirjuta	nud		V	nud
          	kirjutanu	d		S	pl n
          	kirjutanud	0		A	
          	kirjutanud	0		A	sg n
          	kirjutanud	d		A	pl n
seda	see	da		P	sg p
nägi	näge	i		V	s
ja	ja	0		J	
kuulis	kuul	is		V	s
      	kuul	s		S	sg in
Jaan	Jaan	0		H	sg n
    	jaan	0		S	sg n
    	jaan	0		Y	?
Lepason	####				
.	.			Z	
Mõistus	mõistus	0		S	sg n
jääb	jää	b		V	b
pooleli	pooleli	0		D	
kuni	kuni	0		J	
    	kuni	0		K	
Peeter	Peeter	0		H	sg n
Nemlts	####				
ja	ja	0		J	
Jaan	Jaan	0		H	sg n
    	jaan	0		S	sg n
    	jaan	0		Y	?
Lepason	####				
saavad	saa	vad		V	vad
      	saav	d		A	pl n
      	saav	d		S	pl n
ette	ette	0		D	
    	ette	0		K	
    	esi	tte		S	adt
kutsutud	kutsu	tud		V	tud
        	kutsutu	d		S	pl n
        	kutsutud	0		A	
        	kutsutud	0		A	sg n
        	kutsutud	d		A	pl n
.	.			Z	
