Karraske	####				
kogukonna	kogukond	0		S	sg g
kohus	kohu	s		V	s
     	kohus	0		S	sg n
Jusal	####				
sel	see	l		P	sg ad
   	sel	0		Y	?
21	21	0		N	?
oktoobril	oktoober	l		S	sg ad
77	77	0		N	?
mann	mann	0		S	sg n
olid	ole	id		V	sid
peakohtumees	pea_kohtu_mees	0		S	sg n
Jaan	Jaan	0		H	sg n
    	jaan	0		S	sg n
    	jaan	0		Y	?
tulus	tulu	s		S	sg in
     	tulus	0		A	sg n
do	####				
do	####				
kohtumees	kohtu_mees	0		S	sg n
Jakob	Jakob	0		H	sg n
Uibo	Uibo	0		H	sg g
    	Uibo	0		H	sg n
do	####				
do	####				
teine	teine	0		O	sg n
     	teine	0		P	sg n
do	####				
Jaan	Jaan	0		H	sg n
    	jaan	0		S	sg n
    	jaan	0		Y	?
Lepason	####				
eeksmalt	####				
pärisherra	####				
kirja	kirja	0		A	
     	kirja	0		V	o
     	kiri	0		S	adt
     	kiri	0		S	sg g
     	kiri	0		S	sg p
peale	pea	le		S	sg all
     	peale	0		D	
     	peale	0		K	
sest	see	st		P	sg el
    	sest	0		J	
22	22	0		N	?
augustist	august	st		S	sg el
s	s	0		Y	?
.	.			Z	
a.	a	0		Y	?
sai	saa	i		V	s
   	sai	0		S	sg n
Jaan	Jaan	0		H	sg n
    	jaan	0		S	sg n
    	jaan	0		Y	?
Mark	Mark	0		H	sg n
    	mark	0		S	sg n
ette	ette	0		D	
    	ette	0		K	
    	esi	tte		S	adt
kutsudatud	####				
ja	ja	0		J	
kirja	kirja	0		A	
     	kirja	0		V	o
     	kiri	0		S	adt
     	kiri	0		S	sg g
     	kiri	0		S	sg p
perra	####				
välja	välja	0		D	
     	välja	0		V	o
     	väli	0		S	adt
     	väli	0		S	sg g
     	väli	0		S	sg p
küsitud	küsi	tud		V	tud
       	küsi=tu	d		S	pl n
       	küsi=tud	0		A	
       	küsi=tud	0		A	sg n
       	küsi=tud	d		A	pl n
,	,			Z	
kes	kes	0		P	pl n
   	kes	0		P	sg n
selle	see	0		P	sg g
     	sell	e		S	pl p
peale	pea	le		S	sg all
     	peale	0		D	
     	peale	0		K	
ütles	ütle	s		V	s
,	,			Z	
mina	mina	0		P	sg n
    	mina	0		S	sg g
    	mina	0		S	sg n
    	mina	0		S	sg p
ole	ole	0		V	o
teile	sina	le		P	pl all
     	tee	ile		S	pl all
ju	ju	0		D	
üks	üks	0		N	sg n
   	üks	0		P	sg n
kord	kord	0		D	
    	kord	0		S	sg n
välja	välja	0		D	
     	välja	0		V	o
     	väli	0		S	adt
     	väli	0		S	sg g
     	väli	0		S	sg p
ütelnud	ütle	nud		V	nud
       	ütel=nu	d		S	pl n
       	ütel=nud	0		A	
       	ütel=nud	0		A	sg n
       	ütel=nud	d		A	pl n
,	,			Z	
muud	muu	d		P	pl n
    	muu	d		S	pl n
    	muu	d		V	d
    	muu	d		P	sg p
    	muu	d		S	sg p
ei	ei	0		D	
  	ei	0		V	neg
mõista	mõist	0		V	o
      	mõist	a		V	da
mina	mina	0		P	sg n
    	mina	0		S	sg g
    	mina	0		S	sg n
    	mina	0		S	sg p
ütelda	ütle	da		V	da
      	ütle	da		V	ta
teid	sina	d		P	pl p
    	tee	id		S	pl p
oli	ole	i		V	s
ju	ju	0		D	
kolme	kolm	0		N	adt
     	kolm	0		N	sg g
     	kolm	0		N	sg p
kesi	####				
kuulman	####				
too	too	0		P	sg n
   	too	0		V	o
asi	asi	0		S	sg n
   	asi	0		V	o
on	ole	0		V	b
  	ole	0		V	vad
nõnda	nõnda	0		D	
kui	kui	0		D	
   	kui	0		J	
mina	mina	0		P	sg n
    	mina	0		S	sg g
    	mina	0		S	sg n
    	mina	0		S	sg p
ole	ole	0		V	o
ütelnud	ütle	nud		V	nud
       	ütel=nu	d		S	pl n
       	ütel=nud	0		A	
       	ütel=nud	0		A	sg n
       	ütel=nud	d		A	pl n
.	.			Z	
_	_			Z	
(	(			Z	
Alla	alla	0		D	
    	alla	0		K	
    	Alla	0		H	sg g
    	Alla	0		H	sg n
kiri	kiri	0		S	sg n
nagu	nagu	0		D	
    	nagu	0		J	
ülevelgi	üle_velg	i		S	pl p
)	)			Z	
