Hendrik	Hendrik	0		H	sg n
Konsing	####				
pärandus	pärandu	s		V	s
        	pärandus	0		S	sg n
sai	saa	i		V	s
   	sai	0		S	sg n
auhioni	####				
viisi	viis	0		S	adt
     	viis	0		S	sg g
     	viis	i		N	pl p
     	viisi	0		K	
     	viis	0		S	sg p
äramüdut	####				
1	1	0		N	?
hobun	####				
25	25	0		N	?
rubla	rubla	0		S	sg g
     	rubla	0		S	sg n
     	rubla	0		S	sg p
1	1	0		N	?
lehm	lehm	0		S	sg n
10	10	0		N	?
rubla	rubla	0		S	sg g
     	rubla	0		S	sg n
     	rubla	0		S	sg p
;	;			Z	
teine	teine	0		O	sg n
     	teine	0		P	sg n
lehm	lehm	0		S	sg n
tüdrukule	tüdruk	le		S	sg all
1	1	0		N	?
lambas	lammas	s		S	sg in
1	1	0		N	?
rubla	rubla	0		S	sg g
     	rubla	0		S	sg n
     	rubla	0		S	sg p
75	75	0		N	?
1	1	0		N	?
lambas	lammas	s		S	sg in
2	2	0		N	?
rubla	rubla	0		S	sg g
     	rubla	0		S	sg n
     	rubla	0		S	sg p
1	1	0		N	?
lambas	lammas	s		S	sg in
2	2	0		N	?
rubla	rubla	0		S	sg g
     	rubla	0		S	sg n
     	rubla	0		S	sg p
1	1	0		N	?
siga	siga	0		A	sg n
    	siga	0		A	sg p
    	siga	0		S	sg n
    	siga	0		S	sg p
2	2	0		N	?
rubla	rubla	0		S	sg g
     	rubla	0		S	sg n
     	rubla	0		S	sg p
1	1	0		N	?
siga	siga	0		A	sg n
    	siga	0		A	sg p
    	siga	0		S	sg n
    	siga	0		S	sg p
3	3	0		N	?
rubla	rubla	0		S	sg g
     	rubla	0		S	sg n
     	rubla	0		S	sg p
1	1	0		N	?
kott	kott	0		S	sg n
55	55	0		N	?
kp	####				
2	2	0		N	?
kotti	kott	0		S	adt
     	kotti	0		D	
     	kott	i		S	pl p
     	kott	0		S	sg p
65	65	0		N	?
kp	####				
1	1	0		N	?
kott	kott	0		S	sg n
20	20	0		N	?
kp	####				
3	3	0		N	?
kotti	kott	0		S	adt
     	kotti	0		D	
     	kott	i		S	pl p
     	kott	0		S	sg p
70	70	0		N	?
kp	####				
2	2	0		N	?
kotti	kott	0		S	adt
     	kotti	0		D	
     	kott	i		S	pl p
     	kott	0		S	sg p
80	80	0		N	?
kp	####				
2	2	0		N	?
kotti	kott	0		S	adt
     	kotti	0		D	
     	kott	i		S	pl p
     	kott	0		S	sg p
perenaisele	pere_naine	le		S	sg all
1	1	0		N	?
raud	raud	0		S	sg n
vankre	####				
7	7	0		N	?
rubla	rubla	0		S	sg g
     	rubla	0		S	sg n
     	rubla	0		S	sg p
10	10	0		N	?
kange	kang	e		S	pl p
     	kange	0		A	sg g
     	kange	0		V	o
     	kange	0		A	sg n
päle	####				
4	4	0		N	?
rubla	rubla	0		S	sg g
     	rubla	0		S	sg n
     	rubla	0		S	sg p
20	20	0		N	?
veike	####				
töörda	####				
1	1	0		N	?
rubla	rubla	0		S	sg g
     	rubla	0		S	sg n
     	rubla	0		S	sg p
10	10	0		N	?
1	1	0		N	?
ader	ader	0		S	sg n
70	70	0		N	?
kp	####				
1	1	0		N	?
raud	raud	0		S	sg n
regi	regi	0		S	sg n
1	1	0		N	?
rubla	rubla	0		S	sg g
     	rubla	0		S	sg n
     	rubla	0		S	sg p
20	20	0		N	?
36	36	0		N	?
R	R	0		Y	?
.	.			Z	
00	00	0		N	?
1	1	0		N	?
laud	laud	0		S	sg n
    	laug	d		S	pl n
1	1	0		N	?
R	R	0		Y	?
.	.			Z	
15	15	0		N	?
