sall	sall	0		S	sg n
8dal	####				
veebr	veebr	0		Y	?
.	.			Z	
9601	9601	0		N	?
Kiegi	####				
kohtumeeste	kohtu_mees	te		S	pl g
ees	ees	0		D	
   	ees	0		K	
   	esi	s		S	sg in
tunnistaja	tunnistaja	0		S	sg g
          	tunnistaja	0		S	sg n
Mihkel	Mihkel	0		H	sg n
      	mihkel	0		A	sg n
      	mihkel	0		S	sg n
Jagomann	####				
sai	saa	i		V	s
   	sai	0		S	sg n
ette	ette	0		D	
    	ette	0		K	
    	esi	tte		S	adt
kutsutud	kutsu	tud		V	tud
        	kutsutu	d		S	pl n
        	kutsutud	0		A	
        	kutsutud	0		A	sg n
        	kutsutud	d		A	pl n
Tolama	####				
mehega	mees	ga		S	sg kom
Karl	Karl	0		H	sg n
Sultson	####				
ja	ja	0		J	
Mihkel	Mihkel	0		H	sg n
      	mihkel	0		A	sg n
      	mihkel	0		S	sg n
Laskar	####				
ning	ning	0		J	
Võpsu	####				
kaupmehe	kaup_mees	0		S	sg g
Rose	####				
vahel	vahe	l		S	sg ad
     	vahel	0		D	
     	vahel	0		K	
,	,			Z	
ning	ning	0		J	
vastutab	vastuta	b		V	b
,	,			Z	
Mihkel	Mihkel	0		H	sg n
      	mihkel	0		A	sg n
      	mihkel	0		S	sg n
Laskar	####				
on	ole	0		V	b
  	ole	0		V	vad
pooti	####				
tulnud	tul=nud	0		A	
      	tul=nud	0		A	sg n
      	tul=nud	d		A	pl n
      	tule	nud		V	nud
      	tulnu	d		S	pl n
ning	ning	0		J	
1	1	0		N	?
Naile	####				
künlit	####				
küsinud	küsi	nud		V	nud
       	küsi=nu	d		S	pl n
       	küsi=nud	0		A	
       	küsi=nud	0		A	sg n
       	küsi=nud	d		A	pl n
ja	ja	0		J	
rubla	rubla	0		S	sg g
     	rubla	0		S	sg n
     	rubla	0		S	sg p
hõb	####				
raha	raha	0		S	sg g
    	raha	0		S	sg n
    	raha	0		S	sg p
pakkunu	pakku=nu	0		S	sg g
       	pakku=nu	0		S	sg n
,	,			Z	
sus	sina	s		P	sg in
on	ole	0		V	b
  	ole	0		V	vad
kaupmees	kaup_mees	0		S	sg n
vastutanud	vastuta	nud		V	nud
          	vastuta=nu	d		S	pl n
          	vastuta=nud	0		A	
          	vastuta=nud	0		A	sg n
          	vastuta=nud	d		A	pl n
,	,			Z	
et	et	0		J	
talle	tall	e		S	pl p
     	tall	0		S	adt
     	tall	0		S	sg g
     	tema	lle		P	sg all
     	tall	0		S	sg p
raha	raha	0		S	sg g
    	raha	0		S	sg n
    	raha	0		S	sg p
vahetada	vaheta	da		V	da
ei	ei	0		D	
  	ei	0		V	neg
olla	ole	a		V	da
siis	siis	0		D	
    	siis	0		J	
on	ole	0		V	b
  	ole	0		V	vad
nie	####				
Tolama	####				
mehe	mees	0		S	sg g
vihl	####				
vastu	vastu	0		D	
     	vastu	0		K	
nakanud	nakka	nud		V	nud
       	naka=nu	d		S	pl n
       	naka=nud	0		A	
       	naka=nud	0		A	sg n
       	naka=nud	d		A	pl n
kõnelema	kõnele	ma		V	ma
,	,			Z	
siis	siis	0		D	
    	siis	0		J	
on	ole	0		V	b
  	ole	0		V	vad
kaupmees	kaup_mees	0		S	sg n
toll	toll	0		S	sg n
vanal	vana	l		A	sg ad
     	vana	l		S	sg ad
mehel	mees	l		S	sg ad
kübber	####				
ära	ära	0		D	
   	ära	0		V	neg o
võtnud	võt	nud		V	nud
      	võt=nu	d		S	pl n
      	võt=nud	0		A	
      	võt=nud	0		A	sg n
      	võt=nud	d		A	pl n
ja	ja	0		J	
noormas	####				
läks	mine	s		V	s
eest	eest	0		D	
    	eest	0		K	
    	esi	st		S	sg el
ära	ära	0		D	
   	ära	0		V	neg o
ja	ja	0		J	
pause	paus	e		S	pl p
ütles	ütle	s		V	s
vanal	vana	l		A	sg ad
     	vana	l		S	sg ad
mehele	mees	le		S	sg all
ta	tema	0		P	sg g
  	tema	0		P	sg n
and	and	0		S	sg n
kübber	####				
tagasi	tagasi	0		D	
      	tagasi	0		K	
enne	enne	0		D	
    	enne	0		K	
    	enne	0		S	sg n
oorimees	####				
peab	pida	b		V	b
peksa	peks	0		V	o
     	peksa	0		X	
sama	sama	0		P	sg g
    	sama	0		P	sg n
    	sama	0		P	sg p
.	.			Z	
Kolle	koll	e		S	pl p
     	kolle	0		S	sg n
Gustav	Gustav	0		H	sg n
tule	tuli	0		S	sg g
    	tule	0		V	o
selle	see	0		P	sg g
     	sell	e		S	pl p
sama	sama	0		P	sg g
    	sama	0		P	sg n
    	sama	0		P	sg p
asja	asi	0		S	adt
    	asi	0		S	sg g
    	asi	0		S	sg p
eest	eest	0		D	
    	eest	0		K	
    	esi	st		S	sg el
ette	ette	0		D	
    	ette	0		K	
    	esi	tte		S	adt
ning	ning	0		J	
vastut	####				
et	et	0		J	
tu	####				
Tolama	####				
mees	mees	0		S	sg n
    	mesi	s		S	sg in
on	ole	0		V	b
  	ole	0		V	vad
künlit	####				
1	1	0		N	?
Naela	nael	0		S	adt
     	nael	0		S	sg g
     	nael	0		S	sg p
küsinud	küsi	nud		V	nud
       	küsi=nu	d		S	pl n
       	küsi=nud	0		A	
       	küsi=nud	0		A	sg n
       	küsi=nud	d		A	pl n
ja	ja	0		J	
1	1	0		N	?
rubla	rubla	0		S	sg g
     	rubla	0		S	sg n
     	rubla	0		S	sg p
raha	raha	0		S	sg g
    	raha	0		S	sg n
    	raha	0		S	sg p
pakkunu	pakku=nu	0		S	sg g
       	pakku=nu	0		S	sg n
,	,			Z	
kaupmees	kaup_mees	0		S	sg n
ei	ei	0		D	
  	ei	0		V	neg
olla	ole	a		V	da
tuda	####				
raha	raha	0		S	sg g
    	raha	0		S	sg n
    	raha	0		S	sg p
võtnud	võt	nud		V	nud
      	võt=nu	d		S	pl n
      	võt=nud	0		A	
      	võt=nud	0		A	sg n
      	võt=nud	d		A	pl n
vahetada	vaheta	da		V	da
siis	siis	0		D	
    	siis	0		J	
on	ole	0		V	b
  	ole	0		V	vad
nemad	tema	d		P	pl n
ka	ka	0		D	
vastu	vastu	0		D	
     	vastu	0		K	
kõnelenud	kõnele	nud		V	nud
         	kõnele=nu	d		S	pl n
         	kõnele=nud	0		A	
         	kõnele=nud	0		A	sg n
         	kõnele=nud	d		A	pl n
ja	ja	0		J	
kaupmees	kaup_mees	0		S	sg n
on	ole	0		V	b
  	ole	0		V	vad
siis	siis	0		D	
    	siis	0		J	
vana	vana	0		A	sg g
    	vana	0		A	sg n
    	vana	0		A	sg p
    	vana	0		S	sg g
    	vana	0		S	sg n
    	vana	0		S	sg p
mehe	mees	0		S	sg g
keest	kee	st		S	sg el
kübar	kübar	0		S	sg n
on	ole	0		V	b
  	ole	0		V	vad
ära	ära	0		D	
   	ära	0		V	neg o
arnu	####				
_	_			Z	
muud	muu	d		P	pl n
    	muu	d		S	pl n
    	muu	d		V	d
    	muu	d		P	sg p
    	muu	d		S	sg p
tule	tuli	0		S	sg g
    	tule	0		V	o
sele	####				
ei	ei	0		D	
  	ei	0		V	neg
ole	ole	0		V	o
olnud	ol=nud	0		A	
     	ol=nud	0		A	sg n
     	ol=nud	d		A	pl n
     	ole	nud		V	nud
     	olnu	d		S	pl n
.	.			Z	
mõistetud	mõist	tud		V	tud
         	mõiste=tu	d		S	pl n
         	mõiste=tud	0		A	
         	mõiste=tud	0		A	sg n
         	mõiste=tud	d		A	pl n
:	:			Z	
Kaupmees	kaup_mees	0		S	sg n
Rose	####				
peab	pida	b		V	b
selle	see	0		P	sg g
     	sell	e		S	pl p
eest	eest	0		D	
    	eest	0		K	
    	esi	st		S	sg el
et	et	0		J	
ta	tema	0		P	sg g
  	tema	0		P	sg n
ülmu	####				
asjanda	####				
Kübar	kübar	0		S	sg n
on	ole	0		V	b
  	ole	0		V	vad
ära	ära	0		D	
   	ära	0		V	neg o
vatnud	####				
2	2	0		N	?
rubla	rubla	0		S	sg g
     	rubla	0		S	sg n
     	rubla	0		S	sg p
trafe	####				
maksma	maks	ma		V	ma
ja	ja	0		J	
kust	kusi	t		S	sg p
    	kust	0		D	
rahast	raha	st		S	sg el
sab	####				
1	1	0		N	?
rubla	rubla	0		S	sg g
     	rubla	0		S	sg n
     	rubla	0		S	sg p
toll	toll	0		S	sg n
mehel	mees	l		S	sg ad
kelle	kes	0		P	pl g
     	kes	0		P	sg g
kübar	kübar	0		S	sg n
ta	tema	0		P	sg g
  	tema	0		P	sg n
ära	ära	0		D	
   	ära	0		V	neg o
uut	uus	t		A	sg p
,	,			Z	
ja	ja	0		J	
teine	teine	0		O	sg n
     	teine	0		P	sg n
sab	####				
vaeste	vaene	te		A	pl g
      	vaene	te		S	pl g
laadiku	laadik	0		S	sg g
pühepetse	####				
tule	tuli	0		S	sg g
    	tule	0		V	o
eest	eest	0		D	
    	eest	0		K	
    	esi	st		S	sg el
.	.			Z	
Mihkel	Mihkel	0		H	sg n
      	mihkel	0		A	sg n
      	mihkel	0		S	sg n
Sultson	####				
tule	tuli	0		S	sg g
    	tule	0		V	o
ette	ette	0		D	
    	ette	0		K	
    	esi	tte		S	adt
ning	ning	0		J	
ütles	ütle	s		V	s
selega	####				
rahu	rahu	0		S	sg g
    	rahu	0		S	sg n
    	rahu	0		S	sg p
gehvat	####				
.	.			Z	
