selkorral	####				
ei	ei	0		D	
  	ei	0		V	neg
olnud	ol=nud	0		A	
     	ol=nud	0		A	sg n
     	ol=nud	d		A	pl n
     	ole	nud		V	nud
     	olnu	d		S	pl n
asja	asi	0		S	adt
    	asi	0		S	sg g
    	asi	0		S	sg p
edasitoimetamiseks	edasi_toimetamine	ks		S	sg tr
28.	28.	0		O	?
Detsembr	####				
.	.			Z	
pr	pr	0		Y	?
,	,			Z	
muid	muu	id		P	pl p
siia	siia	0		D	
    	siig	0		S	sg g
tulnud	tul=nud	0		A	
      	tul=nud	0		A	sg n
      	tul=nud	d		A	pl n
      	tule	nud		V	nud
      	tulnu	d		S	pl n
,	,			Z	
kui	kui	0		D	
   	kui	0		J	
Ants	Ants	0		H	sg n
Luurepera	####				
Errestveere	####				
mõisast	mõis	st		S	sg el
,	,			Z	
kes	kes	0		P	pl n
   	kes	0		P	sg n
ütles	ütle	s		V	s
,	,			Z	
et	et	0		J	
ta	tema	0		P	sg g
  	tema	0		P	sg n
sest	see	st		P	sg el
    	sest	0		J	
asjast	asi	st		S	sg el
midagi	miski	dagi		P	sg p
ei	ei	0		D	
  	ei	0		V	neg
teadvat	tead	vat		V	vat
       	teadev	t		A	sg p
.	.			Z	
Otsustadi	####				
;	;			Z	
täna	täna	0		D	
    	täna	0		V	o
puuduvad	puudu	vad		V	vad
        	puuduv	d		A	pl n
tunnistajad	tunnistaja	d		S	pl n
Peep	Peep	0		H	sg n
Poril	Pori	l		H	sg ad
     	pori	l		S	sg ad
ja	ja	0		J	
David	David	0		H	sg n
möksi	möks	0		S	adt
     	möks	0		S	sg g
     	möks	0		S	sg p
25. s	####				
.	.			Z	
k	k	0		Y	?
.	.			Z	
pv	####				
.	.			Z	
ettekäsüta	####				
.	.			Z	
Peakohtunik	pea_kohtunik	0		S	sg n
:	:			Z	
J	J	0		Y	?
.	.			Z	
_	_			Z	
Niilbe	####				
[	[			Z	
allkiri	all_kiri	0		S	sg n
]	]			Z	
kohtunik	kohtunik	0		S	sg n
:	:			Z	
H	H	0		Y	?
.	.			Z	
_	_			Z	
Lukaks	####				
[	[			Z	
allkiri	all_kiri	0		S	sg n
]	]			Z	
d	d	0		Y	?
.	.			Z	
:	:			Z	
J	J	0		Y	?
.	.			Z	
_	_			Z	
paremann	####				
[	[			Z	
allkiri	all_kiri	0		S	sg n
]	]			Z	
kirjutas	kirjuta	s		V	s
Tuping	####				
[	[			Z	
allkiri	all_kiri	0		S	sg n
]	]			Z	
