protokolli	protokoll	0		S	adt
          	protokoll	0		S	sg g
          	protokolli	0		V	o
          	protokoll	0		S	sg p
N 21	N21	0		Y	?
manu	manu	0		D	
    	manu	0		K	
kustmise	####				
peale	pea	le		S	sg all
     	peale	0		D	
     	peale	0		K	
oli	ole	i		V	s
tunnistaja	tunnistaja	0		S	sg g
          	tunnistaja	0		S	sg n
Jaan	Jaan	0		H	sg n
    	jaan	0		S	sg n
    	jaan	0		Y	?
Vitkin	####				
ette	ette	0		D	
    	ette	0		K	
    	esi	tte		S	adt
tulnud	tul=nud	0		A	
      	tul=nud	0		A	sg n
      	tul=nud	d		A	pl n
      	tule	nud		V	nud
      	tulnu	d		S	pl n
ja	ja	0		J	
and	and	0		S	sg n
tunnistust	tunnistus	t		S	sg p
et	et	0		J	
see	see	0		P	sg n
peda	####				
oli	ole	i		V	s
7	7	0		N	?
tuli	tuli	0		S	sg n
    	tule	i		V	s
jäme	jäme	0		A	sg n
aga	aga	0		J	
pikust	####				
ei	ei	0		D	
  	ei	0		V	neg
tea	tead	0		V	o
.	.			Z	
siis	siis	0		D	
    	siis	0		J	
ei	ei	0		D	
  	ei	0		V	neg
ütle	ütle	0		V	o
kohtus	kohtu	s		V	s
      	kohus	s		S	sg in
käija	käija	0		S	sg g
     	käija	0		S	sg n
enam	enam	0		C	sg n
    	enam	0		D	
mittagi	####				
ütlemist	ütlemine	t		S	sg p
,	,			Z	
siis	siis	0		D	
    	siis	0		J	
Mõisteti	mõist	ti		V	ti
et	et	0		J	
Jaan	Jaan	0		H	sg n
    	jaan	0		S	sg n
    	jaan	0		Y	?
Uggur	####				
peab	pida	b		V	b
selle	see	0		P	sg g
     	sell	e		S	pl p
pedaja	pedajas	0		S	sg g
eest	eest	0		D	
    	eest	0		K	
    	esi	st		S	sg el
160	160	0		N	?
kop	kop	0		Y	?
.	.			Z	
14	14	0		N	?
valja	####				
ära	ära	0		D	
   	ära	0		V	neg o
maksma	maks	ma		V	ma
xxxkonna	####				
heaks	hea	ks		A	sg tr
     	hea	ks		S	sg tr
     	heaks	0		D	
     	heaks	0		K	
.	.			Z	
see	see	0		P	sg n
otsus	otsus	0		S	sg n
sai	saa	i		V	s
   	sai	0		S	sg n
ette	ette	0		D	
    	ette	0		K	
    	esi	tte		S	adt
loetud	loetu	d		S	pl n
      	loetud	0		A	
      	loetud	0		A	sg n
      	loetud	d		A	pl n
      	luge	tud		V	tud
ka	ka	0		D	
ära	ära	0		D	
   	ära	0		V	neg o
seletatud	seleta	tud		V	tud
         	seleta=tu	d		S	pl n
         	seletatud	0		A	
         	seletatud	0		A	sg n
         	seletatud	d		A	pl n
.	.			Z	
peakohtumees	pea_kohtu_mees	0		S	sg n
kohtumees	kohtu_mees	0		S	sg n
""""	""""			Z	
kirjuti	kirjuti	0		S	sg g
       	kirjuti	0		S	sg n
.	.			Z	
:	:			Z	
Piirisit	####				
