Gustav	Gustav	0		H	sg n
Tolmuk	####				
kaebas	kaeba	s		V	s
kohtu	kohtu	0		V	o
     	kohus	0		S	sg g
ees	ees	0		D	
   	ees	0		K	
   	esi	s		S	sg in
et	et	0		J	
Peeter	Peeter	0		H	sg n
Võsoberg	####				
ja	ja	0		J	
koolmeister	kool_meister	0		S	sg n
Jaan	Jaan	0		H	sg n
    	jaan	0		S	sg n
    	jaan	0		Y	?
Vari	vari	0		S	sg n
ja	ja	0		J	
Jaan	Jaan	0		H	sg n
    	jaan	0		S	sg n
    	jaan	0		Y	?
Puksoo	####				
ja	ja	0		J	
Hendrik	Hendrik	0		H	sg n
Narrusk	narr_usk	0		S	sg n
oleva	olev	0		A	sg g
     	olev	0		S	sg g
heina	hein	0		S	adt
     	hein	0		S	sg g
     	hein	0		S	sg p
kuhja	kuhja	0		V	o
     	kuhi	0		S	adt
     	kuhi	0		S	sg g
     	kuhi	0		S	sg p
ära	ära	0		D	
   	ära	0		V	neg o
söötnud	sööt	nud		V	nud
       	sööt=nu	d		S	pl n
       	sööt=nud	0		A	
       	sööt=nud	0		A	sg n
       	sööt=nud	d		A	pl n
,	,			Z	
kahju	kahi	0		S	adt
     	kahi	0		S	sg g
     	kahi	0		S	sg p
     	kahju	0		S	sg g
     	kahju	0		S	sg n
     	kahju	0		S	sg p
arvadd	####				
Gustav	Gustav	0		H	sg n
10	10	0		N	?
Pusta	pusk	ta		V	da
     	pusk	ta		V	ta
     	pusta	0		S	sg g
     	pusta	0		S	sg n
heinu	hein	u		S	pl p
.	.			Z	
üle	üle	0		D	
   	üle	0		K	
kaeda	kae	da		V	da
Vöölmünder	####				
Viido	####				
Noorrusberg	####				
ja	ja	0		J	
kohtumees	kohtu_mees	0		S	sg n
Frits	frits	0		S	sg n
solnask	####				
on	ole	0		V	b
  	ole	0		V	vad
ka	ka	0		D	
kahju	kahi	0		S	adt
     	kahi	0		S	sg g
     	kahi	0		S	sg p
     	kahju	0		S	sg g
     	kahju	0		S	sg n
     	kahju	0		S	sg p
arvanud	arva	nud		V	nud
       	arva=nu	d		S	pl n
       	arva=nud	0		A	
       	arva=nud	0		A	sg n
       	arva=nud	d		A	pl n
10	10	0		N	?
Pusta	pusk	ta		V	da
     	pusk	ta		V	ta
     	pusta	0		S	sg g
     	pusta	0		S	sg n
heinu	hein	u		S	pl p
,	,			Z	
kõige	kõik	0		P	sg g
     	kõige	0		D	
väham	####				
et	et	0		J	
kaevatav	kaeba	tav		V	tav
        	kaeva	tav		V	tav
        	kaeva=tav	0		A	sg n
3	3	0		N	?
kord	kord	0		D	
    	kord	0		S	sg n
kutsumise	kutsumine	0		S	sg g
perrä	####				
kohtu	kohtu	0		V	o
     	kohus	0		S	sg g
manu	manu	0		D	
    	manu	0		K	
ei	ei	0		D	
  	ei	0		V	neg
ole	ole	0		V	o
tulnud	tul=nud	0		A	
      	tul=nud	0		A	sg n
      	tul=nud	d		A	pl n
      	tule	nud		V	nud
      	tulnu	d		S	pl n
mõistis	mõist	is		V	s
kohus	kohu	s		V	s
     	kohus	0		S	sg n
ära	ära	0		D	
   	ära	0		V	neg o
.	.			Z	
kohus	kohu	s		V	s
     	kohus	0		S	sg n
mõistis	mõist	is		V	s
,	,			Z	
et	et	0		J	
Peeter	Peeter	0		H	sg n
Võsoberg	####				
Hendrik	Hendrik	0		H	sg n
Noorrusk	noor_rusk	0		S	sg n
Jaan	Jaan	0		H	sg n
    	jaan	0		S	sg n
    	jaan	0		Y	?
Puksoo	####				
Jaan	Jaan	0		H	sg n
    	jaan	0		S	sg n
    	jaan	0		Y	?
Vari	vari	0		S	sg n
,	,			Z	
iga	iga	0		P	sg g
   	iga	0		P	sg n
   	iga	0		P	sg p
   	iga	0		S	sg n
   	iga	0		S	sg p
üks	üks	0		N	sg n
   	üks	0		P	sg n
peavad	pida	vad		V	vad
heina	hein	0		S	adt
     	hein	0		S	sg g
     	hein	0		S	sg p
kahju	kahi	0		S	adt
     	kahi	0		S	sg g
     	kahi	0		S	sg p
     	kahju	0		S	sg g
     	kahju	0		S	sg n
     	kahju	0		S	sg p
maksma	maks	ma		V	ma
Gusvile	####				
iga	iga	0		P	sg g
   	iga	0		P	sg n
   	iga	0		P	sg p
   	iga	0		S	sg n
   	iga	0		S	sg p
üks	üks	0		N	sg n
   	üks	0		P	sg n
75	75	0		N	?
kop	kop	0		Y	?
.	.			Z	
ja	ja	0		J	
iga	iga	0		P	sg g
   	iga	0		P	sg n
   	iga	0		P	sg p
   	iga	0		S	sg n
   	iga	0		S	sg p
üks	üks	0		N	sg n
   	üks	0		P	sg n
peab	pida	b		V	b
kohtu	kohtu	0		V	o
     	kohus	0		S	sg g
käsu	käsk	0		S	sg g
vastu	vastu	0		D	
     	vastu	0		K	
pandmise	####				
eest	eest	0		D	
    	eest	0		K	
    	esi	st		S	sg el
30	30	0		N	?
kop	kop	0		Y	?
maksma	maks	ma		V	ma
.	.			Z	
Gustavi	Gustav	0		H	sg g
käimine	käimine	0		S	sg n
1	1	0		N	?
rubla	rubla	0		S	sg g
     	rubla	0		S	sg n
     	rubla	0		S	sg p
üle	üle	0		D	
   	üle	0		K	
kõige	kõik	0		P	sg g
     	kõige	0		D	
ära	ära	0		D	
   	ära	0		V	neg o
maksa	maks	0		S	adt
     	maks	0		S	sg g
     	maks	0		V	o
     	maks	0		S	sg p
peale	pea	le		S	sg all
     	peale	0		D	
     	peale	0		K	
selle	see	0		P	sg g
     	sell	e		S	pl p
saab	saa	b		V	b
nüüd	nüüd	0		D	
kohtu	kohtu	0		V	o
     	kohus	0		S	sg g
otsust	otsus	t		S	sg p
kuulma	kuul	ma		V	ma
aetud	ae=tu	d		S	pl n
     	aetud	0		A	
     	aetud	0		A	sg n
     	aetud	d		A	pl n
     	aja	tud		V	tud
3	3	0		N	?
järgmist	järgmine	t		A	sg p
kohtu	kohtu	0		V	o
     	kohus	0		S	sg g
päeva	päev	0		S	adt
     	päev	0		S	sg g
     	päev	0		S	sg p
.	.			Z	
