Serehindr	####				
:	:			Z	
Anu	Anu	0		H	sg g
   	anu	0		V	o
   	Anu	0		H	sg n
tunnistas	tunnista	s		V	s
kokku	kokku	0		D	
     	kogu	0		S	adt
konna	konn	0		S	adt
     	konn	0		S	sg g
     	konn	0		S	sg p
kohtu	kohtu	0		V	o
     	kohus	0		S	sg g
ette	ette	0		D	
    	ette	0		K	
    	esi	tte		S	adt
et	et	0		J	
see	see	0		P	sg n
mõisa	mõis	0		S	sg g
häre	####				
venelane	venelane	0		S	sg n
temaga	tema	ga		P	sg kom
ütte	üte	0		S	sg g
lapse	laps	0		S	sg g
pärast	pära	st		S	sg el
      	pärane	t		A	sg p
      	pärast	0		D	
      	pärast	0		K	
eesin	####				
.	.			Z	
see	see	0		P	sg n
Herhe	####				
venelane	venelane	0		S	sg n
sai	saa	i		V	s
   	sai	0		S	sg n
kohtu	kohtu	0		V	o
     	kohus	0		S	sg g
ette	ette	0		D	
    	ette	0		K	
    	esi	tte		S	adt
kutsutut	kutsutu	t		S	sg p
        	kutsutud	t		A	sg p
ning	ning	0		J	
see	see	0		P	sg n
Asi	asi	0		S	sg n
   	asi	0		V	o
perra	####				
kuulutatud	kuuluta	tud		V	tud
          	kuuluta=tu	d		S	pl n
          	kuuluta=tud	0		A	
          	kuuluta=tud	0		A	sg n
          	kuuluta=tud	d		A	pl n
ja	ja	0		J	
tunnistas	tunnista	s		V	s
et	et	0		J	
tema	tema	0		P	sg g
    	tema	0		P	sg n
tolle	toll	e		S	pl p
     	too	0		P	sg g
Astest	aste	st		S	sg el
mis	mis	0		P	pl n
   	mis	0		P	sg n
midake	####				
ei	ei	0		D	
  	ei	0		V	neg
tja	####				
ning	ning	0		J	
see	see	0		P	sg n
naine	naine	0		S	sg n
Anu	Anu	0		H	sg g
   	anu	0		V	o
   	Anu	0		H	sg n
valetab	valeta	b		V	b
.	.			Z	
otsus	otsus	0		S	sg n
.	.			Z	
kokku	kokku	0		D	
     	kogu	0		S	adt
Konna	konn	0		S	adt
     	konn	0		S	sg g
     	konn	0		S	sg p
kohus	kohu	s		V	s
     	kohus	0		S	sg n
kuulutas	kuuluta	s		V	s
see	see	0		P	sg n
Asi	asi	0		S	sg n
   	asi	0		V	o
perra	####				
ning	ning	0		J	
loeidis	####				
et	et	0		J	
naine	naine	0		S	sg n
Anu	Anu	0		H	sg g
   	anu	0		V	o
   	Anu	0		H	sg n
,	,			Z	
valetanud	valeta	nud		V	nud
         	valeta=nu	d		S	pl n
         	valeta=nud	0		A	
         	valeta=nud	0		A	sg n
         	valeta=nud	d		A	pl n
on	ole	0		V	b
  	ole	0		V	vad
,	,			Z	
ning	ning	0		J	
sai	saa	i		V	s
   	sai	0		S	sg n
tolle	toll	e		S	pl p
     	too	0		P	sg g
võltsimise	võltsimine	0		S	sg g
est	####				
15	15	0		N	?
löki	####				
vitsaka	####				
ära	ära	0		D	
   	ära	0		V	neg o
trapitatud	####				
.	.			Z	
