see	see	0		P	sg n
iganik	####				
kindina	####				
kaebas	kaeba	s		V	s
et	et	0		J	
Kravi	####				
kortsis	kortsi	s		V	s
tema	tema	0		P	sg g
    	tema	0		P	sg n
poisi	poiss	0		S	sg g
Joosepi	Joosep	0		H	sg g
ema	ema	0		S	sg g
   	ema	0		S	sg n
   	ema	0		S	sg p
Liso	####				
on	ole	0		V	b
  	ole	0		V	vad
Roostep	####				
tema	tema	0		P	sg g
    	tema	0		P	sg n
pial	####				
Vandus	vandu	s		V	s
ningk	####				
aukuten	####				
.	.			Z	
selle	see	0		P	sg g
     	sell	e		S	pl p
man	man	0		D	
   	man	0		K	
on	ole	0		V	b
  	ole	0		V	vad
olnut	olnu	t		S	sg p
tema	tema	0		P	sg g
    	tema	0		P	sg n
pois	poi	s		S	sg in
Joosep	Joosep	0		H	sg n
ningk	####				
tema	tema	0		P	sg g
    	tema	0		P	sg n
tüdruk	tüdruk	0		S	sg n
Jeva	####				
.	.			Z	
otsus	otsus	0		S	sg n
.	.			Z	
see	see	0		P	sg n
Asi	asi	0		S	sg n
   	asi	0		V	o
sai	saa	i		V	s
   	sai	0		S	sg n
perra	####				
kulutatud	kuluta	tud		V	tud
         	kuluta=tu	d		S	pl n
         	kuluta=tud	0		A	
         	kuluta=tud	0		A	sg n
         	kuluta=tud	d		A	pl n
ningk	####				
oli	ole	i		V	s
tette	####				
.	.			Z	
see	see	0		P	sg n
Liso	####				
sai	saa	i		V	s
   	sai	0		S	sg n
travi	####				
15	15	0		N	?
vitsa	vits	0		S	adt
     	vits	0		S	sg g
     	vits	0		S	sg p
Opi	opp	0		S	sg g
sell	sell	0		S	sg n
30l	30	l		N	sg ad
oktbr	####				
1824.	1824.	0		O	?
