Vastse	vastne	0		A	sg g
      	vastne	0		S	sg g
Piikandi	pii_kant	0		S	sg g
kogukonna	kogukond	0		S	sg g
kohtu	kohtu	0		V	o
     	kohus	0		S	sg g
päev	päev	0		S	sg n
,	,			Z	
4.	4.	0		O	?
juunil	juuni	l		S	sg ad
1888.	1888.	0		O	?
juures	juur	s		S	sg in
      	juures	0		D	
      	juures	0		K	
olid	ole	id		V	sid
peakohtumees	pea_kohtu_mees	0		S	sg n
Jaan	Jaan	0		H	sg n
    	jaan	0		S	sg n
    	jaan	0		Y	?
Roos	rood	s		S	sg in
    	roog	s		S	sg in
    	roos	0		S	sg n
kohtumees	kohtu_mees	0		S	sg n
Johan	Johan	0		H	sg n
Tiina	Tiina	0		H	sg g
     	Tiina	0		H	sg n
kohtumees	kohtu_mees	0		S	sg n
Aadu	Aadu	0		H	sg g
    	Aadu	0		H	sg n
Vagu	vaga	u		A	pl p
    	vagu	0		S	sg n
    	vagu	0		V	o
    	vagu	0		S	sg p
kohus	kohu	s		V	s
     	kohus	0		S	sg n
oli	ole	i		V	s
koos	koos	0		D	
    	koos	0		K	
    	koos	0		S	sg n
    	kubu	s		S	sg in
,	,			Z	
aga	aga	0		J	
asju	asi	u		S	pl p
ei	ei	0		D	
  	ei	0		V	neg
ole	ole	0		V	o
ette	ette	0		D	
    	ette	0		K	
    	esi	tte		S	adt
tulnud	tul=nud	0		A	
      	tul=nud	0		A	sg n
      	tul=nud	d		A	pl n
      	tule	nud		V	nud
      	tulnu	d		S	pl n
.	.			Z	
Peakohtumees	pea_kohtu_mees	0		S	sg n
J	J	0		Y	?
Roos	rood	s		S	sg in
    	roog	s		S	sg in
    	roos	0		S	sg n
kohtumees	kohtu_mees	0		S	sg n
Joh	####				
Tiina	Tiina	0		H	sg g
     	Tiina	0		H	sg n
kohtumees	kohtu_mees	0		S	sg n
Ado	Ado	0		H	sg g
   	Ado	0		H	sg n
Vagu	vaga	u		A	pl p
    	vagu	0		S	sg n
    	vagu	0		V	o
    	vagu	0		S	sg p
kirjutaja	kirjutaja	0		S	sg g
         	kirjutaja	0		S	sg n
J	J	0		Y	?
.	.			Z	
_	_			Z	
Rohkt	####				
