mõisa	mõis	0		S	sg g
kaebuse	kaebus	0		S	sg g
paele	paas	le		S	sg all
ehk	ehk	0		D	
   	ehk	0		J	
Ferdinand	####				
Rusch	####				
on	ole	0		V	b
  	ole	0		V	vad
ööse	öös	e		S	pl p
mõne	mõni	0		P	sg g
kord	kord	0		D	
    	kord	0		S	sg n
Mina	mina	0		P	sg n
    	mina	0		S	sg g
    	mina	0		S	sg n
    	mina	0		S	sg p
Karjuse	karjus	0		S	sg g
man	man	0		D	
   	man	0		K	
käinud	käi	nud		V	nud
      	käi=nud	0		A	
      	käi=nud	0		A	sg n
      	käi=nud	d		A	pl n
      	käinu	d		S	pl n
,	,			Z	
ja	ja	0		J	
Mina	mina	0		P	sg n
    	mina	0		S	sg g
    	mina	0		S	sg n
    	mina	0		S	sg p
on	ole	0		V	b
  	ole	0		V	vad
tema	tema	0		P	sg g
    	tema	0		P	sg n
ka	ka	0		D	
vastu	vastu	0		D	
     	vastu	0		K	
võttnu	####				
,	,			Z	
saivad	####				
mõlemaad	####				
kohtu	kohtu	0		V	o
     	kohus	0		S	sg g
ette	ette	0		D	
    	ette	0		K	
    	esi	tte		S	adt
kutsutud	kutsu	tud		V	tud
        	kutsutu	d		S	pl n
        	kutsutud	0		A	
        	kutsutud	0		A	sg n
        	kutsutud	d		A	pl n
.	.			Z	
Leena	Lee	na		H	sg es
     	Leena	0		H	sg g
     	Leena	0		H	sg n
Jaannan	####				
tunnistas	tunnista	s		V	s
eh	eh	0		I	
seda	see	da		P	sg p
õige	õige	0		A	sg g
    	õige	0		A	sg n
    	õige	0		D	
on	ole	0		V	b
  	ole	0		V	vad
,	,			Z	
ja	ja	0		J	
nimetud	nimetu	d		A	pl n
Rusch	####				
ja	ja	0		J	
Mina	mina	0		P	sg n
    	mina	0		S	sg g
    	mina	0		S	sg n
    	mina	0		S	sg p
ei	ei	0		D	
  	ei	0		V	neg
võiks	või	ks		S	sg tr
     	või	ks		V	ks
seda	see	da		P	sg p
salatuda	####				
,	,			Z	
paele	paas	le		S	sg all
seda	see	da		P	sg p
sai	saa	i		V	s
   	sai	0		S	sg n
mõistetatud	####				
Mina	mina	0		P	sg n
    	mina	0		S	sg g
    	mina	0		S	sg n
    	mina	0		S	sg p
Karjus	karju	s		V	s
      	karjus	0		S	sg n
peab	pida	b		V	b
1	1	0		N	?
rubl	####				
ja	ja	0		J	
Ferdinand	####				
Rusch	####				
130	130	0		N	?
koop	koop	0		Y	?
Sm	Sm	0		Y	?
vaeste	vaene	te		A	pl g
      	vaene	te		S	pl g
laadiku	laadik	0		S	sg g
trafi	####				
maksa	maks	0		S	adt
     	maks	0		S	sg g
     	maks	0		V	o
     	maks	0		S	sg p
.	.			Z	
Mina	mina	0		P	sg n
    	mina	0		S	sg g
    	mina	0		S	sg n
    	mina	0		S	sg p
Karjus	karju	s		V	s
      	karjus	0		S	sg n
saab	saa	b		V	b
oma	oma	0		A	sg g
   	oma	0		D	
   	oma	0		P	sg g
   	oma	0		S	sg g
   	oma	0		V	o
   	oma	0		A	sg n
   	oma	0		A	sg p
   	oma	0		P	sg n
   	oma	0		P	sg p
   	oma	0		S	sg n
   	oma	0		S	sg p
teenistusest	teenistus	st		S	sg el
lahti	laht	i		S	pl p
     	lahti	0		D	
.	.			Z	
