Kaebas	kaeba	s		V	s
Juharka	####				
Palkov	####				
et	et	0		J	
temal	tema	l		P	sg ad
August	august	0		S	sg n
      	auk	st		S	sg el
      	August	0		H	sg n
Andersoni	####				
käest	käest	0		K	
     	käsi	st		S	sg el
saada	saa	da		V	da
     	saat	0		V	o
     	saa	da		V	ta
olla	ole	a		V	da
1.	1.	0		O	?
sula	sula	0		A	sg g
    	sula	0		S	sg g
    	sula	0		V	o
    	sula	0		A	sg n
    	sula	0		A	sg p
    	sula	0		S	sg n
    	sula	0		S	sg p
raha	raha	0		S	sg g
    	raha	0		S	sg n
    	raha	0		S	sg p
2	2	0		N	?
rbl	rbl	0		Y	?
2.	2.	0		O	?
3	3	0		N	?
päeva	päev	0		S	adt
     	päev	0		S	sg g
     	päev	0		S	sg p
töös	töö	s		S	sg in
olnud	ol=nud	0		A	
     	ol=nud	0		A	sg n
     	ol=nud	d		A	pl n
     	ole	nud		V	nud
     	olnu	d		S	pl n
nõuab	nõud	b		V	b
1	1	0		N	?
paeva	####				
eest	eest	0		D	
    	eest	0		K	
    	esi	st		S	sg el
40	40	0		N	?
koop	koop	0		Y	?
.	.			Z	
ja	ja	0		J	
teiste	teine	te		O	pl g
      	teine	te		P	pl g
2	2	0		N	?
paeva	####				
eest	eest	0		D	
    	eest	0		K	
    	esi	st		S	sg el
a	a	0		Y	?
35	35	0		N	?
kop	kop	0		Y	?
.	.			Z	
mida	mis	da		P	pl p
    	mis	da		P	sg p
nüid	####				
kätte	kätte	0		K	
     	käsi	tte		S	adt
nõuab	nõud	b		V	b
}	}			Z	
1	1	0		N	?
rbl	rbl	0		Y	?
10	10	0		N	?
kop	kop	0		Y	?
.	.			Z	
August	august	0		S	sg n
      	auk	st		S	sg el
      	August	0		H	sg n
Anderson	####				
and	and	0		S	sg n
vastust	vastus	t		S	sg p
1.	1.	0		O	?
2	2	0		N	?
rubl	####				
raha	raha	0		S	sg g
    	raha	0		S	sg n
    	raha	0		S	sg p
olla	ole	a		V	da
tema	tema	0		P	sg g
    	tema	0		P	sg n
kül	####				
saanud	saa	nud		V	nud
      	saa=nud	0		A	
      	saa=nud	0		A	sg n
      	saa=nud	d		A	pl n
      	saanu	d		S	pl n
,	,			Z	
aga	aga	0		J	
tema	tema	0		P	sg g
    	tema	0		P	sg n
ema	ema	0		S	sg g
   	ema	0		S	sg n
   	ema	0		S	sg p
olev	ole	v		V	v
    	olev	0		A	sg n
    	olev	0		S	sg n
temale	tema	le		P	sg all
selle	see	0		P	sg g
     	sell	e		S	pl p
eest	eest	0		D	
    	eest	0		K	
    	esi	st		S	sg el
1	1	0		N	?
mehe	mees	0		S	sg g
1	1	0		N	?
pool	pool	0		K	
    	pool	0		N	sg n
    	pool	0		S	sg n
petud	pett	d		S	pl n
pintsaku	pintsak	0		S	sg g
ja	ja	0		J	
püksis	püks	s		S	sg in
andnud	and	nud		V	nud
      	and=nu	d		S	pl n
      	and=nud	0		A	
      	and=nud	0		A	sg n
      	and=nud	d		A	pl n
kellega	kes	ga		P	pl kom
       	kes	ga		P	sg kom
tema	tema	0		P	sg g
    	tema	0		P	sg n
seda	see	da		P	sg p
2	2	0		N	?
rbl	rbl	0		Y	?
tasa	tasa	0		D	
arvab	arva	b		V	b
.	.			Z	
2.	2.	0		O	?
2	2	0		N	?
päeva	päev	0		S	adt
     	päev	0		S	sg g
     	päev	0		S	sg p
eest	eest	0		D	
    	eest	0		K	
    	esi	st		S	sg el
olevad	olev	d		A	pl n
      	olev	d		S	pl n
tema	tema	0		P	sg g
    	tema	0		P	sg n
50	50	0		N	?
kop	kop	0		Y	?
aramaksnud	####				
ühe	üks	0		N	sg g
   	üks	0		P	sg g
   	ühe	0		S	sg n
aru	aru	0		S	sg g
   	aru	0		S	sg n
   	aru	0		S	sg p
põimise	põimis	0		S	sg g
päeva	päev	0		S	adt
     	päev	0		S	sg g
     	päev	0		S	sg p
eest	eest	0		D	
    	eest	0		K	
    	esi	st		S	sg el
olevad	olev	d		A	pl n
      	olev	d		S	pl n
kül	####				
veel	veel	0		D	
    	vesi	l		S	sg ad
maksmata	maks	mata		V	mata
        	maks=mata	0		A	
kellele	kes	le		P	pl all
       	kes	le		P	sg all
hinda	hind	0		S	adt
     	hinda	0		V	o
     	hind	0		S	sg p
ei	ei	0		D	
  	ei	0		V	neg
olevad	olev	d		A	pl n
      	olev	d		S	pl n
määratud	määra	tud		V	tud
        	määra=tu	d		S	pl n
        	määratu	d		A	pl n
        	määratud	0		A	
        	määratud	0		A	sg n
        	määratud	d		A	pl n
.	.			Z	
Juharka	####				
Palkov	####				
ütleb	ütle	b		V	b
rõid	####				
kül	####				
saanud	saa	nud		V	nud
      	saa=nud	0		A	
      	saa=nud	0		A	sg n
      	saa=nud	d		A	pl n
      	saanu	d		S	pl n
olema	ole	ma		V	ma
aga	aga	0		J	
raha	raha	0		S	sg g
    	raha	0		S	sg n
    	raha	0		S	sg p
ei	ei	0		D	
  	ei	0		V	neg
ütle	ütle	0		V	o
tema	tema	0		P	sg g
    	tema	0		P	sg n
kopikutki	####				
saanud	saa	nud		V	nud
      	saa=nud	0		A	
      	saa=nud	0		A	sg n
      	saa=nud	d		A	pl n
      	saanu	d		S	pl n
olema	ole	ma		V	ma
.	.			Z	
Mõistmine	mõistmine	0		S	sg n
:	:			Z	
kuna	kuna	0		D	
    	kuna	0		J	
Juharka	####				
Palkov	####				
rõivad	rõivas	d		S	pl n
saamist	saam	st		S	sg el
       	saamine	t		S	sg p
ei	ei	0		D	
  	ei	0		V	neg
salga	salga	0		V	o
     	salk	0		S	sg g
siis	siis	0		D	
    	siis	0		J	
arvad	arva	d		V	d
kohus	kohu	s		V	s
     	kohus	0		S	sg n
rüki	rükki	0		V	o
lõigamise	####				
päeva	päev	0		S	adt
     	päev	0		S	sg g
     	päev	0		S	sg p
40	40	0		N	?
kop	kop	0		Y	?
.	.			Z	
ja	ja	0		J	
kartuli	kartul	0		S	sg g
võtmise	võtmine	0		S	sg g
päevad	päev	d		S	pl n
a	a	0		Y	?
30	30	0		N	?
kop	kop	0		Y	?
.	.			Z	
otsus	otsus	0		S	sg n
:	:			Z	
August	august	0		S	sg n
      	auk	st		S	sg el
      	August	0		H	sg n
Anderson	####				
peab	pida	b		V	b
3	3	0		N	?
päeva	päev	0		S	adt
     	päev	0		S	sg g
     	päev	0		S	sg p
eest	eest	0		D	
    	eest	0		K	
    	esi	st		S	sg el
Juharka	####				
Palkovile	####				
4	4	0		N	?
nädala	nädal	0		S	sg g
aea	####				
sees	sees	0		D	
    	sees	0		K	
1	1	0		N	?
rbl	rbl	0		Y	?
.	.			Z	
välja	välja	0		D	
     	välja	0		V	o
     	väli	0		S	adt
     	väli	0		S	sg g
     	väli	0		S	sg p
maksma	maks	ma		V	ma
.	.			Z	
2rbl	####				
.	.			Z	
roivaestega	####				
tasa	tasa	0		D	
arvata	arva	ta		V	da
      	arva	ta		V	ta
      	arvata	0		D	
.	.			Z	
see	see	0		P	sg n
otsus	otsus	0		S	sg n
L	L	0		O	?
 	L	0		Y	?
.	.			Z	
T	T	0		Y	?
.	.			Z	
S	S	0		Y	?
§	§	0		Y	?
773	773	0		N	?
ja	ja	0		J	
774	774	0		N	?
perra	####				
kuulutud	kuulu	tud		V	tud
        	kuulu=tu	d		S	pl n
        	kuulu=tud	0		A	
        	kuulu=tud	0		A	sg n
        	kuulu=tud	d		A	pl n
.	.			Z	
peakohtumees	pea_kohtu_mees	0		S	sg n
:	:			Z	
Kusta	Kusta	0		H	sg g
     	Kusta	0		H	sg n
     	kuse	ta		V	da
     	kuse	ta		V	ta
Rämman	####				
[	[			Z	
allkiri	all_kiri	0		S	sg n
]	]			Z	
kohtumees	kohtu_mees	0		S	sg n
:	:			Z	
Kristjan	Kristjan	0		H	sg n
kübar	kübar	0		S	sg n
[	[			Z	
allkiri	all_kiri	0		S	sg n
]	]			Z	
abi	abi	0		S	sg g
   	abi	0		S	sg n
   	abi	0		S	sg p
:	:			Z	
Jooosep	####				
Sults	####				
XXX	XXX	0		O	?
   	XXX	0		Y	?
