Mihkli	Mihkel	0		H	sg g
      	Mihkli	0		H	sg g
      	mihkel	0		A	sg g
      	mihkel	0		S	sg g
      	Mihkli	0		H	sg n
Usin	usin	0		A	sg n
tuli	tuli	0		S	sg n
    	tule	i		V	s
jälle	jälle	0		D	
selsamal	see_sama	l		P	sg ad
päeval	päev	l		S	sg ad
,	,			Z	
24.	24.	0		O	?
Januaril	####				
ette	ette	0		D	
    	ette	0		K	
    	esi	tte		S	adt
kaebas	kaeba	s		V	s
,	,			Z	
Johan	Johan	0		H	sg n
Troonil	troon	l		S	sg ad
olevat	ole	vat		V	vat
      	olev	t		A	sg p
      	olev	t		S	sg p
temale	tema	le		P	sg all
6	6	0		N	?
rublat	rubla	t		S	sg p
maksa	maks	0		S	adt
     	maks	0		S	sg g
     	maks	0		V	o
     	maks	0		S	sg p
,	,			Z	
Juhan	Juhan	0		H	sg n
Troon	troon	0		S	sg n
ei	ei	0		D	
  	ei	0		V	neg
või	või	0		S	sg g
   	või	0		V	o
   	või	0		D	
   	või	0		J	
   	või	0		S	sg n
seda	see	da		P	sg p
salata	salga	ta		V	da
      	sala	ta		S	sg ab
      	salga	ta		V	ta
;	;			Z	
ega	ega	0		D	
   	ega	0		J	
palle	pall	e		S	pl p
tuleva	tulev	0		A	sg g
oriku	####				
laadeni	####				
kannatada	kannata	da		V	da
ja	ja	0		J	
selle	see	0		P	sg g
     	sell	e		S	pl p
ootuse	ootus	0		S	sg g
eest	eest	0		D	
    	eest	0		K	
    	esi	st		S	sg el
lubas	luba	s		V	s
Juhan	Juhan	0		H	sg n
Troon	troon	0		S	sg n
ise	ise	0		A	
   	ise	0		D	
   	ise	0		P	pl n
   	ise	0		P	sg n
üks	üks	0		N	sg n
   	üks	0		P	sg n
vakk	vakk	0		S	sg n
kartulit	kartul	t		S	sg p
maha	maha	0		D	
Usinale	usin	le		A	sg all
panna	pand	0		S	sg g
     	pane	a		V	da
     	panna	0		S	sg g
     	panna	0		S	sg n
,	,			Z	
mis	mis	0		P	pl n
   	mis	0		P	sg n
peale	pea	le		S	sg all
     	peale	0		D	
     	peale	0		K	
ka	ka	0		D	
jäi	jää	i		V	s
.	.			Z	
_	_			Z	
