tu	####				
läks	mine	s		V	s
Eva	Eva	0		H	sg g
   	Eva	0		H	sg n
Nagelmann	####				
kaebab	kaeba	b		V	b
et	et	0		J	
tema	tema	0		P	sg g
    	tema	0		P	sg n
poeg	poeg	0		S	sg n
ja	ja	0		J	
poega	poeg	0		S	adt
     	pood	ga		S	sg kom
     	poeg	0		S	sg p
naine	naine	0		S	sg n
ei	ei	0		D	
  	ei	0		V	neg
või	või	0		S	sg g
   	või	0		V	o
   	või	0		D	
   	või	0		J	
   	või	0		S	sg n
teda	tema	da		P	sg p
tahet	tahe	t		S	sg p
ning	ning	0		J	
ei	ei	0		D	
  	ei	0		V	neg
anna	and	0		V	o
    	anna	0		S	sg g
    	anna	0		S	sg n
suia	####				
,	,			Z	
ning	ning	0		J	
poeg	poeg	0		S	sg n
ei	ei	0		D	
  	ei	0		V	neg
ehlak	####				
sugugi	sugugi	0		D	
oma	oma	0		A	sg g
   	oma	0		D	
   	oma	0		P	sg g
   	oma	0		S	sg g
   	oma	0		V	o
   	oma	0		A	sg n
   	oma	0		A	sg p
   	oma	0		P	sg n
   	oma	0		P	sg p
   	oma	0		S	sg n
   	oma	0		S	sg p
naist	naine	t		S	sg p
.	.			Z	
poeg	poeg	0		S	sg n
Rein	Rein	0		H	sg n
Nagelmann	####				
vastutab	vastuta	b		V	b
tema	tema	0		P	sg g
    	tema	0		P	sg n
ei	ei	0		D	
  	ei	0		V	neg
ole	ole	0		V	o
mitte	mitte	0		D	
sõna	sõna	0		S	sg g
    	sõna	0		V	o
    	sõna	0		S	sg n
    	sõna	0		S	sg p
halvasta	####				
ütelnud	ütle	nud		V	nud
       	ütel=nu	d		S	pl n
       	ütel=nud	0		A	
       	ütel=nud	0		A	sg n
       	ütel=nud	d		A	pl n
,	,			Z	
võib	või	b		V	b
olla	ole	a		V	da
et	et	0		J	
naisest	naine	st		S	sg el
on	ole	0		V	b
  	ole	0		V	vad
tule	tuli	0		S	sg g
    	tule	0		V	o
olnud	ol=nud	0		A	
     	ol=nud	0		A	sg n
     	ol=nud	d		A	pl n
     	ole	nud		V	nud
     	olnu	d		S	pl n
.	.			Z	
Reinud	Rein	d		H	pl n
naine	naine	0		S	sg n
Truta	####				
vastut	####				
tema	tema	0		P	sg g
    	tema	0		P	sg n
ema	ema	0		S	sg g
   	ema	0		S	sg n
   	ema	0		S	sg p
on	ole	0		V	b
  	ole	0		V	vad
teda	tema	da		P	sg p
seimanud	####				
sus	sina	s		P	sg in
on	ole	0		V	b
  	ole	0		V	vad
tema	tema	0		P	sg g
    	tema	0		P	sg n
ka	ka	0		D	
mune	muna	e		S	pl p
    	mune	0		V	o
sõna	sõna	0		S	sg g
    	sõna	0		V	o
    	sõna	0		S	sg n
    	sõna	0		S	sg p
vastu	vastu	0		D	
     	vastu	0		K	
ütelnud	ütle	nud		V	nud
       	ütel=nu	d		S	pl n
       	ütel=nud	0		A	
       	ütel=nud	0		A	sg n
       	ütel=nud	d		A	pl n
.	.			Z	
kadunud	kadu	nud		V	nud
       	kadunu	d		S	pl n
       	kadunud	0		A	
       	kadunud	0		A	sg n
       	kadunud	d		A	pl n
Juhan	Juhan	0		H	sg n
Nagelmann	####				
varandus	varandus	0		S	sg n
2	2	0		N	?
hobust	hobu	st		S	sg el
      	hobune	t		S	sg p
1	1	0		N	?
vars	vars	0		S	sg n
3	3	0		N	?
lehma	lehm	0		S	adt
     	lehm	0		S	sg g
     	lehm	0		S	sg p
1	1	0		N	?
vasik	####				
3	3	0		N	?
lammas	lammas	0		S	sg n
3	3	0		N	?
siga	siga	0		A	sg n
    	siga	0		A	sg p
    	siga	0		S	sg n
    	siga	0		S	sg p
1	1	0		N	?
ratta	ratas	0		S	sg g
3	3	0		N	?
raegagi	raad	ga	gi	S	sg kom
2	2	0		N	?
suuremat	suurem	t		C	sg p
1	1	0		N	?
vähem	vähem	0		C	sg n
     	vähem	0		D	
tõrtud	####				
3	3	0		N	?
toobrit	toober	t		S	sg p
2	2	0		N	?
pange	pang	0		S	adt
     	pang	0		S	sg g
     	pane	ge		V	ge
     	pang	0		S	sg p
2	2	0		N	?
atra	ader	0		S	adt
    	ader	0		S	sg p
3	3	0		N	?
Tõrikut	####				
4	4	0		N	?
länigut	####				
1	1	0		N	?
püt	####				
1	1	0		N	?
Leiva	leib	0		S	sg g
tõrtud	####				
1	1	0		N	?
Jahi	jaht	0		S	sg g
    	jahti	0		V	o
kivi	kivi	0		S	sg g
    	kivi	0		S	sg n
    	kivi	0		S	sg p
4	4	0		N	?
kohe	kohe	0		A	sg n
    	kohe	0		D	
üks	üks	0		N	sg n
   	üks	0		P	sg n
käsk	käsk	0		S	sg n
1	1	0		N	?
särk	särk	0		S	sg n
1	1	0		N	?
kirves	kirves	0		S	sg n
      	kirves	s		S	sg in
2	2	0		N	?
vikatit	vikat	t		S	sg p
5	5	0		N	?
Tirpi	####				
1	1	0		N	?
Kikkas	kikas	s		S	sg in
4	4	0		N	?
kanna	kand	0		S	sg g
     	kand	0		V	o
     	kanna	0		S	sg g
     	kanna	0		S	sg n
tu	####				
läks	mine	s		V	s
Eva	Eva	0		H	sg g
   	Eva	0		H	sg n
Nagelmann	####				
on	ole	0		V	b
  	ole	0		V	vad
oma	oma	0		A	sg g
   	oma	0		D	
   	oma	0		P	sg g
   	oma	0		S	sg g
   	oma	0		V	o
   	oma	0		A	sg n
   	oma	0		A	sg p
   	oma	0		P	sg n
   	oma	0		P	sg p
   	oma	0		S	sg n
   	oma	0		S	sg p
emaga	ema	ga		S	sg kom
eha	eha	0		S	sg g
   	eha	0		V	o
   	eha	0		S	sg n
   	eha	0		S	sg p
leppinud	leppi	nud		V	nud
        	leppi=nu	d		S	pl n
        	leppi=nud	0		A	
        	leppi=nud	0		A	sg n
        	leppi=nud	d		A	pl n
ja	ja	0		J	
lubanud	luba	nud		V	nud
       	luba=nu	d		S	pl n
       	luba=nud	0		A	
       	luba=nud	0		A	sg n
       	luba=nud	d		A	pl n
haeste	####				
elama	ela	ma		V	ma
.	.			Z	
