lganud	####				
külast	küla	st		S	sg el
Mik	####				
joolandil	####				
,	,			Z	
Karl	Karl	0		H	sg n
Konsvikil	####				
,	,			Z	
Jaan	Jaan	0		H	sg n
    	jaan	0		S	sg n
    	jaan	0		Y	?
raudbergil	####				
on	ole	0		V	b
  	ole	0		V	vad
üles	üles	0		D	
üteldud	ütle	dud		V	tud
       	ütel=du	d		S	pl n
       	ütel=dud	0		A	
       	ütel=dud	0		A	sg n
       	ütel=dud	d		A	pl n
et	et	0		J	
mõisa	mõis	0		S	sg g
nende	see	de		P	pl g
     	tema	de		P	pl g
majad	maja	d		S	pl n
ära	ära	0		D	
   	ära	0		V	neg o
müüb	müü	b		V	b
.	.			Z	
pea	pea	0		D	
   	pea	0		S	sg g
   	pida	0		V	o
   	pea	0		S	sg n
kohtumees	kohtu_mees	0		S	sg n
Paap	####				
Kiudorv	kiud_orv	0		S	sg n
kohtumees	kohtu_mees	0		S	sg n
Kristjan	Kristjan	0		H	sg n
Võsoberg	####				
kohtumees	kohtu_mees	0		S	sg n
Jaan	Jaan	0		H	sg n
    	jaan	0		S	sg n
    	jaan	0		Y	?
Holsting	####				
Jakob	Jakob	0		H	sg n
Türkson	####				
