ette	ette	0		D	
    	ette	0		K	
    	esi	tte		S	adt
tuli	tuli	0		S	sg n
    	tule	i		V	s
Karl	Karl	0		H	sg n
krunthal	####				
ja	ja	0		J	
kaebas	kaeba	s		V	s
et	et	0		J	
Vastselina	vastse_lina	0		S	sg g
          	vastse_lina	0		S	sg n
          	vastse_lina	0		S	sg p
Jora	jora	0		S	sg g
    	jora	0		V	o
    	jora	0		S	sg n
    	jora	0		S	sg p
külla	küll	0		S	adt
     	küll	0		S	sg g
     	küla	0		S	adt
     	küll	0		S	sg p
mees	mees	0		S	sg n
    	mesi	s		S	sg in
Karl	Karl	0		H	sg n
Hamk	####				
ei	ei	0		D	
  	ei	0		V	neg
pea	pea	0		D	
   	pea	0		S	sg g
   	pida	0		V	o
   	pea	0		S	sg n
mitte	mitte	0		D	
tema	tema	0		P	sg g
    	tema	0		P	sg n
nurme	nurm	0		S	adt
     	nurm	0		S	sg g
     	nurm	0		S	sg p
rahule	rahu	le		S	sg all
      	rahule	0		D	
on	ole	0		V	b
  	ole	0		V	vad
kõige	kõik	0		P	sg g
     	kõige	0		D	
rukki	rukis	0		S	adt
     	rukis	0		S	sg g
äära	####				
tamppinud	tamp_pinu	d		S	pl n
nurmes	nurm	s		S	sg in
nii	nii	0		D	
ka	ka	0		D	
mets	mets	0		S	sg n
maas	maa	s		S	sg in
    	maas	0		D	
,	,			Z	
kaks	kaks	0		N	sg n
kord	kord	0		D	
    	kord	0		S	sg n
on	ole	0		V	b
  	ole	0		V	vad
saanud	saa	nud		V	nud
      	saa=nud	0		A	
      	saa=nud	0		A	sg n
      	saa=nud	d		A	pl n
      	saanu	d		S	pl n
tema	tema	0		P	sg g
    	tema	0		P	sg n
hoopesid	####				
ka	ka	0		D	
kinni	kinni	0		D	
võetud	võe=tu	d		S	pl n
      	võetud	0		A	
      	võetud	0		A	sg n
      	võetud	d		A	pl n
      	võt	tud		V	tud
,	,			Z	
ent	ent	0		J	
tema	tema	0		P	sg g
    	tema	0		P	sg n
palve	palve	0		S	sg g
     	palve	0		S	sg n
peal	pea	l		S	sg ad
    	peal	0		D	
    	peal	0		K	
,	,			Z	
et	et	0		J	
tema	tema	0		P	sg g
    	tema	0		P	sg n
enda	ise	0		P	sg g
parandab	paranda	b		V	b
on	ole	0		V	b
  	ole	0		V	vad
saanud	saa	nud		V	nud
      	saa=nud	0		A	
      	saa=nud	0		A	sg n
      	saa=nud	d		A	pl n
      	saanu	d		S	pl n
jälle	jälle	0		D	
tagasi	tagasi	0		D	
      	tagasi	0		K	
antud	an=tu	d		S	pl n
     	and	tud		V	tud
     	antud	0		A	
     	antud	0		A	sg n
     	antud	d		A	pl n
,	,			Z	
kahju	kahi	0		S	adt
     	kahi	0		S	sg g
     	kahi	0		S	sg p
     	kahju	0		S	sg g
     	kahju	0		S	sg n
     	kahju	0		S	sg p
on	ole	0		V	b
  	ole	0		V	vad
ka	ka	0		D	
.	.			Z	
Vöörmündri	vöörmünder	0		S	sg g
Erik	Erik	0		H	sg n
üle	üle	0		D	
   	üle	0		K	
kaenud	kae	nud		V	nud
      	kae=nu	d		S	pl n
      	kae=nud	0		A	
      	kae=nud	0		A	sg n
      	kae=nud	d		A	pl n
ja	ja	0		J	
nud	####				
nõud	nõu	d		S	pl n
Karl	Karl	0		H	sg n
krunthal	####				
25	25	0		N	?
rbl	rbl	0		Y	?
.	.			Z	
seda	see	da		P	sg p
kahju	kahi	0		S	adt
     	kahi	0		S	sg g
     	kahi	0		S	sg p
     	kahju	0		S	sg g
     	kahju	0		S	sg n
     	kahju	0		S	sg p
ja	ja	0		J	
et	et	0		J	
tema	tema	0		P	sg g
    	tema	0		P	sg n
kaks	kaks	0		N	sg n
kord	kord	0		D	
    	kord	0		S	sg n
on	ole	0		V	b
  	ole	0		V	vad
ju	ju	0		D	
siin	siin	0		D	
    	siin	0		S	sg n
äära	####				
käinud	käi	nud		V	nud
      	käi=nud	0		A	
      	käi=nud	0		A	sg n
      	käi=nud	d		A	pl n
      	käinu	d		S	pl n
,	,			Z	
kuna	kuna	0		D	
    	kuna	0		J	
Karl	Karl	0		H	sg n
Hamk	####				
ei	ei	0		D	
  	ei	0		V	neg
ole	ole	0		V	o
olnud	ol=nud	0		A	
     	ol=nud	0		A	sg n
     	ol=nud	d		A	pl n
     	ole	nud		V	nud
     	olnu	d		S	pl n
nõud	nõu	d		S	pl n
tema	tema	0		P	sg g
    	tema	0		P	sg n
päeva	päev	0		S	adt
     	päev	0		S	sg g
     	päev	0		S	sg p
palka	palk	0		S	adt
     	palka	0		V	o
     	palk	0		S	sg p
1	1	0		N	?
rbl	rbl	0		Y	?
.	.			Z	
see	see	0		P	sg n
on	ole	0		V	b
  	ole	0		V	vad
2	2	0		N	?
rbl	rbl	0		Y	?
.	.			Z	
otsus	otsus	0		S	sg n
:	:			Z	
""""	""""			Z	
Karl	Karl	0		H	sg n
Hamk	####				
veel	veel	0		D	
    	vesi	l		S	sg ad
13.	13.	0		O	?
Novembris	november	s		S	sg in
ette	ette	0		D	
    	ette	0		K	
    	esi	tte		S	adt
tallitada	####				
.	.			Z	
""""	""""			Z	
peakohtumees	pea_kohtu_mees	0		S	sg n
K	K	0		Y	?
.	.			Z	
_	_			Z	
Lõhmus	lõhmus	0		S	sg n
[	[			Z	
allkiri	all_kiri	0		S	sg n
]	]			Z	
kohtumees	kohtu_mees	0		S	sg n
T. Pilt	####				
[	[			Z	
allkiri	all_kiri	0		S	sg n
]	]			Z	
kohtumees	kohtu_mees	0		S	sg n
Jaan	Jaan	0		H	sg n
    	jaan	0		S	sg n
    	jaan	0		Y	?
Oppar	####				
XXX	XXX	0		O	?
   	XXX	0		Y	?
kirj	####				
.	.			Z	
asemel	ase	l		S	sg ad
      	asemel	0		K	
R. Noormann	####				
