Kaebas	kaeba	s		V	s
vani	####				
Jakovlev	Jakovlev	0		H	sg n
Peluubsov	####				
et	et	0		J	
Mari	Mari	0		H	sg g
    	mari	0		S	sg g
    	mari	0		S	sg n
    	Mari	0		H	sg n
    	mari	0		S	sg p
Küütson	####				
olevat	ole	vat		V	vat
      	olev	t		A	sg p
      	olev	t		S	sg p
teda	tema	da		P	sg p
hoorapealikuks	hoora_pealik	ks		S	sg tr
sõimanud	sõima	nud		V	nud
        	sõima=nu	d		S	pl n
        	sõima=nud	0		A	
        	sõima=nud	0		A	sg n
        	sõima=nud	d		A	pl n
ja	ja	0		J	
nüüd	nüüd	0		D	
ei	ei	0		D	
  	ei	0		V	neg
olevat	ole	vat		V	vat
      	olev	t		A	sg p
      	olev	t		S	sg p
tema	tema	0		P	sg g
    	tema	0		P	sg n
naine	naine	0		S	sg n
Maarj	####				
Peluabsov	####				
abieluga	abi_elu	ga		S	sg kom
mitte	mitte	0		D	
rahul	rahu	l		S	sg ad
     	rahul	0		D	
.	.			Z	
otsus	otsus	0		S	sg n
Mari	Mari	0		H	sg g
    	mari	0		S	sg g
    	mari	0		S	sg n
    	Mari	0		H	sg n
    	mari	0		S	sg p
Küütson	####				
ja	ja	0		J	
Mari	Mari	0		H	sg g
    	mari	0		S	sg g
    	mari	0		S	sg n
    	Mari	0		H	sg n
    	mari	0		S	sg p
Peluubsov	####				
ses	see	s		P	sg in
1	1	0		N	?
Septemb	####				
.	.			Z	
