kaebas	kaeba	s		V	s
Paap	####				
Sabbal	####				
,	,			Z	
Jaan	Jaan	0		H	sg n
    	jaan	0		S	sg n
    	jaan	0		Y	?
Leplandi	####				
kari	kari	0		S	sg g
    	kari	0		S	sg n
    	kari	0		S	sg p
olevat	ole	vat		V	vat
      	olev	t		A	sg p
      	olev	t		S	sg p
tema	tema	0		P	sg g
    	tema	0		P	sg n
niitin	####				
hädala	####				
heinu	hein	u		S	pl p
ära	ära	0		D	
   	ära	0		V	neg o
satatud	####				
,	,			Z	
ning	ning	0		J	
ossast	####				
olevat	ole	vat		V	vat
      	olev	t		A	sg p
      	olev	t		S	sg p
saatist	####				
ära	ära	0		D	
   	ära	0		V	neg o
songinud	songi	nud		V	nud
        	songi=nu	d		S	pl n
        	songi=nud	0		A	
        	songi=nud	0		A	sg n
        	songi=nud	d		A	pl n
ning	ning	0		J	
nõuab	nõud	b		V	b
selle	see	0		P	sg g
     	sell	e		S	pl p
kahju	kahi	0		S	adt
     	kahi	0		S	sg g
     	kahi	0		S	sg p
     	kahju	0		S	sg g
     	kahju	0		S	sg n
     	kahju	0		S	sg p
eest	eest	0		D	
    	eest	0		K	
    	esi	st		S	sg el
30	30	0		N	?
rubla	rubla	0		S	sg g
     	rubla	0		S	sg n
     	rubla	0		S	sg p
hõb	####				
.	.			Z	
Jaan	Jaan	0		H	sg n
    	jaan	0		S	sg n
    	jaan	0		Y	?
Lepland	####				
sai	saa	i		V	s
   	sai	0		S	sg n
ette	ette	0		D	
    	ette	0		K	
    	esi	tte		S	adt
kutsutud	kutsu	tud		V	tud
        	kutsutu	d		S	pl n
        	kutsutud	0		A	
        	kutsutud	0		A	sg n
        	kutsutud	d		A	pl n
ja	ja	0		J	
vastutas	vastuta	s		V	s
see	see	0		P	sg n
asi	asi	0		S	sg n
   	asi	0		V	o
ei	ei	0		D	
  	ei	0		V	neg
olevat	ole	vat		V	vat
      	olev	t		A	sg p
      	olev	t		S	sg p
nii	nii	0		D	
suur	suur	0		A	sg n
kui	kui	0		D	
   	kui	0		J	
Paap	####				
Sabbal	####				
ülesannud	####				
.	.			Z	
mõistetud	mõist	tud		V	tud
         	mõiste=tu	d		S	pl n
         	mõiste=tud	0		A	
         	mõiste=tud	0		A	sg n
         	mõiste=tud	d		A	pl n
:	:			Z	
Peakohtumehe	pea_kohtu_mees	0		S	sg g
ülekaemise	üle_kae=mine	0		S	sg g
perra	####				
,	,			Z	
ei	ei	0		D	
  	ei	0		V	neg
olevat	ole	vat		V	vat
      	olev	t		A	sg p
      	olev	t		S	sg p
see	see	0		P	sg n
kurjatöö	kurja_töö	0		S	sg g
        	kurja_töö	0		S	sg n
mitte	mitte	0		D	
liik	liik	0		S	sg n
suur	suur	0		A	sg n
,	,			Z	
siis	siis	0		D	
    	siis	0		J	
maksab	maks	b		V	b
Jaan	Jaan	0		H	sg n
    	jaan	0		S	sg n
    	jaan	0		Y	?
Lepland	####				
1	1	0		N	?
rbl	rbl	0		Y	?
.	.			Z	
Paap	####				
Saalile	saal	le		S	sg all
kätte	kätte	0		K	
     	käsi	tte		S	adt
nädala	nädal	0		S	sg g
pärast	pära	st		S	sg el
      	pärane	t		A	sg p
      	pärast	0		D	
      	pärast	0		K	
välja	välja	0		D	
     	välja	0		V	o
     	väli	0		S	adt
     	väli	0		S	sg g
     	väli	0		S	sg p
.	.			Z	
Paap	####				
Sabbal	####				
tunnist	tund	st		S	sg el
       	tunnine	t		A	sg p
sellega	see	ga		P	sg kom
mitte	mitte	0		D	
rahul	rahu	l		S	sg ad
     	rahul	0		D	
ent	ent	0		J	
arvab	arva	b		V	b
see	see	0		P	sg n
olevat	ole	vat		V	vat
      	olev	t		A	sg p
      	olev	t		S	sg p
vähe	vähe	0		D	
selle	see	0		P	sg g
     	sell	e		S	pl p
kahju	kahi	0		S	adt
     	kahi	0		S	sg g
     	kahi	0		S	sg p
     	kahju	0		S	sg g
     	kahju	0		S	sg n
     	kahju	0		S	sg p
man	man	0		D	
   	man	0		K	
.	.			Z	
