ette	ette	0		D	
    	ette	0		K	
    	esi	tte		S	adt
tuli	tuli	0		S	sg n
    	tule	i		V	s
Simon	Simon	0		H	sg n
kandud	kandu	d		V	d
ja	ja	0		J	
kaebas	kaeba	s		V	s
et	et	0		J	
tema	tema	0		P	sg g
    	tema	0		P	sg n
tütar	tütar	0		S	sg n
olnud	ol=nud	0		A	
     	ol=nud	0		A	sg n
     	ol=nud	d		A	pl n
     	ole	nud		V	nud
     	olnu	d		S	pl n
9	9	0		N	?
aastat	aasta	t		S	sg p
vana	vana	0		A	sg g
    	vana	0		A	sg n
    	vana	0		A	sg p
    	vana	0		S	sg g
    	vana	0		S	sg n
    	vana	0		S	sg p
kui	kui	0		D	
   	kui	0		J	
Jakob	Jakob	0		H	sg n
Vossi	####				
teenima	teeni	ma		V	ma
läinud	läinu	d		S	pl n
      	läinud	0		A	
      	läinud	0		A	sg n
      	läinud	d		A	pl n
      	mine	nud		V	nud
ning	ning	0		J	
12	12	0		N	?
aastat	aasta	t		S	sg p
ilma	ilm	0		S	adt
    	ilm	0		S	sg g
    	ilma	0		D	
    	ilma	0		K	
    	ilm	0		S	sg p
palgata	palk	ta		S	sg ab
       	palka	ta		V	da
       	palka	ta		V	ta
teeninu	teeni=nu	0		S	sg g
       	teeni=nu	0		S	sg n
ning	ning	0		J	
nüüd	nüüd	0		D	
teenistusest	teenistus	st		S	sg el
ära	ära	0		D	
   	ära	0		V	neg o
võtnud	võt	nud		V	nud
      	võt=nu	d		S	pl n
      	võt=nud	0		A	
      	võt=nud	0		A	sg n
      	võt=nud	d		A	pl n
siis	siis	0		D	
    	siis	0		J	
nõuab	nõud	b		V	b
selle	see	0		P	sg g
     	sell	e		S	pl p
12	12	0		N	?
aasta	aasta	0		S	sg g
     	aasta	0		S	sg n
teenistuse	teenistus	0		S	sg g
enne	enne	0		D	
    	enne	0		K	
    	enne	0		S	sg n
_2te	####				
viimase	viimane	0		A	sg g
aasta	aasta	0		S	sg g
     	aasta	0		S	sg n
eest	eest	0		D	
    	eest	0		K	
    	esi	st		S	sg el
20	20	0		N	?
rbl	rbl	0		Y	?
palka	palk	0		S	adt
     	palka	0		V	o
     	palk	0		S	sg p
.	.			Z	
Jakob	Jakob	0		H	sg n
Võs	####				
ütles	ütle	s		V	s
et	et	0		J	
Simon	Simon	0		H	sg n
ukand	####				
tütar	tütar	0		S	sg n
oli	ole	i		V	s
5	5	0		N	?
1	1	0		N	?
/	/			Z	
2	2	0		N	?
aastat	aasta	t		S	sg p
vana	vana	0		A	sg g
    	vana	0		A	sg n
    	vana	0		A	sg p
    	vana	0		S	sg g
    	vana	0		S	sg n
    	vana	0		S	sg p
,	,			Z	
siis	siis	0		D	
    	siis	0		J	
sai	saa	i		V	s
   	sai	0		S	sg n
kasvo	####				
tüdres	####				
võetud	võe=tu	d		S	pl n
      	võetud	0		A	
      	võetud	0		A	sg n
      	võetud	d		A	pl n
      	võt	tud		V	tud
ning	ning	0		J	
mineval	minev	l		A	sg ad
suvel	suvi	l		S	sg ad
võttis	võt	is		V	s
Simon	Simon	0		H	sg n
kandud	kandu	d		V	d
oma	oma	0		A	sg g
   	oma	0		D	
   	oma	0		P	sg g
   	oma	0		S	sg g
   	oma	0		V	o
   	oma	0		A	sg n
   	oma	0		A	sg p
   	oma	0		P	sg n
   	oma	0		P	sg p
   	oma	0		S	sg n
   	oma	0		S	sg p
tütre	tütar	0		S	sg g
minu	mina	0		P	sg g
mant	mant	0		D	
    	mant	0		K	
    	mant	0		S	sg n
ning	ning	0		J	
mina	mina	0		P	sg n
    	mina	0		S	sg g
    	mina	0		S	sg n
    	mina	0		S	sg p
ole	ole	0		V	o
ka	ka	0		D	
selle	see	0		P	sg g
     	sell	e		S	pl p
eest	eest	0		D	
    	eest	0		K	
    	esi	st		S	sg el
Simon	Simon	0		H	sg n
kandud	kandu	d		V	d
enda	ise	0		P	sg g
man	man	0		D	
   	man	0		K	
korteris	korter	s		S	sg in
pidanud	pida	nud		V	nud
       	pida=nu	d		S	pl n
       	pida=nud	0		A	
       	pida=nud	0		A	sg n
       	pida=nud	d		A	pl n
ning	ning	0		J	
pärast	pära	st		S	sg el
      	pärane	t		A	sg p
      	pärast	0		D	
      	pärast	0		K	
peakolin	pea_kolin	0		S	sg n
olemist	olem	st		S	sg el
       	olemine	t		S	sg p
on	ole	0		V	b
  	ole	0		V	vad
Simon	Simon	0		H	sg n
ukand	####				
tütar	tütar	0		S	sg n
Julia	Julia	0		H	sg g
     	Julia	0		H	sg n
saanud	saa	nud		V	nud
      	saa=nud	0		A	
      	saa=nud	0		A	sg n
      	saa=nud	d		A	pl n
      	saanu	d		S	pl n
24	24	0		N	?
künard	####				
rõevast	####				
_	_			Z	
12	12	0		N	?
rbl	rbl	0		Y	?
.	.			Z	
1	1	0		N	?
rätt	rätt	0		S	sg n
Rigast	####				
_	_			Z	
3	3	0		N	?
rbl	rbl	0		Y	?
.	.			Z	
50	50	0		N	?
kop	kop	0		Y	?
.	.			Z	
sitsi	sits	0		S	adt
     	sits	0		S	sg g
     	sitsi	0		V	o
     	sits	0		S	sg p
rõivad	rõivas	d		S	pl n
eest	eest	0		D	
    	eest	0		K	
    	esi	st		S	sg el
_	_			Z	
2	2	0		N	?
rbl	rbl	0		Y	?
.	.			Z	
1	1	0		N	?
saabas	saabas	0		S	sg n
_	_			Z	
2	2	0		N	?
rbl	rbl	0		Y	?
.	.			Z	
50	50	0		N	?
kop	kop	0		Y	?
.	.			Z	
11	11	0		N	?
künard	####				
rõevast	####				
_	_			Z	
3	3	0		N	?
rbl	rbl	0		Y	?
.	.			Z	
50	50	0		N	?
kop	kop	0		Y	?
.	.			Z	
1	1	0		N	?
tekk	tekk	0		S	sg n
_	_			Z	
5	5	0		N	?
rbl	rbl	0		Y	?
.	.			Z	
3	3	0		N	?
räti	rätt	0		S	sg g
saanud	saa	nud		V	nud
      	saa=nud	0		A	
      	saa=nud	0		A	sg n
      	saa=nud	d		A	pl n
      	saanu	d		S	pl n
_	_			Z	
2	2	0		N	?
rbl	rbl	0		Y	?
.	.			Z	
raha	raha	0		S	sg g
    	raha	0		S	sg n
    	raha	0		S	sg p
_	_			Z	
1	1	0		N	?
rbl	rbl	0		Y	?
.	.			Z	
3	3	0		N	?
lammast	lammas	t		S	sg p
_	_			Z	
15	15	0		N	?
rbl	rbl	0		Y	?
.	.			Z	
Summa	summ	0		S	adt
     	summ	0		S	sg g
     	summ	0		S	sg p
     	summa	0		S	sg g
     	summa	0		S	sg n
46	46	0		N	?
rbl	rbl	0		Y	?
.	.			Z	
50	50	0		N	?
kop	kop	0		Y	?
.	.			Z	
mõistet	mõiste	t		S	sg p
:	:			Z	
et	et	0		J	
arvata	arva	ta		V	da
      	arva	ta		V	ta
      	arvata	0		D	
Julia	Julia	0		H	sg g
     	Julia	0		H	sg n
kandud	kandu	d		V	d
kasvalast	kasv_ala	st		S	sg el
on	ole	0		V	b
  	ole	0		V	vad
olnud	ol=nud	0		A	
     	ol=nud	0		A	sg n
     	ol=nud	d		A	pl n
     	ole	nud		V	nud
     	olnu	d		S	pl n
ning	ning	0		J	
veidi	veidi	0		D	
rõevast	####				
saanud	saa	nud		V	nud
      	saa=nud	0		A	
      	saa=nud	0		A	sg n
      	saa=nud	d		A	pl n
      	saanu	d		S	pl n
,	,			Z	
siis	siis	0		D	
    	siis	0		J	
peab	pida	b		V	b
Jakob	Jakob	0		H	sg n
Võs	####				
6	6	0		N	?
rbl	rbl	0		Y	?
veel	veel	0		D	
    	vesi	l		S	sg ad
Julia	Julia	0		H	sg g
     	Julia	0		H	sg n
Dukanile	####				
perrä	####				
maksma	maks	ma		V	ma
.	.			Z	
see	see	0		P	sg n
mõistmine	mõistmine	0		S	sg n
on	ole	0		V	b
  	ole	0		V	vad
§	§	0		Y	?
773	773	0		N	?
ja	ja	0		J	
774	774	0		N	?
perrä	####				
kuulutatud	kuuluta	tud		V	tud
          	kuuluta=tu	d		S	pl n
          	kuuluta=tud	0		A	
          	kuuluta=tud	0		A	sg n
          	kuuluta=tud	d		A	pl n
ja	ja	0		J	
õppusleht	õppus_leht	0		S	sg n
välja	välja	0		D	
     	välja	0		V	o
     	väli	0		S	adt
     	väli	0		S	sg g
     	väli	0		S	sg p
antud	an=tu	d		S	pl n
     	and	tud		V	tud
     	antud	0		A	
     	antud	0		A	sg n
     	antud	d		A	pl n
.	.			Z	
peakohtumees	pea_kohtu_mees	0		S	sg n
K	K	0		Y	?
.	.			Z	
_Lõhmus	####				
[	[			Z	
allkiri	all_kiri	0		S	sg n
]	]			Z	
kohtumees	kohtu_mees	0		S	sg n
Peeter	Peeter	0		H	sg n
Prants	####				
[	[			Z	
allkiri	all_kiri	0		S	sg n
]	]			Z	
kohtumees	kohtu_mees	0		S	sg n
Jaan	Jaan	0		H	sg n
    	jaan	0		S	sg n
    	jaan	0		Y	?
Oppar	####				
XXX	XXX	0		O	?
   	XXX	0		Y	?
kirjutaja	kirjutaja	0		S	sg g
         	kirjutaja	0		S	sg n
J	J	0		Y	?
.	.			Z	
_Jõõgeva	####				
