proklamtš	####				
.	.			Z	
ürv	####				
Jaan	Jaan	0		H	sg n
    	jaan	0		S	sg n
    	jaan	0		Y	?
mölder	mölder	0		S	sg n
mit	####				
Ann	Ann	0		H	sg n
Kallin	####				
aus	au	s		S	sg in
   	aus	0		A	sg n
nõu_Antsin	####				
ma	mina	0		P	sg n
8t	8t	0		Y	?
Septbr	####				
.	.			Z	
