tuli	tuli	0		S	sg n
    	tule	i		V	s
ette	ette	0		D	
    	ette	0		K	
    	esi	tte		S	adt
Tartu	Tartu	0		H	adt
     	Tartu	0		H	sg g
     	Tartu	0		H	sg n
     	tartu	0		G	
linast	lina	st		S	sg el
      	linane	t		A	sg p
,	,			Z	
kaupmees	kaup_mees	0		S	sg n
Montson	####				
poolt	pool	t		N	sg p
     	pool	t		S	sg p
     	poolt	0		D	
     	poolt	0		K	
volitatud	volitatud	0		A	
         	volitatud	0		A	sg n
         	volitatud	d		A	pl n
         	volita	tud		V	tud
         	volitatu	d		S	pl n
kauba	kaup	0		S	sg g
toimetaja	toimetaja	0		S	sg g
         	toimetaja	0		S	sg n
härra	härra	0		S	sg g
     	härra	0		S	sg n
karl	####				
Antus	antud	s		A	sg in
,	,			Z	
Ria	####				
ulits	####				
No	no	0		I	
48.	48.	0		O	?
ning	ning	0		J	
näitas	näita	s		V	s
kogukonna	kogukond	0		S	sg g
kohtule	kohus	le		S	sg all
ühte	ühte	0		D	
    	üks	0		N	adt
    	üks	0		P	adt
    	ühe	0		S	sg g
    	üks	0		N	sg p
    	üks	0		P	sg p
võla	võlg	0		S	sg g
rehnungi	rehnung	0		S	sg g
üle	üle	0		D	
   	üle	0		K	
40	40	0		N	?
R	R	0		Y	?
.	.			Z	
78	78	0		N	?
kop	kop	0		Y	?
.	.			Z	
ette	ette	0		D	
    	ette	0		K	
    	esi	tte		S	adt
mis	mis	0		P	pl n
   	mis	0		P	sg n
surnud	surnu	d		S	pl n
      	surnud	0		A	
      	surnud	0		A	sg n
      	surnud	d		A	pl n
      	sure	nud		V	nud
Jaan	Jaan	0		H	sg n
    	jaan	0		S	sg n
    	jaan	0		Y	?
Mihkelson	####				
aastal	aasta	l		S	sg ad
1882	1882	0		N	?
härra	härra	0		S	sg g
     	härra	0		S	sg n
mõndsoni	####				
kauplusest	kauplus	st		S	sg el
kaupa	kaup	0		S	adt
     	kaup	0		S	sg p
     	kaupa	0		K	
rehnungi	rehnung	0		S	sg g
peale	pea	le		S	sg all
     	peale	0		D	
     	peale	0		K	
oli	ole	i		V	s
võtnud	võt	nud		V	nud
      	võt=nu	d		S	pl n
      	võt=nud	0		A	
      	võt=nud	0		A	sg n
      	võt=nud	d		A	pl n
,	,			Z	
ja	ja	0		J	
et	et	0		J	
Jaan	Jaan	0		H	sg n
    	jaan	0		S	sg n
    	jaan	0		Y	?
Mihkelson	####				
enam	enam	0		C	sg n
    	enam	0		D	
ei	ei	0		D	
  	ei	0		V	neg
ela	ela	0		V	o
,	,			Z	
siis	siis	0		D	
    	siis	0		J	
palus	palu	s		S	sg in
     	palu	s		V	s
tema	tema	0		P	sg g
    	tema	0		P	sg n
seda	see	da		P	sg p
raha	raha	0		S	sg g
    	raha	0		S	sg n
    	raha	0		S	sg p
,	,			Z	
40	40	0		N	?
R	R	0		Y	?
.	.			Z	
78	78	0		N	?
kop	kop	0		Y	?
.	.			Z	
ühes	üks	s		N	sg in
    	üks	s		P	sg in
    	ühes	0		D	
    	ühes	0		K	
4	4	0		N	?
aasta	aasta	0		S	sg g
     	aasta	0		S	sg n
protsenditega	####				
,	,			Z	
ja	ja	0		J	
tema	tema	0		P	sg g
    	tema	0		P	sg n
2	2	0		N	?
sõidu	sõit	0		S	sg g
eest	eest	0		D	
    	eest	0		K	
    	esi	st		S	sg el
Karraski	kard	s	ki	S	sg in
kohtu	kohtu	0		V	o
     	kohus	0		S	sg g
juurde	juur	de		S	adt
      	juurde	0		D	
      	juurde	0		K	
10	10	0		N	?
R	R	0		Y	?
.	.			Z	
temale	tema	le		P	sg all
välja	välja	0		D	
     	välja	0		V	o
     	väli	0		S	adt
     	väli	0		S	sg g
     	väli	0		S	sg p
mõista	mõist	0		V	o
      	mõist	a		V	da
.	.			Z	
härra	härra	0		S	sg g
     	härra	0		S	sg n
Antus	antud	s		A	sg in
ütles	ütle	s		V	s
ka	ka	0		D	
veel	veel	0		D	
    	vesi	l		S	sg ad
.	.			Z	
kui	kui	0		D	
   	kui	0		J	
mina	mina	0		P	sg n
    	mina	0		S	sg g
    	mina	0		S	sg n
    	mina	0		S	sg p
20	20	0		N	?
juunil	juuni	l		S	sg ad
m	m	0		Y	?
.	.			Z	
l	l	0		Y	?
.	.			Z	
a.	a	0		Y	?
Mäe	mägi	0		S	sg g
muste	####				
mõisas	mõis	s		S	sg in
olin	ole	in		V	sin
,	,			Z	
seda	see	da		P	sg p
võlga	võlg	0		S	adt
     	võlg	0		S	sg p
sisse	siss	e		S	pl p
     	sisse	0		D	
     	sisse	0		K	
noudmas	####				
,	,			Z	
salgas	salga	s		V	s
      	salk	s		S	sg in
Kusta	Kusta	0		H	sg g
     	Kusta	0		H	sg n
     	kuse	ta		V	da
     	kuse	ta		V	ta
Mihkelson	####				
seda	see	da		P	sg p
võlga	võlg	0		S	adt
     	võlg	0		S	sg p
hooopis	####				
maha	maha	0		D	
,	,			Z	
aga	aga	0		J	
perenaine	pere_naine	0		S	sg n
Anni	Ann	0		H	adt
    	Ann	0		H	sg g
    	Ann	0		H	sg p
    	and	0		S	sg g
    	Anni	0		H	sg g
    	Anni	0		H	sg n
Mihkelson	####				
ütles	ütle	s		V	s
.	.			Z	
""""	""""			Z	
see	see	0		P	sg n
võib	või	b		V	b
küll	küll	0		D	
    	küll	0		S	sg n
olla	ole	a		V	da
,	,			Z	
et	et	0		J	
minu	mina	0		P	sg g
mees	mees	0		S	sg n
    	mesi	s		S	sg in
seda	see	da		P	sg p
võlga	võlg	0		S	adt
     	võlg	0		S	sg p
on	ole	0		V	b
  	ole	0		V	vad
teinud	tege	nud		V	nud
      	tei=nud	0		A	
      	tei=nud	0		A	sg n
      	tei=nud	d		A	pl n
      	teinu	d		S	pl n
,	,			Z	
eaga	iga	ga		S	sg kom
tema	tema	0		P	sg g
    	tema	0		P	sg n
minule	mina	le		P	sg all
igakord	iga_kord	0		S	sg n
ei	ei	0		D	
  	ei	0		V	neg
ütle	ütle	0		V	o
oma	oma	0		A	sg g
   	oma	0		D	
   	oma	0		P	sg g
   	oma	0		S	sg g
   	oma	0		V	o
   	oma	0		A	sg n
   	oma	0		A	sg p
   	oma	0		P	sg n
   	oma	0		P	sg p
   	oma	0		S	sg n
   	oma	0		S	sg p
tallitustest	talli=tus	test		S	pl el
.	.			Z	
""""	""""			Z	
ette	ette	0		D	
    	ette	0		K	
    	esi	tte		S	adt
kutsuti	kutsu	ti		V	ti
Jaan	Jaan	0		H	sg n
    	jaan	0		S	sg n
    	jaan	0		Y	?
Mihkelsoni	mihkel_soni	0		S	sg g
          	mihkel_soni	0		S	sg n
          	mihkel_soni	0		S	sg p
pearijate	####				
vöörmündri	vöörmünder	0		S	sg g
Hendrik	Hendrik	0		H	sg n
Laanes	laas	s		S	sg in
Kiidjärvelt	####				
ja	ja	0		J	
Jaan	Jaan	0		H	sg n
    	jaan	0		S	sg n
    	jaan	0		Y	?
Uibo	Uibo	0		H	sg g
    	Uibo	0		H	sg n
Karaskust	karask_uks	t		S	sg p
ette	ette	0		D	
    	ette	0		K	
    	esi	tte		S	adt
,	,			Z	
kes	kes	0		P	pl n
   	kes	0		P	sg n
selle	see	0		P	sg g
     	sell	e		S	pl p
kaebuse	kaebus	0		S	sg g
ja	ja	0		J	
nõudmise	nõudmine	0		S	sg g
peale	pea	le		S	sg all
     	peale	0		D	
     	peale	0		K	
ütlid	####				
,	,			Z	
et	et	0		J	
nemad	tema	d		P	pl n
sest	see	st		P	sg el
    	sest	0		J	
kaebusest	kaebus	st		S	sg el
midagi	miski	dagi		P	sg p
ei	ei	0		D	
  	ei	0		V	neg
teadvad	teadev	d		A	pl n
,	,			Z	
ja	ja	0		J	
kui	kui	0		D	
   	kui	0		J	
härra	härra	0		S	sg g
     	härra	0		S	sg n
Antus	antud	s		A	sg in
seda	see	da		P	sg p
võlga	võlg	0		S	adt
     	võlg	0		S	sg p
nõuab	nõud	b		V	b
,	,			Z	
siis	siis	0		D	
    	siis	0		J	
piaks	####				
tema	tema	0		P	sg g
    	tema	0		P	sg n
ka	ka	0		D	
Jaan	Jaan	0		H	sg n
    	jaan	0		S	sg n
    	jaan	0		Y	?
Mihkelsonist	mihkel_soni	st		S	sg el
alla	alla	0		D	
    	alla	0		K	
kirjutud	####				
võla	võlg	0		S	sg g
tunnistust	tunnistus	t		S	sg p
ette	ette	0		D	
    	ette	0		K	
    	esi	tte		S	adt
näitama	näita	ma		V	ma
,	,			Z	
mida	mis	da		P	pl p
    	mis	da		P	sg p
nemad	tema	d		P	pl n
uskuda	usku	da		V	da
võiksivad	####				
.	.			Z	
Vöörmündrit	vöörmünder	t		S	sg p
ei	ei	0		D	
  	ei	0		V	neg
luba	luba	0		S	sg n
    	luba	0		V	o
    	luba	0		S	sg p
mitte	mitte	0		D	
ühte	ühte	0		D	
    	üks	0		N	adt
    	üks	0		P	adt
    	ühe	0		S	sg g
    	üks	0		N	sg p
    	üks	0		P	sg p
kopikat	kopikas	t		S	sg p
maksa	maks	0		S	adt
     	maks	0		S	sg g
     	maks	0		V	o
     	maks	0		S	sg p
,	,			Z	
kui	kui	0		D	
   	kui	0		J	
mitte	mitte	0		D	
paremad	parem	d		C	pl n
tunnistust	tunnistus	t		S	sg p
neile	see	le		P	pl all
     	tema	le		P	pl all
ette	ette	0		D	
    	ette	0		K	
    	esi	tte		S	adt
ei	ei	0		D	
  	ei	0		V	neg
panda	pand	0		S	adt
     	panda	0		S	sg g
     	pane	da		V	ta
     	pand	0		S	sg p
     	panda	0		S	sg n
.	.			Z	
kohus	kohu	s		V	s
     	kohus	0		S	sg n
vaataks	vaata	ks		V	ks
ette	ette	0		D	
    	ette	0		K	
    	esi	tte		S	adt
pandud	pan=du	d		S	pl n
      	pan=dud	0		A	
      	pan=dud	0		A	sg n
      	pan=dud	d		A	pl n
      	pane	dud		V	tud
härra	härra	0		S	sg g
     	härra	0		S	sg n
mõndsoni	####				
mitmed	mitu	d		P	pl n
kauba	kaup	0		S	sg g
konto	konto	0		S	sg g
     	konto	0		S	sg n
raamatud	raamat	d		S	pl n
läbi	läbi	0		D	
    	läbi	0		K	
    	läbi	0		V	o
,	,			Z	
ja	ja	0		J	
leidis	leid	is		V	s
      	leidis	0		S	sg n
,	,			Z	
et	et	0		J	
Jaan	Jaan	0		H	sg n
    	jaan	0		S	sg n
    	jaan	0		Y	?
Mihkelson	####				
tõeste	tõene	te		A	pl g
40	40	0		N	?
R	R	0		Y	?
.	.			Z	
78	78	0		N	?
kop	kop	0		Y	?
.	.			Z	
maksmata	maks	mata		V	mata
        	maks=mata	0		A	
oli	ole	i		V	s
jätnud	jät	nud		V	nud
      	jät=nu	d		S	pl n
      	jät=nud	0		A	
      	jät=nud	0		A	sg n
      	jät=nud	d		A	pl n
.	.			Z	
otsus	otsus	0		S	sg n
:	:			Z	
Jaan	Jaan	0		H	sg n
    	jaan	0		S	sg n
    	jaan	0		Y	?
Mihkelsoni	mihkel_soni	0		S	sg g
          	mihkel_soni	0		S	sg n
          	mihkel_soni	0		S	sg p
pearijate	####				
vöörmündri	vöörmünder	0		S	sg g
piavad	####				
pearijate	####				
varandusest	varandus	st		S	sg el
Kaupmees	kaup_mees	0		S	sg n
mõndsoni	####				
volitatud	volitatud	0		A	
         	volitatud	0		A	sg n
         	volitatud	d		A	pl n
         	volita	tud		V	tud
         	volitatu	d		S	pl n
kaubatoimetaja	kauba_toimetaja	0		S	sg g
              	kauba_toimetaja	0		S	sg n
ja	ja	0		J	
kohtukäija	kohtu_käija	0		S	sg g
          	kohtu_käija	0		S	sg n
härra	härra	0		S	sg g
     	härra	0		S	sg n
karl	####				
Antoni	Anton	0		H	sg g
kätte	kätte	0		K	
     	käsi	tte		S	adt
2	2	0		N	?
nädala	nädal	0		S	sg g
aja	aeg	0		S	sg g
   	aja	0		V	o
sees	sees	0		D	
    	sees	0		K	
välja	välja	0		D	
     	välja	0		V	o
     	väli	0		S	adt
     	väli	0		S	sg g
     	väli	0		S	sg p
maksma	maks	ma		V	ma
40	40	0		N	?
rbl	rbl	0		Y	?
.	.			Z	
78	78	0		N	?
kop	kop	0		Y	?
.	.			Z	
otsus	otsus	0		S	sg n
kohtukäijatele	kohtu_käija	tele		S	pl all
§	§	0		Y	?
773	773	0		N	?
ja	ja	0		J	
774	774	0		N	?
ette	ette	0		D	
    	ette	0		K	
    	esi	tte		S	adt
kuulutud	kuulu	tud		V	tud
        	kuulu=tu	d		S	pl n
        	kuulu=tud	0		A	
        	kuulu=tud	0		A	sg n
        	kuulu=tud	d		A	pl n
.	.			Z	
Perijate	####				
vöörmündri	vöörmünder	0		S	sg g
Hendrik	Hendrik	0		H	sg n
Laanes	laas	s		S	sg in
ja	ja	0		J	
Jaan	Jaan	0		H	sg n
    	jaan	0		S	sg n
    	jaan	0		Y	?
Uibo	Uibo	0		H	sg g
    	Uibo	0		H	sg n
ei	ei	0		D	
  	ei	0		V	neg
ole	ole	0		V	o
mitte	mitte	0		D	
otsusega	otsus	ga		S	sg kom
rahul	rahu	l		S	sg ad
     	rahul	0		D	
,	,			Z	
palusid	palu	sid		S	pl p
       	palu	sid		V	sid
õppuslehte	õppus_leht	0		S	adt
          	õppus_leht	0		S	sg p
välja	välja	0		D	
     	välja	0		V	o
     	väli	0		S	adt
     	väli	0		S	sg g
     	väli	0		S	sg p
saada	saa	da		V	da
     	saat	0		V	o
     	saa	da		V	ta
,	,			Z	
mis	mis	0		P	pl n
   	mis	0		P	sg n
nõndele	####				
ka	ka	0		D	
8	8	0		N	?
päeva	päev	0		S	adt
     	päev	0		S	sg g
     	päev	0		S	sg p
aja	aeg	0		S	sg g
   	aja	0		V	o
sees	sees	0		D	
    	sees	0		K	
loati	####				
anda	and	a		V	da
.	.			Z	
peakohtumees	pea_kohtu_mees	0		S	sg n
J	J	0		Y	?
.	.			Z	
_Roht	####				
kohtumees	kohtu_mees	0		S	sg n
M	M	0		O	?
 	M	0		Y	?
.	.			Z	
_Võso	####				
""""	""""			Z	
J	J	0		Y	?
.	.			Z	
_ndlima	####				
kirjutaja	kirjutaja	0		S	sg g
         	kirjutaja	0		S	sg n
A	A	0		Y	?
.	.			Z	
_	_			Z	
Mule	####				
Oppuseleht	####				
17.	17.	0		O	?
Märtsil	märts	l		S	sg ad
Jaan	Jaan	0		H	sg n
    	jaan	0		S	sg n
    	jaan	0		Y	?
Uibo	Uibo	0		H	sg g
    	Uibo	0		H	sg n
kätte	kätte	0		K	
     	käsi	tte		S	adt
andud	andu	d		V	d
.	.			Z	
koopia	koopia	0		S	sg g
      	koopia	0		S	sg n
24.	24.	0		O	?
Märtsil	märts	l		S	sg ad
kihelkonna	kihelkond	0		S	sg g
kohtu	kohtu	0		V	o
     	kohus	0		S	sg g
saadetud	saat	tud		V	tud
        	saade=tu	d		S	pl n
        	saadetud	0		A	
        	saadetud	0		A	sg n
        	saadetud	d		A	pl n
.	.			Z	
