tuli	tuli	0		S	sg n
    	tule	i		V	s
ette	ette	0		D	
    	ette	0		K	
    	esi	tte		S	adt
Jaan	Jaan	0		H	sg n
    	jaan	0		S	sg n
    	jaan	0		Y	?
planki	plank	0		A	adt
      	plank	0		A	sg p
      	plank	0		S	adt
      	plank	0		S	sg p
ja	ja	0		J	
kaebas	kaeba	s		V	s
et	et	0		J	
oleva	olev	0		A	sg g
     	olev	0		S	sg g
Jakob	Jakob	0		H	sg n
Troon	troon	0		S	sg n
käest	käest	0		K	
     	käsi	st		S	sg el
120	120	0		N	?
kop	kop	0		Y	?
võlgu	võlg	u		S	pl p
     	võlgu	0		D	
saada	saa	da		V	da
     	saat	0		V	o
     	saa	da		V	ta
palle	pall	e		S	pl p
kohut	kohus	t		S	sg p
teda	tema	da		P	sg p
ära	ära	0		D	
   	ära	0		V	neg o
maksmisele	maksmine	le		S	sg all
sundi	sund	0		S	adt
     	sund	0		S	sg p
.	.			Z	
_	_			Z	
sai	saa	i		V	s
   	sai	0		S	sg n
ette	ette	0		D	
    	ette	0		K	
    	esi	tte		S	adt
kutsudatud	####				
Jakob	Jakob	0		H	sg n
Troon	troon	0		S	sg n
ning	ning	0		J	
ülevane	####				
kaebus	kaebus	0		S	sg n
ette	ette	0		D	
    	ette	0		K	
    	esi	tte		S	adt
loetud	loetu	d		S	pl n
      	loetud	0		A	
      	loetud	0		A	sg n
      	loetud	d		A	pl n
      	luge	tud		V	tud
kes	kes	0		P	pl n
   	kes	0		P	sg n
jälle	jälle	0		D	
koguniste	####				
ära	ära	0		D	
   	ära	0		V	neg o
salas	sala	s		S	sg in
ning	ning	0		J	
ei	ei	0		D	
  	ei	0		V	neg
ütle	ütle	0		V	o
kopikatki	kopikas	t	ki	S	sg p
võlgu	võlg	u		S	pl p
     	võlgu	0		D	
olevat	ole	vat		V	vat
      	olev	t		A	sg p
      	olev	t		S	sg p
ega	ega	0		D	
   	ega	0		J	
olevat	ole	vat		V	vat
      	olev	t		A	sg p
      	olev	t		S	sg p
temale	tema	le		P	sg all
ära	ära	0		D	
   	ära	0		V	neg o
maksnud	maks	nud		V	nud
       	maks=nu	d		S	pl n
       	maks=nud	0		A	
       	maks=nud	0		A	sg n
       	maks=nud	d		A	pl n
.	.			Z	
_	_			Z	
otsus	otsus	0		S	sg n
kohus	kohu	s		V	s
     	kohus	0		S	sg n
mõistis	mõist	is		V	s
et	et	0		J	
tunnistust	tunnistus	t		S	sg p
ei	ei	0		D	
  	ei	0		V	neg
ole	ole	0		V	o
teine	teine	0		O	sg n
     	teine	0		P	sg n
nõuab	nõud	b		V	b
teine	teine	0		O	sg n
     	teine	0		P	sg n
salgab	salga	b		V	b
sai	saa	i		V	s
   	sai	0		S	sg n
kohtu	kohtu	0		V	o
     	kohus	0		S	sg g
poolt	pool	t		N	sg p
     	pool	t		S	sg p
     	poolt	0		D	
     	poolt	0		K	
see	see	0		P	sg n
raha	raha	0		S	sg g
    	raha	0		S	sg n
    	raha	0		S	sg p
pooleks	pool	ks		N	sg tr
       	pool	ks		S	sg tr
       	pooleks	0		D	
mõistetud	mõist	tud		V	tud
         	mõiste=tu	d		S	pl n
         	mõiste=tud	0		A	
         	mõiste=tud	0		A	sg n
         	mõiste=tud	d		A	pl n
et	et	0		J	
Jaan	Jaan	0		H	sg n
    	jaan	0		S	sg n
    	jaan	0		Y	?
planki	plank	0		A	adt
      	plank	0		A	sg p
      	plank	0		S	adt
      	plank	0		S	sg p
kaotab	kaota	b		V	b
omast	oma	st		A	sg el
     	oma	st		P	sg el
     	oma	st		S	sg el
     	omane	t		A	sg p
nõudmisest	nõudmine	st		S	sg el
60	60	0		N	?
kop	kop	0		Y	?
ja	ja	0		J	
Jakob	Jakob	0		H	sg n
Troon	troon	0		S	sg n
peab	pida	b		V	b
Jaan	Jaan	0		H	sg n
    	jaan	0		S	sg n
    	jaan	0		Y	?
keplannil	####				
60	60	0		N	?
kop	kop	0		Y	?
välja	välja	0		D	
     	välja	0		V	o
     	väli	0		S	adt
     	väli	0		S	sg g
     	väli	0		S	sg p
maksma	maks	ma		V	ma
mis	mis	0		P	pl n
   	mis	0		P	sg n
kaheksa	kaheksa	0		N	sg g
       	kaheksa	0		N	sg n
päeva	päev	0		S	adt
     	päev	0		S	sg g
     	päev	0		S	sg p
aja	aeg	0		S	sg g
   	aja	0		V	o
sees	sees	0		D	
    	sees	0		K	
peab	pida	b		V	b
ära	ära	0		D	
   	ära	0		V	neg o
teidetud	####				
olema	ole	ma		V	ma
.	.			Z	
_	_			Z	
sai	saa	i		V	s
   	sai	0		S	sg n
kohtu	kohtu	0		V	o
     	kohus	0		S	sg g
mõistmine	mõistmine	0		S	sg n
ja	ja	0		J	
§§	§§	0		Y	?
772	772	0		N	?
_	_			Z	
773	773	0		N	?
ja	ja	0		J	
774	774	0		N	?
ette	ette	0		D	
    	ette	0		K	
    	esi	tte		S	adt
loetud	loetu	d		S	pl n
      	loetud	0		A	
      	loetud	0		A	sg n
      	loetud	d		A	pl n
      	luge	tud		V	tud
ja	ja	0		J	
läksid	mine	sid		V	sid
rahus	rahu	s		S	sg in
välja	välja	0		D	
     	välja	0		V	o
     	väli	0		S	adt
     	väli	0		S	sg g
     	väli	0		S	sg p
.	.			Z	
_	_			Z	
peakohtumees	pea_kohtu_mees	0		S	sg n
Jaan	Jaan	0		H	sg n
    	jaan	0		S	sg n
    	jaan	0		Y	?
tulnud	tul=nud	0		A	
      	tul=nud	0		A	sg n
      	tul=nud	d		A	pl n
      	tule	nud		V	nud
      	tulnu	d		S	pl n
XXX	XXX	0		O	?
   	XXX	0		Y	?
kohtumees	kohtu_mees	0		S	sg n
Jaan	Jaan	0		H	sg n
    	jaan	0		S	sg n
    	jaan	0		Y	?
älepson	####				
XXX	XXX	0		O	?
   	XXX	0		Y	?
abi	abi	0		S	sg g
   	abi	0		S	sg n
   	abi	0		S	sg p
do	####				
Johan	Johan	0		H	sg n
(	(			Z	
n	n	0		Y	?
)	)			Z	
Raig	raig	0		S	sg n
XXX	XXX	0		O	?
   	XXX	0		Y	?
