kaebas	kaeba	s		V	s
see	see	0		P	sg n
mõisa	mõis	0		S	sg g
metsasaks	metsa_saks	0		S	sg n
et	et	0		J	
saeveski	sae_veski	0		S	sg g
        	sae_veski	0		S	sg n
mant	mant	0		D	
    	mant	0		K	
    	mant	0		S	sg n
on	ole	0		V	b
  	ole	0		V	vad
sel	see	l		P	sg ad
   	sel	0		Y	?
18mal	####				
vastu	vastu	0		D	
     	vastu	0		K	
19ma	####				
aprili	####				
ööse	öös	e		S	pl p
7	7	0		N	?
ühe	üks	0		N	sg g
   	üks	0		P	sg g
   	ühe	0		S	sg n
ja	ja	0		J	
1	1	0		N	?
kätte	kätte	0		K	
     	käsi	tte		S	adt
tollilist	tolli=line	t		A	sg p
Lauda	laud	0		S	adt
     	laut	0		S	sg g
     	laud	0		S	sg p
ära	ära	0		D	
   	ära	0		V	neg o
kadunud	kadu	nud		V	nud
       	kadunu	d		S	pl n
       	kadunud	0		A	
       	kadunud	0		A	sg n
       	kadunud	d		A	pl n
mis	mis	0		P	pl n
   	mis	0		P	sg n
tema	tema	0		P	sg g
    	tema	0		P	sg n
peakohtumehe	pea_kohtu_mees	0		S	sg g
Kristjan	Kristjan	0		H	sg n
Rämaniga	####				
venemalt	####				
Tolgo	####				
külast	küla	st		S	sg el
Ivan	Ivan	0		H	sg n
Antenitsev	####				
ja	ja	0		J	
Uljas	uljas	0		A	sg n
     	uljas	s		A	sg in
Midrovi	####				
käest	käest	0		K	
     	käsi	st		S	sg el
on	ole	0		V	b
  	ole	0		V	vad
kätte	kätte	0		K	
     	käsi	tte		S	adt
saanud	saa	nud		V	nud
      	saa=nud	0		A	
      	saa=nud	0		A	sg n
      	saa=nud	d		A	pl n
      	saanu	d		S	pl n
.	.			Z	
metsa	mets	0		S	adt
     	mets	0		S	sg g
     	mets	0		S	sg p
saks	saks	0		S	sg n
nõus	nõu	s		S	sg in
    	nõus	0		D	
ega	ega	0		D	
   	ega	0		J	
tollilise	tolli=line	0		A	sg g
lauda	laud	0		S	adt
     	laut	0		S	sg g
     	laud	0		S	sg p
pealt	pea	lt		S	sg abl
     	pealt	0		D	
     	pealt	0		K	
1	1	0		N	?
rubla	rubla	0		S	sg g
     	rubla	0		S	sg n
     	rubla	0		S	sg p
ja	ja	0		J	
2	2	0		N	?
tollolise	####				
eest	eest	0		D	
    	eest	0		K	
    	esi	st		S	sg el
2	2	0		N	?
rubla	rubla	0		S	sg g
     	rubla	0		S	sg n
     	rubla	0		S	sg p
kokku	kokku	0		D	
     	kogu	0		S	adt
9	9	0		N	?
rubla	rubla	0		S	sg g
     	rubla	0		S	sg n
     	rubla	0		S	sg p
.	.			Z	
ette	ette	0		D	
    	ette	0		K	
    	esi	tte		S	adt
tuli	tuli	0		S	sg n
    	tule	i		V	s
Ivan	Ivan	0		H	sg n
Antevits	####				
ja	ja	0		J	
ütles	ütle	s		V	s
et	et	0		J	
temale	tema	le		P	sg all
sel	see	l		P	sg ad
   	sel	0		Y	?
18nel	####				
aprilil	####				
õhtõtsel	####				
ööl	öö	l		S	sg ad
üks	üks	0		N	sg n
   	üks	0		P	sg n
maamees	maa_mees	0		S	sg n
need	see	d		P	pl n
Lauda	laud	0		S	adt
     	laut	0		S	sg g
     	laud	0		S	sg p
on	ole	0		V	b
  	ole	0		V	vad
andnud	and	nud		V	nud
      	and=nu	d		S	pl n
      	and=nud	0		A	
      	and=nud	0		A	sg n
      	and=nud	d		A	pl n
ja	ja	0		J	
tema	tema	0		P	sg g
    	tema	0		P	sg n
on	ole	0		V	b
  	ole	0		V	vad
ka	ka	0		D	
pimesi	pimesi	0		D	
veidigi	veidi	0	gi	D	
raha	raha	0		S	sg g
    	raha	0		S	sg n
    	raha	0		S	sg p
andnud	and	nud		V	nud
      	and=nu	d		S	pl n
      	and=nud	0		A	
      	and=nud	0		A	sg n
      	and=nud	d		A	pl n
ilma	ilm	0		S	adt
    	ilm	0		S	sg g
    	ilma	0		D	
    	ilma	0		K	
    	ilm	0		S	sg p
lugemata	luge	mata		V	mata
        	luge=mata	0		A	
,	,			Z	
ja	ja	0		J	
mees	mees	0		S	sg n
    	mesi	s		S	sg in
käskinud	käski	nud		V	nud
        	käski=nu	d		S	pl n
        	käski=nud	0		A	
        	käski=nud	0		A	sg n
        	käski=nud	d		A	pl n
neil	see	l		P	pl ad
    	tema	l		P	pl ad
jõe	jõgi	0		S	sg g
veere	veer	0		S	sg g
     	veer	e		S	pl p
     	veere	0		V	o
     	veere	0		S	sg g
     	veere	0		S	sg n
vastu	vastu	0		D	
     	vastu	0		K	
mina	mina	0		P	sg n
    	mina	0		S	sg g
    	mina	0		S	sg n
    	mina	0		S	sg p
siis	siis	0		D	
    	siis	0		J	
on	ole	0		V	b
  	ole	0		V	vad
mees	mees	0		S	sg n
    	mesi	s		S	sg in
kravi	####				
pidi	pida	i		V	s
    	pidi	0		K	
laudad	laut	d		S	pl n
alla	alla	0		D	
    	alla	0		K	
jõe	jõgi	0		S	sg g
veere	veer	0		S	sg g
     	veer	e		S	pl p
     	veere	0		V	o
     	veere	0		S	sg g
     	veere	0		S	sg n
ajanud	aja	nud		V	nud
      	aja=nu	d		S	pl n
      	aja=nud	0		A	
      	aja=nud	0		A	sg n
      	aja=nud	d		A	pl n
seal	seal	0		D	
    	siga	l		A	sg ad
    	siga	l		S	sg ad
on	ole	0		V	b
  	ole	0		V	vad
tema	tema	0		P	sg g
    	tema	0		P	sg n
vastu	vastu	0		D	
     	vastu	0		K	
võtnud	võt	nud		V	nud
      	võt=nu	d		S	pl n
      	võt=nud	0		A	
      	võt=nud	0		A	sg n
      	võt=nud	d		A	pl n
.	.			Z	
kohus	kohu	s		V	s
     	kohus	0		S	sg n
mõist	####				
et	et	0		J	
Ivan	Ivan	0		H	sg n
varte	vars	te		S	pl g
     	vart	e		S	pl p
mitte	mitte	0		D	
üles	üles	0		D	
ei	ei	0		D	
  	ei	0		V	neg
anna	and	0		V	o
    	anna	0		S	sg g
    	anna	0		S	sg n
kes	kes	0		P	pl n
   	kes	0		P	sg n
temale	tema	le		P	sg all
need	see	d		P	pl n
lauda	laud	0		S	adt
     	laut	0		S	sg g
     	laud	0		S	sg p
on	ole	0		V	b
  	ole	0		V	vad
andnud	and	nud		V	nud
      	and=nu	d		S	pl n
      	and=nud	0		A	
      	and=nud	0		A	sg n
      	and=nud	d		A	pl n
peab	pida	b		V	b
Ivan	Ivan	0		H	sg n
Laudad	laut	d		S	pl n
tagasi	tagasi	0		D	
      	tagasi	0		K	
tooma	too	ma		V	ma
ja	ja	0		J	
metsasaksale	metsa_saks	le		S	sg all
3	3	0		N	?
rub	####				
ja	ja	0		J	
vaestelaadiku	vaes+te_laadik	0		S	sg g
heaks	hea	ks		A	sg tr
     	hea	ks		S	sg tr
     	heaks	0		D	
     	heaks	0		K	
3	3	0		N	?
rbl	rbl	0		Y	?
maksma	maks	ma		V	ma
kokku	kokku	0		D	
     	kogu	0		S	adt
6	6	0		N	?
rbl	rbl	0		Y	?
.	.			Z	
Kristjan	Kristjan	0		H	sg n
Rämman	####				
Kusta	Kusta	0		H	sg g
     	Kusta	0		H	sg n
     	kuse	ta		V	da
     	kuse	ta		V	ta
Hanson	####				
Frits	frits	0		S	sg n
Runhanson	####				
