Jaan	Jaan	0		H	sg n
    	jaan	0		S	sg n
    	jaan	0		Y	?
Tätte	####				
tuli	tuli	0		S	sg n
    	tule	i		V	s
ette	ette	0		D	
    	ette	0		K	
    	esi	tte		S	adt
ja	ja	0		J	
andis	and	is		V	s
üles	üles	0		D	
et	et	0		J	
temale	tema	le		P	sg all
on	ole	0		V	b
  	ole	0		V	vad
6	6	0		N	?
rub	####				
.	.			Z	
7	7	0		N	?
kop	kop	0		Y	?
.	.			Z	
Jaan	Jaan	0		H	sg n
    	jaan	0		S	sg n
    	jaan	0		Y	?
Lobuna	####				
käest	käest	0		K	
     	käsi	st		S	sg el
saada	saa	da		V	da
     	saat	0		V	o
     	saa	da		V	ta
ja	ja	0		J	
palub	palu	b		V	b
seda	see	da		P	sg p
välja	välja	0		D	
     	välja	0		V	o
     	väli	0		S	adt
     	väli	0		S	sg g
     	väli	0		S	sg p
nõuda	nõud	a		V	da
.	.			Z	
Jaan	Jaan	0		H	sg n
    	jaan	0		S	sg n
    	jaan	0		Y	?
Lobuna	####				
vastab	vasta	b		V	b
:	:			Z	
Minule	mina	le		P	sg all
ei	ei	0		D	
  	ei	0		V	neg
ole	ole	0		V	o
rohkem	rohkem	0		D	
Tättele	####				
maksa	maks	0		S	adt
     	maks	0		S	sg g
     	maks	0		V	o
     	maks	0		S	sg p
kui	kui	0		D	
   	kui	0		J	
3	3	0		N	?
rubla	rubla	0		S	sg g
     	rubla	0		S	sg n
     	rubla	0		S	sg p
.	.			Z	
sellest	see	st		P	sg el
arvan	arva	n		V	n
ühe	üks	0		N	sg g
   	üks	0		P	sg g
   	ühe	0		S	sg n
kase	kask	0		S	sg g
laua	laud	0		S	sg g
eest	eest	0		D	
    	eest	0		K	
    	esi	st		S	sg el
mis	mis	0		P	pl n
   	mis	0		P	sg n
Tätte	####				
minu	mina	0		P	sg g
käest	käest	0		K	
     	käsi	st		S	sg el
võttis	võt	is		V	s
1	1	0		N	?
rub	####				
20	20	0		N	?
kop	kop	0		Y	?
.	.			Z	
maha	maha	0		D	
ja	ja	0		J	
jaab	####				
1	1	0		N	?
rubla	rubla	0		S	sg g
     	rubla	0		S	sg n
     	rubla	0		S	sg p
80	80	0		N	?
kop	kop	0		Y	?
.	.			Z	
veel	veel	0		D	
    	vesi	l		S	sg ad
maksa	maks	0		S	adt
     	maks	0		S	sg g
     	maks	0		V	o
     	maks	0		S	sg p
.	.			Z	
Tätte	####				
loab	####				
laua	laud	0		S	sg g
tagasi	tagasi	0		D	
      	tagasi	0		K	
viia	vii	a		V	da
sest	see	st		P	sg el
    	sest	0		J	
1	1	0		N	?
rub	####				
20	20	0		N	?
kop	kop	0		Y	?
olla	ole	a		V	da
niisuguse	nii_sugune	0		P	sg g
laua	laud	0		S	sg g
eest	eest	0		D	
    	eest	0		K	
    	esi	st		S	sg el
palju	palju	0		D	
     	palju	0		P	sg g
     	palju	0		P	sg n
.	.			Z	
Mõistus	mõistus	0		S	sg n
.	.			Z	
kogukonna	kogukond	0		S	sg g
kohus	kohu	s		V	s
     	kohus	0		S	sg n
mõistab	mõist	b		V	b
et	et	0		J	
Jaan	Jaan	0		H	sg n
    	jaan	0		S	sg n
    	jaan	0		Y	?
Lobuna	####				
peab	pida	b		V	b
Tättele	####				
3	3	0		N	?
rubla	rubla	0		S	sg g
     	rubla	0		S	sg n
     	rubla	0		S	sg p
2	2	0		N	?
nädala	nädal	0		S	sg g
sees	sees	0		D	
    	sees	0		K	
väljamaksma	####				
.	.			Z	
3	3	0		N	?
rub	####				
.	.			Z	
7kop	####				
.	.			Z	
nõudmine	nõudmine	0		S	sg n
saab	saa	b		V	b
tühjaks	tühi	ks		A	sg tr
arvatud	arva	tud		V	tud
       	arva=tu	d		S	pl n
       	arva=tud	0		A	
       	arva=tud	0		A	sg n
       	arva=tud	d		A	pl n
sest	see	st		P	sg el
    	sest	0		J	
et	et	0		J	
mmikisugust	####				
tunnistust	tunnistus	t		S	sg p
ei	ei	0		D	
  	ei	0		V	neg
ole	ole	0		V	o
.	.			Z	
