Kutsiti	kutsi=ti	0		D	
Oppetaja	####				
kirja	kirja	0		A	
     	kirja	0		V	o
     	kiri	0		S	adt
     	kiri	0		S	sg g
     	kiri	0		S	sg p
peale	pea	le		S	sg all
     	peale	0		D	
     	peale	0		K	
No	no	0		I	
.	.			Z	
63.	63.	0		O	?
kohtuk	####				
ette	ette	0		D	
    	ette	0		K	
    	esi	tte		S	adt
Hanuse	####				
Isakk	####				
Melling	####				
,	,			Z	
ja	ja	0		J	
küsiti	küsi	ti		V	ti
tema	tema	0		P	sg g
    	tema	0		P	sg n
käest	käest	0		K	
     	käsi	st		S	sg el
kas	kas	0		D	
tema	tema	0		P	sg g
    	tema	0		P	sg n
on	ole	0		V	b
  	ole	0		V	vad
elanud	ela	nud		V	nud
      	ela=nu	d		S	pl n
      	ela=nud	0		A	
      	ela=nud	0		A	sg n
      	ela=nud	d		A	pl n
selle	see	0		P	sg g
     	sell	e		S	pl p
vana	vana	0		A	sg g
    	vana	0		A	sg n
    	vana	0		A	sg p
    	vana	0		S	sg g
    	vana	0		S	sg n
    	vana	0		S	sg p
Karjanaisega	karja_naine	ga		S	sg kom
nimega	nimi	ga		S	sg kom
Kristin	####				
mino	####				
:	:			Z	
Hanuse	####				
Isakk	####				
kostis	kost	s		S	sg in
      	kost	is		V	s
:	:			Z	
et	et	0		J	
tema	tema	0		P	sg g
    	tema	0		P	sg n
ei	ei	0		D	
  	ei	0		V	neg
ole	ole	0		V	o
temaga	tema	ga		P	sg kom
elenud	####				
,	,			Z	
ja	ja	0		J	
et	et	0		J	
tema	tema	0		P	sg g
    	tema	0		P	sg n
võib	või	b		V	b
selle	see	0		P	sg g
     	sell	e		S	pl p
peale	pea	le		S	sg all
     	peale	0		D	
     	peale	0		K	
kõva	kõva	0		A	sg g
    	kõva	0		A	sg n
    	kõva	0		A	sg p
ja	ja	0		J	
julge	julge	0		A	sg g
     	julge	0		V	o
     	julge	0		A	sg n
olla	ole	a		V	da
,	,			Z	
et	et	0		J	
ta	tema	0		P	sg g
  	tema	0		P	sg n
ei	ei	0		D	
  	ei	0		V	neg
ole	ole	0		V	o
seda	see	da		P	sg p
teinud	tege	nud		V	nud
      	tei=nud	0		A	
      	tei=nud	0		A	sg n
      	tei=nud	d		A	pl n
      	teinu	d		S	pl n
.	.			Z	
Suure	suur	0		A	sg g
Kauksi	####				
Jakobi	Jakob	0		H	sg g
poeg	poeg	0		S	sg n
Jaan	Jaan	0		H	sg n
    	jaan	0		S	sg n
    	jaan	0		Y	?
Rimm	####				
kutsuti	kutsu	ti		V	ti
kohtuk	####				
ette	ette	0		D	
    	ette	0		K	
    	esi	tte		S	adt
ja	ja	0		J	
küsiti	küsi	ti		V	ti
tema	tema	0		P	sg g
    	tema	0		P	sg n
käest	käest	0		K	
     	käsi	st		S	sg el
,	,			Z	
kas	kas	0		D	
tema	tema	0		P	sg g
    	tema	0		P	sg n
on	ole	0		V	b
  	ole	0		V	vad
Kritin	####				
Nomeniga	####				
elanud	ela	nud		V	nud
      	ela=nu	d		S	pl n
      	ela=nud	0		A	
      	ela=nud	0		A	sg n
      	ela=nud	d		A	pl n
?	?			Z	
tema	tema	0		P	sg g
    	tema	0		P	sg n
salgas	salga	s		V	s
      	salk	s		S	sg in
et	et	0		J	
tema	tema	0		P	sg g
    	tema	0		P	sg n
ei	ei	0		D	
  	ei	0		V	neg
ole	ole	0		V	o
tema	tema	0		P	sg g
    	tema	0		P	sg n
man	man	0		D	
   	man	0		K	
käinud	käi	nud		V	nud
      	käi=nud	0		A	
      	käi=nud	0		A	sg n
      	käi=nud	d		A	pl n
      	käinu	d		S	pl n
,	,			Z	
ja	ja	0		J	
et	et	0		J	
tema	tema	0		P	sg g
    	tema	0		P	sg n
on	ole	0		V	b
  	ole	0		V	vad
temast	tema	st		P	sg el
aga	aga	0		J	
.	.			Z	
Partsioja	####				
Hinrich	####				
Hein	hein	0		S	sg n
kutsuti	kutsu	ti		V	ti
kohtuk	####				
ette	ette	0		D	
    	ette	0		K	
    	esi	tte		S	adt
ja	ja	0		J	
küsiti	küsi	ti		V	ti
tema	tema	0		P	sg g
    	tema	0		P	sg n
käest	käest	0		K	
     	käsi	st		S	sg el
kas	kas	0		D	
tema	tema	0		P	sg g
    	tema	0		P	sg n
on	ole	0		V	b
  	ole	0		V	vad
Kristin	####				
Nonenika	####				
elanud	ela	nud		V	nud
      	ela=nu	d		S	pl n
      	ela=nud	0		A	
      	ela=nud	0		A	sg n
      	ela=nud	d		A	pl n
?	?			Z	
tema	tema	0		P	sg g
    	tema	0		P	sg n
kostis	kost	s		S	sg in
      	kost	is		V	s
,	,			Z	
et	et	0		J	
tema	tema	0		P	sg g
    	tema	0		P	sg n
ei	ei	0		D	
  	ei	0		V	neg
ole	ole	0		V	o
temaga	tema	ga		P	sg kom
elenud	####				
,	,			Z	
ja	ja	0		J	
on	ole	0		V	b
  	ole	0		V	vad
selle	see	0		P	sg g
     	sell	e		S	pl p
peale	pea	le		S	sg all
     	peale	0		D	
     	peale	0		K	
julge	julge	0		A	sg g
     	julge	0		V	o
     	julge	0		A	sg n
ja	ja	0		J	
võib	või	b		V	b
koja	koda	0		S	sg g
vane	####				
selle	see	0		P	sg g
     	sell	e		S	pl p
peale	pea	le		S	sg all
     	peale	0		D	
     	peale	0		K	
.	.			Z	
XXX	XXX	0		O	?
   	XXX	0		Y	?
Mert	####				
Silber	####				
Pehk	####				
kohtu	kohtu	0		V	o
     	kohus	0		S	sg g
mehi	mees	0		S	pl p
XXX	XXX	0		O	?
   	XXX	0		Y	?
Jakob	Jakob	0		H	sg n
Reiljas	####				
abi	abi	0		S	sg g
   	abi	0		S	sg n
   	abi	0		S	sg p
kohtu	kohtu	0		V	o
     	kohus	0		S	sg g
mehi	mees	0		S	pl p
XXX	XXX	0		O	?
   	XXX	0		Y	?
karl	####				
Zimmer	####				
abi	abi	0		S	sg g
   	abi	0		S	sg n
   	abi	0		S	sg p
kohtu	kohtu	0		V	o
     	kohus	0		S	sg g
M	M	0		O	?
 	M	0		Y	?
