ette	ette	0		D	
    	ette	0		K	
    	esi	tte		S	adt
oli	ole	i		V	s
tulnud	tul=nud	0		A	
      	tul=nud	0		A	sg n
      	tul=nud	d		A	pl n
      	tule	nud		V	nud
      	tulnu	d		S	pl n
kaebaja	kaebaja	0		S	sg g
       	kaebaja	0		S	sg n
Johan	Johan	0		H	sg n
Uibo	Uibo	0		H	sg g
    	Uibo	0		H	sg n
oma	oma	0		A	sg g
   	oma	0		D	
   	oma	0		P	sg g
   	oma	0		S	sg g
   	oma	0		V	o
   	oma	0		A	sg n
   	oma	0		A	sg p
   	oma	0		P	sg n
   	oma	0		P	sg p
   	oma	0		S	sg n
   	oma	0		S	sg p
poja	poeg	0		S	sg g
    	poja	0		S	sg g
    	poja	0		S	sg n
    	poja	0		S	sg p
Juhani	Juhan	0		H	sg g
      	juha	ni		S	sg ter
,	,			Z	
Petre	####				
Mandli	mandel	0		S	sg g
oma	oma	0		A	sg g
   	oma	0		D	
   	oma	0		P	sg g
   	oma	0		S	sg g
   	oma	0		V	o
   	oma	0		A	sg n
   	oma	0		A	sg p
   	oma	0		P	sg n
   	oma	0		P	sg p
   	oma	0		S	sg n
   	oma	0		S	sg p
velje	velg	0		S	sg g
     	veli	0		S	adt
     	veli	0		S	sg g
     	veli	0		S	sg p
Jagobi	####				
pärast	pära	st		S	sg el
      	pärane	t		A	sg p
      	pärast	0		D	
      	pärast	0		K	
,	,			Z	
keda	kes	da		P	pl p
    	kes	da		P	sg p
nende	see	de		P	pl g
     	tema	de		P	pl g
vastane	vastane	0		A	sg n
       	vastane	0		S	sg n
Juhan	Juhan	0		H	sg n
Troon	troon	0		S	sg n
oli	ole	i		V	s
Tikku	tikk	0		S	adt
     	tikk	u		S	pl p
     	tikk	0		S	sg p
man	man	0		D	
   	man	0		K	
suure	suur	0		A	sg g
kepiga	kepp	ga		S	sg kom
löönud	löö	nud		V	nud
      	löö=nu	d		S	pl n
      	löö=nud	0		A	
      	löö=nud	0		A	sg n
      	löö=nud	d		A	pl n
.	.			Z	
Juhan	Juhan	0		H	sg n
ei	ei	0		D	
  	ei	0		V	neg
või	või	0		S	sg g
   	või	0		V	o
   	või	0		D	
   	või	0		J	
   	või	0		S	sg n
seda	see	da		P	sg p
salata	salga	ta		V	da
      	sala	ta		S	sg ab
      	salga	ta		V	ta
ning	ning	0		J	
ütles	ütle	s		V	s
õnda	####				
kül	####				
levat	####				
.	.			Z	
kogukonna	kogukond	0		S	sg g
kohus	kohu	s		V	s
     	kohus	0		S	sg n
mõist	####				
Juhanile	Juhan	le		H	sg all
:	:			Z	
tema	tema	0		P	sg g
    	tema	0		P	sg n
peab	pida	b		V	b
2	2	0		N	?
rublat	rubla	t		S	sg p
vallalaadikude	valla_laadi_kude	0		S	sg n
              	valla_laadi_kude	0		S	sg p
maksma	maks	ma		V	ma
.	.			Z	
