kaebus	kaebus	0		S	sg n
.	.			Z	
ette	ette	0		D	
    	ette	0		K	
    	esi	tte		S	adt
aste	aste	0		S	sg g
    	aste	0		S	sg n
Kahkva	####				
mõisavalitsus	mõisa_valitsus	0		S	sg n
,	,			Z	
ning	ning	0		J	
kaebas	kaeba	s		V	s
tema	tema	0		P	sg g
    	tema	0		P	sg n
olevat	ole	vat		V	vat
      	olev	t		A	sg p
      	olev	t		S	sg p
Räpina	Räpina	0		H	sg g
      	räpp	na		S	sg es
      	Räpina	0		H	sg n
valla	vald	0		S	sg g
     	valla	0		D	
peremehe	pere_mees	0		S	sg g
Andres	Andre	s		H	sg in
      	Andres	0		H	sg n
Loritse	####				
käest	käest	0		K	
     	käsi	st		S	sg el
100	100	0		N	?
vakka	vakk	0		S	adt
     	vakk	0		S	sg p
     	vakka	0		D	
kartuvlit	####				
ära	ära	0		D	
   	ära	0		V	neg o
kaubelnud	kauple	nud		V	nud
         	kaubel=nu	d		S	pl n
         	kaubel=nud	0		A	
         	kaubel=nud	0		A	sg n
         	kaubel=nud	d		A	pl n
,	,			Z	
ning	ning	0		J	
termin	termin	0		S	sg n
olnud	ol=nud	0		A	
     	ol=nud	0		A	sg n
     	ol=nud	d		A	pl n
     	ole	nud		V	nud
     	olnu	d		S	pl n
pandud	pan=du	d		S	pl n
      	pan=dud	0		A	
      	pan=dud	0		A	sg n
      	pan=dud	d		A	pl n
      	pane	dud		V	tud
,	,			Z	
et	et	0		J	
Andres	Andre	s		H	sg in
      	Andres	0		H	sg n
Lorits	####				
need	see	d		P	pl n
kartuvli	####				
pidanud	pida	nud		V	nud
       	pida=nu	d		S	pl n
       	pida=nud	0		A	
       	pida=nud	0		A	sg n
       	pida=nud	d		A	pl n
detsembri	detsember	0		S	sg g
kuul	kuu	l		S	sg ad
    	kuul	0		S	sg n
76	76	0		N	?
Kahkva	####				
mõisa	mõis	0		S	sg g
vedama	veda	ma		V	ma
;	;			Z	
ent	ent	0		J	
ei	ei	0		D	
  	ei	0		V	neg
olevat	ole	vat		V	vat
      	olev	t		A	sg p
      	olev	t		S	sg p
mitte	mitte	0		D	
seni	seni	0		D	
ajani	aeg	ni		S	sg ter
ennast	ise	t		P	sg p
näidanud	näita	nud		V	nud
        	näida=nu	d		S	pl n
        	näida=nud	0		A	
        	näida=nud	0		A	sg n
        	näida=nud	d		A	pl n
.	.			Z	
kui	kui	0		D	
   	kui	0		J	
nüüd	nüüd	0		D	
Andres	Andre	s		H	sg in
      	Andres	0		H	sg n
Lorits	####				
need	see	d		P	pl n
kartuvli	####				
mitte	mitte	0		D	
ei	ei	0		D	
  	ei	0		V	neg
too	too	0		P	sg n
   	too	0		V	o
,	,			Z	
siis	siis	0		D	
    	siis	0		J	
nõuab	nõud	b		V	b
tema	tema	0		P	sg g
    	tema	0		P	sg n
mõisavalitsus	mõisa_valitsus	0		S	sg n
iga	iga	0		P	sg g
   	iga	0		P	sg n
   	iga	0		P	sg p
   	iga	0		S	sg n
   	iga	0		S	sg p
vakka	vakk	0		S	adt
     	vakk	0		S	sg p
     	vakka	0		D	
pealt	pea	lt		S	sg abl
     	pealt	0		D	
     	pealt	0		K	
20	20	0		N	?
kop	kop	0		Y	?
.	.			Z	
hõb	####				
.	.			Z	
kahjutasumist	kahju_tasumine	t		S	sg p
.	.			Z	
väljaseidmine	####				
:	:			Z	
Andres	Andre	s		H	sg in
      	Andres	0		H	sg n
Lorits	####				
sai	saa	i		V	s
   	sai	0		S	sg n
ette	ette	0		D	
    	ette	0		K	
    	esi	tte		S	adt
kutsutu	kutsutu	0		S	sg g
       	kutsutud	0		A	sg g
       	kutsutu	0		S	sg n
ning	ning	0		J	
vastutas	vastuta	s		V	s
,	,			Z	
tema	tema	0		P	sg g
    	tema	0		P	sg n
kartufli	####				
oleva	olev	0		A	sg g
     	olev	0		S	sg g
äramädanud	####				
,	,			Z	
ning	ning	0		J	
ei	ei	0		D	
  	ei	0		V	neg
olevat	ole	vat		V	vat
      	olev	t		A	sg p
      	olev	t		S	sg p
mitte	mitte	0		D	
tuua	too	a		V	da
olnud	ol=nud	0		A	
     	ol=nud	0		A	sg n
     	ol=nud	d		A	pl n
     	ole	nud		V	nud
     	olnu	d		S	pl n
.	.			Z	
otsus	otsus	0		S	sg n
:	:			Z	
kui	kui	0		D	
   	kui	0		J	
Andres	Andre	s		H	sg in
      	Andres	0		H	sg n
Lorits	####				
selle	see	0		P	sg g
     	sell	e		S	pl p
üle	üle	0		D	
   	üle	0		K	
ühe	üks	0		N	sg g
   	üks	0		P	sg g
   	ühe	0		S	sg n
tõsilikku	tõsi=lik	0		A	adt
         	tõsi=lik	0		A	sg p
tunnist	tund	st		S	sg el
       	tunnine	t		A	sg p
manu	manu	0		D	
    	manu	0		K	
toob	too	b		V	b
,	,			Z	
et	et	0		J	
tema	tema	0		P	sg g
    	tema	0		P	sg n
kartuvli	####				
ära	ära	0		D	
   	ära	0		V	neg o
mädanud	####				
,	,			Z	
siis	siis	0		D	
    	siis	0		J	
ei	ei	0		D	
  	ei	0		V	neg
ole	ole	0		V	o
mõisavalitsusel	mõisa_valitsus	l		S	sg ad
midagi	miski	dagi		P	sg p
neidmist	####				
,	,			Z	
ent	ent	0		J	
kui	kui	0		D	
   	kui	0		J	
see	see	0		P	sg n
asi	asi	0		S	sg n
   	asi	0		V	o
seni	seni	0		D	
kuni	kuni	0		J	
    	kuni	0		K	
24ni	24	ni		N	sg ter
jaanuarini	jaanuar	ni		S	sg ter
s	s	0		Y	?
.	.			Z	
a.	a	0		Y	?
Loritse	####				
poolt	pool	t		N	sg p
     	pool	t		S	sg p
     	poolt	0		D	
     	poolt	0		K	
mitte	mitte	0		D	
tõsiste	tõsine	te		A	pl g
ei	ei	0		D	
  	ei	0		V	neg
ole	ole	0		V	o
tehtu	tehtu	0		S	sg g
     	tehtud	0		A	sg g
     	tehtu	0		S	sg n
,	,			Z	
siis	siis	0		D	
    	siis	0		J	
maksab	maks	b		V	b
tema	tema	0		P	sg g
    	tema	0		P	sg n
5	5	0		N	?
rbl	rbl	0		Y	?
.	.			Z	
trahvi	trahv	0		S	adt
      	trahv	0		S	sg g
      	trahvi	0		V	o
      	trahv	0		S	sg p
mõisavalitsusele	mõisa_valitsus	le		S	sg all
.	.			Z	
peakohtumees	pea_kohtu_mees	0		S	sg n
Gustav	Gustav	0		H	sg n
Lepson	####				
kohtumees	kohtu_mees	0		S	sg n
Paap	####				
Sabbal	####				
kohtumees	kohtu_mees	0		S	sg n
Joosep	Joosep	0		H	sg n
Jõks	####				
