Jagob	####				
Usin	usin	0		A	sg n
tuli	tuli	0		S	sg n
    	tule	i		V	s
ette	ette	0		D	
    	ette	0		K	
    	esi	tte		S	adt
,	,			Z	
kaebas	kaeba	s		V	s
et	et	0		J	
tema	tema	0		P	sg g
    	tema	0		P	sg n
pois	poi	s		S	sg in
Peeter	Peeter	0		H	sg n
Liblik	####				
on	ole	0		V	b
  	ole	0		V	vad
temal	tema	l		P	sg ad
2	2	0		N	?
vakka	vakk	0		S	adt
     	vakk	0		S	sg p
     	vakka	0		D	
rüki	rükki	0		V	o
sügiselt	sügis	lt		S	sg abl
rehe	rehi	0		S	sg g
alt	alt	0		S	sg n
   	alt	0		D	
   	alt	0		K	
ära	ära	0		D	
   	ära	0		V	neg o
varastanud	varasta	nud		V	nud
          	varasta=nu	d		S	pl n
          	varasta=nud	0		A	
          	varasta=nud	0		A	sg n
          	varasta=nud	d		A	pl n
.	.			Z	
kui	kui	0		D	
   	kui	0		J	
Peetri	Peeter	0		H	sg g
      	Peetri	0		H	sg g
      	Peetri	0		H	sg n
ette	ette	0		D	
    	ette	0		K	
    	esi	tte		S	adt
kutsuti	kutsu	ti		V	ti
ja	ja	0		J	
küsiti	küsi	ti		V	ti
,	,			Z	
siis	siis	0		D	
    	siis	0		J	
nakkas	nakka	s		V	s
Kroppel	####				
viisel	####				
salgama	salga	ma		V	ma
ja	ja	0		J	
ütles	ütle	s		V	s
et	et	0		J	
talle	tall	e		S	pl p
     	tall	0		S	adt
     	tall	0		S	sg g
     	tema	lle		P	sg all
     	tall	0		S	sg p
ei	ei	0		D	
  	ei	0		V	neg
võivat	või	vat		V	vat
      	võiv	t		A	sg p
ükski	üks	0	ki	N	sg n
     	üks	0	ki	P	sg n
     	ükski	0		D	
kohus	kohu	s		V	s
     	kohus	0		S	sg n
midagi	miski	dagi		P	sg p
teha	tege	a		V	da
.	.			Z	
soldat	soldat	0		S	sg n
Juhan	Juhan	0		H	sg n
Kaunnis	####				
kutsuti	kutsu	ti		V	ti
ette	ette	0		D	
    	ette	0		K	
    	esi	tte		S	adt
kes	kes	0		P	pl n
   	kes	0		P	sg n
ütles	ütle	s		V	s
enda	ise	0		P	sg g
nägev	näge	v		V	v
     	nägev	0		A	sg n
,	,			Z	
kui	kui	0		D	
   	kui	0		J	
tema	tema	0		P	sg g
    	tema	0		P	sg n
on	ole	0		V	b
  	ole	0		V	vad
veel	veel	0		D	
    	vesi	l		S	sg ad
peale	pea	le		S	sg all
     	peale	0		D	
     	peale	0		K	
vargose	####				
piire	piir	e		S	pl p
     	piire	0		S	sg n
ole	ole	0		V	o
pealt	pea	lt		S	sg abl
     	pealt	0		D	
     	pealt	0		K	
võtnud	võt	nud		V	nud
      	võt=nu	d		S	pl n
      	võt=nud	0		A	
      	võt=nud	0		A	sg n
      	võt=nud	d		A	pl n
,	,			Z	
ja	ja	0		J	
u	u	0		Y	?
võlse	####				
et	et	0		J	
tema	tema	0		P	sg g
    	tema	0		P	sg n
ei	ei	0		D	
  	ei	0		V	neg
ole	ole	0		V	o
seal	seal	0		D	
    	siga	l		A	sg ad
    	siga	l		S	sg ad
rehe	rehi	0		S	sg g
al	####				
käsunu	####				
ei	ei	0		D	
  	ei	0		V	neg
ka	ka	0		D	
piire	piir	e		S	pl p
     	piire	0		S	sg n
võtnud	võt	nud		V	nud
      	võt=nu	d		S	pl n
      	võt=nud	0		A	
      	võt=nud	0		A	sg n
      	võt=nud	d		A	pl n
,	,			Z	
pärast	pära	st		S	sg el
      	pärane	t		A	sg p
      	pärast	0		D	
      	pärast	0		K	
ütles	ütle	s		V	s
oma	oma	0		A	sg g
   	oma	0		D	
   	oma	0		P	sg g
   	oma	0		S	sg g
   	oma	0		V	o
   	oma	0		A	sg n
   	oma	0		A	sg p
   	oma	0		P	sg n
   	oma	0		P	sg p
   	oma	0		S	sg n
   	oma	0		S	sg p
suga	suga	0		S	sg n
    	suga	0		S	sg p
et	et	0		J	
tema	tema	0		P	sg g
    	tema	0		P	sg n
on	ole	0		V	b
  	ole	0		V	vad
küll	küll	0		D	
    	küll	0		S	sg n
piire	piir	e		S	pl p
     	piire	0		S	sg n
võtnud	võt	nud		V	nud
      	võt=nu	d		S	pl n
      	võt=nud	0		A	
      	võt=nud	0		A	sg n
      	võt=nud	d		A	pl n
kuijuma	####				
rehe	rehi	0		S	sg g
peksa	peks	0		V	o
     	peksa	0		X	
,	,			Z	
ja	ja	0		J	
onete	####				
ei	ei	0		D	
  	ei	0		V	neg
ole	ole	0		V	o
ka	ka	0		D	
sel	see	l		P	sg ad
   	sel	0		Y	?
ööl	öö	l		S	sg ad
reht	rehi	0		S	sg p
pekstud	peks	tud		V	tud
       	peks=tu	d		S	pl n
       	peks=tud	0		A	
       	peks=tud	0		A	sg n
       	peks=tud	d		A	pl n
nõnda	nõnda	0		D	
sai	saa	i		V	s
   	sai	0		S	sg n
kaks	kaks	0		N	sg n
võlsi	####				
aualigus	####				
.	.			Z	
Kropu	####				
su	sina	0		P	sg g
ja	ja	0		J	
võlsi	####				
eest	eest	0		D	
    	eest	0		K	
    	esi	st		S	sg el
mõist	####				
kogukonna	kogukond	0		S	sg g
kohus	kohu	s		V	s
     	kohus	0		S	sg n
15	15	0		N	?
hoopi	hoop	0		S	adt
     	hoop	0		S	sg p
mis	mis	0		P	pl n
   	mis	0		P	sg n
ka	ka	0		D	
antud	an=tu	d		S	pl n
     	and	tud		V	tud
     	antud	0		A	
     	antud	0		A	sg n
     	antud	d		A	pl n
sai	saa	i		V	s
   	sai	0		S	sg n
ja	ja	0		J	
2	2	0		N	?
vakka	vakk	0		S	adt
     	vakk	0		S	sg p
     	vakka	0		D	
rüki	rükki	0		V	o
Jagobaile	####				
peab	pida	b		V	b
ära	ära	0		D	
   	ära	0		V	neg o
maksma	maks	ma		V	ma
,	,			Z	
sest	see	st		P	sg el
    	sest	0		J	
et	et	0		J	
soltad	####				
kingmast	king_mast	0		S	sg n
tunnist	tund	st		S	sg el
       	tunnine	t		A	sg p
ja	ja	0		J	
lubas	luba	s		V	s
vandud	####				
et	et	0		J	
peeetri	####				
on	ole	0		V	b
  	ole	0		V	vad
teda	tema	da		P	sg p
varastanud	varasta	nud		V	nud
          	varasta=nu	d		S	pl n
          	varasta=nud	0		A	
          	varasta=nud	0		A	sg n
          	varasta=nud	d		A	pl n
.	.			Z	
