Lintest	####				
Daniel	Daniel	0		H	sg n
raudast	####				
on	ole	0		V	b
  	ole	0		V	vad
lepinud	####				
vori	####				
päeva	päev	0		S	adt
     	päev	0		S	sg g
     	päev	0		S	sg p
ning	ning	0		J	
otsatükke	otsa_tükk	e		S	pl p
asemel	ase	l		S	sg ad
      	asemel	0		K	
raha	raha	0		S	sg g
    	raha	0		S	sg n
    	raha	0		S	sg p
renti	rent	0		S	adt
     	rent	0		S	sg p
maksa	maks	0		S	adt
     	maks	0		S	sg g
     	maks	0		V	o
     	maks	0		S	sg p
,	,			Z	
siis	siis	0		D	
    	siis	0		J	
tema	tema	0		P	sg g
    	tema	0		P	sg n
maksab	maks	b		V	b
18	18	0		N	?
Taadre	####				
4	4	0		N	?
Grossi	gross	0		S	adt
      	gross	0		S	sg g
      	gross	0		S	sg p
eest	eest	0		D	
    	eest	0		K	
    	esi	st		S	sg el
108	108	0		N	?
rubla	rubla	0		S	sg g
     	rubla	0		S	sg n
     	rubla	0		S	sg p
2	2	0		N	?
aastad	aasta	d		S	pl n
see	see	0		P	sg n
on	ole	0		V	b
  	ole	0		V	vad
seni	seni	0		D	
kui	kui	0		D	
   	kui	0		J	
1870	1870	0		N	?
renti	rent	0		S	adt
     	rent	0		S	sg p
;	;			Z	
pool	pool	0		K	
    	pool	0		N	sg n
    	pool	0		S	sg n
renti	rent	0		S	adt
     	rent	0		S	sg p
1	1	0		N	?
Jürikuupäeval	jüri_kuu_päev	l		S	sg ad
teine	teine	0		O	sg n
     	teine	0		P	sg n
pool	pool	0		K	
    	pool	0		N	sg n
    	pool	0		S	sg n
raha	raha	0		S	sg g
    	raha	0		S	sg n
    	raha	0		S	sg p
Mihklipäeval	mihkli_päev	l		S	sg ad
.	.			Z	
Räpina	Räpina	0		H	sg g
      	räpp	na		S	sg es
      	Räpina	0		H	sg n
kohtumaja	kohtu_maja	0		S	sg g
         	kohtu_maja	0		S	sg n
         	kohtu_maja	0		S	sg p
sel	see	l		P	sg ad
   	sel	0		Y	?
11	11	0		N	?
märtsil	märts	l		S	sg ad
1868.	1868.	0		O	?
Daniel	Daniel	0		H	sg n
raudast	####				
XXX	XXX	0		O	?
   	XXX	0		Y	?
