hiirv	####				
Jukk	####				
kuulutas	kuuluta	s		V	s
veel	veel	0		D	
    	vesi	l		S	sg ad
,	,			Z	
et	et	0		J	
tema	tema	0		P	sg g
    	tema	0		P	sg n
sulase	sulane	0		S	sg g
naine	naine	0		S	sg n
Anu	Anu	0		H	sg g
   	anu	0		V	o
   	Anu	0		H	sg n
Jaani	Jaan	0		H	adt
     	Jaan	0		H	sg g
     	Jaani	0		H	sg g
     	jaan	0		S	adt
     	jaan	0		S	sg g
     	Jaan	0		H	sg p
     	Jaani	0		H	sg n
     	jaan	0		S	sg p
päeva	päev	0		S	adt
     	päev	0		S	sg g
     	päev	0		S	sg p
ajal	aeg	l		S	sg ad
    	ajal	0		K	
kui	kui	0		D	
   	kui	0		J	
temal	tema	l		P	sg ad
last	laps	t		S	sg p
    	last	0		S	sg n
oli	ole	i		V	s
,	,			Z	
ja	ja	0		J	
see	see	0		P	sg n
last	laps	t		S	sg p
    	last	0		S	sg n
ära	ära	0		D	
   	ära	0		V	neg o
kooli	kool	i		S	pl p
     	kool	0		S	adt
     	kool	0		S	sg g
     	kool	0		S	sg p
,	,			Z	
et	et	0		J	
tema	tema	0		P	sg g
    	tema	0		P	sg n
kaebusa	####				
oli	ole	i		V	s
jutu	jutt	0		S	sg g
ajanud	aja	nud		V	nud
      	aja=nu	d		S	pl n
      	aja=nud	0		A	
      	aja=nud	0		A	sg n
      	aja=nud	d		A	pl n
,	,			Z	
et	et	0		J	
see	see	0		P	sg n
anno	####				
oli	ole	i		V	s
oma	oma	0		A	sg g
   	oma	0		D	
   	oma	0		P	sg g
   	oma	0		S	sg g
   	oma	0		V	o
   	oma	0		A	sg n
   	oma	0		A	sg p
   	oma	0		P	sg n
   	oma	0		P	sg p
   	oma	0		S	sg n
   	oma	0		S	sg p
last	laps	t		S	sg p
    	last	0		S	sg n
ära	ära	0		D	
   	ära	0		V	neg o
kekistanud	####				
,	,			Z	
ja	ja	0		J	
ta	tema	0		P	sg g
  	tema	0		P	sg n
last	laps	t		S	sg p
    	last	0		S	sg n
ei	ei	0		D	
  	ei	0		V	neg
ole	ole	0		V	o
mitte	mitte	0		D	
õiget	õige	t		A	sg p
surma	surm	0		S	adt
     	surm	0		S	sg g
     	surma	0		V	o
     	surm	0		S	sg p
koolu	koold	0		S	sg g
.	.			Z	
otsus	otsus	0		S	sg n
.	.			Z	
hiirve	####				
maja	maja	0		S	sg g
    	maja	0		S	sg n
    	maja	0		S	sg p
kabetse	####				
ning	ning	0		J	
mu	mina	0		P	sg g
rahvas	rahvas	0		S	sg n
      	rahvas	s		S	sg in
tuleval	tulev	l		A	sg ad
kohtupäeval	kohtu_päev	l		S	sg ad
kohtu	kohtu	0		V	o
     	kohus	0		S	sg g
ette	ette	0		D	
    	ette	0		K	
    	esi	tte		S	adt
kutsu	kutsu	0		V	o
     	kutsu	0		S	sg g
     	kutsu	0		S	sg n
.	.			Z	
