mõisavalitsuse	mõisa_valitsus	0		S	sg g
kaebduses	####				
Tile	####				
kõrtsimees	kõrtsi_mees	0		S	sg n
Jüri	Jüri	0		H	sg g
    	Jüri	0		H	sg n
Kets	kets	0		S	sg n
vastu	vastu	0		D	
     	vastu	0		K	
/	/			Z	
№	№	0		Y	?
116	116	0		N	?
/	/			Z	
täna	täna	0		D	
    	täna	0		V	o
mõisa	mõis	0		S	sg g
valitsus	valitsus	0		S	sg n
kohtu	kohtu	0		V	o
     	kohus	0		S	sg g
ette	ette	0		D	
    	ette	0		K	
    	esi	tte		S	adt
tulnud	tul=nud	0		A	
      	tul=nud	0		A	sg n
      	tul=nud	d		A	pl n
      	tule	nud		V	nud
      	tulnu	d		S	pl n
,	,			Z	
aga	aga	0		J	
Jüri	Jüri	0		H	sg g
    	Jüri	0		H	sg n
Kets	kets	0		S	sg n
ei	ei	0		D	
  	ei	0		V	neg
ole	ole	0		V	o
mitte	mitte	0		D	
tulnud	tul=nud	0		A	
      	tul=nud	0		A	sg n
      	tul=nud	d		A	pl n
      	tule	nud		V	nud
      	tulnu	d		S	pl n
.	.			Z	
kog	####				
.	.			Z	
kohus	kohu	s		V	s
     	kohus	0		S	sg n
tegi	sina	0	gi	P	pl g
    	tege	i		V	s
    	sina	0	gi	P	pl n
otsuseks	otsus	ks		S	sg tr
:	:			Z	
Jüri	Jüri	0		H	sg g
    	Jüri	0		H	sg n
Kets	kets	0		S	sg n
teises	teine	s		O	sg in
      	teine	s		P	sg in
kohtupäevaks	kohtu_päev	ks		S	sg tr
vangi	vang	0		S	adt
     	vang	0		S	sg g
     	vang	0		S	sg p
viisi	viis	0		S	adt
     	viis	0		S	sg g
     	viis	i		N	pl p
     	viisi	0		K	
     	viis	0		S	sg p
kohtu	kohtu	0		V	o
     	kohus	0		S	sg g
ette	ette	0		D	
    	ette	0		K	
    	esi	tte		S	adt
tuua	too	a		V	da
lasta	lask	ta		V	da
     	lask	ta		V	ta
ja	ja	0		J	
peab	pida	b		V	b
seesama	see_sama	0		P	sg n
mõisavalitsusele	mõisa_valitsus	le		S	sg all
1	1	0		N	?
rbl	rbl	0		Y	?
.	.			Z	
jalavaid	####				
maksma	maks	ma		V	ma
,	,			Z	
et	et	0		J	
see	see	0		P	sg n
ilma	ilm	0		S	adt
    	ilm	0		S	sg g
    	ilma	0		D	
    	ilma	0		K	
    	ilm	0		S	sg p
asjata	asi	ta		S	sg ab
      	asjata	0		A	
      	asjata	0		D	
      	asjata	0		V	o
kakskord	kaks_kord	0		S	sg n
kohtu	kohtu	0		V	o
     	kohus	0		S	sg g
man	man	0		D	
   	man	0		K	
on	ole	0		V	b
  	ole	0		V	vad
käinud	käi	nud		V	nud
      	käi=nud	0		A	
      	käi=nud	0		A	sg n
      	käi=nud	d		A	pl n
      	käinu	d		S	pl n
.	.			Z	
peakohtumees	pea_kohtu_mees	0		S	sg n
ju	ju	0		D	
.	.			Z	
peahn	####				
.	.			Z	
kohtumees	kohtu_mees	0		S	sg n
Joh	####				
,	,			Z	
Purasson	####				
xxx	####				
do	####				
:	:			Z	
Mihkel	Mihkel	0		H	sg n
      	mihkel	0		A	sg n
      	mihkel	0		S	sg n
Laine	Laine	0		H	sg g
     	laine	0		S	sg g
     	laine	0		S	sg n
     	Laine	0		H	sg n
[	[			Z	
allkiri	all_kiri	0		S	sg n
]	]			Z	
kirjutaja	kirjutaja	0		S	sg g
         	kirjutaja	0		S	sg n
V	V	0		O	?
 	V	0		Y	?
Luik	luik	0		S	sg n
[	[			Z	
allkiri	all_kiri	0		S	sg n
]	]			Z	
