metsa	mets	0		S	adt
     	mets	0		S	sg g
     	mets	0		S	sg p
vaht	vaht	0		S	sg n
Ado	Ado	0		H	sg g
   	Ado	0		H	sg n
Hermelin	####				
kaebas	kaeba	s		V	s
sisse	siss	e		S	pl p
     	sisse	0		D	
     	sisse	0		K	
et	et	0		J	
Haavad	haab	d		S	pl n
      	haav	d		S	pl n
      	haava	d		V	d
Johann	Johann	0		H	sg n
otsik	otsik	0		S	sg n
hobuse	hobune	0		S	sg g
on	ole	0		V	b
  	ole	0		V	vad
suvel	suvi	l		S	sg ad
mõisa	mõis	0		S	sg g
heinamaa	heina_maa	0		S	sg g
        	heina_maa	0		S	sg n
peale	pea	le		S	sg all
     	peale	0		D	
     	peale	0		K	
6	6	0		N	?
ähervust	####				
teinud	tege	nud		V	nud
      	tei=nud	0		A	
      	tei=nud	0		A	sg n
      	tei=nud	d		A	pl n
      	teinu	d		S	pl n
.	.			Z	
Johann	Johann	0		H	sg n
Kõts	####				
ütleb	ütle	b		V	b
et	et	0		J	
temal	tema	l		P	sg ad
on	ole	0		V	b
  	ole	0		V	vad
2	2	0		N	?
hobust	hobu	st		S	sg el
      	hobune	t		S	sg p
vallale	vald	le		S	sg all
peasnud	####				
ning	ning	0		J	
arvab	arva	b		V	b
õige	õige	0		A	sg g
    	õige	0		A	sg n
    	õige	0		D	
oleva	olev	0		A	sg g
     	olev	0		S	sg g
.	.			Z	
mõistetud	mõist	tud		V	tud
         	mõiste=tu	d		S	pl n
         	mõiste=tud	0		A	
         	mõiste=tud	0		A	sg n
         	mõiste=tud	d		A	pl n
sai	saa	i		V	s
   	sai	0		S	sg n
Kahhju_tasumist	####				
mõista	mõist	0		V	o
      	mõist	a		V	da
ei	ei	0		D	
  	ei	0		V	neg
või	või	0		S	sg g
   	või	0		V	o
   	või	0		D	
   	või	0		J	
   	või	0		S	sg n
sest	see	st		P	sg el
    	sest	0		J	
et	et	0		J	
kohtu	kohtu	0		V	o
     	kohus	0		S	sg g
poolt	pool	t		N	sg p
     	pool	t		S	sg p
     	poolt	0		D	
     	poolt	0		K	
üle	üle	0		D	
   	üle	0		K	
kaet	####				
ei	ei	0		D	
  	ei	0		V	neg
ole	ole	0		V	o
,	,			Z	
ent	ent	0		J	
kinni	kinni	0		D	
võtmise	võtmine	0		S	sg g
est	####				
peab	pida	b		V	b
Johann	Johann	0		H	sg n
Kõts	####				
1	1	0		N	?
rbl	rbl	0		Y	?
.	.			Z	
mõisa	mõis	0		S	sg g
heaks	hea	ks		A	sg tr
     	hea	ks		S	sg tr
     	heaks	0		D	
     	heaks	0		K	
2	2	0		N	?
nädala	nädal	0		S	sg g
sees	sees	0		D	
    	sees	0		K	
ära	ära	0		D	
   	ära	0		V	neg o
maksma	maks	ma		V	ma
peakohtumees	pea_kohtu_mees	0		S	sg n
Mihkel	Mihkel	0		H	sg n
      	mihkel	0		A	sg n
      	mihkel	0		S	sg n
Kolga	####				
xxx	####				
kohtumees	kohtu_mees	0		S	sg n
Peeter	Peeter	0		H	sg n
Jaanimägi	jaani_mägi	0		S	sg n
XXX	XXX	0		O	?
   	XXX	0		Y	?
""""	""""			Z	
Jaan	Jaan	0		H	sg n
    	jaan	0		S	sg n
    	jaan	0		Y	?
Ventsli	####				
xxx	####				
kirjutaja	kirjutaja	0		S	sg g
         	kirjutaja	0		S	sg n
V. Ackel	####				
.	.			Z	
