ette	ette	0		D	
    	ette	0		K	
    	esi	tte		S	adt
tuli	tuli	0		S	sg n
    	tule	i		V	s
Hendrik	Hendrik	0		H	sg n
Hamme	####				
Väimerast	####				
ning	ning	0		J	
kaebas	kaeba	s		V	s
:	:			Z	
Tile	####				
mõisa	mõis	0		S	sg g
rentnik	rentnik	0		S	sg n
Johan	Johan	0		H	sg n
mõistus	mõistus	0		S	sg n
olla	ole	a		V	da
lepingu	leping	0		S	sg g
perra	####				
tema	tema	0		P	sg g
    	tema	0		P	sg n
eest	eest	0		D	
    	eest	0		K	
    	esi	st		S	sg el
pearaha	pea_raha	0		S	sg g
       	pea_raha	0		S	sg n
       	pea_raha	0		S	sg p
maksa	maks	0		S	adt
     	maks	0		S	sg g
     	maks	0		V	o
     	maks	0		S	sg p
ja	ja	0		J	
kui	kui	0		D	
   	kui	0		J	
tema	tema	0		P	sg g
    	tema	0		P	sg n
nüüd	nüüd	0		D	
Jüripäeval	jüri_päev	l		S	sg ad
ära	ära	0		D	
   	ära	0		V	neg o
on	ole	0		V	b
  	ole	0		V	vad
läinud	läinu	d		S	pl n
      	läinud	0		A	
      	läinud	0		A	sg n
      	läinud	d		A	pl n
      	mine	nud		V	nud
siis	siis	0		D	
    	siis	0		J	
ei	ei	0		D	
  	ei	0		V	neg
ole	ole	0		V	o
Johan	Johan	0		H	sg n
mõistus	mõistus	0		S	sg n
tema	tema	0		P	sg g
    	tema	0		P	sg n
pearaha	pea_raha	0		S	sg g
       	pea_raha	0		S	sg n
       	pea_raha	0		S	sg p
mitte	mitte	0		D	
ära	ära	0		D	
   	ära	0		V	neg o
maksnud	maks	nud		V	nud
       	maks=nu	d		S	pl n
       	maks=nud	0		A	
       	maks=nud	0		A	sg n
       	maks=nud	d		A	pl n
,	,			Z	
ning	ning	0		J	
palub	palu	b		V	b
nüüd	nüüd	0		D	
kog	####				
.	.			Z	
kohut	kohus	t		S	sg p
seda	see	da		P	sg p
asja	asi	0		S	adt
    	asi	0		S	sg g
    	asi	0		S	sg p
seletada	seleta	da		V	da
ja	ja	0		J	
seaduse	seadus	0		S	sg g
perra	####				
mõista	mõist	0		V	o
      	mõist	a		V	da
.	.			Z	
Juhan	Juhan	0		H	sg n
mõistus	mõistus	0		S	sg n
ette	ette	0		D	
    	ette	0		K	
    	esi	tte		S	adt
kutsuti	kutsu	ti		V	ti
ning	ning	0		J	
kaebus	kaebus	0		S	sg n
ette	ette	0		D	
    	ette	0		K	
    	esi	tte		S	adt
loeti	luge	ti		V	ti
kes	kes	0		P	pl n
   	kes	0		P	sg n
vastut	####				
:	:			Z	
lepingu	leping	0		S	sg g
perra	####				
on	ole	0		V	b
  	ole	0		V	vad
minul	mina	l		P	sg ad
küll	küll	0		D	
    	küll	0		S	sg n
pearaha	pea_raha	0		S	sg g
       	pea_raha	0		S	sg n
       	pea_raha	0		S	sg p
maksa	maks	0		S	adt
     	maks	0		S	sg g
     	maks	0		V	o
     	maks	0		S	sg p
aga	aga	0		J	
lepingus	leping	s		S	sg in
on	ole	0		V	b
  	ole	0		V	vad
ka	ka	0		D	
mahatehtu	maha_tehtu	0		S	sg g
         	maha_tehtud	0		A	sg g
         	maha_tehtu	0		S	sg n
et	et	0		J	
kui	kui	0		D	
   	kui	0		J	
midagi	miski	dagi		P	sg p
ütlemist	ütlemine	t		S	sg p
tuleb	tule	b		V	b
siis	siis	0		D	
    	siis	0		J	
ei	ei	0		D	
  	ei	0		V	neg
maksa	maks	0		S	adt
     	maks	0		S	sg g
     	maks	0		V	o
     	maks	0		S	sg p
mina	mina	0		P	sg n
    	mina	0		S	sg g
    	mina	0		S	sg n
    	mina	0		S	sg p
pearaha	pea_raha	0		S	sg g
       	pea_raha	0		S	sg n
       	pea_raha	0		S	sg p
;	;			Z	
ja	ja	0		J	
ütlemist	ütlemine	t		S	sg p
on	ole	0		V	b
  	ole	0		V	vad
palju	palju	0		D	
     	palju	0		P	sg g
     	palju	0		P	sg n
tulnud	tul=nud	0		A	
      	tul=nud	0		A	sg n
      	tul=nud	d		A	pl n
      	tule	nud		V	nud
      	tulnu	d		S	pl n
nimelt	nimelt	0		D	
      	nimi	lt		S	sg abl
:	:			Z	
vastupanelik	####				
on	ole	0		V	b
  	ole	0		V	vad
olnud	ol=nud	0		A	
     	ol=nud	0		A	sg n
     	ol=nud	d		A	pl n
     	ole	nud		V	nud
     	olnu	d		S	pl n
,	,			Z	
ja	ja	0		J	
naine	naine	0		S	sg n
ei	ei	0		D	
  	ei	0		V	neg
lä	####				
tühi	tühi	0		A	sg n
,	,			Z	
piibu	piip	0		S	sg g
on	ole	0		V	b
  	ole	0		V	vad
tema	tema	0		P	sg g
    	tema	0		P	sg n
lautan	####				
tõmmanud	tõmba	nud		V	nud
        	tõmma=nu	d		S	pl n
        	tõmma=nud	0		A	
        	tõmma=nud	0		A	sg n
        	tõmma=nud	d		A	pl n
,	,			Z	
töö	töö	0		S	sg g
   	töö	0		S	sg n
mant	mant	0		D	
    	mant	0		K	
    	mant	0		S	sg n
läks	mine	s		V	s
ilma	ilm	0		S	adt
    	ilm	0		S	sg g
    	ilma	0		D	
    	ilma	0		K	
    	ilm	0		S	sg p
lubada	luba	da		V	da
ära	ära	0		D	
   	ära	0		V	neg o
ja	ja	0		J	
kuna	kuna	0		D	
    	kuna	0		J	
maha	maha	0		D	
on	ole	0		V	b
  	ole	0		V	vad
tehtu	tehtu	0		S	sg g
     	tehtud	0		A	sg g
     	tehtu	0		S	sg n
et	et	0		J	
sülla	süld	0		S	sg g
puid	puu	id		S	pl p
peab	pida	b		V	b
raiuma	raiu	ma		V	ma
on	ole	0		V	b
  	ole	0		V	vad
tema	tema	0		P	sg g
    	tema	0		P	sg n
alati	alga	ti		V	ti
     	alati	0		D	
1	1	0		N	?
/	/			Z	
2	2	0		N	?
sülda	süld	0		S	adt
     	süld	0		S	sg p
raiunud	raiu	nud		V	nud
       	raiu=nu	d		S	pl n
       	raiu=nud	0		A	
       	raiu=nud	0		A	sg n
       	raiu=nud	d		A	pl n
päevaks	päev	ks		S	sg tr
.	.			Z	
kuna	kuna	0		D	
    	kuna	0		J	
neil	see	l		P	pl ad
    	tema	l		P	pl ad
midagi	miski	dagi		P	sg p
ütlemist	ütlemine	t		S	sg p
ei	ei	0		D	
  	ei	0		V	neg
ole	ole	0		V	o
,	,			Z	
siis	siis	0		D	
    	siis	0		J	
mõistis	mõist	is		V	s
kohus	kohu	s		V	s
     	kohus	0		S	sg n
:	:			Z	
sellepärast	selle_pärast	0		D	
et	et	0		J	
Hamme	####				
vastupanelik	####				
on	ole	0		V	b
  	ole	0		V	vad
olnud	ol=nud	0		A	
     	ol=nud	0		A	sg n
     	ol=nud	d		A	pl n
     	ole	nud		V	nud
     	olnu	d		S	pl n
ja	ja	0		J	
ilma	ilm	0		S	adt
    	ilm	0		S	sg g
    	ilma	0		D	
    	ilma	0		K	
    	ilm	0		S	sg p
lubada	luba	da		V	da
ära	ära	0		D	
   	ära	0		V	neg o
on	ole	0		V	b
  	ole	0		V	vad
läinud	läinu	d		S	pl n
      	läinud	0		A	
      	läinud	0		A	sg n
      	läinud	d		A	pl n
      	mine	nud		V	nud
kodust	kodu	st		S	sg el
      	kodune	t		A	sg p
,	,			Z	
siis	siis	0		D	
    	siis	0		J	
ei	ei	0		D	
  	ei	0		V	neg
ole	ole	0		V	o
temal	tema	l		P	sg ad
õigus	õigus	0		S	sg n
seda	see	da		P	sg p
pearaha	pea_raha	0		S	sg g
       	pea_raha	0		S	sg n
       	pea_raha	0		S	sg p
nõuda	nõud	a		V	da
.	.			Z	
mõistmine	mõistmine	0		S	sg n
ja	ja	0		J	
§	§	0		Y	?
773	773	0		N	?
ja	ja	0		J	
774	774	0		N	?
sai	saa	i		V	s
   	sai	0		S	sg n
etteloetud	ette_loetu	d		S	pl n
          	ette_loetud	0		A	
          	ette_loetud	0		A	sg n
          	ette_loetud	d		A	pl n
kon	####				
Juhan	Juhan	0		H	sg n
mõistus	mõistus	0		S	sg n
kuulut	####				
et	et	0		J	
tema	tema	0		P	sg g
    	tema	0		P	sg n
selle	see	0		P	sg g
     	sell	e		S	pl p
mõistmisega	mõistmine	ga		S	sg kom
rahul	rahu	l		S	sg ad
     	rahul	0		D	
ei	ei	0		D	
  	ei	0		V	neg
ole	ole	0		V	o
ja	ja	0		J	
palus	palu	s		S	sg in
     	palu	s		V	s
protokolli	protokoll	0		S	adt
          	protokoll	0		S	sg g
          	protokolli	0		V	o
          	protokoll	0		S	sg p
välja	välja	0		D	
     	välja	0		V	o
     	väli	0		S	adt
     	väli	0		S	sg g
     	väli	0		S	sg p
mis	mis	0		P	pl n
   	mis	0		P	sg n
temale	tema	le		P	sg all
ka	ka	0		D	
anda	and	a		V	da
lubati	luba	ti		V	ti
.	.			Z	
Gusta	####				
Veits	####				
xxx	####				
Jaan	Jaan	0		H	sg n
    	jaan	0		S	sg n
    	jaan	0		Y	?
Tamm	tamm	0		S	sg n
xxx	####				
Jaan	Jaan	0		H	sg n
    	jaan	0		S	sg n
    	jaan	0		Y	?
kuhi	kuhi	0		S	sg n
xxx	####				
kirjutaiaasemik	kirju_taia_asemik	0		S	sg n
GDaniel	####				
[	[			Z	
allkiri	all_kiri	0		S	sg n
]	]			Z	
