Peeter	Peeter	0		H	sg n
Karnask	####				
tunnistas	tunnista	s		V	s
et	et	0		J	
5	5	0		N	?
aastaiga	aas_tai	ga		S	sg kom
        	aas_taig	0		S	adt
        	aas_taig	0		S	sg p
        	aas_taiga	0		S	sg g
        	aas_taiga	0		S	sg n
aegu	aeg	u		S	pl p
    	aegu	0		K	
    	aegu	0		V	o
tagasi	tagasi	0		D	
      	tagasi	0		K	
siis	siis	0		D	
    	siis	0		J	
kui	kui	0		D	
   	kui	0		J	
tema	tema	0		P	sg g
    	tema	0		P	sg n
Lokkotajal	####				
on	ole	0		V	b
  	ole	0		V	vad
olnud	ol=nud	0		A	
     	ol=nud	0		A	sg n
     	ol=nud	d		A	pl n
     	ole	nud		V	nud
     	olnu	d		S	pl n
,	,			Z	
on	ole	0		V	b
  	ole	0		V	vad
Jaan	Jaan	0		H	sg n
    	jaan	0		S	sg n
    	jaan	0		Y	?
Puksand	puks_and	0		S	sg n
7	7	0		N	?
või	või	0		S	sg g
   	või	0		V	o
   	või	0		D	
   	või	0		J	
   	või	0		S	sg n
8	8	0		N	?
kormat	####				
kivisi	####				
lina	lina	0		S	sg g
    	lina	0		S	sg n
    	lina	0		S	sg p
ole	ole	0		V	o
manu	manu	0		D	
    	manu	0		K	
toonud	too	nud		V	nud
      	too=nu	d		S	pl n
      	too=nud	0		A	
      	too=nud	0		A	sg n
      	too=nud	d		A	pl n
,	,			Z	
mis	mis	0		P	pl n
   	mis	0		P	sg n
Peeter	Peeter	0		H	sg n
on	ole	0		V	b
  	ole	0		V	vad
ole	ole	0		V	o
peale	pea	le		S	sg all
     	peale	0		D	
     	peale	0		K	
pannud	pan=nu	d		S	pl n
      	pan=nud	0		A	
      	pan=nud	0		A	sg n
      	pan=nud	d		A	pl n
      	pane	nud		V	nud
.	.			Z	
pea	pea	0		D	
   	pea	0		S	sg g
   	pida	0		V	o
   	pea	0		S	sg n
kohtumees	kohtu_mees	0		S	sg n
Paap	####				
Kiudorv	kiud_orv	0		S	sg n
kohtumees	kohtu_mees	0		S	sg n
Jaan	Jaan	0		H	sg n
    	jaan	0		S	sg n
    	jaan	0		Y	?
Holsting	####				
kohtumees	kohtu_mees	0		S	sg n
Jakob	Jakob	0		H	sg n
Türkson	####				
