mõisa	mõis	0		S	sg g
Herr	####				
von	####				
Dehn	####				
pani	pan	0		S	adt
    	pani	0		S	sg g
    	pane	i		V	s
    	pan	0		S	sg g
    	pan	0		S	sg p
    	pani	0		S	sg n
kaebust	kaebus	t		S	sg p
Leppa	lepp	0		S	adt
     	lepp	0		S	sg p
Hans	Hans	0		H	sg n
Klaas	klaas	0		S	sg n
peale	pea	le		S	sg all
     	peale	0		D	
     	peale	0		K	
,	,			Z	
kes	kes	0		P	pl n
   	kes	0		P	sg n
oli	ole	i		V	s
ilma	ilm	0		S	adt
    	ilm	0		S	sg g
    	ilma	0		D	
    	ilma	0		K	
    	ilm	0		S	sg p
loata	loata	0		A	
     	loata	0		D	
     	luba	ta		S	sg ab
     	luga	ta		S	sg ab
ja	ja	0		J	
küsimata	küsi	mata		V	mata
        	küsimata	0		A	
noort	noor	t		A	sg p
     	noor	t		S	sg p
metsa	mets	0		S	adt
     	mets	0		S	sg g
     	mets	0		S	sg p
mis	mis	0		P	pl n
   	mis	0		P	sg n
kasvama	kasva	ma		V	ma
oli	ole	i		V	s
pandud	pan=du	d		S	pl n
      	pan=dud	0		A	
      	pan=dud	0		A	sg n
      	pan=dud	d		A	pl n
      	pane	dud		V	tud
hagus	####				
maha	maha	0		D	
raiunud	raiu	nud		V	nud
       	raiu=nu	d		S	pl n
       	raiu=nud	0		A	
       	raiu=nud	0		A	sg n
       	raiu=nud	d		A	pl n
ja	ja	0		J	
seda	see	da		P	sg p
hagu	hagu	0		S	sg n
    	hagu	0		S	sg p
teistele	teine	tele		O	pl all
        	teine	tele		P	pl all
ära	ära	0		D	
   	ära	0		V	neg o
andnud	and	nud		V	nud
      	and=nu	d		S	pl n
      	and=nud	0		A	
      	and=nud	0		A	sg n
      	and=nud	d		A	pl n
,	,			Z	
ja	ja	0		J	
nõuab	nõud	b		V	b
trahvida	trahvi	da		V	da
kroonud	kroonu	d		S	pl n
takse	taks	e		S	pl p
perrä	####				
.	.			Z	
Hans	Hans	0		H	sg n
Klaas	klaas	0		S	sg n
ette	ette	0		D	
    	ette	0		K	
    	esi	tte		S	adt
kutsutu	kutsutu	0		S	sg g
       	kutsutud	0		A	sg g
       	kutsutu	0		S	sg n
ja	ja	0		J	
see	see	0		P	sg n
kaebus	kaebus	0		S	sg n
kuulutatud	kuuluta	tud		V	tud
          	kuuluta=tu	d		S	pl n
          	kuuluta=tud	0		A	
          	kuuluta=tud	0		A	sg n
          	kuuluta=tud	d		A	pl n
,	,			Z	
ütleb	ütle	b		V	b
et	et	0		J	
tema	tema	0		P	sg g
    	tema	0		P	sg n
on	ole	0		V	b
  	ole	0		V	vad
küll	küll	0		D	
    	küll	0		S	sg n
raiunud	raiu	nud		V	nud
       	raiu=nu	d		S	pl n
       	raiu=nud	0		A	
       	raiu=nud	0		A	sg n
       	raiu=nud	d		A	pl n
,	,			Z	
aga	aga	0		J	
seda	see	da		P	sg p
pidanud	pida	nud		V	nud
       	pida=nu	d		S	pl n
       	pida=nud	0		A	
       	pida=nud	0		A	sg n
       	pida=nud	d		A	pl n
tema	tema	0		P	sg g
    	tema	0		P	sg n
raioma	####				
.	.			Z	
see	see	0		P	sg n
kotus	ko=tus	0		S	sg n
ei	ei	0		D	
  	ei	0		V	neg
ole	ole	0		V	o
ka	ka	0		D	
olnud	ol=nud	0		A	
     	ol=nud	0		A	sg n
     	ol=nud	d		A	pl n
     	ole	nud		V	nud
     	olnu	d		S	pl n
metsa	mets	0		S	adt
     	mets	0		S	sg g
     	mets	0		S	sg p
ma	mina	0		P	sg n
,	,			Z	
keda	kes	da		P	pl p
    	kes	da		P	sg p
tema	tema	0		P	sg g
    	tema	0		P	sg n
pidanud	pida	nud		V	nud
       	pida=nu	d		S	pl n
       	pida=nud	0		A	
       	pida=nud	0		A	sg n
       	pida=nud	d		A	pl n
toitma	toit	ma		V	ma
,	,			Z	
ennegi	ennegi	0		D	
olnud	ol=nud	0		A	
     	ol=nud	0		A	sg n
     	ol=nud	d		A	pl n
     	ole	nud		V	nud
     	olnu	d		S	pl n
heina	hein	0		S	adt
     	hein	0		S	sg g
     	hein	0		S	sg p
ja	ja	0		J	
karja	kari	0		S	adt
     	kari	0		S	sg g
     	kari	0		S	sg p
ma	mina	0		P	sg n
.	.			Z	
vallavanem	valla_vanem	0		S	sg n
Jaan	Jaan	0		H	sg n
    	jaan	0		S	sg n
    	jaan	0		Y	?
älepson	####				
tunnistab	tunnista	b		V	b
et	et	0		J	
kui	kui	0		D	
   	kui	0		J	
Herra	####				
Klaaniga	####				
oleva	olev	0		A	sg g
     	olev	0		S	sg g
lepinud	####				
,	,			Z	
siis	siis	0		D	
    	siis	0		J	
jäänud	jää	nud		V	nud
      	jäänu	d		S	pl n
      	jäänud	0		A	
      	jäänud	0		A	sg n
      	jäänud	d		A	pl n
tolle	toll	e		S	pl p
     	too	0		P	sg g
peale	pea	le		S	sg all
     	peale	0		D	
     	peale	0		K	
,	,			Z	
et	et	0		J	
Klaas	klaas	0		S	sg n
ei	ei	0		D	
  	ei	0		V	neg
või	või	0		S	sg g
   	või	0		V	o
   	või	0		D	
   	või	0		J	
   	või	0		S	sg n
midagi	miski	dagi		P	sg p
ilma	ilm	0		S	adt
    	ilm	0		S	sg g
    	ilma	0		D	
    	ilma	0		K	
    	ilm	0		S	sg p
Herrata	####				
loata	loata	0		A	
     	loata	0		D	
     	luba	ta		S	sg ab
     	luga	ta		S	sg ab
ette	ette	0		D	
    	ette	0		K	
    	esi	tte		S	adt
võtta	võt	a		V	da
.	.			Z	
Hagu	hagu	0		S	sg n
    	hagu	0		S	sg p
mis	mis	0		P	pl n
   	mis	0		P	sg n
Klaas	klaas	0		S	sg n
on	ole	0		V	b
  	ole	0		V	vad
raiunud	raiu	nud		V	nud
       	raiu=nu	d		S	pl n
       	raiu=nud	0		A	
       	raiu=nud	0		A	sg n
       	raiu=nud	d		A	pl n
,	,			Z	
on	ole	0		V	b
  	ole	0		V	vad
524	524	0		N	?
kubu	kubu	0		S	sg g
    	kubu	0		S	sg n
    	kubu	0		S	sg p
ja	ja	0		J	
Herra	####				
käseb	####				
niikauges	####				
jääda	jää	da		V	da
     	jää	da		V	ta
kui	kui	0		D	
   	kui	0		J	
metsa	mets	0		S	adt
     	mets	0		S	sg g
     	mets	0		S	sg p
Herra	####				
on	ole	0		V	b
  	ole	0		V	vad
üle	üle	0		D	
   	üle	0		K	
takseerinud	takseeri	nud		V	nud
           	takseeri=nu	d		S	pl n
           	takseeri=nud	0		A	
           	takseeri=nud	0		A	sg n
           	takseeri=nud	d		A	pl n
.	.			Z	
otsus	otsus	0		S	sg n
:	:			Z	
kogukonna	kogukond	0		S	sg g
kohus	kohu	s		V	s
     	kohus	0		S	sg n
mõistab	mõist	b		V	b
,	,			Z	
et	et	0		J	
Hans	Hans	0		H	sg n
Klaas	klaas	0		S	sg n
kasuk	####				
keeltud	####				
ma	mina	0		P	sg n
pealt	pea	lt		S	sg abl
     	pealt	0		D	
     	pealt	0		K	
ilma	ilm	0		S	adt
    	ilm	0		S	sg g
    	ilma	0		D	
    	ilma	0		K	
    	ilm	0		S	sg p
loata	loata	0		A	
     	loata	0		D	
     	luba	ta		S	sg ab
     	luga	ta		S	sg ab
hagu	hagu	0		S	sg n
    	hagu	0		S	sg p
raiunud	raiu	nud		V	nud
       	raiu=nu	d		S	pl n
       	raiu=nud	0		A	
       	raiu=nud	0		A	sg n
       	raiu=nud	d		A	pl n
on	ole	0		V	b
  	ole	0		V	vad
,	,			Z	
peab	pida	b		V	b
tema	tema	0		P	sg g
    	tema	0		P	sg n
pool	pool	0		K	
    	pool	0		N	sg n
    	pool	0		S	sg n
kahju	kahi	0		S	adt
     	kahi	0		S	sg g
     	kahi	0		S	sg p
     	kahju	0		S	sg g
     	kahju	0		S	sg n
     	kahju	0		S	sg p
kroonud	kroonu	d		S	pl n
takse	taks	e		S	pl p
perrä	####				
kahju	kahi	0		S	adt
     	kahi	0		S	sg g
     	kahi	0		S	sg p
     	kahju	0		S	sg g
     	kahju	0		S	sg n
     	kahju	0		S	sg p
tasumist	tasumine	t		S	sg p
maksma	maks	ma		V	ma
,	,			Z	
kroonud	kroonu	d		S	pl n
kassa	kassa	0		S	sg g
     	kassa	0		S	sg n
,	,			Z	
mis	mis	0		P	pl n
   	mis	0		P	sg n
metsa	mets	0		S	adt
     	mets	0		S	sg g
     	mets	0		S	sg p
Herr	####				
saab	saa	b		V	b
takserima	####				
.	.			Z	
otsus	otsus	0		S	sg n
kuulutati	kuuluta	ti		V	ti
§	§	0		Y	?
773	773	0		N	?
ja	ja	0		J	
774	774	0		N	?
perrä	####				
T	T	0		Y	?
.	.			Z	
S	S	0		Y	?
.	.			Z	
ning	ning	0		J	
anti	and	ti		V	ti
selsamal	see_sama	l		P	sg ad
päeval	päev	l		S	sg ad
õpus	####				
kiri	kiri	0		S	sg n
välja	välja	0		D	
     	välja	0		V	o
     	väli	0		S	adt
     	väli	0		S	sg g
     	väli	0		S	sg p
.	.			Z	
peakohtumees	pea_kohtu_mees	0		S	sg n
Andres	Andre	s		H	sg in
      	Andres	0		H	sg n
Nikopensius	####				
kohtumees	kohtu_mees	0		S	sg n
Peeter	Peeter	0		H	sg n
Nemls	####				
""""	""""			Z	
Jaan	Jaan	0		H	sg n
    	jaan	0		S	sg n
    	jaan	0		Y	?
Leeb	####				
