kolmandalt	kolmas	lt		O	sg abl
,	,			Z	
tuli	tuli	0		S	sg n
    	tule	i		V	s
ette	ette	0		D	
    	ette	0		K	
    	esi	tte		S	adt
,	,			Z	
Jakob	Jakob	0		H	sg n
Uibo	Uibo	0		H	sg g
    	Uibo	0		H	sg n
,	,			Z	
ja	ja	0		J	
maksis	maks	is		V	s
      	maksi	s		S	sg in
oma	oma	0		A	sg g
   	oma	0		D	
   	oma	0		P	sg g
   	oma	0		S	sg g
   	oma	0		V	o
   	oma	0		A	sg n
   	oma	0		A	sg p
   	oma	0		P	sg n
   	oma	0		P	sg p
   	oma	0		S	sg n
   	oma	0		S	sg p
sulase	sulane	0		S	sg g
(	(			Z	
Jaani	Jaan	0		H	adt
     	Jaan	0		H	sg g
     	Jaani	0		H	sg g
     	jaan	0		S	adt
     	jaan	0		S	sg g
     	Jaan	0		H	sg p
     	Jaani	0		H	sg n
     	jaan	0		S	sg p
poja	poeg	0		S	sg g
    	poja	0		S	sg g
    	poja	0		S	sg n
    	poja	0		S	sg p
)	)			Z	
Johan	Johan	0		H	sg n
Raig	raig	0		S	sg n
est	####				
,	,			Z	
tema	tema	0		P	sg g
    	tema	0		P	sg n
palgast	palk	st		S	sg el
,	,			Z	
viis	vii	s		V	s
    	viis	0		N	sg n
    	viis	0		S	sg n
rubla	rubla	0		S	sg g
     	rubla	0		S	sg n
     	rubla	0		S	sg p
Jaan	Jaan	0		H	sg n
    	jaan	0		S	sg n
    	jaan	0		Y	?
palusoni	palu_soni	0		S	sg g
        	palu_soni	0		S	sg n
        	palu_soni	0		S	sg p
heaks	hea	ks		A	sg tr
     	hea	ks		S	sg tr
     	heaks	0		D	
     	heaks	0		K	
kohtu	kohtu	0		V	o
     	kohus	0		S	sg g
laua	laud	0		S	sg g
peale	pea	le		S	sg all
     	peale	0		D	
     	peale	0		K	
sisse	siss	e		S	pl p
     	sisse	0		D	
     	sisse	0		K	
,	,			Z	
mis	mis	0		P	pl n
   	mis	0		P	sg n
ka	ka	0		D	
siissama	####				
,	,			Z	
J	J	0		Y	?
.	.			Z	
_	_			Z	
Palu	pala	u		S	pl p
    	palu	0		S	sg g
    	palu	0		V	o
    	palu	0		S	sg n
    	palu	0		S	sg p
´	’			Z	
ison	####				
kätte	kätte	0		K	
     	käsi	tte		S	adt
ära	ära	0		D	
   	ära	0		V	neg o
antud	an=tu	d		S	pl n
     	and	tud		V	tud
     	antud	0		A	
     	antud	0		A	sg n
     	antud	d		A	pl n
sai	saa	i		V	s
   	sai	0		S	sg n
kohtu	kohtu	0		V	o
     	kohus	0		S	sg g
poolt	pool	t		N	sg p
     	pool	t		S	sg p
     	poolt	0		D	
     	poolt	0		K	
,	,			Z	
kus	kus	0		D	
J	J	0		Y	?
.	.			Z	
_	_			Z	
Palloson	####				
,	,			Z	
poisil	poiss	l		S	sg ad
veel	veel	0		D	
    	vesi	l		S	sg ad
1.	1.	0		O	?
rubla	rubla	0		S	sg g
     	rubla	0		S	sg n
     	rubla	0		S	sg p
tagasi	tagasi	0		D	
      	tagasi	0		K	
kinkis	kinki	s		V	s
.	.			Z	
(	(			Z	
allkiri	all_kiri	0		S	sg n
)	)			Z	
