kolmandalt	kolmas	lt		O	sg abl
pärisherra	####				
kirja	kirja	0		A	
     	kirja	0		V	o
     	kiri	0		S	adt
     	kiri	0		S	sg g
     	kiri	0		S	sg p
peale	pea	le		S	sg all
     	peale	0		D	
     	peale	0		K	
sest	see	st		P	sg el
    	sest	0		J	
22dast	####				
augustist	august	st		S	sg el
s	s	0		Y	?
.	.			Z	
a	a	0		Y	?
saivad	####				
peakohtumehe	pea_kohtu_mees	0		S	sg g
J	J	0		Y	?
tulus	tulu	s		S	sg in
     	tulus	0		A	sg n
,	,			Z	
kohtumees	kohtu_mees	0		S	sg n
Jaan	Jaan	0		H	sg n
    	jaan	0		S	sg n
    	jaan	0		Y	?
Lepason	####				
ning	ning	0		J	
metsavaht	metsa_vaht	0		S	sg n
Hendrik	Hendrik	0		H	sg n
hantud	####				
üle	üle	0		D	
   	üle	0		K	
kaemise	kae=mine	0		S	sg g
all	all	0		D	
   	all	0		K	
Pikka	pikk	0		A	adt
     	pikk	0		A	sg p
     	pikk	0		S	adt
     	pikk	0		S	sg p
     	pikka	0		D	
Jaan	Jaan	0		H	sg n
    	jaan	0		S	sg n
    	jaan	0		Y	?
Mark	Mark	0		H	sg n
    	mark	0		S	sg n
usaja	####				
puu	puu	0		S	sg g
   	puu	0		S	sg n
üle	üle	0		D	
   	üle	0		K	
kaetud	kae	tud		V	tud
      	kae=tu	d		S	pl n
      	kaetud	0		A	
      	kaetud	0		A	sg n
      	kaetud	d		A	pl n
      	kat	tud		V	tud
,	,			Z	
ning	ning	0		J	
leiti	leid	ti		V	ti
raskid	####				
puid	puu	id		S	pl p
üks	üks	0		N	sg n
   	üks	0		P	sg n
sülla	süld	0		S	sg g
ära	ära	0		D	
   	ära	0		V	neg o
lõigatud	lõika	tud		V	tud
        	lõiga=tu	d		S	pl n
        	lõiga=tud	0		A	
        	lõiga=tud	0		A	sg n
        	lõiga=tud	d		A	pl n
,	,			Z	
ja	ja	0		J	
pool	pool	0		K	
    	pool	0		N	sg n
    	pool	0		S	sg n
sülda	süld	0		S	adt
     	süld	0		S	sg p
ehk	ehk	0		D	
   	ehk	0		J	
oli	ole	i		V	s
neid	neid	0		S	sg n
    	see	d		P	pl p
    	tema	d		P	pl p
saanud	saa	nud		V	nud
      	saa=nud	0		A	
      	saa=nud	0		A	sg n
      	saa=nud	d		A	pl n
      	saanu	d		S	pl n
mis	mis	0		P	pl n
   	mis	0		P	sg n
ohatega	####				
seegi	see	0	gi	P	sg n
     	seek	0		S	sg g
oli	ole	i		V	s
,	,			Z	
ent	ent	0		J	
kolm	kolm	0		N	sg n
sülda	süld	0		S	adt
     	süld	0		S	sg p
oli	ole	i		V	s
vanud	vanu	d		V	d
puid	puu	id		S	pl p
mis	mis	0		P	pl n
   	mis	0		P	sg n
ka	ka	0		D	
Palu	pala	u		S	pl p
    	palu	0		S	sg g
    	palu	0		V	o
    	palu	0		S	sg n
    	palu	0		S	sg p
metsa	mets	0		S	adt
     	mets	0		S	sg g
     	mets	0		S	sg p
puu	puu	0		S	sg g
   	puu	0		S	sg n
olid	ole	id		V	sid
,	,			Z	
ent	ent	0		J	
vanast	vana	st		A	sg el
      	vana	st		S	sg el
saadu	saad	0		S	adt
     	saadu	0		S	sg g
     	saadud	0		A	sg g
     	saad	0		S	sg p
     	saadu	0		S	sg n
.	.			Z	
_	_			Z	
sai	saa	i		V	s
   	sai	0		S	sg n
siis	siis	0		D	
    	siis	0		J	
Jaan	Jaan	0		H	sg n
    	jaan	0		S	sg n
    	jaan	0		Y	?
Mark	Mark	0		H	sg n
    	mark	0		S	sg n
käest	käest	0		K	
     	käsi	st		S	sg el
küsitud	küsi	tud		V	tud
       	küsi=tu	d		S	pl n
       	küsi=tud	0		A	
       	küsi=tud	0		A	sg n
       	küsi=tud	d		A	pl n
,	,			Z	
kust	kusi	t		S	sg p
    	kust	0		D	
ja	ja	0		J	
kuida	####				
viisi	viis	0		S	adt
     	viis	0		S	sg g
     	viis	i		N	pl p
     	viisi	0		K	
     	viis	0		S	sg p
tema	tema	0		P	sg g
    	tema	0		P	sg n
need	see	d		P	pl n
puu	puu	0		S	sg g
   	puu	0		S	sg n
on	ole	0		V	b
  	ole	0		V	vad
saanud	saa	nud		V	nud
      	saa=nud	0		A	
      	saa=nud	0		A	sg n
      	saa=nud	d		A	pl n
      	saanu	d		S	pl n
,	,			Z	
kes	kes	0		P	pl n
   	kes	0		P	sg n
välja	välja	0		D	
     	välja	0		V	o
     	väli	0		S	adt
     	väli	0		S	sg g
     	väli	0		S	sg p
ütles	ütle	s		V	s
,	,			Z	
metsavahi	metsa_vaht	0		S	sg g
Jaan	Jaan	0		H	sg n
    	jaan	0		S	sg n
    	jaan	0		Y	?
Uibo	Uibo	0		H	sg g
    	Uibo	0		H	sg n
käest	käest	0		K	
     	käsi	st		S	sg el
ole	ole	0		V	o
mina	mina	0		P	sg n
    	mina	0		S	sg g
    	mina	0		S	sg n
    	mina	0		S	sg p
ostnud	ost	nud		V	nud
      	ost=nu	d		S	pl n
      	ost=nud	0		A	
      	ost=nud	0		A	sg n
      	ost=nud	d		A	pl n
,	,			Z	
sest	see	st		P	sg el
    	sest	0		J	
et	et	0		J	
härra	härra	0		S	sg g
     	härra	0		S	sg n
poolt	pool	t		N	sg p
     	pool	t		S	sg p
     	poolt	0		D	
     	poolt	0		K	
olnud	ol=nud	0		A	
     	ol=nud	0		A	sg n
     	ol=nud	d		A	pl n
     	ole	nud		V	nud
     	olnu	d		S	pl n
see	see	0		P	sg n
luba	luba	0		S	sg n
    	luba	0		V	o
    	luba	0		S	sg p
temale	tema	le		P	sg all
antud	an=tu	d		S	pl n
     	and	tud		V	tud
     	antud	0		A	
     	antud	0		A	sg n
     	antud	d		A	pl n
,	,			Z	
ent	ent	0		J	
pärisherra	####				
käest	käest	0		K	
     	käsi	st		S	sg el
ehk	ehk	0		D	
   	ehk	0		J	
loaga	luba	ga		S	sg kom
     	luga	ga		S	sg kom
ei	ei	0		D	
  	ei	0		V	neg
ole	ole	0		V	o
mina	mina	0		P	sg n
    	mina	0		S	sg g
    	mina	0		S	sg n
    	mina	0		S	sg p
mitte	mitte	0		D	
uute	uus	te		A	pl g
sülda	süld	0		S	adt
     	süld	0		S	sg p
ostnud	ost	nud		V	nud
      	ost=nu	d		S	pl n
      	ost=nud	0		A	
      	ost=nud	0		A	sg n
      	ost=nud	d		A	pl n
,	,			Z	
ning	ning	0		J	
tänavu	tänavu	0		D	
just	just	0		D	
    	just	0		I	
seda	see	da		P	sg p
viisi	viis	0		S	adt
     	viis	0		S	sg g
     	viis	i		N	pl p
     	viisi	0		K	
     	viis	0		S	sg p
,	,			Z	
kui	kui	0		D	
   	kui	0		J	
nimelt	nimelt	0		D	
      	nimi	lt		S	sg abl
see	see	0		P	sg n
Allammaste	all_amm_aste	0		S	sg n
Palu	pala	u		S	pl p
    	palu	0		S	sg g
    	palu	0		V	o
    	palu	0		S	sg n
    	palu	0		S	sg p
Kolga	####				
eest	eest	0		D	
    	eest	0		K	
    	esi	st		S	sg el
ole	ole	0		V	o
mina	mina	0		P	sg n
    	mina	0		S	sg g
    	mina	0		S	sg n
    	mina	0		S	sg p
metsavahadel	metsa_vaha	del		S	pl ad
maksnud	maks	nud		V	nud
       	maks=nu	d		S	pl n
       	maks=nud	0		A	
       	maks=nud	0		A	sg n
       	maks=nud	d		A	pl n
4	4	0		N	?
üles	üles	0		D	
raha	raha	0		S	sg g
    	raha	0		S	sg n
    	raha	0		S	sg p
see	see	0		P	sg n
on	ole	0		V	b
  	ole	0		V	vad
5	5	0		N	?
rubla	rubla	0		S	sg g
     	rubla	0		S	sg n
     	rubla	0		S	sg p
ja	ja	0		J	
teine	teine	0		O	sg n
     	teine	0		P	sg n
4	4	0		N	?
rubla	rubla	0		S	sg g
     	rubla	0		S	sg n
     	rubla	0		S	sg p
temal	tema	l		P	sg ad
joogi	joo	0	gi	V	o
     	jook	0		S	sg g
     	joogi	0		S	sg g
     	joogi	0		S	sg n
tarvis	tarvis	0		D	
      	tarvis	0		K	
,	,			Z	
ning	ning	0		J	
oli	ole	i		V	s
see	see	0		P	sg n
Palu	pala	u		S	pl p
    	palu	0		S	sg g
    	palu	0		V	o
    	palu	0		S	sg n
    	palu	0		S	sg p
kulk	####				
kõik	kõik	0		P	pl n
    	kõik	0		S	sg n
    	kõik	0		P	sg n
minu	mina	0		P	sg g
päralt	pära	lt		S	sg abl
      	päralt	0		K	
,	,			Z	
sai	saa	i		V	s
   	sai	0		S	sg n
siis	siis	0		D	
    	siis	0		J	
mina	mina	0		P	sg n
    	mina	0		S	sg g
    	mina	0		S	sg n
    	mina	0		S	sg p
nii	nii	0		D	
palju	palju	0		D	
     	palju	0		P	sg g
     	palju	0		P	sg n
puid	puu	id		S	pl p
ehk	ehk	0		D	
   	ehk	0		J	
hagu	hagu	0		S	sg n
    	hagu	0		S	sg p
kui	kui	0		D	
   	kui	0		J	
maa	maa	0		S	sg g
   	maa	0		S	sg n
sai	saa	i		V	s
   	sai	0		S	sg n
sellega	see	ga		P	sg kom
,	,			Z	
sellega	see	ga		P	sg kom
pidin	pida	in		V	sin
mina	mina	0		P	sg n
    	mina	0		S	sg g
    	mina	0		S	sg n
    	mina	0		S	sg p
rahho	####				
olema	ole	ma		V	ma
,	,			Z	
ning	ning	0		J	
ole	ole	0		V	o
puu	puu	0		S	sg g
   	puu	0		S	sg n
ja	ja	0		J	
hagu	hagu	0		S	sg n
    	hagu	0		S	sg p
sinna	sinna	0		D	
kokku	kokku	0		D	
     	kogu	0		S	adt
pannud	pan=nu	d		S	pl n
      	pan=nud	0		A	
      	pan=nud	0		A	sg n
      	pan=nud	d		A	pl n
      	pane	nud		V	nud
nii	nii	0		D	
kui	kui	0		D	
   	kui	0		J	
üle	üle	0		D	
   	üle	0		K	
kaetud	kae	tud		V	tud
      	kae=tu	d		S	pl n
      	kaetud	0		A	
      	kaetud	0		A	sg n
      	kaetud	d		A	pl n
      	kat	tud		V	tud
ja	ja	0		J	
tuleu	####				
on	ole	0		V	b
  	ole	0		V	vad
,	,			Z	
ent	ent	0		J	
nüüd	nüüd	0		D	
oma	oma	0		A	sg g
   	oma	0		D	
   	oma	0		P	sg g
   	oma	0		S	sg g
   	oma	0		V	o
   	oma	0		A	sg n
   	oma	0		A	sg p
   	oma	0		P	sg n
   	oma	0		P	sg p
   	oma	0		S	sg n
   	oma	0		S	sg p
need	see	d		P	pl n
_jämme	####				
padam	####				
minu	mina	0		P	sg g
hagude	hagu	de		S	pl g
seest	seest	0		D	
     	seest	0		K	
kõik	kõik	0		P	pl n
    	kõik	0		S	sg n
    	kõik	0		P	sg n
välja	välja	0		D	
     	välja	0		V	o
     	väli	0		S	adt
     	väli	0		S	sg g
     	väli	0		S	sg p
korjato	####				
ning	ning	0		J	
minul	mina	l		P	sg ad
palja	paljas	0		A	sg g
rootsiku	rootsik	0		S	sg g
perra	####				
jäänud	jää	nud		V	nud
      	jäänu	d		S	pl n
      	jäänud	0		A	
      	jäänud	0		A	sg n
      	jäänud	d		A	pl n
ent	ent	0		J	
kes	kes	0		P	pl n
   	kes	0		P	sg n
neid	neid	0		S	sg n
    	see	d		P	pl p
    	tema	d		P	pl p
on	ole	0		V	b
  	ole	0		V	vad
välja	välja	0		D	
     	välja	0		V	o
     	väli	0		S	adt
     	väli	0		S	sg g
     	väli	0		S	sg p
korjanud	korja	nud		V	nud
        	korja=nu	d		S	pl n
        	korja=nud	0		A	
        	korja=nud	0		A	sg n
        	korja=nud	d		A	pl n
ja	ja	0		J	
viinu	viin	u		S	pl p
seda	see	da		P	sg p
ei	ei	0		D	
  	ei	0		V	neg
tea	tead	0		V	o
mina	mina	0		P	sg n
    	mina	0		S	sg g
    	mina	0		S	sg n
    	mina	0		S	sg p
mitte	mitte	0		D	
ütelda	ütle	da		V	da
      	ütle	da		V	ta
,	,			Z	
ent	ent	0		J	
ära	ära	0		D	
   	ära	0		V	neg o
kaunu	kaun	u		S	pl p
nad	tema	d		P	pl n
on	ole	0		V	b
  	ole	0		V	vad
.	.			Z	
_	_			Z	
seda	see	da		P	sg p
asja	asi	0		S	adt
    	asi	0		S	sg g
    	asi	0		S	sg p
annab	and	b		V	b
see	see	0		P	sg n
sinane	####				
kogukonna	kogukond	0		S	sg g
kohus	kohu	s		V	s
     	kohus	0		S	sg n
pärisherra	####				
otsõse	####				
käskmise	####				
alla	alla	0		D	
    	alla	0		K	
allandlikult	all_and=lik	lt		A	sg abl
            	all_and=likult	0		D	
.	.			Z	
(	(			Z	
Alla	alla	0		D	
    	alla	0		K	
    	Alla	0		H	sg g
    	Alla	0		H	sg n
kiri	kiri	0		S	sg n
nagu	nagu	0		D	
    	nagu	0		J	
üleval	ülev	l		A	sg ad
      	üleval	0		D	
)	)			Z	
