Mõistis	mõist	is		V	s
kohus	kohu	s		V	s
     	kohus	0		S	sg n
et	et	0		J	
Thomas	Thomas	0		H	sg n
Kärtmann	####				
piab	####				
selle	see	0		P	sg g
     	sell	e		S	pl p
est	####				
et	et	0		J	
tema	tema	0		P	sg g
    	tema	0		P	sg n
Karl	Karl	0		H	sg n
Leplandi	####				
pühapäev	püha_päev	0		S	sg n
pekssinud	####				
on	ole	0		V	b
  	ole	0		V	vad
3	3	0		N	?
rbl	rbl	0		Y	?
.	.			Z	
trahvi	trahv	0		S	adt
      	trahv	0		S	sg g
      	trahvi	0		V	o
      	trahv	0		S	sg p
2	2	0		N	?
nädala	nädal	0		S	sg g
aja	aeg	0		S	sg g
   	aja	0		V	o
sees	sees	0		D	
    	sees	0		K	
vaeste	vaene	te		A	pl g
      	vaene	te		S	pl g
laadikusse	laadik	sse		S	sg ill
maksma	maks	ma		V	ma
kohtumehe	kohtu_mees	0		S	sg g
Jooosep	####				
Oinberg	####				
tunnistuse	tunnistus	0		S	sg g
peale	pea	le		S	sg all
     	peale	0		D	
     	peale	0		K	
.	.			Z	
peakohtumees	pea_kohtu_mees	0		S	sg n
:	:			Z	
Kusta	Kusta	0		H	sg g
     	Kusta	0		H	sg n
     	kuse	ta		V	da
     	kuse	ta		V	ta
Rämman	####				
kohtumees	kohtu_mees	0		S	sg n
:	:			Z	
Kristjan	Kristjan	0		H	sg n
Kübar	kübar	0		S	sg n
kohtumees	kohtu_mees	0		S	sg n
:	:			Z	
Jooosep	####				
Sults	####				
kirjutaja	kirjutaja	0		S	sg g
         	kirjutaja	0		S	sg n
F	F	0		Y	?
Freimann	####				
