Leena	Lee	na		H	sg es
     	Leena	0		H	sg g
     	Leena	0		H	sg n
möksi	möks	0		S	adt
     	möks	0		S	sg g
     	möks	0		S	sg p
m	m	0		Y	?
.	.			Z	
s	s	0		Y	?
.	.			Z	
D	D	0		O	?
 	D	0		Y	?
.	.			Z	
_	_			Z	
möksi	möks	0		S	adt
     	möks	0		S	sg g
     	möks	0		S	sg p
Luteri	luteri	0		G	
usku	usk	0		S	adt
    	usk	0		S	sg p
kaebas	kaeba	s		V	s
,	,			Z	
siin	siin	0		D	
    	siin	0		S	sg n
kohtu	kohtu	0		V	o
     	kohus	0		S	sg g
ees	ees	0		D	
   	ees	0		K	
   	esi	s		S	sg in
,	,			Z	
et	et	0		J	
Hans	Hans	0		H	sg n
käi	käi	0		S	sg n
   	käi	0		V	o
lõi	loo	i		V	s
   	löö	i		V	s
mind	mina	d		P	sg p
pangiga	pang_iga	0		S	sg n
       	pang_iga	0		S	sg p
ja	ja	0		J	
visas	visa	s		A	sg in
veega	vesi	ga		S	sg kom
,	,			Z	
kelle	kes	0		P	pl g
     	kes	0		P	sg g
eest	eest	0		D	
    	eest	0		K	
    	esi	st		S	sg el
mina	mina	0		P	sg n
    	mina	0		S	sg g
    	mina	0		S	sg n
    	mina	0		S	sg p
10	10	0		N	?
rubla	rubla	0		S	sg g
     	rubla	0		S	sg n
     	rubla	0		S	sg p
valu	valu	0		S	sg g
    	valu	0		V	o
    	valu	0		S	sg n
    	valu	0		S	sg p
raha	raha	0		S	sg g
    	raha	0		S	sg n
    	raha	0		S	sg p
nõuan	nõud	n		V	n
.	.			Z	
sellepäärast	####				
palus	palu	s		S	sg in
     	palu	s		V	s
mina	mina	0		P	sg n
    	mina	0		S	sg g
    	mina	0		S	sg n
    	mina	0		S	sg p
kogukonna	kogukond	0		S	sg g
kohut	kohus	t		S	sg p
,	,			Z	
Hans	Hans	0		H	sg n
käi	käi	0		S	sg n
   	käi	0		V	o
sundi	sund	0		S	adt
     	sund	0		S	sg p
,	,			Z	
seda	see	da		P	sg p
minu	mina	0		P	sg g
heaks	hea	ks		A	sg tr
     	hea	ks		S	sg tr
     	heaks	0		D	
     	heaks	0		K	
äära	####				
maksa	maks	0		S	adt
     	maks	0		S	sg g
     	maks	0		V	o
     	maks	0		S	sg p
lasta	lask	ta		V	da
     	lask	ta		V	ta
.	.			Z	
tunnistaja	tunnistaja	0		S	sg g
          	tunnistaja	0		S	sg n
on	ole	0		V	b
  	ole	0		V	vad
Maarj	####				
Rammul	ramm	l		S	sg ad
sõrestest	####				
.	.			Z	
2.	2.	0		O	?
Hans	Hans	0		H	sg n
käi	käi	0		S	sg n
   	käi	0		V	o
vastutas	vastuta	s		V	s
selle	see	0		P	sg g
     	sell	e		S	pl p
kaebduse	####				
peale	pea	le		S	sg all
     	peale	0		D	
     	peale	0		K	
,	,			Z	
et	et	0		J	
mina	mina	0		P	sg n
    	mina	0		S	sg g
    	mina	0		S	sg n
    	mina	0		S	sg p
ei	ei	0		D	
  	ei	0		V	neg
ole	ole	0		V	o
mitte	mitte	0		D	
löönud	löö	nud		V	nud
      	löö=nu	d		S	pl n
      	löö=nud	0		A	
      	löö=nud	0		A	sg n
      	löö=nud	d		A	pl n
Leena	Lee	na		H	sg es
     	Leena	0		H	sg g
     	Leena	0		H	sg n
möksi	möks	0		S	adt
     	möks	0		S	sg g
     	möks	0		S	sg p
.	.			Z	
Maarj	####				
Rammul	ramm	l		S	sg ad
tunnistas	tunnista	s		V	s
,	,			Z	
et	et	0		J	
Hans	Hans	0		H	sg n
käi	käi	0		S	sg n
   	käi	0		V	o
lõi	loo	i		V	s
   	löö	i		V	s
kül	####				
pangiga	pang_iga	0		S	sg n
       	pang_iga	0		S	sg p
ja	ja	0		J	
visas	visa	s		A	sg in
veega	vesi	ga		S	sg kom
Leena	Lee	na		H	sg es
     	Leena	0		H	sg g
     	Leena	0		H	sg n
möksi	möks	0		S	adt
     	möks	0		S	sg g
     	möks	0		S	sg p
.	.			Z	
""""	""""			Z	
kog	####				
.	.			Z	
kohtu	kohtu	0		V	o
     	kohus	0		S	sg g
mõistmine	mõistmine	0		S	sg n
""""	""""			Z	
:	:			Z	
Hans	Hans	0		H	sg n
käi	käi	0		S	sg n
   	käi	0		V	o
peab	pida	b		V	b
1	1	0		N	?
x	x	0		Y	?
24	24	0		N	?
tundi	tund	0		S	adt
     	tund	0		S	sg p
kohtu	kohtu	0		V	o
     	kohus	0		S	sg g
turmin	####				
istma	####				
,	,			Z	
sellepäärast	####				
,	,			Z	
et	et	0		J	
tema	tema	0		P	sg g
    	tema	0		P	sg n
Leena	Lee	na		H	sg es
     	Leena	0		H	sg g
     	Leena	0		H	sg n
möksi	möks	0		S	adt
     	möks	0		S	sg g
     	möks	0		S	sg p
löönud	löö	nud		V	nud
      	löö=nu	d		S	pl n
      	löö=nud	0		A	
      	löö=nud	0		A	sg n
      	löö=nud	d		A	pl n
tunnistuse	tunnistus	0		S	sg g
järel	järel	0		D	
     	järel	0		K	
.	.			Z	
Mõistmine	mõistmine	0		S	sg n
kuulutaadi	kuulu_taat	0		S	sg g
seaduse	seadus	0		S	sg g
järel	järel	0		D	
     	järel	0		K	
;	;			Z	
siis	siis	0		D	
    	siis	0		J	
olid	ole	id		V	sid
mõlemat	mõlema	t		P	sg p
sellega	see	ga		P	sg kom
rahul	rahu	l		S	sg ad
     	rahul	0		D	
.	.			Z	
Hans	Hans	0		H	sg n
käi	käi	0		S	sg n
   	käi	0		V	o
on	ole	0		V	b
  	ole	0		V	vad
kinni	kinni	0		D	
äära	####				
olnud	ol=nud	0		A	
     	ol=nud	0		A	sg n
     	ol=nud	d		A	pl n
     	ole	nud		V	nud
     	olnu	d		S	pl n
Septembri	september	0		S	sg g
kuul	kuu	l		S	sg ad
    	kuul	0		S	sg n
.	.			Z	
