kui	kui	0		D	
   	kui	0		J	
see	see	0		P	sg n
27	27	0		N	?
Septembri	september	0		S	sg g
prottokol	####				
Jaan	Jaan	0		H	sg n
    	jaan	0		S	sg n
    	jaan	0		Y	?
Sengovi	####				
kaebus	kaebus	0		S	sg n
Võõpsust	####				
Uibo	Uibo	0		H	sg g
    	Uibo	0		H	sg n
lahkumise	lahkumine	0		S	sg g
ja	ja	0		J	
Ubina	ubin	0		S	sg g
varguse	vargus	0		S	sg g
pärast	pära	st		S	sg el
      	pärane	t		A	sg p
      	pärast	0		D	
      	pärast	0		K	
ette	ette	0		D	
    	ette	0		K	
    	esi	tte		S	adt
ära	ära	0		D	
   	ära	0		V	neg o
oli	ole	i		V	s
loetud	loetu	d		S	pl n
      	loetud	0		A	
      	loetud	0		A	sg n
      	loetud	d		A	pl n
      	luge	tud		V	tud
ütles	ütle	s		V	s
Frits	frits	0		S	sg n
Rakütud	####				
et	et	0		J	
tema	tema	0		P	sg g
    	tema	0		P	sg n
peljuga	pelg	ga		S	sg kom
on	ole	0		V	b
  	ole	0		V	vad
ütelnud	ütle	nud		V	nud
       	ütel=nu	d		S	pl n
       	ütel=nud	0		A	
       	ütel=nud	0		A	sg n
       	ütel=nud	d		A	pl n
et	et	0		J	
tema	tema	0		P	sg g
    	tema	0		P	sg n
ajan	aja	n		V	n
on	ole	0		V	b
  	ole	0		V	vad
käinud	käi	nud		V	nud
      	käi=nud	0		A	
      	käi=nud	0		A	sg n
      	käi=nud	d		A	pl n
      	käinu	d		S	pl n
.	.			Z	
teine	teine	0		O	sg n
     	teine	0		P	sg n
pois	poi	s		S	sg in
on	ole	0		V	b
  	ole	0		V	vad
teda	tema	da		P	sg p
upaanud	####				
kust	kusi	t		S	sg p
    	kust	0		D	
aida	ait	0		S	sg g
saab	saa	b		V	b
.	.			Z	
kohus	kohu	s		V	s
     	kohus	0		S	sg n
mõistis	mõist	is		V	s
,	,			Z	
e	e	0		Y	?
Fritst	####				
Rakütud	####				
Jaani	Jaan	0		H	adt
     	Jaan	0		H	sg g
     	Jaani	0		H	sg g
     	jaan	0		S	adt
     	jaan	0		S	sg g
     	Jaan	0		H	sg p
     	Jaani	0		H	sg n
     	jaan	0		S	sg p
poeg	poeg	0		S	sg n
peab	pida	b		V	b
2	2	0		N	?
rubla	rubla	0		S	sg g
     	rubla	0		S	sg n
     	rubla	0		S	sg p
kahju	kahi	0		S	adt
     	kahi	0		S	sg g
     	kahi	0		S	sg p
     	kahju	0		S	sg g
     	kahju	0		S	sg n
     	kahju	0		S	sg p
tasumist	tasumine	t		S	sg p
maksma	maks	ma		V	ma
ja	ja	0		J	
Varguse	vargus	0		S	sg g
eest	eest	0		D	
    	eest	0		K	
    	esi	st		S	sg el
24	24	0		N	?
tundi	tund	0		S	adt
     	tund	0		S	sg p
mänter	####				
olema	ole	ma		V	ma
.	.			Z	
Vastastiku	vastas_tikk	0		S	sg g
on	ole	0		V	b
  	ole	0		V	vad
ära	ära	0		D	
   	ära	0		V	neg o
lepitud	leppi	tud		V	tud
       	lepi=tu	d		S	pl n
       	lepi=tud	0		A	
       	lepi=tud	0		A	sg n
       	lepi=tud	d		A	pl n
.	.			Z	
