Kaebas	kaeba	s		V	s
Daniel	Daniel	0		H	sg n
Glasmann	####				
et	et	0		J	
Karl	Karl	0		H	sg n
Otsing	otsing	0		S	sg n
on	ole	0		V	b
  	ole	0		V	vad
tema	tema	0		P	sg g
    	tema	0		P	sg n
rukki	rukis	0		S	adt
     	rukis	0		S	sg g
ära	ära	0		D	
   	ära	0		V	neg o
söötnud	sööt	nud		V	nud
       	sööt=nu	d		S	pl n
       	sööt=nud	0		A	
       	sööt=nud	0		A	sg n
       	sööt=nud	d		A	pl n
Mari	Mari	0		H	sg g
    	mari	0		S	sg g
    	mari	0		S	sg n
    	Mari	0		H	sg n
    	mari	0		S	sg p
Samuel	Samuel	0		H	sg n
on	ole	0		V	b
  	ole	0		V	vad
näinud	näi	nud		V	nud
      	näge	nud		V	nud
      	näi=nud	0		A	
      	näi=nud	0		A	sg n
      	näi=nud	d		A	pl n
      	näinu	d		S	pl n
et	et	0		J	
kõik	kõik	0		P	pl n
    	kõik	0		S	sg n
    	kõik	0		P	sg n
Karri	karr	0		S	adt
     	karr	0		S	sg g
     	karr	0		S	sg p
     	karri	0		S	sg g
     	karri	0		S	sg n
on	ole	0		V	b
  	ole	0		V	vad
sees	sees	0		D	
    	sees	0		K	
olnud	ol=nud	0		A	
     	ol=nud	0		A	sg n
     	ol=nud	d		A	pl n
     	ole	nud		V	nud
     	olnu	d		S	pl n
ja	ja	0		J	
tema	tema	0		P	sg g
    	tema	0		P	sg n
ise	ise	0		A	
   	ise	0		D	
   	ise	0		P	pl n
   	ise	0		P	sg n
et	et	0		J	
5	5	0		N	?
põrsast	põrsas	st		S	sg el
       	põrsas	t		S	sg p
on	ole	0		V	b
  	ole	0		V	vad
sees	sees	0		D	
    	sees	0		K	
olnud	ol=nud	0		A	
     	ol=nud	0		A	sg n
     	ol=nud	d		A	pl n
     	ole	nud		V	nud
     	olnu	d		S	pl n
.	.			Z	
