Kusmise	####				
paele	paas	le		S	sg all
tulis	####				
Peep	Peep	0		H	sg n
Simmulmann	####				
kohtu	kohtu	0		V	o
     	kohus	0		S	sg g
ette	ette	0		D	
    	ette	0		K	
    	esi	tte		S	adt
ja	ja	0		J	
sai	saa	i		V	s
   	sai	0		S	sg n
temal	tema	l		P	sg ad
mõisavalitsuse	mõisa_valitsus	0		S	sg g
Sehvti	sehvt	0		S	adt
      	sehvt	0		S	sg g
      	sehvti	0		V	o
      	sehvt	0		S	sg p
läbi	läbi	0		D	
    	läbi	0		K	
    	läbi	0		V	o
ülesütledut	####				
,	,			Z	
et	et	0		J	
ta	tema	0		P	sg g
  	tema	0		P	sg n
peab	pida	b		V	b
oma	oma	0		A	sg g
   	oma	0		D	
   	oma	0		P	sg g
   	oma	0		S	sg g
   	oma	0		V	o
   	oma	0		A	sg n
   	oma	0		A	sg p
   	oma	0		P	sg n
   	oma	0		P	sg p
   	oma	0		S	sg n
   	oma	0		S	sg p
jao	jagu	0		S	sg g
talu	talu	0		S	sg g
    	talu	0		V	o
    	talu	0		S	sg n
    	talu	0		S	sg p
maa	maa	0		S	sg g
   	maa	0		S	sg n
,	,			Z	
tuleva	tulev	0		A	sg g
jüripäevan	####				
mis	mis	0		P	pl n
   	mis	0		P	sg n
ajal	aeg	l		S	sg ad
    	ajal	0		K	
tema	tema	0		P	sg g
    	tema	0		P	sg n
kontrahtide	kontraht	de		S	pl g
aeg	aeg	0		S	sg n
erralepib	####				
selle	see	0		P	sg g
     	sell	e		S	pl p
Kristjan	Kristjan	0		H	sg n
Peedokele	####				
korra	kord	0		S	sg g
pärast	pära	st		S	sg el
      	pärane	t		A	sg p
      	pärast	0		D	
      	pärast	0		K	
kätte	kätte	0		K	
     	käsi	tte		S	adt
anda	and	a		V	da
.	.			Z	
Peep	Peep	0		H	sg n
Simmulmann	####				
palus	palu	s		S	sg in
     	palu	s		V	s
oma	oma	0		A	sg g
   	oma	0		D	
   	oma	0		P	sg g
   	oma	0		S	sg g
   	oma	0		V	o
   	oma	0		A	sg n
   	oma	0		A	sg p
   	oma	0		P	sg n
   	oma	0		P	sg p
   	oma	0		S	sg n
   	oma	0		S	sg p
karjalauda	karja_laut	0		S	sg g
ehitamise	ehitamine	0		S	sg g
ja	ja	0		J	
palki	palk	0		S	adt
     	palk	0		S	sg p
vedamise	vedamine	0		S	sg g
est	####				
146	146	0		N	?
rbl	rbl	0		Y	?
vaid	vaid	0		D	
    	vaid	0		J	
raha	raha	0		S	sg g
    	raha	0		S	sg n
    	raha	0		S	sg p
,	,			Z	
niisama	nii_sama	0		D	
ka	ka	0		D	
20	20	0		N	?
palki	palk	0		S	adt
     	palk	0		S	sg p
est	####				
mis	mis	0		P	pl n
   	mis	0		P	sg n
ta	tema	0		P	sg g
  	tema	0		P	sg n
sauna	saun	0		S	adt
     	saun	0		S	sg g
     	saun	0		S	sg p
ehitamise	ehitamine	0		S	sg g
tarvis	tarvis	0		D	
      	tarvis	0		K	
on	ole	0		V	b
  	ole	0		V	vad
metsast	mets	st		S	sg el
       	metsane	t		A	sg p
välja	välja	0		D	
     	välja	0		V	o
     	väli	0		S	adt
     	väli	0		S	sg g
     	väli	0		S	sg p
toonud	too	nud		V	nud
      	too=nu	d		S	pl n
      	too=nud	0		A	
      	too=nud	0		A	sg n
      	too=nud	d		A	pl n
ja	ja	0		J	
korma	####				
roovi	roov	0		S	adt
     	roov	0		S	sg g
     	roovi	0		V	o
     	roov	0		S	sg p
ja	ja	0		J	
kambri	kamber	0		S	sg g
lage	lage	0		A	sg n
    	lagi	0		S	sg p
paele	paas	le		S	sg all
2	2	0		N	?
palki	palk	0		S	adt
     	palk	0		S	sg p
.	.			Z	
