rama	####				
kõrtsi	kõrts	0		S	adt
      	kõrts	0		S	sg g
      	kõrts	0		S	sg p
mees	mees	0		S	sg n
    	mesi	s		S	sg in
kaebab	kaeba	b		V	b
et	et	0		J	
Linte	lint	e		S	pl p
kirjuta	kirju	ta		A	sg ab
       	kirjuta	0		V	o
Juhan	Juhan	0		H	sg n
on	ole	0		V	b
  	ole	0		V	vad
vähem	vähem	0		C	sg n
     	vähem	0		D	
rukki	rukis	0		S	adt
     	rukis	0		S	sg g
maha	maha	0		D	
tehtu	tehtu	0		S	sg g
     	tehtud	0		A	sg g
     	tehtu	0		S	sg n
kui	kui	0		D	
   	kui	0		J	
tal	tema	l		P	sg ad
õigus	õigus	0		S	sg n
ole	ole	0		V	o
.	.			Z	
kirjuta	kirju	ta		A	sg ab
       	kirjuta	0		V	o
Juhan	Juhan	0		H	sg n
vastut	####				
kui	kui	0		D	
   	kui	0		J	
kogukonna	kogukond	0		S	sg g
kohus	kohu	s		V	s
     	kohus	0		S	sg n
üle	üle	0		D	
   	üle	0		K	
ka	ka	0		D	
ja	ja	0		J	
mõistab	mõist	b		V	b
kep	####				
ta	tema	0		P	sg g
  	tema	0		P	sg n
rahho	####				
.	.			Z	
