sel	see	l		P	sg ad
   	sel	0		Y	?
samal	sama	l		P	sg ad
päeval	päev	l		S	sg ad
.	.			Z	
tuli	tuli	0		S	sg n
    	tule	i		V	s
ette	ette	0		D	
    	ette	0		K	
    	esi	tte		S	adt
Johann	Johann	0		H	sg n
Ratnik	####				
ja	ja	0		J	
kaebas	kaeba	s		V	s
,	,			Z	
et	et	0		J	
sel	see	l		P	sg ad
   	sel	0		Y	?
14	14	0		N	?
juunil	juuni	l		S	sg ad
tuli	tuli	0		S	sg n
    	tule	i		V	s
minul	mina	l		P	sg ad
üks	üks	0		N	sg n
   	üks	0		P	sg n
mehitse	####				
süllem	####				
välja	välja	0		D	
     	välja	0		V	o
     	väli	0		S	adt
     	väli	0		S	sg g
     	väli	0		S	sg p
,	,			Z	
ilma	ilm	0		S	adt
    	ilm	0		S	sg g
    	ilma	0		D	
    	ilma	0		K	
    	ilm	0		S	sg p
et	et	0		J	
mina	mina	0		P	sg n
    	mina	0		S	sg g
    	mina	0		S	sg n
    	mina	0		S	sg p
teda	tema	da		P	sg p
näinud	näi	nud		V	nud
      	näge	nud		V	nud
      	näi=nud	0		A	
      	näi=nud	0		A	sg n
      	näi=nud	d		A	pl n
      	näinu	d		S	pl n
olnes	####				
,	,			Z	
ent	ent	0		J	
üks	üks	0		N	sg n
   	üks	0		P	sg n
nädal	nädal	0		S	sg n
päevade	päev	de		S	pl g
ootasin	oota	sin		V	sin
mina	mina	0		P	sg n
    	mina	0		S	sg g
    	mina	0		S	sg n
    	mina	0		S	sg p
teda	tema	da		P	sg p
,	,			Z	
küll	küll	0		D	
    	küll	0		S	sg n
,	,			Z	
ent	ent	0		J	
siiski	siiski	0		D	
ütles	ütle	s		V	s
hommikul	hommik	l		S	sg ad
ilma	ilm	0		S	adt
    	ilm	0		S	sg g
    	ilma	0		D	
    	ilma	0		K	
    	ilm	0		S	sg p
nägemata	näge	mata		V	mata
        	nägemata	0		A	
arvata	arva	ta		V	da
      	arva	ta		V	ta
      	arvata	0		D	
200	200	0		N	?
sammu	samm	0		S	adt
     	samm	0		S	sg g
     	sammu	0		V	o
     	samm	0		S	sg p
,	,			Z	
oma	oma	0		A	sg g
   	oma	0		D	
   	oma	0		P	sg g
   	oma	0		S	sg g
   	oma	0		V	o
   	oma	0		A	sg n
   	oma	0		A	sg p
   	oma	0		P	sg n
   	oma	0		P	sg p
   	oma	0		S	sg n
   	oma	0		S	sg p
piiri	piir	0		S	adt
     	piir	0		S	sg g
     	piir	0		S	sg p
mehe	mees	0		S	sg g
Jaan	Jaan	0		H	sg n
    	jaan	0		S	sg n
    	jaan	0		Y	?
Lepäsoni	####				
kuuse	kuune	0		A	sg g
     	kuusk	0		S	sg g
otsa	ots	0		S	adt
    	ots	0		S	sg g
    	otsa	0		D	
    	otsa	0		K	
    	otsa	0		V	o
    	ots	0		S	sg p
külge	külg	0		S	adt
     	külg	0		S	sg p
     	külge	0		D	
     	külge	0		K	
ennast	ise	t		P	sg p
maha	maha	0		D	
lasknud	lask	nud		V	nud
       	lask=nu	d		S	pl n
       	lask=nud	0		A	
       	lask=nud	0		A	sg n
       	lask=nud	d		A	pl n
oli	ole	i		V	s
.	.			Z	
see	see	0		P	sg n
sama	sama	0		P	sg g
    	sama	0		P	sg n
    	sama	0		P	sg p
hommiku	hommik	0		S	sg g
kell	kell	0		S	sg n
8	8	0		N	?
ehk	ehk	0		D	
   	ehk	0		J	
veidi	veidi	0		D	
rohkem	rohkem	0		D	
nägin	näge	in		V	sin
mina	mina	0		P	sg n
    	mina	0		S	sg g
    	mina	0		S	sg n
    	mina	0		S	sg p
et	et	0		J	
Jaan	Jaan	0		H	sg n
    	jaan	0		S	sg n
    	jaan	0		Y	?
Lepäson	####				
holgasini	####				
kuuse	kuune	0		A	sg g
     	kuusk	0		S	sg g
man	man	0		D	
   	man	0		K	
olid	ole	id		V	sid
,	,			Z	
läksin	mine	sin		V	sin
mina	mina	0		P	sg n
    	mina	0		S	sg g
    	mina	0		S	sg n
    	mina	0		S	sg p
oma	oma	0		A	sg g
   	oma	0		D	
   	oma	0		P	sg g
   	oma	0		S	sg g
   	oma	0		V	o
   	oma	0		A	sg n
   	oma	0		A	sg p
   	oma	0		P	sg n
   	oma	0		P	sg p
   	oma	0		S	sg n
   	oma	0		S	sg p
mehitse	####				
tarro	####				
kaema	kae	ma		V	ma
,	,			Z	
ning	ning	0		J	
leisim	####				
,	,			Z	
et	et	0		J	
minu	mina	0		P	sg g
mehine	mehine	0		A	sg n
oli	ole	i		V	s
äära	####				
läinud	läinu	d		S	pl n
      	läinud	0		A	
      	läinud	0		A	sg n
      	läinud	d		A	pl n
      	mine	nud		V	nud
,	,			Z	
jala	jalg	0		S	sg g
    	jala	0		D	
pealt	pea	lt		S	sg abl
     	pealt	0		D	
     	pealt	0		K	
läksin	mine	sin		V	sin
kaema	kae	ma		V	ma
,	,			Z	
ning	ning	0		J	
Jaan	Jaan	0		H	sg n
    	jaan	0		S	sg n
    	jaan	0		Y	?
Lepäson	####				
pandis	pant	s		S	sg in
,	,			Z	
mitme	mitu	0		P	sg g
teisega	teine	ga		O	sg kom
       	teine	ga		P	sg kom
mehest	mees	st		S	sg el
vakka	vakk	0		S	adt
     	vakk	0		S	sg p
     	vakka	0		D	
ning	ning	0		J	
mina	mina	0		P	sg n
    	mina	0		S	sg g
    	mina	0		S	sg n
    	mina	0		S	sg p
ütlen	ütle	n		V	n
,	,			Z	
see	see	0		P	sg n
on	ole	0		V	b
  	ole	0		V	vad
minu	mina	0		P	sg g
mehine	mehine	0		A	sg n
tule	tuli	0		S	sg g
    	tule	0		V	o
või	või	0		S	sg g
   	või	0		V	o
   	või	0		D	
   	või	0		J	
   	või	0		S	sg n
asi	asi	0		S	sg n
   	asi	0		V	o
kaema	kae	ma		V	ma
,	,			Z	
et	et	0		J	
minu	mina	0		P	sg g
puust	puu	st		S	sg el
     	puune	t		A	sg p
on	ole	0		V	b
  	ole	0		V	vad
süllem	####				
välja	välja	0		D	
     	välja	0		V	o
     	väli	0		S	adt
     	väli	0		S	sg g
     	väli	0		S	sg p
tulnud	tul=nud	0		A	
      	tul=nud	0		A	sg n
      	tul=nud	d		A	pl n
      	tule	nud		V	nud
      	tulnu	d		S	pl n
,	,			Z	
küsis	küsi	s		V	s
oma	oma	0		A	sg g
   	oma	0		D	
   	oma	0		P	sg g
   	oma	0		S	sg g
   	oma	0		V	o
   	oma	0		A	sg n
   	oma	0		A	sg p
   	oma	0		P	sg n
   	oma	0		P	sg p
   	oma	0		S	sg n
   	oma	0		S	sg p
mehest	mees	st		S	sg el
kätte	kätte	0		K	
     	käsi	tte		S	adt
,	,			Z	
sein	sein	0		S	sg n
vastuses	vastus	s		S	sg in
et	et	0		J	
mis	mis	0		P	pl n
   	mis	0		P	sg n
eile	eile	0		D	
kaema	kae	ma		V	ma
ei	ei	0		D	
  	ei	0		V	neg
kutsuda	kutsu	da		V	da
.	.			Z	
andis	and	is		V	s
tunnistajaks	tunnistaja	ks		S	sg tr
Jaan	Jaan	0		H	sg n
    	jaan	0		S	sg n
    	jaan	0		Y	?
Uibo	Uibo	0		H	sg g
    	Uibo	0		H	sg n
kes	kes	0		P	pl n
   	kes	0		P	sg n
vana	vana	0		A	sg g
    	vana	0		A	sg n
    	vana	0		A	sg p
    	vana	0		S	sg g
    	vana	0		S	sg n
    	vana	0		S	sg p
mehitse	####				
pedaja	pedajas	0		S	sg g
,	,			Z	
kes	kes	0		P	pl n
   	kes	0		P	sg n
ka	ka	0		D	
kohtu	kohtu	0		V	o
     	kohus	0		S	sg g
küsimise	küsimine	0		S	sg g
peale	pea	le		S	sg all
     	peale	0		D	
     	peale	0		K	
välja	välja	0		D	
     	välja	0		V	o
     	väli	0		S	adt
     	väli	0		S	sg g
     	väli	0		S	sg p
ütles	ütle	s		V	s
,	,			Z	
et	et	0		J	
minu	mina	0		P	sg g
tundmise	tundmine	0		S	sg g
perrä	####				
oli	ole	i		V	s
sealt	sealt	0		D	
     	siga	lt		A	sg abl
     	siga	lt		S	sg abl
Ratnik	####				
tarust	taru	st		S	sg el
mehitse	####				
süllem	####				
välja	välja	0		D	
     	välja	0		V	o
     	väli	0		S	adt
     	väli	0		S	sg g
     	väli	0		S	sg p
läinud	läinu	d		S	pl n
      	läinud	0		A	
      	läinud	0		A	sg n
      	läinud	d		A	pl n
      	mine	nud		V	nud
,	,			Z	
kas	kas	0		D	
tema	tema	0		P	sg g
    	tema	0		P	sg n
just	just	0		D	
    	just	0		I	
see	see	0		P	sg n
oli	ole	i		V	s
,	,			Z	
ei	ei	0		D	
  	ei	0		V	neg
tea	tead	0		V	o
mina	mina	0		P	sg n
    	mina	0		S	sg g
    	mina	0		S	sg n
    	mina	0		S	sg p
,	,			Z	
ennegi	ennegi	0		D	
nii	nii	0		D	
palju	palju	0		D	
     	palju	0		P	sg g
     	palju	0		P	sg n
on	ole	0		V	b
  	ole	0		V	vad
arvata	arva	ta		V	da
      	arva	ta		V	ta
      	arvata	0		D	
et	et	0		J	
ükski	üks	0	ki	N	sg n
     	üks	0	ki	P	sg n
     	ükski	0		D	
kaugelt	kauge	lt		A	sg abl
       	kaugelt	0		D	
tulnud	tul=nud	0		A	
      	tul=nud	0		A	sg n
      	tul=nud	d		A	pl n
      	tule	nud		V	nud
      	tulnu	d		S	pl n
mehine	mehine	0		A	sg n
,	,			Z	
nii	nii	0		D	
vara	vara	0		D	
    	vara	0		S	sg g
    	vara	0		S	sg n
    	vara	0		S	sg p
sina	sina	0		P	sg n
    	sina	0		S	sg g
    	sina	0		V	o
    	sina	0		S	sg n
    	sina	0		S	sg p
ei	ei	0		D	
  	ei	0		V	neg
või	või	0		S	sg g
   	või	0		V	o
   	või	0		D	
   	või	0		J	
   	või	0		S	sg n
saada	saa	da		V	da
     	saat	0		V	o
     	saa	da		V	ta
,	,			Z	
ööd	öö	d		S	pl n
   	öö	d		S	sg p
seal	seal	0		D	
    	siga	l		A	sg ad
    	siga	l		S	sg ad
otsa	ots	0		S	adt
    	ots	0		S	sg g
    	otsa	0		D	
    	otsa	0		K	
    	otsa	0		V	o
    	ots	0		S	sg p
küljes	külg	s		S	sg in
      	küljes	0		D	
      	küljes	0		K	
ei	ei	0		D	
  	ei	0		V	neg
ole	ole	0		V	o
är	####				
olnud	ol=nud	0		A	
     	ol=nud	0		A	sg n
     	ol=nud	d		A	pl n
     	ole	nud		V	nud
     	olnu	d		S	pl n
,	,			Z	
selle	see	0		P	sg g
     	sell	e		S	pl p
et	et	0		J	
mina	mina	0		P	sg n
    	mina	0		S	sg g
    	mina	0		S	sg n
    	mina	0		S	sg p
kuuse	kuune	0		A	sg g
     	kuusk	0		S	sg g
otsa	ots	0		S	adt
    	ots	0		S	sg g
    	otsa	0		D	
    	otsa	0		K	
    	otsa	0		V	o
    	ots	0		S	sg p
asi	asi	0		S	sg n
   	asi	0		V	o
käesin	####				
,	,			Z	
ja	ja	0		J	
oops	####				
puhas	puhas	0		A	sg n
kõigest	kõik	st		P	sg el
       	kõigest	0		D	
vaht	vaht	0		S	sg n
ehk	ehk	0		D	
   	ehk	0		J	
muu	muu	0		P	sg g
   	muu	0		S	sg g
   	muu	0		V	o
   	muu	0		P	sg n
   	muu	0		S	sg n
kramist	####				
.	.			Z	
Jääb	jää	b		V	b
pooleli	pooleli	0		D	
selle	see	0		P	sg g
     	sell	e		S	pl p
et	et	0		J	
Jaan	Jaan	0		H	sg n
    	jaan	0		S	sg n
    	jaan	0		Y	?
Lepason	####				
ei	ei	0		D	
  	ei	0		V	neg
ole	ole	0		V	o
tulnud	tul=nud	0		A	
      	tul=nud	0		A	sg n
      	tul=nud	d		A	pl n
      	tule	nud		V	nud
      	tulnu	d		S	pl n
.	.			Z	
