Johan	Johan	0		H	sg n
vallner	####				
and	and	0		S	sg n
üles	üles	0		D	
,	,			Z	
et	et	0		J	
tema	tema	0		P	sg g
    	tema	0		P	sg n
Siga	siga	0		A	sg n
    	siga	0		A	sg p
    	siga	0		S	sg n
    	siga	0		S	sg p
Hiere	####				
Jakobi	Jakob	0		H	sg g
aita	ait	0		S	adt
    	aita	0		V	o
    	ait	0		S	sg p
ees	ees	0		D	
   	ees	0		K	
   	esi	s		S	sg in
ära	ära	0		D	
   	ära	0		V	neg o
tapetud	tap	tud		V	tud
       	tapetu	d		S	pl n
       	tapetud	0		A	
       	tapetud	0		A	sg n
       	tapetud	d		A	pl n
on	ole	0		V	b
  	ole	0		V	vad
ning	ning	0		J	
arvab	arva	b		V	b
et	et	0		J	
Jakob	Jakob	0		H	sg n
tema	tema	0		P	sg g
    	tema	0		P	sg n
jätab	jät	b		V	b
on	ole	0		V	b
  	ole	0		V	vad
.	.			Z	
