eiser	####				
mees	mees	0		S	sg n
    	mesi	s		S	sg in
Juhan	Juhan	0		H	sg n
Hõim	hõim	0		S	sg n
tuli	tuli	0		S	sg n
    	tule	i		V	s
ette	ette	0		D	
    	ette	0		K	
    	esi	tte		S	adt
ja	ja	0		J	
kaebas	kaeba	s		V	s
:	:			Z	
tema	tema	0		P	sg g
    	tema	0		P	sg n
poeg	poeg	0		S	sg n
Peetri	Peeter	0		H	sg g
      	Peetri	0		H	sg g
      	Peetri	0		H	sg n
on	ole	0		V	b
  	ole	0		V	vad
tulnud	tul=nud	0		A	
      	tul=nud	0		A	sg n
      	tul=nud	d		A	pl n
      	tule	nud		V	nud
      	tulnu	d		S	pl n
ja	ja	0		J	
võtnud	võt	nud		V	nud
      	võt=nu	d		S	pl n
      	võt=nud	0		A	
      	võt=nud	0		A	sg n
      	võt=nud	d		A	pl n
tema	tema	0		P	sg g
    	tema	0		P	sg n
hobuse	hobune	0		S	sg g
tema	tema	0		P	sg g
    	tema	0		P	sg n
käest	käest	0		K	
     	käsi	st		S	sg el
ära	ära	0		D	
   	ära	0		V	neg o
.	.			Z	
ja	ja	0		J	
löönud	löö	nud		V	nud
      	löö=nu	d		S	pl n
      	löö=nud	0		A	
      	löö=nud	0		A	sg n
      	löö=nud	d		A	pl n
veel	veel	0		D	
    	vesi	l		S	sg ad
oma	oma	0		A	sg g
   	oma	0		D	
   	oma	0		P	sg g
   	oma	0		S	sg g
   	oma	0		V	o
   	oma	0		A	sg n
   	oma	0		A	sg p
   	oma	0		P	sg n
   	oma	0		P	sg p
   	oma	0		S	sg n
   	oma	0		S	sg p
isa	isa	0		S	sg g
   	isa	0		S	sg n
   	isa	0		S	sg p
pealegi	pealegi	0		D	
.	.			Z	
Jaan	Jaan	0		H	sg n
    	jaan	0		S	sg n
    	jaan	0		Y	?
Raig	raig	0		S	sg n
tuli	tuli	0		S	sg n
    	tule	i		V	s
tunnistajaks	tunnistaja	ks		S	sg tr
ette	ette	0		D	
    	ette	0		K	
    	esi	tte		S	adt
ja	ja	0		J	
ütles	ütle	s		V	s
et	et	0		J	
Peetri	Peeter	0		H	sg g
      	Peetri	0		H	sg g
      	Peetri	0		H	sg n
ei	ei	0		D	
  	ei	0		V	neg
ole	ole	0		V	o
mitte	mitte	0		D	
isa	isa	0		S	sg g
   	isa	0		S	sg n
   	isa	0		S	sg p
löönud	löö	nud		V	nud
      	löö=nu	d		S	pl n
      	löö=nud	0		A	
      	löö=nud	0		A	sg n
      	löö=nud	d		A	pl n
,	,			Z	
ennegi	ennegi	0		D	
on	ole	0		V	b
  	ole	0		V	vad
hobust	hobu	st		S	sg el
      	hobune	t		S	sg p
küll	küll	0		D	
    	küll	0		S	sg n
ära	ära	0		D	
   	ära	0		V	neg o
isa	isa	0		S	sg g
   	isa	0		S	sg n
   	isa	0		S	sg p
käest	käest	0		K	
     	käsi	st		S	sg el
võtnud	võt	nud		V	nud
      	võt=nu	d		S	pl n
      	võt=nud	0		A	
      	võt=nud	0		A	sg n
      	võt=nud	d		A	pl n
.	.			Z	
et	et	0		J	
nüüd	nüüd	0		D	
küll	küll	0		D	
    	küll	0		S	sg n
aualigus	####				
sai	saa	i		V	s
   	sai	0		S	sg n
et	et	0		J	
Peetril	Peeter	l		H	sg ad
       	Peetri	l		H	sg ad
rohkem	rohkem	0		D	
isa	isa	0		S	sg g
   	isa	0		S	sg n
   	isa	0		S	sg p
käest	käest	0		K	
     	käsi	st		S	sg el
õigusega	õigus	ga		S	sg kom
saada	saa	da		V	da
     	saat	0		V	o
     	saa	da		V	ta
oli	ole	i		V	s
kui	kui	0		D	
   	kui	0		J	
30	30	0		N	?
rubla	rubla	0		S	sg g
     	rubla	0		S	sg n
     	rubla	0		S	sg p
;	;			Z	
ent	ent	0		J	
selle	see	0		P	sg g
     	sell	e		S	pl p
pärast	pära	st		S	sg el
      	pärane	t		A	sg p
      	pärast	0		D	
      	pärast	0		K	
,	,			Z	
et	et	0		J	
tema	tema	0		P	sg g
    	tema	0		P	sg n
oma	oma	0		A	sg g
   	oma	0		D	
   	oma	0		P	sg g
   	oma	0		S	sg g
   	oma	0		V	o
   	oma	0		A	sg n
   	oma	0		A	sg p
   	oma	0		P	sg n
   	oma	0		P	sg p
   	oma	0		S	sg n
   	oma	0		S	sg p
käega	käsi	ga		S	sg kom
ja	ja	0		J	
oma	oma	0		A	sg g
   	oma	0		D	
   	oma	0		P	sg g
   	oma	0		S	sg g
   	oma	0		V	o
   	oma	0		A	sg n
   	oma	0		A	sg p
   	oma	0		P	sg n
   	oma	0		P	sg p
   	oma	0		S	sg n
   	oma	0		S	sg p
loaga	luba	ga		S	sg kom
     	luga	ga		S	sg kom
ise	ise	0		A	
   	ise	0		D	
   	ise	0		P	pl n
   	ise	0		P	sg n
endale	ise	le		P	sg all
õigust	õigus	t		S	sg p
on	ole	0		V	b
  	ole	0		V	vad
mõistnud	mõist	nud		V	nud
        	mõist=nu	d		S	pl n
        	mõist=nud	0		A	
        	mõist=nud	0		A	sg n
        	mõist=nud	d		A	pl n
sele	####				
pärast	pära	st		S	sg el
      	pärane	t		A	sg p
      	pärast	0		D	
      	pärast	0		K	
mõist	####				
kogukonna	kogukond	0		S	sg g
kohus	kohu	s		V	s
     	kohus	0		S	sg n
:	:			Z	
et	et	0		J	
Peetri	Peeter	0		H	sg g
      	Peetri	0		H	sg g
      	Peetri	0		H	sg n
peab	pida	b		V	b
tullega	####				
rahho	####				
olema	ole	ma		V	ma
mis	mis	0		P	pl n
   	mis	0		P	sg n
ta	tema	0		P	sg g
  	tema	0		P	sg n
on	ole	0		V	b
  	ole	0		V	vad
ise	ise	0		A	
   	ise	0		D	
   	ise	0		P	pl n
   	ise	0		P	sg n
võtnud	võt	nud		V	nud
      	võt=nu	d		S	pl n
      	võt=nud	0		A	
      	võt=nud	0		A	sg n
      	võt=nud	d		A	pl n
,	,			Z	
püha	püha	0		A	sg g
    	püha	0		A	sg n
    	püha	0		A	sg p
    	püha	0		S	sg g
    	püha	0		S	sg n
    	püha	0		S	sg p
päeva	päev	0		S	adt
     	päev	0		S	sg g
     	päev	0		S	sg p
tüli	tüli	0		S	sg g
    	tüli	0		S	sg n
    	tüli	0		S	sg p
eest	eest	0		D	
    	eest	0		K	
    	esi	st		S	sg el
Kiriku	kirik	0		S	sg g
sandilaadi	sandi_laad	0		S	adt
          	sandi_laad	0		S	sg g
          	sandi_laad	0		S	sg p
3	3	0		N	?
rub	####				
.	.			Z	
