sel	see	l		P	sg ad
   	sel	0		Y	?
samal	sama	l		P	sg ad
peal	pea	l		S	sg ad
    	peal	0		D	
    	peal	0		K	
Karl	Karl	0		H	sg n
Raba	raba	0		S	sg g
    	raba	0		V	o
    	raba	0		S	sg n
    	raba	0		S	sg p
pooleli	pooleli	0		D	
jäänud	jää	nud		V	nud
      	jäänu	d		S	pl n
      	jäänud	0		A	
      	jäänud	0		A	sg n
      	jäänud	d		A	pl n
kaebus	kaebus	0		S	sg n
asjas	asi	s		S	sg in
sest	see	st		P	sg el
    	sest	0		J	
12	12	0		N	?
Tetsember	####				
Nr	Nr	0		Y	?
112	112	0		N	?
tulid	tule	id		V	sid
Karl	Karl	0		H	sg n
Raba	raba	0		S	sg g
    	raba	0		V	o
    	raba	0		S	sg n
    	raba	0		S	sg p
ja	ja	0		J	
David	David	0		H	sg n
Mandel	mandel	0		S	sg n
kohtu	kohtu	0		V	o
     	kohus	0		S	sg g
ette	ette	0		D	
    	ette	0		K	
    	esi	tte		S	adt
ning	ning	0		J	
andsid	and	sid		V	sid
üles	üles	0		D	
et	et	0		J	
nemad	tema	d		P	pl n
mõlema	mõlema	0		P	sg g
omad	oma	d		A	pl n
    	oma	d		P	pl n
    	oma	d		S	pl n
    	oma	d		V	d
oma	oma	0		A	sg g
   	oma	0		D	
   	oma	0		P	sg g
   	oma	0		S	sg g
   	oma	0		V	o
   	oma	0		A	sg n
   	oma	0		A	sg p
   	oma	0		P	sg n
   	oma	0		P	sg p
   	oma	0		S	sg n
   	oma	0		S	sg p
vahel	vahe	l		S	sg ad
     	vahel	0		D	
     	vahel	0		K	
lepitust	lepitus	t		S	sg p
teinud	tege	nud		V	nud
      	tei=nud	0		A	
      	tei=nud	0		A	sg n
      	tei=nud	d		A	pl n
      	teinu	d		S	pl n
.	.			Z	
allkirjad	all_kiri	d		S	pl n
kirjutaja	kirjutaja	0		S	sg g
         	kirjutaja	0		S	sg n
A	A	0		Y	?
.	.			Z	
_	_			Z	
lerma	####				
