mõisa	mõis	0		S	sg g
poolest	pool	st		N	sg el
       	pool	st		S	sg el
       	poolene	t		A	sg p
       	poolest	0		K	
sai	saa	i		V	s
   	sai	0		S	sg n
neile	see	le		P	pl all
     	tema	le		P	pl all
üles	üles	0		D	
üteltud	####				
kelle	kes	0		P	pl g
     	kes	0		P	sg g
maja	maja	0		S	sg g
    	maja	0		S	sg n
    	maja	0		S	sg p
härra	härra	0		S	sg g
     	härra	0		S	sg n
on	ole	0		V	b
  	ole	0		V	vad
ära	ära	0		D	
   	ära	0		V	neg o
münud	####				
,	,			Z	
et	et	0		J	
kui	kui	0		D	
   	kui	0		J	
nad	tema	d		P	pl n
ise	ise	0		A	
   	ise	0		D	
   	ise	0		P	pl n
   	ise	0		P	sg n
esimise	####				
oktoobreni	####				
ei	ei	0		D	
  	ei	0		V	neg
ole	ole	0		V	o
seda	see	da		P	sg p
raha	raha	0		S	sg g
    	raha	0		S	sg n
    	raha	0		S	sg p
mis	mis	0		P	pl n
   	mis	0		P	sg n
võra	võra	0		S	sg g
    	võra	0		V	o
    	võra	0		S	sg n
    	võra	0		S	sg p
ostja	ostja	0		S	sg g
     	ostja	0		S	sg n
oma	oma	0		A	sg g
   	oma	0		D	
   	oma	0		P	sg g
   	oma	0		S	sg g
   	oma	0		V	o
   	oma	0		A	sg n
   	oma	0		A	sg p
   	oma	0		P	sg n
   	oma	0		P	sg p
   	oma	0		S	sg n
   	oma	0		S	sg p
sisse	siss	e		S	pl p
     	sisse	0		D	
     	sisse	0		K	
maksnud	maks	nud		V	nud
       	maks=nu	d		S	pl n
       	maks=nud	0		A	
       	maks=nud	0		A	sg n
       	maks=nud	d		A	pl n
ära	ära	0		D	
   	ära	0		V	neg o
maksnud	maks	nud		V	nud
       	maks=nu	d		S	pl n
       	maks=nud	0		A	
       	maks=nud	0		A	sg n
       	maks=nud	d		A	pl n
,	,			Z	
on	ole	0		V	b
  	ole	0		V	vad
nende	see	de		P	pl g
     	tema	de		P	pl g
eesõigus	ees_õigus	0		S	sg n
kadunud	kadu	nud		V	nud
       	kadunu	d		S	pl n
       	kadunud	0		A	
       	kadunud	0		A	sg n
       	kadunud	d		A	pl n
,	,			Z	
ja	ja	0		J	
valla	vald	0		S	sg g
     	valla	0		D	
majast	maja	st		S	sg el
välja	välja	0		D	
     	välja	0		V	o
     	väli	0		S	adt
     	väli	0		S	sg g
     	väli	0		S	sg p
,	,			Z	
nimelt	nimelt	0		D	
      	nimi	lt		S	sg abl
on	ole	0		V	b
  	ole	0		V	vad
üles	üles	0		D	
üteltud	####				
seda	see	da		P	sg p
viisi	viis	0		S	adt
     	viis	0		S	sg g
     	viis	i		N	pl p
     	viisi	0		K	
     	viis	0		S	sg p
vallale	vald	le		S	sg all
ja	ja	0		J	
kolmeistrel	####				
koli	koli	0		S	sg g
    	koli	0		V	o
    	koli	0		S	sg n
    	koli	0		S	sg p
ma	mina	0		P	sg n
pärast	pära	st		S	sg el
      	pärane	t		A	sg p
      	pärast	0		D	
      	pärast	0		K	
.	.			Z	
Mikko	####				
Juhan	Juhan	0		H	sg n
Rajale	Raja	le		H	sg all
      	rada	le		S	sg all
      	raja	le		S	sg all
Hilba	####				
Juhan	Juhan	0		H	sg n
Varukule	####				
Hilba	####				
möldrile	mölder	le		S	sg all
Helbi	helpi	0		V	o
Mihkli	Mihkel	0		H	sg g
      	Mihkli	0		H	sg g
      	mihkel	0		A	sg g
      	mihkel	0		S	sg g
      	Mihkli	0		H	sg n
Kärnärile	kärn_äri	le		S	sg all
