Räpina	Räpina	0		H	sg g
      	räpp	na		S	sg es
      	Räpina	0		H	sg n
mõisa	mõis	0		S	sg g
valitsuse	valitsus	0		S	sg g
poolest	pool	st		N	sg el
       	pool	st		S	sg el
       	poolene	t		A	sg p
       	poolest	0		K	
kaebati	####				
et	et	0		J	
lganud	####				
külas	küla	s		S	sg in
lganud	####				
küla	küla	0		S	sg g
    	küla	0		S	sg n
    	küla	0		S	sg p
äre	####				
Oras	ora	s		S	sg in
    	oras	0		S	sg n
on	ole	0		V	b
  	ole	0		V	vad
ära	ära	0		D	
   	ära	0		V	neg o
sööttud	####				
ja	ja	0		J	
sõtkutud	sõtku	tud		V	tud
        	sõtku=tu	d		S	pl n
        	sõtku=tud	0		A	
        	sõtku=tud	0		A	sg n
        	sõtku=tud	d		A	pl n
,	,			Z	
ja	ja	0		J	
lganud	####				
küla	küla	0		S	sg g
    	küla	0		S	sg n
    	küla	0		S	sg p
rahvast	rahvas	st		S	sg el
       	rahvas	t		S	sg p
seda	see	da		P	sg p
ära	ära	0		D	
   	ära	0		V	neg o
sööttud	####				
ja	ja	0		J	
sõtku	sõtku	0		V	o
äre	####				
orasid	ora	sid		S	pl p
on	ole	0		V	b
  	ole	0		V	vad
Viido	####				
Punnisson	####				
vöölmünder	####				
üle	üle	0		D	
   	üle	0		K	
kaenud	kae	nud		V	nud
      	kae=nu	d		S	pl n
      	kae=nud	0		A	
      	kae=nud	0		A	sg n
      	kae=nud	d		A	pl n
,	,			Z	
ja	ja	0		J	
palletas	####				
mõisa	mõis	0		S	sg g
valitsuse	valitsus	0		S	sg g
poolest	pool	st		N	sg el
       	pool	st		S	sg el
       	poolene	t		A	sg p
       	poolest	0		K	
kahju	kahi	0		S	adt
     	kahi	0		S	sg g
     	kahi	0		S	sg p
     	kahju	0		S	sg g
     	kahju	0		S	sg n
     	kahju	0		S	sg p
tasumist	tasumine	t		S	sg p
mõista	mõist	0		V	o
      	mõist	a		V	da
.	.			Z	
voolmündri	####				
Viido	####				
Punnksu	####				
üle	üle	0		D	
   	üle	0		K	
kaemise	kae=mine	0		S	sg g
perrä	####				
.	.			Z	
küsitud	küsi	tud		V	tud
       	küsi=tu	d		S	pl n
       	küsi=tud	0		A	
       	küsi=tud	0		A	sg n
       	küsi=tud	d		A	pl n
sai	saa	i		V	s
   	sai	0		S	sg n
lganud	####				
küla	küla	0		S	sg g
    	küla	0		S	sg n
    	küla	0		S	sg p
peremeeste	pere_mees	te		S	pl g
käest	käest	0		K	
     	käsi	st		S	sg el
.	.			Z	
Kristjan	Kristjan	0		H	sg n
Võsoberg	####				
ütles	ütle	s		V	s
et	et	0		J	
tema	tema	0		P	sg g
    	tema	0		P	sg n
elajad	elajas	d		S	pl n
ei	ei	0		D	
  	ei	0		V	neg
ole	ole	0		V	o
röa	####				
peal	pea	l		S	sg ad
    	peal	0		D	
    	peal	0		K	
käinud	käi	nud		V	nud
      	käi=nud	0		A	
      	käi=nud	0		A	sg n
      	käi=nud	d		A	pl n
      	käinu	d		S	pl n
.	.			Z	
Frits	frits	0		S	sg n
Suupsman	####				
ütles	ütle	s		V	s
et	et	0		J	
mina	mina	0		P	sg n
    	mina	0		S	sg g
    	mina	0		S	sg n
    	mina	0		S	sg p
ei	ei	0		D	
  	ei	0		V	neg
tea	tead	0		V	o
omast	oma	st		A	sg el
     	oma	st		P	sg el
     	oma	st		S	sg el
     	omane	t		A	sg p
majast	maja	st		S	sg el
kedagi	keegi	dagi		P	sg p
käinud	käi	nud		V	nud
      	käi=nud	0		A	
      	käi=nud	0		A	sg n
      	käi=nud	d		A	pl n
      	käinu	d		S	pl n
röa	####				
peal	pea	l		S	sg ad
    	peal	0		D	
    	peal	0		K	
.	.			Z	
Joosep	Joosep	0		H	sg n
Pusmann	####				
ütles	ütle	s		V	s
,	,			Z	
et	et	0		J	
mida	mis	da		P	pl p
    	mis	da		P	sg p
elajat	elajas	t		S	sg p
ei	ei	0		D	
  	ei	0		V	neg
putu	####				
senna	senna	0		S	sg g
     	senna	0		S	sg n
ja	ja	0		J	
ei	ei	0		D	
  	ei	0		V	neg
ole	ole	0		V	o
ka	ka	0		D	
käinud	käi	nud		V	nud
      	käi=nud	0		A	
      	käi=nud	0		A	sg n
      	käi=nud	d		A	pl n
      	käinu	d		S	pl n
seal	seal	0		D	
    	siga	l		A	sg ad
    	siga	l		S	sg ad
.	.			Z	
Karl	Karl	0		H	sg n
Kangro	Kangro	0		H	sg g
      	Kangro	0		H	sg n
ütles	ütle	s		V	s
,	,			Z	
et	et	0		J	
temal	tema	l		P	sg ad
ei	ei	0		D	
  	ei	0		V	neg
ole	ole	0		V	o
käinud	käi	nud		V	nud
      	käi=nud	0		A	
      	käi=nud	0		A	sg n
      	käi=nud	d		A	pl n
      	käinu	d		S	pl n
,	,			Z	
ja	ja	0		J	
et	et	0		J	
tema	tema	0		P	sg g
    	tema	0		P	sg n
on	ole	0		V	b
  	ole	0		V	vad
kõige	kõik	0		P	sg g
     	kõige	0		D	
tagan	taga	n		V	n
.	.			Z	
Juhan	Juhan	0		H	sg n
Võsoberg	####				
ütles	ütle	s		V	s
et	et	0		J	
temal	tema	l		P	sg ad
on	ole	0		V	b
  	ole	0		V	vad
seal	seal	0		D	
    	siga	l		A	sg ad
    	siga	l		S	sg ad
selle	see	0		P	sg g
     	sell	e		S	pl p
peal	pea	l		S	sg ad
    	peal	0		D	
    	peal	0		K	
karjuse	karjus	0		S	sg g
olnud	ol=nud	0		A	
     	ol=nud	0		A	sg n
     	ol=nud	d		A	pl n
     	ole	nud		V	nud
     	olnu	d		S	pl n
et	et	0		J	
elajad	elajas	d		S	pl n
peab	pida	b		V	b
hoidma	hoid	ma		V	ma
aga	aga	0		J	
mitte	mitte	0		D	
ei	ei	0		D	
  	ei	0		V	neg
ole	ole	0		V	o
minu	mina	0		P	sg g
silm	silm	0		S	sg n
näinud	näi	nud		V	nud
      	näge	nud		V	nud
      	näi=nud	0		A	
      	näi=nud	0		A	sg n
      	näi=nud	d		A	pl n
      	näinu	d		S	pl n
seal	seal	0		D	
    	siga	l		A	sg ad
    	siga	l		S	sg ad
röa	####				
peal	pea	l		S	sg ad
    	peal	0		D	
    	peal	0		K	
minu	mina	0		P	sg g
elajad	elajas	d		S	pl n
kahju	kahi	0		S	adt
     	kahi	0		S	sg g
     	kahi	0		S	sg p
     	kahju	0		S	sg g
     	kahju	0		S	sg n
     	kahju	0		S	sg p
teinud	tege	nud		V	nud
      	tei=nud	0		A	
      	tei=nud	0		A	sg n
      	tei=nud	d		A	pl n
      	teinu	d		S	pl n
olevat	ole	vat		V	vat
      	olev	t		A	sg p
      	olev	t		S	sg p
.	.			Z	
südlane	####				
alle	####				
aga	aga	0		J	
näinud	näi	nud		V	nud
      	näge	nud		V	nud
      	näi=nud	0		A	
      	näi=nud	0		A	sg n
      	näi=nud	d		A	pl n
      	näinu	d		S	pl n
ei	ei	0		D	
  	ei	0		V	neg
ole	ole	0		V	o
näinud	näi	nud		V	nud
      	näge	nud		V	nud
      	näi=nud	0		A	
      	näi=nud	0		A	sg n
      	näi=nud	d		A	pl n
      	näinu	d		S	pl n
Vöölmünder	####				
Viido	####				
Punnissoni	####				
pärast	pära	st		S	sg el
      	pärane	t		A	sg p
      	pärast	0		D	
      	pärast	0		K	
jääs	jää	s		S	sg in
poolele	pool	le		N	sg all
       	pool	le		S	sg all
12	12	0		N	?
Novembrini	november	ni		S	sg ter
.	.			Z	
pea	pea	0		D	
   	pea	0		S	sg g
   	pida	0		V	o
   	pea	0		S	sg n
kohtumees	kohtu_mees	0		S	sg n
Paap	####				
Kiudorv	kiud_orv	0		S	sg n
kohtumees	kohtu_mees	0		S	sg n
Jaan	Jaan	0		H	sg n
    	jaan	0		S	sg n
    	jaan	0		Y	?
Holsting	####				
kohtumees	kohtu_mees	0		S	sg n
Jakob	Jakob	0		H	sg n
Türkson	####				
kohtumees	kohtu_mees	0		S	sg n
Paap	####				
Kress	kress	0		S	sg n
Hendrik	Hendrik	0		H	sg n
tosing	####				
