Vabina	vabin	0		S	sg g
mees	mees	0		S	sg n
    	mesi	s		S	sg in
Ustali	####				
Peebo	####				
Hans	Hans	0		H	sg n
kaebas	kaeba	s		V	s
et	et	0		J	
Reino	####				
Meus	####				
teda	tema	da		P	sg p
varastanud	varasta	nud		V	nud
          	varasta=nu	d		S	pl n
          	varasta=nud	0		A	
          	varasta=nud	0		A	sg n
          	varasta=nud	d		A	pl n
ja	ja	0		J	
tema	tema	0		P	sg g
    	tema	0		P	sg n
aidast	ait	st		S	sg el
üks	üks	0		N	sg n
   	üks	0		P	sg n
kolme	kolm	0		N	adt
     	kolm	0		N	sg g
     	kolm	0		N	sg p
astane	####				
siga	siga	0		A	sg n
    	siga	0		A	sg p
    	siga	0		S	sg n
    	siga	0		S	sg p
kaks	kaks	0		N	sg n
lamba	lammas	0		S	sg g
poolt	pool	t		N	sg p
     	pool	t		S	sg p
     	poolt	0		D	
     	poolt	0		K	
ja	ja	0		J	
kaks	kaks	0		N	sg n
amet	amet	0		S	sg n
ära	ära	0		D	
   	ära	0		V	neg o
võtnud	võt	nud		V	nud
      	võt=nu	d		S	pl n
      	võt=nud	0		A	
      	võt=nud	0		A	sg n
      	võt=nud	d		A	pl n
.	.			Z	
Meus	####				
tunnistas	tunnista	s		V	s
see	see	0		P	sg n
asi	asi	0		S	sg n
   	asi	0		V	o
õige	õige	0		A	sg g
    	õige	0		A	sg n
    	õige	0		D	
olevat	ole	vat		V	vat
      	olev	t		A	sg p
      	olev	t		S	sg p
.	.			Z	
siis	siis	0		D	
    	siis	0		J	
sai	saa	i		V	s
   	sai	0		S	sg n
mõistetud	mõist	tud		V	tud
         	mõiste=tu	d		S	pl n
         	mõiste=tud	0		A	
         	mõiste=tud	0		A	sg n
         	mõiste=tud	d		A	pl n
et	et	0		J	
Meus	####				
peab	pida	b		V	b
Vabina	vabin	0		S	sg g
mehel	mees	l		S	sg ad
kaette	####				
20	20	0		N	?
rubla	rubla	0		S	sg g
     	rubla	0		S	sg n
     	rubla	0		S	sg p
maksma	maks	ma		V	ma
.	.			Z	
