Kuves	####				
kohus	kohu	s		V	s
     	kohus	0		S	sg n
sel	see	l		P	sg ad
   	sel	0		Y	?
samal	sama	l		P	sg ad
päeval	päev	l		S	sg ad
need	see	d		P	pl n
sam	####				
(	(			Z	
m	m	0		Y	?
)	)			Z	
a	a	0		Y	?
kohtumehe	kohtu_mees	0		S	sg g
tuli	tuli	0		S	sg n
    	tule	i		V	s
ette	ette	0		D	
    	ette	0		K	
    	esi	tte		S	adt
Peeter	Peeter	0		H	sg n
ladup	####				
ja	ja	0		J	
kaebas	kaeba	s		V	s
.	.			Z	
Ado	Ado	0		H	sg g
   	Ado	0		H	sg n
ladup	####				
sulase	sulane	0		S	sg g
Johann	Johann	0		H	sg n
korda	kord	0		S	adt
     	korda	0		V	o
     	kord	0		S	sg p
peale	pea	le		S	sg all
     	peale	0		D	
     	peale	0		K	
et	et	0		J	
olevat	ole	vat		V	vat
      	olev	t		A	sg p
      	olev	t		S	sg p
nurme	nurm	0		S	adt
     	nurm	0		S	sg g
     	nurm	0		S	sg p
pealt	pea	lt		S	sg abl
     	pealt	0		D	
     	pealt	0		K	
uts	####				
adra	ader	0		S	sg g
raige	####				
puu	puu	0		S	sg g
   	puu	0		S	sg n
varastanud	varasta	nud		V	nud
          	varasta=nu	d		S	pl n
          	varasta=nud	0		A	
          	varasta=nud	0		A	sg n
          	varasta=nud	d		A	pl n
kus	kus	0		D	
tem	####				
(	(			Z	
m	m	0		Y	?
)	)			Z	
a	a	0		Y	?
sulane	sulane	0		S	sg n
      	sulane	0		V	o
Mihkel	Mihkel	0		H	sg n
      	mihkel	0		A	sg n
      	mihkel	0		S	sg n
Võsu	Võsu	0		H	sg g
    	võsu	0		G	
    	võsu	0		S	sg g
    	võsu	0		V	o
    	Võsu	0		H	sg n
    	võsu	0		S	sg n
    	võsu	0		S	sg p
seda	see	da		P	sg p
on	ole	0		V	b
  	ole	0		V	vad
tunnistanu	tunnista=nu	0		S	sg g
          	tunnista=nu	0		S	sg n
.	.			Z	
_	_			Z	
kutsuti	kutsu	ti		V	ti
ette	ette	0		D	
    	ette	0		K	
    	esi	tte		S	adt
Johann	Johann	0		H	sg n
korda	kord	0		S	adt
     	korda	0		V	o
     	kord	0		S	sg p
ja	ja	0		J	
küsiti	küsi	ti		V	ti
mis	mis	0		P	pl n
   	mis	0		P	sg n
pärast	pära	st		S	sg el
      	pärane	t		A	sg p
      	pärast	0		D	
      	pärast	0		K	
sinna	sinna	0		D	
oled	ole	d		V	d
Peeter	Peeter	0		H	sg n
ladup	####				
adra	ader	0		S	sg g
raise	####				
puu	puu	0		S	sg g
   	puu	0		S	sg n
ära	ära	0		D	
   	ära	0		V	neg o
varostnud	####				
tema	tema	0		P	sg g
    	tema	0		P	sg n
ütles	ütle	s		V	s
mina	mina	0		P	sg n
    	mina	0		S	sg g
    	mina	0		S	sg n
    	mina	0		S	sg p
võtsi	####				
too	too	0		P	sg n
   	too	0		V	o
puu	puu	0		S	sg g
   	puu	0		S	sg n
nurme	nurm	0		S	adt
     	nurm	0		S	sg g
     	nurm	0		S	sg p
pealt	pea	lt		S	sg abl
     	pealt	0		D	
     	pealt	0		K	
too	too	0		P	sg n
   	too	0		V	o
on	ole	0		V	b
  	ole	0		V	vad
õige	õige	0		A	sg g
    	õige	0		A	sg n
    	õige	0		D	
aga	aga	0		J	
mina	mina	0		P	sg n
    	mina	0		S	sg g
    	mina	0		S	sg n
    	mina	0		S	sg p
ei	ei	0		D	
  	ei	0		V	neg
tea	tead	0		V	o
kas	kas	0		D	
ta	tema	0		P	sg g
  	tema	0		P	sg n
oli	ole	i		V	s
Peeter	Peeter	0		H	sg n
või	või	0		S	sg g
   	või	0		V	o
   	või	0		D	
   	või	0		J	
   	või	0		S	sg n
Ado	Ado	0		H	sg g
   	Ado	0		H	sg n
ladolp	####				
otsus	otsus	0		S	sg n
keiserliku	keiserlik	0		A	sg g
maastasti	####				
kõige	kõik	0		P	sg g
     	kõige	0		D	
venerigi	####				
ise	ise	0		A	
   	ise	0		D	
   	ise	0		P	pl n
   	ise	0		P	sg n
Valitseja	valitseja	0		S	sg g
         	valitseja	0		S	sg n
käsu	käsk	0		S	sg g
peale	pea	le		S	sg all
     	peale	0		D	
     	peale	0		K	
mõistis	mõist	is		V	s
kohus	kohu	s		V	s
     	kohus	0		S	sg n
selle	see	0		P	sg g
     	sell	e		S	pl p
et	et	0		J	
ta	tema	0		P	sg g
  	tema	0		P	sg n
üks	üks	0		N	sg n
   	üks	0		P	sg n
kattu	katt	0		S	adt
     	kattu	0		V	o
     	katt	0		S	sg p
asi	asi	0		S	sg n
   	asi	0		V	o
on	ole	0		V	b
  	ole	0		V	vad
ei	ei	0		D	
  	ei	0		V	neg
või	või	0		S	sg g
   	või	0		V	o
   	või	0		D	
   	või	0		J	
   	või	0		S	sg n
kohus	kohu	s		V	s
     	kohus	0		S	sg n
midagi	miski	dagi		P	sg p
tolle	toll	e		S	pl p
     	too	0		P	sg g
peale	pea	le		S	sg all
     	peale	0		D	
     	peale	0		K	
mõista	mõist	0		V	o
      	mõist	a		V	da
ja	ja	0		J	
latsid	####				
kõik	kõik	0		P	pl n
    	kõik	0		S	sg n
    	kõik	0		P	sg n
välja	välja	0		D	
     	välja	0		V	o
     	väli	0		S	adt
     	väli	0		S	sg g
     	väli	0		S	sg p
.	.			Z	
Karraske	####				
Jusal	####				
sel	see	l		P	sg ad
   	sel	0		Y	?
12ndal	12=s	l		O	sg ad
oktoobril	oktoober	l		S	sg ad
1873	1873	0		N	?
eenista	####				
Jaan	Jaan	0		H	sg n
    	jaan	0		S	sg n
    	jaan	0		Y	?
tulus	tulu	s		S	sg in
     	tulus	0		A	sg n
XXX	XXX	0		O	?
   	XXX	0		Y	?
mannista	####				
Johann	Johann	0		H	sg n
Raig	raig	0		S	sg n
XXX	XXX	0		O	?
   	XXX	0		Y	?
do	####				
Jakob	Jakob	0		H	sg n
Uibo	Uibo	0		H	sg g
    	Uibo	0		H	sg n
XXX	XXX	0		O	?
   	XXX	0		Y	?
