Peedo	####				
Nagelmann	####				
on	ole	0		V	b
  	ole	0		V	vad
keinud	####				
hoopmene	####				
majja	maja	0		S	adt
kevaja	####				
saadigus	####				
pea	pea	0		D	
   	pea	0		S	sg g
   	pida	0		V	o
   	pea	0		S	sg n
õige	õige	0		A	sg g
    	õige	0		A	sg n
    	õige	0		D	
õe	õe	0		I	
  	õde	0		S	sg g
aidamees	aida_mees	0		S	sg n
on	ole	0		V	b
  	ole	0		V	vad
neiega	####				
.	.			Z	
Peedo	####				
Nagelman	####				
vastut	####				
tema	tema	0		P	sg g
    	tema	0		P	sg n
on	ole	0		V	b
  	ole	0		V	vad
kül	####				
keinud	####				
.	.			Z	
mõistetud	mõist	tud		V	tud
         	mõiste=tu	d		S	pl n
         	mõiste=tud	0		A	
         	mõiste=tud	0		A	sg n
         	mõiste=tud	d		A	pl n
:	:			Z	
Peedo	####				
Nagelmann	####				
sab	####				
selle	see	0		P	sg g
     	sell	e		S	pl p
eest	eest	0		D	
    	eest	0		K	
    	esi	st		S	sg el
et	et	0		J	
ta	tema	0		P	sg g
  	tema	0		P	sg n
hoopmanni	hoop_mann	0		S	adt
         	hoop_mann	0		S	sg g
         	hoop_mann	0		S	sg p
oese	####				
on	ole	0		V	b
  	ole	0		V	vad
keinud	####				
15	15	0		N	?
loege	####				
vitsu	vits	u		S	pl p
.	.			Z	
