kolmandalt	kolmas	lt		O	sg abl
,	,			Z	
tuli	tuli	0		S	sg n
    	tule	i		V	s
ette	ette	0		D	
    	ette	0		K	
    	esi	tte		S	adt
Jakob	Jakob	0		H	sg n
Uibo	Uibo	0		H	sg g
    	Uibo	0		H	sg n
ja	ja	0		J	
kaebas	kaeba	s		V	s
oma	oma	0		A	sg g
   	oma	0		D	
   	oma	0		P	sg g
   	oma	0		S	sg g
   	oma	0		V	o
   	oma	0		A	sg n
   	oma	0		A	sg p
   	oma	0		P	sg n
   	oma	0		P	sg p
   	oma	0		S	sg n
   	oma	0		S	sg p
sulase	sulane	0		S	sg g
Johan	Johan	0		H	sg n
Raig	raig	0		S	sg n
peale	pea	le		S	sg all
     	peale	0		D	
     	peale	0		K	
,	,			Z	
et	et	0		J	
oleva	olev	0		A	sg g
     	olev	0		S	sg g
temal	tema	l		P	sg ad
7	7	0		N	?
rubla	rubla	0		S	sg g
     	rubla	0		S	sg n
     	rubla	0		S	sg p
kastist	kast	st		S	sg el
ära	ära	0		D	
   	ära	0		V	neg o
varastanud	varasta	nud		V	nud
          	varasta=nu	d		S	pl n
          	varasta=nud	0		A	
          	varasta=nud	0		A	sg n
          	varasta=nud	d		A	pl n
,	,			Z	
kus	kus	0		D	
ju	ju	0		D	
6	6	0		N	?
rubla	rubla	0		S	sg g
     	rubla	0		S	sg n
     	rubla	0		S	sg p
oleva	olev	0		A	sg g
     	olev	0		S	sg g
kätte	kätte	0		K	
     	käsi	tte		S	adt
andnud	and	nud		V	nud
      	and=nu	d		S	pl n
      	and=nud	0		A	
      	and=nud	0		A	sg n
      	and=nud	d		A	pl n
petmise	petmine	0		S	sg g
viisi	viis	0		S	adt
     	viis	0		S	sg g
     	viis	i		N	pl p
     	viisi	0		K	
     	viis	0		S	sg p
ent	ent	0		J	
1.	1.	0		O	?
rubla	rubla	0		S	sg g
     	rubla	0		S	sg n
     	rubla	0		S	sg p
on	ole	0		V	b
  	ole	0		V	vad
praegu	praegu	0		D	
kaotsin	####				
,	,			Z	
see	see	0		P	sg n
raha	raha	0		S	sg g
    	raha	0		S	sg n
    	raha	0		S	sg p
võtmine	võtmine	0		S	sg n
oli	ole	i		V	s
seda	see	da		P	sg p
viisi	viis	0		S	adt
     	viis	0		S	sg g
     	viis	i		N	pl p
     	viisi	0		K	
     	viis	0		S	sg p
,	,			Z	
meie	mina	0		P	pl g
    	mina	0		P	pl n
olime	ole	ime		V	sime
saan	saa	n		V	n
    	saan	0		S	sg n
(	(			Z	
n	n	0		Y	?
)	)			Z	
a	a	0		Y	?
,	,			Z	
ja	ja	0		J	
minul	mina	l		P	sg ad
oli	ole	i		V	s
kasti	kast	0		S	adt
     	kast	0		S	sg g
     	kast	0		S	sg p
võtti	####				
püksi	püks	0		S	adt
     	püks	0		S	sg g
     	püks	0		S	sg p
taskun	####				
ning	ning	0		J	
Johan	Johan	0		H	sg n
Raig	raig	0		S	sg n
võtnud	võt	nud		V	nud
      	võt=nu	d		S	pl n
      	võt=nud	0		A	
      	võt=nud	0		A	sg n
      	võt=nud	d		A	pl n
püksi	püks	0		S	adt
     	püks	0		S	sg g
     	püks	0		S	sg p
taskust	tasku	st		S	sg el
võtme	võti	0		S	sg g
,	,			Z	
võtnud	võt	nud		V	nud
      	võt=nu	d		S	pl n
      	võt=nud	0		A	
      	võt=nud	0		A	sg n
      	võt=nud	d		A	pl n
kastist	kast	st		S	sg el
see	see	0		P	sg n
raha	raha	0		S	sg g
    	raha	0		S	sg n
    	raha	0		S	sg p
valja	####				
ehk	ehk	0		D	
   	ehk	0		J	
ära	ära	0		D	
   	ära	0		V	neg o
,	,			Z	
ning	ning	0		J	
pannud	pan=nu	d		S	pl n
      	pan=nud	0		A	
      	pan=nud	0		A	sg n
      	pan=nud	d		A	pl n
      	pane	nud		V	nud
võtme	võti	0		S	sg g
kambri	kamber	0		S	sg g
,	,			Z	
minu	mina	0		P	sg g
kuhvti	####				
taskude	####				
.	.			Z	
_	_			Z	
seda	see	da		P	sg p
asja	asi	0		S	adt
    	asi	0		S	sg g
    	asi	0		S	sg p
võib	või	b		V	b
peakohtumees	pea_kohtu_mees	0		S	sg n
Jaan	Jaan	0		H	sg n
    	jaan	0		S	sg n
    	jaan	0		Y	?
tulnud	tul=nud	0		A	
      	tul=nud	0		A	sg n
      	tul=nud	d		A	pl n
      	tule	nud		V	nud
      	tulnu	d		S	pl n
laeemalt	lae_ema	lt		S	sg abl
õindada	####				
.	.			Z	
kutsuti	kutsu	ti		V	ti
ette	ette	0		D	
    	ette	0		K	
    	esi	tte		S	adt
sulane	sulane	0		S	sg n
      	sulane	0		V	o
Johani	Johan	0		H	sg g
Raig	raig	0		S	sg n
,	,			Z	
sai	saa	i		V	s
   	sai	0		S	sg n
kaebus	kaebus	0		S	sg n
ette	ette	0		D	
    	ette	0		K	
    	esi	tte		S	adt
loetud	loetu	d		S	pl n
      	loetud	0		A	
      	loetud	0		A	sg n
      	loetud	d		A	pl n
      	luge	tud		V	tud
,	,			Z	
kes	kes	0		P	pl n
   	kes	0		P	sg n
koguniste	####				
ära	ära	0		D	
   	ära	0		V	neg o
salgas	salga	s		V	s
      	salk	s		S	sg in
,	,			Z	
ei	ei	0		D	
  	ei	0		V	neg
olevat	ole	vat		V	vat
      	olev	t		A	sg p
      	olev	t		S	sg p
võttind	võtt_ind	0		S	sg n
ei	ei	0		D	
  	ei	0		V	neg
ka	ka	0		D	
raha	raha	0		S	sg g
    	raha	0		S	sg n
    	raha	0		S	sg p
võtnud	võt	nud		V	nud
      	võt=nu	d		S	pl n
      	võt=nud	0		A	
      	võt=nud	0		A	sg n
      	võt=nud	d		A	pl n
,	,			Z	
seda	see	da		P	sg p
vähem	vähem	0		C	sg n
     	vähem	0		D	
veel	veel	0		D	
    	vesi	l		S	sg ad
raha	raha	0		S	sg g
    	raha	0		S	sg n
    	raha	0		S	sg p
tagasi	tagasi	0		D	
      	tagasi	0		K	
andnud	and	nud		V	nud
      	and=nu	d		S	pl n
      	and=nud	0		A	
      	and=nud	0		A	sg n
      	and=nud	d		A	pl n
,	,			Z	
see	see	0		P	sg n
on	ole	0		V	b
  	ole	0		V	vad
lori	lori	0		S	sg g
    	lori	0		V	o
    	lori	0		S	sg n
    	lori	0		S	sg p
jut	####				
.	.			Z	
_	_			Z	
sai	saa	i		V	s
   	sai	0		S	sg n
kohtu	kohtu	0		V	o
     	kohus	0		S	sg g
poolt	pool	t		N	sg p
     	pool	t		S	sg p
     	poolt	0		D	
     	poolt	0		K	
peakohtumehe	pea_kohtu_mees	0		S	sg g
Jaan	Jaan	0		H	sg n
    	jaan	0		S	sg n
    	jaan	0		Y	?
tulnud	tul=nud	0		A	
      	tul=nud	0		A	sg n
      	tul=nud	d		A	pl n
      	tule	nud		V	nud
      	tulnu	d		S	pl n
,	,			Z	
käest	käest	0		K	
     	käsi	st		S	sg el
selle	see	0		P	sg g
     	sell	e		S	pl p
asja	asi	0		S	adt
    	asi	0		S	sg g
    	asi	0		S	sg p
pärast	pära	st		S	sg el
      	pärane	t		A	sg p
      	pärast	0		D	
      	pärast	0		K	
küsitud	küsi	tud		V	tud
       	küsi=tu	d		S	pl n
       	küsi=tud	0		A	
       	küsi=tud	0		A	sg n
       	küsi=tud	d		A	pl n
,	,			Z	
kes	kes	0		P	pl n
   	kes	0		P	sg n
selle	see	0		P	sg g
     	sell	e		S	pl p
peale	pea	le		S	sg all
     	peale	0		D	
     	peale	0		K	
ütles	ütle	s		V	s
,	,			Z	
Jakob	Jakob	0		H	sg n
Uibo	Uibo	0		H	sg g
    	Uibo	0		H	sg n
saatnud	saat	nud		V	nud
       	saat=nu	d		S	pl n
       	saat=nud	0		A	
       	saat=nud	0		A	sg n
       	saat=nud	d		A	pl n
oma	oma	0		A	sg g
   	oma	0		D	
   	oma	0		P	sg g
   	oma	0		S	sg g
   	oma	0		V	o
   	oma	0		A	sg n
   	oma	0		A	sg p
   	oma	0		P	sg n
   	oma	0		P	sg p
   	oma	0		S	sg n
   	oma	0		S	sg p
laste	laps	te		S	pl g
     	last	e		S	pl p
tem	####				
(	(			Z	
m	m	0		Y	?
)	)			Z	
al	####				
perra	####				
,	,			Z	
ning	ning	0		J	
tema	tema	0		P	sg g
    	tema	0		P	sg n
läinud	läinu	d		S	pl n
      	läinud	0		A	
      	läinud	0		A	sg n
      	läinud	d		A	pl n
      	mine	nud		V	nud
Jusale	####				
,	,			Z	
siis	siis	0		D	
    	siis	0		J	
olnud	ol=nud	0		A	
     	ol=nud	0		A	sg n
     	ol=nud	d		A	pl n
     	ole	nud		V	nud
     	olnu	d		S	pl n
Johan	Johan	0		H	sg n
Raig	raig	0		S	sg n
,	,			Z	
kambri	kamber	0		S	sg g
läve	lävi	0		S	sg g
    	lävi	0		S	sg p
ees	ees	0		D	
   	ees	0		K	
   	esi	s		S	sg in
maas	maa	s		S	sg in
    	maas	0		D	
,	,			Z	
ning	ning	0		J	
mehe	mees	0		S	sg g
üle	üle	0		D	
   	üle	0		K	
olla	ole	a		V	da
maha	maha	0		D	
aetu	aetud	0		A	sg g
,	,			Z	
ja	ja	0		J	
Jakob	Jakob	0		H	sg n
Uibo	Uibo	0		H	sg g
    	Uibo	0		H	sg n
pidanud	pida	nud		V	nud
       	pida=nu	d		S	pl n
       	pida=nud	0		A	
       	pida=nud	0		A	sg n
       	pida=nud	d		A	pl n
teda	tema	da		P	sg p
kinni	kinni	0		D	
,	,			Z	
et	et	0		J	
lubanud	luba	nud		V	nud
       	luba=nu	d		S	pl n
       	luba=nud	0		A	
       	luba=nud	0		A	sg n
       	luba=nud	d		A	pl n
raha	raha	0		S	sg g
    	raha	0		S	sg n
    	raha	0		S	sg p
kätte	kätte	0		K	
     	käsi	tte		S	adt
anda	and	a		V	da
,	,			Z	
ent	ent	0		J	
ei	ei	0		D	
  	ei	0		V	neg
ole	ole	0		V	o
andnud	and	nud		V	nud
      	and=nu	d		S	pl n
      	and=nud	0		A	
      	and=nud	0		A	sg n
      	and=nud	d		A	pl n
.	.			Z	
_	_			Z	
otsus	otsus	0		S	sg n
ent	ent	0		J	
lepisid	####				
kohtu	kohtu	0		V	o
     	kohus	0		S	sg g
ees	ees	0		D	
   	ees	0		K	
   	esi	s		S	sg in
ära	ära	0		D	
   	ära	0		V	neg o
nii	nii	0		D	
viisi	viis	0		S	adt
     	viis	0		S	sg g
     	viis	i		N	pl p
     	viisi	0		K	
     	viis	0		S	sg p
,	,			Z	
et	et	0		J	
Johan	Johan	0		H	sg n
Raig	raig	0		S	sg n
maksab	maks	b		V	b
Jakob	Jakob	0		H	sg n
Uibo´l	####				
6	6	0		N	?
rubla	rubla	0		S	sg g
     	rubla	0		S	sg n
     	rubla	0		S	sg p
30.	30.	0		O	?
kop	kop	0		Y	?
.	.			Z	
hõb	####				
ses	see	s		P	sg in
10nas	####				
novembris	november	s		S	sg in
s	s	0		Y	?
.	.			Z	
a.	a	0		Y	?
välja	välja	0		D	
     	välja	0		V	o
     	väli	0		S	adt
     	väli	0		S	sg g
     	väli	0		S	sg p
,	,			Z	
ning	ning	0		J	
ei	ei	0		D	
  	ei	0		V	neg
ole	ole	0		V	o
peale	pea	le		S	sg all
     	peale	0		D	
     	peale	0		K	
tolle	toll	e		S	pl p
     	too	0		P	sg g
kumb	kumb	0		P	sg n
kummalgil	####				
teine	teine	0		O	sg n
     	teine	0		P	sg n
teise	teine	0		O	adt
     	teine	0		O	sg g
     	teine	0		P	adt
     	teine	0		P	sg g
käest	käest	0		K	
     	käsi	st		S	sg el
midagi	miski	dagi		P	sg p
pärast	pära	st		S	sg el
      	pärane	t		A	sg p
      	pärast	0		D	
      	pärast	0		K	
seda	see	da		P	sg p
enam	enam	0		C	sg n
    	enam	0		D	
nõudmist	nõudmine	t		S	sg p
,	,			Z	
ja	ja	0		J	
Johan	Johan	0		H	sg n
Raig	raig	0		S	sg n
on	ole	0		V	b
  	ole	0		V	vad
Jakob	Jakob	0		H	sg n
Uibo	Uibo	0		H	sg g
    	Uibo	0		H	sg n
teenistusest	teenistus	st		S	sg el
prii	prii	0		A	sg g
    	prii	0		A	sg n
.	.			Z	
ning	ning	0		J	
läksid	mine	sid		V	sid
rahul	rahu	l		S	sg ad
     	rahul	0		D	
välja	välja	0		D	
     	välja	0		V	o
     	väli	0		S	adt
     	väli	0		S	sg g
     	väli	0		S	sg p
.	.			Z	
_	_			Z	
(	(			Z	
allkiri	all_kiri	0		S	sg n
)	)			Z	
