oli	ole	i		V	s
tulnud	tul=nud	0		A	
      	tul=nud	0		A	sg n
      	tul=nud	d		A	pl n
      	tule	nud		V	nud
      	tulnu	d		S	pl n
Kähi	####				
mõisast	mõis	st		S	sg el
Peeter	Peeter	0		H	sg n
Org	org	0		S	sg n
(	(			Z	
asjas	asi	s		S	sg in
17.	17.	0		O	?
oktbr	####				
.	.			Z	
c	c	0		Y	?
.	.			Z	
sub	####				
№	№	0		Y	?
58	58	0		N	?
)	)			Z	
ja	ja	0		J	
vabandas	vabanda	s		V	s
sipuulitse	####				
kaebuse	kaebus	0		S	sg g
ettelugemise	ette_lugemine	0		S	sg g
peale	pea	le		S	sg all
     	peale	0		D	
     	peale	0		K	
,	,			Z	
et	et	0		J	
tema	tema	0		P	sg g
    	tema	0		P	sg n
ei	ei	0		D	
  	ei	0		V	neg
olla	ole	a		V	da
millaki	####				
öösel	öösel	0		D	
seal	seal	0		D	
    	siga	l		A	sg ad
    	siga	l		S	sg ad
talu	talu	0		S	sg g
    	talu	0		V	o
    	talu	0		S	sg n
    	talu	0		S	sg p
käinud	käi	nud		V	nud
      	käi=nud	0		A	
      	käi=nud	0		A	sg n
      	käi=nud	d		A	pl n
      	käinu	d		S	pl n
,	,			Z	
kus	kus	0		D	
Jakob	Jakob	0		H	sg n
Tiidemann	####				
elab	ela	b		V	b
ja	ja	0		J	
ei	ei	0		D	
  	ei	0		V	neg
teadvat	tead	vat		V	vat
       	teadev	t		A	sg p
sellest	see	st		P	sg el
ühtegid	####				
.	.			Z	
sellepeale	selle_peale	0		D	
ütles	ütle	s		V	s
Jakob	Jakob	0		H	sg n
Tiissemann	####				
,	,			Z	
et	et	0		J	
tema	tema	0		P	sg g
    	tema	0		P	sg n
eda	####				
muialt	####				
ei	ei	0		D	
  	ei	0		V	neg
teadvat	tead	vat		V	vat
       	teadev	t		A	sg p
,	,			Z	
kui	kui	0		D	
   	kui	0		J	
oma	oma	0		A	sg g
   	oma	0		D	
   	oma	0		P	sg g
   	oma	0		S	sg g
   	oma	0		V	o
   	oma	0		A	sg n
   	oma	0		A	sg p
   	oma	0		P	sg n
   	oma	0		P	sg p
   	oma	0		S	sg n
   	oma	0		S	sg p
talu	talu	0		S	sg g
    	talu	0		V	o
    	talu	0		S	sg n
    	talu	0		S	sg p
tüdrukute	tüdruk	te		S	pl g
käest	käest	0		K	
     	käsi	st		S	sg el
,	,			Z	
kes	kes	0		P	pl n
   	kes	0		P	sg n
teisel	teine	l		O	sg ad
      	teine	l		P	sg ad
päeval	päev	l		S	sg ad
olla	ole	a		V	da
räkinud	####				
,	,			Z	
et	et	0		J	
need	see	d		P	pl n
poisid	poi	sid		S	pl p
      	poiss	d		S	pl n
seal	seal	0		D	
    	siga	l		A	sg ad
    	siga	l		S	sg ad
käinud	käi	nud		V	nud
      	käi=nud	0		A	
      	käi=nud	0		A	sg n
      	käi=nud	d		A	pl n
      	käinu	d		S	pl n
ja	ja	0		J	
siis	siis	0		D	
    	siis	0		J	
pilli	pill	0		S	adt
     	pill	0		S	sg g
     	pilli	0		V	o
     	pill	0		S	sg p
kiitsusta	####				
äraläinud	ära_läinu	d		S	pl n
         	ära_läinud	0		A	
         	ära_läinud	0		A	sg n
         	ära_läinud	d		A	pl n
.	.			Z	
siit	siit	0		D	
rätsep	rätsep	0		S	sg n
Kusta	Kusta	0		H	sg g
     	Kusta	0		H	sg n
     	kuse	ta		V	da
     	kuse	ta		V	ta
Kepp	kepp	0		S	sg n
olla	ole	a		V	da
ka	ka	0		D	
talle	tall	e		S	pl p
     	tall	0		S	adt
     	tall	0		S	sg g
     	tema	lle		P	sg all
     	tall	0		S	sg p
räkinud	####				
,	,			Z	
et	et	0		J	
tema	tema	0		P	sg g
    	tema	0		P	sg n
olla	ole	a		V	da
kinksepa	kink_sepp	0		S	sg g
selle	see	0		P	sg g
     	sell	e		S	pl p
käest	käest	0		K	
     	käsi	st		S	sg el
kuulnud	kuul	nud		V	nud
       	kuul=nud	0		A	
       	kuul=nud	0		A	sg n
       	kuul=nud	d		A	pl n
       	kuulnu	d		S	pl n
,	,			Z	
et	et	0		J	
Juhan	Juhan	0		H	sg n
turi	turi	0		S	sg n
olla	ole	a		V	da
selle	see	0		P	sg g
     	sell	e		S	pl p
pilli	pill	0		S	adt
     	pill	0		S	sg g
     	pilli	0		V	o
     	pill	0		S	sg p
võtja	võtja	0		S	sg g
     	võtja	0		S	sg n
olnud	ol=nud	0		A	
     	ol=nud	0		A	sg n
     	ol=nud	d		A	pl n
     	ole	nud		V	nud
     	olnu	d		S	pl n
_	_			Z	
teised	teine	d		O	pl n
      	teine	d		P	pl n
olla	ole	a		V	da
tal	tema	l		P	sg ad
paljalt	paljalt	0		D	
       	paljas	lt		A	sg abl
seltsilised	seltsiline	d		S	pl n
olnud	ol=nud	0		A	
     	ol=nud	0		A	sg n
     	ol=nud	d		A	pl n
     	ole	nud		V	nud
     	olnu	d		S	pl n
.	.			Z	
Otsustadi	####				
:	:			Z	
156.	156.	0		O	?
Novembriks	november	ks		S	sg tr
c	c	0		Y	?
.	.			Z	
vastalised	vastaline	d		A	pl n
          	vastaline	d		S	pl n
,	,			Z	
üks	üks	0		N	sg n
   	üks	0		P	sg n
tüdruk	tüdruk	0		S	sg n
sealt	sealt	0		D	
     	siga	lt		A	sg abl
     	siga	lt		S	sg abl
talalt	tala	lt		S	sg abl
ja	ja	0		J	
Kusta	Kusta	0		H	sg g
     	Kusta	0		H	sg n
     	kuse	ta		V	da
     	kuse	ta		V	ta
Kepp	kepp	0		S	sg n
ettetalitada	####				
lasta	lask	ta		V	da
     	lask	ta		V	ta
.	.			Z	
kohtunik	kohtunik	0		S	sg n
:	:			Z	
H	H	0		Y	?
.	.			Z	
_	_			Z	
Lukaks	####				
[	[			Z	
allkiri	all_kiri	0		S	sg n
]	]			Z	
d	d	0		Y	?
.	.			Z	
:	:			Z	
J	J	0		Y	?
.	.			Z	
_	_			Z	
paremann	####				
[	[			Z	
allkiri	all_kiri	0		S	sg n
]	]			Z	
abiline	abiline	0		S	sg n
:	:			Z	
V. Visse	####				
[	[			Z	
allkiri	all_kiri	0		S	sg n
]	]			Z	
kirjut	kirju	t		A	sg p
.	.			Z	
as	####				
.	.			Z	
Tuping	####				
[	[			Z	
allkiri	all_kiri	0		S	sg n
]	]			Z	
