Jaan	Jaan	0		H	sg n
    	jaan	0		S	sg n
    	jaan	0		Y	?
Visar	####				
on	ole	0		V	b
  	ole	0		V	vad
lubanud	luba	nud		V	nud
       	luba=nu	d		S	pl n
       	luba=nud	0		A	
       	luba=nud	0		A	sg n
       	luba=nud	d		A	pl n
omal	oma	l		A	sg ad
    	oma	l		P	sg ad
    	oma	l		S	sg ad
esmätti	####				
Naisest	naine	st		S	sg el
perra	####				
jäänud	jää	nud		V	nud
      	jäänu	d		S	pl n
      	jäänud	0		A	
      	jäänud	0		A	sg n
      	jäänud	d		A	pl n
pojal	poeg	l		S	sg ad
     	poja	l		S	sg ad
Johann	Johann	0		H	sg n
seda	see	da		P	sg p
varandus	varandus	0		S	sg n
:	:			Z	
1	1	0		N	?
Krist	####				
1	1	0		N	?
paar	paar	0		N	sg n
    	paar	0		S	sg n
Reivit	####				
,	,			Z	
särk	särk	0		S	sg n
ja	ja	0		J	
kasuk	####				
Misso	Misso	0		H	sg g
     	Misso	0		H	sg n
sel	see	l		P	sg ad
   	sel	0		Y	?
10	10	0		N	?
oktbr	####				
1860	1860	0		N	?
üle	üle	0		D	
   	üle	0		K	
sel	see	l		P	sg ad
   	sel	0		Y	?
varandus	varandus	0		S	sg n
oma	oma	0		A	sg g
   	oma	0		D	
   	oma	0		P	sg g
   	oma	0		S	sg g
   	oma	0		V	o
   	oma	0		A	sg n
   	oma	0		A	sg p
   	oma	0		P	sg n
   	oma	0		P	sg p
   	oma	0		S	sg n
   	oma	0		S	sg p
Vöölmondre	####				
Johann	Johann	0		H	sg n
linnas	linn	s		S	sg in
XXX	XXX	0		O	?
   	XXX	0		Y	?
Hendrik	Hendrik	0		H	sg n
eihke	####				
XXX	XXX	0		O	?
   	XXX	0		Y	?
