Räpinast	Räpina	st		H	sg el
Friedholmi	####				
mõisa	mõis	0		S	sg g
vallitsuse	####				
poolest	pool	st		N	sg el
       	pool	st		S	sg el
       	poolene	t		A	sg p
       	poolest	0		K	
kaebati	####				
päris	päri	s		V	s
     	päris	0		A	
     	päris	0		D	
Herra	####				
kirja	kirja	0		A	
     	kirja	0		V	o
     	kiri	0		S	adt
     	kiri	0		S	sg g
     	kiri	0		S	sg p
perrä	####				
.	.			Z	
kiri	kiri	0		S	sg n
on	ole	0		V	b
  	ole	0		V	vad
.	.			Z	
Andres	Andre	s		H	sg in
      	Andres	0		H	sg n
Kesselmann	####				
,	,			Z	
pidi	pida	i		V	s
    	pidi	0		K	
minule	mina	le		P	sg all
mineva	minev	0		A	sg g
suvel	suvi	l		S	sg ad
,	,			Z	
sindla	####				
katus	katt	s		S	sg in
     	katus	0		S	sg n
vastse	vastne	0		A	sg g
      	vastne	0		S	sg g
aida	ait	0		S	sg g
peale	pea	le		S	sg all
     	peale	0		D	
     	peale	0		K	
teha	tege	a		V	da
,	,			Z	
see	see	0		P	sg n
katus	katt	s		S	sg in
     	katus	0		S	sg n
on	ole	0		V	b
  	ole	0		V	vad
nii	nii	0		D	
sandiste	####				
tehtu	tehtu	0		S	sg g
     	tehtud	0		A	sg g
     	tehtu	0		S	sg n
,	,			Z	
et	et	0		J	
senna	senna	0		S	sg g
     	senna	0		S	sg n
villa	vill	0		S	adt
     	vill	0		S	sg g
     	vill	0		S	sg p
     	villa	0		S	sg g
     	villa	0		S	sg n
ei	ei	0		D	
  	ei	0		V	neg
või	või	0		S	sg g
   	või	0		V	o
   	või	0		D	
   	või	0		J	
   	või	0		S	sg n
mitte	mitte	0		D	
sisse	siss	e		S	pl p
     	sisse	0		D	
     	sisse	0		K	
panna	pand	0		S	sg g
     	pane	a		V	da
     	panna	0		S	sg g
     	panna	0		S	sg n
;	;			Z	
nüüd	nüüd	0		D	
mina	mina	0		P	sg n
    	mina	0		S	sg g
    	mina	0		S	sg n
    	mina	0		S	sg p
tahan	taht	n		V	n
seda	see	da		P	sg p
maja	maja	0		S	sg g
    	maja	0		S	sg n
    	maja	0		S	sg p
mis	mis	0		P	pl n
   	mis	0		P	sg n
Andrese	Andres	0		H	sg g
käes	käes	0		K	
    	käsi	s		S	sg in
Võõpsus	####				
on	ole	0		V	b
  	ole	0		V	vad
kogukonna	kogukond	0		S	sg g
kohtust	kohtune	t		A	sg p
       	kohus	st		S	sg el
lasta	lask	ta		V	da
     	lask	ta		V	ta
kindi	####				
panna	pand	0		S	sg g
     	pane	a		V	da
     	panna	0		S	sg g
     	panna	0		S	sg n
ning	ning	0		J	
oksioni	####				
viisi	viis	0		S	adt
     	viis	0		S	sg g
     	viis	i		N	pl p
     	viisi	0		K	
     	viis	0		S	sg p
ära	ära	0		D	
   	ära	0		V	neg o
müia	####				
,	,			Z	
et	et	0		J	
sellega	see	ga		P	sg kom
sasi	sasi	0		S	sg g
    	sasi	0		V	o
    	sasi	0		S	sg n
    	sasi	0		S	sg p
neid	neid	0		S	sg n
    	see	d		P	pl p
    	tema	d		P	pl p
400	400	0		N	?
rubla	rubla	0		S	sg g
     	rubla	0		S	sg n
     	rubla	0		S	sg p
makstud	maks	tud		V	tud
       	maks=tu	d		S	pl n
       	maks=tud	0		A	
       	maks=tud	0		A	sg n
       	maks=tud	d		A	pl n
,	,			Z	
mis	mis	0		P	pl n
   	mis	0		P	sg n
Andres	Andre	s		H	sg in
      	Andres	0		H	sg n
minul	mina	l		P	sg ad
on	ole	0		V	b
  	ole	0		V	vad
kahju	kahi	0		S	adt
     	kahi	0		S	sg g
     	kahi	0		S	sg p
     	kahju	0		S	sg g
     	kahju	0		S	sg n
     	kahju	0		S	sg p
teinud	tege	nud		V	nud
      	tei=nud	0		A	
      	tei=nud	0		A	sg n
      	tei=nud	d		A	pl n
      	teinu	d		S	pl n
,	,			Z	
seda	see	da		P	sg p
mina	mina	0		P	sg n
    	mina	0		S	sg g
    	mina	0		S	sg n
    	mina	0		S	sg p
aunas	aun	s		S	sg in
kogukonna	kogukond	0		S	sg g
kohtul	kohus	l		S	sg ad
teda	tema	da		P	sg p
,	,			Z	
et	et	0		J	
tuleva	tulev	0		A	sg g
kohtu	kohtu	0		V	o
     	kohus	0		S	sg g
päevas	päev	s		S	sg in
saab	saa	b		V	b
Andres	Andre	s		H	sg in
      	Andres	0		H	sg n
ning	ning	0		J	
,	,			Z	
mõisa	mõis	0		S	sg g
valitseja	valitseja	0		S	sg g
         	valitseja	0		S	sg n
kohtu	kohtu	0		V	o
     	kohus	0		S	sg g
ette	ette	0		D	
    	ette	0		K	
    	esi	tte		S	adt
kutsutu	kutsutu	0		S	sg g
       	kutsutud	0		A	sg g
       	kutsutu	0		S	sg n
16	16	0		N	?
april	####				
1873	1873	0		N	?
Gs	####				
v	v	0		Y	?
versis	####				
Andres	Andre	s		H	sg in
      	Andres	0		H	sg n
Kesselman	####				
ütles	ütle	s		V	s
et	et	0		J	
tema	tema	0		P	sg g
    	tema	0		P	sg n
on	ole	0		V	b
  	ole	0		V	vad
enne	enne	0		D	
    	enne	0		K	
    	enne	0		S	sg n
ju	ju	0		D	
härral	härra	l		S	sg ad
2	2	0		N	?
katust	katt	st		S	sg el
      	katus	t		S	sg p
katnud	kat	nud		V	nud
      	kat=nu	d		S	pl n
      	kat=nud	0		A	
      	kat=nud	0		A	sg n
      	kat=nud	d		A	pl n
ja	ja	0		J	
kui	kui	0		D	
   	kui	0		J	
härra	härra	0		S	sg g
     	härra	0		S	sg n
nägi	näge	i		V	s
et	et	0		J	
halv	####				
oli	ole	i		V	s
mis	mis	0		P	pl n
   	mis	0		P	sg n
pärast	pära	st		S	sg el
      	pärane	t		A	sg p
      	pärast	0		D	
      	pärast	0		K	
tema	tema	0		P	sg g
    	tema	0		P	sg n
siis	siis	0		D	
    	siis	0		J	
veel	veel	0		D	
    	vesi	l		S	sg ad
laskis	lask	is		V	s
kata	kat	0		V	o
,	,			Z	
ja	ja	0		J	
katus	katt	s		S	sg in
     	katus	0		S	sg n
oli	ole	i		V	s
sügise	sügis	0		S	sg g
hea	hea	0		A	sg g
   	hea	0		A	sg n
   	hea	0		S	sg g
   	hea	0		S	sg n
ei	ei	0		D	
  	ei	0		V	neg
lase	lask	0		V	o
    	lase	0		S	sg n
vihma	vihm	0		S	adt
     	vihm	0		S	sg g
     	vihm	0		S	sg p
käpis	####				
läbi	läbi	0		D	
    	läbi	0		K	
    	läbi	0		V	o
.	.			Z	
ja	ja	0		J	
härra	härra	0		S	sg g
     	härra	0		S	sg n
ei	ei	0		D	
  	ei	0		V	neg
olevat	ole	vat		V	vat
      	olev	t		A	sg p
      	olev	t		S	sg p
7	7	0		N	?
nädalid	####				
mitte	mitte	0		D	
naklo	####				
lasnud	####				
tuua	too	a		V	da
mis	mis	0		P	pl n
   	mis	0		P	sg n
Andres	Andre	s		H	sg in
      	Andres	0		H	sg n
on	ole	0		V	b
  	ole	0		V	vad
pidanud	pida	nud		V	nud
       	pida=nu	d		S	pl n
       	pida=nud	0		A	
       	pida=nud	0		A	sg n
       	pida=nud	d		A	pl n
ootma	####				
ja	ja	0		J	
pealegi	pealegi	0		D	
on	ole	0		V	b
  	ole	0		V	vad
härra	härra	0		S	sg g
     	härra	0		S	sg n
selle	see	0		P	sg g
     	sell	e		S	pl p
aia	aed	0		S	sg g
eest	eest	0		D	
    	eest	0		K	
    	esi	st		S	sg el
mis	mis	0		P	pl n
   	mis	0		P	sg n
katus	katt	s		S	sg in
     	katus	0		S	sg n
tärminis	tärmin	s		S	sg in
ei	ei	0		D	
  	ei	0		V	neg
ole	ole	0		V	o
valmis	valm	s		S	sg in
      	valmi	s		V	s
      	valmis	0		A	
      	valmis	0		A	sg n
      	valmis	0		D	
      	valmis	s		A	sg in
saanud	saa	nud		V	nud
      	saa=nud	0		A	
      	saa=nud	0		A	sg n
      	saa=nud	d		A	pl n
      	saanu	d		S	pl n
Andres	Andre	s		H	sg in
      	Andres	0		H	sg n
trahvi	trahv	0		S	adt
      	trahv	0		S	sg g
      	trahvi	0		V	o
      	trahv	0		S	sg p
maksnud	maks	nud		V	nud
       	maks=nu	d		S	pl n
       	maks=nud	0		A	
       	maks=nud	0		A	sg n
       	maks=nud	d		A	pl n
härrale	härra	le		S	sg all
46	46	0		N	?
rubla	rubla	0		S	sg g
     	rubla	0		S	sg n
     	rubla	0		S	sg p
.	.			Z	
Andres	Andre	s		H	sg in
      	Andres	0		H	sg n
ütles	ütle	s		V	s
et	et	0		J	
on	ole	0		V	b
  	ole	0		V	vad
hea	hea	0		A	sg g
   	hea	0		A	sg n
   	hea	0		S	sg g
   	hea	0		S	sg n
olnud	ol=nud	0		A	
     	ol=nud	0		A	sg n
     	ol=nud	d		A	pl n
     	ole	nud		V	nud
     	olnu	d		S	pl n
.	.			Z	
kohtu	kohtu	0		V	o
     	kohus	0		S	sg g
poolest	pool	st		N	sg el
       	pool	st		S	sg el
       	poolene	t		A	sg p
       	poolest	0		K	
katuse	katus	0		S	sg g
üle	üle	0		D	
   	üle	0		K	
kaemise	kae=mine	0		S	sg g
pärast	pära	st		S	sg el
      	pärane	t		A	sg p
      	pärast	0		D	
      	pärast	0		K	
jääs	jää	s		S	sg in
poolele	pool	le		N	sg all
       	pool	le		S	sg all
.	.			Z	
30	30	0		N	?
aprillil	aprill	l		S	sg ad
ei	ei	0		D	
  	ei	0		V	neg
ole	ole	0		V	o
Andres	Andre	s		H	sg in
      	Andres	0		H	sg n
Kesselman	####				
kohtu	kohtu	0		V	o
     	kohus	0		S	sg g
manu	manu	0		D	
    	manu	0		K	
tulnud	tul=nud	0		A	
      	tul=nud	0		A	sg n
      	tul=nud	d		A	pl n
      	tule	nud		V	nud
      	tulnu	d		S	pl n
.	.			Z	
