haMart	####				
Timpka	####				
on	ole	0		V	b
  	ole	0		V	vad
kogukonna	kogukond	0		S	sg g
kohtu	kohtu	0		V	o
     	kohus	0		S	sg g
käest	käest	0		K	
     	käsi	st		S	sg el
oma	oma	0		A	sg g
   	oma	0		D	
   	oma	0		P	sg g
   	oma	0		S	sg g
   	oma	0		V	o
   	oma	0		A	sg n
   	oma	0		A	sg p
   	oma	0		P	sg n
   	oma	0		P	sg p
   	oma	0		S	sg n
   	oma	0		S	sg p
raha	raha	0		S	sg g
    	raha	0		S	sg n
    	raha	0		S	sg p
9	9	0		N	?
rbl	rbl	0		Y	?
kätte	kätte	0		K	
     	käsi	tte		S	adt
saanud	saa	nud		V	nud
      	saa=nud	0		A	
      	saa=nud	0		A	sg n
      	saa=nud	d		A	pl n
      	saanu	d		S	pl n
.	.			Z	
otsus	otsus	0		S	sg n
:	:			Z	
seda	see	da		P	sg p
üleskirjutada	####				
.	.			Z	
haMart	####				
Timpka	####				
xxx	####				
