Hendrik	Hendrik	0		H	sg n
Kaarmani	Kaarma	ni		H	sg ter
naine	naine	0		S	sg n
Anni	Ann	0		H	adt
    	Ann	0		H	sg g
    	Ann	0		H	sg p
    	and	0		S	sg g
    	Anni	0		H	sg g
    	Anni	0		H	sg n
tuli	tuli	0		S	sg n
    	tule	i		V	s
kohtu	kohtu	0		V	o
     	kohus	0		S	sg g
ette	ette	0		D	
    	ette	0		K	
    	esi	tte		S	adt
ja	ja	0		J	
kaebas	kaeba	s		V	s
et	et	0		J	
tema	tema	0		P	sg g
    	tema	0		P	sg n
on	ole	0		V	b
  	ole	0		V	vad
andnud	and	nud		V	nud
      	and=nu	d		S	pl n
      	and=nud	0		A	
      	and=nud	0		A	sg n
      	and=nud	d		A	pl n
kise	kise	0		S	sg n
Kristjanil	Kristjan	l		H	sg ad
vilja	vili	0		S	adt
     	vili	0		S	sg g
     	vili	0		S	sg p
7	7	0		N	?
rubla	rubla	0		S	sg g
     	rubla	0		S	sg n
     	rubla	0		S	sg p
raha	raha	0		S	sg g
    	raha	0		S	sg n
    	raha	0		S	sg p
1	1	0		N	?
vakk	vakk	0		S	sg n
kesvi	kesv	i		S	pl p
1	1	0		N	?
vakk	vakk	0		S	sg n
kaerad	kaer	d		S	pl n
1	1	0		N	?
/	/			Z	
6	6	0		N	?
suurmad	####				
2	2	0		N	?
/	/			Z	
3	3	0		N	?
jahu	jahu	0		S	sg g
    	jahu	0		V	o
    	jahu	0		S	sg n
    	jahu	0		S	sg p
2	2	0		N	?
aastaiga	aas_tai	ga		S	sg kom
        	aas_taig	0		S	adt
        	aas_taig	0		S	sg p
        	aas_taiga	0		S	sg g
        	aas_taiga	0		S	sg n
haigu	haik	0		S	sg g
tagasi	tagasi	0		D	
      	tagasi	0		K	
kui	kui	0		D	
   	kui	0		J	
andma	and	ma		V	ma
on	ole	0		V	b
  	ole	0		V	vad
hakanud	hakka	nud		V	nud
       	haka=nu	d		S	pl n
       	haka=nud	0		A	
       	haka=nud	0		A	sg n
       	haka=nud	d		A	pl n
ja	ja	0		J	
nüüd	nüüd	0		D	
tagasi	tagasi	0		D	
      	tagasi	0		K	
nõuab	nõud	b		V	b
Kristjan	Kristjan	0		H	sg n
on	ole	0		V	b
  	ole	0		V	vad
ära	ära	0		D	
   	ära	0		V	neg o
kulu	kulg	0		S	sg g
    	kulu	0		S	sg g
    	kulu	0		V	o
    	kulu	0		S	sg n
    	kulu	0		S	sg p
.	.			Z	
Kristjani	Kristjan	0		H	sg g
naine	naine	0		S	sg n
Leena	Lee	na		H	sg es
     	Leena	0		H	sg g
     	Leena	0		H	sg n
Kokman	####				
ütles	ütle	s		V	s
3	3	0		N	?
rubla	rubla	0		S	sg g
     	rubla	0		S	sg n
     	rubla	0		S	sg p
raha	raha	0		S	sg g
    	raha	0		S	sg n
    	raha	0		S	sg p
õlema	####				
võtnud	võt	nud		V	nud
      	võt=nu	d		S	pl n
      	võt=nud	0		A	
      	võt=nud	0		A	sg n
      	võt=nud	d		A	pl n
enam	enam	0		C	sg n
    	enam	0		D	
ei	ei	0		D	
  	ei	0		V	neg
tea	tead	0		V	o
mina	mina	0		P	sg n
    	mina	0		S	sg g
    	mina	0		S	sg n
    	mina	0		S	sg p
ja	ja	0		J	
viljast	vili	st		S	sg el
ei	ei	0		D	
  	ei	0		V	neg
tea	tead	0		V	o
mina	mina	0		P	sg n
    	mina	0		S	sg g
    	mina	0		S	sg n
    	mina	0		S	sg p
midagi	miski	dagi		P	sg p
.	.			Z	
kohus	kohu	s		V	s
     	kohus	0		S	sg n
mõistis	mõist	is		V	s
et	et	0		J	
Leena	Lee	na		H	sg es
     	Leena	0		H	sg g
     	Leena	0		H	sg n
Kokman	####				
peab	pida	b		V	b
tagasi	tagasi	0		D	
      	tagasi	0		K	
maksma	maks	ma		V	ma
selget	selge	t		A	sg p
raha	raha	0		S	sg g
    	raha	0		S	sg n
    	raha	0		S	sg p
mis	mis	0		P	pl n
   	mis	0		P	sg n
võetud	võe=tu	d		S	pl n
      	võetud	0		A	
      	võetud	0		A	sg n
      	võetud	d		A	pl n
      	võt	tud		V	tud
on	ole	0		V	b
  	ole	0		V	vad
3	3	0		N	?
rubla	rubla	0		S	sg g
     	rubla	0		S	sg n
     	rubla	0		S	sg p
2	2	0		N	?
/	/			Z	
3	3	0		N	?
jahu	jahu	0		S	sg g
    	jahu	0		V	o
    	jahu	0		S	sg n
    	jahu	0		S	sg p
eest	eest	0		D	
    	eest	0		K	
    	esi	st		S	sg el
2	2	0		N	?
rubla	rubla	0		S	sg g
     	rubla	0		S	sg n
     	rubla	0		S	sg p
1	1	0		N	?
vakk	vakk	0		S	sg n
kaerad	kaer	d		S	pl n
1	1	0		N	?
rubla	rubla	0		S	sg g
     	rubla	0		S	sg n
     	rubla	0		S	sg p
Summa	summ	0		S	adt
     	summ	0		S	sg g
     	summ	0		S	sg p
     	summa	0		S	sg g
     	summa	0		S	sg n
6	6	0		N	?
rubla	rubla	0		S	sg g
     	rubla	0		S	sg n
     	rubla	0		S	sg p
see	see	0		P	sg n
raha	raha	0		S	sg g
    	raha	0		S	sg n
    	raha	0		S	sg p
peab	pida	b		V	b
Leena	Lee	na		H	sg es
     	Leena	0		H	sg g
     	Leena	0		H	sg n
Kokman	####				
emata	ema	ta		S	sg ab
ära	ära	0		D	
   	ära	0		V	neg o
maksma	maks	ma		V	ma
Anni	Ann	0		H	adt
    	Ann	0		H	sg g
    	Ann	0		H	sg p
    	and	0		S	sg g
    	Anni	0		H	sg g
    	Anni	0		H	sg n
kätte	kätte	0		K	
     	käsi	tte		S	adt
.	.			Z	
pea	pea	0		D	
   	pea	0		S	sg g
   	pida	0		V	o
   	pea	0		S	sg n
kohtumees	kohtu_mees	0		S	sg n
Paap	####				
Kiudorv	kiud_orv	0		S	sg n
kohtu	kohtu	0		V	o
     	kohus	0		S	sg g
mees	mees	0		S	sg n
    	mesi	s		S	sg in
Jaan	Jaan	0		H	sg n
    	jaan	0		S	sg n
    	jaan	0		Y	?
Holsting	####				
kohtu	kohtu	0		V	o
     	kohus	0		S	sg g
mees	mees	0		S	sg n
    	mesi	s		S	sg in
Hendrik	Hendrik	0		H	sg n
tosing	####				
