Palo	Palo	0		H	sg g
    	Palo	0		H	sg n
valla	vald	0		S	sg g
     	valla	0		D	
perimaa	####				
pidaja	pidaja	0		S	sg g
      	pidaja	0		S	sg n
peremehe	pere_mees	0		S	sg g
oleva	olev	0		A	sg g
     	olev	0		S	sg g
nii	nii	0		D	
kui	kui	0		D	
   	kui	0		J	
all	all	0		D	
   	all	0		K	
pool	pool	0		K	
    	pool	0		N	sg n
    	pool	0		S	sg n
nimetud	nimetu	d		A	pl n
ning	ning	0		J	
üksikult	üksik	lt		A	sg abl
        	üksikult	0		D	
üles	üles	0		D	
kirjuttud	####				
oma	oma	0		A	sg g
   	oma	0		D	
   	oma	0		P	sg g
   	oma	0		S	sg g
   	oma	0		V	o
   	oma	0		A	sg n
   	oma	0		A	sg p
   	oma	0		P	sg n
   	oma	0		P	sg p
   	oma	0		S	sg n
   	oma	0		S	sg p
kokku	kokku	0		D	
     	kogu	0		S	adt
tulnud	tul=nud	0		A	
      	tul=nud	0		A	sg n
      	tul=nud	d		A	pl n
      	tule	nud		V	nud
      	tulnu	d		S	pl n
ning	ning	0		J	
tegivad	####				
ene	####				
vahel	vahe	l		S	sg ad
     	vahel	0		D	
     	vahel	0		K	
all	all	0		D	
   	all	0		K	
seisva	seisev	0		A	sg g
vastastiku	vastas_tikk	0		S	sg g
tule	tuli	0		S	sg g
    	tule	0		V	o
kahju	kahi	0		S	adt
     	kahi	0		S	sg g
     	kahi	0		S	sg p
     	kahju	0		S	sg g
     	kahju	0		S	sg n
     	kahju	0		S	sg p
juhtumiste	juhtumine	te		S	pl g
korral	kord	l		S	sg ad
      	korral	0		D	
      	korral	0		K	
üks	üks	0		N	sg n
   	üks	0		P	sg n
teisele	teine	le		O	sg all
       	teine	le		P	sg all
abiandmise	abi_andmine	0		S	sg g
lepingu	leping	0		S	sg g
all	all	0		D	
   	all	0		K	
seisvates	seisev	tes		A	pl in
punktites	punk_titt	s		S	sg in
.	.			Z	
1.	1.	0		O	?
peaks	pea	ks		S	sg tr
     	pida	ks		V	ks
kellegi	keegi	gi		P	sg g
meiatele	####				
al	####				
nimetud	nimetu	d		A	pl n
peremeestel	pere_mees	tel		S	pl ad
tare	tare	0		S	sg g
    	tare	0		S	sg n
mis	mis	0		P	pl n
   	mis	0		P	sg n
nema	####				
üle	üle	0		D	
   	üle	0		K	
nimetaanud	####				
oma	oma	0		A	sg g
   	oma	0		D	
   	oma	0		P	sg g
   	oma	0		S	sg g
   	oma	0		V	o
   	oma	0		A	sg n
   	oma	0		A	sg p
   	oma	0		P	sg n
   	oma	0		P	sg p
   	oma	0		S	sg n
   	oma	0		S	sg p
oma	oma	0		A	sg g
   	oma	0		D	
   	oma	0		P	sg g
   	oma	0		S	sg g
   	oma	0		V	o
   	oma	0		A	sg n
   	oma	0		A	sg p
   	oma	0		P	sg n
   	oma	0		P	sg p
   	oma	0		S	sg n
   	oma	0		S	sg p
tahtmise	tahtmine	0		S	sg g
järel	järel	0		D	
     	järel	0		K	
kas	kas	0		D	
rehe	rehi	0		S	sg g
ehk	ehk	0		D	
   	ehk	0		J	
elu	elu	0		S	sg g
   	elu	0		S	sg n
   	elu	0		S	sg p
tare	tare	0		S	sg g
    	tare	0		S	sg n
ehk	ehk	0		D	
   	ehk	0		J	
jälle	jälle	0		D	
mõlema	mõlema	0		P	sg g
äära	####				
peasi	####				
põlema	põle	ma		V	ma
siis	siis	0		D	
    	siis	0		J	
maksava	maks_ava	0		S	sg g
       	maks_ava	0		S	sg n
       	maks_ava	0		S	sg p
iga	iga	0		P	sg g
   	iga	0		P	sg n
   	iga	0		P	sg p
   	iga	0		S	sg n
   	iga	0		S	sg p
üks	üks	0		N	sg n
   	üks	0		P	sg n
peremees	pere_mees	0		S	sg n
kahju	kahi	0		S	adt
     	kahi	0		S	sg g
     	kahi	0		S	sg p
     	kahju	0		S	sg g
     	kahju	0		S	sg n
     	kahju	0		S	sg p
saajale	saaja	le		S	sg all
kellel	kes	l		P	pl ad
      	kes	l		P	sg ad
üles	üles	0		D	
võetud	võe=tu	d		S	pl n
      	võetud	0		A	
      	võetud	0		A	sg n
      	võetud	d		A	pl n
      	võt	tud		V	tud
tare	tare	0		S	sg g
    	tare	0		S	sg n
äära	####				
põlep	####				
5	5	0		N	?
rbl	rbl	0		Y	?
.	.			Z	
raha	raha	0		S	sg g
    	raha	0		S	sg n
    	raha	0		S	sg p
,	,			Z	
ning	ning	0		J	
veab	veda	b		V	b
50	50	0		N	?
tuli	tuli	0		S	sg n
    	tule	i		V	s
palke	palk	e		S	pl p
juure	juur	0		S	sg g
mis	mis	0		P	pl n
   	mis	0		P	sg n
mitte	mitte	0		D	
kahju	kahi	0		S	adt
     	kahi	0		S	sg g
     	kahi	0		S	sg p
     	kahju	0		S	sg g
     	kahju	0		S	sg n
     	kahju	0		S	sg p
saamise	saamine	0		S	sg g
kohast	koht	st		S	sg el
      	koha	st		S	sg el
      	kohane	t		A	sg p
kahju	kahi	0		S	adt
     	kahi	0		S	sg g
     	kahi	0		S	sg p
     	kahju	0		S	sg g
     	kahju	0		S	sg n
     	kahju	0		S	sg p
saada	saa	da		V	da
     	saat	0		V	o
     	saa	da		V	ta
üle	üle	0		D	
   	üle	0		K	
20	20	0		N	?
versta	verst	0		S	adt
      	verst	0		S	sg g
      	verst	0		S	sg p
kauguselt	kaugune	lt		A	sg abl
         	kaugus	lt		S	sg abl
         	kauguse=lt	0		D	
osta	ost	0		V	o
    	ost	a		V	da
ega	ega	0		D	
   	ega	0		J	
vedada	veda	da		V	da
sundida	sundi	da		V	da
ei	ei	0		D	
  	ei	0		V	neg
või	või	0		S	sg g
   	või	0		V	o
   	või	0		D	
   	või	0		J	
   	või	0		S	sg n
,	,			Z	
niisama	nii_sama	0		D	
vnab	####				
ega	ega	0		D	
   	ega	0		J	
üks	üks	0		N	sg n
   	üks	0		P	sg n
15	15	0		N	?
punda	####				
one	####				
mis	mis	0		P	pl n
   	mis	0		P	sg n
tema	tema	0		P	sg g
    	tema	0		P	sg n
isi	####				
manud	####				
veab	veda	b		V	b
.	.			Z	
2.	2.	0		O	?
saab	saa	b		V	b
see	see	0		P	sg n
ülevel	####				
nimetud	nimetu	d		A	pl n
raha	raha	0		S	sg g
    	raha	0		S	sg n
    	raha	0		S	sg p
5	5	0		N	?
rbl	rbl	0		Y	?
iga	iga	0		P	sg g
   	iga	0		P	sg n
   	iga	0		P	sg p
   	iga	0		S	sg n
   	iga	0		S	sg p
lepingu	leping	0		S	sg g
osalisest	osaline	st		A	sg el
ühe	üks	0		N	sg g
   	üks	0		P	sg g
   	ühe	0		S	sg n
maksu	maks	0		S	adt
     	maks	0		S	sg g
     	maks	u		S	pl p
     	maks	0		S	sg p
jagu	jagu	0		S	sg n
    	jagu	0		V	o
    	jagu	0		S	sg p
,	,			Z	
kui	kui	0		D	
   	kui	0		J	
mitte	mitte	0		D	
enne	enne	0		D	
    	enne	0		K	
    	enne	0		S	sg n
Januari	####				
kuud	kuu	d		S	pl n
    	kuu	d		S	sg p
1887	1887	0		N	?
aastal	aasta	l		S	sg ad
tule	tuli	0		S	sg g
    	tule	0		V	o
õnetust	####				
ei	ei	0		D	
  	ei	0		V	neg
peasi	####				
olema	ole	ma		V	ma
Jaanuari	jaanuar	0		S	adt
        	jaanuar	0		S	sg g
        	jaanuar	0		S	sg p
kuul	kuu	l		S	sg ad
    	kuul	0		S	sg n
1887	1887	0		N	?
aastal	aasta	l		S	sg ad
valla	vald	0		S	sg g
     	valla	0		D	
vanema	vanem	0		C	sg g
      	vanem	0		S	sg g
läbi	läbi	0		D	
    	läbi	0		K	
    	läbi	0		V	o
sisse	siss	e		S	pl p
     	sisse	0		D	
     	sisse	0		K	
nõutud	nõu=tu	d		S	pl n
      	nõu=tud	0		A	
      	nõu=tud	0		A	sg n
      	nõu=tud	d		A	pl n
      	nõud	tud		V	tud
      	nõutu	d		A	pl n
ning	ning	0		J	
riigi	riik	0		S	sg g
valitsuse	valitsus	0		S	sg g
poolt	pool	t		N	sg p
     	pool	t		S	sg p
     	poolt	0		D	
     	poolt	0		K	
aksutatud	####				
hoiu	hoid	0		S	sg g
kassasse	kassa	sse		S	sg ill
Võru	Võru	0		H	sg g
    	Võru	0		H	sg n
    	võru	0		S	sg g
    	võru	0		S	sg n
    	võru	0		S	sg p
rentereise	####				
sisse	siss	e		S	pl p
     	sisse	0		D	
     	sisse	0		K	
maksetud	makse=tu	d		A	pl n
kus	kus	0		D	
see	see	0		P	sg n
raha	raha	0		S	sg g
    	raha	0		S	sg n
    	raha	0		S	sg p
protsendi	protsent	0		S	sg g
kannab	kand	b		V	b
seeni	seen	i		S	pl p
kui	kui	0		D	
   	kui	0		J	
üks	üks	0		N	sg n
   	üks	0		P	sg n
tule	tuli	0		S	sg g
    	tule	0		V	o
õnnetud	õnnetu	d		A	pl n
peaks	pea	ks		S	sg tr
     	pida	ks		V	ks
juhtuma	juhtu	ma		V	ma
,	,			Z	
kust	kusi	t		S	sg p
    	kust	0		D	
valla	vald	0		S	sg g
     	valla	0		D	
vanem	vanem	0		C	sg n
     	vanem	0		S	sg n
see	see	0		P	sg n
raha	raha	0		S	sg g
    	raha	0		S	sg n
    	raha	0		S	sg p
välja	välja	0		D	
     	välja	0		V	o
     	väli	0		S	adt
     	väli	0		S	sg g
     	väli	0		S	sg p
toob	too	b		V	b
.	.			Z	
3.	3.	0		O	?
een	####				
juure	juur	0		S	sg g
kasuda	####				
intressi	intress	0		S	adt
        	intress	0		S	sg g
        	intress	0		S	sg p
ei	ei	0		D	
  	ei	0		V	neg
sa	sina	0		P	sg n
mitte	mitte	0		D	
kahju	kahi	0		S	adt
     	kahi	0		S	sg g
     	kahi	0		S	sg p
     	kahju	0		S	sg g
     	kahju	0		S	sg n
     	kahju	0		S	sg p
saada	saa	da		V	da
     	saat	0		V	o
     	saa	da		V	ta
heaks	hea	ks		A	sg tr
     	hea	ks		S	sg tr
     	heaks	0		D	
     	heaks	0		K	
arvatud	arva	tud		V	tud
       	arva=tu	d		S	pl n
       	arva=tud	0		A	
       	arva=tud	0		A	sg n
       	arva=tud	d		A	pl n
,	,			Z	
ent	ent	0		J	
kui	kui	0		D	
   	kui	0		J	
nad	tema	d		P	pl n
nii	nii	0		D	
suures	suur	s		A	sg in
peasi	####				
kasvama	kasva	ma		V	ma
et	et	0		J	
üks	üks	0		N	sg n
   	üks	0		P	sg n
maksu	maks	0		S	adt
     	maks	0		S	sg g
     	maks	u		S	pl p
     	maks	0		S	sg p
summa	summ	0		S	adt
     	summ	0		S	sg g
     	summ	0		S	sg p
     	summa	0		S	sg g
     	summa	0		S	sg n
suurus	suurus	0		S	sg n
välja	välja	0		D	
     	välja	0		V	o
     	väli	0		S	adt
     	väli	0		S	sg g
     	väli	0		S	sg p
tuleb	tule	b		V	b
,	,			Z	
siis	siis	0		D	
    	siis	0		J	
jääb	jää	b		V	b
see	see	0		P	sg n
nimetud	nimetu	d		A	pl n
1	1	0		N	?
korra	kord	0		S	sg g
ettemaksmine	ette_maksmine	0		S	sg n
maha	maha	0		D	
.	.			Z	
4.	4.	0		O	?
Palgi	palk	0		S	sg g
vedamine	vedamine	0		S	sg n
peab	pida	b		V	b
nii	nii	0		D	
ruttu	rutt	0		S	adt
     	rutt	0		S	sg p
     	ruttu	0		D	
kui	kui	0		D	
   	kui	0		J	
kahju	kahi	0		S	adt
     	kahi	0		S	sg g
     	kahi	0		S	sg p
     	kahju	0		S	sg g
     	kahju	0		S	sg n
     	kahju	0		S	sg p
saada	saa	da		V	da
     	saat	0		V	o
     	saa	da		V	ta
metsa	mets	0		S	adt
     	mets	0		S	sg g
     	mets	0		S	sg p
on	ole	0		V	b
  	ole	0		V	vad
ostnud	ost	nud		V	nud
      	ost=nu	d		S	pl n
      	ost=nud	0		A	
      	ost=nud	0		A	sg n
      	ost=nud	d		A	pl n
7	7	0		N	?
päeva	päev	0		S	adt
     	päev	0		S	sg g
     	päev	0		S	sg p
sees	sees	0		D	
    	sees	0		K	
käsu	käsk	0		S	sg g
andmise	andmine	0		S	sg g
päevast	päev	st		S	sg el
       	päevane	t		A	sg p
arvatud	arva	tud		V	tud
       	arva=tu	d		S	pl n
       	arva=tud	0		A	
       	arva=tud	0		A	sg n
       	arva=tud	d		A	pl n
valja	####				
veetud	vee=tu	d		S	pl n
      	vee=tud	0		A	
      	vee=tud	0		A	sg n
      	vee=tud	d		A	pl n
      	veetu	d		A	pl n
      	veda	tud		V	tud
olema	ole	ma		V	ma
,	,			Z	
vastusel	vastus	l		S	sg ad
korral	kord	l		S	sg ad
      	korral	0		D	
      	korral	0		K	
saab	saa	b		V	b
kohus	kohu	s		V	s
     	kohus	0		S	sg n
raha	raha	0		S	sg g
    	raha	0		S	sg n
    	raha	0		S	sg p
eest	eest	0		D	
    	eest	0		K	
    	esi	st		S	sg el
vedadalaskma	####				
.	.			Z	
5.	5.	0		O	?
One	####				
mida	mis	da		P	pl p
    	mis	da		P	sg p
aga	aga	0		J	
mitte	mitte	0		D	
iga	iga	0		P	sg g
   	iga	0		P	sg n
   	iga	0		P	sg p
   	iga	0		S	sg n
   	iga	0		S	sg p
kord	kord	0		D	
    	kord	0		S	sg n
talunikal	####				
ei	ei	0		D	
  	ei	0		V	neg
ole	ole	0		V	o
peab	pida	b		V	b
esimise	####				
rehe	rehi	0		S	sg g
peksu	peks	0		S	adt
     	peks	0		S	sg g
     	peks	0		S	sg p
ajal	aeg	l		S	sg ad
    	ajal	0		K	
Augusti	august	0		S	sg g
       	August	0		H	sg g
kuul	kuu	l		S	sg ad
    	kuul	0		S	sg n
kui	kui	0		D	
   	kui	0		J	
kahju	kahi	0		S	adt
     	kahi	0		S	sg g
     	kahi	0		S	sg p
     	kahju	0		S	sg g
     	kahju	0		S	sg n
     	kahju	0		S	sg p
vitsusel	####				
ajal	aeg	l		S	sg ad
    	ajal	0		K	
on	ole	0		V	b
  	ole	0		V	vad
juhtunud	juhtu	nud		V	nud
        	juhtunu	d		S	pl n
        	juhtunud	0		A	
        	juhtunud	0		A	sg n
        	juhtunud	d		A	pl n
ara	arg	0		A	sg g
maksetama	####				
muul	muu	l		P	sg ad
    	muu	l		S	sg ad
    	muul	0		S	sg n
ajal	aeg	l		S	sg ad
    	ajal	0		K	
aga	aga	0		J	
2	2	0		N	?
nädala	nädal	0		S	sg g
aja	aeg	0		S	sg g
   	aja	0		V	o
jooksul	jooks	l		S	sg ad
       	jooksul	0		K	
käsu	käsk	0		S	sg g
andmise	andmine	0		S	sg g
päevast	päev	st		S	sg el
       	päevane	t		A	sg p
.	.			Z	
een	####				
lepingu	leping	0		S	sg g
osalise	osaline	0		A	sg g
omad	oma	d		A	pl n
    	oma	d		P	pl n
    	oma	d		S	pl n
    	oma	d		V	d
nii	nii	0		D	
kui	kui	0		D	
   	kui	0		J	
all	all	0		D	
   	all	0		K	
pool	pool	0		K	
    	pool	0		N	sg n
    	pool	0		S	sg n
seisab	seis	b		V	b
,	,			Z	
ning	ning	0		J	
võtavad	võt	vad		V	vad
elu	elu	0		S	sg g
   	elu	0		S	sg n
   	elu	0		S	sg p
ehk	ehk	0		D	
   	ehk	0		J	
rehe	rehi	0		S	sg g
tare	tare	0		S	sg g
    	tare	0		S	sg n
kahju	kahi	0		S	adt
     	kahi	0		S	sg g
     	kahi	0		S	sg p
     	kahju	0		S	sg g
     	kahju	0		S	sg n
     	kahju	0		S	sg p
abi	abi	0		S	sg g
   	abi	0		S	sg n
   	abi	0		S	sg p
andmise	andmine	0		S	sg g
alla	alla	0		D	
    	alla	0		K	
nagu	nagu	0		D	
    	nagu	0		J	
siin	siin	0		D	
    	siin	0		S	sg n
nimetud	nimetu	d		A	pl n
on	ole	0		V	b
  	ole	0		V	vad
.	.			Z	
1.	1.	0		O	?
Mihkel	Mihkel	0		H	sg n
      	mihkel	0		A	sg n
      	mihkel	0		S	sg n
Hamkmann	####				
rehe	rehi	0		S	sg g
alooned	####				
tarega	tare	ga		S	sg kom
2.	2.	0		O	?
Kusta	Kusta	0		H	sg g
     	Kusta	0		H	sg n
     	kuse	ta		V	da
     	kuse	ta		V	ta
Via	Via			H	?
rehi	rehi	0		S	sg n
ja	ja	0		J	
lu	####				
tare	tare	0		S	sg g
    	tare	0		S	sg n
mõlema	mõlema	0		P	sg g
Jakob	Jakob	0		H	sg n
Via	Via			H	?
Jaan	Jaan	0		H	sg n
    	jaan	0		S	sg n
    	jaan	0		Y	?
Via	Via			H	?
3.	3.	0		O	?
Jakob	Jakob	0		H	sg n
Via	Via			H	?
rehi	rehi	0		S	sg n
üksinda	üksinda	0		D	
Ado	Ado	0		H	sg g
   	Ado	0		H	sg n
Via	Via			H	?
4	4	0		N	?
Jakob	Jakob	0		H	sg n
Viiard	####				
5	5	0		N	?
Frits	frits	0		S	sg n
Viiard	####				
6	6	0		N	?
Paap	####				
Verevson	####				
rehe	rehi	0		S	sg g
alooned	####				
tarega	tare	ga		S	sg kom
7.	7.	0		O	?
Jakob	Jakob	0		H	sg n
Viiand	####				
8	8	0		N	?
Jaan	Jaan	0		H	sg n
    	jaan	0		S	sg n
    	jaan	0		Y	?
Parrind	####				
rehe	rehi	0		S	sg g
alune	alune	0		A	sg n
     	alune	0		S	sg n
tarega	tare	ga		S	sg kom
9	9	0		N	?
Jaan	Jaan	0		H	sg n
    	jaan	0		S	sg n
    	jaan	0		Y	?
Järv	järv	0		S	sg n
rehe	rehi	0		S	sg g
alune	alune	0		A	sg n
     	alune	0		S	sg n
tarega	tare	ga		S	sg kom
10	10	0		N	?
Frits	frits	0		S	sg n
Lepmann	####				
11.	11.	0		O	?
Mihkel	Mihkel	0		H	sg n
      	mihkel	0		A	sg n
      	mihkel	0		S	sg n
kõik	kõik	0		P	pl n
    	kõik	0		S	sg n
    	kõik	0		P	sg n
rehe	rehi	0		S	sg g
alune	alune	0		A	sg n
     	alune	0		S	sg n
tarega	tare	ga		S	sg kom
12.	12.	0		O	?
Jaan	Jaan	0		H	sg n
    	jaan	0		S	sg n
    	jaan	0		Y	?
Meinson	####				
rehe	rehi	0		S	sg g
alune	alune	0		A	sg n
     	alune	0		S	sg n
tarega	tare	ga		S	sg kom
Peeter	Peeter	0		H	sg n
Meinson	####				
13	13	0		N	?
Kusta	Kusta	0		H	sg g
     	Kusta	0		H	sg n
     	kuse	ta		V	da
     	kuse	ta		V	ta
Silvask	####				
rehe	rehi	0		S	sg g
alune	alune	0		A	sg n
     	alune	0		S	sg n
tarega	tare	ga		S	sg kom
Karl	Karl	0		H	sg n
Viiand	####				
14	14	0		N	?
Andres	Andre	s		H	sg in
      	Andres	0		H	sg n
Via	Via			H	?
15	15	0		N	?
Vidrik	####				
Viiab	####				
rehe	rehi	0		S	sg g
alune	alune	0		A	sg n
     	alune	0		S	sg n
tarega	tare	ga		S	sg kom
16	16	0		N	?
Karl	Karl	0		H	sg n
Meinson	####				
rehe	rehi	0		S	sg g
alune	alune	0		A	sg n
     	alune	0		S	sg n
tarega	tare	ga		S	sg kom
Villem	Villem	0		H	sg n
Asuküla	asu_küla	0		S	sg g
       	asu_küla	0		S	sg n
       	asu_küla	0		S	sg p
17	17	0		N	?
Jaan	Jaan	0		H	sg n
    	jaan	0		S	sg n
    	jaan	0		Y	?
Silvask	####				
rehe	rehi	0		S	sg g
alune	alune	0		A	sg n
     	alune	0		S	sg n
tarega	tare	ga		S	sg kom
Juhan	Juhan	0		H	sg n
Vasser	####				
18	18	0		N	?
Peep	Peep	0		H	sg n
Meinberg	####				
rehe	rehi	0		S	sg g
alune	alune	0		A	sg n
     	alune	0		S	sg n
tarega	tare	ga		S	sg kom
19	19	0		N	?
Otto	Otto	0		H	sg g
    	Otto	0		H	sg n
metsar	####				
rehe	rehi	0		S	sg g
alune	alune	0		A	sg n
     	alune	0		S	sg n
tarega	tare	ga		S	sg kom
20	20	0		N	?
Joosep	Joosep	0		H	sg n
Holdson	####				
""""	""""			Z	
""""	""""			Z	
""""	""""			Z	
21	21	0		N	?
Joosep	Joosep	0		H	sg n
Sõrg	sõrg	0		S	sg n
lu	####				
tare	tare	0		S	sg g
    	tare	0		S	sg n
22	22	0		N	?
Peeter	Peeter	0		H	sg n
Niiklaus	####				
rehe	rehi	0		S	sg g
alune	alune	0		A	sg n
     	alune	0		S	sg n
tarega	tare	ga		S	sg kom
.	.			Z	
23	23	0		N	?
Joosep	Joosep	0		H	sg n
Niiklaus	####				
""""	""""			Z	
""""	""""			Z	
""""	""""			Z	
24	24	0		N	?
Jaan	Jaan	0		H	sg n
    	jaan	0		S	sg n
    	jaan	0		Y	?
metsar	####				
""""	""""			Z	
""""	""""			Z	
""""	""""			Z	
25	25	0		N	?
Villem	Villem	0		H	sg n
Via	Via			H	?
""""	""""			Z	
""""	""""			Z	
""""	""""			Z	
26	26	0		N	?
Hendrek	####				
Puntson	####				
ei	ei	0		D	
  	ei	0		V	neg
ei	ei	0		D	
  	ei	0		V	neg
""""	""""			Z	
27	27	0		N	?
Joosep	Joosep	0		H	sg n
Puntson	####				
rehi	rehi	0		S	sg n
üksi	üksi	0		D	
28	28	0		N	?
Jaan	Jaan	0		H	sg n
    	jaan	0		S	sg n
    	jaan	0		Y	?
Punoson	####				
rehe	rehi	0		S	sg g
alune	alune	0		A	sg n
     	alune	0		S	sg n
tarega	tare	ga		S	sg kom
Peeter	Peeter	0		H	sg n
Punoson	####				
29.	29.	0		O	?
Peeter	Peeter	0		H	sg n
Sõrg	sõrg	0		S	sg n
rehe	rehi	0		S	sg g
alune	alune	0		A	sg n
     	alune	0		S	sg n
tarega	tare	ga		S	sg kom
30	30	0		N	?
Kusta	Kusta	0		H	sg g
     	Kusta	0		H	sg n
     	kuse	ta		V	da
     	kuse	ta		V	ta
kõik	kõik	0		P	pl n
    	kõik	0		S	sg n
    	kõik	0		P	sg n
""""	""""			Z	
""""	""""			Z	
31	31	0		N	?
Kusta	Kusta	0		H	sg g
     	Kusta	0		H	sg n
     	kuse	ta		V	da
     	kuse	ta		V	ta
varand	####				
rehe	rehi	0		S	sg g
tare	tare	0		S	sg g
    	tare	0		S	sg n
talusega	####				
seda	see	da		P	sg p
lepingud	leping	d		S	pl n
omad	oma	d		A	pl n
    	oma	d		P	pl n
    	oma	d		S	pl n
    	oma	d		V	d
kõik	kõik	0		P	pl n
    	kõik	0		S	sg n
    	kõik	0		P	sg n
omal	oma	l		A	sg ad
    	oma	l		P	sg ad
    	oma	l		S	sg ad
seal	seal	0		D	
    	siga	l		A	sg ad
    	siga	l		S	sg ad
tahtmise	tahtmine	0		S	sg g
kokku	kokku	0		D	
     	kogu	0		S	adt
leppimise	leppimine	0		S	sg g
läbi	läbi	0		D	
    	läbi	0		K	
    	läbi	0		V	o
konnelnud	####				
ning	ning	0		J	
kinnitavad	kinnita	vad		V	vad
          	kinnitav	d		A	pl n
oma	oma	0		A	sg g
   	oma	0		D	
   	oma	0		P	sg g
   	oma	0		S	sg g
   	oma	0		V	o
   	oma	0		A	sg n
   	oma	0		A	sg p
   	oma	0		P	sg n
   	oma	0		P	sg p
   	oma	0		S	sg n
   	oma	0		S	sg p
käega	käsi	ga		S	sg kom
alla	alla	0		D	
    	alla	0		K	
kirjutusega	kirjutus	ga		S	sg kom
ehk	ehk	0		D	
   	ehk	0		J	
keda	kes	da		P	pl p
    	kes	da		P	sg p
isi	####				
ei	ei	0		D	
  	ei	0		V	neg
kirjuta	kirju	ta		A	sg ab
       	kirjuta	0		V	o
ei	ei	0		D	
  	ei	0		V	neg
mõista	mõist	0		V	o
      	mõist	a		V	da
oma	oma	0		A	sg g
   	oma	0		D	
   	oma	0		P	sg g
   	oma	0		S	sg g
   	oma	0		V	o
   	oma	0		A	sg n
   	oma	0		A	sg p
   	oma	0		P	sg n
   	oma	0		P	sg p
   	oma	0		S	sg n
   	oma	0		S	sg p
kolme	kolm	0		N	adt
     	kolm	0		N	sg g
     	kolm	0		N	sg p
risti	rist	0		S	adt
     	rist	0		S	sg g
     	rist	0		S	sg p
     	risti	0		D	
     	risti	0		V	o
     	risti	0		S	sg g
     	risti	0		S	sg n
alla	alla	0		D	
    	alla	0		K	
tõmbamisega	tõmbamine	ga		S	sg kom
.	.			Z	
Jaan	Jaan	0		H	sg n
    	jaan	0		S	sg n
    	jaan	0		Y	?
Via	Via			H	?
[	[			Z	
allkiri	all_kiri	0		S	sg n
]	]			Z	
,	,			Z	
Gustav	Gustav	0		H	sg n
Via	Via			H	?
[	[			Z	
allkiri	all_kiri	0		S	sg n
]	]			Z	
,	,			Z	
Jaan	Jaan	0		H	sg n
    	jaan	0		S	sg n
    	jaan	0		Y	?
Paring	####				
XXX	XXX	0		O	?
   	XXX	0		Y	?
,	,			Z	
Jaan	Jaan	0		H	sg n
    	jaan	0		S	sg n
    	jaan	0		Y	?
Järv	järv	0		S	sg n
[	[			Z	
allkiri	all_kiri	0		S	sg n
]	]			Z	
;	;			Z	
Mihkli	Mihkel	0		H	sg g
      	Mihkli	0		H	sg g
      	mihkel	0		A	sg g
      	mihkel	0		S	sg g
      	Mihkli	0		H	sg n
kisk	kisk	0		S	sg n
XXX	XXX	0		O	?
   	XXX	0		Y	?
,	,			Z	
Vidruk	####				
Viiab	####				
XXX	XXX	0		O	?
   	XXX	0		Y	?
,	,			Z	
Karl	Karl	0		H	sg n
Meinson	####				
XXX	XXX	0		O	?
   	XXX	0		Y	?
,	,			Z	
Jaan	Jaan	0		H	sg n
    	jaan	0		S	sg n
    	jaan	0		Y	?
Silvask	####				
[	[			Z	
allkiri	all_kiri	0		S	sg n
]	]			Z	
,	,			Z	
Otto	Otto	0		H	sg g
    	Otto	0		H	sg n
metsar	####				
XXX	XXX	0		O	?
   	XXX	0		Y	?
,	,			Z	
Joosep	Joosep	0		H	sg n
Holdson	####				
XXX	XXX	0		O	?
   	XXX	0		Y	?
,	,			Z	
Peeter	Peeter	0		H	sg n
Sõrg	sõrg	0		S	sg n
[	[			Z	
allkiri	all_kiri	0		S	sg n
]	]			Z	
(	(			Z	
Joosep	Joosep	0		H	sg n
Sõrg	sõrg	0		S	sg n
eest	eest	0		D	
    	eest	0		K	
    	esi	st		S	sg el
)	)			Z	
,	,			Z	
Peeter	Peeter	0		H	sg n
Sõrg	sõrg	0		S	sg n
XXX	XXX	0		O	?
   	XXX	0		Y	?
,	,			Z	
Joosep	Joosep	0		H	sg n
Niiklaus	####				
[	[			Z	
allkiri	all_kiri	0		S	sg n
]	]			Z	
,	,			Z	
Jaan	Jaan	0		H	sg n
    	jaan	0		S	sg n
    	jaan	0		Y	?
metsar	####				
[	[			Z	
allkiri	all_kiri	0		S	sg n
]	]			Z	
,	,			Z	
Villem	Villem	0		H	sg n
Via	Via			H	?
[	[			Z	
allkiri	all_kiri	0		S	sg n
]	]			Z	
,	,			Z	
Hendrek	####				
Puntson	####				
XXX	XXX	0		O	?
   	XXX	0		Y	?
,	,			Z	
Joosep	Joosep	0		H	sg n
Puntson	####				
XXX	XXX	0		O	?
   	XXX	0		Y	?
,	,			Z	
Jaan	Jaan	0		H	sg n
    	jaan	0		S	sg n
    	jaan	0		Y	?
Punnson	####				
[	[			Z	
allkiri	all_kiri	0		S	sg n
]	]			Z	
,	,			Z	
Peeter	Peeter	0		H	sg n
Sõrg	sõrg	0		S	sg n
[	[			Z	
allkiri	all_kiri	0		S	sg n
]	]			Z	
Kusta	Kusta	0		H	sg g
     	Kusta	0		H	sg n
     	kuse	ta		V	da
     	kuse	ta		V	ta
kõik	kõik	0		P	pl n
    	kõik	0		S	sg n
    	kõik	0		P	sg n
XXX	XXX	0		O	?
   	XXX	0		Y	?
,	,			Z	
Kusta	Kusta	0		H	sg g
     	Kusta	0		H	sg n
     	kuse	ta		V	da
     	kuse	ta		V	ta
varand	####				
XXX	XXX	0		O	?
   	XXX	0		Y	?
.	.			Z	
nende	see	de		P	pl g
     	tema	de		P	pl g
oma	oma	0		A	sg g
   	oma	0		D	
   	oma	0		P	sg g
   	oma	0		S	sg g
   	oma	0		V	o
   	oma	0		A	sg n
   	oma	0		A	sg p
   	oma	0		P	sg n
   	oma	0		P	sg p
   	oma	0		S	sg n
   	oma	0		S	sg p
käe	käsi	0		S	sg g
kirja	kirja	0		A	
     	kirja	0		V	o
     	kiri	0		S	adt
     	kiri	0		S	sg g
     	kiri	0		S	sg p
alla	alla	0		D	
    	alla	0		K	
kirjutust	kirjutus	t		S	sg p
ja	ja	0		J	
kolme	kolm	0		N	adt
     	kolm	0		N	sg g
     	kolm	0		N	sg p
risti	rist	0		S	adt
     	rist	0		S	sg g
     	rist	0		S	sg p
     	risti	0		D	
     	risti	0		V	o
     	risti	0		S	sg g
     	risti	0		S	sg n
tunnistab	tunnista	b		V	b
kogukonna	kogukond	0		S	sg g
kohus	kohu	s		V	s
     	kohus	0		S	sg n
tõttes	####				
,	,			Z	
ning	ning	0		J	
kinnitab	kinnita	b		V	b
seda	see	da		P	sg p
otsust	otsus	t		S	sg p
peakohtumees	pea_kohtu_mees	0		S	sg n
Jaan	Jaan	0		H	sg n
    	jaan	0		S	sg n
    	jaan	0		Y	?
Järv	järv	0		S	sg n
[	[			Z	
allkiri	all_kiri	0		S	sg n
]	]			Z	
kohtumees	kohtu_mees	0		S	sg n
Peeter	Peeter	0		H	sg n
Jõks	####				
[	[			Z	
allkiri	all_kiri	0		S	sg n
]	]			Z	
kohtumees	kohtu_mees	0		S	sg n
Peeter	Peeter	0		H	sg n
Sõrg	sõrg	0		S	sg n
[	[			Z	
allkiri	all_kiri	0		S	sg n
]	]			Z	
kirjutaja	kirjutaja	0		S	sg g
         	kirjutaja	0		S	sg n
s	s	0		Y	?
.	.			Z	
Härms	####				
[	[			Z	
allkiri	all_kiri	0		S	sg n
]	]			Z	
