kaebas	kaeba	s		V	s
Hans	Hans	0		H	sg n
ratsi	rats	0		S	adt
     	rats	0		S	sg g
     	ratsi	0		V	o
     	rats	0		S	sg p
,	,			Z	
et	et	0		J	
Jüri	Jüri	0		H	sg g
    	Jüri	0		H	sg n
seeder	seeder	0		S	sg n
tema	tema	0		P	sg g
    	tema	0		P	sg n
mullika	mullikas	0		S	sg g
on	ole	0		V	b
  	ole	0		V	vad
pandinud	####				
,	,			Z	
nädal	nädal	0		S	sg n
aega	aeg	0		S	adt
    	aeg	0		S	sg p
    	aega	0		K	
juba	juba	0		D	
kinni	kinni	0		D	
pidanud	pida	nud		V	nud
       	pida=nu	d		S	pl n
       	pida=nud	0		A	
       	pida=nud	0		A	sg n
       	pida=nud	d		A	pl n
,	,			Z	
ja	ja	0		J	
ei	ei	0		D	
  	ei	0		V	neg
lubamagi	luba	ma	gi	V	ma
kätte	kätte	0		K	
     	käsi	tte		S	adt
anda	and	a		V	da
.	.			Z	
Jüri	Jüri	0		H	sg g
    	Jüri	0		H	sg n
seeder	seeder	0		S	sg n
kostis	kost	s		S	sg in
      	kost	is		V	s
,	,			Z	
et	et	0		J	
tema	tema	0		P	sg g
    	tema	0		P	sg n
selle	see	0		P	sg g
     	sell	e		S	pl p
mullika	mullikas	0		S	sg g
on	ole	0		V	b
  	ole	0		V	vad
leidnud	leid	nud		V	nud
       	leid=nu	d		S	pl n
       	leid=nud	0		A	
       	leid=nud	0		A	sg n
       	leid=nud	d		A	pl n
oma	oma	0		A	sg g
   	oma	0		D	
   	oma	0		P	sg g
   	oma	0		S	sg g
   	oma	0		V	o
   	oma	0		A	sg n
   	oma	0		A	sg p
   	oma	0		P	sg n
   	oma	0		P	sg p
   	oma	0		S	sg n
   	oma	0		S	sg p
viljas	vili	s		S	sg in
oleva	olev	0		A	sg g
     	olev	0		S	sg g
,	,			Z	
on	ole	0		V	b
  	ole	0		V	vad
teda	tema	da		P	sg p
kinnivõtnud	kinni_võt=nu	d		S	pl n
           	kinni_võt=nud	0		A	
           	kinni_võt=nud	0		A	sg n
           	kinni_võt=nud	d		A	pl n
ja	ja	0		J	
3	3	0		N	?
ru	####				
hõb	####				
trahvi_raha	####				
nõudnud	nõud	nud		V	nud
       	nõud=nu	d		S	pl n
       	nõud=nud	0		A	
       	nõud=nud	0		A	sg n
       	nõud=nud	d		A	pl n
.	.			Z	
kohtumees	kohtu_mees	0		S	sg n
Mart	Mart	0		H	sg n
    	mart	0		S	sg n
Kongas	####				
on	ole	0		V	b
  	ole	0		V	vad
õhtu	õhtu	0		S	sg g
    	õhtu	0		S	sg n
,	,			Z	
se	####				
on	ole	0		V	b
  	ole	0		V	vad
teisepäeval	teise_päev	l		S	sg ad
,	,			Z	
tema	tema	0		P	sg g
    	tema	0		P	sg n
juures	juur	s		S	sg in
      	juures	0		D	
      	juures	0		K	
käinud	käi	nud		V	nud
      	käi=nud	0		A	
      	käi=nud	0		A	sg n
      	käi=nud	d		A	pl n
      	käinu	d		S	pl n
ja	ja	0		J	
käsknud	####				
:	:			Z	
et	et	0		J	
elajaloom	elaja_loom	0		S	sg n
peab	pida	b		V	b
saama	saa	ma		V	ma
     	saam	0		S	adt
     	saam	0		S	sg g
     	saam	0		S	sg p
kätte	kätte	0		K	
     	käsi	tte		S	adt
antud	an=tu	d		S	pl n
     	and	tud		V	tud
     	antud	0		A	
     	antud	0		A	sg n
     	antud	d		A	pl n
ja	ja	0		J	
tüli	tüli	0		S	sg g
    	tüli	0		S	sg n
    	tüli	0		S	sg p
asi	asi	0		S	sg n
   	asi	0		V	o
pärast	pära	st		S	sg el
      	pärane	t		A	sg p
      	pärast	0		D	
      	pärast	0		K	
kohtupäeval	kohtu_päev	l		S	sg ad
kohtu	kohtu	0		V	o
     	kohus	0		S	sg g
ees	ees	0		D	
   	ees	0		K	
   	esi	s		S	sg in
õiendud	####				
.	.			Z	
Hansu	Hans	0		H	adt
     	Hans	0		H	sg g
     	Hans	0		H	sg p
naine	naine	0		S	sg n
on	ole	0		V	b
  	ole	0		V	vad
peale	pea	le		S	sg all
     	peale	0		D	
     	peale	0		K	
se	####				
teda	tema	da		P	sg p
veel	veel	0		D	
    	vesi	l		S	sg ad
sõimanud	sõima	nud		V	nud
        	sõima=nu	d		S	pl n
        	sõima=nud	0		A	
        	sõima=nud	0		A	sg n
        	sõima=nud	d		A	pl n
.	.			Z	
mõisavalitsuse	mõisa_valitsus	0		S	sg g
poolest	pool	st		N	sg el
       	pool	st		S	sg el
       	poolene	t		A	sg p
       	poolest	0		K	
on	ole	0		V	b
  	ole	0		V	vad
kas	kas	0		D	
kohtumehe	kohtu_mees	0		S	sg g
läbi	läbi	0		D	
    	läbi	0		K	
    	läbi	0		V	o
saanud	saa	nud		V	nud
      	saa=nud	0		A	
      	saa=nud	0		A	sg n
      	saa=nud	d		A	pl n
      	saanu	d		S	pl n
käsk	käsk	0		S	sg n
antud	an=tu	d		S	pl n
     	and	tud		V	tud
     	antud	0		A	
     	antud	0		A	sg n
     	antud	d		A	pl n
,	,			Z	
et	et	0		J	
Jüri	Jüri	0		H	sg g
    	Jüri	0		H	sg n
seeder	seeder	0		S	sg n
selle	see	0		P	sg g
     	sell	e		S	pl p
elajalooma	elaja_loom	0		S	adt
          	elaja_loom	0		S	sg g
          	elaja_loom	0		S	sg p
peab	pida	b		V	b
kätte	kätte	0		K	
     	käsi	tte		S	adt
andma	and	ma		V	ma
ja	ja	0		J	
oma	oma	0		A	sg g
   	oma	0		D	
   	oma	0		P	sg g
   	oma	0		S	sg g
   	oma	0		V	o
   	oma	0		A	sg n
   	oma	0		A	sg p
   	oma	0		P	sg n
   	oma	0		P	sg p
   	oma	0		S	sg n
   	oma	0		S	sg p
kahjutasumiseks	kahju_tasumine	ks		S	sg tr
peale	pea	le		S	sg all
     	peale	0		D	
     	peale	0		K	
se	####				
seaduse	seadus	0		S	sg g
järel	järel	0		D	
     	järel	0		K	
make	####				
saama	saa	ma		V	ma
     	saam	0		S	adt
     	saam	0		S	sg g
     	saam	0		S	sg p
.	.			Z	
Jüri	Jüri	0		H	sg g
    	Jüri	0		H	sg n
on	ole	0		V	b
  	ole	0		V	vad
vastu	vastu	0		D	
     	vastu	0		K	
pannud	pan=nu	d		S	pl n
      	pan=nud	0		A	
      	pan=nud	0		A	sg n
      	pan=nud	d		A	pl n
      	pane	nud		V	nud
,	,			Z	
ja	ja	0		J	
kas	kas	0		D	
ütelnud	ütle	nud		V	nud
       	ütel=nu	d		S	pl n
       	ütel=nud	0		A	
       	ütel=nud	0		A	sg n
       	ütel=nud	d		A	pl n
,	,			Z	
et	et	0		J	
kui	kui	0		D	
   	kui	0		J	
ka	ka	0		D	
mõisavalitsus	mõisa_valitsus	0		S	sg n
ise	ise	0		A	
   	ise	0		D	
   	ise	0		P	pl n
   	ise	0		P	sg n
juures	juur	s		S	sg in
      	juures	0		D	
      	juures	0		K	
oleks	ole	ks		V	ks
,	,			Z	
siiski	siiski	0		D	
ei	ei	0		D	
  	ei	0		V	neg
anna	and	0		V	o
    	anna	0		S	sg g
    	anna	0		S	sg n
kätte	kätte	0		K	
     	käsi	tte		S	adt
.	.			Z	
seda	see	da		P	sg p
jutu	jutt	0		S	sg g
ütles	ütle	s		V	s
ka	ka	0		D	
Jüri	Jüri	0		H	sg g
    	Jüri	0		H	sg n
õige	õige	0		A	sg g
    	õige	0		A	sg n
    	õige	0		D	
oleva	olev	0		A	sg g
     	olev	0		S	sg g
.	.			Z	
kohtumehele	kohtu_mees	le		S	sg all
ei	ei	0		D	
  	ei	0		V	neg
ole	ole	0		V	o
ühtegi	ühte	0	gi	D	
      	üks	0	gi	N	adt
      	üks	0	gi	P	adt
      	ühe	0	gi	S	sg g
      	üks	0	gi	N	sg p
      	üks	0	gi	P	sg p
nähtavad	nähtav	d		A	pl n
kurja	kuri	0		A	adt
     	kuri	0		A	sg g
     	kuri	0		S	adt
     	kuri	0		S	sg g
     	kuri	0		A	sg p
     	kuri	0		S	sg p
näidatud	näita	tud		V	tud
        	näida=tu	d		S	pl n
        	näida=tud	0		A	
        	näida=tud	0		A	sg n
        	näida=tud	d		A	pl n
,	,			Z	
ega	ega	0		D	
   	ega	0		J	
ka	ka	0		D	
näha	näge	a		V	da
olnud	ol=nud	0		A	
     	ol=nud	0		A	sg n
     	ol=nud	d		A	pl n
     	ole	nud		V	nud
     	olnu	d		S	pl n
.	.			Z	
mõisteti	mõist	ti		V	ti
:	:			Z	
Jüri	Jüri	0		H	sg g
    	Jüri	0		H	sg n
seeder	seeder	0		S	sg n
saab	saa	b		V	b
selle	see	0		P	sg g
     	sell	e		S	pl p
värsi	värss	0		S	sg g
kinnivõtmise	kinni_võtmine	0		S	sg g
läbi	läbi	0		D	
    	läbi	0		K	
    	läbi	0		V	o
et	et	0		J	
sellepärast	selle_pärast	0		D	
,	,			Z	
nõnda	nõnda	0		D	
kuidas	kuidas	0		D	
seadus	seadu	s		V	s
      	seadus	0		A	sg n
      	seadus	0		S	sg n
kinnitab	kinnita	b		V	b
50kp	####				
.	.			Z	
hõb	####				
.	.			Z	
kurja	kuri	0		A	adt
     	kuri	0		A	sg g
     	kuri	0		S	adt
     	kuri	0		S	sg g
     	kuri	0		A	sg p
     	kuri	0		S	sg p
ei	ei	0		D	
  	ei	0		V	neg
ole	ole	0		V	o
kohtu	kohtu	0		V	o
     	kohus	0		S	sg g
poolest	pool	st		N	sg el
       	pool	st		S	sg el
       	poolene	t		A	sg p
       	poolest	0		K	
mõista	mõist	0		V	o
      	mõist	a		V	da
olnud	ol=nud	0		A	
     	ol=nud	0		A	sg n
     	ol=nud	d		A	pl n
     	ole	nud		V	nud
     	olnu	d		S	pl n
.	.			Z	
kohtumehe	kohtu_mees	0		S	sg g
käsu	käsk	0		S	sg g
vastupanemise	vastu_panemine	0		S	sg g
,	,			Z	
kui	kui	0		D	
   	kui	0		J	
ka	ka	0		D	
tõrkumise	tõrku=mine	0		S	sg g
pärast	pära	st		S	sg el
      	pärane	t		A	sg p
      	pärast	0		D	
      	pärast	0		K	
mõisavalitsuse	mõisa_valitsus	0		S	sg g
vastu	vastu	0		D	
     	vastu	0		K	
,	,			Z	
maksab	maks	b		V	b
Jüri	Jüri	0		H	sg g
    	Jüri	0		H	sg n
seeder	seeder	0		S	sg n
6	6	0		N	?
ru	####				
hõb	####				
.	.			Z	
vaeste_laeka	####				
trahvi	trahv	0		S	adt
      	trahv	0		S	sg g
      	trahvi	0		V	o
      	trahv	0		S	sg p
;	;			Z	
sest	see	st		P	sg el
    	sest	0		J	
ja	ja	0		J	
sellepärast	selle_pärast	0		D	
,	,			Z	
et	et	0		J	
tema	tema	0		P	sg g
    	tema	0		P	sg n
iseäranik	####				
kohtu	kohtu	0		V	o
     	kohus	0		S	sg g
ees	ees	0		D	
   	ees	0		K	
   	esi	s		S	sg in
ka	ka	0		D	
surwetas	####				
,	,			Z	
on	ole	0		V	b
  	ole	0		V	vad
se	####				
kõige	kõik	0		P	sg g
     	kõige	0		D	
kangem	kangem	0		C	sg n
kogukonna	kogukond	0		S	sg g
kohtu	kohtu	0		V	o
     	kohus	0		S	sg g
trahvi	trahv	0		S	adt
      	trahv	0		S	sg g
      	trahvi	0		V	o
      	trahv	0		S	sg p
tema	tema	0		P	sg g
    	tema	0		P	sg n
kohta	koht	0		S	adt
     	kohta	0		K	
     	kohta	0		V	o
     	koht	0		S	sg p
mõistetud	mõist	tud		V	tud
         	mõiste=tu	d		S	pl n
         	mõiste=tud	0		A	
         	mõiste=tud	0		A	sg n
         	mõiste=tud	d		A	pl n
.	.			Z	
elaja	elajas	0		S	sg g
värs	####				
peab	pida	b		V	b
saama	saa	ma		V	ma
     	saam	0		S	adt
     	saam	0		S	sg g
     	saam	0		S	sg p
Hans	Hans	0		H	sg n
ratsile	rats	le		S	sg all
nõnda	nõnda	0		D	
pea	pea	0		D	
   	pea	0		S	sg g
   	pida	0		V	o
   	pea	0		S	sg n
kohe	kohe	0		A	sg n
    	kohe	0		D	
kätte	kätte	0		K	
     	käsi	tte		S	adt
antud	an=tu	d		S	pl n
     	and	tud		V	tud
     	antud	0		A	
     	antud	0		A	sg n
     	antud	d		A	pl n
.	.			Z	
Jüri	Jüri	0		H	sg g
    	Jüri	0		H	sg n
seeder	seeder	0		S	sg n
ei	ei	0		D	
  	ei	0		V	neg
lubanud	luba	nud		V	nud
       	luba=nu	d		S	pl n
       	luba=nud	0		A	
       	luba=nud	0		A	sg n
       	luba=nud	d		A	pl n
koguni	kogu	ni		S	sg ter
      	koguni	0		D	
mitte	mitte	0		D	
seda	see	da		P	sg p
trahvi	trahv	0		S	adt
      	trahv	0		S	sg g
      	trahvi	0		V	o
      	trahv	0		S	sg p
ära	ära	0		D	
   	ära	0		V	neg o
maksta	maks	ta		V	da
      	maks	ta		V	ta
,	,			Z	
käskis	käski	s		V	s
ennast	ise	t		P	sg p
risuda	####				
.	.			Z	
