kaebab	kaeba	b		V	b
Tõnu	Tõnu	0		H	sg g
    	Tõnu	0		H	sg n
Odrats	####				
et	et	0		J	
tema	tema	0		P	sg g
    	tema	0		P	sg n
isa	isa	0		S	sg g
   	isa	0		S	sg n
   	isa	0		S	sg p
on	ole	0		V	b
  	ole	0		V	vad
7	7	0		N	?
aasta	aasta	0		S	sg g
     	aasta	0		S	sg n
ees	ees	0		D	
   	ees	0		K	
   	esi	s		S	sg in
Tartus	Tartu	s		H	sg in
3	3	0		N	?
vikatid	vikat	d		S	pl n
ja	ja	0		J	
3	3	0		N	?
naela	nael	0		S	adt
     	nael	0		S	sg g
     	nael	0		S	sg p
tubakut	####				
ostnud	ost	nud		V	nud
      	ost=nu	d		S	pl n
      	ost=nud	0		A	
      	ost=nud	0		A	sg n
      	ost=nud	d		A	pl n
,	,			Z	
oli	ole	i		V	s
siis	siis	0		D	
    	siis	0		J	
Karl	Karl	0		H	sg n
ulsib	####				
,	,			Z	
Mart	Mart	0		H	sg n
    	mart	0		S	sg n
Saik	####				
ja	ja	0		J	
Mart	Mart	0		H	sg n
    	mart	0		S	sg n
Välbaga	####				
ühes	üks	s		N	sg in
    	üks	s		P	sg in
    	ühes	0		D	
    	ühes	0		K	
olnud	ol=nud	0		A	
     	ol=nud	0		A	sg n
     	ol=nud	d		A	pl n
     	ole	nud		V	nud
     	olnu	d		S	pl n
ja	ja	0		J	
on	ole	0		V	b
  	ole	0		V	vad
Karl	Karl	0		H	sg n
ulsib	####				
siis	siis	0		D	
    	siis	0		J	
neid	neid	0		S	sg n
    	see	d		P	pl p
    	tema	d		P	pl p
vikatet	####				
ära	ära	0		D	
   	ära	0		V	neg o
varastanud	varasta	nud		V	nud
          	varasta=nu	d		S	pl n
          	varasta=nud	0		A	
          	varasta=nud	0		A	sg n
          	varasta=nud	d		A	pl n
ja	ja	0		J	
oli	ole	i		V	s
Mart	Mart	0		H	sg n
    	mart	0		S	sg n
Saik	####				
neid	neid	0		S	sg n
    	see	d		P	pl p
    	tema	d		P	pl p
vikatet	####				
ära	ära	0		D	
   	ära	0		V	neg o
jaonud	####				
igal	iga	l		P	sg ad
ühel	üks	l		N	sg ad
    	üks	l		P	sg ad
üks	üks	0		N	sg n
   	üks	0		P	sg n
.	.			Z	
tunnistab	tunnista	b		V	b
Mart	Mart	0		H	sg n
    	mart	0		S	sg n
Välba	####				
ja	ja	0		J	
Karl	Karl	0		H	sg n
ulsib	####				
et	et	0		J	
se	####				
ni	####				
õige	õige	0		A	sg g
    	õige	0		A	sg n
    	õige	0		D	
on	ole	0		V	b
  	ole	0		V	vad
.	.			Z	
Mart	Mart	0		H	sg n
    	mart	0		S	sg n
Saik	####				
ütleb	ütle	b		V	b
et	et	0		J	
tema	tema	0		P	sg g
    	tema	0		P	sg n
sest	see	st		P	sg el
    	sest	0		J	
asjast	asi	st		S	sg el
ei	ei	0		D	
  	ei	0		V	neg
tea	tead	0		V	o
ei	ei	0		D	
  	ei	0		V	neg
ole	ole	0		V	o
tema	tema	0		P	sg g
    	tema	0		P	sg n
neid	neid	0		S	sg n
    	see	d		P	pl p
    	tema	d		P	pl p
vikatet	####				
jaonud	####				
,	,			Z	
oli	ole	i		V	s
aga	aga	0		J	
üks	üks	0		N	sg n
   	üks	0		P	sg n
vikkat	####				
enesel	ise	l		P	sg ad
Tartust	Tartu	st		H	sg el
ostnud	ost	nud		V	nud
      	ost=nu	d		S	pl n
      	ost=nud	0		A	
      	ost=nud	0		A	sg n
      	ost=nud	d		A	pl n
ja	ja	0		J	
seda	see	da		P	sg p
kodu	kodu	0		S	sg g
    	kodu	0		S	sg n
    	kodu	0		S	sg p
toonud	too	nud		V	nud
      	too=nu	d		S	pl n
      	too=nud	0		A	
      	too=nud	0		A	sg n
      	too=nud	d		A	pl n
.	.			Z	
kohus	kohu	s		V	s
     	kohus	0		S	sg n
on	ole	0		V	b
  	ole	0		V	vad
arvanud	arva	nud		V	nud
       	arva=nu	d		S	pl n
       	arva=nud	0		A	
       	arva=nud	0		A	sg n
       	arva=nud	d		A	pl n
,	,			Z	
et	et	0		J	
kui	kui	0		D	
   	kui	0		J	
Tõnu	Tõnu	0		H	sg g
    	Tõnu	0		H	sg n
Odrati	####				
oma	oma	0		A	sg g
   	oma	0		D	
   	oma	0		P	sg g
   	oma	0		S	sg g
   	oma	0		V	o
   	oma	0		A	sg n
   	oma	0		A	sg p
   	oma	0		P	sg n
   	oma	0		P	sg p
   	oma	0		S	sg n
   	oma	0		S	sg p
tahab	taht	b		V	b
nõuda	nõud	a		V	da
saab	saa	b		V	b
se	####				
asi	asi	0		S	sg n
   	asi	0		V	o
kihelkonna	kihelkond	0		S	sg g
kätte	kätte	0		K	
     	käsi	tte		S	adt
antud	an=tu	d		S	pl n
     	and	tud		V	tud
     	antud	0		A	
     	antud	0		A	sg n
     	antud	d		A	pl n
sest	see	st		P	sg el
    	sest	0		J	
et	et	0		J	
neid	neid	0		S	sg n
    	see	d		P	pl p
    	tema	d		P	pl p
tunnistajad	tunnistaja	d		S	pl n
siin	siin	0		D	
    	siin	0		S	sg n
ei	ei	0		D	
  	ei	0		V	neg
või	või	0		S	sg g
   	või	0		V	o
   	või	0		D	
   	või	0		J	
   	või	0		S	sg n
vanutada	vanuta	da		V	da
.	.			Z	
Mart	Mart	0		H	sg n
    	mart	0		S	sg n
Saik	####				
maksab	maks	b		V	b
se	####				
ees	ees	0		D	
   	ees	0		K	
   	esi	s		S	sg in
et	et	0		J	
tema	tema	0		P	sg g
    	tema	0		P	sg n
ei	ei	0		D	
  	ei	0		V	neg
ole	ole	0		V	o
kohtu	kohtu	0		V	o
     	kohus	0		S	sg g
käsu	käsk	0		S	sg g
järele	järele	0		D	
      	järele	0		K	
kohtu	kohtu	0		V	o
     	kohus	0		S	sg g
ette	ette	0		D	
    	ette	0		K	
    	esi	tte		S	adt
tulnud	tul=nud	0		A	
      	tul=nud	0		A	sg n
      	tul=nud	d		A	pl n
      	tule	nud		V	nud
      	tulnu	d		S	pl n
maksab	maks	b		V	b
tema	tema	0		P	sg g
    	tema	0		P	sg n
50	50	0		N	?
kop	kop	0		Y	?
.	.			Z	
hõb	####				
.	.			Z	
trahvi	trahv	0		S	adt
      	trahv	0		S	sg g
      	trahvi	0		V	o
      	trahv	0		S	sg p
vaeste	vaene	te		A	pl g
      	vaene	te		S	pl g
laadiku	laadik	0		S	sg g
.	.			Z	
_	_			Z	
ära	ära	0		D	
   	ära	0		V	neg o
makstud	maks	tud		V	tud
       	maks=tu	d		S	pl n
       	maks=tud	0		A	
       	maks=tud	0		A	sg n
       	maks=tud	d		A	pl n
.	.			Z	
