Liis	Liis	0		H	sg n
    	Lii	s		H	sg in
Saar	saar	0		S	sg n
astus	astu	s		V	s
ette	ette	0		D	
    	ette	0		K	
    	esi	tte		S	adt
ja	ja	0		J	
kaebas	kaeba	s		V	s
,	,			Z	
et	et	0		J	
Jaan	Jaan	0		H	sg n
    	jaan	0		S	sg n
    	jaan	0		Y	?
tumm	tumm	0		A	sg n
    	tumm	0		S	sg n
olevat	ole	vat		V	vat
      	olev	t		A	sg p
      	olev	t		S	sg p
tema	tema	0		P	sg g
    	tema	0		P	sg n
kraami	kraam	0		S	adt
      	kraam	0		S	sg g
      	kraami	0		V	o
      	kraam	0		S	sg p
kini	####				
võtnud	võt	nud		V	nud
      	võt=nu	d		S	pl n
      	võt=nud	0		A	
      	võt=nud	0		A	sg n
      	võt=nud	d		A	pl n
ja	ja	0		J	
nimelt	nimelt	0		D	
      	nimi	lt		S	sg abl
.	.			Z	
1	1	0		N	?
või	või	0		S	sg g
   	või	0		V	o
   	või	0		D	
   	või	0		J	
   	või	0		S	sg n
,	,			Z	
1	1	0		N	?
paar	paar	0		N	sg n
    	paar	0		S	sg n
lamuti	####				
raudu	raud	u		S	pl p
     	raudu	0		D	
ja	ja	0		J	
üks	üks	0		N	sg n
   	üks	0		P	sg n
laulo	####				
raamat	raamat	0		S	sg n
ja	ja	0		J	
üks	üks	0		N	sg n
   	üks	0		P	sg n
paar	paar	0		N	sg n
    	paar	0		S	sg n
pastlid	####				
.	.			Z	
Jaan	Jaan	0		H	sg n
    	jaan	0		S	sg n
    	jaan	0		Y	?
tumm	tumm	0		A	sg n
    	tumm	0		S	sg n
ees	ees	0		D	
   	ees	0		K	
   	esi	s		S	sg in
ja	ja	0		J	
vastas	vasta	s		V	s
      	vastas	0		D	
      	vastas	0		K	
,	,			Z	
et	et	0		J	
temal	tema	l		P	sg ad
Liis	Liis	0		H	sg n
    	Lii	s		H	sg in
saare	saar	0		S	sg g
mees	mees	0		S	sg n
    	mesi	s		S	sg in
käst	####				
50	50	0		N	?
kop	kop	0		Y	?
.	.			Z	
õb	####				
saada	saa	da		V	da
     	saat	0		V	o
     	saa	da		V	ta
on	ole	0		V	b
  	ole	0		V	vad
ja	ja	0		J	
sellepärast	selle_pärast	0		D	
on	ole	0		V	b
  	ole	0		V	vad
tema	tema	0		P	sg g
    	tema	0		P	sg n
Liis	Liis	0		H	sg n
    	Lii	s		H	sg in
saare	saar	0		S	sg g
kraami	kraam	0		S	adt
      	kraam	0		S	sg g
      	kraami	0		V	o
      	kraam	0		S	sg p
kinni	kinni	0		D	
pidanud	pida	nud		V	nud
       	pida=nu	d		S	pl n
       	pida=nud	0		A	
       	pida=nud	0		A	sg n
       	pida=nud	d		A	pl n
.	.			Z	
Mõistus	mõistus	0		S	sg n
:	:			Z	
Jaan	Jaan	0		H	sg n
    	jaan	0		S	sg n
    	jaan	0		Y	?
tumm	tumm	0		A	sg n
    	tumm	0		S	sg n
peab	pida	b		V	b
jala	jalg	0		S	sg g
    	jala	0		D	
peo	peo	0		S	sg g
   	pidu	0		S	sg g
   	peo	0		S	sg n
ei	ei	0		D	
  	ei	0		V	neg
Liis	Liis	0		H	sg n
    	Lii	s		H	sg in
saare	saar	0		S	sg g
kraam	kraam	0		S	sg n
kätte	kätte	0		K	
     	käsi	tte		S	adt
andma	and	ma		V	ma
.	.			Z	
peakohtumees	pea_kohtu_mees	0		S	sg n
:	:			Z	
A.Juhanson	####				
