Suurest	suur	st		A	sg el
Kõppust	kõpp_uks	t		S	sg p
Karl	Karl	0		H	sg n
Reier	####				
tuli	tuli	0		S	sg n
    	tule	i		V	s
kohtu	kohtu	0		V	o
     	kohus	0		S	sg g
ette	ette	0		D	
    	ette	0		K	
    	esi	tte		S	adt
ja	ja	0		J	
kaebas	kaeba	s		V	s
et	et	0		J	
Jaan	Jaan	0		H	sg n
    	jaan	0		S	sg n
    	jaan	0		Y	?
Toomson	####				
mõisa	mõis	0		S	sg g
rukki	rukis	0		S	adt
     	rukis	0		S	sg g
lõikamise	lõikamine	0		S	sg g
aeg	aeg	0		S	sg n
tema	tema	0		P	sg g
    	tema	0		P	sg n
hobuse	hobune	0		S	sg g
mõisa	mõis	0		S	sg g
väljaaetä	####				
viinud	vii	nud		V	nud
      	vii=nu	d		S	pl n
      	vii=nud	0		A	
      	vii=nud	0		A	sg n
      	vii=nud	d		A	pl n
või	või	0		S	sg g
   	või	0		V	o
   	või	0		D	
   	või	0		J	
   	või	0		S	sg n
varastanud	varasta	nud		V	nud
          	varasta=nu	d		S	pl n
          	varasta=nud	0		A	
          	varasta=nud	0		A	sg n
          	varasta=nud	d		A	pl n
,	,			Z	
tema	tema	0		P	sg g
    	tema	0		P	sg n
ajanud	aja	nud		V	nud
      	aja=nu	d		S	pl n
      	aja=nud	0		A	
      	aja=nud	0		A	sg n
      	aja=nud	d		A	pl n
järele	järele	0		D	
      	järele	0		K	
,	,			Z	
hobune	hobune	0		S	sg n
tulnud	tul=nud	0		A	
      	tul=nud	0		A	sg n
      	tul=nud	d		A	pl n
      	tule	nud		V	nud
      	tulnu	d		S	pl n
aga	aga	0		J	
lüpsi	lüps	0		S	adt
     	lüps	0		S	sg g
     	lüps	0		S	sg p
kõrtsi	kõrts	0		S	adt
      	kõrts	0		S	sg g
      	kõrts	0		S	sg p
juures	juur	s		S	sg in
      	juures	0		D	
      	juures	0		K	
temale	tema	le		P	sg all
vastu	vastu	0		D	
     	vastu	0		K	
kus	kus	0		D	
ta	tema	0		P	sg g
  	tema	0		P	sg n
selle	see	0		P	sg g
     	sell	e		S	pl p
kätte	kätte	0		K	
     	käsi	tte		S	adt
saanud	saa	nud		V	nud
      	saa=nud	0		A	
      	saa=nud	0		A	sg n
      	saa=nud	d		A	pl n
      	saanu	d		S	pl n
ja	ja	0		J	
nõudis	nõud	is		V	s
Jaan	Jaan	0		H	sg n
    	jaan	0		S	sg n
    	jaan	0		Y	?
Toomsoni	toom_soni	0		S	sg g
        	toom_soni	0		S	sg n
        	toom_soni	0		S	sg p
käest	käest	0		K	
     	käsi	st		S	sg el
selle	see	0		P	sg g
     	sell	e		S	pl p
paha	pahk	0		S	sg g
    	paha	0		A	sg g
    	paha	0		A	sg n
    	paha	0		A	sg p
    	paha	0		S	sg g
    	paha	0		S	sg n
    	paha	0		S	sg p
teo	tegu	0		S	sg g
   	tigu	0		S	sg g
eest	eest	0		D	
    	eest	0		K	
    	esi	st		S	sg el
5	5	0		N	?
rubla	rubla	0		S	sg g
     	rubla	0		S	sg n
     	rubla	0		S	sg p
.	.			Z	
Jaan	Jaan	0		H	sg n
    	jaan	0		S	sg n
    	jaan	0		Y	?
Toomson	####				
Suurest	suur	st		A	sg el
Kõppust	kõpp_uks	t		S	sg p
tunnistas	tunnista	s		V	s
seda	see	da		P	sg p
hobuse	hobune	0		S	sg g
viimast	vii	mast		V	mast
       	viimane	t		A	sg p
tõeks	tõde	ks		S	sg tr
     	tõsi	ks		S	sg tr
,	,			Z	
ütles	ütle	s		V	s
aga	aga	0		J	
et	et	0		J	
tema	tema	0		P	sg g
    	tema	0		P	sg n
mitte	mitte	0		D	
varastada	varasta	da		V	da
ei	ei	0		D	
  	ei	0		V	neg
ole	ole	0		V	o
tahtnud	taht	nud		V	nud
       	taht=nu	d		S	pl n
       	taht=nud	0		A	
       	taht=nud	0		A	sg n
       	taht=nud	d		A	pl n
,	,			Z	
vaid	vaid	0		D	
    	vaid	0		J	
võtnud	võt	nud		V	nud
      	võt=nu	d		S	pl n
      	võt=nud	0		A	
      	võt=nud	0		A	sg n
      	võt=nud	d		A	pl n
sellepärast	selle_pärast	0		D	
et	et	0		J	
ennem	ennem	0		C	sg n
     	ennem	0		D	
koju	kodu	0		S	adt
saab	saa	b		V	b
,	,			Z	
muidu	muidu	0		D	
oleks	ole	ks		V	ks
hommiku	hommik	0		S	sg g
töösse	töö	sse		S	sg ill
mina	mina	0		P	sg n
    	mina	0		S	sg g
    	mina	0		S	sg n
    	mina	0		S	sg p
hiljaks	hiljaks	0		D	
jäänud	jää	nud		V	nud
      	jäänu	d		S	pl n
      	jäänud	0		A	
      	jäänud	0		A	sg n
      	jäänud	d		A	pl n
ja	ja	0		J	
pakkus	pakku	s		V	s
2	2	0		N	?
rubla	rubla	0		S	sg g
     	rubla	0		S	sg n
     	rubla	0		S	sg p
Karl	Karl	0		H	sg n
Reieril	####				
leppituseks	####				
,	,			Z	
kui	kui	0		D	
   	kui	0		J	
leppis	leppi	s		V	s
Karl	Karl	0		H	sg n
Reier	####				
sellega	see	ga		P	sg kom
ja	ja	0		J	
maksis	maks	is		V	s
      	maksi	s		S	sg in
Jaan	Jaan	0		H	sg n
    	jaan	0		S	sg n
    	jaan	0		Y	?
Toomson	####				
üks	üks	0		N	sg n
   	üks	0		P	sg n
rubla	rubla	0		S	sg g
     	rubla	0		S	sg n
     	rubla	0		S	sg p
kohe	kohe	0		A	sg n
    	kohe	0		D	
välja	välja	0		D	
     	välja	0		V	o
     	väli	0		S	adt
     	väli	0		S	sg g
     	väli	0		S	sg p
ja	ja	0		J	
lubas	luba	s		V	s
pärast	pära	st		S	sg el
      	pärane	t		A	sg p
      	pärast	0		D	
      	pärast	0		K	
teise	teine	0		O	adt
     	teine	0		O	sg g
     	teine	0		P	adt
     	teine	0		P	sg g
maksta	maks	ta		V	da
      	maks	ta		V	ta
kui	kui	0		D	
   	kui	0		J	
raha	raha	0		S	sg g
    	raha	0		S	sg n
    	raha	0		S	sg p
saab	saa	b		V	b
,	,			Z	
mis	mis	0		P	pl n
   	mis	0		P	sg n
temal	tema	l		P	sg ad
nüüd	nüüd	0		D	
mitte	mitte	0		D	
olla	ole	a		V	da
.	.			Z	
kohus	kohu	s		V	s
     	kohus	0		S	sg n
arvas	arva	s		V	s
hobuse	hobune	0		S	sg g
viimast	vii	mast		V	mast
       	viimane	t		A	sg p
varguse	vargus	0		S	sg g
katseks	katse	ks		S	sg tr
mis	mis	0		P	pl n
   	mis	0		P	sg n
temal	tema	l		P	sg ad
aga	aga	0		J	
ei	ei	0		D	
  	ei	0		V	neg
tää	####				
kuidas	kuidas	0		D	
mitte	mitte	0		D	
korda	kord	0		S	adt
     	korda	0		V	o
     	kord	0		S	sg p
ei	ei	0		D	
  	ei	0		V	neg
läinud	läinu	d		S	pl n
      	läinud	0		A	
      	läinud	0		A	sg n
      	läinud	d		A	pl n
      	mine	nud		V	nud
ja	ja	0		J	
tegi	sina	0	gi	P	pl g
    	tege	i		V	s
    	sina	0	gi	P	pl n
otsuseks	otsus	ks		S	sg tr
:	:			Z	
Jaan	Jaan	0		H	sg n
    	jaan	0		S	sg n
    	jaan	0		Y	?
Toomson	####				
saab	saa	b		V	b
2	2	0		N	?
nädali	####				
aja	aeg	0		S	sg g
   	aja	0		V	o
sees	sees	0		D	
    	sees	0		K	
25	25	0		N	?
vitsa	vits	0		S	adt
     	vits	0		S	sg g
     	vits	0		S	sg p
hoopi	hoop	0		S	adt
     	hoop	0		S	sg p
hobuse	hobune	0		S	sg g
viimase	viimane	0		A	sg g
eest	eest	0		D	
    	eest	0		K	
    	esi	st		S	sg el
,	,			Z	
et	et	0		J	
keegi	kee	0	gi	S	sg g
     	kee	0	gi	V	o
     	keegi	0		P	sg n
     	kee	0	gi	S	sg n
mitte	mitte	0		D	
seda	see	da		P	sg p
täääda	####				
ei	ei	0		D	
  	ei	0		V	neg
või	või	0		S	sg g
   	või	0		V	o
   	või	0		D	
   	või	0		J	
   	või	0		S	sg n
,	,			Z	
et	et	0		J	
ta	tema	0		P	sg g
  	tema	0		P	sg n
mitte	mitte	0		D	
varastada	varasta	da		V	da
ei	ei	0		D	
  	ei	0		V	neg
tahtnud	taht	nud		V	nud
       	taht=nu	d		S	pl n
       	taht=nud	0		A	
       	taht=nud	0		A	sg n
       	taht=nud	d		A	pl n
,	,			Z	
kuna	kuna	0		D	
    	kuna	0		J	
hommite	####				
iga	iga	0		P	sg g
   	iga	0		P	sg n
   	iga	0		P	sg p
   	iga	0		S	sg n
   	iga	0		S	sg p
varas	vara	s		S	sg in
     	varas	0		S	sg n
ennast	ise	t		P	sg p
vabandab	vabanda	b		V	b
.	.			Z	
see	see	0		P	sg n
otsus	otsus	0		S	sg n
sai	saa	i		V	s
   	sai	0		S	sg n
kuulutud	kuulu	tud		V	tud
        	kuulu=tu	d		S	pl n
        	kuulu=tud	0		A	
        	kuulu=tud	0		A	sg n
        	kuulu=tud	d		A	pl n
,	,			Z	
millega	mis	ga		P	pl kom
       	mis	ga		P	sg kom
Jaan	Jaan	0		H	sg n
    	jaan	0		S	sg n
    	jaan	0		Y	?
Toomson	####				
rahul	rahu	l		S	sg ad
     	rahul	0		D	
oli	ole	i		V	s
.	.			Z	
Pääkohtumees	####				
:	:			Z	
Andres	Andre	s		H	sg in
      	Andres	0		H	sg n
ekbaum	####				
[	[			Z	
allkiri	all_kiri	0		S	sg n
]	]			Z	
kohtumees	kohtu_mees	0		S	sg n
:	:			Z	
Peet	Peet	0		H	sg n
    	peet	0		S	sg n
Amann	####				
[	[			Z	
allkiri	all_kiri	0		S	sg n
]	]			Z	
kohtumees	kohtu_mees	0		S	sg n
:	:			Z	
Tõnis	Tõnis	0		H	sg n
Bauer	####				
[	[			Z	
allkiri	all_kiri	0		S	sg n
]	]			Z	
kirjutaja	kirjutaja	0		S	sg g
         	kirjutaja	0		S	sg n
:	:			Z	
[	[			Z	
allkiri	all_kiri	0		S	sg n
]	]			Z	
