Münder	####				
Reichard	####				
tasub	tasu	b		V	b
kõrdi	####				
Jaanile	Jaan	le		H	sg all
       	Jaani	le		H	sg all
       	jaan	le		S	sg all
heina	hein	0		S	adt
     	hein	0		S	sg g
     	hein	0		S	sg p
tegemise	tegemine	0		S	sg g
eest	eest	0		D	
    	eest	0		K	
    	esi	st		S	sg el
töövaeva	töö_vaev	0		S	adt
        	töö_vaev	0		S	sg g
        	töö_vaev	0		S	sg p
nõnda	nõnda	0		D	
kuidas	kuidas	0		D	
kohus	kohu	s		V	s
     	kohus	0		S	sg n
saab	saa	b		V	b
mõistma	mõist	ma		V	ma
,	,			Z	
aga	aga	0		J	
Reichardt	####				
võtab	võt	b		V	b
heinad	hein	d		S	pl n
ära	ära	0		D	
   	ära	0		V	neg o
.	.			Z	
