Mari	Mari	0		H	sg g
    	mari	0		S	sg g
    	mari	0		S	sg n
    	Mari	0		H	sg n
    	mari	0		S	sg p
Martinson	Martinson	0		H	sg n
astus	astu	s		V	s
oma	oma	0		A	sg g
   	oma	0		D	
   	oma	0		P	sg g
   	oma	0		S	sg g
   	oma	0		V	o
   	oma	0		A	sg n
   	oma	0		A	sg p
   	oma	0		P	sg n
   	oma	0		P	sg p
   	oma	0		S	sg n
   	oma	0		S	sg p
mehega	mees	ga		S	sg kom
Juhan	Juhan	0		H	sg n
Martinson	Martinson	0		H	sg n
kohtu	kohtu	0		V	o
     	kohus	0		S	sg g
ette	ette	0		D	
    	ette	0		K	
    	esi	tte		S	adt
ja	ja	0		J	
nõudsid	nõud	sid		V	sid
,	,			Z	
et	et	0		J	
Jaak	Jaak	0		H	sg n
    	jaak	0		S	sg n
Ressler	####				
neid	neid	0		S	sg n
    	see	d		P	pl p
    	tema	d		P	pl p
surmani	surm	ni		S	sg ter
oma	oma	0		A	sg g
   	oma	0		D	
   	oma	0		P	sg g
   	oma	0		S	sg g
   	oma	0		V	o
   	oma	0		A	sg n
   	oma	0		A	sg p
   	oma	0		P	sg n
   	oma	0		P	sg p
   	oma	0		S	sg n
   	oma	0		S	sg p
talus	talu	s		S	sg in
     	talu	s		V	s
peab	pida	b		V	b
ja	ja	0		J	
need	see	d		P	pl n
samad	sama	d		P	pl n
põllu	põld	0		S	sg g
kui	kui	0		D	
   	kui	0		J	
heinamaa	heina_maa	0		S	sg g
        	heina_maa	0		S	sg n
lapid	lapp	d		S	pl n
     	lappi	d		V	d
nende	see	de		P	pl g
     	tema	de		P	pl g
käes	käes	0		K	
    	käsi	s		S	sg in
mis	mis	0		P	pl n
   	mis	0		P	sg n
isa	isa	0		S	sg g
   	isa	0		S	sg n
   	isa	0		S	sg p
aeg	aeg	0		S	sg n
olnud	ol=nud	0		A	
     	ol=nud	0		A	sg n
     	ol=nud	d		A	pl n
     	ole	nud		V	nud
     	olnu	d		S	pl n
,	,			Z	
nile	####				
eest	eest	0		D	
    	eest	0		K	
    	esi	st		S	sg el
nad	tema	d		P	pl n
tööd	töö	d		S	pl n
    	töö	d		S	sg p
ja	ja	0		J	
päevi	päev	i		S	pl p
teevad	tege	vad		V	vad
,	,			Z	
siis	siis	0		D	
    	siis	0		J	
olevat	ole	vat		V	vat
      	olev	t		A	sg p
      	olev	t		S	sg p
nad	tema	d		P	pl n
täitsa	täitsa	0		D	
isa	isa	0		S	sg g
   	isa	0		S	sg n
   	isa	0		S	sg p
varanduse	varandus	0		S	sg g
lubamisega	lubamine	ga		S	sg kom
rahul	rahu	l		S	sg ad
     	rahul	0		D	
.	.			Z	
Jaak	Jaak	0		H	sg n
    	jaak	0		S	sg n
Ressler	####				
lubas	luba	s		V	s
nende	see	de		P	pl g
     	tema	de		P	pl g
nõudmist	nõudmine	t		S	sg p
kohtu	kohtu	0		V	o
     	kohus	0		S	sg g
ette	ette	0		D	
    	ette	0		K	
    	esi	tte		S	adt
astudes	astu	des		V	des
täita	täi	ta		S	sg ab
     	täi	ta		V	ta
     	täit	a		V	da
     	täita	0		V	o
.	.			Z	
kohtumees	kohtu_mees	0		S	sg n
Peet	Peet	0		H	sg n
    	peet	0		S	sg n
Amann	####				
[	[			Z	
allkiri	all_kiri	0		S	sg n
]	]			Z	
kohtumees	kohtu_mees	0		S	sg n
Tõnis	Tõnis	0		H	sg n
Bauer	####				
[	[			Z	
allkiri	all_kiri	0		S	sg n
]	]			Z	
kohtumees	kohtu_mees	0		S	sg n
Peter	Peter	0		H	sg n
Bergmann	Bergmann	0		H	sg n
[	[			Z	
allkiri	all_kiri	0		S	sg n
]	]			Z	
kirj	####				
.	.			Z	
[	[			Z	
allkiri	all_kiri	0		S	sg n
]	]			Z	
