märt	####				
puusepp	puu_sepp	0		S	sg n
kaebas	kaeba	s		V	s
et	et	0		J	
Jüri	Jüri	0		H	sg g
    	Jüri	0		H	sg n
Jürisoni	####				
heina	hein	0		S	adt
     	hein	0		S	sg g
     	hein	0		S	sg p
kuhi	kuhi	0		S	sg n
ära	ära	0		D	
   	ära	0		V	neg o
põlenud	põle	nud		V	nud
       	põlenu	d		S	pl n
       	põlenud	0		A	
       	põlenud	0		A	sg n
       	põlenud	d		A	pl n
ja	ja	0		J	
tema	tema	0		P	sg g
    	tema	0		P	sg n
selle	see	0		P	sg g
     	sell	e		S	pl p
pärast	pära	st		S	sg el
      	pärane	t		A	sg p
      	pärast	0		D	
      	pärast	0		K	
Viljandi	Viljandi	0		H	sg g
        	Viljandi	0		H	sg n
        	viljandi	0		G	
Sillakohtu	silla_kohus	0		S	sg g
juures	juur	s		S	sg in
      	juures	0		D	
      	juures	0		K	
kord	kord	0		D	
    	kord	0		S	sg n
ära	ära	0		D	
   	ära	0		V	neg o
käinud	käi	nud		V	nud
      	käi=nud	0		A	
      	käi=nud	0		A	sg n
      	käi=nud	d		A	pl n
      	käinu	d		S	pl n
ja	ja	0		J	
nõudis	nõud	is		V	s
selle	see	0		P	sg g
     	sell	e		S	pl p
käimise	käimine	0		S	sg g
pealt	pea	lt		S	sg abl
     	pealt	0		D	
     	pealt	0		K	
3	3	0		N	?
rubla	rubla	0		S	sg g
     	rubla	0		S	sg n
     	rubla	0		S	sg p
vaevapalka	vaeva_palk	0		S	adt
          	vaeva_palk	0		S	sg p
.	.			Z	
Jürison	####				
on	ole	0		V	b
  	ole	0		V	vad
tema	tema	0		P	sg g
    	tema	0		P	sg n
peale	pea	le		S	sg all
     	peale	0		D	
     	peale	0		K	
vihane	vihane	0		A	sg n
et	et	0		J	
ta	tema	0		P	sg g
  	tema	0		P	sg n
selle	see	0		P	sg g
     	sell	e		S	pl p
lambad	lammas	d		S	pl n
kinni	kinni	0		D	
võtnud	võt	nud		V	nud
      	võt=nu	d		S	pl n
      	võt=nud	0		A	
      	võt=nud	0		A	sg n
      	võt=nud	d		A	pl n
ja	ja	0		J	
seisab	seis	b		V	b
ta	tema	0		P	sg g
  	tema	0		P	sg n
selle	see	0		P	sg g
     	sell	e		S	pl p
piina	pii	na		S	sg es
     	piin	0		S	adt
     	piin	0		S	sg g
     	piina	0		V	o
     	piin	0		S	sg p
alla	alla	0		D	
    	alla	0		K	
ühte	ühte	0		D	
    	üks	0		N	adt
    	üks	0		P	adt
    	ühe	0		S	sg g
    	üks	0		N	sg p
    	üks	0		P	sg p
lugu	lugu	0		S	sg n
    	lugu	0		S	sg p
ja	ja	0		J	
ähvartamise	####				
all	all	0		D	
   	all	0		K	
ja	ja	0		J	
Jürison	####				
on	ole	0		V	b
  	ole	0		V	vad
teda	tema	da		P	sg p
ka	ka	0		D	
15	15	0		N	?
jutti	jutt	0		S	adt
     	jutt	0		S	sg p
     	jutti	0		D	
lüia	####				
lasknud	lask	nud		V	nud
       	lask=nu	d		S	pl n
       	lask=nud	0		A	
       	lask=nud	0		A	sg n
       	lask=nud	d		A	pl n
ja	ja	0		J	
piinab	piina	b		V	b
teda	tema	da		P	sg p
ühte	ühte	0		D	
    	üks	0		N	adt
    	üks	0		P	adt
    	ühe	0		S	sg g
    	üks	0		N	sg p
    	üks	0		P	sg p
lugu	lugu	0		S	sg n
    	lugu	0		S	sg p
.	.			Z	
Tema	tema	0		P	sg g
    	tema	0		P	sg n
andestuse	andestus	0		S	sg g
asi	asi	0		S	sg n
   	asi	0		V	o
on	ole	0		V	b
  	ole	0		V	vad
kohtu	kohtu	0		V	o
     	kohus	0		S	sg g
arvata	arva	ta		V	da
      	arva	ta		V	ta
      	arvata	0		D	
.	.			Z	
Jüri	Jüri	0		H	sg g
    	Jüri	0		H	sg n
Jürison	####				
ütles	ütle	s		V	s
et	et	0		J	
tema	tema	0		P	sg g
    	tema	0		P	sg n
heina	hein	0		S	adt
     	hein	0		S	sg g
     	hein	0		S	sg p
kuhi	kuhi	0		S	sg n
on	ole	0		V	b
  	ole	0		V	vad
ära	ära	0		D	
   	ära	0		V	neg o
põlenud	põle	nud		V	nud
       	põlenu	d		S	pl n
       	põlenud	0		A	
       	põlenud	0		A	sg n
       	põlenud	d		A	pl n
ja	ja	0		J	
kohtud	kohtu	d		V	d
      	kohus	d		S	pl n
on	ole	0		V	b
  	ole	0		V	vad
inimesi	inimene	i		S	pl p
üle	üle	0		D	
   	üle	0		K	
kuulanud	kuula	nud		V	nud
        	kuula=nu	d		S	pl n
        	kuula=nud	0		A	
        	kuula=nud	0		A	sg n
        	kuula=nud	d		A	pl n
kus	kus	0		D	
mitmed	mitu	d		P	pl n
inimesed	inimene	d		S	pl n
Sillakohtu	silla_kohus	0		S	sg g
juures	juur	s		S	sg in
      	juures	0		D	
      	juures	0		K	
käinud	käi	nud		V	nud
      	käi=nud	0		A	
      	käi=nud	0		A	sg n
      	käi=nud	d		A	pl n
      	käinu	d		S	pl n
.	.			Z	
palus	palu	s		S	sg in
     	palu	s		V	s
aga	aga	0		J	
et	et	0		J	
puusepp	puu_sepp	0		S	sg n
praeguse	praegune	0		A	sg g
teotuse	teotus	0		S	sg g
eest	eest	0		D	
    	eest	0		K	
    	esi	st		S	sg el
trahvitud	trahvi	tud		V	tud
         	trahvi=tu	d		S	pl n
         	trahvi=tud	0		A	
         	trahvi=tud	0		A	sg n
         	trahvi=tud	d		A	pl n
saab	saa	b		V	b
.	.			Z	
mõisteti	mõist	ti		V	ti
:	:			Z	
sest	see	st		P	sg el
    	sest	0		J	
et	et	0		J	
keiserliku	keiserlik	0		A	sg g
Viljandi	Viljandi	0		H	sg g
        	Viljandi	0		H	sg n
        	viljandi	0		G	
Sillakohtu	silla_kohus	0		S	sg g
poolt	pool	t		N	sg p
     	pool	t		S	sg p
     	poolt	0		D	
     	poolt	0		K	
on	ole	0		V	b
  	ole	0		V	vad
märt	####				
puusepp	puu_sepp	0		S	sg n
ja	ja	0		J	
teised	teine	d		O	pl n
      	teine	d		P	pl n
inimesed	inimene	d		S	pl n
ette	ette	0		D	
    	ette	0		K	
    	esi	tte		S	adt
tellitud	telli	tud		V	tud
        	telli=tu	d		S	pl n
        	telli=tud	0		A	
        	telli=tud	0		A	sg n
        	telli=tud	d		A	pl n
üle	üle	0		D	
   	üle	0		K	
kuulamise	kuulamine	0		S	sg g
asjus	asi	us		S	pl in
,	,			Z	
siis	siis	0		D	
    	siis	0		J	
ei	ei	0		D	
  	ei	0		V	neg
ole	ole	0		V	o
märt	####				
puusepal	puu_sepp	l		S	sg ad
midagi	miski	dagi		P	sg p
nõudmist	nõudmine	t		S	sg p
selle	see	0		P	sg g
     	sell	e		S	pl p
käimise	käimine	0		S	sg g
eest	eest	0		D	
    	eest	0		K	
    	esi	st		S	sg el
Jüri	Jüri	0		H	sg g
    	Jüri	0		H	sg n
Jürisoni	####				
käest	käest	0		K	
     	käsi	st		S	sg el
.	.			Z	
et	et	0		J	
ta	tema	0		P	sg g
  	tema	0		P	sg n
aga	aga	0		J	
just	just	0		D	
    	just	0		I	
siin	siin	0		D	
    	siin	0		S	sg n
kohtu	kohtu	0		V	o
     	kohus	0		S	sg g
ees	ees	0		D	
   	ees	0		K	
   	esi	s		S	sg in
Jüri	Jüri	0		H	sg g
    	Jüri	0		H	sg n
Jürisoni	####				
teotab	teota	b		V	b
et	et	0		J	
se	####				
teda	tema	da		P	sg p
piinab	piina	b		V	b
ja	ja	0		J	
ähvartab	####				
saab	saa	b		V	b
ta	tema	0		P	sg g
  	tema	0		P	sg n
selle	see	0		P	sg g
     	sell	e		S	pl p
pärast	pära	st		S	sg el
      	pärane	t		A	sg p
      	pärast	0		D	
      	pärast	0		K	
48	48	0		N	?
tundi	tund	0		S	adt
     	tund	0		S	sg p
vangi	vang	0		S	adt
     	vang	0		S	sg g
     	vang	0		S	sg p
pandud	pan=du	d		S	pl n
      	pan=dud	0		A	
      	pan=dud	0		A	sg n
      	pan=dud	d		A	pl n
      	pane	dud		V	tud
.	.			Z	
mõistus	mõistus	0		S	sg n
sai	saa	i		V	s
   	sai	0		S	sg n
edasi	edasi	0		D	
     	edasi	0		K	
kaebamise	kaebamine	0		S	sg g
tärminidega	####				
kohtukäiatele	####				
kohe	kohe	0		A	sg n
    	kohe	0		D	
kuulutud	kuulu	tud		V	tud
        	kuulu=tu	d		S	pl n
        	kuulu=tud	0		A	
        	kuulu=tud	0		A	sg n
        	kuulu=tud	d		A	pl n
.	.			Z	
peakohtumees	pea_kohtu_mees	0		S	sg n
Hans	Hans	0		H	sg n
Ant	####				
[	[			Z	
allkiri	all_kiri	0		S	sg n
]	]			Z	
kohtumees	kohtu_mees	0		S	sg n
M	M	0		O	?
 	M	0		Y	?
.	.			Z	
_	_			Z	
länder	####				
[	[			Z	
allkiri	all_kiri	0		S	sg n
]	]			Z	
_	_			Z	
""""	""""			Z	
_	_			Z	
Jüri	Jüri	0		H	sg g
    	Jüri	0		H	sg n
kas	kas	0		D	
[	[			Z	
allkiri	all_kiri	0		S	sg n
]	]			Z	
