kallani	kalla	ni		S	sg ter
Juhan	Juhan	0		H	sg n
brusI	####				
andis	and	is		V	s
kohtu	kohtu	0		V	o
     	kohus	0		S	sg g
ees	ees	0		D	
   	ees	0		K	
   	esi	s		S	sg in
üles	üles	0		D	
,	,			Z	
et	et	0		J	
mõisa	mõis	0		S	sg g
koerad	koer	d		A	pl n
      	koer	d		S	pl n
tema	tema	0		P	sg g
    	tema	0		P	sg n
poja	poeg	0		S	sg g
    	poja	0		S	sg g
    	poja	0		S	sg n
    	poja	0		S	sg p
Hans	Hans	0		H	sg n
Ibri	####				
№	№	0		Y	?
4	4	0		N	?
nekruti	nekrut	0		S	sg g
jala	jalg	0		S	sg g
    	jala	0		D	
nõnda	nõnda	0		D	
ära	ära	0		D	
   	ära	0		V	neg o
kiskunud	kisku	nud		V	nud
        	kisku=nu	d		S	pl n
        	kisku=nud	0		A	
        	kisku=nud	0		A	sg n
        	kisku=nud	d		A	pl n
,	,			Z	
et	et	0		J	
sugugi	sugugi	0		D	
jalga	jalg	0		S	adt
     	jalg	0		S	sg p
     	jalga	0		D	
kinni	kinni	0		D	
ei	ei	0		D	
  	ei	0		V	neg
või	või	0		S	sg g
   	või	0		V	o
   	või	0		D	
   	või	0		J	
   	või	0		S	sg n
panna	pand	0		S	sg g
     	pane	a		V	da
     	panna	0		S	sg g
     	panna	0		S	sg n
ega	ega	0		D	
   	ega	0		J	
toast	tuba	st		S	sg el
välja	välja	0		D	
     	välja	0		V	o
     	väli	0		S	adt
     	väli	0		S	sg g
     	väli	0		S	sg p
mina	mina	0		P	sg n
    	mina	0		S	sg g
    	mina	0		S	sg n
    	mina	0		S	sg p
,	,			Z	
mis	mis	0		P	pl n
   	mis	0		P	sg n
temale	tema	le		P	sg all
ka	ka	0		D	
valu	valu	0		S	sg g
    	valu	0		V	o
    	valu	0		S	sg n
    	valu	0		S	sg p
peab	pida	b		V	b
tegema	tege	ma		V	ma
.	.			Z	
mõistetud	mõist	tud		V	tud
         	mõiste=tu	d		S	pl n
         	mõiste=tud	0		A	
         	mõiste=tud	0		A	sg n
         	mõiste=tud	d		A	pl n
:	:			Z	
kui	kui	0		D	
   	kui	0		J	
tema	tema	0		P	sg g
    	tema	0		P	sg n
jalg	jalg	0		S	sg n
nõnda	nõnda	0		D	
paremaks	parem	ks		C	sg tr
saab	saa	b		V	b
,	,			Z	
et	et	0		J	
kinni	kinni	0		D	
võib	või	b		V	b
panna	pand	0		S	sg g
     	pane	a		V	da
     	panna	0		S	sg g
     	panna	0		S	sg n
,	,			Z	
ikka	ikka	0		D	
    	iga	0		S	adt
nekruti	nekrut	0		S	sg g
vastuvõtmise	vastu_võtmine	0		S	sg g
Comisjoni	####				
ette	ette	0		D	
    	ette	0		K	
    	esi	tte		S	adt
viia	vii	a		V	da
.	.			Z	
peakohtumehe	pea_kohtu_mees	0		S	sg g
abi	abi	0		S	sg g
   	abi	0		S	sg n
   	abi	0		S	sg p
:	:			Z	
Kaarel	Kaarel	0		H	sg n
      	kaar	l		S	sg ad
      	kaarel	0		S	sg n
Riis	riis	0		S	sg n
.	.			Z	
XXX	XXX	0		O	?
   	XXX	0		Y	?
kohtumees	kohtu_mees	0		S	sg n
:	:			Z	
Ado	Ado	0		H	sg g
   	Ado	0		H	sg n
lagus	lagu	s		V	s
.	.			Z	
XXX	XXX	0		O	?
   	XXX	0		Y	?
None	####				
Kaarel	Kaarel	0		H	sg n
      	kaar	l		S	sg ad
      	kaarel	0		S	sg n
Malkin	####				
XXX	XXX	0		O	?
   	XXX	0		Y	?
None	####				
Tawit	####				
Markus	Markus	0		H	sg n
.	.			Z	
XXX	XXX	0		O	?
   	XXX	0		Y	?
