mõisavalitsus	mõisa_valitsus	0		S	sg n
kaebas	kaeba	s		V	s
et	et	0		J	
Jüri	Jüri	0		H	sg g
    	Jüri	0		H	sg n
Kütt	kütt	0		S	sg n
10	10	0		N	?
palgi	palk	0		S	sg g
rohkem	rohkem	0		D	
kui	kui	0		D	
   	kui	0		J	
lubatud	luba	tud		V	tud
       	luba=tu	d		S	pl n
       	lubatu	d		A	pl n
       	lubatud	0		A	
       	lubatud	0		A	sg n
       	lubatud	d		A	pl n
oma	oma	0		A	sg g
   	oma	0		D	
   	oma	0		P	sg g
   	oma	0		S	sg g
   	oma	0		V	o
   	oma	0		A	sg n
   	oma	0		A	sg p
   	oma	0		P	sg n
   	oma	0		P	sg p
   	oma	0		S	sg n
   	oma	0		S	sg p
pea	pea	0		D	
   	pea	0		S	sg g
   	pida	0		V	o
   	pea	0		S	sg n
on	ole	0		V	b
  	ole	0		V	vad
raiunud	raiu	nud		V	nud
       	raiu=nu	d		S	pl n
       	raiu=nud	0		A	
       	raiu=nud	0		A	sg n
       	raiu=nud	d		A	pl n
ning	ning	0		J	
päris	päri	s		V	s
     	päris	0		A	
     	päris	0		D	
nende	see	de		P	pl g
     	tema	de		P	pl g
eest	eest	0		D	
    	eest	0		K	
    	esi	st		S	sg el
5	5	0		N	?
rubla	rubla	0		S	sg g
     	rubla	0		S	sg n
     	rubla	0		S	sg p
maksu	maks	0		S	adt
     	maks	0		S	sg g
     	maks	u		S	pl p
     	maks	0		S	sg p
.	.			Z	
Jüri	Jüri	0		H	sg g
    	Jüri	0		H	sg n
Kütt	kütt	0		S	sg n
astus	astu	s		V	s
ette	ette	0		D	
    	ette	0		K	
    	esi	tte		S	adt
ja	ja	0		J	
ei	ei	0		D	
  	ei	0		V	neg
salganud	####				
et	et	0		J	
tema	tema	0		P	sg g
    	tema	0		P	sg n
seda	see	da		P	sg p
on	ole	0		V	b
  	ole	0		V	vad
teinud	tege	nud		V	nud
      	tei=nud	0		A	
      	tei=nud	0		A	sg n
      	tei=nud	d		A	pl n
      	teinu	d		S	pl n
.	.			Z	
mõisteti	mõist	ti		V	ti
:	:			Z	
Jüri	Jüri	0		H	sg g
    	Jüri	0		H	sg n
Kütt	kütt	0		S	sg n
maksab	maks	b		V	b
nende	see	de		P	pl g
     	tema	de		P	pl g
puude	puu	de		S	pl g
     	puude	0		S	sg n
     	puue	0		S	sg g
eest	eest	0		D	
    	eest	0		K	
    	esi	st		S	sg el
mis	mis	0		P	pl n
   	mis	0		P	sg n
tema	tema	0		P	sg g
    	tema	0		P	sg n
on	ole	0		V	b
  	ole	0		V	vad
rohkem	rohkem	0		D	
raiunud	raiu	nud		V	nud
       	raiu=nu	d		S	pl n
       	raiu=nud	0		A	
       	raiu=nud	0		A	sg n
       	raiu=nud	d		A	pl n
5	5	0		N	?
rubla	rubla	0		S	sg g
     	rubla	0		S	sg n
     	rubla	0		S	sg p
mõisavalitsustele	mõisa_valitsus	tele		S	pl all
.	.			Z	
