§	§	0		Y	?
1.	1.	0		O	?
Adavere	Ada_vere	0		H	sg g
       	Ada_vere	0		H	sg n
       	adavere	0		G	
mõisa	mõis	0		S	sg g
härra	härra	0		S	sg g
     	härra	0		S	sg n
annab	and	b		V	b
Tedremäe	tedre_mägi	0		S	sg g
C	C	0		O	?
 	C	0		Y	?
koha	koht	0		S	sg g
    	koha	0		S	sg g
    	koha	0		V	o
    	koha	0		S	sg n
    	koha	0		S	sg p
Jüri	Jüri	0		H	sg g
    	Jüri	0		H	sg n
Jürgenson	Jürgenson	0		H	sg n
rendi	rent	0		S	sg g
     	renti	0		V	o
peale	pea	le		S	sg all
     	peale	0		D	
     	peale	0		K	
.	.			Z	
seda	see	da		P	sg p
kohta	koht	0		S	adt
     	kohta	0		K	
     	kohta	0		V	o
     	koht	0		S	sg p
võtab	võt	b		V	b
rentnik	rentnik	0		S	sg n
vastu	vastu	0		D	
     	vastu	0		K	
ja	ja	0		J	
anab	####				
tagasi	tagasi	0		D	
      	tagasi	0		K	
nende	see	de		P	pl g
     	tema	de		P	pl g
piiridega	piir	dega		S	pl kom
mis	mis	0		P	pl n
   	mis	0		P	sg n
Tedremäe	tedre_mägi	0		S	sg g
C	C	0		O	?
 	C	0		Y	?
kohal	koht	l		S	sg ad
     	koha	l		S	sg ad
     	kohal	0		D	
     	kohal	0		K	
1	1	0		N	?
Novembril	november	l		S	sg ad
1891	1891	0		N	?
oli	ole	i		V	s
.	.			Z	
§	§	0		Y	?
2.	2.	0		O	?
kontraht	kontraht	0		S	sg n
jookseb	jooks	b		V	b
aastast	aasta	st		S	sg el
       	aastane	t		A	sg p
aasta	aasta	0		S	sg g
     	aasta	0		S	sg n
peale	pea	le		S	sg all
     	peale	0		D	
     	peale	0		K	
.	.			Z	
lahti	laht	i		S	pl p
     	lahti	0		D	
ütlemise	ütlemine	0		S	sg g
termin	termin	0		S	sg n
mõlemilt	####				
poolt	pool	t		N	sg p
     	pool	t		S	sg p
     	poolt	0		D	
     	poolt	0		K	
on	ole	0		V	b
  	ole	0		V	vad
1.	1.	0		O	?
November	november	0		S	sg n
.	.			Z	
kui	kui	0		D	
   	kui	0		J	
sel	see	l		P	sg ad
   	sel	0		Y	?
terminil	termin	l		S	sg ad
lahti	laht	i		S	pl p
     	lahti	0		D	
üteldud	ütle	dud		V	tud
       	ütel=du	d		S	pl n
       	ütel=dud	0		A	
       	ütel=dud	0		A	sg n
       	ütel=dud	d		A	pl n
ei	ei	0		D	
  	ei	0		V	neg
ole	ole	0		V	o
,	,			Z	
siis	siis	0		D	
    	siis	0		J	
see	see	0		P	sg n
kontraht	kontraht	0		S	sg n
jookseb	jooks	b		V	b
ühe	üks	0		N	sg g
   	üks	0		P	sg g
   	ühe	0		S	sg n
aasta	aasta	0		S	sg g
     	aasta	0		S	sg n
peale	pea	le		S	sg all
     	peale	0		D	
     	peale	0		K	
edasi	edasi	0		D	
     	edasi	0		K	
.	.			Z	
§	§	0		Y	?
3.	3.	0		O	?
rentnik	rentnik	0		S	sg n
maksab	maks	b		V	b
88	88	0		N	?
rubla	rubla	0		S	sg g
     	rubla	0		S	sg n
     	rubla	0		S	sg p
renti	rent	0		S	adt
     	rent	0		S	sg p
.	.			Z	
poole	pool	0		N	sg g
     	pool	0		S	sg g
     	pool	e		S	pl p
     	poole	0		K	
     	poole	0		S	sg n
maksab	maks	b		V	b
1	1	0		N	?
Vebruaril	####				
,	,			Z	
poole	pool	0		N	sg g
     	pool	0		S	sg g
     	pool	e		S	pl p
     	poole	0		K	
     	poole	0		S	sg n
1.	1.	0		O	?
oktoobril	oktoober	l		S	sg ad
ette	ette	0		D	
    	ette	0		K	
    	esi	tte		S	adt
.	.			Z	
§	§	0		Y	?
4.	4.	0		O	?
selle	see	0		P	sg g
     	sell	e		S	pl p
koha	koht	0		S	sg g
    	koha	0		S	sg g
    	koha	0		V	o
    	koha	0		S	sg n
    	koha	0		S	sg p
hoonete	hoone	te		S	pl g
,	,			Z	
kattuste	katt_uks	te		S	pl g
ja	ja	0		J	
ajade	####				
seisus	seis	s		S	sg in
      	seisus	0		S	sg n
.	.			Z	
1	1	0		N	?
keskmine	keskmine	0		A	sg n
elumaja	elu_maja	0		S	sg g
       	elu_maja	0		S	sg n
       	elu_maja	0		S	sg p
rehega	rehi	ga		S	sg kom
keskmise	keskmine	0		A	sg g
katusega	katus	ga		S	sg kom
,	,			Z	
1	1	0		N	?
keskmine	keskmine	0		A	sg n
puust	puu	st		S	sg el
     	puune	t		A	sg p
aitkeskmise	ait_keskmine	0		A	sg g
katusega	katus	ga		S	sg kom
.	.			Z	
§	§	0		Y	?
5.	5.	0		O	?
rentniku	rentnik	0		S	sg g
kohused	kohus	d		S	pl n
a	a	0		Y	?
)	)			Z	
koha	koht	0		S	sg g
    	koha	0		S	sg g
    	koha	0		V	o
    	koha	0		S	sg n
    	koha	0		S	sg p
hoonet	hoone	t		S	sg p
olgu	ole	gu		V	gu
hea	hea	0		A	sg g
   	hea	0		A	sg n
   	hea	0		S	sg g
   	hea	0		S	sg n
korra	kord	0		S	sg g
peal	pea	l		S	sg ad
    	peal	0		D	
    	peal	0		K	
ja	ja	0		J	
nimelt	nimelt	0		D	
      	nimi	lt		S	sg abl
nende	see	de		P	pl g
     	tema	de		P	pl g
kattused	####				
peavad	pida	vad		V	vad
alati	alga	ti		V	ti
     	alati	0		D	
terved	terve	d		A	pl n
      	terve	d		S	pl n
olema	ole	ma		V	ma
,	,			Z	
kui	kui	0		D	
   	kui	0		J	
nemad	tema	d		P	pl n
mitte	mitte	0		D	
ei	ei	0		D	
  	ei	0		V	neg
peaks	pea	ks		S	sg tr
     	pida	ks		V	ks
olema	ole	ma		V	ma
,	,			Z	
siis	siis	0		D	
    	siis	0		J	
saavad	saa	vad		V	vad
      	saav	d		A	pl n
      	saav	d		S	pl n
need	see	d		P	pl n
hooned	hoone	d		S	pl n
ja	ja	0		J	
kattused	####				
tema	tema	0		P	sg g
    	tema	0		P	sg n
kuulu	kuuld	0		S	sg g
     	kuulu	0		V	o
peal	pea	l		S	sg ad
    	peal	0		D	
    	peal	0		K	
parandud	####				
,	,			Z	
b	b	0		Y	?
)	)			Z	
rukki	rukis	0		S	adt
     	rukis	0		S	sg g
väli	väli	0		S	sg n
olgu	ole	gu		V	gu
hästi	hästi	0		D	
aritud	####				
ja	ja	0		J	
külitud	küli	tud		V	tud
       	küli=tu	d		S	pl n
       	küli=tud	0		A	
       	küli=tud	0		A	sg n
       	küli=tud	d		A	pl n
;	;			Z	
c	c	0		Y	?
)	)			Z	
ajad	aeg	d		S	pl n
    	aja	d		V	d
olgu	ole	gu		V	gu
hea	hea	0		A	sg g
   	hea	0		A	sg n
   	hea	0		S	sg g
   	hea	0		S	sg n
korra	kord	0		S	sg g
peal	pea	l		S	sg ad
    	peal	0		D	
    	peal	0		K	
;	;			Z	
d	d	0		Y	?
)	)			Z	
rentnik	rentnik	0		S	sg n
ei	ei	0		D	
  	ei	0		V	neg
tohi	tohti	0		V	o
oma	oma	0		A	sg g
   	oma	0		D	
   	oma	0		P	sg g
   	oma	0		S	sg g
   	oma	0		V	o
   	oma	0		A	sg n
   	oma	0		A	sg p
   	oma	0		P	sg n
   	oma	0		P	sg p
   	oma	0		S	sg n
   	oma	0		S	sg p
heinamaad	heina_maa	d		S	pl n
         	heina_maa	d		S	sg p
teistel	teine	tel		O	pl ad
       	teine	tel		P	pl ad
tervel	terve	l		A	sg ad
      	terve	l		S	sg ad
ega	ega	0		D	
   	ega	0		J	
jaukaupa	####				
koha	koht	0		S	sg g
    	koha	0		S	sg g
    	koha	0		V	o
    	koha	0		S	sg n
    	koha	0		S	sg p
peal	pea	l		S	sg ad
    	peal	0		D	
    	peal	0		K	
anda	and	a		V	da
ei	ei	0		D	
  	ei	0		V	neg
tegemata	tege	mata		V	mata
        	tegemata	0		A	
jätta	jät	a		V	da
;	;			Z	
e	e	0		Y	?
)	)			Z	
kõik	kõik	0		P	pl n
    	kõik	0		S	sg n
    	kõik	0		P	sg n
viimane	viimane	0		A	sg n
sõnnik	sõnnik	0		S	sg n
ja	ja	0		J	
mis	mis	0		P	pl n
   	mis	0		P	sg n
on	ole	0		V	b
  	ole	0		V	vad
üle	üle	0		D	
   	üle	0		K	
jäänud	jää	nud		V	nud
      	jäänu	d		S	pl n
      	jäänud	0		A	
      	jäänud	0		A	sg n
      	jäänud	d		A	pl n
loomade	loom	de		S	pl g
toitu	toit	0		S	adt
     	toitu	0		V	o
     	toit	0		S	sg p
ja	ja	0		J	
põhku	põhk	0		S	adt
     	põhk	0		S	sg p
,	,			Z	
peab	pida	b		V	b
sinna	sinna	0		D	
koha	koht	0		S	sg g
    	koha	0		S	sg g
    	koha	0		V	o
    	koha	0		S	sg n
    	koha	0		S	sg p
peale	pea	le		S	sg all
     	peale	0		D	
     	peale	0		K	
jääma	jää	ma		V	ma
     	jääm	0		S	adt
     	jääm	0		S	sg g
     	jääm	0		S	sg p
ilma	ilm	0		S	adt
    	ilm	0		S	sg g
    	ilma	0		D	
    	ilma	0		K	
    	ilm	0		S	sg p
tasumata	tasu	mata		V	mata
        	tasumata	0		A	
;	;			Z	
f	f	0		Y	?
)	)			Z	
tööde	töö	de		S	pl g
poolest	pool	st		N	sg el
       	pool	st		S	sg el
       	poolene	t		A	sg p
       	poolest	0		K	
eesseisva	ees_seisev	0		A	sg g
töö	töö	0		S	sg g
   	töö	0		S	sg n
aasta	aasta	0		S	sg g
     	aasta	0		S	sg n
peale	pea	le		S	sg all
     	peale	0		D	
     	peale	0		K	
kõik	kõik	0		P	pl n
    	kõik	0		S	sg n
    	kõik	0		P	sg n
põllud	põld	d		S	pl n
kus	kus	0		D	
kevade	kevad	0		S	sg g
      	kevade	0		S	sg g
      	kevade	0		S	sg n
tuleb	tule	b		V	b
suvel	suvi	l		S	sg ad
vilja	vili	0		S	adt
     	vili	0		S	sg g
     	vili	0		S	sg p
külvata	külva	ta		V	da
       	külva	ta		V	ta
peavad	pida	vad		V	vad
küntud	kün=tu	d		S	pl n
      	kün=tud	0		A	
      	kün=tud	0		A	sg n
      	kün=tud	d		A	pl n
      	künd	tud		V	tud
olema	ole	ma		V	ma
.	.			Z	
rentnik	rentnik	0		S	sg n
peab	pida	b		V	b
kõik	kõik	0		P	pl n
    	kõik	0		S	sg n
    	kõik	0		P	sg n
kraavid	kraav	d		S	pl n
lahti	laht	i		S	pl p
     	lahti	0		D	
hoidma	hoid	ma		V	ma
ja	ja	0		J	
puhastama	puhasta	ma		V	ma
.	.			Z	
h	h	0		Y	?
)	)			Z	
rentnik	rentnik	0		S	sg n
ei	ei	0		D	
  	ei	0		V	neg
tohi	tohti	0		V	o
Maarja	Maarja	0		H	sg g
      	maarjas	0		S	sg g
      	Maarja	0		H	sg n
,	,			Z	
õuna	õud	na		S	sg es
    	õun	0		S	adt
    	õun	0		S	sg g
    	õun	0		S	sg p
ehk	ehk	0		D	
   	ehk	0		J	
metspuid	mets_puu	id		S	pl p
mis	mis	0		P	pl n
   	mis	0		P	sg n
tema	tema	0		P	sg g
    	tema	0		P	sg n
koha	koht	0		S	sg g
    	koha	0		S	sg g
    	koha	0		V	o
    	koha	0		S	sg n
    	koha	0		S	sg p
peal	pea	l		S	sg ad
    	peal	0		D	
    	peal	0		K	
ennem	ennem	0		C	sg n
     	ennem	0		D	
olid	ole	id		V	sid
,	,			Z	
ehk	ehk	0		D	
   	ehk	0		J	
mis	mis	0		P	pl n
   	mis	0		P	sg n
tema	tema	0		P	sg g
    	tema	0		P	sg n
ise	ise	0		A	
   	ise	0		D	
   	ise	0		P	pl n
   	ise	0		P	sg n
on	ole	0		V	b
  	ole	0		V	vad
istutanud	istuta	nud		V	nud
         	istuta=nu	d		S	pl n
         	istuta=nud	0		A	
         	istuta=nud	0		A	sg n
         	istuta=nud	d		A	pl n
,	,			Z	
ei	ei	0		D	
  	ei	0		V	neg
ära	ära	0		D	
   	ära	0		V	neg o
viia	vii	a		V	da
ega	ega	0		D	
   	ega	0		J	
maha	maha	0		D	
raiuda	raiu	da		V	da
,	,			Z	
vaid	vaid	0		D	
    	vaid	0		J	
jäävad	jää	vad		V	vad
      	jääv	d		A	pl n
selle	see	0		P	sg g
     	sell	e		S	pl p
koha	koht	0		S	sg g
    	koha	0		S	sg g
    	koha	0		V	o
    	koha	0		S	sg n
    	koha	0		S	sg p
iluks	ilu	ks		S	sg tr
ilma	ilm	0		S	adt
    	ilm	0		S	sg g
    	ilma	0		D	
    	ilma	0		K	
    	ilm	0		S	sg p
miskisugust	miski_sugune	t		P	sg p
kahju	kahi	0		S	adt
     	kahi	0		S	sg g
     	kahi	0		S	sg p
     	kahju	0		S	sg g
     	kahju	0		S	sg n
     	kahju	0		S	sg p
pärimast	päri	mast		V	mast
;	;			Z	
i	i	0		Y	?
)	)			Z	
karja	kari	0		S	adt
     	kari	0		S	sg g
     	kari	0		S	sg p
ei	ei	0		D	
  	ei	0		V	neg
tohi	tohti	0		V	o
rentnik	rentnik	0		S	sg n
niisugusi	####				
koeri	koer	i		A	pl p
     	koer	i		S	pl p
mis	mis	0		P	pl n
   	mis	0		P	sg n
jäänused	jäänus	d		S	pl n
ja	ja	0		J	
linud	####				
aavad	####				
pidada	pida	da		V	da
,	,			Z	
kui	kui	0		D	
   	kui	0		J	
seda	see	da		P	sg p
leitakse	leid	takse		V	takse
siis	siis	0		D	
    	siis	0		J	
saavad	saa	vad		V	vad
      	saav	d		A	pl n
      	saav	d		S	pl n
nad	tema	d		P	pl n
maha	maha	0		D	
lastud	las=tu	d		S	pl n
      	las=tud	0		A	
      	las=tud	0		A	sg n
      	las=tud	d		A	pl n
      	lask	tud		V	tud
;	;			Z	
k	k	0		Y	?
)	)			Z	
rentnik	rentnik	0		S	sg n
ei	ei	0		D	
  	ei	0		V	neg
tohi	tohti	0		V	o
ilma	ilm	0		S	adt
    	ilm	0		S	sg g
    	ilma	0		D	
    	ilma	0		K	
    	ilm	0		S	sg p
mõisa	mõis	0		S	sg g
lubata	luba	ta		V	ta
vabadikusi	####				
oma	oma	0		A	sg g
   	oma	0		D	
   	oma	0		P	sg g
   	oma	0		S	sg g
   	oma	0		V	o
   	oma	0		A	sg n
   	oma	0		A	sg p
   	oma	0		P	sg n
   	oma	0		P	sg p
   	oma	0		S	sg n
   	oma	0		S	sg p
juure	juur	0		S	sg g
eelama	####				
võtta	võt	a		V	da
;	;			Z	
l	l	0		Y	?
)	)			Z	
õlgi	õlg	i		S	pl p
,	,			Z	
heinu	hein	u		S	pl p
ega	ega	0		D	
   	ega	0		J	
muud	muu	d		P	pl n
    	muu	d		S	pl n
    	muu	d		V	d
    	muu	d		P	sg p
    	muu	d		S	sg p
põllu	põld	0		S	sg g
põhku	põhk	0		S	adt
     	põhk	0		S	sg p
ei	ei	0		D	
  	ei	0		V	neg
tohi	tohti	0		V	o
rentnik	rentnik	0		S	sg n
ilma	ilm	0		S	adt
    	ilm	0		S	sg g
    	ilma	0		D	
    	ilma	0		K	
    	ilm	0		S	sg p
mõisa	mõis	0		S	sg g
luata	####				
ei	ei	0		D	
  	ei	0		V	neg
ära	ära	0		D	
   	ära	0		V	neg o
müüja	müüja	0		S	sg g
     	müüja	0		S	sg n
,	,			Z	
ei	ei	0		D	
  	ei	0		V	neg
välja	välja	0		D	
     	välja	0		V	o
     	väli	0		S	adt
     	väli	0		S	sg g
     	väli	0		S	sg p
läina	####				
ega	ega	0		D	
   	ega	0		J	
ühegi	üks	0	gi	N	sg g
     	üks	0	gi	P	sg g
     	ühe	0	gi	S	sg n
muu	muu	0		P	sg g
   	muu	0		S	sg g
   	muu	0		V	o
   	muu	0		P	sg n
   	muu	0		S	sg n
viisil	viis	l		S	sg ad
      	viisil	0		K	
ära	ära	0		D	
   	ära	0		V	neg o
anda	and	a		V	da
,	,			Z	
kui	kui	0		D	
   	kui	0		J	
ta	tema	0		P	sg g
  	tema	0		P	sg n
seda	see	da		P	sg p
ühe	üks	0		N	sg g
   	üks	0		P	sg g
   	ühe	0		S	sg n
korra	kord	0		S	sg g
teeb	tege	b		V	b
,	,			Z	
siis	siis	0		D	
    	siis	0		J	
on	ole	0		V	b
  	ole	0		V	vad
mõisal	mõis	l		S	sg ad
see	see	0		P	sg n
õigus	õigus	0		S	sg n
aasta	aasta	0		S	sg g
     	aasta	0		S	sg n
lõpetusel	lõpetus	l		S	sg ad
seda	see	da		P	sg p
kohta	koht	0		S	adt
     	kohta	0		K	
     	kohta	0		V	o
     	koht	0		S	sg p
tema	tema	0		P	sg g
    	tema	0		P	sg n
käest	käest	0		K	
     	käsi	st		S	sg el
ära	ära	0		D	
   	ära	0		V	neg o
võtta	võt	a		V	da
;	;			Z	
m	m	0		Y	?
)	)			Z	
selle	see	0		P	sg g
     	sell	e		S	pl p
Liivlandi	liiv_lant	0		S	sg g
talu	talu	0		S	sg g
    	talu	0		V	o
    	talu	0		S	sg n
    	talu	0		S	sg p
rahva	rahvas	0		S	sg g
seaduse	seadus	0		S	sg g
,	,			Z	
sest	see	st		P	sg el
    	sest	0		J	
13	13	0		N	?
Novembril	november	l		S	sg ad
1860	1860	0		N	?
§	§	0		Y	?
207	207	0		N	?
järele	järele	0		D	
      	järele	0		K	
ja	ja	0		J	
nõnda	nõnda	0		D	
valla	vald	0		S	sg g
     	valla	0		D	
kohtu	kohtu	0		V	o
     	kohus	0		S	sg g
iga	iga	0		P	sg g
   	iga	0		P	sg n
   	iga	0		P	sg p
   	iga	0		S	sg n
   	iga	0		S	sg p
aastade	####				
ära	ära	0		D	
   	ära	0		V	neg o
jaotamiste	jaotamine	te		S	pl g
ning	ning	0		J	
seadmiste	seadmine	te		S	pl g
järel	järel	0		D	
     	järel	0		K	
,	,			Z	
peab	pida	b		V	b
rentnik	rentnik	0		S	sg n
kõik	kõik	0		P	pl n
    	kõik	0		S	sg n
    	kõik	0		P	sg n
äevalikut	####				
maksud	maks	d		S	pl n
,	,			Z	
teod	tegu	d		S	pl n
    	tigu	d		S	pl n
ja	ja	0		J	
kandmised	kandmine	d		S	pl n
kui	kui	0		D	
   	kui	0		J	
kroonu	kroonu	0		S	sg g
      	kroonu	0		S	sg n
,	,			Z	
kihelkonna	kihelkond	0		S	sg g
,	,			Z	
valla	vald	0		S	sg g
     	valla	0		D	
,	,			Z	
jagama	jaga	ma		V	ma
ja	ja	0		J	
kõik	kõik	0		P	pl n
    	kõik	0		S	sg n
    	kõik	0		P	sg n
muud	muu	d		P	pl n
    	muu	d		S	pl n
    	muu	d		V	d
    	muu	d		P	sg p
    	muu	d		S	sg p
sundimised	sundimine	d		S	pl n
ja	ja	0		J	
missuguse	mis_sugune	0		P	sg g
nime	nimi	0		S	sg g
    	nimi	0		S	sg p
all	all	0		D	
   	all	0		K	
neid	neid	0		S	sg n
    	see	d		P	pl p
    	tema	d		P	pl p
veel	veel	0		D	
    	vesi	l		S	sg ad
peaks	pea	ks		S	sg tr
     	pida	ks		V	ks
olema	ole	ma		V	ma
,	,			Z	
mis	mis	0		P	pl n
   	mis	0		P	sg n
selle	see	0		P	sg g
     	sell	e		S	pl p
üleval	ülev	l		A	sg ad
      	üleval	0		D	
nimetatud	nimeta	tud		V	tud
         	nimetatu	d		S	pl n
         	nimetatud	0		A	
         	nimetatud	0		A	sg n
         	nimetatud	d		A	pl n
koha	koht	0		S	sg g
    	koha	0		S	sg g
    	koha	0		V	o
    	koha	0		S	sg n
    	koha	0		S	sg p
peal	pea	l		S	sg ad
    	peal	0		D	
    	peal	0		K	
enne	enne	0		D	
    	enne	0		K	
    	enne	0		S	sg n
on	ole	0		V	b
  	ole	0		V	vad
olnud	ol=nud	0		A	
     	ol=nud	0		A	sg n
     	ol=nud	d		A	pl n
     	ole	nud		V	nud
     	olnu	d		S	pl n
ehk	ehk	0		D	
   	ehk	0		J	
edaspidi	edas_pidi	0		D	
tulevat	tule	vat		V	vat
       	tulev	t		A	sg p
teha	tege	a		V	da
ja	ja	0		J	
maksta	maks	ta		V	da
      	maks	ta		V	ta
,	,			Z	
nii	nii	0		D	
kui	kui	0		D	
   	kui	0		J	
ka	ka	0		D	
teed	tee	d		S	pl n
    	tege	d		V	d
    	tee	d		S	sg p
mis	mis	0		P	pl n
   	mis	0		P	sg n
mõisa	mõis	0		S	sg g
jauks	####				
tuleb	tule	b		V	b
teha	tege	a		V	da
,	,			Z	
täesti	####				
ära	ära	0		D	
   	ära	0		V	neg o
täitma	täit	ma		V	ma
ilma	ilm	0		S	adt
    	ilm	0		S	sg g
    	ilma	0		D	
    	ilma	0		K	
    	ilm	0		S	sg p
tasumata	tasu	mata		V	mata
        	tasumata	0		A	
;	;			Z	
n	n	0		Y	?
)	)			Z	
ilma	ilm	0		S	adt
    	ilm	0		S	sg g
    	ilma	0		D	
    	ilma	0		K	
    	ilm	0		S	sg p
mõisa	mõis	0		S	sg g
tahtmata	taht	mata		V	mata
        	tahtmata	0		A	
ning	ning	0		J	
teadmata	tead	mata		V	mata
        	tead=mata	0		A	
ei	ei	0		D	
  	ei	0		V	neg
tohi	tohti	0		V	o
rentnik	rentnik	0		S	sg n
oma	oma	0		A	sg g
   	oma	0		D	
   	oma	0		P	sg g
   	oma	0		S	sg g
   	oma	0		V	o
   	oma	0		A	sg n
   	oma	0		A	sg p
   	oma	0		P	sg n
   	oma	0		P	sg p
   	oma	0		S	sg n
   	oma	0		S	sg p
koha	koht	0		S	sg g
    	koha	0		S	sg g
    	koha	0		V	o
    	koha	0		S	sg n
    	koha	0		S	sg p
ei	ei	0		D	
  	ei	0		V	neg
tervelt	tervelt	0		D	
       	terve	lt		A	sg abl
       	terve	lt		S	sg abl
ega	ega	0		D	
   	ega	0		J	
jaukaupa	####				
mõne	mõni	0		P	sg g
muu	muu	0		P	sg g
   	muu	0		S	sg g
   	muu	0		V	o
   	muu	0		P	sg n
   	muu	0		S	sg n
inimise	####				
kätte	kätte	0		K	
     	käsi	tte		S	adt
anda	and	a		V	da
,	,			Z	
vaid	vaid	0		D	
    	vaid	0		J	
§	§	0		Y	?
210	210	0		N	?
Liivlandi	liiv_lant	0		S	sg g
talu	talu	0		S	sg g
    	talu	0		V	o
    	talu	0		S	sg n
    	talu	0		S	sg p
rahva	rahvas	0		S	sg g
seaduse	seadus	0		S	sg g
sees	sees	0		D	
    	sees	0		K	
sest	see	st		P	sg el
    	sest	0		J	
13	13	0		N	?
Novembrist	november	st		S	sg el
1860	1860	0		N	?
aastast	aasta	st		S	sg el
       	aastane	t		A	sg p
;	;			Z	
o	o	0		Y	?
)	)			Z	
1.	1.	0		O	?
vebruaril	####				
enne	enne	0		D	
    	enne	0		K	
    	enne	0		S	sg n
koha	koht	0		S	sg g
    	koha	0		S	sg g
    	koha	0		V	o
    	koha	0		S	sg n
    	koha	0		S	sg p
ära	ära	0		D	
   	ära	0		V	neg o
andmist	andmine	t		S	sg p
on	ole	0		V	b
  	ole	0		V	vad
rentniku	rentnik	0		S	sg g
kohus	kohu	s		V	s
     	kohus	0		S	sg n
poole	pool	0		N	sg g
     	pool	0		S	sg g
     	pool	e		S	pl p
     	poole	0		K	
     	poole	0		S	sg n
jagu	jagu	0		S	sg n
    	jagu	0		V	o
    	jagu	0		S	sg p
elumaja	elu_maja	0		S	sg g
       	elu_maja	0		S	sg n
       	elu_maja	0		S	sg p
ning	ning	0		J	
muu	muu	0		P	sg g
   	muu	0		S	sg g
   	muu	0		V	o
   	muu	0		P	sg n
   	muu	0		S	sg n
hoonetest	hoone	test		S	pl el
oma	oma	0		A	sg g
   	oma	0		D	
   	oma	0		P	sg g
   	oma	0		S	sg g
   	oma	0		V	o
   	oma	0		A	sg n
   	oma	0		A	sg p
   	oma	0		P	sg n
   	oma	0		P	sg p
   	oma	0		S	sg n
   	oma	0		S	sg p
sisse	siss	e		S	pl p
     	sisse	0		D	
     	sisse	0		K	
tuleja	tule=ja	0		S	sg g
      	tule=ja	0		S	sg n
järgmise	järgmine	0		A	sg g
kätte	kätte	0		K	
     	käsi	tte		S	adt
anda	and	a		V	da
.	.			Z	
§	§	0		Y	?
6.	6.	0		O	?
Uue	uus	0		A	sg g
elumaja	elu_maja	0		S	sg g
       	elu_maja	0		S	sg n
       	elu_maja	0		S	sg p
ehituse	ehitus	0		S	sg g
jauks	####				
annab	and	b		V	b
mõisa	mõis	0		S	sg g
valitsus	valitsus	0		S	sg n
materjali	materjal	0		S	adt
         	materjal	0		S	sg g
         	materjal	0		S	sg p
ja	ja	0		J	
kannab	kand	b		V	b
sele	####				
ehituse	ehitus	0		S	sg g
kuulu	kuuld	0		S	sg g
     	kuulu	0		V	o
,	,			Z	
aga	aga	0		J	
peremehed	pere_mees	d		S	pl n
peavad	pida	vad		V	vad
materjali	materjal	0		S	adt
         	materjal	0		S	sg g
         	materjal	0		S	sg p
juurde	juur	de		S	adt
      	juurde	0		D	
      	juurde	0		K	
vedama	veda	ma		V	ma
,	,			Z	
nii	nii	0		D	
kui	kui	0		D	
   	kui	0		J	
ka	ka	0		D	
õled	õlg	d		S	pl n
katuse	katus	0		S	sg g
jauks	####				
andma	and	ma		V	ma
,	,			Z	
aitatud	####				
ja	ja	0		J	
laudad	laut	d		S	pl n
peab	pida	b		V	b
peremees	pere_mees	0		S	sg n
oma	oma	0		A	sg g
   	oma	0		D	
   	oma	0		P	sg g
   	oma	0		S	sg g
   	oma	0		V	o
   	oma	0		A	sg n
   	oma	0		A	sg p
   	oma	0		P	sg n
   	oma	0		P	sg p
   	oma	0		S	sg n
   	oma	0		S	sg p
kuluga	kulg	ga		S	sg kom
      	kulu	ga		S	sg kom
ehitama	ehti	tama		V	tama
       	ehita	ma		V	ma
ka	ka	0		D	
õled	õlg	d		S	pl n
katuse	katus	0		S	sg g
jauks	####				
andma	and	ma		V	ma
,	,			Z	
mu	mina	0		P	sg g
materjal	materjal	0		S	sg n
annab	and	b		V	b
mõisa	mõis	0		S	sg g
valitsus	valitsus	0		S	sg n
,	,			Z	
ka	ka	0		D	
hoonete	hoone	te		S	pl g
ja	ja	0		J	
kattuste	katt_uks	te		S	pl g
parandamine	parandamine	0		S	sg n
jääb	jää	b		V	b
peremehe	pere_mees	0		S	sg g
hooleks	hool	ks		S	sg tr
,	,			Z	
koha	koht	0		S	sg g
    	koha	0		S	sg g
    	koha	0		V	o
    	koha	0		S	sg n
    	koha	0		S	sg p
ära	ära	0		D	
   	ära	0		V	neg o
andmise	andmine	0		S	sg g
juures	juur	s		S	sg in
      	juures	0		D	
      	juures	0		K	
ei	ei	0		D	
  	ei	0		V	neg
ole	ole	0		V	o
peremehel	pere_mees	l		S	sg ad
mingi	mingi	0		P	sg g
     	mink	0		S	sg g
     	minki	0		V	o
     	mingi	0		P	sg n
sugust	sugune	t		A	sg p
õigut	####				
kahju	kahi	0		S	adt
     	kahi	0		S	sg g
     	kahi	0		S	sg p
     	kahju	0		S	sg g
     	kahju	0		S	sg n
     	kahju	0		S	sg p
tasumist	tasumine	t		S	sg p
nõuda	nõud	a		V	da
.	.			Z	
§	§	0		Y	?
7.	7.	0		O	?
Põletamise	põletamine	0		S	sg g
ja	ja	0		J	
tarvitamise	tarvitamine	0		S	sg g
puud	puu	d		S	pl n
    	puud	0		S	sg n
    	puu	d		S	sg p
saab	saa	b		V	b
rentnik	rentnik	0		S	sg n
mõisa	mõis	0		S	sg g
valitsuse	valitsus	0		S	sg g
loa	luba	0		S	sg g
   	luga	0		S	sg g
järele	järele	0		D	
      	järele	0		K	
.	.			Z	
§	§	0		Y	?
8.	8.	0		O	?
rentnik	rentnik	0		S	sg n
peab	pida	b		V	b
omad	oma	d		A	pl n
    	oma	d		P	pl n
    	oma	d		S	pl n
    	oma	d		V	d
väljad	välja	d		V	d
      	väli	d		S	pl n
neljas	neli	s		N	sg in
      	neljas	0		O	sg n
jaus	####				
ja	ja	0		J	
nimelt	nimelt	0		D	
      	nimi	lt		S	sg abl
:	:			Z	
1	1	0		N	?
väli	väli	0		S	sg n
kesas	kesa	s		S	sg in
,	,			Z	
1	1	0		N	?
rukis	rukis	0		S	sg n
,	,			Z	
2	2	0		N	?
suvel	suvi	l		S	sg ad
viljas	vili	s		S	sg in
,	,			Z	
kaheksas	kaheksa	s		N	sg in
        	kaheksas	0		O	sg n
jagu	jagu	0		S	sg n
    	jagu	0		V	o
    	jagu	0		S	sg p
peab	pida	b		V	b
ristheina	rist_hein	0		S	adt
         	rist_hein	0		S	sg g
         	rist_hein	0		S	sg p
all	all	0		D	
   	all	0		K	
olema	ole	ma		V	ma
.	.			Z	
rentnik	rentnik	0		S	sg n
on	ole	0		V	b
  	ole	0		V	vad
ära	ära	0		D	
   	ära	0		V	neg o
anda	and	a		V	da
kaheksas	kaheksa	s		N	sg in
        	kaheksas	0		O	sg n
jagu	jagu	0		S	sg n
    	jagu	0		V	o
    	jagu	0		S	sg p
välja	välja	0		D	
     	välja	0		V	o
     	väli	0		S	adt
     	väli	0		S	sg g
     	väli	0		S	sg p
hea	hea	0		A	sg g
   	hea	0		A	sg n
   	hea	0		S	sg g
   	hea	0		S	sg n
ristheina	rist_hein	0		S	adt
         	rist_hein	0		S	sg g
         	rist_hein	0		S	sg p
seemnega	seeme	ga		S	sg kom
külvatud	külva	tud		V	tud
        	külva=tu	d		S	pl n
        	külva=tud	0		A	
        	külva=tud	0		A	sg n
        	külva=tud	d		A	pl n
,	,			Z	
ja	ja	0		J	
neljas	neli	s		N	sg in
      	neljas	0		O	sg n
jagu	jagu	0		S	sg n
    	jagu	0		V	o
    	jagu	0		S	sg p
hea	hea	0		A	sg g
   	hea	0		A	sg n
   	hea	0		S	sg g
   	hea	0		S	sg n
rukki	rukis	0		S	adt
     	rukis	0		S	sg g
seemnega	seeme	ga		S	sg kom
,	,			Z	
§	§	0		Y	?
9.	9.	0		O	?
mõisal	mõis	l		S	sg ad
on	ole	0		V	b
  	ole	0		V	vad
see	see	0		P	sg n
õigus	õigus	0		S	sg n
et	et	0		J	
ta	tema	0		P	sg g
  	tema	0		P	sg n
igal	iga	l		P	sg ad
ajal	aeg	l		S	sg ad
    	ajal	0		K	
seda	see	da		P	sg p
koha	koht	0		S	sg g
    	koha	0		S	sg g
    	koha	0		V	o
    	koha	0		S	sg n
    	koha	0		S	sg p
talitust	talitus	t		S	sg p
võib	või	b		V	b
kas	kas	0		D	
ise	ise	0		A	
   	ise	0		D	
   	ise	0		P	pl n
   	ise	0		P	sg n
ehk	ehk	0		D	
   	ehk	0		J	
ka	ka	0		D	
teistel	teine	tel		O	pl ad
       	teine	tel		P	pl ad
lasta	lask	ta		V	da
     	lask	ta		V	ta
järel	järel	0		D	
     	järel	0		K	
katsuda	katsu	da		V	da
.	.			Z	
§	§	0		Y	?
10	10	0		N	?
rentnik	rentnik	0		S	sg n
peab	pida	b		V	b
kaotguniks	####				
kõige	kõik	0		P	sg g
     	kõige	0		D	
nende	see	de		P	pl g
     	tema	de		P	pl g
kontrahti	kontraht	0		S	adt
         	kontraht	0		S	sg p
järele	järele	0		D	
      	järele	0		K	
enda	ise	0		P	sg g
peale	pea	le		S	sg all
     	peale	0		D	
     	peale	0		K	
võetud	võe=tu	d		S	pl n
      	võetud	0		A	
      	võetud	0		A	sg n
      	võetud	d		A	pl n
      	võt	tud		V	tud
sundimuste	####				
pärast	pära	st		S	sg el
      	pärane	t		A	sg p
      	pärast	0		D	
      	pärast	0		K	
ja	ja	0		J	
kahjude	kahi	de		S	pl g
       	kahju	de		S	pl g
tasumiseks	tasumine	ks		S	sg tr
kõik	kõik	0		P	pl n
    	kõik	0		S	sg n
    	kõik	0		P	sg n
oma	oma	0		A	sg g
   	oma	0		D	
   	oma	0		P	sg g
   	oma	0		S	sg g
   	oma	0		V	o
   	oma	0		A	sg n
   	oma	0		A	sg p
   	oma	0		P	sg n
   	oma	0		P	sg p
   	oma	0		S	sg n
   	oma	0		S	sg p
liikuva	liikuv	0		A	sg g
ja	ja	0		J	
liikumata	liiku	mata		V	mata
         	liiku=mata	0		A	
viimane	viimane	0		A	sg n
varandus	varandus	0		S	sg n
ja	ja	0		J	
nimelt	nimelt	0		D	
      	nimi	lt		S	sg abl
iseäranis	ise_äranis	0		D	
veel	veel	0		D	
    	vesi	l		S	sg ad
oma	oma	0		A	sg g
   	oma	0		D	
   	oma	0		P	sg g
   	oma	0		S	sg g
   	oma	0		V	o
   	oma	0		A	sg n
   	oma	0		A	sg p
   	oma	0		P	sg n
   	oma	0		P	sg p
   	oma	0		S	sg n
   	oma	0		S	sg p
talituse	talitus	0		S	sg g
jäätavad	jääta	vad		V	vad
        	jääta=v	d		A	pl n
vara	vara	0		D	
    	vara	0		S	sg g
    	vara	0		S	sg n
    	vara	0		S	sg p
ehk	ehk	0		D	
   	ehk	0		J	
inventariumi	####				
kelle	kes	0		P	pl g
     	kes	0		P	sg g
sees	sees	0		D	
    	sees	0		K	
olgu	ole	gu		V	gu
kõige	kõik	0		P	sg g
     	kõige	0		D	
vähem	vähem	0		C	sg n
     	vähem	0		D	
....	....			Z	
hobust	hobu	st		S	sg el
      	hobune	t		S	sg p
ja	ja	0		J	
....	....			Z	
veiste	veis	te		S	pl g
pead	pea	d		S	pl n
    	pida	d		V	d
    	pea	d		S	sg p
mis	mis	0		P	pl n
   	mis	0		P	sg n
hea	hea	0		A	sg g
   	hea	0		A	sg n
   	hea	0		S	sg g
   	hea	0		S	sg n
korra	kord	0		S	sg g
peal	pea	l		S	sg ad
    	peal	0		D	
    	peal	0		K	
peab	pida	b		V	b
olema	ole	ma		V	ma
ülespantud	####				
.	.			Z	
need	see	d		P	pl n
loomad	loom	d		S	pl n
ei	ei	0		D	
  	ei	0		V	neg
tohi	tohti	0		V	o
rentnik	rentnik	0		S	sg n
kui	kui	0		D	
   	kui	0		J	
koha	koht	0		S	sg g
    	koha	0		S	sg g
    	koha	0		V	o
    	koha	0		S	sg n
    	koha	0		S	sg p
ära	ära	0		D	
   	ära	0		V	neg o
annab	and	b		V	b
mitte	mitte	0		D	
enne	enne	0		D	
    	enne	0		K	
    	enne	0		S	sg n
Jüri	Jüri	0		H	sg g
    	Jüri	0		H	sg n
päeva	päev	0		S	adt
     	päev	0		S	sg g
     	päev	0		S	sg p
koha	koht	0		S	sg g
    	koha	0		S	sg g
    	koha	0		V	o
    	koha	0		S	sg n
    	koha	0		S	sg p
pealt	pea	lt		S	sg abl
     	pealt	0		D	
     	pealt	0		K	
ära	ära	0		D	
   	ära	0		V	neg o
anda	and	a		V	da
ehk	ehk	0		D	
   	ehk	0		J	
viia	vii	a		V	da
.	.			Z	
kui	kui	0		D	
   	kui	0		J	
heinad	hein	d		S	pl n
,	,			Z	
põhut	####				
ja	ja	0		J	
õled	õlg	d		S	pl n
enne	enne	0		D	
    	enne	0		K	
    	enne	0		S	sg n
Jüripäeva	jüri_päev	0		S	adt
         	jüri_päev	0		S	sg g
         	jüri_päev	0		S	sg p
lõpevad	lõp	vad		V	vad
       	lõppe	vad		V	vad
,	,			Z	
siis	siis	0		D	
    	siis	0		J	
peab	pida	b		V	b
rentnik	rentnik	0		S	sg n
neid	neid	0		S	sg n
    	see	d		P	pl p
    	tema	d		P	pl p
ostma	ost	ma		V	ma
,	,			Z	
et	et	0		J	
loomad	loom	d		S	pl n
Jüripäevani	jüri_päev	ni		S	sg ter
saavad	saa	vad		V	vad
      	saav	d		A	pl n
      	saav	d		S	pl n
ülespeetud	üles_peetu	d		S	pl n
          	üles_peetud	0		A	
          	üles_peetud	0		A	sg n
          	üles_peetud	d		A	pl n
.	.			Z	
kui	kui	0		D	
   	kui	0		J	
rentnik	rentnik	0		S	sg n
ühe	üks	0		N	sg g
   	üks	0		P	sg g
   	ühe	0		S	sg n
looma	loo	ma		V	ma
     	loom	0		S	adt
     	loom	0		S	sg g
     	loom	0		S	sg p
enne	enne	0		D	
    	enne	0		K	
    	enne	0		S	sg n
küünla	küünal	0		S	sg g
päeva	päev	0		S	adt
     	päev	0		S	sg g
     	päev	0		S	sg p
ära	ära	0		D	
   	ära	0		V	neg o
viib	vii	b		V	b
,	,			Z	
maksab	maks	b		V	b
tema	tema	0		P	sg g
    	tema	0		P	sg n
5	5	0		N	?
rubla	rubla	0		S	sg g
     	rubla	0		S	sg n
     	rubla	0		S	sg p
ja	ja	0		J	
pärast	pära	st		S	sg el
      	pärane	t		A	sg p
      	pärast	0		D	
      	pärast	0		K	
küünla	küünal	0		S	sg g
päeva	päev	0		S	adt
     	päev	0		S	sg g
     	päev	0		S	sg p
3	3	0		N	?
rubla	rubla	0		S	sg g
     	rubla	0		S	sg n
     	rubla	0		S	sg p
trahvi	trahv	0		S	adt
      	trahv	0		S	sg g
      	trahvi	0		V	o
      	trahv	0		S	sg p
.	.			Z	
§	§	0		Y	?
11.	11.	0		O	?
kui	kui	0		D	
   	kui	0		J	
rentnik	rentnik	0		S	sg n
need	see	d		P	pl n
üleval	ülev	l		A	sg ad
      	üleval	0		D	
nimetatud	nimeta	tud		V	tud
         	nimetatu	d		S	pl n
         	nimetatud	0		A	
         	nimetatud	0		A	sg n
         	nimetatud	d		A	pl n
punktid	punkt	d		S	pl n
       	punkti	d		V	d
ei	ei	0		D	
  	ei	0		V	neg
pea	pea	0		D	
   	pea	0		S	sg g
   	pida	0		V	o
   	pea	0		S	sg n
,	,			Z	
kaotab	kaota	b		V	b
ta	tema	0		P	sg g
  	tema	0		P	sg n
oma	oma	0		A	sg g
   	oma	0		D	
   	oma	0		P	sg g
   	oma	0		S	sg g
   	oma	0		V	o
   	oma	0		A	sg n
   	oma	0		A	sg p
   	oma	0		P	sg n
   	oma	0		P	sg p
   	oma	0		S	sg n
   	oma	0		S	sg p
kautsioni	####				
ära	ära	0		D	
   	ära	0		V	neg o
ja	ja	0		J	
on	ole	0		V	b
  	ole	0		V	vad
rendi	rent	0		S	sg g
     	renti	0		V	o
andjal	andja	l		S	sg ad
härral	härra	l		S	sg ad
sii	####				
seaduslik	seaduslik	0		A	sg n
õigus	õigus	0		S	sg n
teda	tema	da		P	sg p
kohe	kohe	0		A	sg n
    	kohe	0		D	
kohtu	kohtu	0		V	o
     	kohus	0		S	sg g
teel	tee	l		S	sg ad
    	teel	0		K	
tema	tema	0		P	sg g
    	tema	0		P	sg n
rentitud	####				
kohast	koht	st		S	sg el
      	koha	st		S	sg el
      	kohane	t		A	sg p
selle	see	0		P	sg g
     	sell	e		S	pl p
saama	saa	ma		V	ma
     	saam	0		S	adt
     	saam	0		S	sg g
     	saam	0		S	sg p
aasta	aasta	0		S	sg g
     	aasta	0		S	sg n
lõppul	####				
Jüri	Jüri	0		H	sg g
    	Jüri	0		H	sg n
päeva	päev	0		S	adt
     	päev	0		S	sg g
     	päev	0		S	sg p
ajal	aeg	l		S	sg ad
    	ajal	0		K	
temast	tema	st		P	sg el
lahkuda	lahku	da		V	da
.	.			Z	
§	§	0		Y	?
12.	12.	0		O	?
kui	kui	0		D	
   	kui	0		J	
rentnik	rentnik	0		S	sg n
enne	enne	0		D	
    	enne	0		K	
    	enne	0		S	sg n
kontrahti	kontraht	0		S	adt
         	kontraht	0		S	sg p
aasta	aasta	0		S	sg g
     	aasta	0		S	sg n
lõpetust	lõpetus	t		S	sg p
peaks	pea	ks		S	sg tr
     	pida	ks		V	ks
ära	ära	0		D	
   	ära	0		V	neg o
suurema	suurem	0		C	sg g
,	,			Z	
ja	ja	0		J	
kui	kui	0		D	
   	kui	0		J	
mõisa	mõis	0		S	sg g
härra	härra	0		S	sg g
     	härra	0		S	sg n
lubab	luba	b		V	b
,	,			Z	
siis	siis	0		D	
    	siis	0		J	
käivad	käi	vad		V	vad
      	käiv	d		A	pl n
kõik	kõik	0		P	pl n
    	kõik	0		S	sg n
    	kõik	0		P	sg n
selle	see	0		P	sg g
     	sell	e		S	pl p
kontrahi	kontraht	0		S	sg g
õigused	õigus	d		S	pl n
ja	ja	0		J	
sundmused	####				
tema	tema	0		P	sg g
    	tema	0		P	sg n
pärijate	pärija	te		S	pl g
peal	pea	l		S	sg ad
    	peal	0		D	
    	peal	0		K	
.	.			Z	
kui	kui	0		D	
   	kui	0		J	
selle	see	0		P	sg g
     	sell	e		S	pl p
mõisa	mõis	0		S	sg g
pidamise	pidamine	0		S	sg g
ehk	ehk	0		D	
   	ehk	0		J	
pärimise	pärimine	0		S	sg g
õigus	õigus	0		S	sg n
teiste	teine	te		O	pl g
      	teine	te		P	pl g
kätte	kätte	0		K	
     	käsi	tte		S	adt
läheb	mine	b		V	b
,	,			Z	
siis	siis	0		D	
    	siis	0		J	
ei	ei	0		D	
  	ei	0		V	neg
sa	sina	0		P	sg n
seda	see	da		P	sg p
kontrahti	kontraht	0		S	adt
         	kontraht	0		S	sg p
ei	ei	0		D	
  	ei	0		V	neg
ühelgi	üks	l	gi	N	sg ad
      	üks	l	gi	P	sg ad
viisil	viis	l		S	sg ad
      	viisil	0		K	
ümber	ümber	0		D	
     	ümber	0		K	
tehtud	tehtu	d		S	pl n
      	tehtud	0		A	
      	tehtud	0		A	sg n
      	tehtud	d		A	pl n
      	tege	tud		V	tud
selle	see	0		P	sg g
     	sell	e		S	pl p
Liivlandi	liiv_lant	0		S	sg g
talu	talu	0		S	sg g
    	talu	0		V	o
    	talu	0		S	sg n
    	talu	0		S	sg p
rahva	rahvas	0		S	sg g
seaduse	seadus	0		S	sg g
§	§	0		Y	?
208	208	0		N	?
järel	järel	0		D	
     	järel	0		K	
sest	see	st		P	sg el
    	sest	0		J	
13.	13.	0		O	?
Novembrist	november	st		S	sg el
1860	1860	0		N	?
,	,			Z	
vaid	vaid	0		D	
    	vaid	0		J	
se	####				
jääb	jää	b		V	b
oma	oma	0		A	sg g
   	oma	0		D	
   	oma	0		P	sg g
   	oma	0		S	sg g
   	oma	0		V	o
   	oma	0		A	sg n
   	oma	0		A	sg p
   	oma	0		P	sg n
   	oma	0		P	sg p
   	oma	0		S	sg n
   	oma	0		S	sg p
täie	täis	0		A	sg g
    	täis	0		S	sg g
au	au	0		S	sg g
  	au	0		S	sg n
  	au	0		S	sg p
sisse	siss	e		S	pl p
     	sisse	0		D	
     	sisse	0		K	
seisma	seis	ma		V	ma
.	.			Z	
rendiandja	rendi_andja	0		S	sg g
          	rendi_andja	0		S	sg n
härra	härra	0		S	sg g
     	härra	0		S	sg n
volinik	volinik	0		S	sg n
J. Larm	####				
/	/			Z	
allkiri	all_kiri	0		S	sg n
/	/			Z	
rentnik	rentnik	0		S	sg n
,	,			Z	
et	et	0		J	
Jüri	Jüri	0		H	sg g
    	Jüri	0		H	sg n
Jürgenson	Jürgenson	0		H	sg n
kirjutada	kirjuta	da		V	da
ei	ei	0		D	
  	ei	0		V	neg
mõista	mõist	0		V	o
      	mõist	a		V	da
kirjutas	kirjuta	s		V	s
tema	tema	0		P	sg g
    	tema	0		P	sg n
palve	palve	0		S	sg g
     	palve	0		S	sg n
peale	pea	le		S	sg all
     	peale	0		D	
     	peale	0		K	
H	H	0		Y	?
.	.			Z	
_	_			Z	
Nakus	####				
/	/			Z	
allkiri	all_kiri	0		S	sg n
/	/			Z	
et	et	0		J	
eesseisev	ees_seisev	0		A	sg n
rendikuntraht	####				
osalistele	osaline	tele		A	pl all
rendiandja	rendi_andja	0		S	sg g
          	rendi_andja	0		S	sg n
härra	härra	0		S	sg g
     	härra	0		S	sg n
volinikule	volinik	le		S	sg all
J. Härmile	####				
ja	ja	0		J	
,	,			Z	
rentnikule	rentnik	le		S	sg all
Jüri	Jüri	0		H	sg g
    	Jüri	0		H	sg n
Jürgenile	Jürgen	le		H	sg all
nikui	####				
se	####				
on	ole	0		V	b
  	ole	0		V	vad
kästud	käs=tu	d		S	pl n
      	käs=tud	0		A	
      	käs=tud	0		A	sg n
      	käs=tud	d		A	pl n
      	käski	tud		V	tud
valla	vald	0		S	sg g
     	valla	0		D	
kohtu	kohtu	0		V	o
     	kohus	0		S	sg g
seaduses	seadus	s		S	sg in
sest	see	st		P	sg el
    	sest	0		J	
9.	9.	0		O	?
juulist	juuli	st		S	sg el
1889	1889	0		N	?
a	a	0		Y	?
§	§	0		Y	?
281	281	0		N	?
täiesti	täiesti	0		D	
ette	ette	0		D	
    	ette	0		K	
    	esi	tte		S	adt
loetud	loetu	d		S	pl n
      	loetud	0		A	
      	loetud	0		A	sg n
      	loetud	d		A	pl n
      	luge	tud		V	tud
ja	ja	0		J	
nemad	tema	d		P	pl n
kõikide	kõik	de		P	pl g
kontrahis	kontraht	s		S	sg in
seisvate	seisev	te		A	pl g
tingimistega	tingimine	tega		S	pl kom
rahul	rahu	l		S	sg ad
     	rahul	0		D	
olnud	ol=nud	0		A	
     	ol=nud	0		A	sg n
     	ol=nud	d		A	pl n
     	ole	nud		V	nud
     	olnu	d		S	pl n
omad	oma	d		A	pl n
    	oma	d		P	pl n
    	oma	d		S	pl n
    	oma	d		V	d
nimed	nimi	d		S	pl n
alla	alla	0		D	
    	alla	0		K	
kirjutanud	kirjuta	nud		V	nud
          	kirjutanu	d		S	pl n
          	kirjutanud	0		A	
          	kirjutanud	0		A	sg n
          	kirjutanud	d		A	pl n
ja	ja	0		J	
se	####				
akti	akt	0		S	adt
    	akt	0		S	sg g
    	akt	0		S	sg p
raamatusse	raamat	sse		S	sg ill
No	no	0		I	
12	12	0		N	?
all	all	0		D	
   	all	0		K	
sisse	siss	e		S	pl p
     	sisse	0		D	
     	sisse	0		K	
kirjutud	####				
ja	ja	0		J	
et	et	0		J	
kontrahi	kontraht	0		S	sg g
tegijad	tegija	d		S	pl n
inimesed	inimene	d		S	pl n
kohtule	kohus	le		S	sg all
tuntud	tund	tud		V	tud
      	tuntu	d		S	pl n
      	tuntud	0		A	
      	tuntud	0		A	sg n
      	tuntud	d		A	pl n
on	ole	0		V	b
  	ole	0		V	vad
:	:			Z	
seda	see	da		P	sg p
tunnistakse	####				
selle	see	0		P	sg g
     	sell	e		S	pl p
sinatse	####				
rendikontrahi	rendi_kontraht	0		S	sg g
kinnitamise	kinnitamine	0		S	sg g
juures	juur	s		S	sg in
      	juures	0		D	
      	juures	0		K	
Adavere	Ada_vere	0		H	sg g
       	Ada_vere	0		H	sg n
       	adavere	0		G	
valla	vald	0		S	sg g
     	valla	0		D	
kohtu	kohtu	0		V	o
     	kohus	0		S	sg g
poolt	pool	t		N	sg p
     	pool	t		S	sg p
     	poolt	0		D	
     	poolt	0		K	
.	.			Z	
Eesistnik	####				
H	H	0		Y	?
.	.			Z	
_	_			Z	
kõrs	kõrs	0		S	sg n
/	/			Z	
allkiri	all_kiri	0		S	sg n
/	/			Z	
kirjutaja	kirjutaja	0		S	sg g
         	kirjutaja	0		S	sg n
