Jüri	Jüri	0		H	sg g
    	Jüri	0		H	sg n
Parris	####				
astus	astu	s		V	s
ette	ette	0		D	
    	ette	0		K	
    	esi	tte		S	adt
ja	ja	0		J	
nimetas	nimeta	s		V	s
,	,			Z	
et	et	0		J	
tema	tema	0		P	sg g
    	tema	0		P	sg n
tänavu	tänavu	0		D	
need	see	d		P	pl n
poole	pool	0		N	sg g
     	pool	0		S	sg g
     	pool	e		S	pl p
     	poole	0		K	
     	poole	0		S	sg n
talu_maad	####				
,	,			Z	
Taru	taru	0		S	sg g
    	taru	0		S	sg n
    	taru	0		S	sg p
talu	talu	0		S	sg g
    	talu	0		V	o
    	talu	0		S	sg n
    	talu	0		S	sg p
küljest	külg	st		S	sg el
       	küljest	0		D	
       	küljest	0		K	
oma	oma	0		A	sg g
   	oma	0		D	
   	oma	0		P	sg g
   	oma	0		S	sg g
   	oma	0		V	o
   	oma	0		A	sg n
   	oma	0		A	sg p
   	oma	0		P	sg n
   	oma	0		P	sg p
   	oma	0		S	sg n
   	oma	0		S	sg p
kätte	kätte	0		K	
     	käsi	tte		S	adt
võtnud	võt	nud		V	nud
      	võt=nu	d		S	pl n
      	võt=nud	0		A	
      	võt=nud	0		A	sg n
      	võt=nud	d		A	pl n
,	,			Z	
mis	mis	0		P	pl n
   	mis	0		P	sg n
enne	enne	0		D	
    	enne	0		K	
    	enne	0		S	sg n
Mart	Mart	0		H	sg n
    	mart	0		S	sg n
Sameli	####				
käes	käes	0		K	
    	käsi	s		S	sg in
olnud	ol=nud	0		A	
     	ol=nud	0		A	sg n
     	ol=nud	d		A	pl n
     	ole	nud		V	nud
     	olnu	d		S	pl n
,	,			Z	
selle	see	0		P	sg g
     	sell	e		S	pl p
kontrahti_tingi	####				
põhja	põhja	0		V	o
     	põhi	0		S	adt
     	põhi	0		S	sg g
     	põhi	0		S	sg p
peal	pea	l		S	sg ad
    	peal	0		D	
    	peal	0		K	
,	,			Z	
mis	mis	0		P	pl n
   	mis	0		P	sg n
Keiserliku	keiserlik	0		A	sg g
kihelkonnakohtu	kihelkonna_kohus	0		S	sg g
poolest	pool	st		N	sg el
       	pool	st		S	sg el
       	poolene	t		A	sg p
       	poolest	0		K	
sel	see	l		P	sg ad
   	sel	0		Y	?
19.	19.	0		O	?
aprilli	aprill	0		S	adt
       	aprill	0		S	sg g
       	aprill	0		S	sg p
k	k	0		Y	?
.	.			Z	
p	p	0		Y	?
.	.			Z	
1874.	1874.	0		O	?
on	ole	0		V	b
  	ole	0		V	vad
kinnitatud	kinnita	tud		V	tud
          	kinnita=tu	d		S	pl n
          	kinnita=tud	0		A	
          	kinnita=tud	0		A	sg n
          	kinnita=tud	d		A	pl n
,	,			Z	
Jüri	Jüri	0		H	sg g
    	Jüri	0		H	sg n
päevani	päev	ni		S	sg ter
1880.	1880.	0		O	?
_	_			Z	
aasta	aasta	0		S	sg g
     	aasta	0		S	sg n
rent	rent	0		S	sg n
on	ole	0		V	b
  	ole	0		V	vad
summas	summ	s		S	sg in
      	summa	s		S	sg in
40	40	0		N	?
ru	####				
hõb	####				
.	.			Z	
sellest	see	st		P	sg el
maksab	maks	b		V	b
raha	raha	0		S	sg g
    	raha	0		S	sg n
    	raha	0		S	sg p
21	21	0		N	?
ru	####				
ja	ja	0		J	
muist	muist	0		P	
     	muu	ist		P	pl el
tasub	tasu	b		V	b
sel	see	l		P	sg ad
   	sel	0		Y	?
kombel	kombel	0		K	
      	komme	l		S	sg ad
et	et	0		J	
orjab	orja	b		V	b
:	:			Z	
2	2	0		N	?
,	,			Z	
vakamaad	vaka_maa	d		S	pl n
        	vaka_maa	d		S	sg p
talvviljalõikust	talv_vilja_lõikus	t		S	sg p
,	,			Z	
2	2	0		N	?
vakamaad	vaka_maa	d		S	pl n
        	vaka_maa	d		S	sg p
suvevilja	suve_vili	0		S	adt
         	suve_vili	0		S	sg g
         	suve_vili	0		S	sg p
lõikust	lõikus	t		S	sg p
,	,			Z	
_	_			Z	
8	8	0		N	?
rehepäeva	rehe_päev	0		S	adt
         	rehe_päev	0		S	sg g
         	rehe_päev	0		S	sg p
ja	ja	0		J	
3.	3.	0		O	?
sülda	süld	0		S	adt
     	süld	0		S	sg p
puu_	####				
vedu	vedu	0		S	sg n
    	vedu	0		S	sg p
.	.			Z	
mõisasvalitsus	####				
ütles	ütle	s		V	s
kaupa	kaup	0		S	adt
     	kaup	0		S	sg p
     	kaupa	0		K	
nõnda	nõnda	0		D	
olnud	ol=nud	0		A	
     	ol=nud	0		A	sg n
     	ol=nud	d		A	pl n
     	ole	nud		V	nud
     	olnu	d		S	pl n
,	,			Z	
kuidas	kuidas	0		D	
ettepandud	ette_pan=du	d		S	pl n
          	ette_pan=dud	0		A	
          	ette_pan=dud	0		A	sg n
          	ette_pan=dud	d		A	pl n
.	.			Z	
mõisteti	mõist	ti		V	ti
:	:			Z	
asja	asi	0		S	adt
    	asi	0		S	sg g
    	asi	0		S	sg p
nõnda	nõnda	0		D	
kuidas	kuidas	0		D	
talletud	talletu	d		V	d
protokolli	protokoll	0		S	adt
          	protokoll	0		S	sg g
          	protokolli	0		V	o
          	protokoll	0		S	sg p
panna	pand	0		S	sg g
     	pane	a		V	da
     	panna	0		S	sg g
     	panna	0		S	sg n
.	.			Z	
