leping	leping	0		S	sg n
.	.			Z	
Ilmusid	ilmu	sid		V	sid
ette	ette	0		D	
    	ette	0		K	
    	esi	tte		S	adt
Karl	Karl	0		H	sg n
Saba	saba	0		S	sg g
    	saba	0		S	sg n
    	saba	0		S	sg p
ja	ja	0		J	
Mihkel	Mihkel	0		H	sg n
      	mihkel	0		A	sg n
      	mihkel	0		S	sg n
kirschberg	####				
ja	ja	0		J	
palusid	palu	sid		S	pl p
       	palu	sid		V	sid
seda	see	da		P	sg p
maha	maha	0		D	
kirjutada	kirjuta	da		V	da
,	,			Z	
et	et	0		J	
Saba	saba	0		S	sg g
    	saba	0		S	sg n
    	saba	0		S	sg p
liikuv	liiku	v		V	v
      	liikuv	0		A	sg n
varandus	varandus	0		S	sg n
,	,			Z	
mis	mis	0		P	pl n
   	mis	0		P	sg n
16	16	0		N	?
Septembril	september	l		S	sg ad
1895	1895	0		N	?
a	a	0		Y	?
Hans	Hans	0		H	sg n
Sarv	sarv	0		S	sg n
voliniku	volinik	0		S	sg g
kirschbergi	####				
nõudmises	nõudmine	s		S	sg in
51	51	0		N	?
rbl	rbl	0		Y	?
võla	võlg	0		S	sg g
tasumiseks	tasumine	ks		S	sg tr
kinni	kinni	0		D	
pandud	pan=du	d		S	pl n
      	pan=dud	0		A	
      	pan=dud	0		A	sg n
      	pan=dud	d		A	pl n
      	pane	dud		V	tud
oli	ole	i		V	s
,	,			Z	
et	et	0		J	
kirschberg	####				
see	see	0		P	sg n
varandus	varandus	0		S	sg n
1	1	0		N	?
veebruaril	veebruar	l		S	sg ad
1896a	1896a	0		Y	?
Jaan	Jaan	0		H	sg n
    	jaan	0		S	sg n
    	jaan	0		Y	?
Sabal	saba	l		S	sg ad
ära	ära	0		D	
   	ära	0		V	neg o
müinud	####				
51	51	0		N	?
rbl	rbl	0		Y	?
eest	eest	0		D	
    	eest	0		K	
    	esi	st		S	sg el
,	,			Z	
seda	see	da		P	sg p
varandust	varandus	t		S	sg p
on	ole	0		V	b
  	ole	0		V	vad
J. Saba	####				
vastu	vastu	0		D	
     	vastu	0		K	
võtnud	võt	nud		V	nud
      	võt=nu	d		S	pl n
      	võt=nud	0		A	
      	võt=nud	0		A	sg n
      	võt=nud	d		A	pl n
ja	ja	0		J	
raha	raha	0		S	sg g
    	raha	0		S	sg n
    	raha	0		S	sg p
välja	välja	0		D	
     	välja	0		V	o
     	väli	0		S	adt
     	väli	0		S	sg g
     	väli	0		S	sg p
maksnud	maks	nud		V	nud
       	maks=nu	d		S	pl n
       	maks=nud	0		A	
       	maks=nud	0		A	sg n
       	maks=nud	d		A	pl n
.	.			Z	
Mihkel	Mihkel	0		H	sg n
      	mihkel	0		A	sg n
      	mihkel	0		S	sg n
kirschberg	####				
tõendas	tõenda	s		V	s
seda	see	da		P	sg p
nõnda	nõnda	0		D	
olema	ole	ma		V	ma
.	.			Z	
nad	tema	d		P	pl n
olid	ole	id		V	sid
kohtule	kohus	le		S	sg all
tuntud	tund	tud		V	tud
      	tuntu	d		S	pl n
      	tuntud	0		A	
      	tuntud	0		A	sg n
      	tuntud	d		A	pl n
.	.			Z	
M	M	0		O	?
 	M	0		Y	?
.	.			Z	
_	_			Z	
kirchberg	####				
/	/			Z	
allkiri	all_kiri	0		S	sg n
/	/			Z	
Jaan	Jaan	0		H	sg n
    	jaan	0		S	sg n
    	jaan	0		Y	?
Saba	saba	0		S	sg g
    	saba	0		S	sg n
    	saba	0		S	sg p
palve	palve	0		S	sg g
     	palve	0		S	sg n
peale	pea	le		S	sg all
     	peale	0		D	
     	peale	0		K	
k	k	0		Y	?
.	.			Z	
_	_			Z	
Pälsing	####				
/	/			Z	
allkiri	all_kiri	0		S	sg n
/	/			Z	
k	k	0		Y	?
.	.			Z	
_	_			Z	
Saba	saba	0		S	sg g
    	saba	0		S	sg n
    	saba	0		S	sg p
/	/			Z	
allkiri	all_kiri	0		S	sg n
/	/			Z	
leping	leping	0		S	sg n
on	ole	0		V	b
  	ole	0		V	vad
kohtus	kohtu	s		V	s
      	kohus	s		S	sg in
poolt	pool	t		N	sg p
     	pool	t		S	sg p
     	poolt	0		D	
     	poolt	0		K	
ette	ette	0		D	
    	ette	0		K	
    	esi	tte		S	adt
loetud	loetu	d		S	pl n
      	loetud	0		A	
      	loetud	0		A	sg n
      	loetud	d		A	pl n
      	luge	tud		V	tud
,	,			Z	
lepingu	leping	0		S	sg g
tegijate	tegija	te		S	pl g
poolt	pool	t		N	sg p
     	pool	t		S	sg p
     	poolt	0		D	
     	poolt	0		K	
alla	alla	0		D	
    	alla	0		K	
kirjutud	####				
nende	see	de		P	pl g
     	tema	de		P	pl g
rahul	rahu	l		S	sg ad
     	rahul	0		D	
olemisel	olemine	l		S	sg ad
ja	ja	0		J	
kohtu	kohtu	0		V	o
     	kohus	0		S	sg g
poolt	pool	t		N	sg p
     	pool	t		S	sg p
     	poolt	0		D	
     	poolt	0		K	
kinnitatud	kinnita	tud		V	tud
          	kinnita=tu	d		S	pl n
          	kinnita=tud	0		A	
          	kinnita=tud	0		A	sg n
          	kinnita=tud	d		A	pl n
saanud	saa	nud		V	nud
      	saa=nud	0		A	
      	saa=nud	0		A	sg n
      	saa=nud	d		A	pl n
      	saanu	d		S	pl n
.	.			Z	
eesistnik	####				
H	H	0		Y	?
.	.			Z	
_	_			Z	
akjas	####				
/	/			Z	
allkiri	all_kiri	0		S	sg n
/	/			Z	
kohtumees	kohtu_mees	0		S	sg n
:	:			Z	
M	M	0		O	?
 	M	0		Y	?
.	.			Z	
_	_			Z	
ettelns	####				
/	/			Z	
allkiri	all_kiri	0		S	sg n
/	/			Z	
kohtumees	kohtu_mees	0		S	sg n
Ado	Ado	0		H	sg g
   	Ado	0		H	sg n
Roosmann	roos_mann	0		S	sg n
/	/			Z	
allkiri	all_kiri	0		S	sg n
/	/			Z	
kirjutaja	kirjutaja	0		S	sg g
         	kirjutaja	0		S	sg n
Ernst	Ernst	0		H	sg n
türk	####				
/	/			Z	
allkiri	all_kiri	0		S	sg n
/	/			Z	
