Andres	Andre	s		H	sg in
      	Andres	0		H	sg n
Paju	paju	0		S	sg g
    	paju	0		S	sg n
    	paju	0		S	sg p
maksab	maks	b		V	b
Jaak	Jaak	0		H	sg n
    	jaak	0		S	sg n
Seideri	####				
võlga	võlg	0		S	adt
     	võlg	0		S	sg p
150	150	0		N	?
kop	kop	0		Y	?
.	.			Z	
