Kaavere	####				
mõisa	mõis	0		S	sg g
pärishärra	päris_härra	0		S	sg g
          	päris_härra	0		S	sg n
O	O	0		Y	?
.	.			Z	
von	####				
Samson	####				
nõuab	nõud	b		V	b
käia	käi	0		S	adt
    	käi	0		S	sg g
    	käi	a		V	da
    	käia	0		V	o
    	käi	0		S	sg p
läbi	läbi	0		D	
    	läbi	0		K	
    	läbi	0		V	o
sest	see	st		P	sg el
    	sest	0		J	
...	...			Z	
peremees	pere_mees	0		S	sg n
Jaak	Jaak	0		H	sg n
    	jaak	0		S	sg n
püttis	####				
käest	käest	0		K	
     	käsi	st		S	sg el
250	250	0		N	?
rbl	rbl	0		Y	?
kapitali	kapital	0		S	adt
        	kapital	0		S	sg g
        	kapital	0		S	sg p
välja	välja	0		D	
     	välja	0		V	o
     	väli	0		S	adt
     	väli	0		S	sg g
     	väli	0		S	sg p
koha	koht	0		S	sg g
    	koha	0		S	sg g
    	koha	0		V	o
    	koha	0		S	sg n
    	koha	0		S	sg p
eest	eest	0		D	
    	eest	0		K	
    	esi	st		S	sg el
kätte	kätte	0		K	
     	käsi	tte		S	adt
.	.			Z	
Jaak	Jaak	0		H	sg n
    	jaak	0		S	sg n
püttis	####				
ütleb	ütle	b		V	b
välja	välja	0		D	
     	välja	0		V	o
     	väli	0		S	adt
     	väli	0		S	sg g
     	väli	0		S	sg p
õigusi_	####				
palub	palu	b		V	b
aga	aga	0		J	
...	...			Z	
mõistetud	mõist	tud		V	tud
         	mõiste=tu	d		S	pl n
         	mõiste=tud	0		A	
         	mõiste=tud	0		A	sg n
         	mõiste=tud	d		A	pl n
:	:			Z	
Jaak	Jaak	0		H	sg n
    	jaak	0		S	sg n
püttis	####				
peab	pida	b		V	b
see	see	0		P	sg n
250	250	0		N	?
rbl	rbl	0		Y	?
kolme	kolm	0		N	adt
     	kolm	0		N	sg g
     	kolm	0		N	sg p
nädali	####				
sees	sees	0		D	
    	sees	0		K	
O	O	0		Y	?
.	.			Z	
von	####				
Samsonile	####				
välja	välja	0		D	
     	välja	0		V	o
     	väli	0		S	adt
     	väli	0		S	sg g
     	väli	0		S	sg p
maksma	maks	ma		V	ma
see	see	0		P	sg n
on	ole	0		V	b
  	ole	0		V	vad
14.	14.	0		O	?
aprillini	aprill	ni		S	sg ter
1888.	1888.	0		O	?
see	see	0		P	sg n
otsus	otsus	0		S	sg n
sai	saa	i		V	s
   	sai	0		S	sg n
kohtu	kohtu	0		V	o
     	kohus	0		S	sg g
välja	välja	0		D	
     	välja	0		V	o
     	väli	0		S	adt
     	väli	0		S	sg g
     	väli	0		S	sg p
kuulutatud	kuuluta	tud		V	tud
          	kuuluta=tu	d		S	pl n
          	kuuluta=tud	0		A	
          	kuuluta=tud	0		A	sg n
          	kuuluta=tud	d		A	pl n
ja	ja	0		J	
saab	saa	b		V	b
ka	ka	0		D	
kaebajale	kaebaja	le		S	sg all
teavitatud	teavita	tud		V	tud
          	teavita=tu	d		S	pl n
          	teavita=tud	0		A	
          	teavita=tud	0		A	sg n
          	teavita=tud	d		A	pl n
.	.			Z	
peakohtumees	pea_kohtu_mees	0		S	sg n
Jaak	Jaak	0		H	sg n
    	jaak	0		S	sg n
Oinas	oinas	0		S	sg n
     	oinas	s		S	sg in
xxx	####				
kohtumees	kohtu_mees	0		S	sg n
Karl	Karl	0		H	sg n
Mihkels	####				
xxx	####				
M	M	0		O	?
 	M	0		Y	?
Anni	Ann	0		H	adt
    	Ann	0		H	sg g
    	Ann	0		H	sg p
    	and	0		S	sg g
    	Anni	0		H	sg g
    	Anni	0		H	sg n
