Holstre	####				
vallavalitsuse	valla_valitsus	0		S	sg g
kaebduses	####				
posti	post	0		S	adt
     	post	0		S	sg g
     	post	0		S	sg p
jaama	jaam	0		S	adt
     	jaam	0		S	sg g
     	jaam	0		S	sg p
võla	võlg	0		S	sg g
asjas	asi	s		S	sg in
,	,			Z	
protokoll	protokoll	0		S	sg n
27	27	0		N	?
Augustist	august	st		S	sg el
         	August	st		H	sg el
1887	1887	0		N	?
nõ	####				
.	.			Z	
445	445	0		N	?
,	,			Z	
ei	ei	0		D	
  	ei	0		V	neg
olnud	ol=nud	0		A	
     	ol=nud	0		A	sg n
     	ol=nud	d		A	pl n
     	ole	nud		V	nud
     	olnu	d		S	pl n
Johann	Johann	0		H	sg n
Parsmann	pars_mann	0		S	sg n
ega	ega	0		D	
   	ega	0		J	
Ado	Ado	0		H	sg g
   	Ado	0		H	sg n
järv	järv	0		S	sg n
ettetulnud	ette_tulnu	d		S	pl n
.	.			Z	
Johann	Johann	0		H	sg n
Moks	####				
andis	and	is		V	s
tänasel	tänane	l		A	sg ad
päeval	päev	l		S	sg ad
siin	siin	0		D	
    	siin	0		S	sg n
kohtu	kohtu	0		V	o
     	kohus	0		S	sg g
ees	ees	0		D	
   	ees	0		K	
   	esi	s		S	sg in
tunnistust	tunnistus	t		S	sg p
:	:			Z	
et	et	0		J	
Johann	Johann	0		H	sg n
Parsmann	pars_mann	0		S	sg n
keiserliku	keiserlik	0		A	sg g
IV	IV	0		O	?
  	IV	0		Y	?
Pärnumaa	Pärnu_maa	0		H	sg g
        	Pärnu_maa	0		H	sg n
        	pärnu_maa	0		G	
kihelkonnakohtu	kihelkonna_kohus	0		S	sg g
ees	ees	0		D	
   	ees	0		K	
   	esi	s		S	sg in
seda	see	da		P	sg p
ise	ise	0		A	
   	ise	0		D	
   	ise	0		P	pl n
   	ise	0		P	sg n
tõeks	tõde	ks		S	sg tr
     	tõsi	ks		S	sg tr
tunnistanud	tunnista	nud		V	nud
           	tunnista=nu	d		S	pl n
           	tunnista=nud	0		A	
           	tunnista=nud	0		A	sg n
           	tunnista=nud	d		A	pl n
on	ole	0		V	b
  	ole	0		V	vad
et	et	0		J	
tema	tema	0		P	sg g
    	tema	0		P	sg n
,	,			Z	
Johann	Johann	0		H	sg n
Parsmann	pars_mann	0		S	sg n
,	,			Z	
siis	siis	0		D	
    	siis	0		J	
kolme	kolm	0		N	adt
     	kolm	0		N	sg g
     	kolm	0		N	sg p
talu	talu	0		S	sg g
    	talu	0		V	o
    	talu	0		S	sg n
    	talu	0		S	sg p
jaama	jaam	0		S	adt
     	jaam	0		S	sg g
     	jaam	0		S	sg p
moona	moon	0		S	adt
     	moon	0		S	sg g
     	moon	0		S	sg p
,	,			Z	
nimelt	nimelt	0		D	
      	nimi	lt		S	sg abl
kahe	kaks	0		N	sg g
valiko	####				
ja	ja	0		J	
omma	####				
taluste	####				
moona	moon	0		S	adt
     	moon	0		S	sg g
     	moon	0		S	sg p
jaama	jaam	0		S	adt
     	jaam	0		S	sg g
     	jaam	0		S	sg p
viimata	vii	mata		V	mata
       	vii=mata	0		A	
jätnud	jät	nud		V	nud
      	jät=nu	d		S	pl n
      	jät=nud	0		A	
      	jät=nud	0		A	sg n
      	jät=nud	d		A	pl n
,	,			Z	
lüvanud	####				
aga	aga	0		J	
seda	see	da		P	sg p
moona	moon	0		S	adt
     	moon	0		S	sg g
     	moon	0		S	sg p
pärast	pära	st		S	sg el
      	pärane	t		A	sg p
      	pärast	0		D	
      	pärast	0		K	
seda	see	da		P	sg p
ära	ära	0		D	
   	ära	0		V	neg o
viia	vii	a		V	da
.	.			Z	
kas	kas	0		D	
Joh	####				
Parsmann	pars_mann	0		S	sg n
selle	see	0		P	sg g
     	sell	e		S	pl p
moona	moon	0		S	adt
     	moon	0		S	sg g
     	moon	0		S	sg p
ära	ära	0		D	
   	ära	0		V	neg o
viinud	vii	nud		V	nud
      	vii=nu	d		S	pl n
      	vii=nud	0		A	
      	vii=nud	0		A	sg n
      	vii=nud	d		A	pl n
või	või	0		S	sg g
   	või	0		V	o
   	või	0		D	
   	või	0		J	
   	või	0		S	sg n
viimata	vii	mata		V	mata
       	vii=mata	0		A	
jätnud	jät	nud		V	nud
      	jät=nu	d		S	pl n
      	jät=nud	0		A	
      	jät=nud	0		A	sg n
      	jät=nud	d		A	pl n
seda	see	da		P	sg p
ei	ei	0		D	
  	ei	0		V	neg
tea	tead	0		V	o
tunnistaja	tunnistaja	0		S	sg g
          	tunnistaja	0		S	sg n
üteldud	ütle	dud		V	tud
       	ütel=du	d		S	pl n
       	ütel=dud	0		A	
       	ütel=dud	0		A	sg n
       	ütel=dud	d		A	pl n
ja	ja	0		J	
pidavat	pida	vat		V	vat
       	pidav	t		A	sg p
seda	see	da		P	sg p
jaama	jaam	0		S	adt
     	jaam	0		S	sg g
     	jaam	0		S	sg p
kuidas	kuidas	0		D	
välja	välja	0		D	
     	välja	0		V	o
     	väli	0		S	adt
     	väli	0		S	sg g
     	väli	0		S	sg p
näitama	näita	ma		V	ma
.	.			Z	
Mõisteti	mõist	ti		V	ti
:	:			Z	
tunnistaja	tunnistaja	0		S	sg g
          	tunnistaja	0		S	sg n
ütelust	üte_lust	0		S	sg n
protokoli	####				
võtta	võt	a		V	da
.	.			Z	
peakohtumees	pea_kohtu_mees	0		S	sg n
JLuik	####				
[	[			Z	
allkiri	all_kiri	0		S	sg n
]	]			Z	
kohtumeest	kohtu_mees	t		S	sg p
MHansen	####				
[	[			Z	
allkiri	all_kiri	0		S	sg n
]	]			Z	
Jamaja	jama=ja	0		S	sg g
      	jama=ja	0		S	sg n
[	[			Z	
allkiri	all_kiri	0		S	sg n
]	]			Z	
kirjut	kirju	t		A	sg p
raudsep	####				
[	[			Z	
allkiri	all_kiri	0		S	sg n
]	]			Z	
