Olepa	####				
Mango	mango	0		S	sg g
     	mango	0		S	sg n
Rits	####				
kärat	####				
ja	ja	0		J	
kesvad	kesv	d		S	pl n
on	ole	0		V	b
  	ole	0		V	vad
hobuste	hobune	te		S	pl g
poolest	pool	st		N	sg el
       	pool	st		S	sg el
       	poolene	t		A	sg p
       	poolest	0		K	
ära	ära	0		D	
   	ära	0		V	neg o
söödetud	sööt	tud		V	tud
        	sööde=tu	d		S	pl n
        	sööde=tud	0		A	
        	sööde=tud	0		A	sg n
        	sööde=tud	d		A	pl n
,	,			Z	
Koiigu	####				
Jaani	Jaan	0		H	adt
     	Jaan	0		H	sg g
     	Jaani	0		H	sg g
     	jaan	0		S	adt
     	jaan	0		S	sg g
     	Jaan	0		H	sg p
     	Jaani	0		H	sg n
     	jaan	0		S	sg p
poeg	poeg	0		S	sg n
Johann	Johann	0		H	sg n
on	ole	0		V	b
  	ole	0		V	vad
sel	see	l		P	sg ad
   	sel	0		Y	?
korral	kord	l		S	sg ad
      	korral	0		D	
      	korral	0		K	
hobuste	hobune	te		S	pl g
vahin	vahti	n		V	n
olnud	ol=nud	0		A	
     	ol=nud	0		A	sg n
     	ol=nud	d		A	pl n
     	ole	nud		V	nud
     	olnu	d		S	pl n
ja	ja	0		J	
3	3	0		N	?
Küüntjate	####				
hobuste	hobune	te		S	pl g
on	ole	0		V	b
  	ole	0		V	vad
ka	ka	0		D	
puutunud	puutu	nud		V	nud
        	puutu=nu	d		S	pl n
        	puutu=nud	0		A	
        	puutu=nud	0		A	sg n
        	puutu=nud	d		A	pl n
.	.			Z	
mõistetud	mõist	tud		V	tud
         	mõiste=tu	d		S	pl n
         	mõiste=tud	0		A	
         	mõiste=tud	0		A	sg n
         	mõiste=tud	d		A	pl n
:	:			Z	
et	et	0		J	
Koiigu	####				
Jaani	Jaan	0		H	adt
     	Jaan	0		H	sg g
     	Jaani	0		H	sg g
     	jaan	0		S	adt
     	jaan	0		S	sg g
     	Jaan	0		H	sg p
     	Jaani	0		H	sg n
     	jaan	0		S	sg p
poeg	poeg	0		S	sg n
Johann	Johann	0		H	sg n
maksab	maks	b		V	b
1	1	0		N	?
1	1	0		N	?
/	/			Z	
2	2	0		N	?
vakk	vakk	0		S	sg n
None	####				
kesvad	kesv	d		S	pl n
None	####				
Karast	Kara	st		H	sg el
      	kara	st		S	sg el
ja	ja	0		J	
1	1	0		N	?
/	/			Z	
3	3	0		N	?
vakk	vakk	0		S	sg n
kesvad	kesv	d		S	pl n
,	,			Z	
ja	ja	0		J	
need	see	d		P	pl n
küüntjad	####				
maksavad	maks	vad		V	vad
1	1	0		N	?
/	/			Z	
2	2	0		N	?
vakk	vakk	0		S	sg n
Karast	Kara	st		H	sg el
      	kara	st		S	sg el
.	.			Z	
Johann	Johann	0		H	sg n
Moks	####				
+	+			Z	
+	+			Z	
+	+			Z	
pea	pea	0		D	
   	pea	0		S	sg g
   	pida	0		V	o
   	pea	0		S	sg n
kohtumeest	kohtu_mees	t		S	sg p
