Jaak	Jaak	0		H	sg n
    	jaak	0		S	sg n
Kärp	kärp	0		S	sg n
kaebtuses	####				
,	,			Z	
Hain	Hain	0		H	sg n
Henno	Henno	0		H	sg g
     	Henno	0		H	sg n
et	et	0		J	
cons	####				
.	.			Z	
vase	vask	0		S	sg g
oma	oma	0		A	sg g
   	oma	0		D	
   	oma	0		P	sg g
   	oma	0		S	sg g
   	oma	0		V	o
   	oma	0		A	sg n
   	oma	0		A	sg p
   	oma	0		P	sg n
   	oma	0		P	sg p
   	oma	0		S	sg n
   	oma	0		S	sg p
sisse	siss	e		S	pl p
     	sisse	0		D	
     	sisse	0		K	
makstud	maks	tud		V	tud
       	maks=tu	d		S	pl n
       	maks=tud	0		A	
       	maks=tud	0		A	sg n
       	maks=tud	d		A	pl n
magasi	magas	0		S	sg g
vilja	vili	0		S	adt
     	vili	0		S	sg g
     	vili	0		S	sg p
raha	raha	0		S	sg g
    	raha	0		S	sg n
    	raha	0		S	sg p
tagasi	tagasi	0		D	
      	tagasi	0		K	
nõudmise	nõudmine	0		S	sg g
pärast	pära	st		S	sg el
      	pärane	t		A	sg p
      	pärast	0		D	
      	pärast	0		K	
olid	ole	id		V	sid
kutsumise	kutsumine	0		S	sg g
järele	järele	0		D	
      	järele	0		K	
ette	ette	0		D	
    	ette	0		K	
    	esi	tte		S	adt
tulnud	tul=nud	0		A	
      	tul=nud	0		A	sg n
      	tul=nud	d		A	pl n
      	tule	nud		V	nud
      	tulnu	d		S	pl n
Jaak	Jaak	0		H	sg n
    	jaak	0		S	sg n
Karp	karp	0		S	sg n
,	,			Z	
Hain	Hain	0		H	sg n
Henno	Henno	0		H	sg g
     	Henno	0		H	sg n
ja	ja	0		J	
Jaan	Jaan	0		H	sg n
    	jaan	0		S	sg n
    	jaan	0		Y	?
Kull	kull	0		S	sg n
,	,			Z	
et	et	0		J	
tõisest	####				
selles	see	s		P	sg in
puutuvad	puutu	vad		V	vad
        	puutuv	d		A	pl n
inimesed	inimene	d		S	pl n
puudusid	puudu	sid		V	sid
ei	ei	0		D	
  	ei	0		V	neg
olnud	ol=nud	0		A	
     	ol=nud	0		A	sg n
     	ol=nud	d		A	pl n
     	ole	nud		V	nud
     	olnu	d		S	pl n
võimalik	võimalik	0		A	sg n
selles	see	s		P	sg in
asjas	asi	s		S	sg in
otsust	otsus	t		S	sg p
anda	and	a		V	da
ja	ja	0		J	
Mõisteti	mõist	ti		V	ti
:	:			Z	
seda	see	da		P	sg p
protokoli	####				
kirjutada	kirjuta	da		V	da
.	.			Z	
