An	####				
Reimann	####				
(	(			Z	
käemees	käe_mees	0		S	sg n
Hans	Hans	0		H	sg n
Vaher	vaher	0		S	sg n
)	)			Z	
tuli	tuli	0		S	sg n
    	tule	i		V	s
ette	ette	0		D	
    	ette	0		K	
    	esi	tte		S	adt
ja	ja	0		J	
kaebas	kaeba	s		V	s
,	,			Z	
et	et	0		J	
Jüri	Jüri	0		H	sg g
    	Jüri	0		H	sg n
Glükk	####				
tema	tema	0		P	sg g
    	tema	0		P	sg n
poega	poeg	0		S	adt
     	pood	ga		S	sg kom
     	poeg	0		S	sg p
Andres	Andre	s		H	sg in
      	Andres	0		H	sg n
Reimann	####				
kes	kes	0		P	pl n
   	kes	0		P	sg n
11	11	0		N	?
aastat	aasta	t		S	sg p
vana	vana	0		A	sg g
    	vana	0		A	sg n
    	vana	0		A	sg p
    	vana	0		S	sg g
    	vana	0		S	sg n
    	vana	0		S	sg p
,	,			Z	
endale	ise	le		P	sg all
karjaseks	karjane	ks		S	sg tr
võtnud	võt	nud		V	nud
      	võt=nu	d		S	pl n
      	võt=nud	0		A	
      	võt=nud	0		A	sg n
      	võt=nud	d		A	pl n
aga	aga	0		J	
seda	see	da		P	sg p
12	12	0		N	?
nädalise	####				
teenistuse	teenistus	0		S	sg g
järele	järele	0		D	
      	järele	0		K	
ära	ära	0		D	
   	ära	0		V	neg o
aeanud	####				
,	,			Z	
ja	ja	0		J	
palub	palu	b		V	b
kaebaja	kaebaja	0		S	sg g
       	kaebaja	0		S	sg n
et	et	0		J	
kohus	kohu	s		V	s
     	kohus	0		S	sg n
Jüri	Jüri	0		H	sg g
    	Jüri	0		H	sg n
Glüki	####				
sunniks	sund	ks		S	sg tr
       	sundi	ks		V	ks
tema	tema	0		P	sg g
    	tema	0		P	sg n
poeale	####				
tarvilist	tarviline	t		A	sg p
ülespidamist	üles_pidamine	t		S	sg p
maksma	maks	ma		V	ma
.	.			Z	
Jüri	Jüri	0		H	sg g
    	Jüri	0		H	sg n
Glükk	####				
sai	saa	i		V	s
   	sai	0		S	sg n
ette	ette	0		D	
    	ette	0		K	
    	esi	tte		S	adt
kutsutud	kutsu	tud		V	tud
        	kutsutu	d		S	pl n
        	kutsutud	0		A	
        	kutsutud	0		A	sg n
        	kutsutud	d		A	pl n
kes	kes	0		P	pl n
   	kes	0		P	sg n
ütles	ütle	s		V	s
,	,			Z	
et	et	0		J	
Andres	Andre	s		H	sg in
      	Andres	0		H	sg n
Reimann	####				
väga	väga	0		D	
hooltud	####				
olnud	ol=nud	0		A	
     	ol=nud	0		A	sg n
     	ol=nud	d		A	pl n
     	ole	nud		V	nud
     	olnu	d		S	pl n
,	,			Z	
karja	kari	0		S	adt
     	kari	0		S	sg g
     	kari	0		S	sg p
üksi	üksi	0		D	
jätnud	jät	nud		V	nud
      	jät=nu	d		S	pl n
      	jät=nud	0		A	
      	jät=nud	0		A	sg n
      	jät=nud	d		A	pl n
ning	ning	0		J	
isi	####				
mujale	mujale	0		D	
läinud	läinu	d		S	pl n
      	läinud	0		A	
      	läinud	0		A	sg n
      	läinud	d		A	pl n
      	mine	nud		V	nud
kus	kus	0		D	
kari	kari	0		S	sg g
    	kari	0		S	sg n
    	kari	0		S	sg p
sagedaste	sagedane	te		A	pl g
viljades	vili	des		S	pl in
läinud	läinu	d		S	pl n
      	läinud	0		A	
      	läinud	0		A	sg n
      	läinud	d		A	pl n
      	mine	nud		V	nud
ja	ja	0		J	
kahju	kahi	0		S	adt
     	kahi	0		S	sg g
     	kahi	0		S	sg p
     	kahju	0		S	sg g
     	kahju	0		S	sg n
     	kahju	0		S	sg p
teinud	tege	nud		V	nud
      	tei=nud	0		A	
      	tei=nud	0		A	sg n
      	tei=nud	d		A	pl n
      	teinu	d		S	pl n
seepärast	see_pärast	0		D	
ei	ei	0		D	
  	ei	0		V	neg
ole	ole	0		V	o
tema	tema	0		P	sg g
    	tema	0		P	sg n
seda	see	da		P	sg p
mitte	mitte	0		D	
enam	enam	0		C	sg n
    	enam	0		D	
oma	oma	0		A	sg g
   	oma	0		D	
   	oma	0		P	sg g
   	oma	0		S	sg g
   	oma	0		V	o
   	oma	0		A	sg n
   	oma	0		A	sg p
   	oma	0		P	sg n
   	oma	0		P	sg p
   	oma	0		S	sg n
   	oma	0		S	sg p
teenistuses	teenistus	s		S	sg in
           	teenistuses	0		A	
           	teenistuses	0		D	
pruukida	pruuki	da		V	da
võinud	või	nud		V	nud
      	või=nu	d		S	pl n
      	või=nud	0		A	
      	või=nud	0		A	sg n
      	või=nud	d		A	pl n
ning	ning	0		J	
An	####				
Reimanni	####				
enest	####				
karja	kari	0		S	adt
     	kari	0		S	sg g
     	kari	0		S	sg p
sundinud	sundi	nud		V	nud
        	sundi=nu	d		S	pl n
        	sundi=nud	0		A	
        	sundi=nud	0		A	sg n
        	sundi=nud	d		A	pl n
,	,			Z	
aga	aga	0		J	
An	####				
Reimann	####				
siis	siis	0		D	
    	siis	0		J	
ühes	üks	s		N	sg in
    	üks	s		P	sg in
    	ühes	0		D	
    	ühes	0		K	
oma	oma	0		A	sg g
   	oma	0		D	
   	oma	0		P	sg g
   	oma	0		S	sg g
   	oma	0		V	o
   	oma	0		A	sg n
   	oma	0		A	sg p
   	oma	0		P	sg n
   	oma	0		P	sg p
   	oma	0		S	sg n
   	oma	0		S	sg p
poeaga	####				
ära	ära	0		D	
   	ära	0		V	neg o
läinud	läinu	d		S	pl n
      	läinud	0		A	
      	läinud	0		A	sg n
      	läinud	d		A	pl n
      	mine	nud		V	nud
seepärast	see_pärast	0		D	
ei	ei	0		D	
  	ei	0		V	neg
võida	või	da		V	da
     	võid	a		V	da
     	võit	0		V	o
     	või	da		V	ta
tema	tema	0		P	sg g
    	tema	0		P	sg n
neile	see	le		P	pl all
     	tema	le		P	pl all
ühtegi	ühte	0	gi	D	
      	üks	0	gi	N	adt
      	üks	0	gi	P	adt
      	ühe	0	gi	S	sg g
      	üks	0	gi	N	sg p
      	üks	0	gi	P	sg p
maksta	maks	ta		V	da
      	maks	ta		V	ta
.	.			Z	
mõistetud	mõist	tud		V	tud
         	mõiste=tu	d		S	pl n
         	mõiste=tud	0		A	
         	mõiste=tud	0		A	sg n
         	mõiste=tud	d		A	pl n
:	:			Z	
Jüri	Jüri	0		H	sg g
    	Jüri	0		H	sg n
Glükk	####				
peab	pida	b		V	b
12	12	0		N	?
nädalise	####				
Andres	Andre	s		H	sg in
      	Andres	0		H	sg n
Reimanni	####				
teenistuse	teenistus	0		S	sg g
eest	eest	0		D	
    	eest	0		K	
    	esi	st		S	sg el
1	1	0		N	?
vak	####				
rukkid	rukis	d		S	pl n
,	,			Z	
An	####				
Reimannile	####				
maksma	maks	ma		V	ma
.	.			Z	
peakohtumees	pea_kohtu_mees	0		S	sg n
:	:			Z	
J. Kusik	####				
(	(			Z	
allkiri	all_kiri	0		S	sg n
)	)			Z	
kohtumees	kohtu_mees	0		S	sg n
:	:			Z	
T	T	0		Y	?
.	.			Z	
_	_			Z	
Taman	####				
(	(			Z	
allkiri	all_kiri	0		S	sg n
)	)			Z	
kohtumees	kohtu_mees	0		S	sg n
:	:			Z	
J. Org	####				
XXX	XXX	0		O	?
   	XXX	0		Y	?
kirjutaja	kirjutaja	0		S	sg g
         	kirjutaja	0		S	sg n
:	:			Z	
kõhler	####				
(	(			Z	
allkiri	all_kiri	0		S	sg n
)	)			Z	
