Jaanud	####				
Rekkandi	rekk_and	0		S	adt
        	rekk_and	0		S	sg p
kaebduses	####				
Johann	Johann	0		H	sg n
Viidika	viidikas	0		S	sg g
vastu	vastu	0		D	
     	vastu	0		K	
olid	ole	id		V	sid
mõlemad	mõlema	d		P	pl n
kohtukäijad	kohtu_käija	d		S	pl n
ette	ette	0		D	
    	ette	0		K	
    	esi	tte		S	adt
tulnud	tul=nud	0		A	
      	tul=nud	0		A	sg n
      	tul=nud	d		A	pl n
      	tule	nud		V	nud
      	tulnu	d		S	pl n
.	.			Z	
Protokoll	protokoll	0		S	sg n
25	25	0		N	?
""""	""""			Z	
Septembrist	september	st		S	sg el
s	s	0		Y	?
.	.			Z	
a.	a	0		Y	?
nõ	####				
.	.			Z	
508	508	0		N	?
sai	saa	i		V	s
   	sai	0		S	sg n
ette	ette	0		D	
    	ette	0		K	
    	esi	tte		S	adt
loetud	loetu	d		S	pl n
      	loetud	0		A	
      	loetud	0		A	sg n
      	loetud	d		A	pl n
      	luge	tud		V	tud
ja	ja	0		J	
andis	and	is		V	s
Jaanud	####				
Rekanud	####				
veel	veel	0		D	
    	vesi	l		S	sg ad
selle	see	0		P	sg g
     	sell	e		S	pl p
Noenduseks	####				
üllese	####				
,	,			Z	
et	et	0		J	
poiss	poiss	0		S	sg n
Johann	Johann	0		H	sg n
Viidik	####				
9	9	0		N	?
päeva	päev	0		S	adt
     	päev	0		S	sg g
     	päev	0		S	sg p
ära	ära	0		D	
   	ära	0		V	neg o
on	ole	0		V	b
  	ole	0		V	vad
viitnud	viit	nud		V	nud
       	viit=nu	d		S	pl n
       	viit=nud	0		A	
       	viit=nud	0		A	sg n
       	viit=nud	d		A	pl n
.	.			Z	
Johann	Johann	0		H	sg n
Viidik	####				
vastab	vasta	b		V	b
,	,			Z	
et	et	0		J	
peremees	pere_mees	0		S	sg n
ei	ei	0		D	
  	ei	0		V	neg
olevat	ole	vat		V	vat
      	olev	t		A	sg p
      	olev	t		S	sg p
temale	tema	le		P	sg all
tõt	####				
annud	####				
ega	ega	0		D	
   	ega	0		J	
käskinud	käski	nud		V	nud
        	käski=nu	d		S	pl n
        	käski=nud	0		A	
        	käski=nud	0		A	sg n
        	käski=nud	d		A	pl n
tõsi	tõsi	0		S	pl p
    	tõsi	0		S	sg n
mina	mina	0		P	sg n
    	mina	0		S	sg g
    	mina	0		S	sg n
    	mina	0		S	sg p
ja	ja	0		J	
ei	ei	0		D	
  	ei	0		V	neg
olevat	ole	vat		V	vat
      	olev	t		A	sg p
      	olev	t		S	sg p
ta	tema	0		P	sg g
  	tema	0		P	sg n
ka	ka	0		D	
9	9	0		N	?
päeva	päev	0		S	adt
     	päev	0		S	sg g
     	päev	0		S	sg p
ära	ära	0		D	
   	ära	0		V	neg o
viitnud	viit	nud		V	nud
       	viit=nu	d		S	pl n
       	viit=nud	0		A	
       	viit=nud	0		A	sg n
       	viit=nud	d		A	pl n
.	.			Z	
Mõisteti	mõist	ti		V	ti
:	:			Z	
Jaanud	####				
Rekanud	####				
peab	pida	b		V	b
poissile	####				
tõt	####				
ja	ja	0		J	
süüa	söö	a		V	da
andma	and	ma		V	ma
ja	ja	0		J	
mis	mis	0		P	pl n
   	mis	0		P	sg n
poiss	poiss	0		S	sg n
päeva	päev	0		S	adt
     	päev	0		S	sg g
     	päev	0		S	sg p
ära	ära	0		D	
   	ära	0		V	neg o
viidab	viit	b		V	b
,	,			Z	
maksab	maks	b		V	b
selle	see	0		P	sg g
     	sell	e		S	pl p
eest	eest	0		D	
    	eest	0		K	
    	esi	st		S	sg el
50	50	0		N	?
kop	kop	0		Y	?
.	.			Z	
tagasi	tagasi	0		D	
      	tagasi	0		K	
.	.			Z	
eesseisva	ees_seisev	0		A	sg g
otsus	otsus	0		S	sg n
sai	saa	i		V	s
   	sai	0		S	sg n
kuulutatud	kuuluta	tud		V	tud
          	kuuluta=tu	d		S	pl n
          	kuuluta=tud	0		A	
          	kuuluta=tud	0		A	sg n
          	kuuluta=tud	d		A	pl n
.	.			Z	
peakohtumees	pea_kohtu_mees	0		S	sg n
Jaak	Jaak	0		H	sg n
    	jaak	0		S	sg n
Luik	luik	0		S	sg n
[	[			Z	
allkiri	all_kiri	0		S	sg n
]	]			Z	
kohtumees	kohtu_mees	0		S	sg n
:	:			Z	
Mihkel	Mihkel	0		H	sg n
      	mihkel	0		A	sg n
      	mihkel	0		S	sg n
Hansen	Hansen	0		H	sg n
[	[			Z	
allkiri	all_kiri	0		S	sg n
]	]			Z	
Johann	Johann	0		H	sg n
Andresson	####				
[	[			Z	
allkiri	all_kiri	0		S	sg n
]	]			Z	
