mõisa	mõis	0		S	sg g
valitsuse	valitsus	0		S	sg g
poolest	pool	st		N	sg el
       	pool	st		S	sg el
       	poolene	t		A	sg p
       	poolest	0		K	
küsiti	küsi	ti		V	ti
,	,			Z	
sest	see	st		P	sg el
    	sest	0		J	
et	et	0		J	
tema	tema	0		P	sg g
    	tema	0		P	sg n
kirja	kirja	0		A	
     	kirja	0		V	o
     	kiri	0		S	adt
     	kiri	0		S	sg g
     	kiri	0		S	sg p
oli	ole	i		V	s
saanud	saa	nud		V	nud
      	saa=nud	0		A	
      	saa=nud	0		A	sg n
      	saa=nud	d		A	pl n
      	saanu	d		S	pl n
kihelkonna	kihelkond	0		S	sg g
kohtu	kohtu	0		V	o
     	kohus	0		S	sg g
poolest	pool	st		N	sg el
       	pool	st		S	sg el
       	poolene	t		A	sg p
       	poolest	0		K	
,	,			Z	
et	et	0		J	
Jaak	Jaak	0		H	sg n
    	jaak	0		S	sg n
Pullerits	####				
ja	ja	0		J	
Jüri	Jüri	0		H	sg g
    	Jüri	0		H	sg n
Vanaus	####				
pidid	pida	id		V	sid
10ndal	10=s	l		O	sg ad
sel	see	l		P	sg ad
   	sel	0		Y	?
kui	kui	0		D	
   	kui	0		J	
päeval	päev	l		S	sg ad
Holdre	####				
mõisas	mõis	s		S	sg in
olema	ole	ma		V	ma
,	,			Z	
ja	ja	0		J	
sest	see	st		P	sg el
    	sest	0		J	
et	et	0		J	
nemad	tema	d		P	pl n
seal	seal	0		D	
    	siga	l		A	sg ad
    	siga	l		S	sg ad
ka	ka	0		D	
on	ole	0		V	b
  	ole	0		V	vad
olnud	ol=nud	0		A	
     	ol=nud	0		A	sg n
     	ol=nud	d		A	pl n
     	ole	nud		V	nud
     	olnu	d		S	pl n
:	:			Z	
nad	tema	d		P	pl n
olid	ole	id		V	sid
sealt	sealt	0		D	
     	siga	lt		A	sg abl
     	siga	lt		S	sg abl
kuulda	kuul	da		V	da
      	kuul	da		V	ta
saanud	saa	nud		V	nud
      	saa=nud	0		A	
      	saa=nud	0		A	sg n
      	saa=nud	d		A	pl n
      	saanu	d		S	pl n
:	:			Z	
vastasid	vasta	sid		V	sid
siis	siis	0		D	
    	siis	0		J	
Jaak	Jaak	0		H	sg n
    	jaak	0		S	sg n
Pullerits	####				
ning	ning	0		J	
Jüri	Jüri	0		H	sg g
    	Jüri	0		H	sg n
Vanaus	####				
et	et	0		J	
nemad	tema	d		P	pl n
Holdre_mõisa	####				
olid	ole	id		V	sid
olnud	ol=nud	0		A	
     	ol=nud	0		A	sg n
     	ol=nud	d		A	pl n
     	ole	nud		V	nud
     	olnu	d		S	pl n
,	,			Z	
ja	ja	0		J	
et	et	0		J	
seal	seal	0		D	
    	siga	l		A	sg ad
    	siga	l		S	sg ad
ei	ei	0		D	
  	ei	0		V	neg
ole	ole	0		V	o
muu	muu	0		P	sg g
   	muu	0		S	sg g
   	muu	0		V	o
   	muu	0		P	sg n
   	muu	0		S	sg n
kedagi	keegi	dagi		P	sg p
,	,			Z	
ei	ei	0		D	
  	ei	0		V	neg
kohtuhärrad	kohtu_härra	d		S	pl n
,	,			Z	
ega	ega	0		D	
   	ega	0		J	
kohtu	kohtu	0		V	o
     	kohus	0		S	sg g
mehed	mees	d		S	pl n
,	,			Z	
muidu	muidu	0		D	
et	et	0		J	
kirjutaja	kirjutaja	0		S	sg g
         	kirjutaja	0		S	sg n
isand	isand	0		S	sg n
neile	see	le		P	pl all
     	tema	le		P	pl all
oli	ole	i		V	s
kuulutanud	kuuluta	nud		V	nud
          	kuuluta=nu	d		S	pl n
          	kuuluta=nud	0		A	
          	kuuluta=nud	0		A	sg n
          	kuuluta=nud	d		A	pl n
:	:			Z	
1.	1.	0		O	?
et_mis	####				
Paistu	Paistu	0		H	sg g
      	Paistu	0		H	sg n
kirikuhärra	kiriku_härra	0		S	sg g
           	kiriku_härra	0		S	sg n
sõnniku	sõnnik	0		S	sg g
vedamise	vedamine	0		S	sg g
päärast	####				
1825mal	####				
aastal	aasta	l		S	sg ad
oli	ole	i		V	s
kihelkonnakohtule	kihelkonna_kohus	le		S	sg all
kaevanud	kaeba	nud		V	nud
        	kaeva	nud		V	nud
        	kaeva=nu	d		S	pl n
        	kaeva=nud	0		A	
        	kaeva=nud	0		A	sg n
        	kaeva=nud	d		A	pl n
,	,			Z	
et	et	0		J	
tema	tema	0		P	sg g
    	tema	0		P	sg n
teopäevad	teo_päev	d		S	pl n
pidid	pida	id		V	sid
tasutud	tasu	tud		V	tud
       	tasu=tu	d		S	pl n
       	tasu=tud	0		A	
       	tasu=tud	0		A	sg n
       	tasu=tud	d		A	pl n
saama	saa	ma		V	ma
     	saam	0		S	adt
     	saam	0		S	sg g
     	saam	0		S	sg p
et	et	0		J	
pidi	pida	i		V	s
    	pidi	0		K	
nõnda	nõnda	0		D	
jääma	jää	ma		V	ma
     	jääm	0		S	adt
     	jääm	0		S	sg g
     	jääm	0		S	sg p
,	,			Z	
ning	ning	0		J	
õigus	õigus	0		S	sg n
olema	ole	ma		V	ma
.	.			Z	
kui	kui	0		D	
   	kui	0		J	
kihelkonnakohus	kihelkonna_kohus	0		S	sg n
7ndal	7=s	l		O	sg ad
lõikuse	lõikus	0		S	sg g
kui	kui	0		D	
   	kui	0		J	
päeval	päev	l		S	sg ad
1825	1825	0		N	?
on	ole	0		V	b
  	ole	0		V	vad
õigeks	õige	ks		A	sg tr
mõistnud	mõist	nud		V	nud
        	mõist=nu	d		S	pl n
        	mõist=nud	0		A	
        	mõist=nud	0		A	sg n
        	mõist=nud	d		A	pl n
.	.			Z	
2.	2.	0		O	?
et	et	0		J	
Toomas	Toomas	0		H	sg n
      	Toomas	s		H	sg in
      	too	mas		V	mas
Martinsohn	####				
pidi	pida	i		V	s
    	pidi	0		K	
kiriku	kirik	0		S	sg g
härra	härra	0		S	sg g
     	härra	0		S	sg n
juurde	juur	de		S	adt
      	juurde	0		D	
      	juurde	0		K	
juurde	juur	de		S	adt
      	juurde	0		D	
      	juurde	0		K	
minema	mine	ma		V	ma
ning	ning	0		J	
teda	tema	da		P	sg p
paluma	palu	ma		V	ma
et	et	0		J	
kiriku	kirik	0		S	sg g
härra	härra	0		S	sg g
     	härra	0		S	sg n
esimise	####				
kohtu	kohtu	0		V	o
     	kohus	0		S	sg g
päeval	päev	l		S	sg ad
pärast	pära	st		S	sg el
      	pärane	t		A	sg p
      	pärast	0		D	
      	pärast	0		K	
seda	see	da		P	sg p
palumist	palumine	t		S	sg p
lubaks	luba	ks		V	ks
kogukonna	kogukond	0		S	sg g
kohtu	kohtu	0		V	o
     	kohus	0		S	sg g
ette	ette	0		D	
    	ette	0		K	
    	esi	tte		S	adt
tulla	tule	a		V	da
,	,			Z	
ja	ja	0		J	
kuulda	kuul	da		V	da
      	kuul	da		V	ta
mis	mis	0		P	pl n
   	mis	0		P	sg n
õiguse	õigus	0		S	sg g
ja	ja	0		J	
kohtu	kohtu	0		V	o
     	kohus	0		S	sg g
poolist	pool	ist		N	pl el
       	pool	ist		S	pl el
       	pool	st		S	sg el
tarvis	tarvis	0		D	
      	tarvis	0		K	
on	ole	0		V	b
  	ole	0		V	vad
.	.			Z	
3.	3.	0		O	?
et	et	0		J	
selle	see	0		P	sg g
     	sell	e		S	pl p
raha	raha	0		S	sg g
    	raha	0		S	sg n
    	raha	0		S	sg p
pärast	pära	st		S	sg el
      	pärane	t		A	sg p
      	pärast	0		D	
      	pärast	0		K	
mis	mis	0		P	pl n
   	mis	0		P	sg n
piiviisionikirja	####				
eest	eest	0		D	
    	eest	0		K	
    	esi	st		S	sg el
,	,			Z	
kihelkonna	kihelkond	0		S	sg g
kohtu	kohtu	0		V	o
     	kohus	0		S	sg g
kirjutajale	kirjutaja	le		S	sg all
tuleb	tule	b		V	b
maksma	maks	ma		V	ma
,	,			Z	
ja	ja	0		J	
mis	mis	0		P	pl n
   	mis	0		P	sg n
valla	vald	0		S	sg g
     	valla	0		D	
laekas	laegas	s		S	sg in
juba	juba	0		D	
valmis	valm	s		S	sg in
      	valmi	s		V	s
      	valmis	0		A	
      	valmis	0		A	sg n
      	valmis	0		D	
      	valmis	s		A	sg in
pandud	pan=du	d		S	pl n
      	pan=dud	0		A	
      	pan=dud	0		A	sg n
      	pan=dud	d		A	pl n
      	pane	dud		V	tud
,	,			Z	
ja	ja	0		J	
mis	mis	0		P	pl n
   	mis	0		P	sg n
aga	aga	0		J	
mõisa	mõis	0		S	sg g
valitsuse	valitsus	0		S	sg g
käsu	käsk	0		S	sg g
järele	järele	0		D	
      	järele	0		K	
laekas	laegas	s		S	sg in
sinniajani	####				
kinni	kinni	0		D	
peetud	peetu	d		S	pl n
      	peetu	d		V	d
      	peetud	0		A	
      	peetud	0		A	sg n
      	peetud	d		A	pl n
      	pida	tud		V	tud
on	ole	0		V	b
  	ole	0		V	vad
_	_			Z	
sai	saa	i		V	s
   	sai	0		S	sg n
öeldud	öeldu	d		S	pl n
      	öeldud	0		A	
      	öeldud	0		A	sg n
      	öeldud	d		A	pl n
      	ütle	dud		V	tud
kihelkonna	kihelkond	0		S	sg g
kohtu	kohtu	0		V	o
     	kohus	0		S	sg g
kirjutajast	kirjutaja	st		S	sg el
need	see	d		P	pl n
mise	####				
ja	ja	0		J	
vandumisega	vandumine	ga		S	sg kom
,	,			Z	
et	et	0		J	
mõisa	mõis	0		S	sg g
vanem	vanem	0		C	sg n
     	vanem	0		S	sg n
None	####				
Schlossmanni	####				
härra	härra	0		S	sg g
     	härra	0		S	sg n
None	####				
ja	ja	0		J	
et	et	0		J	
Holstre	####				
opman	opman	0		S	sg n
selle	see	0		P	sg g
     	sell	e		S	pl p
kirjutaja	kirjutaja	0		S	sg g
         	kirjutaja	0		S	sg n
arvamise	arvamine	0		S	sg g
ja	ja	0		J	
mõistmise	mõistmine	0		S	sg g
järel	järel	0		D	
     	järel	0		K	
pidi	pida	i		V	s
    	pidi	0		K	
keppid	####				
,	,			Z	
kohtumeest	kohtu_mees	t		S	sg p
aga	aga	0		J	
kõik	kõik	0		P	pl n
    	kõik	0		S	sg n
    	kõik	0		P	sg n
,	,			Z	
10	10	0		N	?
rubla	rubla	0		S	sg g
     	rubla	0		S	sg n
     	rubla	0		S	sg p
maksma	maks	ma		V	ma
,	,			Z	
ametist	amet	st		S	sg el
maha	maha	0		D	
häidetud	####				
ehk	ehk	0		D	
   	ehk	0		J	
ka	ka	0		D	
muu	muu	0		P	sg g
   	muu	0		S	sg g
   	muu	0		V	o
   	muu	0		P	sg n
   	muu	0		S	sg n
kanget	kange	t		A	sg p
trahvi	trahv	0		S	adt
      	trahv	0		S	sg g
      	trahvi	0		V	o
      	trahv	0		S	sg p
saama	saa	ma		V	ma
     	saam	0		S	adt
     	saam	0		S	sg g
     	saam	0		S	sg p
,	,			Z	
kui	kui	0		D	
   	kui	0		J	
nemad	tema	d		P	pl n
mitte	mitte	0		D	
mõne	mõni	0		P	sg g
pärast	pära	st		S	sg el
      	pärane	t		A	sg p
      	pärast	0		D	
      	pärast	0		K	
seda	see	da		P	sg p
kirjutamise	kirjutamine	0		S	sg g
raha	raha	0		S	sg g
    	raha	0		S	sg n
    	raha	0		S	sg p
Holdre	####				
ei	ei	0		D	
  	ei	0		V	neg
saada	saa	da		V	da
     	saat	0		V	o
     	saa	da		V	ta
.	.			Z	
sai	saa	i		V	s
   	sai	0		S	sg n
siis	siis	0		D	
    	siis	0		J	
Toomas	Toomas	0		H	sg n
      	Toomas	s		H	sg in
      	too	mas		V	mas
Martinsohn	####				
kohtu	kohtu	0		V	o
     	kohus	0		S	sg g
ette	ette	0		D	
    	ette	0		K	
    	esi	tte		S	adt
kutsutud	kutsu	tud		V	tud
        	kutsutu	d		S	pl n
        	kutsutud	0		A	
        	kutsutud	0		A	sg n
        	kutsutud	d		A	pl n
,	,			Z	
kes	kes	0		P	pl n
   	kes	0		P	sg n
tunnistas	tunnista	s		V	s
,	,			Z	
et	et	0		J	
ta	tema	0		P	sg g
  	tema	0		P	sg n
selsamal	see_sama	l		P	sg ad
hommikul	hommik	l		S	sg ad
Paistu	Paistu	0		H	sg g
      	Paistu	0		H	sg n
kiriku	kirik	0		S	sg g
mõisas	mõis	s		S	sg in
oli	ole	i		V	s
saanud	saa	nud		V	nud
      	saa=nud	0		A	
      	saa=nud	0		A	sg n
      	saa=nud	d		A	pl n
      	saanu	d		S	pl n
,	,			Z	
ja	ja	0		J	
et	et	0		J	
kiriku	kirik	0		S	sg g
härra	härra	0		S	sg g
     	härra	0		S	sg n
lubanud	luba	nud		V	nud
       	luba=nu	d		S	pl n
       	luba=nud	0		A	
       	luba=nud	0		A	sg n
       	luba=nud	d		A	pl n
tänasel	tänane	l		A	sg ad
päeval	päev	l		S	sg ad
siia	siia	0		D	
    	siig	0		S	sg g
tulla	tule	a		V	da
.	.			Z	
õpetaja	õpetaja	0		S	sg g
       	õpetaja	0		S	sg n
oli	ole	i		V	s
ka	ka	0		D	
paigal	paik	l		S	sg ad
      	paigal	0		D	
,	,			Z	
ja	ja	0		J	
Thomas	Thomas	0		H	sg n
tegi	sina	0	gi	P	pl g
    	tege	i		V	s
    	sina	0	gi	P	pl n
kohtu	kohtu	0		V	o
     	kohus	0		S	sg g
käsu	käsk	0		S	sg g
järgi	järg	i		S	pl p
     	järgi	0		D	
     	järgi	0		K	
     	järgi	0		V	o
,	,			Z	
mis	mis	0		P	pl n
   	mis	0		P	sg n
õpetaja	õpetaja	0		S	sg g
       	õpetaja	0		S	sg n
heaks	hea	ks		A	sg tr
     	hea	ks		S	sg tr
     	heaks	0		D	
     	heaks	0		K	
kiitis	kiit	is		V	s
ja	ja	0		J	
ütles	ütle	s		V	s
rahul	rahu	l		S	sg ad
     	rahul	0		D	
ennast	ise	t		P	sg p
olevat	ole	vat		V	vat
      	olev	t		A	sg p
      	olev	t		S	sg p
.	.			Z	
õpetaja	õpetaja	0		S	sg g
       	õpetaja	0		S	sg n
käskis	käski	s		V	s
siin	siin	0		D	
    	siin	0		S	sg n
sama	sama	0		P	sg g
    	sama	0		P	sg n
    	sama	0		P	sg p
kirjutada	kirjuta	da		V	da
,	,			Z	
et	et	0		J	
tema	tema	0		P	sg g
    	tema	0		P	sg n
ei	ei	0		D	
  	ei	0		V	neg
mõista	mõist	0		V	o
      	mõist	a		V	da
mitte	mitte	0		D	
,	,			Z	
mis	mis	0		P	pl n
   	mis	0		P	sg n
sõnniku	sõnnik	0		S	sg g
vedamise	vedamine	0		S	sg g
pärast	pära	st		S	sg el
      	pärane	t		A	sg p
      	pärast	0		D	
      	pärast	0		K	
1825	1825	0		N	?
maal	maa	l		S	sg ad
    	maal	0		S	sg n
aastal	aasta	l		S	sg ad
on	ole	0		V	b
  	ole	0		V	vad
mõistetud	mõist	tud		V	tud
         	mõiste=tu	d		S	pl n
         	mõiste=tud	0		A	
         	mõiste=tud	0		A	sg n
         	mõiste=tud	d		A	pl n
,	,			Z	
sest	see	st		P	sg el
    	sest	0		J	
et	et	0		J	
tema	tema	0		P	sg g
    	tema	0		P	sg n
ootab	oota	b		V	b
kohtu	kohtu	0		V	o
     	kohus	0		S	sg g
kirjad	kirja	d		V	d
      	kiri	d		S	pl n
alles	alles	0		D	
saavad	saa	vad		V	vad
      	saav	d		A	pl n
      	saav	d		S	pl n
.	.			Z	
selle	see	0		P	sg g
     	sell	e		S	pl p
pärast	pära	st		S	sg el
      	pärane	t		A	sg p
      	pärast	0		D	
      	pärast	0		K	
kohtumeest	kohtu_mees	t		S	sg p
Jaak	Jaak	0		H	sg n
    	jaak	0		S	sg n
Pullerits	####				
ja	ja	0		J	
Jüri	Jüri	0		H	sg g
    	Jüri	0		H	sg n
Vanaus	####				
olid	ole	id		V	sid
ütelnud	ütle	nud		V	nud
       	ütel=nu	d		S	pl n
       	ütel=nud	0		A	
       	ütel=nud	0		A	sg n
       	ütel=nud	d		A	pl n
kihelkonna	kihelkond	0		S	sg g
kohtu	kohtu	0		V	o
     	kohus	0		S	sg g
kirjutaja	kirjutaja	0		S	sg g
         	kirjutaja	0		S	sg n
poolest	pool	st		N	sg el
       	pool	st		S	sg el
       	poolene	t		A	sg p
       	poolest	0		K	
,	,			Z	
sai	saa	i		V	s
   	sai	0		S	sg n
käsko	####				
antud	an=tu	d		S	pl n
     	and	tud		V	tud
     	antud	0		A	
     	antud	0		A	sg n
     	antud	d		A	pl n
,	,			Z	
et	et	0		J	
kiriku	kirik	0		S	sg g
mõisa	mõis	0		S	sg g
kubjas	kubjas	0		S	sg n
kes	kes	0		P	pl n
   	kes	0		P	sg n
ka	ka	0		D	
Holdre	####				
mõisas	mõis	s		S	sg in
olnud	ol=nud	0		A	
     	ol=nud	0		A	sg n
     	ol=nud	d		A	pl n
     	ole	nud		V	nud
     	olnu	d		S	pl n
ja	ja	0		J	
kõik	kõik	0		P	pl n
    	kõik	0		S	sg n
    	kõik	0		P	sg n
kuulnud	kuul	nud		V	nud
       	kuul=nud	0		A	
       	kuul=nud	0		A	sg n
       	kuul=nud	d		A	pl n
       	kuulnu	d		S	pl n
tunnistud	####				
miseks	####				
pidi	pida	i		V	s
    	pidi	0		K	
kutsuma	kutsu	ma		V	ma
.	.			Z	
sai	saa	i		V	s
   	sai	0		S	sg n
siis	siis	0		D	
    	siis	0		J	
seesamanni	seesam_and	0		S	sg g
kubjas	kubjas	0		S	sg n
nimega	nimi	ga		S	sg kom
Käärik	####				
Koorits	####				
kohtu	kohtu	0		V	o
     	kohus	0		S	sg g
ette	ette	0		D	
    	ette	0		K	
    	esi	tte		S	adt
,	,			Z	
ja	ja	0		J	
tunnistas	tunnista	s		V	s
nõnda	nõnda	0		D	
kui	kui	0		D	
   	kui	0		J	
need	see	d		P	pl n
ette	ette	0		D	
    	ette	0		K	
    	esi	tte		S	adt
nimetatud	nimeta	tud		V	tud
         	nimetatu	d		S	pl n
         	nimetatud	0		A	
         	nimetatud	0		A	sg n
         	nimetatud	d		A	pl n
kohtu	kohtu	0		V	o
     	kohus	0		S	sg g
mehed	mees	d		S	pl n
vandumise	vandumine	0		S	sg g
asemel	ase	l		S	sg ad
      	asemel	0		K	
,	,			Z	
et	et	0		J	
tema	tema	0		P	sg g
    	tema	0		P	sg n
kõik	kõik	0		P	pl n
    	kõik	0		S	sg n
    	kõik	0		P	sg n
mis	mis	0		P	pl n
   	mis	0		P	sg n
siin	siin	0		D	
    	siin	0		S	sg n
enne	enne	0		D	
    	enne	0		K	
    	enne	0		S	sg n
kirjutatud	kirjuta	tud		V	tud
          	kirjutatu	d		S	pl n
          	kirjutatud	0		A	
          	kirjutatud	0		A	sg n
          	kirjutatud	d		A	pl n
,	,			Z	
teisiti	teisiti	0		D	
kuulnud	kuul	nud		V	nud
       	kuul=nud	0		A	
       	kuul=nud	0		A	sg n
       	kuul=nud	d		A	pl n
       	kuulnu	d		S	pl n
.	.			Z	
_	_			Z	
