Alguskiri	algus_kiri	0		S	sg n
on	ole	0		V	b
  	ole	0		V	vad
50	50	0		N	?
kop	kop	0		Y	?
.	.			Z	
väärtusliku	väärtuslik	0		A	sg g
akti	akt	0		S	adt
    	akt	0		S	sg g
    	akt	0		S	sg p
paberi	paber	0		S	sg g
peale	pea	le		S	sg all
     	peale	0		D	
     	peale	0		K	
kirjutatud	kirjuta	tud		V	tud
          	kirjutatu	d		S	pl n
          	kirjutatud	0		A	
          	kirjutatud	0		A	sg n
          	kirjutatud	d		A	pl n
.	.			Z	
kopia	####				
leping	leping	0		S	sg n
(	(			Z	
kõrval	kõrv	l		S	sg ad
      	kõrval	0		D	
      	kõrval	0		K	
:	:			Z	
Oriiginal	####				
lepingu	leping	0		S	sg g
olen	ole	n		V	n
kätte	kätte	0		K	
     	käsi	tte		S	adt
saanud	saa	nud		V	nud
      	saa=nud	0		A	
      	saa=nud	0		A	sg n
      	saa=nud	d		A	pl n
      	saanu	d		S	pl n
25	25	0		N	?
/	/			Z	
VII	vii	0		V	o
   	vii	0		O	?
1913	1913	0		N	?
a	a	0		Y	?
Jaan	Jaan	0		H	sg n
    	jaan	0		S	sg n
    	jaan	0		Y	?
Jürgen	Jürgen	0		H	sg n
,	,			Z	
Oriiginal	####				
lepingu	leping	0		S	sg g
olen	ole	n		V	n
vastu	vastu	0		D	
     	vastu	0		K	
võtnud	võt	nud		V	nud
      	võt=nu	d		S	pl n
      	võt=nud	0		A	
      	võt=nud	0		A	sg n
      	võt=nud	d		A	pl n
20	20	0		N	?
detsembril	detsember	l		S	sg ad
1913	1913	0		N	?
a	a	0		Y	?
J. Laugis	####				
)	)			Z	
.	.			Z	
Tänasel	tänane	l		A	sg ad
allnimetatud	all_nimetatu	d		S	pl n
            	all_nimetatud	0		A	
            	all_nimetatud	0		A	sg n
            	all_nimetatud	d		A	pl n
päeval	päev	l		S	sg ad
on	ole	0		V	b
  	ole	0		V	vad
Pajusi	Pajusi	0		H	sg g
      	Pajusi	0		H	sg n
valla	vald	0		S	sg g
     	valla	0		D	
""""	""""			Z	
Mandu	mandu	0		V	o
""""	""""			Z	
N25	N25	0		Y	?
talu	talu	0		S	sg g
    	talu	0		V	o
    	talu	0		S	sg n
    	talu	0		S	sg p
omaniku	omanik	0		S	sg g
Jaan	Jaan	0		H	sg n
    	jaan	0		S	sg n
    	jaan	0		Y	?
Joosepi	Joosep	0		H	sg g
poja	poeg	0		S	sg g
    	poja	0		S	sg g
    	poja	0		S	sg n
    	poja	0		S	sg p
Jürgeni	Jürgen	0		H	sg g
ja	ja	0		J	
Pajusi	Pajusi	0		H	sg g
      	Pajusi	0		H	sg n
valla	vald	0		S	sg g
     	valla	0		D	
liikme	liige	0		S	sg g
Johan	Johan	0		H	sg n
Tanni	####				
poja	poeg	0		S	sg g
    	poja	0		S	sg g
    	poja	0		S	sg n
    	poja	0		S	sg p
Laugise	####				
vahel	vahe	l		S	sg ad
     	vahel	0		D	
     	vahel	0		K	
järgmine	järgmine	0		A	sg n
leping	leping	0		S	sg n
tehtud	tehtu	d		S	pl n
      	tehtud	0		A	
      	tehtud	0		A	sg n
      	tehtud	d		A	pl n
      	tege	tud		V	tud
,	,			Z	
mis	mis	0		P	pl n
   	mis	0		P	sg n
mitte	mitte	0		D	
ainult	ainu	lt		S	sg abl
      	ainult	0		D	
lepingu	leping	0		S	sg g
tegijatel	tegija	tel		S	pl ad
maksev	maks	ev		V	v
      	maksev	0		A	sg n
ei	ei	0		D	
  	ei	0		V	neg
ole	ole	0		V	o
vaid	vaid	0		D	
    	vaid	0		J	
ka	ka	0		D	
nende	see	de		P	pl g
     	tema	de		P	pl g
pärijatele	pärija	tele		S	pl all
ja	ja	0		J	
õiguse	õigus	0		S	sg g
võtjatele	võtja	tele		S	pl all
maksvaks	maksev	ks		A	sg tr
jääb	jää	b		V	b
.	.			Z	
Paragrahv	paragrahv	0		S	sg n
1.	1.	0		O	?
Jaan	Jaan	0		H	sg n
    	jaan	0		S	sg n
    	jaan	0		Y	?
Joosepi	Joosep	0		H	sg g
poeg	poeg	0		S	sg n
Jürgen	Jürgen	0		H	sg n
müib	####				
oma	oma	0		A	sg g
   	oma	0		D	
   	oma	0		P	sg g
   	oma	0		S	sg g
   	oma	0		V	o
   	oma	0		A	sg n
   	oma	0		A	sg p
   	oma	0		P	sg n
   	oma	0		P	sg p
   	oma	0		S	sg n
   	oma	0		S	sg p
talu	talu	0		S	sg g
    	talu	0		V	o
    	talu	0		S	sg n
    	talu	0		S	sg p
piirides	piir	des		S	pl in
olevast	olev	st		A	sg el
       	olev	st		S	sg el
turba	turb	0		A	adt
     	turb	0		S	adt
     	turvas	0		S	sg g
     	turb	0		A	sg p
     	turb	0		S	sg p
ravast	####				
Johan	Johan	0		H	sg n
Tanni	####				
poja	poeg	0		S	sg g
    	poja	0		S	sg g
    	poja	0		S	sg n
    	poja	0		S	sg p
Laugisele	####				
üks	üks	0		N	sg n
   	üks	0		P	sg n
(	(			Z	
1	1	0		N	?
)	)			Z	
vakamaa	vaka_maa	0		S	sg g
       	vaka_maa	0		S	sg n
,	,			Z	
ära	ära	0		D	
   	ära	0		V	neg o
,	,			Z	
nende	see	de		P	pl g
     	tema	de		P	pl g
piiriide	pii_riie	0		S	sg g
sees	sees	0		D	
    	sees	0		K	
,	,			Z	
nagu	nagu	0		D	
    	nagu	0		J	
seda	see	da		P	sg p
müia	####				
Jaan	Jaan	0		H	sg n
    	jaan	0		S	sg n
    	jaan	0		Y	?
Jürgen	Jürgen	0		H	sg n
ja	ja	0		J	
ostja	ostja	0		S	sg g
     	ostja	0		S	sg n
Johan	Johan	0		H	sg n
Laugis	####				
välja	välja	0		D	
     	välja	0		V	o
     	väli	0		S	adt
     	väli	0		S	sg g
     	väli	0		S	sg p
mõõtnud	mõõt	nud		V	nud
       	mõõt=nu	d		S	pl n
       	mõõt=nud	0		A	
       	mõõt=nud	0		A	sg n
       	mõõt=nud	d		A	pl n
ja	ja	0		J	
ära	ära	0		D	
   	ära	0		V	neg o
määrkinud	####				
on	ole	0		V	b
  	ole	0		V	vad
,	,			Z	
nimelt	nimelt	0		D	
      	nimi	lt		S	sg abl
:	:			Z	
Tagi	tagi	0		S	sg g
    	tagi	0		S	sg n
    	tagi	0		S	sg p
    	tema	0	gi	P	sg g
    	tema	0	gi	P	sg n
talu	talu	0		S	sg g
    	talu	0		V	o
    	talu	0		S	sg n
    	talu	0		S	sg p
piirist	piir	st		S	sg el
42	42	0		N	?
küünart	küünar	t		S	sg p
eemalt	eemalt	0		D	
alates	alga	tes		V	des
      	alates	0		K	
,	,			Z	
poole	pool	0		N	sg g
     	pool	0		S	sg g
     	pool	e		S	pl p
     	poole	0		K	
     	poole	0		S	sg n
vakamaa	vaka_maa	0		S	sg g
       	vaka_maa	0		S	sg n
laiuselt	laiune	lt		A	sg abl
        	laius	lt		S	sg abl
        	laiuselt	0		D	
ja	ja	0		J	
kahe	kaks	0		N	sg g
vakamaa	vaka_maa	0		S	sg g
       	vaka_maa	0		S	sg n
pikasalt	####				
Rebase	rebane	0		S	sg g
turba	turb	0		A	adt
     	turb	0		S	adt
     	turvas	0		S	sg g
     	turb	0		A	sg p
     	turb	0		S	sg p
platsi	plats	0		S	adt
      	plats	0		S	sg g
      	plats	0		S	sg p
kõrval	kõrv	l		S	sg ad
      	kõrval	0		D	
      	kõrval	0		K	
selle	see	0		P	sg g
     	sell	e		S	pl p
tingimisega	tingimine	ga		S	sg kom
,	,			Z	
et	et	0		J	
Johan	Johan	0		H	sg n
Laugis	####				
,	,			Z	
ehk	ehk	0		D	
   	ehk	0		J	
tema	tema	0		P	sg g
    	tema	0		P	sg n
pärijad	pärija	d		S	pl n
ja	ja	0		J	
õiguse	õigus	0		S	sg g
võtjad	võtja	d		S	pl n
,	,			Z	
selle	see	0		P	sg g
     	sell	e		S	pl p
raba	raba	0		S	sg g
    	raba	0		V	o
    	raba	0		S	sg n
    	raba	0		S	sg p
tüki	tükk	0		S	sg g
    	tükki	0		V	o
pealt	pea	lt		S	sg abl
     	pealt	0		D	
     	pealt	0		K	
turbad	turvas	d		S	pl n
võivad	või	vad		V	vad
      	võiv	d		A	pl n
ära	ära	0		D	
   	ära	0		V	neg o
lõigadeta	####				
ja	ja	0		J	
ära	ära	0		D	
   	ära	0		V	neg o
vedada	veda	da		V	da
,	,			Z	
ette	ette	0		D	
    	ette	0		K	
    	esi	tte		S	adt
määramata	määra	mata		V	mata
         	määramata	0		A	
aja	aeg	0		S	sg g
   	aja	0		V	o
sees	sees	0		D	
    	sees	0		K	
,	,			Z	
aga	aga	0		J	
maa	maa	0		S	sg g
   	maa	0		S	sg n
põhi	põhi	0		S	sg n
jääb	jää	b		V	b
peale	pea	le		S	sg all
     	peale	0		D	
     	peale	0		K	
turbaste	turbane	te		A	pl g
ära	ära	0		D	
   	ära	0		V	neg o
lõikamise	lõikamine	0		S	sg g
müia	####				
omanduseks	omandus	ks		S	sg tr
.	.			Z	
Paragrahv	paragrahv	0		S	sg n
2.	2.	0		O	?
ostja	ostja	0		S	sg g
     	ostja	0		S	sg n
Juhan	Juhan	0		H	sg n
Laugis	####				
maksab	maks	b		V	b
müia	####				
Jaan	Jaan	0		H	sg n
    	jaan	0		S	sg n
    	jaan	0		Y	?
Jürgenile	Jürgen	le		H	sg all
selle	see	0		P	sg g
     	sell	e		S	pl p
ühe	üks	0		N	sg g
   	üks	0		P	sg g
   	ühe	0		S	sg n
vakamaa	vaka_maa	0		S	sg g
       	vaka_maa	0		S	sg n
eest	eest	0		D	
    	eest	0		K	
    	esi	st		S	sg el
üks	üks	0		N	sg n
   	üks	0		P	sg n
saada	saa	da		V	da
     	saat	0		V	o
     	saa	da		V	ta
(	(			Z	
100	100	0		N	?
)	)			Z	
rubla	rubla	0		S	sg g
     	rubla	0		S	sg n
     	rubla	0		S	sg p
selle	see	0		P	sg g
     	sell	e		S	pl p
lepingu	leping	0		S	sg g
kinnitamise	kinnitamine	0		S	sg g
juures	juur	s		S	sg in
      	juures	0		D	
      	juures	0		K	
kohe	kohe	0		A	sg n
    	kohe	0		D	
välja	välja	0		D	
     	välja	0		V	o
     	väli	0		S	adt
     	väli	0		S	sg g
     	väli	0		S	sg p
.	.			Z	
Paragrahv	paragrahv	0		S	sg n
3.	3.	0		O	?
Müia	####				
Jaan	Jaan	0		H	sg n
    	jaan	0		S	sg n
    	jaan	0		Y	?
Jürgen	Jürgen	0		H	sg n
annab	and	b		V	b
tee	tee	0		S	sg g
   	tege	0		V	o
   	tee	0		S	sg n
mis	mis	0		P	pl n
   	mis	0		P	sg n
turba	turb	0		A	adt
     	turb	0		S	adt
     	turvas	0		S	sg g
     	turb	0		A	sg p
     	turb	0		S	sg p
ravast	####				
algab	alga	b		V	b
ja	ja	0		J	
müia	####				
talu	talu	0		S	sg g
    	talu	0		V	o
    	talu	0		S	sg n
    	talu	0		S	sg p
õuest	õu	st		S	sg el
     	õuest	0		D	
läbi	läbi	0		D	
    	läbi	0		K	
    	läbi	0		V	o
maantee	maan_tee	0		S	sg g
       	maan_tee	0		S	sg n
peale	pea	le		S	sg all
     	peale	0		D	
     	peale	0		K	
välja	välja	0		D	
     	välja	0		V	o
     	väli	0		S	adt
     	väli	0		S	sg g
     	väli	0		S	sg p
läheb	mine	b		V	b
,	,			Z	
ostja	ostja	0		S	sg g
     	ostja	0		S	sg n
Laugisele	####				
niikauaks	nii_kauaks	0		D	
vaba	vaba	0		A	sg g
    	vaba	0		A	sg n
    	vaba	0		A	sg p
pruuukimiseks	####				
,	,			Z	
kase	kask	0		S	sg g
turvas	turb	s		A	sg in
      	turb	s		S	sg in
      	turv	s		S	sg in
      	turva	s		V	s
      	turvas	0		S	sg n
ostetud	ost	tud		V	tud
       	oste=tu	d		S	pl n
       	oste=tud	0		A	
       	oste=tud	0		A	sg n
       	oste=tud	d		A	pl n
maast	maa	st		S	sg el
välja	välja	0		D	
     	välja	0		V	o
     	väli	0		S	adt
     	väli	0		S	sg g
     	väli	0		S	sg p
on	ole	0		V	b
  	ole	0		V	vad
lõigatud	lõika	tud		V	tud
        	lõiga=tu	d		S	pl n
        	lõiga=tud	0		A	
        	lõiga=tud	0		A	sg n
        	lõiga=tud	d		A	pl n
ja	ja	0		J	
ära	ära	0		D	
   	ära	0		V	neg o
veetud	vee=tu	d		S	pl n
      	vee=tud	0		A	
      	vee=tud	0		A	sg n
      	vee=tud	d		A	pl n
      	veetu	d		A	pl n
      	veda	tud		V	tud
.	.			Z	
Paragrahv	paragrahv	0		S	sg n
4.	4.	0		O	?
ostja	ostja	0		S	sg g
     	ostja	0		S	sg n
teeb	tege	b		V	b
omale	oma	le		A	sg all
     	oma	le		P	sg all
     	oma	le		S	sg all
kohuseks	kohus	ks		S	sg tr
,	,			Z	
mulla	muld	0		S	sg g
     	mulla	0		S	sg g
     	mulla	0		S	sg n
,	,			Z	
mis	mis	0		P	pl n
   	mis	0		P	sg n
turba	turb	0		A	adt
     	turb	0		S	adt
     	turvas	0		S	sg g
     	turb	0		A	sg p
     	turb	0		S	sg p
peal	pea	l		S	sg ad
    	peal	0		D	
    	peal	0		K	
ümbes	####				
üks	üks	0		N	sg n
   	üks	0		P	sg n
jalg	jalg	0		S	sg n
sügavuselt	sügavune	lt		A	sg abl
          	sügavus	lt		S	sg abl
          	sügavuse=lt	0		D	
on	ole	0		V	b
  	ole	0		V	vad
,	,			Z	
vakamaasse	vaka_maa	sse		S	sg ill
turba	turb	0		A	adt
     	turb	0		S	adt
     	turvas	0		S	sg g
     	turb	0		A	sg p
     	turb	0		S	sg p
augu	auk	0		S	sg g
lükata	lükka	ta		V	da
      	lükka	ta		V	ta
ja	ja	0		J	
iga	iga	0		P	sg g
   	iga	0		P	sg n
   	iga	0		P	sg p
   	iga	0		S	sg n
   	iga	0		S	sg p
aasta	aasta	0		S	sg g
     	aasta	0		S	sg n
see	see	0		P	sg n
muld	muld	0		S	sg n
pealt	pea	lt		S	sg abl
     	pealt	0		D	
     	pealt	0		K	
tasaseks	tasane	ks		A	sg tr
lükata	lükka	ta		V	da
      	lükka	ta		V	ta
.	.			Z	
Paragrahv	paragrahv	0		S	sg n
5.	5.	0		O	?
Müia	####				
annab	and	b		V	b
ostjale	ostja	le		S	sg all
luba	luba	0		S	sg n
    	luba	0		V	o
    	luba	0		S	sg p
viimaseid	viimane	id		A	pl p
turbi	turb	i		A	pl p
     	turb	i		S	pl p
seal	seal	0		D	
    	siga	l		A	sg ad
    	siga	l		S	sg ad
kuivatada	kuivata	da		V	da
,	,			Z	
kust	kusi	t		S	sg p
    	kust	0		D	
turb	turb	0		A	sg n
    	turb	0		S	sg n
ostetud	ost	tud		V	tud
       	oste=tu	d		S	pl n
       	oste=tud	0		A	
       	oste=tud	0		A	sg n
       	oste=tud	d		A	pl n
plasti	plast	0		S	adt
      	plast	0		S	sg g
      	plast	0		S	sg p
pealt	pea	lt		S	sg abl
     	pealt	0		D	
     	pealt	0		K	
ära	ära	0		D	
   	ära	0		V	neg o
on	ole	0		V	b
  	ole	0		V	vad
lõigatud	lõika	tud		V	tud
        	lõiga=tu	d		S	pl n
        	lõiga=tud	0		A	
        	lõiga=tud	0		A	sg n
        	lõiga=tud	d		A	pl n
.	.			Z	
Paragrahv	paragrahv	0		S	sg n
6.	6.	0		O	?
Müia	####				
annab	and	b		V	b
luba	luba	0		S	sg n
    	luba	0		V	o
    	luba	0		S	sg p
ostjale	ostja	le		S	sg all
,	,			Z	
tema	tema	0		P	sg g
    	tema	0		P	sg n
turba	turb	0		A	adt
     	turb	0		S	adt
     	turvas	0		S	sg g
     	turb	0		A	sg p
     	turb	0		S	sg p
augu	auk	0		S	sg g
linn	linn	0		S	sg n
liku	####				
vedada	veda	da		V	da
,	,			Z	
selle	see	0		P	sg g
     	sell	e		S	pl p
tingimisega	tingimine	ga		S	sg kom
et	et	0		J	
ostja	ostja	0		S	sg g
     	ostja	0		S	sg n
turba	turb	0		A	adt
     	turb	0		S	adt
     	turvas	0		S	sg g
     	turb	0		A	sg p
     	turb	0		S	sg p
veo	vedu	0		S	sg g
teed	tee	d		S	pl n
    	tege	d		V	d
    	tee	d		S	sg p
aitab	aita	b		V	b
parandada	paranda	da		V	da
Paragrahv	paragrahv	0		S	sg n
7.	7.	0		O	?
Müia	####				
ei	ei	0		D	
  	ei	0		V	neg
või	või	0		S	sg g
   	või	0		V	o
   	või	0		D	
   	või	0		J	
   	või	0		S	sg n
turba	turb	0		A	adt
     	turb	0		S	adt
     	turvas	0		S	sg g
     	turb	0		A	sg p
     	turb	0		S	sg p
lõikuse	lõikus	0		S	sg g
aeg	aeg	0		S	sg n
võtt	võtt	0		S	sg n
paisuga	pais	ga		S	sg kom
mitte	mitte	0		D	
kinni	kinni	0		D	
pidada	pida	da		V	da
.	.			Z	
Paragrahv	paragrahv	0		S	sg n
8.	8.	0		O	?
selle	see	0		P	sg g
     	sell	e		S	pl p
lepingu	leping	0		S	sg g
kinnitamise	kinnitamine	0		S	sg g
kulud	kulg	d		S	pl n
     	kulu	d		S	pl n
     	kulu	d		V	d
kannab	kand	b		V	b
ostja	ostja	0		S	sg g
     	ostja	0		S	sg n
üksi	üksi	0		D	
.	.			Z	
Müia	####				
:	:			Z	
Jaan	Jaan	0		H	sg n
    	jaan	0		S	sg n
    	jaan	0		Y	?
Jürgen	Jürgen	0		H	sg n
ostja	ostja	0		S	sg g
     	ostja	0		S	sg n
:	:			Z	
J. Laugis	####				
1913	1913	0		N	?
aastal	aasta	l		S	sg ad
Juuni	juuni	0		S	sg g
     	juuni	0		S	sg n
kuu	kuu	0		S	sg g
   	kuu	0		S	sg n
27	27	0		N	?
päeval	päev	l		S	sg ad
on	ole	0		V	b
  	ole	0		V	vad
eesolev	ees_olev	0		A	sg n
       	ees_olev	0		S	sg n
leping	leping	0		S	sg n
Pajusi	Pajusi	0		H	sg g
      	Pajusi	0		H	sg n
vallakohtus	valla_kohus	s		S	sg in
Viljandi	Viljandi	0		H	sg g
        	Viljandi	0		H	sg n
        	viljandi	0		G	
kreisis	kreis	s		S	sg in
ilmunud	ilmu	nud		V	nud
       	ilmu=nu	d		S	pl n
       	ilmu=nud	0		A	
       	ilmu=nud	0		A	sg n
       	ilmu=nud	d		A	pl n
lepingu	leping	0		S	sg g
osalistele	osaline	tele		A	pl all
isikatele	####				
Jaan	Jaan	0		H	sg n
    	jaan	0		S	sg n
    	jaan	0		Y	?
Joosepi	Joosep	0		H	sg g
p	p	0		Y	?
.	.			Z	
Jürgenile	Jürgen	le		H	sg all
ja	ja	0		J	
Johan	Johan	0		H	sg n
Tanni	####				
poja	poeg	0		S	sg g
    	poja	0		S	sg g
    	poja	0		S	sg n
    	poja	0		S	sg p
Laugisele	####				
ette	ette	0		D	
    	ette	0		K	
    	esi	tte		S	adt
loetud	loetu	d		S	pl n
      	loetud	0		A	
      	loetud	0		A	sg n
      	loetud	d		A	pl n
      	luge	tud		V	tud
,	,			Z	
kes	kes	0		P	pl n
   	kes	0		P	sg n
lepingus	leping	s		S	sg in
tähendatud	tähenda	tud		V	tud
          	tähenda=tu	d		S	pl n
          	tähenda=tud	0		A	
          	tähenda=tud	0		A	sg n
          	tähenda=tud	d		A	pl n
tingimistega	tingimine	tega		S	pl kom
rahul	rahu	l		S	sg ad
     	rahul	0		D	
olid	ole	id		V	sid
ja	ja	0		J	
lepingu	leping	0		S	sg g
ise	ise	0		A	
   	ise	0		D	
   	ise	0		P	pl n
   	ise	0		P	sg n
oma	oma	0		A	sg g
   	oma	0		D	
   	oma	0		P	sg g
   	oma	0		S	sg g
   	oma	0		V	o
   	oma	0		A	sg n
   	oma	0		A	sg p
   	oma	0		P	sg n
   	oma	0		P	sg p
   	oma	0		S	sg n
   	oma	0		S	sg p
käega	käsi	ga		S	sg kom
alla	alla	0		D	
    	alla	0		K	
kirjutasivad	####				
,	,			Z	
et	et	0		J	
lepingu	leping	0		S	sg g
usalesid	####				
isikud	isik	d		S	pl n
Jaan	Jaan	0		H	sg n
    	jaan	0		S	sg n
    	jaan	0		Y	?
Jürgen	Jürgen	0		H	sg n
ja	ja	0		J	
Johan	Johan	0		H	sg n
Laugis	####				
palelikult	pale=lik	lt		A	sg abl
          	pale=likult	0		D	
valla	vald	0		S	sg g
     	valla	0		D	
kohtule	kohus	le		S	sg all
tuntud	tund	tud		V	tud
      	tuntu	d		S	pl n
      	tuntud	0		A	
      	tuntud	0		A	sg n
      	tuntud	d		A	pl n
ja	ja	0		J	
neil	see	l		P	pl ad
    	tema	l		P	pl ad
õigus	õigus	0		S	sg n
aktisi	####				
teha	tege	a		V	da
on	ole	0		V	b
  	ole	0		V	vad
sellepärast	selle_pärast	0		D	
on	ole	0		V	b
  	ole	0		V	vad
eesolev	ees_olev	0		A	sg n
       	ees_olev	0		S	sg n
leping	leping	0		S	sg n
Pajusi	Pajusi	0		H	sg g
      	Pajusi	0		H	sg n
vallakohtu	valla_kohus	0		S	sg g
akti	akt	0		S	adt
    	akt	0		S	sg g
    	akt	0		S	sg p
raamatuse	raa_matus	0		S	sg g
N4	N4	0		Y	?
all	all	0		D	
   	all	0		K	
sisse	siss	e		S	pl p
     	sisse	0		D	
     	sisse	0		K	
kirjutatud	kirjuta	tud		V	tud
          	kirjutatu	d		S	pl n
          	kirjutatud	0		A	
          	kirjutatud	0		A	sg n
          	kirjutatud	d		A	pl n
,	,			Z	
mida	mis	da		P	pl p
    	mis	da		P	sg p
Pajusi	Pajusi	0		H	sg g
      	Pajusi	0		H	sg n
vallakohus	valla_kohus	0		S	sg n
see	see	0		P	sg n
läbi	läbi	0		D	
    	läbi	0		K	
    	läbi	0		V	o
tõeks	tõde	ks		S	sg tr
     	tõsi	ks		S	sg tr
tunnistab	tunnista	b		V	b
.	.			Z	
vallakohtu	valla_kohus	0		S	sg g
eesistuja	ees_istuja	0		S	sg g
         	ees_istuja	0		S	sg n
:	:			Z	
J. Watter	####				
kirjutaja	kirjutaja	0		S	sg g
         	kirjutaja	0		S	sg n
:	:			Z	
M	M	0		O	?
 	M	0		Y	?
.	.			Z	
_	_			Z	
Must	must	0		A	sg n
    	must	0		S	sg n
    	mina	st		P	sg el
Alguskirjaga	algus_kiri	ga		S	sg kom
õige	õige	0		A	sg g
    	õige	0		A	sg n
    	õige	0		D	
:	:			Z	
Eesistuja	ees_istuja	0		S	sg g
         	ees_istuja	0		S	sg n
:	:			Z	
xxx	####				
kirjutaja	kirjutaja	0		S	sg g
         	kirjutaja	0		S	sg n
:	:			Z	
xxx	####				
