Uue	uus	0		A	sg g
Põltsama	####				
mõisas	mõis	s		S	sg in
sel	see	l		P	sg ad
   	sel	0		Y	?
24dal	####				
August	august	0		S	sg n
      	auk	st		S	sg el
      	August	0		H	sg n
1853.	1853.	0		O	?
kaebas	kaeba	s		V	s
Mai	Mai	0		H	sg g
   	Mai	0		H	sg n
   	mai	0		S	sg g
   	mai	0		S	sg n
Kondas	konda	s		V	s
et	et	0		J	
soldan	####				
Tõnu	Tõnu	0		H	sg g
    	Tõnu	0		H	sg n
Kont	kont	0		S	sg n
on	ole	0		V	b
  	ole	0		V	vad
teda	tema	da		P	sg p
pühapäeva	püha_päev	0		S	adt
         	püha_päev	0		S	sg g
         	püha_päev	0		S	sg p
hommingu	####				
rusikaga	rusikas	ga		S	sg kom
löönud	löö	nud		V	nud
      	löö=nu	d		S	pl n
      	löö=nud	0		A	
      	löö=nud	0		A	sg n
      	löö=nud	d		A	pl n
ning	ning	0		J	
tema	tema	0		P	sg g
    	tema	0		P	sg n
riiet	riie	t		S	sg p
ära	ära	0		D	
   	ära	0		V	neg o
lõhkunud	lõhku	nud		V	nud
        	lõhku=nu	d		S	pl n
        	lõhku=nud	0		A	
        	lõhku=nud	0		A	sg n
        	lõhku=nud	d		A	pl n
.	.			Z	
vastutab	vastuta	b		V	b
Tõnu	Tõnu	0		H	sg g
    	Tõnu	0		H	sg n
Kont	kont	0		S	sg n
et	et	0		J	
kaebaja	kaebaja	0		S	sg g
       	kaebaja	0		S	sg n
on	ole	0		V	b
  	ole	0		V	vad
teda	tema	da		P	sg p
irmsast	####				
sõimanud	sõima	nud		V	nud
        	sõima=nu	d		S	pl n
        	sõima=nud	0		A	
        	sõima=nud	0		A	sg n
        	sõima=nud	d		A	pl n
se	####				
pärast	pära	st		S	sg el
      	pärane	t		A	sg p
      	pärast	0		D	
      	pärast	0		K	
on	ole	0		V	b
  	ole	0		V	vad
tema	tema	0		P	sg g
    	tema	0		P	sg n
teda	tema	da		P	sg p
löönud	löö	nud		V	nud
      	löö=nu	d		S	pl n
      	löö=nud	0		A	
      	löö=nud	0		A	sg n
      	löö=nud	d		A	pl n
3	3	0		N	?
kõrda	####				
rusikaga	rusikas	ga		S	sg kom
.	.			Z	
kohus	kohu	s		V	s
     	kohus	0		S	sg n
on	ole	0		V	b
  	ole	0		V	vad
mõistnu	mõist=nu	0		S	sg g
       	mõist=nu	0		S	sg n
et	et	0		J	
Tõnu	Tõnu	0		H	sg g
    	Tõnu	0		H	sg n
Kont	kont	0		S	sg n
maksab	maks	b		V	b
Mai	Mai	0		H	sg g
   	Mai	0		H	sg n
   	mai	0		S	sg g
   	mai	0		S	sg n
Kondasele	####				
selle	see	0		P	sg g
     	sell	e		S	pl p
peksmise	peksmine	0		S	sg g
eest	eest	0		D	
    	eest	0		K	
    	esi	st		S	sg el
1	1	0		N	?
rubla	rubla	0		S	sg g
     	rubla	0		S	sg n
     	rubla	0		S	sg p
hõb	####				
.	.			Z	
