Lustivere	lusti_veri	0		S	sg g
vallast	vald	st		S	sg el
nõudis	nõud	is		V	s
Hans	Hans	0		H	sg n
Roots	roots	0		S	sg n
siit	siit	0		D	
Kukesaare	kuke_saar	0		S	sg g
Jüri	Jüri	0		H	sg g
    	Jüri	0		H	sg n
kulu	kulg	0		S	sg g
    	kulu	0		S	sg g
    	kulu	0		V	o
    	kulu	0		S	sg n
    	kulu	0		S	sg p
käest	käest	0		K	
     	käsi	st		S	sg el
enda	ise	0		P	sg g
välja	välja	0		D	
     	välja	0		V	o
     	väli	0		S	adt
     	väli	0		S	sg g
     	väli	0		S	sg p
24	24	0		N	?
rbl	rbl	0		Y	?
ja	ja	0		J	
kuus	kuu	s		S	sg in
    	kuus	0		N	sg n
aastat	aasta	t		S	sg p
polnud	ole	nud		V	neg nud
see	see	0		P	sg n
eest_	####				
kohtu	kohtu	0		V	o
     	kohus	0		S	sg g
teel	tee	l		S	sg ad
    	teel	0		K	
kätte	kätte	0		K	
     	käsi	tte		S	adt
kaebatu	####				
Jüri	Jüri	0		H	sg g
    	Jüri	0		H	sg n
rule	####				
ei	ei	0		D	
  	ei	0		V	neg
salanud	salga	nud		V	nud
       	sala=nu	d		S	pl n
       	sala=nud	0		A	
       	sala=nud	0		A	sg n
       	sala=nud	d		A	pl n
seda	see	da		P	sg p
võlga	võlg	0		S	adt
     	võlg	0		S	sg p
.	.			Z	
protsenti	protsent	0		S	adt
         	protsent	0		S	sg p
nõuab	nõud	b		V	b
kaebaja	kaebaja	0		S	sg g
       	kaebaja	0		S	sg n
7	7	0		N	?
rbl	rbl	0		Y	?
.	.			Z	
20	20	0		N	?
kop	kop	0		Y	?
.	.			Z	
kokku	kokku	0		D	
     	kogu	0		S	adt
31	31	0		N	?
rbl	rbl	0		Y	?
20	20	0		N	?
kop	kop	0		Y	?
.	.			Z	
mõistetud	mõist	tud		V	tud
         	mõiste=tu	d		S	pl n
         	mõiste=tud	0		A	
         	mõiste=tud	0		A	sg n
         	mõiste=tud	d		A	pl n
:	:			Z	
Jüri	Jüri	0		H	sg g
    	Jüri	0		H	sg n
kulu	kulg	0		S	sg g
    	kulu	0		S	sg g
    	kulu	0		V	o
    	kulu	0		S	sg n
    	kulu	0		S	sg p
peab	pida	b		V	b
see	see	0		P	sg n
31	31	0		N	?
rbl	rbl	0		Y	?
20	20	0		N	?
kop	kop	0		Y	?
.	.			Z	
Hans	Hans	0		H	sg n
Rootsile	Rootsi	le		H	sg all
8	8	0		N	?
päeva	päev	0		S	adt
     	päev	0		S	sg g
     	päev	0		S	sg p
sees	sees	0		D	
    	sees	0		K	
välja	välja	0		D	
     	välja	0		V	o
     	väli	0		S	adt
     	väli	0		S	sg g
     	väli	0		S	sg p
maksma	maks	ma		V	ma
.	.			Z	
see	see	0		P	sg n
otsus	otsus	0		S	sg n
sai	saa	i		V	s
   	sai	0		S	sg n
kohalkäijatele	kohal_käija	tele		S	pl all
seaduslikuks	seaduslik	ks		A	sg tr
ap	####				
.	.			Z	
õp	õp	0		Y	?
.	.			Z	
kuulutsele	####				
valdud	####				
.	.			Z	
peakohtunik	pea_kohtunik	0		S	sg n
:	:			Z	
Jaak	Jaak	0		H	sg n
    	jaak	0		S	sg n
Oinas	oinas	0		S	sg n
     	oinas	s		S	sg in
xxx	####				
kohtumees	kohtu_mees	0		S	sg n
Karl	Karl	0		H	sg n
Mihkels	####				
xxx	####				
M	M	0		O	?
 	M	0		Y	?
Anni	Ann	0		H	adt
    	Ann	0		H	sg g
    	Ann	0		H	sg p
    	and	0		S	sg g
    	Anni	0		H	sg g
    	Anni	0		H	sg n
