Liisu	liisk	0		S	sg g
     	liisu	0		V	o
Lepik	lepik	0		S	sg n
kaebtuses	####				
20	20	0		N	?
oktoobrist	oktoober	st		S	sg el
s	s	0		Y	?
.	.			Z	
a	a	0		Y	?
N	N	0		Y	?
:	:			Z	
189	189	0		N	?
astus	astu	s		V	s
ette	ette	0		D	
    	ette	0		K	
    	esi	tte		S	adt
märt	####				
Lindlop	####				
Suurest_Kõppust	####				
ja	ja	0		J	
vastas	vasta	s		V	s
      	vastas	0		D	
      	vastas	0		K	
küsimiselt	küsimine	lt		S	sg abl
:	:			Z	
Tema	tema	0		P	sg g
    	tema	0		P	sg n
olevat	ole	vat		V	vat
      	olev	t		A	sg p
      	olev	t		S	sg p
kül	####				
1882	1882	0		N	?
aastal	aasta	l		S	sg ad
pärast	pära	st		S	sg el
      	pärane	t		A	sg p
      	pärast	0		D	
      	pärast	0		K	
Jaagi	jaa	0	gi	D	
     	jaa	0	gi	I	
päeva	päev	0		S	adt
     	päev	0		S	sg g
     	päev	0		S	sg p
Tõrandal	####				
heinamaal	heina_maa	l		S	sg ad
Lisu	####				
Lepikuga	lepik	ga		S	sg kom
üks	üks	0		N	sg n
   	üks	0		P	sg n
ainus	ainu	s		S	sg in
     	ainus	0		A	sg n
     	ainus	0		S	sg n
kord	kord	0		D	
    	kord	0		S	sg n
kokku	kokku	0		D	
     	kogu	0		S	adt
lihalikult	lihalik	lt		A	sg abl
          	lihaliku=lt	0		D	
eelanud	####				
,	,			Z	
maksu	maks	0		S	adt
     	maks	0		S	sg g
     	maks	u		S	pl p
     	maks	0		S	sg p
selle	see	0		P	sg g
     	sell	e		S	pl p
eest	eest	0		D	
    	eest	0		K	
    	esi	st		S	sg el
poole	pool	0		N	sg g
     	pool	0		S	sg g
     	pool	e		S	pl p
     	poole	0		K	
     	poole	0		S	sg n
Lisu	####				
Lepik	lepik	0		S	sg n
nõudnud	nõud	nud		V	nud
       	nõud=nu	d		S	pl n
       	nõud=nud	0		A	
       	nõud=nud	0		A	sg n
       	nõud=nud	d		A	pl n
,	,			Z	
tema	tema	0		P	sg g
    	tema	0		P	sg n
ei	ei	0		D	
  	ei	0		V	neg
ole	ole	0		V	o
ka	ka	0		D	
maksnud	maks	nud		V	nud
       	maks=nu	d		S	pl n
       	maks=nud	0		A	
       	maks=nud	0		A	sg n
       	maks=nud	d		A	pl n
.	.			Z	
Lisu	####				
Lepik	lepik	0		S	sg n
,	,			Z	
nõumeheks	nõu_mees	ks		S	sg tr
Jüri	Jüri	0		H	sg g
    	Jüri	0		H	sg n
Kask	kask	0		S	sg n
,	,			Z	
vastas	vasta	s		V	s
      	vastas	0		D	
      	vastas	0		K	
eesseisva	ees_seisev	0		A	sg g
välja	välja	0		D	
     	välja	0		V	o
     	väli	0		S	adt
     	väli	0		S	sg g
     	väli	0		S	sg p
üteluse	####				
peale	pea	le		S	sg all
     	peale	0		D	
     	peale	0		K	
et	et	0		J	
see	see	0		P	sg n
tõsi	tõsi	0		S	pl p
    	tõsi	0		S	sg n
ei	ei	0		D	
  	ei	0		V	neg
olevat	ole	vat		V	vat
      	olev	t		A	sg p
      	olev	t		S	sg p
,	,			Z	
tema	tema	0		P	sg g
    	tema	0		P	sg n
muud	muu	d		P	pl n
    	muu	d		S	pl n
    	muu	d		V	d
    	muu	d		P	sg p
    	muu	d		S	sg p
ei	ei	0		D	
  	ei	0		V	neg
tundvat	tund	vat		V	vat
       	tundev	t		A	sg p
kui	kui	0		D	
   	kui	0		J	
Jaan	Jaan	0		H	sg n
    	jaan	0		S	sg n
    	jaan	0		Y	?
Rosenberg	Rosenberg	0		H	sg n
.	.			Z	
arvatud	arva	tud		V	tud
       	arva=tu	d		S	pl n
       	arva=tud	0		A	
       	arva=tud	0		A	sg n
       	arva=tud	d		A	pl n
:	:			Z	
puuduv	puudu	v		V	v
      	puuduv	0		A	sg n
tunnistaja	tunnistaja	0		S	sg g
          	tunnistaja	0		S	sg n
Hans	Hans	0		H	sg n
Kustavson	####				
ette	ette	0		D	
    	ette	0		K	
    	esi	tte		S	adt
kutsuda	kutsu	da		V	da
.	.			Z	
Pääkohtumees	####				
Andres	Andre	s		H	sg in
      	Andres	0		H	sg n
ekbaum	####				
[	[			Z	
allkiri	all_kiri	0		S	sg n
]	]			Z	
kohtumees	kohtu_mees	0		S	sg n
Peter	Peter	0		H	sg n
Bergmann	Bergmann	0		H	sg n
[	[			Z	
allkiri	all_kiri	0		S	sg n
]	]			Z	
kohtumees	kohtu_mees	0		S	sg n
Peet	Peet	0		H	sg n
    	peet	0		S	sg n
Amann	####				
[	[			Z	
allkiri	all_kiri	0		S	sg n
]	]			Z	
kirjutaja	kirjutaja	0		S	sg g
         	kirjutaja	0		S	sg n
[	[			Z	
allkiri	all_kiri	0		S	sg n
]	]			Z	
