Tõnis	Tõnis	0		H	sg n
kas	kas	0		D	
kaebas	kaeba	s		V	s
,	,			Z	
tema	tema	0		P	sg g
    	tema	0		P	sg n
läinud	läinu	d		S	pl n
      	läinud	0		A	
      	läinud	0		A	sg n
      	läinud	d		A	pl n
      	mine	nud		V	nud
ühes	üks	s		N	sg in
    	üks	s		P	sg in
    	ühes	0		D	
    	ühes	0		K	
taluemaga	talu_ema	ga		S	sg kom
Tiiu	Tiiu	0		H	sg g
    	Tiiu	0		H	sg n
kõrgesaarega	kõrge_saar	ga		S	sg kom
teisest	teine	st		O	sg el
       	teine	st		P	sg el
       	teisene	t		A	sg p
talust	talu	st		S	sg el
koju	kodu	0		S	adt
minema	mine	ma		V	ma
,	,			Z	
tee	tee	0		S	sg g
   	tege	0		V	o
   	tee	0		S	sg n
peal	pea	l		S	sg ad
    	peal	0		D	
    	peal	0		K	
tulnud	tul=nud	0		A	
      	tul=nud	0		A	sg n
      	tul=nud	d		A	pl n
      	tule	nud		V	nud
      	tulnu	d		S	pl n
kolm	kolm	0		N	sg n
poissi	poiss	0		S	adt
      	poiss	0		S	sg p
Kristjan	Kristjan	0		H	sg n
raha	raha	0		S	sg g
    	raha	0		S	sg n
    	raha	0		S	sg p
,	,			Z	
Jüri	Jüri	0		H	sg g
    	Jüri	0		H	sg n
Tikk	tikk	0		S	sg n
ja	ja	0		J	
Jaak	Jaak	0		H	sg n
    	jaak	0		S	sg n
Vares	vare	s		S	sg in
     	vares	0		S	sg n
nende	see	de		P	pl g
     	tema	de		P	pl g
järel	järel	0		D	
     	järel	0		K	
ja	ja	0		J	
on	ole	0		V	b
  	ole	0		V	vad
teda	tema	da		P	sg p
hirmus	hirm	s		S	sg in
      	hirmu	s		V	s
      	hirmus	0		A	sg n
      	hirmus	0		D	
rängasti	rängasti	0		D	
peksnud	peks	nud		V	nud
       	peks=nu	d		S	pl n
       	peks=nud	0		A	
       	peks=nud	0		A	sg n
       	peks=nud	d		A	pl n
.	.			Z	
Tema	tema	0		P	sg g
    	tema	0		P	sg n
on	ole	0		V	b
  	ole	0		V	vad
mitu	mitu	0		P	sg n
aega	aeg	0		S	adt
    	aeg	0		S	sg p
    	aega	0		K	
maas	maa	s		S	sg in
    	maas	0		D	
haige	haige	0		A	sg g
     	haige	0		A	sg n
     	haige	0		S	sg g
     	haige	0		S	sg n
olnud	ol=nud	0		A	
     	ol=nud	0		A	sg n
     	ol=nud	d		A	pl n
     	ole	nud		V	nud
     	olnu	d		S	pl n
ei	ei	0		D	
  	ei	0		V	neg
ole	ole	0		V	o
mitmel	mitu	l		P	sg ad
ajal	aeg	l		S	sg ad
    	ajal	0		K	
teeni	tee	ni		S	sg ter
     	teeni	0		V	o
saanud	saa	nud		V	nud
      	saa=nud	0		A	
      	saa=nud	0		A	sg n
      	saa=nud	d		A	pl n
      	saanu	d		S	pl n
,	,			Z	
nõudis	nõud	is		V	s
kahjutasumist	kahju_tasumine	t		S	sg p
50.	50.	0		O	?
rubla	rubla	0		S	sg g
     	rubla	0		S	sg n
     	rubla	0		S	sg p
.	.			Z	
Kristjan	Kristjan	0		H	sg n
raha	raha	0		S	sg g
    	raha	0		S	sg n
    	raha	0		S	sg p
ütles	ütle	s		V	s
et	et	0		J	
Tõnis	Tõnis	0		H	sg n
kas	kas	0		D	
on	ole	0		V	b
  	ole	0		V	vad
enne	enne	0		D	
    	enne	0		K	
    	enne	0		S	sg n
löönud	löö	nud		V	nud
      	löö=nu	d		S	pl n
      	löö=nud	0		A	
      	löö=nud	0		A	sg n
      	löö=nud	d		A	pl n
ja	ja	0		J	
tema	tema	0		P	sg g
    	tema	0		P	sg n
peksa	peks	0		V	o
     	peksa	0		X	
saanud	saa	nud		V	nud
      	saa=nud	0		A	
      	saa=nud	0		A	sg n
      	saa=nud	d		A	pl n
      	saanu	d		S	pl n
.	.			Z	
Jüri	Jüri	0		H	sg g
    	Jüri	0		H	sg n
Tikk	tikk	0		S	sg n
ütles	ütle	s		V	s
et	et	0		J	
Tõnis	Tõnis	0		H	sg n
kas	kas	0		D	
on	ole	0		V	b
  	ole	0		V	vad
enne	enne	0		D	
    	enne	0		K	
    	enne	0		S	sg n
löönud	löö	nud		V	nud
      	löö=nu	d		S	pl n
      	löö=nud	0		A	
      	löö=nud	0		A	sg n
      	löö=nud	d		A	pl n
.	.			Z	
Tiiu	Tiiu	0		H	sg g
    	Tiiu	0		H	sg n
kõrgesaar	kõrge_saar	0		S	sg n
ütles	ütle	s		V	s
nemad	tema	d		P	pl n
läinud	läinu	d		S	pl n
      	läinud	0		A	
      	läinud	0		A	sg n
      	läinud	d		A	pl n
      	mine	nud		V	nud
Tõnis	Tõnis	0		H	sg n
Kassiga	kass	ga		S	sg kom
koju	kodu	0		S	adt
poole	pool	0		N	sg g
     	pool	0		S	sg g
     	pool	e		S	pl p
     	poole	0		K	
     	poole	0		S	sg n
,	,			Z	
need	see	d		P	pl n
kolm	kolm	0		N	sg n
poissi	poiss	0		S	adt
      	poiss	0		S	sg p
tulnud	tul=nud	0		A	
      	tul=nud	0		A	sg n
      	tul=nud	d		A	pl n
      	tule	nud		V	nud
      	tulnu	d		S	pl n
järel	järel	0		D	
     	järel	0		K	
ja	ja	0		J	
Kristjan	Kristjan	0		H	sg n
raha	raha	0		S	sg g
    	raha	0		S	sg n
    	raha	0		S	sg p
hakanud	hakka	nud		V	nud
       	haka=nu	d		S	pl n
       	haka=nud	0		A	
       	haka=nud	0		A	sg n
       	haka=nud	d		A	pl n
kõige	kõik	0		P	sg g
     	kõige	0		D	
enne	enne	0		D	
    	enne	0		K	
    	enne	0		S	sg n
Tõnis	Tõnis	0		H	sg n
Kassi	kass	0		S	adt
     	kass	0		S	sg g
     	kass	0		S	sg p
peksma	peks	ma		V	ma
.	.			Z	
Jaak	Jaak	0		H	sg n
    	jaak	0		S	sg n
kõrgesaar	kõrge_saar	0		S	sg n
ütles	ütle	s		V	s
et	et	0		J	
tema	tema	0		P	sg g
    	tema	0		P	sg n
läinud	läinu	d		S	pl n
      	läinud	0		A	
      	läinud	0		A	sg n
      	läinud	d		A	pl n
      	mine	nud		V	nud
kära	kära	0		S	sg g
    	kära	0		V	o
    	kära	0		S	sg n
    	kära	0		S	sg p
peale	pea	le		S	sg all
     	peale	0		D	
     	peale	0		K	
api	####				
kui	kui	0		D	
   	kui	0		J	
need	see	d		P	pl n
poisid	poi	sid		S	pl p
      	poiss	d		S	pl n
Tõnis	Tõnis	0		H	sg n
Kassi	kass	0		S	adt
     	kass	0		S	sg g
     	kass	0		S	sg p
kiskunud	kisku	nud		V	nud
        	kisku=nu	d		S	pl n
        	kisku=nud	0		A	
        	kisku=nud	0		A	sg n
        	kisku=nud	d		A	pl n
ja	ja	0		J	
peksnud	peks	nud		V	nud
       	peks=nu	d		S	pl n
       	peks=nud	0		A	
       	peks=nud	0		A	sg n
       	peks=nud	d		A	pl n
ja	ja	0		J	
hakanud	hakka	nud		V	nud
       	haka=nu	d		S	pl n
       	haka=nud	0		A	
       	haka=nud	0		A	sg n
       	haka=nud	d		A	pl n
neid	neid	0		S	sg n
    	see	d		P	pl p
    	tema	d		P	pl p
lahutama	lahuta	ma		V	ma
.	.			Z	
Joosep	Joosep	0		H	sg n
kõrgesaar	kõrge_saar	0		S	sg n
tulnud	tul=nud	0		A	
      	tul=nud	0		A	sg n
      	tul=nud	d		A	pl n
      	tule	nud		V	nud
      	tulnu	d		S	pl n
ka	ka	0		D	
sinna	sinna	0		D	
,	,			Z	
tema	tema	0		P	sg g
    	tema	0		P	sg n
on	ole	0		V	b
  	ole	0		V	vad
ka	ka	0		D	
nende	see	de		P	pl g
     	tema	de		P	pl g
käest	käest	0		K	
     	käsi	st		S	sg el
lüia	####				
saanud	saa	nud		V	nud
      	saa=nud	0		A	
      	saa=nud	0		A	sg n
      	saa=nud	d		A	pl n
      	saanu	d		S	pl n
.	.			Z	
Joosep	Joosep	0		H	sg n
kõrgesaar	kõrge_saar	0		S	sg n
ütles	ütle	s		V	s
,	,			Z	
et	et	0		J	
tema	tema	0		P	sg g
    	tema	0		P	sg n
näinud	näi	nud		V	nud
      	näge	nud		V	nud
      	näi=nud	0		A	
      	näi=nud	0		A	sg n
      	näi=nud	d		A	pl n
      	näinu	d		S	pl n
kui	kui	0		D	
   	kui	0		J	
poisid	poi	sid		S	pl p
      	poiss	d		S	pl n
Kristjan	Kristjan	0		H	sg n
raha	raha	0		S	sg g
    	raha	0		S	sg n
    	raha	0		S	sg p
ja	ja	0		J	
teised	teine	d		O	pl n
      	teine	d		P	pl n
on	ole	0		V	b
  	ole	0		V	vad
Tõnis	Tõnis	0		H	sg n
Kassi	kass	0		S	adt
     	kass	0		S	sg g
     	kass	0		S	sg p
peksnud	peks	nud		V	nud
       	peks=nu	d		S	pl n
       	peks=nud	0		A	
       	peks=nud	0		A	sg n
       	peks=nud	d		A	pl n
,	,			Z	
tema	tema	0		P	sg g
    	tema	0		P	sg n
vend	vend	0		S	sg n
läinud	läinu	d		S	pl n
      	läinud	0		A	
      	läinud	0		A	sg n
      	läinud	d		A	pl n
      	mine	nud		V	nud
api	####				
kes	kes	0		P	pl n
   	kes	0		P	sg n
ka	ka	0		D	
lüüa	löö	a		V	da
saanud	saa	nud		V	nud
      	saa=nud	0		A	
      	saa=nud	0		A	sg n
      	saa=nud	d		A	pl n
      	saanu	d		S	pl n
ja	ja	0		J	
tema	tema	0		P	sg g
    	tema	0		P	sg n
läinud	läinu	d		S	pl n
      	läinud	0		A	
      	läinud	0		A	sg n
      	läinud	d		A	pl n
      	mine	nud		V	nud
ja	ja	0		J	
lahutanud	lahuta	nud		V	nud
         	lahuta=nu	d		S	pl n
         	lahuta=nud	0		A	
         	lahuta=nud	0		A	sg n
         	lahuta=nud	d		A	pl n
neid	neid	0		S	sg n
    	see	d		P	pl p
    	tema	d		P	pl p
ära	ära	0		D	
   	ära	0		V	neg o
.	.			Z	
Peet	Peet	0		H	sg n
    	peet	0		S	sg n
Kampus	####				
ütles	ütle	s		V	s
et	et	0		J	
Tõnis	Tõnis	0		H	sg n
kas	kas	0		D	
koju	kodu	0		S	adt
poole	pool	0		N	sg g
     	pool	0		S	sg g
     	pool	e		S	pl p
     	poole	0		K	
     	poole	0		S	sg n
läinud	läinu	d		S	pl n
      	läinud	0		A	
      	läinud	0		A	sg n
      	läinud	d		A	pl n
      	mine	nud		V	nud
,	,			Z	
teised	teine	d		O	pl n
      	teine	d		P	pl n
käinud	käi	nud		V	nud
      	käi=nud	0		A	
      	käi=nud	0		A	sg n
      	käi=nud	d		A	pl n
      	käinu	d		S	pl n
järel	järel	0		D	
     	järel	0		K	
,	,			Z	
varsti	varsti	0		D	
kuuldud	kuul	dud		V	tud
       	kuuldu	d		S	pl n
       	kuuldu	d		V	d
       	kuuldud	0		A	
       	kuuldud	0		A	sg n
       	kuuldud	d		A	pl n
kära	kära	0		S	sg g
    	kära	0		V	o
    	kära	0		S	sg n
    	kära	0		S	sg p
tema	tema	0		P	sg g
    	tema	0		P	sg n
läinud	läinu	d		S	pl n
      	läinud	0		A	
      	läinud	0		A	sg n
      	läinud	d		A	pl n
      	mine	nud		V	nud
ka	ka	0		D	
sinna	sinna	0		D	
,	,			Z	
siis	siis	0		D	
    	siis	0		J	
olnud	ol=nud	0		A	
     	ol=nud	0		A	sg n
     	ol=nud	d		A	pl n
     	ole	nud		V	nud
     	olnu	d		S	pl n
kõik	kõik	0		P	pl n
    	kõik	0		S	sg n
    	kõik	0		P	sg n
ühest	üks	st		N	sg el
     	üks	st		P	sg el
     	ühene	t		A	sg p
     	ühest	0		D	
ära	ära	0		D	
   	ära	0		V	neg o
ja	ja	0		J	
Tõnis	Tõnis	0		H	sg n
Kassi	kass	0		S	adt
     	kass	0		S	sg g
     	kass	0		S	sg p
pea	pea	0		D	
   	pea	0		S	sg g
   	pida	0		V	o
   	pea	0		S	sg n
olnud	ol=nud	0		A	
     	ol=nud	0		A	sg n
     	ol=nud	d		A	pl n
     	ole	nud		V	nud
     	olnu	d		S	pl n
lõhki	lõhki	0		D	
ja	ja	0		J	
verine	verine	0		A	sg n
.	.			Z	
otsus	otsus	0		S	sg n
:	:			Z	
tunnistusi	tunnistus	i		S	pl p
ette	ette	0		D	
    	ette	0		K	
    	esi	tte		S	adt
telli	telli	0		V	o
peakohtumees	pea_kohtu_mees	0		S	sg n
:	:			Z	
H	H	0		Y	?
.	.			Z	
_	_			Z	
murd	murd	0		S	sg n
/	/			Z	
allkiri	all_kiri	0		S	sg n
/	/			Z	
kohtumees	kohtu_mees	0		S	sg n
:	:			Z	
