Jüri	Jüri	0		H	sg g
    	Jüri	0		H	sg n
Jürison	####				
Suurest_Kõppust	####				
astus	astu	s		V	s
kohtu	kohtu	0		V	o
     	kohus	0		S	sg g
ette	ette	0		D	
    	ette	0		K	
    	esi	tte		S	adt
ja	ja	0		J	
kaebas	kaeba	s		V	s
,	,			Z	
et	et	0		J	
tema	tema	0		P	sg g
    	tema	0		P	sg n
repsi	repsi	0		V	o
talu	talu	0		S	sg g
    	talu	0		V	o
    	talu	0		S	sg n
    	talu	0		S	sg p
rentniku	rentnik	0		S	sg g
Hans	Hans	0		H	sg n
Laar	laar	0		S	sg n
naine	naine	0		S	sg n
Mari	Mari	0		H	sg g
    	mari	0		S	sg g
    	mari	0		S	sg n
    	Mari	0		H	sg n
    	mari	0		S	sg p
Laar	laar	0		S	sg n
kui	kui	0		D	
   	kui	0		J	
rentniku	rentnik	0		S	sg g
vend	vend	0		S	sg n
Jaan	Jaan	0		H	sg n
    	jaan	0		S	sg n
    	jaan	0		Y	?
Laar	laar	0		S	sg n
tema	tema	0		P	sg g
    	tema	0		P	sg n
vastu	vastu	0		D	
     	vastu	0		K	
väga	väga	0		D	
riiakad	riiakas	d		A	pl n
ja	ja	0		J	
ropuud	####				
ja	ja	0		J	
teda	tema	da		P	sg p
kui	kui	0		D	
   	kui	0		J	
talu	talu	0		S	sg g
    	talu	0		V	o
    	talu	0		S	sg n
    	talu	0		S	sg p
omaniku	omanik	0		S	sg g
enam	enam	0		C	sg n
    	enam	0		D	
rahulikult	rahulik	lt		A	sg abl
          	rahulikult	0		D	
elada	ela	da		V	da
ei	ei	0		D	
  	ei	0		V	neg
lasknud	lask	nud		V	nud
       	lask=nu	d		S	pl n
       	lask=nud	0		A	
       	lask=nud	0		A	sg n
       	lask=nud	d		A	pl n
.	.			Z	
ühel	üks	l		N	sg ad
    	üks	l		P	sg ad
päeval	päev	l		S	sg ad
lasknud	lask	nud		V	nud
       	lask=nu	d		S	pl n
       	lask=nud	0		A	
       	lask=nud	0		A	sg n
       	lask=nud	d		A	pl n
tema	tema	0		P	sg g
    	tema	0		P	sg n
valmis	valm	s		S	sg in
      	valmi	s		V	s
      	valmis	0		A	
      	valmis	0		A	sg n
      	valmis	0		D	
      	valmis	s		A	sg in
hõööveldud	####				
saarepuu	saare_puu	0		S	sg g
        	saare_puu	0		S	sg n
ratta	ratas	0		S	sg g
poiad	####				
tare	tare	0		S	sg g
    	tare	0		S	sg n
juku	####				
viia	vii	a		V	da
,	,			Z	
kus	kus	0		D	
Karl	Karl	0		H	sg n
Tiidrihsohmist	####				
ütelnud	ütle	nud		V	nud
       	ütel=nu	d		S	pl n
       	ütel=nud	0		A	
       	ütel=nud	0		A	sg n
       	ütel=nud	d		A	pl n
,	,			Z	
et	et	0		J	
üks	üks	0		N	sg n
   	üks	0		P	sg n
õivp	####				
asju	asi	u		S	pl p
visatud	viska	tud		V	tud
       	visa=tu	d		S	pl n
       	visa=tud	0		A	
       	visa=tud	0		A	sg n
       	visa=tud	d		A	pl n
,	,			Z	
mis	mis	0		P	pl n
   	mis	0		P	sg n
maksab	maks	b		V	b
neid	neid	0		S	sg n
    	see	d		P	pl p
    	tema	d		P	pl p
tare	tare	0		S	sg g
    	tare	0		S	sg n
põletada	põleta	da		V	da
viia	vii	a		V	da
,	,			Z	
et	et	0		J	
seal	seal	0		D	
    	siga	l		A	sg ad
    	siga	l		S	sg ad
muud	muu	d		P	pl n
    	muu	d		S	pl n
    	muu	d		V	d
    	muu	d		P	sg p
    	muu	d		S	sg p
inimest	inimene	t		S	sg p
poole	pool	0		N	sg g
     	pool	0		S	sg g
     	pool	e		S	pl p
     	poole	0		K	
     	poole	0		S	sg n
sellkorral	sell_kord	l		S	sg ad
tares	tare	s		S	sg in
käinud	käi	nud		V	nud
      	käi=nud	0		A	
      	käi=nud	0		A	sg n
      	käi=nud	d		A	pl n
      	käinu	d		S	pl n
kui	kui	0		D	
   	kui	0		J	
Hans	Hans	0		H	sg n
Saare	Saare	0		H	sg g
     	saar	0		S	sg g
     	Saare	0		H	sg n
naine	naine	0		S	sg n
,	,			Z	
kellel	kes	l		P	pl ad
      	kes	l		P	sg ad
tema	tema	0		P	sg g
    	tema	0		P	sg n
tähendanud	tähenda	nud		V	nud
          	tähenda=nu	d		S	pl n
          	tähenda=nud	0		A	
          	tähenda=nud	0		A	sg n
          	tähenda=nud	d		A	pl n
et	et	0		J	
poja	poeg	0		S	sg g
    	poja	0		S	sg g
    	poja	0		S	sg n
    	poja	0		S	sg p
ahjuisanud	####				
,	,			Z	
kes	kes	0		P	pl n
   	kes	0		P	sg n
aga	aga	0		J	
pahandama	pahanda	ma		V	ma
hakkanud	####				
kui	kui	0		D	
   	kui	0		J	
ütelnud	ütle	nud		V	nud
       	ütel=nu	d		S	pl n
       	ütel=nud	0		A	
       	ütel=nud	0		A	sg n
       	ütel=nud	d		A	pl n
,	,			Z	
et	et	0		J	
ta	tema	0		P	sg g
  	tema	0		P	sg n
tare	tare	0		S	sg g
    	tare	0		S	sg n
poole	pool	0		N	sg g
     	pool	0		S	sg g
     	pool	e		S	pl p
     	poole	0		K	
     	poole	0		S	sg n
saanud	saa	nud		V	nud
      	saa=nud	0		A	
      	saa=nud	0		A	sg n
      	saa=nud	d		A	pl n
      	saanu	d		S	pl n
naid	nai	d		V	d
muidu	muidu	0		D	
üle	üle	0		D	
   	üle	0		K	
ukse	uks	0		S	sg g
sisse	siss	e		S	pl p
     	sisse	0		D	
     	sisse	0		K	
vaadanud	vaata	nud		V	nud
        	vaada=nu	d		S	pl n
        	vaada=nud	0		A	
        	vaada=nud	0		A	sg n
        	vaada=nud	d		A	pl n
ka	ka	0		D	
teda	tema	da		P	sg p
ära	ära	0		D	
   	ära	0		V	neg o
aeanud	####				
üteldes	ütle	des		V	des
""""	""""			Z	
mine	mine	0		V	o
ära	ära	0		D	
   	ära	0		V	neg o
""""	""""			Z	
.	.			Z	
seepeale	see_peale	0		D	
ütelnud	ütle	nud		V	nud
       	ütel=nu	d		S	pl n
       	ütel=nud	0		A	
       	ütel=nud	0		A	sg n
       	ütel=nud	d		A	pl n
Jaan	Jaan	0		H	sg n
    	jaan	0		S	sg n
    	jaan	0		Y	?
Saar	saar	0		S	sg n
""""	""""			Z	
Miina	Miina	0		H	sg g
     	Miina	0		H	sg n
põletan	põleta	n		V	n
kõik	kõik	0		P	pl n
    	kõik	0		S	sg n
    	kõik	0		P	sg n
ära	ära	0		D	
   	ära	0		V	neg o
mis	mis	0		P	pl n
   	mis	0		P	sg n
sa	sina	0		P	sg n
mulle	mull	e		S	pl p
     	mina	lle		P	sg all
     	mulle	0		S	sg n
võid	või	d		S	pl n
    	või	d		V	d
    	või	d		S	sg p
teha	tege	a		V	da
,	,			Z	
see	see	0		P	sg n
on	ole	0		V	b
  	ole	0		V	vad
peremehe	pere_mees	0		S	sg g
käsk	käsk	0		S	sg n
""""	""""			Z	
ka	ka	0		D	
lubanud	luba	nud		V	nud
       	luba=nu	d		S	pl n
       	luba=nud	0		A	
       	luba=nud	0		A	sg n
       	luba=nud	d		A	pl n
Jaan	Jaan	0		H	sg n
    	jaan	0		S	sg n
    	jaan	0		Y	?
Saar	saar	0		S	sg n
tema	tema	0		P	sg g
    	tema	0		P	sg n
/	/			Z	
Jürisson'i	####				
/	/			Z	
hobusa	####				
kui	kui	0		D	
   	kui	0		J	
tüdruku	tüdruk	0		S	sg g
Ann	Ann	0		H	sg n
riiesenberg'i	####				
püssiga	püss	ga		S	sg kom
maha	maha	0		D	
laske	lask	e		S	pl p
     	lask	ke		V	ge
     	lase	0		S	sg g
,	,			Z	
kui	kui	0		D	
   	kui	0		J	
palus	palu	s		S	sg in
     	palu	s		V	s
et	et	0		J	
kohus	kohu	s		V	s
     	kohus	0		S	sg n
tema	tema	0		P	sg g
    	tema	0		P	sg n
rentnikul	rentnik	l		S	sg ad
Hans	Hans	0		H	sg n
Saar	saar	0		S	sg n
'	’			Z	
el	####				
kohuseks	kohus	ks		S	sg tr
teeks	tee	ks		S	sg tr
     	tege	ks		V	ks
et	et	0		J	
Jaan	Jaan	0		H	sg n
    	jaan	0		S	sg n
    	jaan	0		Y	?
Saar	saar	0		S	sg n
eestuleval	ees_tulev	l		A	sg ad
Kevadel	kevad	l		S	sg ad
       	kevade	l		S	sg ad
Repsi	repsi	0		V	o
talust	talu	st		S	sg el
äraaetud	ära_aetud	0		A	
        	ära_aetud	0		A	sg n
        	ära_aetud	d		A	pl n
saaks	saa	ks		V	ks
.	.			Z	
Hans	Hans	0		H	sg n
Saar	saar	0		S	sg n
Suurest_Kõppust	####				
Upsi	####				
talu	talu	0		S	sg g
    	talu	0		V	o
    	talu	0		S	sg n
    	talu	0		S	sg p
rentnik	rentnik	0		S	sg n
vastas	vasta	s		V	s
      	vastas	0		D	
      	vastas	0		K	
kui	kui	0		D	
   	kui	0		J	
oma	oma	0		A	sg g
   	oma	0		D	
   	oma	0		P	sg g
   	oma	0		S	sg g
   	oma	0		V	o
   	oma	0		A	sg n
   	oma	0		A	sg p
   	oma	0		P	sg n
   	oma	0		P	sg p
   	oma	0		S	sg n
   	oma	0		S	sg p
naise	naine	0		S	sg g
asemik	asemik	0		S	sg n
,	,			Z	
et	et	0		J	
tema	tema	0		P	sg g
    	tema	0		P	sg n
naine	naine	0		S	sg n
ei	ei	0		D	
  	ei	0		V	neg
olevat	ole	vat		V	vat
      	olev	t		A	sg p
      	olev	t		S	sg p
midagi	miski	dagi		P	sg p
poida	####				
ahju	ahi	0		S	adt
    	ahi	0		S	sg g
    	ahi	0		S	sg p
visanud	viska	nud		V	nud
       	visa=nu	d		S	pl n
       	visa=nud	0		A	
       	visa=nud	0		A	sg n
       	visa=nud	d		A	pl n
ka	ka	0		D	
mitte	mitte	0		D	
Jüri	Jüri	0		H	sg g
    	Jüri	0		H	sg n
Jürissoni	####				
äraaianud	####				
,	,			Z	
Jüri	Jüri	0		H	sg g
    	Jüri	0		H	sg n
Jürisson	####				
olevat	ole	vat		V	vat
      	olev	t		A	sg p
      	olev	t		S	sg p
aga	aga	0		J	
kül	####				
tema	tema	0		P	sg g
    	tema	0		P	sg n
naist	naine	t		S	sg p
hirmutanud	hirmuta	nud		V	nud
          	hirmuta=nu	d		S	pl n
          	hirmuta=nud	0		A	
          	hirmuta=nud	0		A	sg n
          	hirmuta=nud	d		A	pl n
kes	kes	0		P	pl n
   	kes	0		P	sg n
praegu	praegu	0		D	
haige	haige	0		A	sg g
     	haige	0		A	sg n
     	haige	0		S	sg g
     	haige	0		S	sg n
olevat	ole	vat		V	vat
      	olev	t		A	sg p
      	olev	t		S	sg p
.	.			Z	
küsimiselt	küsimine	lt		S	sg abl
andis	and	is		V	s
veel	veel	0		D	
    	vesi	l		S	sg ad
Hans	Hans	0		H	sg n
Saar	saar	0		S	sg n
vastuseks	vastus	ks		S	sg tr
et	et	0		J	
tema	tema	0		P	sg g
    	tema	0		P	sg n
kül	####				
Jaan	Jaan	0		H	sg n
    	jaan	0		S	sg n
    	jaan	0		Y	?
Saar'e	####				
on	ole	0		V	b
  	ole	0		V	vad
ära	ära	0		D	
   	ära	0		V	neg o
põletada	põleta	da		V	da
käskinud	käski	nud		V	nud
        	käski=nu	d		S	pl n
        	käski=nud	0		A	
        	käski=nud	0		A	sg n
        	käski=nud	d		A	pl n
mis	mis	0		P	pl n
   	mis	0		P	sg n
asju	asi	u		S	pl p
ümber	ümber	0		D	
     	ümber	0		K	
on	ole	0		V	b
  	ole	0		V	vad
,	,			Z	
sest	see	st		P	sg el
    	sest	0		J	
Jüri	Jüri	0		H	sg g
    	Jüri	0		H	sg n
Jürisson	####				
kannud	kann	d		S	pl n
rehte	rehi	0		S	adt
     	rehi	0		S	sg p
aeg	aeg	0		S	sg n
puid	puu	id		S	pl p
ahju	ahi	0		S	adt
    	ahi	0		S	sg g
    	ahi	0		S	sg p
peale	pea	le		S	sg all
     	peale	0		D	
     	peale	0		K	
kuivama	kuiva	ma		V	ma
.	.			Z	
Jaan	Jaan	0		H	sg n
    	jaan	0		S	sg n
    	jaan	0		Y	?
Saar	saar	0		S	sg n
Suurest_Kõppust	####				
vastas	vasta	s		V	s
      	vastas	0		D	
      	vastas	0		K	
küsimiselt	küsimine	lt		S	sg abl
:	:			Z	
_üks	####				
ratta	ratas	0		S	sg g
poid	poi	d		S	pl n
    	poi	d		S	sg p
oleva	olev	0		A	sg g
     	olev	0		S	sg g
ahju	ahi	0		S	adt
    	ahi	0		S	sg g
    	ahi	0		S	sg p
visatud	viska	tud		V	tud
       	visa=tu	d		S	pl n
       	visa=tud	0		A	
       	visa=tud	0		A	sg n
       	visa=tud	d		A	pl n
olnud	ol=nud	0		A	
     	ol=nud	0		A	sg n
     	ol=nud	d		A	pl n
     	ole	nud		V	nud
     	olnu	d		S	pl n
,	,			Z	
mis	mis	0		P	pl n
   	mis	0		P	sg n
peale	pea	le		S	sg all
     	peale	0		D	
     	peale	0		K	
tema	tema	0		P	sg g
    	tema	0		P	sg n
kül	####				
ütelnud	ütle	nud		V	nud
       	ütel=nu	d		S	pl n
       	ütel=nud	0		A	
       	ütel=nud	0		A	sg n
       	ütel=nud	d		A	pl n
ma	mina	0		P	sg n
visan	####				
nad	tema	d		P	pl n
kõik	kõik	0		P	pl n
    	kõik	0		S	sg n
    	kõik	0		P	sg n
ahju	ahi	0		S	adt
    	ahi	0		S	sg g
    	ahi	0		S	sg p
ja	ja	0		J	
põletan	põleta	n		V	n
ära	ära	0		D	
   	ära	0		V	neg o
sest	see	st		P	sg el
    	sest	0		J	
peremees	pere_mees	0		S	sg n
Hans	Hans	0		H	sg n
Saar	saar	0		S	sg n
käskinud	käski	nud		V	nud
        	käski=nu	d		S	pl n
        	käski=nud	0		A	
        	käski=nud	0		A	sg n
        	käski=nud	d		A	pl n
teda	tema	da		P	sg p
ära	ära	0		D	
   	ära	0		V	neg o
põletada	põleta	da		V	da
mis	mis	0		P	pl n
   	mis	0		P	sg n
ahju	ahi	0		S	adt
    	ahi	0		S	sg g
    	ahi	0		S	sg p
ümber	ümber	0		D	
     	ümber	0		K	
on	ole	0		V	b
  	ole	0		V	vad
,	,			Z	
hobust	hobu	st		S	sg el
      	hobune	t		S	sg p
ja	ja	0		J	
tüdrukut	tüdruk	t		S	sg p
ei	ei	0		D	
  	ei	0		V	neg
olevat	ole	vat		V	vat
      	olev	t		A	sg p
      	olev	t		S	sg p
tema	tema	0		P	sg g
    	tema	0		P	sg n
mitte	mitte	0		D	
maha	maha	0		D	
tõutanud	tõu_tanu	d		S	pl n
laske	lask	e		S	pl p
     	lask	ke		V	ge
     	lase	0		S	sg g
.	.			Z	
Karl	Karl	0		H	sg n
Tiedrichsohmidt	####				
Suurest_Kõppust	####				
tunnistas	tunnista	s		V	s
:	:			Z	
Tõnis	Tõnis	0		H	sg n
Kahe	kaks	0		N	sg g
viinud	vii	nud		V	nud
      	vii=nu	d		S	pl n
      	vii=nud	0		A	
      	vii=nud	0		A	sg n
      	vii=nud	d		A	pl n
ratta	ratas	0		S	sg g
poide	poi	de		S	pl g
tare	tare	0		S	sg g
    	tare	0		S	sg n
juku	####				
ja	ja	0		J	
ütelnud	ütle	nud		V	nud
       	ütel=nu	d		S	pl n
       	ütel=nud	0		A	
       	ütel=nud	0		A	sg n
       	ütel=nud	d		A	pl n
kui	kui	0		D	
   	kui	0		J	
teistkorda	####				
viima	vii	ma		V	ma
läinud	läinu	d		S	pl n
      	läinud	0		A	
      	läinud	0		A	sg n
      	läinud	d		A	pl n
      	mine	nud		V	nud
""""	""""			Z	
mis	mis	0		P	pl n
   	mis	0		P	sg n
see	see	0		P	sg n
maksab	maks	b		V	b
viia	vii	a		V	da
üks	üks	0		N	sg n
   	üks	0		P	sg n
poid	poi	d		S	pl n
    	poi	d		S	sg p
juba	juba	0		D	
ahju	ahi	0		S	adt
    	ahi	0		S	sg g
    	ahi	0		S	sg p
visatud	viska	tud		V	tud
       	visa=tu	d		S	pl n
       	visa=tud	0		A	
       	visa=tud	0		A	sg n
       	visa=tud	d		A	pl n
ja	ja	0		J	
tema	tema	0		P	sg g
    	tema	0		P	sg n
Triedrichsohmidt	####				
naine	naine	0		S	sg n
Ell	####				
olevat	ole	vat		V	vat
      	olev	t		A	sg p
      	olev	t		S	sg p
näinud	näi	nud		V	nud
      	näge	nud		V	nud
      	näi=nud	0		A	
      	näi=nud	0		A	sg n
      	näi=nud	d		A	pl n
      	näinu	d		S	pl n
kui	kui	0		D	
   	kui	0		J	
rentnikunaine	rentniku_naine	0		S	sg n
Mari	Mari	0		H	sg g
    	mari	0		S	sg g
    	mari	0		S	sg n
    	Mari	0		H	sg n
    	mari	0		S	sg p
Saar	saar	0		S	sg n
tares	tare	s		S	sg in
olnud	ol=nud	0		A	
     	ol=nud	0		A	sg n
     	ol=nud	d		A	pl n
     	ole	nud		V	nud
     	olnu	d		S	pl n
,	,			Z	
seepeale	see_peale	0		D	
küsinud	küsi	nud		V	nud
       	küsi=nu	d		S	pl n
       	küsi=nud	0		A	
       	küsi=nud	0		A	sg n
       	küsi=nud	d		A	pl n
Jüri	Jüri	0		H	sg g
    	Jüri	0		H	sg n
Jürisson	####				
rentniku	rentnik	0		S	sg g
naise	naine	0		S	sg g
käest	käest	0		K	
     	käsi	st		S	sg el
kas	kas	0		D	
ta	tema	0		P	sg g
  	tema	0		P	sg n
tares	tare	s		S	sg in
käinud	käi	nud		V	nud
      	käi=nud	0		A	
      	käi=nud	0		A	sg n
      	käi=nud	d		A	pl n
      	käinu	d		S	pl n
,	,			Z	
kes	kes	0		P	pl n
   	kes	0		P	sg n
ära	ära	0		D	
   	ära	0		V	neg o
salganud	####				
üteldes	ütle	des		V	des
,	,			Z	
et	et	0		J	
ta	tema	0		P	sg g
  	tema	0		P	sg n
koogigi	kook	0	gi	S	sg g
poole	pool	0		N	sg g
     	pool	0		S	sg g
     	pool	e		S	pl p
     	poole	0		K	
     	poole	0		S	sg n
saanud	saa	nud		V	nud
      	saa=nud	0		A	
      	saa=nud	0		A	sg n
      	saa=nud	d		A	pl n
      	saanu	d		S	pl n
veel	veel	0		D	
    	vesi	l		S	sg ad
vähem	vähem	0		C	sg n
     	vähem	0		D	
tare	tare	0		S	sg g
    	tare	0		S	sg n
,	,			Z	
pärast	pära	st		S	sg el
      	pärane	t		A	sg p
      	pärast	0		D	
      	pärast	0		K	
ütelnud	ütle	nud		V	nud
       	ütel=nu	d		S	pl n
       	ütel=nud	0		A	
       	ütel=nud	0		A	sg n
       	ütel=nud	d		A	pl n
aga	aga	0		J	
et	et	0		J	
ta	tema	0		P	sg g
  	tema	0		P	sg n
üle	üle	0		D	
   	üle	0		K	
ukse	uks	0		S	sg g
tare	tare	0		S	sg g
    	tare	0		S	sg n
vaatnud	####				
.	.			Z	
Jaan	Jaan	0		H	sg n
    	jaan	0		S	sg n
    	jaan	0		Y	?
Saar	saar	0		S	sg n
lubanud	luba	nud		V	nud
       	luba=nu	d		S	pl n
       	luba=nud	0		A	
       	luba=nud	0		A	sg n
       	luba=nud	d		A	pl n
aga	aga	0		J	
kõik	kõik	0		P	pl n
    	kõik	0		S	sg n
    	kõik	0		P	sg n
poiad	####				
ahju	ahi	0		S	adt
    	ahi	0		S	sg g
    	ahi	0		S	sg p
visata	viska	ta		V	da
      	visa	ta		A	sg ab
      	viska	ta		V	ta
kui	kui	0		D	
   	kui	0		J	
kõik	kõik	0		P	pl n
    	kõik	0		S	sg n
    	kõik	0		P	sg n
ära	ära	0		D	
   	ära	0		V	neg o
põletada	põleta	da		V	da
mis	mis	0		P	pl n
   	mis	0		P	sg n
tare	tare	0		S	sg g
    	tare	0		S	sg n
tuuaks	####				
üteldes	ütle	des		V	des
mis	mis	0		P	pl n
   	mis	0		P	sg n
saa	saa	0		V	o
võid	või	d		S	pl n
    	või	d		V	d
    	või	d		S	sg p
mulle	mull	e		S	pl p
     	mina	lle		P	sg all
     	mulle	0		S	sg n
teha	tege	a		V	da
see	see	0		P	sg n
on	ole	0		V	b
  	ole	0		V	vad
peremehe	pere_mees	0		S	sg g
käsk	käsk	0		S	sg n
,	,			Z	
ka	ka	0		D	
taluisa	talu_isa	0		S	sg g
       	talu_isa	0		S	sg n
       	talu_isa	0		S	sg p
hobusa	####				
lubanud	luba	nud		V	nud
       	luba=nu	d		S	pl n
       	luba=nud	0		A	
       	luba=nud	0		A	sg n
       	luba=nud	d		A	pl n
püssiga	püss	ga		S	sg kom
maha	maha	0		D	
laske	lask	e		S	pl p
     	lask	ke		V	ge
     	lase	0		S	sg g
kes	kes	0		P	pl n
   	kes	0		P	sg n
silla	sild	0		S	sg g
peal	pea	l		S	sg ad
    	peal	0		D	
    	peal	0		K	
olnud	ol=nud	0		A	
     	ol=nud	0		A	sg n
     	ol=nud	d		A	pl n
     	ole	nud		V	nud
     	olnu	d		S	pl n
kui	kui	0		D	
   	kui	0		J	
Jaan	Jaan	0		H	sg n
    	jaan	0		S	sg n
    	jaan	0		Y	?
Laar	laar	0		S	sg n
metsast	mets	st		S	sg el
       	metsane	t		A	sg p
koju	kodu	0		S	adt
tulnud	tul=nud	0		A	
      	tul=nud	0		A	sg n
      	tul=nud	d		A	pl n
      	tule	nud		V	nud
      	tulnu	d		S	pl n
,	,			Z	
tüdruku	tüdruk	0		S	sg g
maha	maha	0		D	
laskmist	laskmine	t		S	sg p
ei	ei	0		D	
  	ei	0		V	neg
olevat	ole	vat		V	vat
      	olev	t		A	sg p
      	olev	t		S	sg p
tema	tema	0		P	sg g
    	tema	0		P	sg n
kuulnud	kuul	nud		V	nud
       	kuul=nud	0		A	
       	kuul=nud	0		A	sg n
       	kuul=nud	d		A	pl n
       	kuulnu	d		S	pl n
.	.			Z	
Tõnis	Tõnis	0		H	sg n
Kahe	kaks	0		N	sg g
Suurest_Kõppust	####				
tunnistas	tunnista	s		V	s
:	:			Z	
Tema	tema	0		P	sg g
    	tema	0		P	sg n
viinud	vii	nud		V	nud
      	vii=nu	d		S	pl n
      	vii=nud	0		A	
      	vii=nud	0		A	sg n
      	vii=nud	d		A	pl n
poide	poi	de		S	pl g
tare	tare	0		S	sg g
    	tare	0		S	sg n
ahju	ahi	0		S	adt
    	ahi	0		S	sg g
    	ahi	0		S	sg p
siin	siin	0		D	
    	siin	0		S	sg n
kohta	koht	0		S	adt
     	kohta	0		K	
     	kohta	0		V	o
     	koht	0		S	sg p
seina	sein	0		S	adt
     	sein	0		S	sg g
     	sein	0		S	sg p
äärde	äär	de		S	adt
     	äärde	0		K	
kuivama	kuiva	ma		V	ma
ja	ja	0		J	
kui	kui	0		D	
   	kui	0		J	
teist	sina	st		P	pl el
     	tee	ist		S	pl el
     	teist	0		D	
     	teine	t		O	sg p
     	teine	t		P	sg p
kord	kord	0		D	
    	kord	0		S	sg n
tagasi	tagasi	0		D	
      	tagasi	0		K	
läinud	läinu	d		S	pl n
      	läinud	0		A	
      	läinud	0		A	sg n
      	läinud	d		A	pl n
      	mine	nud		V	nud
olnud	ol=nud	0		A	
     	ol=nud	0		A	sg n
     	ol=nud	d		A	pl n
     	ole	nud		V	nud
     	olnu	d		S	pl n
üks	üks	0		N	sg n
   	üks	0		P	sg n
poid	poi	d		S	pl n
    	poi	d		S	sg p
ahju	ahi	0		S	adt
    	ahi	0		S	sg g
    	ahi	0		S	sg p
visatud	viska	tud		V	tud
       	visa=tu	d		S	pl n
       	visa=tud	0		A	
       	visa=tud	0		A	sg n
       	visa=tud	d		A	pl n
,	,			Z	
mis	mis	0		P	pl n
   	mis	0		P	sg n
ta	tema	0		P	sg g
  	tema	0		P	sg n
töötanud	tööta	nud		V	nud
        	tööta=nu	d		S	pl n
        	tööta=nud	0		A	
        	tööta=nud	0		A	sg n
        	tööta=nud	d		A	pl n
,	,			Z	
seepeale	see_peale	0		D	
küsinud	küsi	nud		V	nud
       	küsi=nu	d		S	pl n
       	küsi=nud	0		A	
       	küsi=nud	0		A	sg n
       	küsi=nud	d		A	pl n
Jüri	Jüri	0		H	sg g
    	Jüri	0		H	sg n
Jürisson	####				
rentniku	rentnik	0		S	sg g
naise	naine	0		S	sg g
käest	käest	0		K	
     	käsi	st		S	sg el
kas	kas	0		D	
tema	tema	0		P	sg g
    	tema	0		P	sg n
on	ole	0		V	b
  	ole	0		V	vad
ahju	ahi	0		S	adt
    	ahi	0		S	sg g
    	ahi	0		S	sg p
visanud	viska	nud		V	nud
       	visa=nu	d		S	pl n
       	visa=nud	0		A	
       	visa=nud	0		A	sg n
       	visa=nud	d		A	pl n
,	,			Z	
rentniku	rentnik	0		S	sg g
naine	naine	0		S	sg n
ütelnud	ütle	nud		V	nud
       	ütel=nu	d		S	pl n
       	ütel=nud	0		A	
       	ütel=nud	0		A	sg n
       	ütel=nud	d		A	pl n
aga	aga	0		J	
Jürissonile	####				
""""	""""			Z	
teie	sina	0		P	pl g
    	sina	0		P	pl n
olete	ole	te		V	te
ise	ise	0		A	
   	ise	0		D	
   	ise	0		P	pl n
   	ise	0		P	sg n
visanud	viska	nud		V	nud
       	visa=nu	d		S	pl n
       	visa=nud	0		A	
       	visa=nud	0		A	sg n
       	visa=nud	d		A	pl n
""""	""""			Z	
.	.			Z	
Andres	Andre	s		H	sg in
      	Andres	0		H	sg n
Rosenberg	Rosenberg	0		H	sg n
Suurest_Kõppust	####				
tunnistas	tunnista	s		V	s
:	:			Z	
Tema	tema	0		P	sg g
    	tema	0		P	sg n
muud	muu	d		P	pl n
    	muu	d		S	pl n
    	muu	d		V	d
    	muu	d		P	sg p
    	muu	d		S	sg p
ei	ei	0		D	
  	ei	0		V	neg
täädvat	####				
silma	silm	0		S	adt
     	silm	0		S	sg g
     	silma	0		V	o
     	silm	0		S	sg p
nägu	nägu	0		S	sg n
    	nägu	0		S	sg p
olevat	ole	vat		V	vat
      	olev	t		A	sg p
      	olev	t		S	sg p
väike	väike	0		A	sg n
kui	kui	0		D	
   	kui	0		J	
kuulnud	kuul	nud		V	nud
       	kuul=nud	0		A	
       	kuul=nud	0		A	sg n
       	kuul=nud	d		A	pl n
       	kuulnu	d		S	pl n
et	et	0		J	
Jaan	Jaan	0		H	sg n
    	jaan	0		S	sg n
    	jaan	0		Y	?
Saar	saar	0		S	sg n
ükskord	üks_kord	0		D	
taluisa	talu_isa	0		S	sg g
       	talu_isa	0		S	sg n
       	talu_isa	0		S	sg p
Jüri	Jüri	0		H	sg g
    	Jüri	0		H	sg n
Jürissoni	####				
hobust	hobu	st		S	sg el
      	hobune	t		S	sg p
ähvardanud	ähvarda	nud		V	nud
          	ähvarda=nu	d		S	pl n
          	ähvarda=nud	0		A	
          	ähvarda=nud	0		A	sg n
          	ähvarda=nud	d		A	pl n
püssiga	püss	ga		S	sg kom
maha	maha	0		D	
laske	lask	e		S	pl p
     	lask	ke		V	ge
     	lase	0		S	sg g
.	.			Z	
Mari	Mari	0		H	sg g
    	mari	0		S	sg g
    	mari	0		S	sg n
    	Mari	0		H	sg n
    	mari	0		S	sg p
Juhan	Juhan	0		H	sg n
Suurest_Kõppust	####				
tunnistas	tunnista	s		V	s
:	:			Z	
Jaan	Jaan	0		H	sg n
    	jaan	0		S	sg n
    	jaan	0		Y	?
Saar	saar	0		S	sg n
lubanud	luba	nud		V	nud
       	luba=nu	d		S	pl n
       	luba=nud	0		A	
       	luba=nud	0		A	sg n
       	luba=nud	d		A	pl n
kõik	kõik	0		P	pl n
    	kõik	0		S	sg n
    	kõik	0		P	sg n
poiad	####				
ärapõletada	####				
mis	mis	0		P	pl n
   	mis	0		P	sg n
ses	see	s		P	sg in
on	ole	0		V	b
  	ole	0		V	vad
,	,			Z	
perenaine	pere_naine	0		S	sg n
ütelnud	ütle	nud		V	nud
       	ütel=nu	d		S	pl n
       	ütel=nud	0		A	
       	ütel=nud	0		A	sg n
       	ütel=nud	d		A	pl n
Jüri	Jüri	0		H	sg g
    	Jüri	0		H	sg n
Jürisonile	####				
:	:			Z	
mis	mis	0		P	pl n
   	mis	0		P	sg n
saa	saa	0		V	o
sest	see	st		P	sg el
    	sest	0		J	
uksest	uks	st		S	sg el
hoiad	hoid	d		V	d
mine	mine	0		V	o
,	,			Z	
Kaasi	kaas	i		S	pl p
ära	ära	0		D	
   	ära	0		V	neg o
.	.			Z	
Lisu	####				
Saarepära	saare_pära	0		S	sg g
         	saare_pära	0		S	sg n
         	saare_pära	0		S	sg p
Suurest_Kõppust	####				
tunnistas	tunnista	s		V	s
:	:			Z	
Jaan	Jaan	0		H	sg n
    	jaan	0		S	sg n
    	jaan	0		Y	?
Saar	saar	0		S	sg n
ütelnud	ütle	nud		V	nud
       	ütel=nu	d		S	pl n
       	ütel=nud	0		A	
       	ütel=nud	0		A	sg n
       	ütel=nud	d		A	pl n
mis	mis	0		P	pl n
   	mis	0		P	sg n
ees	ees	0		D	
   	ees	0		K	
   	esi	s		S	sg in
on	ole	0		V	b
  	ole	0		V	vad
põletan	põleta	n		V	n
ära	ära	0		D	
   	ära	0		V	neg o
ja	ja	0		J	
visan	####				
ahju	ahi	0		S	adt
    	ahi	0		S	sg g
    	ahi	0		S	sg p
,	,			Z	
see	see	0		P	sg n
luba	luba	0		S	sg n
    	luba	0		V	o
    	luba	0		S	sg p
on	ole	0		V	b
  	ole	0		V	vad
mull	mull	0		S	sg n
juba	juba	0		D	
mineval	minev	l		A	sg ad
aastal	aasta	l		S	sg ad
antud	an=tu	d		S	pl n
     	and	tud		V	tud
     	antud	0		A	
     	antud	0		A	sg n
     	antud	d		A	pl n
kõik	kõik	0		P	pl n
    	kõik	0		S	sg n
    	kõik	0		P	sg n
ära	ära	0		D	
   	ära	0		V	neg o
põletada	põleta	da		V	da
,	,			Z	
perenaine	pere_naine	0		S	sg n
ütelnud	ütle	nud		V	nud
       	ütel=nu	d		S	pl n
       	ütel=nud	0		A	
       	ütel=nud	0		A	sg n
       	ütel=nud	d		A	pl n
Jüri	Jüri	0		H	sg g
    	Jüri	0		H	sg n
Jürissonile	####				
:	:			Z	
mine	mine	0		V	o
ära	ära	0		D	
   	ära	0		V	neg o
sull	####				
poole	pool	0		N	sg g
     	pool	0		S	sg g
     	pool	e		S	pl p
     	poole	0		K	
     	poole	0		S	sg n
selle	see	0		P	sg g
     	sell	e		S	pl p
uksega	uks	ga		S	sg kom
asja	asi	0		S	adt
    	asi	0		S	sg g
    	asi	0		S	sg p
.	.			Z	
Toomas	Toomas	0		H	sg n
      	Toomas	s		H	sg in
      	too	mas		V	mas
Bergmann	Bergmann	0		H	sg n
Pujatust	####				
tunnistas	tunnista	s		V	s
ennast	ise	t		P	sg p
muud	muu	d		P	pl n
    	muu	d		S	pl n
    	muu	d		V	d
    	muu	d		P	sg p
    	muu	d		S	sg p
midagit	####				
Kuuelnud	####				
olevat	ole	vat		V	vat
      	olev	t		A	sg p
      	olev	t		S	sg p
kui	kui	0		D	
   	kui	0		J	
Jaan	Jaan	0		H	sg n
    	jaan	0		S	sg n
    	jaan	0		Y	?
Saar	saar	0		S	sg n
ähvardanud	ähvarda	nud		V	nud
          	ähvarda=nu	d		S	pl n
          	ähvarda=nud	0		A	
          	ähvarda=nud	0		A	sg n
          	ähvarda=nud	d		A	pl n
kõkülvik	####				
ahju	ahi	0		S	adt
    	ahi	0		S	sg g
    	ahi	0		S	sg p
pilduda	pildu	da		V	da
mis	mis	0		P	pl n
   	mis	0		P	sg n
ees	ees	0		D	
   	ees	0		K	
   	esi	s		S	sg in
on	ole	0		V	b
  	ole	0		V	vad
.	.			Z	
Anu	Anu	0		H	sg g
   	anu	0		V	o
   	Anu	0		H	sg n
riiesenberg	####				
Suurest_Kõppust	####				
andis	and	is		V	s
küsimiselt	küsimine	lt		S	sg abl
vastuseks	vastus	ks		S	sg tr
et	et	0		J	
Jaan	Jaan	0		H	sg n
    	jaan	0		S	sg n
    	jaan	0		Y	?
Saar	saar	0		S	sg n
lubanud	luba	nud		V	nud
       	luba=nu	d		S	pl n
       	luba=nud	0		A	
       	luba=nud	0		A	sg n
       	luba=nud	d		A	pl n
teda	tema	da		P	sg p
püssiga	püss	ga		S	sg kom
maha	maha	0		D	
laske	lask	e		S	pl p
     	lask	ke		V	ge
     	lase	0		S	sg g
,	,			Z	
seepärast	see_pärast	0		D	
et	et	0		J	
tema	tema	0		P	sg g
    	tema	0		P	sg n
akna	aken	0		S	sg g
luugid	luuk	d		S	pl n
kinni	kinni	0		D	
pannud	pan=nu	d		S	pl n
      	pan=nud	0		A	
      	pan=nud	0		A	sg n
      	pan=nud	d		A	pl n
      	pane	nud		V	nud
kui	kui	0		D	
   	kui	0		J	
ähvardanud	ähvarda	nud		V	nud
          	ähvarda=nu	d		S	pl n
          	ähvarda=nud	0		A	
          	ähvarda=nud	0		A	sg n
          	ähvarda=nud	d		A	pl n
püsti	püsti	0		D	
käega	käsi	ga		S	sg kom
lüia	####				
üteldes	ütle	des		V	des
täna	täna	0		D	
    	täna	0		V	o
et	et	0		J	
saa	saa	0		V	o
ilma	ilm	0		S	adt
    	ilm	0		S	sg g
    	ilma	0		D	
    	ilma	0		K	
    	ilm	0		S	sg p
jäid	jää	id		V	sid
,	,			Z	
muust	muu	st		P	sg el
     	muu	st		S	sg el
asjast	asi	st		S	sg el
tema	tema	0		P	sg g
    	tema	0		P	sg n
ei	ei	0		D	
  	ei	0		V	neg
täändvat	####				
.	.			Z	
otsus	otsus	0		S	sg n
:	:			Z	
Hans	Hans	0		H	sg n
Saar	saar	0		S	sg n
lähab	####				
oma	oma	0		A	sg g
   	oma	0		D	
   	oma	0		P	sg g
   	oma	0		S	sg g
   	oma	0		V	o
   	oma	0		A	sg n
   	oma	0		A	sg p
   	oma	0		P	sg n
   	oma	0		P	sg p
   	oma	0		S	sg n
   	oma	0		S	sg p
tunnistuse	tunnistus	0		S	sg g
põhjuse	põhjus	0		S	sg g
et	et	0		J	
Jaan	Jaan	0		H	sg n
    	jaan	0		S	sg n
    	jaan	0		Y	?
Saaret	Saare	t		H	sg p
on	ole	0		V	b
  	ole	0		V	vad
luba	luba	0		S	sg n
    	luba	0		V	o
    	luba	0		S	sg p
andnud	and	nud		V	nud
      	and=nu	d		S	pl n
      	and=nud	0		A	
      	and=nud	0		A	sg n
      	and=nud	d		A	pl n
kõik	kõik	0		P	pl n
    	kõik	0		S	sg n
    	kõik	0		P	sg n
ära	ära	0		D	
   	ära	0		V	neg o
põletada	põleta	da		V	da
,	,			Z	
48	48	0		N	?
tunnis	tund	s		S	sg in
vangi	vang	0		S	adt
     	vang	0		S	sg g
     	vang	0		S	sg p
,	,			Z	
kui	kui	0		D	
   	kui	0		J	
valitseb	valitse	b		V	b
oma	oma	0		A	sg g
   	oma	0		D	
   	oma	0		P	sg g
   	oma	0		S	sg g
   	oma	0		V	o
   	oma	0		A	sg n
   	oma	0		A	sg p
   	oma	0		P	sg n
   	oma	0		P	sg p
   	oma	0		S	sg n
   	oma	0		S	sg p
naist	naine	t		S	sg p
et	et	0		J	
edespidi	####				
enam	enam	0		C	sg n
    	enam	0		D	
talu	talu	0		S	sg g
    	talu	0		V	o
    	talu	0		S	sg n
    	talu	0		S	sg p
isaga	isa	ga		S	sg kom
Jüri	Jüri	0		H	sg g
    	Jüri	0		H	sg n
Jürissoniga	####				
ei	ei	0		D	
  	ei	0		V	neg
tülitse	tülitse	0		V	o
ja	ja	0		J	
laseb	lask	b		V	b
Jaan	Jaan	0		H	sg n
    	jaan	0		S	sg n
    	jaan	0		Y	?
Saare	Saare	0		H	sg g
     	saar	0		S	sg g
     	Saare	0		H	sg n
eestuleval	ees_tulev	l		A	sg ad
Kevadel	kevad	l		S	sg ad
       	kevade	l		S	sg ad
oma	oma	0		A	sg g
   	oma	0		D	
   	oma	0		P	sg g
   	oma	0		S	sg g
   	oma	0		V	o
   	oma	0		A	sg n
   	oma	0		A	sg p
   	oma	0		P	sg n
   	oma	0		P	sg p
   	oma	0		S	sg n
   	oma	0		S	sg p
teenistub	####				
ära	ära	0		D	
   	ära	0		V	neg o
.	.			Z	
Jaan	Jaan	0		H	sg n
    	jaan	0		S	sg n
    	jaan	0		Y	?
Saar	saar	0		S	sg n
saab	saa	b		V	b
aga	aga	0		J	
25	25	0		N	?
vitsa	vits	0		S	adt
     	vits	0		S	sg g
     	vits	0		S	sg p
hoopi	hoop	0		S	adt
     	hoop	0		S	sg p
põletamise	põletamine	0		S	sg g
kui	kui	0		D	
   	kui	0		J	
püssiga	püss	ga		S	sg kom
laskmise	laskmine	0		S	sg g
ähvardamise	ähvardamine	0		S	sg g
eest	eest	0		D	
    	eest	0		K	
    	esi	st		S	sg el
.	.			Z	
see	see	0		P	sg n
otsus	otsus	0		S	sg n
sai	saa	i		V	s
   	sai	0		S	sg n
Kuulutatud	kuuluta	tud		V	tud
          	kuuluta=tu	d		S	pl n
          	kuuluta=tud	0		A	
          	kuuluta=tud	0		A	sg n
          	kuuluta=tud	d		A	pl n
mis	mis	0		P	pl n
   	mis	0		P	sg n
peale	pea	le		S	sg all
     	peale	0		D	
     	peale	0		K	
Jaan	Jaan	0		H	sg n
    	jaan	0		S	sg n
    	jaan	0		Y	?
Saar	saar	0		S	sg n
appelatsioni	####				
edasi	edasi	0		D	
     	edasi	0		K	
kaebamiseks	kaebamine	ks		S	sg tr
nõudis	nõud	is		V	s
,	,			Z	
temal	tema	l		P	sg ad
ka	ka	0		D	
kohe	kohe	0		A	sg n
    	kohe	0		D	
välja	välja	0		D	
     	välja	0		V	o
     	väli	0		S	adt
     	väli	0		S	sg g
     	väli	0		S	sg p
antud	an=tu	d		S	pl n
     	and	tud		V	tud
     	antud	0		A	
     	antud	0		A	sg n
     	antud	d		A	pl n
sai	saa	i		V	s
   	sai	0		S	sg n
ja	ja	0		J	
Hans	Hans	0		H	sg n
Saar	saar	0		S	sg n
ka	ka	0		D	
edasi	edasi	0		D	
     	edasi	0		K	
kaebata	####				
lubas	luba	s		V	s
.	.			Z	
Pääkohtumees	####				
Andres	Andre	s		H	sg in
      	Andres	0		H	sg n
ekbaum	####				
[	[			Z	
allkiri	all_kiri	0		S	sg n
]	]			Z	
kohtumees	kohtu_mees	0		S	sg n
Peter	Peter	0		H	sg n
Bergmann	Bergmann	0		H	sg n
[	[			Z	
allkiri	all_kiri	0		S	sg n
]	]			Z	
kohtumees	kohtu_mees	0		S	sg n
Peet	Peet	0		H	sg n
    	peet	0		S	sg n
Amann	####				
[	[			Z	
allkiri	all_kiri	0		S	sg n
]	]			Z	
kirjutaja	kirjutaja	0		S	sg g
         	kirjutaja	0		S	sg n
[	[			Z	
allkiri	all_kiri	0		S	sg n
]	]			Z	
