märt	####				
Kuti	kutt	0		S	sg g
tuli	tuli	0		S	sg n
    	tule	i		V	s
ette	ette	0		D	
    	ette	0		K	
    	esi	tte		S	adt
ja	ja	0		J	
kaebas	kaeba	s		V	s
,	,			Z	
et	et	0		J	
Jaak	Jaak	0		H	sg n
    	jaak	0		S	sg n
Kalm	kalm	0		S	sg n
temale	tema	le		P	sg all
105	105	0		N	?
R	R	0		Y	?
h	h	0		Y	?
.	.			Z	
võlgu	võlg	u		S	pl p
     	võlgu	0		D	
olla	ole	a		V	da
keda	kes	da		P	pl p
    	kes	da		P	sg p
ära	ära	0		D	
   	ära	0		V	neg o
ei	ei	0		D	
  	ei	0		V	neg
maksta	maks	ta		V	da
      	maks	ta		V	ta
ja	ja	0		J	
palub	palu	b		V	b
kaebaja	kaebaja	0		S	sg g
       	kaebaja	0		S	sg n
,	,			Z	
et	et	0		J	
kohus	kohu	s		V	s
     	kohus	0		S	sg n
Jaak	Jaak	0		H	sg n
    	jaak	0		S	sg n
kalmu	kalm	0		S	adt
     	kalm	0		S	sg g
     	kalm	0		S	sg p
sunniks	sund	ks		S	sg tr
       	sundi	ks		V	ks
,	,			Z	
temale	tema	le		P	sg all
seda	see	da		P	sg p
äratasuma	####				
.	.			Z	
Jaak	Jaak	0		H	sg n
    	jaak	0		S	sg n
Kalm	kalm	0		S	sg n
sai	saa	i		V	s
   	sai	0		S	sg n
ette	ette	0		D	
    	ette	0		K	
    	esi	tte		S	adt
kutsutud	kutsu	tud		V	tud
        	kutsutu	d		S	pl n
        	kutsutud	0		A	
        	kutsutud	0		A	sg n
        	kutsutud	d		A	pl n
kes	kes	0		P	pl n
   	kes	0		P	sg n
seda	see	da		P	sg p
ei	ei	0		D	
  	ei	0		V	neg
salanud	salga	nud		V	nud
       	sala=nu	d		S	pl n
       	sala=nud	0		A	
       	sala=nud	0		A	sg n
       	sala=nud	d		A	pl n
,	,			Z	
_	_			Z	
ning	ning	0		J	
leppisid	leppi	sid		V	sid
oma	oma	0		A	sg g
   	oma	0		D	
   	oma	0		P	sg g
   	oma	0		S	sg g
   	oma	0		V	o
   	oma	0		A	sg n
   	oma	0		A	sg p
   	oma	0		P	sg n
   	oma	0		P	sg p
   	oma	0		S	sg n
   	oma	0		S	sg p
vahel	vahe	l		S	sg ad
     	vahel	0		D	
     	vahel	0		K	
nõnda	nõnda	0		D	
,	,			Z	
et	et	0		J	
Jaak	Jaak	0		H	sg n
    	jaak	0		S	sg n
Kalm	kalm	0		S	sg n
sele	####				
105	105	0		N	?
R	R	0		Y	?
.	.			Z	
võla	võlg	0		S	sg g
summast	summ	st		S	sg el
       	summa	st		S	sg el
30	30	0		N	?
R	R	0		Y	?
.	.			Z	
kuni	kuni	0		J	
    	kuni	0		K	
23	23	0		N	?
aprillini	aprill	ni		S	sg ter
s	s	0		Y	?
.	.			Z	
a	a	0		Y	?
ja	ja	0		J	
teine	teine	0		O	sg n
     	teine	0		P	sg n
usa	####				
kase	kask	0		S	sg g
2	2	0		N	?
veebr.	veebr	0		Y	?
1881	1881	0		N	?
märt	####				
kuttile	####				
äramaksab	####				
.	.			Z	
mõistetud	mõist	tud		V	tud
         	mõiste=tu	d		S	pl n
         	mõiste=tud	0		A	
         	mõiste=tud	0		A	sg n
         	mõiste=tud	d		A	pl n
:	:			Z	
seda	see	da		P	sg p
nõnda	nõnda	0		D	
kui	kui	0		D	
   	kui	0		J	
sündinud	sündi	nud		V	nud
        	sündinu	d		S	pl n
        	sündinud	0		A	
        	sündinud	0		A	sg n
        	sündinud	d		A	pl n
maha	maha	0		D	
kirjutada	kirjuta	da		V	da
.	.			Z	
