Hans	Hans	0		H	sg n
Vorm	vorm	0		S	sg n
saab	saa	b		V	b
tööpalka	töö_palk	0		S	adt
        	töö_palk	0		S	sg p
:	:			Z	
Jaak	Jaak	0		H	sg n
    	jaak	0		S	sg n
Teras	tera	s		S	sg in
     	teras	0		S	sg n
maksab	maks	b		V	b
1	1	0		N	?
/	/			Z	
2	2	0		N	?
vakka	vakk	0		S	adt
     	vakk	0		S	sg p
     	vakka	0		D	
Odre	####				
.	.			Z	
Mihkel	Mihkel	0		H	sg n
      	mihkel	0		A	sg n
      	mihkel	0		S	sg n
Weinglas	####				
maksab	maks	b		V	b
1	1	0		N	?
vak	####				
rukkid	rukis	d		S	pl n
(	(			Z	
5	5	0		N	?
naela	nael	0		S	adt
     	nael	0		S	sg g
     	nael	0		S	sg p
rauda	raud	0		S	adt
     	raud	0		S	sg p
tagasi	tagasi	0		D	
      	tagasi	0		K	
.	.			Z	
Mart	Mart	0		H	sg n
    	mart	0		S	sg n
Tõnisson	Tõnisson	0		H	sg n
maksab	maks	b		V	b
15	15	0		N	?
kop	kop	0		Y	?
.	.			Z	
hõb	####				
.	.			Z	
Hans	Hans	0		H	sg n
Sabale	saba	le		S	sg all
maksab	maks	b		V	b
86	86	0		N	?
kop	kop	0		Y	?
.	.			Z	
hõb	####				
.	.			Z	
