Märt	Märt	0		H	sg n
Tõnissoni	Tõnisson	0		H	adt
         	Tõnisson	0		H	sg g
         	Tõnisson	0		H	sg p
kaebduses	####				
Jakob	Jakob	0		H	sg n
valiko	####				
vastu	vastu	0		D	
     	vastu	0		K	
nõudmise	nõudmine	0		S	sg g
pärast	pära	st		S	sg el
      	pärane	t		A	sg p
      	pärast	0		D	
      	pärast	0		K	
andis	and	is		V	s
Jaak	Jaak	0		H	sg n
    	jaak	0		S	sg n
Silk	silk	0		S	sg n
tunnistust	tunnistus	t		S	sg p
:	:			Z	
et	et	0		J	
Jakob	Jakob	0		H	sg n
valiko	####				
rattad	ratas	d		S	pl n
osalt	osa	lt		S	sg abl
     	osalt	0		D	
eneseda	####				
küll	küll	0		D	
    	küll	0		S	sg n
rautud	####				
olnud	ol=nud	0		A	
     	ol=nud	0		A	sg n
     	ol=nud	d		A	pl n
     	ole	nud		V	nud
     	olnu	d		S	pl n
enne	enne	0		D	
    	enne	0		K	
    	enne	0		S	sg n
kui	kui	0		D	
   	kui	0		J	
nad	tema	d		P	pl n
tema	tema	0		P	sg g
    	tema	0		P	sg n
kätte	kätte	0		K	
     	käsi	tte		S	adt
rautada	rauta	da		V	da
toodud	too	dud		V	tud
      	toodu	d		S	pl n
      	toodud	0		A	
      	toodud	0		A	sg n
      	toodud	d		A	pl n
,	,			Z	
aga	aga	0		J	
kes	kes	0		P	pl n
   	kes	0		P	sg n
seda	see	da		P	sg p
tõt	####				
teinud	tege	nud		V	nud
      	tei=nud	0		A	
      	tei=nud	0		A	sg n
      	tei=nud	d		A	pl n
      	teinu	d		S	pl n
seda	see	da		P	sg p
ei	ei	0		D	
  	ei	0		V	neg
teadvat	tead	vat		V	vat
       	teadev	t		A	sg p
tema	tema	0		P	sg g
    	tema	0		P	sg n
.	.			Z	
Mõisteti	mõist	ti		V	ti
:	:			Z	
tunnistaja	tunnistaja	0		S	sg g
          	tunnistaja	0		S	sg n
ütelust	üte_lust	0		S	sg n
protokoli	####				
võtta	võt	a		V	da
.	.			Z	
peakohtumees	pea_kohtu_mees	0		S	sg n
JLuik	####				
[	[			Z	
allkiri	all_kiri	0		S	sg n
]	]			Z	
kohtumeest	kohtu_mees	t		S	sg p
MHansen	####				
[	[			Z	
allkiri	all_kiri	0		S	sg n
]	]			Z	
Jamaja	jama=ja	0		S	sg g
      	jama=ja	0		S	sg n
[	[			Z	
allkiri	all_kiri	0		S	sg n
]	]			Z	
JAndresson	####				
[	[			Z	
allkiri	all_kiri	0		S	sg n
]	]			Z	
kirjut	kirju	t		A	sg p
raudsep	####				
[	[			Z	
allkiri	all_kiri	0		S	sg n
]	]			Z	
