Tänasel	tänane	l		A	sg ad
päeval	päev	l		S	sg ad
sai	saa	i		V	s
   	sai	0		S	sg n
Jaan	Jaan	0		H	sg n
    	jaan	0		S	sg n
    	jaan	0		Y	?
kalapulka	kala_pulk	0		S	adt
         	kala_pulk	0		S	sg p
teenitatud	####				
palgaraha	palga_raha	0		S	sg g
         	palga_raha	0		S	sg n
         	palga_raha	0		S	sg p
,	,			Z	
keda	kes	da		P	pl p
    	kes	da		P	sg p
Suure	suur	0		A	sg g
kõppo	####				
mõisa	mõis	0		S	sg g
valitsus	valitsus	0		S	sg n
siia	siia	0		D	
    	siig	0		S	sg g
kohtu	kohtu	0		V	o
     	kohus	0		S	sg g
kätte	kätte	0		K	
     	käsi	tte		S	adt
seletuseks	seletus	ks		S	sg tr
saatnud	saat	nud		V	nud
       	saat=nu	d		S	pl n
       	saat=nud	0		A	
       	saat=nud	0		A	sg n
       	saat=nud	d		A	pl n
49	49	0		N	?
rbl	rbl	0		Y	?
.	.			Z	
73	73	0		N	?
kop	kop	0		Y	?
.	.			Z	
nõnda	nõnda	0		D	
äraseletud	####				
,	,			Z	
et	et	0		J	
sele	####				
nimetatud	nimeta	tud		V	tud
         	nimetatu	d		S	pl n
         	nimetatud	0		A	
         	nimetatud	0		A	sg n
         	nimetatud	d		A	pl n
sult	sina	lt		P	sg abl
,	,			Z	
siitsa	####				
kohtu	kohtu	0		V	o
     	kohus	0		S	sg g
otsuse	otsus	0		S	sg g
järele	järele	0		D	
      	järele	0		K	
26	26	0		N	?
Maist	Mai	st		H	sg el
     	maa	ist		S	pl el
     	mai	st		S	sg el
     	maine	t		A	sg p
s	s	0		Y	?
.	.			Z	
a	a	0		Y	?
N	N	0		Y	?
.	.			Z	
58	58	0		N	?
järele	järele	0		D	
      	järele	0		K	
Peter	Peter	0		H	sg n
Tiit	Tiit	0		H	sg n
ja	ja	0		J	
Mihkel	Mihkel	0		H	sg n
      	mihkel	0		A	sg n
      	mihkel	0		S	sg n
Riesenbergi	####				
heaks	hea	ks		A	sg tr
     	hea	ks		S	sg tr
     	heaks	0		D	
     	heaks	0		K	
66	66	0		N	?
R	R	0		Y	?
.	.			Z	
80	80	0		N	?
kop	kop	0		Y	?
.	.			Z	
välja	välja	0		D	
     	välja	0		V	o
     	väli	0		S	adt
     	väli	0		S	sg g
     	väli	0		S	sg p
makstud	maks	tud		V	tud
       	maks=tu	d		S	pl n
       	maks=tud	0		A	
       	maks=tud	0		A	sg n
       	maks=tud	d		A	pl n
sai	saa	i		V	s
   	sai	0		S	sg n
ning	ning	0		J	
et	et	0		J	
Jaan	Jaan	0		H	sg n
    	jaan	0		S	sg n
    	jaan	0		Y	?
kalapulk	kala_pulk	0		S	sg n
mitte	mitte	0		D	
siin	siin	0		D	
    	siin	0		S	sg n
ei	ei	0		D	
  	ei	0		V	neg
ela	ela	0		V	o
ning	ning	0		J	
tema	tema	0		P	sg g
    	tema	0		P	sg n
elukoht	elu_koht	0		S	sg n
siin	siin	0		D	
    	siin	0		S	sg n
koguni	kogu	ni		S	sg ter
      	koguni	0		D	
teadmata	tead	mata		V	mata
        	tead=mata	0		A	
,	,			Z	
siis	siis	0		D	
    	siis	0		J	
seda	see	da		P	sg p
üle	üle	0		D	
   	üle	0		K	
jäädvat	####				
summa	summ	0		S	adt
     	summ	0		S	sg g
     	summ	0		S	sg p
     	summa	0		S	sg g
     	summa	0		S	sg n
27	27	0		N	?
rbl	rbl	0		Y	?
.	.			Z	
93	93	0		N	?
kop	kop	0		Y	?
.	.			Z	
Uue	uus	0		A	sg g
Kariste	karine	te		A	pl g
kogukonna	kogukond	0		S	sg g
kohtu	kohtu	0		V	o
     	kohus	0		S	sg g
juure	juur	0		S	sg g
_	_			Z	
kelle	kes	0		P	pl g
     	kes	0		P	sg g
liige	liige	0		S	sg n
Jaan	Jaan	0		H	sg n
    	jaan	0		S	sg n
    	jaan	0		Y	?
kalapulk	kala_pulk	0		S	sg n
,	,			Z	
pikemaks	pikem	ks		C	sg tr
seletuseks	seletus	ks		S	sg tr
saata	saat	a		V	da
.	.			Z	
mõistetud	mõist	tud		V	tud
         	mõiste=tu	d		S	pl n
         	mõiste=tud	0		A	
         	mõiste=tud	0		A	sg n
         	mõiste=tud	d		A	pl n
:	:			Z	
seda	see	da		P	sg p
nõnda	nõnda	0		D	
kui	kui	0		D	
   	kui	0		J	
sündinud	sündi	nud		V	nud
        	sündinu	d		S	pl n
        	sündinud	0		A	
        	sündinud	0		A	sg n
        	sündinud	d		A	pl n
maha	maha	0		D	
kirjutada	kirjuta	da		V	da
.	.			Z	
