vaata	vaata	0		V	o
protokollikirja	protokolli_kiri	0		S	adt
               	protokolli_kiri	0		S	sg g
               	protokolli_kiri	0		S	sg p
30.	30.	0		O	?
Oktoobri	oktoober	0		S	sg g
k	k	0		Y	?
.	.			Z	
p	p	0		Y	?
.	.			Z	
1860.	1860.	0		O	?
pkt	####				
.	.			Z	
2.	2.	0		O	?
Jaak	Jaak	0		H	sg n
    	jaak	0		S	sg n
Kont	kont	0		S	sg n
,	,			Z	
pimed	####				
soldat	soldat	0		S	sg n
seletas	seleta	s		V	s
,	,			Z	
et	et	0		J	
Ado	Ado	0		H	sg g
   	Ado	0		H	sg n
Sarik	####				
peale	pea	le		S	sg all
     	peale	0		D	
     	peale	0		K	
jõulu	####				
mineva	minev	0		A	sg g
aasta	aasta	0		S	sg g
     	aasta	0		S	sg n
temale	tema	le		P	sg all
Kabrila	####				
kõrtsi	kõrts	0		S	adt
      	kõrts	0		S	sg g
      	kõrts	0		S	sg p
juures	juur	s		S	sg in
      	juures	0		D	
      	juures	0		K	
ütelnud	ütle	nud		V	nud
       	ütel=nu	d		S	pl n
       	ütel=nud	0		A	
       	ütel=nud	0		A	sg n
       	ütel=nud	d		A	pl n
,	,			Z	
et	et	0		J	
minu	mina	0		P	sg g
se	####				
laps	laps	0		S	sg n
küll	küll	0		D	
    	küll	0		S	sg n
ei	ei	0		D	
  	ei	0		V	neg
ole	ole	0		V	o
,	,			Z	
aga	aga	0		J	
puhas	puhas	0		A	sg n
mina	mina	0		P	sg n
    	mina	0		S	sg g
    	mina	0		S	sg n
    	mina	0		S	sg p
sest	see	st		P	sg el
    	sest	0		J	
naisterahvas	naiste_rahvas	0		S	sg n
            	naiste_rahvas	s		S	sg in
ka	ka	0		D	
mitte	mitte	0		D	
ep	ep	0		D	
ole	ole	0		V	o
.	.			Z	
Ado	Ado	0		H	sg g
   	Ado	0		H	sg n
Sarik	####				
vaidles	vaidle	s		V	s
vastu	vastu	0		D	
     	vastu	0		K	
,	,			Z	
ütles	ütle	s		V	s
,	,			Z	
et	et	0		J	
kõik	kõik	0		P	pl n
    	kõik	0		S	sg n
    	kõik	0		P	sg n
tunnistused	tunnistus	d		S	pl n
tühjad	tühi	d		A	pl n
,	,			Z	
_	_			Z	
ütles	ütle	s		V	s
ennast	ise	t		P	sg p
sellest	see	st		P	sg el
naisterahvast	naiste_rahvas	st		S	sg el
             	naiste_rahvas	t		S	sg p
hoopis	hoopis	0		D	
prii	prii	0		A	sg g
    	prii	0		A	sg n
oleva	olev	0		A	sg g
     	olev	0		S	sg g
.	.			Z	
rehe	rehi	0		S	sg g
pappi	papp	0		S	adt
     	papp	0		S	sg p
palve	palve	0		S	sg g
     	palve	0		S	sg n
oleva	olev	0		A	sg g
     	olev	0		S	sg g
ka	ka	0		D	
tühi	tühi	0		A	sg n
.	.			Z	
naisterahvas	naiste_rahvas	0		S	sg n
            	naiste_rahvas	s		S	sg in
seletas	seleta	s		V	s
,	,			Z	
et	et	0		J	
kõik	kõik	0		P	pl n
    	kõik	0		S	sg n
    	kõik	0		P	sg n
nõud	nõu	d		S	pl n
ja	ja	0		J	
tunnistused	tunnistus	d		S	pl n
tuhad	tuhk	d		S	pl n
oleva	olev	0		A	sg g
     	olev	0		S	sg g
,	,			Z	
Jüri	Jüri	0		H	sg g
    	Jüri	0		H	sg n
Annus	annus	0		S	sg n
oleva	olev	0		A	sg g
     	olev	0		S	sg g
lapse	laps	0		S	sg g
isa	isa	0		S	sg g
   	isa	0		S	sg n
   	isa	0		S	sg p
.	.			Z	
mõisteti	mõist	ti		V	ti
:	:			Z	
assi	ass	0		S	adt
    	ass	0		S	sg g
    	ass	0		S	sg p
kihelkonna	kihelkond	0		S	sg g
kohtu	kohtu	0		V	o
     	kohus	0		S	sg g
ette	ette	0		D	
    	ette	0		K	
    	esi	tte		S	adt
talitada	talita	da		V	da
,	,			Z	
sest	see	st		P	sg el
    	sest	0		J	
et	et	0		J	
ilma	ilm	0		S	adt
    	ilm	0		S	sg g
    	ilma	0		D	
    	ilma	0		K	
    	ilm	0		S	sg p
vandeta	vanne	ta		S	sg ab
asja	asi	0		S	adt
    	asi	0		S	sg g
    	asi	0		S	sg p
selgeks	selge	ks		A	sg tr
ei	ei	0		D	
  	ei	0		V	neg
sa	sina	0		P	sg n
.	.			Z	
