Aleksander	Aleksander	0		H	sg n
Kerasimoovi	####				
kaebduse	####				
asjas	asi	s		S	sg in
Johann	Johann	0		H	sg n
ainsoni	####				
vastu	vastu	0		D	
     	vastu	0		K	
nõudmise	nõudmine	0		S	sg g
pärast	pära	st		S	sg el
      	pärane	t		A	sg p
      	pärast	0		D	
      	pärast	0		K	
puudus	puudu	s		V	s
      	puudus	0		S	sg n
täna	täna	0		D	
    	täna	0		V	o
Johann	Johann	0		H	sg n
ainson	####				
vabandusega	vabandus	ga		S	sg kom
.	.			Z	
Mõisteti	mõist	ti		V	ti
:	:			Z	
neid	neid	0		S	sg n
    	see	d		P	pl p
    	tema	d		P	pl p
käesti	####				
ette	ette	0		D	
    	ette	0		K	
    	esi	tte		S	adt
kutsu	kutsu	0		V	o
     	kutsu	0		S	sg g
     	kutsu	0		S	sg n
.	.			Z	
peakohtumees	pea_kohtu_mees	0		S	sg n
JLuik	####				
kohtumeest	kohtu_mees	t		S	sg p
:	:			Z	
JAndresson	####				
MHansen	####				
