kaebas	kaeba	s		V	s
Tiina	Tiina	0		H	sg g
     	Tiina	0		H	sg n
Jürgens	####				
,	,			Z	
et	et	0		J	
tema	tema	0		P	sg g
    	tema	0		P	sg n
lehm	lehm	0		S	sg n
Jaak	Jaak	0		H	sg n
    	jaak	0		S	sg n
tükki	tükk	0		S	adt
     	tükk	0		S	sg p
     	tükki	0		D	
läbi	läbi	0		D	
    	läbi	0		K	
    	läbi	0		V	o
möödaläinud	mööda_läinud	0		A	
           	mööda_läinud	0		A	sg n
           	mööda_läinud	d		A	pl n
aastal	aasta	l		S	sg ad
Lustivere	lusti_veri	0		S	sg g
laadal	laat	l		S	sg ad
ära	ära	0		D	
   	ära	0		V	neg o
müüdud	müü	dud		V	tud
      	müü=du	d		S	pl n
      	müü=dud	0		A	
      	müü=dud	0		A	sg n
      	müü=dud	d		A	pl n
.	.			Z	
nõudis	nõud	is		V	s
oma	oma	0		A	sg g
   	oma	0		D	
   	oma	0		P	sg g
   	oma	0		S	sg g
   	oma	0		V	o
   	oma	0		A	sg n
   	oma	0		A	sg p
   	oma	0		P	sg n
   	oma	0		P	sg p
   	oma	0		S	sg n
   	oma	0		S	sg p
tagasi	tagasi	0		D	
      	tagasi	0		K	
:	:			Z	
Andres	Andre	s		H	sg in
      	Andres	0		H	sg n
Pung	pung	0		S	sg n
tunnistas	tunnista	s		V	s
,	,			Z	
et	et	0		J	
tema	tema	0		P	sg g
    	tema	0		P	sg n
seal	seal	0		D	
    	siga	l		A	sg ad
    	siga	l		S	sg ad
juures	juur	s		S	sg in
      	juures	0		D	
      	juures	0		K	
olnud	ol=nud	0		A	
     	ol=nud	0		A	sg n
     	ol=nud	d		A	pl n
     	ole	nud		V	nud
     	olnu	d		S	pl n
kui	kui	0		D	
   	kui	0		J	
lehm	lehm	0		S	sg n
müüdud	müü	dud		V	tud
      	müü=du	d		S	pl n
      	müü=dud	0		A	
      	müü=dud	0		A	sg n
      	müü=dud	d		A	pl n
saanud	saa	nud		V	nud
      	saa=nud	0		A	
      	saa=nud	0		A	sg n
      	saa=nud	d		A	pl n
      	saanu	d		S	pl n
,	,			Z	
_	_			Z	
hind	hind	0		S	sg n
olnud	ol=nud	0		A	
     	ol=nud	0		A	sg n
     	ol=nud	d		A	pl n
     	ole	nud		V	nud
     	olnu	d		S	pl n
8	8	0		N	?
ru	####				
hõb	####				
.	.			Z	
Jaak	Jaak	0		H	sg n
    	jaak	0		S	sg n
tük	####				
seletas	seleta	s		V	s
,	,			Z	
et	et	0		J	
tüdruk	tüdruk	0		S	sg n
seda	see	da		P	sg p
lehma	lehm	0		S	adt
     	lehm	0		S	sg g
     	lehm	0		S	sg p
andnud	and	nud		V	nud
      	and=nu	d		S	pl n
      	and=nud	0		A	
      	and=nud	0		A	sg n
      	and=nud	d		A	pl n
temale	tema	le		P	sg all
kaubelda	kauple	da		V	da
        	kauple	da		V	ta
.	.			Z	
Hind	hind	0		S	sg n
_	_			Z	
8	8	0		N	?
ru	####				
hõb	####				
.	.			Z	
_	_			Z	
on	ole	0		V	b
  	ole	0		V	vad
siis	siis	0		D	
    	siis	0		J	
võlgu	võlg	u		S	pl p
     	võlgu	0		D	
jäänud	jää	nud		V	nud
      	jäänu	d		S	pl n
      	jäänud	0		A	
      	jäänud	0		A	sg n
      	jäänud	d		A	pl n
,	,			Z	
ja	ja	0		J	
se	####				
uus	uus	0		A	sg n
asemele	ase	le		S	sg all
       	asemele	0		D	
       	asemele	0		K	
ostetud	ost	tud		V	tud
       	oste=tu	d		S	pl n
       	oste=tud	0		A	
       	oste=tud	0		A	sg n
       	oste=tud	d		A	pl n
lehm	lehm	0		S	sg n
tema	tema	0		P	sg g
    	tema	0		P	sg n
kätte	kätte	0		K	
     	käsi	tte		S	adt
.	.			Z	
see	see	0		P	sg n
teine	teine	0		O	sg n
     	teine	0		P	sg n
lehm	lehm	0		S	sg n
oleva	olev	0		A	sg g
     	olev	0		S	sg g
nüüd	nüüd	0		D	
jälle	jälle	0		D	
müüdud	müü	dud		V	tud
      	müü=du	d		S	pl n
      	müü=dud	0		A	
      	müü=dud	0		A	sg n
      	müü=dud	d		A	pl n
saanud	saa	nud		V	nud
      	saa=nud	0		A	
      	saa=nud	0		A	sg n
      	saa=nud	d		A	pl n
      	saanu	d		S	pl n
12	12	0		N	?
ru	####				
25	25	0		N	?
kop	kop	0		Y	?
.	.			Z	
hõb	####				
.	.			Z	
eest	eest	0		D	
    	eest	0		K	
    	esi	st		S	sg el
.	.			Z	
mõisteti	mõist	ti		V	ti
:	:			Z	
see	see	0		P	sg n
käsu_raha	####				
pooleks	pool	ks		N	sg tr
       	pool	ks		S	sg tr
       	pooleks	0		D	
Jaagule	Jaak	le		H	sg all
       	jaak	le		S	sg all
talitamise	talita=mine	0		S	sg g
ja	ja	0		J	
kauplemise	kauplemine	0		S	sg g
vaeva	vaev	0		S	adt
     	vaev	0		S	sg g
     	vaeva	0		V	o
     	vaev	0		S	sg p
eest	eest	0		D	
    	eest	0		K	
    	esi	st		S	sg el
.	.			Z	
temassab	####				
siis	siis	0		D	
    	siis	0		J	
Jaak	Jaak	0		H	sg n
    	jaak	0		S	sg n
kaebajale	kaebaja	le		S	sg all
10	10	0		N	?
ru	####				
12	12	0		N	?
1	1	0		N	?
/	/			Z	
2	2	0		N	?
kop	kop	0		Y	?
.	.			Z	
hõb	####				
.	.			Z	
