Jaan	Jaan	0		H	sg n
    	jaan	0		S	sg n
    	jaan	0		Y	?
Roosson	####				
astus	astu	s		V	s
ette	ette	0		D	
    	ette	0		K	
    	esi	tte		S	adt
ja	ja	0		J	
kaebas	kaeba	s		V	s
,	,			Z	
et	et	0		J	
poeg	poeg	0		S	sg n
Johann	Johann	0		H	sg n
Roosson	####				
teda	tema	da		P	sg p
hirmust	hirm	st		S	sg el
mõoodu	####				
tapnud	tap	nud		V	nud
      	tap=nu	d		S	pl n
      	tap=nud	0		A	
      	tap=nud	0		A	sg n
      	tap=nud	d		A	pl n
ja	ja	0		J	
vöörmünder	vöörmünder	0		S	sg n
Hans	Hans	0		H	sg n
Kask	kask	0		S	sg n
on	ole	0		V	b
  	ole	0		V	vad
need	see	d		P	pl n
haavad	haab	d		S	pl n
      	haav	d		S	pl n
      	haava	d		V	d
ülle	ülle	0		D	
vaadanud	vaata	nud		V	nud
        	vaada=nu	d		S	pl n
        	vaada=nud	0		A	
        	vaada=nud	0		A	sg n
        	vaada=nud	d		A	pl n
.	.			Z	
Johann	Johann	0		H	sg n
Roosson	####				
ees	ees	0		D	
   	ees	0		K	
   	esi	s		S	sg in
kostis	kost	s		S	sg in
      	kost	is		V	s
küsimise	küsimine	0		S	sg g
peale	pea	le		S	sg all
     	peale	0		D	
     	peale	0		K	
,	,			Z	
et	et	0		J	
isa	isa	0		S	sg g
   	isa	0		S	sg n
   	isa	0		S	sg p
on	ole	0		V	b
  	ole	0		V	vad
teda	tema	da		P	sg p
peksnud	peks	nud		V	nud
       	peks=nu	d		S	pl n
       	peks=nud	0		A	
       	peks=nud	0		A	sg n
       	peks=nud	d		A	pl n
.	.			Z	
Vöörmünder	vöörmünder	0		S	sg n
Kask	kask	0		S	sg n
ees	ees	0		D	
   	ees	0		K	
   	esi	s		S	sg in
ja	ja	0		J	
tunnistas	tunnista	s		V	s
et	et	0		J	
isa	isa	0		S	sg g
   	isa	0		S	sg n
   	isa	0		S	sg p
pea	pea	0		D	
   	pea	0		S	sg g
   	pida	0		V	o
   	pea	0		S	sg n
on	ole	0		V	b
  	ole	0		V	vad
lõhki	lõhki	0		D	
löööödud	####				
olnud	ol=nud	0		A	
     	ol=nud	0		A	sg n
     	ol=nud	d		A	pl n
     	ole	nud		V	nud
     	olnu	d		S	pl n
.	.			Z	
Mõistus	mõistus	0		S	sg n
:	:			Z	
Johann	Johann	0		H	sg n
Roosson	####				
saab	saa	b		V	b
isa	isa	0		S	sg g
   	isa	0		S	sg n
   	isa	0		S	sg p
peksmise	peksmine	0		S	sg g
eest	eest	0		D	
    	eest	0		K	
    	esi	st		S	sg el
20	20	0		N	?
vitsa	vits	0		S	adt
     	vits	0		S	sg g
     	vits	0		S	sg p
löögi	löö	0	gi	V	o
     	löök	0		S	sg g
ja	ja	0		J	
peab	pida	b		V	b
kunni	####				
Jaani	Jaan	0		H	adt
     	Jaan	0		H	sg g
     	Jaani	0		H	sg g
     	jaan	0		S	adt
     	jaan	0		S	sg g
     	Jaan	0		H	sg p
     	Jaani	0		H	sg n
     	jaan	0		S	sg p
juurde	juur	de		S	adt
      	juurde	0		D	
      	juurde	0		K	
tagasi	tagasi	0		D	
      	tagasi	0		K	
minema	mine	ma		V	ma
.	.			Z	
peakohtumees	pea_kohtu_mees	0		S	sg n
:	:			Z	
A.Johanson	####				
kohtumees	kohtu_mees	0		S	sg n
:	:			Z	
M	M	0		O	?
 	M	0		Y	?
:	:			Z	
Käärga	####				
H.Kaski	####				
XXX	XXX	0		O	?
   	XXX	0		Y	?
