protokolli	protokoll	0		S	adt
          	protokoll	0		S	sg g
          	protokolli	0		V	o
          	protokoll	0		S	sg p
põhjusel	põhjus	l		S	sg ad
3	3	0		N	?
Novembrist	november	st		S	sg el
1883	1883	0		N	?
N198	N198	0		Y	?
astusid	astu	sid		V	sid
kohtu	kohtu	0		V	o
     	kohus	0		S	sg g
ette	ette	0		D	
    	ette	0		K	
    	esi	tte		S	adt
Jaak	Jaak	0		H	sg n
    	jaak	0		S	sg n
ja	ja	0		J	
Els	####				
Kalm	kalm	0		S	sg n
ja	ja	0		J	
andsid	and	sid		V	sid
üles	üles	0		D	
et	et	0		J	
Keiserlik	keiserlik	0		A	sg n
silla	sild	0		S	sg g
kohus	kohu	s		V	s
     	kohus	0		S	sg n
nende	see	de		P	pl g
     	tema	de		P	pl g
ära	ära	0		D	
   	ära	0		V	neg o
varastatud	varasta	tud		V	tud
          	varastatu	d		S	pl n
          	varastatud	0		A	
          	varastatud	0		A	sg n
          	varastatud	d		A	pl n
asjade	asi	de		S	pl g
hinna	hind	0		S	sg g
väärtust	väärtus	t		S	sg p
tahab	taht	b		V	b
teada	tead	a		V	da
saada	saa	da		V	da
     	saat	0		V	o
     	saa	da		V	ta
ja	ja	0		J	
andsid	and	sid		V	sid
järelseisvalt	järel_seisev	lt		A	sg abl
             	järel_seisva=lt	0		D	
seda	see	da		P	sg p
üles	üles	0		D	
:	:			Z	
5	5	0		N	?
kangast	kangas	st		S	sg el
       	kangas	t		S	sg p
298	298	0		N	?
küünart	küünar	t		S	sg p
a	a	0		Y	?
40	40	0		N	?
kop	kop	0		Y	?
119	119	0		N	?
rbla	####				
20k	20k	0		Y	?
9	9	0		N	?
meeste	meene	te		A	pl g
      	mees	te		S	pl g
särgi	särg	i		S	pl p
     	särk	0		S	sg g
a	a	0		Y	?
1	1	0		N	?
rubla	rubla	0		S	sg g
     	rubla	0		S	sg n
     	rubla	0		S	sg p
9	9	0		N	?
_	_			Z	
""""	""""			Z	
_	_			Z	
12	12	0		N	?
naiste	naine	te		S	pl g
särgi	särg	i		S	pl p
     	särk	0		S	sg g
a	a	0		Y	?
1	1	0		N	?
rubla	rubla	0		S	sg g
     	rubla	0		S	sg n
     	rubla	0		S	sg p
12	12	0		N	?
_	_			Z	
""""	""""			Z	
_	_			Z	
2	2	0		N	?
särgi	särg	i		S	pl p
     	särk	0		S	sg g
pihta	piht	0		S	adt
     	pihta	0		D	
     	pihta	0		K	
     	pihta	0		V	o
     	piht	0		S	sg p
a	a	0		Y	?
50	50	0		N	?
kop	kop	0		Y	?
1	1	0		N	?
_	_			Z	
""""	""""			Z	
_	_			Z	
3	3	0		N	?
naiste	naine	te		S	pl g
kraet	####				
1	1	0		N	?
_	_			Z	
""""	""""			Z	
_	_			Z	
4	4	0		N	?
voodi	voodi	0		S	sg g
     	voodi	0		S	sg n
lina	lina	0		S	sg g
    	lina	0		S	sg n
    	lina	0		S	sg p
a	a	0		Y	?
240	240	0		N	?
kop	kop	0		Y	?
9	9	0		N	?
_	_			Z	
60k	60k	0		Y	?
2	2	0		N	?
laud	laud	0		S	sg n
    	laug	d		S	pl n
lina	lina	0		S	sg g
    	lina	0		S	sg n
    	lina	0		S	sg p
a	a	0		Y	?
50	50	0		N	?
1	1	0		N	?
_	_			Z	
""""	""""			Z	
_	_			Z	
2	2	0		N	?
käteräti	käte_rätt	0		S	sg g
a	a	0		Y	?
40	40	0		N	?
kop	kop	0		Y	?
""""	""""			Z	
_	_			Z	
80k	80k	0		Y	?
11	11	0		N	?
naela	nael	0		S	adt
     	nael	0		S	sg g
     	nael	0		S	sg p
valget	valge	t		A	sg p
      	valge	t		S	sg p
Viljastlõnga	####				
a	a	0		Y	?
1	1	0		N	?
rubla	rubla	0		S	sg g
     	rubla	0		S	sg n
     	rubla	0		S	sg p
11	11	0		N	?
_	_			Z	
""""	""""			Z	
_	_			Z	
1	1	0		N	?
nael	nael	0		S	sg n
kahekordset	kahe_kordne	t		A	sg p
lõnga	lõng	0		S	adt
     	lõng	0		S	sg g
     	lõng	0		S	sg p
1	1	0		N	?
_	_			Z	
""""	""""			Z	
_	_			Z	
5	5	0		N	?
naela	nael	0		S	adt
     	nael	0		S	sg g
     	nael	0		S	sg p
mustõnguel	####				
a	a	0		Y	?
1	1	0		N	?
rbla	####				
5	5	0		N	?
_	_			Z	
""""	""""			Z	
_	_			Z	
5	5	0		N	?
naela	nael	0		S	adt
     	nael	0		S	sg g
     	nael	0		S	sg p
õmmluse	####				
niita	niit	a		V	da
a	a	0		Y	?
1	1	0		N	?
rbla	####				
5	5	0		N	?
_	_			Z	
""""	""""			Z	
_	_			Z	
15	15	0		N	?
naela	nael	0		S	adt
     	nael	0		S	sg g
     	nael	0		S	sg p
villu	vill	u		S	pl p
     	vilu	0		A	adt
     	vilu	0		S	adt
a	a	0		Y	?
50kop	####				
7	7	0		N	?
_	_			Z	
50	50	0		N	?
k	k	0		Y	?
1	1	0		N	?
palitu	palitu	0		S	sg g
      	palitu	0		S	sg n
8	8	0		N	?
_	_			Z	
""""	""""			Z	
_	_			Z	
1	1	0		N	?
palitu	palitu	0		S	sg g
      	palitu	0		S	sg n
täis	täi	s		S	sg in
    	täi	s		V	s
    	täis	0		A	
    	täis	0		A	sg n
    	täis	0		D	
    	täis	0		S	sg n
riiet	riie	t		S	sg p
5	5	0		N	?
_	_			Z	
""""	""""			Z	
_	_			Z	
2	2	0		N	?
musta	must	0		A	adt
     	must	0		A	sg g
     	must	0		S	adt
     	must	0		S	sg g
     	musta	0		V	o
     	must	0		A	sg p
     	must	0		S	sg p
naiste	naine	te		S	pl g
alust	alg	st		S	sg el
     	alune	t		A	sg p
     	alune	t		S	sg p
     	alus	t		S	sg p
7	7	0		N	?
_	_			Z	
20k	20k	0		Y	?
1	1	0		N	?
alune	alune	0		A	sg n
     	alune	0		S	sg n
ja	ja	0		J	
jak	####				
ühest	üks	st		N	sg el
     	üks	st		P	sg el
     	ühene	t		A	sg p
     	ühest	0		D	
riidest	riie	st		S	sg el
3	3	0		N	?
_	_			Z	
""""	""""			Z	
_	_			Z	
11	11	0		N	?
paari	paar	0		N	adt
     	paar	0		N	sg g
     	paar	0		S	adt
     	paar	0		S	sg g
     	paari	0		D	
     	paari	0		V	o
     	paar	0		N	sg p
     	paar	0		S	sg p
naiste	naine	te		S	pl g
sukke	####				
a	a	0		Y	?
60	60	0		N	?
6	6	0		N	?
_	_			Z	
60k	60k	0		Y	?
9	9	0		N	?
paari	paar	0		N	adt
     	paar	0		N	sg g
     	paar	0		S	adt
     	paar	0		S	sg g
     	paari	0		D	
     	paari	0		V	o
     	paar	0		N	sg p
     	paar	0		S	sg p
nasti	####				
sukke	####				
a	a	0		Y	?
60	60	0		N	?
5	5	0		N	?
_	_			Z	
40k	40k	0		Y	?
9	9	0		N	?
paari	paar	0		N	adt
     	paar	0		N	sg g
     	paar	0		S	adt
     	paar	0		S	sg g
     	paari	0		D	
     	paari	0		V	o
     	paar	0		N	sg p
     	paar	0		S	sg p
naiste	naine	te		S	pl g
sukke	####				
a	a	0		Y	?
60	60	0		N	?
5	5	0		N	?
_	_			Z	
40k	40k	0		Y	?
2	2	0		N	?
paari	paar	0		N	adt
     	paar	0		N	sg g
     	paar	0		S	adt
     	paar	0		S	sg g
     	paari	0		D	
     	paari	0		V	o
     	paar	0		N	sg p
     	paar	0		S	sg p
poomVilja	####				
sukke	####				
a	a	0		Y	?
50k	50k	0		Y	?
1	1	0		N	?
_	_			Z	
""""	""""			Z	
_	_			Z	
1	1	0		N	?
paar	paar	0		N	sg n
    	paar	0		S	sg n
maaniisist	####				
naiste	naine	te		S	pl g
sukke	####				
""""	""""			Z	
_	_			Z	
50k	50k	0		Y	?
8	8	0		N	?
paari	paar	0		N	adt
     	paar	0		N	sg g
     	paar	0		S	adt
     	paar	0		S	sg g
     	paari	0		D	
     	paari	0		V	o
     	paar	0		N	sg p
     	paar	0		S	sg p
sinisid	####				
luba	luba	0		S	sg n
    	luba	0		V	o
    	luba	0		S	sg p
peuga	####				
kintaid	####				
3	3	0		N	?
_	_			Z	
20k	20k	0		Y	?
2	2	0		N	?
""""	""""			Z	
mustast	must	st		A	sg el
       	must	st		S	sg el
lõngast	lõng	st		S	sg el
a	a	0		Y	?
25	25	0		N	?
""""	""""			Z	
_	_			Z	
50k	50k	0		Y	?
7	7	0		N	?
""""	""""			Z	
mitme	mitu	0		P	sg g
kirjalesi	####				
sõrm	sõrm	0		S	sg n
kindaid	kinnas	id		S	pl p
a	a	0		Y	?
25	25	0		N	?
1	1	0		N	?
_	_			Z	
75k	75k	0		Y	?
27	27	0		N	?
oma	oma	0		A	sg g
   	oma	0		D	
   	oma	0		P	sg g
   	oma	0		S	sg g
   	oma	0		V	o
   	oma	0		A	sg n
   	oma	0		A	sg p
   	oma	0		P	sg n
   	oma	0		P	sg p
   	oma	0		S	sg n
   	oma	0		S	sg p
riidest	riie	st		S	sg el
päeräti	####				
a	a	0		Y	?
30	30	0		N	?
18	18	0		N	?
_	_			Z	
90k	90k	0		Y	?
7	7	0		N	?
""""	""""			Z	
naiste	naine	te		S	pl g
vöö	vöö	0		S	sg g
   	vöö	0		S	sg n
a	a	0		Y	?
50	50	0		N	?
3	3	0		N	?
_	_			Z	
50k	50k	0		Y	?
12	12	0		N	?
ma	mina	0		P	sg n
riidest	riie	st		S	sg el
päeräti	####				
a	a	0		Y	?
30	30	0		N	?
3	3	0		N	?
_	_			Z	
60k	60k	0		Y	?
4	4	0		N	?
päle	####				
sestsamast	see_sama	st		P	sg el
riidest	riie	st		S	sg el
a	a	0		Y	?
40	40	0		N	?
1	1	0		N	?
_	_			Z	
60k	60k	0		Y	?
14	14	0		N	?
linna	linn	0		S	adt
     	linn	0		S	sg g
     	linn	0		S	sg p
riidest	riie	st		S	sg el
valget	valge	t		A	sg p
      	valge	t		S	sg p
päeräti	####				
a	a	0		Y	?
80	80	0		N	?
kop	kop	0		Y	?
11	11	0		N	?
_	_			Z	
20k	20k	0		Y	?
6	6	0		N	?
lamma	####				
nahka	nahk	0		S	adt
     	nahk	0		S	sg p
     	nahka	0		D	
1	1	0		N	?
rbla	####				
6	6	0		N	?
_	_			Z	
""""	""""			Z	
_	_			Z	
1	1	0		N	?
kirju	kirju	0		A	sg g
     	kirju	0		A	sg n
     	kiri	u		S	pl p
linna	linn	0		S	adt
     	linn	0		S	sg g
     	linn	0		S	sg p
kaela	kael	0		S	adt
     	kael	0		S	sg g
     	kaela	0		K	
     	kael	0		S	sg p
sal	####				
""""	""""			Z	
_	_			Z	
70k	70k	0		Y	?
2	2	0		N	?
lamma	####				
täid	täi	d		S	pl n
    	täi	d		V	d
    	täi	d		S	sg p
liha	liha	0		S	sg g
    	liha	0		S	sg n
    	liha	0		S	sg p
a	a	0		Y	?
1	1	0		N	?
rbla	####				
2	2	0		N	?
_	_			Z	
""""	""""			Z	
_	_			Z	
1	1	0		N	?
vakk	vakk	0		S	sg n
otra	oder	0		S	adt
    	oder	0		S	sg p
2	2	0		N	?
_	_			Z	
50k	50k	0		Y	?
1	1	0		N	?
villane	villane	0		A	sg n
naiste	naine	te		S	pl g
tanud	tanu	d		S	pl n
""""	""""			Z	
_	_			Z	
70k	70k	0		Y	?
3	3	0		N	?
linna	linn	0		S	adt
     	linn	0		S	sg g
     	linn	0		S	sg p
pitsi	pits	0		S	adt
     	pits	0		S	sg g
     	pits	0		S	sg p
""""	""""			Z	
_	_			Z	
50K	50K	0		Y	?
6	6	0		N	?
korra	kord	0		S	sg g
hõbe	hõbe	0		S	sg n
kaela	kael	0		S	adt
     	kael	0		S	sg g
     	kaela	0		K	
     	kael	0		S	sg p
koti	kott	0		S	sg g
    	kotti	0		V	o
ja	ja	0		J	
muud	muu	d		P	pl n
    	muu	d		S	pl n
    	muu	d		V	d
    	muu	d		P	sg p
    	muu	d		S	sg p
puudakraami	puuda_kraam	0		S	adt
           	puuda_kraam	0		S	sg g
           	puuda_kraam	0		S	sg p
6	6	0		N	?
_	_			Z	
""""	""""			Z	
_	_			Z	
ühtekokku	ühte_kokku	0		D	
278	278	0		N	?
_	_			Z	
85k	85k	0		Y	?
kirjutaja	kirjutaja	0		S	sg g
         	kirjutaja	0		S	sg n
:	:			Z	
[	[			Z	
allkiri	all_kiri	0		S	sg n
]	]			Z	
