Kristjan	Kristjan	0		H	sg n
Ott	Ott	0		H	sg n
   	ott	0		S	sg n
kaebas	kaeba	s		V	s
,	,			Z	
et	et	0		J	
tema	tema	0		P	sg g
    	tema	0		P	sg n
võõras	võõras	0		A	sg n
      	võõras	0		S	sg n
      	võõras	s		A	sg in
      	võõras	s		S	sg in
ema	ema	0		S	sg g
   	ema	0		S	sg n
   	ema	0		S	sg p
Mari	Mari	0		H	sg g
    	mari	0		S	sg g
    	mari	0		S	sg n
    	Mari	0		H	sg n
    	mari	0		S	sg p
tema	tema	0		P	sg g
    	tema	0		P	sg n
õde	õde	0		S	sg n
   	õde	0		S	sg p
vargaks	varas	ks		S	sg tr
sõimanud	sõima	nud		V	nud
        	sõima=nu	d		S	pl n
        	sõima=nud	0		A	
        	sõima=nud	0		A	sg n
        	sõima=nud	d		A	pl n
ja	ja	0		J	
ühte	ühte	0		D	
    	üks	0		N	adt
    	üks	0		P	adt
    	ühe	0		S	sg g
    	üks	0		N	sg p
    	üks	0		P	sg p
lugu	lugu	0		S	sg n
    	lugu	0		S	sg p
nendega	see	dega		P	pl kom
       	tema	dega		P	pl kom
kaklema	kakle	ma		V	ma
,	,			Z	
riidlema	riidle	ma		V	ma
ja	ja	0		J	
pahandama	pahanda	ma		V	ma
,	,			Z	
palus	palu	s		S	sg in
     	palu	s		V	s
et	et	0		J	
kohus	kohu	s		V	s
     	kohus	0		S	sg n
seda	see	da		P	sg p
asja	asi	0		S	adt
    	asi	0		S	sg g
    	asi	0		S	sg p
saaks	saa	ks		V	ks
üle	üle	0		D	
   	üle	0		K	
kuulama	kuula	ma		V	ma
.	.			Z	
Ott	Ott	0		H	sg n
   	ott	0		S	sg n
ja	ja	0		J	
ühes	üks	s		N	sg in
    	üks	s		P	sg in
    	ühes	0		D	
    	ühes	0		K	
mehega	mees	ga		S	sg kom
Jaan	Jaan	0		H	sg n
    	jaan	0		S	sg n
    	jaan	0		Y	?
Ott	Ott	0		H	sg n
   	ott	0		S	sg n
ütles	ütle	s		V	s
et	et	0		J	
tema	tema	0		P	sg g
    	tema	0		P	sg n
ei	ei	0		D	
  	ei	0		V	neg
ole	ole	0		V	o
kedagi	keegi	dagi		P	sg p
vargaks	varas	ks		S	sg tr
sõimanud	sõima	nud		V	nud
        	sõima=nu	d		S	pl n
        	sõima=nud	0		A	
        	sõima=nud	0		A	sg n
        	sõima=nud	d		A	pl n
ja	ja	0		J	
tema	tema	0		P	sg g
    	tema	0		P	sg n
ei	ei	0		D	
  	ei	0		V	neg
tegema	tege	ma		V	ma
mingisugust	mingi_sugune	t		P	sg p
paha	pahk	0		S	sg g
    	paha	0		A	sg g
    	paha	0		A	sg n
    	paha	0		A	sg p
    	paha	0		S	sg g
    	paha	0		S	sg n
    	paha	0		S	sg p
ega	ega	0		D	
   	ega	0		J	
halva	halb	0		A	sg g
     	halva	0		V	o
.	.			Z	
Jaan	Jaan	0		H	sg n
    	jaan	0		S	sg n
    	jaan	0		Y	?
Ott	Ott	0		H	sg n
   	ott	0		S	sg n
seletas	seleta	s		V	s
,	,			Z	
tema	tema	0		P	sg g
    	tema	0		P	sg n
tahab	taht	b		V	b
rääki	####				
kuidas	kuidas	0		D	
se	####				
asi	asi	0		S	sg n
   	asi	0		V	o
oli	ole	i		V	s
:	:			Z	
naine	naine	0		S	sg n
ütelnud	ütle	nud		V	nud
       	ütel=nu	d		S	pl n
       	ütel=nud	0		A	
       	ütel=nud	0		A	sg n
       	ütel=nud	d		A	pl n
Annale	Anna	le		H	sg all
      	anna	le		S	sg all
sina	sina	0		P	sg n
    	sina	0		S	sg g
    	sina	0		V	o
    	sina	0		S	sg n
    	sina	0		S	sg p
võtad	võt	d		V	d
oma	oma	0		A	sg g
   	oma	0		D	
   	oma	0		P	sg g
   	oma	0		S	sg g
   	oma	0		V	o
   	oma	0		A	sg n
   	oma	0		A	sg p
   	oma	0		P	sg n
   	oma	0		P	sg p
   	oma	0		S	sg n
   	oma	0		S	sg p
särgi	särg	i		S	pl p
     	särk	0		S	sg g
jätkul	jätk	l		S	sg ad
ära	ära	0		D	
   	ära	0		V	neg o
ja	ja	0		J	
teed	tee	d		S	pl n
    	tege	d		V	d
    	tee	d		S	sg p
omale	oma	le		A	sg all
     	oma	le		P	sg all
     	oma	le		S	sg all
poled	####				
,	,			Z	
se	####				
peale	pea	le		S	sg all
     	peale	0		D	
     	peale	0		K	
on	ole	0		V	b
  	ole	0		V	vad
ta	tema	0		P	sg g
  	tema	0		P	sg n
kuulanud	kuula	nud		V	nud
        	kuula=nu	d		S	pl n
        	kuula=nud	0		A	
        	kuula=nud	0		A	sg n
        	kuula=nud	d		A	pl n
et	et	0		J	
,	,			Z	
ära	ära	0		D	
   	ära	0		V	neg o
mind	mina	d		P	sg p
lappi	lapp	0		S	adt
     	lapp	0		S	sg p
vargaks	varas	ks		S	sg tr
sõima	sõima	0		V	o
.	.			Z	
kõik	kõik	0		P	pl n
    	kõik	0		S	sg n
    	kõik	0		P	sg n
said	saa	id		V	sid
noomitud	noomi	tud		V	tud
        	noomi=tu	d		S	pl n
        	noomi=tud	0		A	
        	noomi=tud	0		A	sg n
        	noomi=tud	d		A	pl n
et	et	0		J	
kodus	kodu	s		S	sg in
ilma	ilm	0		S	adt
    	ilm	0		S	sg g
    	ilma	0		D	
    	ilma	0		K	
    	ilm	0		S	sg p
riidlemiseta	riidlemine	ta		S	sg ab
ise	ise	0		A	
   	ise	0		D	
   	ise	0		P	pl n
   	ise	0		P	sg n
püüavad	püüd	vad		V	vad
ilusti	ilusti	0		D	
läbi	läbi	0		D	
    	läbi	0		K	
    	läbi	0		V	o
saada	saa	da		V	da
     	saat	0		V	o
     	saa	da		V	ta
.	.			Z	
Peakohtumehe	pea_kohtu_mees	0		S	sg g
abi	abi	0		S	sg g
   	abi	0		S	sg n
   	abi	0		S	sg p
Jüri	Jüri	0		H	sg g
    	Jüri	0		H	sg n
kas	kas	0		D	
[	[			Z	
allkiri	all_kiri	0		S	sg n
]	]			Z	
kohtumees	kohtu_mees	0		S	sg n
Jüri	Jüri	0		H	sg g
    	Jüri	0		H	sg n
Jürison	####				
[	[			Z	
allkiri	all_kiri	0		S	sg n
]	]			Z	
_	_			Z	
""""	""""			Z	
_	_			Z	
M	M	0		O	?
 	M	0		Y	?
.	.			Z	
_	_			Z	
länder	####				
[	[			Z	
allkiri	all_kiri	0		S	sg n
]	]			Z	
