kaebas	kaeba	s		V	s
Jüri	Jüri	0		H	sg g
    	Jüri	0		H	sg n
Milter	####				
et	et	0		J	
tema	tema	0		P	sg g
    	tema	0		P	sg n
oli	ole	i		V	s
Mardi	Mart	0		H	sg g
     	mart	0		S	sg g
päeval	päev	l		S	sg ad
Nigul	####				
Nigulasi	####				
käest	käest	0		K	
     	käsi	st		S	sg el
hobust	hobu	st		S	sg el
      	hobune	t		S	sg p
võtnu	võt=nu	0		S	sg g
     	võt=nu	0		S	sg n
ni	####				
kaua	kaua	0		D	
kui	kui	0		D	
   	kui	0		J	
Jaani	Jaan	0		H	adt
     	Jaan	0		H	sg g
     	Jaani	0		H	sg g
     	jaan	0		S	adt
     	jaan	0		S	sg g
     	Jaan	0		H	sg p
     	Jaani	0		H	sg n
     	jaan	0		S	sg p
päevani	päev	ni		S	sg ter
teda	tema	da		P	sg p
sööta	sööt	0		S	adt
     	sööt	a		V	da
     	sööt	0		S	sg p
ja	ja	0		J	
pruugita	pruuk	ta		S	sg ab
        	pruuki	ta		V	ta
,	,			Z	
nüüd	nüüd	0		D	
oli	ole	i		V	s
Nigul	####				
salajalt	####				
seda	see	da		P	sg p
hobust	hobu	st		S	sg el
      	hobune	t		S	sg p
ära	ära	0		D	
   	ära	0		V	neg o
viinud	vii	nud		V	nud
      	vii=nu	d		S	pl n
      	vii=nud	0		A	
      	vii=nud	0		A	sg n
      	vii=nud	d		A	pl n
ning	ning	0		J	
ei	ei	0		D	
  	ei	0		V	neg
taha	taht	0		V	o
    	taha	0		D	
    	taha	0		K	
ennamb	####				
tagasi	tagasi	0		D	
      	tagasi	0		K	
anda	and	a		V	da
ja	ja	0		J	
ära	ära	0		D	
   	ära	0		V	neg o
müüja	müüja	0		S	sg g
     	müüja	0		S	sg n
.	.			Z	
tunnistab	tunnista	b		V	b
kohtumees	kohtu_mees	0		S	sg n
Andres	Andre	s		H	sg in
      	Andres	0		H	sg n
Reinert	####				
et	et	0		J	
Nigul	####				
on	ole	0		V	b
  	ole	0		V	vad
tahtnu	taht=nu	0		S	sg g
      	taht=nu	0		S	sg n
seda	see	da		P	sg p
hobust	hobu	st		S	sg el
      	hobune	t		S	sg p
6	6	0		N	?
ru	####				
hõb	####				
.	.			Z	
ees	ees	0		D	
   	ees	0		K	
   	esi	s		S	sg in
ära	ära	0		D	
   	ära	0		V	neg o
anda	and	a		V	da
,	,			Z	
seda	see	da		P	sg p
raha	raha	0		S	sg g
    	raha	0		S	sg n
    	raha	0		S	sg p
lubab	luba	b		V	b
kaebaja	kaebaja	0		S	sg g
       	kaebaja	0		S	sg n
ka	ka	0		D	
anda	and	a		V	da
;	;			Z	
on	ole	0		V	b
  	ole	0		V	vad
ära	ära	0		D	
   	ära	0		V	neg o
leppinud	leppi	nud		V	nud
        	leppi=nu	d		S	pl n
        	leppi=nud	0		A	
        	leppi=nud	0		A	sg n
        	leppi=nud	d		A	pl n
ning	ning	0		J	
on	ole	0		V	b
  	ole	0		V	vad
Jüri	Jüri	0		H	sg g
    	Jüri	0		H	sg n
Milter	####				
3	3	0		N	?
ru	####				
6	6	0		N	?
kop	kop	0		Y	?
.	.			Z	
hobuse	hobune	0		S	sg g
ees	ees	0		D	
   	ees	0		K	
   	esi	s		S	sg in
kätte	kätte	0		K	
     	käsi	tte		S	adt
maksnu	maks=nu	0		S	sg g
      	maks=nu	0		S	sg n
ja	ja	0		J	
2	2	0		N	?
ru	####				
49	49	0		N	?
kop	kop	0		Y	?
.	.			Z	
maksab	maks	b		V	b
Jüri	Jüri	0		H	sg g
    	Jüri	0		H	sg n
Milter	####				
sügise	sügis	0		S	sg g
mõisa	mõis	0		S	sg g
Nigula	Nigula	0		H	sg g
      	Nigula	0		H	sg n
päe	####				
raha	raha	0		S	sg g
    	raha	0		S	sg n
    	raha	0		S	sg p
võlga	võlg	0		S	adt
     	võlg	0		S	sg p
.	.			Z	
