II	II	0		O	?
  	II	0		Y	?
  	jj	0		Y	?
see	see	0		P	sg n
peremees	pere_mees	0		S	sg n
Ado	Ado	0		H	sg g
   	Ado	0		H	sg n
Peets	####				
,	,			Z	
massab	####				
selle	see	0		P	sg g
     	sell	e		S	pl p
kohtu	kohtu	0		V	o
     	kohus	0		S	sg g
mõistmise	mõistmine	0		S	sg g
perra	####				
oma	oma	0		A	sg g
   	oma	0		D	
   	oma	0		P	sg g
   	oma	0		S	sg g
   	oma	0		V	o
   	oma	0		A	sg n
   	oma	0		A	sg p
   	oma	0		P	sg n
   	oma	0		P	sg p
   	oma	0		S	sg n
   	oma	0		S	sg p
issale	####				
1	1	0		N	?
1	1	0		N	?
/	/			Z	
3	3	0		N	?
vakka	vakk	0		S	adt
     	vakk	0		S	sg p
     	vakka	0		D	
rugi	####				
,	,			Z	
ning	ning	0		J	
et	et	0		J	
tema	tema	0		P	sg g
    	tema	0		P	sg n
anda	and	a		V	da
isa	isa	0		S	sg g
   	isa	0		S	sg n
   	isa	0		S	sg p
on	ole	0		V	b
  	ole	0		V	vad
tõuganud	tõuka	nud		V	nud
        	tõuga=nu	d		S	pl n
        	tõuga=nud	0		A	
        	tõuga=nud	0		A	sg n
        	tõuga=nud	d		A	pl n
saab	saa	b		V	b
tema	tema	0		P	sg g
    	tema	0		P	sg n
15	15	0		N	?
keppi	kepp	0		S	adt
     	kepp	0		S	sg p
voori	voor	0		S	adt
     	voor	0		S	sg g
     	voor	i		S	pl p
     	voori	0		V	o
     	voor	0		S	sg p
.	.			Z	
_	_			Z	
