peale	pea	le		S	sg all
     	peale	0		D	
     	peale	0		K	
seda	see	da		P	sg p
kui	kui	0		D	
   	kui	0		J	
siit	siit	0		D	
kohus	kohu	s		V	s
     	kohus	0		S	sg n
oma	oma	0		A	sg g
   	oma	0		D	
   	oma	0		P	sg g
   	oma	0		S	sg g
   	oma	0		V	o
   	oma	0		A	sg n
   	oma	0		A	sg p
   	oma	0		P	sg n
   	oma	0		P	sg p
   	oma	0		S	sg n
   	oma	0		S	sg p
otsust	otsus	t		S	sg p
tänasest	tänane	st		A	sg el
päevast	päev	st		S	sg el
       	päevane	t		A	sg p
No	no	0		I	
65	65	0		N	?
kohtu	kohtu	0		V	o
     	kohus	0		S	sg g
käiatele	####				
kuulatas	kuulata	s		V	s
,	,			Z	
ütles	ütle	s		V	s
Johann	Johann	0		H	sg n
Ries	####				
sele	####				
vastu	vastu	0		D	
     	vastu	0		K	
,	,			Z	
et	et	0		J	
tema	tema	0		P	sg g
    	tema	0		P	sg n
seda	see	da		P	sg p
otsust	otsus	t		S	sg p
mitte	mitte	0		D	
ei	ei	0		D	
  	ei	0		V	neg
täida	täi	da		V	da
     	täit	0		V	o
ega	ega	0		D	
   	ega	0		J	
seda	see	da		P	sg p
temale	tema	le		P	sg all
peale	pea	le		S	sg all
     	peale	0		D	
     	peale	0		K	
pandud	pan=du	d		S	pl n
      	pan=dud	0		A	
      	pan=dud	0		A	sg n
      	pan=dud	d		A	pl n
      	pane	dud		V	tud
2	2	0		N	?
R	R	0		Y	?
ei	ei	0		D	
  	ei	0		V	neg
maksa	maks	0		S	adt
     	maks	0		S	sg g
     	maks	0		V	o
     	maks	0		S	sg p
.	.			Z	
mõistetud	mõist	tud		V	tud
         	mõiste=tu	d		S	pl n
         	mõiste=tud	0		A	
         	mõiste=tud	0		A	sg n
         	mõiste=tud	d		A	pl n
:	:			Z	
Johan	Johan	0		H	sg n
Riisi	riis	0		S	adt
     	riis	0		S	sg g
     	riis	0		S	sg p
sele	####				
kohtu	kohtu	0		V	o
     	kohus	0		S	sg g
vastu	vastu	0		D	
     	vastu	0		K	
ropuse	####				
eest	eest	0		D	
    	eest	0		K	
    	esi	st		S	sg el
24	24	0		N	?
tunni	tund	0		S	sg g
peale	pea	le		S	sg all
     	peale	0		D	
     	peale	0		K	
vangi	vang	0		S	adt
     	vang	0		S	sg g
     	vang	0		S	sg p
panna	pand	0		S	sg g
     	pane	a		V	da
     	panna	0		S	sg g
     	panna	0		S	sg n
.	.			Z	
kui	kui	0		D	
   	kui	0		J	
kohus	kohu	s		V	s
     	kohus	0		S	sg n
oma	oma	0		A	sg g
   	oma	0		D	
   	oma	0		P	sg g
   	oma	0		S	sg g
   	oma	0		V	o
   	oma	0		A	sg n
   	oma	0		A	sg p
   	oma	0		P	sg n
   	oma	0		P	sg p
   	oma	0		S	sg n
   	oma	0		S	sg p
otsust	otsus	t		S	sg p
Johann	Johann	0		H	sg n
Riisile	riis	le		S	sg all
kuulatas	kuulata	s		V	s
,	,			Z	
palus	palu	s		S	sg in
     	palu	s		V	s
seesama	see_sama	0		P	sg n
seda	see	da		P	sg p
vangi	vang	0		S	adt
     	vang	0		S	sg g
     	vang	0		S	sg p
trahvi	trahv	0		S	adt
      	trahv	0		S	sg g
      	trahvi	0		V	o
      	trahv	0		S	sg p
rahaga	raha	ga		S	sg kom
äramaksta	####				
,	,			Z	
mis	mis	0		P	pl n
   	mis	0		P	sg n
temale	tema	le		P	sg all
ka	ka	0		D	
järele	järele	0		D	
      	järele	0		K	
antud	an=tu	d		S	pl n
     	and	tud		V	tud
     	antud	0		A	
     	antud	0		A	sg n
     	antud	d		A	pl n
sai	saa	i		V	s
   	sai	0		S	sg n
ja	ja	0		J	
2	2	0		N	?
R	R	0		Y	?
vaeste	vaene	te		A	pl g
      	vaene	te		S	pl g
laeka	laegas	0		S	adt
     	laegas	0		S	sg g
heaks	hea	ks		A	sg tr
     	hea	ks		S	sg tr
     	heaks	0		D	
     	heaks	0		K	
väljamaksis	####				
.	.			Z	
