Andres	Andre	s		H	sg in
      	Andres	0		H	sg n
Pertma	####				
kaebduses	####				
Ado	Ado	0		H	sg g
   	Ado	0		H	sg n
Varese	vares	0		S	sg g
vastu	vastu	0		D	
     	vastu	0		K	
koera	koer	0		A	adt
     	koer	0		A	sg g
     	koer	0		S	adt
     	koer	0		S	sg g
     	koer	0		A	sg p
     	koer	0		S	sg p
tapmisse	tapmine	se		S	adt
eest	eest	0		D	
    	eest	0		K	
    	esi	st		S	sg el
nõudmise	nõudmine	0		S	sg g
pärast	pära	st		S	sg el
      	pärane	t		A	sg p
      	pärast	0		D	
      	pärast	0		K	
andis	and	is		V	s
tänasel	tänane	l		A	sg ad
päeval	päev	l		S	sg ad
Jaan	Jaan	0		H	sg n
    	jaan	0		S	sg n
    	jaan	0		Y	?
Kukk	kukk	0		S	sg n
tunnistust	tunnistus	t		S	sg p
,	,			Z	
et	et	0		J	
tema	tema	0		P	sg g
    	tema	0		P	sg n
seda	see	da		P	sg p
just	just	0		D	
    	just	0		I	
kuulnud	kuul	nud		V	nud
       	kuul=nud	0		A	
       	kuul=nud	0		A	sg n
       	kuul=nud	d		A	pl n
       	kuulnu	d		S	pl n
ei	ei	0		D	
  	ei	0		V	neg
hoole	hoog	le		S	sg all
     	hool	0		S	sg g
     	hoole	0		S	sg n
,	,			Z	
et	et	0		J	
Ado	Ado	0		H	sg g
   	Ado	0		H	sg n
Vares	vare	s		S	sg in
     	vares	0		S	sg n
koera	koer	0		A	adt
     	koer	0		A	sg g
     	koer	0		S	adt
     	koer	0		S	sg g
     	koer	0		A	sg p
     	koer	0		S	sg p
ähvartanud	####				
hooleks	hool	ks		S	sg tr
ära	ära	0		D	
   	ära	0		V	neg o
tappa	tap	a		V	da
     	tapp	0		S	adt
     	tapp	0		S	sg p
ehk	ehk	0		D	
   	ehk	0		J	
ka	ka	0		D	
tapnud	tap	nud		V	nud
      	tap=nu	d		S	pl n
      	tap=nud	0		A	
      	tap=nud	0		A	sg n
      	tap=nud	d		A	pl n
hooleks	hool	ks		S	sg tr
,	,			Z	
aga	aga	0		J	
seda	see	da		P	sg p
ta	tema	0		P	sg g
  	tema	0		P	sg n
teadvat	tead	vat		V	vat
       	teadev	t		A	sg p
et	et	0		J	
Ado	Ado	0		H	sg g
   	Ado	0		H	sg n
Vares	vare	s		S	sg in
     	vares	0		S	sg n
on	ole	0		V	b
  	ole	0		V	vad
püüdnud	püüd	nud		V	nud
       	püüd=nu	d		S	pl n
       	püüd=nud	0		A	
       	püüd=nud	0		A	sg n
       	püüd=nud	d		A	pl n
seda	see	da		P	sg p
koera	koer	0		A	adt
     	koer	0		A	sg g
     	koer	0		S	adt
     	koer	0		S	sg g
     	koer	0		A	sg p
     	koer	0		S	sg p
tappa	tap	a		V	da
     	tapp	0		S	adt
     	tapp	0		S	sg p
.	.			Z	
Mõisteti	mõist	ti		V	ti
:	:			Z	
tunnistaja	tunnistaja	0		S	sg g
          	tunnistaja	0		S	sg n
ütelust	üte_lust	0		S	sg n
protokoli	####				
võtta	võt	a		V	da
.	.			Z	
peakohtumees	pea_kohtu_mees	0		S	sg n
JLuik	####				
[	[			Z	
allkiri	all_kiri	0		S	sg n
]	]			Z	
kohtumeest	kohtu_mees	t		S	sg p
JAndresson	####				
[	[			Z	
allkiri	all_kiri	0		S	sg n
]	]			Z	
