kaebas	kaeba	s		V	s
Leo	Leo	0		H	sg g
   	ligu	0		S	sg g
   	ligu	0		V	o
   	Leo	0		H	sg n
Jaanus	Jaanus	0		H	sg n
sulane	sulane	0		S	sg n
      	sulane	0		V	o
Jacob	Jacob	0		H	sg n
et	et	0		J	
tema	tema	0		P	sg g
    	tema	0		P	sg n
tahab	taht	b		V	b
oma	oma	0		A	sg g
   	oma	0		D	
   	oma	0		P	sg g
   	oma	0		S	sg g
   	oma	0		V	o
   	oma	0		A	sg n
   	oma	0		A	sg p
   	oma	0		P	sg n
   	oma	0		P	sg p
   	oma	0		S	sg n
   	oma	0		S	sg p
isa	isa	0		S	sg g
   	isa	0		S	sg n
   	isa	0		S	sg p
talu	talu	0		S	sg g
    	talu	0		V	o
    	talu	0		S	sg n
    	talu	0		S	sg p
kette	kett	e		S	pl p
saada	saa	da		V	da
     	saat	0		V	o
     	saa	da		V	ta
kus	kus	0		D	
see	see	0		P	sg n
Jaanus	Jaanus	0		H	sg n
23	23	0		N	?
aastat	aasta	t		S	sg p
peremees	pere_mees	0		S	sg n
olnud	ol=nud	0		A	
     	ol=nud	0		A	sg n
     	ol=nud	d		A	pl n
     	ole	nud		V	nud
     	olnu	d		S	pl n
.	.			Z	
Kohus	kohu	s		V	s
     	kohus	0		S	sg n
mõistis	mõist	is		V	s
et	et	0		J	
tema	tema	0		P	sg g
    	tema	0		P	sg n
ei	ei	0		D	
  	ei	0		V	neg
või	või	0		S	sg g
   	või	0		V	o
   	või	0		D	
   	või	0		J	
   	või	0		S	sg n
see	see	0		P	sg n
talu	talu	0		S	sg g
    	talu	0		V	o
    	talu	0		S	sg n
    	talu	0		S	sg p
tema	tema	0		P	sg g
    	tema	0		P	sg n
ennamb	####				
kätte	kätte	0		K	
     	käsi	tte		S	adt
saada	saa	da		V	da
     	saat	0		V	o
     	saa	da		V	ta
selle	see	0		P	sg g
     	sell	e		S	pl p
pärast	pära	st		S	sg el
      	pärane	t		A	sg p
      	pärast	0		D	
      	pärast	0		K	
et	et	0		J	
tema	tema	0		P	sg g
    	tema	0		P	sg n
on	ole	0		V	b
  	ole	0		V	vad
oma	oma	0		A	sg g
   	oma	0		D	
   	oma	0		P	sg g
   	oma	0		S	sg g
   	oma	0		V	o
   	oma	0		A	sg n
   	oma	0		A	sg p
   	oma	0		P	sg n
   	oma	0		P	sg p
   	oma	0		S	sg n
   	oma	0		S	sg p
Essa	####				
järelju	####				
Varandusest	varandus	st		S	sg el
oma	oma	0		A	sg g
   	oma	0		D	
   	oma	0		P	sg g
   	oma	0		S	sg g
   	oma	0		V	o
   	oma	0		A	sg n
   	oma	0		A	sg p
   	oma	0		P	sg n
   	oma	0		P	sg p
   	oma	0		S	sg n
   	oma	0		S	sg p
jagu	jagu	0		S	sg n
    	jagu	0		V	o
    	jagu	0		S	sg p
juba	juba	0		D	
saanud	saa	nud		V	nud
      	saa=nud	0		A	
      	saa=nud	0		A	sg n
      	saa=nud	d		A	pl n
      	saanu	d		S	pl n
;	;			Z	
ja	ja	0		J	
nüüd	nüüd	0		D	
ei	ei	0		D	
  	ei	0		V	neg
ole	ole	0		V	o
sa	sina	0		P	sg n
ennamb	####				
päris	päri	s		V	s
     	päris	0		A	
     	päris	0		D	
aeg	aeg	0		S	sg n
kus	kus	0		D	
üks	üks	0		N	sg n
   	üks	0		P	sg n
poig	####				
võib	või	b		V	b
oma	oma	0		A	sg g
   	oma	0		D	
   	oma	0		P	sg g
   	oma	0		S	sg g
   	oma	0		V	o
   	oma	0		A	sg n
   	oma	0		A	sg p
   	oma	0		P	sg n
   	oma	0		P	sg p
   	oma	0		S	sg n
   	oma	0		S	sg p
Essa	####				
talu	talu	0		S	sg g
    	talu	0		V	o
    	talu	0		S	sg n
    	talu	0		S	sg p
nõuda	nõud	a		V	da
.	.			Z	
