sel	see	l		P	sg ad
   	sel	0		Y	?
23	23	0		N	?
Jüri	Jüri	0		H	sg g
    	Jüri	0		H	sg n
kuus	kuu	s		S	sg in
    	kuus	0		N	sg n
1860.	1860.	0		O	?
Paekohtumees	pae_kohtu_mees	0		S	sg n
Jaak	Jaak	0		H	sg n
    	jaak	0		S	sg n
Tamm	tamm	0		S	sg n
kohtumees	kohtu_mees	0		S	sg n
Hans	Hans	0		H	sg n
Siv	####				
Jüri	Jüri	0		H	sg g
    	Jüri	0		H	sg n
Noor	noor	0		A	sg n
    	noor	0		S	sg n
selle	see	0		P	sg g
     	sell	e		S	pl p
keiserliku	keiserlik	0		A	sg g
kroonu	kroonu	0		S	sg g
      	kroonu	0		S	sg n
Pernau	####				
kohtu	kohtu	0		V	o
     	kohus	0		S	sg g
käsu	käsk	0		S	sg g
järel	järel	0		D	
     	järel	0		K	
sai	saa	i		V	s
   	sai	0		S	sg n
selle	see	0		P	sg g
     	sell	e		S	pl p
Hans	Hans	0		H	sg n
Rummel	####				
se	####				
Silla	sild	0		S	sg g
talu	talu	0		S	sg g
    	talu	0		V	o
    	talu	0		S	sg n
    	talu	0		S	sg p
koht	koht	0		S	sg n
Jüripäeval	jüri_päev	l		S	sg ad
ära_voetud	####				
ja	ja	0		J	
selle	see	0		P	sg g
     	sell	e		S	pl p
Johann	Johann	0		H	sg n
Alle	####				
kätte	kätte	0		K	
     	käsi	tte		S	adt
antud	an=tu	d		S	pl n
     	and	tud		V	tud
     	antud	0		A	
     	antud	0		A	sg n
     	antud	d		A	pl n
ja	ja	0		J	
nõnda	nõnda	0		D	
viisil	viis	l		S	sg ad
      	viisil	0		K	
et	et	0		J	
tema	tema	0		P	sg g
    	tema	0		P	sg n
1.	1.	0		O	?
maksab	maks	b		V	b
kevadise	kevadine	0		A	sg g
renti	rent	0		S	adt
     	rent	0		S	sg p
raha	raha	0		S	sg g
    	raha	0		S	sg n
    	raha	0		S	sg p
ära	ära	0		D	
   	ära	0		V	neg o
.	.			Z	
2.	2.	0		O	?
parandab	paranda	b		V	b
ja	ja	0		J	
ehitap	####				
need	see	d		P	pl n
vaest	vaag	st		S	sg el
     	vaene	t		A	sg p
     	vaene	t		S	sg p
talu	talu	0		S	sg g
    	talu	0		V	o
    	talu	0		S	sg n
    	talu	0		S	sg p
onet	####				
oma	oma	0		A	sg g
   	oma	0		D	
   	oma	0		P	sg g
   	oma	0		S	sg g
   	oma	0		V	o
   	oma	0		A	sg n
   	oma	0		A	sg p
   	oma	0		P	sg n
   	oma	0		P	sg p
   	oma	0		S	sg n
   	oma	0		S	sg p
kulu	kulg	0		S	sg g
    	kulu	0		S	sg g
    	kulu	0		V	o
    	kulu	0		S	sg n
    	kulu	0		S	sg p
ka	ka	0		D	
üles	üles	0		D	
ja	ja	0		J	
rammutap	####				
ja	ja	0		J	
pari	pari	0		S	sg g
    	pari	0		S	sg n
    	pari	0		S	sg p
need	see	d		P	pl n
lahja	lahja	0		A	sg g
     	lahja	0		A	sg n
põllud	põld	d		S	pl n
eade	####				
.	.			Z	
3.	3.	0		O	?
need	see	d		P	pl n
vanad	vana	d		A	pl n
     	vana	d		S	pl n
endised	endine	d		A	pl n
peremehed	pere_mees	d		S	pl n
Jüri	Jüri	0		H	sg g
    	Jüri	0		H	sg n
Jürison	####				
oma	oma	0		A	sg g
   	oma	0		D	
   	oma	0		P	sg g
   	oma	0		S	sg g
   	oma	0		V	o
   	oma	0		A	sg n
   	oma	0		A	sg p
   	oma	0		P	sg n
   	oma	0		P	sg p
   	oma	0		S	sg n
   	oma	0		S	sg p
naise	naine	0		S	sg g
ka	ka	0		D	
surmani	surm	ni		S	sg ter
eade	####				
ülespeab	####				
ja	ja	0		J	
kõik	kõik	0		P	pl n
    	kõik	0		S	sg n
    	kõik	0		P	sg n
kroonu	kroonu	0		S	sg g
      	kroonu	0		S	sg n
ja	ja	0		J	
valla	vald	0		S	sg g
     	valla	0		D	
maksud	maks	d		S	pl n
nende	see	de		P	pl g
     	tema	de		P	pl g
ette	ette	0		D	
    	ette	0		K	
    	esi	tte		S	adt
ära_maksaap	####				
.	.			Z	
4.	4.	0		O	?
maksab	maks	b		V	b
selle	see	0		P	sg g
     	sell	e		S	pl p
valapandud	####				
Hans	Hans	0		H	sg n
Rumme	rumm	e		S	pl p
võlad	võlg	d		S	pl n
ära	ära	0		D	
   	ära	0		V	neg o
mis	mis	0		P	pl n
   	mis	0		P	sg n
se	####				
Hans	Hans	0		H	sg n
mineva	minev	0		A	sg g
kevadi	####				
vana	vana	0		A	sg g
    	vana	0		A	sg n
    	vana	0		A	sg p
    	vana	0		S	sg g
    	vana	0		S	sg n
    	vana	0		S	sg p
peremehe	pere_mees	0		S	sg g
ette	ette	0		D	
    	ette	0		K	
    	esi	tte		S	adt
väljamaksis	####				
.	.			Z	
et	et	0		J	
se	####				
protokolli	protokoll	0		S	adt
          	protokoll	0		S	sg g
          	protokolli	0		V	o
          	protokoll	0		S	sg p
mulle	mull	e		S	pl p
     	mina	lle		P	sg all
     	mulle	0		S	sg n
on	ole	0		V	b
  	ole	0		V	vad
etteloetud	ette_loetu	d		S	pl n
          	ette_loetud	0		A	
          	ette_loetud	0		A	sg n
          	ette_loetud	d		A	pl n
ja	ja	0		J	
luban	luba	n		V	n
mina	mina	0		P	sg n
    	mina	0		S	sg g
    	mina	0		S	sg n
    	mina	0		S	sg p
kõigel	kõik	l		P	sg ad
viisil	viis	l		S	sg ad
      	viisil	0		K	
seda	see	da		P	sg p
täida	täi	da		V	da
     	täit	0		V	o
,	,			Z	
tunnistan	tunnista	n		V	n
mina	mina	0		P	sg n
    	mina	0		S	sg g
    	mina	0		S	sg n
    	mina	0		S	sg p
enese	ise	0		P	sg g
käe	käsi	0		S	sg g
kirja	kirja	0		A	
     	kirja	0		V	o
     	kiri	0		S	adt
     	kiri	0		S	sg g
     	kiri	0		S	sg p
asemel	ase	l		S	sg ad
      	asemel	0		K	
kolme	kolm	0		N	adt
     	kolm	0		N	sg g
     	kolm	0		N	sg p
Noneega	####				
.	.			Z	
Johann	Johann	0		H	sg n
Alle	####				
XXX	XXX	0		O	?
   	XXX	0		Y	?
