Jacob	Jacob	0		H	sg n
Lanni	####				
,	,			Z	
kaebas	kaeba	s		V	s
kohtu	kohtu	0		V	o
     	kohus	0		S	sg g
ees	ees	0		D	
   	ees	0		K	
   	esi	s		S	sg in
et	et	0		J	
Luiga	####				
Jaani	Jaan	0		H	adt
     	Jaan	0		H	sg g
     	Jaani	0		H	sg g
     	jaan	0		S	adt
     	jaan	0		S	sg g
     	Jaan	0		H	sg p
     	Jaani	0		H	sg n
     	jaan	0		S	sg p
poeg	poeg	0		S	sg n
Jaan	Jaan	0		H	sg n
    	jaan	0		S	sg n
    	jaan	0		Y	?
tema	tema	0		P	sg g
    	tema	0		P	sg n
Karja	Karja	0		H	sg g
     	kari	0		S	adt
     	kari	0		S	sg g
     	Karja	0		H	sg n
     	kari	0		S	sg p
poissi	poiss	0		S	adt
      	poiss	0		S	sg p
Obese	####				
selgast	####				
maha	maha	0		D	
tõmman	####				
,	,			Z	
ja	ja	0		J	
poissi	poiss	0		S	adt
      	poiss	0		S	sg p
Reige	####				
lah	####				
kättik	####				
löönud	löö	nud		V	nud
      	löö=nu	d		S	pl n
      	löö=nud	0		A	
      	löö=nud	0		A	sg n
      	löö=nud	d		A	pl n
,	,			Z	
ja	ja	0		J	
palus	palu	s		S	sg in
     	palu	s		V	s
eel	eel	0		D	
   	eel	0		K	
   	esi	l		S	sg ad
kohus	kohu	s		V	s
     	kohus	0		S	sg n
tema	tema	0		P	sg g
    	tema	0		P	sg n
rahaga	raha	ga		S	sg kom
peab	pida	b		V	b
trahvima	trahvi	ma		V	ma
.	.			Z	
Kohus	kohu	s		V	s
     	kohus	0		S	sg n
käskis	käski	s		V	s
et	et	0		J	
Luiga	####				
Jaan	Jaan	0		H	sg n
    	jaan	0		S	sg n
    	jaan	0		Y	?
poeg	poeg	0		S	sg n
Jaan	Jaan	0		H	sg n
    	jaan	0		S	sg n
    	jaan	0		Y	?
tema	tema	0		P	sg g
    	tema	0		P	sg n
Karja	Karja	0		H	sg g
     	kari	0		S	adt
     	kari	0		S	sg g
     	Karja	0		H	sg n
     	kari	0		S	sg p
poisil	poiss	l		S	sg ad
peab	pida	b		V	b
4	4	0		N	?
rubla	rubla	0		S	sg g
     	rubla	0		S	sg n
     	rubla	0		S	sg p
raha	raha	0		S	sg g
    	raha	0		S	sg n
    	raha	0		S	sg p
trahvi	trahv	0		S	adt
      	trahv	0		S	sg g
      	trahvi	0		V	o
      	trahv	0		S	sg p
maksma	maks	ma		V	ma
.	.			Z	
