Hans	Hans	0		H	sg n
Kongas	####				
tõstis	tõst	is		V	s
kaebtust	####				
,	,			Z	
et	et	0		J	
olema	ole	ma		V	ma
temal	tema	l		P	sg ad
sügisel	sügis	l		S	sg ad
linnu	lind	0		S	sg g
     	linn	u		S	pl p
varastatud	varasta	tud		V	tud
          	varastatu	d		S	pl n
          	varastatud	0		A	
          	varastatud	0		A	sg n
          	varastatud	d		A	pl n
,	,			Z	
nüüd	nüüd	0		D	
aga	aga	0		J	
kuulda	kuul	da		V	da
      	kuul	da		V	ta
saanud	saa	nud		V	nud
      	saa=nud	0		A	
      	saa=nud	0		A	sg n
      	saa=nud	d		A	pl n
      	saanu	d		S	pl n
,	,			Z	
et	et	0		J	
need	see	d		P	pl n
linad	lina	d		S	pl n
Kai	Kai	0		H	sg g
   	Kai	0		H	sg n
   	kai	0		S	sg g
   	kai	0		S	sg n
Hansoni	####				
kätte	kätte	0		K	
     	käsi	tte		S	adt
on	ole	0		V	b
  	ole	0		V	vad
viitud	####				
,	,			Z	
palub	palu	b		V	b
kohut	kohus	t		S	sg p
seda	see	da		P	sg p
asja	asi	0		S	adt
    	asi	0		S	sg g
    	asi	0		S	sg p
seletada	seleta	da		V	da
ja	ja	0		J	
süüdlasi	süüdlane	i		S	pl p
trahvida	trahvi	da		V	da
kohtumees	kohtu_mees	0		S	sg n
Juhan	Juhan	0		H	sg n
mõller	####				
andis	and	is		V	s
tunnistust	tunnistus	t		S	sg p
,	,			Z	
et	et	0		J	
olema	ole	ma		V	ma
Kai	Kai	0		H	sg g
   	Kai	0		H	sg n
   	kai	0		S	sg g
   	kai	0		S	sg n
Hanson	####				
temale	tema	le		P	sg all
ütelnud	ütle	nud		V	nud
       	ütel=nu	d		S	pl n
       	ütel=nud	0		A	
       	ütel=nud	0		A	sg n
       	ütel=nud	d		A	pl n
,	,			Z	
et	et	0		J	
Ann	Ann	0		H	sg n
Kiis	kii	s		S	sg in
ja	ja	0		J	
Kadri	Kadri	0		H	sg g
     	Kadri	0		H	sg n
     	kadri	0		S	sg g
     	kadri	0		S	sg n
Hanson	####				
Hans	Hans	0		H	sg n
Konkase	####				
linu	lina	u		S	pl p
tema	tema	0		P	sg g
    	tema	0		P	sg n
juurde	juur	de		S	adt
      	juurde	0		D	
      	juurde	0		K	
toonud	too	nud		V	nud
      	too=nu	d		S	pl n
      	too=nud	0		A	
      	too=nud	0		A	sg n
      	too=nud	d		A	pl n
keda	kes	da		P	pl p
    	kes	da		P	sg p
tema	tema	0		P	sg g
    	tema	0		P	sg n
Andres	Andre	s		H	sg in
      	Andres	0		H	sg n
Juhansoni	####				
kätte	kätte	0		K	
     	käsi	tte		S	adt
müüja	müüja	0		S	sg g
     	müüja	0		S	sg n
viinud	vii	nud		V	nud
      	vii=nu	d		S	pl n
      	vii=nud	0		A	
      	vii=nud	0		A	sg n
      	vii=nud	d		A	pl n
Ann	Ann	0		H	sg n
Kiis	kii	s		S	sg in
eestkostja	eest_kostja	0		S	sg g
          	eest_kostja	0		S	sg n
Andres	Andre	s		H	sg in
      	Andres	0		H	sg n
Juhanson	####				
andis	and	is		V	s
vastust	vastus	t		S	sg p
,	,			Z	
et	et	0		J	
olema	ole	ma		V	ma
need	see	d		P	pl n
linad	lina	d		S	pl n
8	8	0		N	?
V	V	0		O	?
 	V	0		Y	?
oma	oma	0		A	sg g
   	oma	0		D	
   	oma	0		P	sg g
   	oma	0		S	sg g
   	oma	0		V	o
   	oma	0		A	sg n
   	oma	0		A	sg p
   	oma	0		P	sg n
   	oma	0		P	sg p
   	oma	0		S	sg n
   	oma	0		S	sg p
isa	isa	0		S	sg g
   	isa	0		S	sg n
   	isa	0		S	sg p
järelt	järelt	0		K	
võtnud	võt	nud		V	nud
      	võt=nu	d		S	pl n
      	võt=nud	0		A	
      	võt=nud	0		A	sg n
      	võt=nud	d		A	pl n
pärast	pära	st		S	sg el
      	pärane	t		A	sg p
      	pärast	0		D	
      	pärast	0		K	
isa	isa	0		S	sg g
   	isa	0		S	sg n
   	isa	0		S	sg p
ise	ise	0		A	
   	ise	0		D	
   	ise	0		P	pl n
   	ise	0		P	sg n
12	12	0		N	?
V	V	0		O	?
 	V	0		Y	?
juurde	juur	de		S	adt
      	juurde	0		D	
      	juurde	0		K	
andnud	and	nud		V	nud
      	and=nu	d		S	pl n
      	and=nud	0		A	
      	and=nud	0		A	sg n
      	and=nud	d		A	pl n
siis	siis	0		D	
    	siis	0		J	
ära_müüitud	####				
saanud	saa	nud		V	nud
      	saa=nud	0		A	
      	saa=nud	0		A	sg n
      	saa=nud	d		A	pl n
      	saanu	d		S	pl n
Kai	Kai	0		H	sg g
   	Kai	0		H	sg n
   	kai	0		S	sg g
   	kai	0		S	sg n
Hanson	####				
eestkostja	eest_kostja	0		S	sg g
          	eest_kostja	0		S	sg n
Jaak	Jaak	0		H	sg n
    	jaak	0		S	sg n
Reimann	####				
andis	and	is		V	s
vastust	vastus	t		S	sg p
,	,			Z	
et	et	0		J	
olema	ole	ma		V	ma
hirmu	hirm	0		S	adt
     	hirm	0		S	sg g
     	hirmu	0		V	o
     	hirm	0		S	sg p
pärast	pära	st		S	sg el
      	pärane	t		A	sg p
      	pärast	0		D	
      	pärast	0		K	
kohtumehele	kohtu_mees	le		S	sg all
ütelnud	ütle	nud		V	nud
       	ütel=nu	d		S	pl n
       	ütel=nud	0		A	
       	ütel=nud	0		A	sg n
       	ütel=nud	d		A	pl n
,	,			Z	
et	et	0		J	
need	see	d		P	pl n
Hans	Hans	0		H	sg n
Konkase	####				
linad	lina	d		S	pl n
olnud	ol=nud	0		A	
     	ol=nud	0		A	sg n
     	ol=nud	d		A	pl n
     	ole	nud		V	nud
     	olnu	d		S	pl n
,	,			Z	
mis	mis	0		P	pl n
   	mis	0		P	sg n
Ann	Ann	0		H	sg n
Kiis	kii	s		S	sg in
toonud	too	nud		V	nud
      	too=nu	d		S	pl n
      	too=nud	0		A	
      	too=nud	0		A	sg n
      	too=nud	d		A	pl n
nüüd	nüüd	0		D	
aga	aga	0		J	
täiesti	täiesti	0		D	
teadma	tead	ma		V	ma
et	et	0		J	
tema	tema	0		P	sg g
    	tema	0		P	sg n
juurde	juur	de		S	adt
      	juurde	0		D	
      	juurde	0		K	
kedagit	####				
võerit	####				
linu	lina	u		S	pl p
ei	ei	0		D	
  	ei	0		V	neg
ole	ole	0		V	o
toodud	too	dud		V	tud
      	toodu	d		S	pl n
      	toodud	0		A	
      	toodud	0		A	sg n
      	toodud	d		A	pl n
.	.			Z	
Kadri	Kadri	0		H	sg g
     	Kadri	0		H	sg n
     	kadri	0		S	sg g
     	kadri	0		S	sg n
Hanson	####				
eestkostja	eest_kostja	0		S	sg g
          	eest_kostja	0		S	sg n
Jaak	Jaak	0		H	sg n
    	jaak	0		S	sg n
Reimann	####				
vastas	vasta	s		V	s
      	vastas	0		D	
      	vastas	0		K	
,	,			Z	
et	et	0		J	
olema	ole	ma		V	ma
oma	oma	0		A	sg g
   	oma	0		D	
   	oma	0		P	sg g
   	oma	0		S	sg g
   	oma	0		V	o
   	oma	0		A	sg n
   	oma	0		A	sg p
   	oma	0		P	sg n
   	oma	0		P	sg p
   	oma	0		S	sg n
   	oma	0		S	sg p
isa	isa	0		S	sg g
   	isa	0		S	sg n
   	isa	0		S	sg p
linnu	lind	0		S	sg g
     	linn	u		S	pl p
8	8	0		N	?
V	V	0		O	?
 	V	0		Y	?
oma	oma	0		A	sg g
   	oma	0		D	
   	oma	0		P	sg g
   	oma	0		S	sg g
   	oma	0		V	o
   	oma	0		A	sg n
   	oma	0		A	sg p
   	oma	0		P	sg n
   	oma	0		P	sg p
   	oma	0		S	sg n
   	oma	0		S	sg p
õe	õe	0		I	
  	õde	0		S	sg g
Kaiega	Kaie	ga		H	sg kom
võtnud	võt	nud		V	nud
      	võt=nu	d		S	pl n
      	võt=nud	0		A	
      	võt=nud	0		A	sg n
      	võt=nud	d		A	pl n
isa	isa	0		S	sg g
   	isa	0		S	sg n
   	isa	0		S	sg p
pärast	pära	st		S	sg el
      	pärane	t		A	sg p
      	pärast	0		D	
      	pärast	0		K	
12	12	0		N	?
V	V	0		O	?
 	V	0		Y	?
juurde	juur	de		S	adt
      	juurde	0		D	
      	juurde	0		K	
andnud	and	nud		V	nud
      	and=nu	d		S	pl n
      	and=nud	0		A	
      	and=nud	0		A	sg n
      	and=nud	d		A	pl n
,	,			Z	
ja	ja	0		J	
siis	siis	0		D	
    	siis	0		J	
Andres	Andre	s		H	sg in
      	Andres	0		H	sg n
Juhanson	####				
need	see	d		P	pl n
linad	lina	d		S	pl n
ära_müüinud	####				
,	,			Z	
aga	aga	0		J	
need	see	d		P	pl n
sugugi	sugugi	0		D	
Hans	Hans	0		H	sg n
Konkase	####				
linad	lina	d		S	pl n
ei	ei	0		D	
  	ei	0		V	neg
ole	ole	0		V	o
olnud	ol=nud	0		A	
     	ol=nud	0		A	sg n
     	ol=nud	d		A	pl n
     	ole	nud		V	nud
     	olnu	d		S	pl n
.	.			Z	
Andres	Andre	s		H	sg in
      	Andres	0		H	sg n
Juhanson	####				
tunnistas	tunnista	s		V	s
,	,			Z	
et	et	0		J	
olema	ole	ma		V	ma
Kadri	Kadri	0		H	sg g
     	Kadri	0		H	sg n
     	kadri	0		S	sg g
     	kadri	0		S	sg n
Hanson	####				
1	1	0		N	?
Lv	####				
linna	linn	0		S	adt
     	linn	0		S	sg g
     	linn	0		S	sg p
tema	tema	0		P	sg g
    	tema	0		P	sg n
kätte	kätte	0		K	
     	käsi	tte		S	adt
müüja	müüja	0		S	sg g
     	müüja	0		S	sg n
andnud	and	nud		V	nud
      	and=nu	d		S	pl n
      	and=nud	0		A	
      	and=nud	0		A	sg n
      	and=nud	d		A	pl n
aga	aga	0		J	
seda	see	da		P	sg p
ei	ei	0		D	
  	ei	0		V	neg
teadma	tead	ma		V	ma
kas	kas	0		D	
nad	tema	d		P	pl n
varastatud	varasta	tud		V	tud
          	varastatu	d		S	pl n
          	varastatud	0		A	
          	varastatud	0		A	sg n
          	varastatud	d		A	pl n
olnud	ol=nud	0		A	
     	ol=nud	0		A	sg n
     	ol=nud	d		A	pl n
     	ole	nud		V	nud
     	olnu	d		S	pl n
.	.			Z	
mõistus	mõistus	0		S	sg n
:	:			Z	
Kadri	Kadri	0		H	sg g
     	Kadri	0		H	sg n
     	kadri	0		S	sg g
     	kadri	0		S	sg n
Hanson	####				
,	,			Z	
Kai	Kai	0		H	sg g
   	Kai	0		H	sg n
   	kai	0		S	sg g
   	kai	0		S	sg n
Hanson	####				
ja	ja	0		J	
Ann	Ann	0		H	sg n
Kiis	kii	s		S	sg in
saavad	saa	vad		V	vad
      	saav	d		A	pl n
      	saav	d		S	pl n
kõik	kõik	0		P	pl n
    	kõik	0		S	sg n
    	kõik	0		P	sg n
24	24	0		N	?
tunniks	tund	ks		S	sg tr
vangihonda	####				
pandud	pan=du	d		S	pl n
      	pan=dud	0		A	
      	pan=dud	0		A	sg n
      	pan=dud	d		A	pl n
      	pane	dud		V	tud
ja	ja	0		J	
maksavad	maks	vad		V	vad
se	####				
1	1	0		N	?
la	la			H	?
linade	lina	de		S	pl g
hind	hind	0		S	sg n
3	3	0		N	?
rbl	rbl	0		Y	?
.	.			Z	
Hans	Hans	0		H	sg n
Konkatele	####				
välja	välja	0		D	
     	välja	0		V	o
     	väli	0		S	adt
     	väli	0		S	sg g
     	väli	0		S	sg p
