Hans	Hans	0		H	sg n
Nõmmik	nõmmik	0		S	sg n
pandis	pant	s		S	sg in
kaebtust	####				
,	,			Z	
et	et	0		J	
olema	ole	ma		V	ma
Juhan	Juhan	0		H	sg n
vassar	####				
2	2	0		N	?
korda	kord	0		S	adt
     	korda	0		V	o
     	kord	0		S	sg p
merel	meri	l		S	sg ad
tema	tema	0		P	sg g
    	tema	0		P	sg n
vilja	vili	0		S	adt
     	vili	0		S	sg g
     	vili	0		S	sg p
väljalt	väli	lt		S	sg abl
hobuse	hobune	0		S	sg g
ja	ja	0		J	
vankriga	vanker	ga		S	sg kom
läbi	läbi	0		D	
    	läbi	0		K	
    	läbi	0		V	o
sõitnud	sõit	nud		V	nud
       	sõit=nu	d		S	pl n
       	sõit=nud	0		A	
       	sõit=nud	0		A	sg n
       	sõit=nud	d		A	pl n
,	,			Z	
ning	ning	0		J	
ärasõtkunud	ära_sõtku=nu	d		S	pl n
           	ära_sõtku=nud	0		A	
           	ära_sõtku=nud	0		A	sg n
           	ära_sõtku=nud	d		A	pl n
ja	ja	0		J	
ka	ka	0		D	
õue	õu	0		S	adt
   	õu	0		S	sg g
   	õue	0		D	
   	õu	0		S	sg p
värava	värav	0		S	sg g
puhtaks	puhas	ks		A	sg tr
äralõhkunud	ära_lõhku=nu	d		S	pl n
           	ära_lõhku=nud	0		A	
           	ära_lõhku=nud	0		A	sg n
           	ära_lõhku=nud	d		A	pl n
,	,			Z	
_	_			Z	
nõuab	nõud	b		V	b
odra	oder	0		S	sg g
vilja	vili	0		S	adt
     	vili	0		S	sg g
     	vili	0		S	sg p
kahju	kahi	0		S	adt
     	kahi	0		S	sg g
     	kahi	0		S	sg p
     	kahju	0		S	sg g
     	kahju	0		S	sg n
     	kahju	0		S	sg p
10	10	0		N	?
rbl	rbl	0		Y	?
ja	ja	0		J	
niisu	####				
söötmise	söötmine	0		S	sg g
eest	eest	0		D	
    	eest	0		K	
    	esi	st		S	sg el
1	1	0		N	?
1	1	0		N	?
/	/			Z	
2	2	0		N	?
vakka	vakk	0		S	adt
     	vakk	0		S	sg p
     	vakka	0		D	
niisu	####				
,	,			Z	
ja	ja	0		J	
ka	ka	0		D	
uus	uus	0		A	sg n
värav	värav	0		S	sg n
.	.			Z	
Juhan	Juhan	0		H	sg n
vassar	####				
seda	see	da		P	sg p
pahandust	pahandus	t		S	sg p
mitte	mitte	0		D	
sugugi	sugugi	0		D	
ei	ei	0		D	
  	ei	0		V	neg
salanu	sala=nu	0		S	sg g
      	sala=nu	0		S	sg n
,	,			Z	
sest	see	st		P	sg el
    	sest	0		J	
olema	ole	ma		V	ma
teda	tema	da		P	sg p
taga	taga	0		D	
    	taga	0		K	
    	taga	0		V	o
aetud	ae=tu	d		S	pl n
     	aetud	0		A	
     	aetud	0		A	sg n
     	aetud	d		A	pl n
     	aja	tud		V	tud
ja	ja	0		J	
tema	tema	0		P	sg g
    	tema	0		P	sg n
siis	siis	0		D	
    	siis	0		J	
hirmuga	hirm	ga		S	sg kom
viljast	vili	st		S	sg el
läbi	läbi	0		D	
    	läbi	0		K	
    	läbi	0		V	o
sõitnud	sõit	nud		V	nud
       	sõit=nu	d		S	pl n
       	sõit=nud	0		A	
       	sõit=nud	0		A	sg n
       	sõit=nud	d		A	pl n
,	,			Z	
aga	aga	0		J	
se	####				
kahju	kahi	0		S	adt
     	kahi	0		S	sg g
     	kahi	0		S	sg p
     	kahju	0		S	sg g
     	kahju	0		S	sg n
     	kahju	0		S	sg p
mitte	mitte	0		D	
nõnda	nõnda	0		D	
suur	suur	0		A	sg n
ei	ei	0		D	
  	ei	0		V	neg
ole	ole	0		V	o
kohtumees	kohtu_mees	0		S	sg n
Mart	Mart	0		H	sg n
    	mart	0		S	sg n
Reinert	####				
ja	ja	0		J	
vallavanem	valla_vanem	0		S	sg n
olid	ole	id		V	sid
se	####				
kahju	kahi	0		S	adt
     	kahi	0		S	sg g
     	kahi	0		S	sg p
     	kahju	0		S	sg g
     	kahju	0		S	sg n
     	kahju	0		S	sg p
järele	järele	0		D	
      	järele	0		K	
vatanud	####				
ja	ja	0		J	
arvate	arva	te		V	te
odra	oder	0		S	sg g
kahju	kahi	0		S	adt
     	kahi	0		S	sg g
     	kahi	0		S	sg p
     	kahju	0		S	sg g
     	kahju	0		S	sg n
     	kahju	0		S	sg p
6	6	0		N	?
rubl	####				
.	.			Z	
värt	####				
ja	ja	0		J	
1	1	0		N	?
vak	####				
niisu	####				
,	,			Z	
se	####				
värav	värav	0		S	sg n
ka	ka	0		D	
küll	küll	0		D	
    	küll	0		S	sg n
lõhutud	lõhku	tud		V	tud
       	lõhu=tu	d		S	pl n
       	lõhu=tud	0		A	
       	lõhu=tud	0		A	sg n
       	lõhu=tud	d		A	pl n
olnud	ol=nud	0		A	
     	ol=nud	0		A	sg n
     	ol=nud	d		A	pl n
     	ole	nud		V	nud
     	olnu	d		S	pl n
mõistus	mõistus	0		S	sg n
:	:			Z	
Juhan	Juhan	0		H	sg n
vassar	####				
maksab	maks	b		V	b
Hans	Hans	0		H	sg n
Nõmmikutele	nõmmik	tele		S	pl all
odra	oder	0		S	sg g
vilja	vili	0		S	adt
     	vili	0		S	sg g
     	vili	0		S	sg p
sõtkumuse	sõtku=mus	0		S	sg g
eest	eest	0		D	
    	eest	0		K	
    	esi	st		S	sg el
6	6	0		N	?
rubla	rubla	0		S	sg g
     	rubla	0		S	sg n
     	rubla	0		S	sg p
ja	ja	0		J	
üks	üks	0		N	sg n
   	üks	0		P	sg n
vak	####				
niisu	####				
,	,			Z	
värava	värav	0		S	sg g
eest	eest	0		D	
    	eest	0		K	
    	esi	st		S	sg el
üks	üks	0		N	sg n
   	üks	0		P	sg n
rbl	rbl	0		Y	?
ja	ja	0		J	
maksab	maks	b		V	b
selle	see	0		P	sg g
     	sell	e		S	pl p
rumala	rumal	0		A	sg g
teo	tegu	0		S	sg g
   	tigu	0		S	sg g
eest	eest	0		D	
    	eest	0		K	
    	esi	st		S	sg el
2	2	0		N	?
rubla	rubla	0		S	sg g
     	rubla	0		S	sg n
     	rubla	0		S	sg p
vaeste	vaene	te		A	pl g
      	vaene	te		S	pl g
laeka	laegas	0		S	adt
     	laegas	0		S	sg g
trahvi	trahv	0		S	adt
      	trahv	0		S	sg g
      	trahvi	0		V	o
      	trahv	0		S	sg p
.	.			Z	
seepeale	see_peale	0		D	
sai	saa	i		V	s
   	sai	0		S	sg n
se	####				
mõistus	mõistus	0		S	sg n
kohtukäijatele	kohtu_käija	tele		S	pl all
kohe	kohe	0		A	sg n
    	kohe	0		D	
etteloetud	ette_loetu	d		S	pl n
          	ette_loetud	0		A	
          	ette_loetud	0		A	sg n
          	ette_loetud	d		A	pl n
ja	ja	0		J	
suurema	suurem	0		C	sg g
kohtu	kohtu	0		V	o
     	kohus	0		S	sg g
nõudmise	nõudmine	0		S	sg g
tähele	täht	le		S	sg all
      	tähele	0		X	
panemused	####				
äraseletud	####				
,	,			Z	
