kuurika	####				
Peet	Peet	0		H	sg n
    	peet	0		S	sg n
Juhkami	juhkam	0		S	sg g
lesk	lesk	0		S	sg n
Kadri	Kadri	0		H	sg g
     	Kadri	0		H	sg n
     	kadri	0		S	sg g
     	kadri	0		S	sg n
Juhkam	juhkam	0		S	sg n
tuli	tuli	0		S	sg n
    	tule	i		V	s
Jaan	Jaan	0		H	sg n
    	jaan	0		S	sg n
    	jaan	0		Y	?
Kusiku	kusik	0		S	sg g
ja	ja	0		J	
Jaan	Jaan	0		H	sg n
    	jaan	0		S	sg n
    	jaan	0		Y	?
Thomsoniga	####				
siia	siia	0		D	
    	siig	0		S	sg g
kohtu	kohtu	0		V	o
     	kohus	0		S	sg g
ette	ette	0		D	
    	ette	0		K	
    	esi	tte		S	adt
ning	ning	0		J	
leppisid	leppi	sid		V	sid
oma	oma	0		A	sg g
   	oma	0		D	
   	oma	0		P	sg g
   	oma	0		S	sg g
   	oma	0		V	o
   	oma	0		A	sg n
   	oma	0		A	sg p
   	oma	0		P	sg n
   	oma	0		P	sg p
   	oma	0		S	sg n
   	oma	0		S	sg p
vahel	vahe	l		S	sg ad
     	vahel	0		D	
     	vahel	0		K	
sinna	sinna	0		D	
,	,			Z	
et	et	0		J	
Jaan	Jaan	0		H	sg n
    	jaan	0		S	sg n
    	jaan	0		Y	?
Kusik	kusik	0		S	sg n
ja	ja	0		J	
Jaan	Jaan	0		H	sg n
    	jaan	0		S	sg n
    	jaan	0		Y	?
Thomson	####				
ärasurnud	ära_surnu	d		S	pl n
         	ära_surnud	0		A	
         	ära_surnud	0		A	sg n
         	ära_surnud	d		A	pl n
Peet	Peet	0		H	sg n
    	peet	0		S	sg n
Juhkami	juhkam	0		S	sg g
beriate	####				
vöörmündriks	vöörmünder	ks		S	sg tr
ja	ja	0		J	
eest	eest	0		D	
    	eest	0		K	
    	esi	st		S	sg el
kostjaks	kostja	ks		S	sg tr
,	,			Z	
ühes	üks	s		N	sg in
    	üks	s		P	sg in
    	ühes	0		D	
    	ühes	0		K	
Jaan	Jaan	0		H	sg n
    	jaan	0		S	sg n
    	jaan	0		Y	?
Mihkelson	####				
ja	ja	0		J	
märt	####				
Koffiga	####				
,	,			Z	
heitvat	heit	vat		V	vat
       	heitev	t		A	sg p
ning	ning	0		J	
nimetatud	nimeta	tud		V	tud
         	nimetatu	d		S	pl n
         	nimetatud	0		A	
         	nimetatud	0		A	sg n
         	nimetatud	d		A	pl n
beriate	####				
eest	eest	0		D	
    	eest	0		K	
    	esi	st		S	sg el
mis	mis	0		P	pl n
   	mis	0		P	sg n
seaduselik	####				
toimetavad	toimeta	vad		V	vad
          	toimeta=v	d		A	pl n
ja	ja	0		J	
muretsed	muretse	d		V	d
.	.			Z	
mõistetud	mõist	tud		V	tud
         	mõiste=tu	d		S	pl n
         	mõiste=tud	0		A	
         	mõiste=tud	0		A	sg n
         	mõiste=tud	d		A	pl n
:	:			Z	
seda	see	da		P	sg p
nõnda	nõnda	0		D	
kui	kui	0		D	
   	kui	0		J	
sündinud	sündi	nud		V	nud
        	sündinu	d		S	pl n
        	sündinud	0		A	
        	sündinud	0		A	sg n
        	sündinud	d		A	pl n
maha	maha	0		D	
kirjutada	kirjuta	da		V	da
ning	ning	0		J	
Jaan	Jaan	0		H	sg n
    	jaan	0		S	sg n
    	jaan	0		Y	?
Kusik	kusik	0		S	sg n
ja	ja	0		J	
Jaan	Jaan	0		H	sg n
    	jaan	0		S	sg n
    	jaan	0		Y	?
Thomsonile	####				
sundmuseks	####				
teha	tege	a		V	da
oma	oma	0		A	sg g
   	oma	0		D	
   	oma	0		P	sg g
   	oma	0		S	sg g
   	oma	0		V	o
   	oma	0		A	sg n
   	oma	0		A	sg p
   	oma	0		P	sg n
   	oma	0		P	sg p
   	oma	0		S	sg n
   	oma	0		S	sg p
kohusid	kohu	sid		V	sid
seaduselikult	####				
täita	täi	ta		S	sg ab
     	täi	ta		V	ta
     	täit	a		V	da
     	täita	0		V	o
ja	ja	0		J	
toimetada	toimeta	da		V	da
.	.			Z	
kohtumees	kohtu_mees	0		S	sg n
:	:			Z	
J. Org	####				
XXX	XXX	0		O	?
   	XXX	0		Y	?
kohtumees	kohtu_mees	0		S	sg n
:	:			Z	
P	P	0		Y	?
.	.			Z	
_	_			Z	
Bergman	####				
(	(			Z	
allkiri	all_kiri	0		S	sg n
)	)			Z	
kohtumees	kohtu_mees	0		S	sg n
:	:			Z	
P	P	0		Y	?
.	.			Z	
_	_			Z	
Tamm	tamm	0		S	sg n
(	(			Z	
allkiri	all_kiri	0		S	sg n
)	)			Z	
kirjutaja	kirjutaja	0		S	sg g
         	kirjutaja	0		S	sg n
:	:			Z	
kõhler	####				
(	(			Z	
allkiri	all_kiri	0		S	sg n
)	)			Z	
