Johann	Johann	0		H	sg n
Viidika	viidikas	0		S	sg g
ja	ja	0		J	
Jaanus	Jaanus	0		H	sg n
Rekkandi	rekk_and	0		S	adt
        	rekk_and	0		S	sg p
vastastik	####				
kaebduses	####				
ära	ära	0		D	
   	ära	0		V	neg o
aeamise	####				
pärast	pära	st		S	sg el
      	pärane	t		A	sg p
      	pärast	0		D	
      	pärast	0		K	
,	,			Z	
andis	and	is		V	s
Kadri	Kadri	0		H	sg g
     	Kadri	0		H	sg n
     	kadri	0		S	sg g
     	kadri	0		S	sg n
Pärn	pärn	0		S	sg n
tunnistust	tunnistus	t		S	sg p
,	,			Z	
et	et	0		J	
ei	ei	0		D	
  	ei	0		V	neg
olevat	ole	vat		V	vat
      	olev	t		A	sg p
      	olev	t		S	sg p
ta	tema	0		P	sg g
  	tema	0		P	sg n
muud	muu	d		P	pl n
    	muu	d		S	pl n
    	muu	d		V	d
    	muu	d		P	sg p
    	muu	d		S	sg p
kuulnud	kuul	nud		V	nud
       	kuul=nud	0		A	
       	kuul=nud	0		A	sg n
       	kuul=nud	d		A	pl n
       	kuulnu	d		S	pl n
,	,			Z	
kui	kui	0		D	
   	kui	0		J	
ühel	üks	l		N	sg ad
    	üks	l		P	sg ad
õhtul	õhtu	l		S	sg ad
poiss	poiss	0		S	sg n
Johann	Johann	0		H	sg n
Viidik	####				
pimedas	pime	s		A	sg in
       	pime	s		S	sg in
sisse	siss	e		S	pl p
     	sisse	0		D	
     	sisse	0		K	
tulnud	tul=nud	0		A	
      	tul=nud	0		A	sg n
      	tul=nud	d		A	pl n
      	tule	nud		V	nud
      	tulnu	d		S	pl n
,	,			Z	
päeva	päev	0		S	adt
     	päev	0		S	sg g
     	päev	0		S	sg p
aga	aga	0		J	
tõsi	tõsi	0		S	pl p
    	tõsi	0		S	sg n
ei	ei	0		D	
  	ei	0		V	neg
hoole	hoog	le		S	sg all
     	hool	0		S	sg g
     	hoole	0		S	sg n
olnud	ol=nud	0		A	
     	ol=nud	0		A	sg n
     	ol=nud	d		A	pl n
     	ole	nud		V	nud
     	olnu	d		S	pl n
ja	ja	0		J	
kodust	kodu	st		S	sg el
      	kodune	t		A	sg p
ära	ära	0		D	
   	ära	0		V	neg o
olnud	ol=nud	0		A	
     	ol=nud	0		A	sg n
     	ol=nud	d		A	pl n
     	ole	nud		V	nud
     	olnu	d		S	pl n
,	,			Z	
ja	ja	0		J	
süüa	söö	a		V	da
küsinud	küsi	nud		V	nud
       	küsi=nu	d		S	pl n
       	küsi=nud	0		A	
       	küsi=nud	0		A	sg n
       	küsi=nud	d		A	pl n
,	,			Z	
on	ole	0		V	b
  	ole	0		V	vad
peremees	pere_mees	0		S	sg n
ütelnud	ütle	nud		V	nud
       	ütel=nu	d		S	pl n
       	ütel=nud	0		A	
       	ütel=nud	0		A	sg n
       	ütel=nud	d		A	pl n
:	:			Z	
""""	""""			Z	
Kelm	kelm	0		A	sg n
    	kelm	0		S	sg n
siga	siga	0		A	sg n
    	siga	0		A	sg p
    	siga	0		S	sg n
    	siga	0		S	sg p
kambrist	kamber	st		S	sg el
välja	välja	0		D	
     	välja	0		V	o
     	väli	0		S	adt
     	väli	0		S	sg g
     	väli	0		S	sg p
.	.			Z	
""""	""""			Z	
Mõisteti	mõist	ti		V	ti
:	:			Z	
tunnistaja	tunnistaja	0		S	sg g
          	tunnistaja	0		S	sg n
ütelust	üte_lust	0		S	sg n
protokoli	####				
võtta	võt	a		V	da
.	.			Z	
peakohtumees	pea_kohtu_mees	0		S	sg n
JLuik	####				
[	[			Z	
allkiri	all_kiri	0		S	sg n
]	]			Z	
kohtumees	kohtu_mees	0		S	sg n
JJõgevest	####				
[	[			Z	
allkiri	all_kiri	0		S	sg n
]	]			Z	
Jamaja	jama=ja	0		S	sg g
      	jama=ja	0		S	sg n
[	[			Z	
allkiri	all_kiri	0		S	sg n
]	]			Z	
