kohalise	kohaline	0		A	sg g
valla	vald	0		S	sg g
     	valla	0		D	
valitsuse	valitsus	0		S	sg g
kaebtuse	####				
peale	pea	le		S	sg all
     	peale	0		D	
     	peale	0		K	
,	,			Z	
et	et	0		J	
märt	####				
Valting	####				
oma	oma	0		A	sg g
   	oma	0		D	
   	oma	0		P	sg g
   	oma	0		S	sg g
   	oma	0		V	o
   	oma	0		A	sg n
   	oma	0		A	sg p
   	oma	0		P	sg n
   	oma	0		P	sg p
   	oma	0		S	sg n
   	oma	0		S	sg p
pearaha	pea_raha	0		S	sg g
       	pea_raha	0		S	sg n
       	pea_raha	0		S	sg p
8	8	0		N	?
R 91	R91	0		Y	?
kop	kop	0		Y	?
.	.			Z	
mitte	mitte	0		D	
äramaksta	####				
,	,			Z	
sai	saa	i		V	s
   	sai	0		S	sg n
märt	####				
Valting	####				
ette	ette	0		D	
    	ette	0		K	
    	esi	tte		S	adt
kutsutud	kutsu	tud		V	tud
        	kutsutu	d		S	pl n
        	kutsutud	0		A	
        	kutsutud	0		A	sg n
        	kutsutud	d		A	pl n
kes	kes	0		P	pl n
   	kes	0		P	sg n
seda	see	da		P	sg p
ei	ei	0		D	
  	ei	0		V	neg
salanud	salga	nud		V	nud
       	sala=nu	d		S	pl n
       	sala=nud	0		A	
       	sala=nud	0		A	sg n
       	sala=nud	d		A	pl n
,	,			Z	
ütles	ütle	s		V	s
aga	aga	0		J	
,	,			Z	
et	et	0		J	
tema	tema	0		P	sg g
    	tema	0		P	sg n
põdelik	####				
ning	ning	0		J	
nüüd	nüüd	0		D	
mitte	mitte	0		D	
raha	raha	0		S	sg g
    	raha	0		S	sg n
    	raha	0		S	sg p
ei	ei	0		D	
  	ei	0		V	neg
ole	ole	0		V	o
,	,			Z	
seda	see	da		P	sg p
võlga	võlg	0		S	adt
     	võlg	0		S	sg p
äramaksta	####				
.	.			Z	
mõistetud	mõist	tud		V	tud
         	mõiste=tu	d		S	pl n
         	mõiste=tud	0		A	
         	mõiste=tud	0		A	sg n
         	mõiste=tud	d		A	pl n
:	:			Z	
märt	####				
Valting	####				
peab	pida	b		V	b
seda	see	da		P	sg p
võlga	võlg	0		S	adt
     	võlg	0		S	sg p
8	8	0		N	?
R 91	R91	0		Y	?
kop	kop	0		Y	?
.	.			Z	
osalt	osa	lt		S	sg abl
     	osalt	0		D	
4	4	0		N	?
nädala	nädal	0		S	sg g
aea	####				
sees	sees	0		D	
    	sees	0		K	
ja	ja	0		J	
teine	teine	0		O	sg n
     	teine	0		P	sg n
usa	####				
kõige	kõik	0		P	sg g
     	kõige	0		D	
vilja	vili	0		S	adt
     	vili	0		S	sg g
     	vili	0		S	sg p
kase	kask	0		S	sg g
23	23	0		N	?
april	####				
s	s	0		Y	?
.	.			Z	
a	a	0		Y	?
ära	ära	0		D	
   	ära	0		V	neg o
maksma	maks	ma		V	ma
ja	ja	0		J	
saab	saa	b		V	b
sele	####				
viivituse	viivitus	0		S	sg g
eest	eest	0		D	
    	eest	0		K	
    	esi	st		S	sg el
48	48	0		N	?
tunni	tund	0		S	sg g
peale	pea	le		S	sg all
     	peale	0		D	
     	peale	0		K	
vangi	vang	0		S	adt
     	vang	0		S	sg g
     	vang	0		S	sg p
pandud	pan=du	d		S	pl n
      	pan=dud	0		A	
      	pan=dud	0		A	sg n
      	pan=dud	d		A	pl n
      	pane	dud		V	tud
.	.			Z	
