mõisavalitsuse	mõisa_valitsus	0		S	sg g
poolest	pool	st		N	sg el
       	pool	st		S	sg el
       	poolene	t		A	sg p
       	poolest	0		K	
kaebati	####				
,	,			Z	
et	et	0		J	
taluperemees	talu_pere_mees	0		S	sg n
Mats	Mats	0		H	sg n
    	mats	0		A	sg n
    	mats	0		S	sg n
Pären	####				
püüdnud	püüd	nud		V	nud
       	püüd=nu	d		S	pl n
       	püüd=nud	0		A	
       	püüd=nud	0		A	sg n
       	püüd=nud	d		A	pl n
mõisavaljalt	####				
kaeravilja	kaera_vili	0		S	adt
          	kaera_vili	0		S	sg g
          	kaera_vili	0		S	sg p
varastada	varasta	da		V	da
.	.			Z	
väljavaht	välja_vaht	0		S	sg n
Andres	Andre	s		H	sg in
      	Andres	0		H	sg n
Juhanson	####				
seletas	seleta	s		V	s
,	,			Z	
et	et	0		J	
tema	tema	0		P	sg g
    	tema	0		P	sg n
teda	tema	da		P	sg p
varguse	vargus	0		S	sg g
pealt	pea	lt		S	sg abl
     	pealt	0		D	
     	pealt	0		K	
kinni	kinni	0		D	
võtnud	võt	nud		V	nud
      	võt=nu	d		S	pl n
      	võt=nud	0		A	
      	võt=nud	0		A	sg n
      	võt=nud	d		A	pl n
ja	ja	0		J	
ka	ka	0		D	
Kubja	####				
Jüri	Jüri	0		H	sg g
    	Jüri	0		H	sg n
viimaks	vii	maks		V	maks
       	viimaks	0		D	
sinna	sinna	0		D	
juure	juur	0		S	sg g
tulnud	tul=nud	0		A	
      	tul=nud	0		A	sg n
      	tul=nud	d		A	pl n
      	tule	nud		V	nud
      	tulnu	d		S	pl n
.	.			Z	
Mats	Mats	0		H	sg n
    	mats	0		A	sg n
    	mats	0		S	sg n
Pären	####				
seletas	seleta	s		V	s
,	,			Z	
et	et	0		J	
tema	tema	0		P	sg g
    	tema	0		P	sg n
tee	tee	0		S	sg g
   	tege	0		V	o
   	tee	0		S	sg n
kõrva	kõrv	0		S	adt
     	kõrv	0		S	sg g
     	kõrv	0		S	sg p
sittalle	####				
läinud	läinu	d		S	pl n
      	läinud	0		A	
      	läinud	0		A	sg n
      	läinud	d		A	pl n
      	mine	nud		V	nud
ja	ja	0		J	
kui	kui	0		D	
   	kui	0		J	
tema	tema	0		P	sg g
    	tema	0		P	sg n
oma	oma	0		A	sg g
   	oma	0		D	
   	oma	0		P	sg g
   	oma	0		S	sg g
   	oma	0		V	o
   	oma	0		A	sg n
   	oma	0		A	sg p
   	oma	0		P	sg n
   	oma	0		P	sg p
   	oma	0		S	sg n
   	oma	0		S	sg p
vankri	vanker	0		S	sg g
kõrva	kõrv	0		S	adt
     	kõrv	0		S	sg g
     	kõrv	0		S	sg p
tagasi	tagasi	0		D	
      	tagasi	0		K	
tulnud	tul=nud	0		A	
      	tul=nud	0		A	sg n
      	tul=nud	d		A	pl n
      	tule	nud		V	nud
      	tulnu	d		S	pl n
,	,			Z	
tulnud	tul=nud	0		A	
      	tul=nud	0		A	sg n
      	tul=nud	d		A	pl n
      	tule	nud		V	nud
      	tulnu	d		S	pl n
kassakas	####				
tema	tema	0		P	sg g
    	tema	0		P	sg n
juure	juur	0		S	sg g
ja	ja	0		J	
haknanud	####				
teda	tema	da		P	sg p
kimbutama	kimbuta	ma		V	ma
.	.			Z	
Kubja	####				
Jüri	Jüri	0		H	sg g
    	Jüri	0		H	sg n
seletas	seleta	s		V	s
,	,			Z	
et	et	0		J	
mees	mees	0		S	sg n
    	mesi	s		S	sg in
tema	tema	0		P	sg g
    	tema	0		P	sg n
ees	ees	0		D	
   	ees	0		K	
   	esi	s		S	sg in
,	,			Z	
kui	kui	0		D	
   	kui	0		J	
tema	tema	0		P	sg g
    	tema	0		P	sg n
juure	juur	0		S	sg g
tulnud	tul=nud	0		A	
      	tul=nud	0		A	sg n
      	tul=nud	d		A	pl n
      	tule	nud		V	nud
      	tulnu	d		S	pl n
jälle	jälle	0		D	
sittalle	####				
teist	sina	st		P	pl el
     	tee	ist		S	pl el
     	teist	0		D	
     	teine	t		O	sg p
     	teine	t		P	sg p
kord	kord	0		D	
    	kord	0		S	sg n
kükitanud	kükita	nud		V	nud
         	kükita=nu	d		S	pl n
         	kükita=nud	0		A	
         	kükita=nud	0		A	sg n
         	kükita=nud	d		A	pl n
.	.			Z	
mõisteti	mõist	ti		V	ti
:	:			Z	
Mats	Mats	0		H	sg n
    	mats	0		A	sg n
    	mats	0		S	sg n
Pären	####				
,	,			Z	
kes	kes	0		P	pl n
   	kes	0		P	sg n
väljalt	väli	lt		S	sg abl
püüdnud	püüd	nud		V	nud
       	püüd=nu	d		S	pl n
       	püüd=nud	0		A	
       	püüd=nud	0		A	sg n
       	püüd=nud	d		A	pl n
varastada	varasta	da		V	da
saab	saa	b		V	b
karistuseks	karistus	ks		S	sg tr
30	30	0		N	?
hoopi	hoop	0		S	adt
     	hoop	0		S	sg p
vitsu	vits	u		S	pl p
,	,			Z	
ehk	ehk	0		D	
   	ehk	0		J	
maksab	maks	b		V	b
seda	see	da		P	sg p
väärt	väärt	0		A	
     	väärt	0		D	
raha	raha	0		S	sg g
    	raha	0		S	sg n
    	raha	0		S	sg p
.	.			Z	
