pärast	pära	st		S	sg el
      	pärane	t		A	sg p
      	pärast	0		D	
      	pärast	0		K	
seda	see	da		P	sg p
,	,			Z	
kui	kui	0		D	
   	kui	0		J	
Kroonu	kroonu	0		S	sg g
      	kroonu	0		S	sg n
Kõo	Kõo	0		H	sg g
   	Kõo	0		H	sg n
ja	ja	0		J	
Arusaare	aru_saar	0		S	sg g
kogukonnakohtu	kogukonna_kohus	0		S	sg g
maja	maja	0		S	sg g
    	maja	0		S	sg n
    	maja	0		S	sg p
suvel	suvi	l		S	sg ad
mõetmaja	####				
kohtu	kohtu	0		V	o
     	kohus	0		S	sg g
härra	härra	0		S	sg g
     	härra	0		S	sg n
von	####				
servaldi	####				
poolest	pool	st		N	sg el
       	pool	st		S	sg el
       	poolene	t		A	sg p
       	poolest	0		K	
kätte	kätte	0		K	
     	käsi	tte		S	adt
näidatud	näita	tud		V	tud
        	näida=tu	d		S	pl n
        	näida=tud	0		A	
        	näida=tud	0		A	sg n
        	näida=tud	d		A	pl n
ja	ja	0		J	
antud	an=tu	d		S	pl n
     	and	tud		V	tud
     	antud	0		A	
     	antud	0		A	sg n
     	antud	d		A	pl n
mõisa	mõis	0		S	sg g
Ma	mina	0		P	sg n
peal	pea	l		S	sg ad
    	peal	0		D	
    	peal	0		K	
,	,			Z	
nimetatud	nimeta	tud		V	tud
         	nimetatu	d		S	pl n
         	nimetatud	0		A	
         	nimetatud	0		A	sg n
         	nimetatud	d		A	pl n
Kiriku	kirik	0		S	sg g
aja	aeg	0		S	sg g
   	aja	0		V	o
põld	põld	0		S	sg n
,	,			Z	
vastu	vastu	0		D	
     	vastu	0		K	
Arusaare	aru_saar	0		S	sg g
rada	rada	0		S	sg n
    	rada	0		S	sg p
Maantee	maan_tee	0		S	sg g
       	maan_tee	0		S	sg n
ääres	äär	s		S	sg in
     	ääres	0		K	
valmis	valm	s		S	sg in
      	valmi	s		V	s
      	valmis	0		A	
      	valmis	0		A	sg n
      	valmis	0		D	
      	valmis	s		A	sg in
ehitud	ehti	tud		V	tud
      	ehi=tu	d		S	pl n
      	ehitu	d		V	d
      	ehitud	0		A	
      	ehitud	0		A	sg n
      	ehitud	d		A	pl n
ja	ja	0		J	
kirjutaja	kirjutaja	0		S	sg g
         	kirjutaja	0		S	sg n
ka	ka	0		D	
varsti	varsti	0		D	
sisse	siss	e		S	pl p
     	sisse	0		D	
     	sisse	0		K	
elama	ela	ma		V	ma
lähäb	####				
,	,			Z	
nõnda	nõnda	0		D	
peavad	pida	vad		V	vad
kõik	kõik	0		P	pl n
    	kõik	0		S	sg n
    	kõik	0		P	sg n
kohtu	kohtu	0		V	o
     	kohus	0		S	sg g
päevad	päev	d		S	pl n
,	,			Z	
nekruti	nekrut	0		S	sg g
lositamise	####				
ja	ja	0		J	
magasi	magas	0		S	sg g
päevad	päev	d		S	pl n
,	,			Z	
kui	kui	0		D	
   	kui	0		J	
ka	ka	0		D	
valla	vald	0		S	sg g
     	valla	0		D	
kogud	kogu	d		S	pl n
     	kogu	d		V	d
/	/			Z	
:	:			Z	
Gamidevinersamlungen	####				
:	:			Z	
/	/			Z	
seal	seal	0		D	
    	siga	l		A	sg ad
    	siga	l		S	sg ad
samas	sama	s		P	sg in
     	samas	0		D	
majas	maja	s		S	sg in
ära	ära	0		D	
   	ära	0		V	neg o
peetud	peetu	d		S	pl n
      	peetu	d		V	d
      	peetud	0		A	
      	peetud	0		A	sg n
      	peetud	d		A	pl n
      	pida	tud		V	tud
saama	saa	ma		V	ma
     	saam	0		S	adt
     	saam	0		S	sg g
     	saam	0		S	sg p
,	,			Z	
kus	kus	0		D	
tihti	tihti	0		D	
kaks	kaks	0		N	sg n
kuni	kuni	0		J	
    	kuni	0		K	
kolmsada	kolm_sada	0		N	sg n
inimest	inimene	t		S	sg p
ja	ja	0		J	
enam	enam	0		C	sg n
    	enam	0		D	
hobustega	hobune	tega		S	pl kom
ja	ja	0		J	
jala	jalg	0		S	sg g
    	jala	0		D	
kokku	kokku	0		D	
     	kogu	0		S	adt
tulevat	tule	vat		V	vat
       	tulev	t		A	sg p
.	.			Z	
et	et	0		J	
nüüd	nüüd	0		D	
valla	vald	0		S	sg g
     	valla	0		D	
Maja	maja	0		S	sg g
    	maja	0		S	sg n
    	maja	0		S	sg p
juures	juur	s		S	sg in
      	juures	0		D	
      	juures	0		K	
kedagit	####				
muud	muu	d		P	pl n
    	muu	d		S	pl n
    	muu	d		V	d
    	muu	d		P	sg p
    	muu	d		S	sg p
kõrvalist	kõrvaline	t		A	sg p
maja	maja	0		S	sg g
    	maja	0		S	sg n
    	maja	0		S	sg p
ei	ei	0		D	
  	ei	0		V	neg
ole	ole	0		V	o
,	,			Z	
kohu	kohu	0		V	o
need	see	d		P	pl n
palju	palju	0		D	
     	palju	0		P	sg g
     	palju	0		P	sg n
inimesed	inimene	d		S	pl n
vihma	vihm	0		S	adt
     	vihm	0		S	sg g
     	vihm	0		S	sg p
ehk	ehk	0		D	
   	ehk	0		J	
lume	lumi	0		S	sg g
sauga	####				
ehk	ehk	0		D	
   	ehk	0		J	
sandi	sant	0		A	sg g
     	sant	0		S	sg g
     	santi	0		V	o
ilmadega	ilm	dega		S	pl kom
võiks	või	ks		S	sg tr
     	või	ks		V	ks
ule	####				
alla	alla	0		D	
    	alla	0		K	
mina	mina	0		P	sg n
    	mina	0		S	sg g
    	mina	0		S	sg n
    	mina	0		S	sg p
,	,			Z	
nõnda	nõnda	0		D	
on	ole	0		V	b
  	ole	0		V	vad
väga	väga	0		D	
tarvis	tarvis	0		D	
      	tarvis	0		K	
,	,			Z	
et	et	0		J	
selle	see	0		P	sg g
     	sell	e		S	pl p
valla	vald	0		S	sg g
     	valla	0		D	
maja	maja	0		S	sg g
    	maja	0		S	sg n
    	maja	0		S	sg p
juure	juur	0		S	sg g
üks	üks	0		N	sg n
   	üks	0		P	sg n
kõrts	kõrts	0		S	sg n
hoovidega	hoov	dega		S	pl kom
saab	saa	b		V	b
ehitud	ehti	tud		V	tud
      	ehi=tu	d		S	pl n
      	ehitu	d		V	d
      	ehitud	0		A	
      	ehitud	0		A	sg n
      	ehitud	d		A	pl n
,	,			Z	
kuhu	kuhu	0		D	
inimesed	inimene	d		S	pl n
ja	ja	0		J	
nende	see	de		P	pl g
     	tema	de		P	pl g
hobused	hobune	d		S	pl n
ule	####				
alust	alg	st		S	sg el
     	alune	t		A	sg p
     	alune	t		S	sg p
     	alus	t		S	sg p
võivad	või	vad		V	vad
      	võiv	d		A	pl n
saada	saa	da		V	da
     	saat	0		V	o
     	saa	da		V	ta
.	.			Z	
seda	see	da		P	sg p
mööda	mööda	0		A	
     	mööda	0		D	
     	mööda	0		K	
palub	palu	b		V	b
vald	vald	0		S	sg n
oma	oma	0		A	sg g
   	oma	0		D	
   	oma	0		P	sg g
   	oma	0		S	sg g
   	oma	0		V	o
   	oma	0		A	sg n
   	oma	0		A	sg p
   	oma	0		P	sg n
   	oma	0		P	sg p
   	oma	0		S	sg n
   	oma	0		S	sg p
vallavanema	valla_vanem	0		S	sg g
ja	ja	0		J	
nõudmiste	nõudmine	te		S	pl g
läbi	läbi	0		D	
    	läbi	0		K	
    	läbi	0		V	o
Keiserliku	keiserlik	0		A	sg g
Kroonu	kroonu	0		S	sg g
      	kroonu	0		S	sg n
mõisasse	mõis	sse		S	sg ill
valitsust	valitsus	t		S	sg p
,	,			Z	
/	/			Z	
:	:			Z	
Tortschep	####				
Birksez	####				
vervaltung	####				
:	:			Z	
/	/			Z	
se	####				
läbi	läbi	0		D	
    	läbi	0		K	
    	läbi	0		V	o
väga	väga	0		D	
alanudlikult	####				
,	,			Z	
seda	see	da		P	sg p
lubada	luba	da		V	da
,	,			Z	
et	et	0		J	
vald	vald	0		S	sg n
oma	oma	0		A	sg g
   	oma	0		D	
   	oma	0		P	sg g
   	oma	0		S	sg g
   	oma	0		V	o
   	oma	0		A	sg n
   	oma	0		A	sg p
   	oma	0		P	sg n
   	oma	0		P	sg p
   	oma	0		S	sg n
   	oma	0		S	sg p
valla	vald	0		S	sg g
     	valla	0		D	
kohtu	kohtu	0		V	o
     	kohus	0		S	sg g
maja	maja	0		S	sg g
    	maja	0		S	sg n
    	maja	0		S	sg p
juure	juur	0		S	sg g
üks	üks	0		N	sg n
   	üks	0		P	sg n
kõrts	kõrts	0		S	sg n
hoovidega	hoov	dega		S	pl kom
ehitada	ehita	da		V	da
võib	või	b		V	b
.	.			Z	
peakohtumees	pea_kohtu_mees	0		S	sg n
:	:			Z	
Jaak	Jaak	0		H	sg n
    	jaak	0		S	sg n
Kukmann	####				
vallavanem	valla_vanem	0		S	sg n
:	:			Z	
Rein	Rein	0		H	sg n
Kõp	####				
vallavanema	valla_vanem	0		S	sg g
abi	abi	0		S	sg g
   	abi	0		S	sg n
   	abi	0		S	sg p
Jüri	Jüri	0		H	sg g
    	Jüri	0		H	sg n
Sarits	####				
kohtumees	kohtu_mees	0		S	sg n
:	:			Z	
Tõnis	Tõnis	0		H	sg n
Uusna	####				
None	####				
abi	abi	0		S	sg g
   	abi	0		S	sg n
   	abi	0		S	sg p
:	:			Z	
Jüri	Jüri	0		H	sg g
    	Jüri	0		H	sg n
Kalm	kalm	0		S	sg n
nõumehed	nõu_mees	d		S	pl n
:	:			Z	
Andres	Andre	s		H	sg in
      	Andres	0		H	sg n
Konks	konks	0		S	sg n
.	.			Z	
XXX	XXX	0		O	?
   	XXX	0		Y	?
Jüri	Jüri	0		H	sg g
    	Jüri	0		H	sg n
Rätsepsaun	rätsep_saun	0		S	sg n
XXX	XXX	0		O	?
   	XXX	0		Y	?
Mart	Mart	0		H	sg n
    	mart	0		S	sg n
Seil	####				
.	.			Z	
XXX	XXX	0		O	?
   	XXX	0		Y	?
Joosep	Joosep	0		H	sg n
olreiib	####				
XXX	XXX	0		O	?
   	XXX	0		Y	?
Jaak	Jaak	0		H	sg n
    	jaak	0		S	sg n
Saar	saar	0		S	sg n
XXX	XXX	0		O	?
   	XXX	0		Y	?
Ado	Ado	0		H	sg g
   	Ado	0		H	sg n
Reii	####				
.	.			Z	
XXX	XXX	0		O	?
   	XXX	0		Y	?
Mart	Mart	0		H	sg n
    	mart	0		S	sg n
Anu	Anu	0		H	sg g
   	anu	0		V	o
   	Anu	0		H	sg n
.	.			Z	
XXX	XXX	0		O	?
   	XXX	0		Y	?
Abndrej	####				
Kraskisoov	####				
