siin	siin	0		D	
    	siin	0		S	sg n
protokoliss	####				
13	13	0		N	?
Septembris	september	s		S	sg in
a	a	0		Y	?
.........	.........			Z	
Nr.	Nr	0		Y	?
11	11	0		N	?
seisva	seisev	0		A	sg g
siit	siit	0		D	
poolne	poolne	0		A	sg n
      	poolne	0		V	o
otsese	otsene	0		A	sg g
andmise	andmine	0		S	sg g
Rits	####				
Oru	org	0		S	sg g
konkursi	konkurss	0		S	sg g
protsessis	protsess	s		S	sg in
          	protsessi	s		V	s
sai	saa	i		V	s
   	sai	0		S	sg n
tänasel	tänane	l		A	sg ad
päeval	päev	l		S	sg ad
kuulata	kuula	ta		V	da
       	kuulata	0		V	o
       	kuula	ta		V	ta
:	:			Z	
Endise	endine	0		A	sg g
Paison	####				
valla	vald	0		S	sg g
     	valla	0		D	
vanema	vanem	0		C	sg g
      	vanem	0		S	sg g
Kusta	Kusta	0		H	sg g
     	Kusta	0		H	sg n
     	kuse	ta		V	da
     	kuse	ta		V	ta
Ermannile	####				
sees	sees	0		D	
    	sees	0		K	
sellega	see	ga		P	sg kom
rahale	raha	le		S	sg all
ei	ei	0		D	
  	ei	0		V	neg
jäänud	jää	nud		V	nud
      	jäänu	d		S	pl n
      	jäänud	0		A	
      	jäänud	0		A	sg n
      	jäänud	d		A	pl n
ning	ning	0		J	
Appelatiooni	####				
palus	palu	s		S	sg in
     	palu	s		V	s
,	,			Z	
sellepärast	selle_pärast	0		D	
et	et	0		J	
ta	tema	0		P	sg g
  	tema	0		P	sg n
ei	ei	0		D	
  	ei	0		V	neg
olla	ole	a		V	da
laeka	laegas	0		S	adt
     	laegas	0		S	sg g
ja	ja	0		J	
magasi	magas	0		S	sg g
aida	ait	0		S	sg g
juba	juba	0		D	
Jaanuari	jaanuar	0		S	adt
        	jaanuar	0		S	sg g
        	jaanuar	0		S	sg p
kuul	kuu	l		S	sg ad
    	kuul	0		S	sg n
1877	1877	0		N	?
Rits	####				
Oru	org	0		S	sg g
kätte	kätte	0		K	
     	käsi	tte		S	adt
annud	####				
on	ole	0		V	b
  	ole	0		V	vad
.	.			Z	
Appelatioon	####				
sai	saa	i		V	s
   	sai	0		S	sg n
temale	tema	le		P	sg all
seal	seal	0		D	
    	siga	l		A	sg ad
    	siga	l		S	sg ad
lubatud	luba	tud		V	tud
       	luba=tu	d		S	pl n
       	lubatu	d		A	pl n
       	lubatud	0		A	
       	lubatud	0		A	sg n
       	lubatud	d		A	pl n
.	.			Z	
Jaan	Jaan	0		H	sg n
    	jaan	0		S	sg n
    	jaan	0		Y	?
Mitt	Mitt	0		H	sg n
lubas	luba	s		V	s
rahule	rahu	le		S	sg all
      	rahule	0		D	
jääda	jää	da		V	da
     	jää	da		V	ta
hakatuses	hakatus	s		S	sg in
nimetatatud	####				
otsusega	otsus	ga		S	sg kom
13	13	0		N	?
Septembril	september	l		S	sg ad
.	.			Z	
Mats	Mats	0		H	sg n
    	mats	0		A	sg n
    	mats	0		S	sg n
needusmann	needus_mann	0		S	sg n
ja	ja	0		J	
Jüri	Jüri	0		H	sg g
    	Jüri	0		H	sg n
katua	####				
Aidust	####				
ütlevat	ütle	vat		V	vat
       	ütlev	t		A	sg p
et	et	0		J	
nad	tema	d		P	pl n
rahule	rahu	le		S	sg all
      	rahule	0		D	
jääda	jää	da		V	da
     	jää	da		V	ta
ei	ei	0		D	
  	ei	0		V	neg
võivad	või	vad		V	vad
      	võiv	d		A	pl n
ning	ning	0		J	
sai	saa	i		V	s
   	sai	0		S	sg n
neile	see	le		P	pl all
     	tema	le		P	pl all
Appelatioon	####				
lubatud	luba	tud		V	tud
       	luba=tu	d		S	pl n
       	lubatu	d		A	pl n
       	lubatud	0		A	
       	lubatud	0		A	sg n
       	lubatud	d		A	pl n
.	.			Z	
Jaan	Jaan	0		H	sg n
    	jaan	0		S	sg n
    	jaan	0		Y	?
Peet	Peet	0		H	sg n
    	peet	0		S	sg n
ja	ja	0		J	
Peeter	Peeter	0		H	sg n
Rosenberg	Rosenberg	0		H	sg n
ei	ei	0		D	
  	ei	0		V	neg
hoole	hoog	le		S	sg all
     	hool	0		S	sg g
     	hoole	0		S	sg n
täna	täna	0		D	
    	täna	0		V	o
ette	ette	0		D	
    	ette	0		K	
    	esi	tte		S	adt
tulnud	tul=nud	0		A	
      	tul=nud	0		A	sg n
      	tul=nud	d		A	pl n
      	tule	nud		V	nud
      	tulnu	d		S	pl n
sellepärast	selle_pärast	0		D	
Mõisteti	mõist	ti		V	ti
:	:			Z	
neid	neid	0		S	sg n
    	see	d		P	pl p
    	tema	d		P	pl p
kahte	kaks	0		N	adt
     	kaks	0		N	sg p
meest	meene	t		A	sg p
     	mees	t		S	sg p
     	mesi	st		S	sg el
sub	####				
poena	pood	na		S	sg es
acrfelnutsioniks	####				
7	7	0		N	?
Septembril	september	l		S	sg ad
ette	ette	0		D	
    	ette	0		K	
    	esi	tte		S	adt
kutsuti	kutsu	ti		V	ti
otsuse	otsus	0		S	sg g
kuulmiseks	kuulmine	ks		S	sg tr
.	.			Z	
