posti	post	0		S	adt
     	post	0		S	sg g
     	post	0		S	sg p
peremees	pere_mees	0		S	sg n
Kustas	Kusta	s		H	sg in
      	Kustas	0		H	sg n
Gutmann	####				
rääkis	rääki	s		V	s
,	,			Z	
et	et	0		J	
tema	tema	0		P	sg g
    	tema	0		P	sg n
poolemees	poole_mees	0		S	sg n
Johan	Johan	0		H	sg n
kuul	kuu	l		S	sg ad
    	kuul	0		S	sg n
oleva	olev	0		A	sg g
     	olev	0		S	sg g
tema	tema	0		P	sg g
    	tema	0		P	sg n
naist	naine	t		S	sg p
peksnud	peks	nud		V	nud
       	peks=nu	d		S	pl n
       	peks=nud	0		A	
       	peks=nud	0		A	sg n
       	peks=nud	d		A	pl n
sellepärast	selle_pärast	0		D	
,	,			Z	
et	et	0		J	
tema	tema	0		P	sg g
    	tema	0		P	sg n
oleva	olev	0		A	sg g
     	olev	0		S	sg g
oma	oma	0		A	sg g
   	oma	0		D	
   	oma	0		P	sg g
   	oma	0		S	sg g
   	oma	0		V	o
   	oma	0		A	sg n
   	oma	0		A	sg p
   	oma	0		P	sg n
   	oma	0		P	sg p
   	oma	0		S	sg n
   	oma	0		S	sg p
last	laps	t		S	sg p
    	last	0		S	sg n
peksnud	peks	nud		V	nud
       	peks=nu	d		S	pl n
       	peks=nud	0		A	
       	peks=nud	0		A	sg n
       	peks=nud	d		A	pl n
.	.			Z	
Johann	Johann	0		H	sg n
kuul	kuu	l		S	sg ad
    	kuul	0		S	sg n
rääkis	rääki	s		V	s
,	,			Z	
et	et	0		J	
tema	tema	0		P	sg g
    	tema	0		P	sg n
ei	ei	0		D	
  	ei	0		V	neg
oleva	olev	0		A	sg g
     	olev	0		S	sg g
mitte	mitte	0		D	
Gustas	####				
Gutmanni	####				
naist	naine	t		S	sg p
peksnud	peks	nud		V	nud
       	peks=nu	d		S	pl n
       	peks=nud	0		A	
       	peks=nud	0		A	sg n
       	peks=nud	d		A	pl n
.	.			Z	
Mart	Mart	0		H	sg n
    	mart	0		S	sg n
Martjan	####				
rääkis	rääki	s		V	s
,	,			Z	
et	et	0		J	
Johann	Johann	0		H	sg n
kuul	kuu	l		S	sg ad
    	kuul	0		S	sg n
oleva	olev	0		A	sg g
     	olev	0		S	sg g
Gustas	####				
Gutmanni	####				
naist	naine	t		S	sg p
kaks	kaks	0		N	sg n
kord	kord	0		D	
    	kord	0		S	sg n
maha	maha	0		D	
viskanud	####				
mõisteti	mõist	ti		V	ti
et	et	0		J	
Johann	Johann	0		H	sg n
kuul	kuu	l		S	sg ad
    	kuul	0		S	sg n
peab	pida	b		V	b
2	2	0		N	?
rubla	rubla	0		S	sg g
     	rubla	0		S	sg n
     	rubla	0		S	sg p
trahvi	trahv	0		S	adt
      	trahv	0		S	sg g
      	trahvi	0		V	o
      	trahv	0		S	sg p
maksma	maks	ma		V	ma
valla	vald	0		S	sg g
     	valla	0		D	
laadiku	laadik	0		S	sg g
.	.			Z	
