kaebas	kaeba	s		V	s
vana	vana	0		A	sg g
    	vana	0		A	sg n
    	vana	0		A	sg p
    	vana	0		S	sg g
    	vana	0		S	sg n
    	vana	0		S	sg p
Põltsama	####				
mees	mees	0		S	sg n
    	mesi	s		S	sg in
Künapi	####				
Jooseph	####				
et	et	0		J	
temal	tema	l		P	sg ad
on	ole	0		V	b
  	ole	0		V	vad
Tallina	tall	na		S	sg es
tee	tee	0		S	sg g
   	tege	0		V	o
   	tee	0		S	sg n
peale	pea	le		S	sg all
     	peale	0		D	
     	peale	0		K	
15	15	0		N	?
rbl	rbl	0		Y	?
60	60	0		N	?
kop	kop	0		Y	?
.	.			Z	
hõb	####				
.	.			Z	
varasdetu	####				
ja	ja	0		J	
arvab	arva	b		V	b
et	et	0		J	
se	####				
raha	raha	0		S	sg g
    	raha	0		S	sg n
    	raha	0		S	sg p
on	ole	0		V	b
  	ole	0		V	vad
selle	see	0		P	sg g
     	sell	e		S	pl p
valla	vald	0		S	sg g
     	valla	0		D	
poisi	poiss	0		S	sg g
Jaan	Jaan	0		H	sg n
    	jaan	0		S	sg n
    	jaan	0		Y	?
Reimanni	####				
käes	käes	0		K	
    	käsi	s		S	sg in
,	,			Z	
palub	palu	b		V	b
vaja	vaja	0		D	
    	vaja	0		V	o
et	et	0		J	
kohus	kohu	s		V	s
     	kohus	0		S	sg n
seda	see	da		P	sg p
raha	raha	0		S	sg g
    	raha	0		S	sg n
    	raha	0		S	sg p
välja	välja	0		D	
     	välja	0		V	o
     	väli	0		S	adt
     	väli	0		S	sg g
     	väli	0		S	sg p
nõuaks	nõud	ks		V	ks
,	,			Z	
tunnistust	tunnistus	t		S	sg p
muid	muu	id		P	pl p
ei	ei	0		D	
  	ei	0		V	neg
ole	ole	0		V	o
kui	kui	0		D	
   	kui	0		J	
aga	aga	0		J	
se	####				
,	,			Z	
et	et	0		J	
on	ole	0		V	b
  	ole	0		V	vad
oma	oma	0		A	sg g
   	oma	0		D	
   	oma	0		P	sg g
   	oma	0		S	sg g
   	oma	0		V	o
   	oma	0		A	sg n
   	oma	0		A	sg p
   	oma	0		P	sg n
   	oma	0		P	sg p
   	oma	0		S	sg n
   	oma	0		S	sg p
piibuga	piip	ga		S	sg kom
selle	see	0		P	sg g
     	sell	e		S	pl p
poisi	poiss	0		S	sg g
käes	käes	0		K	
    	käsi	s		S	sg in
leidnud	leid	nud		V	nud
       	leid=nu	d		S	pl n
       	leid=nud	0		A	
       	leid=nud	0		A	sg n
       	leid=nud	d		A	pl n
,	,			Z	
ja	ja	0		J	
tunnistab	tunnista	b		V	b
ka	ka	0		D	
Jacob	Jacob	0		H	sg n
Juurikas	juurikas	0		S	sg n
        	juurikas	s		S	sg in
et	et	0		J	
se	####				
pois	poi	s		S	sg in
Jaak	Jaak	0		H	sg n
    	jaak	0		S	sg n
Reimann	####				
on	ole	0		V	b
  	ole	0		V	vad
kõrtsis	kõrts	s		S	sg in
suurustanu	suurusta=nu	0		S	sg g
          	suurusta=nu	0		S	sg n
oma	oma	0		A	sg g
   	oma	0		D	
   	oma	0		P	sg g
   	oma	0		S	sg g
   	oma	0		V	o
   	oma	0		A	sg n
   	oma	0		A	sg p
   	oma	0		P	sg n
   	oma	0		P	sg p
   	oma	0		S	sg n
   	oma	0		S	sg p
rahaga	raha	ga		S	sg kom
ja	ja	0		J	
ei	ei	0		D	
  	ei	0		V	neg
ole	ole	0		V	o
seda	see	da		P	sg p
raha	raha	0		S	sg g
    	raha	0		S	sg n
    	raha	0		S	sg p
tundnu	tund=nu	0		S	sg g
      	tund=nu	0		S	sg n
.	.			Z	
vastutab	vastuta	b		V	b
Jaak	Jaak	0		H	sg n
    	jaak	0		S	sg n
Reimann	####				
et	et	0		J	
on	ole	0		V	b
  	ole	0		V	vad
küll	küll	0		D	
    	küll	0		S	sg n
seda	see	da		P	sg p
raha	raha	0		S	sg g
    	raha	0		S	sg n
    	raha	0		S	sg p
varastanud	varasta	nud		V	nud
          	varasta=nu	d		S	pl n
          	varasta=nud	0		A	
          	varasta=nud	0		A	sg n
          	varasta=nud	d		A	pl n
aga	aga	0		J	
arvab	arva	b		V	b
et	et	0		J	
seda	see	da		P	sg p
raha	raha	0		S	sg g
    	raha	0		S	sg n
    	raha	0		S	sg p
ni	####				
palju	palju	0		D	
     	palju	0		P	sg g
     	palju	0		P	sg n
ei	ei	0		D	
  	ei	0		V	neg
olnud	ol=nud	0		A	
     	ol=nud	0		A	sg n
     	ol=nud	d		A	pl n
     	ole	nud		V	nud
     	olnu	d		S	pl n
.	.			Z	
kohus	kohu	s		V	s
     	kohus	0		S	sg n
on	ole	0		V	b
  	ole	0		V	vad
mõistnu	mõist=nu	0		S	sg g
       	mõist=nu	0		S	sg n
et	et	0		J	
Jaak	Jaak	0		H	sg n
    	jaak	0		S	sg n
Reimann	####				
peab	pida	b		V	b
seda	see	da		P	sg p
raha	raha	0		S	sg g
    	raha	0		S	sg n
    	raha	0		S	sg p
kätte	kätte	0		K	
     	käsi	tte		S	adt
maksma	maks	ma		V	ma
,	,			Z	
ja	ja	0		J	
saab	saa	b		V	b
30	30	0		N	?
vitsa	vits	0		S	adt
     	vits	0		S	sg g
     	vits	0		S	sg p
löögi	löö	0	gi	V	o
     	löök	0		S	sg g
.	.			Z	
on	ole	0		V	b
  	ole	0		V	vad
5	5	0		N	?
rbl	rbl	0		Y	?
60	60	0		N	?
kop	kop	0		Y	?
ära	ära	0		D	
   	ära	0		V	neg o
makstud	maks	tud		V	tud
       	maks=tu	d		S	pl n
       	maks=tud	0		A	
       	maks=tud	0		A	sg n
       	maks=tud	d		A	pl n
.	.			Z	
sel	see	l		P	sg ad
   	sel	0		Y	?
24	24	0		N	?
Septembril	september	l		S	sg ad
on	ole	0		V	b
  	ole	0		V	vad
Trausi	####				
Hans	Hans	0		H	sg n
maksnud	maks	nud		V	nud
       	maks=nu	d		S	pl n
       	maks=nud	0		A	
       	maks=nud	0		A	sg n
       	maks=nud	d		A	pl n
10	10	0		N	?
rbl	rbl	0		Y	?
hõb	####				
.	.			Z	
ning	ning	0		J	
on	ole	0		V	b
  	ole	0		V	vad
se	####				
raha	raha	0		S	sg g
    	raha	0		S	sg n
    	raha	0		S	sg p
tasa	tasa	0		D	
.	.			Z	
