see	see	0		P	sg n
metsa	mets	0		S	adt
     	mets	0		S	sg g
     	mets	0		S	sg p
kevad	kevad	0		S	sg n
kaebas	kaeba	s		V	s
,	,			Z	
et	et	0		J	
need	see	d		P	pl n
sulased	sulane	d		S	pl n
Hans	Hans	0		H	sg n
Männiku	männik	0		S	sg g
talust	talu	st		S	sg el
Märt	Märt	0		H	sg n
,	,			Z	
ning	ning	0		J	
Jaan	Jaan	0		H	sg n
    	jaan	0		S	sg n
    	jaan	0		Y	?
on	ole	0		V	b
  	ole	0		V	vad
10	10	0		N	?
unab	####				
aga	aga	0		J	
metsast	mets	st		S	sg el
       	metsane	t		A	sg p
varrastanud	varrasta	nud		V	nud
           	varrasta=nu	d		S	pl n
           	varrasta=nud	0		A	
           	varrasta=nud	0		A	sg n
           	varrasta=nud	d		A	pl n
,	,			Z	
mis	mis	0		P	pl n
   	mis	0		P	sg n
need	see	d		P	pl n
mõlemvat	####				
ka	ka	0		D	
sisse	siss	e		S	pl p
     	sisse	0		D	
     	sisse	0		K	
tunnistasivad	tunni+st_asi=v	d		A	pl n
.	.			Z	
sai	saa	i		V	s
   	sai	0		S	sg n
mõistetud	mõist	tud		V	tud
         	mõiste=tu	d		S	pl n
         	mõiste=tud	0		A	
         	mõiste=tud	0		A	sg n
         	mõiste=tud	d		A	pl n
:	:			Z	
et	et	0		J	
see	see	0		P	sg n
sulane	sulane	0		S	sg n
      	sulane	0		V	o
Märt	Märt	0		H	sg n
50	50	0		N	?
rubl	####				
ning	ning	0		J	
Jaan	Jaan	0		H	sg n
    	jaan	0		S	sg n
    	jaan	0		Y	?
rubl	####				
raha	raha	0		S	sg g
    	raha	0		S	sg n
    	raha	0		S	sg p
truuv	####				
massaavad	####				
,	,			Z	
ning	ning	0		J	
mõlemvat	####				
15	15	0		N	?
keppi	kepp	0		S	adt
     	kepp	0		S	sg p
voori	voor	0		S	adt
     	voor	0		S	sg g
     	voor	i		S	pl p
     	voori	0		V	o
     	voor	0		S	sg p
sead	sead	d		V	d
    	siga	d		A	pl n
    	siga	d		S	pl n
_	_			Z	
ning	ning	0		J	
sell	sell	0		S	sg n
19ndal	19=s	l		O	sg ad
sell	sell	0		S	sg n
kuu	kuu	0		S	sg g
   	kuu	0		S	sg n
päevanud	####				
bjavad	####				
see	see	0		P	sg n
raha	raha	0		S	sg g
    	raha	0		S	sg n
    	raha	0		S	sg p
sisse	siss	e		S	pl p
     	sisse	0		D	
     	sisse	0		K	
massetud	####				
saama	saa	ma		V	ma
     	saam	0		S	adt
     	saam	0		S	sg g
     	saam	0		S	sg p
.	.			Z	
_	_			Z	
