Kaarel	Kaarel	0		H	sg n
      	kaar	l		S	sg ad
      	kaarel	0		S	sg n
Barot	####				
läks	mine	s		V	s
Ninnigali	####				
mehe	mees	0		S	sg g
Peter	Peter	0		H	sg n
Ojasse	oja	sse		S	sg ill
eest	eest	0		D	
    	eest	0		K	
    	esi	st		S	sg el
nekrudiks	####				
,	,			Z	
_	_			Z	
420	420	0		N	?
rubla	rubla	0		S	sg g
     	rubla	0		S	sg n
     	rubla	0		S	sg p
eest	eest	0		D	
    	eest	0		K	
    	esi	st		S	sg el
.	.			Z	
sellest	see	st		P	sg el
rahast	raha	st		S	sg el
maksis	maks	is		V	s
      	maksi	s		S	sg in
50	50	0		N	?
rubla	rubla	0		S	sg g
     	rubla	0		S	sg n
     	rubla	0		S	sg p
hõb	####				
.	.			Z	
vallamaksudest	valla_maks	dest		S	pl el
sisse	siss	e		S	pl p
     	sisse	0		D	
     	sisse	0		K	
.	.			Z	
_	_			Z	
10	10	0		N	?
ru	####				
hõb	####				
.	.			Z	
maksab	maks	b		V	b
Kaarel	Kaarel	0		H	sg n
      	kaar	l		S	sg ad
      	kaarel	0		S	sg n
ise	ise	0		A	
   	ise	0		D	
   	ise	0		P	pl n
   	ise	0		P	sg n
,	,			Z	
mis	mis	0		P	pl n
   	mis	0		P	sg n
kroooonu	####				
maksu	maks	0		S	adt
     	maks	0		S	sg g
     	maks	u		S	pl p
     	maks	0		S	sg p
oma	oma	0		A	sg g
   	oma	0		D	
   	oma	0		P	sg g
   	oma	0		S	sg g
   	oma	0		V	o
   	oma	0		A	sg n
   	oma	0		A	sg p
   	oma	0		P	sg n
   	oma	0		P	sg p
   	oma	0		S	sg n
   	oma	0		S	sg p
.	.			Z	
