metsavaht	metsa_vaht	0		S	sg n
Jaan	Jaan	0		H	sg n
    	jaan	0		S	sg n
    	jaan	0		Y	?
Linde	lind	e		S	pl p
     	linne	0		S	sg g
astus	astu	s		V	s
kogukonna	kogukond	0		S	sg g
kohtu	kohtu	0		V	o
     	kohus	0		S	sg g
ette	ette	0		D	
    	ette	0		K	
    	esi	tte		S	adt
ja	ja	0		J	
andis	and	is		V	s
üles	üles	0		D	
,	,			Z	
et	et	0		J	
temal	tema	l		P	sg ad
15	15	0		N	?
rubla	rubla	0		S	sg g
     	rubla	0		S	sg n
     	rubla	0		S	sg p
selget	selge	t		A	sg p
raha	raha	0		S	sg g
    	raha	0		S	sg n
    	raha	0		S	sg p
,	,			Z	
prisessori	####				
paberit	paber	t		S	sg p
200	200	0		N	?
rubla	rubla	0		S	sg g
     	rubla	0		S	sg n
     	rubla	0		S	sg p
,	,			Z	
1	1	0		N	?
paber	paber	0		S	sg n
lätima	####				
mõisnikkude	mõisnik	de		S	pl g
käest	käest	0		K	
     	käsi	st		S	sg el
saadud	saa	dud		V	tud
      	saadu	d		S	pl n
      	saadud	0		A	
      	saadud	0		A	sg n
      	saadud	d		A	pl n
,	,			Z	
enne	enne	0		D	
    	enne	0		K	
    	enne	0		S	sg n
80	80	0		N	?
rubla	rubla	0		S	sg g
     	rubla	0		S	sg n
     	rubla	0		S	sg p
peale	pea	le		S	sg all
     	peale	0		D	
     	peale	0		K	
löödud	löö	dud		V	tud
      	löödu	d		S	pl n
      	löödud	0		A	
      	löödud	0		A	sg n
      	löödud	d		A	pl n
,	,			Z	
iga	iga	0		P	sg g
   	iga	0		P	sg n
   	iga	0		P	sg p
   	iga	0		S	sg n
   	iga	0		S	sg p
aastased	aastane	d		A	pl n
intresid	####				
juure	juur	0		S	sg g
kasvanud	kasva	nud		V	nud
        	kasva=nu	d		S	pl n
        	kasva=nud	0		A	
        	kasva=nud	0		A	sg n
        	kasva=nud	d		A	pl n
,	,			Z	
kuni	kuni	0		J	
    	kuni	0		K	
nüüd	nüüd	0		D	
120	120	0		N	?
rubla	rubla	0		S	sg g
     	rubla	0		S	sg n
     	rubla	0		S	sg p
,	,			Z	
summa	summ	0		S	adt
     	summ	0		S	sg g
     	summ	0		S	sg p
     	summa	0		S	sg g
     	summa	0		S	sg n
335	335	0		N	?
rubla	rubla	0		S	sg g
     	rubla	0		S	sg n
     	rubla	0		S	sg p
äravarastatud	ära_varastatu	d		S	pl n
             	ära_varastatud	0		A	
             	ära_varastatud	0		A	sg n
             	ära_varastatud	d		A	pl n
,	,			Z	
ja	ja	0		J	
Jaan	Jaan	0		H	sg n
    	jaan	0		S	sg n
    	jaan	0		Y	?
Linde	lind	e		S	pl p
     	linne	0		S	sg g
arvab	arva	b		V	b
,	,			Z	
et	et	0		J	
Jaak	Jaak	0		H	sg n
    	jaak	0		S	sg n
Kask	kask	0		S	sg n
esiteks	esiteks	0		D	
seal	seal	0		D	
    	siga	l		A	sg ad
    	siga	l		S	sg ad
pool	pool	0		K	
    	pool	0		N	sg n
    	pool	0		S	sg n
küljes	külg	s		S	sg in
      	küljes	0		D	
      	küljes	0		K	
käinud	käi	nud		V	nud
      	käi=nud	0		A	
      	käi=nud	0		A	sg n
      	käi=nud	d		A	pl n
      	käinu	d		S	pl n
,	,			Z	
ja	ja	0		J	
ajal	aeg	l		S	sg ad
    	ajal	0		K	
tema	tema	0		P	sg g
    	tema	0		P	sg n
raha	raha	0		S	sg g
    	raha	0		S	sg n
    	raha	0		S	sg p
ärakadunud	ära_kadunu	d		S	pl n
          	ära_kadunud	0		A	
          	ära_kadunud	0		A	sg n
          	ära_kadunud	d		A	pl n
,	,			Z	
et	et	0		J	
Jaak	Jaak	0		H	sg n
    	jaak	0		S	sg n
Kask	kask	0		S	sg n
tema	tema	0		P	sg g
    	tema	0		P	sg n
raha	raha	0		S	sg g
    	raha	0		S	sg n
    	raha	0		S	sg p
on	ole	0		V	b
  	ole	0		V	vad
äravarastanud	ära_varasta=nu	d		S	pl n
             	ära_varasta=nud	0		A	
             	ära_varasta=nud	0		A	sg n
             	ära_varasta=nud	d		A	pl n
.	.			Z	
teiseks	teine	ks		O	sg tr
       	teine	ks		P	sg tr
       	teiseks	0		D	
et	et	0		J	
Jaak	Jaak	0		H	sg n
    	jaak	0		S	sg n
Kask	kask	0		S	sg n
kubjama	####				
Toomale	Toomas	le		H	sg all
ehk	ehk	0		D	
   	ehk	0		J	
pargile	park	le		S	sg all
lubanud	luba	nud		V	nud
       	luba=nu	d		S	pl n
       	luba=nud	0		A	
       	luba=nud	0		A	sg n
       	luba=nud	d		A	pl n
poole	pool	0		N	sg g
     	pool	0		S	sg g
     	pool	e		S	pl p
     	poole	0		K	
     	poole	0		S	sg n
päeva	päev	0		S	adt
     	päev	0		S	sg g
     	päev	0		S	sg p
aeg	aeg	0		S	sg n
lole	####				
mina	mina	0		P	sg n
    	mina	0		S	sg g
    	mina	0		S	sg n
    	mina	0		S	sg p
,	,			Z	
pole	ole	0		V	neg o
mitte	mitte	0		D	
läinud	läinu	d		S	pl n
      	läinud	0		A	
      	läinud	0		A	sg n
      	läinud	d		A	pl n
      	mine	nud		V	nud
lole	####				
,	,			Z	
vaid	vaid	0		D	
    	vaid	0		J	
Mülleri	Müller	0		H	sg g
juurest	juur	st		S	sg el
       	juurest	0		K	
Võhmast	Võhma	st		H	sg el
       	võhm	st		S	sg el
       	võhmas	st		S	sg el
       	võhmas	t		S	sg p
pani	pan	0		S	adt
    	pani	0		S	sg g
    	pane	i		V	s
    	pan	0		S	sg g
    	pan	0		S	sg p
    	pani	0		S	sg n
läinud	läinu	d		S	pl n
      	läinud	0		A	
      	läinud	0		A	sg n
      	läinud	d		A	pl n
      	mine	nud		V	nud
tooma	too	ma		V	ma
.	.			Z	
seal	seal	0		D	
    	siga	l		A	sg ad
    	siga	l		S	sg ad
küsinud	küsi	nud		V	nud
       	küsi=nu	d		S	pl n
       	küsi=nud	0		A	
       	küsi=nud	0		A	sg n
       	küsi=nud	d		A	pl n
Müller	Müller	0		H	sg n
tema	tema	0		P	sg g
    	tema	0		P	sg n
käest	käest	0		K	
     	käsi	st		S	sg el
,	,			Z	
kust	kusi	t		S	sg p
    	kust	0		D	
poolt	pool	t		N	sg p
     	pool	t		S	sg p
     	poolt	0		D	
     	poolt	0		K	
sinna	sinna	0		D	
Jaak	Jaak	0		H	sg n
    	jaak	0		S	sg n
tuled	tuli	d		S	pl n
     	tule	d		V	d
?	?			Z	
sellepeale	selle_peale	0		D	
ütelnud	ütle	nud		V	nud
       	ütel=nu	d		S	pl n
       	ütel=nud	0		A	
       	ütel=nud	0		A	sg n
       	ütel=nud	d		A	pl n
Jaak	Jaak	0		H	sg n
    	jaak	0		S	sg n
Kask	kask	0		S	sg n
Müllerile	Müller	le		H	sg all
,	,			Z	
et	et	0		J	
tema	tema	0		P	sg g
    	tema	0		P	sg n
käinud	käi	nud		V	nud
      	käi=nud	0		A	
      	käi=nud	0		A	sg n
      	käi=nud	d		A	pl n
      	käinu	d		S	pl n
vaatamas	vaata	mas		V	mas
,	,			Z	
kas	kas	0		D	
saab	saa	b		V	b
lugu	lugu	0		S	sg n
    	lugu	0		S	sg p
võtta	võt	a		V	da
,	,			Z	
aga	aga	0		J	
pole	ole	0		V	neg o
saanud	saa	nud		V	nud
      	saa=nud	0		A	
      	saa=nud	0		A	sg n
      	saa=nud	d		A	pl n
      	saanu	d		S	pl n
,	,			Z	
on	ole	0		V	b
  	ole	0		V	vad
poodi	poo	di		V	ti
     	pood	0		S	adt
     	pood	0		S	sg p
asja	asi	0		S	adt
    	asi	0		S	sg g
    	asi	0		S	sg p
olnud	ol=nud	0		A	
     	ol=nud	0		A	sg n
     	ol=nud	d		A	pl n
     	ole	nud		V	nud
     	olnu	d		S	pl n
ja	ja	0		J	
läinud	läinu	d		S	pl n
      	läinud	0		A	
      	läinud	0		A	sg n
      	läinud	d		A	pl n
      	mine	nud		V	nud
poodi	poo	di		V	ti
     	pood	0		S	adt
     	pood	0		S	sg p
.	.			Z	
esmaspäeva	esmas_päev	0		S	adt
          	esmas_päev	0		S	sg g
          	esmas_päev	0		S	sg p
on	ole	0		V	b
  	ole	0		V	vad
tema	tema	0		P	sg g
    	tema	0		P	sg n
seal	seal	0		D	
    	siga	l		A	sg ad
    	siga	l		S	sg ad
nõnda	nõnda	0		D	
käinud	käi	nud		V	nud
      	käi=nud	0		A	
      	käi=nud	0		A	sg n
      	käi=nud	d		A	pl n
      	käinu	d		S	pl n
,	,			Z	
mis	mis	0		P	pl n
   	mis	0		P	sg n
kaupmees	kaup_mees	0		S	sg n
J. Müller	####				
tunnistab	tunnista	b		V	b
.	.			Z	
Rede	####				
on	ole	0		V	b
  	ole	0		V	vad
Jaan	Jaan	0		H	sg n
    	jaan	0		S	sg n
    	jaan	0		Y	?
Linde	lind	e		S	pl p
     	linne	0		S	sg g
,	,			Z	
Rein	Rein	0		H	sg n
Truvõlt	####				
,	,			Z	
Jaak	Jaak	0		H	sg n
    	jaak	0		S	sg n
Kask	kask	0		S	sg n
Võhmast	Võhma	st		H	sg el
       	võhm	st		S	sg el
       	võhmas	st		S	sg el
       	võhmas	t		S	sg p
kinni	kinni	0		D	
võtnud	võt	nud		V	nud
      	võt=nu	d		S	pl n
      	võt=nud	0		A	
      	võt=nud	0		A	sg n
      	võt=nud	d		A	pl n
ja	ja	0		J	
küsinud	küsi	nud		V	nud
       	küsi=nu	d		S	pl n
       	küsi=nud	0		A	
       	küsi=nud	0		A	sg n
       	küsi=nud	d		A	pl n
,	,			Z	
kus	kus	0		D	
sinna	sinna	0		D	
esmaspäev	esmas_päev	0		S	sg n
käisid	käi	sid		V	sid
?	?			Z	
sellepeale	selle_peale	0		D	
vastanud	vasta	nud		V	nud
        	vasta=nud	0		A	
        	vasta=nud	0		A	sg n
        	vasta=nud	d		A	pl n
        	vastanu	d		S	pl n
Jaak	Jaak	0		H	sg n
    	jaak	0		S	sg n
Kask	kask	0		S	sg n
,	,			Z	
et	et	0		J	
tema	tema	0		P	sg g
    	tema	0		P	sg n
vaatamas	vaata	mas		V	mas
käinud	käi	nud		V	nud
      	käi=nud	0		A	
      	käi=nud	0		A	sg n
      	käi=nud	d		A	pl n
      	käinu	d		S	pl n
,	,			Z	
kas	kas	0		D	
nata	natt	0		S	sg g
saab	saa	b		V	b
,	,			Z	
mis	mis	0		P	pl n
   	mis	0		P	sg n
Tõnis	Tõnis	0		H	sg n
Nurk	nurk	0		S	sg n
teda	tema	da		P	sg p
olla	ole	a		V	da
käskinud	käski	nud		V	nud
        	käski=nu	d		S	pl n
        	käski=nud	0		A	
        	käski=nud	0		A	sg n
        	käski=nud	d		A	pl n
.	.			Z	
kutsuti	kutsu	ti		V	ti
Tõnis	Tõnis	0		H	sg n
Nurk	nurk	0		S	sg n
ette	ette	0		D	
    	ette	0		K	
    	esi	tte		S	adt
ja	ja	0		J	
küssi	####				
järele	järele	0		D	
      	järele	0		K	
kas	kas	0		D	
tema	tema	0		P	sg g
    	tema	0		P	sg n
teda	tema	da		P	sg p
on	ole	0		V	b
  	ole	0		V	vad
niitma	niit	ma		V	ma
kutsunud	kutsu	nud		V	nud
        	kutsu=nu	d		S	pl n
        	kutsu=nud	0		A	
        	kutsu=nud	0		A	sg n
        	kutsu=nud	d		A	pl n
,	,			Z	
mis	mis	0		P	pl n
   	mis	0		P	sg n
peale	pea	le		S	sg all
     	peale	0		D	
     	peale	0		K	
Tõnis	Tõnis	0		H	sg n
Nurk	nurk	0		S	sg n
vastas	vasta	s		V	s
      	vastas	0		D	
      	vastas	0		K	
,	,			Z	
et	et	0		J	
tema	tema	0		P	sg g
    	tema	0		P	sg n
teda	tema	da		P	sg p
pole	ole	0		V	neg o
näinud	näi	nud		V	nud
      	näge	nud		V	nud
      	näi=nud	0		A	
      	näi=nud	0		A	sg n
      	näi=nud	d		A	pl n
      	näinu	d		S	pl n
veel	veel	0		D	
    	vesi	l		S	sg ad
vähem	vähem	0		C	sg n
     	vähem	0		D	
kutsunud	kutsu	nud		V	nud
        	kutsu=nu	d		S	pl n
        	kutsu=nud	0		A	
        	kutsu=nud	0		A	sg n
        	kutsu=nud	d		A	pl n
.	.			Z	
Jaak	Jaak	0		H	sg n
    	jaak	0		S	sg n
Kask	kask	0		S	sg n
vastab	vasta	b		V	b
selle	see	0		P	sg g
     	sell	e		S	pl p
peale	pea	le		S	sg all
     	peale	0		D	
     	peale	0		K	
,	,			Z	
et	et	0		J	
kubjama	####				
Toomas	Toomas	0		H	sg n
      	Toomas	s		H	sg in
      	too	mas		V	mas
kutsus	kutsu	s		V	s
      	kutsu	s		S	sg in
mind	mina	d		P	sg p
pühapäeva	püha_päev	0		S	adt
         	püha_päev	0		S	sg g
         	püha_päev	0		S	sg p
õhtu	õhtu	0		S	sg g
    	õhtu	0		S	sg n
omale	oma	le		A	sg all
     	oma	le		P	sg all
     	oma	le		S	sg all
niitma	niit	ma		V	ma
,	,			Z	
ja	ja	0		J	
ma	mina	0		P	sg n
pidin	pida	in		V	sin
sinna	sinna	0		D	
minema	mine	ma		V	ma
.	.			Z	
kutsuti	kutsu	ti		V	ti
kubjama	####				
Toomas	Toomas	0		H	sg n
      	Toomas	s		H	sg in
      	too	mas		V	mas
ette	ette	0		D	
    	ette	0		K	
    	esi	tte		S	adt
ja	ja	0		J	
küsiti	küsi	ti		V	ti
jarele	####				
,	,			Z	
kas	kas	0		D	
tema	tema	0		P	sg g
    	tema	0		P	sg n
teda	tema	da		P	sg p
pühapäeva	püha_päev	0		S	adt
         	püha_päev	0		S	sg g
         	püha_päev	0		S	sg p
õhtu	õhtu	0		S	sg g
    	õhtu	0		S	sg n
on	ole	0		V	b
  	ole	0		V	vad
nitma	####				
kutsunud	kutsu	nud		V	nud
        	kutsu=nu	d		S	pl n
        	kutsu=nud	0		A	
        	kutsu=nud	0		A	sg n
        	kutsu=nud	d		A	pl n
,	,			Z	
mis	mis	0		P	pl n
   	mis	0		P	sg n
peale	pea	le		S	sg all
     	peale	0		D	
     	peale	0		K	
Toomas	Toomas	0		H	sg n
      	Toomas	s		H	sg in
      	too	mas		V	mas
vastas	vasta	s		V	s
      	vastas	0		D	
      	vastas	0		K	
,	,			Z	
et	et	0		J	
tema	tema	0		P	sg g
    	tema	0		P	sg n
ei	ei	0		D	
  	ei	0		V	neg
ole	ole	0		V	o
kutsunud	kutsu	nud		V	nud
        	kutsu=nu	d		S	pl n
        	kutsu=nud	0		A	
        	kutsu=nud	0		A	sg n
        	kutsu=nud	d		A	pl n
.	.			Z	
Jaak	Jaak	0		H	sg n
    	jaak	0		S	sg n
Kask	kask	0		S	sg n
vastab	vasta	b		V	b
sellepeale	selle_peale	0		D	
,	,			Z	
et	et	0		J	
tema	tema	0		P	sg g
    	tema	0		P	sg n
esmaspäev	esmas_päev	0		S	sg n
poole	pool	0		N	sg g
     	pool	0		S	sg g
     	pool	e		S	pl p
     	poole	0		K	
     	poole	0		S	sg n
päeva	päev	0		S	adt
     	päev	0		S	sg g
     	päev	0		S	sg p
aeg	aeg	0		S	sg n
kodu	kodu	0		S	sg g
    	kodu	0		S	sg n
    	kodu	0		S	sg p
ära	ära	0		D	
   	ära	0		V	neg o
läinud	läinu	d		S	pl n
      	läinud	0		A	
      	läinud	0		A	sg n
      	läinud	d		A	pl n
      	mine	nud		V	nud
,	,			Z	
et	et	0		J	
Kubjama	####				
Toomale	Toomas	le		H	sg all
ehk	ehk	0		D	
   	ehk	0		J	
pargile	park	le		S	sg all
lole	####				
mina	mina	0		P	sg n
    	mina	0		S	sg g
    	mina	0		S	sg n
    	mina	0		S	sg p
,	,			Z	
aga	aga	0		J	
et	et	0		J	
aeg	aeg	0		S	sg n
on	ole	0		V	b
  	ole	0		V	vad
hiljaks	hiljaks	0		D	
jäänud	jää	nud		V	nud
      	jäänu	d		S	pl n
      	jäänud	0		A	
      	jäänud	0		A	sg n
      	jäänud	d		A	pl n
,	,			Z	
pole	ole	0		V	neg o
enam	enam	0		C	sg n
    	enam	0		D	
läinud	läinu	d		S	pl n
      	läinud	0		A	
      	läinud	0		A	sg n
      	läinud	d		A	pl n
      	mine	nud		V	nud
,	,			Z	
vaid	vaid	0		D	
    	vaid	0		J	
hakanud	hakka	nud		V	nud
       	haka=nu	d		S	pl n
       	haka=nud	0		A	
       	haka=nud	0		A	sg n
       	haka=nud	d		A	pl n
metsas	mets	s		S	sg in
Maarju	####				
sööma	söö	ma		V	ma
     	sööm	0		S	adt
     	sööm	0		S	sg g
     	sööm	0		S	sg p
,	,			Z	
söönud	söö	nud		V	nud
      	söönu	d		S	pl n
      	söönud	0		A	
      	söönud	0		A	sg n
      	söönud	d		A	pl n
Maarju	####				
,	,			Z	
vatanud	####				
heinamaad	heina_maa	d		S	pl n
         	heina_maa	d		S	sg p
ja	ja	0		J	
läinud	läinu	d		S	pl n
      	läinud	0		A	
      	läinud	0		A	sg n
      	läinud	d		A	pl n
      	mine	nud		V	nud
Võhma	Võhma	0		H	adt
     	Võhma	0		H	sg g
     	võhm	0		S	adt
     	võhm	0		S	sg g
     	võhmas	0		S	sg g
     	Võhma	0		H	sg n
     	võhm	0		S	sg p
podist	####				
pani	pan	0		S	adt
    	pani	0		S	sg g
    	pane	i		V	s
    	pan	0		S	sg g
    	pan	0		S	sg p
    	pani	0		S	sg n
tooma	too	ma		V	ma
,	,			Z	
pani	pan	0		S	adt
    	pani	0		S	sg g
    	pane	i		V	s
    	pan	0		S	sg g
    	pan	0		S	sg p
    	pani	0		S	sg n
ostnud	ost	nud		V	nud
      	ost=nu	d		S	pl n
      	ost=nud	0		A	
      	ost=nud	0		A	sg n
      	ost=nud	d		A	pl n
ja	ja	0		J	
kodu	kodu	0		S	sg g
    	kodu	0		S	sg n
    	kodu	0		S	sg p
läinud	läinu	d		S	pl n
      	läinud	0		A	
      	läinud	0		A	sg n
      	läinud	d		A	pl n
      	mine	nud		V	nud
.	.			Z	
Rede	####				
jälle	jälle	0		D	
Võhma	Võhma	0		H	adt
     	Võhma	0		H	sg g
     	võhm	0		S	adt
     	võhm	0		S	sg g
     	võhmas	0		S	sg g
     	Võhma	0		H	sg n
     	võhm	0		S	sg p
podist	####				
värvi	värv	0		S	adt
     	värv	0		S	sg g
     	värvi	0		A	
     	värvi	0		V	o
     	värv	0		S	sg p
eli	####				
ja	ja	0		J	
naela	nael	0		S	adt
     	nael	0		S	sg g
     	nael	0		S	sg p
läinud	läinu	d		S	pl n
      	läinud	0		A	
      	läinud	0		A	sg n
      	läinud	d		A	pl n
      	mine	nud		V	nud
tooma	too	ma		V	ma
,	,			Z	
nemad	tema	d		P	pl n
sinna	sinna	0		D	
tulnud	tul=nud	0		A	
      	tul=nud	0		A	sg n
      	tul=nud	d		A	pl n
      	tule	nud		V	nud
      	tulnu	d		S	pl n
ja	ja	0		J	
teda	tema	da		P	sg p
kinnivõtnud	kinni_võt=nu	d		S	pl n
           	kinni_võt=nud	0		A	
           	kinni_võt=nud	0		A	sg n
           	kinni_võt=nud	d		A	pl n
,	,			Z	
ilma	ilm	0		S	adt
    	ilm	0		S	sg g
    	ilma	0		D	
    	ilma	0		K	
    	ilm	0		S	sg p
et	et	0		J	
tema	tema	0		P	sg g
    	tema	0		P	sg n
sest	see	st		P	sg el
    	sest	0		J	
rahast	raha	st		S	sg el
sugugi	sugugi	0		D	
ei	ei	0		D	
  	ei	0		V	neg
tea	tead	0		V	o
.	.			Z	
mõistetud	mõist	tud		V	tud
         	mõiste=tu	d		S	pl n
         	mõiste=tud	0		A	
         	mõiste=tud	0		A	sg n
         	mõiste=tud	d		A	pl n
:	:			Z	
seda	see	da		P	sg p
eestähendatud	ees_tähenda=tu	d		S	pl n
             	ees_tähenda=tud	0		A	
             	ees_tähenda=tud	0		A	sg n
             	ees_tähenda=tud	d		A	pl n
protokolli	protokoll	0		S	adt
          	protokoll	0		S	sg g
          	protokolli	0		V	o
          	protokoll	0		S	sg p
ühe	üks	0		N	sg g
   	üks	0		P	sg g
   	ühe	0		S	sg n
keiserliku	keiserlik	0		A	sg g
Viljandi	Viljandi	0		H	sg g
        	Viljandi	0		H	sg n
        	viljandi	0		G	
silla	sild	0		S	sg g
kohtule	kohus	le		S	sg all
järele	järele	0		D	
      	järele	0		K	
kuulamiseks	kuulamine	ks		S	sg tr
ja	ja	0		J	
mõistmiseks	mõistmine	ks		S	sg tr
saada	saa	da		V	da
     	saat	0		V	o
     	saa	da		V	ta
.	.			Z	
