Mart	Mart	0		H	sg n
    	mart	0		S	sg n
Mütr	####				
,	,			Z	
poisikene	poisi=kene	0		S	sg n
,	,			Z	
kes	kes	0		P	pl n
   	kes	0		P	sg n
Kai	Kai	0		H	sg g
   	Kai	0		H	sg n
   	kai	0		S	sg g
   	kai	0		S	sg n
Mütri	####				
akna	aken	0		S	sg g
oli	ole	i		V	s
katsi	####				
viskanud	####				
,	,			Z	
oli	ole	i		V	s
kohtu	kohtu	0		V	o
     	kohus	0		S	sg g
ees	ees	0		D	
   	ees	0		K	
   	esi	s		S	sg in
,	,			Z	
jäi	jää	i		V	s
süüdlaseks	süüdlane	ks		S	sg tr
ja	ja	0		J	
mõisteti	mõist	ti		V	ti
:	:			Z	
peab	pida	b		V	b
akna	aken	0		S	sg g
eest	eest	0		D	
    	eest	0		K	
    	esi	st		S	sg el
30	30	0		N	?
kop	kop	0		Y	?
.	.			Z	
hõb	####				
.	.			Z	
maksma	maks	ma		V	ma
ja	ja	0		J	
saab	saa	b		V	b
15	15	0		N	?
hoopi	hoop	0		S	adt
     	hoop	0		S	sg p
vitsu	vits	u		S	pl p
.	.			Z	
