Kõovalla	####				
peremees	pere_mees	0		S	sg n
Jaak	Jaak	0		H	sg n
    	jaak	0		S	sg n
kerstin	####				
,	,			Z	
kelle	kes	0		P	pl g
     	kes	0		P	sg g
pois	poi	s		S	sg in
Jaan	Jaan	0		H	sg n
    	jaan	0		S	sg n
    	jaan	0		Y	?
rehepõld	rehe_põld	0		S	sg n
№	№	0		Y	?
6	6	0		N	?
Nekrut	nekrut	0		S	sg n
,	,			Z	
sest	see	st		P	sg el
    	sest	0		J	
et	et	0		J	
Hans	Hans	0		H	sg n
Valk	valk	0		S	sg n
№	№	0		Y	?
3	3	0		N	?
Nekrut	nekrut	0		S	sg n
haige	haige	0		A	sg g
     	haige	0		A	sg n
     	haige	0		S	sg g
     	haige	0		S	sg n
oli	ole	i		V	s
,	,			Z	
sel	see	l		P	sg ad
   	sel	0		Y	?
viimasel	viimane	l		A	sg ad
Nekruti	nekrut	0		S	sg g
võtmise	võtmine	0		S	sg g
ajal	aeg	l		S	sg ad
    	ajal	0		K	
Januaril	####				
s	s	0		Y	?
.	.			Z	
a	a	0		Y	?
nekrutiks	nekrut	ks		S	sg tr
on	ole	0		V	b
  	ole	0		V	vad
ära	ära	0		D	
   	ära	0		V	neg o
antud	an=tu	d		S	pl n
     	and	tud		V	tud
     	antud	0		A	
     	antud	0		A	sg n
     	antud	d		A	pl n
,	,			Z	
oli	ole	i		V	s
keisl	####				
.	.			Z	
kihelkonna	kihelkond	0		S	sg g
kohtus	kohtu	s		V	s
      	kohus	s		S	sg in
üles	üles	0		D	
andmas	and	mas		V	mas
käinud	käi	nud		V	nud
      	käi=nud	0		A	
      	käi=nud	0		A	sg n
      	käi=nud	d		A	pl n
      	käinu	d		S	pl n
,	,			Z	
et	et	0		J	
Hans	Hans	0		H	sg n
Valk	valk	0		S	sg n
haigus	haigus	0		S	sg n
      	haik	s		S	sg in
mitte	mitte	0		D	
tõsine	tõsine	0		A	sg n
      	tõsine	0		V	o
vaid	vaid	0		D	
    	vaid	0		J	
aga	aga	0		J	
seks	see	ks		P	sg tr
    	seks	0		S	sg n
ajaks	aeg	ks		S	sg tr
     	aja	ks		V	ks
tehtud	tehtu	d		S	pl n
      	tehtud	0		A	
      	tehtud	0		A	sg n
      	tehtud	d		A	pl n
      	tege	tud		V	tud
olnud	ol=nud	0		A	
     	ol=nud	0		A	sg n
     	ol=nud	d		A	pl n
     	ole	nud		V	nud
     	olnu	d		S	pl n
.	.			Z	
_	_			Z	
nõnda	nõnda	0		D	
saab	saa	b		V	b
siis	siis	0		D	
    	siis	0		J	
kihelkonnakohtu	kihelkonna_kohus	0		S	sg g
käsu	käsk	0		S	sg g
peale	pea	le		S	sg all
     	peale	0		D	
     	peale	0		K	
d	d	0		Y	?
.	.			Z	
d	d	0		Y	?
.	.			Z	
21.	21.	0		O	?
april	####				
a	a	0		Y	?
c	c	0		Y	?
.	.			Z	
sub	####				
№	№	0		Y	?
463	463	0		N	?
,	,			Z	
_	_			Z	
/	/			Z	
:	:			Z	
sel	see	l		P	sg ad
   	sel	0		Y	?
3.	3.	0		O	?
mail	maa	il		S	pl ad
    	mai	l		S	sg ad
    	mail	0		S	sg n
s	s	0		Y	?
.	.			Z	
a	a	0		Y	?
Jaak	Jaak	0		H	sg n
    	jaak	0		S	sg n
Kirsteeni	kirs_tee	ni		S	sg ter
käest	käest	0		K	
     	käsi	st		S	sg el
kätte	kätte	0		K	
     	käsi	tte		S	adt
saadud	saa	dud		V	tud
      	saadu	d		S	pl n
      	saadud	0		A	
      	saadud	0		A	sg n
      	saadud	d		A	pl n
:	:			Z	
/	/			Z	
se	####				
asi	asi	0		S	sg n
   	asi	0		V	o
täna	täna	0		D	
    	täna	0		V	o
selgeks	selge	ks		A	sg tr
tehtud	tehtu	d		S	pl n
      	tehtud	0		A	
      	tehtud	0		A	sg n
      	tehtud	d		A	pl n
      	tege	tud		V	tud
ja	ja	0		J	
protokolli	protokoll	0		S	adt
          	protokoll	0		S	sg g
          	protokolli	0		V	o
          	protokoll	0		S	sg p
raamatusse	raamat	sse		S	sg ill
maha	maha	0		D	
kirjutud	####				
,	,			Z	
kui	kui	0		D	
   	kui	0		J	
:	:			Z	
Jaak	Jaak	0		H	sg n
    	jaak	0		S	sg n
Kirsten	####				
,	,			Z	
kes	kes	0		P	pl n
   	kes	0		P	sg n
hoopis	hoopis	0		D	
teises	teine	s		O	sg in
      	teine	s		P	sg in
külas	küla	s		S	sg in
elab	ela	b		V	b
kui	kui	0		D	
   	kui	0		J	
Hans	Hans	0		H	sg n
Valk	valk	0		S	sg n
,	,			Z	
_	_			Z	
ei	ei	0		D	
  	ei	0		V	neg
teadnud	tead	nud		V	nud
       	tead=nu	d		S	pl n
       	tead=nud	0		A	
       	tead=nud	0		A	sg n
       	tead=nud	d		A	pl n
ise	ise	0		A	
   	ise	0		D	
   	ise	0		P	pl n
   	ise	0		P	sg n
mitte	mitte	0		D	
ütelda	ütle	da		V	da
      	ütle	da		V	ta
,	,			Z	
kas	kas	0		D	
Hans	Hans	0		H	sg n
Valk	valk	0		S	sg n
terve	terve	0		A	sg g
     	terve	0		A	sg n
     	terve	0		S	sg g
     	terve	0		S	sg n
või	või	0		S	sg g
   	või	0		V	o
   	või	0		D	
   	või	0		J	
   	või	0		S	sg n
haige	haige	0		A	sg g
     	haige	0		A	sg n
     	haige	0		S	sg g
     	haige	0		S	sg n
on	ole	0		V	b
  	ole	0		V	vad
,	,			Z	
vaid	vaid	0		D	
    	vaid	0		J	
tema	tema	0		P	sg g
    	tema	0		P	sg n
mitme	mitu	0		P	sg g
naise	naine	0		S	sg g
käest	käest	0		K	
     	käsi	st		S	sg el
olema	ole	ma		V	ma
kuulnud	kuul	nud		V	nud
       	kuul=nud	0		A	
       	kuul=nud	0		A	sg n
       	kuul=nud	d		A	pl n
       	kuulnu	d		S	pl n
ja	ja	0		J	
ka	ka	0		D	
ise	ise	0		A	
   	ise	0		D	
   	ise	0		P	pl n
   	ise	0		P	sg n
ükskord	üks_kord	0		D	
kiriku	kirik	0		S	sg g
teepeal	tee_pea	l		S	sg ad
näinud	näi	nud		V	nud
      	näge	nud		V	nud
      	näi=nud	0		A	
      	näi=nud	0		A	sg n
      	näi=nud	d		A	pl n
      	näinu	d		S	pl n
teda	tema	da		P	sg p
terve	terve	0		A	sg g
     	terve	0		A	sg n
     	terve	0		S	sg g
     	terve	0		S	sg n
olema	ole	ma		V	ma
.	.			Z	
_	_			Z	
Hans	Hans	0		H	sg n
Valk	valk	0		S	sg n
,	,			Z	
kes	kes	0		P	pl n
   	kes	0		P	sg n
nekrutide	####				
asjade	asi	de		S	pl g
seletamise	seletamine	0		S	sg g
juures	juur	s		S	sg in
      	juures	0		D	
      	juures	0		K	
kogukonnakohtu	kogukonna_kohus	0		S	sg g
ees	ees	0		D	
   	ees	0		K	
   	esi	s		S	sg in
sel	see	l		P	sg ad
   	sel	0		Y	?
14mal	####				
Januaril	####				
s	s	0		Y	?
.	.			Z	
a	a	0		Y	?
püsti	püsti	0		D	
jala	jalg	0		S	sg g
    	jala	0		D	
pealt	pea	lt		S	sg abl
     	pealt	0		D	
     	pealt	0		K	
häkkiste	####				
sellili	####				
põranda	põrand	0		S	sg g
peale	pea	le		S	sg all
     	peale	0		D	
     	peale	0		K	
maha	maha	0		D	
kukkus	kukku	s		V	s
ja	ja	0		J	
teistest	teine	test		O	pl el
        	teine	test		P	pl el
välja	välja	0		D	
     	välja	0		V	o
     	väli	0		S	adt
     	väli	0		S	sg g
     	väli	0		S	sg p
antud	an=tu	d		S	pl n
     	and	tud		V	tud
     	antud	0		A	
     	antud	0		A	sg n
     	antud	d		A	pl n
sai	saa	i		V	s
   	sai	0		S	sg n
,	,			Z	
_	_			Z	
ja	ja	0		J	
kellel	kes	l		P	pl ad
      	kes	l		P	sg ad
enne	enne	0		D	
    	enne	0		K	
    	enne	0		S	sg n
kui	kui	0		D	
   	kui	0		J	
ka	ka	0		D	
praegu	praegu	0		D	
kogukonnakohtu	kogukonna_kohus	0		S	sg g
teada	tead	a		V	da
niisugune	nii_sugune	0		P	sg n
haigus	haigus	0		S	sg n
      	haik	s		S	sg in
on	ole	0		V	b
  	ole	0		V	vad
,	,			Z	
kui	kui	0		D	
   	kui	0		J	
temast	tema	st		P	sg el
näha	näge	a		V	da
,	,			Z	
astus	astu	s		V	s
ette	ette	0		D	
    	ette	0		K	
    	esi	tte		S	adt
ja	ja	0		J	
kaebas	kaeba	s		V	s
,	,			Z	
et	et	0		J	
temal	tema	l		P	sg ad
ammugi	ammugi	0		D	
se	####				
langetõbe	lange_tõbi	0		S	sg p
moodi	mood	0		S	adt
     	mood	0		S	sg p
     	moodi	0		A	
     	moodi	0		K	
haigus	haigus	0		S	sg n
      	haik	s		S	sg in
peab	pida	b		V	b
olema	ole	ma		V	ma
,	,			Z	
mis	mis	0		P	pl n
   	mis	0		P	sg n
tema	tema	0		P	sg g
    	tema	0		P	sg n
aga	aga	0		J	
kellegile	####				
ei	ei	0		D	
  	ei	0		V	neg
ole	ole	0		V	o
tahtnud	taht	nud		V	nud
       	taht=nu	d		S	pl n
       	taht=nud	0		A	
       	taht=nud	0		A	sg n
       	taht=nud	d		A	pl n
rääkida	rääki	da		V	da
.	.			Z	
ei	ei	0		D	
  	ei	0		V	neg
pea	pea	0		D	
   	pea	0		S	sg g
   	pida	0		V	o
   	pea	0		S	sg n
ka	ka	0		D	
tema	tema	0		P	sg g
    	tema	0		P	sg n
kedagit	####				
rasked	raske	d		A	pl n
tööd	töö	d		S	pl n
    	töö	d		S	sg p
võima	või	ma		V	ma
teha	tege	a		V	da
.	.			Z	
_	_			Z	
et	et	0		J	
Hans	Hans	0		H	sg n
Valk	valk	0		S	sg n
enese	ise	0		P	sg g
kaebduse	####				
kui	kui	0		D	
   	kui	0		J	
ka	ka	0		D	
kogukonnakohtu	kogukonna_kohus	0		S	sg g
nägemise	nägemine	0		S	sg g
järele	järele	0		D	
      	järele	0		K	
haige	haige	0		A	sg g
     	haige	0		A	sg n
     	haige	0		S	sg g
     	haige	0		S	sg n
peab	pida	b		V	b
olema	ole	ma		V	ma
,	,			Z	
_	_			Z	
sai	saa	i		V	s
   	sai	0		S	sg n
mõistetud	mõist	tud		V	tud
         	mõiste=tu	d		S	pl n
         	mõiste=tud	0		A	
         	mõiste=tud	0		A	sg n
         	mõiste=tud	d		A	pl n
:	:			Z	
Hans	Hans	0		H	sg n
Valk	valk	0		S	sg n
palve	palve	0		S	sg g
     	palve	0		S	sg n
kirjaga	kiri	ga		S	sg kom
Viljandi	Viljandi	0		H	sg g
        	Viljandi	0		H	sg n
        	viljandi	0		G	
kroonu	kroonu	0		S	sg g
      	kroonu	0		S	sg n
tohtre	####				
ükreri	####				
härrale	härra	le		S	sg all
läbi	läbi	0		D	
    	läbi	0		K	
    	läbi	0		V	o
katsumiseks	katsu=mine	ks		S	sg tr
saada	saa	da		V	da
     	saat	0		V	o
     	saa	da		V	ta
,	,			Z	
et	et	0		J	
kui	kui	0		D	
   	kui	0		J	
tema	tema	0		P	sg g
    	tema	0		P	sg n
terve	terve	0		A	sg g
     	terve	0		A	sg n
     	terve	0		S	sg g
     	terve	0		S	sg n
leitakse	leid	takse		V	takse
ja	ja	0		J	
tunnistakse	####				
,	,			Z	
Nekruti	nekrut	0		S	sg g
seaduse	seadus	0		S	sg g
järele	järele	0		D	
      	järele	0		K	
d	d	0		Y	?
.	.			Z	
d	d	0		Y	?
.	.			Z	
21.	21.	0		O	?
juunii	####				
1861	1861	0		N	?
§	§	0		Y	?
56	56	0		N	?
Regiirungs	####				
Patent	patent	0		S	sg n
d	d	0		Y	?
.	.			Z	
d	d	0		Y	?
.	.			Z	
3.	3.	0		O	?
december	####				
1865	1865	0		N	?
№	№	0		Y	?
127	127	0		N	?
Punkt	punkt	0		S	sg n
3	3	0		N	?
,	,			Z	
_	_			Z	
keiserl	####				
.	.			Z	
kihelkonnakohtult	kihelkonna_kohus	lt		S	sg abl
abi	abi	0		S	sg g
   	abi	0		S	sg n
   	abi	0		S	sg p
ja	ja	0		J	
nõu	nõu	0		S	sg g
   	nõu	0		S	sg n
   	nõu	0		S	sg p
paludes	palu	des		S	pl in
       	palu	des		V	des
Jaan	Jaan	0		H	sg n
    	jaan	0		S	sg n
    	jaan	0		Y	?
rehepõld	rehe_põld	0		S	sg n
asemele	ase	le		S	sg all
       	asemele	0		D	
       	asemele	0		K	
ja	ja	0		J	
Jaan	Jaan	0		H	sg n
    	jaan	0		S	sg n
    	jaan	0		Y	?
rehepõld	rehe_põld	0		S	sg n
seks	see	ks		P	sg tr
    	seks	0		S	sg n
korraks	kord	ks		S	sg tr
       	korraks	0		D	
priiks	prii	ks		A	sg tr
laskmiseks	laskmine	ks		S	sg tr
Riga	####				
Kuberneemangu	####				
nekruti	nekrut	0		S	sg g
vastuvõtmise	vastu_võtmine	0		S	sg g
Comisjoni	####				
Nekruti	nekrut	0		S	sg g
vastuvõtmiseks	vastu_võtmine	ks		S	sg tr
ette	ette	0		D	
    	ette	0		K	
    	esi	tte		S	adt
saada	saa	da		V	da
     	saat	0		V	o
     	saa	da		V	ta
.	.			Z	
_	_			Z	
leitakse	leid	takse		V	takse
aga	aga	0		J	
Hans	Hans	0		H	sg n
Valk	valk	0		S	sg n
haige	haige	0		A	sg g
     	haige	0		A	sg n
     	haige	0		S	sg g
     	haige	0		S	sg n
ja	ja	0		J	
rekrutiks	####				
sündmataks	####				
,	,			Z	
siis	siis	0		D	
    	siis	0		J	
ei	ei	0		D	
  	ei	0		V	neg
maksa	maks	0		S	adt
     	maks	0		S	sg g
     	maks	0		V	o
     	maks	0		S	sg p
mitte	mitte	0		D	
Hans	Hans	0		H	sg n
Valk	valk	0		S	sg n
Riga	####				
saada	saa	da		V	da
     	saat	0		V	o
     	saa	da		V	ta
,	,			Z	
se	####				
peab	pida	b		V	b
ka	ka	0		D	
kihelkonnakohtule	kihelkonna_kohus	le		S	sg all
palve	palve	0		S	sg g
     	palve	0		S	sg n
küsimisega	küsimine	ga		S	sg kom
teada	tead	a		V	da
antud	an=tu	d		S	pl n
     	and	tud		V	tud
     	antud	0		A	
     	antud	0		A	sg n
     	antud	d		A	pl n
saama	saa	ma		V	ma
     	saam	0		S	adt
     	saam	0		S	sg g
     	saam	0		S	sg p
,	,			Z	
mis	mis	0		P	pl n
   	mis	0		P	sg n
siis	siis	0		D	
    	siis	0		J	
teha	tege	a		V	da
tuleb	tule	b		V	b
?	?			Z	
_	_			Z	
peakohtumehe	pea_kohtu_mees	0		S	sg g
abi	abi	0		S	sg g
   	abi	0		S	sg n
   	abi	0		S	sg p
:	:			Z	
Kaarel	Kaarel	0		H	sg n
      	kaar	l		S	sg ad
      	kaarel	0		S	sg n
Riis	riis	0		S	sg n
XXX	XXX	0		O	?
   	XXX	0		Y	?
kohtumees	kohtu_mees	0		S	sg n
:	:			Z	
Jüri	Jüri	0		H	sg g
    	Jüri	0		H	sg n
olreiib	####				
XXX	XXX	0		O	?
   	XXX	0		Y	?
d	d	0		Y	?
.	.			Z	
Kaarel	Kaarel	0		H	sg n
      	kaar	l		S	sg ad
      	kaarel	0		S	sg n
Malkin	####				
XXX	XXX	0		O	?
   	XXX	0		Y	?
vallavöörmünder	valla_vöörmünder	0		S	sg n
:	:			Z	
Jüri	Jüri	0		H	sg g
    	Jüri	0		H	sg n
Kalm	kalm	0		S	sg n
vallakirjutaja	valla_kirjutaja	0		S	sg g
              	valla_kirjutaja	0		S	sg n
:	:			Z	
J. Otto	####				
