Reguldi	####				
mees	mees	0		S	sg n
    	mesi	s		S	sg in
Karl	Karl	0		H	sg n
Villemis	Villem	s		H	sg in
kaebas	kaeba	s		V	s
,	,			Z	
Adam	####				
Mikk	Mikk	0		H	sg n
võlgneda	võlgne	da		V	da
temal	tema	l		P	sg ad
1	1	0		N	?
setvert	setvert	0		S	sg n
kaeru	kaer	u		S	pl p
16	16	0		N	?
karnits	karnits	0		S	sg n
odri	####				
1	1	0		N	?
vak	####				
erit	####				
3	3	0		N	?
/	/			Z	
4	4	0		N	?
vak	####				
suuri	suur	i		A	pl p
odri	####				
ta	tema	0		P	sg g
  	tema	0		P	sg n
palub	palu	b		V	b
kohut	kohus	t		S	sg p
et	et	0		J	
kaevatu	kaeva=tu	0		S	sg g
       	kaeva=tu	0		S	sg n
se	####				
maksmisele	maksmine	le		S	sg all
mõistetud	mõist	tud		V	tud
         	mõiste=tu	d		S	pl n
         	mõiste=tud	0		A	
         	mõiste=tud	0		A	sg n
         	mõiste=tud	d		A	pl n
saab	saa	b		V	b
.	.			Z	
kaebuse	kaebus	0		S	sg g
peale	pea	le		S	sg all
     	peale	0		D	
     	peale	0		K	
vastas	vasta	s		V	s
      	vastas	0		D	
      	vastas	0		K	
Adam	####				
Mikk	Mikk	0		H	sg n
,	,			Z	
se	####				
mõistmine	mõistmine	0		S	sg n
on	ole	0		V	b
  	ole	0		V	vad
õige	õige	0		A	sg g
    	õige	0		A	sg n
    	õige	0		D	
,	,			Z	
aga	aga	0		J	
ta	tema	0		P	sg g
  	tema	0		P	sg n
vara	vara	0		D	
    	vara	0		S	sg g
    	vara	0		S	sg n
    	vara	0		S	sg p
ja	ja	0		J	
kraam	kraam	0		S	sg n
on	ole	0		V	b
  	ole	0		V	vad
kõik	kõik	0		P	pl n
    	kõik	0		S	sg n
    	kõik	0		P	sg n
Toomas	Toomas	0		H	sg n
      	Toomas	s		H	sg in
      	too	mas		V	mas
Freibergi	####				
käes	käes	0		K	
    	käsi	s		S	sg in
,	,			Z	
kui	kui	0		D	
   	kui	0		J	
ta	tema	0		P	sg g
  	tema	0		P	sg n
sealt	sealt	0		D	
     	siga	lt		A	sg abl
     	siga	lt		S	sg abl
kätte	kätte	0		K	
     	käsi	tte		S	adt
saab	saa	b		V	b
siis	siis	0		D	
    	siis	0		J	
tasub	tasu	b		V	b
ta	tema	0		P	sg g
  	tema	0		P	sg n
seda	see	da		P	sg p
ära	ära	0		D	
   	ära	0		V	neg o
.	.			Z	
mõistus	mõistus	0		S	sg n
:	:			Z	
Adam	####				
Mikk	Mikk	0		H	sg n
peab	pida	b		V	b
14	14	0		N	?
päeva	päev	0		S	adt
     	päev	0		S	sg g
     	päev	0		S	sg p
pärast	pära	st		S	sg el
      	pärane	t		A	sg p
      	pärast	0		D	
      	pärast	0		K	
Karl	Karl	0		H	sg n
Villemisele	vill_emis	le		S	sg all
se	####				
nõutud	nõu=tu	d		S	pl n
      	nõu=tud	0		A	
      	nõu=tud	0		A	sg n
      	nõu=tud	d		A	pl n
      	nõud	tud		V	tud
      	nõutu	d		A	pl n
vilja	vili	0		S	adt
     	vili	0		S	sg g
     	vili	0		S	sg p
võlg	võlg	0		S	sg n
ära	ära	0		D	
   	ära	0		V	neg o
maksma	maks	ma		V	ma
,	,			Z	
ja	ja	0		J	
kui	kui	0		D	
   	kui	0		J	
temal	tema	l		P	sg ad
kedagi	keegi	dagi		P	sg p
Toomas	Toomas	0		H	sg n
      	Toomas	s		H	sg in
      	too	mas		V	mas
Freibergi	####				
käest	käest	0		K	
     	käsi	st		S	sg el
saada	saa	da		V	da
     	saat	0		V	o
     	saa	da		V	ta
,	,			Z	
siis	siis	0		D	
    	siis	0		J	
võib	või	b		V	b
ta	tema	0		P	sg g
  	tema	0		P	sg n
seda	see	da		P	sg p
tema	tema	0		P	sg g
    	tema	0		P	sg n
käest	käest	0		K	
     	käsi	st		S	sg el
nõuda	nõud	a		V	da
.	.			Z	
mõistus	mõistus	0		S	sg n
sai	saa	i		V	s
   	sai	0		S	sg n
kohtukäijatel	kohtu_käija	tel		S	pl ad
kuulutud	kuulu	tud		V	tud
        	kuulu=tu	d		S	pl n
        	kuulu=tud	0		A	
        	kuulu=tud	0		A	sg n
        	kuulu=tud	d		A	pl n
ja	ja	0		J	
olid	ole	id		V	sid
mõlemad	mõlema	d		P	pl n
sega	sega	0		V	o
rahu	rahu	0		S	sg g
    	rahu	0		S	sg n
    	rahu	0		S	sg p
.	.			Z	
