Kääbab	####				
Jaak	Jaak	0		H	sg n
    	jaak	0		S	sg n
Kask	kask	0		S	sg n
et	et	0		J	
lombak	lombak	0		A	sg n
      	lombak	0		S	sg n
rätsepp	####				
Jaan	Jaan	0		H	sg n
    	jaan	0		S	sg n
    	jaan	0		Y	?
kibe	kibe	0		A	sg n
    	kibe	0		S	sg n
oma	oma	0		A	sg g
   	oma	0		D	
   	oma	0		P	sg g
   	oma	0		S	sg g
   	oma	0		V	o
   	oma	0		A	sg n
   	oma	0		A	sg p
   	oma	0		P	sg n
   	oma	0		P	sg p
   	oma	0		S	sg n
   	oma	0		S	sg p
naise	naine	0		S	sg g
tema	tema	0		P	sg g
    	tema	0		P	sg n
suviliseks	suviline	ks		S	sg tr
teliinud	####				
ja	ja	0		J	
selle	see	0		P	sg g
     	sell	e		S	pl p
peale	pea	le		S	sg all
     	peale	0		D	
     	peale	0		K	
25	25	0		N	?
koppikat	####				
käeraha	käe_raha	0		S	sg g
       	käe_raha	0		S	sg n
       	käe_raha	0		S	sg p
võtnud	võt	nud		V	nud
      	võt=nu	d		S	pl n
      	võt=nud	0		A	
      	võt=nud	0		A	sg n
      	võt=nud	d		A	pl n
aga	aga	0		J	
pärast	pära	st		S	sg el
      	pärane	t		A	sg p
      	pärast	0		D	
      	pärast	0		K	
oma	oma	0		A	sg g
   	oma	0		D	
   	oma	0		P	sg g
   	oma	0		S	sg g
   	oma	0		V	o
   	oma	0		A	sg n
   	oma	0		A	sg p
   	oma	0		P	sg n
   	oma	0		P	sg p
   	oma	0		S	sg n
   	oma	0		S	sg p
kontrahti	kontraht	0		S	adt
         	kontraht	0		S	sg p
mitte	mitte	0		D	
täidanud	####				
.	.			Z	
Jaan	Jaan	0		H	sg n
    	jaan	0		S	sg n
    	jaan	0		Y	?
kibe	kibe	0		A	sg n
    	kibe	0		S	sg n
vastab	vasta	b		V	b
selle	see	0		P	sg g
     	sell	e		S	pl p
kauba	kaup	0		S	sg g
peale	pea	le		S	sg all
     	peale	0		D	
     	peale	0		K	
,	,			Z	
aga	aga	0		J	
naine	naine	0		S	sg n
ei	ei	0		D	
  	ei	0		V	neg
hoole	hoog	le		S	sg all
     	hool	0		S	sg g
     	hoole	0		S	sg n
Jaak	Jaak	0		H	sg n
    	jaak	0		S	sg n
Kase	kask	0		S	sg g
teenistuse	teenistus	0		S	sg g
läinud	läinu	d		S	pl n
      	läinud	0		A	
      	läinud	0		A	sg n
      	läinud	d		A	pl n
      	mine	nud		V	nud
ja	ja	0		J	
sinna	sinna	0		D	
ei	ei	0		D	
  	ei	0		V	neg
hoole	hoog	le		S	sg all
     	hool	0		S	sg g
     	hoole	0		S	sg n
ta	tema	0		P	sg g
  	tema	0		P	sg n
midagi	miski	dagi		P	sg p
päratud	päratu	d		A	pl n
võinud	või	nud		V	nud
      	või=nu	d		S	pl n
      	või=nud	0		A	
      	või=nud	0		A	sg n
      	või=nud	d		A	pl n
.	.			Z	
Mõisteti	mõist	ti		V	ti
:	:			Z	
et	et	0		J	
naist	naine	t		S	sg p
sõäl	####				
kauba	kaup	0		S	sg g
tegemise	tegemine	0		S	sg g
juures	juur	s		S	sg in
      	juures	0		D	
      	juures	0		K	
ei	ei	0		D	
  	ei	0		V	neg
olnud	ol=nud	0		A	
     	ol=nud	0		A	sg n
     	ol=nud	d		A	pl n
     	ole	nud		V	nud
     	olnu	d		S	pl n
jääb	jää	b		V	b
see	see	0		P	sg n
tühjaks	tühi	ks		A	sg tr
ning	ning	0		J	
peab	pida	b		V	b
Jaan	Jaan	0		H	sg n
    	jaan	0		S	sg n
    	jaan	0		Y	?
kibe	kibe	0		A	sg n
    	kibe	0		S	sg n
käeraha	käe_raha	0		S	sg g
       	käe_raha	0		S	sg n
       	käe_raha	0		S	sg p
ja	ja	0		J	
sinna	sinna	0		D	
1	1	0		N	?
rubla	rubla	0		S	sg g
     	rubla	0		S	sg n
     	rubla	0		S	sg p
kõivu	kõiv	0		S	adt
     	kõiv	0		S	sg g
     	kõiv	0		S	sg p
Jaak	Jaak	0		H	sg n
    	jaak	0		S	sg n
Kasele	kask	le		S	sg all
tagasi	tagasi	0		D	
      	tagasi	0		K	
maksma	maks	ma		V	ma
ja	ja	0		J	
läheb	mine	b		V	b
24	24	0		N	?
tunniks	tund	ks		S	sg tr
vangi	vang	0		S	adt
     	vang	0		S	sg g
     	vang	0		S	sg p
et	et	0		J	
ilma	ilm	0		S	adt
    	ilm	0		S	sg g
    	ilma	0		D	
    	ilma	0		K	
    	ilm	0		S	sg p
naise	naine	0		S	sg g
täädmata	####				
selle	see	0		P	sg g
     	sell	e		S	pl p
tõsi	tõsi	0		S	pl p
    	tõsi	0		S	sg n
istel	iste	l		S	sg ad
.	.			Z	
_	_			Z	
eesseisva	ees_seisev	0		A	sg g
otsus	otsus	0		S	sg n
sai	saa	i		V	s
   	sai	0		S	sg n
kuulutatud	kuuluta	tud		V	tud
          	kuuluta=tu	d		S	pl n
          	kuuluta=tud	0		A	
          	kuuluta=tud	0		A	sg n
          	kuuluta=tud	d		A	pl n
.	.			Z	
