küside	####				
nende	see	de		P	pl g
     	tema	de		P	pl g
nekruti	nekrut	0		S	sg g
Liisus	liisk	s		S	sg in
      	liisu	s		V	s
seissav	####				
all	all	0		D	
   	all	0		K	
nimitud	####				
mehede	####				
käest	käest	0		K	
     	käsi	st		S	sg el
kas	kas	0		D	
neile	see	le		P	pl all
     	tema	le		P	pl all
peale	pea	le		S	sg all
     	peale	0		D	
     	peale	0		K	
võla	võlg	0		S	sg g
seletamist	seletamine	t		S	sg p
veel	veel	0		D	
    	vesi	l		S	sg ad
midagi	miski	dagi		P	sg p
muudmist	####				
on	ole	0		V	b
  	ole	0		V	vad
,	,			Z	
selle	see	0		P	sg g
     	sell	e		S	pl p
peale	pea	le		S	sg all
     	peale	0		D	
     	peale	0		K	
nemad	tema	d		P	pl n
on	ole	0		V	b
  	ole	0		V	vad
ütelnu	ütel=nu	0		S	sg g
      	ütel=nu	0		S	sg n
et	et	0		J	
kõik	kõik	0		P	pl n
    	kõik	0		S	sg n
    	kõik	0		P	sg n
tasa	tasa	0		D	
ja	ja	0		J	
on	ole	0		V	b
  	ole	0		V	vad
oma	oma	0		A	sg g
   	oma	0		D	
   	oma	0		P	sg g
   	oma	0		S	sg g
   	oma	0		V	o
   	oma	0		A	sg n
   	oma	0		A	sg p
   	oma	0		P	sg n
   	oma	0		P	sg p
   	oma	0		S	sg n
   	oma	0		S	sg p
käega	käsi	ga		S	sg kom
3	3	0		N	?
ristid	rist	d		S	pl n
      	risti	d		V	d
      	risti	d		S	pl n
alla	alla	0		D	
    	alla	0		K	
temmanud	####				
.	.			Z	
1.	1.	0		O	?
Jooseph	####				
Kukk	kukk	0		S	sg n
2.	2.	0		O	?
Jaak	Jaak	0		H	sg n
    	jaak	0		S	sg n
Paju	paju	0		S	sg g
    	paju	0		S	sg n
    	paju	0		S	sg p
XXX	XXX	0		O	?
   	XXX	0		Y	?
3	3	0		N	?
Mart	Mart	0		H	sg n
    	mart	0		S	sg n
Villmann	vill_mann	0		S	sg n
XXX	XXX	0		O	?
   	XXX	0		Y	?
4	4	0		N	?
Karl	Karl	0		H	sg n
Raukas	####				
XXX	XXX	0		O	?
   	XXX	0		Y	?
5.	5.	0		O	?
Jüri	Jüri	0		H	sg g
    	Jüri	0		H	sg n
Lorius	####				
XXX	XXX	0		O	?
   	XXX	0		Y	?
6.	6.	0		O	?
Andres	Andre	s		H	sg in
      	Andres	0		H	sg n
Kongas	####				
XXX	XXX	0		O	?
   	XXX	0		Y	?
7.	7.	0		O	?
Karl	Karl	0		H	sg n
Ludv	####				
.	.			Z	
Jürgenson	Jürgenson	0		H	sg n
8.	8.	0		O	?
Mihkel	Mihkel	0		H	sg n
      	mihkel	0		A	sg n
      	mihkel	0		S	sg n
Kert	Kert	0		H	sg n
XXX	XXX	0		O	?
   	XXX	0		Y	?
9.	9.	0		O	?
Jaan	Jaan	0		H	sg n
    	jaan	0		S	sg n
    	jaan	0		Y	?
Reimann	####				
10.	10.	0		O	?
Hans	Hans	0		H	sg n
Hanson	####				
11.	11.	0		O	?
Jaak	Jaak	0		H	sg n
    	jaak	0		S	sg n
Kondas	konda	s		V	s
XXX	XXX	0		O	?
   	XXX	0		Y	?
12.	12.	0		O	?
Jaan	Jaan	0		H	sg n
    	jaan	0		S	sg n
    	jaan	0		Y	?
Barot	####				
XXX	XXX	0		O	?
   	XXX	0		Y	?
13.	13.	0		O	?
Hans	Hans	0		H	sg n
Kondas	konda	s		V	s
XXX	XXX	0		O	?
   	XXX	0		Y	?
14.	14.	0		O	?
Mart	Mart	0		H	sg n
    	mart	0		S	sg n
Jürgenson	Jürgenson	0		H	sg n
