Jaan	Jaan	0		H	sg n
    	jaan	0		S	sg n
    	jaan	0		Y	?
Kõks	kõks	0		S	sg n
tuli	tuli	0		S	sg n
    	tule	i		V	s
ette	ette	0		D	
    	ette	0		K	
    	esi	tte		S	adt
ja	ja	0		J	
kaebas	kaeba	s		V	s
et	et	0		J	
Karl	Karl	0		H	sg n
mehe	mees	0		S	sg g
tee	tee	0		S	sg g
   	tege	0		V	o
   	tee	0		S	sg n
peal	pea	l		S	sg ad
    	peal	0		D	
    	peal	0		K	
tema	tema	0		P	sg g
    	tema	0		P	sg n
vastu	vastu	0		D	
     	vastu	0		K	
tulnud	tul=nud	0		A	
      	tul=nud	0		A	sg n
      	tul=nud	d		A	pl n
      	tule	nud		V	nud
      	tulnu	d		S	pl n
ja	ja	0		J	
ilma	ilm	0		S	adt
    	ilm	0		S	sg g
    	ilma	0		D	
    	ilma	0		K	
    	ilm	0		S	sg p
sõna	sõna	0		S	sg g
    	sõna	0		V	o
    	sõna	0		S	sg n
    	sõna	0		S	sg p
rääkimata	rääki	mata		V	mata
         	rääki=mata	0		A	
         	rääkimata	0		D	
2	2	0		N	?
kord	kord	0		D	
    	kord	0		S	sg n
löönud	löö	nud		V	nud
      	löö=nu	d		S	pl n
      	löö=nud	0		A	
      	löö=nud	0		A	sg n
      	löö=nud	d		A	pl n
,	,			Z	
nõutas	nõuta	s		V	s
selle	see	0		P	sg g
     	sell	e		S	pl p
eest	eest	0		D	
    	eest	0		K	
    	esi	st		S	sg el
15	15	0		N	?
rubla	rubla	0		S	sg g
     	rubla	0		S	sg n
     	rubla	0		S	sg p
.	.			Z	
Hans	Hans	0		H	sg n
tasa	tasa	0		D	
tunnistas	tunnista	s		V	s
nemad	tema	d		P	pl n
läinud	läinu	d		S	pl n
      	läinud	0		A	
      	läinud	0		A	sg n
      	läinud	d		A	pl n
      	mine	nud		V	nud
mõõda	mõõt	0		V	o
teed	tee	d		S	pl n
    	tege	d		V	d
    	tee	d		S	sg p
,	,			Z	
Karl	Karl	0		H	sg n
mehe	mees	0		S	sg g
tulnud	tul=nud	0		A	
      	tul=nud	0		A	sg n
      	tul=nud	d		A	pl n
      	tule	nud		V	nud
      	tulnu	d		S	pl n
ühes	üks	s		N	sg in
    	üks	s		P	sg in
    	ühes	0		D	
    	ühes	0		K	
teistega	teine	tega		O	pl kom
        	teine	tega		P	pl kom
vastu	vastu	0		D	
     	vastu	0		K	
ja	ja	0		J	
olnud	ol=nud	0		A	
     	ol=nud	0		A	sg n
     	ol=nud	d		A	pl n
     	ole	nud		V	nud
     	olnu	d		S	pl n
kõigil	kõik	l		P	pl ad
teivas	teivas	0		S	sg n
käes	käes	0		K	
    	käsi	s		S	sg in
,	,			Z	
siis	siis	0		D	
    	siis	0		J	
on	ole	0		V	b
  	ole	0		V	vad
Karl	Karl	0		H	sg n
mehe	mees	0		S	sg g
Koksi	koks	0		S	adt
     	koks	0		S	sg g
     	koksi	0		V	o
     	koks	0		S	sg p
2	2	0		N	?
kord	kord	0		D	
    	kord	0		S	sg n
rusikaga	rusikas	ga		S	sg kom
löönud	löö	nud		V	nud
      	löö=nu	d		S	pl n
      	löö=nud	0		A	
      	löö=nud	0		A	sg n
      	löö=nud	d		A	pl n
.	.			Z	
otsus	otsus	0		S	sg n
:	:			Z	
Karl	Karl	0		H	sg n
hoome	####				
ette	ette	0		D	
    	ette	0		K	
    	esi	tte		S	adt
tuua	too	a		V	da
.	.			Z	
