Tapiku	Tapiku	0		H	sg g
      	Tapiku	0		H	sg n
vallavanem	valla_vanem	0		S	sg n
Jüri	Jüri	0		H	sg g
    	Jüri	0		H	sg n
Kütt	kütt	0		S	sg n
tuli	tuli	0		S	sg n
    	tule	i		V	s
kohtu	kohtu	0		V	o
     	kohus	0		S	sg g
ette	ette	0		D	
    	ette	0		K	
    	esi	tte		S	adt
ja	ja	0		J	
rääkis	rääki	s		V	s
,	,			Z	
et	et	0		J	
tema	tema	0		P	sg g
    	tema	0		P	sg n
läinud	läinu	d		S	pl n
      	läinud	0		A	
      	läinud	0		A	sg n
      	läinud	d		A	pl n
      	mine	nud		V	nud
oma	oma	0		A	sg g
   	oma	0		D	
   	oma	0		P	sg g
   	oma	0		S	sg g
   	oma	0		V	o
   	oma	0		A	sg n
   	oma	0		A	sg p
   	oma	0		P	sg n
   	oma	0		P	sg p
   	oma	0		S	sg n
   	oma	0		S	sg p
võid	või	d		S	pl n
    	või	d		V	d
    	või	d		S	sg p
mis	mis	0		P	pl n
   	mis	0		P	sg n
tal	tema	l		P	sg ad
ööse	öös	e		S	pl p
sel	see	l		P	sg ad
   	sel	0		Y	?
13ndal	13=s	l		O	sg ad
juuliil	####				
varastatud	varasta	tud		V	tud
          	varastatu	d		S	pl n
          	varastatud	0		A	
          	varastatud	0		A	sg n
          	varastatud	d		A	pl n
,	,			Z	
tagaotsima	####				
ja	ja	0		J	
läinud	läinu	d		S	pl n
      	läinud	0		A	
      	läinud	0		A	sg n
      	läinud	d		A	pl n
      	mine	nud		V	nud
jälge	jälg	0		S	adt
     	jälg	0		S	sg p
mõõda	mõõt	0		V	o
,	,			Z	
mis	mis	0		P	pl n
   	mis	0		P	sg n
kasti	kast	0		S	adt
     	kast	0		S	sg g
     	kast	0		S	sg p
peal	pea	l		S	sg ad
    	peal	0		D	
    	peal	0		K	
veel	veel	0		D	
    	vesi	l		S	sg ad
on	ole	0		V	b
  	ole	0		V	vad
näha	näge	a		V	da
olnud	ol=nud	0		A	
     	ol=nud	0		A	sg n
     	ol=nud	d		A	pl n
     	ole	nud		V	nud
     	olnu	d		S	pl n
järel	järel	0		D	
     	järel	0		K	
,	,			Z	
ja	ja	0		J	
jälled	####				
läinud	läinu	d		S	pl n
      	läinud	0		A	
      	läinud	0		A	sg n
      	läinud	d		A	pl n
      	mine	nud		V	nud
Predik	####				
Leinbergi	####				
juure	juur	0		S	sg g
,	,			Z	
ei	ei	0		D	
  	ei	0		V	neg
ta	tema	0		P	sg g
  	tema	0		P	sg n
ole	ole	0		V	o
aga	aga	0		J	
sealt	sealt	0		D	
     	siga	lt		A	sg abl
     	siga	lt		S	sg abl
midagi	miski	dagi		P	sg p
leidnud	leid	nud		V	nud
       	leid=nu	d		S	pl n
       	leid=nud	0		A	
       	leid=nud	0		A	sg n
       	leid=nud	d		A	pl n
,	,			Z	
sellepärast	selle_pärast	0		D	
läinud	läinu	d		S	pl n
      	läinud	0		A	
      	läinud	0		A	sg n
      	läinud	d		A	pl n
      	mine	nud		V	nud
ta	tema	0		P	sg g
  	tema	0		P	sg n
mõõda	mõõt	0		V	o
jõe	jõgi	0		S	sg g
kallast	kalla	st		S	sg el
       	kallas	t		S	sg p
edasi	edasi	0		D	
     	edasi	0		K	
Lahavere	####				
mehe	mees	0		S	sg g
heinaküüüni	####				
juure	juur	0		S	sg g
,	,			Z	
et	et	0		J	
ehk	ehk	0		D	
   	ehk	0		J	
või	või	0		S	sg g
   	või	0		V	o
   	või	0		D	
   	või	0		J	
   	või	0		S	sg n
vahest	vahe	st		S	sg el
      	vahest	0		D	
sinna	sinna	0		D	
äraviidud	ära_vii=du	d		S	pl n
         	ära_vii=dud	0		A	
         	ära_vii=dud	0		A	sg n
         	ära_vii=dud	d		A	pl n
,	,			Z	
ja	ja	0		J	
teinud	tege	nud		V	nud
      	tei=nud	0		A	
      	tei=nud	0		A	sg n
      	tei=nud	d		A	pl n
      	teinu	d		S	pl n
küüüni	####				
ukse	uks	0		S	sg g
lahti	laht	i		S	pl p
     	lahti	0		D	
ja	ja	0		J	
leidnud	leid	nud		V	nud
       	leid=nu	d		S	pl n
       	leid=nud	0		A	
       	leid=nud	0		A	sg n
       	leid=nud	d		A	pl n
sealt	sealt	0		D	
     	siga	lt		A	sg abl
     	siga	lt		S	sg abl
varga	varas	0		S	sg g
Mart	Mart	0		H	sg n
    	mart	0		S	sg n
Krasi	####				
,	,			Z	
kes	kes	0		P	pl n
   	kes	0		P	sg n
Pajusii	####				
vallast	vald	st		S	sg el
oma	oma	0		A	sg g
   	oma	0		D	
   	oma	0		P	sg g
   	oma	0		S	sg g
   	oma	0		V	o
   	oma	0		A	sg n
   	oma	0		A	sg p
   	oma	0		P	sg n
   	oma	0		P	sg p
   	oma	0		S	sg n
   	oma	0		S	sg p
peremehe	pere_mees	0		S	sg g
juurest	juur	st		S	sg el
       	juurest	0		K	
ärakarvanud	####				
oli	ole	i		V	s
.	.			Z	
Jüri	Jüri	0		H	sg g
    	Jüri	0		H	sg n
Kütt	kütt	0		S	sg n
käskinud	käski	nud		V	nud
        	käski=nu	d		S	pl n
        	käski=nud	0		A	
        	käski=nud	0		A	sg n
        	käski=nud	d		A	pl n
Mart	Mart	0		H	sg n
    	mart	0		S	sg n
Krasi	####				
välja	välja	0		D	
     	välja	0		V	o
     	väli	0		S	adt
     	väli	0		S	sg g
     	väli	0		S	sg p
tulla	tule	a		V	da
,	,			Z	
aga	aga	0		J	
Mart	Mart	0		H	sg n
    	mart	0		S	sg n
ei	ei	0		D	
  	ei	0		V	neg
ole	ole	0		V	o
tulnud	tul=nud	0		A	
      	tul=nud	0		A	sg n
      	tul=nud	d		A	pl n
      	tule	nud		V	nud
      	tulnu	d		S	pl n
,	,			Z	
sellepärast	selle_pärast	0		D	
teinud	tege	nud		V	nud
      	tei=nud	0		A	
      	tei=nud	0		A	sg n
      	tei=nud	d		A	pl n
      	teinu	d		S	pl n
tema	tema	0		P	sg g
    	tema	0		P	sg n
küüüni	####				
ukse	uks	0		S	sg g
eest	eest	0		D	
    	eest	0		K	
    	esi	st		S	sg el
kinni	kinni	0		D	
,	,			Z	
ja	ja	0		J	
hakanud	hakka	nud		V	nud
       	haka=nu	d		S	pl n
       	haka=nud	0		A	
       	haka=nud	0		A	sg n
       	haka=nud	d		A	pl n
Sauga	Sauga	0		H	sg g
     	Sauga	0		H	sg n
mehi	mees	0		S	pl p
kes	kes	0		P	pl n
   	kes	0		P	sg n
oma	oma	0		A	sg g
   	oma	0		D	
   	oma	0		P	sg g
   	oma	0		S	sg g
   	oma	0		V	o
   	oma	0		A	sg n
   	oma	0		A	sg p
   	oma	0		P	sg n
   	oma	0		P	sg p
   	oma	0		S	sg n
   	oma	0		S	sg p
heinamal	####				
olnud	ol=nud	0		A	
     	ol=nud	0		A	sg n
     	ol=nud	d		A	pl n
     	ole	nud		V	nud
     	olnu	d		S	pl n
api	####				
õikama	####				
.	.			Z	
Predik	####				
Leinberg	####				
läinud	läinu	d		S	pl n
      	läinud	0		A	
      	läinud	0		A	sg n
      	läinud	d		A	pl n
      	mine	nud		V	nud
kodu	kodu	0		S	sg g
    	kodu	0		S	sg n
    	kodu	0		S	sg p
,	,			Z	
ja	ja	0		J	
toonud	too	nud		V	nud
      	too=nu	d		S	pl n
      	too=nud	0		A	
      	too=nud	0		A	sg n
      	too=nud	d		A	pl n
ühe	üks	0		N	sg g
   	üks	0		P	sg g
   	ühe	0		S	sg n
oheliku	ohelik	0		S	sg g
,	,			Z	
kellega	kes	ga		P	pl kom
       	kes	ga		P	sg kom
Jüri	Jüri	0		H	sg g
    	Jüri	0		H	sg n
Kütt	kütt	0		S	sg n
tahtis	taht	is		V	s
Marti	Mart	0		H	adt
     	Mart	0		H	sg p
     	mart	0		S	adt
     	mart	0		S	sg p
kinniteota	####				
.	.			Z	
kui	kui	0		D	
   	kui	0		J	
nüüd	nüüd	0		D	
Hindrek	####				
Reismann	reis_mann	0		S	sg n
,	,			Z	
Jüri	Jüri	0		H	sg g
    	Jüri	0		H	sg n
püs	####				
ja	ja	0		J	
Juhan	Juhan	0		H	sg n
Nugis	nugi	s		V	s
     	nugis	0		S	sg n
api	####				
jooksnud	jooks	nud		V	nud
        	jooks=nu	d		S	pl n
        	jooks=nud	0		A	
        	jooks=nud	0		A	sg n
        	jooks=nud	d		A	pl n
,	,			Z	
siis	siis	0		D	
    	siis	0		J	
teinud	tege	nud		V	nud
      	tei=nud	0		A	
      	tei=nud	0		A	sg n
      	tei=nud	d		A	pl n
      	teinu	d		S	pl n
Jüri	Jüri	0		H	sg g
    	Jüri	0		H	sg n
Kütt	kütt	0		S	sg n
küüni	küün	0		S	adt
     	küün	0		S	sg g
     	küündi	0		V	o
     	küün	0		S	sg p
ukse	uks	0		S	sg g
teist	sina	st		P	pl el
     	tee	ist		S	pl el
     	teist	0		D	
     	teine	t		O	sg p
     	teine	t		P	sg p
korda	kord	0		S	adt
     	korda	0		V	o
     	kord	0		S	sg p
lahti	laht	i		S	pl p
     	lahti	0		D	
ja	ja	0		J	
käskinud	käski	nud		V	nud
        	käski=nu	d		S	pl n
        	käski=nud	0		A	
        	käski=nud	0		A	sg n
        	käski=nud	d		A	pl n
Mart	Mart	0		H	sg n
    	mart	0		S	sg n
Krasi	####				
pistoli	####				
välja	välja	0		D	
     	välja	0		V	o
     	väli	0		S	adt
     	väli	0		S	sg g
     	väli	0		S	sg p
visada	####				
.	.			Z	
ei	ei	0		D	
  	ei	0		V	neg
varas	vara	s		S	sg in
     	varas	0		S	sg n
Mart	Mart	0		H	sg n
    	mart	0		S	sg n
ole	ole	0		V	o
aga	aga	0		J	
pistoli	####				
väljavisanud	välja_visa=nu	d		S	pl n
            	välja_visa=nud	0		A	
            	välja_visa=nud	0		A	sg n
            	välja_visa=nud	d		A	pl n
,	,			Z	
tõmmanud	tõmba	nud		V	nud
        	tõmma=nu	d		S	pl n
        	tõmma=nud	0		A	
        	tõmma=nud	0		A	sg n
        	tõmma=nud	d		A	pl n
aga	aga	0		J	
pistoli	####				
kätte	kätte	0		K	
     	käsi	tte		S	adt
ja	ja	0		J	
lasknud	lask	nud		V	nud
       	lask=nu	d		S	pl n
       	lask=nud	0		A	
       	lask=nud	0		A	sg n
       	lask=nud	d		A	pl n
kaks	kaks	0		N	sg n
korda	kord	0		S	adt
     	korda	0		V	o
     	kord	0		S	sg p
vallavanema	valla_vanem	0		S	sg g
peale	pea	le		S	sg all
     	peale	0		D	
     	peale	0		K	
,	,			Z	
õnneks	õnn	ks		S	sg tr
ei	ei	0		D	
  	ei	0		V	neg
ole	ole	0		V	o
aga	aga	0		J	
olpist	####				
lahti	laht	i		S	pl p
     	lahti	0		D	
läinud	läinu	d		S	pl n
      	läinud	0		A	
      	läinud	0		A	sg n
      	läinud	d		A	pl n
      	mine	nud		V	nud
vaid	vaid	0		D	
    	vaid	0		J	
pistongid	pistong	d		S	pl n
üksipäine	####				
,	,			Z	
siis	siis	0		D	
    	siis	0		J	
saanud	saa	nud		V	nud
      	saa=nud	0		A	
      	saa=nud	0		A	sg n
      	saa=nud	d		A	pl n
      	saanu	d		S	pl n
Jüri	Jüri	0		H	sg g
    	Jüri	0		H	sg n
Kütt	kütt	0		S	sg n
Mart	Mart	0		H	sg n
    	mart	0		S	sg n
Krasse	####				
puuga	puu	ga		S	sg kom
lüüa	löö	a		V	da
ni	####				
et	et	0		J	
ta	tema	0		P	sg g
  	tema	0		P	sg n
maha_kukkunud	####				
,	,			Z	
ja	ja	0		J	
siis	siis	0		D	
    	siis	0		J	
kinnipandud	kinni_pan=du	d		S	pl n
           	kinni_pan=dud	0		A	
           	kinni_pan=dud	0		A	sg n
           	kinni_pan=dud	d		A	pl n
saanud	saa	nud		V	nud
      	saa=nud	0		A	
      	saa=nud	0		A	sg n
      	saa=nud	d		A	pl n
      	saanu	d		S	pl n
.	.			Z	
Hindrek	####				
Reismann	reis_mann	0		S	sg n
,	,			Z	
Jüri	Jüri	0		H	sg g
    	Jüri	0		H	sg n
püs	####				
ja	ja	0		J	
Juhan	Juhan	0		H	sg n
Nugis	nugi	s		V	s
     	nugis	0		S	sg n
rääkisivad	####				
sedasama	see_sama	0		P	sg p
mis	mis	0		P	pl n
   	mis	0		P	sg n
vallavanem	valla_vanem	0		S	sg n
Jüri	Jüri	0		H	sg g
    	Jüri	0		H	sg n
Kütt	kütt	0		S	sg n
.	.			Z	
Mart	Mart	0		H	sg n
    	mart	0		S	sg n
Kras	####				
sai	saa	i		V	s
   	sai	0		S	sg n
ette	ette	0		D	
    	ette	0		K	
    	esi	tte		S	adt
toodud	too	dud		V	tud
      	toodu	d		S	pl n
      	toodud	0		A	
      	toodud	0		A	sg n
      	toodud	d		A	pl n
,	,			Z	
ja	ja	0		J	
tema	tema	0		P	sg g
    	tema	0		P	sg n
tunnistas	tunnista	s		V	s
siin	siin	0		D	
    	siin	0		S	sg n
kohtu	kohtu	0		V	o
     	kohus	0		S	sg g
ees	ees	0		D	
   	ees	0		K	
   	esi	s		S	sg in
,	,			Z	
et	et	0		J	
tema	tema	0		P	sg g
    	tema	0		P	sg n
siis	siis	0		D	
    	siis	0		J	
hakanud	hakka	nud		V	nud
       	haka=nu	d		S	pl n
       	haka=nud	0		A	
       	haka=nud	0		A	sg n
       	haka=nud	d		A	pl n
varastama	varasta	ma		V	ma
,	,			Z	
kui	kui	0		D	
   	kui	0		J	
ta	tema	0		P	sg g
  	tema	0		P	sg n
veel	veel	0		D	
    	vesi	l		S	sg ad
vallavanemad	valla_vanem	d		S	pl n
Jüri	Jüri	0		H	sg g
    	Jüri	0		H	sg n
Kütti	kütt	0		S	adt
     	kütt	0		S	sg p
teenis	teeni	s		V	s
,	,			Z	
siis	siis	0		D	
    	siis	0		J	
viinud	vii	nud		V	nud
      	vii=nu	d		S	pl n
      	vii=nud	0		A	
      	vii=nud	0		A	sg n
      	vii=nud	d		A	pl n
tema	tema	0		P	sg g
    	tema	0		P	sg n
Jüri	Jüri	0		H	sg g
    	Jüri	0		H	sg n
Kütti	kütt	0		S	adt
     	kütt	0		S	sg p
käest	käest	0		K	
     	käsi	st		S	sg el
ühe	üks	0		N	sg g
   	üks	0		P	sg g
   	ühe	0		S	sg n
kirve	kirves	0		S	sg g
,	,			Z	
ühe	üks	0		N	sg g
   	üks	0		P	sg g
   	ühe	0		S	sg n
äkkevöö	äkke_vöö	0		S	sg g
       	äkke_vöö	0		S	sg n
ja	ja	0		J	
2	2	0		N	?
setverti	setvert	0		S	adt
        	setvert	0		S	sg p
odre	####				
ühe	üks	0		N	sg g
   	üks	0		P	sg g
   	ühe	0		S	sg n
kotiga	kott	ga		S	sg kom
ära	ära	0		D	
   	ära	0		V	neg o
.	.			Z	
äkkevöö	äkke_vöö	0		S	sg g
       	äkke_vöö	0		S	sg n
viinud	vii	nud		V	nud
      	vii=nu	d		S	pl n
      	vii=nud	0		A	
      	vii=nud	0		A	sg n
      	vii=nud	d		A	pl n
tema	tema	0		P	sg g
    	tema	0		P	sg n
Juhan	Juhan	0		H	sg n
persmanni	####				
kätte	kätte	0		K	
     	käsi	tte		S	adt
,	,			Z	
kes	kes	0		P	pl n
   	kes	0		P	sg n
teda	tema	da		P	sg p
käskinud	käski	nud		V	nud
        	käski=nu	d		S	pl n
        	käski=nud	0		A	
        	käski=nud	0		A	sg n
        	käski=nud	d		A	pl n
seda	see	da		P	sg p
asja	asi	0		S	adt
    	asi	0		S	sg g
    	asi	0		S	sg p
varastada	varasta	da		V	da
.	.			Z	
otrad	####				
,	,			Z	
kirve	kirves	0		S	sg g
ja	ja	0		J	
koti	kott	0		S	sg g
    	kotti	0		V	o
viinud	vii	nud		V	nud
      	vii=nu	d		S	pl n
      	vii=nud	0		A	
      	vii=nud	0		A	sg n
      	vii=nud	d		A	pl n
tema	tema	0		P	sg g
    	tema	0		P	sg n
Hans	Hans	0		H	sg n
persmanni	####				
kätte	kätte	0		K	
     	käsi	tte		S	adt
kes	kes	0		P	pl n
   	kes	0		P	sg n
teda	tema	da		P	sg p
ka	ka	0		D	
käskinud	käski	nud		V	nud
        	käski=nu	d		S	pl n
        	käski=nud	0		A	
        	käski=nud	0		A	sg n
        	käski=nud	d		A	pl n
neid	neid	0		S	sg n
    	see	d		P	pl p
    	tema	d		P	pl p
varastada	varasta	da		V	da
,	,			Z	
ja	ja	0		J	
temale	tema	le		P	sg all
nende	see	de		P	pl g
     	tema	de		P	pl g
eest	eest	0		D	
    	eest	0		K	
    	esi	st		S	sg el
8	8	0		N	?
rubl	####				
hõb	####				
.	.			Z	
annud	####				
.	.			Z	
Jüri	Jüri	0		H	sg g
    	Jüri	0		H	sg n
Kütti	kütt	0		S	adt
     	kütt	0		S	sg p
või	või	0		S	sg g
   	või	0		V	o
   	või	0		D	
   	või	0		J	
   	või	0		S	sg n
ja	ja	0		J	
riided	riie	d		S	pl n
ja	ja	0		J	
niisama	nii_sama	0		D	
Lahavere	####				
meeste	meene	te		A	pl g
      	mees	te		S	pl g
ja	ja	0		J	
Tapiku	Tapiku	0		H	sg g
      	Tapiku	0		H	sg n
meeste	meene	te		A	pl g
      	mees	te		S	pl g
riided	riie	d		S	pl n
ja	ja	0		J	
muud	muu	d		P	pl n
    	muu	d		S	pl n
    	muu	d		V	d
    	muu	d		P	sg p
    	muu	d		S	sg p
kraamid	kraam	d		S	pl n
       	kraami	d		V	d
käskinud	käski	nud		V	nud
        	käski=nu	d		S	pl n
        	käski=nud	0		A	
        	käski=nud	0		A	sg n
        	käski=nud	d		A	pl n
Predik	####				
Leinberg	####				
teda	tema	da		P	sg p
tuua	too	a		V	da
ja	ja	0		J	
võtnud	võt	nud		V	nud
      	võt=nu	d		S	pl n
      	võt=nud	0		A	
      	võt=nud	0		A	sg n
      	võt=nud	d		A	pl n
need	see	d		P	pl n
asjad	asi	d		S	pl n
tema	tema	0		P	sg g
    	tema	0		P	sg n
käest	käest	0		K	
     	käsi	st		S	sg el
muist	muist	0		P	
     	muu	ist		P	pl el
metsast	mets	st		S	sg el
       	metsane	t		A	sg p
ja	ja	0		J	
muist	muist	0		P	
     	muu	ist		P	pl el
kodu	kodu	0		S	sg g
    	kodu	0		S	sg n
    	kodu	0		S	sg p
vastu	vastu	0		D	
     	vastu	0		K	
.	.			Z	
Püsirohu	püsi_rohi	0		S	sg g
,	,			Z	
avalit	####				
ja	ja	0		J	
pistongid	pistong	d		S	pl n
andnud	and	nud		V	nud
      	and=nu	d		S	pl n
      	and=nud	0		A	
      	and=nud	0		A	sg n
      	and=nud	d		A	pl n
ka	ka	0		D	
Predik	####				
Leinberg	####				
temale	tema	le		P	sg all
ja	ja	0		J	
käskinud	käski	nud		V	nud
        	käski=nu	d		S	pl n
        	käski=nud	0		A	
        	käski=nud	0		A	sg n
        	käski=nud	d		A	pl n
teda	tema	da		P	sg p
ka	ka	0		D	
vallavanema	valla_vanem	0		S	sg g
Jüri	Jüri	0		H	sg g
    	Jüri	0		H	sg n
Kütti	kütt	0		S	adt
     	kütt	0		S	sg p
peale	pea	le		S	sg all
     	peale	0		D	
     	peale	0		K	
pestulika	####				
lasta	lask	ta		V	da
     	lask	ta		V	ta
.	.			Z	
Hans	Hans	0		H	sg n
persmann	####				
ettekutsutud	ette_kutsutu	d		S	pl n
            	ette_kutsutud	0		A	
            	ette_kutsutud	0		A	sg n
            	ette_kutsutud	d		A	pl n
,	,			Z	
rääkis	rääki	s		V	s
,	,			Z	
et	et	0		J	
tema	tema	0		P	sg g
    	tema	0		P	sg n
ei	ei	0		D	
  	ei	0		V	neg
ole	ole	0		V	o
käskinud	käski	nud		V	nud
        	käski=nu	d		S	pl n
        	käski=nud	0		A	
        	käski=nud	0		A	sg n
        	käski=nud	d		A	pl n
Marti	Mart	0		H	adt
     	Mart	0		H	sg p
     	mart	0		S	adt
     	mart	0		S	sg p
neid	neid	0		S	sg n
    	see	d		P	pl p
    	tema	d		P	pl p
odre	####				
oma	oma	0		A	sg g
   	oma	0		D	
   	oma	0		P	sg g
   	oma	0		S	sg g
   	oma	0		V	o
   	oma	0		A	sg n
   	oma	0		A	sg p
   	oma	0		P	sg n
   	oma	0		P	sg p
   	oma	0		S	sg n
   	oma	0		S	sg p
juure	juur	0		S	sg g
tuua	too	a		V	da
.	.			Z	
Mart	Mart	0		H	sg n
    	mart	0		S	sg n
olema	ole	ma		V	ma
need	see	d		P	pl n
asjad	asi	d		S	pl n
ise	ise	0		A	
   	ise	0		D	
   	ise	0		P	pl n
   	ise	0		P	sg n
omale	oma	le		A	sg all
     	oma	le		P	sg all
     	oma	le		S	sg all
sinna	sinna	0		D	
toonud	too	nud		V	nud
      	too=nu	d		S	pl n
      	too=nud	0		A	
      	too=nud	0		A	sg n
      	too=nud	d		A	pl n
ja	ja	0		J	
tahtnud	taht	nud		V	nud
       	taht=nu	d		S	pl n
       	taht=nud	0		A	
       	taht=nud	0		A	sg n
       	taht=nud	d		A	pl n
siis	siis	0		D	
    	siis	0		J	
hakata	hakka	ta		V	da
      	hakata	0		V	o
      	hakka	ta		V	ta
omale	oma	le		A	sg all
     	oma	le		P	sg all
     	oma	le		S	sg all
naist	naine	t		S	sg p
võtta	võt	a		V	da
,	,			Z	
ka	ka	0		D	
olema	ole	ma		V	ma
tema	tema	0		P	sg g
    	tema	0		P	sg n
naine	naine	0		S	sg n
aida	ait	0		S	sg g
isikust	isik	st		S	sg el
ühe	üks	0		N	sg g
   	üks	0		P	sg g
   	ühe	0		S	sg n
koti	kott	0		S	sg g
    	kotti	0		V	o
odradega	####				
leidnud	leid	nud		V	nud
       	leid=nu	d		S	pl n
       	leid=nud	0		A	
       	leid=nud	0		A	sg n
       	leid=nud	d		A	pl n
,	,			Z	
kes	kes	0		P	pl n
   	kes	0		P	sg n
tema	tema	0		P	sg g
    	tema	0		P	sg n
siis	siis	0		D	
    	siis	0		J	
omale	oma	le		A	sg all
     	oma	le		P	sg all
     	oma	le		S	sg all
ära	ära	0		D	
   	ära	0		V	neg o
võtnud	võt	nud		V	nud
      	võt=nu	d		S	pl n
      	võt=nud	0		A	
      	võt=nud	0		A	sg n
      	võt=nud	d		A	pl n
.	.			Z	
Kerves	####				
olema	ole	ma		V	ma
kül	####				
ka	ka	0		D	
tema	tema	0		P	sg g
    	tema	0		P	sg n
juures	juur	s		S	sg in
      	juures	0		D	
      	juures	0		K	
.	.			Z	
Juhan	Juhan	0		H	sg n
persmann	####				
ettekutsutud	ette_kutsutu	d		S	pl n
            	ette_kutsutud	0		A	
            	ette_kutsutud	0		A	sg n
            	ette_kutsutud	d		A	pl n
,	,			Z	
tunnistas	tunnista	s		V	s
,	,			Z	
et	et	0		J	
ta	tema	0		P	sg g
  	tema	0		P	sg n
mitte	mitte	0		D	
ei	ei	0		D	
  	ei	0		V	neg
ole	ole	0		V	o
käskinud	käski	nud		V	nud
        	käski=nu	d		S	pl n
        	käski=nud	0		A	
        	käski=nud	0		A	sg n
        	käski=nud	d		A	pl n
Marti	Mart	0		H	adt
     	Mart	0		H	sg p
     	mart	0		S	adt
     	mart	0		S	sg p
äkkevöö	äkke_vöö	0		S	sg g
       	äkke_vöö	0		S	sg n
tuua	too	a		V	da
aga	aga	0		J	
vastu	vastu	0		D	
     	vastu	0		K	
võtnud	võt	nud		V	nud
      	võt=nu	d		S	pl n
      	võt=nud	0		A	
      	võt=nud	0		A	sg n
      	võt=nud	d		A	pl n
on	ole	0		V	b
  	ole	0		V	vad
tema	tema	0		P	sg g
    	tema	0		P	sg n
kül	####				
äkkevöö	äkke_vöö	0		S	sg g
       	äkke_vöö	0		S	sg n
Marti	Mart	0		H	adt
     	Mart	0		H	sg p
     	mart	0		S	adt
     	mart	0		S	sg p
käest	käest	0		K	
     	käsi	st		S	sg el
.	.			Z	
Predik	####				
Leinberg	####				
tuli	tuli	0		S	sg n
    	tule	i		V	s
ette	ette	0		D	
    	ette	0		K	
    	esi	tte		S	adt
ja	ja	0		J	
rääkis	rääki	s		V	s
,	,			Z	
et	et	0		J	
tema	tema	0		P	sg g
    	tema	0		P	sg n
Marti	Mart	0		H	adt
     	Mart	0		H	sg p
     	mart	0		S	adt
     	mart	0		S	sg p
ei	ei	0		D	
  	ei	0		V	neg
ole	ole	0		V	o
käskinud	käski	nud		V	nud
        	käski=nu	d		S	pl n
        	käski=nud	0		A	
        	käski=nud	0		A	sg n
        	käski=nud	d		A	pl n
varastada	varasta	da		V	da
,	,			Z	
Mart	Mart	0		H	sg n
    	mart	0		S	sg n
toonud	too	nud		V	nud
      	too=nu	d		S	pl n
      	too=nud	0		A	
      	too=nud	0		A	sg n
      	too=nud	d		A	pl n
tema	tema	0		P	sg g
    	tema	0		P	sg n
juure	juur	0		S	sg g
ühe	üks	0		N	sg g
   	üks	0		P	sg g
   	ühe	0		S	sg n
koti	kott	0		S	sg g
    	kotti	0		V	o
täie	täis	0		A	sg g
    	täis	0		S	sg g
riidid	####				
ja	ja	0		J	
kleid	####				
ja	ja	0		J	
rangid	rangid	d		S	pl n
,	,			Z	
kahed	kaks	d		N	pl n
kleid	####				
Mart	Mart	0		H	sg n
    	mart	0		S	sg n
viinud	vii	nud		V	nud
      	vii=nu	d		S	pl n
      	vii=nud	0		A	
      	vii=nud	0		A	sg n
      	vii=nud	d		A	pl n
Ado	Ado	0		H	sg g
   	Ado	0		H	sg n
Prittsi	####				
rutikvere	####				
mehe	mees	0		S	sg g
kätte	kätte	0		K	
     	käsi	tte		S	adt
.	.			Z	
võid	või	d		S	pl n
    	või	d		V	d
    	või	d		S	sg p
,	,			Z	
mis	mis	0		P	pl n
   	mis	0		P	sg n
Mart	Mart	0		H	sg n
    	mart	0		S	sg n
varastanud	varasta	nud		V	nud
          	varasta=nu	d		S	pl n
          	varasta=nud	0		A	
          	varasta=nud	0		A	sg n
          	varasta=nud	d		A	pl n
ei	ei	0		D	
  	ei	0		V	neg
olema	ole	ma		V	ma
tema	tema	0		P	sg g
    	tema	0		P	sg n
mitte	mitte	0		D	
näinud	näi	nud		V	nud
      	näge	nud		V	nud
      	näi=nud	0		A	
      	näi=nud	0		A	sg n
      	näi=nud	d		A	pl n
      	näinu	d		S	pl n
,	,			Z	
ei	ei	0		D	
  	ei	0		V	neg
olema	ole	ma		V	ma
ka	ka	0		D	
mitte	mitte	0		D	
Martile	####				
rohtu	rohtu	0		D	
     	rohtu	0		V	o
     	rohi	0		S	adt
     	rohi	0		S	sg p
ega	ega	0		D	
   	ega	0		J	
avalit	####				
andnud	and	nud		V	nud
      	and=nu	d		S	pl n
      	and=nud	0		A	
      	and=nud	0		A	sg n
      	and=nud	d		A	pl n
ja	ja	0		J	
ei	ei	0		D	
  	ei	0		V	neg
ole	ole	0		V	o
käskinud	käski	nud		V	nud
        	käski=nu	d		S	pl n
        	käski=nud	0		A	
        	käski=nud	0		A	sg n
        	käski=nud	d		A	pl n
ka	ka	0		D	
Marti	Mart	0		H	adt
     	Mart	0		H	sg p
     	mart	0		S	adt
     	mart	0		S	sg p
vallavanema	valla_vanem	0		S	sg g
Jüri	Jüri	0		H	sg g
    	Jüri	0		H	sg n
Kütti	kütt	0		S	adt
     	kütt	0		S	sg p
peale	pea	le		S	sg all
     	peale	0		D	
     	peale	0		K	
lasta	lask	ta		V	da
     	lask	ta		V	ta
.	.			Z	
rutikvere	####				
mees	mees	0		S	sg n
    	mesi	s		S	sg in
Ado	Ado	0		H	sg g
   	Ado	0		H	sg n
Pritz	####				
ettekutsutud	ette_kutsutu	d		S	pl n
            	ette_kutsutud	0		A	
            	ette_kutsutud	0		A	sg n
            	ette_kutsutud	d		A	pl n
,	,			Z	
ütles	ütle	s		V	s
et	et	0		J	
Mart	Mart	0		H	sg n
    	mart	0		S	sg n
Kras	####				
on	ole	0		V	b
  	ole	0		V	vad
tema	tema	0		P	sg g
    	tema	0		P	sg n
juure	juur	0		S	sg g
2	2	0		N	?
kleid	####				
toonud	too	nud		V	nud
      	too=nu	d		S	pl n
      	too=nud	0		A	
      	too=nud	0		A	sg n
      	too=nud	d		A	pl n
ja	ja	0		J	
juhatanud	juhata	nud		V	nud
         	juhata=nu	d		S	pl n
         	juhata=nud	0		A	
         	juhata=nud	0		A	sg n
         	juhata=nud	d		A	pl n
temale	tema	le		P	sg all
ühte	ühte	0		D	
    	üks	0		N	adt
    	üks	0		P	adt
    	ühe	0		S	sg g
    	üks	0		N	sg p
    	üks	0		P	sg p
vesti	vest	0		S	adt
     	vest	0		S	sg g
     	vest	0		S	sg p
,	,			Z	
mis	mis	0		P	pl n
   	mis	0		P	sg n
ta	tema	0		P	sg g
  	tema	0		P	sg n
metsas	mets	s		S	sg in
põsasse	####				
pannud	pan=nu	d		S	pl n
      	pan=nud	0		A	
      	pan=nud	0		A	sg n
      	pan=nud	d		A	pl n
      	pane	nud		V	nud
.	.			Z	
Ado	Ado	0		H	sg g
   	Ado	0		H	sg n
on	ole	0		V	b
  	ole	0		V	vad
tahtinud	####				
need	see	d		P	pl n
ristad	rista	d		V	d
vallavanema	valla_vanem	0		S	sg g
kätte	kätte	0		K	
     	käsi	tte		S	adt
tuua	too	a		V	da
,	,			Z	
ei	ei	0		D	
  	ei	0		V	neg
ole	ole	0		V	o
aga	aga	0		J	
aega	aeg	0		S	adt
    	aeg	0		S	sg p
    	aega	0		K	
saanud	saa	nud		V	nud
      	saa=nud	0		A	
      	saa=nud	0		A	sg n
      	saa=nud	d		A	pl n
      	saanu	d		S	pl n
.	.			Z	
kogukonna	kogukond	0		S	sg g
kohtu	kohtu	0		V	o
     	kohus	0		S	sg g
liikmed	liige	d		S	pl n
pidasid	pida	sid		V	sid
nõu	nõu	0		S	sg g
   	nõu	0		S	sg n
   	nõu	0		S	sg p
ja	ja	0		J	
leidsid	leid	sid		V	sid
,	,			Z	
et	et	0		J	
Hans	Hans	0		H	sg n
ja	ja	0		J	
Juhan	Juhan	0		H	sg n
persmann	####				
niisama	nii_sama	0		D	
Predik	####				
Leinberg	####				
ja	ja	0		J	
Ado	Ado	0		H	sg g
   	Ado	0		H	sg n
Pritz	####				
kõik	kõik	0		P	pl n
    	kõik	0		S	sg n
    	kõik	0		P	sg n
varga	varas	0		S	sg g
hoidjad	hoidja	d		S	pl n
ja	ja	0		J	
varastatud	varasta	tud		V	tud
          	varastatu	d		S	pl n
          	varastatud	0		A	
          	varastatud	0		A	sg n
          	varastatud	d		A	pl n
asjade	asi	de		S	pl g
vastuvõtjad	vastu_võtja	d		S	pl n
on	ole	0		V	b
  	ole	0		V	vad
sellepärast	selle_pärast	0		D	
mõisteti	mõist	ti		V	ti
:	:			Z	
1.	1.	0		O	?
et	et	0		J	
varas	vara	s		S	sg in
     	varas	0		S	sg n
Mart	Mart	0		H	sg n
    	mart	0		S	sg n
Kras	####				
saab	saa	b		V	b
15	15	0		N	?
hoopi	hoop	0		S	adt
     	hoop	0		S	sg p
ühe	üks	0		N	sg g
   	üks	0		P	sg g
   	ühe	0		S	sg n
vana	vana	0		A	sg g
    	vana	0		A	sg n
    	vana	0		A	sg p
    	vana	0		S	sg g
    	vana	0		S	sg n
    	vana	0		S	sg p
trahvi	trahv	0		S	adt
      	trahv	0		S	sg g
      	trahvi	0		V	o
      	trahv	0		S	sg p
est	####				
mis	mis	0		P	pl n
   	mis	0		P	sg n
temal	tema	l		P	sg ad
veel	veel	0		D	
    	vesi	l		S	sg ad
maksmata	maks	mata		V	mata
        	maks=mata	0		A	
on	ole	0		V	b
  	ole	0		V	vad
ja	ja	0		J	
2.	2.	0		O	?
Predik	####				
Leinberg	####				
saab	saa	b		V	b
25	25	0		N	?
hoopi	hoop	0		S	adt
     	hoop	0		S	sg p
vitsa	vits	0		S	adt
     	vits	0		S	sg g
     	vits	0		S	sg p
oma	oma	0		A	sg g
   	oma	0		D	
   	oma	0		P	sg g
   	oma	0		S	sg g
   	oma	0		V	o
   	oma	0		A	sg n
   	oma	0		A	sg p
   	oma	0		P	sg n
   	oma	0		P	sg p
   	oma	0		S	sg n
   	oma	0		S	sg p
valetamise	valetamine	0		S	sg g
est	####				
sest	see	st		P	sg el
    	sest	0		J	
ta	tema	0		P	sg g
  	tema	0		P	sg n
oli	ole	i		V	s
enne	enne	0		D	
    	enne	0		K	
    	enne	0		S	sg n
ütelnud	ütle	nud		V	nud
       	ütel=nu	d		S	pl n
       	ütel=nud	0		A	
       	ütel=nud	0		A	sg n
       	ütel=nud	d		A	pl n
,	,			Z	
et	et	0		J	
tema	tema	0		P	sg g
    	tema	0		P	sg n
sugugi	sugugi	0		D	
Mart	Mart	0		H	sg n
    	mart	0		S	sg n
Krasi	####				
pole	ole	0		V	neg o
tükil	tükk	l		S	sg ad
aggal	####				
näinud	näi	nud		V	nud
      	näge	nud		V	nud
      	näi=nud	0		A	
      	näi=nud	0		A	sg n
      	näi=nud	d		A	pl n
      	näinu	d		S	pl n
ja	ja	0		J	
mõlemad	mõlema	d		P	pl n
se	####				
on	ole	0		V	b
  	ole	0		V	vad
Mart	Mart	0		H	sg n
    	mart	0		S	sg n
Kras	####				
ja	ja	0		J	
Predik	####				
Leinberg	####				
saavad	saa	vad		V	vad
      	saav	d		A	pl n
      	saav	d		S	pl n
vangi	vang	0		S	adt
     	vang	0		S	sg g
     	vang	0		S	sg p
viisil	viis	l		S	sg ad
      	viisil	0		K	
ühe	üks	0		N	sg g
   	üks	0		P	sg g
   	ühe	0		S	sg n
Keiserliku	keiserlik	0		A	sg g
Viljandi	Viljandi	0		H	sg g
        	Viljandi	0		H	sg n
        	viljandi	0		G	
silla	sild	0		S	sg g
kohtu	kohtu	0		V	o
     	kohus	0		S	sg g
alla	alla	0		D	
    	alla	0		K	
antud	an=tu	d		S	pl n
     	and	tud		V	tud
     	antud	0		A	
     	antud	0		A	sg n
     	antud	d		A	pl n
3.	3.	0		O	?
Hans	Hans	0		H	sg n
persmann	####				
maksab	maks	b		V	b
Jüri	Jüri	0		H	sg g
    	Jüri	0		H	sg n
Küttile	####				
odrade	####				
est	####				
14	14	0		N	?
1	1	0		N	?
/	/			Z	
2	2	0		N	?
rubla	rubla	0		S	sg g
     	rubla	0		S	sg n
     	rubla	0		S	sg p
koti	kott	0		S	sg g
    	kotti	0		V	o
eest	eest	0		D	
    	eest	0		K	
    	esi	st		S	sg el
1	1	0		N	?
rubla	rubla	0		S	sg g
     	rubla	0		S	sg n
     	rubla	0		S	sg p
ja	ja	0		J	
kirve	kirves	0		S	sg g
annab	and	b		V	b
tagasi	tagasi	0		D	
      	tagasi	0		K	
ja	ja	0		J	
lõpetatuseks	lõpetatus	ks		S	sg tr
maksab	maks	b		V	b
ta	tema	0		P	sg g
  	tema	0		P	sg n
6	6	0		N	?
rubla	rubla	0		S	sg g
     	rubla	0		S	sg n
     	rubla	0		S	sg p
laadikuse	####				
.	.			Z	
4.	4.	0		O	?
Juhan	Juhan	0		H	sg n
persmann	####				
annab	and	b		V	b
äkkevöö	äkke_vöö	0		S	sg g
       	äkke_vöö	0		S	sg n
Jürile	Jüri	le		H	sg all
tagasi	tagasi	0		D	
      	tagasi	0		K	
ja	ja	0		J	
maksab	maks	b		V	b
3	3	0		N	?
rubla	rubla	0		S	sg g
     	rubla	0		S	sg n
     	rubla	0		S	sg p
iirahvi	####				
laadikuse	####				
.	.			Z	
5.	5.	0		O	?
Ado	Ado	0		H	sg g
   	Ado	0		H	sg n
Pritz	####				
toop	toop	0		S	sg n
kleid	####				
ja	ja	0		J	
vest	vest	0		S	sg n
tagasi	tagasi	0		D	
      	tagasi	0		K	
ja	ja	0		J	
maksab	maks	b		V	b
6	6	0		N	?
rubla	rubla	0		S	sg g
     	rubla	0		S	sg n
     	rubla	0		S	sg p
hõb	####				
trahviks	trahv	ks		S	sg tr
        	trahvi	ks		V	ks
laadikuse	####				
.	.			Z	
peakohtumees	pea_kohtu_mees	0		S	sg n
:	:			Z	
Andres	Andre	s		H	sg in
      	Andres	0		H	sg n
Puusepp	puu_sepp	0		S	sg n
xxx	####				
,	,			Z	
nõumees	nõu_mees	0		S	sg n
Jaan	Jaan	0		H	sg n
    	jaan	0		S	sg n
    	jaan	0		Y	?
Rosenthal	####				
xxx	####				
,	,			Z	
nõumees	nõu_mees	0		S	sg n
Jaan	Jaan	0		H	sg n
    	jaan	0		S	sg n
    	jaan	0		Y	?
Kras	####				
xxx	####				
Alasel	alane	l		A	sg ad
nimetatud	nimeta	tud		V	tud
         	nimetatu	d		S	pl n
         	nimetatud	0		A	
         	nimetatud	0		A	sg n
         	nimetatud	d		A	pl n
on	ole	0		V	b
  	ole	0		V	vad
oma	oma	0		A	sg g
   	oma	0		D	
   	oma	0		P	sg g
   	oma	0		S	sg g
   	oma	0		V	o
   	oma	0		A	sg n
   	oma	0		A	sg p
   	oma	0		P	sg n
   	oma	0		P	sg p
   	oma	0		S	sg n
   	oma	0		S	sg p
asjad	asi	d		S	pl n
ja	ja	0		J	
mis	mis	0		P	pl n
   	mis	0		P	sg n
needsamad	see_sama	d		P	pl n
väärt	väärt	0		A	
     	väärt	0		D	
on	ole	0		V	b
  	ole	0		V	vad
,	,			Z	
mis	mis	0		P	pl n
   	mis	0		P	sg n
Predik	####				
Leinbergi	####				
käest	käest	0		K	
     	käsi	st		S	sg el
ära	ära	0		D	
   	ära	0		V	neg o
võeti	võt	ti		V	ti
ja	ja	0		J	
Mart	Mart	0		H	sg n
    	mart	0		S	sg n
Kras	####				
varastanud	varasta	nud		V	nud
          	varasta=nu	d		S	pl n
          	varasta=nud	0		A	
          	varasta=nud	0		A	sg n
          	varasta=nud	d		A	pl n
siin	siin	0		D	
    	siin	0		S	sg n
kohtu	kohtu	0		V	o
     	kohus	0		S	sg g
ees	ees	0		D	
   	ees	0		K	
   	esi	s		S	sg in
üles	üles	0		D	
andnud	and	nud		V	nud
      	and=nu	d		S	pl n
      	and=nud	0		A	
      	and=nud	0		A	sg n
      	and=nud	d		A	pl n
ja	ja	0		J	
nimelt	nimelt	0		D	
      	nimi	lt		S	sg abl
:	:			Z	
1.	1.	0		O	?
Hans	Hans	0		H	sg n
Rebane	rebane	0		S	sg n
,	,			Z	
Pajusii	####				
vallast	vald	st		S	sg el
,	,			Z	
andis	and	is		V	s
üles	üles	0		D	
:	:			Z	
ühed	üks	d		N	pl n
    	üks	d		P	pl n
rangid	rangid	d		S	pl n
ja	ja	0		J	
kahed	kaks	d		N	pl n
kleid	####				
ja	ja	0		J	
üks	üks	0		N	sg n
   	üks	0		P	sg n
raudlabidas	raud_labidas	0		S	sg n
           	raud_labidas	s		S	sg in
.	.			Z	
kokku	kokku	0		D	
     	kogu	0		S	adt
väärt	väärt	0		A	
     	väärt	0		D	
8.50	8.50	0		N	?
Cop	####				
.	.			Z	
2.	2.	0		O	?
Rein	Rein	0		H	sg n
Põder	põder	0		S	sg n
,	,			Z	
Pajusii	####				
vallast	vald	st		S	sg el
,	,			Z	
ühed	üks	d		N	pl n
    	üks	d		P	pl n
kleid	####				
väärt	väärt	0		A	
     	väärt	0		D	
350	350	0		N	?
Cop	####				
.	.			Z	
3.	3.	0		O	?
Hans	Hans	0		H	sg n
JNon	####				
,	,			Z	
Pajusi	Pajusi	0		H	sg g
      	Pajusi	0		H	sg n
vallast	vald	st		S	sg el
,	,			Z	
2	2	0		N	?
praki	####				
11	11	0		N	?
R	R	0		Y	?
.	.			Z	
,	,			Z	
1	1	0		N	?
paar	paar	0		N	sg n
    	paar	0		S	sg n
saapad	saabas	d		S	pl n
4	4	0		N	?
rbl	rbl	0		Y	?
.	.			Z	
,	,			Z	
4	4	0		N	?
paar	paar	0		N	sg n
    	paar	0		S	sg n
püksa	####				
7	7	0		N	?
rubl	####				
.	.			Z	
,	,			Z	
2	2	0		N	?
salli	sall	0		S	adt
     	sall	0		S	sg g
     	salli	0		V	o
     	sall	0		S	sg p
1	1	0		N	?
rbl	rbl	0		Y	?
65	65	0		N	?
Cop	####				
.	.			Z	
,	,			Z	
1	1	0		N	?
müts	müts	0		S	sg n
    	müts	0		I	
80	80	0		N	?
Cop	####				
,	,			Z	
1	1	0		N	?
vest	vest	0		S	sg n
130	130	0		N	?
kop	kop	0		Y	?
.	.			Z	
,	,			Z	
1	1	0		N	?
vöö	vöö	0		S	sg g
   	vöö	0		S	sg n
1	1	0		N	?
rubl	####				
.	.			Z	
,	,			Z	
3	3	0		N	?
lipsu	lips	0		S	adt
     	lips	0		S	sg g
     	lips	0		S	sg p
60	60	0		N	?
kop	kop	0		Y	?
.	.			Z	
,	,			Z	
2	2	0		N	?
rätikud	rätik	d		S	pl n
50	50	0		N	?
Cop	####				
.	.			Z	
,	,			Z	
1	1	0		N	?
paar	paar	0		N	sg n
    	paar	0		S	sg n
kindad	kinnas	d		S	pl n
15	15	0		N	?
kop	kop	0		Y	?
.	.			Z	
4.	4.	0		O	?
Tõnis	Tõnis	0		H	sg n
post	post	0		S	sg n
,	,			Z	
Pajusi	Pajusi	0		H	sg g
      	Pajusi	0		H	sg n
vallast	vald	st		S	sg el
:	:			Z	
1	1	0		N	?
prak	####				
6	6	0		N	?
rbl	rbl	0		Y	?
,	,			Z	
1	1	0		N	?
vest	vest	0		S	sg n
2	2	0		N	?
rbl	rbl	0		Y	?
,	,			Z	
2	2	0		N	?
paari	paar	0		N	adt
     	paar	0		N	sg g
     	paar	0		S	adt
     	paar	0		S	sg g
     	paari	0		D	
     	paari	0		V	o
     	paar	0		N	sg p
     	paar	0		S	sg p
püksa	####				
6	6	0		N	?
rbl	rbl	0		Y	?
.	.			Z	
,	,			Z	
1	1	0		N	?
paar	paar	0		N	sg n
    	paar	0		S	sg n
saapad	saabas	d		S	pl n
3	3	0		N	?
rubla	rubla	0		S	sg g
     	rubla	0		S	sg n
     	rubla	0		S	sg p
,	,			Z	
1	1	0		N	?
Lips	lips	0		S	sg n
ja	ja	0		J	
mannis	mann	s		S	sg in
40	40	0		N	?
Cop	####				
.	.			Z	
,	,			Z	
avvihmari	####				
1	1	0		N	?
rubla	rubla	0		S	sg g
     	rubla	0		S	sg n
     	rubla	0		S	sg p
.	.			Z	
5.	5.	0		O	?
Rein	Rein	0		H	sg n
Pillu	pildu	0		V	o
,	,			Z	
Pajusi	Pajusi	0		H	sg g
      	Pajusi	0		H	sg n
vallast	vald	st		S	sg el
,	,			Z	
1	1	0		N	?
margapuu	marga_puu	0		S	sg g
        	marga_puu	0		S	sg n
475	475	0		N	?
kopp	kopp	0		S	sg n
.	.			Z	
,	,			Z	
1	1	0		N	?
hobune	hobune	0		S	sg n
40	40	0		N	?
rbl	rbl	0		Y	?
.	.			Z	
väärt	väärt	0		A	
     	väärt	0		D	
.	.			Z	
6.	6.	0		O	?
Jüri	Jüri	0		H	sg g
    	Jüri	0		H	sg n
Kütt	kütt	0		S	sg n
,	,			Z	
Tapiku	Tapiku	0		H	sg g
      	Tapiku	0		H	sg n
vallast	vald	st		S	sg el
:	:			Z	
2	2	0		N	?
?	?			Z	
võid	või	d		S	pl n
    	või	d		V	d
    	või	d		S	sg p
8	8	0		N	?
rubl	####				
.	.			Z	
,	,			Z	
1	1	0		N	?
prak	####				
3	3	0		N	?
rbl	rbl	0		Y	?
.	.			Z	
,	,			Z	
üks	üks	0		N	sg n
   	üks	0		P	sg n
vest	vest	0		S	sg n
1	1	0		N	?
rbl	rbl	0		Y	?
.	.			Z	
,	,			Z	
odrad	oder	d		S	pl n
?	?			Z	
2	2	0		N	?
setverti	setvert	0		S	adt
        	setvert	0		S	sg p
16	16	0		N	?
rubla	rubla	0		S	sg g
     	rubla	0		S	sg n
     	rubla	0		S	sg p
,	,			Z	
1	1	0		N	?
kott	kott	0		S	sg n
1	1	0		N	?
rbl	rbl	0		Y	?
.	.			Z	
,	,			Z	
1	1	0		N	?
kirves	kirves	0		S	sg n
      	kirves	s		S	sg in
1	1	0		N	?
rubla	rubla	0		S	sg g
     	rubla	0		S	sg n
     	rubla	0		S	sg p
,	,			Z	
75	75	0		N	?
Cop	####				
puhast	puhas	t		A	sg p
raha	raha	0		S	sg g
    	raha	0		S	sg n
    	raha	0		S	sg p
,	,			Z	
äkkevöö	äkke_vöö	0		S	sg g
       	äkke_vöö	0		S	sg n
50	50	0		N	?
kopp	kopp	0		S	sg n
.	.			Z	
7.	7.	0		O	?
Hindrek	####				
Reismann	reis_mann	0		S	sg n
,	,			Z	
Tapiku	Tapiku	0		H	sg g
      	Tapiku	0		H	sg n
vallast	vald	st		S	sg el
,	,			Z	
1	1	0		N	?
paar	paar	0		N	sg n
    	paar	0		S	sg n
saapad	saabas	d		S	pl n
4	4	0		N	?
rbl	rbl	0		Y	?
.	.			Z	
,	,			Z	
üks	üks	0		N	sg n
   	üks	0		P	sg n
tühi	tühi	0		A	sg n
rahakot	####				
35	35	0		N	?
Cop	####				
.	.			Z	
väärt	väärt	0		A	
     	väärt	0		D	
.	.			Z	
8.	8.	0		O	?
Juhan	Juhan	0		H	sg n
Jürison	####				
,	,			Z	
Tapiku	Tapiku	0		H	sg g
      	Tapiku	0		H	sg n
mees	mees	0		S	sg n
    	mesi	s		S	sg in
,	,			Z	
ühed	üks	d		N	pl n
    	üks	d		P	pl n
roomad	room	d		S	pl n
      	rooma	d		V	d
1	1	0		N	?
rbl	rbl	0		Y	?
.	.			Z	
väärt	väärt	0		A	
     	väärt	0		D	
.	.			Z	
9.	9.	0		O	?
Pärtel	Pärtel	0		H	sg n
Kadastik	kadastik	0		S	sg n
,	,			Z	
Tapiku	Tapiku	0		H	sg g
      	Tapiku	0		H	sg n
mees	mees	0		S	sg n
    	mesi	s		S	sg in
,	,			Z	
3	3	0		N	?
vikatid	vikat	d		S	pl n
1	1	0		N	?
rbl	rbl	0		Y	?
,	,			Z	
5	5	0		N	?
küünar	küünar	0		S	sg n
riiet	riie	t		S	sg p
1	1	0		N	?
rbl	rbl	0		Y	?
,	,			Z	
2	2	0		N	?
särgi	särg	i		S	pl p
     	särk	0		S	sg g
150	150	0		N	?
kop	kop	0		Y	?
.	.			Z	
10.	10.	0		O	?
Juhan	Juhan	0		H	sg n
persmann	####				
Tapiku	Tapiku	0		H	sg g
      	Tapiku	0		H	sg n
vallast	vald	st		S	sg el
,	,			Z	
2	2	0		N	?
särgi	särg	i		S	pl p
     	särk	0		S	sg g
1	1	0		N	?
rbl	rbl	0		Y	?
.	.			Z	
peakohtumees	pea_kohtu_mees	0		S	sg n
:	:			Z	
Andres	Andre	s		H	sg in
      	Andres	0		H	sg n
Puusepp	puu_sepp	0		S	sg n
Keiserliku	keiserlik	0		A	sg g
Viljandi	Viljandi	0		H	sg g
        	Viljandi	0		H	sg n
        	viljandi	0		G	
Sillakohtu	silla_kohus	0		S	sg g
Zir	####				
ku	####				
lääri	####				
järele	järele	0		D	
      	järele	0		K	
,	,			Z	
mis	mis	0		P	pl n
   	mis	0		P	sg n
sel	see	l		P	sg ad
   	sel	0		Y	?
18	18	0		N	?
Novembril	november	l		S	sg ad
1871	1871	0		N	?
sub	####				
nr	nr	0		Y	?
4480	4480	0		N	?
kogukonna	kogukond	0		S	sg g
kohtutele	kohus	tele		S	pl all
oli	ole	i		V	s
ettekirjutud	####				
,	,			Z	
ning	ning	0		J	
käsuks	käsk	ks		S	sg tr
tehtud	tehtu	d		S	pl n
      	tehtud	0		A	
      	tehtud	0		A	sg n
      	tehtud	d		A	pl n
      	tege	tud		V	tud
,	,			Z	
olid	ole	id		V	sid
allamal	####				
nimetatud	nimeta	tud		V	tud
         	nimetatu	d		S	pl n
         	nimetatud	0		A	
         	nimetatud	0		A	sg n
         	nimetatud	d		A	pl n
kohtumehed	kohtu_mees	d		S	pl n
Juhan	Juhan	0		H	sg n
Jürisooni	####				
,	,			Z	
Pärtel	Pärtel	0		H	sg n
Kadastiku	kadastik	0		S	sg g
,	,			Z	
Juhan	Juhan	0		H	sg n
persmanni	####				
,	,			Z	
Jüri	Jüri	0		H	sg g
    	Jüri	0		H	sg n
Kütti	kütt	0		S	adt
     	kütt	0		S	sg p
ja	ja	0		J	
Hindrek	####				
Reismanni	reis_mann	0		S	adt
         	reis_mann	0		S	sg g
         	reis_mann	0		S	sg p
juure	juur	0		S	sg g
läinud	läinu	d		S	pl n
      	läinud	0		A	
      	läinud	0		A	sg n
      	läinud	d		A	pl n
      	mine	nud		V	nud
,	,			Z	
ning	ning	0		J	
kindlasti	kindlasti	0		D	
järelevaatanud	####				
ja	ja	0		J	
kuuulanud	####				
,	,			Z	
kuidas	kuidas	0		D	
,	,			Z	
matel	mate	l		S	sg ad
ajal	aeg	l		S	sg ad
    	ajal	0		K	
ja	ja	0		J	
mis	mis	0		P	pl n
   	mis	0		P	sg n
Mart	Mart	0		H	sg n
    	mart	0		S	sg n
Kras	####				
,	,			Z	
nende	see	de		P	pl g
     	tema	de		P	pl g
käest	käest	0		K	
     	käsi	st		S	sg el
varastanud	varasta	nud		V	nud
          	varasta=nu	d		S	pl n
          	varasta=nud	0		A	
          	varasta=nud	0		A	sg n
          	varasta=nud	d		A	pl n
,	,			Z	
ja	ja	0		J	
nimelt	nimelt	0		D	
      	nimi	lt		S	sg abl
leidsid	leid	sid		V	sid
:	:			Z	
I.	I.	0		Y	?
  	j	0		Y	?
et	et	0		J	
Mart	Mart	0		H	sg n
    	mart	0		S	sg n
Kras	####				
varastanud	varasta	nud		V	nud
          	varasta=nu	d		S	pl n
          	varasta=nud	0		A	
          	varasta=nud	0		A	sg n
          	varasta=nud	d		A	pl n
Juhan	Juhan	0		H	sg n
Jürisoni	####				
juurest	juur	st		S	sg el
       	juurest	0		K	
:	:			Z	
a	a	0		Y	?
)	)			Z	
varas	vara	s		S	sg in
     	varas	0		S	sg n
varastanud	varasta	nud		V	nud
          	varasta=nu	d		S	pl n
          	varasta=nud	0		A	
          	varasta=nud	0		A	sg n
          	varasta=nud	d		A	pl n
roomad	room	d		S	pl n
      	rooma	d		V	d
öösi	öös	0		S	adt
    	öös	0		S	sg g
    	öösi	0		D	
    	öös	0		S	sg p
,	,			Z	
b	b	0		Y	?
.	.			Z	
)	)			Z	
ühest	üks	st		N	sg el
     	üks	st		P	sg el
     	ühene	t		A	sg p
     	ühest	0		D	
lahtisest	lahtine	st		A	sg el
ruumist	ruum	st		S	sg el
,	,			Z	
aida	ait	0		S	sg g
ulu	ulg	0		S	sg g
   	ulgu	0		V	o
   	ulu	0		V	o
alt	alt	0		S	sg n
   	alt	0		D	
   	alt	0		K	
,	,			Z	
c	c	0		Y	?
.	.			Z	
)	)			Z	
lukku	lukk	0		S	adt
     	lukku	0		D	
     	lukku	0		V	o
     	lugu	0		S	adt
     	lukk	0		S	sg p
ega	ega	0		D	
   	ega	0		J	
ukse	uks	0		S	sg g
murdmist	murdmine	t		S	sg p
varastamise	varastamine	0		S	sg g
juures	juur	s		S	sg in
      	juures	0		D	
      	juures	0		K	
pole	ole	0		V	neg o
olnud	ol=nud	0		A	
     	ol=nud	0		A	sg n
     	ol=nud	d		A	pl n
     	ole	nud		V	nud
     	olnu	d		S	pl n
,	,			Z	
d	d	0		Y	?
.	.			Z	
)	)			Z	
ühed	üks	d		N	pl n
    	üks	d		P	pl n
roomad	room	d		S	pl n
      	rooma	d		V	d
,	,			Z	
üks	üks	0		N	sg n
   	üks	0		P	sg n
rubla	rubla	0		S	sg g
     	rubla	0		S	sg n
     	rubla	0		S	sg p
väärt	väärt	0		A	
     	väärt	0		D	
,	,			Z	
e	e	0		Y	?
.	.			Z	
)	)			Z	
onnik	####				
on	ole	0		V	b
  	ole	0		V	vad
oma	oma	0		A	sg g
   	oma	0		D	
   	oma	0		P	sg g
   	oma	0		S	sg g
   	oma	0		V	o
   	oma	0		A	sg n
   	oma	0		A	sg p
   	oma	0		P	sg n
   	oma	0		P	sg p
   	oma	0		S	sg n
   	oma	0		S	sg p
roomad	room	d		S	pl n
      	rooma	d		V	d
,	,			Z	
Rein	Rein	0		H	sg n
Pillui	####				
käest	käest	0		K	
     	käsi	st		S	sg el
kätte	kätte	0		K	
     	käsi	tte		S	adt
saanud	saa	nud		V	nud
      	saa=nud	0		A	
      	saa=nud	0		A	sg n
      	saa=nud	d		A	pl n
      	saanu	d		S	pl n
,	,			Z	
kuspoole	####				
Mart	Mart	0		H	sg n
    	mart	0		S	sg n
Kras	####				
nad	tema	d		P	pl n
on	ole	0		V	b
  	ole	0		V	vad
viinud	vii	nud		V	nud
      	vii=nu	d		S	pl n
      	vii=nud	0		A	
      	vii=nud	0		A	sg n
      	vii=nud	d		A	pl n
.	.			Z	
II	II	0		O	?
  	II	0		Y	?
  	jj	0		Y	?
.	.			Z	
Pärtel	Pärtel	0		H	sg n
Kadastiku	kadastik	0		S	sg g
juurest	juur	st		S	sg el
       	juurest	0		K	
:	:			Z	
a	a	0		Y	?
)	)			Z	
Mart	Mart	0		H	sg n
    	mart	0		S	sg n
varastanud	varasta	nud		V	nud
          	varasta=nu	d		S	pl n
          	varasta=nud	0		A	
          	varasta=nud	0		A	sg n
          	varasta=nud	d		A	pl n
tema	tema	0		P	sg g
    	tema	0		P	sg n
juurest	juur	st		S	sg el
       	juurest	0		K	
öösi	öös	0		S	adt
    	öös	0		S	sg g
    	öösi	0		D	
    	öös	0		S	sg p
,	,			Z	
b	b	0		Y	?
.	.			Z	
)	)			Z	
aida	ait	0		S	sg g
ulu	ulg	0		S	sg g
   	ulgu	0		V	o
   	ulu	0		V	o
alt	alt	0		S	sg n
   	alt	0		D	
   	alt	0		K	
ja	ja	0		J	
ekapleja	####				
pealt	pea	lt		S	sg abl
     	pealt	0		D	
     	pealt	0		K	
,	,			Z	
c	c	0		Y	?
.	.			Z	
)	)			Z	
lukku	lukk	0		S	adt
     	lukku	0		D	
     	lukku	0		V	o
     	lugu	0		S	adt
     	lukk	0		S	sg p
murdmist	murdmine	t		S	sg p
ei	ei	0		D	
  	ei	0		V	neg
olnud	ol=nud	0		A	
     	ol=nud	0		A	sg n
     	ol=nud	d		A	pl n
     	ole	nud		V	nud
     	olnu	d		S	pl n
seal	seal	0		D	
    	siga	l		A	sg ad
    	siga	l		S	sg ad
juures	juur	s		S	sg in
      	juures	0		D	
      	juures	0		K	
,	,			Z	
d	d	0		Y	?
.	.			Z	
)	)			Z	
3	3	0		N	?
vikatid	vikat	d		S	pl n
,	,			Z	
väärt	väärt	0		A	
     	väärt	0		D	
1	1	0		N	?
rbl	rbl	0		Y	?
,	,			Z	
2	2	0		N	?
särgi	särg	i		S	pl p
     	särk	0		S	sg g
150	150	0		N	?
kopp	kopp	0		S	sg n
.	.			Z	
ja	ja	0		J	
5	5	0		N	?
küünart	küünar	t		S	sg p
riiet	riie	t		S	sg p
1	1	0		N	?
rbl	rbl	0		Y	?
.	.			Z	
,	,			Z	
e	e	0		Y	?
.	.			Z	
)	)			Z	
onnik	####				
on	ole	0		V	b
  	ole	0		V	vad
oma	oma	0		A	sg g
   	oma	0		D	
   	oma	0		P	sg g
   	oma	0		S	sg g
   	oma	0		V	o
   	oma	0		A	sg n
   	oma	0		A	sg p
   	oma	0		P	sg n
   	oma	0		P	sg p
   	oma	0		S	sg n
   	oma	0		S	sg p
3	3	0		N	?
vikatid	vikat	d		S	pl n
ja	ja	0		J	
5	5	0		N	?
küünart	küünar	t		S	sg p
riiet	riie	t		S	sg p
kätte	kätte	0		K	
     	käsi	tte		S	adt
saanud	saa	nud		V	nud
      	saa=nud	0		A	
      	saa=nud	0		A	sg n
      	saa=nud	d		A	pl n
      	saanu	d		S	pl n
,	,			Z	
üks	üks	0		N	sg n
   	üks	0		P	sg n
särk	särk	0		S	sg n
aga	aga	0		J	
puutub	puutu	b		V	b
.	.			Z	
III	III	0		O	?
   	III	0		Y	?
.	.			Z	
Juhan	Juhan	0		H	sg n
persmanni	####				
juurest	juur	st		S	sg el
       	juurest	0		K	
:	:			Z	
a	a	0		Y	?
)	)			Z	
Mart	Mart	0		H	sg n
    	mart	0		S	sg n
Kras	####				
varastanud	varasta	nud		V	nud
          	varasta=nu	d		S	pl n
          	varasta=nud	0		A	
          	varasta=nud	0		A	sg n
          	varasta=nud	d		A	pl n
tema	tema	0		P	sg g
    	tema	0		P	sg n
juurest	juur	st		S	sg el
       	juurest	0		K	
öösi	öös	0		S	adt
    	öös	0		S	sg g
    	öösi	0		D	
    	öös	0		S	sg p
,	,			Z	
b	b	0		Y	?
.	.			Z	
)	)			Z	
ühest	üks	st		N	sg el
     	üks	st		P	sg el
     	ühene	t		A	sg p
     	ühest	0		D	
lahtisest	lahtine	st		A	sg el
ruumist	ruum	st		S	sg el
,	,			Z	
ekapleja	####				
pealt	pea	lt		S	sg abl
     	pealt	0		D	
     	pealt	0		K	
,	,			Z	
c	c	0		Y	?
.	.			Z	
)	)			Z	
ukse	uks	0		S	sg g
ega	ega	0		D	
   	ega	0		J	
lukku	lukk	0		S	adt
     	lukku	0		D	
     	lukku	0		V	o
     	lugu	0		S	adt
     	lukk	0		S	sg p
murdmist	murdmine	t		S	sg p
seal	seal	0		D	
    	siga	l		A	sg ad
    	siga	l		S	sg ad
juures	juur	s		S	sg in
      	juures	0		D	
      	juures	0		K	
pole	ole	0		V	neg o
olnud	ol=nud	0		A	
     	ol=nud	0		A	sg n
     	ol=nud	d		A	pl n
     	ole	nud		V	nud
     	olnu	d		S	pl n
,	,			Z	
d	d	0		Y	?
.	.			Z	
)	)			Z	
2	2	0		N	?
särgi	särg	i		S	pl p
     	särk	0		S	sg g
väärt	väärt	0		A	
     	väärt	0		D	
1	1	0		N	?
rbl	rbl	0		Y	?
.	.			Z	
hõb	####				
.	.			Z	
,	,			Z	
e	e	0		Y	?
.	.			Z	
)	)			Z	
onnik	####				
on	ole	0		V	b
  	ole	0		V	vad
oma	oma	0		A	sg g
   	oma	0		D	
   	oma	0		P	sg g
   	oma	0		S	sg g
   	oma	0		V	o
   	oma	0		A	sg n
   	oma	0		A	sg p
   	oma	0		P	sg n
   	oma	0		P	sg p
   	oma	0		S	sg n
   	oma	0		S	sg p
2	2	0		N	?
särgi	särg	i		S	pl p
     	särk	0		S	sg g
kätte	kätte	0		K	
     	käsi	tte		S	adt
saanud	saa	nud		V	nud
      	saa=nud	0		A	
      	saa=nud	0		A	sg n
      	saa=nud	d		A	pl n
      	saanu	d		S	pl n
.	.			Z	
IV	IV	0		O	?
  	IV	0		Y	?
.	.			Z	
Hindrek	####				
Reismanni	reis_mann	0		S	adt
         	reis_mann	0		S	sg g
         	reis_mann	0		S	sg p
juurest	juur	st		S	sg el
       	juurest	0		K	
:	:			Z	
a	a	0		Y	?
)	)			Z	
Mart	Mart	0		H	sg n
    	mart	0		S	sg n
Kras	####				
varastanud	varasta	nud		V	nud
          	varasta=nu	d		S	pl n
          	varasta=nud	0		A	
          	varasta=nud	0		A	sg n
          	varasta=nud	d		A	pl n
tema	tema	0		P	sg g
    	tema	0		P	sg n
juurest	juur	st		S	sg el
       	juurest	0		K	
öösi	öös	0		S	adt
    	öös	0		S	sg g
    	öösi	0		D	
    	öös	0		S	sg p
,	,			Z	
b	b	0		Y	?
.	.			Z	
)	)			Z	
lakast	lakk	st		S	sg el
katuse	katus	0		S	sg g
alt	alt	0		S	sg n
   	alt	0		D	
   	alt	0		K	
,	,			Z	
c	c	0		Y	?
.	.			Z	
)	)			Z	
ukse	uks	0		S	sg g
ega	ega	0		D	
   	ega	0		J	
lukku	lukk	0		S	adt
     	lukku	0		D	
     	lukku	0		V	o
     	lugu	0		S	adt
     	lukk	0		S	sg p
murdmist	murdmine	t		S	sg p
seal	seal	0		D	
    	siga	l		A	sg ad
    	siga	l		S	sg ad
juures	juur	s		S	sg in
      	juures	0		D	
      	juures	0		K	
pole	ole	0		V	neg o
olnud	ol=nud	0		A	
     	ol=nud	0		A	sg n
     	ol=nud	d		A	pl n
     	ole	nud		V	nud
     	olnu	d		S	pl n
,	,			Z	
d	d	0		Y	?
.	.			Z	
)	)			Z	
üks	üks	0		N	sg n
   	üks	0		P	sg n
paar	paar	0		N	sg n
    	paar	0		S	sg n
saapad	saabas	d		S	pl n
väärt	väärt	0		A	
     	väärt	0		D	
4	4	0		N	?
rubl	####				
.	.			Z	
,	,			Z	
1	1	0		N	?
rahakot	####				
35	35	0		N	?
kopp	kopp	0		S	sg n
.	.			Z	
väärt	väärt	0		A	
     	väärt	0		D	
,	,			Z	
e	e	0		Y	?
.	.			Z	
)	)			Z	
saapad	saabas	d		S	pl n
ja	ja	0		J	
rahakoti	raha_kott	0		S	sg g
on	ole	0		V	b
  	ole	0		V	vad
Hindrek	####				
kätte	kätte	0		K	
     	käsi	tte		S	adt
saanud	saa	nud		V	nud
      	saa=nud	0		A	
      	saa=nud	0		A	sg n
      	saa=nud	d		A	pl n
      	saanu	d		S	pl n
.	.			Z	
V. Jüri	####				
Kütti	kütt	0		S	adt
     	kütt	0		S	sg p
juurest	juur	st		S	sg el
       	juurest	0		K	
:	:			Z	
a	a	0		Y	?
)	)			Z	
praki	####				
ja	ja	0		J	
vesti	vest	0		S	adt
     	vest	0		S	sg g
     	vest	0		S	sg p
võtnud	võt	nud		V	nud
      	võt=nu	d		S	pl n
      	võt=nud	0		A	
      	võt=nud	0		A	sg n
      	võt=nud	d		A	pl n
Mart	Mart	0		H	sg n
    	mart	0		S	sg n
tema	tema	0		P	sg g
    	tema	0		P	sg n
käest	käest	0		K	
     	käsi	st		S	sg el
päeva	päev	0		S	adt
     	päev	0		S	sg g
     	päev	0		S	sg p
aeg	aeg	0		S	sg n
,	,			Z	
metsast	mets	st		S	sg el
       	metsane	t		A	sg p
heinama	####				
pealt	pea	lt		S	sg abl
     	pealt	0		D	
     	pealt	0		K	
.	.			Z	
teised	teine	d		O	pl n
      	teine	d		P	pl n
asjad	asi	d		S	pl n
varastanud	varasta	nud		V	nud
          	varasta=nu	d		S	pl n
          	varasta=nud	0		A	
          	varasta=nud	0		A	sg n
          	varasta=nud	d		A	pl n
ta	tema	0		P	sg g
  	tema	0		P	sg n
öösi	öös	0		S	adt
    	öös	0		S	sg g
    	öösi	0		D	
    	öös	0		S	sg p
,	,			Z	
b	b	0		Y	?
.	.			Z	
)	)			Z	
või	või	0		S	sg g
   	või	0		V	o
   	või	0		D	
   	või	0		J	
   	või	0		S	sg n
ja	ja	0		J	
raha	raha	0		S	sg g
    	raha	0		S	sg n
    	raha	0		S	sg p
võtnud	võt	nud		V	nud
      	võt=nu	d		S	pl n
      	võt=nud	0		A	
      	võt=nud	0		A	sg n
      	võt=nud	d		A	pl n
hagerikust	hagerik	st		S	sg el
lukku	lukk	0		S	adt
     	lukku	0		D	
     	lukku	0		V	o
     	lugu	0		S	adt
     	lukk	0		S	sg p
tagast	####				
,	,			Z	
raha	raha	0		S	sg g
    	raha	0		S	sg n
    	raha	0		S	sg p
kirstust	kirst	st		S	sg el
lukku	lukk	0		S	adt
     	lukku	0		D	
     	lukku	0		V	o
     	lugu	0		S	adt
     	lukk	0		S	sg p
tagast	####				
.	.			Z	
otrad	####				
ja	ja	0		J	
koti	kott	0		S	sg g
    	kotti	0		V	o
toonud	too	nud		V	nud
      	too=nu	d		S	pl n
      	too=nud	0		A	
      	too=nud	0		A	sg n
      	too=nud	d		A	pl n
tema	tema	0		P	sg g
    	tema	0		P	sg n
aidast	ait	st		S	sg el
ja	ja	0		J	
ka	ka	0		D	
lukku	lukk	0		S	adt
     	lukku	0		D	
     	lukku	0		V	o
     	lugu	0		S	adt
     	lukk	0		S	sg p
tagast	####				
,	,			Z	
kirve	kirves	0		S	sg g
toonud	too	nud		V	nud
      	too=nu	d		S	pl n
      	too=nud	0		A	
      	too=nud	0		A	sg n
      	too=nud	d		A	pl n
ta	tema	0		P	sg g
  	tema	0		P	sg n
vist	vist	0		S	sg n
    	vist	0		D	
toast	tuba	st		S	sg el
,	,			Z	
c	c	0		Y	?
.	.			Z	
)	)			Z	
ukse	uks	0		S	sg g
ega	ega	0		D	
   	ega	0		J	
lukku	lukk	0		S	adt
     	lukku	0		D	
     	lukku	0		V	o
     	lugu	0		S	adt
     	lukk	0		S	sg p
varas	vara	s		S	sg in
     	varas	0		S	sg n
pole	ole	0		V	neg o
murdnud	murd	nud		V	nud
       	murd=nu	d		S	pl n
       	murd=nud	0		A	
       	murd=nud	0		A	sg n
       	murd=nud	d		A	pl n
,	,			Z	
sest	see	st		P	sg el
    	sest	0		J	
tema	tema	0		P	sg g
    	tema	0		P	sg n
teinud	tege	nud		V	nud
      	tei=nud	0		A	
      	tei=nud	0		A	sg n
      	tei=nud	d		A	pl n
      	teinu	d		S	pl n
võtmega	võti	ga		S	sg kom
used	####				
lahti	laht	i		S	pl p
     	lahti	0		D	
,	,			Z	
d	d	0		Y	?
.	.			Z	
)	)			Z	
2	2	0		N	?
?	?			Z	
võid	või	d		S	pl n
    	või	d		V	d
    	või	d		S	sg p
8	8	0		N	?
rbl	rbl	0		Y	?
.	.			Z	
,	,			Z	
1	1	0		N	?
prak	####				
3	3	0		N	?
rbl	rbl	0		Y	?
,	,			Z	
1	1	0		N	?
vest	vest	0		S	sg n
1	1	0		N	?
rbl	rbl	0		Y	?
.	.			Z	
,	,			Z	
odrad	oder	d		S	pl n
16	16	0		N	?
rbl	rbl	0		Y	?
.	.			Z	
,	,			Z	
1	1	0		N	?
äkkevöö	äkke_vöö	0		S	sg g
       	äkke_vöö	0		S	sg n
50	50	0		N	?
Cop	####				
.	.			Z	
,	,			Z	
1	1	0		N	?
tühi	tühi	0		A	sg n
kott	kott	0		S	sg n
1	1	0		N	?
rbl	rbl	0		Y	?
.	.			Z	
,	,			Z	
1	1	0		N	?
kirves	kirves	0		S	sg n
      	kirves	s		S	sg in
1	1	0		N	?
rbl	rbl	0		Y	?
ja	ja	0		J	
75	75	0		N	?
kopp	kopp	0		S	sg n
puhast	puhas	t		A	sg p
raha	raha	0		S	sg g
    	raha	0		S	sg n
    	raha	0		S	sg p
,	,			Z	
e	e	0		Y	?
.	.			Z	
)	)			Z	
või	või	0		S	sg g
   	või	0		V	o
   	või	0		D	
   	või	0		J	
   	või	0		S	sg n
,	,			Z	
prak	####				
ja	ja	0		J	
75	75	0		N	?
Cp	####				
raha	raha	0		S	sg g
    	raha	0		S	sg n
    	raha	0		S	sg p
on	ole	0		V	b
  	ole	0		V	vad
omanik	omanik	0		S	sg n
kätte	kätte	0		K	
     	käsi	tte		S	adt
saanud	saa	nud		V	nud
      	saa=nud	0		A	
      	saa=nud	0		A	sg n
      	saa=nud	d		A	pl n
      	saanu	d		S	pl n
,	,			Z	
niisama	nii_sama	0		D	
koti	kott	0		S	sg g
    	kotti	0		V	o
ja	ja	0		J	
kirve	kirves	0		S	sg g
.	.			Z	
otrad	####				
maksab	maks	b		V	b
Hans	Hans	0		H	sg n
persmann	####				
Jüri	Jüri	0		H	sg g
    	Jüri	0		H	sg n
Küttile	####				
välja	välja	0		D	
     	välja	0		V	o
     	väli	0		S	adt
     	väli	0		S	sg g
     	väli	0		S	sg p
.	.			Z	
äkkevöö	äkke_vöö	0		S	sg g
       	äkke_vöö	0		S	sg n
toop	toop	0		S	sg n
Juhan	Juhan	0		H	sg n
persmann	####				
tagasi	tagasi	0		D	
      	tagasi	0		K	
.	.			Z	
Tapikul	Tapiku	l		H	sg ad
sel	see	l		P	sg ad
   	sel	0		Y	?
26	26	0		N	?
juulil	juuli	l		S	sg ad
1875	1875	0		N	?
peakohtumees	pea_kohtu_mees	0		S	sg n
:	:			Z	
Andres	Andre	s		H	sg in
      	Andres	0		H	sg n
Puusepp	puu_sepp	0		S	sg n
xxx	####				
,	,			Z	
abikohtumees	abi_kohtu_mees	0		S	sg n
:	:			Z	
Jaan	Jaan	0		H	sg n
    	jaan	0		S	sg n
    	jaan	0		Y	?
Rosenthal	####				
xxx	####				
,	,			Z	
Nõumees	nõu_mees	0		S	sg n
:	:			Z	
Tõnu	Tõnu	0		H	sg g
    	Tõnu	0		H	sg n
Juka	####				
xxx	####				
