Adavere	Ada_vere	0		H	sg g
       	Ada_vere	0		H	sg n
       	adavere	0		G	
kogukonna	kogukond	0		S	sg g
kohus	kohu	s		V	s
     	kohus	0		S	sg n
sell	sell	0		S	sg n
16.	16.	0		O	?
märtsil	märts	l		S	sg ad
1890.	1890.	0		O	?
koos	koos	0		D	
    	koos	0		K	
    	koos	0		S	sg n
    	kubu	s		S	sg in
olid	ole	id		V	sid
peakohtumees	pea_kohtu_mees	0		S	sg n
Hans	Hans	0		H	sg n
kõrs	kõrs	0		S	sg n
,	,			Z	
kohtumees	kohtu_mees	0		S	sg n
Aleks	Aleks	0		H	sg n
     	ale	ks		S	sg tr
.	.			Z	
Peedriks	####				
,	,			Z	
abi	abi	0		S	sg g
   	abi	0		S	sg n
   	abi	0		S	sg p
:	:			Z	
Hans	Hans	0		H	sg n
akjas	####				
.	.			Z	
Tulid	tule	id		V	sid
kohtu	kohtu	0		V	o
     	kohus	0		S	sg g
ette	ette	0		D	
    	ette	0		K	
    	esi	tte		S	adt
Hans	Hans	0		H	sg n
Nakus	####				
ja	ja	0		J	
Jakub	####				
Pals	####				
palusid	palu	sid		S	pl p
       	palu	sid		V	sid
seda	see	da		P	sg p
maha	maha	0		D	
kirjutada	kirjuta	da		V	da
et	et	0		J	
protokolli	protokoll	0		S	adt
          	protokoll	0		S	sg g
          	protokolli	0		V	o
          	protokoll	0		S	sg p
kirjas	kirja	s		V	s
      	kiri	s		S	sg in
      	kirjas	0		D	
seisav	####				
laenu	laen	0		S	adt
     	laen	0		S	sg g
     	laenu	0		V	o
     	laen	0		S	sg p
võlg	võlg	0		S	sg n
200	200	0		N	?
rubla	rubla	0		S	sg g
     	rubla	0		S	sg n
     	rubla	0		S	sg p
mis	mis	0		P	pl n
   	mis	0		P	sg n
7.	7.	0		O	?
Novembril	november	l		S	sg ad
1886	1886	0		N	?
aastal	aasta	l		S	sg ad
No	no	0		I	
2	2	0		N	?
all	all	0		D	
   	all	0		K	
leida	leid	a		V	da
on	ole	0		V	b
  	ole	0		V	vad
,	,			Z	
nüüd	nüüd	0		D	
Hans	Hans	0		H	sg n
Nakus	####				
oma	oma	0		A	sg g
   	oma	0		D	
   	oma	0		P	sg g
   	oma	0		S	sg g
   	oma	0		V	o
   	oma	0		A	sg n
   	oma	0		A	sg p
   	oma	0		P	sg n
   	oma	0		P	sg p
   	oma	0		S	sg n
   	oma	0		S	sg p
laen	laadi	n		V	n
    	laen	0		S	sg n
200	200	0		N	?
rubla	rubla	0		S	sg g
     	rubla	0		S	sg n
     	rubla	0		S	sg p
ühes	üks	s		N	sg in
    	üks	s		P	sg in
    	ühes	0		D	
    	ühes	0		K	
intresi	####				
rahaga	raha	ga		S	sg kom
Jakub	####				
Palsi	####				
käest	käest	0		K	
     	käsi	st		S	sg el
vastu	vastu	0		D	
     	vastu	0		K	
võtnud	võt	nud		V	nud
      	võt=nu	d		S	pl n
      	võt=nud	0		A	
      	võt=nud	0		A	sg n
      	võt=nud	d		A	pl n
on	ole	0		V	b
  	ole	0		V	vad
,	,			Z	
mis	mis	0		P	pl n
   	mis	0		P	sg n
peale	pea	le		S	sg all
     	peale	0		D	
     	peale	0		K	
nemad	tema	d		P	pl n
seda	see	da		P	sg p
protokolli	protokoll	0		S	adt
          	protokoll	0		S	sg g
          	protokolli	0		V	o
          	protokoll	0		S	sg p
oma	oma	0		A	sg g
   	oma	0		D	
   	oma	0		P	sg g
   	oma	0		S	sg g
   	oma	0		V	o
   	oma	0		A	sg n
   	oma	0		A	sg p
   	oma	0		P	sg n
   	oma	0		P	sg p
   	oma	0		S	sg n
   	oma	0		S	sg p
nime	nimi	0		S	sg g
    	nimi	0		S	sg p
alla	alla	0		D	
    	alla	0		K	
kirjutamisega	kirjutamine	ga		S	sg kom
kinnitasivad	####				
.	.			Z	
Hans	Hans	0		H	sg n
Nakus	####				
/	/			Z	
allkiri	all_kiri	0		S	sg n
/	/			Z	
Jaagub	####				
Pals	####				
/	/			Z	
allkiri	all_kiri	0		S	sg n
/	/			Z	
mõisteti	mõist	ti		V	ti
:	:			Z	
seda	see	da		P	sg p
maha	maha	0		D	
kirjutada	kirjuta	da		V	da
.	.			Z	
peakohtumees	pea_kohtu_mees	0		S	sg n
H	H	0		Y	?
.	.			Z	
_	_			Z	
kõrs	kõrs	0		S	sg n
/	/			Z	
allkiri	all_kiri	0		S	sg n
/	/			Z	
kohtumees	kohtu_mees	0		S	sg n
:	:			Z	
A	A	0		Y	?
.	.			Z	
_	_			Z	
Peedriks	####				
/	/			Z	
allkiri	all_kiri	0		S	sg n
/	/			Z	
abi	abi	0		S	sg g
   	abi	0		S	sg n
   	abi	0		S	sg p
:	:			Z	
Hans	Hans	0		H	sg n
akjas	####				
/	/			Z	
allkiri	all_kiri	0		S	sg n
/	/			Z	
