Hans	Hans	0		H	sg n
Kondas	konda	s		V	s
Soldat	soldat	0		S	sg n
,	,			Z	
kaebas	kaeba	s		V	s
,	,			Z	
et	et	0		J	
Hans	Hans	0		H	sg n
Saik	####				
temale	tema	le		P	sg all
teenistussepalka	####				
võlgu	võlg	u		S	pl p
     	võlgu	0		D	
oleva	olev	0		A	sg g
     	olev	0		S	sg g
üks	üks	0		N	sg n
   	üks	0		P	sg n
kamson	####				
.	.			Z	
see	see	0		P	sg n
nõudmine	nõudmine	0		S	sg n
leiti	leid	ti		V	ti
tühi	tühi	0		A	sg n
olevat	ole	vat		V	vat
      	olev	t		A	sg p
      	olev	t		S	sg p
.	.			Z	
rukki	rukis	0		S	adt
     	rukis	0		S	sg g
vilja	vili	0		S	adt
     	vili	0		S	sg g
     	vili	0		S	sg p
pärast	pära	st		S	sg el
      	pärane	t		A	sg p
      	pärast	0		D	
      	pärast	0		K	
,	,			Z	
mis	mis	0		P	pl n
   	mis	0		P	sg n
Hans	Hans	0		H	sg n
Kondas	konda	s		V	s
sinna	sinna	0		D	
talu	talu	0		S	sg g
    	talu	0		V	o
    	talu	0		S	sg n
    	talu	0		S	sg p
maade	maa	de		S	pl g
peal	pea	l		S	sg ad
    	peal	0		D	
    	peal	0		K	
külinud	küli	nud		V	nud
       	küli=nu	d		S	pl n
       	küli=nud	0		A	
       	küli=nud	0		A	sg n
       	küli=nud	d		A	pl n
mõisteti	mõist	ti		V	ti
:	:			Z	
Hans	Hans	0		H	sg n
Saik	####				
maksab	maks	b		V	b
kaebajale	kaebaja	le		S	sg all
rukkiviljaseemne	rukki_vilja_seeme	0		S	sg g
tagasi	tagasi	0		D	
      	tagasi	0		K	
.	.			Z	
