oksjoni	oksjon	0		S	sg g
pidamine	pidamine	0		S	sg n
sel	see	l		P	sg ad
   	sel	0		Y	?
11.	11.	0		O	?
Märtsil	märts	l		S	sg ad
1869	1869	0		N	?
asjade	asi	de		S	pl g
nimed	nimi	d		S	pl n
ostjate	ostja	te		S	pl g
nimed	nimi	d		S	pl n
maksab	maks	b		V	b
ära	ära	0		D	
   	ära	0		V	neg o
makstud	maks	tud		V	tud
       	maks=tu	d		S	pl n
       	maks=tud	0		A	
       	maks=tud	0		A	sg n
       	maks=tud	d		A	pl n
rub	####				
kop	kop	0		Y	?
rub	####				
kop	kop	0		Y	?
1	1	0		N	?
laud	laud	0		S	sg n
    	laug	d		S	pl n
Helmed	helmes	d		S	pl n
Sorra	####				
ristel	####				
76	76	0		N	?
76	76	0		N	?
1	1	0		N	?
voodi	voodi	0		S	sg g
     	voodi	0		S	sg n
""""	""""			Z	
rublemist	####				
Jaak	Jaak	0		H	sg n
    	jaak	0		S	sg n
2 1 2 1	2121	0		N	?
1	1	0		N	?
tool	tool	0		S	sg n
""""	""""			Z	
ping	ping	0		S	sg n
18	18	0		N	?
18	18	0		N	?
1	1	0		N	?
adder	####				
""""	""""			Z	
Hend	####				
.	.			Z	
Noormets	noor_mets	0		S	sg n
13	13	0		N	?
13	13	0		N	?
1	1	0		N	?
""""	""""			Z	
võlve	võlv	e		S	pl p
Joh	####				
.	.			Z	
Märtson	####				
50	50	0		N	?
50	50	0		N	?
1	1	0		N	?
p	p	0		Y	?
.	.			Z	
tõussid	####				
läbiku	####				
Jaak	Jaak	0		H	sg n
    	jaak	0		S	sg n
Rättsepp	rätt_sepp	0		S	sg n
7	7	0		N	?
7	7	0		N	?
1	1	0		N	?
""""	""""			Z	
""""	""""			Z	
""""	""""			Z	
Hans	Hans	0		H	sg n
Kask	kask	0		S	sg n
19	19	0		N	?
19	19	0		N	?
1	1	0		N	?
""""	""""			Z	
""""	""""			Z	
Helmed	helmes	d		S	pl n
sõni	####				
Ado	Ado	0		H	sg g
   	Ado	0		H	sg n
21	21	0		N	?
21	21	0		N	?
1	1	0		N	?
leiva	leib	0		S	sg g
mõhk	mõhk	0		S	sg n
voru	####				
Joh	####				
.	.			Z	
Saar	saar	0		S	sg n
11	11	0		N	?
11	11	0		N	?
1	1	0		N	?
suur	suur	0		A	sg n
pada	pada	0		S	sg g
    	pada	0		S	sg n
    	pada	0		S	sg p
Kerstnud	####				
Peet	Peet	0		H	sg n
    	peet	0		S	sg n
.	.			Z	
kubu	kubu	0		S	sg g
    	kubu	0		S	sg n
    	kubu	0		S	sg p
75	75	0		N	?
75	75	0		N	?
2	2	0		N	?
pütti	pütt	0		S	adt
     	pütt	0		S	sg p
võlve	võlv	e		S	pl p
Jaak	Jaak	0		H	sg n
    	jaak	0		S	sg n
värvuld	####				
2	2	0		N	?
2	2	0		N	?
2	2	0		N	?
üle	üle	0		D	
   	üle	0		K	
pakku	pakk	0		S	adt
     	pakk	0		S	sg p
Kerstn	####				
.	.			Z	
Peeter	Peeter	0		H	sg n
Toos	toos	0		S	sg n
13	13	0		N	?
13	13	0		N	?
1	1	0		N	?
raud	raud	0		S	sg n
vangon	####				
leikab	####				
Tamme	tamm	0		S	adt
     	tamm	0		S	sg g
     	tamm	e		S	pl p
     	tamm	0		S	sg p
Hans	Hans	0		H	sg n
15 50 15 50	15501550	0		N	?
1	1	0		N	?
tõ	####				
vangon	####				
rautud	####				
võlve	võlv	e		S	pl p
Tehvandi	####				
Joh	####				
.	.			Z	
7 30 7 30	730730	0		N	?
1	1	0		N	?
""""	""""			Z	
puust	puu	st		S	sg el
     	puune	t		A	sg p
""""	""""			Z	
Peedu	Peedu	0		H	sg g
     	Peedu	0		H	sg n
Mahlapuu	mahla_puu	0		S	sg g
        	mahla_puu	0		S	sg n
1 1 1 1	1111	0		N	?
1	1	0		N	?
toober	toober	0		S	sg n
Helmed	helmes	d		S	pl n
oppe	opp	e		S	pl p
21	21	0		N	?
21	21	0		N	?
1	1	0		N	?
regi	regi	0		S	sg n
läbiku	####				
Jaak	Jaak	0		H	sg n
    	jaak	0		S	sg n
Rättsepp	rätt_sepp	0		S	sg n
40	40	0		N	?
40	40	0		N	?
1	1	0		N	?
korb	####				
hobune	hobune	0		S	sg n
võlve	võlv	e		S	pl p
Hans	Hans	0		H	sg n
olsada	####				
10 10 9 10	1010910	0		N	?
1	1	0		N	?
pun	####				
.	.			Z	
hobune	hobune	0		S	sg n
võlve	võlv	e		S	pl p
Joh	####				
.	.			Z	
Märtson	####				
29 75 29 75	29752975	0		N	?
1	1	0		N	?
lehm	lehm	0		S	sg n
Kerstnud	####				
Jaak	Jaak	0		H	sg n
    	jaak	0		S	sg n
Taks	taks	0		S	sg n
6 45 6 45	645645	0		N	?
1	1	0		N	?
""""	""""			Z	
Kusta	Kusta	0		H	sg g
     	Kusta	0		H	sg n
     	kuse	ta		V	da
     	kuse	ta		V	ta
Schmitt	####				
1	1	0		N	?
1	1	0		N	?
1	1	0		N	?
lammas	lammas	0		S	sg n
Jaan	Jaan	0		H	sg n
    	jaan	0		S	sg n
    	jaan	0		Y	?
Kaart	kaar	t		S	sg p
     	kaart	0		S	sg n
Helmeest	####				
1 40 1 40	140140	0		N	?
1	1	0		N	?
""""	""""			Z	
võlve	võlv	e		S	pl p
Peeter	Peeter	0		H	sg n
Ving	ving	0		S	sg n
2 10 2 10	210210	0		N	?
1	1	0		N	?
""""	""""			Z	
""""	""""			Z	
Peeter	Peeter	0		H	sg n
Pusepp	####				
1 50 1 50	150150	0		N	?
1	1	0		N	?
""""	""""			Z	
""""	""""			Z	
Joh	####				
.	.			Z	
Illisson	####				
1 15 1 50	115150	0		N	?
1	1	0		N	?
siga	siga	0		A	sg n
    	siga	0		A	sg p
    	siga	0		S	sg n
    	siga	0		S	sg p
Helmed	helmes	d		S	pl n
Jüri	Jüri	0		H	sg g
    	Jüri	0		H	sg n
sollomp	####				
7	7	0		N	?
7	7	0		N	?
1	1	0		N	?
põrsas	põrsas	0		S	sg n
      	põrsas	s		S	sg in
Riidnud	####				
Kure	kurg	0		S	sg g
Johann	Johann	0		H	sg n
3 35 3 35	335335	0		N	?
1	1	0		N	?
""""	""""			Z	
Jõgev	####				
.	.			Z	
Ado	Ado	0		H	sg g
   	Ado	0		H	sg n
kirst	kirst	0		S	sg n
3 35 3 35	335335	0		N	?
1	1	0		N	?
mõsu	####				
ruhi	ruhi	0		S	sg n
""""	""""			Z	
Jaan	Jaan	0		H	sg n
    	jaan	0		S	sg n
    	jaan	0		Y	?
Prosa	####				
10	10	0		N	?
10	10	0		N	?
1	1	0		N	?
ruhi	ruhi	0		S	sg n
võl	####				
.	.			Z	
Peedu	Peedu	0		H	sg g
     	Peedu	0		H	sg n
Mahlapuu	mahla_puu	0		S	sg g
        	mahla_puu	0		S	sg n
6	6	0		N	?
6	6	0		N	?
Summa	summ	0		S	adt
     	summ	0		S	sg g
     	summ	0		S	sg p
     	summa	0		S	sg g
     	summa	0		S	sg n
107	107	0		N	?
39	39	0		N	?
1	1	0		N	?
mullik	mul=lik	0		A	sg n
,	,			Z	
1	1	0		N	?
linamasin	lina_masin	0		S	sg n
ja	ja	0		J	
1	1	0		N	?
siga	siga	0		A	sg n
    	siga	0		A	sg p
    	siga	0		S	sg n
    	siga	0		S	sg p
eest	eest	0		D	
    	eest	0		K	
    	esi	st		S	sg el
veel	veel	0		D	
    	vesi	l		S	sg ad
saanud	saa	nud		V	nud
      	saa=nud	0		A	
      	saa=nud	0		A	sg n
      	saa=nud	d		A	pl n
      	saanu	d		S	pl n
8 66 13	86613	0		N	?
R	R	0		Y	?
kop	kop	0		Y	?
5	5	0		N	?
rubl	####				
.	.			Z	
selle	see	0		P	sg g
     	sell	e		S	pl p
peale	pea	le		S	sg all
     	peale	0		D	
     	peale	0		K	
makset	makse	t		S	sg p
.	.			Z	
peakohtumees	pea_kohtu_mees	0		S	sg n
:	:			Z	
Andres	Andre	s		H	sg in
      	Andres	0		H	sg n
Kukk	kukk	0		S	sg n
kohtumees	kohtu_mees	0		S	sg n
:	:			Z	
Hans	Hans	0		H	sg n
kopp	kopp	0		S	sg n
Jaan	Jaan	0		H	sg n
    	jaan	0		S	sg n
    	jaan	0		Y	?
Tõnisson	Tõnisson	0		H	sg n
kirjut	kirju	t		A	sg p
.	.			Z	
J	J	0		Y	?
.	.			Z	
sängelmann	####				
