Uue	uus	0		A	sg g
Põltsama	####				
mõisas	mõis	s		S	sg in
sel	see	l		P	sg ad
   	sel	0		Y	?
25	25	0		N	?
märtsil	märts	l		S	sg ad
1857.	1857.	0		O	?
kaebas	kaeba	s		V	s
Jüri	Jüri	0		H	sg g
    	Jüri	0		H	sg n
Milter	####				
et	et	0		J	
pois	poi	s		S	sg in
Jüri	Jüri	0		H	sg g
    	Jüri	0		H	sg n
Nicolas	####				
on	ole	0		V	b
  	ole	0		V	vad
temaga	tema	ga		P	sg kom
kaupa	kaup	0		S	adt
     	kaup	0		S	sg p
     	kaupa	0		K	
teinud	tege	nud		V	nud
      	tei=nud	0		A	
      	tei=nud	0		A	sg n
      	tei=nud	d		A	pl n
      	teinu	d		S	pl n
sulaseks	sulane	ks		S	sg tr
kaks	kaks	0		N	sg n
nädalat	nädal	t		S	sg p
enne	enne	0		D	
    	enne	0		K	
    	enne	0		S	sg n
paastu	paast	0		S	adt
      	paast	0		S	sg g
      	paastu	0		V	o
      	paast	0		S	sg p
nüüd	nüüd	0		D	
tahab	taht	b		V	b
ära	ära	0		D	
   	ära	0		V	neg o
tagenda	####				
ning	ning	0		J	
vanas	vana	s		A	sg in
     	vana	s		S	sg in
kohas	koht	s		S	sg in
     	koha	s		S	sg in
     	koha	s		V	s
paigali	####				
jääda	jää	da		V	da
     	jää	da		V	ta
,	,			Z	
palub	palu	b		V	b
siis	siis	0		D	
    	siis	0		J	
teda	tema	da		P	sg p
selle	see	0		P	sg g
     	sell	e		S	pl p
üle	üle	0		D	
   	üle	0		K	
trahvida	trahvi	da		V	da
et	et	0		J	
tema	tema	0		P	sg g
    	tema	0		P	sg n
ni	####				
kaua	kaua	0		D	
on	ole	0		V	b
  	ole	0		V	vad
käeraha	käe_raha	0		S	sg g
       	käe_raha	0		S	sg n
       	käe_raha	0		S	sg p
kinni	kinni	0		D	
pidanud	pida	nud		V	nud
       	pida=nu	d		S	pl n
       	pida=nud	0		A	
       	pida=nud	0		A	sg n
       	pida=nud	d		A	pl n
.	.			Z	
vastutab	vastuta	b		V	b
Jüri	Jüri	0		H	sg g
    	Jüri	0		H	sg n
Nicolas	####				
et	et	0		J	
se	####				
õige	õige	0		A	sg g
    	õige	0		A	sg n
    	õige	0		D	
on	ole	0		V	b
  	ole	0		V	vad
,	,			Z	
aga	aga	0		J	
on	ole	0		V	b
  	ole	0		V	vad
ja	ja	0		J	
kahe	kaks	0		N	sg g
näda	####				
ees	ees	0		D	
   	ees	0		K	
   	esi	s		S	sg in
käeraha	käe_raha	0		S	sg g
       	käe_raha	0		S	sg n
       	käe_raha	0		S	sg p
tagasi	tagasi	0		D	
      	tagasi	0		K	
maksnud	maks	nud		V	nud
       	maks=nu	d		S	pl n
       	maks=nud	0		A	
       	maks=nud	0		A	sg n
       	maks=nud	d		A	pl n
.	.			Z	
kohus	kohu	s		V	s
     	kohus	0		S	sg n
on	ole	0		V	b
  	ole	0		V	vad
mõistnu	mõist=nu	0		S	sg g
       	mõist=nu	0		S	sg n
et	et	0		J	
Jüri	Jüri	0		H	sg g
    	Jüri	0		H	sg n
Nicolas	####				
maksab	maks	b		V	b
Jüri	Jüri	0		H	sg g
    	Jüri	0		H	sg n
Miltele	####				
1	1	0		N	?
rubla	rubla	0		S	sg g
     	rubla	0		S	sg n
     	rubla	0		S	sg p
hõb	####				
.	.			Z	
trahvi	trahv	0		S	adt
      	trahv	0		S	sg g
      	trahvi	0		V	o
      	trahv	0		S	sg p
.	.			Z	
_	_			Z	
on	ole	0		V	b
  	ole	0		V	vad
kätte	kätte	0		K	
     	käsi	tte		S	adt
makstud	maks	tud		V	tud
       	maks=tu	d		S	pl n
       	maks=tud	0		A	
       	maks=tud	0		A	sg n
       	maks=tud	d		A	pl n
.	.			Z	
