kogukonna	kogukond	0		S	sg g
valitsuse	valitsus	0		S	sg g
ette	ette	0		D	
    	ette	0		K	
    	esi	tte		S	adt
andmise	andmine	0		S	sg g
järele	järele	0		D	
      	järele	0		K	
võlgneb	võlgne	b		V	b
Lihulibas	####				
Jaan	Jaan	0		H	sg n
    	jaan	0		S	sg n
    	jaan	0		Y	?
Mägi	Mägi	0		H	sg g
    	mägi	0		S	sg n
    	Mägi	0		H	sg n
magasisse	magas	sse		S	sg ill
vilja	vili	0		S	adt
     	vili	0		S	sg g
     	vili	0		S	sg p
:	:			Z	
2	2	0		N	?
setw	####				
50	50	0		N	?
kp	####				
.	.			Z	
rüki	rükki	0		V	o
,	,			Z	
keda	kes	da		P	pl p
    	kes	da		P	sg p
see	see	0		P	sg n
ennast	ise	t		P	sg p
milgi	mil	0	gi	D	
     	mis	l	gi	P	sg ad
viisil	viis	l		S	sg ad
      	viisil	0		K	
ära	ära	0		D	
   	ära	0		V	neg o
maksta	maks	ta		V	da
      	maks	ta		V	ta
ei	ei	0		D	
  	ei	0		V	neg
jõua	jõud	0		V	o
sest	see	st		P	sg el
    	sest	0		J	
et	et	0		J	
temal	tema	l		P	sg ad
kedagi	keegi	dagi		P	sg p
varandust	varandus	t		S	sg p
ei	ei	0		D	
  	ei	0		V	neg
hoole	hoog	le		S	sg all
     	hool	0		S	sg g
     	hoole	0		S	sg n
.	.			Z	
Mõisteti	mõist	ti		V	ti
:	:			Z	
Jaan	Jaan	0		H	sg n
    	jaan	0		S	sg n
    	jaan	0		Y	?
Mägi	Mägi	0		H	sg g
    	mägi	0		S	sg n
    	Mägi	0		H	sg n
peab	pida	b		V	b
32	32	0		N	?
karnitsad	karnits	d		S	pl n
rüki	rükki	0		V	o
23	23	0		N	?
Aprilliks	aprill	ks		S	sg tr
ja	ja	0		J	
tõist	####				
nõnda	nõnda	0		D	
palju	palju	0		D	
     	palju	0		P	sg g
     	palju	0		P	sg n
1	1	0		N	?
""""	""""			Z	
Oktobriks	####				
1880	1880	0		N	?
magasisse	magas	sse		S	sg ill
ära	ära	0		D	
   	ära	0		V	neg o
maksma	maks	ma		V	ma
ja	ja	0		J	
pärast	pära	st		S	sg el
      	pärane	t		A	sg p
      	pärast	0		D	
      	pärast	0		K	
ikka	ikka	0		D	
    	iga	0		S	adt
veel	veel	0		D	
    	vesi	l		S	sg ad
tärminidel	####				
seni	seni	0		D	
kui	kui	0		D	
   	kui	0		J	
võlg	võlg	0		S	sg n
tasa	tasa	0		D	
on	ole	0		V	b
  	ole	0		V	vad
.	.			Z	
_	_			Z	
eesseisva	ees_seisev	0		A	sg g
mõistus	mõistus	0		S	sg n
sai	saa	i		V	s
   	sai	0		S	sg n
kuulutatud	kuuluta	tud		V	tud
          	kuuluta=tu	d		S	pl n
          	kuuluta=tud	0		A	
          	kuuluta=tud	0		A	sg n
          	kuuluta=tud	d		A	pl n
.	.			Z	
_	_			Z	
