Kohtu	kohtu	kohus	0		S	sg g
korra	korra	kord	0		S	sg g
pärrast	pärast	pärast	0		K	
ollid	olid	ole	id		V	sid
Rawwila	Ravila	Rawwila	0		H	sg g
ja	ja	ja	0		J	
Palwerre	Palvere	Palwere	0		H	sg g
walla	valla	vald	0		S	sg g
kohtusse	kohtusse	kohus	sse		S	sg ill
walla	valla	vald	0		S	sg g
hones	hoones	hoone	s		S	sg in
kokkotulnud	kokku_tulnud	kokku_tule	nud		V	nud
:	:	:			Z	
Kohto	kohtu	kohus	0		S	sg g
wannem	vanem	vanem	0		S	sg n
Hinrek	Hinrek	Hinrek	0		H	sg n
Noggur	Nogur	Noggur	0		H	sg n
Kohto	kohtu	kohus	0		S	sg g
käemehhed	käemehed	käsi_mees	d		S	pl n
:	:	:			Z	
Mihkel	Mihkel	Mihkel	0		H	sg n
Krusement	Krusment	Krusment	0		H	sg n
Jakob	Jakob	Jakob	0		H	sg n
Käit	Käit	Käit	0		H	sg n
Kirjotaja	kirjutaja	kirjutaja	0		S	sg n
Hans	Hans	Hans	0		H	sg n
Siimson	Siimson	Siimson	0		H	sg n
Marri	Mari	Marri	0		H	sg n
Traat	Traat	Traat	0		H	sg n
astus	astus	astu	s		V	s
ette	ette	ette	0		D	
,	,	,			Z	
kaebab	kaebab	kaeba	b		V	b
:	:	:			Z	
Mart	Mart	Mart	0		H	sg n
Wors	Vors	Wors	0		H	sg n
on	on	ole	0		V	b
temmale	temale	tema	le		P	sg all
abbiello	abielu	abielu	0		S	sg p
tõutades	tõotades	tõota	des		V	des
temmaga	temaga	tema	ga		P	sg kom
ümberkäinud	ümber_käinud	ümber_käi	nud		V	nud
ja	ja	ja	0		J	
on	on	ole	0		V	b
lubbanud	lubanud	luba	nud		V	nud
tedda	teda	tema	da		P	sg p
warsi	varsti	varsti	0		D	
kossida	kosida	kosi	da		V	da
,	,	,			Z	
ja	ja	ja	0		J	
nüüd	nüüd	nüüd	0		D	
4	4	4	0		N	?
näddalad	nädalat	nädal	d		S	sg p
enne	enne	enne	0		K	
Jõulo	jõulu	jõulu	0		S	sg p
1872	1872	1872	0		N	?
a.	a	a	0		Y	?
on	on	ole	0		V	b
sedda	seda	see	da		P	sg p
õiete	õieti	õieti	0		D	
tõeste	tõesti	tõesti	0		D	
näitnud	näidanud	näita	nud		V	nud
,	,	,			Z	
räkind	rääkinud	rääki	nd		V	nud
perremehhele	peremehele	pere_mees	le		S	sg all
ja	ja	ja	0		J	
küssinud	küsinud	küsi	nud		V	nud
perremehhe	peremehe	pere_mees	0		S	sg g
käest	käest	käest	0		K	
lubba	luba	luba	0		S	sg p
kosja	kosja	kosi	0		S	adt
tulla	tulla	tule	a		V	da
,	,	,			Z	
ja	ja	ja	0		J	
enne	enne	enne	0		K	
sedda	seda	see	da		P	sg p
on	on	ole	0		V	b
süggise	sügise	sügis	0		S	sg g
temma	tema	tema	0		P	sg g
kätte	kätte	kätte	0		K	
asjo	asju	asi	u		S	pl p
annud	andnud	and	nud		V	nud
:	:	:			Z	
ühhed	ühed	üks	d		P	pl n
kingad	kingad	king	d		S	pl n
ja	ja	ja	0		J	
sõrmuksed	sõrmused	sõrmus	d		S	pl n
,	,	,			Z	
ja	ja	ja	0		J	
pühhapääw	pühapäev	püha_päev	0		S	sg n
21sel	21ndal	21=ne	l		O	sg ad
Januaril	jaanuaril	jaanuar	l		S	sg ad
1873	1873	1873	0		N	?
on	on	ole	0		V	b
lubbanud	lubanud	luba	nud		V	nud
tulla	tulla	tule	a		V	da
Teisipääw	teisipäev	teisi_päev	0		S	sg n
teadaandma	teada_andma	teada_and	ma		V	ma
et	et	et	0		J	
Laupääw	laupäev	lau_päev	0		S	sg n
kihlama	kihlama	kihla	ma		V	ma
lähhewad	lähevad	mine	vad		V	vad
;	;	;			Z	
agga	aga	aga	0		J	
ei	ei	ei	0		V	neg
olle	ole	ole	0		V	o
tulnud	tulnud	tule	nud		V	nud
ühtegi	ühtegi	ükski	0		P	sg p
,	,	,			Z	
ja	ja	ja	0		J	
on	on	ole	0		V	b
Laupääw	laupäev	lau_päev	0		S	sg n
ühhe	ühe	üks	0		P	sg g
teisega	teisega	teine	ga		P	sg kom
kihlama	kihlama	kihla	ma		V	ma
läinud	läinud	mine	nud		V	nud
,	,	,			Z	
agga	aga	aga	0		J	
temma	tema	tema	0		P	sg n
on	on	ole	0		V	b
õppetaja	õpetaja	õpetaja	0		S	sg g
jure	juurde	juurde	0		K	
ette	ette	ette	0		D	
läinud	läinud	mine	nud		V	nud
.	.	.			Z	
Mart	Mart	Mart	0		H	sg n
Wors	Vors	Wors	0		H	sg n
tunnistab	tunnistab	tunnista	b		V	b
:	:	:			Z	
Marri	Mari	Marri	0		H	sg n
Traat	Traat	Traat	0		H	sg n
on	on	ole	0		V	b
tellinud	tellinud	telli	nud		V	nud
tedda	teda	tema	da		P	sg p
ennesele	enesele	ise	le		P	sg all
kingad	kingad	king	d		S	pl n
tua	tuua	too	a		V	da
ja	ja	ja	0		J	
lubbanud	lubanud	luba	nud		V	nud
rahha	raha	raha	0		S	sg g
ärramaksta	ära_maksta	ära_maks	ta		V	da
,	,	,			Z	
ja	ja	ja	0		J	
teine	teine	teine	0		P	sg n
kord	kord	kord	0		S	sg n
annud	andnud	and	nud		V	nud
rahha	raha	raha	0		S	sg p
sõrmuksed	sõrmused	sõrmus	d		S	pl n
tua	tuua	too	a		V	da
,	,	,			Z	
ja	ja	ja	0		J	
temma	tema	tema	0		P	sg n
on	on	ole	0		V	b
tonud	toonud	too	nud		V	nud
,	,	,			Z	
agga	aga	aga	0		J	
kingade	kingade	king	de		S	pl g
rahha	raha	raha	0		S	sg n
on	on	ole	0		V	b
samata	saamata	saa	mata		V	mata
alles	alles	alles	0		D	
;	;	;			Z	
agga	aga	aga	0		J	
temma	tema	tema	0		P	sg n
põlle	pole	ole	0		V	neg o
tedda	teda	tema	da		P	sg p
lubbanud	lubanud	luba	nud		V	nud
kossida	kosida	kosi	da		V	da
egga	ega	ega	0		J	
põlle	pole	ole	0		V	neg o
temmaga	temaga	tema	ga		P	sg kom
koggoni	koguni	koguni	0		D	
ümberkäinud	ümber_käinud	ümber_käi	nud		V	nud
.	.	.			Z	
Marri	Mari	Marri	0		H	sg n
Traat	Traat	Traat	0		H	sg n
tunnistab	tunnistab	tunnista	b		V	b
suud	süüd	süü	d		S	sg p
su	su	sina	0		P	sg g
wasto	vastu	vastu	0		K	
et	et	et	0		J	
Mart	Mart	Mart	0		H	sg n
Jõulo	jõulu	jõul	0		S	sg g
keskmise	keskmise	keskmine	0		A	sg g
pühha	püha	püha	0		S	sg g
öse	öösel	öösel	0		D	
26	26	26	0		N	?
Detsemb	detsemb	detsemb	0		Y	?
.	.	.			Z	
1872a	1872_a	1872_a	0		Y	?
.	.	.			Z	
essimest	esimest	esimene	t		O	sg p
korda	korda	kord	0		S	sg p
temmaga	temaga	tema	ga		P	sg kom
ümberannud	ümber_andnud	ümber_and	nud		V	nud
ja	ja	ja	0		J	
pärrast	pärast	pärast	0		D	
weel	veel	veel	0		D	
mõnda	mõni	mõni	0		P	sg n
kord	kord	kord	0		S	sg n
,	,	,			Z	
keige	kõige	kõige	0		D	
wimast	viimast	viimane	t		A	sg p
21	21	21	0		N	?
Januaril	jaanuaril	jaanuar	l		S	sg ad
1873a	1873_a	1873_a	0		Y	?
.	.	.			Z	
,	,	,			Z	
kossida	kosida	kosi	da		V	da
lubbanud	lubanud	luba	nud		V	nud
iggakord	iga_kord	iga_kord	0		D	
kui	kui	kui	0		J	
seal	seal	seal	0		D	
käinud	käinud	käi	nud		V	nud
,	,	,			Z	
ja	ja	ja	0		J	
tihti	tihti	tihti	0		D	
on	on	ole	0		V	b
ta	ta	tema	0		P	sg n
seal	seal	seal	0		D	
käinud	käinud	käi	nud		V	nud
.	.	.			Z	
Mart	Mart	Mart	0		H	sg n
aiab	ajab	aja	b		V	b
Marri	Mari	Marri	0		H	sg n
tunnistust	tunnistust	tunnistus	t		S	sg p
walleks	valeks	vale	ks		S	sg n
agga	aga	aga	0		J	
Marri	Mari	Marri	0		H	sg n
jäeb	jääb	jää	b		V	b
omma	oma	oma	0		P	sg g
tunnistusse	tunnistuse	tunnistus	se		S	adt
peale	peale	peale	0		K	
kindlaks	kindlaks	kindel	ks		A	sg tr
.	.	.			Z	
Et	et	et	0		J	
nende	nende	see	de		P	pl g
Marri	Mari	Marri	0		H	sg g
tunnistuste	tunnistuste	tunnistus	te		S	pl g
peale	peale	peale	0		K	
perremeest	peremeest	pere_mees	t		S	sg p
ka	ka	ka	0		D	
küsida	küsida	küsi	da		V	da
tarwis	tarvis	tarvis	0		D	
,	,	,			Z	
ja	ja	ja	0		J	
et	et	et	0		J	
tedda	teda	tema	da		P	sg p
siin	siin	siin	0		D	
ei	ei	ei	0		V	neg
olle	ole	ole	0		V	o
jäeb	jääb	jää	b		V	b
tullewa	tuleva	tulev	0		A	sg g
korraks	korraks	korraks	0		D	
selletada	seletada	seleta	da		V	da
.	.	.			Z	
