Tänasel pääwal sai Toomas Lind lese Maret Linnule Tawet Willemsoni asemele Mihkel Mõisa wöörmündriks säetud ja see Mihkel Mõisale awaltud.
                                                                        Peakohtumees J. Sarwik.
                                                                              Kohtumees J. Stam.
                                                                              Kohtumees Märt Piiri.
                                                                              Kirjutaja allkiri mitteloetaw.
 
