Sel 26mal Marz 1827. Kohtomehhed olli keik koon.
Suurkörwa Aini Peter, kes Laisa Anso maa Sullases om, sai Perrisprawa käes lubba, nende ostetut Palkade eest, mis 28mal Webruaril om nimmetud sanu, 30 Rubla Rentiprawa käst kätte sama. Rentiprawale olli temma wölgu jänu 1825.
1 Nakla Noda langa wölgu jänu          30kop.
1 Lammas                                     4rbl - 
14 Punda Ainu                            2rbl 80kop.
                                                    7rbl. 10kop.
Kunninga Aida wölgu janu 1825 - 2Wakka Rükki= 6rbl.
Laisa Hansule Obbose eest wölgu 1826                10rbl. 58kop.
Lukkasse Simoni Sullane Matz palka                        1rbl. 8kop.
Michli Tode Palloperran Sullase palka                    5rbl.
Suurkörrwa Aini Peter enda kätte sei Rahha                 24kop.
                                                                                     30rbl. - 
Jakob Tolmaz PäKohtomees XXX
Andres Krass Abbikohtomees XXX
