                             (Sellsamal päewal 9 oktobril 1887.)
Ette tuli Weski wallawanem Johann Hargi ja kaebas, et Johann Toomer oma wallamaksu  10 rubla mitte ära ei makswat. Tema palub, et see raha kohtu poolt tema käest sisse saaks nõutud. -
                 Otsus: Kaebtuse alune Johann Toomer tulewaks kohtu päewaks ette kutsuda. -
                                                         Pääkohtumees: M Karru
                                                            Kohtumees: Jaan Aleksanderson
                                                           Kohtumees: J. Kulbärg
