Otto Sepp ja Thomas Otsa leppisid nida et Thomas Otsa maksab kaebajale warsti 5 rubla 30 kop. wälja ja ei olle pealesele kummagil üksteise käest    nõudmist.
                                           Peakohtomees:P.Willemson
                                           Kohtomees:J.Hawakiwi
                                       Abi Kohtomees: Th.Welt.
                                                                 Kirj. allkiri.
