Ette tuli Palla mõisa walitsuse asemel Karl Mägi ja kaibas,et Kokkora mees Thomas Passi olla Palla mõisa  mõtsast warastanud
1.waher  3 1/2 sülda 6 1/2 tolli			306 Kgs.		1 waher 3 1/2 sülda 5 1/2 tolli			225 Kgs.		1 waher 3       sülda 5 1/2 tolli			1 95 Kgs.		1 waher 3      sülda 4         tolli			165  Kgs.		2 Saart 3      sülda 3 tolli			210 Kgs.		3pihlikad 10 jalga 3 tolli			  13 Kgs.					11-14.		
Thomas Pässi wastas tema  lakkati on need kül leitud, aga tema polle mitte neid mõtsast warastanud  waid tema sulane kes tema naise wend on ollu neid toonud.
Tema pakkunud ka nende eest nii kui naise wend teda palunud 10 rubl.
Kaibajalle aga need pole sellega leppinud.
Kohtu otsus: Thomas Passi kui peremees peab taksi perra nende warastud puude eest 11 rub 14 kop Palla mõisa walitsusele wälja maksma.
See otsus sai ette loetu.
                                          Märt Piiri
                                          Josep Soiewa
                                          T.Willemson    
