Tänasel pääwal wõttis Annu Nukka wiis rubla mis Karl Wända selle kohtu juures lapsetoitmiseks sissemaksnud oli, wasta. Wiis rubla  kätte saanud Annu Nukka.xxx
                                           Kohtumees        J. Stam.
                                           abi Kohtumees J. Tagoma.
                                           kirjutaja CPalm (allkiri)
                                                                                                                                                                                                                                                            
                                                                                                                                                                                                                                                            
                                                                                                                                                                                                                                                                
