Sel 7mal Januaril 1872. kaebas  wallawannem,et Jakob Adams olla omma wõllad   pärrast lauda lõekama pantud agga olla  tö mahha jätnud selle pärrast et vallavannem: sedda lõekamise hinda kinni pannud. Selle sinnatse vasta pannemise pärrast mõistis Kohhos  Jakob 
Adamsile 15 witsalöekit.
                                                                                          Maddis Waddi+++
                                                                                          Mart   Piiri       +++
                                                                                          Elias  Kubjas    +++ 
