Tuli ette Tawet Sarwik ja kaebas et Kusta Nukka temale 3 rbl. 5 kop tööraha wõlgu olnu 2 aasta eest ja nõudis seda raha kätte. Tunnistajaks nimetas Otto Lauer.
Kusta Nukka ei olnud tulnud. Otsus. Kusta Nukka tulewa  kohtupääwaks ettetellida nii samati Otto Lauer.
                                            Pääkohtumees J. Hawakiwi.
                                                   Kohtumees J. Stam.
                                                   Kohtumees M. Piiri.
                                                   kirjutaja allkiri.  
