Marrianna  Roots eestseisja Maddis Saare kõrwal kaibas Jürri Männi olla  9 aastad 3 Rbl. wõlgu ja tema nõuab sedda rahha.
  Jürri Saar wastas tema olla kül 3 Rbl. wõlgu agga ei olle wõimalik kohhe maksa. Leppisid oma keskis, et  Jürri Männi maksap see rahha  Jürri päwast Marianna Rootsile ärra.
                     Pea kohtumees K .Kokka        +++
                        Kohtum.          J. Hawakiwi +++
                        Abi                     Th. Welt .    +++
