Sel 4mal September 1870 kaebas wallawallitsus,et ta olla leidnud 2 nummrit walla wõlgade hulka: 1me Rütli Kortsi mehhe on walla Kassast 3 Rublat välja maksetud agga ei olle sisse tulnud: ja 2ne Mart Joeggewa 4 Rublat 51 Koppikat.mis Ka wanna Kohtomeeste südi peab ollema miks sisse noudmatta on jäetud.Sai wanna Kohtumees Jaan Piiri ette Kutsutud,Kes ütles et se Rütli Kortsimehe võlg sisse kandmatta  on jäenud ja Märt Joeggewa võlg on sellepärrast jäenud,miks Märti Tüttremees Soltatin ärra antud ja seddamööda  Tõrkuda Märt Joeggewa vasta.Moistis Kohhus et Jaan Piiri peab sedda Rütli Kõrtsimehhe rahha kui ka Märt Joeggewa võlg mis Jaan Piiri holetuse läbbi on nenda kaugel eddasi sigginenud; tänna kahhe Näddale pärrast sisse maksma.
                                                                                        Tõnnis Soiewa      +++
                                                                                         Karel Rosenberg  +++
                                                                                         Jürri Priks             +++
