Mõisa wasto Kruusen.
Tunnistajat olit wäljajänu, Mõisa ja Kruusen seijetulnu.
Jaan Kruusen ütles, et tema kül Kaebaja naist ükskõrd lükkanu.
Teises kohtopäewas kohtokäijat ja tunnistajat seijekutsu.
                  Peakohtomees:PWillemson +++
                   Kohtomees:    JHawakiwi    +++
                 Abikohtomees: Th. Welt        +++
                                             Kirj. allkiri 
