Sel sammal päewal. Sai ka Kadunud Laur Rosenpärki järrele jäänud warrantus Koggokonna Kohtu polest ülle watud ja  Inna peäl arwatud temma Lesse naese ja, wiee, laste heaks; Prottokoli ülles pantud.Üks kõrp Ruun			30Rup		Teine kõrp Ruun			10 Rup		Üks Lehm			  9 Rup		Teine Lehm			   7 Rup		Kolmas Lehm			   8 Rup		Neljas noor lehm			   8 Rup		Üks õhw			   6 Rup		 Punane härg			   8 Rup		 Kirju õhw			   4 Rup		 Summa			 90 Rup 		Transport			-   90kop		Üks must härk			   7 Rup		 Päits härk			   5 Rup		Kümme (10) Lammast 			  12 Rup		1.Emmis Sigga			    3 Rup		Kaks hoppikad			     6 Rup		Kaks põrsast			      2 Rup		 Üks Wenne wanker			     12 Rup		 Kaks puu,wanker			       2 Rup 		 2Wanna Raud rattad			       1 Rup		Kolm Adra			       1 Rup 50 kop		kahe hoppose Riistad			        5 Rup		 Kaks Sitta hango			                  15 kop		Kaks Kerwest			                  50 kop		Üks nurka sag			         1 Rup 25 kop		 Kolm Regge			         3 Rup		 Kuus head Wikkatid			          1 Rub 50 kop		 Kuus  halwad Wikkatid			                     50 kop		Wiis Sirpi			                     30 kop		Kaks wanna Kerstu			           1 Rup		 Üks püt			                      30kop		 Üks Markapuu			                       30 kop		 Summa			        155 Rup 30 kop		
Siis antis se lesk naene Kadri ja temma wannem Poeg Kustaw omma Issast ehk mehhest järrel jänud wõlgo ülles.Üks kõrp hobbone			 23 Rup		Kokkora aitame käest			   2 Rup		Keltri Kaarli käest			   2 Rup		Wärwo Willemi käest 			   5 Rup		Kukke Jani käest			    7 Rup		Ja weel Kukkelt 3 wak Rukkit			    5 Rup 40 kop		Wõlla Summa			   44 Rup 40 kop		
Siis on kõik nende wõlla noud ju test järrel jänud warrantus 110 Rup 90 kop mis temma Lesk naene Kadri  ja Koggokonna Kohtu läbbi saab ülles pandud et kui peaks temma kadduma siis se kes sedda kraami omma kätte wottab peab nii sure Innalise asja mis sel korral jälle sedda maksab neile teistele kui täie ealiseks sawad, jao wisil Igga Ühhele kätte tassoma.
