Sel 5 mal Junil 1870. Tulli Märt Ebri naene ette ja kaibas et ta olla Josep Abroi käest 2/3 maat sanud kellel 2 korta sitta peäle pannut .Kus siis agga üks ainus kort Rukkit ärra wõtnud agga nüit olla Josep Abroi temma käest  ärra wõtnud. Sai Josep Aproi ette Kutsutud. Kes ütles et ta selle pärrast olla ärra wõtnud,Miks Märti naene ei olle talle kohhe lubbanut päiwat tehha. Mõistis Kohhos 8. Koormat sitta 20 Kop Nosen
  1 Rup 60- Kaks söki wahhet hobbose Weddo päiwa-30. Summa 1 Rup 90 Kop.Rahha kahhe näddala pärrast kätte tassuta.
                                                                                            Tõnnis Soiewa
                                                                                             Karel Rosenpärk
                                                                                            Jürri Priks 
