Sel 22mal September 1872. Kaebas Palla mõisa vallitsus et Lena Jannast olla mõisa metsas koorma võrs haggu korjanud. Sai Lena Jannast
ette kutsutud.Kes ütles sedda õige ollevat ja pallus mõisawallitsus talle Sauna kütmise tarwis aggu anda,mis peale Lena Jannast mõisale 12 peavat teep,kellega ka mõis rahhul jäi.
                                                                                                 Maddis Waddi +++
                                                                                                  Märt     Piiri     +++
                                                                                                   Elias     Kubjas +++ 
