Sel 4. Märtsil sub N.38 pooleni jänud asjus tuli ette Anna Tartu Mihkli naine Saarelt ja andis üles et tema ei ole nähnud seda mahaajamist pärast kui ta sinna tulnud, siis olnud Kusta Nukka ja Mart Ujuki naine pikkali maas.
Otsus: Teine kohtu pääw saab edasi õientud, sest et Mart Ujuk siin ei ole.
                                               Peakohtum H.Horn
                                               Kohtum       J. Soiewa
                                               Kohtum:      O. Mõisa
