Kohut alustatud kel 10 hom.
Tuli ette mõisawalitseja härra ja palus protokolli sisse  kirjutada et Kustaw Anuka üles ütelda et Jüri pääwal 23 Aprillil 1884 oma asemest wälja peab mi nema, selle pärast et ta oma Kontrahtit ei ole
pidanud, nimelt on mõisa walitsusele ta omad pääwad jätnud teggematta ja ka mõisale wastane olnud.                   
                                                          Kohtumees: Josep. Soiewa.
                                                         Kohtumees: Otto. Mõisa.
                                                          Kohtumees: Michel. Mölder.
