Josep Adowi wõllaga miss tal praegu on lubban minna kannatada selle tingimisega,
et temma  maksab  Kunni Jürri päewani 1885   aega piddi kõige wähhemb 20 Rbl, ja järrel jaggu
tullewal aastal ja teeb  talle Jürri päewast allustada omma kohha eest pääwi tegema.
                                                 Peakohtomees: O. Kangro
                                                 Kohtomees:       J. Soiewa
                                                 Kohtomees:      O. Mõisa
                                                 Kirjut:                 allkiri.   
