kohtuvanem	kohtu_vanem	0		C	sg n
          	kohtu_vanem	0		S	sg n
Andrus	Andrus	0		H	sg n
krosjäger	####				
XXX	XXX	0		O	?
   	XXX	0		Y	?
kõrvalmees	kõrval_mees	0		S	sg n
          	kõrval_mesi	s		S	sg in
Juhan	Juhan	0		H	sg n
Krekov	####				
XXX	XXX	0		O	?
   	XXX	0		Y	?
kõrvalmees	kõrval_mees	0		S	sg n
          	kõrval_mesi	s		S	sg in
Siim	Siim	0		H	sg n
Kärm	####				
XXX	XXX	0		O	?
   	XXX	0		Y	?
kirjutaja	kirjutaja	0		S	sg g
         	kirjutaja	0		S	sg n
:	:			Z	
J. Tähe	####				
