kohtu	kohtu	0		V	o
     	kohus	0		S	sg g
ette	ette	0		D	
    	ette	0		K	
    	esi	tte		S	adt
astus	astu	s		V	s
Rägu	rägu	0		S	sg g
    	rägu	0		V	o
    	rägu	0		S	sg n
    	rägu	0		S	sg p
valla	vald	0		S	sg g
     	valla	0		D	
liikme	liige	0		S	sg g
Leno	####				
Polder	polder	0		S	sg n
ja	ja	0		J	
andis	and	is		V	s
teada	tead	a		V	da
,	,			Z	
et	et	0		J	
ta	tema	0		P	sg g
  	tema	0		P	sg n
on	ole	0		V	b
  	ole	0		V	vad
,	,			Z	
oma	oma	0		A	sg g
   	oma	0		D	
   	oma	0		P	sg g
   	oma	0		S	sg g
   	oma	0		V	o
   	oma	0		A	sg n
   	oma	0		A	sg p
   	oma	0		P	sg n
   	oma	0		P	sg p
   	oma	0		S	sg n
   	oma	0		S	sg p
vanematest	vanem	test		C	pl el
          	vanem	test		S	pl el
pärinud	päri	nud		V	nud
       	päri=nu	d		S	pl n
       	päri=nud	0		A	
       	päri=nud	0		A	sg n
       	päri=nud	d		A	pl n
25	25	0		N	?
rbl	rbl	0		Y	?
.	.			Z	
höb	####				
;	;			Z	
ja	ja	0		J	
,	,			Z	
et	et	0		J	
ta	tema	0		P	sg g
  	tema	0		P	sg n
Saunja	####				
valdas	valda	s		V	s
teenimas	teeni	mas		V	mas
oli	ole	i		V	s
,	,			Z	
siis	siis	0		D	
    	siis	0		J	
on	ole	0		V	b
  	ole	0		V	vad
ta	tema	0		P	sg g
  	tema	0		P	sg n
se	####				
nimetatud	nimeta	tud		V	tud
         	nimetatu	d		S	pl n
         	nimetatud	0		A	
         	nimetatud	0		A	sg n
         	nimetatud	d		A	pl n
raha	raha	0		S	sg g
    	raha	0		S	sg n
    	raha	0		S	sg p
summa	summ	0		S	adt
     	summ	0		S	sg g
     	summ	0		S	sg p
     	summa	0		S	sg g
     	summa	0		S	sg n
Saunja	####				
Simo	####				
Villem	Villem	0		H	sg n
Väide	väi	de		S	pl g
     	väide	0		S	sg n
juure	juur	0		S	sg g
hoida	hoid	a		V	da
viinud	vii	nud		V	nud
      	vii=nu	d		S	pl n
      	vii=nud	0		A	
      	vii=nud	0		A	sg n
      	vii=nud	d		A	pl n
.	.			Z	
seda	see	da		P	sg p
kuuldes	kuul	des		V	des
       	kuule	s		S	sg in
,	,			Z	
võttis	võt	is		V	s
Saunja	####				
valla	vald	0		S	sg g
     	valla	0		D	
liikme	liige	0		S	sg g
Liiva	Liiva	0		H	sg g
     	liiv	0		S	adt
     	liiv	0		S	sg g
     	Liiva	0		H	sg n
     	liiv	0		S	sg p
Juhan	Juhan	0		H	sg n
Sandt	####				
nouks	####				
ja	ja	0		J	
läks	mine	s		V	s
laenas	laena	s		V	s
Simo	####				
Villem	Villem	0		H	sg n
Väide	väi	de		S	pl g
     	väide	0		S	sg n
käest	käest	0		K	
     	käsi	st		S	sg el
Leno	####				
Polderi	####				
25	25	0		N	?
rbl	rbl	0		Y	?
.	.			Z	
ära	ära	0		D	
   	ära	0		V	neg o
,	,			Z	
ja	ja	0		J	
kulutas	kuluta	s		V	s
10	10	0		N	?
rbl	rbl	0		Y	?
.	.			Z	
höb	####				
.	.			Z	
sest	see	st		P	sg el
    	sest	0		J	
ära	ära	0		D	
   	ära	0		V	neg o
ja	ja	0		J	
15	15	0		N	?
jää	jää	0		S	sg g
   	jää	0		V	o
   	jää	0		S	sg n
järele	järele	0		D	
      	järele	0		K	
;	;			Z	
siis	siis	0		D	
    	siis	0		J	
korjas	korja	s		V	s
ta	tema	0		P	sg g
  	tema	0		P	sg n
5	5	0		N	?
rbl	rbl	0		Y	?
.	.			Z	
jälle	jälle	0		D	
se	####				
15	15	0		N	?
rbl	rbl	0		Y	?
.	.			Z	
juure	juur	0		S	sg g
ja	ja	0		J	
viis	vii	s		V	s
    	viis	0		N	sg n
    	viis	0		S	sg n
nõnda	nõnda	0		D	
20	20	0		N	?
rbla	####				
Villem	Villem	0		H	sg n
Väide	väi	de		S	pl g
     	väide	0		S	sg n
kätte	kätte	0		K	
     	käsi	tte		S	adt
tagasi	tagasi	0		D	
      	tagasi	0		K	
ja	ja	0		J	
5	5	0		N	?
rbl	rbl	0		Y	?
.	.			Z	
jää	jää	0		S	sg g
   	jää	0		V	o
   	jää	0		S	sg n
võlga	võlg	0		S	adt
     	võlg	0		S	sg p
(	(			Z	
maksmata	maks	mata		V	mata
        	maks=mata	0		A	
)	)			Z	
.	.			Z	
Pärast	pära	st		S	sg el
      	pärane	t		A	sg p
      	pärast	0		D	
      	pärast	0		K	
võttis	võt	is		V	s
Leno	####				
Polder	polder	0		S	sg n
ise	ise	0		A	
   	ise	0		D	
   	ise	0		P	pl n
   	ise	0		P	sg n
se	####				
20	20	0		N	?
rbl	rbl	0		Y	?
.	.			Z	
Villem	Villem	0		H	sg n
Väide	väi	de		S	pl g
     	väide	0		S	sg n
hoidmise	hoidmine	0		S	sg g
alt	alt	0		S	sg n
   	alt	0		D	
   	alt	0		K	
välja	välja	0		D	
     	välja	0		V	o
     	väli	0		S	adt
     	väli	0		S	sg g
     	väli	0		S	sg p
ja	ja	0		J	
laenas	laena	s		V	s
seda	see	da		P	sg p
keik	####				
ära	ära	0		D	
   	ära	0		V	neg o
.	.			Z	
nüüd	nüüd	0		D	
ei	ei	0		D	
  	ei	0		V	neg
jäänud	jää	nud		V	nud
      	jäänu	d		S	pl n
      	jäänud	0		A	
      	jäänud	0		A	sg n
      	jäänud	d		A	pl n
sest	see	st		P	sg el
    	sest	0		J	
25	25	0		N	?
rublast	rubla	st		S	sg el
       	rublane	t		A	sg p
       	rublane	t		S	sg p
Villem	Villem	0		H	sg n
Väide	väi	de		S	pl g
     	väide	0		S	sg n
kätte	kätte	0		K	
     	käsi	tte		S	adt
üks	üks	0		N	sg n
   	üks	0		P	sg n
enam	enam	0		C	sg n
    	enam	0		D	
hoida	hoid	a		V	da
;	;			Z	
5	5	0		N	?
rbl	rbl	0		Y	?
.	.			Z	
oli	ole	i		V	s
sest	see	st		P	sg el
    	sest	0		J	
enne	enne	0		D	
    	enne	0		K	
    	enne	0		S	sg n
Liiva	Liiva	0		H	sg g
     	liiv	0		S	adt
     	liiv	0		S	sg g
     	Liiva	0		H	sg n
     	liiv	0		S	sg p
Juhan	Juhan	0		H	sg n
Sandti	####				
käes	käes	0		K	
    	käsi	s		S	sg in
,	,			Z	
ja	ja	0		J	
20	20	0		N	?
rbl	rbl	0		Y	?
.	.			Z	
võttis	võt	is		V	s
Leno	####				
Polder	polder	0		S	sg n
ise	ise	0		A	
   	ise	0		D	
   	ise	0		P	pl n
   	ise	0		P	sg n
ja	ja	0		J	
laenas	laena	s		V	s
seda	see	da		P	sg p
välja	välja	0		D	
     	välja	0		V	o
     	väli	0		S	adt
     	väli	0		S	sg g
     	väli	0		S	sg p
;	;			Z	
sepärast	####				
lükkas	lükka	s		V	s
Villem	Villem	0		H	sg n
Väide	väi	de		S	pl g
     	väide	0		S	sg n
se	####				
5	5	0		N	?
rbl	rbl	0		Y	?
.	.			Z	
,	,			Z	
mis	mis	0		P	pl n
   	mis	0		P	sg n
Juhan	Juhan	0		H	sg n
Sandti	####				
käes	käes	0		K	
    	käsi	s		S	sg in
võlaks	võlg	ks		S	sg tr
oli	ole	i		V	s
,	,			Z	
nüüd	nüüd	0		D	
Leno	####				
ja	ja	0		J	
Juhani	Juhan	0		H	sg g
      	juha	ni		S	sg ter
enese	ise	0		P	sg g
vahele	vahe	le		S	sg all
      	vahele	0		D	
      	vahele	0		K	
ära	ära	0		D	
   	ära	0		V	neg o
maksta	maks	ta		V	da
      	maks	ta		V	ta
ja	ja	0		J	
taga	taga	0		D	
    	taga	0		K	
    	taga	0		V	o
aiada	####				
,	,			Z	
(	(			Z	
sest	see	st		P	sg el
    	sest	0		J	
Juhan	Juhan	0		H	sg n
ja	ja	0		J	
Leno	####				
olid	ole	id		V	sid
sugulased	sugulane	d		S	pl n
;	;			Z	
Leno	####				
võeras	####				
ema	ema	0		S	sg g
   	ema	0		S	sg n
   	ema	0		S	sg p
Trino	####				
oli	ole	i		V	s
Juhan	Juhan	0		H	sg n
Sandti	####				
naiseks	naine	ks		S	sg tr
)	)			Z	
selle	see	0		P	sg g
     	sell	e		S	pl p
sugulusse	sugulus	se		S	adt
ollemise	####				
pärast	pära	st		S	sg el
      	pärane	t		A	sg p
      	pärast	0		D	
      	pärast	0		K	
ei	ei	0		D	
  	ei	0		V	neg
käinud	käi	nud		V	nud
      	käi=nud	0		A	
      	käi=nud	0		A	sg n
      	käi=nud	d		A	pl n
      	käinu	d		S	pl n
Leno	####				
Polder	polder	0		S	sg n
mitte	mitte	0		D	
väga	väga	0		D	
se	####				
5	5	0		N	?
rbl	rbl	0		Y	?
.	.			Z	
pärast	pära	st		S	sg el
      	pärane	t		A	sg p
      	pärast	0		D	
      	pärast	0		K	
Juhan	Juhan	0		H	sg n
Sandti	####				
peale	pea	le		S	sg all
     	peale	0		D	
     	peale	0		K	
,	,			Z	
se	####				
oleks	ole	ks		V	ks
makstud	maks	tud		V	tud
       	maks=tu	d		S	pl n
       	maks=tud	0		A	
       	maks=tud	0		A	sg n
       	maks=tud	d		A	pl n
saanud	saa	nud		V	nud
      	saa=nud	0		A	
      	saa=nud	0		A	sg n
      	saa=nud	d		A	pl n
      	saanu	d		S	pl n
,	,			Z	
vaid	vaid	0		D	
    	vaid	0		J	
kannatas	kannata	s		V	s
võera	####				
ema	ema	0		S	sg g
   	ema	0		S	sg n
   	ema	0		S	sg p
ja	ja	0		J	
isseenese	####				
pärast	pära	st		S	sg el
      	pärane	t		A	sg p
      	pärast	0		D	
      	pärast	0		K	
,	,			Z	
ja	ja	0		J	
ka	ka	0		D	
sellepärast	selle_pärast	0		D	
,	,			Z	
et	et	0		J	
Juhan	Juhan	0		H	sg n
Sandtil	####				
ei	ei	0		D	
  	ei	0		V	neg
olnud	ol=nud	0		A	
     	ol=nud	0		A	sg n
     	ol=nud	d		A	pl n
     	ole	nud		V	nud
     	olnu	d		S	pl n
seda	see	da		P	sg p
jägu	####				
ilmas	ilm	s		S	sg in
     	ilmas	0		D	
maksta	maks	ta		V	da
      	maks	ta		V	ta
.	.			Z	
nüüd	nüüd	0		D	
süri	####				
Leno	####				
võeras	####				
ema	ema	0		S	sg g
   	ema	0		S	sg n
   	ema	0		S	sg p
ja	ja	0		J	
ühtlase	ühtlane	0		A	sg g
ka	ka	0		D	
Juhan	Juhan	0		H	sg n
Sandti	####				
naine	naine	0		S	sg n
Trino	####				
ära	ära	0		D	
   	ära	0		V	neg o
,	,			Z	
kes	kes	0		P	pl n
   	kes	0		P	sg n
teadis	tead	is		V	s
      	teadis	0		S	sg n
,	,			Z	
et	et	0		J	
ta	tema	0		P	sg g
  	tema	0		P	sg n
mees	mees	0		S	sg n
    	mesi	s		S	sg in
Juhan	Juhan	0		H	sg n
,	,			Z	
oli	ole	i		V	s
seda	see	da		P	sg p
raha	raha	0		S	sg g
    	raha	0		S	sg n
    	raha	0		S	sg p
laenanud	laena	nud		V	nud
        	laena=nu	d		S	pl n
        	laena=nud	0		A	
        	laena=nud	0		A	sg n
        	laena=nud	d		A	pl n
ja	ja	0		J	
Villem	Villem	0		H	sg n
Väide	väi	de		S	pl g
     	väide	0		S	sg n
ja	ja	0		J	
tema	tema	0		P	sg g
    	tema	0		P	sg n
naine	naine	0		S	sg n
Mari	Mari	0		H	sg g
    	mari	0		S	sg g
    	mari	0		S	sg n
    	Mari	0		H	sg n
    	mari	0		S	sg p
surid	sure	id		V	sid
ka	ka	0		D	
ära	ära	0		D	
   	ära	0		V	neg o
,	,			Z	
kelle	kes	0		P	pl g
     	kes	0		P	sg g
käest	käest	0		K	
     	käsi	st		S	sg el
Juhan	Juhan	0		H	sg n
oli	ole	i		V	s
se	####				
raha	raha	0		S	sg g
    	raha	0		S	sg n
    	raha	0		S	sg p
laenanud	laena	nud		V	nud
        	laena=nu	d		S	pl n
        	laena=nud	0		A	
        	laena=nud	0		A	sg n
        	laena=nud	d		A	pl n
,	,			Z	
ja	ja	0		J	
nõnda	nõnda	0		D	
jää	jää	0		S	sg g
   	jää	0		V	o
   	jää	0		S	sg n
se	####				
5	5	0		N	?
rbl	rbl	0		Y	?
.	.			Z	
ikka	ikka	0		D	
    	iga	0		S	adt
Leno	####				
Polderil	####				
,	,			Z	
Juhan	Juhan	0		H	sg n
Sandti	####				
käest	käest	0		K	
     	käsi	st		S	sg el
saada	saa	da		V	da
     	saat	0		V	o
     	saa	da		V	ta
.	.			Z	
korraga	kord	ga		S	sg kom
       	korraga	0		D	
saab	saa	b		V	b
Leno	####				
Polder	polder	0		S	sg n
juttud	####				
kuulda	kuul	da		V	da
      	kuul	da		V	ta
,	,			Z	
et	et	0		J	
Juhan	Juhan	0		H	sg n
Sandt	####				
ei	ei	0		D	
  	ei	0		V	neg
tahagi	taht	0	gi	V	o
      	taha	0	gi	D	
      	taha	0	gi	K	
se	####				
5	5	0		N	?
rbl	rbl	0		Y	?
.	.			Z	
enam	enam	0		C	sg n
    	enam	0		D	
maksta	maks	ta		V	da
      	maks	ta		V	ta
,	,			Z	
vaid	vaid	0		D	
    	vaid	0		J	
ütelda	ütle	da		V	da
      	ütle	da		V	ta
ennast	ise	t		P	sg p
keik	####				
se	####				
25	25	0		N	?
rbl	rbl	0		Y	?
.	.			Z	
mis	mis	0		P	pl n
   	mis	0		P	sg n
ta	tema	0		P	sg g
  	tema	0		P	sg n
Villem	Villem	0		H	sg n
Väide	väi	de		S	pl g
     	väide	0		S	sg n
käest	käest	0		K	
     	käsi	st		S	sg el
laenas	laena	s		V	s
,	,			Z	
jälle	jälle	0		D	
tervelt	tervelt	0		D	
       	terve	lt		A	sg abl
       	terve	lt		S	sg abl
ära	ära	0		D	
   	ära	0		V	neg o
maksnud	maks	nud		V	nud
       	maks=nu	d		S	pl n
       	maks=nud	0		A	
       	maks=nud	0		A	sg n
       	maks=nud	d		A	pl n
olid	ole	id		V	sid
.	.			Z	
2.	2.	0		O	?
)	)			Z	
astus	astu	s		V	s
Juhan	Juhan	0		H	sg n
Sandt	####				
kohtu	kohtu	0		V	o
     	kohus	0		S	sg g
ette	ette	0		D	
    	ette	0		K	
    	esi	tte		S	adt
ja	ja	0		J	
andis	and	is		V	s
teada	tead	a		V	da
,	,			Z	
et	et	0		J	
ta	tema	0		P	sg g
  	tema	0		P	sg n
on	ole	0		V	b
  	ole	0		V	vad
se	####				
25	25	0		N	?
rbl	rbl	0		Y	?
.	.			Z	
,	,			Z	
mis	mis	0		P	pl n
   	mis	0		P	sg n
ta	tema	0		P	sg g
  	tema	0		P	sg n
Villem	Villem	0		H	sg n
Väide	väi	de		S	pl g
     	väide	0		S	sg n
käest	käest	0		K	
     	käsi	st		S	sg el
laenas	laena	s		V	s
,	,			Z	
keik	####				
ühe	üks	0		N	sg g
   	üks	0		P	sg g
   	ühe	0		S	sg n
korraga	kord	ga		S	sg kom
       	korraga	0		D	
jälle	jälle	0		D	
ära	ära	0		D	
   	ära	0		V	neg o
maksnud	maks	nud		V	nud
       	maks=nu	d		S	pl n
       	maks=nud	0		A	
       	maks=nud	0		A	sg n
       	maks=nud	d		A	pl n
.	.			Z	
3.	3.	0		O	?
)	)			Z	
astus	astu	s		V	s
Leno	####				
Polderi	####				
pool	pool	0		K	
    	pool	0		N	sg n
    	pool	0		S	sg n
õõdde	####				
,	,			Z	
Mari	Mari	0		H	sg g
    	mari	0		S	sg g
    	mari	0		S	sg n
    	Mari	0		H	sg n
    	mari	0		S	sg p
Polder	polder	0		S	sg n
kohtu	kohtu	0		V	o
     	kohus	0		S	sg g
ette	ette	0		D	
    	ette	0		K	
    	esi	tte		S	adt
ja	ja	0		J	
tunnistas	tunnista	s		V	s
,	,			Z	
et	et	0		J	
Juhan	Juhan	0		H	sg n
Sandt	####				
on	ole	0		V	b
  	ole	0		V	vad
5	5	0		N	?
rbl	rbl	0		Y	?
.	.			Z	
ikka	ikka	0		D	
    	iga	0		S	adt
Villem	Villem	0		H	sg n
Väide	väi	de		S	pl g
     	väide	0		S	sg n
kätte	kätte	0		K	
     	käsi	tte		S	adt
maksmata	maks	mata		V	mata
        	maks=mata	0		A	
jätnud	jät	nud		V	nud
      	jät=nu	d		S	pl n
      	jät=nud	0		A	
      	jät=nud	0		A	sg n
      	jät=nud	d		A	pl n
ja	ja	0		J	
20	20	0		N	?
rbl	rbl	0		Y	?
.	.			Z	
ära	ära	0		D	
   	ära	0		V	neg o
maksnud	maks	nud		V	nud
       	maks=nu	d		S	pl n
       	maks=nud	0		A	
       	maks=nud	0		A	sg n
       	maks=nud	d		A	pl n
.	.			Z	
selle	see	0		P	sg g
     	sell	e		S	pl p
5	5	0		N	?
rbl	rbl	0		Y	?
.	.			Z	
pärast	pära	st		S	sg el
      	pärane	t		A	sg p
      	pärast	0		D	
      	pärast	0		K	
olla	ole	a		V	da
Leno	####				
Polder	polder	0		S	sg n
ja	ja	0		J	
ta	tema	0		P	sg g
  	tema	0		P	sg n
võeras	####				
ema	ema	0		S	sg g
   	ema	0		S	sg n
   	ema	0		S	sg p
Juhani	Juhan	0		H	sg g
      	juha	ni		S	sg ter
naine	naine	0		S	sg n
Trino	####				
ja	ja	0		J	
Juhan	Juhan	0		H	sg n
Sandt	####				
isekeskes	####				
mitto	####				
korda	kord	0		S	adt
     	korda	0		V	o
     	kord	0		S	sg p
rääkinud	rääki	nud		V	nud
        	rääki=nu	d		S	pl n
        	rääki=nud	0		A	
        	rääki=nud	0		A	sg n
        	rääki=nud	d		A	pl n
,	,			Z	
aga	aga	0		J	
ikka	ikka	0		D	
    	iga	0		S	adt
selle	see	0		P	sg g
     	sell	e		S	pl p
pärast	pära	st		S	sg el
      	pärane	t		A	sg p
      	pärast	0		D	
      	pärast	0		K	
maksmata	maks	mata		V	mata
        	maks=mata	0		A	
jäänud	jää	nud		V	nud
      	jäänu	d		S	pl n
      	jäänud	0		A	
      	jäänud	0		A	sg n
      	jäänud	d		A	pl n
,	,			Z	
et	et	0		J	
Juhan	Juhan	0		H	sg n
Sandtil	####				
ei	ei	0		D	
  	ei	0		V	neg
olnud	ol=nud	0		A	
     	ol=nud	0		A	sg n
     	ol=nud	d		A	pl n
     	ole	nud		V	nud
     	olnu	d		S	pl n
maksta	maks	ta		V	da
      	maks	ta		V	ta
ja	ja	0		J	
ka	ka	0		D	
Leno	####				
Polderil	####				
ei	ei	0		D	
  	ei	0		V	neg
olnud	ol=nud	0		A	
     	ol=nud	0		A	sg n
     	ol=nud	d		A	pl n
     	ole	nud		V	nud
     	olnu	d		S	pl n
seda	see	da		P	sg p
hädaste	####				
tarvis	tarvis	0		D	
      	tarvis	0		K	
.	.			Z	
4.	4.	0		O	?
)	)			Z	
kohus	kohu	s		V	s
     	kohus	0		S	sg n
mõistis	mõist	is		V	s
,	,			Z	
et	et	0		J	
Juhan	Juhan	0		H	sg n
Sandt	####				
peab	pida	b		V	b
se	####				
5	5	0		N	?
rbl	rbl	0		Y	?
.	.			Z	
Leno	####				
Polderile	####				
välja	välja	0		D	
     	välja	0		V	o
     	väli	0		S	adt
     	väli	0		S	sg g
     	väli	0		S	sg p
maksma	maks	ma		V	ma
,	,			Z	
ehk	ehk	0		D	
   	ehk	0		J	
,	,			Z	
kui	kui	0		D	
   	kui	0		J	
mitte	mitte	0		D	
,	,			Z	
siis	siis	0		D	
    	siis	0		J	
tugu	####				
ta	tema	0		P	sg g
  	tema	0		P	sg n
enesele	ise	le		P	sg all
selge	selge	0		A	sg g
     	selge	0		A	sg n
tunnistuse	tunnistus	0		S	sg g
,	,			Z	
kes	kes	0		P	pl n
   	kes	0		P	sg n
on	ole	0		V	b
  	ole	0		V	vad
näinud	näi	nud		V	nud
      	näge	nud		V	nud
      	näi=nud	0		A	
      	näi=nud	0		A	sg n
      	näi=nud	d		A	pl n
      	näinu	d		S	pl n
,	,			Z	
kui	kui	0		D	
   	kui	0		J	
ta	tema	0		P	sg g
  	tema	0		P	sg n
se	####				
25	25	0		N	?
rbl	rbl	0		Y	?
.	.			Z	
Villem	Villem	0		H	sg n
Väide	väi	de		S	pl g
     	väide	0		S	sg n
kätte	kätte	0		K	
     	käsi	tte		S	adt
tervelt	tervelt	0		D	
       	terve	lt		A	sg abl
       	terve	lt		S	sg abl
jälle	jälle	0		D	
on	ole	0		V	b
  	ole	0		V	vad
tagasi	tagasi	0		D	
      	tagasi	0		K	
maksnud	maks	nud		V	nud
       	maks=nu	d		S	pl n
       	maks=nud	0		A	
       	maks=nud	0		A	sg n
       	maks=nud	d		A	pl n
,	,			Z	
ni	####				
kui	kui	0		D	
   	kui	0		J	
ta	tema	0		P	sg g
  	tema	0		P	sg n
on	ole	0		V	b
  	ole	0		V	vad
seda	see	da		P	sg p
laenanud	laena	nud		V	nud
        	laena=nu	d		S	pl n
        	laena=nud	0		A	
        	laena=nud	0		A	sg n
        	laena=nud	d		A	pl n
.	.			Z	
et	et	0		J	
Juhan	Juhan	0		H	sg n
Sandt	####				
tunnistust	tunnistus	t		S	sg p
enesel	ise	l		P	sg ad
üks	üks	0		N	sg n
   	üks	0		P	sg n
ei	ei	0		D	
  	ei	0		V	neg
teadnud	tead	nud		V	nud
       	tead=nu	d		S	pl n
       	tead=nud	0		A	
       	tead=nud	0		A	sg n
       	tead=nud	d		A	pl n
olevat	ole	vat		V	vat
      	olev	t		A	sg p
      	olev	t		S	sg p
,	,			Z	
siis	siis	0		D	
    	siis	0		J	
kinnitas	kinnita	s		V	s
kohus	kohu	s		V	s
     	kohus	0		S	sg n
,	,			Z	
et	et	0		J	
ta	tema	0		P	sg g
  	tema	0		P	sg n
peab	pida	b		V	b
5	5	0		N	?
rbl	rbl	0		Y	?
.	.			Z	
Leno	####				
Polderile	####				
välja	välja	0		D	
     	välja	0		V	o
     	väli	0		S	adt
     	väli	0		S	sg g
     	väli	0		S	sg p
maksma	maks	ma		V	ma
.	.			Z	
kohtupeavanem	kohtu_pea_vanem	0		S	sg n
Mart	Mart	0		H	sg n
    	mart	0		S	sg n
Pahlmann	####				
kõrvamees	kõrva_mees	0		S	sg n
kustav	kus=tav	0		A	sg n
      	kuse	tav		V	tav
Sündeva	####				
järjemees	järje_mees	0		S	sg n
Andrus	Andrus	0		H	sg n
Kerm	####				
kirjutaja	kirjutaja	0		S	sg g
         	kirjutaja	0		S	sg n
A	A	0		Y	?
Krein	####				
Leno	####				
Polderi	####				
kaebtus	####				
Juhan	Juhan	0		H	sg n
Sandti	####				
peale	pea	le		S	sg all
     	peale	0		D	
     	peale	0		K	
5	5	0		N	?
rbl	rbl	0		Y	?
.	.			Z	
pärast	pära	st		S	sg el
      	pärane	t		A	sg p
      	pärast	0		D	
      	pärast	0		K	
,	,			Z	
mis	mis	0		P	pl n
   	mis	0		P	sg n
Juhan	Juhan	0		H	sg n
Sandt	####				
ei	ei	0		D	
  	ei	0		V	neg
taha	taht	0		V	o
    	taha	0		D	
    	taha	0		K	
maksta	maks	ta		V	da
      	maks	ta		V	ta
.	.			Z	
Juhani	Juhan	0		H	sg g
      	juha	ni		S	sg ter
kostus	kostu	s		V	s
      	kostus	0		S	sg n
,	,			Z	
et	et	0		J	
ta	tema	0		P	sg g
  	tema	0		P	sg n
on	ole	0		V	b
  	ole	0		V	vad
seda	see	da		P	sg p
ära	ära	0		D	
   	ära	0		V	neg o
maksnud	maks	nud		V	nud
       	maks=nu	d		S	pl n
       	maks=nud	0		A	
       	maks=nud	0		A	sg n
       	maks=nud	d		A	pl n
;	;			Z	
Lena	####				
Polderi	####				
tunnistus	tunnistus	0		S	sg n
,	,			Z	
et	et	0		J	
on	ole	0		V	b
  	ole	0		V	vad
alles	alles	0		D	
maksmata	maks	mata		V	mata
        	maks=mata	0		A	
.	.			Z	
kohtu	kohtu	0		V	o
     	kohus	0		S	sg g
otsus	otsus	0		S	sg n
jää	jää	0		S	sg g
   	jää	0		V	o
   	jää	0		S	sg n
seks	see	ks		P	sg tr
    	seks	0		S	sg n
,	,			Z	
et	et	0		J	
(	(			Z	
kohus	kohu	s		V	s
     	kohus	0		S	sg n
)	)			Z	
Juhan	Juhan	0		H	sg n
Sandt	####				
peab	pida	b		V	b
se	####				
5	5	0		N	?
rbl	rbl	0		Y	?
.	.			Z	
ära	ära	0		D	
   	ära	0		V	neg o
maksma	maks	ma		V	ma
.	.			Z	
