kaebas	kaeba	s		V	s
kõrtsmik	kõrtsmik	0		S	sg n
Karl	Karl	0		H	sg n
Baumann	####				
,	,			Z	
et	et	0		J	
Juhan	Juhan	0		H	sg n
Umberg	####				
ja	ja	0		J	
Karl	Karl	0		H	sg n
Umberg	####				
olla	ole	a		V	da
püha	püha	0		A	sg g
    	püha	0		A	sg n
    	püha	0		A	sg p
    	püha	0		S	sg g
    	püha	0		S	sg n
    	püha	0		S	sg p
päeval	päev	l		S	sg ad
kui	kui	0		D	
   	kui	0		J	
ta	tema	0		P	sg g
  	tema	0		P	sg n
kirikus	kirik	s		S	sg in
olnud	ol=nud	0		A	
     	ol=nud	0		A	sg n
     	ol=nud	d		A	pl n
     	ole	nud		V	nud
     	olnu	d		S	pl n
,	,			Z	
ja	ja	0		J	
temal	tema	l		P	sg ad
väike	väike	0		A	sg n
tüttarlas	####				
koduliseks	kodu=line	ks		A	sg tr
olnud	ol=nud	0		A	
     	ol=nud	0		A	sg n
     	ol=nud	d		A	pl n
     	ole	nud		V	nud
     	olnu	d		S	pl n
,	,			Z	
kõrtsi	kõrts	0		S	adt
      	kõrts	0		S	sg g
      	kõrts	0		S	sg p
tulnud	tul=nud	0		A	
      	tul=nud	0		A	sg n
      	tul=nud	d		A	pl n
      	tule	nud		V	nud
      	tulnu	d		S	pl n
ja	ja	0		J	
jutluse	jutlus	0		S	sg g
ajal	aeg	l		S	sg ad
    	ajal	0		K	
seal	seal	0		D	
    	siga	l		A	sg ad
    	siga	l		S	sg ad
pili	####				
mänginud	mängi	nud		V	nud
        	mängi=nu	d		S	pl n
        	mängi=nud	0		A	
        	mängi=nud	0		A	sg n
        	mängi=nud	d		A	pl n
,	,			Z	
mis	mis	0		P	pl n
   	mis	0		P	sg n
ta	tema	0		P	sg g
  	tema	0		P	sg n
ilmasgi	####				
poole	pool	0		N	sg g
     	pool	0		S	sg g
     	pool	e		S	pl p
     	poole	0		K	
     	poole	0		S	sg n
lubanud	luba	nud		V	nud
       	luba=nu	d		S	pl n
       	luba=nud	0		A	
       	luba=nud	0		A	sg n
       	luba=nud	d		A	pl n
ja	ja	0		J	
vägise	vägine	0		A	sg g
      	vägine	0		S	sg g
tema	tema	0		P	sg g
    	tema	0		P	sg n
elu	elu	0		S	sg g
   	elu	0		S	sg n
   	elu	0		S	sg p
tupa	####				
tunginud	tungi	nud		V	nud
        	tungi=nu	d		S	pl n
        	tungi=nud	0		A	
        	tungi=nud	0		A	sg n
        	tungi=nud	d		A	pl n
ja	ja	0		J	
pahaste	pahane	te		A	pl g
räääkinud	####				
.	.			Z	
järjemõõda	####				
said	saa	id		V	sid
ette	ette	0		D	
    	ette	0		K	
    	esi	tte		S	adt
kutsutud	kutsu	tud		V	tud
        	kutsutu	d		S	pl n
        	kutsutud	0		A	
        	kutsutud	0		A	sg n
        	kutsutud	d		A	pl n
Juhan	Juhan	0		H	sg n
Umberg	####				
ja	ja	0		J	
Karl	Karl	0		H	sg n
Umberg	####				
,	,			Z	
nemad	tema	d		P	pl n
ei	ei	0		D	
  	ei	0		V	neg
võinud	või	nud		V	nud
      	või=nu	d		S	pl n
      	või=nud	0		A	
      	või=nud	0		A	sg n
      	või=nud	d		A	pl n
ooma	####				
süüd	süü	d		S	pl n
    	süüd	0		S	sg n
    	süü	d		S	sg p
mitte	mitte	0		D	
vabandada	vabanda	da		V	da
.	.			Z	
siis	siis	0		D	
    	siis	0		J	
mõistis	mõist	is		V	s
kohus	kohu	s		V	s
     	kohus	0		S	sg n
,	,			Z	
et	et	0		J	
Juhan	Juhan	0		H	sg n
Umberg	####				
maksab	maks	b		V	b
1	1	0		N	?
rbl	rbl	0		Y	?
.	.			Z	
ja	ja	0		J	
Karl	Karl	0		H	sg n
Umberg	####				
1	1	0		N	?
rbl	rbl	0		Y	?
.	.			Z	
trahvi	trahv	0		S	adt
      	trahv	0		S	sg g
      	trahvi	0		V	o
      	trahv	0		S	sg p
.	.			Z	
kohtuvanem	kohtu_vanem	0		C	sg n
          	kohtu_vanem	0		S	sg n
:	:			Z	
J	J	0		Y	?
Neumann	####				
kõrvamees	kõrva_mees	0		S	sg n
:	:			Z	
J	J	0		Y	?
Toomann	####				
""""	""""			Z	
:	:			Z	
J	J	0		Y	?
Laurson	####				
tallitaja	####				
:	:			Z	
J	J	0		Y	?
Vesiradt	####				
kirjutaja	kirjutaja	0		S	sg g
         	kirjutaja	0		S	sg n
:	:			Z	
M	M	0		O	?
 	M	0		Y	?
Kruup	kruup	0		S	sg n
[	[			Z	
allkiri	all_kiri	0		S	sg n
]	]			Z	
