Parila	####				
kogukonna	kogukond	0		S	sg g
kohus	kohu	s		V	s
     	kohus	0		S	sg n
sel	see	l		P	sg ad
   	sel	0		Y	?
8ndal	8=s	l		O	sg ad
Jüriku	####				
päeval	päev	l		S	sg ad
1867	1867	0		N	?
koko	####				
tulid	tule	id		V	sid
:	:			Z	
kohtuvanem	kohtu_vanem	0		C	sg n
          	kohtu_vanem	0		S	sg n
Jaan	Jaan	0		H	sg n
    	jaan	0		S	sg n
    	jaan	0		Y	?
Jünter	####				
XXX	XXX	0		O	?
   	XXX	0		Y	?
abimehed	abi_mees	d		S	pl n
Ado	Ado	0		H	sg g
   	Ado	0		H	sg n
Kreis	kreis	0		S	sg n
XXX	XXX	0		O	?
   	XXX	0		Y	?
Mart	Mart	0		H	sg n
    	mart	0		S	sg n
Hiie	hiis	0		S	sg g
XXX	XXX	0		O	?
   	XXX	0		Y	?
Ei	ei	0		D	
  	ei	0		V	neg
olnud	ol=nud	0		A	
     	ol=nud	0		A	sg n
     	ol=nud	d		A	pl n
     	ole	nud		V	nud
     	olnu	d		S	pl n
ühtigi	ühtigi	0		D	
kohtu	kohtu	0		V	o
     	kohus	0		S	sg g
asja	asi	0		S	adt
    	asi	0		S	sg g
    	asi	0		S	sg p
seletada	seleta	da		V	da
.	.			Z	
