Juhan	Juhan	0		H	sg n
kiisk	kiisk	0		S	sg n
kaibas	####				
,	,			Z	
et	et	0		J	
Matso	####				
koht	koht	0		S	sg n
on	ole	0		V	b
  	ole	0		V	vad
tema	tema	0		P	sg g
    	tema	0		P	sg n
käest	käest	0		K	
     	käsi	st		S	sg el
ära	ära	0		D	
   	ära	0		V	neg o
võetud	võe=tu	d		S	pl n
      	võetud	0		A	
      	võetud	0		A	sg n
      	võetud	d		A	pl n
      	võt	tud		V	tud
ja	ja	0		J	
enne	enne	0		D	
    	enne	0		K	
    	enne	0		S	sg n
kontrakti	####				
,	,			Z	
aega	aeg	0		S	adt
    	aeg	0		S	sg p
    	aega	0		K	
müüdud	müü	dud		V	tud
      	müü=du	d		S	pl n
      	müü=dud	0		A	
      	müü=dud	0		A	sg n
      	müü=dud	d		A	pl n
see	see	0		P	sg n
nimetud	nimetu	d		A	pl n
Matso	####				
koht	koht	0		S	sg n
oli	ole	i		V	s
tema	tema	0		P	sg g
    	tema	0		P	sg n
käes	käes	0		K	
    	käsi	s		S	sg in
olnud	ol=nud	0		A	
     	ol=nud	0		A	sg n
     	ol=nud	d		A	pl n
     	ole	nud		V	nud
     	olnu	d		S	pl n
115	115	0		N	?
rbl	rbl	0		Y	?
.	.			Z	
al	####				
arvatud	arva	tud		V	tud
       	arva=tu	d		S	pl n
       	arva=tud	0		A	
       	arva=tud	0		A	sg n
       	arva=tud	d		A	pl n
ja	ja	0		J	
tema	tema	0		P	sg g
    	tema	0		P	sg n
ei	ei	0		D	
  	ei	0		V	neg
ole	ole	0		V	o
tassomist	####				
saanud	saa	nud		V	nud
      	saa=nud	0		A	
      	saa=nud	0		A	sg n
      	saa=nud	d		A	pl n
      	saanu	d		S	pl n
,	,			Z	
maa	maa	0		S	sg g
   	maa	0		S	sg n
kog	####				
.	.			Z	
sead	sead	d		V	d
    	siga	d		A	pl n
    	siga	d		S	pl n
lisa	lisa	0		S	sg g
    	lisa	0		V	o
    	lisa	0		S	sg n
    	lisa	0		S	sg p
Nr	Nr	0		Y	?
7	7	0		N	?
järel	järel	0		D	
     	järel	0		K	
.	.			Z	
kohus	kohu	s		V	s
     	kohus	0		S	sg n
mõistis	mõist	is		V	s
,	,			Z	
et	et	0		J	
see	see	0		P	sg n
asi	asi	0		S	sg n
   	asi	0		V	o
suurem	suurem	0		C	sg n
on	ole	0		V	b
  	ole	0		V	vad
et	et	0		J	
kui	kui	0		D	
   	kui	0		J	
valla	vald	0		S	sg g
     	valla	0		D	
kohus	kohu	s		V	s
     	kohus	0		S	sg n
võib	või	b		V	b
selle	see	0		P	sg g
     	sell	e		S	pl p
ülle	ülle	0		D	
otsust	otsus	t		S	sg p
teha	tege	a		V	da
,	,			Z	
seepärast	see_pärast	0		D	
saab	saa	b		V	b
palutud	palu	tud		V	tud
       	palu=tu	d		S	pl n
       	palutud	0		A	
       	palutud	0		A	sg n
       	palutud	d		A	pl n
auustud	au_us=tu	d		S	pl n
       	au_us=tud	0		A	
       	au_us=tud	0		A	sg n
       	au_us=tud	d		A	pl n
keisrl	####				
.	.			Z	
St	st	0		I	
.	.			Z	
Martna	Martna	0		H	sg g
      	Martna	0		H	sg n
Kihelkonna	Kihelkonna	0		H	sg g
          	kihelkond	0		S	sg g
          	Kihelkonna	0		H	sg n
kohut	kohus	t		S	sg p
seda	see	da		P	sg p
asja	asi	0		S	adt
    	asi	0		S	sg g
    	asi	0		S	sg p
seletada	seleta	da		V	da
võta	võt	0		V	o
.	.			Z	
E	E	0		Y	?
.	.			Z	
T	T	0		Y	?
.	.			Z	
r	r	0		Y	?
.	.			Z	
S	S	0		Y	?
.	.			Z	
§	§	0		Y	?
728	728	0		N	?
järel	järel	0		D	
     	järel	0		K	
ehk	ehk	0		D	
   	ehk	0		J	
kog	####				
.	.			Z	
sed	####				
.	.			Z	
§	§	0		Y	?
12.	12.	0		O	?
(	(			Z	
Kihelkonna	Kihelkonna	0		H	sg g
          	kihelkond	0		S	sg g
          	Kihelkonna	0		H	sg n
kohtu	kohtu	0		V	o
     	kohus	0		S	sg g
läkitatud	läkita	tud		V	tud
         	läkita=tu	d		S	pl n
         	läkita=tud	0		A	
         	läkita=tud	0		A	sg n
         	läkita=tud	d		A	pl n
3.	3.	0		O	?
märz	####				
)	)			Z	
