kaebas	kaeba	s		V	s
mõisa	mõis	0		S	sg g
politsei	politsei	0		S	sg g
        	politsei	0		S	sg n
,	,			Z	
et	et	0		J	
Hindrek	####				
Mei	####				
lesk	lesk	0		S	sg n
Liisu	liisk	0		S	sg g
     	liisu	0		V	o
on	ole	0		V	b
  	ole	0		V	vad
Liiva	Liiva	0		H	sg g
     	liiv	0		S	adt
     	liiv	0		S	sg g
     	Liiva	0		H	sg n
     	liiv	0		S	sg p
kõrtsi	kõrts	0		S	adt
      	kõrts	0		S	sg g
      	kõrts	0		S	sg p
lauad	laud	d		S	pl n
ära	ära	0		D	
   	ära	0		V	neg o
pillanud	pilla	nud		V	nud
        	pilla=nu	d		S	pl n
        	pilla=nud	0		A	
        	pilla=nud	0		A	sg n
        	pilla=nud	d		A	pl n
ja	ja	0		J	
laua	laud	0		S	sg g
lagi	lagi	0		S	sg n
ära	ära	0		D	
   	ära	0		V	neg o
võtnud	võt	nud		V	nud
      	võt=nu	d		S	pl n
      	võt=nud	0		A	
      	võt=nud	0		A	sg n
      	võt=nud	d		A	pl n
.	.			Z	
kohtu	kohtu	0		V	o
     	kohus	0		S	sg g
ette	ette	0		D	
    	ette	0		K	
    	esi	tte		S	adt
tuli	tuli	0		S	sg n
    	tule	i		V	s
Liisu	liisk	0		S	sg g
     	liisu	0		V	o
Mei	####				
ja	ja	0		J	
tunnistas	tunnista	s		V	s
:	:			Z	
se	####				
No	no	0		I	
on	ole	0		V	b
  	ole	0		V	vad
alles	alles	0		D	
,	,			Z	
aga	aga	0		J	
jalad	jalg	d		S	pl n
on	ole	0		V	b
  	ole	0		V	vad
äramädanenud	ära_mädanenud	0		A	
            	ära_mädanenud	0		A	sg n
            	ära_mädanenud	d		A	pl n
;	;			Z	
ja	ja	0		J	
laua	laud	0		S	sg g
lagi	lagi	0		S	sg n
on	ole	0		V	b
  	ole	0		V	vad
nõnda	nõnda	0		D	
,	,			Z	
kui	kui	0		D	
   	kui	0		J	
minna	mine	a		V	da
teda	tema	da		P	sg p
oma	oma	0		A	sg g
   	oma	0		D	
   	oma	0		P	sg g
   	oma	0		S	sg g
   	oma	0		V	o
   	oma	0		A	sg n
   	oma	0		A	sg p
   	oma	0		P	sg n
   	oma	0		P	sg p
   	oma	0		S	sg n
   	oma	0		S	sg p
kätte	kätte	0		K	
     	käsi	tte		S	adt
sain	saa	in		V	sin
.	.			Z	
kaebtus	####				
jääb	jää	b		V	b
läbi	läbi	0		D	
    	läbi	0		K	
    	läbi	0		V	o
vaatamise	vaatamine	0		S	sg g
alla	alla	0		D	
    	alla	0		K	
.	.			Z	
Allakirjoodud	####				
sel	see	l		P	sg ad
   	sel	0		Y	?
saamal	saam	l		S	sg ad
päeval	päev	l		S	sg ad
kohtuvan	####				
:	:			Z	
Jaan	Jaan	0		H	sg n
    	jaan	0		S	sg n
    	jaan	0		Y	?
kisk	kisk	0		S	sg n
.	.			Z	
kõrvalmees	kõrval_mees	0		S	sg n
          	kõrval_mesi	s		S	sg in
:	:			Z	
kustav	kus=tav	0		A	sg n
      	kuse	tav		V	tav
Laurits	laurits	0		S	sg n
Jüri	Jüri	0		H	sg g
    	Jüri	0		H	sg n
Suur	suur	0		A	sg n
