ei	ei	0		D	
  	ei	0		V	neg
olnud	ol=nud	0		A	
     	ol=nud	0		A	sg n
     	ol=nud	d		A	pl n
     	ole	nud		V	nud
     	olnu	d		S	pl n
asjo	####				
ühtigi	ühtigi	0		D	
seletada	seleta	da		V	da
.	.			Z	
koos	koos	0		D	
    	koos	0		K	
    	koos	0		S	sg n
    	kubu	s		S	sg in
olid	ole	id		V	sid
:	:			Z	
kohtu	kohtu	0		V	o
     	kohus	0		S	sg g
vanem	vanem	0		C	sg n
     	vanem	0		S	sg n
Mihkel	Mihkel	0		H	sg n
      	mihkel	0		A	sg n
      	mihkel	0		S	sg n
Viinberg	####				
XXX	XXX	0		O	?
   	XXX	0		Y	?
abimehed	abi_mees	d		S	pl n
Juhan	Juhan	0		H	sg n
Mantohff	####				
XXX	XXX	0		O	?
   	XXX	0		Y	?
Juhan	Juhan	0		H	sg n
Birk	####				
XXX	XXX	0		O	?
   	XXX	0		Y	?
