6.	6.	0		O	?
astus	astu	s		V	s
ette	ette	0		D	
    	ette	0		K	
    	esi	tte		S	adt
Madis	Madis	0		H	sg n
     	madis	0		S	sg n
Blink	####				
ja	ja	0		J	
rääkis	rääki	s		V	s
välja	välja	0		D	
     	välja	0		V	o
     	väli	0		S	adt
     	väli	0		S	sg g
     	väli	0		S	sg p
:	:			Z	
Tema	tema	0		P	sg g
    	tema	0		P	sg n
ja	ja	0		J	
Jaan	Jaan	0		H	sg n
    	jaan	0		S	sg n
    	jaan	0		Y	?
kork	kork	0		S	sg n
vahetanud	vaheta	nud		V	nud
         	vaheta=nu	d		S	pl n
         	vaheta=nud	0		A	
         	vaheta=nud	0		A	sg n
         	vaheta=nud	d		A	pl n
15ndal	15=s	l		O	sg ad
Vebruaril	####				
s	s	0		Y	?
.	.			Z	
a.	a	0		Y	?
Rannakülla	ranna_küla	0		S	adt
kõrtsis	kõrts	s		S	sg in
hobosed	####				
ja	ja	0		J	
tema	tema	0		P	sg g
    	tema	0		P	sg n
annud	####				
3	3	0		N	?
rubla	rubla	0		S	sg g
     	rubla	0		S	sg n
     	rubla	0		S	sg p
teisele	teine	le		O	sg all
       	teine	le		P	sg all
peale	pea	le		S	sg all
     	peale	0		D	
     	peale	0		K	
.	.			Z	
kaup	kaup	0		S	sg n
olnud	ol=nud	0		A	
     	ol=nud	0		A	sg n
     	ol=nud	d		A	pl n
     	ole	nud		V	nud
     	olnu	d		S	pl n
ilma	ilm	0		S	adt
    	ilm	0		S	sg g
    	ilma	0		D	
    	ilma	0		K	
    	ilm	0		S	sg p
taganemise	taganemine	0		S	sg g
kaubata	kaup	ta		S	sg ab
.	.			Z	
9ndal	9=s	l		O	sg ad
sellekuupäeval	selle_kuu_päev	l		S	sg ad
Jaan	Jaan	0		H	sg n
    	jaan	0		S	sg n
    	jaan	0		Y	?
kork	kork	0		S	sg n
toonud	too	nud		V	nud
      	too=nu	d		S	pl n
      	too=nud	0		A	
      	too=nud	0		A	sg n
      	too=nud	d		A	pl n
temast	tema	st		P	sg el
antud	an=tu	d		S	pl n
     	and	tud		V	tud
     	antud	0		A	
     	antud	0		A	sg n
     	antud	d		A	pl n
hobasse	####				
tagasi	tagasi	0		D	
      	tagasi	0		K	
ja	ja	0		J	
võtnud	võt	nud		V	nud
      	võt=nu	d		S	pl n
      	võt=nud	0		A	
      	võt=nud	0		A	sg n
      	võt=nud	d		A	pl n
enese	ise	0		P	sg g
endise	endine	0		A	sg g
hobasse	####				
tema	tema	0		P	sg g
    	tema	0		P	sg n
käest	käest	0		K	
     	käsi	st		S	sg el
väevõimusega	väe_võimus	ga		S	sg kom
ära	ära	0		D	
   	ära	0		V	neg o
.	.			Z	
see	see	0		P	sg n
teininud	####				
tema	tema	0		P	sg g
    	tema	0		P	sg n
hobosega	####				
igapäev	iga_päev	0		S	sg n
ja	ja	0		J	
ta	tema	0		P	sg g
  	tema	0		P	sg n
ei	ei	0		D	
  	ei	0		V	neg
ole	ole	0		V	o
selle	see	0		P	sg g
     	sell	e		S	pl p
hobosega	####				
ühtigi	ühtigi	0		D	
teinud	tege	nud		V	nud
      	tei=nud	0		A	
      	tei=nud	0		A	sg n
      	tei=nud	d		A	pl n
      	teinu	d		S	pl n
.	.			Z	
Ta	tema	0		P	sg g
  	tema	0		P	sg n
nõudis	nõud	is		V	s
,	,			Z	
et	et	0		J	
hobosed	####				
saavad	saa	vad		V	vad
      	saav	d		A	pl n
      	saav	d		S	pl n
tagasi	tagasi	0		D	
      	tagasi	0		K	
vahetud	vahetu	d		A	pl n
       	vahetu	d		V	d
,	,			Z	
ehk	ehk	0		D	
   	ehk	0		J	
kui	kui	0		D	
   	kui	0		J	
need	see	d		P	pl n
ümbervahetud	ümber_vahetu	d		A	pl n
jäävad	jää	vad		V	vad
      	jääv	d		A	pl n
,	,			Z	
siis	siis	0		D	
    	siis	0		J	
nõudis	nõud	is		V	s
ta	tema	0		P	sg g
  	tema	0		P	sg n
iga	iga	0		P	sg g
   	iga	0		P	sg n
   	iga	0		P	sg p
   	iga	0		S	sg n
   	iga	0		S	sg p
nädala	nädal	0		S	sg g
pealt	pea	lt		S	sg abl
     	pealt	0		D	
     	pealt	0		K	
2	2	0		N	?
rubla	rubla	0		S	sg g
     	rubla	0		S	sg n
     	rubla	0		S	sg p
taganemise	taganemine	0		S	sg g
raha	raha	0		S	sg g
    	raha	0		S	sg n
    	raha	0		S	sg p
,	,			Z	
ühte	ühte	0		D	
    	üks	0		N	adt
    	üks	0		P	adt
    	ühe	0		S	sg g
    	üks	0		N	sg p
    	üks	0		P	sg p
kokku	kokku	0		D	
     	kogu	0		S	adt
6	6	0		N	?
rubla	rubla	0		S	sg g
     	rubla	0		S	sg n
     	rubla	0		S	sg p
saada	saa	da		V	da
     	saat	0		V	o
     	saa	da		V	ta
.	.			Z	
astus	astu	s		V	s
ette	ette	0		D	
    	ette	0		K	
    	esi	tte		S	adt
Jaan	Jaan	0		H	sg n
    	jaan	0		S	sg n
    	jaan	0		Y	?
kork	kork	0		S	sg n
ja	ja	0		J	
rääkis	rääki	s		V	s
välja	välja	0		D	
     	välja	0		V	o
     	väli	0		S	adt
     	väli	0		S	sg g
     	väli	0		S	sg p
:	:			Z	
Teised	teine	d		O	pl n
      	teine	d		P	pl n
hobasse	####				
tundjad	tundja	d		S	pl n
inimised	####				
laitnud	lait	nud		V	nud
       	lait=nu	d		S	pl n
       	lait=nud	0		A	
       	lait=nud	0		A	sg n
       	lait=nud	d		A	pl n
selle	see	0		P	sg g
     	sell	e		S	pl p
Madis	Madis	0		H	sg n
     	madis	0		S	sg n
Blink'i	####				
käest	käest	0		K	
     	käsi	st		S	sg el
saadud	saa	dud		V	tud
      	saadu	d		S	pl n
      	saadud	0		A	
      	saadud	0		A	sg n
      	saadud	d		A	pl n
hobasse	####				
ära	ära	0		D	
   	ära	0		V	neg o
ja	ja	0		J	
ta	tema	0		P	sg g
  	tema	0		P	sg n
leidnud	leid	nud		V	nud
       	leid=nu	d		S	pl n
       	leid=nud	0		A	
       	leid=nud	0		A	sg n
       	leid=nud	d		A	pl n
ise	ise	0		A	
   	ise	0		D	
   	ise	0		P	pl n
   	ise	0		P	sg n
ka	ka	0		D	
,	,			Z	
et	et	0		J	
see	see	0		P	sg n
hoboone	####				
törkunud	####				
,	,			Z	
seepärast	see_pärast	0		D	
viinud	vii	nud		V	nud
      	vii=nu	d		S	pl n
      	vii=nud	0		A	
      	vii=nud	0		A	sg n
      	vii=nud	d		A	pl n
ta	tema	0		P	sg g
  	tema	0		P	sg n
seda	see	da		P	sg p
tagasi	tagasi	0		D	
      	tagasi	0		K	
ja	ja	0		J	
võtnud	võt	nud		V	nud
      	võt=nu	d		S	pl n
      	võt=nud	0		A	
      	võt=nud	0		A	sg n
      	võt=nud	d		A	pl n
enesest	ise	st		P	sg el
antud	an=tu	d		S	pl n
     	and	tud		V	tud
     	antud	0		A	
     	antud	0		A	sg n
     	antud	d		A	pl n
hobasse	####				
ära	ära	0		D	
   	ära	0		V	neg o
.	.			Z	
Ta	tema	0		P	sg g
  	tema	0		P	sg n
lubas	luba	s		V	s
3	3	0		N	?
rubla	rubla	0		S	sg g
     	rubla	0		S	sg n
     	rubla	0		S	sg p
taganemise	taganemine	0		S	sg g
raha	raha	0		S	sg g
    	raha	0		S	sg n
    	raha	0		S	sg p
Madis	Madis	0		H	sg n
     	madis	0		S	sg n
Blinkile	####				
maksta	maks	ta		V	da
      	maks	ta		V	ta
,	,			Z	
see	see	0		P	sg n
oli	ole	i		V	s
sellega	see	ga		P	sg kom
rahul	rahu	l		S	sg ad
     	rahul	0		D	
ja	ja	0		J	
nõudis	nõud	is		V	s
,	,			Z	
et	et	0		J	
see	see	0		P	sg n
raha	raha	0		S	sg g
    	raha	0		S	sg n
    	raha	0		S	sg p
Jüripäevaks	jüri_päev	ks		S	sg tr
s	s	0		Y	?
.	.			Z	
a.	a	0		Y	?
peab	pida	b		V	b
makstud	maks	tud		V	tud
       	maks=tu	d		S	pl n
       	maks=tud	0		A	
       	maks=tud	0		A	sg n
       	maks=tud	d		A	pl n
saama	saa	ma		V	ma
     	saam	0		S	adt
     	saam	0		S	sg g
     	saam	0		S	sg p
ja	ja	0		J	
leppisid	leppi	sid		V	sid
selle	see	0		P	sg g
     	sell	e		S	pl p
peale	pea	le		S	sg all
     	peale	0		D	
     	peale	0		K	
ära	ära	0		D	
   	ära	0		V	neg o
.	.			Z	
makstud	maks	tud		V	tud
       	maks=tu	d		S	pl n
       	maks=tud	0		A	
       	maks=tud	0		A	sg n
       	maks=tud	d		A	pl n
.	.			Z	
