kohtu	kohtu	0		V	o
     	kohus	0		S	sg g
poolt	pool	t		N	sg p
     	pool	t		S	sg p
     	poolt	0		D	
     	poolt	0		K	
sai	saa	i		V	s
   	sai	0		S	sg n
Võnnu	Võnnu	0		H	sg g
     	Võnnu	0		H	sg n
mõisa	mõis	0		S	sg g
tunnistus	tunnistus	0		S	sg n
et	et	0		J	
majad	maja	d		S	pl n
mis	mis	0		P	pl n
   	mis	0		P	sg n
Tamme	tamm	0		S	adt
     	tamm	0		S	sg g
     	tamm	e		S	pl p
     	tamm	0		S	sg p
koha	koht	0		S	sg g
    	koha	0		S	sg g
    	koha	0		V	o
    	koha	0		S	sg n
    	koha	0		S	sg p
peal	pea	l		S	sg ad
    	peal	0		D	
    	peal	0		K	
on	ole	0		V	b
  	ole	0		V	vad
rentniku	rentnik	0		S	sg g
ooma	####				
ehitud	ehti	tud		V	tud
      	ehi=tu	d		S	pl n
      	ehitu	d		V	d
      	ehitud	0		A	
      	ehitud	0		A	sg n
      	ehitud	d		A	pl n
ja	ja	0		J	
oomadus	####				
;	;			Z	
tunnistus	tunnistus	0		S	sg n
sai	saa	i		V	s
   	sai	0		S	sg n
ära	ära	0		D	
   	ära	0		V	neg o
kinnitud	kinnitu	d		V	d
ja	ja	0		J	
rentniku	rentnik	0		S	sg g
Hans	Hans	0		H	sg n
paadame'le	####				
tagasi	tagasi	0		D	
      	tagasi	0		K	
antud	an=tu	d		S	pl n
     	and	tud		V	tud
     	antud	0		A	
     	antud	0		A	sg n
     	antud	d		A	pl n
.	.			Z	
kohtuvanem	kohtu_vanem	0		C	sg n
          	kohtu_vanem	0		S	sg n
:	:			Z	
Kustas	Kusta	s		H	sg in
      	Kustas	0		H	sg n
Suurküla	suur_küla	0		S	sg g
        	suur_küla	0		S	sg n
        	suur_küla	0		S	sg p
kirjutaja	kirjutaja	0		S	sg g
         	kirjutaja	0		S	sg n
:	:			Z	
E	E	0		Y	?
Marleij	####				
Febr	####				
.	.			Z	
26al	####				
1891	1891	0		N	?
a	a	0		Y	?
