Sai	saa	i		V	s
   	sai	0		S	sg n
ette	ette	0		D	
    	ette	0		K	
    	esi	tte		S	adt
võetud	võe=tu	d		S	pl n
      	võetud	0		A	
      	võetud	0		A	sg n
      	võetud	d		A	pl n
      	võt	tud		V	tud
No	no	0		I	
43	43	0		N	?
protokolis	####				
kaebtuste	####				
peale	pea	le		S	sg all
     	peale	0		D	
     	peale	0		K	
:	:			Z	
1	1	0		N	?
)	)			Z	
(	(			Z	
esiteks	esiteks	0		D	
)	)			Z	
viendama	####				
kaebtuse	####				
alune	alune	0		A	sg n
     	alune	0		S	sg n
Soba	####				
Juhan	Juhan	0		H	sg n
,	,			Z	
ja	ja	0		J	
ütleb	ütle	b		V	b
:	:			Z	
""""	""""			Z	
et	et	0		J	
tema	tema	0		P	sg g
    	tema	0		P	sg n
pole	ole	0		V	neg o
mitte	mitte	0		D	
adra	ader	0		S	sg g
käeni	käsi	ni		S	sg ter
puud	puu	d		S	pl n
    	puud	0		S	sg n
    	puu	d		S	sg p
raiund	rai_uni	0		S	sg p
,	,			Z	
Jakobson	Jakobson	0		H	sg n
on	ole	0		V	b
  	ole	0		V	vad
teda	tema	da		P	sg p
läbi	läbi	0		D	
    	läbi	0		K	
    	läbi	0		V	o
otsind	ots_ind	0		S	sg n
,	,			Z	
mitte	mitte	0		D	
leind	####				
,	,			Z	
tema	tema	0		P	sg g
    	tema	0		P	sg n
peale	pea	le		S	sg all
     	peale	0		D	
     	peale	0		K	
on	ole	0		V	b
  	ole	0		V	vad
A	A	0		Y	?
.	.			Z	
J	J	0		Y	?
.	.			Z	
küll	küll	0		D	
    	küll	0		S	sg n
seda	see	da		P	sg p
süüdi	süüd	0		S	adt
     	süüd	0		S	sg g
     	süüdi	0		D	
     	süüd	0		S	sg p
aiand	aiand	0		S	sg n
,	,			Z	
aga	aga	0		J	
mitte	mitte	0		D	
pole	ole	0		V	neg o
toond	####				
""""	""""			Z	
ja	ja	0		J	
palun	palu	n		V	n
ni	####				
sugusi	####				
tühja	tühi	0		A	adt
     	tühi	0		A	sg g
     	tühi	0		A	sg p
tunistajaid	####				
kohtu	kohtu	0		V	o
     	kohus	0		S	sg g
alla	alla	0		D	
    	alla	0		K	
,	,			Z	
""""	""""			Z	
(	(			Z	
ette	ette	0		D	
    	ette	0		K	
    	esi	tte		S	adt
)	)			Z	
;	;			Z	
A. Jakobson	####				
oli	ole	i		V	s
selle	see	0		P	sg g
     	sell	e		S	pl p
asja	asi	0		S	adt
    	asi	0		S	sg g
    	asi	0		S	sg p
pärast	pära	st		S	sg el
      	pärane	t		A	sg p
      	pärast	0		D	
      	pärast	0		K	
ees	ees	0		D	
   	ees	0		K	
   	esi	s		S	sg in
ja	ja	0		J	
lubas	luba	s		V	s
tunistust	####				
ette	ette	0		D	
    	ette	0		K	
    	esi	tte		S	adt
tua	####				
,	,			Z	
kes	kes	0		P	pl n
   	kes	0		P	sg n
näind	####				
Soba	####				
Juhanit	Juhan	t		H	sg p
adrapuud	adra_puu	d		S	pl n
        	adra_puu	d		S	sg p
raiund	rai_uni	0		S	sg p
.	.			Z	
2	2	0		N	?
)	)			Z	
ees	ees	0		D	
   	ees	0		K	
   	esi	s		S	sg in
oli	ole	i		V	s
9nda	9=s	0		O	sg g
numri	####				
al	####				
kaebtuse	####				
alune	alune	0		A	sg n
     	alune	0		S	sg n
Tohvri	####				
Mihkel	Mihkel	0		H	sg n
      	mihkel	0		A	sg n
      	mihkel	0		S	sg n
,	,			Z	
ja	ja	0		J	
tunistab	####				
et	et	0		J	
9sa	####				
saadi	saa	di		V	ti
teind	####				
,	,			Z	
neist	see	st		P	pl el
     	tema	st		P	pl el
kolmas	kolmas	0		O	sg n
ossa	osa	0		S	adt
omale	oma	le		A	sg all
     	oma	le		P	sg all
     	oma	le		S	sg all
saanud	saa	nud		V	nud
      	saa=nud	0		A	
      	saa=nud	0		A	sg n
      	saa=nud	d		A	pl n
      	saanu	d		S	pl n
;	;			Z	
64	64	0		N	?
vihko	####				
lamba	lammas	0		S	sg g
lehti	leht	i		S	pl p
     	lehti	0		V	o
,	,			Z	
ales	ale	s		S	sg in
Sündebas	####				
.	.			Z	
selle	see	0		P	sg g
     	sell	e		S	pl p
vastu	vastu	0		D	
     	vastu	0		K	
kaebas	kaeba	s		V	s
(	(			Z	
sisse	siss	e		S	pl p
     	sisse	0		D	
     	sisse	0		K	
kaebaja	kaebaja	0		S	sg g
       	kaebaja	0		S	sg n
)	)			Z	
R. Karm	####				
,	,			Z	
et	et	0		J	
13	13	0		N	?
saadi	saa	di		V	ti
on	ole	0		V	b
  	ole	0		V	vad
tehtud	tehtu	d		S	pl n
      	tehtud	0		A	
      	tehtud	0		A	sg n
      	tehtud	d		A	pl n
      	tege	tud		V	tud
.	.			Z	
3	3	0		N	?
)	)			Z	
ees	ees	0		D	
   	ees	0		K	
   	esi	s		S	sg in
oli	ole	i		V	s
10da	####				
kaebtuse	####				
alune	alune	0		A	sg n
     	alune	0		S	sg n
(	(			Z	
soldat	soldat	0		S	sg n
)	)			Z	
Liiva	Liiva	0		H	sg g
     	liiv	0		S	adt
     	liiv	0		S	sg g
     	Liiva	0		H	sg n
     	liiv	0		S	sg p
Mihkel	Mihkel	0		H	sg n
      	mihkel	0		A	sg n
      	mihkel	0		S	sg n
ja	ja	0		J	
ütleb	ütle	b		V	b
8	8	0		N	?
saadi	saa	di		V	ti
teind	####				
,	,			Z	
neist	see	st		P	pl el
     	tema	st		P	pl el
sain	saa	in		V	sin
3	3	0		N	?
oomale	####				
,	,			Z	
üks	üks	0		N	sg n
   	üks	0		P	sg n
pä	####				
tööd	töö	d		S	pl n
    	töö	d		S	sg p
odra	oder	0		S	sg g
lõikusel	lõikus	l		S	sg ad
selle	see	0		P	sg g
     	sell	e		S	pl p
eest	eest	0		D	
    	eest	0		K	
    	esi	st		S	sg el
25	25	0		N	?
vihko	####				
lamba	lammas	0		S	sg g
lehte	leht	0		S	adt
     	leht	0		S	sg p
     	lehte	0		D	
(	(			Z	
ja	ja	0		J	
selle	see	0		P	sg g
     	sell	e		S	pl p
eest	eest	0		D	
    	eest	0		K	
    	esi	st		S	sg el
üks	üks	0		N	sg n
   	üks	0		P	sg n
pä	####				
mu	mina	0		P	sg g
töö	töö	0		S	sg g
   	töö	0		S	sg n
kallal	kalla	l		S	sg ad
      	kallal	0		D	
      	kallal	0		K	
tegin	tege	in		V	sin
)	)			Z	
kansad	####				
pidid	pida	id		V	sid
rehed	rehi	d		S	pl n
puudeks	puu	deks		S	pl tr
       	puue	ks		S	sg tr
saama	saa	ma		V	ma
     	saam	0		S	adt
     	saam	0		S	sg g
     	saam	0		S	sg p
jäid	jää	id		V	sid
minust	mina	st		P	sg el
maha	maha	0		D	
.	.			Z	
4	4	0		N	?
)	)			Z	
veel	veel	0		D	
    	vesi	l		S	sg ad
teine	teine	0		O	sg n
     	teine	0		P	sg n
mees	mees	0		S	sg n
    	mesi	s		S	sg in
10ne	10	0		N	sg g
kaebtuse	####				
alune	alune	0		A	sg n
     	alune	0		S	sg n
Pootka	####				
Juhan	Juhan	0		H	sg n
oli	ole	i		V	s
ees	ees	0		D	
   	ees	0		K	
   	esi	s		S	sg in
:	:			Z	
ütleb	ütle	b		V	b
2	2	0		N	?
saadi	saa	di		V	ti
heinu	hein	u		S	pl p
saanud	saa	nud		V	nud
      	saa=nud	0		A	
      	saa=nud	0		A	sg n
      	saa=nud	d		A	pl n
      	saanu	d		S	pl n
,	,			Z	
(	(			Z	
kaks	kaks	0		N	sg n
kord	kord	0		D	
    	kord	0		S	sg n
käisin	käi	sin		V	sin
järel	järel	0		D	
     	järel	0		K	
)	)			Z	
2	2	0		N	?
vaka	vakk	0		S	sg g
maad	maa	d		S	pl n
    	maa	d		S	sg p
.	.			Z	
Sepa	sepp	0		S	sg g
töö	töö	0		S	sg g
   	töö	0		S	sg n
kauba	kaup	0		S	sg g
kõrvas	kõrv	s		S	sg in
aasta	aasta	0		S	sg g
     	aasta	0		S	sg n
kohta	koht	0		S	adt
     	kohta	0		K	
     	kohta	0		V	o
     	koht	0		S	sg p
.	.			Z	
5	5	0		N	?
)	)			Z	
veel	veel	0		D	
    	vesi	l		S	sg ad
kolmas	kolmas	0		O	sg n
mees	mees	0		S	sg n
    	mesi	s		S	sg in
10ne	10	0		N	sg g
kaebtuse	####				
alune	alune	0		A	sg n
     	alune	0		S	sg n
Pärdi	Pärt	0		H	sg g
Juhan	Juhan	0		H	sg n
ei	ei	0		D	
  	ei	0		V	neg
ole	ole	0		V	o
ette	ette	0		D	
    	ette	0		K	
    	esi	tte		S	adt
tulnd	####				
(	(			Z	
ei	ei	0		D	
  	ei	0		V	neg
tea	tead	0		V	o
mis	mis	0		P	pl n
   	mis	0		P	sg n
pärast	pära	st		S	sg el
      	pärane	t		A	sg p
      	pärast	0		D	
      	pärast	0		K	
)	)			Z	
ja	ja	0		J	
tema	tema	0		P	sg g
    	tema	0		P	sg n
eest	eest	0		D	
    	eest	0		K	
    	esi	st		S	sg el
ütles	ütle	s		V	s
A. Jakobson	####				
et	et	0		J	
kolmas	kolmas	0		O	sg n
ossa	osa	0		S	adt
heindest	####				
2	2	0		N	?
koormat	koorem	t		S	sg p
sai	saa	i		V	s
   	sai	0		S	sg n
omale	oma	le		A	sg all
     	oma	le		P	sg all
     	oma	le		S	sg all
.	.			Z	
Reinut	####				
Karm	karm	0		A	sg n
    	karm	0		S	sg n
ütles	ütle	s		V	s
poleks	ole	ks		V	neg ks
saanud	saa	nud		V	nud
      	saa=nud	0		A	
      	saa=nud	0		A	sg n
      	saa=nud	d		A	pl n
      	saanu	d		S	pl n
;	;			Z	
ja	ja	0		J	
vaidlessid	####				
A. Jakobson	####				
.	.			Z	
6	6	0		N	?
)	)			Z	
7menda	####				
kaebtuse	####				
alune	alune	0		A	sg n
     	alune	0		S	sg n
lesk	lesk	0		S	sg n
Mari	Mari	0		H	sg g
    	mari	0		S	sg g
    	mari	0		S	sg n
    	Mari	0		H	sg n
    	mari	0		S	sg p
Kalms	####				
eest	eest	0		D	
    	eest	0		K	
    	esi	st		S	sg el
oli	ole	i		V	s
kohtus	kohtu	s		V	s
      	kohus	s		S	sg in
väimees	väi_mees	0		S	sg n
Ado	Ado	0		H	sg g
   	Ado	0		H	sg n
Karm	karm	0		A	sg n
    	karm	0		S	sg n
,	,			Z	
kes	kes	0		P	pl n
   	kes	0		P	sg n
ütles	ütle	s		V	s
heinu	hein	u		S	pl p
aidand	####				
ära	ära	0		D	
   	ära	0		V	neg o
tua	####				
kuus	kuu	s		S	sg in
    	kuus	0		N	sg n
kord	kord	0		D	
    	kord	0		S	sg n
vankriga	vanker	ga		S	sg kom
.	.			Z	
selle	see	0		P	sg g
     	sell	e		S	pl p
üle	üle	0		D	
   	üle	0		K	
ütles	ütle	s		V	s
A. Jakobsohn	####				
et	et	0		J	
tema	tema	0		P	sg g
    	tema	0		P	sg n
vana	vana	0		A	sg g
    	vana	0		A	sg n
    	vana	0		A	sg p
    	vana	0		S	sg g
    	vana	0		S	sg n
    	vana	0		S	sg p
emale	ema	le		S	sg all
on	ole	0		V	b
  	ole	0		V	vad
kinkind	kink_ind	0		S	sg n
seda	see	da		P	sg p
heina	hein	0		S	adt
     	hein	0		S	sg g
     	hein	0		S	sg p
maad	maa	d		S	pl n
    	maa	d		S	sg p
,	,			Z	
et	et	0		J	
se	####				
ma	mina	0		P	sg n
ära	ära	0		D	
   	ära	0		V	neg o
pidi	pida	i		V	s
    	pidi	0		K	
puhastama	puhasta	ma		V	ma
kividest	kivi	dest		S	pl el
;	;			Z	
Ado	Ado	0		H	sg g
   	Ado	0		H	sg n
Karm	karm	0		A	sg n
    	karm	0		S	sg n
tunistas	####				
ka	ka	0		D	
et	et	0		J	
ema	ema	0		S	sg g
   	ema	0		S	sg n
   	ema	0		S	sg p
mitto	####				
päeva	päev	0		S	adt
     	päev	0		S	sg g
     	päev	0		S	sg p
puhastanud	puhasta	nud		V	nud
          	puhasta=nu	d		S	pl n
          	puhasta=nud	0		A	
          	puhasta=nud	0		A	sg n
          	puhasta=nud	d		A	pl n
,	,			Z	
ja	ja	0		J	
ilma	ilm	0		S	adt
    	ilm	0		S	sg g
    	ilma	0		D	
    	ilma	0		K	
    	ilm	0		S	sg p
puhatamata	####				
oleks	ole	ks		V	ks
se	####				
ma	mina	0		P	sg n
maha	maha	0		D	
jätmiseks	jätmine	ks		S	sg tr
olnd	####				
8nda	8=s	0		O	sg g
ja	ja	0		J	
2e	2e	0		Y	?
kaebtuse	####				
alusid	####				
ei	ei	0		D	
  	ei	0		V	neg
olnd	####				
ees	ees	0		D	
   	ees	0		K	
   	esi	s		S	sg in
:	:			Z	
Jakobsohn	####				
vastas	vasta	s		V	s
      	vastas	0		D	
      	vastas	0		K	
nende	see	de		P	pl g
     	tema	de		P	pl g
eest	eest	0		D	
    	eest	0		K	
    	esi	st		S	sg el
,	,			Z	
et	et	0		J	
tõsi	tõsi	0		S	pl p
    	tõsi	0		S	sg n
on	ole	0		V	b
  	ole	0		V	vad
.	.			Z	
No	no	0		I	
43	43	0		N	?
kaebtus	####				
,	,			Z	
kohtu	kohtu	0		V	o
     	kohus	0		S	sg g
ees	ees	0		D	
   	ees	0		K	
   	esi	s		S	sg in
ollemisega	####				
,	,			Z	
protokol	####				
Päris	päri	s		V	s
     	päris	0		A	
     	päris	0		D	
härrale	härra	le		S	sg all
antud	an=tu	d		S	pl n
     	and	tud		V	tud
     	antud	0		A	
     	antud	0		A	sg n
     	antud	d		A	pl n
.	.			Z	
