ette	ette	0		D	
    	ette	0		K	
    	esi	tte		S	adt
ei	ei	0		D	
  	ei	0		V	neg
tulnud	tul=nud	0		A	
      	tul=nud	0		A	sg n
      	tul=nud	d		A	pl n
      	tule	nud		V	nud
      	tulnu	d		S	pl n
mingisugust	mingi_sugune	t		P	sg p
asja	asi	0		S	adt
    	asi	0		S	sg g
    	asi	0		S	sg p
ega	ega	0		D	
   	ega	0		J	
kohuht	####				
.	.			Z	
pea	pea	0		D	
   	pea	0		S	sg g
   	pida	0		V	o
   	pea	0		S	sg n
kohtumees	kohtu_mees	0		S	sg n
:	:			Z	
Mihkel	Mihkel	0		H	sg n
      	mihkel	0		A	sg n
      	mihkel	0		S	sg n
Poots	####				
I	I	0		O	?
 	I	0		Y	?
 	j	0		Y	?
kõrvamees	kõrva_mees	0		S	sg n
:	:			Z	
Mihkel	Mihkel	0		H	sg n
      	mihkel	0		A	sg n
      	mihkel	0		S	sg n
Varn	varn	0		S	sg n
II	II	0		O	?
  	II	0		Y	?
  	jj	0		Y	?
kõrvamees	kõrva_mees	0		S	sg n
Ado	Ado	0		H	sg g
   	Ado	0		H	sg n
Rnnus	####				
kirjutaja	kirjutaja	0		S	sg g
         	kirjutaja	0		S	sg n
Jaan	Jaan	0		H	sg n
    	jaan	0		S	sg n
    	jaan	0		Y	?
krünäär	####				
