kohtu	kohtu	0		V	o
     	kohus	0		S	sg g
korra	kord	0		S	sg g
pärast	pära	st		S	sg el
      	pärane	t		A	sg p
      	pärast	0		D	
      	pärast	0		K	
olid	ole	id		V	sid
koko	####				
tulnud	tul=nud	0		A	
      	tul=nud	0		A	sg n
      	tul=nud	d		A	pl n
      	tule	nud		V	nud
      	tulnu	d		S	pl n
.	.			Z	
kohtuvanem	kohtu_vanem	0		C	sg n
          	kohtu_vanem	0		S	sg n
:	:			Z	
Tõnno	####				
Kirschman	####				
abimees	abi_mees	0		S	sg n
:	:			Z	
Pritz	####				
Seilman	####				
abimees	abi_mees	0		S	sg n
:	:			Z	
Hans	Hans	0		H	sg n
Lintberg	####				
kohtu	kohtu	0		V	o
     	kohus	0		S	sg g
asjo	####				
ei	ei	0		D	
  	ei	0		V	neg
olnud	ol=nud	0		A	
     	ol=nud	0		A	sg n
     	ol=nud	d		A	pl n
     	ole	nud		V	nud
     	olnu	d		S	pl n
seletada	seleta	da		V	da
kohtuvanem	kohtu_vanem	0		C	sg n
          	kohtu_vanem	0		S	sg n
:	:			Z	
Tõno	####				
Kirschman	####				
XXX	XXX	0		O	?
   	XXX	0		Y	?
abimees	abi_mees	0		S	sg n
:	:			Z	
Pritz	####				
Seilmann	####				
XXX	XXX	0		O	?
   	XXX	0		Y	?
abimees	abi_mees	0		S	sg n
:	:			Z	
Hans	Hans	0		H	sg n
Lintberg	####				
XXX	XXX	0		O	?
   	XXX	0		Y	?
kirjutaja	kirjutaja	0		S	sg g
         	kirjutaja	0		S	sg n
H	H	0		Y	?
Aunberg	####				
[	[			Z	
allkiri	all_kiri	0		S	sg n
]	]			Z	
