järgmine	järgmine	0		A	sg n
suusõna	suu_sõna	0		S	sg g
       	suu_sõna	0		S	sg n
       	suu_sõna	0		S	sg p
leping	leping	0		S	sg n
emmaste	emm_aste	0		S	sg n
valla	vald	0		S	sg g
     	valla	0		D	
liigete	####				
Siim	Siim	0		H	sg n
ja	ja	0		J	
Priidu	Priit	0		H	sg g
      	Priidu	0		H	sg g
      	Priidu	0		H	sg n
Mets	mets	0		S	sg n
vahel	vahe	l		S	sg ad
     	vahel	0		D	
     	vahel	0		K	
sai	saa	i		V	s
   	sai	0		S	sg n
üleskirjutatud	üles_kirjutatud	0		A	
              	üles_kirjutatud	0		A	sg n
              	üles_kirjutatud	d		A	pl n
:	:			Z	
emmaste	emm_aste	0		S	sg n
mõisa	mõis	0		S	sg g
valitseja	valitseja	0		S	sg g
         	valitseja	0		S	sg n
kirjaliku	kirjalik	0		A	sg g
luba	luba	0		S	sg n
    	luba	0		V	o
    	luba	0		S	sg p
peale	pea	le		S	sg all
     	peale	0		D	
     	peale	0		K	
12	12	0		N	?
küünla	küünal	0		S	sg g
k	k	0		Y	?
.	.			Z	
p	p	0		Y	?
.	.			Z	
s	s	0		Y	?
.	.			Z	
a.	a	0		Y	?
annab	and	b		V	b
Priidu	Priit	0		H	sg g
      	Priidu	0		H	sg g
      	Priidu	0		H	sg n
Mets	mets	0		S	sg n
oma	oma	0		A	sg g
   	oma	0		D	
   	oma	0		P	sg g
   	oma	0		S	sg g
   	oma	0		V	o
   	oma	0		A	sg n
   	oma	0		A	sg p
   	oma	0		P	sg n
   	oma	0		P	sg p
   	oma	0		S	sg n
   	oma	0		S	sg p
käes	käes	0		K	
    	käsi	s		S	sg in
oleva	olev	0		A	sg g
     	olev	0		S	sg g
talurendi	talu_rent	0		S	sg g
koha	koht	0		S	sg g
    	koha	0		S	sg g
    	koha	0		V	o
    	koha	0		S	sg n
    	koha	0		S	sg p
""""	""""			Z	
Joesti	####				
""""	""""			Z	
Siim	Siim	0		H	sg n
Mets	mets	0		S	sg n
kätte	kätte	0		K	
     	käsi	tte		S	adt
,	,			Z	
kuna	kuna	0		D	
    	kuna	0		J	
viimane	viimane	0		A	sg n
oomad	####				
kaderna	####				
vabat	####				
krundi	krunt	0		S	sg g
      	krunti	0		V	o
peal	pea	l		S	sg ad
    	peal	0		D	
    	peal	0		K	
olevat	ole	vat		V	vat
      	olev	t		A	sg p
      	olev	t		S	sg p
majad	maja	d		S	pl n
,	,			Z	
mis	mis	0		P	pl n
   	mis	0		P	sg n
üle	üle	0		D	
   	üle	0		K	
temal	tema	l		P	sg ad
Hiiumaa	Hiiu_maa	0		H	sg g
       	Hiiu_maa	0		H	sg n
       	hiiu_maa	0		G	
nõelkonna	nõel_konn	0		S	adt
         	nõel_konn	0		S	sg g
         	nõel_konn	0		S	sg p
kohtu	kohtu	0		V	o
     	kohus	0		S	sg g
poolt	pool	t		N	sg p
     	pool	t		S	sg p
     	poolt	0		D	
     	poolt	0		K	
12	12	0		N	?
oktoobrist	oktoober	st		S	sg el
1877	1877	0		N	?
Nr	Nr	0		Y	?
64	64	0		N	?
all	all	0		D	
   	all	0		K	
kinnitatud	kinnita	tud		V	tud
          	kinnita=tu	d		S	pl n
          	kinnita=tud	0		A	
          	kinnita=tud	0		A	sg n
          	kinnita=tud	d		A	pl n
tunnistus	tunnistus	0		S	sg n
on	ole	0		V	b
  	ole	0		V	vad
,	,			Z	
Priidu	Priit	0		H	sg g
      	Priidu	0		H	sg g
      	Priidu	0		H	sg n
metsale	mets	le		S	sg all
annab	and	b		V	b
selle	see	0		P	sg g
     	sell	e		S	pl p
kaubaga	kaup	ga		S	sg kom
1	1	0		N	?
)	)			Z	
Priidu	Priit	0		H	sg g
      	Priidu	0		H	sg g
      	Priidu	0		H	sg n
Mets	mets	0		S	sg n
maksab	maks	b		V	b
Siim	Siim	0		H	sg n
metsale	mets	le		S	sg all
nende	see	de		P	pl g
     	tema	de		P	pl g
majade	maja	de		S	pl g
eest	eest	0		D	
    	eest	0		K	
    	esi	st		S	sg el
kuuskümmend	kuus_kümmend	0		N	sg n
rubla	rubla	0		S	sg g
     	rubla	0		S	sg n
     	rubla	0		S	sg p
;	;			Z	
2	2	0		N	?
)	)			Z	
Priidu	Priit	0		H	sg g
      	Priidu	0		H	sg g
      	Priidu	0		H	sg n
Mets	mets	0		S	sg n
tõutab	####				
mõisas	mõis	s		S	sg in
võlgu	võlg	u		S	pl p
     	võlgu	0		D	
jäänud	jää	nud		V	nud
      	jäänu	d		S	pl n
      	jäänud	0		A	
      	jäänud	0		A	sg n
      	jäänud	d		A	pl n
rendi	rent	0		S	sg g
     	renti	0		V	o
võlga	võlg	0		S	adt
     	võlg	0		S	sg p
viiskümmend	viis_kümmend	0		N	sg n
viis	vii	s		V	s
    	viis	0		N	sg n
    	viis	0		S	sg n
rubla	rubla	0		S	sg g
     	rubla	0		S	sg n
     	rubla	0		S	sg p
25	25	0		N	?
kopik	####				
ise	ise	0		A	
   	ise	0		D	
   	ise	0		P	pl n
   	ise	0		P	sg n
ära	ära	0		D	
   	ära	0		V	neg o
maksta	maks	ta		V	da
      	maks	ta		V	ta
;	;			Z	
3	3	0		N	?
)	)			Z	
Priidu	Priit	0		H	sg g
      	Priidu	0		H	sg g
      	Priidu	0		H	sg n
Mets	mets	0		S	sg n
annab	and	b		V	b
Siim	Siim	0		H	sg n
Mets_	####				
'	’			Z	
_le	####				
ühe	üks	0		N	sg g
   	üks	0		P	sg g
   	ühe	0		S	sg n
hobuse	hobune	0		S	sg g
viie	viis	0		N	sg g
rubla	rubla	0		S	sg g
     	rubla	0		S	sg n
     	rubla	0		S	sg p
väärtuses	väärtus	s		S	sg in
;	;			Z	
4	4	0		N	?
)	)			Z	
Siim	Siim	0		H	sg n
Mets	mets	0		S	sg n
tõutab	####				
Priidu	Priit	0		H	sg g
      	Priidu	0		H	sg g
      	Priidu	0		H	sg n
venna	vend	0		S	sg g
Juhan	Juhan	0		H	sg n
Mets	mets	0		S	sg n
ala	ala	0		S	sg g
   	ala	0		S	sg n
   	ala	0		S	sg p
jalised	####				
lapsed	laps	d		S	pl n
üleskasvatada	####				
;	;			Z	
5	5	0		N	?
)	)			Z	
Priidu	Priit	0		H	sg g
      	Priidu	0		H	sg g
      	Priidu	0		H	sg n
Mets	mets	0		S	sg n
Magasini	magas	ni		S	sg ter
        	magasin	0		S	adt
        	magasin	0		S	sg g
        	magasin	0		S	sg p
võla	võlg	0		S	sg g
neli	neli	0		N	sg n
tsetvertiiki	####				
otra	oder	0		S	adt
    	oder	0		S	sg p
maksab	maks	b		V	b
Simmo	####				
Mets	mets	0		S	sg n
valla	vald	0		S	sg g
     	valla	0		D	
valitsuse	valitsus	0		S	sg g
nõudmise	nõudmine	0		S	sg g
peale	pea	le		S	sg all
     	peale	0		D	
     	peale	0		K	
ära	ära	0		D	
   	ära	0		V	neg o
,	,			Z	
mille	mis	0		P	pl g
     	mis	0		P	sg g
eest	eest	0		D	
    	eest	0		K	
    	esi	st		S	sg el
Priidu	Priit	0		H	sg g
      	Priidu	0		H	sg g
      	Priidu	0		H	sg n
Siimule	Siim	le		H	sg all
neli	neli	0		N	sg n
tsetveriiki	####				
suvevilja	suve_vili	0		S	adt
         	suve_vili	0		S	sg g
         	suve_vili	0		S	sg p
seemet	seeme	t		S	sg p
annab	and	b		V	b
.	.			Z	
_	_			Z	
Priidu	Priit	0		H	sg g
      	Priidu	0		H	sg g
      	Priidu	0		H	sg n
Mets	mets	0		S	sg n
.	.			Z	
Siim	Siim	0		H	sg n
Mets	mets	0		S	sg n
palve	palve	0		S	sg g
     	palve	0		S	sg n
peale	pea	le		S	sg all
     	peale	0		D	
     	peale	0		K	
,	,			Z	
kes	kes	0		P	pl n
   	kes	0		P	sg n
ise	ise	0		A	
   	ise	0		D	
   	ise	0		P	pl n
   	ise	0		P	sg n
kirja	kirja	0		A	
     	kirja	0		V	o
     	kiri	0		S	adt
     	kiri	0		S	sg g
     	kiri	0		S	sg p
ei	ei	0		D	
  	ei	0		V	neg
osa	osa	0		S	sg g
   	osa	0		S	sg n
   	osa	0		S	sg p
,	,			Z	
kirjutas	kirjuta	s		V	s
alla	alla	0		D	
    	alla	0		K	
Toomas	Toomas	0		H	sg n
      	Toomas	s		H	sg in
      	too	mas		V	mas
koolmeister	kool_meister	0		S	sg n
.	.			Z	
selles	see	s		P	sg in
lepingus	leping	s		S	sg in
nimetatud	nimeta	tud		V	tud
         	nimetatu	d		S	pl n
         	nimetatud	0		A	
         	nimetatud	0		A	sg n
         	nimetatud	d		A	pl n
osalised	osaline	d		A	pl n
Priidu	Priit	0		H	sg g
      	Priidu	0		H	sg g
      	Priidu	0		H	sg n
Mets	mets	0		S	sg n
ja	ja	0		J	
Siim	Siim	0		H	sg n
Mets	mets	0		S	sg n
on	ole	0		V	b
  	ole	0		V	vad
kohtule	kohus	le		S	sg all
tuntud	tund	tud		V	tud
      	tuntu	d		S	pl n
      	tuntud	0		A	
      	tuntud	0		A	sg n
      	tuntud	d		A	pl n
ja	ja	0		J	
neil	see	l		P	pl ad
    	tema	l		P	pl ad
lepingu	leping	0		S	sg g
tegemiseks	tegemine	ks		S	sg tr
seaduslik	seaduslik	0		A	sg n
luba	luba	0		S	sg n
    	luba	0		V	o
    	luba	0		S	sg p
ja	ja	0		J	
et	et	0		J	
Priidu	Priit	0		H	sg g
      	Priidu	0		H	sg g
      	Priidu	0		H	sg n
Mets	mets	0		S	sg n
ise	ise	0		A	
   	ise	0		D	
   	ise	0		P	pl n
   	ise	0		P	sg n
oma	oma	0		A	sg g
   	oma	0		D	
   	oma	0		P	sg g
   	oma	0		S	sg g
   	oma	0		V	o
   	oma	0		A	sg n
   	oma	0		A	sg p
   	oma	0		P	sg n
   	oma	0		P	sg p
   	oma	0		S	sg n
   	oma	0		S	sg p
nime	nimi	0		S	sg g
    	nimi	0		S	sg p
ja	ja	0		J	
Siim	Siim	0		H	sg n
Mets	mets	0		S	sg n
palve	palve	0		S	sg g
     	palve	0		S	sg n
peale	pea	le		S	sg all
     	peale	0		D	
     	peale	0		K	
,	,			Z	
kes	kes	0		P	pl n
   	kes	0		P	sg n
kirja	kirja	0		A	
     	kirja	0		V	o
     	kiri	0		S	adt
     	kiri	0		S	sg g
     	kiri	0		S	sg p
ei	ei	0		D	
  	ei	0		V	neg
osa	osa	0		S	sg g
   	osa	0		S	sg n
   	osa	0		S	sg p
,	,			Z	
Toomas	Toomas	0		H	sg n
      	Toomas	s		H	sg in
      	too	mas		V	mas
koolmeister	kool_meister	0		S	sg n
alla	alla	0		D	
    	alla	0		K	
kirjutas	kirjuta	s		V	s
,	,			Z	
seda	see	da		P	sg p
tunnistab	tunnista	b		V	b
kohus	kohu	s		V	s
     	kohus	0		S	sg n
oma	oma	0		A	sg g
   	oma	0		D	
   	oma	0		P	sg g
   	oma	0		S	sg g
   	oma	0		V	o
   	oma	0		A	sg n
   	oma	0		A	sg p
   	oma	0		P	sg n
   	oma	0		P	sg p
   	oma	0		S	sg n
   	oma	0		S	sg p
allkirjadega	all_kiri	dega		S	pl kom
.	.			Z	
vanem	vanem	0		C	sg n
     	vanem	0		S	sg n
:	:			Z	
J_	####				
.	.			Z	
_	_			Z	
Mulk	mulk	0		S	sg n
.	.			Z	
Liikmed	liige	d		S	pl n
:	:			Z	
J_	####				
.	.			Z	
_	_			Z	
Rand	rand	0		S	sg n
,	,			Z	
A_	####				
.	.			Z	
_	_			Z	
Kask	kask	0		S	sg n
.	.			Z	
kirjutaja	kirjutaja	0		S	sg g
         	kirjutaja	0		S	sg n
:	:			Z	
Prever	####				
.	.			Z	
