Piisalu	pii_salu	0		S	sg g
       	pii_salu	0		S	sg n
       	pii_salu	0		S	sg p
valla	vald	0		S	sg g
     	valla	0		D	
kogukonna	kogukond	0		S	sg g
maise	maine	0		A	sg g
     	mais	e		S	pl p
olid	ole	id		V	sid
talitaja	talitaja	0		S	sg g
        	talitaja	0		S	sg n
talutamise	taluta=mine	0		S	sg g
al	####				
kokku	kokku	0		D	
     	kogu	0		S	adt
tulnud	tul=nud	0		A	
      	tul=nud	0		A	sg n
      	tul=nud	d		A	pl n
      	tule	nud		V	nud
      	tulnu	d		S	pl n
.	.			Z	
1	1	0		N	?
)	)			Z	
talitaja	talitaja	0		S	sg g
        	talitaja	0		S	sg n
tegi	sina	0	gi	P	pl g
    	tege	i		V	s
    	sina	0	gi	P	pl n
aru	aru	0		S	sg g
   	aru	0		S	sg n
   	aru	0		S	sg p
magasist	magas	st		S	sg el
2	2	0		N	?
)	)			Z	
""""	""""			Z	
""""	""""			Z	
ja	ja	0		J	
magasi	magas	0		S	sg g
laekast	laegas	st		S	sg el
3	3	0		N	?
)	)			Z	
valla	vald	0		S	sg g
     	valla	0		D	
laekast	laegas	st		S	sg el
ja	ja	0		J	
nende	see	de		P	pl g
     	tema	de		P	pl g
nimetud	nimetu	d		A	pl n
laekade	lae_kade	0		A	sg n
arud	aru	d		S	pl n
said	saa	id		V	sid
ette	ette	0		D	
    	ette	0		K	
    	esi	tte		S	adt
loetud	loetu	d		S	pl n
      	loetud	0		A	
      	loetud	0		A	sg n
      	loetud	d		A	pl n
      	luge	tud		V	tud
,	,			Z	
ni	####				
hästi	hästi	0		D	
sisse	siss	e		S	pl p
     	sisse	0		D	
     	sisse	0		K	
tulik	####				
kui	kui	0		D	
   	kui	0		J	
välja	välja	0		D	
     	välja	0		V	o
     	väli	0		S	adt
     	väli	0		S	sg g
     	väli	0		S	sg p
andus	andu	s		V	s
ja	ja	0		J	
leiti	leid	ti		V	ti
õiged	õige	d		A	pl n
olevat	ole	vat		V	vat
      	olev	t		A	sg p
      	olev	t		S	sg p
.	.			Z	
eestseisus	eest_seisus	0		S	sg n
:	:			Z	
Jüri	Jüri	0		H	sg g
    	Jüri	0		H	sg n
Vahartal	####				
XXX	XXX	0		O	?
   	XXX	0		Y	?
Jaan	Jaan	0		H	sg n
    	jaan	0		S	sg n
    	jaan	0		Y	?
Mänd	mänd	0		S	sg n
XXX	XXX	0		O	?
   	XXX	0		Y	?
volinikud	volinik	d		S	pl n
Mart	Mart	0		H	sg n
    	mart	0		S	sg n
koppel	koppel	0		S	sg n
XXX	XXX	0		O	?
   	XXX	0		Y	?
Madis	Madis	0		H	sg n
     	madis	0		S	sg n
Sarapuu	sara_puu	0		S	sg g
       	sara_puu	0		S	sg n
XXX	XXX	0		O	?
   	XXX	0		Y	?
Kustas	Kusta	s		H	sg in
      	Kustas	0		H	sg n
Vahartal	####				
XXX	XXX	0		O	?
   	XXX	0		Y	?
Mart	Mart	0		H	sg n
    	mart	0		S	sg n
Mik	####				
XXX	XXX	0		O	?
   	XXX	0		Y	?
Jaan	Jaan	0		H	sg n
    	jaan	0		S	sg n
    	jaan	0		Y	?
Tattar	####				
XXX	XXX	0		O	?
   	XXX	0		Y	?
Jaan	Jaan	0		H	sg n
    	jaan	0		S	sg n
    	jaan	0		Y	?
Tõning	####				
XXX	XXX	0		O	?
   	XXX	0		Y	?
Jakob	Jakob	0		H	sg n
Tõns	Tõns	0		H	sg n
XXX	XXX	0		O	?
   	XXX	0		Y	?
kohtu	kohtu	0		V	o
     	kohus	0		S	sg g
vanem	vanem	0		C	sg n
     	vanem	0		S	sg n
:	:			Z	
Mart	Mart	0		H	sg n
    	mart	0		S	sg n
Mänd	mänd	0		S	sg n
XXX	XXX	0		O	?
   	XXX	0		Y	?
