ette	ette	0		D	
    	ette	0		K	
    	esi	tte		S	adt
tulid	tule	id		V	sid
vennaksid	####				
kustav	kus=tav	0		A	sg n
      	kuse	tav		V	tav
ja	ja	0		J	
Mart	Mart	0		H	sg n
    	mart	0		S	sg n
Kasberg	####				
ja	ja	0		J	
lasksid	lask	sid		V	sid
ooma	####				
allpool	all_pool	0		D	
       	all_pool	0		K	
nimetud	nimetu	d		A	pl n
asja	asi	0		S	adt
    	asi	0		S	sg g
    	asi	0		S	sg p
kohtu	kohtu	0		V	o
     	kohus	0		S	sg g
protokolli	protokoll	0		S	adt
          	protokoll	0		S	sg g
          	protokolli	0		V	o
          	protokoll	0		S	sg p
üllesse	####				
panna	pand	0		S	sg g
     	pane	a		V	da
     	panna	0		S	sg g
     	panna	0		S	sg n
:	:			Z	
Mart	Mart	0		H	sg n
    	mart	0		S	sg n
Kasberg	####				
,	,			Z	
kellel	kes	l		P	pl ad
      	kes	l		P	sg ad
on	ole	0		V	b
  	ole	0		V	vad
ooma	####				
venna	vend	0		S	sg g
kustavil	####				
200	200	0		N	?
rubla	rubla	0		S	sg g
     	rubla	0		S	sg n
     	rubla	0		S	sg p
,	,			Z	
võlga	võlg	0		S	adt
     	võlg	0		S	sg p
maksta	maks	ta		V	da
      	maks	ta		V	ta
,	,			Z	
maksab	maks	b		V	b
seda	see	da		P	sg p
võlga	võlg	0		S	adt
     	võlg	0		S	sg p
natuke	natuke	0		D	
      	natuke	0		S	sg n
haaval	haab	l		S	sg ad
      	haav	l		S	sg ad
      	haaval	0		K	
,	,			Z	
ooma	####				
vennale	vend	le		S	sg all
tagasi	tagasi	0		D	
      	tagasi	0		K	
.	.			Z	
selle	see	0		P	sg g
     	sell	e		S	pl p
aastas	aasta	s		S	sg in
maksab	maks	b		V	b
ta	tema	0		P	sg g
  	tema	0		P	sg n
10	10	0		N	?
rubla	rubla	0		S	sg g
     	rubla	0		S	sg n
     	rubla	0		S	sg p
ja	ja	0		J	
siis	siis	0		D	
    	siis	0		J	
järgmised	järgmine	d		A	pl n
ette	ette	0		D	
    	ette	0		K	
    	esi	tte		S	adt
tulevat	tule	vat		V	vat
       	tulev	t		A	sg p
aastat	aasta	t		S	sg p
igas	iga	s		P	sg in
aastas	aasta	s		S	sg in
20	20	0		N	?
rubla	rubla	0		S	sg g
     	rubla	0		S	sg n
     	rubla	0		S	sg p
korraga	kord	ga		S	sg kom
       	korraga	0		D	
,	,			Z	
passi	pass	0		S	adt
     	pass	0		S	sg g
     	passi	0		V	o
     	pass	0		S	sg p
tellimise	tellimine	0		S	sg g
aegu	aeg	u		S	pl p
    	aegu	0		K	
    	aegu	0		V	o
,	,			Z	
valla	vald	0		S	sg g
     	valla	0		D	
polizei	####				
läbi	läbi	0		D	
    	läbi	0		K	
    	läbi	0		V	o
,	,			Z	
ooma	####				
venna	vend	0		S	sg g
kustavi	####				
kätte	kätte	0		K	
     	käsi	tte		S	adt
.	.			Z	
Päävanem	####				
Villem	Villem	0		H	sg n
Lien	####				
XXX	XXX	0		O	?
   	XXX	0		Y	?
korvamehed	####				
Mart	Mart	0		H	sg n
    	mart	0		S	sg n
Jöeg	####				
XXX	XXX	0		O	?
   	XXX	0		Y	?
Aadu	Aadu	0		H	sg g
    	Aadu	0		H	sg n
Salme	Salme	0		H	sg g
     	salm	e		S	pl p
     	Salme	0		H	sg n
XXX	XXX	0		O	?
   	XXX	0		Y	?
kirjutaja	kirjutaja	0		S	sg g
         	kirjutaja	0		S	sg n
J	J	0		Y	?
Klanmann	####				
