kohtu	kohtu	0		V	o
     	kohus	0		S	sg g
korra	kord	0		S	sg g
pärast	pära	st		S	sg el
      	pärane	t		A	sg p
      	pärast	0		D	
      	pärast	0		K	
olid	ole	id		V	sid
Piisalu	pii_salu	0		S	sg g
       	pii_salu	0		S	sg n
       	pii_salu	0		S	sg p
kohtumajasse	kohtu_maja	sse		S	sg ill
kokku	kokku	0		D	
     	kogu	0		S	adt
tulnud	tul=nud	0		A	
      	tul=nud	0		A	sg n
      	tul=nud	d		A	pl n
      	tule	nud		V	nud
      	tulnu	d		S	pl n
.	.			Z	
kohtuvanem	kohtu_vanem	0		C	sg n
          	kohtu_vanem	0		S	sg n
K. Villand	####				
kõrvamees	kõrva_mees	0		S	sg n
J. Vindling	####				
""""	""""			Z	
M	M	0		O	?
 	M	0		Y	?
.	.			Z	
koppel	koppel	0		S	sg n
Jüri	Jüri	0		H	sg g
    	Jüri	0		H	sg n
Hanson	####				
kaebas	kaeba	s		V	s
sisse	siss	e		S	pl p
     	sisse	0		D	
     	sisse	0		K	
et	et	0		J	
Liiisu	####				
Vahartal	####				
on	ole	0		V	b
  	ole	0		V	vad
tema	tema	0		P	sg g
    	tema	0		P	sg n
poega	poeg	0		S	adt
     	pood	ga		S	sg kom
     	poeg	0		S	sg p
peksnud	peks	nud		V	nud
       	peks=nu	d		S	pl n
       	peks=nud	0		A	
       	peks=nud	0		A	sg n
       	peks=nud	d		A	pl n
.	.			Z	
Liiisu	####				
Vahartal	####				
tunnistas	tunnista	s		V	s
.	.			Z	
Jüri	Jüri	0		H	sg g
    	Jüri	0		H	sg n
Hanson	####				
peoog	####				
Priidik	####				
ajass	####				
ooma	####				
lambad	lammas	d		S	pl n
mitu	mitu	0		P	sg n
korda	kord	0		S	adt
     	korda	0		V	o
     	kord	0		S	sg p
minu	mina	0		P	sg g
ohrad	####				
sisse	siss	e		S	pl p
     	sisse	0		D	
     	sisse	0		K	
,	,			Z	
üks	üks	0		N	sg n
   	üks	0		P	sg n
päev	päev	0		S	sg n
sain	saa	in		V	sin
just	just	0		D	
    	just	0		I	
sinna	sinna	0		D	
Kui	kui	0		D	
   	kui	0		J	
poiss	poiss	0		S	sg n
lambad	lammas	d		S	pl n
sisse	siss	e		S	pl p
     	sisse	0		D	
     	sisse	0		K	
ajass	####				
,	,			Z	
mina	mina	0		P	sg n
    	mina	0		S	sg g
    	mina	0		S	sg n
    	mina	0		S	sg p
läksin	mine	sin		V	sin
poisse	poi	sse		S	sg ill
      	poiss	e		S	pl p
juuure	####				
,	,			Z	
lükkasin	lükka	sin		V	sin
teda	tema	da		P	sg p
natuket	####				
õla	õlg	0		S	sg g
pihta	piht	0		S	adt
     	pihta	0		D	
     	pihta	0		K	
     	pihta	0		V	o
     	piht	0		S	sg p
,	,			Z	
võttsind	####				
piitsa	piits	0		S	adt
      	piits	0		S	sg g
      	piits	0		S	sg p
tema	tema	0		P	sg g
    	tema	0		P	sg n
käest	käest	0		K	
     	käsi	st		S	sg el
ära	ära	0		D	
   	ära	0		V	neg o
ja	ja	0		J	
viiskasind	####				
metsa	mets	0		S	adt
     	mets	0		S	sg g
     	mets	0		S	sg p
ja	ja	0		J	
siis	siis	0		D	
    	siis	0		J	
hakas	####				
mind	mina	d		P	sg p
sõimama	sõima	ma		V	ma
kuradiks	kurat	ks		S	sg tr
ja	ja	0		J	
kõigeks	kõik	ks		P	sg tr
sandiks	sant	ks		A	sg tr
       	sant	ks		S	sg tr
       	santi	ks		V	ks
.	.			Z	
Kui	kui	0		D	
   	kui	0		J	
mina	mina	0		P	sg n
    	mina	0		S	sg g
    	mina	0		S	sg n
    	mina	0		S	sg p
kodu	kodu	0		S	sg g
    	kodu	0		S	sg n
    	kodu	0		S	sg p
läksin	mine	sin		V	sin
tuli	tuli	0		S	sg n
    	tule	i		V	s
pisi	####				
ema	ema	0		S	sg g
   	ema	0		S	sg n
   	ema	0		S	sg p
Tiina	Tiina	0		H	sg g
     	Tiina	0		H	sg n
Hanson	####				
minu	mina	0		P	sg g
juuure	####				
ja	ja	0		J	
hakas	####				
mind	mina	d		P	sg p
sõimama	sõima	ma		V	ma
.	.			Z	
Priidik	####				
Hanson	####				
tunnistas	tunnista	s		V	s
,	,			Z	
et	et	0		J	
minu	mina	0		P	sg g
lambad	lammas	d		S	pl n
ei	ei	0		D	
  	ei	0		V	neg
ole	ole	0		V	o
Liiisu	####				
Vahardali	####				
ohrade	####				
sees	sees	0		D	
    	sees	0		K	
käin	käi	n		V	n
.	.			Z	
Liisu	liisk	0		S	sg g
     	liisu	0		V	o
tuli	tuli	0		S	sg n
    	tule	i		V	s
minu	mina	0		P	sg g
juuure	####				
ja	ja	0		J	
peksis	peks	is		V	s
mind	mina	d		P	sg p
.	.			Z	
Tiina	Tiina	0		H	sg g
     	Tiina	0		H	sg n
Hanson	####				
tunnistas	tunnista	s		V	s
Mina	mina	0		P	sg n
    	mina	0		S	sg g
    	mina	0		S	sg n
    	mina	0		S	sg p
pesin	pese	in		V	sin
lüpsikat	####				
,	,			Z	
ja	ja	0		J	
kuulsind	####				
et	et	0		J	
minu	mina	0		P	sg g
poeg	poeg	0		S	sg n
karjus	karju	s		V	s
      	karjus	0		S	sg n
,	,			Z	
läksin	mine	sin		V	sin
sinna	sinna	0		D	
,	,			Z	
ja	ja	0		J	
poiss	poiss	0		S	sg n
rääkis	rääki	s		V	s
et	et	0		J	
Liisu	liisk	0		S	sg g
     	liisu	0		V	o
Vahartal	####				
teda	tema	da		P	sg p
peksnud	peks	nud		V	nud
       	peks=nu	d		S	pl n
       	peks=nud	0		A	
       	peks=nud	0		A	sg n
       	peks=nud	d		A	pl n
.	.			Z	
Mina	mina	0		P	sg n
    	mina	0		S	sg g
    	mina	0		S	sg n
    	mina	0		S	sg p
läksind	####				
Liisu	liisk	0		S	sg g
     	liisu	0		V	o
juuure	####				
ja	ja	0		J	
küsisind	####				
miks	miks	0		D	
    	miks	0		S	sg n
saa	saa	0		V	o
mo	####				
peoga	peo	ga		S	sg kom
     	pidu	ga		S	sg kom
peksid	peks	id		V	sid
.	.			Z	
Liisu	liisk	0		S	sg g
     	liisu	0		V	o
hakas	####				
mind	mina	d		P	sg p
sõimooma	####				
kaeravargaks	kaera_varas	ks		S	sg tr
.	.			Z	
kohus	kohu	s		V	s
     	kohus	0		S	sg n
mõistis	mõist	is		V	s
Liisu	liisk	0		S	sg g
     	liisu	0		V	o
Vahartalile	####				
selle	see	0		P	sg g
     	sell	e		S	pl p
eet	####				
et	et	0		J	
tema	tema	0		P	sg g
    	tema	0		P	sg n
poisi	poiss	0		S	sg g
Priidik	####				
Hanson	####				
peksis	peks	is		V	s
1	1	0		N	?
tubla	####				
trahvi	trahv	0		S	adt
      	trahv	0		S	sg g
      	trahvi	0		V	o
      	trahv	0		S	sg p
ja	ja	0		J	
poisile	poiss	le		S	sg all
Priidik	####				
Hansonile	####				
selle	see	0		P	sg g
     	sell	e		S	pl p
eest	eest	0		D	
    	eest	0		K	
    	esi	st		S	sg el
et	et	0		J	
tema	tema	0		P	sg g
    	tema	0		P	sg n
vana	vana	0		A	sg g
    	vana	0		A	sg n
    	vana	0		A	sg p
    	vana	0		S	sg g
    	vana	0		S	sg n
    	vana	0		S	sg p
inimest	inimene	t		S	sg p
nii	nii	0		D	
rumalaste	rumal_aste	0		S	sg g
         	rumal_aste	0		S	sg n
läks	mine	s		V	s
sõimama	sõima	ma		V	ma
50	50	0		N	?
kop	kop	0		Y	?
.	.			Z	
trahvi	trahv	0		S	adt
      	trahv	0		S	sg g
      	trahvi	0		V	o
      	trahv	0		S	sg p
.	.			Z	
kohtuvanem	kohtu_vanem	0		C	sg n
          	kohtu_vanem	0		S	sg n
Kaarel	Kaarel	0		H	sg n
      	kaar	l		S	sg ad
      	kaarel	0		S	sg n
Villand	villand	0		D	
XXX	XXX	0		O	?
   	XXX	0		Y	?
kõrvamees	kõrva_mees	0		S	sg n
Juhan	Juhan	0		H	sg n
Vindling	####				
XXX	XXX	0		O	?
   	XXX	0		Y	?
""""	""""			Z	
Mart	Mart	0		H	sg n
    	mart	0		S	sg n
koppel	koppel	0		S	sg n
XXX	XXX	0		O	?
   	XXX	0		Y	?
mõistus	mõistus	0		S	sg n
täidetud	täit	tud		V	tud
        	täide=tu	d		S	pl n
        	täide=tud	0		A	
        	täide=tud	0		A	sg n
        	täide=tud	d		A	pl n
.	.			Z	
