kohtukorra	kohtu_kord	0		S	sg g
pärast	pära	st		S	sg el
      	pärane	t		A	sg p
      	pärast	0		D	
      	pärast	0		K	
olid	ole	id		V	sid
kokku	kokku	0		D	
     	kogu	0		S	adt
tulnud	tul=nud	0		A	
      	tul=nud	0		A	sg n
      	tul=nud	d		A	pl n
      	tule	nud		V	nud
      	tulnu	d		S	pl n
.	.			Z	
kohtuvanem	kohtu_vanem	0		C	sg n
          	kohtu_vanem	0		S	sg n
:	:			Z	
Hans	Hans	0		H	sg n
Paumann	pau_mann	0		S	sg n
.	.			Z	
abimees	abi_mees	0		S	sg n
:	:			Z	
Tõnno	####				
Kirschmann	####				
.	.			Z	
abimees	abi_mees	0		S	sg n
:	:			Z	
Jüri	Jüri	0		H	sg g
    	Jüri	0		H	sg n
Mesner	####				
kirjutaja	kirjutaja	0		S	sg g
         	kirjutaja	0		S	sg n
H	H	0		Y	?
Aunberg	####				
kohtu	kohtu	0		V	o
     	kohus	0		S	sg g
asja	asi	0		S	adt
    	asi	0		S	sg g
    	asi	0		S	sg p
põlnud	####				
seletada	seleta	da		V	da
.	.			Z	
kohtuvanem	kohtu_vanem	0		C	sg n
          	kohtu_vanem	0		S	sg n
:	:			Z	
Hans	Hans	0		H	sg n
Paumann	pau_mann	0		S	sg n
.	.			Z	
XXX	XXX	0		O	?
   	XXX	0		Y	?
abimees	abi_mees	0		S	sg n
:	:			Z	
Tõno	####				
Kirschmann	####				
.	.			Z	
XXX	XXX	0		O	?
   	XXX	0		Y	?
abimees	abi_mees	0		S	sg n
:	:			Z	
Jüri	Jüri	0		H	sg g
    	Jüri	0		H	sg n
Mesner	####				
XXX	XXX	0		O	?
   	XXX	0		Y	?
kirjutaja	kirjutaja	0		S	sg g
         	kirjutaja	0		S	sg n
HAunberg	####				
.	.			Z	
[	[			Z	
allkiri	all_kiri	0		S	sg n
]	]			Z	
