ette	ette	0		D	
    	ette	0		K	
    	esi	tte		S	adt
ei	ei	0		D	
  	ei	0		V	neg
tulnud	tul=nud	0		A	
      	tul=nud	0		A	sg n
      	tul=nud	d		A	pl n
      	tule	nud		V	nud
      	tulnu	d		S	pl n
üks	üks	0		N	sg n
   	üks	0		P	sg n
.	.			Z	
kohtuvanem	kohtu_vanem	0		C	sg n
          	kohtu_vanem	0		S	sg n
Jaan	Jaan	0		H	sg n
    	jaan	0		S	sg n
    	jaan	0		Y	?
Jünter	####				
XXX	XXX	0		O	?
   	XXX	0		Y	?
kõrvam	####				
I	I	0		O	?
 	I	0		Y	?
 	j	0		Y	?
Kustas	Kusta	s		H	sg in
      	Kustas	0		H	sg n
Neider	####				
XXX	XXX	0		O	?
   	XXX	0		Y	?
kõrvam	####				
II	II	0		O	?
  	II	0		Y	?
  	jj	0		Y	?
Jaan	Jaan	0		H	sg n
    	jaan	0		S	sg n
    	jaan	0		Y	?
Lamp	lamp	0		A	sg n
    	lamp	0		S	sg n
XXX	XXX	0		O	?
   	XXX	0		Y	?
kirjut	kirju	t		A	sg p
:	:			Z	
M	M	0		O	?
 	M	0		Y	?
Kentmann	####				
