ette	ette	0		D	
    	ette	0		K	
    	esi	tte		S	adt
ei	ei	0		D	
  	ei	0		V	neg
tulnud	tul=nud	0		A	
      	tul=nud	0		A	sg n
      	tul=nud	d		A	pl n
      	tule	nud		V	nud
      	tulnu	d		S	pl n
kedagi	keegi	dagi		P	sg p
kohtuvanem	kohtu_vanem	0		C	sg n
          	kohtu_vanem	0		S	sg n
:	:			Z	
Jaan	Jaan	0		H	sg n
    	jaan	0		S	sg n
    	jaan	0		Y	?
Junter	####				
XXX	XXX	0		O	?
   	XXX	0		Y	?
I	I	0		O	?
 	I	0		Y	?
 	j	0		Y	?
kõrvamees	kõrva_mees	0		S	sg n
:	:			Z	
Kustav	kus=tav	0		A	sg n
      	kuse	tav		V	tav
Neider	####				
XXX	XXX	0		O	?
   	XXX	0		Y	?
II	II	0		O	?
  	II	0		Y	?
  	jj	0		Y	?
kõrvamees	kõrva_mees	0		S	sg n
:	:			Z	
Jaan	Jaan	0		H	sg n
    	jaan	0		S	sg n
    	jaan	0		Y	?
Kahm	kahm	0		S	sg n
XXX	XXX	0		O	?
   	XXX	0		Y	?
kirjutaja	kirjutaja	0		S	sg g
         	kirjutaja	0		S	sg n
:	:			Z	
