Jüri	Jüri	0		H	sg g
    	Jüri	0		H	sg n
Ostutama	####				
tuli	tuli	0		S	sg n
    	tule	i		V	s
kohtuse	kohtune	0		A	sg g
sellepärast	selle_pärast	0		D	
et	et	0		J	
auaste	au_aste	0		S	sg n
vallast	vald	st		S	sg el
Jüri	Jüri	0		H	sg g
    	Jüri	0		H	sg n
Liiverti	####				
sead	sead	d		V	d
    	siga	d		A	pl n
    	siga	d		S	pl n
olid	ole	id		V	sid
tema	tema	0		P	sg g
    	tema	0		P	sg n
leikamata	####				
viljas	vili	s		S	sg in
paha	pahk	0		S	sg g
    	paha	0		A	sg g
    	paha	0		A	sg n
    	paha	0		A	sg p
    	paha	0		S	sg g
    	paha	0		S	sg n
    	paha	0		S	sg p
tein	####				
Oru	org	0		S	sg g
talitaja	talitaja	0		S	sg g
        	talitaja	0		S	sg n
Hans	Hans	0		H	sg n
kork	kork	0		S	sg n
auaste	au_aste	0		S	sg n
talitaja	talitaja	0		S	sg g
        	talitaja	0		S	sg n
Hans	Hans	0		H	sg n
Ennopärk	####				
on	ole	0		V	b
  	ole	0		V	vad
seda	see	da		P	sg p
kahju	kahi	0		S	adt
     	kahi	0		S	sg g
     	kahi	0		S	sg p
     	kahju	0		S	sg g
     	kahju	0		S	sg n
     	kahju	0		S	sg p
vadan	vada	n		V	n
et	et	0		J	
Jüri	Jüri	0		H	sg g
    	Jüri	0		H	sg n
Liivert	####				
pidi	pida	i		V	s
    	pidi	0		K	
Jüri	Jüri	0		H	sg g
    	Jüri	0		H	sg n
Otsmannile	ots_mann	le		S	sg all
kaks	kaks	0		N	sg n
külvmitto	####				
rukkit	####				
maksma	maks	ma		V	ma
Jüri	Jüri	0		H	sg g
    	Jüri	0		H	sg n
Otsman	####				
on	ole	0		V	b
  	ole	0		V	vad
seda	see	da		P	sg p
makso	####				
kätte	kätte	0		K	
     	käsi	tte		S	adt
oodan	####				
mis	mis	0		P	pl n
   	mis	0		P	sg n
kaks	kaks	0		N	sg n
talitajad	talitaja	d		S	pl n
on	ole	0		V	b
  	ole	0		V	vad
mõistn	####				
ja	ja	0		J	
Jüri	Jüri	0		H	sg g
    	Jüri	0		H	sg n
Liivert	####				
on	ole	0		V	b
  	ole	0		V	vad
seda	see	da		P	sg p
lubanud	luba	nud		V	nud
       	luba=nu	d		S	pl n
       	luba=nud	0		A	
       	luba=nud	0		A	sg n
       	luba=nud	d		A	pl n
maksta	maks	ta		V	da
      	maks	ta		V	ta
ja	ja	0		J	
ei	ei	0		D	
  	ei	0		V	neg
tu	####				
seda	see	da		P	sg p
makso	####				
kätte	kätte	0		K	
     	käsi	tte		S	adt
kohtu	kohtu	0		V	o
     	kohus	0		S	sg g
Mehed	mees	d		S	pl n
mõistsid	mõist	sid		V	sid
et	et	0		J	
Jüri	Jüri	0		H	sg g
    	Jüri	0		H	sg n
Liivert	####				
peab	pida	b		V	b
nende	see	de		P	pl g
     	tema	de		P	pl g
kaheksme	####				
päiva	####				
seda	see	da		P	sg p
makso	####				
kätte	kätte	0		K	
     	käsi	tte		S	adt
saama	saa	ma		V	ma
     	saam	0		S	adt
     	saam	0		S	sg g
     	saam	0		S	sg p
kohtu	kohtu	0		V	o
     	kohus	0		S	sg g
Mees	mees	0		S	sg n
    	mesi	s		S	sg in
Mihkel	Mihkel	0		H	sg n
      	mihkel	0		A	sg n
      	mihkel	0		S	sg n
Ennopärk	####				
XXX	XXX	0		O	?
   	XXX	0		Y	?
kõrva	kõrv	0		S	adt
     	kõrv	0		S	sg g
     	kõrv	0		S	sg p
Mehed	mees	d		S	pl n
Jaen	####				
Peeterpärk	####				
XXX	XXX	0		O	?
   	XXX	0		Y	?
Andrus	Andrus	0		H	sg n
Lemloh	####				
XXX	XXX	0		O	?
   	XXX	0		Y	?
