mõistis	mõist	is		V	s
kohus	kohu	s		V	s
     	kohus	0		S	sg n
,	,			Z	
et	et	0		J	
Mihkel	Mihkel	0		H	sg n
      	mihkel	0		A	sg n
      	mihkel	0		S	sg n
Treialt	####				
,	,			Z	
kelle	kes	0		P	pl g
     	kes	0		P	sg g
peale	pea	le		S	sg all
     	peale	0		D	
     	peale	0		K	
18.	18.	0		O	?
Märtsil	märts	l		S	sg ad
3mas	####				
numris	####				
kaevatud	kaeba	tud		V	tud
        	kaeva	tud		V	tud
        	kaeva=tu	d		S	pl n
        	kaeva=tud	0		A	
        	kaeva=tud	0		A	sg n
        	kaeva=tud	d		A	pl n
sai	saa	i		V	s
   	sai	0		S	sg n
,	,			Z	
ja	ja	0		J	
kakskord	kaks_kord	0		S	sg n
käsu	käsk	0		S	sg g
vastu	vastu	0		D	
     	vastu	0		K	
pannud	pan=nu	d		S	pl n
      	pan=nud	0		A	
      	pan=nud	0		A	sg n
      	pan=nud	d		A	pl n
      	pane	nud		V	nud
ja	ja	0		J	
mitte	mitte	0		D	
kohtu	kohtu	0		V	o
     	kohus	0		S	sg g
ette	ette	0		D	
    	ette	0		K	
    	esi	tte		S	adt
tulnud	tul=nud	0		A	
      	tul=nud	0		A	sg n
      	tul=nud	d		A	pl n
      	tule	nud		V	nud
      	tulnu	d		S	pl n
,	,			Z	
peab	pida	b		V	b
1	1	0		N	?
rbl	rbl	0		Y	?
trahvi	trahv	0		S	adt
      	trahv	0		S	sg g
      	trahvi	0		V	o
      	trahv	0		S	sg p
valla	vald	0		S	sg g
     	valla	0		D	
laeka	laegas	0		S	adt
     	laegas	0		S	sg g
maksma	maks	ma		V	ma
ja	ja	0		J	
tuleva	tulev	0		A	sg g
kohtupäevaks	kohtu_päev	ks		S	sg tr
peab	pida	b		V	b
makstud	maks	tud		V	tud
       	maks=tu	d		S	pl n
       	maks=tud	0		A	
       	maks=tud	0		A	sg n
       	maks=tud	d		A	pl n
olema	ole	ma		V	ma
.	.			Z	
