tuli	tuli	0		S	sg n
    	tule	i		V	s
ette	ette	0		D	
    	ette	0		K	
    	esi	tte		S	adt
Luttaka	####				
Hans	Hans	0		H	sg n
Avi	####				
ja	ja	0		J	
andis	and	is		V	s
Hakenrihtri	####				
kässo	####				
peale	pea	le		S	sg all
     	peale	0		D	
     	peale	0		K	
oma	oma	0		A	sg g
   	oma	0		D	
   	oma	0		P	sg g
   	oma	0		S	sg g
   	oma	0		V	o
   	oma	0		A	sg n
   	oma	0		A	sg p
   	oma	0		P	sg n
   	oma	0		P	sg p
   	oma	0		S	sg n
   	oma	0		S	sg p
tunnistust	tunnistus	t		S	sg p
üles	üles	0		D	
nõnda	nõnda	0		D	
:	:			Z	
Minul	mina	l		P	sg ad
oli	ole	i		V	s
Ado	Ado	0		H	sg g
   	Ado	0		H	sg n
Hansi	####				
sulaseks	sulane	ks		S	sg tr
kaks	kaks	0		N	sg n
aastat	aasta	t		S	sg p
.	.			Z	
Esimene	esimene	0		O	sg n
       	esimene	0		P	sg n
aasta	aasta	0		S	sg g
     	aasta	0		S	sg n
hakas	####				
1871	1871	0		N	?
a.	a	0		Y	?
Mardipäev	mardi_päev	0		S	sg n
,	,			Z	
ja	ja	0		J	
palga	palk	0		S	sg g
kaup	kaup	0		S	sg n
oli	ole	i		V	s
nõnda	nõnda	0		D	
,	,			Z	
kuidas	kuidas	0		D	
ma	mina	0		P	sg n
pidin	pida	in		V	sin
tahtma	taht	ma		V	ma
temale	tema	le		P	sg all
anda	and	a		V	da
.	.			Z	
Ja	ja	0		J	
ma	mina	0		P	sg n
olen	ole	n		V	n
annud	####				
,	,			Z	
Ritiid	####				
:	:			Z	
1	1	0		N	?
kasukas	kasukas	0		S	sg n
       	kasukas	s		S	sg in
5	5	0		N	?
rubla	rubla	0		S	sg g
     	rubla	0		S	sg n
     	rubla	0		S	sg p
väärt	väärt	0		A	
     	väärt	0		D	
,	,			Z	
1	1	0		N	?
villane	villane	0		A	sg n
kampsul	kamps	l		S	sg ad
3	3	0		N	?
R	R	0		Y	?
.	.			Z	
v	v	0		Y	?
.	.			Z	
,	,			Z	
2	2	0		N	?
paari	paar	0		N	adt
     	paar	0		N	sg g
     	paar	0		S	adt
     	paar	0		S	sg g
     	paari	0		D	
     	paari	0		V	o
     	paar	0		N	sg p
     	paar	0		S	sg p
linnased	linnased	d		S	pl n
püksid	püks	d		S	pl n
2	2	0		N	?
R	R	0		Y	?
.	.			Z	
v	v	0		Y	?
.	.			Z	
,	,			Z	
2	2	0		N	?
särki	särk	0		S	adt
     	särk	0		S	sg p
2	2	0		N	?
1	1	0		N	?
/	/			Z	
2	2	0		N	?
R	R	0		Y	?
.	.			Z	
v	v	0		Y	?
.	.			Z	
,	,			Z	
2	2	0		N	?
paari	paar	0		N	adt
     	paar	0		N	sg g
     	paar	0		S	adt
     	paar	0		S	sg g
     	paari	0		D	
     	paari	0		V	o
     	paar	0		N	sg p
     	paar	0		S	sg p
suki	####				
80	80	0		N	?
kop	kop	0		Y	?
v	v	0		Y	?
.	.			Z	
,	,			Z	
2	2	0		N	?
paari	paar	0		N	adt
     	paar	0		N	sg g
     	paar	0		S	adt
     	paar	0		S	sg g
     	paari	0		D	
     	paari	0		V	o
     	paar	0		N	sg p
     	paar	0		S	sg p
sokid	sokk	d		S	pl n
     	sokki	d		V	d
80	80	0		N	?
kop	kop	0		Y	?
.	.			Z	
v	v	0		Y	?
.	.			Z	
,	,			Z	
2	2	0		N	?
paari	paar	0		N	adt
     	paar	0		N	sg g
     	paar	0		S	adt
     	paar	0		S	sg g
     	paari	0		D	
     	paari	0		V	o
     	paar	0		N	sg p
     	paar	0		S	sg p
kindud	####				
60	60	0		N	?
kop	kop	0		Y	?
.	.			Z	
v	v	0		Y	?
.	.			Z	
,	,			Z	
1	1	0		N	?
vest	vest	0		S	sg n
1	1	0		N	?
R	R	0		Y	?
.	.			Z	
v	v	0		Y	?
.	.			Z	
,	,			Z	
1	1	0		N	?
müts	müts	0		S	sg n
    	müts	0		I	
85	85	0		N	?
kop	kop	0		Y	?
.	.			Z	
v	v	0		Y	?
.	.			Z	
6	6	0		N	?
paari	paar	0		N	adt
     	paar	0		N	sg g
     	paar	0		S	adt
     	paar	0		S	sg g
     	paari	0		D	
     	paari	0		V	o
     	paar	0		N	sg p
     	paar	0		S	sg p
pastlid	####				
3	3	0		N	?
R	R	0		Y	?
.	.			Z	
v	v	0		Y	?
.	.			Z	
,	,			Z	
ja	ja	0		J	
paar	paar	0		N	sg n
    	paar	0		S	sg n
sapad	####				
3	3	0		N	?
R	R	0		Y	?
.	.			Z	
60	60	0		N	?
kop	kop	0		Y	?
.	.			Z	
v	v	0		Y	?
.	.			Z	
koko	####				
Ride	####				
hind	hind	0		S	sg n
23	23	0		N	?
R	R	0		Y	?
.	.			Z	
15	15	0		N	?
kop	kop	0		Y	?
.	.			Z	
teiseks	teine	ks		O	sg tr
       	teine	ks		P	sg tr
       	teiseks	0		D	
raha	raha	0		S	sg g
    	raha	0		S	sg n
    	raha	0		S	sg p
:	:			Z	
2	2	0		N	?
R	R	0		Y	?
.	.			Z	
käeraha	käe_raha	0		S	sg g
       	käe_raha	0		S	sg n
       	käe_raha	0		S	sg p
,	,			Z	
2	2	0		N	?
R	R	0		Y	?
,	,			Z	
50	50	0		N	?
op	op	0		Y	?
.	.			Z	
ette	ette	0		D	
    	ette	0		K	
    	esi	tte		S	adt
tubakast	tubakane	t		A	sg p
        	tubakas	st		S	sg el
2	2	0		N	?
R	R	0		Y	?
.	.			Z	
50	50	0		N	?
kop	kop	0		Y	?
.	.			Z	
kinki	kink	0		S	adt
     	kink	0		S	sg p
.	.			Z	
Leri	####				
leivakott	leiva_kott	0		S	sg n
3	3	0		N	?
nädalat	nädal	t		S	sg p
3	3	0		N	?
rubla	rubla	0		S	sg g
     	rubla	0		S	sg n
     	rubla	0		S	sg p
koko	####				
:	:			Z	
13	13	0		N	?
R	R	0		Y	?
.	.			Z	
60	60	0		N	?
kop	kop	0		Y	?
.	.			Z	
kroonu	kroonu	0		S	sg g
      	kroonu	0		S	sg n
ja	ja	0		J	
valla	vald	0		S	sg g
     	valla	0		D	
maksud	maks	d		S	pl n
aastas	aasta	s		S	sg in
:	:			Z	
5	5	0		N	?
rubla	rubla	0		S	sg g
     	rubla	0		S	sg n
     	rubla	0		S	sg p
36	36	0		N	?
kop	kop	0		Y	?
.	.			Z	
keik	####				
koko	####				
37	37	0		N	?
rubla	rubla	0		S	sg g
     	rubla	0		S	sg n
     	rubla	0		S	sg p
51	51	0		N	?
kopik	####				
.	.			Z	
teise	teine	0		O	adt
     	teine	0		O	sg g
     	teine	0		P	adt
     	teine	0		P	sg g
aasta	aasta	0		S	sg g
     	aasta	0		S	sg n
oli	ole	i		V	s
meie	mina	0		P	pl g
    	mina	0		P	pl n
laup	laup	0		Y	?
nõnda	nõnda	0		D	
saameti	####				
:	:			Z	
aga	aga	0		J	
nüüd	nüüd	0		D	
on	ole	0		V	b
  	ole	0		V	vad
Ado	Ado	0		H	sg g
   	Ado	0		H	sg n
Hansi	####				
kes	kes	0		P	pl n
   	kes	0		P	sg n
rikrut	####				
on	ole	0		V	b
  	ole	0		V	vad
Hakenrihtri	####				
kohtule	kohus	le		S	sg all
kaebanud	####				
,	,			Z	
et	et	0		J	
temal	tema	l		P	sg ad
ole	ole	0		V	o
minu	mina	0		P	sg g
käest	käest	0		K	
     	käsi	st		S	sg el
18	18	0		N	?
rubla	rubla	0		S	sg g
     	rubla	0		S	sg n
     	rubla	0		S	sg p
raha	raha	0		S	sg g
    	raha	0		S	sg n
    	raha	0		S	sg p
palka	palk	0		S	adt
     	palka	0		V	o
     	palk	0		S	sg p
saada	saa	da		V	da
     	saat	0		V	o
     	saa	da		V	ta
.	.			Z	
omete	####				
ei	ei	0		D	
  	ei	0		V	neg
ole	ole	0		V	o
meil	meil	0		S	sg n
    	mina	l		P	pl ad
raha	raha	0		S	sg g
    	raha	0		S	sg n
    	raha	0		S	sg p
kaupa	kaup	0		S	adt
     	kaup	0		S	sg p
     	kaupa	0		K	
olnud	ol=nud	0		A	
     	ol=nud	0		A	sg n
     	ol=nud	d		A	pl n
     	ole	nud		V	nud
     	olnu	d		S	pl n
.	.			Z	
sest	see	st		P	sg el
    	sest	0		J	
Mihkel	Mihkel	0		H	sg n
      	mihkel	0		A	sg n
      	mihkel	0		S	sg n
Ari	####				
teab	tead	b		V	b
seda	see	da		P	sg p
nõnda	nõnda	0		D	
ka	ka	0		D	
ära	ära	0		D	
   	ära	0		V	neg o
:	:			Z	
siis	siis	0		D	
    	siis	0		J	
tuli	tuli	0		S	sg n
    	tule	i		V	s
ette	ette	0		D	
    	ette	0		K	
    	esi	tte		S	adt
Mihkel	Mihkel	0		H	sg n
      	mihkel	0		A	sg n
      	mihkel	0		S	sg n
Ari	####				
ja	ja	0		J	
tunnistas	tunnista	s		V	s
:	:			Z	
Kui	kui	0		D	
   	kui	0		J	
Ado	Ado	0		H	sg g
   	Ado	0		H	sg n
Hansi	####				
teise	teine	0		O	adt
     	teine	0		O	sg g
     	teine	0		P	adt
     	teine	0		P	sg g
aasta	aasta	0		S	sg g
     	aasta	0		S	sg n
kaupa	kaup	0		S	adt
     	kaup	0		S	sg p
     	kaupa	0		K	
tegi	sina	0	gi	P	pl g
    	tege	i		V	s
    	sina	0	gi	P	pl n
,	,			Z	
siis	siis	0		D	
    	siis	0		J	
ütles	ütle	s		V	s
ta	tema	0		P	sg g
  	tema	0		P	sg n
peremehe	pere_mees	0		S	sg g
vastu	vastu	0		D	
     	vastu	0		K	
,	,			Z	
kui	kui	0		D	
   	kui	0		J	
mo	####				
palk	palk	0		S	sg n
nõnda	nõnda	0		D	
on	ole	0		V	b
  	ole	0		V	vad
,	,			Z	
kui	kui	0		D	
   	kui	0		J	
essimise	####				
aasta	aasta	0		S	sg g
     	aasta	0		S	sg n
oli	ole	i		V	s
,	,			Z	
siis	siis	0		D	
    	siis	0		J	
jään	jää	n		V	n
jälle	jälle	0		D	
teenistuse	teenistus	0		S	sg g
.	.			Z	
siis	siis	0		D	
    	siis	0		J	
tuli	tuli	0		S	sg n
    	tule	i		V	s
Ado	Ado	0		H	sg g
   	Ado	0		H	sg n
Hansi	####				
isa	isa	0		S	sg g
   	isa	0		S	sg n
   	isa	0		S	sg p
Mihkel	Mihkel	0		H	sg n
      	mihkel	0		A	sg n
      	mihkel	0		S	sg n
ja	ja	0		J	
tunnistas	tunnista	s		V	s
:	:			Z	
Kui	kui	0		D	
   	kui	0		J	
Hans	Hans	0		H	sg n
teda	tema	da		P	sg p
kauples	kauple	s		V	s
,	,			Z	
essimise	####				
aasta	aasta	0		S	sg g
     	aasta	0		S	sg n
,	,			Z	
siis	siis	0		D	
    	siis	0		J	
ei	ei	0		D	
  	ei	0		V	neg
saanud	saa	nud		V	nud
      	saa=nud	0		A	
      	saa=nud	0		A	sg n
      	saa=nud	d		A	pl n
      	saanu	d		S	pl n
raha	raha	0		S	sg g
    	raha	0		S	sg n
    	raha	0		S	sg p
nimetatud	nimeta	tud		V	tud
         	nimetatu	d		S	pl n
         	nimetatud	0		A	
         	nimetatud	0		A	sg n
         	nimetatud	d		A	pl n
,	,			Z	
sest	see	st		P	sg el
    	sest	0		J	
poiss	poiss	0		S	sg n
oli	ole	i		V	s
õppimata	õppi	mata		V	mata
        	õppi=mata	0		A	
.	.			Z	
kohtu	kohtu	0		V	o
     	kohus	0		S	sg g
otsus	otsus	0		S	sg n
:	:			Z	
et	et	0		J	
Ado	Ado	0		H	sg g
   	Ado	0		H	sg n
Hansi	####				
ja	ja	0		J	
peremehe	pere_mees	0		S	sg g
vahel	vahe	l		S	sg ad
     	vahel	0		D	
     	vahel	0		K	
tunnistust	tunnistus	t		S	sg p
mingisugust	mingi_sugune	t		P	sg p
ei	ei	0		D	
  	ei	0		V	neg
ole	ole	0		V	o
,	,			Z	
sellepärast	selle_pärast	0		D	
peab	pida	b		V	b
sellega	see	ga		P	sg kom
rahul	rahu	l		S	sg ad
     	rahul	0		D	
olema	ole	ma		V	ma
mis	mis	0		P	pl n
   	mis	0		P	sg n
ta	tema	0		P	sg g
  	tema	0		P	sg n
on	ole	0		V	b
  	ole	0		V	vad
saanud	saa	nud		V	nud
      	saa=nud	0		A	
      	saa=nud	0		A	sg n
      	saa=nud	d		A	pl n
      	saanu	d		S	pl n
.	.			Z	
Ja	ja	0		J	
peremes	####				
Hans	Hans	0		H	sg n
Avi	####				
saab	saa	b		V	b
kaebtuse	####				
alt	alt	0		S	sg n
   	alt	0		D	
   	alt	0		K	
lahti	laht	i		S	pl p
     	lahti	0		D	
mõistetud	mõist	tud		V	tud
         	mõiste=tu	d		S	pl n
         	mõiste=tud	0		A	
         	mõiste=tud	0		A	sg n
         	mõiste=tud	d		A	pl n
.	.			Z	
Oon	####				
selsamal	see_sama	l		P	sg ad
päeval	päev	l		S	sg ad
Hakenrihtri	####				
kohtule	kohus	le		S	sg all
protokol	####				
antud	an=tu	d		S	pl n
     	and	tud		V	tud
     	antud	0		A	
     	antud	0		A	sg n
     	antud	d		A	pl n
.	.			Z	
