astus	astu	s		V	s
ette	ette	0		D	
    	ette	0		K	
    	esi	tte		S	adt
Vanamõisa	vana_mõis	0		S	sg g
rentnikku	rentnik	0		S	adt
         	rentnik	0		S	sg p
naine	naine	0		S	sg n
ja	ja	0		J	
ütles	ütle	s		V	s
välja	välja	0		D	
     	välja	0		V	o
     	väli	0		S	adt
     	väli	0		S	sg g
     	väli	0		S	sg p
et	et	0		J	
tema	tema	0		P	sg g
    	tema	0		P	sg n
mees	mees	0		S	sg n
    	mesi	s		S	sg in
on	ole	0		V	b
  	ole	0		V	vad
haige	haige	0		A	sg g
     	haige	0		A	sg n
     	haige	0		S	sg g
     	haige	0		S	sg n
ja	ja	0		J	
temal	tema	l		P	sg ad
ei	ei	0		D	
  	ei	0		V	neg
ole	ole	0		V	o
võimalik	võimalik	0		A	sg n
eestkostjad	eest_kostja	d		S	pl n
saada	saa	da		V	da
     	saat	0		V	o
     	saa	da		V	ta
aga	aga	0		J	
tuleb	tule	b		V	b
häda	häda	0		S	sg g
    	häda	0		S	sg n
    	häda	0		S	sg p
pärast	pära	st		S	sg el
      	pärane	t		A	sg p
      	pärast	0		D	
      	pärast	0		K	
kaebama	kaeba	ma		V	ma
et	et	0		J	
Sarapikku	sarapik	0		S	adt
         	sarapik	0		S	sg p
peremees	pere_mees	0		S	sg n
Mihkel	Mihkel	0		H	sg n
      	mihkel	0		A	sg n
      	mihkel	0		S	sg n
Täht	täht	0		S	sg n
on	ole	0		V	b
  	ole	0		V	vad
tema	tema	0		P	sg g
    	tema	0		P	sg n
käest	käest	0		K	
     	käsi	st		S	sg el
loomad	loom	d		S	pl n
ostnud	ost	nud		V	nud
      	ost=nu	d		S	pl n
      	ost=nud	0		A	
      	ost=nud	0		A	sg n
      	ost=nud	d		A	pl n
ja	ja	0		J	
pidand	####				
Nissi	Nissi	0		H	sg g
     	Nissi	0		H	sg n
laadal	laat	l		S	sg ad
ära	ära	0		D	
   	ära	0		V	neg o
müüma	müü	ma		V	ma
ja	ja	0		J	
kohe	kohe	0		A	sg n
    	kohe	0		D	
tagasi	tagasi	0		D	
      	tagasi	0		K	
tuleb	tule	b		V	b
raha	raha	0		S	sg g
    	raha	0		S	sg n
    	raha	0		S	sg p
temale	tema	le		P	sg all
välja	välja	0		D	
     	välja	0		V	o
     	väli	0		S	adt
     	väli	0		S	sg g
     	väli	0		S	sg p
maksma	maks	ma		V	ma
,	,			Z	
aga	aga	0		J	
nüüd	nüüd	0		D	
ei	ei	0		D	
  	ei	0		V	neg
taha	taht	0		V	o
    	taha	0		D	
    	taha	0		K	
maksta	maks	ta		V	da
      	maks	ta		V	ta
ja	ja	0		J	
ütleb	ütle	b		V	b
et	et	0		J	
on	ole	0		V	b
  	ole	0		V	vad
minu	mina	0		P	sg g
poja	poeg	0		S	sg g
    	poja	0		S	sg g
    	poja	0		S	sg n
    	poja	0		S	sg p
Kustase	Kustas	0		H	sg g
kätte	kätte	0		K	
     	käsi	tte		S	adt
maksnud	maks	nud		V	nud
       	maks=nu	d		S	pl n
       	maks=nud	0		A	
       	maks=nud	0		A	sg n
       	maks=nud	d		A	pl n
,	,			Z	
aga	aga	0		J	
kauba	kaup	0		S	sg g
juures	juur	s		S	sg in
      	juures	0		D	
      	juures	0		K	
juba	juba	0		D	
ütlesin	ütle	sin		V	sin
et	et	0		J	
minna	mine	a		V	da
Kustasele	Kustas	le		H	sg all
seda	see	da		P	sg p
raha	raha	0		S	sg g
    	raha	0		S	sg n
    	raha	0		S	sg p
ei	ei	0		D	
  	ei	0		V	neg
või	või	0		S	sg g
   	või	0		V	o
   	või	0		D	
   	või	0		J	
   	või	0		S	sg n
lubada	luba	da		V	da
sest	see	st		P	sg el
    	sest	0		J	
et	et	0		J	
tema	tema	0		P	sg g
    	tema	0		P	sg n
seda	see	da		P	sg p
ära	ära	0		D	
   	ära	0		V	neg o
joob	joo	b		V	b
,	,			Z	
tunnistuseks	tunnistus	ks		S	sg tr
oli	ole	i		V	s
Nona	####				
Jüri	Jüri	0		H	sg g
    	Jüri	0		H	sg n
Sinelepast	sine_lepp	st		S	sg el
          	sine_lepane	t		A	sg p
ette	ette	0		D	
    	ette	0		K	
    	esi	tte		S	adt
astus	astu	s		V	s
Nona	####				
Jüri	Jüri	0		H	sg g
    	Jüri	0		H	sg n
tunistas	####				
et	et	0		J	
Juula	####				
Pihelgas	pihelgas	0		S	sg n
        	pihelgas	s		S	sg in
on	ole	0		V	b
  	ole	0		V	vad
Mihkel	Mihkel	0		H	sg n
      	mihkel	0		A	sg n
      	mihkel	0		S	sg n
Täht	täht	0		S	sg n
kätte	kätte	0		K	
     	käsi	tte		S	adt
oomad	####				
loomad	loom	d		S	pl n
selle	see	0		P	sg g
     	sell	e		S	pl p
kaubaga	kaup	ga		S	sg kom
müünud	müü	nud		V	nud
      	müü=nu	d		S	pl n
      	müü=nud	0		A	
      	müü=nud	0		A	sg n
      	müü=nud	d		A	pl n
et	et	0		J	
kohe	kohe	0		A	sg n
    	kohe	0		D	
pärast	pära	st		S	sg el
      	pärane	t		A	sg p
      	pärast	0		D	
      	pärast	0		K	
laata	laat	0		S	adt
     	laat	0		S	sg p
raha	raha	0		S	sg g
    	raha	0		S	sg n
    	raha	0		S	sg p
tema	tema	0		P	sg g
    	tema	0		P	sg n
kätte	kätte	0		K	
     	käsi	tte		S	adt
saaks	saa	ks		V	ks
makstud	maks	tud		V	tud
       	maks=tu	d		S	pl n
       	maks=tud	0		A	
       	maks=tud	0		A	sg n
       	maks=tud	d		A	pl n
ja	ja	0		J	
mitte	mitte	0		D	
Kustavi	####				
kätte	kätte	0		K	
     	käsi	tte		S	adt
.	.			Z	
astus	astu	s		V	s
ette	ette	0		D	
    	ette	0		K	
    	esi	tte		S	adt
Mihkel	Mihkel	0		H	sg n
      	mihkel	0		A	sg n
      	mihkel	0		S	sg n
Täht	täht	0		S	sg n
ja	ja	0		J	
ütles	ütle	s		V	s
välja	välja	0		D	
     	välja	0		V	o
     	väli	0		S	adt
     	väli	0		S	sg g
     	väli	0		S	sg p
et	et	0		J	
see	see	0		P	sg n
on	ole	0		V	b
  	ole	0		V	vad
õiki	####				
et	et	0		J	
ma	mina	0		P	sg n
raha	raha	0		S	sg g
    	raha	0		S	sg n
    	raha	0		S	sg p
Juula	####				
Pihelga	pihelgas	0		S	sg g
kätte	kätte	0		K	
     	käsi	tte		S	adt
pidin	pida	in		V	sin
andma	and	ma		V	ma
,	,			Z	
aga	aga	0		J	
Kustas	Kusta	s		H	sg in
      	Kustas	0		H	sg n
Pihelgas	pihelgas	0		S	sg n
        	pihelgas	s		S	sg in
ütles	ütle	s		V	s
et	et	0		J	
Juula	####				
on	ole	0		V	b
  	ole	0		V	vad
luband	####				
et	et	0		J	
tema	tema	0		P	sg g
    	tema	0		P	sg n
peab	pida	b		V	b
raha	raha	0		S	sg g
    	raha	0		S	sg n
    	raha	0		S	sg p
Kustase	Kustas	0		H	sg g
kätte	kätte	0		K	
     	käsi	tte		S	adt
andma	and	ma		V	ma
.	.			Z	
astus	astu	s		V	s
ette	ette	0		D	
    	ette	0		K	
    	esi	tte		S	adt
Kustas	Kusta	s		H	sg in
      	Kustas	0		H	sg n
Pihelgas	pihelgas	0		S	sg n
        	pihelgas	s		S	sg in
ja	ja	0		J	
ütles	ütle	s		V	s
välja	välja	0		D	
     	välja	0		V	o
     	väli	0		S	adt
     	väli	0		S	sg g
     	väli	0		S	sg p
et	et	0		J	
tema	tema	0		P	sg g
    	tema	0		P	sg n
ei	ei	0		D	
  	ei	0		V	neg
ole	ole	0		V	o
mitte	mitte	0		D	
Mihkel	Mihkel	0		H	sg n
      	mihkel	0		A	sg n
      	mihkel	0		S	sg n
Täht	täht	0		S	sg n
käest	käest	0		K	
     	käsi	st		S	sg el
raha	raha	0		S	sg g
    	raha	0		S	sg n
    	raha	0		S	sg p
laenand	laen_and	0		S	sg n
vaid	vaid	0		D	
    	vaid	0		J	
oli	ole	i		V	s
tema	tema	0		P	sg g
    	tema	0		P	sg n
käest	käest	0		K	
     	käsi	st		S	sg el
laenand	laen_and	0		S	sg n
kui	kui	0		D	
   	kui	0		J	
kahekesi	kahekesi	0		D	
olid	ole	id		V	sid
kõrtsis	kõrts	s		S	sg in
joonud	joo	nud		V	nud
      	joo=nu	d		S	pl n
      	joo=nud	0		A	
      	joo=nud	0		A	sg n
      	joo=nud	d		A	pl n
ja	ja	0		J	
hobusid	hobu	sid		S	pl p
vahetanud	vaheta	nud		V	nud
         	vaheta=nu	d		S	pl n
         	vaheta=nud	0		A	
         	vaheta=nud	0		A	sg n
         	vaheta=nud	d		A	pl n
.	.			Z	
kohus	kohu	s		V	s
     	kohus	0		S	sg n
mõistis	mõist	is		V	s
et	et	0		J	
Mihkel	Mihkel	0		H	sg n
      	mihkel	0		A	sg n
      	mihkel	0		S	sg n
Täht	täht	0		S	sg n
peab	pida	b		V	b
loome	loo	me		V	me
     	loom	e		S	pl p
     	loome	0		S	sg g
     	loome	0		S	sg n
raha	raha	0		S	sg g
    	raha	0		S	sg n
    	raha	0		S	sg p
kuni	kuni	0		J	
    	kuni	0		K	
28	28	0		N	?
Nobr	####				
Juula	####				
Phielgal	####				
välja	välja	0		D	
     	välja	0		V	o
     	väli	0		S	adt
     	väli	0		S	sg g
     	väli	0		S	sg p
maksma	maks	ma		V	ma
ja	ja	0		J	
valla	vald	0		S	sg g
     	valla	0		D	
laeka	laegas	0		S	adt
     	laegas	0		S	sg g
1	1	0		N	?
rubla	rubla	0		S	sg g
     	rubla	0		S	sg n
     	rubla	0		S	sg p
trahvi	trahv	0		S	adt
      	trahv	0		S	sg g
      	trahvi	0		V	o
      	trahv	0		S	sg p
T	T	0		Y	?
.	.			Z	
r	r	0		Y	?
.	.			Z	
s	s	0		Y	?
.	.			Z	
§	§	0		Y	?
1250	1250	0		N	?
sellepärast	selle_pärast	0		D	
et	et	0		J	
temal	tema	l		P	sg ad
enne	enne	0		D	
    	enne	0		K	
    	enne	0		S	sg n
juba	juba	0		D	
teada	tead	a		V	da
oli	ole	i		V	s
kui	kui	0		D	
   	kui	0		J	
ema	ema	0		S	sg g
   	ema	0		S	sg n
   	ema	0		S	sg p
kinnitas	kinnita	s		V	s
et	et	0		J	
Kustav	kus=tav	0		A	sg n
      	kuse	tav		V	tav
Pihelgas	pihelgas	0		S	sg n
        	pihelgas	s		S	sg in
üks	üks	0		N	sg n
   	üks	0		P	sg n
raha	raha	0		S	sg g
    	raha	0		S	sg n
    	raha	0		S	sg p
pillaja	pillaja	0		S	sg g
       	pillaja	0		S	sg n
ja	ja	0		J	
et	et	0		J	
ise	ise	0		A	
   	ise	0		D	
   	ise	0		P	pl n
   	ise	0		P	sg n
temaga	tema	ga		P	sg kom
seltsis	selts	s		S	sg in
       	seltsi	s		V	s
       	seltsis	0		D	
       	seltsis	0		K	
kõrtsides	kõrts	des		S	pl in
raha	raha	0		S	sg g
    	raha	0		S	sg n
    	raha	0		S	sg p
ära	ära	0		D	
   	ära	0		V	neg o
joonud	joo	nud		V	nud
      	joo=nu	d		S	pl n
      	joo=nud	0		A	
      	joo=nud	0		A	sg n
      	joo=nud	d		A	pl n
ja	ja	0		J	
hobuse	hobune	0		S	sg g
vahetusega	vahetus	ga		S	sg kom
petnud	pet	nud		V	nud
      	pet=nu	d		S	pl n
      	pet=nud	0		A	
      	pet=nud	0		A	sg n
      	pet=nud	d		A	pl n
.	.			Z	
täitmata	täit	mata		V	mata
        	täitmata	0		A	
1	1	0		N	?
rubla	rubla	0		S	sg g
     	rubla	0		S	sg n
     	rubla	0		S	sg p
trahvi	trahv	0		S	adt
      	trahv	0		S	sg g
      	trahvi	0		V	o
      	trahv	0		S	sg p
võlgu	võlg	u		S	pl p
     	võlgu	0		D	
