koos	koos	0		D	
    	koos	0		K	
    	koos	0		S	sg n
    	kubu	s		S	sg in
olid	ole	id		V	sid
talitaja	talitaja	0		S	sg g
        	talitaja	0		S	sg n
:	:			Z	
N_	####				
.	.			Z	
_	_			Z	
Mähle	####				
,	,			Z	
abimehed	abi_mees	d		S	pl n
G	G	0		Y	?
.	.			Z	
_	_			Z	
Norwid	####				
ja	ja	0		J	
H	H	0		Y	?
.	.			Z	
_	_			Z	
Pissa	####				
seatud	sea=tu	d		S	pl n
      	sead	tud		V	tud
      	seatud	0		A	
      	seatud	0		A	sg n
      	seatud	d		A	pl n
kohtupäeva	kohtu_päev	0		S	adt
          	kohtu_päev	0		S	sg g
          	kohtu_päev	0		S	sg p
pidamas	pida	mas		V	mas
.	.			Z	
kohtu	kohtu	0		V	o
     	kohus	0		S	sg g
ette	ette	0		D	
    	ette	0		K	
    	esi	tte		S	adt
astus	astu	s		V	s
vabriku	vabrik	0		S	sg g
vahimees	vahi_mees	0		S	sg n
Peeter	Peeter	0		H	sg n
veanes	####				
ja	ja	0		J	
kaebab	kaeba	b		V	b
,	,			Z	
et	et	0		J	
laupäev	lau_päev	0		S	sg n
õhtu	õhtu	0		S	sg g
    	õhtu	0		S	sg n
,	,			Z	
sel	see	l		P	sg ad
   	sel	0		Y	?
23nd	####				
apr	apr	0		Y	?
.	.			Z	
läinud	läinu	d		S	pl n
      	läinud	0		A	
      	läinud	0		A	sg n
      	läinud	d		A	pl n
      	mine	nud		V	nud
Peeter	Peeter	0		H	sg n
Ula	ula	0		D	
   	ula	0		V	o
joobnud	joobnu	d		S	pl n
       	joobnud	0		A	
       	joobnud	0		A	sg n
       	joobnud	d		A	pl n
peaga	pea	ga		S	sg kom
vabriku	vabrik	0		S	sg g
õuest	õu	st		S	sg el
     	õuest	0		D	
läbi	läbi	0		D	
    	läbi	0		K	
    	läbi	0		V	o
koju	kodu	0		S	adt
poole	pool	0		N	sg g
     	pool	0		S	sg g
     	pool	e		S	pl p
     	poole	0		K	
     	poole	0		S	sg n
.	.			Z	
kel	kes	l		P	sg ad
1	1	0		N	?
/	/			Z	
1	1	0		N	?
11	11	0		N	?
ajal	aeg	l		S	sg ad
    	ajal	0		K	
tulnud	tul=nud	0		A	
      	tul=nud	0		A	sg n
      	tul=nud	d		A	pl n
      	tule	nud		V	nud
      	tulnu	d		S	pl n
ta	tema	0		P	sg g
  	tema	0		P	sg n
jälle	jälle	0		D	
vabriku	vabrik	0		S	sg g
drummi	####				
peale	pea	le		S	sg all
     	peale	0		D	
     	peale	0		K	
tema	tema	0		P	sg g
    	tema	0		P	sg n
juuri	juur	i		S	pl p
     	juuri	0		V	o
ja	ja	0		J	
küsinud	küsi	nud		V	nud
       	küsi=nu	d		S	pl n
       	küsi=nud	0		A	
       	küsi=nud	0		A	sg n
       	küsi=nud	d		A	pl n
:	:			Z	
mispärast	mis_pärast	0		D	
oled	ole	d		V	d
sa	sina	0		P	sg n
minu	mina	0		P	sg g
seda	see	da		P	sg p
juttu	jutt	0		S	adt
     	jutt	0		S	sg p
minu	mina	0		P	sg g
peale	pea	le		S	sg all
     	peale	0		D	
     	peale	0		K	
rääkinud	rääki	nud		V	nud
        	rääki=nu	d		S	pl n
        	rääki=nud	0		A	
        	rääki=nud	0		A	sg n
        	rääki=nud	d		A	pl n
,	,			Z	
et	et	0		J	
minna	mine	a		V	da
paruni	parun	0		S	sg g
karja	kari	0		S	adt
     	kari	0		S	sg g
     	kari	0		S	sg p
tüdruku	tüdruk	0		S	sg g
juures	juur	s		S	sg in
      	juures	0		D	
      	juures	0		K	
olen	ole	n		V	n
käinud	käi	nud		V	nud
      	käi=nud	0		A	
      	käi=nud	0		A	sg n
      	käi=nud	d		A	pl n
      	käinu	d		S	pl n
ja	ja	0		J	
seal	seal	0		D	
    	siga	l		A	sg ad
    	siga	l		S	sg ad
joobnud	joobnu	d		S	pl n
       	joobnud	0		A	
       	joobnud	0		A	sg n
       	joobnud	d		A	pl n
peaga	pea	ga		S	sg kom
palju	palju	0		D	
     	palju	0		P	sg g
     	palju	0		P	sg n
lärmi	lärm	0		S	adt
     	lärm	0		S	sg g
     	lärm	0		S	sg p
teinud	tege	nud		V	nud
      	tei=nud	0		A	
      	tei=nud	0		A	sg n
      	tei=nud	d		A	pl n
      	teinu	d		S	pl n
?	?			Z	
tema	tema	0		P	sg g
    	tema	0		P	sg n
küsinud	küsi	nud		V	nud
       	küsi=nu	d		S	pl n
       	küsi=nud	0		A	
       	küsi=nud	0		A	sg n
       	küsi=nud	d		A	pl n
:	:			Z	
kelle	kes	0		P	pl g
     	kes	0		P	sg g
vastu	vastu	0		D	
     	vastu	0		K	
ma	mina	0		P	sg n
siis	siis	0		D	
    	siis	0		J	
seda	see	da		P	sg p
olen	ole	n		V	n
rääkinud	rääki	nud		V	nud
        	rääki=nu	d		S	pl n
        	rääki=nud	0		A	
        	rääki=nud	0		A	sg n
        	rääki=nud	d		A	pl n
?	?			Z	
sinud	####				
on	ole	0		V	b
  	ole	0		V	vad
vist	vist	0		S	sg n
    	vist	0		D	
kegi	####				
narrinud	narri	nud		V	nud
        	narri=nu	d		S	pl n
        	narri=nud	0		A	
        	narri=nud	0		A	sg n
        	narri=nud	d		A	pl n
ja	ja	0		J	
joobnud	joobnu	d		S	pl n
       	joobnud	0		A	
       	joobnud	0		A	sg n
       	joobnud	d		A	pl n
peaga	pea	ga		S	sg kom
arvad	arva	d		V	d
sa	sina	0		P	sg n
seda	see	da		P	sg p
tõe	tõde	0		S	sg g
   	tõsi	0		S	sg g
olevat	ole	vat		V	vat
      	olev	t		A	sg p
      	olev	t		S	sg p
.	.			Z	
Minna	Minna	0		H	sg g
     	mine	a		V	da
     	Minna	0		H	sg n
pole	ole	0		V	neg o
sinnu	####				
peale	pea	le		S	sg all
     	peale	0		D	
     	peale	0		K	
mingisugust	mingi_sugune	t		P	sg p
rääkinud	rääki	nud		V	nud
        	rääki=nu	d		S	pl n
        	rääki=nud	0		A	
        	rääki=nud	0		A	sg n
        	rääki=nud	d		A	pl n
,	,			Z	
ei	ei	0		D	
  	ei	0		V	neg
kellegi	keegi	gi		P	sg g
vastu	vastu	0		D	
     	vastu	0		K	
.	.			Z	
mine	mine	0		V	o
aga	aga	0		J	
koju	kodu	0		S	adt
ja	ja	0		J	
heida	heit	0		V	o
ennast	ise	t		P	sg p
maga	maga	0		V	o
.	.			Z	
siin	siin	0		D	
    	siin	0		S	sg n
ei	ei	0		D	
  	ei	0		V	neg
tohi	tohti	0		V	o
kegi	####				
öö	öö	0		S	sg g
  	öö	0		S	sg n
ajal	aeg	l		S	sg ad
    	ajal	0		K	
tulla	tule	a		V	da
kära	kära	0		S	sg g
    	kära	0		V	o
    	kära	0		S	sg n
    	kära	0		S	sg p
tegema	tege	ma		V	ma
.	.			Z	
et	et	0		J	
aga	aga	0		J	
Peeter	Peeter	0		H	sg n
Ula	ula	0		D	
   	ula	0		V	o
veel	veel	0		D	
    	vesi	l		S	sg ad
enam	enam	0		C	sg n
    	enam	0		D	
käratsema	käratse	ma		V	ma
ja	ja	0		J	
tema	tema	0		P	sg g
    	tema	0		P	sg n
rindu	rind	u		S	pl p
     	rindu	0		D	
kinni	kinni	0		D	
hakanud	hakka	nud		V	nud
       	haka=nu	d		S	pl n
       	haka=nud	0		A	
       	haka=nud	0		A	sg n
       	haka=nud	d		A	pl n
,	,			Z	
on	ole	0		V	b
  	ole	0		V	vad
teine	teine	0		O	sg n
     	teine	0		P	sg n
vahimees	vahi_mees	0		S	sg n
Jüri	Jüri	0		H	sg g
    	Jüri	0		H	sg n
kivi	kivi	0		S	sg g
    	kivi	0		S	sg n
    	kivi	0		S	sg p
ka	ka	0		D	
sinna	sinna	0		D	
tulnud	tul=nud	0		A	
      	tul=nud	0		A	sg n
      	tul=nud	d		A	pl n
      	tule	nud		V	nud
      	tulnu	d		S	pl n
ja	ja	0		J	
et	et	0		J	
mu	mina	0		P	sg g
nõu	nõu	0		S	sg g
   	nõu	0		S	sg n
   	nõu	0		S	sg p
pole	ole	0		V	neg o
aidanud	aita	nud		V	nud
       	aida=nu	d		S	pl n
       	aida=nud	0		A	
       	aida=nud	0		A	sg n
       	aida=nud	d		A	pl n
,	,			Z	
on	ole	0		V	b
  	ole	0		V	vad
nad	tema	d		P	pl n
teda	tema	da		P	sg p
ööseks	ööseks	0		D	
vangi	vang	0		S	adt
     	vang	0		S	sg g
     	vang	0		S	sg p
kambri	kamber	0		S	sg g
kinni	kinni	0		D	
pannud	pan=nu	d		S	pl n
      	pan=nud	0		A	
      	pan=nud	0		A	sg n
      	pan=nud	d		A	pl n
      	pane	nud		V	nud
.	.			Z	
kinnipannemise	####				
juures	juur	s		S	sg in
      	juures	0		D	
      	juures	0		K	
on	ole	0		V	b
  	ole	0		V	vad
ta	tema	0		P	sg g
  	tema	0		P	sg n
kõvasti	kõvasti	0		D	
vastu	vastu	0		D	
     	vastu	0		K	
pannud	pan=nu	d		S	pl n
      	pan=nud	0		A	
      	pan=nud	0		A	sg n
      	pan=nud	d		A	pl n
      	pane	nud		V	nud
ja	ja	0		J	
Jüri	Jüri	0		H	sg g
    	Jüri	0		H	sg n
kivit	####				
käkkistanud	####				
ja	ja	0		J	
ta	tema	0		P	sg g
  	tema	0		P	sg n
kurkus	####				
kinni	kinni	0		D	
olnud	ol=nud	0		A	
     	ol=nud	0		A	sg n
     	ol=nud	d		A	pl n
     	ole	nud		V	nud
     	olnu	d		S	pl n
.	.			Z	
Peeter	Peeter	0		H	sg n
Ula	ula	0		D	
   	ula	0		V	o
astus	astu	s		V	s
ette	ette	0		D	
    	ette	0		K	
    	esi	tte		S	adt
,	,			Z	
sai	saa	i		V	s
   	sai	0		S	sg n
tal	tema	l		P	sg ad
esiti	esiti	0		D	
see	see	0		P	sg n
kaebus	kaebus	0		S	sg n
ette	ette	0		D	
    	ette	0		K	
    	esi	tte		S	adt
pandud	pan=du	d		S	pl n
      	pan=dud	0		A	
      	pan=dud	0		A	sg n
      	pan=dud	d		A	pl n
      	pane	dud		V	tud
,	,			Z	
siis	siis	0		D	
    	siis	0		J	
rääkis	rääki	s		V	s
tema	tema	0		P	sg g
    	tema	0		P	sg n
välja	välja	0		D	
     	välja	0		V	o
     	väli	0		S	adt
     	väli	0		S	sg g
     	väli	0		S	sg p
,	,			Z	
et	et	0		J	
Johann	Johann	0		H	sg n
Sild	sild	0		S	sg n
on	ole	0		V	b
  	ole	0		V	vad
temale	tema	le		P	sg all
rääkinud	rääki	nud		V	nud
        	rääki=nu	d		S	pl n
        	rääki=nud	0		A	
        	rääki=nud	0		A	sg n
        	rääki=nud	d		A	pl n
,	,			Z	
et	et	0		J	
Peeter	Peeter	0		H	sg n
veanes	####				
niisugust	nii_sugune	t		P	sg p
juttu	jutt	0		S	adt
     	jutt	0		S	sg p
tema	tema	0		P	sg g
    	tema	0		P	sg n
peale	pea	le		S	sg all
     	peale	0		D	
     	peale	0		K	
Joh	####				
.	.			Z	
Sild	sild	0		S	sg n
vastu	vastu	0		D	
     	vastu	0		K	
rääkinud	rääki	nud		V	nud
        	rääki=nu	d		S	pl n
        	rääki=nud	0		A	
        	rääki=nud	0		A	sg n
        	rääki=nud	d		A	pl n
.	.			Z	
tema	tema	0		P	sg g
    	tema	0		P	sg n
läinud	läinu	d		S	pl n
      	läinud	0		A	
      	läinud	0		A	sg n
      	läinud	d		A	pl n
      	mine	nud		V	nud
nimetatud	nimeta	tud		V	tud
         	nimetatu	d		S	pl n
         	nimetatud	0		A	
         	nimetatud	0		A	sg n
         	nimetatud	d		A	pl n
päeva	päev	0		S	adt
     	päev	0		S	sg g
     	päev	0		S	sg p
õhtul	õhtu	l		S	sg ad
Peeter	Peeter	0		H	sg n
veanes	####				
juurde	juur	de		S	adt
      	juurde	0		D	
      	juurde	0		K	
seda	see	da		P	sg p
asja	asi	0		S	adt
    	asi	0		S	sg g
    	asi	0		S	sg p
õiendama	õienda	ma		V	ma
ja	ja	0		J	
järelkuulama	järel_kuula	ma		V	ma
,	,			Z	
seal	seal	0		D	
    	siga	l		A	sg ad
    	siga	l		S	sg ad
saanud	saa	nud		V	nud
      	saa=nud	0		A	
      	saa=nud	0		A	sg n
      	saa=nud	d		A	pl n
      	saanu	d		S	pl n
Peeter	Peeter	0		H	sg n
veanes	####				
tema	tema	0		P	sg g
    	tema	0		P	sg n
peale	pea	le		S	sg all
     	peale	0		D	
     	peale	0		K	
pahaseks	pahane	ks		A	sg tr
ja	ja	0		J	
et	et	0		J	
tema	tema	0		P	sg g
    	tema	0		P	sg n
ka	ka	0		D	
vähe	vähe	0		D	
joobnud	joobnu	d		S	pl n
       	joobnud	0		A	
       	joobnud	0		A	sg n
       	joobnud	d		A	pl n
olnud	ol=nud	0		A	
     	ol=nud	0		A	sg n
     	ol=nud	d		A	pl n
     	ole	nud		V	nud
     	olnu	d		S	pl n
,	,			Z	
pannud	pan=nu	d		S	pl n
      	pan=nud	0		A	
      	pan=nud	0		A	sg n
      	pan=nud	d		A	pl n
      	pane	nud		V	nud
vahimehed	vahi_mees	d		S	pl n
Jüri	Jüri	0		H	sg g
    	Jüri	0		H	sg n
kivi	kivi	0		S	sg g
    	kivi	0		S	sg n
    	kivi	0		S	sg p
ja	ja	0		J	
Peeter	Peeter	0		H	sg n
veanes	####				
teda	tema	da		P	sg p
seks	see	ks		P	sg tr
    	seks	0		S	sg n
ööks	öö	ks		S	sg tr
kinni	kinni	0		D	
istuma	istu	ma		V	ma
.	.			Z	
Peeter	Peeter	0		H	sg n
Ula	ula	0		D	
   	ula	0		V	o
kaebab	kaeba	b		V	b
ka	ka	0		D	
,	,			Z	
et	et	0		J	
temal	tema	l		P	sg ad
10	10	0		N	?
kop	kop	0		Y	?
.	.			Z	
ja	ja	0		J	
üks	üks	0		N	sg n
   	üks	0		P	sg n
nuga	nuga	0		S	sg n
    	nuga	0		S	sg p
taskus	tasku	s		S	sg in
olnud	ol=nud	0		A	
     	ol=nud	0		A	sg n
     	ol=nud	d		A	pl n
     	ole	nud		V	nud
     	olnu	d		S	pl n
ja	ja	0		J	
olla	ole	a		V	da
ta	tema	0		P	sg g
  	tema	0		P	sg n
juurest	juur	st		S	sg el
       	juurest	0		K	
ärakadunud	ära_kadunu	d		S	pl n
          	ära_kadunud	0		A	
          	ära_kadunud	0		A	sg n
          	ära_kadunud	d		A	pl n
.	.			Z	
arvab	arva	b		V	b
,	,			Z	
kui	kui	0		D	
   	kui	0		J	
vahimehed	vahi_mees	d		S	pl n
teda	tema	da		P	sg p
kinni	kinni	0		D	
pannud	pan=nu	d		S	pl n
      	pan=nud	0		A	
      	pan=nud	0		A	sg n
      	pan=nud	d		A	pl n
      	pane	nud		V	nud
,	,			Z	
nad	tema	d		P	pl n
siis	siis	0		D	
    	siis	0		J	
neid	neid	0		S	sg n
    	see	d		P	pl p
    	tema	d		P	pl p
tema	tema	0		P	sg g
    	tema	0		P	sg n
juurest	juur	st		S	sg el
       	juurest	0		K	
on	ole	0		V	b
  	ole	0		V	vad
äravõtnud	ära_võt=nu	d		S	pl n
         	ära_võt=nud	0		A	
         	ära_võt=nud	0		A	sg n
         	ära_võt=nud	d		A	pl n
.	.			Z	
said	saa	id		V	sid
nad	tema	d		P	pl n
pärast	pära	st		S	sg el
      	pärane	t		A	sg p
      	pärast	0		D	
      	pärast	0		K	
suud	suu	d		S	pl n
    	suu	d		S	sg p
suud	suu	d		S	pl n
    	suu	d		S	sg p
vastu	vastu	0		D	
     	vastu	0		K	
pandud	pan=du	d		S	pl n
      	pan=dud	0		A	
      	pan=dud	0		A	sg n
      	pan=dud	d		A	pl n
      	pane	dud		V	tud
,	,			Z	
siis	siis	0		D	
    	siis	0		J	
ei	ei	0		D	
  	ei	0		V	neg
rääkinud	rääki	nud		V	nud
        	rääki=nu	d		S	pl n
        	rääki=nud	0		A	
        	rääki=nud	0		A	sg n
        	rääki=nud	d		A	pl n
Peeter	Peeter	0		H	sg n
Ula	ula	0		D	
   	ula	0		V	o
midagi	miski	dagi		P	sg p
enam	enam	0		C	sg n
    	enam	0		D	
oma	oma	0		A	sg g
   	oma	0		D	
   	oma	0		P	sg g
   	oma	0		S	sg g
   	oma	0		V	o
   	oma	0		A	sg n
   	oma	0		A	sg p
   	oma	0		P	sg n
   	oma	0		P	sg p
   	oma	0		S	sg n
   	oma	0		S	sg p
10	10	0		N	?
kop	kop	0		Y	?
.	.			Z	
ja	ja	0		J	
nooast	####				
,	,			Z	
vaid	vaid	0		D	
    	vaid	0		J	
kõik	kõik	0		P	pl n
    	kõik	0		S	sg n
    	kõik	0		P	sg n
jäi	jää	i		V	s
nõnda	nõnda	0		D	
,	,			Z	
kui	kui	0		D	
   	kui	0		J	
Peeter	Peeter	0		H	sg n
veanes	####				
esiti	esiti	0		D	
tunnistas	tunnista	s		V	s
.	.			Z	
kohus	kohu	s		V	s
     	kohus	0		S	sg n
mõistis	mõist	is		V	s
:	:			Z	
et	et	0		J	
Peeter	Peeter	0		H	sg n
Ula	ula	0		D	
   	ula	0		V	o
istub	istu	b		V	b
48	48	0		N	?
tundi	tund	0		S	adt
     	tund	0		S	sg p
vangis	vang	s		S	sg in
,	,			Z	
seeest	####				
et	et	0		J	
ta	tema	0		P	sg g
  	tema	0		P	sg n
vahimene	####				
nende	see	de		P	pl g
     	tema	de		P	pl g
ametis	amet	s		S	sg in
läinud	läinu	d		S	pl n
      	läinud	0		A	
      	läinud	0		A	sg n
      	läinud	d		A	pl n
      	mine	nud		V	nud
tülitama	tülita	ma		V	ma
.	.			Z	
