ette	ette	0		D	
    	ette	0		K	
    	esi	tte		S	adt
astus	astu	s		V	s
Joesust	####				
Kaarel	Kaarel	0		H	sg n
      	kaar	l		S	sg ad
      	kaarel	0		S	sg n
Aru	aru	0		S	sg g
   	aru	0		S	sg n
   	aru	0		S	sg p
ja	ja	0		J	
kaebas	kaeba	s		V	s
et	et	0		J	
Jüri	Jüri	0		H	sg g
    	Jüri	0		H	sg n
Mikk	Mikk	0		H	sg n
teda	tema	da		P	sg p
lõõnud	####				
;	;			Z	
ta	tema	0		P	sg g
  	tema	0		P	sg n
näitas	näita	s		V	s
ooma	####				
pead	pea	d		S	pl n
    	pida	d		V	d
    	pea	d		S	sg p
et	et	0		J	
se	####				
ka	ka	0		D	
lõhki	lõhki	0		D	
oli	ole	i		V	s
ja	ja	0		J	
verd	veri	0		S	sg p
oli	ole	i		V	s
jooksnud	jooks	nud		V	nud
        	jooks=nu	d		S	pl n
        	jooks=nud	0		A	
        	jooks=nud	0		A	sg n
        	jooks=nud	d		A	pl n
.	.			Z	
ette	ette	0		D	
    	ette	0		K	
    	esi	tte		S	adt
astus	astu	s		V	s
Jüri	Jüri	0		H	sg g
    	Jüri	0		H	sg n
Mik	####				
ja	ja	0		J	
ütles	ütle	s		V	s
välja	välja	0		D	
     	välja	0		V	o
     	väli	0		S	adt
     	väli	0		S	sg g
     	väli	0		S	sg p
:	:			Z	
Mina	mina	0		P	sg n
    	mina	0		S	sg g
    	mina	0		S	sg n
    	mina	0		S	sg p
lõin	loo	in		V	sin
    	löö	in		V	sin
Kaarel	Kaarel	0		H	sg n
      	kaar	l		S	sg ad
      	kaarel	0		S	sg n
Arud	aru	d		S	pl n
kül	####				
aga	aga	0		J	
tema	tema	0		P	sg g
    	tema	0		P	sg n
kippus	kippu	s		V	s
minu	mina	0		P	sg g
kalale	kala	le		S	sg all
see	see	0		P	sg n
läbi	läbi	0		D	
    	läbi	0		K	
    	läbi	0		V	o
tuli	tuli	0		S	sg n
    	tule	i		V	s
meile	meil	e		S	pl p
     	mina	le		P	pl all
see	see	0		P	sg n
riid	riid	0		S	sg n
et	et	0		J	
tema	tema	0		P	sg g
    	tema	0		P	sg n
mind	mina	d		P	sg p
enne	enne	0		D	
    	enne	0		K	
    	enne	0		S	sg n
lüa	####				
tahtis	taht	is		V	s
.	.			Z	
Nemad	tema	d		P	pl n
sait	sait	0		S	sg n
suu	suu	0		S	sg g
   	suu	0		S	sg n
suud	suu	d		S	pl n
    	suu	d		S	sg p
vastu	vastu	0		D	
     	vastu	0		K	
ette	ette	0		D	
    	ette	0		K	
    	esi	tte		S	adt
kutsutud	kutsu	tud		V	tud
        	kutsutu	d		S	pl n
        	kutsutud	0		A	
        	kutsutud	0		A	sg n
        	kutsutud	d		A	pl n
ja	ja	0		J	
lepisid	####				
sellega	see	ga		P	sg kom
et	et	0		J	
Jüri	Jüri	0		H	sg g
    	Jüri	0		H	sg n
Mikkas	####				
Kaarel	Kaarel	0		H	sg n
      	kaar	l		S	sg ad
      	kaarel	0		S	sg n
Arule	aru	le		S	sg all
5	5	0		N	?
rubla	rubla	0		S	sg g
     	rubla	0		S	sg n
     	rubla	0		S	sg p
maksis	maks	is		V	s
      	maksi	s		S	sg in
.	.			Z	
kohus	kohu	s		V	s
     	kohus	0		S	sg n
mõistis	mõist	is		V	s
et	et	0		J	
Jüri	Jüri	0		H	sg g
    	Jüri	0		H	sg n
Mikkas	####				
peab	pida	b		V	b
valla	vald	0		S	sg g
     	valla	0		D	
laeka	laegas	0		S	adt
     	laegas	0		S	sg g
trahvi	trahv	0		S	adt
      	trahv	0		S	sg g
      	trahvi	0		V	o
      	trahv	0		S	sg p
maksma	maks	ma		V	ma
1	1	0		N	?
rubla	rubla	0		S	sg g
     	rubla	0		S	sg n
     	rubla	0		S	sg p
talurahva	talu_rahvas	0		S	sg g
s	s	0		Y	?
.	.			Z	
§	§	0		Y	?
1270	1270	0		N	?
sellepärsast	####				
et	et	0		J	
ooma	####				
voliga	voli	ga		S	sg kom
teise	teine	0		O	adt
     	teine	0		O	sg g
     	teine	0		P	adt
     	teine	0		P	sg g
vastu	vastu	0		D	
     	vastu	0		K	
hakas	####				
ja	ja	0		J	
teda	tema	da		P	sg p
lõõnud	####				
ja	ja	0		J	
et	et	0		J	
ka	ka	0		D	
Kaarel	Kaarel	0		H	sg n
      	kaar	l		S	sg ad
      	kaarel	0		S	sg n
Arul	aru	l		S	sg ad
sest	see	st		P	sg el
    	sest	0		J	
mingisugust	mingi_sugune	t		P	sg p
jäädavad	jäädav	d		A	pl n
viga	viga	0		S	sg n
    	viga	0		S	sg p
ei	ei	0		D	
  	ei	0		V	neg
ole	ole	0		V	o
jäänud	jää	nud		V	nud
      	jäänu	d		S	pl n
      	jäänud	0		A	
      	jäänud	0		A	sg n
      	jäänud	d		A	pl n
kohtuvanem	kohtu_vanem	0		C	sg n
          	kohtu_vanem	0		S	sg n
Jaan	Jaan	0		H	sg n
    	jaan	0		S	sg n
    	jaan	0		Y	?
Jünter	####				
kõrvamees	kõrva_mees	0		S	sg n
I	I	0		O	?
 	I	0		Y	?
 	j	0		Y	?
Kustas	Kusta	s		H	sg in
      	Kustas	0		H	sg n
Neider	####				
XXX	XXX	0		O	?
   	XXX	0		Y	?
kõrvamees	kõrva_mees	0		S	sg n
II	II	0		O	?
  	II	0		Y	?
  	jj	0		Y	?
Jaan	Jaan	0		H	sg n
    	jaan	0		S	sg n
    	jaan	0		Y	?
Lamp	lamp	0		A	sg n
    	lamp	0		S	sg n
XXX	XXX	0		O	?
   	XXX	0		Y	?
kirjutaja	kirjutaja	0		S	sg g
         	kirjutaja	0		S	sg n
M	M	0		O	?
 	M	0		Y	?
Kentmann	####				
Raha	raha	0		S	sg g
    	raha	0		S	sg n
    	raha	0		S	sg p
trahvi	trahv	0		S	adt
      	trahv	0		S	sg g
      	trahvi	0		V	o
      	trahv	0		S	sg p
100	100	0		N	?
kop	kop	0		Y	?
makstud	maks	tud		V	tud
       	maks=tu	d		S	pl n
       	maks=tud	0		A	
       	maks=tud	0		A	sg n
       	maks=tud	d		A	pl n
.	.			Z	
