tuli	tuli	0		S	sg n
    	tule	i		V	s
kohtu	kohtu	0		V	o
     	kohus	0		S	sg g
ette	ette	0		D	
    	ette	0		K	
    	esi	tte		S	adt
Jaagu	Jaak	0		H	sg g
     	jaak	0		S	sg g
Andrus	Andrus	0		H	sg n
Kuriisu	kuri_isu	0		S	sg g
       	kuri_isu	0		S	sg n
       	kuri_isu	0		S	sg p
Uuemõisa	uue_mõis	0		S	sg g
kogukonnast	kogukond	st		S	sg el
,	,			Z	
ja	ja	0		J	
kaebas	kaeba	s		V	s
et	et	0		J	
minna	mine	a		V	da
ostsin	ost	sin		V	sin
Madis	Madis	0		H	sg n
     	madis	0		S	sg n
Nie	####				
käest	käest	0		K	
     	käsi	st		S	sg el
üks	üks	0		N	sg n
   	üks	0		P	sg n
hobune	hobune	0		S	sg n
,	,			Z	
mis	mis	0		P	pl n
   	mis	0		P	sg n
kaubeltud	####				
sai	saa	i		V	s
   	sai	0		S	sg n
13ne	13	0		N	sg g
rublaga	rubla	ga		S	sg kom
ja	ja	0		J	
4	4	0		N	?
rubla	rubla	0		S	sg g
     	rubla	0		S	sg n
     	rubla	0		S	sg p
antsin	####				
minna	mine	a		V	da
kätte	kätte	0		K	
     	käsi	tte		S	adt
ja	ja	0		J	
9	9	0		N	?
rubla	rubla	0		S	sg g
     	rubla	0		S	sg n
     	rubla	0		S	sg p
jää	jää	0		S	sg g
   	jää	0		V	o
   	jää	0		S	sg n
veel	veel	0		D	
    	vesi	l		S	sg ad
võlgu	võlg	u		S	pl p
     	võlgu	0		D	
,	,			Z	
ja	ja	0		J	
se	####				
hoboone	####				
oli	ole	i		V	s
minu	mina	0		P	sg g
käes	käes	0		K	
    	käsi	s		S	sg in
5	5	0		N	?
nadalad	####				
pärast	pära	st		S	sg el
      	pärane	t		A	sg p
      	pärast	0		D	
      	pärast	0		K	
ostsmist	####				
;	;			Z	
ja	ja	0		J	
tööd	töö	d		S	pl n
    	töö	d		S	sg p
ma	mina	0		P	sg n
ei	ei	0		D	
  	ei	0		V	neg
teinud	tege	nud		V	nud
      	tei=nud	0		A	
      	tei=nud	0		A	sg n
      	tei=nud	d		A	pl n
      	teinu	d		S	pl n
selle	see	0		P	sg g
     	sell	e		S	pl p
aiaga	aed	ga		S	sg kom
mitte	mitte	0		D	
enam	enam	0		C	sg n
    	enam	0		D	
kui	kui	0		D	
   	kui	0		J	
:	:			Z	
2	2	0		N	?
koormad	koorem	d		S	pl n
       	koorma	d		V	d
saamblud	####				
tõin	too	in		V	sin
metsast	mets	st		S	sg el
       	metsane	t		A	sg p
ja	ja	0		J	
2	2	0		N	?
päeva	päev	0		S	adt
     	päev	0		S	sg g
     	päev	0		S	sg p
tegin	tege	in		V	sin
odra	oder	0		S	sg g
küllvi	####				
,	,			Z	
ja	ja	0		J	
et	et	0		J	
Madis	Madis	0		H	sg n
     	madis	0		S	sg n
Nie	####				
käis	käi	s		V	s
    	käis	0		S	sg n
oma	oma	0		A	sg g
   	oma	0		D	
   	oma	0		P	sg g
   	oma	0		S	sg g
   	oma	0		V	o
   	oma	0		A	sg n
   	oma	0		A	sg p
   	oma	0		P	sg n
   	oma	0		P	sg p
   	oma	0		S	sg n
   	oma	0		S	sg p
raha	raha	0		S	sg g
    	raha	0		S	sg n
    	raha	0		S	sg p
kätte	kätte	0		K	
     	käsi	tte		S	adt
saamas	saa	mas		V	mas
      	saam	s		S	sg in
,	,			Z	
ja	ja	0		J	
mul	mina	l		P	sg ad
ei	ei	0		D	
  	ei	0		V	neg
olnud	ol=nud	0		A	
     	ol=nud	0		A	sg n
     	ol=nud	d		A	pl n
     	ole	nud		V	nud
     	olnu	d		S	pl n
raha	raha	0		S	sg g
    	raha	0		S	sg n
    	raha	0		S	sg p
anda	and	a		V	da
mitte	mitte	0		D	
,	,			Z	
sellepärast	selle_pärast	0		D	
läkkitasin	####				
hobust	hobu	st		S	sg el
      	hobune	t		S	sg p
Madise	Madis	0		H	sg g
      	madis	0		S	sg g
kätte	kätte	0		K	
     	käsi	tte		S	adt
;	;			Z	
ja	ja	0		J	
nüüd	nüüd	0		D	
ta	tema	0		P	sg g
  	tema	0		P	sg n
ei	ei	0		D	
  	ei	0		V	neg
anna	and	0		V	o
    	anna	0		S	sg g
    	anna	0		S	sg n
enam	enam	0		C	sg n
    	enam	0		D	
minu	mina	0		P	sg g
4	4	0		N	?
rubl	####				
.	.			Z	
kätte	kätte	0		K	
     	käsi	tte		S	adt
mitte	mitte	0		D	
.	.			Z	
kässo	####				
mööda	mööda	0		A	
     	mööda	0		D	
     	mööda	0		K	
tuli	tuli	0		S	sg n
    	tule	i		V	s
Madis	Madis	0		H	sg n
     	madis	0		S	sg n
Nie	####				
kohtu	kohtu	0		V	o
     	kohus	0		S	sg g
ette	ette	0		D	
    	ette	0		K	
    	esi	tte		S	adt
ja	ja	0		J	
tunnistas	tunnista	s		V	s
,	,			Z	
minna	mine	a		V	da
ei	ei	0		D	
  	ei	0		V	neg
võind	####				
mitte	mitte	0		D	
se	####				
raha	raha	0		S	sg g
    	raha	0		S	sg n
    	raha	0		S	sg p
kätte	kätte	0		K	
     	käsi	tte		S	adt
anda	and	a		V	da
,	,			Z	
ses	see	s		P	sg in
,	,			Z	
et	et	0		J	
hobune	hobune	0		S	sg n
oli	ole	i		V	s
õige	õige	0		A	sg g
    	õige	0		A	sg n
    	õige	0		D	
lahjaks	lahja	ks		A	sg tr
sõiidetud	####				
ja	ja	0		J	
meie	mina	0		P	pl g
    	mina	0		P	pl n
kauplemise	kauplemine	0		S	sg g
aeg	aeg	0		S	sg n
oli	ole	i		V	s
juba	juba	0		D	
kaugel	kauge	l		A	sg ad
      	kaugel	0		D	
mööda	mööda	0		A	
     	mööda	0		D	
     	mööda	0		K	
ja	ja	0		J	
hobust	hobu	st		S	sg el
      	hobune	t		S	sg p
ei	ei	0		D	
  	ei	0		V	neg
oleks	ole	ks		V	ks
ma	mina	0		P	sg n
ka	ka	0		D	
mitte	mitte	0		D	
muidu	muidu	0		D	
vastu	vastu	0		D	
     	vastu	0		K	
võtnud	võt	nud		V	nud
      	võt=nu	d		S	pl n
      	võt=nud	0		A	
      	võt=nud	0		A	sg n
      	võt=nud	d		A	pl n
;	;			Z	
aga	aga	0		J	
sellepärast	selle_pärast	0		D	
,	,			Z	
et	et	0		J	
mul	mina	l		P	sg ad
veel	veel	0		D	
    	vesi	l		S	sg ad
9	9	0		N	?
rubla	rubla	0		S	sg g
     	rubla	0		S	sg n
     	rubla	0		S	sg p
saada	saa	da		V	da
     	saat	0		V	o
     	saa	da		V	ta
oli	ole	i		V	s
.	.			Z	
kohtu	kohtu	0		V	o
     	kohus	0		S	sg g
otsus	otsus	0		S	sg n
on	ole	0		V	b
  	ole	0		V	vad
nõnda	nõnda	0		D	
:	:			Z	
et	et	0		J	
Andrus	Andrus	0		H	sg n
Kurrso	####				
enam	enam	0		C	sg n
    	enam	0		D	
seda	see	da		P	sg p
hobust	hobu	st		S	sg el
      	hobune	t		S	sg p
ei	ei	0		D	
  	ei	0		V	neg
tahtnud	taht	nud		V	nud
       	taht=nu	d		S	pl n
       	taht=nud	0		A	
       	taht=nud	0		A	sg n
       	taht=nud	d		A	pl n
,	,			Z	
sellepärast	selle_pärast	0		D	
peab	pida	b		V	b
ta	tema	0		P	sg g
  	tema	0		P	sg n
siis	siis	0		D	
    	siis	0		J	
jälle	jälle	0		D	
Madis	Madis	0		H	sg n
     	madis	0		S	sg n
Nie	####				
omaks	oma	ks		A	sg tr
     	oma	ks		P	sg tr
     	oma	ks		S	sg tr
     	oma	ks		V	ks
jäma	####				
ja	ja	0		J	
ka	ka	0		D	
se	####				
4	4	0		N	?
rubla	rubla	0		S	sg g
     	rubla	0		S	sg n
     	rubla	0		S	sg p
raha	raha	0		S	sg g
    	raha	0		S	sg n
    	raha	0		S	sg p
.	.			Z	
