Peeter	Peeter	0		H	sg n
Leiger	####				
astus	astu	s		V	s
ette	ette	0		D	
    	ette	0		K	
    	esi	tte		S	adt
ja	ja	0		J	
kaebab	kaeba	b		V	b
,	,			Z	
et	et	0		J	
Mihkel	Mihkel	0		H	sg n
      	mihkel	0		A	sg n
      	mihkel	0		S	sg n
Tam	####				
on	ole	0		V	b
  	ole	0		V	vad
ikka	ikka	0		D	
    	iga	0		S	adt
temale	tema	le		P	sg all
iga	iga	0		P	sg g
   	iga	0		P	sg n
   	iga	0		P	sg p
   	iga	0		S	sg n
   	iga	0		S	sg p
aasta	aasta	0		S	sg g
     	aasta	0		S	sg n
maatöö	maa_töö	0		S	sg g
      	maa_töö	0		S	sg n
teinud	tege	nud		V	nud
      	tei=nud	0		A	
      	tei=nud	0		A	sg n
      	tei=nud	d		A	pl n
      	teinu	d		S	pl n
oma	oma	0		A	sg g
   	oma	0		D	
   	oma	0		P	sg g
   	oma	0		S	sg g
   	oma	0		V	o
   	oma	0		A	sg n
   	oma	0		A	sg p
   	oma	0		P	sg n
   	oma	0		P	sg p
   	oma	0		S	sg n
   	oma	0		S	sg p
hobusega	hobune	ga		S	sg kom
ja	ja	0		J	
selle	see	0		P	sg g
     	sell	e		S	pl p
töö	töö	0		S	sg g
   	töö	0		S	sg n
eest	eest	0		D	
    	eest	0		K	
    	esi	st		S	sg el
iga	iga	0		P	sg g
   	iga	0		P	sg n
   	iga	0		P	sg p
   	iga	0		S	sg n
   	iga	0		S	sg p
aasta	aasta	0		S	sg g
     	aasta	0		S	sg n
2	2	0		N	?
rub	####				
.	.			Z	
50	50	0		N	?
kop	kop	0		Y	?
.	.			Z	
võtnud	võt	nud		V	nud
      	võt=nu	d		S	pl n
      	võt=nud	0		A	
      	võt=nud	0		A	sg n
      	võt=nud	d		A	pl n
.	.			Z	
Miineval	####				
aastal	aasta	l		S	sg ad
on	ole	0		V	b
  	ole	0		V	vad
tema	tema	0		P	sg g
    	tema	0		P	sg n
aga	aga	0		J	
ise	ise	0		A	
   	ise	0		D	
   	ise	0		P	pl n
   	ise	0		P	sg n
muist	muist	0		P	
     	muu	ist		P	pl el
maad	maa	d		S	pl n
    	maa	d		S	sg p
labidaga	labidas	ga		S	sg kom
tõstnud	tõst	nud		V	nud
       	tõst=nu	d		S	pl n
       	tõst=nud	0		A	
       	tõst=nud	0		A	sg n
       	tõst=nud	d		A	pl n
ja	ja	0		J	
sest	see	st		P	sg el
    	sest	0		J	
arvanud	arva	nud		V	nud
       	arva=nu	d		S	pl n
       	arva=nud	0		A	
       	arva=nud	0		A	sg n
       	arva=nud	d		A	pl n
tema	tema	0		P	sg g
    	tema	0		P	sg n
60	60	0		N	?
kop	kop	0		Y	?
.	.			Z	
maha	maha	0		D	
.	.			Z	
M	M	0		O	?
 	M	0		Y	?
.	.			Z	
_	_			Z	
Tam	####				
tahab	taht	b		V	b
aga	aga	0		J	
ikka	ikka	0		D	
    	iga	0		S	adt
nõnda	nõnda	0		D	
piire	piir	e		S	pl p
     	piire	0		S	sg n
saada	saa	da		V	da
     	saat	0		V	o
     	saa	da		V	ta
kui	kui	0		D	
   	kui	0		J	
iga	iga	0		P	sg g
   	iga	0		P	sg n
   	iga	0		P	sg p
   	iga	0		S	sg n
   	iga	0		S	sg p
aasta	aasta	0		S	sg g
     	aasta	0		S	sg n
.	.			Z	
tema	tema	0		P	sg g
    	tema	0		P	sg n
aru	aru	0		S	sg g
   	aru	0		S	sg n
   	aru	0		S	sg p
järel	järel	0		D	
     	järel	0		K	
olnud	ol=nud	0		A	
     	ol=nud	0		A	sg n
     	ol=nud	d		A	pl n
     	ole	nud		V	nud
     	olnu	d		S	pl n
tema	tema	0		P	sg g
    	tema	0		P	sg n
M	M	0		O	?
 	M	0		Y	?
.	.			Z	
_	_			Z	
Tammile	tamm	le		S	sg all
võlga	võlg	0		S	adt
     	võlg	0		S	sg p
see	see	0		P	sg n
mineva	minev	0		A	sg g
aastase	aastane	0		A	sg g
maatöö	maa_töö	0		S	sg g
      	maa_töö	0		S	sg n
eest	eest	0		D	
    	eest	0		K	
    	esi	st		S	sg el
1	1	0		N	?
rub	####				
.	.			Z	
90	90	0		N	?
kop	kop	0		Y	?
.	.			Z	
Miineva	####				
aastase	aastane	0		A	sg g
osaveo	osa_vedu	0		S	sg g
eest	eest	0		D	
    	eest	0		K	
    	esi	st		S	sg el
1	1	0		N	?
rub	####				
.	.			Z	
ja	ja	0		J	
40	40	0		N	?
kop	kop	0		Y	?
.	.			Z	
enne	enne	0		D	
    	enne	0		K	
    	enne	0		S	sg n
mineva	minev	0		A	sg g
aastast	aasta	st		S	sg el
       	aastane	t		A	sg p
võlga	võlg	0		S	adt
     	võlg	0		S	sg p
.	.			Z	
Salukoha	salu_koht	0		S	sg g
3	3	0		N	?
rub	####				
.	.			Z	
30	30	0		N	?
kop	kop	0		Y	?
.	.			Z	
sest	see	st		P	sg el
    	sest	0		J	
on	ole	0		V	b
  	ole	0		V	vad
ta	tema	0		P	sg g
  	tema	0		P	sg n
äramaksnud	ära_maks=nu	d		S	pl n
          	ära_maks=nud	0		A	
          	ära_maks=nud	0		A	sg n
          	ära_maks=nud	d		A	pl n
rahaga	raha	ga		S	sg kom
2	2	0		N	?
rub	####				
.	.			Z	
80	80	0		N	?
kop	kop	0		Y	?
.	.			Z	
ja	ja	0		J	
tööga	töö	ga		S	sg kom
,	,			Z	
kaks	kaks	0		N	sg n
kord	kord	0		D	
    	kord	0		S	sg n
pliiti	pliit	0		S	adt
      	pliit	0		S	sg p
parandanud	paranda	nud		V	nud
          	paranda=nu	d		S	pl n
          	paranda=nud	0		A	
          	paranda=nud	0		A	sg n
          	paranda=nud	d		A	pl n
40	40	0		N	?
kop	kop	0		Y	?
.	.			Z	
võlga	võlg	0		S	adt
     	võlg	0		S	sg p
jäänud	jää	nud		V	nud
      	jäänu	d		S	pl n
      	jäänud	0		A	
      	jäänud	0		A	sg n
      	jäänud	d		A	pl n
10	10	0		N	?
kop	kop	0		Y	?
.	.			Z	
Mih	####				
.	.			Z	
Tamm	tamm	0		S	sg n
peab	pida	b		V	b
aga	aga	0		J	
selle	see	0		P	sg g
     	sell	e		S	pl p
eest	eest	0		D	
    	eest	0		K	
    	esi	st		S	sg el
temal	tema	l		P	sg ad
ühe	üks	0		N	sg g
   	üks	0		P	sg g
   	ühe	0		S	sg n
suure	suur	0		A	sg g
sai	saa	i		V	s
   	sai	0		S	sg n
kinni	kinni	0		D	
,	,			Z	
mis	mis	0		P	pl n
   	mis	0		P	sg n
tema	tema	0		P	sg g
    	tema	0		P	sg n
käest	käest	0		K	
     	käsi	st		S	sg el
võtnud	võt	nud		V	nud
      	võt=nu	d		S	pl n
      	võt=nud	0		A	
      	võt=nud	0		A	sg n
      	võt=nud	d		A	pl n
.	.			Z	
pealesada	####				
on	ole	0		V	b
  	ole	0		V	vad
M	M	0		O	?
 	M	0		Y	?
.	.			Z	
_	_			Z	
Tammil	tamm	l		S	sg ad
iga	iga	0		P	sg g
   	iga	0		P	sg n
   	iga	0		P	sg p
   	iga	0		S	sg n
   	iga	0		S	sg p
aasta	aasta	0		S	sg g
     	aasta	0		S	sg n
1	1	0		N	?
/	/			Z	
2	2	0		N	?
tündert	####				
kartulid	kartul	d		S	pl n
tema	tema	0		P	sg g
    	tema	0		P	sg n
õues	õu	s		S	sg in
    	õues	0		D	
maas	maa	s		S	sg in
    	maas	0		D	
olnud	ol=nud	0		A	
     	ol=nud	0		A	sg n
     	ol=nud	d		A	pl n
     	ole	nud		V	nud
     	olnu	d		S	pl n
,	,			Z	
mis	mis	0		P	pl n
   	mis	0		P	sg n
eest	eest	0		D	
    	eest	0		K	
    	esi	st		S	sg el
ta	tema	0		P	sg g
  	tema	0		P	sg n
temale	tema	le		P	sg all
30	30	0		N	?
kop	kop	0		Y	?
.	.			Z	
aastas	aasta	s		S	sg in
renti	rent	0		S	adt
     	rent	0		S	sg p
maksnud	maks	nud		V	nud
       	maks=nu	d		S	pl n
       	maks=nud	0		A	
       	maks=nud	0		A	sg n
       	maks=nud	d		A	pl n
.	.			Z	
see	see	0		P	sg n
on	ole	0		V	b
  	ole	0		V	vad
veel	veel	0		D	
    	vesi	l		S	sg ad
maksmata	maks	mata		V	mata
        	maks=mata	0		A	
.	.			Z	
seda	see	da		P	sg p
maha	maha	0		D	
arvata	arva	ta		V	da
      	arva	ta		V	ta
      	arvata	0		D	
,	,			Z	
on	ole	0		V	b
  	ole	0		V	vad
temal	tema	l		P	sg ad
veel	veel	0		D	
    	vesi	l		S	sg ad
20	20	0		N	?
kop	kop	0		Y	?
.	.			Z	
M	M	0		O	?
 	M	0		Y	?
.	.			Z	
_	_			Z	
Tammi	tamm	0		S	adt
     	tamm	0		S	sg g
     	tamm	i		S	pl p
     	tamm	0		S	sg p
käest	käest	0		K	
     	käsi	st		S	sg el
saada	saa	da		V	da
     	saat	0		V	o
     	saa	da		V	ta
.	.			Z	
Mihkel	Mihkel	0		H	sg n
      	mihkel	0		A	sg n
      	mihkel	0		S	sg n
Tam	####				
ja	ja	0		J	
ta	tema	0		P	sg g
  	tema	0		P	sg n
naine	naine	0		S	sg n
Ann	Ann	0		H	sg n
astusid	astu	sid		V	sid
ette	ette	0		D	
    	ette	0		K	
    	esi	tte		S	adt
ja	ja	0		J	
sai	saa	i		V	s
   	sai	0		S	sg n
see	see	0		P	sg n
asi	asi	0		S	sg n
   	asi	0		V	o
neil	see	l		P	pl ad
    	tema	l		P	pl ad
ettepandud	ette_pan=du	d		S	pl n
          	ette_pan=dud	0		A	
          	ette_pan=dud	0		A	sg n
          	ette_pan=dud	d		A	pl n
,	,			Z	
rääkisid	rääki	sid		V	sid
välja	välja	0		D	
     	välja	0		V	o
     	väli	0		S	adt
     	väli	0		S	sg g
     	väli	0		S	sg p
,	,			Z	
et	et	0		J	
nemad	tema	d		P	pl n
oma	oma	0		A	sg g
   	oma	0		D	
   	oma	0		P	sg g
   	oma	0		S	sg g
   	oma	0		V	o
   	oma	0		A	sg n
   	oma	0		A	sg p
   	oma	0		P	sg n
   	oma	0		P	sg p
   	oma	0		S	sg n
   	oma	0		S	sg p
hobusega	hobune	ga		S	sg kom
iga	iga	0		P	sg g
   	iga	0		P	sg n
   	iga	0		P	sg p
   	iga	0		S	sg n
   	iga	0		S	sg p
aasta	aasta	0		S	sg g
     	aasta	0		S	sg n
P	P	0		Y	?
.	.			Z	
_	_			Z	
Leigri	####				
maa	maa	0		S	sg g
   	maa	0		S	sg n
töö	töö	0		S	sg g
   	töö	0		S	sg n
teinud	tege	nud		V	nud
      	tei=nud	0		A	
      	tei=nud	0		A	sg n
      	tei=nud	d		A	pl n
      	teinu	d		S	pl n
ka	ka	0		D	
puid	puu	id		S	pl p
vaest	vaag	st		S	sg el
     	vaene	t		A	sg p
     	vaene	t		S	sg p
vedanud	veda	nud		V	nud
       	veda=nu	d		S	pl n
       	veda=nud	0		A	
       	veda=nud	0		A	sg n
       	veda=nud	d		A	pl n
,	,			Z	
aga	aga	0		J	
kindlat	kindel	t		A	sg p
kaupa	kaup	0		S	adt
     	kaup	0		S	sg p
     	kaupa	0		K	
poole	pool	0		N	sg g
     	pool	0		S	sg g
     	pool	e		S	pl p
     	poole	0		K	
     	poole	0		S	sg n
neil	see	l		P	pl ad
    	tema	l		P	pl ad
iial	iial	0		D	
olnud	ol=nud	0		A	
     	ol=nud	0		A	sg n
     	ol=nud	d		A	pl n
     	ole	nud		V	nud
     	olnu	d		S	pl n
.	.			Z	
ühegi	üks	0	gi	N	sg g
     	üks	0	gi	P	sg g
     	ühe	0	gi	S	sg n
aasta	aasta	0		S	sg g
     	aasta	0		S	sg n
poole	pool	0		N	sg g
     	pool	0		S	sg g
     	pool	e		S	pl p
     	poole	0		K	
     	poole	0		S	sg n
P	P	0		Y	?
.	.			Z	
_	_			Z	
Leiger	####				
nende	see	de		P	pl g
     	tema	de		P	pl g
tööd	töö	d		S	pl n
    	töö	d		S	sg p
täiesti	täiesti	0		D	
välja	välja	0		D	
     	välja	0		V	o
     	väli	0		S	adt
     	väli	0		S	sg g
     	väli	0		S	sg p
maksnud	maks	nud		V	nud
       	maks=nu	d		S	pl n
       	maks=nud	0		A	
       	maks=nud	0		A	sg n
       	maks=nud	d		A	pl n
.	.			Z	
mõni	mõni	0		P	sg n
aast	####				
on	ole	0		V	b
  	ole	0		V	vad
nad	tema	d		P	pl n
P	P	0		Y	?
.	.			Z	
_	_			Z	
Leigri	####				
käeest	####				
koorm	####				
heina	hein	0		S	adt
     	hein	0		S	sg g
     	hein	0		S	sg p
saanud	saa	nud		V	nud
      	saa=nud	0		A	
      	saa=nud	0		A	sg n
      	saa=nud	d		A	pl n
      	saanu	d		S	pl n
tasumiseks	tasumine	ks		S	sg tr
,	,			Z	
tänavu	tänavu	0		D	
poole	pool	0		N	sg g
     	pool	0		S	sg g
     	pool	e		S	pl p
     	poole	0		K	
     	poole	0		S	sg n
seda	see	da		P	sg p
ka	ka	0		D	
saanud	saa	nud		V	nud
      	saa=nud	0		A	
      	saa=nud	0		A	sg n
      	saa=nud	d		A	pl n
      	saanu	d		S	pl n
,	,			Z	
nõnda	nõnda	0		D	
olnud	ol=nud	0		A	
     	ol=nud	0		A	sg n
     	ol=nud	d		A	pl n
     	ole	nud		V	nud
     	olnu	d		S	pl n
mineva	minev	0		A	sg g
aastane	aastane	0		A	sg n
töö	töö	0		S	sg g
   	töö	0		S	sg n
veel	veel	0		D	
    	vesi	l		S	sg ad
võlgu	võlg	u		S	pl p
     	võlgu	0		D	
ka	ka	0		D	
sugu	sugu	0		A	
    	sugu	0		D	
    	sugu	0		S	sg n
    	sugu	0		S	sg p
vana	vana	0		A	sg g
    	vana	0		A	sg n
    	vana	0		A	sg p
    	vana	0		S	sg g
    	vana	0		S	sg n
    	vana	0		S	sg p
võlga	võlg	0		S	adt
     	võlg	0		S	sg p
.	.			Z	
neil	see	l		P	pl ad
    	tema	l		P	pl ad
olnud	ol=nud	0		A	
     	ol=nud	0		A	sg n
     	ol=nud	d		A	pl n
     	ole	nud		V	nud
     	olnu	d		S	pl n
saada	saa	da		V	da
     	saat	0		V	o
     	saa	da		V	ta
:	:			Z	
enne	enne	0		D	
    	enne	0		K	
    	enne	0		S	sg n
mineva	minev	0		A	sg g
aasta	aasta	0		S	sg g
     	aasta	0		S	sg n
võlg	võlg	0		S	sg n
_	_			Z	
R	R	0		Y	?
40	40	0		N	?
kop	kop	0		Y	?
.	.			Z	
Miineva	####				
aastane	aastane	0		A	sg n
ostevedu	ostev_edu	0		S	sg g
        	ostev_edu	0		S	sg n
        	ostev_edu	0		S	sg p
1	1	0		N	?
_	_			Z	
,	,			Z	
,	,			Z	
_	_			Z	
_	_			Z	
Maa	maa	0		S	sg g
   	maa	0		S	sg n
töö	töö	0		S	sg g
   	töö	0		S	sg n
.	.			Z	
sõniikuveedu	####				
ja	ja	0		J	
esimene	esimene	0		O	sg n
       	esimene	0		P	sg n
künud	####				
_	_			Z	
60	60	0		N	?
_	_			Z	
,	,			Z	
,	,			Z	
_	_			Z	
teine	teine	0		O	sg n
     	teine	0		P	sg n
künud	####				
_	_			Z	
40	40	0		N	?
_	_			Z	
,	,			Z	
,	,			Z	
_	_			Z	
mahapanemine	maha_panemine	0		S	sg n
_	_			Z	
50	50	0		N	?
_	_			Z	
,	,			Z	
,	,			Z	
_	_			Z	
häästamine	####				
_	_			Z	
15	15	0		N	?
_	_			Z	
,	,			Z	
,	,			Z	
_	_			Z	
Vaotamine	####				
_	_			Z	
25	25	0		N	?
_	_			Z	
,	,			Z	
,	,			Z	
_	_			Z	
sügisine	####				
künud	####				
_	_			Z	
50	50	0		N	?
_	_			Z	
,	,			Z	
,	,			Z	
_	_			Z	
koorm	####				
saakkud	####				
_	_			Z	
10	10	0		N	?
_	_			Z	
,	,			Z	
,	,			Z	
_	_			Z	
summa	summ	0		S	adt
     	summ	0		S	sg g
     	summ	0		S	sg p
     	summa	0		S	sg g
     	summa	0		S	sg n
3	3	0		N	?
rub	####				
.	.			Z	
90	90	0		N	?
kop	kop	0		Y	?
.	.			Z	
P	P	0		Y	?
.	.			Z	
_	_			Z	
Leiger	####				
on	ole	0		V	b
  	ole	0		V	vad
rahaga	raha	ga		S	sg kom
maksnud	maks	nud		V	nud
       	maks=nu	d		S	pl n
       	maks=nud	0		A	
       	maks=nud	0		A	sg n
       	maks=nud	d		A	pl n
2	2	0		N	?
rub	####				
.	.			Z	
80	80	0		N	?
kop	kop	0		Y	?
.	.			Z	
pliiti	pliit	0		S	adt
      	pliit	0		S	sg p
parandamine	parandamine	0		S	sg n
20	20	0		N	?
kop	kop	0		Y	?
.	.			Z	
Marent	####				
30	30	0		N	?
kop	kop	0		Y	?
.	.			Z	
Salukoha	salu_koht	0		S	sg g
makstud	maks	tud		V	tud
       	maks=tu	d		S	pl n
       	maks=tud	0		A	
       	maks=tud	0		A	sg n
       	maks=tud	d		A	pl n
:	:			Z	
3	3	0		N	?
R	R	0		Y	?
.	.			Z	
30	30	0		N	?
kop	kop	0		Y	?
.	.			Z	
neil	see	l		P	pl ad
    	tema	l		P	pl ad
veel	veel	0		D	
    	vesi	l		S	sg ad
saada	saa	da		V	da
     	saat	0		V	o
     	saa	da		V	ta
60	60	0		N	?
kop	kop	0		Y	?
.	.			Z	
(	(			Z	
teine	teine	0		O	sg n
     	teine	0		P	sg n
kordne	kordne	0		A	sg n
      	kordne	0		S	sg n
pliidi	pliit	0		S	sg g
parandamine	parandamine	0		S	sg n
on	ole	0		V	b
  	ole	0		V	vad
Joh	####				
.	.			Z	
Sauer	####				
kes	kes	0		P	pl n
   	kes	0		P	sg n
neil	see	l		P	pl ad
    	tema	l		P	pl ad
elab	ela	b		V	b
,	,			Z	
P	P	0		Y	?
.	.			Z	
_	_			Z	
Leigrile	####				
lubanud	luba	nud		V	nud
       	luba=nu	d		S	pl n
       	luba=nud	0		A	
       	luba=nud	0		A	sg n
       	luba=nud	d		A	pl n
välja	välja	0		D	
     	välja	0		V	o
     	väli	0		S	adt
     	väli	0		S	sg g
     	väli	0		S	sg p
maksta	maks	ta		V	da
      	maks	ta		V	ta
.	.			Z	
suud	suu	d		S	pl n
    	suu	d		S	sg p
suud	suu	d		S	pl n
    	suu	d		S	sg p
vasta	vasta	0		V	o
vaidlevad	vaidle	vad		V	vad
         	vaidle=v	d		A	pl n
.	.			Z	
P	P	0		Y	?
.	.			Z	
_	_			Z	
Leiger	####				
ütleb	ütle	b		V	b
,	,			Z	
tema	tema	0		P	sg g
    	tema	0		P	sg n
on	ole	0		V	b
  	ole	0		V	vad
Joh	####				
.	.			Z	
Saueril	####				
see	see	0		P	sg n
20	20	0		N	?
kop	kop	0		Y	?
.	.			Z	
tagasi	tagasi	0		D	
      	tagasi	0		K	
maksnud	maks	nud		V	nud
       	maks=nu	d		S	pl n
       	maks=nud	0		A	
       	maks=nud	0		A	sg n
       	maks=nud	d		A	pl n
mis	mis	0		P	pl n
   	mis	0		P	sg n
ta	tema	0		P	sg g
  	tema	0		P	sg n
talle	tall	e		S	pl p
     	tall	0		S	adt
     	tall	0		S	sg g
     	tema	lle		P	sg all
     	tall	0		S	sg p
pliidi	pliit	0		S	sg g
parandaamise	####				
eest	eest	0		D	
    	eest	0		K	
    	esi	st		S	sg el
andnud	and	nud		V	nud
      	and=nu	d		S	pl n
      	and=nud	0		A	
      	and=nud	0		A	sg n
      	and=nud	d		A	pl n
ja	ja	0		J	
seda	see	da		P	sg p
M	M	0		O	?
 	M	0		Y	?
.	.			Z	
_	_			Z	
Tam	####				
võlast	võlg	st		S	sg el
maha	maha	0		D	
arvanud	arva	nud		V	nud
       	arva=nu	d		S	pl n
       	arva=nud	0		A	
       	arva=nud	0		A	sg n
       	arva=nud	d		A	pl n
.	.			Z	
otsus	otsus	0		S	sg n
:	:			Z	
et	et	0		J	
neil	see	l		P	pl ad
    	tema	l		P	pl ad
töö	töö	0		S	sg g
   	töö	0		S	sg n
peal	pea	l		S	sg ad
    	peal	0		D	
    	peal	0		K	
kindlat	kindel	t		A	sg p
kaupa	kaup	0		S	adt
     	kaup	0		S	sg p
     	kaupa	0		K	
ei	ei	0		D	
  	ei	0		V	neg
ole	ole	0		V	o
ja	ja	0		J	
see	see	0		P	sg n
hind	hind	0		S	sg n
mis	mis	0		P	pl n
   	mis	0		P	sg n
M	M	0		O	?
 	M	0		Y	?
.	.			Z	
_	_			Z	
Tamm	tamm	0		S	sg n
nõuab	nõud	b		V	b
,	,			Z	
mitte	mitte	0		D	
liig	liig	0		S	sg n
ei	ei	0		D	
  	ei	0		V	neg
ole	ole	0		V	o
,	,			Z	
peab	pida	b		V	b
P	P	0		Y	?
.	.			Z	
_	_			Z	
Leiger	####				
seda	see	da		P	sg p
temale	tema	le		P	sg all
maksma	maks	ma		V	ma
.	.			Z	
Nõnda	nõnda	0		D	
maksab	maks	b		V	b
P	P	0		Y	?
.	.			Z	
_	_			Z	
Leiger	####				
M	M	0		O	?
 	M	0		Y	?
.	.			Z	
_	_			Z	
Tammile	tamm	le		S	sg all
veel	veel	0		D	
    	vesi	l		S	sg ad
40	40	0		N	?
kop	kop	0		Y	?
.	.			Z	
ja	ja	0		J	
Joh	####				
.	.			Z	
Sauer	####				
see	see	0		P	sg n
20	20	0		N	?
kop	kop	0		Y	?
.	.			Z	
mis	mis	0		P	pl n
   	mis	0		P	sg n
P	P	0		Y	?
.	.			Z	
_	_			Z	
Leiger	####				
talle	tall	e		S	pl p
     	tall	0		S	adt
     	tall	0		S	sg g
     	tema	lle		P	sg all
     	tall	0		S	sg p
tagasi	tagasi	0		D	
      	tagasi	0		K	
andis	and	is		V	s
;	;			Z	
sellega	see	ga		P	sg kom
on	ole	0		V	b
  	ole	0		V	vad
M	M	0		O	?
 	M	0		Y	?
.	.			Z	
_	_			Z	
Tamm	tamm	0		S	sg n
oma	oma	0		A	sg g
   	oma	0		D	
   	oma	0		P	sg g
   	oma	0		S	sg g
   	oma	0		V	o
   	oma	0		A	sg n
   	oma	0		A	sg p
   	oma	0		P	sg n
   	oma	0		P	sg p
   	oma	0		S	sg n
   	oma	0		S	sg p
nõutud	nõu=tu	d		S	pl n
      	nõu=tud	0		A	
      	nõu=tud	0		A	sg n
      	nõu=tud	d		A	pl n
      	nõud	tud		V	tud
      	nõutu	d		A	pl n
hinna	hind	0		S	sg g
saanud	saa	nud		V	nud
      	saa=nud	0		A	
      	saa=nud	0		A	sg n
      	saa=nud	d		A	pl n
      	saanu	d		S	pl n
ja	ja	0		J	
annab	and	b		V	b
P	P	0		Y	?
.	.			Z	
_	_			Z	
Leigrile	####				
ta	tema	0		P	sg g
  	tema	0		P	sg n
saag	saag	0		S	sg n
varsti	varsti	0		D	
kätte	kätte	0		K	
     	käsi	tte		S	adt
.	.			Z	
