Mari	Mari	0		H	sg g
    	mari	0		S	sg g
    	mari	0		S	sg n
    	Mari	0		H	sg n
    	mari	0		S	sg p
Väide	väi	de		S	pl g
     	väide	0		S	sg n
astus	astu	s		V	s
kohtu	kohtu	0		V	o
     	kohus	0		S	sg g
ette	ette	0		D	
    	ette	0		K	
    	esi	tte		S	adt
ja	ja	0		J	
kaibas	####				
,	,			Z	
et	et	0		J	
tema	tema	0		P	sg g
    	tema	0		P	sg n
isa	isa	0		S	sg g
   	isa	0		S	sg n
   	isa	0		S	sg p
on	ole	0		V	b
  	ole	0		V	vad
surnud	surnu	d		S	pl n
      	surnud	0		A	
      	surnud	0		A	sg n
      	surnud	d		A	pl n
      	sure	nud		V	nud
ja	ja	0		J	
tema	tema	0		P	sg g
    	tema	0		P	sg n
on	ole	0		V	b
  	ole	0		V	vad
temale	tema	le		P	sg all
luband	####				
pärandada	päranda	da		V	da
160	160	0		N	?
rbl	rbl	0		Y	?
.	.			Z	
raha	raha	0		S	sg g
    	raha	0		S	sg n
    	raha	0		S	sg p
ja	ja	0		J	
keik	####				
vilja	vili	0		S	adt
     	vili	0		S	sg g
     	vili	0		S	sg p
pooleks	pool	ks		N	sg tr
       	pool	ks		S	sg tr
       	pooleks	0		D	
,	,			Z	
seda	see	da		P	sg p
vilja	vili	0		S	adt
     	vili	0		S	sg g
     	vili	0		S	sg p
oli	ole	i		V	s
olnud	ol=nud	0		A	
     	ol=nud	0		A	sg n
     	ol=nud	d		A	pl n
     	ole	nud		V	nud
     	olnu	d		S	pl n
12	12	0		N	?
astijat	####				
,	,			Z	
sealt	sealt	0		D	
     	siga	lt		A	sg abl
     	siga	lt		S	sg abl
on	ole	0		V	b
  	ole	0		V	vad
õde	õde	0		S	sg n
   	õde	0		S	sg p
Liisu	liisk	0		S	sg g
     	liisu	0		V	o
Busch	####				
salaja	salaja	0		D	
ära	ära	0		D	
   	ära	0		V	neg o
müünud	müü	nud		V	nud
      	müü=nu	d		S	pl n
      	müü=nud	0		A	
      	müü=nud	0		A	sg n
      	müü=nud	d		A	pl n
Ehmjase	####				
,	,			Z	
ja	ja	0		J	
10	10	0		N	?
astiast	####				
on	ole	0		V	b
  	ole	0		V	vad
kohtu	kohtu	0		V	o
     	kohus	0		S	sg g
meestele	meene	tele		A	pl all
        	mees	tele		S	pl all
ülle	ülle	0		D	
antud	an=tu	d		S	pl n
     	and	tud		V	tud
     	antud	0		A	
     	antud	0		A	sg n
     	antud	d		A	pl n
neid	neid	0		S	sg n
    	see	d		P	pl p
    	tema	d		P	pl p
on	ole	0		V	b
  	ole	0		V	vad
aga	aga	0		J	
11	11	0		N	?
olnd	####				
.	.			Z	
Ja	ja	0		J	
see	see	0		P	sg n
õde	õde	0		S	sg n
   	õde	0		S	sg p
Liisu	liisk	0		S	sg g
     	liisu	0		V	o
on	ole	0		V	b
  	ole	0		V	vad
teda	tema	da		P	sg p
4	4	0		N	?
korda	kord	0		S	adt
     	korda	0		V	o
     	kord	0		S	sg p
vastu	vastu	0		D	
     	vastu	0		K	
ust	uks	t		S	sg p
   	ust	0		I	
lükanud	lükka	nud		V	nud
       	lüka=nu	d		S	pl n
       	lüka=nud	0		A	
       	lüka=nud	0		A	sg n
       	lüka=nud	d		A	pl n
.	.			Z	
see	see	0		P	sg n
õde	õde	0		S	sg n
   	õde	0		S	sg p
Liiisu	####				
Busch	####				
sai	saa	i		V	s
   	sai	0		S	sg n
vastusele	vastus	le		S	sg all
võetud	võe=tu	d		S	pl n
      	võetud	0		A	
      	võetud	0		A	sg n
      	võetud	d		A	pl n
      	võt	tud		V	tud
ja	ja	0		J	
tema	tema	0		P	sg g
    	tema	0		P	sg n
üttles	####				
et	et	0		J	
isa	isa	0		S	sg g
   	isa	0		S	sg n
   	isa	0		S	sg p
ei	ei	0		D	
  	ei	0		V	neg
ole	ole	0		V	o
temale	tema	le		P	sg all
muud	muu	d		P	pl n
    	muu	d		S	pl n
    	muu	d		V	d
    	muu	d		P	sg p
    	muu	d		S	sg p
ketagi	keta	0	gi	S	sg g
      	keta	0	gi	S	sg n
kui	kui	0		D	
   	kui	0		J	
100	100	0		N	?
rbl	rbl	0		Y	?
.	.			Z	
raha	raha	0		S	sg g
    	raha	0		S	sg n
    	raha	0		S	sg p
mis	mis	0		P	pl n
   	mis	0		P	sg n
ta	tema	0		P	sg g
  	tema	0		P	sg n
ka	ka	0		D	
välja	välja	0		D	
     	välja	0		V	o
     	väli	0		S	adt
     	väli	0		S	sg g
     	väli	0		S	sg p
maksnud	maks	nud		V	nud
       	maks=nu	d		S	pl n
       	maks=nud	0		A	
       	maks=nud	0		A	sg n
       	maks=nud	d		A	pl n
,	,			Z	
seda	see	da		P	sg p
raha	raha	0		S	sg g
    	raha	0		S	sg n
    	raha	0		S	sg p
oli	ole	i		V	s
sa	sina	0		P	sg n
olnud	ol=nud	0		A	
     	ol=nud	0		A	sg n
     	ol=nud	d		A	pl n
     	ole	nud		V	nud
     	olnu	d		S	pl n
320	320	0		N	?
rbl	rbl	0		Y	?
.	.			Z	
20	20	0		N	?
rbl	rbl	0		Y	?
.	.			Z	
kuulund	kuu_lumi	0		S	sg p
matusteks	matus	teks		S	pl tr
ära	ära	0		D	
   	ära	0		V	neg o
saada	saa	da		V	da
     	saat	0		V	o
     	saa	da		V	ta
rbl	rbl	0		Y	?
annund	####				
ta	tema	0		P	sg g
  	tema	0		P	sg n
õe	õe	0		I	
  	õde	0		S	sg g
Marile	Mari	le		H	sg all
      	mari	le		S	sg all
,	,			Z	
ja	ja	0		J	
200	200	0		N	?
rbl	rbl	0		Y	?
ole	ole	0		V	o
veel	veel	0		D	
    	vesi	l		S	sg ad
järel	järel	0		D	
     	järel	0		K	
,	,			Z	
vilja	vili	0		S	adt
     	vili	0		S	sg g
     	vili	0		S	sg p
pidi	pida	i		V	s
    	pidi	0		K	
olema	ole	ma		V	ma
11	11	0		N	?
astiast	####				
,	,			Z	
ja	ja	0		J	
et	et	0		J	
ta	tema	0		P	sg g
  	tema	0		P	sg n
salaja	salaja	0		D	
müünd	####				
on	ole	0		V	b
  	ole	0		V	vad
see	see	0		P	sg n
ei	ei	0		D	
  	ei	0		V	neg
ole	ole	0		V	o
tõsi	tõsi	0		S	pl p
    	tõsi	0		S	sg n
,	,			Z	
sest	see	st		P	sg el
    	sest	0		J	
see	see	0		P	sg n
on	ole	0		V	b
  	ole	0		V	vad
tema	tema	0		P	sg g
    	tema	0		P	sg n
oomandus	####				
ja	ja	0		J	
ta	tema	0		P	sg g
  	tema	0		P	sg n
võib	või	b		V	b
sellega	see	ga		P	sg kom
teha	tege	a		V	da
mis	mis	0		P	pl n
   	mis	0		P	sg n
tahab	taht	b		V	b
ja	ja	0		J	
see	see	0		P	sg n
ei	ei	0		D	
  	ei	0		V	neg
ole	ole	0		V	o
tõsi	tõsi	0		S	pl p
    	tõsi	0		S	sg n
et	et	0		J	
ta	tema	0		P	sg g
  	tema	0		P	sg n
õdet	####				
lükanud	lükka	nud		V	nud
       	lüka=nu	d		S	pl n
       	lüka=nud	0		A	
       	lüka=nud	0		A	sg n
       	lüka=nud	d		A	pl n
.	.			Z	
Ja	ja	0		J	
ta	tema	0		P	sg g
  	tema	0		P	sg n
lubab	luba	b		V	b
veel	veel	0		D	
    	vesi	l		S	sg ad
priitahtlikult	prii_tahtlik	lt		A	sg abl
              	prii_tahtlikult	0		D	
Marile	Mari	le		H	sg all
      	mari	le		S	sg all
üks	üks	0		N	sg n
   	üks	0		P	sg n
astis	####				
rukkid	rukis	d		S	pl n
anda	and	a		V	da
,	,			Z	
aga	aga	0		J	
mitte	mitte	0		D	
enam	enam	0		C	sg n
    	enam	0		D	
,	,			Z	
sest	see	st		P	sg el
    	sest	0		J	
Mari	Mari	0		H	sg g
    	mari	0		S	sg g
    	mari	0		S	sg n
    	Mari	0		H	sg n
    	mari	0		S	sg p
on	ole	0		V	b
  	ole	0		V	vad
juba	juba	0		D	
ooma	####				
jäu	####				
saanud	saa	nud		V	nud
      	saa=nud	0		A	
      	saa=nud	0		A	sg n
      	saa=nud	d		A	pl n
      	saanu	d		S	pl n
mehel	mees	l		S	sg ad
minemise	minemine	0		S	sg g
juuures	####				
nagu	nagu	0		D	
    	nagu	0		J	
1	1	0		N	?
lehm	lehm	0		S	sg n
,	,			Z	
3	3	0		N	?
lamast	####				
,	,			Z	
ja	ja	0		J	
5	5	0		N	?
rbl	rbl	0		Y	?
raha	raha	0		S	sg g
    	raha	0		S	sg n
    	raha	0		S	sg p
ja	ja	0		J	
kahed	kaks	d		N	pl n
pulmad	pulm	d		S	pl n
,	,			Z	
ja	ja	0		J	
veel	veel	0		D	
    	vesi	l		S	sg ad
pärast	pära	st		S	sg el
      	pärane	t		A	sg p
      	pärast	0		D	
      	pärast	0		K	
isa	isa	0		S	sg g
   	isa	0		S	sg n
   	isa	0		S	sg p
surma	surm	0		S	adt
     	surm	0		S	sg g
     	surma	0		V	o
     	surm	0		S	sg p
100	100	0		N	?
rbl	rbl	0		Y	?
.	.			Z	
(	(			Z	
saada	saa	da		V	da
     	saat	0		V	o
     	saa	da		V	ta
)	)			Z	
kohus	kohu	s		V	s
     	kohus	0		S	sg n
mõistis	mõist	is		V	s
:	:			Z	
et	et	0		J	
neil	see	l		P	pl ad
    	tema	l		P	pl ad
ei	ei	0		D	
  	ei	0		V	neg
ole	ole	0		V	o
kummagil	####				
tunnistust	tunnistus	t		S	sg p
kui	kui	0		D	
   	kui	0		J	
palju	palju	0		D	
     	palju	0		P	sg g
     	palju	0		P	sg n
isa	isa	0		S	sg g
   	isa	0		S	sg n
   	isa	0		S	sg p
iga	iga	0		P	sg g
   	iga	0		P	sg n
   	iga	0		P	sg p
   	iga	0		S	sg n
   	iga	0		S	sg p
ühele	üks	le		N	sg all
     	üks	le		P	sg all
luband	####				
ja	ja	0		J	
see	see	0		P	sg n
Mari	Mari	0		H	sg g
    	mari	0		S	sg g
    	mari	0		S	sg n
    	Mari	0		H	sg n
    	mari	0		S	sg p
Väide	väi	de		S	pl g
     	väide	0		S	sg n
juba	juba	0		D	
pulmad	pulm	d		S	pl n
saanud	saa	nud		V	nud
      	saa=nud	0		A	
      	saa=nud	0		A	sg n
      	saa=nud	d		A	pl n
      	saanu	d		S	pl n
,	,			Z	
kaks	kaks	0		N	sg n
korda	kord	0		S	adt
     	korda	0		V	o
     	kord	0		S	sg p
,	,			Z	
ja	ja	0		J	
ka	ka	0		D	
veel	veel	0		D	
    	vesi	l		S	sg ad
saanud	saa	nud		V	nud
      	saa=nud	0		A	
      	saa=nud	0		A	sg n
      	saa=nud	d		A	pl n
      	saanu	d		S	pl n
1	1	0		N	?
lehm	lehm	0		S	sg n
,	,			Z	
3	3	0		N	?
lamast	####				
ja	ja	0		J	
5	5	0		N	?
rbl	rbl	0		Y	?
(	(			Z	
viis	vii	s		V	s
    	viis	0		N	sg n
    	viis	0		S	sg n
R	R	0		Y	?
.	.			Z	
)	)			Z	
raha	raha	0		S	sg g
    	raha	0		S	sg n
    	raha	0		S	sg p
,	,			Z	
ja	ja	0		J	
ka	ka	0		D	
veel	veel	0		D	
    	vesi	l		S	sg ad
100	100	0		N	?
rbl	rbl	0		Y	?
.	.			Z	
saada	saa	da		V	da
     	saat	0		V	o
     	saa	da		V	ta
pärast	pära	st		S	sg el
      	pärane	t		A	sg p
      	pärast	0		D	
      	pärast	0		K	
isa	isa	0		S	sg g
   	isa	0		S	sg n
   	isa	0		S	sg p
surma	surm	0		S	adt
     	surm	0		S	sg g
     	surma	0		V	o
     	surm	0		S	sg p
,	,			Z	
ja	ja	0		J	
see	see	0		P	sg n
Liisu	liisk	0		S	sg g
     	liisu	0		V	o
Busch	####				
lubab	luba	b		V	b
veel	veel	0		D	
    	vesi	l		S	sg ad
priitahtlikult	prii_tahtlik	lt		A	sg abl
              	prii_tahtlikult	0		D	
üks	üks	0		N	sg n
   	üks	0		P	sg n
astis	####				
rukkid	rukis	d		S	pl n
anda	and	a		V	da
,	,			Z	
ei	ei	0		D	
  	ei	0		V	neg
ole	ole	0		V	o
selle	see	0		P	sg g
     	sell	e		S	pl p
Maril	Mari	l		H	sg ad
     	mari	l		S	sg ad
enam	enam	0		C	sg n
    	enam	0		D	
õigust	õigus	t		S	sg p
pärida	päri	da		V	da
,	,			Z	
sest	see	st		P	sg el
    	sest	0		J	
see	see	0		P	sg n
Liiisu	####				
on	ole	0		V	b
  	ole	0		V	vad
alles	alles	0		D	
tüdruk	tüdruk	0		S	sg n
ja	ja	0		J	
on	ole	0		V	b
  	ole	0		V	vad
isad	isa	d		S	pl n
aidand	####				
seda	see	da		P	sg p
korjata	korja	ta		V	da
       	korja	ta		V	ta
eesti	eesti	0		G	
talurahva	talu_rahvas	0		S	sg g
sead	sead	d		V	d
    	siga	d		A	pl n
    	siga	d		S	pl n
.	.			Z	
§	§	0		Y	?
1188	1188	0		N	?
järel	järel	0		D	
     	järel	0		K	
,	,			Z	
aga	aga	0		J	
peale	pea	le		S	sg all
     	peale	0		D	
     	peale	0		K	
kohtu	kohtu	0		V	o
     	kohus	0		S	sg g
otsuse	otsus	0		S	sg g
kuulutust	kuulutus	t		S	sg p
lubas	luba	s		V	s
Liiisu	####				
Busch	####				
veel	veel	0		D	
    	vesi	l		S	sg ad
priitahtlikult	prii_tahtlik	lt		A	sg abl
              	prii_tahtlikult	0		D	
Mari	Mari	0		H	sg g
    	mari	0		S	sg g
    	mari	0		S	sg n
    	Mari	0		H	sg n
    	mari	0		S	sg p
Väidele	väi	dele		S	pl all
keik	####				
matuse	matus	0		S	sg g
kuulut	####				
maksta	maks	ta		V	da
      	maks	ta		V	ta
nakui	####				
serk	####				
1	1	0		N	?
rbl	rbl	0		Y	?
.	.			Z	
muud	muu	d		P	pl n
    	muu	d		S	pl n
    	muu	d		V	d
    	muu	d		P	sg p
    	muu	d		S	sg p
matuse	matus	0		S	sg g
kuulut	####				
3	3	0		N	?
rbl	rbl	0		Y	?
.	.			Z	
ja	ja	0		J	
üks	üks	0		N	sg n
   	üks	0		P	sg n
terve	terve	0		A	sg g
     	terve	0		A	sg n
     	terve	0		S	sg g
     	terve	0		S	sg n
leib	leib	0		S	sg n
,	,			Z	
ja	ja	0		J	
üks	üks	0		N	sg n
   	üks	0		P	sg n
küllimit	####				
odre	####				
,	,			Z	
seitsme	seitse	0		N	sg g
toobi	toop	0		S	sg g
tangude	tang	de		S	pl g
eest	eest	0		D	
    	eest	0		K	
    	esi	st		S	sg el
,	,			Z	
peale	pea	le		S	sg all
     	peale	0		D	
     	peale	0		K	
selle	see	0		P	sg g
     	sell	e		S	pl p
leppisid	leppi	sid		V	sid
nad	tema	d		P	pl n
ühe	üks	0		N	sg g
   	üks	0		P	sg g
   	ühe	0		S	sg n
teisega	teine	ga		O	sg kom
       	teine	ga		P	sg kom
kokku	kokku	0		D	
     	kogu	0		S	adt
,	,			Z	
aga	aga	0		J	
teisel	teine	l		O	sg ad
      	teine	l		P	sg ad
kohtu	kohtu	0		V	o
     	kohus	0		S	sg g
päeval	päev	l		S	sg ad
palus	palu	s		S	sg in
     	palu	s		V	s
Mari	Mari	0		H	sg g
    	mari	0		S	sg g
    	mari	0		S	sg n
    	Mari	0		H	sg n
    	mari	0		S	sg p
Väide	väi	de		S	pl g
     	väide	0		S	sg n
protokolli	protokoll	0		S	adt
          	protokoll	0		S	sg g
          	protokolli	0		V	o
          	protokoll	0		S	sg p
et	et	0		J	
ta	tema	0		P	sg g
  	tema	0		P	sg n
sellega	see	ga		P	sg kom
ei	ei	0		D	
  	ei	0		V	neg
leppi	lepp	i		S	pl p
,	,			Z	
mis	mis	0		P	pl n
   	mis	0		P	sg n
ka	ka	0		D	
sündis	sündi	s		V	s
      	sünt	s		S	sg in
.	.			Z	
(	(			Z	
Kihelkonna	Kihelkonna	0		H	sg g
          	kihelkond	0		S	sg g
          	Kihelkonna	0		H	sg n
läkitatud	läkita	tud		V	tud
         	läkita=tu	d		S	pl n
         	läkita=tud	0		A	
         	läkita=tud	0		A	sg n
         	läkita=tud	d		A	pl n
21	21	0		N	?
April	####				
.	.			Z	
)	)			Z	
