kohtuse	kohtune	0		A	sg g
kaebas	kaeba	s		V	s
kirna	####				
Lepiku	lepik	0		S	sg g
peremees	pere_mees	0		S	sg n
:	:			Z	
Jaan	Jaan	0		H	sg n
    	jaan	0		S	sg n
    	jaan	0		Y	?
Leithal	####				
,	,			Z	
et	et	0		J	
pühapäeva	püha_päev	0		S	adt
         	püha_päev	0		S	sg g
         	püha_päev	0		S	sg p
homiku	####				
s.o.	s.o	0		Y	?
17. s	####				
.	.			Z	
k	k	0		Y	?
.	.			Z	
p	p	0		Y	?
.	.			Z	
olla	ole	a		V	da
mai	mai	0		S	sg g
   	mai	0		S	sg n
Maritohv	####				
temale	tema	le		P	sg all
täädustanud	####				
,	,			Z	
et	et	0		J	
tema	tema	0		P	sg g
    	tema	0		P	sg n
kotu	####				
tules	tuli	s		S	sg in
olla	ole	a		V	da
näinud	näi	nud		V	nud
      	näge	nud		V	nud
      	näi=nud	0		A	
      	näi=nud	0		A	sg n
      	näi=nud	d		A	pl n
      	näinu	d		S	pl n
,	,			Z	
kuida	####				
Jüri	Jüri	0		H	sg g
    	Jüri	0		H	sg n
Timm	timm	0		S	sg n
tema	tema	0		P	sg g
    	tema	0		P	sg n
roikaid	roigas	id		S	pl p
,	,			Z	
mis	mis	0		P	pl n
   	mis	0		P	sg n
kiriku	kirik	0		S	sg g
maantee	maan_tee	0		S	sg g
       	maan_tee	0		S	sg n
ääres	äär	s		S	sg in
     	ääres	0		K	
,	,			Z	
tema	tema	0		P	sg g
    	tema	0		P	sg n
piire	piir	e		S	pl p
     	piire	0		S	sg n
pääl	####				
seisnud	seis	nud		V	nud
       	seis=nu	d		S	pl n
       	seis=nud	0		A	
       	seis=nud	0		A	sg n
       	seis=nud	d		A	pl n
,	,			Z	
maanteele	maan_tee	le		S	sg all
üleülltse	####				
laijale	####				
visaanud	####				
ja	ja	0		J	
nendega	see	dega		P	pl kom
       	tema	dega		P	pl kom
käidavad	käidav	d		A	pl n
teed	tee	d		S	pl n
    	tege	d		V	d
    	tee	d		S	sg p
kinni	kinni	0		D	
pannud	pan=nu	d		S	pl n
      	pan=nud	0		A	
      	pan=nud	0		A	sg n
      	pan=nud	d		A	pl n
      	pane	nud		V	nud
.	.			Z	
Taa	####				
läinud	läinu	d		S	pl n
      	läinud	0		A	
      	läinud	0		A	sg n
      	läinud	d		A	pl n
      	mine	nud		V	nud
siis	siis	0		D	
    	siis	0		J	
M. Maritophi	####				
juttu	jutt	0		S	adt
     	jutt	0		S	sg p
päele	####				
,	,			Z	
juttustatud	####				
kohta	koht	0		S	adt
     	kohta	0		K	
     	kohta	0		V	o
     	koht	0		S	sg p
ja	ja	0		J	
leidnud	leid	nud		V	nud
       	leid=nu	d		S	pl n
       	leid=nud	0		A	
       	leid=nud	0		A	sg n
       	leid=nud	d		A	pl n
,	,			Z	
et	et	0		J	
tema	tema	0		P	sg g
    	tema	0		P	sg n
roikad	roigas	d		S	pl n
tõeste	tõene	te		A	pl g
nii	nii	0		D	
laijale	####				
lautud	lau=tu	d		A	pl n
ja	ja	0		J	
purustatud	purusta	tud		V	tud
          	purusta=tu	d		S	pl n
          	purusta=tud	0		A	
          	purusta=tud	0		A	sg n
          	purusta=tud	d		A	pl n
olnud	ol=nud	0		A	
     	ol=nud	0		A	sg n
     	ol=nud	d		A	pl n
     	ole	nud		V	nud
     	olnu	d		S	pl n
,	,			Z	
et	et	0		J	
säalt	####				
ükski	üks	0	ki	N	sg n
     	üks	0	ki	P	sg n
     	ükski	0		D	
ilma	ilm	0		S	adt
    	ilm	0		S	sg g
    	ilma	0		D	
    	ilma	0		K	
    	ilm	0		S	sg p
tema	tema	0		P	sg g
    	tema	0		P	sg n
tagasi	tagasi	0		D	
      	tagasi	0		K	
ladumiseta	ladumine	ta		S	sg ab
läbi	läbi	0		D	
    	läbi	0		K	
    	läbi	0		V	o
ei	ei	0		D	
  	ei	0		V	neg
oks	oks	0		S	sg n
päesenud	####				
.	.			Z	
Ühtlasi	ühtlane	i		A	pl p
       	ühtlasi	0		D	
leidnud	leid	nud		V	nud
       	leid=nu	d		S	pl n
       	leid=nud	0		A	
       	leid=nud	0		A	sg n
       	leid=nud	d		A	pl n
taa	####				
veel	veel	0		D	
    	vesi	l		S	sg ad
,	,			Z	
et	et	0		J	
mõisa	mõis	0		S	sg g
põlde	põld	e		S	pl p
värav	värav	0		S	sg n
külla	küll	0		S	adt
     	küll	0		S	sg g
     	küla	0		S	adt
     	küll	0		S	sg p
karjaoru	karja_org	0		S	sg g
vastu	vastu	0		D	
     	vastu	0		K	
,	,			Z	
selle	see	0		P	sg g
     	sell	e		S	pl p
sama	sama	0		P	sg g
    	sama	0		P	sg n
    	sama	0		P	sg p
maantee	maan_tee	0		S	sg g
       	maan_tee	0		S	sg n
peal	pea	l		S	sg ad
    	peal	0		D	
    	peal	0		K	
,	,			Z	
eest	eest	0		D	
    	eest	0		K	
    	esi	st		S	sg el
ära	ära	0		D	
   	ära	0		V	neg o
kistud	kis=tu	d		S	pl n
      	kisku	tud		V	tud
      	kistud	0		A	
      	kistud	0		A	sg n
      	kistud	d		A	pl n
ja	ja	0		J	
metsa	mets	0		S	adt
     	mets	0		S	sg g
     	mets	0		S	sg p
visatatud	####				
olnud	ol=nud	0		A	
     	ol=nud	0		A	sg n
     	ol=nud	d		A	pl n
     	ole	nud		V	nud
     	olnu	d		S	pl n
,	,			Z	
keda	kes	da		P	pl p
    	kes	da		P	sg p
taa	####				
siis	siis	0		D	
    	siis	0		J	
Tõeks	tõde	ks		S	sg tr
     	tõsi	ks		S	sg tr
arvas	arva	s		V	s
,	,			Z	
et	et	0		J	
Jüri	Jüri	0		H	sg g
    	Jüri	0		H	sg n
Timm	timm	0		S	sg n
Aru	aru	0		S	sg g
   	aru	0		S	sg n
   	aru	0		S	sg p
kõrtsist	kõrts	st		S	sg el
tules	tuli	s		S	sg in
ühes	üks	s		N	sg in
    	üks	s		P	sg in
    	ühes	0		D	
    	ühes	0		K	
roika	roigas	0		S	sg g
maantee	maan_tee	0		S	sg g
       	maan_tee	0		S	sg n
päele	####				
viskamisega	viskamine	ga		S	sg kom
kaa	####				
värava	värav	0		S	sg g
eest	eest	0		D	
    	eest	0		K	
    	esi	st		S	sg el
visaanud	####				
.	.			Z	
Sai	saa	i		V	s
   	sai	0		S	sg n
kohtu	kohtu	0		V	o
     	kohus	0		S	sg g
ette	ette	0		D	
    	ette	0		K	
    	esi	tte		S	adt
Jüri	Jüri	0		H	sg g
    	Jüri	0		H	sg n
Timm	timm	0		S	sg n
21.	21.	0		O	?
aastat	aasta	t		S	sg p
vana	vana	0		A	sg g
    	vana	0		A	sg n
    	vana	0		A	sg p
    	vana	0		S	sg g
    	vana	0		S	sg n
    	vana	0		S	sg p
kutsutud	kutsu	tud		V	tud
        	kutsutu	d		S	pl n
        	kutsutud	0		A	
        	kutsutud	0		A	sg n
        	kutsutud	d		A	pl n
ja	ja	0		J	
temalt	tema	lt		P	sg abl
kaebaja	kaebaja	0		S	sg g
       	kaebaja	0		S	sg n
põhjus	põhjus	0		S	sg n
mõtte	mõte	0		S	sg g
mõõööda	####				
küsitud	küsi	tud		V	tud
       	küsi=tu	d		S	pl n
       	küsi=tud	0		A	
       	küsi=tud	0		A	sg n
       	küsi=tud	d		A	pl n
:	:			Z	
Kus	kus	0		D	
taa	####				
pühapäeva	püha_päev	0		S	adt
         	püha_päev	0		S	sg g
         	püha_päev	0		S	sg p
hommiku	hommik	0		S	sg g
olnud	ol=nud	0		A	
     	ol=nud	0		A	sg n
     	ol=nud	d		A	pl n
     	ole	nud		V	nud
     	olnu	d		S	pl n
?	?			Z	
Jüri	Jüri	0		H	sg g
    	Jüri	0		H	sg n
Timm	timm	0		S	sg n
vastas	vasta	s		V	s
      	vastas	0		D	
      	vastas	0		K	
:	:			Z	
et	et	0		J	
taa	####				
Aru	aru	0		S	sg g
   	aru	0		S	sg n
   	aru	0		S	sg p
kõrtsist	kõrts	st		S	sg el
tulnud	tul=nud	0		A	
      	tul=nud	0		A	sg n
      	tul=nud	d		A	pl n
      	tule	nud		V	nud
      	tulnu	d		S	pl n
.	.			Z	
küsitud	küsi	tud		V	tud
       	küsi=tu	d		S	pl n
       	küsi=tud	0		A	
       	küsi=tud	0		A	sg n
       	küsi=tud	d		A	pl n
sai	saa	i		V	s
   	sai	0		S	sg n
:	:			Z	
aga	aga	0		J	
miks	miks	0		D	
    	miks	0		S	sg n
saa	saa	0		V	o
siis	siis	0		D	
    	siis	0		J	
Lepiku	lepik	0		S	sg g
peremehe	pere_mees	0		S	sg g
roikad	roigas	d		S	pl n
ja	ja	0		J	
mõisa	mõis	0		S	sg g
põlde	põld	e		S	pl p
värava	värav	0		S	sg g
eest	eest	0		D	
    	eest	0		K	
    	esi	st		S	sg el
tõstnud	tõst	nud		V	nud
       	tõst=nu	d		S	pl n
       	tõst=nud	0		A	
       	tõst=nud	0		A	sg n
       	tõst=nud	d		A	pl n
olid	ole	id		V	sid
?	?			Z	
j	j	0		Y	?
.	.			Z	
n	n	0		Y	?
.	.			Z	
d	d	0		Y	?
.	.			Z	
Taa	####				
ajas	aeg	s		S	sg in
    	aja	s		V	s
kõikide	kõik	de		P	pl g
kohtu	kohtu	0		V	o
     	kohus	0		S	sg g
küsimeste	####				
päele	####				
vastu	vastu	0		D	
     	vastu	0		K	
ja	ja	0		J	
ajass	####				
kõik	kõik	0		P	pl n
    	kõik	0		S	sg n
    	kõik	0		P	sg n
eelnimetud	eel_nimetu	d		A	pl n
kaeptused	####				
valeks	vale	ks		A	sg tr
      	vale	ks		S	sg tr
ja	ja	0		J	
nõudis	nõud	is		V	s
kaebajast	kaebaja	st		S	sg el
s.o.	s.o	0		Y	?
J. Leithalist	####				
tunnistajat	tunnistaja	t		S	sg p
s.o.	s.o	0		Y	?
M. Maritophi	####				
,	,			Z	
kes	kes	0		P	pl n
   	kes	0		P	sg n
tema	tema	0		P	sg g
    	tema	0		P	sg n
peale	pea	le		S	sg all
     	peale	0		D	
     	peale	0		K	
seda	see	da		P	sg p
ütelnud	ütle	nud		V	nud
       	ütel=nu	d		S	pl n
       	ütel=nud	0		A	
       	ütel=nud	0		A	sg n
       	ütel=nud	d		A	pl n
on	ole	0		V	b
  	ole	0		V	vad
.	.			Z	
kohtu	kohtu	0		V	o
     	kohus	0		S	sg g
mõistus	mõistus	0		S	sg n
:	:			Z	
kohus	kohu	s		V	s
     	kohus	0		S	sg n
arvas	arva	s		V	s
viimast	vii	mast		V	mast
       	viimane	t		A	sg p
Jüri	Jüri	0		H	sg g
    	Jüri	0		H	sg n
Timmi	timm	0		S	adt
     	timm	0		S	sg g
     	timmi	0		V	o
     	timm	0		S	sg p
nõudlust	nõudlus	t		S	sg p
säädusliseks	####				
ja	ja	0		J	
mõistis	mõist	is		V	s
Mari	Mari	0		H	sg g
    	mari	0		S	sg g
    	mari	0		S	sg n
    	Mari	0		H	sg n
    	mari	0		S	sg p
Maritophi	####				
äraoleku	ära_olek	0		S	sg g
pärast	pära	st		S	sg el
      	pärane	t		A	sg p
      	pärast	0		D	
      	pärast	0		K	
kohtu	kohtu	0		V	o
     	kohus	0		S	sg g
otsuse	otsus	0		S	sg g
tulevaks	tulev	ks		A	sg tr
Esmaspäevaks	esmas_päev	ks		S	sg tr
,	,			Z	
s.o.	s.o	0		Y	?
25. s	####				
.	.			Z	
k	k	0		Y	?
.	.			Z	
päevaks	päev	ks		S	sg tr
.	.			Z	
