siis	siis	0		D	
    	siis	0		J	
tuli	tuli	0		S	sg n
    	tule	i		V	s
ette	ette	0		D	
    	ette	0		K	
    	esi	tte		S	adt
Rehe	rehi	0		S	sg g
Villem	Villem	0		H	sg n
Uuesild	uue_sild	0		S	sg n
(	(			Z	
vaata	vaata	0		V	o
protk	####				
.	.			Z	
30nda	30=s	0		O	sg g
aug	aug	0		Y	?
.	.			Z	
No	no	0		I	
28.	28.	0		O	?
)	)			Z	
ja	ja	0		J	
rääkis	rääki	s		V	s
välja	välja	0		D	
     	välja	0		V	o
     	väli	0		S	adt
     	väli	0		S	sg g
     	väli	0		S	sg p
:	:			Z	
se	####				
poiss	poiss	0		S	sg n
Rein	Rein	0		H	sg n
Mölder	mölder	0		S	sg n
on	ole	0		V	b
  	ole	0		V	vad
minu	mina	0		P	sg g
töös	töö	s		S	sg in
olnud	ol=nud	0		A	
     	ol=nud	0		A	sg n
     	ol=nud	d		A	pl n
     	ole	nud		V	nud
     	olnu	d		S	pl n
4	4	0		N	?
Päeva	päev	0		S	adt
     	päev	0		S	sg g
     	päev	0		S	sg p
ja	ja	0		J	
2	2	0		N	?
söömavahet	sööma_vahe	t		S	sg p
ja	ja	0		J	
45	45	0		N	?
kopik	####				
päeva	päev	0		S	adt
     	päev	0		S	sg g
     	päev	0		S	sg p
palka	palk	0		S	adt
     	palka	0		V	o
     	palk	0		S	sg p
lubatud	luba	tud		V	tud
       	luba=tu	d		S	pl n
       	lubatu	d		A	pl n
       	lubatud	0		A	
       	lubatud	0		A	sg n
       	lubatud	d		A	pl n
.	.			Z	
aga	aga	0		J	
mitte	mitte	0		D	
8	8	0		N	?
päeva	päev	0		S	adt
     	päev	0		S	sg g
     	päev	0		S	sg p
,	,			Z	
sest	see	st		P	sg el
    	sest	0		J	
Villem	Villem	0		H	sg n
Krus	####				
teab	tead	b		V	b
seda	see	da		P	sg p
parem	parem	0		C	sg n
     	parem	0		D	
rääkida	rääki	da		V	da
,	,			Z	
kes	kes	0		P	pl n
   	kes	0		P	sg n
mo	####				
paarimees	paari_mees	0		S	sg n
oli	ole	i		V	s
.	.			Z	
kohtu	kohtu	0		V	o
     	kohus	0		S	sg g
otsus	otsus	0		S	sg n
:	:			Z	
et	et	0		J	
Villem	Villem	0		H	sg n
Uuesild	uue_sild	0		S	sg n
seda	see	da		P	sg p
tagasi	tagasi	0		D	
      	tagasi	0		K	
aiab	####				
,	,			Z	
et	et	0		J	
ei	ei	0		D	
  	ei	0		V	neg
ole	ole	0		V	o
50	50	0		N	?
kop	kop	0		Y	?
.	.			Z	
päeva	päev	0		S	adt
     	päev	0		S	sg g
     	päev	0		S	sg p
palka	palk	0		S	adt
     	palka	0		V	o
     	palk	0		S	sg p
lubatud	luba	tud		V	tud
       	luba=tu	d		S	pl n
       	lubatu	d		A	pl n
       	lubatud	0		A	
       	lubatud	0		A	sg n
       	lubatud	d		A	pl n
,	,			Z	
mõistab	mõist	b		V	b
kohos	####				
Rein	Rein	0		H	sg n
Paesüld	pae_süld	0		S	sg n
tunnistust	tunnistus	t		S	sg p
mööda	mööda	0		A	
     	mööda	0		D	
     	mööda	0		K	
50	50	0		N	?
kopik	####				
palgaks	palk	ks		S	sg tr
.	.			Z	
siis	siis	0		D	
    	siis	0		J	
on	ole	0		V	b
  	ole	0		V	vad
Villem	Villem	0		H	sg n
veel	veel	0		D	
    	vesi	l		S	sg ad
süüdlane	süüdlane	0		S	sg n
et	et	0		J	
ei	ei	0		D	
  	ei	0		V	neg
ole	ole	0		V	o
ennem	ennem	0		C	sg n
     	ennem	0		D	
seda	see	da		P	sg p
päeva	päev	0		S	adt
     	päev	0		S	sg g
     	päev	0		S	sg p
palka	palk	0		S	adt
     	palka	0		V	o
     	palk	0		S	sg p
välja	välja	0		D	
     	välja	0		V	o
     	väli	0		S	adt
     	väli	0		S	sg g
     	väli	0		S	sg p
maksnud	maks	nud		V	nud
       	maks=nu	d		S	pl n
       	maks=nud	0		A	
       	maks=nud	0		A	sg n
       	maks=nud	d		A	pl n
.	.			Z	
Ta	tema	0		P	sg g
  	tema	0		P	sg n
aga	aga	0		J	
peab	pida	b		V	b
täna	täna	0		D	
    	täna	0		V	o
se	####				
6	6	0		N	?
päeva	päev	0		S	adt
     	päev	0		S	sg g
     	päev	0		S	sg p
palga	palk	0		S	sg g
hinna	hind	0		S	sg g
3	3	0		N	?
rubla	rubla	0		S	sg g
     	rubla	0		S	sg n
     	rubla	0		S	sg p
kohtuse	kohtune	0		A	sg g
sisse	siss	e		S	pl p
     	sisse	0		D	
     	sisse	0		K	
maksma	maks	ma		V	ma
,	,			Z	
kuni	kuni	0		J	
    	kuni	0		K	
se	####				
saab	saa	b		V	b
Villem	Villem	0		H	sg n
Krus	####				
käest	käest	0		K	
     	käsi	st		S	sg el
tallinnast	####				
järel	järel	0		D	
     	järel	0		K	
kuulatud	kuula	tud		V	tud
        	kuula=tu	d		S	pl n
        	kuula=tud	0		A	
        	kuula=tud	0		A	sg n
        	kuula=tud	d		A	pl n
.	.			Z	
Ja	ja	0		J	
siis	siis	0		D	
    	siis	0		J	
jääb	jää	b		V	b
veel	veel	0		D	
    	vesi	l		S	sg ad
neist	see	st		P	pl el
     	tema	st		P	pl el
teine	teine	0		O	sg n
     	teine	0		P	sg n
,	,			Z	
kas	kas	0		D	
Rein	Rein	0		H	sg n
või	või	0		S	sg g
   	või	0		V	o
   	või	0		D	
   	või	0		J	
   	või	0		S	sg n
Villem	Villem	0		H	sg n
üks	üks	0		N	sg n
   	üks	0		P	sg n
rubla	rubla	0		S	sg g
     	rubla	0		S	sg n
     	rubla	0		S	sg p
trahvi	trahv	0		S	adt
      	trahv	0		S	sg g
      	trahvi	0		V	o
      	trahv	0		S	sg p
alla	alla	0		D	
    	alla	0		K	
,	,			Z	
kumb	kumb	0		P	sg n
valet	vale	t		A	sg p
     	vale	t		S	sg p
on	ole	0		V	b
  	ole	0		V	vad
kohtu	kohtu	0		V	o
     	kohus	0		S	sg g
ees	ees	0		D	
   	ees	0		K	
   	esi	s		S	sg in
rääkinud	rääki	nud		V	nud
        	rääki=nu	d		S	pl n
        	rääki=nud	0		A	
        	rääki=nud	0		A	sg n
        	rääki=nud	d		A	pl n
.	.			Z	
Kui	kui	0		D	
   	kui	0		J	
Villem	Villem	0		H	sg n
valetanud	valeta	nud		V	nud
         	valeta=nu	d		S	pl n
         	valeta=nud	0		A	
         	valeta=nud	0		A	sg n
         	valeta=nud	d		A	pl n
,	,			Z	
siis	siis	0		D	
    	siis	0		J	
saab	saa	b		V	b
se	####				
1	1	0		N	?
rubla	rubla	0		S	sg g
     	rubla	0		S	sg n
     	rubla	0		S	sg p
Reinule	Rein	le		H	sg all
selle	see	0		P	sg g
     	sell	e		S	pl p
vaeva	vaev	0		S	adt
     	vaev	0		S	sg g
     	vaeva	0		V	o
     	vaev	0		S	sg p
ja	ja	0		J	
aia	aed	0		S	sg g
viitmisse	viitmine	se		S	adt
ette	ette	0		D	
    	ette	0		K	
    	esi	tte		S	adt
,	,			Z	
et	et	0		J	
5	5	0		N	?
korda	kord	0		S	adt
     	korda	0		V	o
     	kord	0		S	sg p
on	ole	0		V	b
  	ole	0		V	vad
raha	raha	0		S	sg g
    	raha	0		S	sg n
    	raha	0		S	sg p
järel	järel	0		D	
     	järel	0		K	
käinu	käinu	0		S	sg g
     	käinu	0		S	sg n
,	,			Z	
on	ole	0		V	b
  	ole	0		V	vad
Rein	Rein	0		H	sg n
valet	vale	t		A	sg p
     	vale	t		S	sg p
tunnistanud	tunnista	nud		V	nud
           	tunnista=nu	d		S	pl n
           	tunnista=nud	0		A	
           	tunnista=nud	0		A	sg n
           	tunnista=nud	d		A	pl n
,	,			Z	
maksab	maks	b		V	b
1	1	0		N	?
rubla	rubla	0		S	sg g
     	rubla	0		S	sg n
     	rubla	0		S	sg p
Ungro	####				
valla	vald	0		S	sg g
     	valla	0		D	
laekase	lae_kask	0		S	sg g
.	.			Z	
Ja	ja	0		J	
Villem	Villem	0		H	sg n
Uuesild	uue_sild	0		S	sg n
,	,			Z	
et	et	0		J	
talitaja	talitaja	0		S	sg g
        	talitaja	0		S	sg n
käsko	####				
ei	ei	0		D	
  	ei	0		V	neg
täitnud	täit	nud		V	nud
       	täit=nu	d		S	pl n
       	täit=nud	0		A	
       	täit=nud	0		A	sg n
       	täit=nud	d		A	pl n
,	,			Z	
et	et	0		J	
30al	####				
augustis	august	s		S	sg in
ei	ei	0		D	
  	ei	0		V	neg
tulnud	tul=nud	0		A	
      	tul=nud	0		A	sg n
      	tul=nud	d		A	pl n
      	tule	nud		V	nud
      	tulnu	d		S	pl n
kohtu	kohtu	0		V	o
     	kohus	0		S	sg g
ette	ette	0		D	
    	ette	0		K	
    	esi	tte		S	adt
,	,			Z	
selle	see	0		P	sg g
     	sell	e		S	pl p
ette	ette	0		D	
    	ette	0		K	
    	esi	tte		S	adt
langeb	lange	b		V	b
trahvi	trahv	0		S	adt
      	trahv	0		S	sg g
      	trahvi	0		V	o
      	trahv	0		S	sg p
alla	alla	0		D	
    	alla	0		K	
ja	ja	0		J	
peab	pida	b		V	b
2	2	0		N	?
päeva	päev	0		S	adt
     	päev	0		S	sg g
     	päev	0		S	sg p
ja	ja	0		J	
2	2	0		N	?
õõd	####				
trahv	trahv	0		S	sg n
istuma	istu	ma		V	ma
täna	täna	0		D	
    	täna	0		V	o
.	.			Z	
