kogukonna	kogukond	0		S	sg g
majasse	maja	sse		S	sg ill
olid	ole	id		V	sid
talitaja	talitaja	0		S	sg g
        	talitaja	0		S	sg n
talutuse	talutus	0		S	sg g
al	####				
kokku	kokku	0		D	
     	kogu	0		S	adt
tulnud	tul=nud	0		A	
      	tul=nud	0		A	sg n
      	tul=nud	d		A	pl n
      	tule	nud		V	nud
      	tulnu	d		S	pl n
:	:			Z	
1	1	0		N	?
)	)			Z	
Ma	mina	0		P	sg n
omanik	omanik	0		S	sg n
Hans	Hans	0		H	sg n
Valk	valk	0		S	sg n
2	2	0		N	?
)	)			Z	
koharentnikud	koha_rentnik	d		S	pl n
:	:			Z	
Pooladra	pool_ader	0		S	sg g
Jaan	Jaan	0		H	sg n
    	jaan	0		S	sg n
    	jaan	0		Y	?
Kadarpik	####				
Everti	####				
Aadam	Aadam	0		H	sg n
Män	####				
Jaan	Jaan	0		H	sg n
    	jaan	0		S	sg n
    	jaan	0		Y	?
Kruspan	####				
Jaan	Jaan	0		H	sg n
    	jaan	0		S	sg n
    	jaan	0		Y	?
Liiv	liiv	0		S	sg n
Jakob	Jakob	0		H	sg n
Erlih	####				
Jaan	Jaan	0		H	sg n
    	jaan	0		S	sg n
    	jaan	0		Y	?
Tiituv	####				
Jüri	Jüri	0		H	sg g
    	Jüri	0		H	sg n
Vahartal	####				
Priidik	####				
kirpman	####				
Karl	Karl	0		H	sg n
Villand	villand	0		D	
Jakob	Jakob	0		H	sg n
Rehi	rehi	0		S	sg n
kustav	kus=tav	0		A	sg n
      	kuse	tav		V	tav
Treier	####				
Jaan	Jaan	0		H	sg n
    	jaan	0		S	sg n
    	jaan	0		Y	?
Tanner	tanner	0		S	sg n
Juhan	Juhan	0		H	sg n
Vindling	####				
Jakob	Jakob	0		H	sg n
Kreek	kreek	0		S	sg n
Jakob	Jakob	0		H	sg n
Tanner	tanner	0		S	sg n
Jaan	Jaan	0		H	sg n
    	jaan	0		S	sg n
    	jaan	0		Y	?
Tamm	tamm	0		S	sg n
Jaan	Jaan	0		H	sg n
    	jaan	0		S	sg n
    	jaan	0		Y	?
Nõmm	nõmm	0		S	sg n
Karl	Karl	0		H	sg n
Truve	####				
Jernoia	####				
Jakob	Jakob	0		H	sg n
Vesirad	####				
kustav	kus=tav	0		A	sg n
      	kuse	tav		V	tav
Vahartal	####				
Juhan	Juhan	0		H	sg n
Risti	Risti	0		H	sg g
     	Risti	0		H	sg n
     	rist	0		S	adt
     	rist	0		S	sg g
     	rist	0		S	sg p
     	risti	0		D	
     	risti	0		V	o
     	risti	0		S	sg g
     	risti	0		S	sg n
Mart	Mart	0		H	sg n
    	mart	0		S	sg n
Väisenveld	####				
Kustas	Kusta	s		H	sg in
      	Kustas	0		H	sg n
severman	####				
Jüri	Jüri	0		H	sg g
    	Jüri	0		H	sg n
Mik	####				
Kustas	Kusta	s		H	sg in
      	Kustas	0		H	sg n
Lai	lai	0		A	sg n
Jaan	Jaan	0		H	sg n
    	jaan	0		S	sg n
    	jaan	0		Y	?
kirpman	####				
Jakob	Jakob	0		H	sg n
Valk	valk	0		S	sg n
Jaan	Jaan	0		H	sg n
    	jaan	0		S	sg n
    	jaan	0		Y	?
Tatter	####				
J	J	0		Y	?
Mart	Mart	0		H	sg n
    	mart	0		S	sg n
Tõns	Tõns	0		H	sg n
Mart	Mart	0		H	sg n
    	mart	0		S	sg n
Treier	####				
Jaan	Jaan	0		H	sg n
    	jaan	0		S	sg n
    	jaan	0		Y	?
Rehi	rehi	0		S	sg n
Jüri	Jüri	0		H	sg g
    	Jüri	0		H	sg n
Sillart	####				
3	3	0		N	?
)	)			Z	
ilma	ilm	0		S	adt
    	ilm	0		S	sg g
    	ilma	0		D	
    	ilma	0		K	
    	ilm	0		S	sg p
maadeta	maa	deta		S	pl ab
likide	####				
volinikud	volinik	d		S	pl n
:	:			Z	
Kustas	Kusta	s		H	sg in
      	Kustas	0		H	sg n
Vahartal	####				
TUlemata	####				
jäid	jää	id		V	sid
koharentnikud	koha_rentnik	d		S	pl n
Jüri	Jüri	0		H	sg g
    	Jüri	0		H	sg n
nõm	####				
Jaan	Jaan	0		H	sg n
    	jaan	0		S	sg n
    	jaan	0		Y	?
Mik	####				
Karl	Karl	0		H	sg n
Uustal	####				
Mart	Mart	0		H	sg n
    	mart	0		S	sg n
Uustal	####				
Jüri	Jüri	0		H	sg g
    	Jüri	0		H	sg n
Karing	####				
Mart	Mart	0		H	sg n
    	mart	0		S	sg n
Män	####				
Aadam	Aadam	0		H	sg n
Vesirad	####				
Jakob	Jakob	0		H	sg n
Lai	lai	0		A	sg n
Kustas	Kusta	s		H	sg in
      	Kustas	0		H	sg n
Karing	####				
Madis	Madis	0		H	sg n
     	madis	0		S	sg n
Arukask	aru_kask	0		S	sg n
Mart	Mart	0		H	sg n
    	mart	0		S	sg n
Tõning	####				
Jaan	Jaan	0		H	sg n
    	jaan	0		S	sg n
    	jaan	0		Y	?
Valbet	####				
Jaan	Jaan	0		H	sg n
    	jaan	0		S	sg n
    	jaan	0		Y	?
Sarapuu	sara_puu	0		S	sg g
       	sara_puu	0		S	sg n
Aadam	Aadam	0		H	sg n
Oonemar	####				
Jaan	Jaan	0		H	sg n
    	jaan	0		S	sg n
    	jaan	0		Y	?
Karing	####				
tulemata	tule	mata		V	mata
        	tulemata	0		A	
jäid	jää	id		V	sid
volinikud	volinik	d		S	pl n
Jaan	Jaan	0		H	sg n
    	jaan	0		S	sg n
    	jaan	0		Y	?
Valk	valk	0		S	sg n
Jaan	Jaan	0		H	sg n
    	jaan	0		S	sg n
    	jaan	0		Y	?
Tõning	####				
valitud	valitud	0		A	
       	valitud	0		A	sg n
       	valitud	d		A	pl n
       	vali	tud		V	tud
       	valitu	d		S	pl n
said	saa	id		V	sid
:	:			Z	
1	1	0		N	?
)	)			Z	
talitajaks	talitaja	ks		S	sg tr
:	:			Z	
Jaan	Jaan	0		H	sg n
    	jaan	0		S	sg n
    	jaan	0		Y	?
Kadarpik	####				
18	18	0		N	?
häälega	hääl	ga		S	sg kom
2	2	0		N	?
)	)			Z	
abimeheks	abi_mees	ks		S	sg tr
:	:			Z	
Jaan	Jaan	0		H	sg n
    	jaan	0		S	sg n
    	jaan	0		Y	?
Nõm	####				
15	15	0		N	?
häälega	hääl	ga		S	sg kom
3	3	0		N	?
)	)			Z	
eestseisjad	eest_seisja	d		S	pl n
:	:			Z	
Kustas	Kusta	s		H	sg in
      	Kustas	0		H	sg n
Liiv	liiv	0		S	sg n
22	22	0		N	?
""""	""""			Z	
""""	""""			Z	
Priidik	####				
kirpman	####				
19	19	0		N	?
""""	""""			Z	
4	4	0		N	?
)	)			Z	
volimeheks	voli_mees	ks		S	sg tr
Jaan	Jaan	0		H	sg n
    	jaan	0		S	sg n
    	jaan	0		Y	?
kirpman	####				
11	11	0		N	?
""""	""""			Z	
koos	koos	0		D	
    	koos	0		K	
    	koos	0		S	sg n
    	kubu	s		S	sg in
olid	ole	id		V	sid
Pisalu	####				
valla	vald	0		S	sg g
     	valla	0		D	
liikmed	liige	d		S	pl n
talitaja	talitaja	0		S	sg g
        	talitaja	0		S	sg n
Jakob	Jakob	0		H	sg n
Rehi	rehi	0		S	sg n
[	[			Z	
allkiri	all_kiri	0		S	sg n
]	]			Z	
kirjutaja	kirjutaja	0		S	sg g
         	kirjutaja	0		S	sg n
:	:			Z	
Rein	Rein	0		H	sg n
Robach	####				
[	[			Z	
allkiri	all_kiri	0		S	sg n
]	]			Z	
