astus	astu	s		V	s
ette	ette	0		D	
    	ette	0		K	
    	esi	tte		S	adt
Kansi	####				
mölder	mölder	0		S	sg n
Mart	Mart	0		H	sg n
    	mart	0		S	sg n
Binerdorf	####				
30	30	0		N	?
astad	####				
vana	vana	0		A	sg g
    	vana	0		A	sg n
    	vana	0		A	sg p
    	vana	0		S	sg g
    	vana	0		S	sg n
    	vana	0		S	sg p
laual	laud	l		S	sg ad
käinud	käi	nud		V	nud
      	käi=nud	0		A	
      	käi=nud	0		A	sg n
      	käi=nud	d		A	pl n
      	käinu	d		S	pl n
märti	####				
küüs	küüs	0		S	sg n
kaebas	kaeba	s		V	s
kohtu	kohtu	0		V	o
     	kohus	0		S	sg g
et	et	0		J	
tema	tema	0		P	sg g
    	tema	0		P	sg n
veskis	veski	s		S	sg in
käinud	käi	nud		V	nud
      	käi=nud	0		A	
      	käi=nud	0		A	sg n
      	käi=nud	d		A	pl n
      	käinu	d		S	pl n
varas	vara	s		S	sg in
     	varas	0		S	sg n
öösel	öösel	0		D	
eel	eel	0		D	
   	eel	0		K	
   	esi	l		S	sg ad
20	20	0		N	?
/	/			Z	
21	21	0		N	?
peal	pea	l		S	sg ad
    	peal	0		D	
    	peal	0		K	
varas	vara	s		S	sg in
     	varas	0		S	sg n
on	ole	0		V	b
  	ole	0		V	vad
uksest	uks	st		S	sg el
sisse	siss	e		S	pl p
     	sisse	0		D	
     	sisse	0		K	
läinud	läinu	d		S	pl n
      	läinud	0		A	
      	läinud	0		A	sg n
      	läinud	d		A	pl n
      	mine	nud		V	nud
,	,			Z	
uks	uks	0		S	sg n
on	ole	0		V	b
  	ole	0		V	vad
lukkus	lukku	s		V	s
      	lukkus	0		A	
      	lukkus	0		D	
olnud	ol=nud	0		A	
     	ol=nud	0		A	sg n
     	ol=nud	d		A	pl n
     	ole	nud		V	nud
     	olnu	d		S	pl n
,	,			Z	
tema	tema	0		P	sg g
    	tema	0		P	sg n
on	ole	0		V	b
  	ole	0		V	vad
ukse	uks	0		S	sg g
hagid	hagi	d		S	pl n
lahti	laht	i		S	pl p
     	lahti	0		D	
teinud	tege	nud		V	nud
      	tei=nud	0		A	
      	tei=nud	0		A	sg n
      	tei=nud	d		A	pl n
      	teinu	d		S	pl n
ja	ja	0		J	
ühe	üks	0		N	sg g
   	üks	0		P	sg g
   	ühe	0		S	sg n
koti	kott	0		S	sg g
    	kotti	0		V	o
jahu	jahu	0		S	sg g
    	jahu	0		V	o
    	jahu	0		S	sg n
    	jahu	0		S	sg p
kelle	kes	0		P	pl g
     	kes	0		P	sg g
suurus	suurus	0		S	sg n
kaks	kaks	0		N	sg n
vakka	vakk	0		S	adt
     	vakk	0		S	sg p
     	vakka	0		D	
olnud	ol=nud	0		A	
     	ol=nud	0		A	sg n
     	ol=nud	d		A	pl n
     	ole	nud		V	nud
     	olnu	d		S	pl n
,	,			Z	
trepist	trepp	st		S	sg el
alla	alla	0		D	
    	alla	0		K	
toonud	too	nud		V	nud
      	too=nu	d		S	pl n
      	too=nud	0		A	
      	too=nud	0		A	sg n
      	too=nud	d		A	pl n
ja	ja	0		J	
trepi	trepp	0		S	sg g
all	all	0		D	
   	all	0		K	
mahakukunud	####				
kus	kus	0		D	
pool	pool	0		K	
    	pool	0		N	sg n
    	pool	0		S	sg n
vakka	vakk	0		S	adt
     	vakk	0		S	sg p
     	vakka	0		D	
jahu	jahu	0		S	sg g
    	jahu	0		V	o
    	jahu	0		S	sg n
    	jahu	0		S	sg p
maha	maha	0		D	
läinud	läinu	d		S	pl n
      	läinud	0		A	
      	läinud	0		A	sg n
      	läinud	d		A	pl n
      	mine	nud		V	nud
,	,			Z	
ja	ja	0		J	
mis	mis	0		P	pl n
   	mis	0		P	sg n
peale	pea	le		S	sg all
     	peale	0		D	
     	peale	0		K	
selle	see	0		P	sg g
     	sell	e		S	pl p
seda	see	da		P	sg p
on	ole	0		V	b
  	ole	0		V	vad
varas	vara	s		S	sg in
     	varas	0		S	sg n
ära	ära	0		D	
   	ära	0		V	neg o
viinud	vii	nud		V	nud
      	vii=nu	d		S	pl n
      	vii=nud	0		A	
      	vii=nud	0		A	sg n
      	vii=nud	d		A	pl n
,	,			Z	
nende	see	de		P	pl g
     	tema	de		P	pl g
jahude	jahu	de		S	pl g
peal	pea	l		S	sg ad
    	peal	0		D	
    	peal	0		K	
mis	mis	0		P	pl n
   	mis	0		P	sg n
maha	maha	0		D	
olid	ole	id		V	sid
jäänud	jää	nud		V	nud
      	jäänu	d		S	pl n
      	jäänud	0		A	
      	jäänud	0		A	sg n
      	jäänud	d		A	pl n
on	ole	0		V	b
  	ole	0		V	vad
selgeste	####				
kolm	kolm	0		N	sg n
saapa	saabas	0		S	sg g
jälge	jälg	0		S	adt
     	jälg	0		S	sg p
näha	näge	a		V	da
,	,			Z	
kui	kui	0		D	
   	kui	0		J	
mölder	mölder	0		S	sg n
selle	see	0		P	sg g
     	sell	e		S	pl p
vargusest	vargus	st		S	sg el
aru	aru	0		S	sg g
   	aru	0		S	sg n
   	aru	0		S	sg p
saanud	saa	nud		V	nud
      	saa=nud	0		A	
      	saa=nud	0		A	sg n
      	saa=nud	d		A	pl n
      	saanu	d		S	pl n
kutsunud	kutsu	nud		V	nud
        	kutsu=nu	d		S	pl n
        	kutsu=nud	0		A	
        	kutsu=nud	0		A	sg n
        	kutsu=nud	d		A	pl n
tema	tema	0		P	sg g
    	tema	0		P	sg n
kohe	kohe	0		A	sg n
    	kohe	0		D	
talitaja	talitaja	0		S	sg g
        	talitaja	0		S	sg n
abimehe	abi_mees	0		S	sg g
kustas	####				
Reinvaldi	####				
seda	see	da		P	sg p
asja	asi	0		S	adt
    	asi	0		S	sg g
    	asi	0		S	sg p
vaatama	vaata	ma		V	ma
ja	ja	0		J	
kohtu	kohtu	0		V	o
     	kohus	0		S	sg g
I	I	0		O	?
 	I	0		Y	?
 	j	0		Y	?
kõrvamees	kõrva_mees	0		S	sg n
olnud	ol=nud	0		A	
     	ol=nud	0		A	sg n
     	ol=nud	d		A	pl n
     	ole	nud		V	nud
     	olnu	d		S	pl n
ka	ka	0		D	
seda	see	da		P	sg p
asja	asi	0		S	adt
    	asi	0		S	sg g
    	asi	0		S	sg p
vaatama	vaata	ma		V	ma
,	,			Z	
ja	ja	0		J	
mölder	mölder	0		S	sg n
Mart	Mart	0		H	sg n
    	mart	0		S	sg n
Binerdorf	####				
arvab	arva	b		V	b
seda	see	da		P	sg p
vargust	vargus	t		S	sg p
Kaarel	Kaarel	0		H	sg n
      	kaar	l		S	sg ad
      	kaarel	0		S	sg n
Timmeri	####				
peale	pea	le		S	sg all
     	peale	0		D	
     	peale	0		K	
saepa	####				
jälgetest	####				
,	,			Z	
keda	kes	da		P	pl p
    	kes	da		P	sg p
tema	tema	0		P	sg g
    	tema	0		P	sg n
ühe	üks	0		N	sg g
   	üks	0		P	sg g
   	ühe	0		S	sg n
aja	aeg	0		S	sg g
   	aja	0		V	o
mõetmise	####				
juures	juur	s		S	sg in
      	juures	0		D	
      	juures	0		K	
sapa	####				
peal	pea	l		S	sg ad
    	peal	0		D	
    	peal	0		K	
tähele	täht	le		S	sg all
      	tähele	0		X	
pannud	pan=nu	d		S	pl n
      	pan=nud	0		A	
      	pan=nud	0		A	sg n
      	pan=nud	d		A	pl n
      	pane	nud		V	nud
,	,			Z	
ja	ja	0		J	
nende	see	de		P	pl g
     	tema	de		P	pl g
jälgedega	jälg	dega		S	pl kom
mis	mis	0		P	pl n
   	mis	0		P	sg n
jahude	jahu	de		S	pl g
peal	pea	l		S	sg ad
    	peal	0		D	
    	peal	0		K	
on	ole	0		V	b
  	ole	0		V	vad
ühte	ühte	0		D	
    	üks	0		N	adt
    	üks	0		P	adt
    	ühe	0		S	sg g
    	üks	0		N	sg p
    	üks	0		P	sg p
läinud	läinu	d		S	pl n
      	läinud	0		A	
      	läinud	0		A	sg n
      	läinud	d		A	pl n
      	mine	nud		V	nud
.	.			Z	
astus	astu	s		V	s
ette	ette	0		D	
    	ette	0		K	
    	esi	tte		S	adt
Kaarel	Kaarel	0		H	sg n
      	kaar	l		S	sg ad
      	kaarel	0		S	sg n
Timmer	####				
27	27	0		N	?
aastat	aasta	t		S	sg p
vana	vana	0		A	sg g
    	vana	0		A	sg n
    	vana	0		A	sg p
    	vana	0		S	sg g
    	vana	0		S	sg n
    	vana	0		S	sg p
laual	laud	l		S	sg ad
käinud	käi	nud		V	nud
      	käi=nud	0		A	
      	käi=nud	0		A	sg n
      	käi=nud	d		A	pl n
      	käinu	d		S	pl n
mineva	minev	0		A	sg g
aasta	aasta	0		S	sg g
     	aasta	0		S	sg n
teisel	teine	l		O	sg ad
      	teine	l		P	sg ad
Kristuse	Kristus	0		H	sg g
tulemise	tulemine	0		S	sg g
pühal	püha	l		A	sg ad
     	püha	l		S	sg ad
ütles	ütle	s		V	s
välja	välja	0		D	
     	välja	0		V	o
     	väli	0		S	adt
     	väli	0		S	sg g
     	väli	0		S	sg p
et	et	0		J	
tema	tema	0		P	sg g
    	tema	0		P	sg n
seal	seal	0		D	
    	siga	l		A	sg ad
    	siga	l		S	sg ad
juuures	####				
on	ole	0		V	b
  	ole	0		V	vad
olnud	ol=nud	0		A	
     	ol=nud	0		A	sg n
     	ol=nud	d		A	pl n
     	ole	nud		V	nud
     	olnu	d		S	pl n
kui	kui	0		D	
   	kui	0		J	
talitaja	talitaja	0		S	sg g
        	talitaja	0		S	sg n
abimees	abi_mees	0		S	sg n
ja	ja	0		J	
I	I	0		O	?
 	I	0		Y	?
 	j	0		Y	?
kohtu	kohtu	0		V	o
     	kohus	0		S	sg g
kõrvamees	kõrva_mees	0		S	sg n
need	see	d		P	pl n
sapa	####				
jälgi	jälg	i		S	pl p
     	jälgi	0		V	o
     	jälk	0		A	sg g
on	ole	0		V	b
  	ole	0		V	vad
mõetnud	####				
ja	ja	0		J	
üks	üks	0		N	sg n
   	üks	0		P	sg n
jälg	jälg	0		S	sg n
on	ole	0		V	b
  	ole	0		V	vad
ühte	ühte	0		D	
    	üks	0		N	adt
    	üks	0		P	adt
    	ühe	0		S	sg g
    	üks	0		N	sg p
    	üks	0		P	sg p
läinud	läinu	d		S	pl n
      	läinud	0		A	
      	läinud	0		A	sg n
      	läinud	d		A	pl n
      	mine	nud		V	nud
.	.			Z	
Veel	veel	0		D	
    	vesi	l		S	sg ad
ütles	ütle	s		V	s
Kaarel	Kaarel	0		H	sg n
      	kaar	l		S	sg ad
      	kaarel	0		S	sg n
Timmer	####				
et	et	0		J	
tema	tema	0		P	sg g
    	tema	0		P	sg n
õhtu	õhtu	0		S	sg g
    	õhtu	0		S	sg n
enne	enne	0		D	
    	enne	0		K	
    	enne	0		S	sg n
päeva	päev	0		S	adt
     	päev	0		S	sg g
     	päev	0		S	sg p
lojad	####				
Roopal	roobas	l		S	sg ad
on	ole	0		V	b
  	ole	0		V	vad
olnud	ol=nud	0		A	
     	ol=nud	0		A	sg n
     	ol=nud	d		A	pl n
     	ole	nud		V	nud
     	olnu	d		S	pl n
ja	ja	0		J	
siis	siis	0		D	
    	siis	0		J	
sealt	sealt	0		D	
     	siga	lt		A	sg abl
     	siga	lt		S	sg abl
pärast	pära	st		S	sg el
      	pärane	t		A	sg p
      	pärast	0		D	
      	pärast	0		K	
päeva	päev	0		S	adt
     	päev	0		S	sg g
     	päev	0		S	sg p
lojad	####				
kodu	kodu	0		S	sg g
    	kodu	0		S	sg n
    	kodu	0		S	sg p
läinud	läinu	d		S	pl n
      	läinud	0		A	
      	läinud	0		A	sg n
      	läinud	d		A	pl n
      	mine	nud		V	nud
ja	ja	0		J	
riided	riie	d		S	pl n
ära	ära	0		D	
   	ära	0		V	neg o
seljast	selg	st		S	sg el
võtnud	võt	nud		V	nud
      	võt=nu	d		S	pl n
      	võt=nud	0		A	
      	võt=nud	0		A	sg n
      	võt=nud	d		A	pl n
ja	ja	0		J	
kohe	kohe	0		A	sg n
    	kohe	0		D	
magama	maga	ma		V	ma
heitnud	heit	nud		V	nud
       	heit=nu	d		S	pl n
       	heit=nud	0		A	
       	heit=nud	0		A	sg n
       	heit=nud	d		A	pl n
.	.			Z	
Sai	saa	i		V	s
   	sai	0		S	sg n
ette	ette	0		D	
    	ette	0		K	
    	esi	tte		S	adt
toodud	too	dud		V	tud
      	toodu	d		S	pl n
      	toodud	0		A	
      	toodud	0		A	sg n
      	toodud	d		A	pl n
Kaarel	Kaarel	0		H	sg n
      	kaar	l		S	sg ad
      	kaarel	0		S	sg n
Timmeri	####				
sapad	####				
ja	ja	0		J	
said	saa	id		V	sid
kohtu	kohtu	0		V	o
     	kohus	0		S	sg g
ees	ees	0		D	
   	ees	0		K	
   	esi	s		S	sg in
üle	üle	0		D	
   	üle	0		K	
moetetud	####				
selle	see	0		P	sg g
     	sell	e		S	pl p
moedu	####				
järele	järele	0		D	
      	järele	0		K	
mis	mis	0		P	pl n
   	mis	0		P	sg n
I	I	0		O	?
 	I	0		Y	?
 	j	0		Y	?
kohtu	kohtu	0		V	o
     	kohus	0		S	sg g
kõrvamees	kõrva_mees	0		S	sg n
ja	ja	0		J	
talitaja	talitaja	0		S	sg g
        	talitaja	0		S	sg n
abimees	abi_mees	0		S	sg n
jahu	jahu	0		S	sg g
    	jahu	0		V	o
    	jahu	0		S	sg n
    	jahu	0		S	sg p
peal	pea	l		S	sg ad
    	peal	0		D	
    	peal	0		K	
jälkide	jälk	de		A	pl g
pealt	pea	lt		S	sg abl
     	pealt	0		D	
     	pealt	0		K	
äravõtnud	ära_võt=nu	d		S	pl n
         	ära_võt=nud	0		A	
         	ära_võt=nud	0		A	sg n
         	ära_võt=nud	d		A	pl n
olid	ole	id		V	sid
ja	ja	0		J	
se	####				
moet	####				
ei	ei	0		D	
  	ei	0		V	neg
läinud	läinu	d		S	pl n
      	läinud	0		A	
      	läinud	0		A	sg n
      	läinud	d		A	pl n
      	mine	nud		V	nud
mitte	mitte	0		D	
üsna	üsna	0		D	
saapa	saabas	0		S	sg g
suurusudega	suu_rusu	dega		S	pl kom
kokku	kokku	0		D	
     	kogu	0		S	adt
.	.			Z	
selle	see	0		P	sg g
     	sell	e		S	pl p
peale	pea	le		S	sg all
     	peale	0		D	
     	peale	0		K	
sai	saa	i		V	s
   	sai	0		S	sg n
ette	ette	0		D	
    	ette	0		K	
    	esi	tte		S	adt
kutsutud	kutsu	tud		V	tud
        	kutsutu	d		S	pl n
        	kutsutud	0		A	
        	kutsutud	0		A	sg n
        	kutsutud	d		A	pl n
Karli	Karl	0		H	adt
     	Karl	0		H	sg g
     	Karl	0		H	sg p
naine	naine	0		S	sg n
Tiina	Tiina	0		H	sg g
     	Tiina	0		H	sg n
27	27	0		N	?
aastd	####				
vana	vana	0		A	sg g
    	vana	0		A	sg n
    	vana	0		A	sg p
    	vana	0		S	sg g
    	vana	0		S	sg n
    	vana	0		S	sg p
laual	laud	l		S	sg ad
käinud	käi	nud		V	nud
      	käi=nud	0		A	
      	käi=nud	0		A	sg n
      	käi=nud	d		A	pl n
      	käinu	d		S	pl n
enne	enne	0		D	
    	enne	0		K	
    	enne	0		S	sg n
Jõulu	####				
nii	nii	0		D	
kui	kui	0		D	
   	kui	0		J	
Kaarel	Kaarel	0		H	sg n
      	kaar	l		S	sg ad
      	kaarel	0		S	sg n
sai	saa	i		V	s
   	sai	0		S	sg n
küsitud	küsi	tud		V	tud
       	küsi=tu	d		S	pl n
       	küsi=tud	0		A	
       	küsi=tud	0		A	sg n
       	küsi=tud	d		A	pl n
tema	tema	0		P	sg g
    	tema	0		P	sg n
käest	käest	0		K	
     	käsi	st		S	sg el
kus	kus	0		D	
nemad	tema	d		P	pl n
tema	tema	0		P	sg g
    	tema	0		P	sg n
ja	ja	0		J	
Kaarel	Kaarel	0		H	sg n
      	kaar	l		S	sg ad
      	kaarel	0		S	sg n
pühapäev	püha_päev	0		S	sg n
õhtu	õhtu	0		S	sg g
    	õhtu	0		S	sg n
sel	see	l		P	sg ad
   	sel	0		Y	?
21	21	0		N	?
olid	ole	id		V	sid
mis	mis	0		P	pl n
   	mis	0		P	sg n
peale	pea	le		S	sg all
     	peale	0		D	
     	peale	0		K	
Tiina	Tiina	0		H	sg g
     	Tiina	0		H	sg n
vastas	vasta	s		V	s
      	vastas	0		D	
      	vastas	0		K	
et	et	0		J	
nemad	tema	d		P	pl n
mõlemad	mõlema	d		P	pl n
Roopal	roobas	l		S	sg ad
käinud	käi	nud		V	nud
      	käi=nud	0		A	
      	käi=nud	0		A	sg n
      	käi=nud	d		A	pl n
      	käinu	d		S	pl n
ja	ja	0		J	
sealt	sealt	0		D	
     	siga	lt		A	sg abl
     	siga	lt		S	sg abl
pärast	pära	st		S	sg el
      	pärane	t		A	sg p
      	pärast	0		D	
      	pärast	0		K	
päeva	päev	0		S	adt
     	päev	0		S	sg g
     	päev	0		S	sg p
koju	kodu	0		S	adt
läinud	läinu	d		S	pl n
      	läinud	0		A	
      	läinud	0		A	sg n
      	läinud	d		A	pl n
      	mine	nud		V	nud
ja	ja	0		J	
kohe	kohe	0		A	sg n
    	kohe	0		D	
magama	maga	ma		V	ma
heitnud	heit	nud		V	nud
       	heit=nu	d		S	pl n
       	heit=nud	0		A	
       	heit=nud	0		A	sg n
       	heit=nud	d		A	pl n
,	,			Z	
nemad	tema	d		P	pl n
olla	ole	a		V	da
ju	ju	0		D	
Ropal	####				
sõöönud	####				
kapsa	kapsa	0		V	o
     	kapsas	0		S	sg g
leent	leem	t		S	sg p
.	.			Z	
mõlemad	mõlema	d		P	pl n
pooled	pool	d		N	pl n
      	pool	d		S	pl n
leppisid	leppi	sid		V	sid
kohtu	kohtu	0		V	o
     	kohus	0		S	sg g
ees	ees	0		D	
   	ees	0		K	
   	esi	s		S	sg in
ära	ära	0		D	
   	ära	0		V	neg o
ja	ja	0		J	
andsid	and	sid		V	sid
teine	teine	0		O	sg n
     	teine	0		P	sg n
teisele	teine	le		O	sg all
       	teine	le		P	sg all
kätt	käsi	tt		S	sg p
