kohtu	kohtu	0		V	o
     	kohus	0		S	sg g
poolt	pool	t		N	sg p
     	pool	t		S	sg p
     	poolt	0		D	
     	poolt	0		K	
sai	saa	i		V	s
   	sai	0		S	sg n
Võnnu	Võnnu	0		H	sg g
     	Võnnu	0		H	sg n
mõisa	mõis	0		S	sg g
valitsuse	valitsus	0		S	sg g
kiri	kiri	0		S	sg n
et	et	0		J	
Kustase	Kustas	0		H	sg g
koha	koht	0		S	sg g
    	koha	0		S	sg g
    	koha	0		V	o
    	koha	0		S	sg n
    	koha	0		S	sg p
peal	pea	l		S	sg ad
    	peal	0		D	
    	peal	0		K	
olevat	ole	vat		V	vat
      	olev	t		A	sg p
      	olev	t		S	sg p
hooned	hoone	d		S	pl n
rentniku	rentnik	0		S	sg g
oomadus	####				
on	ole	0		V	b
  	ole	0		V	vad
ära	ära	0		D	
   	ära	0		V	neg o
kinnitud	kinnitu	d		V	d
ja	ja	0		J	
kiri	kiri	0		S	sg n
rentniku	rentnik	0		S	sg g
Ado	Ado	0		H	sg g
   	Ado	0		H	sg n
Kiisale	kiisk	le		S	sg all
tagasi	tagasi	0		D	
      	tagasi	0		K	
antud	an=tu	d		S	pl n
     	and	tud		V	tud
     	antud	0		A	
     	antud	0		A	sg n
     	antud	d		A	pl n
.	.			Z	
Dakb	####				
.	.			Z	
1890	1890	0		N	?
sub	####				
.	.			Z	
No	no	0		I	
64	64	0		N	?
