et	et	0		J	
Kustav	kus=tav	0		A	sg n
      	kuse	tav		V	tav
Hugil	####				
põle	põle	0		V	o
raha	raha	0		S	sg g
    	raha	0		S	sg n
    	raha	0		S	sg p
olnud	ol=nud	0		A	
     	ol=nud	0		A	sg n
     	ol=nud	d		A	pl n
     	ole	nud		V	nud
     	olnu	d		S	pl n
maksta	maks	ta		V	da
      	maks	ta		V	ta
Nagu	nagu	0		D	
    	nagu	0		J	
Nr	Nr	0		Y	?
35	35	0		N	?
al	####				
mõistetud	mõist	tud		V	tud
         	mõiste=tu	d		S	pl n
         	mõiste=tud	0		A	
         	mõiste=tud	0		A	sg n
         	mõiste=tud	d		A	pl n
,	,			Z	
sai	saa	i		V	s
   	sai	0		S	sg n
12	12	0		N	?
tunniks	tund	ks		S	sg tr
kinni	kinni	0		D	
pandud	pan=du	d		S	pl n
      	pan=dud	0		A	
      	pan=dud	0		A	sg n
      	pan=dud	d		A	pl n
      	pane	dud		V	tud
,	,			Z	
mis	mis	0		P	pl n
   	mis	0		P	sg n
läbi	läbi	0		D	
    	läbi	0		K	
    	läbi	0		V	o
rahatrahvist	raha_trahv	st		S	sg el
lahti	laht	i		S	pl p
     	lahti	0		D	
,	,			Z	
_	_			Z	
mis	mis	0		P	pl n
   	mis	0		P	sg n
ka	ka	0		D	
täidetud	täit	tud		V	tud
        	täide=tu	d		S	pl n
        	täide=tud	0		A	
        	täide=tud	0		A	sg n
        	täide=tud	d		A	pl n
sai	saa	i		V	s
   	sai	0		S	sg n
.	.			Z	
