protticol	####				
N	N	0		Y	?
:	:			Z	
61	61	0		N	?
sest	see	st		P	sg el
    	sest	0		J	
28	28	0		N	?
Sepptembrist	####				
1887	1887	0		N	?
a.	a	0		Y	?
sai	saa	i		V	s
   	sai	0		S	sg n
Johan	Johan	0		H	sg n
Sööderlund	####				
ette	ette	0		D	
    	ette	0		K	
    	esi	tte		S	adt
kutsutud	kutsu	tud		V	tud
        	kutsutu	d		S	pl n
        	kutsutud	0		A	
        	kutsutud	0		A	sg n
        	kutsutud	d		A	pl n
varastatud	varasta	tud		V	tud
          	varastatu	d		S	pl n
          	varastatud	0		A	
          	varastatud	0		A	sg n
          	varastatud	d		A	pl n
saabaste	saabas	te		S	pl g
pärast	pära	st		S	sg el
      	pärane	t		A	sg p
      	pärast	0		D	
      	pärast	0		K	
mis	mis	0		P	pl n
   	mis	0		P	sg n
kohus	kohu	s		V	s
     	kohus	0		S	sg n
mõistis	mõist	is		V	s
et	et	0		J	
ta	tema	0		P	sg g
  	tema	0		P	sg n
pidi	pida	i		V	s
    	pidi	0		K	
äramaksma	####				
3	3	0		N	?
rbl	rbl	0		Y	?
.	.			Z	
saabaste	saabas	te		S	pl g
hind	hind	0		S	sg n
ja	ja	0		J	
2	2	0		N	?
rbl	rbl	0		Y	?
.	.			Z	
strafi	####				
ooma	####				
kelmistükki	####				
ette	ette	0		D	
    	ette	0		K	
    	esi	tte		S	adt
.	.			Z	
Tema	tema	0		P	sg g
    	tema	0		P	sg n
lubas	luba	s		V	s
seda	see	da		P	sg p
raha	raha	0		S	sg g
    	raha	0		S	sg n
    	raha	0		S	sg p
31seks	####				
Oktobriks	####				
äramaksma	####				
ja	ja	0		J	
kinnitab	kinnita	b		V	b
seda	see	da		P	sg p
ooma	####				
nimi	nimi	0		S	sg n
järel	järel	0		D	
     	järel	0		K	
3	3	0		N	?
risti	rist	0		S	adt
     	rist	0		S	sg g
     	rist	0		S	sg p
     	risti	0		D	
     	risti	0		V	o
     	risti	0		S	sg g
     	risti	0		S	sg n
tehes	tege	es		V	des
.	.			Z	
Johan	Johan	0		H	sg n
Sööderlund	####				
+	+			Z	
+	+			Z	
+	+			Z	
kohtu	kohtu	0		V	o
     	kohus	0		S	sg g
mõistmise	mõistmine	0		S	sg g
järel	järel	0		D	
     	järel	0		K	
on	ole	0		V	b
  	ole	0		V	vad
J.Sööderlund	####				
säeted	####				
päeval	päev	l		S	sg ad
raha	raha	0		S	sg g
    	raha	0		S	sg n
    	raha	0		S	sg p
äramaksnud	ära_maks=nu	d		S	pl n
          	ära_maks=nud	0		A	
          	ära_maks=nud	0		A	sg n
          	ära_maks=nud	d		A	pl n
5	5	0		N	?
rbl	rbl	0		Y	?
.	.			Z	
vallakohtuvanem	valla_kohtu_vanem	0		S	sg n
A.Bentolm	####				
+	+			Z	
+	+			Z	
+	+			Z	
,	,			Z	
Juuuresistuja	####				
L.Alströöm	####				
+	+			Z	
+	+			Z	
+	+			Z	
,	,			Z	
A.Linströöm	####				
+	+			Z	
+	+			Z	
+	+			Z	
