astusid	astu	sid		V	sid
ette	ette	0		D	
    	ette	0		K	
    	esi	tte		S	adt
Hans	Hans	0		H	sg n
Agelberg	####				
Kiltsi	Kiltsi	0		H	sg g
      	Kiltsi	0		H	sg n
päris	päri	s		V	s
     	päris	0		A	
     	päris	0		D	
härra	härra	0		S	sg g
     	härra	0		S	sg n
von	####				
Noringu	####				
None	####				
taga	taga	0		D	
    	taga	0		K	
    	taga	0		V	o
aiaja	####				
,	,			Z	
kes	kes	0		P	pl n
   	kes	0		P	sg n
Kiltsi	Kiltsi	0		H	sg g
      	Kiltsi	0		H	sg n
mõisa	mõis	0		S	sg g
Junkruks	junkur	ks		S	sg tr
siis	siis	0		D	
    	siis	0		J	
olnd	####				
kui	kui	0		D	
   	kui	0		J	
Pärs	####				
hära	####				
Ado	Ado	0		H	sg g
   	Ado	0		H	sg n
kõhelikule	####				
üks	üks	0		N	sg n
   	üks	0		P	sg n
hobune	hobune	0		S	sg n
15	15	0		N	?
rubla	rubla	0		S	sg g
     	rubla	0		S	sg n
     	rubla	0		S	sg p
väärt	väärt	0		A	
     	väärt	0		D	
laenanud	laena	nud		V	nud
        	laena=nu	d		S	pl n
        	laena=nud	0		A	
        	laena=nud	0		A	sg n
        	laena=nud	d		A	pl n
.	.			Z	
nüüd	nüüd	0		D	
taga	taga	0		D	
    	taga	0		K	
    	taga	0		V	o
aiab	####				
Võlglane	võlglane	0		S	sg n
Ado	Ado	0		H	sg g
   	Ado	0		H	sg n
kõhelik	####				
,	,			Z	
oli	ole	i		V	s
ees	ees	0		D	
   	ees	0		K	
   	esi	s		S	sg in
ja	ja	0		J	
tunistas	####				
et	et	0		J	
tema	tema	0		P	sg g
    	tema	0		P	sg n
se	####				
15	15	0		N	?
rublane	rublane	0		A	sg n
       	rublane	0		S	sg n
hobu	hobu	0		S	sg g
    	hobu	0		S	sg n
    	hobu	0		S	sg p
oma	oma	0		A	sg g
   	oma	0		D	
   	oma	0		P	sg g
   	oma	0		S	sg g
   	oma	0		V	o
   	oma	0		A	sg n
   	oma	0		A	sg p
   	oma	0		P	sg n
   	oma	0		P	sg p
   	oma	0		S	sg n
   	oma	0		S	sg p
Palimade	pali_made	0		S	sg n
pidaja	pidaja	0		S	sg g
      	pidaja	0		S	sg n
So	####				
Jüri	Jüri	0		H	sg g
    	Jüri	0		H	sg n
Poots	####				
kätte	kätte	0		K	
     	käsi	tte		S	adt
and	and	0		S	sg n
ja	ja	0		J	
ise	ise	0		A	
   	ise	0		D	
   	ise	0		P	pl n
   	ise	0		P	sg n
käe	käsi	0		S	sg g
meheks	mees	ks		S	sg tr
jäänd	####				
.	.			Z	
So	####				
Jüri	Jüri	0		H	sg g
    	Jüri	0		H	sg n
poots	####				
asemel	ase	l		S	sg ad
      	asemel	0		K	
oli	ole	i		V	s
tema	tema	0		P	sg g
    	tema	0		P	sg n
poeg	poeg	0		S	sg n
Jaan	Jaan	0		H	sg n
    	jaan	0		S	sg n
    	jaan	0		Y	?
kohtu	kohtu	0		V	o
     	kohus	0		S	sg g
ees	ees	0		D	
   	ees	0		K	
   	esi	s		S	sg in
ja	ja	0		J	
lubas	luba	s		V	s
maksta	maks	ta		V	da
      	maks	ta		V	ta
.	.			Z	
võla	võlg	0		S	sg g
kaebtus	####				
ja	ja	0		J	
lubatus	lubatu	s		A	sg in
       	lubatud	s		A	sg in
(	(			Z	
on	ole	0		V	b
  	ole	0		V	vad
makstud	maks	tud		V	tud
       	maks=tu	d		S	pl n
       	maks=tud	0		A	
       	maks=tud	0		A	sg n
       	maks=tud	d		A	pl n
.	.			Z	
)	)			Z	
