sel	see	l		P	sg ad
   	sel	0		Y	?
9ndal	9=s	l		O	sg ad
Vina	vina	0		S	sg g
    	vina	0		V	o
    	vina	0		S	sg n
    	vina	0		S	sg p
Ku	####				
päeval	päev	l		S	sg ad
on	ole	0		V	b
  	ole	0		V	vad
koos	koos	0		D	
    	koos	0		K	
    	koos	0		S	sg n
    	kubu	s		S	sg in
olnud	ol=nud	0		A	
     	ol=nud	0		A	sg n
     	ol=nud	d		A	pl n
     	ole	nud		V	nud
     	olnu	d		S	pl n
.	.			Z	
kohtuvanem	kohtu_vanem	0		C	sg n
          	kohtu_vanem	0		S	sg n
Jakob	Jakob	0		H	sg n
Iis	####				
(	(			Z	
XXX	XXX	0		O	?
   	XXX	0		Y	?
)	)			Z	
kõrvamees	kõrva_mees	0		S	sg n
Juhan	Juhan	0		H	sg n
Krusart	####				
(	(			Z	
XXX	XXX	0		O	?
   	XXX	0		Y	?
)	)			Z	
kirjutaja	kirjutaja	0		S	sg g
         	kirjutaja	0		S	sg n
R. Hirsch	####				
.	.			Z	
Ei	ei	0		D	
  	ei	0		V	neg
olnud	ol=nud	0		A	
     	ol=nud	0		A	sg n
     	ol=nud	d		A	pl n
     	ole	nud		V	nud
     	olnu	d		S	pl n
üks	üks	0		N	sg n
   	üks	0		P	sg n
ette	ette	0		D	
    	ette	0		K	
    	esi	tte		S	adt
võta	võt	0		V	o
.	.			Z	
