sel	see	l		P	sg ad
   	sel	0		Y	?
4ndal	4=s	l		O	sg ad
Oktobril	####				
oli	ole	i		V	s
Putkaste	putk_aste	0		S	sg n
,	,			Z	
Enivere	####				
ja	ja	0		J	
Martna	Martna	0		H	sg g
      	Martna	0		H	sg n
kogukonna	kogukond	0		S	sg g
kohus	kohu	s		V	s
     	kohus	0		S	sg n
koos	koos	0		D	
    	koos	0		K	
    	koos	0		S	sg n
    	kubu	s		S	sg in
:	:			Z	
kohtupeavanem	kohtu_pea_vanem	0		S	sg n
:	:			Z	
Taavet	taavet	0		S	sg n
Kuu	kuu	0		S	sg g
   	kuu	0		S	sg n
""""	""""			Z	
kõrvamees	kõrva_mees	0		S	sg n
:	:			Z	
Jüri	Jüri	0		H	sg g
    	Jüri	0		H	sg n
Täht	täht	0		S	sg n
""""	""""			Z	
""""	""""			Z	
Jaan	Jaan	0		H	sg n
    	jaan	0		S	sg n
    	jaan	0		Y	?
Selart	####				
kohtu	kohtu	0		V	o
     	kohus	0		S	sg g
ette	ette	0		D	
    	ette	0		K	
    	esi	tte		S	adt
astus	astu	s		V	s
Jüri	Jüri	0		H	sg g
    	Jüri	0		H	sg n
Poman	####				
n	n	0		Y	?
.	.			Z	
An	####				
Eniverest	####				
ja	ja	0		J	
kaebas	kaeba	s		V	s
:	:			Z	
et	et	0		J	
Juhan	Juhan	0		H	sg n
Nidinki	####				
p	p	0		Y	?
.	.			Z	
Juhan	Juhan	0		H	sg n
sealtsamast	sealt_samast	0		D	
vallast	vald	st		S	sg el
on	ole	0		V	b
  	ole	0		V	vad
tema	tema	0		P	sg g
    	tema	0		P	sg n
poea	####				
Kustase	Kustas	0		H	sg g
lamba	lammas	0		S	sg g
karjas	kari	s		S	sg in
läbi	läbi	0		D	
    	läbi	0		K	
    	läbi	0		V	o
ja	ja	0		J	
läbi	läbi	0		D	
    	läbi	0		K	
    	läbi	0		V	o
märjaks	märg	ks		A	sg tr
leutanud	leu_tanu	d		S	pl n
sel	see	l		P	sg ad
   	sel	0		Y	?
viisil	viis	l		S	sg ad
      	viisil	0		K	
,	,			Z	
et	et	0		J	
ta	tema	0		P	sg g
  	tema	0		P	sg n
on	ole	0		V	b
  	ole	0		V	vad
mõnda	mõni	0		P	adt
     	mõni	da		P	sg p
tobi	tobi	0		S	sg g
    	tobi	0		S	sg n
    	tobi	0		S	sg p
täit	täis	t		A	sg p
    	täis	t		S	sg p
vet	####				
tema	tema	0		P	sg g
    	tema	0		P	sg n
poeale	####				
kraaest	####				
sisse	siss	e		S	pl p
     	sisse	0		D	
     	sisse	0		K	
vallanud	valda	nud		V	nud
        	valla=nu	d		S	pl n
        	valla=nud	0		A	
        	valla=nud	0		A	sg n
        	valla=nud	d		A	pl n
ja	ja	0		J	
viimaks	vii	maks		V	maks
       	viimaks	0		D	
veel	veel	0		D	
    	vesi	l		S	sg ad
kogun	kogu	n		V	n
maantee	maan_tee	0		S	sg g
       	maan_tee	0		S	sg n
pealt	pea	lt		S	sg abl
     	pealt	0		D	
     	pealt	0		K	
soppast	####				
vet	####				
temale	tema	le		P	sg all
vägise	vägine	0		A	sg g
      	vägine	0		S	sg g
kurko	####				
aeanud	####				
,	,			Z	
nõnda	nõnda	0		D	
et	et	0		J	
poiss	poiss	0		S	sg n
õhtu	õhtu	0		S	sg g
    	õhtu	0		S	sg n
kodu	kodu	0		S	sg g
    	kodu	0		S	sg n
    	kodu	0		S	sg p
tules	tuli	s		S	sg in
veel	veel	0		D	
    	vesi	l		S	sg ad
krusi	####				
seest	seest	0		D	
     	seest	0		K	
väljaoksendanud	välja_oksenda=nu	d		S	pl n
               	välja_oksenda=nud	0		A	
               	välja_oksenda=nud	0		A	sg n
               	välja_oksenda=nud	d		A	pl n
.	.			Z	
Pealt	pea	lt		S	sg abl
     	pealt	0		D	
     	pealt	0		K	
oli	ole	i		V	s
näinud	näi	nud		V	nud
      	näge	nud		V	nud
      	näi=nud	0		A	
      	näi=nud	0		A	sg n
      	näi=nud	d		A	pl n
      	näinu	d		S	pl n
kolmas	kolmas	0		O	sg n
karjapoiss	karja_poiss	0		S	sg n
nimega	nimi	ga		S	sg kom
Mart	Mart	0		H	sg n
    	mart	0		S	sg n
võeras	####				
.	.			Z	
ette	ette	0		D	
    	ette	0		K	
    	esi	tte		S	adt
sai	saa	i		V	s
   	sai	0		S	sg n
kutsutud	kutsu	tud		V	tud
        	kutsutu	d		S	pl n
        	kutsutud	0		A	
        	kutsutud	0		A	sg n
        	kutsutud	d		A	pl n
Juhan	Juhan	0		H	sg n
Niding	####				
p	p	0		Y	?
.	.			Z	
Juhan	Juhan	0		H	sg n
ja	ja	0		J	
sai	saa	i		V	s
   	sai	0		S	sg n
temalt	tema	lt		P	sg abl
päritud	päri	tud		V	tud
       	päritu	d		S	pl n
       	päritud	0		A	
       	päritud	0		A	sg n
       	päritud	d		A	pl n
kas	kas	0		D	
ta	tema	0		P	sg g
  	tema	0		P	sg n
oli	ole	i		V	s
seda	see	da		P	sg p
rumalad	rumal	d		A	pl n
tegu	tegu	0		S	sg n
    	tegu	0		S	sg p
teinud	tege	nud		V	nud
      	tei=nud	0		A	
      	tei=nud	0		A	sg n
      	tei=nud	d		A	pl n
      	teinu	d		S	pl n
ja	ja	0		J	
mikspärast	miks_pära	st		S	sg el
          	miks_pärane	t		A	sg p
?	?			Z	
Juhan	Juhan	0		H	sg n
Nidingil	####				
aga	aga	0		J	
ei	ei	0		D	
  	ei	0		V	neg
olnud	ol=nud	0		A	
     	ol=nud	0		A	sg n
     	ol=nud	d		A	pl n
     	ole	nud		V	nud
     	olnu	d		S	pl n
selle	see	0		P	sg g
     	sell	e		S	pl p
peale	pea	le		S	sg all
     	peale	0		D	
     	peale	0		K	
midagi	miski	dagi		P	sg p
vabandamiseks	vabandamine	ks		S	sg tr
ooma	####				
eestkosta	####				
,	,			Z	
vaid	vaid	0		D	
    	vaid	0		J	
pidi	pida	i		V	s
    	pidi	0		K	
seda	see	da		P	sg p
oma	oma	0		A	sg g
   	oma	0		D	
   	oma	0		P	sg g
   	oma	0		S	sg g
   	oma	0		V	o
   	oma	0		A	sg n
   	oma	0		A	sg p
   	oma	0		P	sg n
   	oma	0		P	sg p
   	oma	0		S	sg n
   	oma	0		S	sg p
enese	ise	0		P	sg g
häbiks	häbi	ks		S	sg tr
tõeks	tõde	ks		S	sg tr
     	tõsi	ks		S	sg tr
tunnistama	tunnista	ma		V	ma
,	,			Z	
muudkui	muud_kui	0		D	
seda	see	da		P	sg p
kaebas	kaeba	s		V	s
tema	tema	0		P	sg g
    	tema	0		P	sg n
,	,			Z	
et	et	0		J	
selle	see	0		P	sg g
     	sell	e		S	pl p
poisi	poiss	0		S	sg g
Kustase	Kustas	0		H	sg g
ema	ema	0		S	sg g
   	ema	0		S	sg n
   	ema	0		S	sg p
teda	tema	da		P	sg p
oli	ole	i		V	s
oma	oma	0		A	sg g
   	oma	0		D	
   	oma	0		P	sg g
   	oma	0		S	sg g
   	oma	0		V	o
   	oma	0		A	sg n
   	oma	0		A	sg p
   	oma	0		P	sg n
   	oma	0		P	sg p
   	oma	0		S	sg n
   	oma	0		S	sg p
lubaga	####				
tõmmiga	####				
keppiga	kepp_iga	0		S	sg n
       	kepp_iga	0		S	sg p
teda	tema	da		P	sg p
7	7	0		N	?
korda	kord	0		S	adt
     	korda	0		V	o
     	kord	0		S	sg p
löönud	löö	nud		V	nud
      	löö=nu	d		S	pl n
      	löö=nud	0		A	
      	löö=nud	0		A	sg n
      	löö=nud	d		A	pl n
.	.			Z	
ette	ette	0		D	
    	ette	0		K	
    	esi	tte		S	adt
sai	saa	i		V	s
   	sai	0		S	sg n
kutsutud	kutsu	tud		V	tud
        	kutsutu	d		S	pl n
        	kutsutud	0		A	
        	kutsutud	0		A	sg n
        	kutsutud	d		A	pl n
An	####				
Poman	####				
ja	ja	0		J	
sai	saa	i		V	s
   	sai	0		S	sg n
teda	tema	da		P	sg p
nende	see	de		P	pl g
     	tema	de		P	pl g
hoopide	hoop	de		S	pl g
pärast	pära	st		S	sg el
      	pärane	t		A	sg p
      	pärast	0		D	
      	pärast	0		K	
küsitud	küsi	tud		V	tud
       	küsi=tu	d		S	pl n
       	küsi=tud	0		A	
       	küsi=tud	0		A	sg n
       	küsi=tud	d		A	pl n
,	,			Z	
mis	mis	0		P	pl n
   	mis	0		P	sg n
tema	tema	0		P	sg g
    	tema	0		P	sg n
aga	aga	0		J	
mitte	mitte	0		D	
ei	ei	0		D	
  	ei	0		V	neg
võinud	või	nud		V	nud
      	või=nu	d		S	pl n
      	või=nud	0		A	
      	või=nud	0		A	sg n
      	või=nud	d		A	pl n
ega	ega	0		D	
   	ega	0		J	
tahtnud	taht	nud		V	nud
       	taht=nu	d		S	pl n
       	taht=nud	0		A	
       	taht=nud	0		A	sg n
       	taht=nud	d		A	pl n
vabandada	vabanda	da		V	da
.	.			Z	
selle	see	0		P	sg g
     	sell	e		S	pl p
järele	järele	0		D	
      	järele	0		K	
mõistis	mõist	is		V	s
kohus	kohu	s		V	s
     	kohus	0		S	sg n
:	:			Z	
et	et	0		J	
Juhan	Juhan	0		H	sg n
Niding	####				
p	p	0		Y	?
.	.			Z	
Juhan	Juhan	0		H	sg n
saab	saa	b		V	b
10	10	0		N	?
hoopi	hoop	0		S	adt
     	hoop	0		S	sg p
vitso	####				
oma	oma	0		A	sg g
   	oma	0		D	
   	oma	0		P	sg g
   	oma	0		S	sg g
   	oma	0		V	o
   	oma	0		A	sg n
   	oma	0		A	sg p
   	oma	0		P	sg n
   	oma	0		P	sg p
   	oma	0		S	sg n
   	oma	0		S	sg p
häbematu	häbematu	0		A	sg g
        	häbematu	0		A	sg n
töö	töö	0		S	sg g
   	töö	0		S	sg n
pärast	pära	st		S	sg el
      	pärane	t		A	sg p
      	pärast	0		D	
      	pärast	0		K	
ja	ja	0		J	
Jüri	Jüri	0		H	sg g
    	Jüri	0		H	sg n
Poman	####				
n	n	0		Y	?
.	.			Z	
An	####				
maksab	maks	b		V	b
nende	see	de		P	pl g
     	tema	de		P	pl g
seitsme	seitse	0		N	sg g
hobi	hobi	0		S	sg g
    	hobi	0		S	sg n
    	hobi	0		S	sg p
eest	eest	0		D	
    	eest	0		K	
    	esi	st		S	sg el
mis	mis	0		P	pl n
   	mis	0		P	sg n
ta	tema	0		P	sg g
  	tema	0		P	sg n
ilma	ilm	0		S	adt
    	ilm	0		S	sg g
    	ilma	0		D	
    	ilma	0		K	
    	ilm	0		S	sg p
kohtu	kohtu	0		V	o
     	kohus	0		S	sg g
ja	ja	0		J	
talitaja	talitaja	0		S	sg g
        	talitaja	0		S	sg n
lubata	luba	ta		V	ta
peksnud	peks	nud		V	nud
       	peks=nu	d		S	pl n
       	peks=nud	0		A	
       	peks=nud	0		A	sg n
       	peks=nud	d		A	pl n
on	ole	0		V	b
  	ole	0		V	vad
,	,			Z	
35	35	0		N	?
cop	####				
hõb	####				
.	.			Z	
trahvi	trahv	0		S	adt
      	trahv	0		S	sg g
      	trahvi	0		V	o
      	trahv	0		S	sg p
vallalaekasse	valla_laegas	sse		S	sg ill
,	,			Z	
mis	mis	0		P	pl n
   	mis	0		P	sg n
teisel	teine	l		O	sg ad
      	teine	l		P	sg ad
kohtu	kohtu	0		V	o
     	kohus	0		S	sg g
päeval	päev	l		S	sg ad
peab	pida	b		V	b
sissemakstud	sisse_maks=tu	d		S	pl n
            	sisse_maks=tud	0		A	
            	sisse_maks=tud	0		A	sg n
            	sisse_maks=tud	d		A	pl n
olema	ole	ma		V	ma
.	.			Z	
kohtupeavanem	kohtu_pea_vanem	0		S	sg n
:	:			Z	
Taavet	taavet	0		S	sg n
Kuu	kuu	0		S	sg g
   	kuu	0		S	sg n
XXX	XXX	0		O	?
   	XXX	0		Y	?
""""	""""			Z	
kõrvamees	kõrva_mees	0		S	sg n
:	:			Z	
Jüri	Jüri	0		H	sg g
    	Jüri	0		H	sg n
Täht	täht	0		S	sg n
XXX	XXX	0		O	?
   	XXX	0		Y	?
""""	""""			Z	
""""	""""			Z	
:	:			Z	
Jaan	Jaan	0		H	sg n
    	jaan	0		S	sg n
    	jaan	0		Y	?
Selart	####				
XXX	XXX	0		O	?
   	XXX	0		Y	?
(	(			Z	
vallakirjutaja	valla_kirjutaja	0		S	sg g
              	valla_kirjutaja	0		S	sg n
)	)			Z	
J.F.Pirhk	####				
Juhan	Juhan	0		H	sg n
Niding	####				
sai	saa	i		V	s
   	sai	0		S	sg n
ooma	####				
mõistetud	mõist	tud		V	tud
         	mõiste=tu	d		S	pl n
         	mõiste=tud	0		A	
         	mõiste=tud	0		A	sg n
         	mõiste=tud	d		A	pl n
trahvi	trahv	0		S	adt
      	trahv	0		S	sg g
      	trahvi	0		V	o
      	trahv	0		S	sg p
selsamal	see_sama	l		P	sg ad
päeval	päev	l		S	sg ad
täielikult	täielik	lt		A	sg abl
          	täielikult	0		D	
kätte	kätte	0		K	
     	käsi	tte		S	adt
.	.			Z	
