kokku	kokku	0		D	
     	kogu	0		S	adt
olid	ole	id		V	sid
tulnud	tul=nud	0		A	
      	tul=nud	0		A	sg n
      	tul=nud	d		A	pl n
      	tule	nud		V	nud
      	tulnu	d		S	pl n
,	,			Z	
kohtu	kohtu	0		V	o
     	kohus	0		S	sg g
vanem	vanem	0		C	sg n
     	vanem	0		S	sg n
:	:			Z	
Mart	Mart	0		H	sg n
    	mart	0		S	sg n
jäamer	####				
abiline	abiline	0		S	sg n
:	:			Z	
Peeter	Peeter	0		H	sg n
Naeres	####				
-	-			Z	
""""	""""			Z	
-	-			Z	
:	:			Z	
Jaan	Jaan	0		H	sg n
    	jaan	0		S	sg n
    	jaan	0		Y	?
Selart	####				
kirjutaja	kirjutaja	0		S	sg g
         	kirjutaja	0		S	sg n
:	:			Z	
M.Redlich	####				
kohtu	kohtu	0		V	o
     	kohus	0		S	sg g
ette	ette	0		D	
    	ette	0		K	
    	esi	tte		S	adt
tuli	tuli	0		S	sg n
    	tule	i		V	s
Enivere	####				
vana	vana	0		A	sg g
    	vana	0		A	sg n
    	vana	0		A	sg p
    	vana	0		S	sg g
    	vana	0		S	sg n
    	vana	0		S	sg p
talitaja	talitaja	0		S	sg g
        	talitaja	0		S	sg n
Kustas	Kusta	s		H	sg in
      	Kustas	0		H	sg n
koppel	koppel	0		S	sg n
ja	ja	0		J	
nimetas	nimeta	s		V	s
,	,			Z	
et	et	0		J	
Hans	Hans	0		H	sg n
Täht	täht	0		S	sg n
olla	ole	a		V	da
kevadel	kevad	l		S	sg ad
       	kevade	l		S	sg ad
1878	1878	0		N	?
a.	a	0		Y	?
Magasinist	magasin	st		S	sg el
vilja	vili	0		S	adt
     	vili	0		S	sg g
     	vili	0		S	sg p
laenand	laen_and	0		S	sg n
3	3	0		N	?
vakka	vakk	0		S	adt
     	vakk	0		S	sg p
     	vakka	0		D	
otre	####				
,	,			Z	
aga	aga	0		J	
nüüd	nüüd	0		D	
ei	ei	0		D	
  	ei	0		V	neg
maksta	maks	ta		V	da
      	maks	ta		V	ta
enam	enam	0		C	sg n
    	enam	0		D	
ära	ära	0		D	
   	ära	0		V	neg o
,	,			Z	
sellepärast	selle_pärast	0		D	
,	,			Z	
et	et	0		J	
tema	tema	0		P	sg g
    	tema	0		P	sg n
õigus	õigus	0		S	sg n
olla	ole	a		V	da
ühe	üks	0		N	sg g
   	üks	0		P	sg g
   	ühe	0		S	sg n
vaese	vaene	0		A	sg g
     	vaene	0		S	sg g
las	las	0		D	
Antoon	####				
Pruul	pruul	0		S	sg n
1	1	0		N	?
1	1	0		N	?
/	/			Z	
2	2	0		N	?
setvert	setvert	0		S	sg n
vilja	vili	0		S	adt
     	vili	0		S	sg g
     	vili	0		S	sg p
saada	saa	da		V	da
     	saat	0		V	o
     	saa	da		V	ta
.	.			Z	
Vald	vald	0		S	sg n
ei	ei	0		D	
  	ei	0		V	neg
pea	pea	0		D	
   	pea	0		S	sg g
   	pida	0		V	o
   	pea	0		S	sg n
tahtma	taht	ma		V	ma
nimetud	nimetu	d		A	pl n
Antonile	Anton	le		H	sg all
mitte	mitte	0		D	
vilja	vili	0		S	adt
     	vili	0		S	sg g
     	vili	0		S	sg p
maksta	maks	ta		V	da
      	maks	ta		V	ta
,	,			Z	
sest	see	st		P	sg el
    	sest	0		J	
et	et	0		J	
tema	tema	0		P	sg g
    	tema	0		P	sg n
juba	juba	0		D	
Hans	Hans	0		H	sg n
Täht	täht	0		S	sg n
juuures	####				
töö	töö	0		S	sg g
   	töö	0		S	sg n
tegija	tegija	0		S	sg g
      	tegija	0		S	sg n
olla	ole	a		V	da
.	.			Z	
Timal	####				
olla	ole	a		V	da
selle	see	0		P	sg g
     	sell	e		S	pl p
peale	pea	le		S	sg all
     	peale	0		D	
     	peale	0		K	
tunnistusd	####				
,	,			Z	
et	et	0		J	
Hans	Hans	0		H	sg n
ei	ei	0		D	
  	ei	0		V	neg
olla	ole	a		V	da
seda	see	da		P	sg p
vilja	vili	0		S	adt
     	vili	0		S	sg g
     	vili	0		S	sg p
mitte	mitte	0		D	
poisile	poiss	le		S	sg all
võtnud	võt	nud		V	nud
      	võt=nu	d		S	pl n
      	võt=nud	0		A	
      	võt=nud	0		A	sg n
      	võt=nud	d		A	pl n
vaid	vaid	0		D	
    	vaid	0		J	
laenand	laen_and	0		S	sg n
,	,			Z	
sest	see	st		P	sg el
    	sest	0		J	
Hans	Hans	0		H	sg n
olla	ole	a		V	da
selkorral	####				
ütlend	####				
:	:			Z	
Ei	ei	0		D	
  	ei	0		V	neg
tea	tead	0		V	o
,	,			Z	
mis	mis	0		P	pl n
   	mis	0		P	sg n
teie	sina	0		P	pl g
    	sina	0		P	pl n
minu	mina	0		P	sg g
sulasega	sulane	ga		S	sg kom
tete	####				
,	,			Z	
kas	kas	0		D	
annate	and	te		V	te
temale	tema	le		P	sg all
veel	veel	0		D	
    	vesi	l		S	sg ad
vilja	vili	0		S	adt
     	vili	0		S	sg g
     	vili	0		S	sg p
ehk	ehk	0		D	
   	ehk	0		J	
mitte	mitte	0		D	
?	?			Z	
tema	tema	0		P	sg g
    	tema	0		P	sg n
olla	ole	a		V	da
vastand	vastand	0		S	sg n
:	:			Z	
Ei	ei	0		D	
  	ei	0		V	neg
minul	mina	l		P	sg ad
poole	pool	0		N	sg g
     	pool	0		S	sg g
     	pool	e		S	pl p
     	poole	0		K	
     	poole	0		S	sg n
siit	siit	0		D	
üks	üks	0		N	sg n
   	üks	0		P	sg n
anda	and	a		V	da
,	,			Z	
tehku	tege	ku		V	gu
vald	vald	0		S	sg n
ja	ja	0		J	
volimehed	voli_mees	d		S	pl n
mis	mis	0		P	pl n
   	mis	0		P	sg n
tahtvat	taht	vat		V	vat
       	tahtev	t		A	sg p
.	.			Z	
selle	see	0		P	sg g
     	sell	e		S	pl p
peale	pea	le		S	sg all
     	peale	0		D	
     	peale	0		K	
olla	ole	a		V	da
Hans	Hans	0		H	sg n
need	see	d		P	pl n
nimetud	nimetu	d		A	pl n
3	3	0		N	?
vakka	vakk	0		S	adt
     	vakk	0		S	sg p
     	vakka	0		D	
otre	####				
võtnud	võt	nud		V	nud
      	võt=nu	d		S	pl n
      	võt=nud	0		A	
      	võt=nud	0		A	sg n
      	võt=nud	d		A	pl n
ja	ja	0		J	
tema	tema	0		P	sg g
    	tema	0		P	sg n
olla	ole	a		V	da
seda	see	da		P	sg p
laenu	laen	0		S	adt
     	laen	0		S	sg g
     	laenu	0		V	o
     	laen	0		S	sg p
kirja	kirja	0		A	
     	kirja	0		V	o
     	kiri	0		S	adt
     	kiri	0		S	sg g
     	kiri	0		S	sg p
pannud	pan=nu	d		S	pl n
      	pan=nud	0		A	
      	pan=nud	0		A	sg n
      	pan=nud	d		A	pl n
      	pane	nud		V	nud
.	.			Z	
kohtu	kohtu	0		V	o
     	kohus	0		S	sg g
poolest	pool	st		N	sg el
       	pool	st		S	sg el
       	poolene	t		A	sg p
       	poolest	0		K	
sai	saa	i		V	s
   	sai	0		S	sg n
Hans	Hans	0		H	sg n
Täht	täht	0		S	sg n
päritud	päri	tud		V	tud
       	päritu	d		S	pl n
       	päritud	0		A	
       	päritud	0		A	sg n
       	päritud	d		A	pl n
ja	ja	0		J	
tema	tema	0		P	sg g
    	tema	0		P	sg n
ütles	ütle	s		V	s
,	,			Z	
et	et	0		J	
tema	tema	0		P	sg g
    	tema	0		P	sg n
ei	ei	0		D	
  	ei	0		V	neg
olla	ole	a		V	da
need	see	d		P	pl n
3	3	0		N	?
vakka	vakk	0		S	adt
     	vakk	0		S	sg p
     	vakka	0		D	
otre	####				
mitte	mitte	0		D	
laenand	laen_and	0		S	sg n
,	,			Z	
vaid	vaid	0		D	
    	vaid	0		J	
poisi	poiss	0		S	sg g
üllaspidamiseks	üllas_pidamine	ks		S	sg tr
võtnud	võt	nud		V	nud
      	võt=nu	d		S	pl n
      	võt=nud	0		A	
      	võt=nud	0		A	sg n
      	võt=nud	d		A	pl n
.	.			Z	
Poisile	poiss	le		S	sg all
olla	ole	a		V	da
Kihelkonna	Kihelkonna	0		H	sg g
          	kihelkond	0		S	sg g
          	Kihelkonna	0		H	sg n
kohus	kohu	s		V	s
     	kohus	0		S	sg n
lubanud	luba	nud		V	nud
       	luba=nu	d		S	pl n
       	luba=nud	0		A	
       	luba=nud	0		A	sg n
       	luba=nud	d		A	pl n
1	1	0		N	?
setvert	setvert	0		S	sg n
ruk	####				
.	.			Z	
ja	ja	0		J	
1	1	0		N	?
/	/			Z	
2	2	0		N	?
setveti	####				
otre	####				
.	.			Z	
Kui	kui	0		D	
   	kui	0		J	
vald	vald	0		S	sg n
seda	see	da		P	sg p
3	3	0		N	?
vakka	vakk	0		S	adt
     	vakk	0		S	sg p
     	vakka	0		D	
temale	tema	le		P	sg all
poisi	poiss	0		S	sg g
üllaspidamiseks	üllas_pidamine	ks		S	sg tr
ei	ei	0		D	
  	ei	0		V	neg
anna	and	0		V	o
    	anna	0		S	sg g
    	anna	0		S	sg n
,	,			Z	
siis	siis	0		D	
    	siis	0		J	
maksab	maks	b		V	b
tema	tema	0		P	sg g
    	tema	0		P	sg n
seda	see	da		P	sg p
sisse	siss	e		S	pl p
     	sisse	0		D	
     	sisse	0		K	
,	,			Z	
aga	aga	0		J	
pärib	päri	b		V	b
jälle	jälle	0		D	
valla	vald	0		S	sg g
     	valla	0		D	
käest	käest	0		K	
     	käsi	st		S	sg el
Kihelk	####				
.	.			Z	
kohtu	kohtu	0		V	o
     	kohus	0		S	sg g
mõistmistmõõööda	####				
1	1	0		N	?
setvert	setvert	0		S	sg n
ruk	####				
.	.			Z	
ja	ja	0		J	
1	1	0		N	?
/	/			Z	
2	2	0		N	?
setvert	setvert	0		S	sg n
otre	####				
.	.			Z	
kohus	kohu	s		V	s
     	kohus	0		S	sg n
mõistis	mõist	is		V	s
:	:			Z	
Hans	Hans	0		H	sg n
Täht	täht	0		S	sg n
maksab	maks	b		V	b
se	####				
3	3	0		N	?
vak	####				
otre	####				
Magaski	maga	s	ki	V	s
       	magas	0	ki	S	sg n
aida	ait	0		S	sg g
sisse	siss	e		S	pl p
     	sisse	0		D	
     	sisse	0		K	
,	,			Z	
ja	ja	0		J	
pärib	päri	b		V	b
kihelkonna	kihelkond	0		S	sg g
kohtu	kohtu	0		V	o
     	kohus	0		S	sg g
mõistust	mõistus	t		S	sg p
mõõööda	####				
Antoon	####				
Pruul	pruul	0		S	sg n
üllaspidamise	üllas_pidamine	0		S	sg g
tarvis	tarvis	0		D	
      	tarvis	0		K	
1	1	0		N	?
setvert	setvert	0		S	sg n
ruk	####				
,	,			Z	
1	1	0		N	?
/	/			Z	
2	2	0		N	?
setverti	setvert	0		S	adt
        	setvert	0		S	sg p
otre	####				
kätte	kätte	0		K	
     	käsi	tte		S	adt
,	,			Z	
kuni	kuni	0		J	
    	kuni	0		K	
poiss	poiss	0		S	sg n
15-ne	15	0		N	sg g
aastaseks	aastane	ks		A	sg tr
saab	saa	b		V	b
.	.			Z	
Hans	Hans	0		H	sg n
palus	palu	s		S	sg in
     	palu	s		V	s
oomale	####				
protokolli	protokoll	0		S	adt
          	protokoll	0		S	sg g
          	protokolli	0		V	o
          	protokoll	0		S	sg p
,	,			Z	
et	et	0		J	
kohe	kohe	0		A	sg n
    	kohe	0		D	
seda	see	da		P	sg p
asja	asi	0		S	adt
    	asi	0		S	sg g
    	asi	0		S	sg p
keiserl	####				
.	.			Z	
St	st	0		I	
.	.			Z	
Martna	Martna	0		H	sg g
      	Martna	0		H	sg n
kihekl	####				
.	.			Z	
kohtu	kohtu	0		V	o
     	kohus	0		S	sg g
ette	ette	0		D	
    	ette	0		K	
    	esi	tte		S	adt
kanda	kand	0		S	adt
     	kand	a		V	da
     	kand	0		S	sg p
,	,			Z	
mis	mis	0		P	pl n
   	mis	0		P	sg n
peale	pea	le		S	sg all
     	peale	0		D	
     	peale	0		K	
temale	tema	le		P	sg all
protokoll	protokoll	0		S	sg n
sai	saa	i		V	s
   	sai	0		S	sg n
maha	maha	0		D	
kirjutud	####				
.	.			Z	
Putkastest	putk_aste	st		S	sg el
Mart	Mart	0		H	sg n
    	mart	0		S	sg n
koppel	koppel	0		S	sg n
tuli	tuli	0		S	sg n
    	tule	i		V	s
ja	ja	0		J	
tunnistas	tunnista	s		V	s
,	,			Z	
et	et	0		J	
Väike	väike	0		A	sg n
rudest	####				
Jaan	Jaan	0		H	sg n
    	jaan	0		S	sg n
    	jaan	0		Y	?
Palmer	####				
võtab	võt	b		V	b
tema	tema	0		P	sg g
    	tema	0		P	sg n
poea	####				
,	,			Z	
august	august	0		S	sg n
      	auk	st		S	sg el
kes	kes	0		P	pl n
   	kes	0		P	sg n
nüüd	nüüd	0		D	
kolme	kolm	0		N	adt
     	kolm	0		N	sg g
     	kolm	0		N	sg p
aastane	aastane	0		A	sg n
,	,			Z	
ooma	####				
kasupoeaks	####				
.	.			Z	
kohtu	kohtu	0		V	o
     	kohus	0		S	sg g
vanem	vanem	0		C	sg n
     	vanem	0		S	sg n
:	:			Z	
Mart	Mart	0		H	sg n
    	mart	0		S	sg n
jäamer	####				
XXX	XXX	0		O	?
   	XXX	0		Y	?
abiline	abiline	0		S	sg n
:	:			Z	
Peeter	Peeter	0		H	sg n
Naeres	####				
XXX	XXX	0		O	?
   	XXX	0		Y	?
-	-			Z	
""""	""""			Z	
-	-			Z	
:	:			Z	
Jaan	Jaan	0		H	sg n
    	jaan	0		S	sg n
    	jaan	0		Y	?
Selart	####				
XXX	XXX	0		O	?
   	XXX	0		Y	?
kirjutaja	kirjutaja	0		S	sg g
         	kirjutaja	0		S	sg n
:	:			Z	
M.Redlich	####				
