Laikülast	lai_küla	st		S	sg el
Jaan	Jaan	0		H	sg n
    	jaan	0		S	sg n
    	jaan	0		Y	?
Pudel	pudel	0		S	sg n
Hansu	Hans	0		H	adt
     	Hans	0		H	sg g
     	Hans	0		H	sg p
koha	koht	0		S	sg g
    	koha	0		S	sg g
    	koha	0		V	o
    	koha	0		S	sg n
    	koha	0		S	sg p
oomanik	####				
,	,			Z	
astus	astu	s		V	s
kohtu	kohtu	0		V	o
     	kohus	0		S	sg g
ette	ette	0		D	
    	ette	0		K	
    	esi	tte		S	adt
et	et	0		J	
ooma	####				
viimist	viimine	t		S	sg p
tahtmist	tahtmine	t		S	sg p
kirja	kirja	0		A	
     	kirja	0		V	o
     	kiri	0		S	adt
     	kiri	0		S	sg g
     	kiri	0		S	sg p
panna	pand	0		S	sg g
     	pane	a		V	da
     	panna	0		S	sg g
     	panna	0		S	sg n
.	.			Z	
Par	####				
.	.			Z	
1.	1.	0		O	?
Jaan	Jaan	0		H	sg n
    	jaan	0		S	sg n
    	jaan	0		Y	?
Pudel	pudel	0		S	sg n
võtab	võt	b		V	b
ooma	####				
väimeest	väi_mees	t		S	sg p
ehk	ehk	0		D	
   	ehk	0		J	
tütre	tütar	0		S	sg g
Christina	####				
meest	meene	t		A	sg p
     	mees	t		S	sg p
     	mesi	st		S	sg el
oomal	####				
päris	päri	s		V	s
     	päris	0		A	
     	päris	0		D	
poea	####				
asemel	ase	l		S	sg ad
      	asemel	0		K	
,	,			Z	
kes	kes	0		P	pl n
   	kes	0		P	sg n
teda	tema	da		P	sg p
lubab	luba	b		V	b
seal	seal	0		D	
    	siga	l		A	sg ad
    	siga	l		S	sg ad
Hansu	Hans	0		H	adt
     	Hans	0		H	sg g
     	Hans	0		H	sg p
koha	koht	0		S	sg g
    	koha	0		S	sg g
    	koha	0		V	o
    	koha	0		S	sg n
    	koha	0		S	sg p
peal	pea	l		S	sg ad
    	peal	0		D	
    	peal	0		K	
surmani	surm	ni		S	sg ter
toita	toit	a		V	da
.	.			Z	
Par	####				
.	.			Z	
2.	2.	0		O	?
Tema	tema	0		P	sg g
    	tema	0		P	sg n
väimees	väi_mees	0		S	sg n
tütre	tütar	0		S	sg g
Christina	####				
mees	mees	0		S	sg n
    	mesi	s		S	sg in
Mart	Mart	0		H	sg n
    	mart	0		S	sg n
Reimannil	####				
24	24	0		N	?
a.	a	0		Y	?
vanusega	vanune	ga		A	sg kom
        	vanus	ga		S	sg kom
Kilinki	####				
vallast	vald	st		S	sg el
lubab	luba	b		V	b
,	,			Z	
tema	tema	0		P	sg g
    	tema	0		P	sg n
anda	and	a		V	da
ooma	####				
päris	päri	s		V	s
     	päris	0		A	
     	päris	0		D	
koha	koht	0		S	sg g
    	koha	0		S	sg g
    	koha	0		V	o
    	koha	0		S	sg n
    	koha	0		S	sg p
,	,			Z	
kui	kui	0		D	
   	kui	0		J	
keik	####				
muu	muu	0		P	sg g
   	muu	0		S	sg g
   	muu	0		V	o
   	muu	0		P	sg n
   	muu	0		S	sg n
liikuv	liiku	v		V	v
      	liikuv	0		A	sg n
kui	kui	0		D	
   	kui	0		J	
liikumata	liiku	mata		V	mata
         	liiku=mata	0		A	
kraaam	####				
,	,			Z	
aga	aga	0		J	
selle	see	0		P	sg g
     	sell	e		S	pl p
eest	eest	0		D	
    	eest	0		K	
    	esi	st		S	sg el
maksab	maks	b		V	b
Mart	Mart	0		H	sg n
    	mart	0		S	sg n
Reinmann	####				
tema	tema	0		P	sg g
    	tema	0		P	sg n
kolme	kolm	0		N	adt
     	kolm	0		N	sg g
     	kolm	0		N	sg p
teise	teine	0		O	adt
     	teine	0		O	sg g
     	teine	0		P	adt
     	teine	0		P	sg g
tütrele	tütar	le		S	sg all
Andalie	####				
,	,			Z	
Minna	Minna	0		H	sg g
     	mine	a		V	da
     	Minna	0		H	sg n
ja	ja	0		J	
Liisal	Liisa	l		H	sg ad
iga	iga	0		P	sg g
   	iga	0		P	sg n
   	iga	0		P	sg p
   	iga	0		S	sg n
   	iga	0		S	sg p
ühel	üks	l		N	sg ad
    	üks	l		P	sg ad
üks	üks	0		N	sg n
   	üks	0		P	sg n
saada	saa	da		V	da
     	saat	0		V	o
     	saa	da		V	ta
rubla	rubla	0		S	sg g
     	rubla	0		S	sg n
     	rubla	0		S	sg p
(	(			Z	
:	:			Z	
100r	100r	0		Y	?
:)	:)			Z	
ja	ja	0		J	
peale	pea	le		S	sg all
     	peale	0		D	
     	peale	0		K	
selle	see	0		P	sg g
     	sell	e		S	pl p
veel	veel	0		D	
    	vesi	l		S	sg ad
iga	iga	0		P	sg g
   	iga	0		P	sg n
   	iga	0		P	sg p
   	iga	0		S	sg n
   	iga	0		S	sg p
ühele	üks	le		N	sg all
     	üks	le		P	sg all
,	,			Z	
üks	üks	0		N	sg n
   	üks	0		P	sg n
lehm	lehm	0		S	sg n
,	,			Z	
ja	ja	0		J	
kaks	kaks	0		N	sg n
lamast	####				
ja	ja	0		J	
üks	üks	0		N	sg n
   	üks	0		P	sg n
riide	riid	e		S	pl p
     	riie	0		S	adt
     	riie	0		S	sg g
kirst	kirst	0		S	sg n
ja	ja	0		J	
riided	riie	d		S	pl n
-	-			Z	
tütar	tütar	0		S	sg n
Andalie	####				
on	ole	0		V	b
  	ole	0		V	vad
kirstu	kirst	0		S	adt
      	kirst	0		S	sg g
      	kirst	0		S	sg p
,	,			Z	
riided	riie	d		S	pl n
ja	ja	0		J	
lamad	lama	d		V	d
kätte	kätte	0		K	
     	käsi	tte		S	adt
saanud	saa	nud		V	nud
      	saa=nud	0		A	
      	saa=nud	0		A	sg n
      	saa=nud	d		A	pl n
      	saanu	d		S	pl n
.	.			Z	
Par	####				
.	.			Z	
3.	3.	0		O	?
need	see	d		P	pl n
kolm	kolm	0		N	sg n
saada	saa	da		V	da
     	saat	0		V	o
     	saa	da		V	ta
rubla	rubla	0		S	sg g
     	rubla	0		S	sg n
     	rubla	0		S	sg p
,	,			Z	
maksab	maks	b		V	b
Mart	Mart	0		H	sg n
    	mart	0		S	sg n
Reimann	####				
(	(			Z	
8	8	0		N	?
)	)			Z	
kaheksa	kaheksa	0		N	sg g
       	kaheksa	0		N	sg n
aasta	aasta	0		S	sg g
     	aasta	0		S	sg n
aia	aed	0		S	sg g
sees	sees	0		D	
    	sees	0		K	
Laiküla	lai_küla	0		S	sg g
       	lai_küla	0		S	sg n
       	lai_küla	0		S	sg p
Suure	suur	0		A	sg g
ja	ja	0		J	
Väike	väike	0		A	sg n
Riude	####				
kog	####				
.	.			Z	
kohtu	kohtu	0		V	o
     	kohus	0		S	sg g
sisse	siss	e		S	pl p
     	sisse	0		D	
     	sisse	0		K	
,	,			Z	
see	see	0		P	sg n
on	ole	0		V	b
  	ole	0		V	vad
1892	1892	0		N	?
ükssaada	####				
viisNone	####				
rubla	rubla	0		S	sg g
     	rubla	0		S	sg n
     	rubla	0		S	sg p
ja	ja	0		J	
1897.	1897.	0		O	?
ükssaada	####				
viisNone	####				
rubla	rubla	0		S	sg g
     	rubla	0		S	sg n
     	rubla	0		S	sg p
.	.			Z	
Par	####				
.	.			Z	
4.	4.	0		O	?
Mart	Mart	0		H	sg n
    	mart	0		S	sg n
Reinmann	####				
lubab	luba	b		V	b
tema	tema	0		P	sg g
    	tema	0		P	sg n
noorema	noorem	0		C	sg g
tütre	tütar	0		S	sg g
eest	eest	0		D	
    	eest	0		K	
    	esi	st		S	sg el
hoolt	hoog	lt		S	sg abl
     	hool	t		S	sg p
pidada	pida	da		V	da
kuinni	####				
nood	too	d		P	pl n
täieealiseks	täie_ealine	ks		A	sg tr
saavad	saa	vad		V	vad
      	saav	d		A	pl n
      	saav	d		S	pl n
.	.			Z	
Par	####				
.	.			Z	
5.	5.	0		O	?
1888.	1888.	0		O	?
a.	a	0		Y	?
annab	and	b		V	b
tema	tema	0		P	sg g
    	tema	0		P	sg n
koha	koht	0		S	sg g
    	koha	0		S	sg g
    	koha	0		V	o
    	koha	0		S	sg n
    	koha	0		S	sg p
ooma	####				
väimehe	väi_mees	0		S	sg g
Mart	Mart	0		H	sg n
    	mart	0		S	sg n
Reimann	####				
kätte	kätte	0		K	
     	käsi	tte		S	adt
,	,			Z	
terve	terve	0		A	sg g
     	terve	0		A	sg n
     	terve	0		S	sg g
     	terve	0		S	sg n
elumaea	####				
kraaam	####				
leivaga	leib	ga		S	sg kom
kui	kui	0		D	
   	kui	0		J	
seemnega	seeme	ga		S	sg kom
.	.			Z	
seda	see	da		P	sg p
ooma	####				
tahtmist	tahtmine	t		S	sg p
olenmina	####				
ooma	####				
täie	täis	0		A	sg g
    	täis	0		S	sg g
mõistusega	mõistus	ga		S	sg kom
isiooma	####				
käega	käsi	ga		S	sg kom
alla	alla	0		D	
    	alla	0		K	
kirjotand	####				
.	.			Z	
-	-			Z	
/	/			Z	
Jaan	Jaan	0		H	sg n
    	jaan	0		S	sg n
    	jaan	0		Y	?
Budel	####				
/	/			Z	
/	/			Z	
Mart	Mart	0		H	sg n
    	mart	0		S	sg n
Reiman	####				
/	/			Z	
tunni	tund	0		S	sg g
...	...			Z	
tused	####				
:	:			Z	
Jaan	Jaan	0		H	sg n
    	jaan	0		S	sg n
    	jaan	0		Y	?
kivimägi	kivi_mägi	0		S	sg n
XXX	XXX	0		O	?
   	XXX	0		Y	?
:	:			Z	
Hans	Hans	0		H	sg n
Valper	####				
XXX	XXX	0		O	?
   	XXX	0		Y	?
kirjutaja	kirjutaja	0		S	sg g
         	kirjutaja	0		S	sg n
:	:			Z	
C.Redlich	####				
