ette	ette	0		D	
    	ette	0		K	
    	esi	tte		S	adt
tuli	tuli	0		S	sg n
    	tule	i		V	s
Marguse	Margus	0		H	sg g
Jaan	Jaan	0		H	sg n
    	jaan	0		S	sg n
    	jaan	0		Y	?
Liivar	####				
ooma	####				
poja	poeg	0		S	sg g
    	poja	0		S	sg g
    	poja	0		S	sg n
    	poja	0		S	sg p
Jaan	Jaan	0		H	sg n
    	jaan	0		S	sg n
    	jaan	0		Y	?
,	,			Z	
vaata	vaata	0		V	o
prott	####				
.	.			Z	
19	19	0		N	?
Okt.	Okt	0		Y	?
s	s	0		Y	?
.	.			Z	
a.	a	0		Y	?
No	no	0		I	
27.	27.	0		O	?
Ja	ja	0		J	
ta	tema	0		P	sg g
  	tema	0		P	sg n
tunnistas	tunnista	s		V	s
:	:			Z	
Minu	mina	0		P	sg g
hing	hing	0		S	sg n
on	ole	0		V	b
  	ole	0		V	vad
sest	see	st		P	sg el
    	sest	0		J	
rahast	raha	st		S	sg el
lahti	laht	i		S	pl p
     	lahti	0		D	
poole	pool	0		N	sg g
     	pool	0		S	sg g
     	pool	e		S	pl p
     	poole	0		K	
     	poole	0		S	sg n
ma	mina	0		P	sg n
poisi	poiss	0		S	sg g
käes	käes	0		K	
    	käsi	s		S	sg in
näinud	näi	nud		V	nud
      	näge	nud		V	nud
      	näi=nud	0		A	
      	näi=nud	0		A	sg n
      	näi=nud	d		A	pl n
      	näinu	d		S	pl n
,	,			Z	
ega	ega	0		D	
   	ega	0		J	
vastu	vastu	0		D	
     	vastu	0		K	
võtnud	võt	nud		V	nud
      	võt=nu	d		S	pl n
      	võt=nud	0		A	
      	võt=nud	0		A	sg n
      	võt=nud	d		A	pl n
.	.			Z	
Ja	ja	0		J	
poeg	poeg	0		S	sg n
ütles	ütle	s		V	s
:	:			Z	
mull	mull	0		S	sg n
oli	ole	i		V	s
hirm	hirm	0		S	sg n
ja	ja	0		J	
rääkisin	rääki	sin		V	sin
selle	see	0		P	sg g
     	sell	e		S	pl p
pärast	pära	st		S	sg el
      	pärane	t		A	sg p
      	pärast	0		D	
      	pärast	0		K	
isa	isa	0		S	sg g
   	isa	0		S	sg n
   	isa	0		S	sg p
süüks	süü	ks		S	sg tr
.	.			Z	
kohus	kohu	s		V	s
     	kohus	0		S	sg n
ei	ei	0		D	
  	ei	0		V	neg
tea	tead	0		V	o
midagi	miski	dagi		P	sg p
hirmü	####				
teinud	tege	nud		V	nud
      	tei=nud	0		A	
      	tei=nud	0		A	sg n
      	tei=nud	d		A	pl n
      	teinu	d		S	pl n
olevat	ole	vat		V	vat
      	olev	t		A	sg p
      	olev	t		S	sg p
ja	ja	0		J	
veel	veel	0		D	
    	vesi	l		S	sg ad
ema	ema	0		S	sg g
   	ema	0		S	sg n
   	ema	0		S	sg p
ees	ees	0		D	
   	ees	0		K	
   	esi	s		S	sg in
rääkis	rääki	s		V	s
ja	ja	0		J	
palus	palu	s		S	sg in
     	palu	s		V	s
An	####				
Jõki	####				
käest	käest	0		K	
     	käsi	st		S	sg el
andeks	andeks	0		X	
      	anne	ks		S	sg tr
.	.			Z	
Ja	ja	0		J	
selle	see	0		P	sg g
     	sell	e		S	pl p
pärast	pära	st		S	sg el
      	pärane	t		A	sg p
      	pärast	0		D	
      	pärast	0		K	
ei	ei	0		D	
  	ei	0		V	neg
tea	tead	0		V	o
muud	muu	d		P	pl n
    	muu	d		S	pl n
    	muu	d		V	d
    	muu	d		P	sg p
    	muu	d		S	sg p
,	,			Z	
kui	kui	0		D	
   	kui	0		J	
isa	isa	0		S	sg g
   	isa	0		S	sg n
   	isa	0		S	sg p
Jaan	Jaan	0		H	sg n
    	jaan	0		S	sg n
    	jaan	0		Y	?
peab	pida	b		V	b
raha	raha	0		S	sg g
    	raha	0		S	sg n
    	raha	0		S	sg p
välja	välja	0		D	
     	välja	0		V	o
     	väli	0		S	adt
     	väli	0		S	sg g
     	väli	0		S	sg p
maksma	maks	ma		V	ma
.	.			Z	
Jaan	Jaan	0		H	sg n
    	jaan	0		S	sg n
    	jaan	0		Y	?
Liivar	####				
ei	ei	0		D	
  	ei	0		V	neg
olnud	ol=nud	0		A	
     	ol=nud	0		A	sg n
     	ol=nud	d		A	pl n
     	ole	nud		V	nud
     	olnu	d		S	pl n
sellega	see	ga		P	sg kom
rahul	rahu	l		S	sg ad
     	rahul	0		D	
ja	ja	0		J	
palus	palu	s		S	sg in
     	palu	s		V	s
protukoli	####				
Hakenrihteri	####				
kohtu	kohtu	0		V	o
     	kohus	0		S	sg g
ette	ette	0		D	
    	ette	0		K	
    	esi	tte		S	adt
minna	mine	a		V	da
.	.			Z	
Sai	saa	i		V	s
   	sai	0		S	sg n
ka	ka	0		D	
lubatud	luba	tud		V	tud
       	luba=tu	d		S	pl n
       	lubatu	d		A	pl n
       	lubatud	0		A	
       	lubatud	0		A	sg n
       	lubatud	d		A	pl n
.	.			Z	
