N 10	N10	0		Y	?
kohtu	kohtu	0		V	o
     	kohus	0		S	sg g
korra	kord	0		S	sg g
pärast	pära	st		S	sg el
      	pärane	t		A	sg p
      	pärast	0		D	
      	pärast	0		K	
olid	ole	id		V	sid
Kuie	####				
valla	vald	0		S	sg g
     	valla	0		D	
kohtumajasse	kohtu_maja	sse		S	sg ill
kokku	kokku	0		D	
     	kogu	0		S	adt
tulnud	tul=nud	0		A	
      	tul=nud	0		A	sg n
      	tul=nud	d		A	pl n
      	tule	nud		V	nud
      	tulnu	d		S	pl n
.	.			Z	
kohtuvanem	kohtu_vanem	0		C	sg n
          	kohtu_vanem	0		S	sg n
Kustas	Kusta	s		H	sg in
      	Kustas	0		H	sg n
Sipelken	####				
(	(			Z	
XXX	XXX	0		O	?
   	XXX	0		Y	?
)	)			Z	
kohtukõrvamees	kohtu_kõrva_mees	0		S	sg n
Jaan	Jaan	0		H	sg n
    	jaan	0		S	sg n
    	jaan	0		Y	?
Lepberg	####				
(	(			Z	
XXX	XXX	0		O	?
   	XXX	0		Y	?
)	)			Z	
kohtukõrvamees	kohtu_kõrva_mees	0		S	sg n
Kustas	Kusta	s		H	sg in
      	Kustas	0		H	sg n
Krusel	####				
(	(			Z	
XXX	XXX	0		O	?
   	XXX	0		Y	?
)	)			Z	
kirjutaja	kirjutaja	0		S	sg g
         	kirjutaja	0		S	sg n
M. Väismann	####				
.	.			Z	
ei	ei	0		D	
  	ei	0		V	neg
olnud	ol=nud	0		A	
     	ol=nud	0		A	sg n
     	ol=nud	d		A	pl n
     	ole	nud		V	nud
     	olnu	d		S	pl n
üks	üks	0		N	sg n
   	üks	0		P	sg n
seletamist	seletamine	t		S	sg p
