tuha_t	####				
kaheksasaada	####				
üheksa	üheksa	0		N	sg g
      	üheksa	0		N	sg n
kümne	kümme	0		N	sg g
neljandamal	####				
aastal	aasta	l		S	sg ad
,	,			Z	
kahekümne	kaks_kümmend	0		N	sg g
neljandamal	####				
Paastu	paast	0		S	adt
      	paast	0		S	sg g
      	paastu	0		V	o
      	paast	0		S	sg p
kuu	kuu	0		S	sg g
   	kuu	0		S	sg n
päeval	päev	l		S	sg ad
tulivad	####				
kõrgesaare	kõrge_saar	0		S	sg g
kogukonna	kogukond	0		S	sg g
kohtu	kohtu	0		V	o
     	kohus	0		S	sg g
avaliku	avalik	0		A	sg g
koosolekule	koos_olek	le		S	sg all
Pavel	Pavel	0		H	sg n
ertens	####				
Paavli	####				
poeg	poeg	0		S	sg n
ja	ja	0		J	
Karel	####				
Freiberg	####				
Leena	Lee	na		H	sg es
     	Leena	0		H	sg g
     	Leena	0		H	sg n
poeg	poeg	0		S	sg n
ja	ja	0		J	
palusivad	####				
et	et	0		J	
nende	see	de		P	pl g
     	tema	de		P	pl g
poolt	pool	t		N	sg p
     	pool	t		S	sg p
     	poolt	0		D	
     	poolt	0		K	
saaks	saa	ks		V	ks
järgmine	järgmine	0		A	sg n
leping	leping	0		S	sg n
üles	üles	0		D	
võetud	võe=tu	d		S	pl n
      	võetud	0		A	
      	võetud	0		A	sg n
      	võetud	d		A	pl n
      	võt	tud		V	tud
:	:			Z	
""""	""""			Z	
Mina	mina	0		P	sg n
    	mina	0		S	sg g
    	mina	0		S	sg n
    	mina	0		S	sg p
Pavel	Pavel	0		H	sg n
ertens	####				
,	,			Z	
Pavli	####				
poeg	poeg	0		S	sg n
müün	müü	n		V	n
oma	oma	0		A	sg g
   	oma	0		D	
   	oma	0		P	sg g
   	oma	0		S	sg g
   	oma	0		V	o
   	oma	0		A	sg n
   	oma	0		A	sg p
   	oma	0		P	sg n
   	oma	0		P	sg p
   	oma	0		S	sg n
   	oma	0		S	sg p
vabat	####				
koha	koht	0		S	sg g
    	koha	0		S	sg g
    	koha	0		V	o
    	koha	0		S	sg n
    	koha	0		S	sg p
""""	""""			Z	
kaoste	kaos	te		S	pl g
""""	""""			Z	
peal	pea	l		S	sg ad
    	peal	0		D	
    	peal	0		K	
olevat	ole	vat		V	vat
      	olev	t		A	sg p
      	olev	t		S	sg p
majad	maja	d		S	pl n
ja	ja	0		J	
kõik	kõik	0		P	pl n
    	kõik	0		S	sg n
    	kõik	0		P	sg n
kõrvalised	kõrvaline	d		A	pl n
hooned	hoone	d		S	pl n
mis	mis	0		P	pl n
   	mis	0		P	sg n
järgmised	järgmine	d		A	pl n
on	ole	0		V	b
  	ole	0		V	vad
:	:			Z	
elatis	elatis	0		S	sg n
maja	maja	0		S	sg g
    	maja	0		S	sg n
    	maja	0		S	sg p
,	,			Z	
kaks	kaks	0		N	sg n
aida	ait	0		S	sg g
,	,			Z	
kolm	kolm	0		N	sg n
lauta	laug	ta		S	sg ab
     	laut	0		S	adt
     	laut	0		S	sg p
,	,			Z	
saun	saun	0		S	sg n
,	,			Z	
köök	köök	0		S	sg n
,	,			Z	
kelder	kelder	0		S	sg n
,	,			Z	
kalapüiiu	####				
maja	maja	0		S	sg g
    	maja	0		S	sg n
    	maja	0		S	sg p
,	,			Z	
kaks	kaks	0		N	sg n
heina	hein	0		S	adt
     	hein	0		S	sg g
     	hein	0		S	sg p
küini	####				
Karel	####				
Freibergi	####				
Leena	Lee	na		H	sg es
     	Leena	0		H	sg g
     	Leena	0		H	sg n
pojale	poeg	le		S	sg all
      	poja	le		S	sg all
ära	ära	0		D	
   	ära	0		V	neg o
ühesaja	üks_sada	0		N	sg g
viie	viis	0		N	sg g
kümne	kümme	0		N	sg g
rubla	rubla	0		S	sg g
     	rubla	0		S	sg n
     	rubla	0		S	sg p
eest	eest	0		D	
    	eest	0		K	
    	esi	st		S	sg el
jäädavaks	jäädav	ks		A	sg tr
päranduseks	pärandus	ks		S	sg tr
ära	ära	0		D	
   	ära	0		V	neg o
selle	see	0		P	sg g
     	sell	e		S	pl p
tingimisega	tingimine	ga		S	sg kom
,	,			Z	
et	et	0		J	
tema	tema	0		P	sg g
    	tema	0		P	sg n
mulle	mull	e		S	pl p
     	mina	lle		P	sg all
     	mulle	0		S	sg n
veel	veel	0		D	
    	vesi	l		S	sg ad
ühe	üks	0		N	sg g
   	üks	0		P	sg g
   	ühe	0		S	sg n
aasta	aasta	0		S	sg g
     	aasta	0		S	sg n
kortris	####				
lubab	luba	b		V	b
olla	ole	a		V	da
tema	tema	0		P	sg g
    	tema	0		P	sg n
juures	juur	s		S	sg in
      	juures	0		D	
      	juures	0		K	
.	.			Z	
nimetatud	nimeta	tud		V	tud
         	nimetatu	d		S	pl n
         	nimetatud	0		A	
         	nimetatud	0		A	sg n
         	nimetatud	d		A	pl n
raha	raha	0		S	sg g
    	raha	0		S	sg n
    	raha	0		S	sg p
summa	summ	0		S	adt
     	summ	0		S	sg g
     	summ	0		S	sg p
     	summa	0		S	sg g
     	summa	0		S	sg n
peab	pida	b		V	b
Karel	####				
Freiberg	####				
mulle	mull	e		S	pl p
     	mina	lle		P	sg all
     	mulle	0		S	sg n
viibimata	viibi	mata		V	mata
         	viibi=mata	0		A	
         	viibimata	0		D	
ära	ära	0		D	
   	ära	0		V	neg o
maksma	maks	ma		V	ma
.	.			Z	
Pavel	Pavel	0		H	sg n
ertens	####				
ei	ei	0		D	
  	ei	0		V	neg
osa	osa	0		S	sg g
   	osa	0		S	sg n
   	osa	0		S	sg p
kirja	kirja	0		A	
     	kirja	0		V	o
     	kiri	0		S	adt
     	kiri	0		S	sg g
     	kiri	0		S	sg p
,	,			Z	
kirjutas	kirjuta	s		V	s
tema	tema	0		P	sg g
    	tema	0		P	sg n
palve	palve	0		S	sg g
     	palve	0		S	sg n
peale	pea	le		S	sg all
     	peale	0		D	
     	peale	0		K	
Aleksander	Aleksander	0		H	sg n
Valk	valk	0		S	sg n
.	.			Z	
""""	""""			Z	
Miina	Miina	0		H	sg g
     	Miina	0		H	sg n
,	,			Z	
Karel	####				
Freiberg	####				
,	,			Z	
luban	luba	n		V	n
kõik	kõik	0		P	pl n
    	kõik	0		S	sg n
    	kõik	0		P	sg n
neid	neid	0		S	sg n
    	see	d		P	pl p
    	tema	d		P	pl p
ülemal	ülem	l		C	sg ad
      	ülem	l		S	sg ad
nimetatud	nimeta	tud		V	tud
         	nimetatu	d		S	pl n
         	nimetatud	0		A	
         	nimetatud	0		A	sg n
         	nimetatud	d		A	pl n
tingimisi	tingimine	i		S	pl p
         	tingimisi	0		D	
nõnda	nõnda	0		D	
täita	täi	ta		S	sg ab
     	täi	ta		V	ta
     	täit	a		V	da
     	täita	0		V	o
,	,			Z	
kuidas	kuidas	0		D	
Pavel	Pavel	0		H	sg n
ertens	####				
seda	see	da		P	sg p
minu	mina	0		P	sg g
käest	käest	0		K	
     	käsi	st		S	sg el
nõuab	nõud	b		V	b
;	;			Z	
raha	raha	0		S	sg g
    	raha	0		S	sg n
    	raha	0		S	sg p
maksnu	maks=nu	0		S	sg g
      	maks=nu	0		S	sg n
ma	mina	0		P	sg n
tänasel	tänane	l		A	sg ad
päeval	päev	l		S	sg ad
ära	ära	0		D	
   	ära	0		V	neg o
.	.			Z	
Karel	####				
Preiberg	####				
[	[			Z	
allkiri	all_kiri	0		S	sg n
]	]			Z	
selle	see	0		P	sg g
     	sell	e		S	pl p
kaupäeva	####				
lepingus	leping	s		S	sg in
nimetatud	nimeta	tud		V	tud
         	nimetatu	d		S	pl n
         	nimetatud	0		A	
         	nimetatud	0		A	sg n
         	nimetatud	d		A	pl n
inimesed	inimene	d		S	pl n
on	ole	0		V	b
  	ole	0		V	vad
kõrgesaare	kõrge_saar	0		S	sg g
kogukonna	kogukond	0		S	sg g
kohtule	kohus	le		S	sg all
palelkult	####				
tuntud	tund	tud		V	tud
      	tuntu	d		S	pl n
      	tuntud	0		A	
      	tuntud	0		A	sg n
      	tuntud	d		A	pl n
ja	ja	0		J	
mõlemad	mõlema	d		P	pl n
õiguse	õigus	0		S	sg g
omanduslikud	omandus=lik	d		A	pl n
aktite	####				
tegemise	tegemine	0		S	sg g
juures	juur	s		S	sg in
      	juures	0		D	
      	juures	0		K	
,	,			Z	
mis	mis	0		P	pl n
   	mis	0		P	sg n
kohus	kohu	s		V	s
     	kohus	0		S	sg n
oma	oma	0		A	sg g
   	oma	0		D	
   	oma	0		P	sg g
   	oma	0		S	sg g
   	oma	0		V	o
   	oma	0		A	sg n
   	oma	0		A	sg p
   	oma	0		P	sg n
   	oma	0		P	sg p
   	oma	0		S	sg n
   	oma	0		S	sg p
allkirjaga	all_kiri	ga		S	sg kom
tunnistab	tunnista	b		V	b
.	.			Z	
