20.	20.	0		O	?
vebruari	####				
protokoll	protokoll	0		S	sg n
.	.			Z	
_	_			Z	
Hakenrihter	####				
(	(			Z	
Suuremõisa	suure_mõis	0		S	sg g
härra	härra	0		S	sg g
     	härra	0		S	sg n
)	)			Z	
mõistis	mõist	is		V	s
seda	see	da		P	sg p
kohut	kohus	t		S	sg p
poiste	poiss	te		S	pl g
oma	oma	0		A	sg g
   	oma	0		D	
   	oma	0		P	sg g
   	oma	0		S	sg g
   	oma	0		V	o
   	oma	0		A	sg n
   	oma	0		A	sg p
   	oma	0		P	sg n
   	oma	0		P	sg p
   	oma	0		S	sg n
   	oma	0		S	sg p
leppiamise	####				
järel	järel	0		D	
     	järel	0		K	
;	;			Z	
see	see	0		P	sg n
on	ole	0		V	b
  	ole	0		V	vad
:	:			Z	
Aamisepp	aami_sepp	0		S	sg n
pidi	pida	i		V	s
    	pidi	0		K	
G	G	0		Y	?
.	.			Z	
_	_			Z	
Schlemile	####				
ja	ja	0		J	
G	G	0		Y	?
.	.			Z	
_	_			Z	
pristile	####				
haiguse	haigus	0		S	sg g
või	või	0		S	sg g
   	või	0		V	o
   	või	0		D	
   	või	0		J	
   	või	0		S	sg n
Haavamise	haavamine	0		S	sg g
eest	eest	0		D	
    	eest	0		K	
    	esi	st		S	sg el
esimisele	####				
6	6	0		N	?
rubla	rubla	0		S	sg g
     	rubla	0		S	sg n
     	rubla	0		S	sg p
teisele	teine	le		O	sg all
       	teine	le		P	sg all
3	3	0		N	?
rbl	rbl	0		Y	?
.	.			Z	
maksma	maks	ma		V	ma
ja	ja	0		J	
siis	siis	0		D	
    	siis	0		J	
nende	see	de		P	pl g
     	tema	de		P	pl g
tööpäevade	töö_päev	de		S	pl g
eest	eest	0		D	
    	eest	0		K	
    	esi	st		S	sg el
ka	ka	0		D	
,	,			Z	
mis	mis	0		P	pl n
   	mis	0		P	sg n
nad	tema	d		P	pl n
kodu	kodu	0		S	sg g
    	kodu	0		S	sg n
    	kodu	0		S	sg p
haiget	haige	t		A	sg p
      	haige	t		S	sg p
olid	ole	id		V	sid
(	(			Z	
3	3	0		N	?
nädalad	nädal	d		S	pl n
)	)			Z	
.	.			Z	
nõnda	nõnda	0		D	
,	,			Z	
et	et	0		J	
Aamisepal	aami_sepp	l		S	sg ad
14	14	0		N	?
rbl	rbl	0		Y	?
.	.			Z	
73	73	0		N	?
kop	kop	0		Y	?
.	.			Z	
neile	see	le		P	pl all
     	tema	le		P	pl all
tuli	tuli	0		S	sg n
    	tule	i		V	s
maksta	maks	ta		V	da
      	maks	ta		V	ta
.	.			Z	
