sai	saa	i		V	s
   	sai	0		S	sg n
ettevõetud	ette_võetud	0		A	
          	ette_võetud	0		A	sg n
          	ette_võetud	d		A	pl n
mis	mis	0		P	pl n
   	mis	0		P	sg n
Nr	Nr	0		Y	?
al	####				
sissekaebtud	####				
oli	ole	i		V	s
:	:			Z	
Juhan	Juhan	0		H	sg n
Pihlamets	pihla_mets	0		S	sg n
ütles	ütle	s		V	s
et	et	0		J	
ta	tema	0		P	sg g
  	tema	0		P	sg n
on	ole	0		V	b
  	ole	0		V	vad
heina	hein	0		S	adt
     	hein	0		S	sg g
     	hein	0		S	sg p
lau	laug	0		S	sg g
parandamise	parandamine	0		S	sg g
tarvis	tarvis	0		D	
      	tarvis	0		K	
võtnud	võt	nud		V	nud
      	võt=nu	d		S	pl n
      	võt=nud	0		A	
      	võt=nud	0		A	sg n
      	võt=nud	d		A	pl n
.	.			Z	
