astus	astu	s		V	s
kohtu	kohtu	0		V	o
     	kohus	0		S	sg g
ette	ette	0		D	
    	ette	0		K	
    	esi	tte		S	adt
Liisa	Liisa	0		H	sg g
     	Liisa	0		H	sg n
Villmann	vill_mann	0		S	sg n
ja	ja	0		J	
kaebas	kaeba	s		V	s
,	,			Z	
et	et	0		J	
Hans	Hans	0		H	sg n
Visitam	####				
olla	ole	a		V	da
tema	tema	0		P	sg g
    	tema	0		P	sg n
sauna	saun	0		S	adt
     	saun	0		S	sg g
     	saun	0		S	sg p
tulnud	tul=nud	0		A	
      	tul=nud	0		A	sg n
      	tul=nud	d		A	pl n
      	tule	nud		V	nud
      	tulnu	d		S	pl n
ja	ja	0		J	
teda	tema	da		P	sg p
suure	suur	0		A	sg g
puuga	puu	ga		S	sg kom
peksnud	peks	nud		V	nud
       	peks=nu	d		S	pl n
       	peks=nud	0		A	
       	peks=nud	0		A	sg n
       	peks=nud	d		A	pl n
.	.			Z	
Tema	tema	0		P	sg g
    	tema	0		P	sg n
karduhvlid	####				
olla	ole	a		V	da
sigadest	siga	dest		A	pl el
        	siga	dest		S	pl el
ära	ära	0		D	
   	ära	0		V	neg o
tustitud	tusti	tud		V	tud
        	tusti=tu	d		S	pl n
        	tusti=tud	0		A	
        	tusti=tud	0		A	sg n
        	tusti=tud	d		A	pl n
,	,			Z	
ja	ja	0		J	
Hans	Hans	0		H	sg n
Visitam	####				
öölnud	####				
,	,			Z	
et	et	0		J	
Liisu	liisk	0		S	sg g
     	liisu	0		V	o
Villmanni	vill_mann	0		S	adt
         	vill_mann	0		S	sg g
         	vill_mann	0		S	sg p
sead	sead	d		V	d
    	siga	d		A	pl n
    	siga	d		S	pl n
olla	ole	a		V	da
seda	see	da		P	sg p
teinud	tege	nud		V	nud
      	tei=nud	0		A	
      	tei=nud	0		A	sg n
      	tei=nud	d		A	pl n
      	teinu	d		S	pl n
.	.			Z	
Liisu	liisk	0		S	sg g
     	liisu	0		V	o
Villmann'il	####				
oli	ole	i		V	s
see	see	0		P	sg n
puu	puu	0		S	sg g
   	puu	0		S	sg n
kohtu	kohtu	0		V	o
     	kohus	0		S	sg g
ette	ette	0		D	
    	ette	0		K	
    	esi	tte		S	adt
naidata	####				
toodud	too	dud		V	tud
      	toodu	d		S	pl n
      	toodud	0		A	
      	toodud	0		A	sg n
      	toodud	d		A	pl n
,	,			Z	
mis	mis	0		P	pl n
   	mis	0		P	sg n
Hans	Hans	0		H	sg n
Visitam	####				
tema	tema	0		P	sg g
    	tema	0		P	sg n
peale	pea	le		S	sg all
     	peale	0		D	
     	peale	0		K	
pooleks	pool	ks		N	sg tr
       	pool	ks		S	sg tr
       	pooleks	0		D	
lõõnud	####				
.	.			Z	
ette	ette	0		D	
    	ette	0		K	
    	esi	tte		S	adt
sai	saa	i		V	s
   	sai	0		S	sg n
kutsutud	kutsu	tud		V	tud
        	kutsutu	d		S	pl n
        	kutsutud	0		A	
        	kutsutud	0		A	sg n
        	kutsutud	d		A	pl n
Hans	Hans	0		H	sg n
Visitam	####				
,	,			Z	
tema	tema	0		P	sg g
    	tema	0		P	sg n
ei	ei	0		D	
  	ei	0		V	neg
salganud	####				
mitte	mitte	0		D	
,	,			Z	
et	et	0		J	
ta	tema	0		P	sg g
  	tema	0		P	sg n
Liisu	liisk	0		S	sg g
     	liisu	0		V	o
Villmann'i	####				
sauna	saun	0		S	adt
     	saun	0		S	sg g
     	saun	0		S	sg p
on	ole	0		V	b
  	ole	0		V	vad
läinud	läinu	d		S	pl n
      	läinud	0		A	
      	läinud	0		A	sg n
      	läinud	d		A	pl n
      	mine	nud		V	nud
ja	ja	0		J	
teda	tema	da		P	sg p
seal	seal	0		D	
    	siga	l		A	sg ad
    	siga	l		S	sg ad
selle	see	0		P	sg g
     	sell	e		S	pl p
puuga	puu	ga		S	sg kom
lõõnud	####				
,	,			Z	
sest	see	st		P	sg el
    	sest	0		J	
Liisu	liisk	0		S	sg g
     	liisu	0		V	o
Villmann	vill_mann	0		S	sg n
olla	ole	a		V	da
teda	tema	da		P	sg p
sõimanud	sõima	nud		V	nud
        	sõima=nu	d		S	pl n
        	sõima=nud	0		A	
        	sõima=nud	0		A	sg n
        	sõima=nud	d		A	pl n
;	;			Z	
sigu	siga	u		A	pl p
    	siga	u		S	pl p
ei	ei	0		D	
  	ei	0		V	neg
olla	ole	a		V	da
ta	tema	0		P	sg g
  	tema	0		P	sg n
küll	küll	0		D	
    	küll	0		S	sg n
näinud	näi	nud		V	nud
      	näge	nud		V	nud
      	näi=nud	0		A	
      	näi=nud	0		A	sg n
      	näi=nud	d		A	pl n
      	näinu	d		S	pl n
enese	ise	0		P	sg g
karduhvlie	####				
sees	sees	0		D	
    	sees	0		K	
,	,			Z	
aga	aga	0		J	
ta	tema	0		P	sg g
  	tema	0		P	sg n
arvata	arva	ta		V	da
      	arva	ta		V	ta
      	arvata	0		D	
seda	see	da		P	sg p
,	,			Z	
et	et	0		J	
need	see	d		P	pl n
Liisu	liisk	0		S	sg g
     	liisu	0		V	o
Villmann'i	####				
sead	sead	d		V	d
    	siga	d		A	pl n
    	siga	d		S	pl n
on	ole	0		V	b
  	ole	0		V	vad
olnud	ol=nud	0		A	
     	ol=nud	0		A	sg n
     	ol=nud	d		A	pl n
     	ole	nud		V	nud
     	olnu	d		S	pl n
.	.			Z	
Pitkema	####				
ülekuulamisel	üle_kuulamine	l		S	sg ad
sai	saa	i		V	s
   	sai	0		S	sg n
leitud	leid	tud		V	tud
      	leitu	d		S	pl n
      	leitud	0		A	
      	leitud	0		A	sg n
      	leitud	d		A	pl n
,	,			Z	
et	et	0		J	
Liisu	liisk	0		S	sg g
     	liisu	0		V	o
Villmann'il	####				
kaa	####				
selle	see	0		P	sg g
     	sell	e		S	pl p
poolest	pool	st		N	sg el
       	pool	st		S	sg el
       	poolene	t		A	sg p
       	poolest	0		K	
süüd	süü	d		S	pl n
    	süüd	0		S	sg n
    	süü	d		S	sg p
oli	ole	i		V	s
,	,			Z	
et	et	0		J	
ta	tema	0		P	sg g
  	tema	0		P	sg n
on	ole	0		V	b
  	ole	0		V	vad
sõimanud	sõima	nud		V	nud
        	sõima=nu	d		S	pl n
        	sõima=nud	0		A	
        	sõima=nud	0		A	sg n
        	sõima=nud	d		A	pl n
;	;			Z	
kohus	kohu	s		V	s
     	kohus	0		S	sg n
mõistis	mõist	is		V	s
:	:			Z	
Hans	Hans	0		H	sg n
Visitam	####				
maksab	maks	b		V	b
Liisu	liisk	0		S	sg g
     	liisu	0		V	o
Villmannile	vill_mann	le		S	sg all
3	3	0		N	?
rbl	rbl	0		Y	?
.	.			Z	
peksmise	peksmine	0		S	sg g
eest	eest	0		D	
    	eest	0		K	
    	esi	st		S	sg el
;	;			Z	
ja	ja	0		J	
selle	see	0		P	sg g
     	sell	e		S	pl p
teo	tegu	0		S	sg g
   	tigu	0		S	sg g
trahviks	trahv	ks		S	sg tr
        	trahvi	ks		V	ks
,	,			Z	
et	et	0		J	
ta	tema	0		P	sg g
  	tema	0		P	sg n
teise	teine	0		O	adt
     	teine	0		O	sg g
     	teine	0		P	adt
     	teine	0		P	sg g
majase	####				
läks	mine	s		V	s
ooma	####				
kurja	kuri	0		A	adt
     	kuri	0		A	sg g
     	kuri	0		S	adt
     	kuri	0		S	sg g
     	kuri	0		A	sg p
     	kuri	0		S	sg p
südamega	süda	ga		S	sg kom
teist	sina	st		P	pl el
     	tee	ist		S	pl el
     	teist	0		D	
     	teine	t		O	sg p
     	teine	t		P	sg p
peksma	peks	ma		V	ma
saab	saa	b		V	b
ta	tema	0		P	sg g
  	tema	0		P	sg n
15	15	0		N	?
hoopi	hoop	0		S	adt
     	hoop	0		S	sg p
vitsu	vits	u		S	pl p
.	.			Z	
Liisu	liisk	0		S	sg g
     	liisu	0		V	o
Villmann	vill_mann	0		S	sg n
saab	saa	b		V	b
sõimamise	sõimamine	0		S	sg g
eest	eest	0		D	
    	eest	0		K	
    	esi	st		S	sg el
2	2	0		N	?
päeva	päev	0		S	adt
     	päev	0		S	sg g
     	päev	0		S	sg p
puuri	puur	0		S	adt
     	puur	0		S	sg g
     	puuri	0		V	o
     	puur	0		S	sg p
.	.			Z	
kohtuvanem	kohtu_vanem	0		C	sg n
          	kohtu_vanem	0		S	sg n
:	:			Z	
K. Ojasson	####				
[	[			Z	
allkiri	all_kiri	0		S	sg n
]	]			Z	
korvamees	####				
:	:			Z	
Hans	Hans	0		H	sg n
Viht	viht	0		S	sg n
""""	""""			Z	
:	:			Z	
Jaan	Jaan	0		H	sg n
    	jaan	0		S	sg n
    	jaan	0		Y	?
Umberg	####				
kirjutaja	kirjutaja	0		S	sg g
         	kirjutaja	0		S	sg n
Mihkel	Mihkel	0		H	sg n
      	mihkel	0		A	sg n
      	mihkel	0		S	sg n
Kruup	kruup	0		S	sg n
[	[			Z	
allkiri	all_kiri	0		S	sg n
]	]			Z	
