ükstuat	####				
kaheksa	kaheksa	0		N	sg g
       	kaheksa	0		N	sg n
saada	saa	da		V	da
     	saat	0		V	o
     	saa	da		V	ta
üheksa	üheksa	0		N	sg g
      	üheksa	0		N	sg n
None	####				
kaheksamal	####				
aastal	aasta	l		S	sg ad
,	,			Z	
Jüri	Jüri	0		H	sg g
    	Jüri	0		H	sg n
kuu	kuu	0		S	sg g
   	kuu	0		S	sg n
seitsmeteistkümnendal	seitsme_teist_kümnes	l		O	sg ad
päeval	päev	l		S	sg ad
astusivad	####				
kohtu	kohtu	0		V	o
     	kohus	0		S	sg g
ette	ette	0		D	
    	ette	0		K	
    	esi	tte		S	adt
kohtule	kohus	le		S	sg all
tuntud	tund	tud		V	tud
      	tuntu	d		S	pl n
      	tuntud	0		A	
      	tuntud	0		A	sg n
      	tuntud	d		A	pl n
emmaste	emm_aste	0		S	sg n
valla	vald	0		S	sg g
     	valla	0		D	
liikmed	liige	d		S	pl n
:	:			Z	
Peet	Peet	0		H	sg n
    	peet	0		S	sg n
Rand	rand	0		S	sg n
,	,			Z	
Peeter	Peeter	0		H	sg n
Pik	####				
ja	ja	0		J	
August	august	0		S	sg n
      	auk	st		S	sg el
      	August	0		H	sg n
Sepel	####				
ja	ja	0		J	
palusivad	####				
ettepandud	ette_pan=du	d		S	pl n
          	ette_pan=dud	0		A	
          	ette_pan=dud	0		A	sg n
          	ette_pan=dud	d		A	pl n
kirjaliku	kirjalik	0		A	sg g
lepingut	leping	t		S	sg p
selle	see	0		P	sg g
     	sell	e		S	pl p
kohtu	kohtu	0		V	o
     	kohus	0		S	sg g
lepingute	leping	te		S	pl g
raamatusse	raamat	sse		S	sg ill
üles	üles	0		D	
võtta	võt	a		V	da
:	:			Z	
Laeva	Laeva	0		H	adt
     	Laeva	0		H	sg g
     	laev	0		S	adt
     	laev	0		S	sg g
     	Laeva	0		H	sg n
     	laev	0		S	sg p
""""	""""			Z	
Leo	Leo	0		H	sg g
   	ligu	0		S	sg g
   	ligu	0		V	o
   	Leo	0		H	sg n
""""	""""			Z	
kipper	kipper	0		S	sg n
Peet	Peet	0		H	sg n
    	peet	0		S	sg n
Rand	rand	0		S	sg n
kauples	kauple	s		V	s
oma	oma	0		A	sg g
   	oma	0		D	
   	oma	0		P	sg g
   	oma	0		S	sg g
   	oma	0		V	o
   	oma	0		A	sg n
   	oma	0		A	sg p
   	oma	0		P	sg n
   	oma	0		P	sg p
   	oma	0		S	sg n
   	oma	0		S	sg p
tänavuse	tänavune	0		A	sg g
mere	meri	0		S	sg g
sõidu	sõit	0		S	sg g
tarvis	tarvis	0		D	
      	tarvis	0		K	
,	,			Z	
mis	mis	0		P	pl n
   	mis	0		P	sg n
tänasel	tänane	l		A	sg ad
päeval	päev	l		S	sg ad
Sõrul	####				
algab	alga	b		V	b
,	,			Z	
ülemalnimetatud	ülema+l_nimeta=tu	d		S	pl n
               	ülema+l_nimeta=tud	0		A	
               	ülema+l_nimeta=tud	0		A	sg n
               	ülema+l_nimeta=tud	d		A	pl n
laeva	laev	0		S	adt
     	laev	0		S	sg g
     	laev	0		S	sg p
peale	pea	le		S	sg all
     	peale	0		D	
     	peale	0		K	
madrusteks	madrus	teks		S	pl tr
Peeter	Peeter	0		H	sg n
Pik	####				
_	_			Z	
'	’			Z	
_	_			Z	
a	a	0		Y	?
viieteistkümne	viis_teist	0		N	sg g
ja	ja	0		J	
August	august	0		S	sg n
      	auk	st		S	sg el
      	August	0		H	sg n
sepeelit	####				
kümne	kümme	0		N	sg g
rubla	rubla	0		S	sg g
     	rubla	0		S	sg n
     	rubla	0		S	sg p
kuu	kuu	0		S	sg g
   	kuu	0		S	sg n
palgaga	palk	ga		S	sg kom
.	.			Z	
see	see	0		P	sg n
leping	leping	0		S	sg n
sai	saa	i		V	s
   	sai	0		S	sg n
pärast	pära	st		S	sg el
      	pärane	t		A	sg p
      	pärast	0		D	
      	pärast	0		K	
lepingute	leping	te		S	pl g
raamatusse	raamat	sse		S	sg ill
kirjutamist	kirjutamine	t		S	sg p
lepingu	leping	0		S	sg g
osalistele	osaline	tele		A	pl all
ette	ette	0		D	
    	ette	0		K	
    	esi	tte		S	adt
loetud	loetu	d		S	pl n
      	loetud	0		A	
      	loetud	0		A	sg n
      	loetud	d		A	pl n
      	luge	tud		V	tud
ja	ja	0		J	
nendelt	see	delt		P	pl abl
       	tema	delt		P	pl abl
,	,			Z	
kipperilt	####				
Peet	Peet	0		H	sg n
    	peet	0		S	sg n
Rand	rand	0		S	sg n
ja	ja	0		J	
teenijatelt	teenija	telt		S	pl abl
Peeter	Peeter	0		H	sg n
Pik	####				
_	_			Z	
'	’			Z	
_	_			Z	
alt	alt	0		S	sg n
   	alt	0		D	
   	alt	0		K	
ja	ja	0		J	
August	august	0		S	sg n
      	auk	st		S	sg el
      	August	0		H	sg n
Sepel_	####				
'	’			Z	
_ilt	####				
allakirjutatud	alla_kirjutatud	0		A	
              	alla_kirjutatud	0		A	sg n
              	alla_kirjutatud	d		A	pl n
,	,			Z	
mis	mis	0		P	pl n
   	mis	0		P	sg n
kohus	kohu	s		V	s
     	kohus	0		S	sg n
õigeks	õige	ks		A	sg tr
tunnistab	tunnista	b		V	b
.	.			Z	
Ustavaks	ustav	ks		A	sg tr
tunnistatud	tunnista	tud		V	tud
           	tunnista=tu	d		S	pl n
           	tunnista=tud	0		A	
           	tunnista=tud	0		A	sg n
           	tunnista=tud	d		A	pl n
lepingu	leping	0		S	sg g
võtsin	võt	sin		V	sin
vasta	vasta	0		V	o
:	:			Z	
Peet	Peet	0		H	sg n
    	peet	0		S	sg n
Rand	rand	0		S	sg n
[	[			Z	
allkiri	all_kiri	0		S	sg n
]	]			Z	
.	.			Z	
