ette	ette	0		D	
    	ette	0		K	
    	esi	tte		S	adt
ei	ei	0		D	
  	ei	0		V	neg
tulnud	tul=nud	0		A	
      	tul=nud	0		A	sg n
      	tul=nud	d		A	pl n
      	tule	nud		V	nud
      	tulnu	d		S	pl n
ühtegi	ühte	0	gi	D	
      	üks	0	gi	N	adt
      	üks	0	gi	P	adt
      	ühe	0	gi	S	sg g
      	üks	0	gi	N	sg p
      	üks	0	gi	P	sg p
.	.			Z	
kohtuvanem	kohtu_vanem	0		C	sg n
          	kohtu_vanem	0		S	sg n
Peeter	Peeter	0		H	sg n
Thomsen	####				
XXX	XXX	0		O	?
   	XXX	0		Y	?
kõrvamees	kõrva_mees	0		S	sg n
Jüri	Jüri	0		H	sg g
    	Jüri	0		H	sg n
Erik	Erik	0		H	sg n
XXX	XXX	0		O	?
   	XXX	0		Y	?
kõrvamees	kõrva_mees	0		S	sg n
Jaan	Jaan	0		H	sg n
    	jaan	0		S	sg n
    	jaan	0		Y	?
koplik	kop=lik	0		A	sg n
XXX	XXX	0		O	?
   	XXX	0		Y	?
kirjutaja	kirjutaja	0		S	sg g
         	kirjutaja	0		S	sg n
M	M	0		O	?
 	M	0		Y	?
Kentmann	####				
