Parila	####				
,	,			Z	
Käbla	####				
ja	ja	0		J	
Ridala	Ridala	0		H	sg g
      	Ridala	0		H	sg n
kogukonna	kogukond	0		S	sg g
kohus	kohu	s		V	s
     	kohus	0		S	sg n
sel	see	l		P	sg ad
   	sel	0		Y	?
16ndal	16=s	l		O	sg ad
Talve	talv	0		S	adt
     	talv	0		S	sg g
     	tali	0		S	adt
     	tali	0		S	sg g
     	talv	0		S	sg p
     	tali	0		S	sg p
ku	####				
päeval	päev	l		S	sg ad
1868.	1868.	0		O	?
ette	ette	0		D	
    	ette	0		K	
    	esi	tte		S	adt
tuli	tuli	0		S	sg n
    	tule	i		V	s
Mihkel	Mihkel	0		H	sg n
      	mihkel	0		A	sg n
      	mihkel	0		S	sg n
Kahm	kahm	0		S	sg n
,	,			Z	
ja	ja	0		J	
kaevas	kaeva	s		V	s
,	,			Z	
et	et	0		J	
temal	tema	l		P	sg ad
on	ole	0		V	b
  	ole	0		V	vad
:	:			Z	
Tõnis	Tõnis	0		H	sg n
Jüri	Jüri	0		H	sg g
    	Jüri	0		H	sg n
,	,			Z	
Jaan	Jaan	0		H	sg n
    	jaan	0		S	sg n
    	jaan	0		Y	?
Nojäri	####				
tule	tuli	0		S	sg g
    	tule	0		V	o
veskist	veski	st		S	sg el
üks	üks	0		N	sg n
   	üks	0		P	sg n
vak	####				
,	,			Z	
otre	####				
ära	ära	0		D	
   	ära	0		V	neg o
varastud	####				
ja	ja	0		J	
tema	tema	0		P	sg g
    	tema	0		P	sg n
poeg	poeg	0		S	sg n
Mihkel	Mihkel	0		H	sg n
      	mihkel	0		A	sg n
      	mihkel	0		S	sg n
Nojär	####				
Mustu	mustu	0		V	o
peremees	pere_mees	0		S	sg n
on	ole	0		V	b
  	ole	0		V	vad
seal	seal	0		D	
    	siga	l		A	sg ad
    	siga	l		S	sg ad
päeval	päev	l		S	sg ad
seal	seal	0		D	
    	siga	l		A	sg ad
    	siga	l		S	sg ad
veskis	veski	s		S	sg in
jahvatamas	jahvata	mas		V	mas
olnud	ol=nud	0		A	
     	ol=nud	0		A	sg n
     	ol=nud	d		A	pl n
     	ole	nud		V	nud
     	olnu	d		S	pl n
,	,			Z	
kui	kui	0		D	
   	kui	0		J	
öö	öö	0		S	sg g
  	öö	0		S	sg n
on	ole	0		V	b
  	ole	0		V	vad
varastud	####				
(	(			Z	
ja	ja	0		J	
võtti	####				
on	ole	0		V	b
  	ole	0		V	vad
ka	ka	0		D	
sel	see	l		P	sg ad
   	sel	0		Y	?
ööl	öö	l		S	sg ad
tema	tema	0		P	sg g
    	tema	0		P	sg n
kä	####				
olnud	ol=nud	0		A	
     	ol=nud	0		A	sg n
     	ol=nud	d		A	pl n
     	ole	nud		V	nud
     	olnu	d		S	pl n
)	)			Z	
ja	ja	0		J	
veski	veski	0		S	sg g
     	veski	0		S	sg n
on	ole	0		V	b
  	ole	0		V	vad
terve	terve	0		A	sg g
     	terve	0		A	sg n
     	terve	0		S	sg g
     	terve	0		S	sg n
;	;			Z	
selle	see	0		P	sg g
     	sell	e		S	pl p
pärast	pära	st		S	sg el
      	pärane	t		A	sg p
      	pärast	0		D	
      	pärast	0		K	
aiab	####				
Mihkel	Mihkel	0		H	sg n
      	mihkel	0		A	sg n
      	mihkel	0		S	sg n
Kahm	kahm	0		S	sg n
,	,			Z	
seda	see	da		P	sg p
vargust	vargus	t		S	sg p
Mihkel	Mihkel	0		H	sg n
      	mihkel	0		A	sg n
      	mihkel	0		S	sg n
Nojäri	####				
süüks	süü	ks		S	sg tr
,	,			Z	
et	et	0		J	
veski	veski	0		S	sg g
     	veski	0		S	sg n
uks	uks	0		S	sg n
on	ole	0		V	b
  	ole	0		V	vad
homiku	####				
kinni	kinni	0		D	
olnud	ol=nud	0		A	
     	ol=nud	0		A	sg n
     	ol=nud	d		A	pl n
     	ole	nud		V	nud
     	olnu	d		S	pl n
ja	ja	0		J	
mitte	mitte	0		D	
kuskist	####				
,	,			Z	
ära	ära	0		D	
   	ära	0		V	neg o
lõhutud	lõhku	tud		V	tud
       	lõhu=tu	d		S	pl n
       	lõhu=tud	0		A	
       	lõhu=tud	0		A	sg n
       	lõhu=tud	d		A	pl n
.	.			Z	
nüüd	nüüd	0		D	
tunnistab	tunnista	b		V	b
Mihkel	Mihkel	0		H	sg n
      	mihkel	0		A	sg n
      	mihkel	0		S	sg n
Nojär	####				
kõvvaste	####				
selle	see	0		P	sg g
     	sell	e		S	pl p
vastu	vastu	0		D	
     	vastu	0		K	
,	,			Z	
et	et	0		J	
tema	tema	0		P	sg g
    	tema	0		P	sg n
ei	ei	0		D	
  	ei	0		V	neg
ole	ole	0		V	o
koguni	kogu	ni		S	sg ter
      	koguni	0		D	
mitte	mitte	0		D	
varastanud	varasta	nud		V	nud
          	varasta=nu	d		S	pl n
          	varasta=nud	0		A	
          	varasta=nud	0		A	sg n
          	varasta=nud	d		A	pl n
;	;			Z	
ja	ja	0		J	
se	####				
võtti	####				
on	ole	0		V	b
  	ole	0		V	vad
enne	enne	0		D	
    	enne	0		K	
    	enne	0		S	sg n
mitto	####				
kord	kord	0		D	
    	kord	0		S	sg n
tema	tema	0		P	sg g
    	tema	0		P	sg n
kä	####				
olnud	ol=nud	0		A	
     	ol=nud	0		A	sg n
     	ol=nud	d		A	pl n
     	ole	nud		V	nud
     	olnu	d		S	pl n
.	.			Z	
Mihkel	Mihkel	0		H	sg n
      	mihkel	0		A	sg n
      	mihkel	0		S	sg n
Kahm	kahm	0		S	sg n
tunnistuse	tunnistus	0		S	sg g
peale	pea	le		S	sg all
     	peale	0		D	
     	peale	0		K	
arvas	arva	s		V	s
kohus	kohu	s		V	s
     	kohus	0		S	sg n
seda	see	da		P	sg p
Mihkel	Mihkel	0		H	sg n
      	mihkel	0		A	sg n
      	mihkel	0		S	sg n
Nojäri	####				
süüks	süü	ks		S	sg tr
ja	ja	0		J	
mõistis	mõist	is		V	s
et	et	0		J	
tema	tema	0		P	sg g
    	tema	0		P	sg n
peab	pida	b		V	b
need	see	d		P	pl n
odrad	oder	d		S	pl n
maksma	maks	ma		V	ma
.	.			Z	
kohtu	kohtu	0		V	o
     	kohus	0		S	sg g
vanem	vanem	0		C	sg n
     	vanem	0		S	sg n
:	:			Z	
Jaan	Jaan	0		H	sg n
    	jaan	0		S	sg n
    	jaan	0		Y	?
Jünter	####				
XXX	XXX	0		O	?
   	XXX	0		Y	?
abimehed	abi_mees	d		S	pl n
:	:			Z	
Ado	Ado	0		H	sg g
   	Ado	0		H	sg n
Kreis	kreis	0		S	sg n
XXX	XXX	0		O	?
   	XXX	0		Y	?
Mart	Mart	0		H	sg n
    	mart	0		S	sg n
Hiie	hiis	0		S	sg g
XXX	XXX	0		O	?
   	XXX	0		Y	?
