ette	ette	0		D	
    	ette	0		K	
    	esi	tte		S	adt
tuli	tuli	0		S	sg n
    	tule	i		V	s
:	:			Z	
kaebaja	kaebaja	0		S	sg g
       	kaebaja	0		S	sg n
Juhan	Juhan	0		H	sg n
Madsik	####				
ja	ja	0		J	
kaebas	kaeba	s		V	s
et	et	0		J	
20	20	0		N	?
hoost	hoog	st		S	sg el
odra	oder	0		S	sg g
lõikusse	lõikus	se		S	adt
aegas	####				
rukki	rukis	0		S	adt
     	rukis	0		S	sg g
2	2	0		N	?
hakki	hakk	0		S	adt
     	hakk	0		S	sg p
ära	ära	0		D	
   	ära	0		V	neg o
sõõnd	####				
;	;			Z	
essimise	####				
üsna	üsna	0		D	
ära	ära	0		D	
   	ära	0		V	neg o
,	,			Z	
teist	sina	st		P	pl el
     	tee	ist		S	pl el
     	teist	0		D	
     	teine	t		O	sg p
     	teine	t		P	sg p
poole	pool	0		N	sg g
     	pool	0		S	sg g
     	pool	e		S	pl p
     	poole	0		K	
     	poole	0		S	sg n
;	;			Z	
kahju	kahi	0		S	adt
     	kahi	0		S	sg g
     	kahi	0		S	sg p
     	kahju	0		S	sg g
     	kahju	0		S	sg n
     	kahju	0		S	sg p
sai	saa	i		V	s
   	sai	0		S	sg n
jala	jalg	0		S	sg g
    	jala	0		D	
pealt	pea	lt		S	sg abl
     	pealt	0		D	
     	pealt	0		K	
tunnistusmeestega	tunnistus_mees	tega		S	pl kom
ja	ja	0		J	
küla	küla	0		S	sg g
    	küla	0		S	sg n
    	küla	0		S	sg p
kupjastega	####				
vatetud	####				
,	,			Z	
ja	ja	0		J	
sai	saa	i		V	s
   	sai	0		S	sg n
siis	siis	0		D	
    	siis	0		J	
nõnda	nõnda	0		D	
lepitud	leppi	tud		V	tud
       	lepi=tu	d		S	pl n
       	lepi=tud	0		A	
       	lepi=tud	0		A	sg n
       	lepi=tud	d		A	pl n
et	et	0		J	
iga	iga	0		P	sg g
   	iga	0		P	sg n
   	iga	0		P	sg p
   	iga	0		S	sg n
   	iga	0		S	sg p
hobuse	hobune	0		S	sg g
pealt	pea	lt		S	sg abl
     	pealt	0		D	
     	pealt	0		K	
3	3	0		N	?
toopi	toop	0		S	adt
     	toop	0		S	sg p
vilja	vili	0		S	adt
     	vili	0		S	sg g
     	vili	0		S	sg p
saab	saa	b		V	b
makstud	maks	tud		V	tud
       	maks=tu	d		S	pl n
       	maks=tud	0		A	
       	maks=tud	0		A	sg n
       	maks=tud	d		A	pl n
,	,			Z	
minna	mine	a		V	da
olin	ole	in		V	sin
nende	see	de		P	pl g
     	tema	de		P	pl g
lubatusega	lubatu=s	ga		S	sg kom
rahul	rahu	l		S	sg ad
     	rahul	0		D	
,	,			Z	
tänine	tänine	0		A	sg n
aga	aga	0		J	
ei	ei	0		D	
  	ei	0		V	neg
ole	ole	0		V	o
veel	veel	0		D	
    	vesi	l		S	sg ad
mitte	mitte	0		D	
makstud	maks	tud		V	tud
       	maks=tu	d		S	pl n
       	maks=tud	0		A	
       	maks=tud	0		A	sg n
       	maks=tud	d		A	pl n
,	,			Z	
ning	ning	0		J	
pisukse	####				
Ahli	####				
küla	küla	0		S	sg g
    	küla	0		S	sg n
    	küla	0		S	sg p
mehed	mees	d		S	pl n
ei	ei	0		D	
  	ei	0		V	neg
lubagi	luba	0	gi	S	sg n
      	luba	0	gi	V	o
      	luba	0	gi	S	sg p
enam	enam	0		C	sg n
    	enam	0		D	
maksta	maks	ta		V	da
      	maks	ta		V	ta
;	;			Z	
hobused	hobune	d		S	pl n
olid	ole	id		V	sid
:	:			Z	
Kiltsist	Kiltsi	st		H	sg el
Juhan	Juhan	0		H	sg n
Poots	####				
hobune	hobune	0		S	sg n
1	1	0		N	?
;	;			Z	
Assukülast	####				
Mihkel	Mihkel	0		H	sg n
      	mihkel	0		A	sg n
      	mihkel	0		S	sg n
Luisk	luisk	0		S	sg n
hobune	hobune	0		S	sg n
1	1	0		N	?
;	;			Z	
Louka	####				
jaani	jaan	0		S	adt
     	jaan	0		S	sg g
     	jaan	0		S	sg p
h	h	0		Y	?
.	.			Z	
1	1	0		N	?
;	;			Z	
Simo	####				
Noil	too	l		P	pl ad
2	2	0		N	?
h	h	0		Y	?
.	.			Z	
;	;			Z	
Uuetoal	uue_tuba	l		S	sg ad
1.	1.	0		O	?
h	h	0		Y	?
;	;			Z	
Jurnalt	####				
2	2	0		N	?
h	h	0		Y	?
.	.			Z	
;	;			Z	
Madiselt	Madis	lt		H	sg abl
        	madis	lt		S	sg abl
1.	1.	0		O	?
h	h	0		Y	?
;	;			Z	
Madise	Madis	0		H	sg g
      	madis	0		S	sg g
saunast	saun	st		S	sg el
1.	1.	0		O	?
h	h	0		Y	?
;	;			Z	
Sõelusepal	####				
3	3	0		N	?
hoost	hoog	st		S	sg el
;	;			Z	
praego	####				
summa	summ	0		S	adt
     	summ	0		S	sg g
     	summ	0		S	sg p
     	summa	0		S	sg g
     	summa	0		S	sg n
13	13	0		N	?
h	h	0		Y	?
.	.			Z	
kes	kes	0		P	pl n
   	kes	0		P	sg n
ei	ei	0		D	
  	ei	0		V	neg
ole	ole	0		V	o
maksnud	maks	nud		V	nud
       	maks=nu	d		S	pl n
       	maks=nud	0		A	
       	maks=nud	0		A	sg n
       	maks=nud	d		A	pl n
;	;			Z	
7	7	0		N	?
hoost	hoog	st		S	sg el
on	ole	0		V	b
  	ole	0		V	vad
maksnud	maks	nud		V	nud
       	maks=nu	d		S	pl n
       	maks=nud	0		A	
       	maks=nud	0		A	sg n
       	maks=nud	d		A	pl n
.	.			Z	
kohtu	kohtu	0		V	o
     	kohus	0		S	sg g
mehed	mees	d		S	pl n
võttsid	####				
kaebtuse	####				
pärast	pära	st		S	sg el
      	pärane	t		A	sg p
      	pärast	0		D	
      	pärast	0		K	
keigile	####				
süü	süü	0		S	sg g
   	süü	0		S	sg n
hooste	####				
peremeestele	pere_mees	tele		S	pl all
Käsk	käsk	0		S	sg n
anda	and	a		V	da
et	et	0		J	
selle	see	0		P	sg g
     	sell	e		S	pl p
nädala	nädal	0		S	sg g
sees	sees	0		D	
    	sees	0		K	
ära	ära	0		D	
   	ära	0		V	neg o
maksvad	maksev	d		A	pl n
;	;			Z	
kui	kui	0		D	
   	kui	0		J	
aga	aga	0		J	
ei	ei	0		D	
  	ei	0		V	neg
ole	ole	0		V	o
makstud	maks	tud		V	tud
       	maks=tu	d		S	pl n
       	maks=tud	0		A	
       	maks=tud	0		A	sg n
       	maks=tud	d		A	pl n
siis	siis	0		D	
    	siis	0		J	
esmaspäev	esmas_päev	0		S	sg n
15ndal	15=s	l		O	sg ad
Oktober	####				
kohtu	kohtu	0		V	o
     	kohus	0		S	sg g
tulla	tule	a		V	da
endi	ise	0		P	pl g
vastu	vastu	0		D	
     	vastu	0		K	
panemist	panemine	t		S	sg p
õiendama	õienda	ma		V	ma
.	.			Z	
kohtumees	kohtu_mees	0		S	sg n
Mihkel	Mihkel	0		H	sg n
      	mihkel	0		A	sg n
      	mihkel	0		S	sg n
Poots	####				
XXX	XXX	0		O	?
   	XXX	0		Y	?
I	I	0		O	?
 	I	0		Y	?
 	j	0		Y	?
kohtu	kohtu	0		V	o
     	kohus	0		S	sg g
kõrvamees	kõrva_mees	0		S	sg n
Mihkel	Mihkel	0		H	sg n
      	mihkel	0		A	sg n
      	mihkel	0		S	sg n
Juhkam	juhkam	0		S	sg n
XXX	XXX	0		O	?
   	XXX	0		Y	?
II	II	0		O	?
  	II	0		Y	?
  	jj	0		Y	?
kohtu	kohtu	0		V	o
     	kohus	0		S	sg g
kõrvamees	kõrva_mees	0		S	sg n
Jüri	Jüri	0		H	sg g
    	Jüri	0		H	sg n
Laur	Laur	0		H	sg n
XXX	XXX	0		O	?
   	XXX	0		Y	?
kirjutaja	kirjutaja	0		S	sg g
         	kirjutaja	0		S	sg n
Jaan	Jaan	0		H	sg n
    	jaan	0		S	sg n
    	jaan	0		Y	?
krünäär	####				
on	ole	0		V	b
  	ole	0		V	vad
ilma	ilm	0		S	adt
    	ilm	0		S	sg g
    	ilma	0		D	
    	ilma	0		K	
    	ilm	0		S	sg p
mõistmata	mõist	mata		V	mata
         	mõist=mata	0		A	
maksnud	maks	nud		V	nud
       	maks=nu	d		S	pl n
       	maks=nud	0		A	
       	maks=nud	0		A	sg n
       	maks=nud	d		A	pl n
.	.			Z	
