Johan	Johan	0		H	sg n
krenmann	####				
palus	palu	s		S	sg in
     	palu	s		V	s
talitajad	talitaja	d		S	pl n
tema	tema	0		P	sg g
    	tema	0		P	sg n
ooma	####				
käega	käsi	ga		S	sg kom
nime	nimi	0		S	sg g
    	nimi	0		S	sg p
kirjudut	####				
kordon	kordon	0		S	sg n
väikse	väike	0		A	sg g
paadi	paat	0		A	sg g
     	paat	0		S	sg g
Rechnungi	####				
all	all	0		D	
   	all	0		K	
kinniidata	####				
.	.			Z	
talitaja	talitaja	0		S	sg g
        	talitaja	0		S	sg n
tundis	tund	is		V	s
asja	asi	0		S	adt
    	asi	0		S	sg g
    	asi	0		S	sg p
õigeks	õige	ks		A	sg tr
ja	ja	0		J	
kinnitas	kinnita	s		V	s
.	.			Z	
