Jüri	Jüri	0		H	sg g
    	Jüri	0		H	sg n
Sillart	####				
ja	ja	0		J	
Jüri	Jüri	0		H	sg g
    	Jüri	0		H	sg n
Reinbach	####				
vahel	vahe	l		S	sg ad
     	vahel	0		D	
     	vahel	0		K	
maha	maha	0		D	
tehtud	tehtu	d		S	pl n
      	tehtud	0		A	
      	tehtud	0		A	sg n
      	tehtud	d		A	pl n
      	tege	tud		V	tud
rendi	rent	0		S	sg g
     	renti	0		V	o
kontrakt	####				
Vasalemas	####				
oleva	olev	0		A	sg g
     	olev	0		S	sg g
tuleveski	tule_veski	0		S	sg g
         	tule_veski	0		S	sg n
""""	""""			Z	
Väemla	####				
""""	""""			Z	
ülle	ülle	0		D	
kinnitud	kinnitu	d		V	d
.	.			Z	
kontrakt	####				
kestab	kest	b		V	b
2	2	0		N	?
a.	a	0		Y	?
rendi	rent	0		S	sg g
     	renti	0		V	o
hind	hind	0		S	sg n
50	50	0		N	?
rbl	rbl	0		Y	?
.	.			Z	
aastas	aasta	s		S	sg in
.	.			Z	
J	J	0		Y	?
Reinbach	####				
[	[			Z	
allkiri	all_kiri	0		S	sg n
]	]			Z	
Vanem	vanem	0		C	sg n
     	vanem	0		S	sg n
:	:			Z	
kirjutaja	kirjutaja	0		S	sg g
         	kirjutaja	0		S	sg n
:	:			Z	
Matzar	####				
[	[			Z	
allkiri	all_kiri	0		S	sg n
]	]			Z	
