Sai	saa	i		V	s
   	sai	0		S	sg n
mõisa	mõis	0		S	sg g
politsei	politsei	0		S	sg g
        	politsei	0		S	sg n
poolest	pool	st		N	sg el
       	pool	st		S	sg el
       	poolene	t		A	sg p
       	poolest	0		K	
kaebtust	####				
kohtu	kohtu	0		V	o
     	kohus	0		S	sg g
ette	ette	0		D	
    	ette	0		K	
    	esi	tte		S	adt
toodud	too	dud		V	tud
      	toodu	d		S	pl n
      	toodud	0		A	
      	toodud	0		A	sg n
      	toodud	d		A	pl n
,	,			Z	
et	et	0		J	
vabad	vaba	d		A	pl n
mehed	mees	d		S	pl n
,	,			Z	
kellel	kes	l		P	pl ad
      	kes	l		P	sg ad
vabad	vaba	d		A	pl n
kohad	koht	d		S	pl n
     	koha	d		S	pl n
     	koha	d		V	d
Mäimoisa	####				
ma	mina	0		P	sg n
peal	pea	l		S	sg ad
    	peal	0		D	
    	peal	0		K	
ja	ja	0		J	
peavad	pida	vad		V	vad
iga	iga	0		P	sg g
   	iga	0		P	sg n
   	iga	0		P	sg p
   	iga	0		S	sg n
   	iga	0		S	sg p
nädalas	nädal	s		S	sg in
päeva	päev	0		S	adt
     	päev	0		S	sg g
     	päev	0		S	sg p
mõisale	mõis	le		S	sg all
tegema	tege	ma		V	ma
,	,			Z	
aga	aga	0		J	
pole	ole	0		V	neg o
sel	see	l		P	sg ad
   	sel	0		Y	?
aastal	aasta	l		S	sg ad
mitte	mitte	0		D	
üks	üks	0		N	sg n
   	üks	0		P	sg n
päev	päev	0		S	sg n
teind	####				
;	;			Z	
need	see	d		P	pl n
on	ole	0		V	b
  	ole	0		V	vad
nimelt	nimelt	0		D	
      	nimi	lt		S	sg abl
:	:			Z	
Aru	aru	0		S	sg g
   	aru	0		S	sg n
   	aru	0		S	sg p
Juhan	Juhan	0		H	sg n
Sass	Sass	0		H	sg n
Muda	muda	0		S	sg g
    	muda	0		S	sg n
    	muda	0		S	sg p
Jakob	Jakob	0		H	sg n
korjus	korju	s		V	s
      	kori	s		S	sg in
      	korju	s		S	sg in
      	korjus	0		S	sg n
ja	ja	0		J	
Tehika	####				
Vio	####				
kolga	####				
;	;			Z	
selle	see	0		P	sg g
     	sell	e		S	pl p
Jakob	Jakob	0		H	sg n
korjusel	korjus	l		S	sg ad
ja	ja	0		J	
Juhan	Juhan	0		H	sg n
Sassel	####				
on	ole	0		V	b
  	ole	0		V	vad
mõisaga	mõis	ga		S	sg kom
veel	veel	0		D	
    	vesi	l		S	sg ad
muud	muu	d		P	pl n
    	muu	d		S	pl n
    	muu	d		V	d
    	muu	d		P	sg p
    	muu	d		S	sg p
võlga	võlg	0		S	adt
     	võlg	0		S	sg p
,	,			Z	
mis	mis	0		P	pl n
   	mis	0		P	sg n
mõisast	mõis	st		S	sg el
on	ole	0		V	b
  	ole	0		V	vad
laenatud	laena	tud		V	tud
        	laena=tu	d		S	pl n
        	laena=tud	0		A	
        	laena=tud	0		A	sg n
        	laena=tud	d		A	pl n
pearaha	pea_raha	0		S	sg g
       	pea_raha	0		S	sg n
       	pea_raha	0		S	sg p
ja	ja	0		J	
vilja	vili	0		S	adt
     	vili	0		S	sg g
     	vili	0		S	sg p
.	.			Z	
koos	koos	0		D	
    	koos	0		K	
    	koos	0		S	sg n
    	kubu	s		S	sg in
ollis	####				
kohtuvanem	kohtu_vanem	0		C	sg n
          	kohtu_vanem	0		S	sg n
:	:			Z	
Villem	Villem	0		H	sg n
prosovits	####				
Hindrek	####				
Reets	####				
Mihkel	Mihkel	0		H	sg n
      	mihkel	0		A	sg n
      	mihkel	0		S	sg n
Reets	####				
