kohut	kohus	t		S	sg p
ei	ei	0		D	
  	ei	0		V	neg
olnud	ol=nud	0		A	
     	ol=nud	0		A	sg n
     	ol=nud	d		A	pl n
     	ole	nud		V	nud
     	olnu	d		S	pl n
üks	üks	0		N	sg n
   	üks	0		P	sg n
moista	####				
.	.			Z	
