Ukstuhat	####				
kaheksasada	kaheksa_sada	0		N	sg n
üheksaNone	####				
kaheksandal	kaheksas	l		O	sg ad
aastal	aasta	l		S	sg ad
küünla	küünal	0		S	sg g
kuu	kuu	0		S	sg g
   	kuu	0		S	sg n
kuuetõistkümnendamal	####				
päeval	päev	l		S	sg ad
Piirsalu	piir_salu	0		S	sg g
        	piir_salu	0		S	sg n
        	piir_salu	0		S	sg p
valla	vald	0		S	sg g
     	valla	0		D	
talunaene	####				
Leena	Lee	na		H	sg es
     	Leena	0		H	sg g
     	Leena	0		H	sg n
Nõmm	nõmm	0		S	sg n
,	,			Z	
Priidiku	####				
naine	naine	0		S	sg n
ja	ja	0		J	
selle	see	0		P	sg g
     	sell	e		S	pl p
saama	saa	ma		V	ma
     	saam	0		S	adt
     	saam	0		S	sg g
     	saam	0		S	sg p
valla	vald	0		S	sg g
     	valla	0		D	
talupoeg	talu_poeg	0		S	sg n
Jüri	Jüri	0		H	sg g
    	Jüri	0		H	sg n
Nom	####				
,	,			Z	
kes	kes	0		P	pl n
   	kes	0		P	sg n
kohtule	kohus	le		S	sg all
isiklikult	isiklik	lt		A	sg abl
          	isiklikult	0		D	
tuntud	tund	tud		V	tud
      	tuntu	d		S	pl n
      	tuntud	0		A	
      	tuntud	0		A	sg n
      	tuntud	d		A	pl n
on	ole	0		V	b
  	ole	0		V	vad
,	,			Z	
palusid	palu	sid		S	pl p
       	palu	sid		V	sid
selle	see	0		P	sg g
     	sell	e		S	pl p
kohtu	kohtu	0		V	o
     	kohus	0		S	sg g
lepingute	leping	te		S	pl g
raamatuse	raa_matus	0		S	sg g
ooma	####				
süusönalast	####				
järgmist	järgmine	t		A	sg p
lepingut	leping	t		S	sg p
ülles	####				
panna	pand	0		S	sg g
     	pane	a		V	da
     	panna	0		S	sg g
     	panna	0		S	sg n
:	:			Z	
Leena	Lee	na		H	sg es
     	Leena	0		H	sg g
     	Leena	0		H	sg n
Nõm	####				
laenas	laena	s		V	s
Jüri	Jüri	0		H	sg g
    	Jüri	0		H	sg n
Nõm	####				
'	’			Z	
ele	####				
kaks	kaks	0		N	sg n
saada	saa	da		V	da
     	saat	0		V	o
     	saa	da		V	ta
rubla	rubla	0		S	sg g
     	rubla	0		S	sg n
     	rubla	0		S	sg p
4%	4%	0		N	?
määramata	määra	mata		V	mata
         	määramata	0		A	
aja	aeg	0		S	sg g
   	aja	0		V	o
peale	pea	le		S	sg all
     	peale	0		D	
     	peale	0		K	
,	,			Z	
mida	mis	da		P	pl p
    	mis	da		P	sg p
Jüri	Jüri	0		H	sg g
    	Jüri	0		H	sg n
Nõm	####				
vastu	vastu	0		D	
     	vastu	0		K	
vättis	####				
.	.			Z	
see	see	0		P	sg n
leping	leping	0		S	sg n
on	ole	0		V	b
  	ole	0		V	vad
pärast	pära	st		S	sg el
      	pärane	t		A	sg p
      	pärast	0		D	
      	pärast	0		K	
lepingute	leping	te		S	pl g
raamatuse	raa_matus	0		S	sg g
kirjutamist	kirjutamine	t		S	sg p
pooltele	pool	tele		N	pl all
        	pool	tele		S	pl all
etteloetud	ette_loetu	d		S	pl n
          	ette_loetud	0		A	
          	ette_loetud	0		A	sg n
          	ette_loetud	d		A	pl n
.	.			Z	
Jüri	Jüri	0		H	sg g
    	Jüri	0		H	sg n
XXX	XXX	0		O	?
   	XXX	0		Y	?
Nõmm	nõmm	0		S	sg n
Leena	Lee	na		H	sg es
     	Leena	0		H	sg g
     	Leena	0		H	sg n
Nõmm	nõmm	0		S	sg n
[	[			Z	
allkiri	all_kiri	0		S	sg n
]	]			Z	
(	(			Z	
ummkirilik	####				
%	%	0		Y	?
President	president	0		S	sg n
.	.			Z	
J. Väisenfelt	####				
[	[			Z	
allkiri	all_kiri	0		S	sg n
]	]			Z	
Liikmed	liige	d		S	pl n
:	:			Z	
J	J	0		Y	?
holm	####				
[	[			Z	
allkiri	all_kiri	0		S	sg n
]	]			Z	
""""	""""			Z	
:	:			Z	
J	J	0		Y	?
Preibah	####				
[	[			Z	
allkiri	all_kiri	0		S	sg n
]	]			Z	
""""	""""			Z	
:	:			Z	
k	k	0		Y	?
Estaal	####				
[	[			Z	
allkiri	all_kiri	0		S	sg n
]	]			Z	
kirjutaja	kirjutaja	0		S	sg g
         	kirjutaja	0		S	sg n
Valk	valk	0		S	sg n
[	[			Z	
allkiri	all_kiri	0		S	sg n
]	]			Z	
