kohtuse	kohtune	0		A	sg g
kaevas	kaeva	s		V	s
Ohtla	####				
valla	vald	0		S	sg g
     	valla	0		D	
Pühapõlde	püha_põld	e		S	pl p
peremees	pere_mees	0		S	sg n
:	:			Z	
Villem	Villem	0		H	sg n
Paema	####				
,	,			Z	
et	et	0		J	
tema	tema	0		P	sg g
    	tema	0		P	sg n
eest	eest	0		D	
    	eest	0		K	
    	esi	st		S	sg el
ära	ära	0		D	
   	ära	0		V	neg o
läinud	läinu	d		S	pl n
      	läinud	0		A	
      	läinud	0		A	sg n
      	läinud	d		A	pl n
      	mine	nud		V	nud
vanaperemees	vana_pere_mees	0		S	sg n
Villem	Villem	0		H	sg n
Tikerpuu	####				
on	ole	0		V	b
  	ole	0		V	vad
kaks	kaks	0		N	sg n
üks	üks	0		N	sg n
   	üks	0		P	sg n
pool	pool	0		K	
    	pool	0		N	sg n
    	pool	0		S	sg n
(	(			Z	
2	2	0		N	?
1	1	0		N	?
/	/			Z	
2	2	0		N	?
)	)			Z	
vakamaad	vaka_maa	d		S	pl n
        	vaka_maa	d		S	sg p
rukiseemet	####				
küllimata	####				
jätnud	jät	nud		V	nud
      	jät=nu	d		S	pl n
      	jät=nud	0		A	
      	jät=nud	0		A	sg n
      	jät=nud	d		A	pl n
,	,			Z	
mille	mis	0		P	pl g
     	mis	0		P	sg g
eest	eest	0		D	
    	eest	0		K	
    	esi	st		S	sg el
taa	####				
vanaperemehe	vana_pere_mees	0		S	sg g
ehk	ehk	0		D	
   	ehk	0		J	
mõisa	mõis	0		S	sg g
valitsuse	valitsus	0		S	sg g
käest	käest	0		K	
     	käsi	st		S	sg el
nüid	####				
tasumist	tasumine	t		S	sg p
nõuab	nõud	b		V	b
.	.			Z	
mõisa	mõis	0		S	sg g
valitsuse	valitsus	0		S	sg g
käsu	käsk	0		S	sg g
päele	####				
sai	saa	i		V	s
   	sai	0		S	sg n
kohtu	kohtu	0		V	o
     	kohus	0		S	sg g
ette	ette	0		D	
    	ette	0		K	
    	esi	tte		S	adt
vanaperemees	vana_pere_mees	0		S	sg n
:	:			Z	
V. Tikerpuu	####				
kutsutud	kutsu	tud		V	tud
        	kutsutu	d		S	pl n
        	kutsutud	0		A	
        	kutsutud	0		A	sg n
        	kutsutud	d		A	pl n
ja	ja	0		J	
ta	tema	0		P	sg g
  	tema	0		P	sg n
tunnistas	tunnista	s		V	s
:	:			Z	
""""	""""			Z	
et	et	0		J	
ta	tema	0		P	sg g
  	tema	0		P	sg n
niisama	nii_sama	0		D	
palju	palju	0		D	
     	palju	0		P	sg g
     	palju	0		P	sg n
maad	maa	d		S	pl n
    	maa	d		S	sg p
on	ole	0		V	b
  	ole	0		V	vad
rukki	rukis	0		S	adt
     	rukis	0		S	sg g
seemenega	####				
täis	täi	s		S	sg in
    	täi	s		V	s
    	täis	0		A	
    	täis	0		A	sg n
    	täis	0		D	
    	täis	0		S	sg n
küllvanud	####				
,	,			Z	
kui	kui	0		D	
   	kui	0		J	
kahe	kaks	0		N	sg g
aasta	aasta	0		S	sg g
     	aasta	0		S	sg n
eest	eest	0		D	
    	eest	0		K	
    	esi	st		S	sg el
mõisa	mõis	0		S	sg g
valitsuse	valitsus	0		S	sg g
käest	käest	0		K	
     	käsi	st		S	sg el
saanud	saa	nud		V	nud
      	saa=nud	0		A	
      	saa=nud	0		A	sg n
      	saa=nud	d		A	pl n
      	saanu	d		S	pl n
on	ole	0		V	b
  	ole	0		V	vad
,	,			Z	
siis	siis	0		D	
    	siis	0		J	
kui	kui	0		D	
   	kui	0		J	
ta	tema	0		P	sg g
  	tema	0		P	sg n
sinna	sinna	0		D	
koha	koht	0		S	sg g
    	koha	0		S	sg g
    	koha	0		V	o
    	koha	0		S	sg n
    	koha	0		S	sg p
päele	####				
läinud	läinu	d		S	pl n
      	läinud	0		A	
      	läinud	0		A	sg n
      	läinud	d		A	pl n
      	mine	nud		V	nud
;	;			Z	
sest	see	st		P	sg el
    	sest	0		J	
ta	tema	0		P	sg g
  	tema	0		P	sg n
olla	ole	a		V	da
mitte	mitte	0		D	
teise	teine	0		O	adt
     	teine	0		O	sg g
     	teine	0		P	adt
     	teine	0		P	sg g
,	,			Z	
vaid	vaid	0		D	
    	vaid	0		J	
ooma	####				
pärast	pära	st		S	sg el
      	pärane	t		A	sg p
      	pärast	0		D	
      	pärast	0		K	
seemet	seeme	t		S	sg p
ma	mina	0		P	sg n
küllvanud	####				
,	,			Z	
kuna	kuna	0		D	
    	kuna	0		J	
aga	aga	0		J	
mõisa	mõis	0		S	sg g
valitsus	valitsus	0		S	sg n
pärast	pära	st		S	sg el
      	pärane	t		A	sg p
      	pärast	0		D	
      	pärast	0		K	
täda	####				
ära	ära	0		D	
   	ära	0		V	neg o
ajanud	aja	nud		V	nud
      	aja=nu	d		S	pl n
      	aja=nud	0		A	
      	aja=nud	0		A	sg n
      	aja=nud	d		A	pl n
,	,			Z	
ilma	ilm	0		S	adt
    	ilm	0		S	sg g
    	ilma	0		D	
    	ilma	0		K	
    	ilm	0		S	sg p
,	,			Z	
et	et	0		J	
temal	tema	l		P	sg ad
midagi	miski	dagi		P	sg p
süüd	süü	d		S	pl n
    	süüd	0		S	sg n
    	süü	d		S	sg p
ehk	ehk	0		D	
   	ehk	0		J	
eksitust	eksitus	t		S	sg p
olek	olek	0		S	sg n
olnud	ol=nud	0		A	
     	ol=nud	0		A	sg n
     	ol=nud	d		A	pl n
     	ole	nud		V	nud
     	olnu	d		S	pl n
,	,			Z	
mõisa	mõis	0		S	sg g
valitsuse	valitsus	0		S	sg g
kontrahkst	####				
ehk	ehk	0		D	
   	ehk	0		J	
kauba	kaup	0		S	sg g
vastu	vastu	0		D	
     	vastu	0		K	
.	.			Z	
""""	""""			Z	
kohtu	kohtu	0		V	o
     	kohus	0		S	sg g
arvamist	arvamine	t		S	sg p
mõõööda	####				
sai	saa	i		V	s
   	sai	0		S	sg n
valla	vald	0		S	sg g
     	valla	0		D	
valitsuse	valitsus	0		S	sg g
poolest	pool	st		N	sg el
       	pool	st		S	sg el
       	poolene	t		A	sg p
       	poolest	0		K	
mõlemad	mõlema	d		P	pl n
maad	maa	d		S	pl n
    	maa	d		S	sg p
,	,			Z	
s.o.	s.o	0		Y	?
maa	maa	0		S	sg g
   	maa	0		S	sg n
tükkid	####				
äraamõedetud	####				
,	,			Z	
nii	nii	0		D	
hästi	hästi	0		D	
see	see	0		P	sg n
:	:			Z	
mis	mis	0		P	pl n
   	mis	0		P	sg n
vanaperemees	vana_pere_mees	0		S	sg n
:	:			Z	
V. Tikerpuu	####				
siis	siis	0		D	
    	siis	0		J	
selle	see	0		P	sg g
     	sell	e		S	pl p
Pühapõlde	püha_põld	e		S	pl p
koha	koht	0		S	sg g
    	koha	0		S	sg g
    	koha	0		V	o
    	koha	0		S	sg n
    	koha	0		S	sg p
päelt	####				
sai	saa	i		V	s
   	sai	0		S	sg n
,	,			Z	
kui	kui	0		D	
   	kui	0		J	
ka	ka	0		D	
see	see	0		P	sg n
,	,			Z	
mis	mis	0		P	pl n
   	mis	0		P	sg n
taa	####				
sinna	sinna	0		D	
jätnud	jät	nud		V	nud
      	jät=nu	d		S	pl n
      	jät=nud	0		A	
      	jät=nud	0		A	sg n
      	jät=nud	d		A	pl n
oli	ole	i		V	s
1882	1882	0		N	?
a.	a	0		Y	?
äraajamisel	ära_ajamine	l		S	sg ad
.	.			Z	
kohus	kohu	s		V	s
     	kohus	0		S	sg n
leidis	leid	is		V	s
      	leidis	0		S	sg n
,	,			Z	
et	et	0		J	
mõlemad	mõlema	d		P	pl n
maa	maa	0		S	sg g
   	maa	0		S	sg n
tükkid	####				
ühe	üks	0		N	sg g
   	üks	0		P	sg g
   	ühe	0		S	sg n
suurused	suurune	d		A	pl n
        	suurus	d		S	pl n
olid	ole	id		V	sid
ja	ja	0		J	
et	et	0		J	
V. Tikerpuu	####				
ütelused	####				
tõepõhja	tõe_põhi	0		S	adt
        	tõe_põhi	0		S	sg g
        	tõe_põhi	0		S	sg p
pääl	####				
olid	ole	id		V	sid
,	,			Z	
mis	mis	0		P	pl n
   	mis	0		P	sg n
ees	ees	0		D	
   	ees	0		K	
   	esi	s		S	sg in
tähentud	####				
,	,			Z	
siis	siis	0		D	
    	siis	0		J	
arvas	arva	s		V	s
kohus	kohu	s		V	s
     	kohus	0		S	sg n
õigeks	õige	ks		A	sg tr
ja	ja	0		J	
mõistis	mõist	is		V	s
selle	see	0		P	sg g
     	sell	e		S	pl p
eesnimetud	ees_nime=tu	d		A	pl n
kaeptuse	####				
tühjaks	tühi	ks		A	sg tr
.	.			Z	
prottokol	####				
aga	aga	0		J	
sai	saa	i		V	s
   	sai	0		S	sg n
V. Paemaa	####				
sooovimist	####				
mõõööda	####				
ülemasse	ülem	sse		C	sg ill
        	ülem	sse		S	sg ill
kohtu	kohtu	0		V	o
     	kohus	0		S	sg g
mõistetud	mõist	tud		V	tud
         	mõiste=tu	d		S	pl n
         	mõiste=tud	0		A	
         	mõiste=tud	0		A	sg n
         	mõiste=tud	d		A	pl n
läbi	läbi	0		D	
    	läbi	0		K	
    	läbi	0		V	o
vaata	vaata	0		V	o
.	.			Z	
""""	""""			Z	
I.	I.	0		Y	?
  	j	0		Y	?
kohtu	kohtu	0		V	o
     	kohus	0		S	sg g
vanem	vanem	0		C	sg n
     	vanem	0		S	sg n
:	:			Z	
Jaan	Jaan	0		H	sg n
    	jaan	0		S	sg n
    	jaan	0		Y	?
Rehkalt	####				
XXX	XXX	0		O	?
   	XXX	0		Y	?
II.	II	0		O	?
   	II	0		Y	?
   	jj	0		Y	?
kõrvamees	kõrva_mees	0		S	sg n
:	:			Z	
Mart	Mart	0		H	sg n
    	mart	0		S	sg n
Reinberg	####				
XXX	XXX	0		O	?
   	XXX	0		Y	?
III.	III	0		O	?
    	III	0		Y	?
kõrvamees	kõrva_mees	0		S	sg n
:	:			Z	
Peeter	Peeter	0		H	sg n
kindel	kindel	0		A	sg n
XXX	XXX	0		O	?
   	XXX	0		Y	?
kirjutaja	kirjutaja	0		S	sg g
         	kirjutaja	0		S	sg n
:	:			Z	
Karl	Karl	0		H	sg n
august	august	0		S	sg n
      	auk	st		S	sg el
Allaberg	####				
Välja	välja	0		D	
     	välja	0		V	o
     	väli	0		S	adt
     	väli	0		S	sg g
     	väli	0		S	sg p
antus	antud	s		A	sg in
kihelkonna	kihelkond	0		S	sg g
kohtuse	kohtune	0		A	sg g
6.	6.	0		O	?
juulil	juuli	l		S	sg ad
s	s	0		Y	?
.	.			Z	
a.	a	0		Y	?
Tähentus	####				
.	.			Z	
Sai	saa	i		V	s
   	sai	0		S	sg n
mõisa	mõis	0		S	sg g
valitsuse	valitsus	0		S	sg g
poolest	pool	st		N	sg el
       	pool	st		S	sg el
       	poolene	t		A	sg p
       	poolest	0		K	
leplikult	leplik	lt		A	sg abl
         	leplikult	0		D	
ühes	üks	s		N	sg in
    	üks	s		P	sg in
    	ühes	0		D	
    	ühes	0		K	
V. Paema	####				
kui	kui	0		D	
   	kui	0		J	
kaa	####				
V. Tikerpuu	####				
läbi	läbi	0		D	
    	läbi	0		K	
    	läbi	0		V	o
edasi	edasi	0		D	
     	edasi	0		K	
kaeptus	####				
s.o.	s.o	0		Y	?
protokoll	protokoll	0		S	sg n
ilma	ilm	0		S	adt
    	ilm	0		S	sg g
    	ilma	0		D	
    	ilma	0		K	
    	ilm	0		S	sg p
Kih	####				
.	.			Z	
kohtu	kohtu	0		V	o
     	kohus	0		S	sg g
nõudmiseta	nõudmine	ta		S	sg ab
tagasi	tagasi	0		D	
      	tagasi	0		K	
toodud	too	dud		V	tud
      	toodu	d		S	pl n
      	toodud	0		A	
      	toodud	0		A	sg n
      	toodud	d		A	pl n
ja	ja	0		J	
V.	V.	0		Y	?
kohtu	kohtu	0		V	o
     	kohus	0		S	sg g
mõistmisega	mõistmine	ga		S	sg kom
sõpralikult	####				
lepitud	leppi	tud		V	tud
       	lepi=tu	d		S	pl n
       	lepi=tud	0		A	
       	lepi=tud	0		A	sg n
       	lepi=tud	d		A	pl n
.	.			Z	
16	16	0		N	?
Junil	####				
s	s	0		Y	?
.	.			Z	
a.	a	0		Y	?
