kohtu	kohtu	0		V	o
     	kohus	0		S	sg g
korra	kord	0		S	sg g
pärast	pära	st		S	sg el
      	pärane	t		A	sg p
      	pärast	0		D	
      	pärast	0		K	
olid	ole	id		V	sid
Piisalu	pii_salu	0		S	sg g
       	pii_salu	0		S	sg n
       	pii_salu	0		S	sg p
kohtu	kohtu	0		V	o
     	kohus	0		S	sg g
majasse	maja	sse		S	sg ill
kohtu	kohtu	0		V	o
     	kohus	0		S	sg g
korra	kord	0		S	sg g
pärast	pära	st		S	sg el
      	pärane	t		A	sg p
      	pärast	0		D	
      	pärast	0		K	
kokku	kokku	0		D	
     	kogu	0		S	adt
tulnud	tul=nud	0		A	
      	tul=nud	0		A	sg n
      	tul=nud	d		A	pl n
      	tule	nud		V	nud
      	tulnu	d		S	pl n
.	.			Z	
kohtuvanem	kohtu_vanem	0		C	sg n
          	kohtu_vanem	0		S	sg n
Kaarel	Kaarel	0		H	sg n
      	kaar	l		S	sg ad
      	kaarel	0		S	sg n
Villand	villand	0		D	
kõrvamees	kõrva_mees	0		S	sg n
Juhan	Juhan	0		H	sg n
Vindling	####				
""""	""""			Z	
Mart	Mart	0		H	sg n
    	mart	0		S	sg n
koppel	koppel	0		S	sg n
1	1	0		N	?
astus	astu	s		V	s
ette	ette	0		D	
    	ette	0		K	
    	esi	tte		S	adt
Kaarel	Kaarel	0		H	sg n
      	kaar	l		S	sg ad
      	kaarel	0		S	sg n
Smittal	####				
ja	ja	0		J	
kaebas	kaeba	s		V	s
et	et	0		J	
tema	tema	0		P	sg g
    	tema	0		P	sg n
kauplend	kaup_lend	0		S	sg n
Enniste	####				
pere	pere	0		S	sg g
    	pere	0		S	sg n
oomanikuga	####				
Juhan	Juhan	0		H	sg n
Väisenfeldiga	####				
sellesama	see_sama	0		P	sg g
Enniste	####				
koha	koht	0		S	sg g
    	koha	0		S	sg g
    	koha	0		V	o
    	koha	0		S	sg n
    	koha	0		S	sg p
pärast	pära	st		S	sg el
      	pärane	t		A	sg p
      	pärast	0		D	
      	pärast	0		K	
.	.			Z	
ja	ja	0		J	
nimelt	nimelt	0		D	
      	nimi	lt		S	sg abl
lubanud	luba	nud		V	nud
       	luba=nu	d		S	pl n
       	luba=nud	0		A	
       	luba=nud	0		A	sg n
       	luba=nud	d		A	pl n
Juhan	Juhan	0		H	sg n
Väisenfeld	####				
poole	pool	0		N	sg g
     	pool	0		S	sg g
     	pool	e		S	pl p
     	poole	0		K	
     	poole	0		S	sg n
Enniste	####				
koha	koht	0		S	sg g
    	koha	0		S	sg g
    	koha	0		V	o
    	koha	0		S	sg n
    	koha	0		S	sg p
põldudest	põld	dest		S	pl el
ja	ja	0		J	
poole	pool	0		N	sg g
     	pool	0		S	sg g
     	pool	e		S	pl p
     	poole	0		K	
     	poole	0		S	sg n
einamaa	####				
,	,			Z	
ja	ja	0		J	
terve	terve	0		A	sg g
     	terve	0		A	sg n
     	terve	0		S	sg g
     	terve	0		S	sg n
karjasmaa	####				
,	,			Z	
Jüripäevast	jüri_päev	st		S	sg el
1890	1890	0		N	?
aastast	aasta	st		S	sg el
       	aastane	t		A	sg p
saadik	saadik	0		K	
      	saadik	0		S	sg n
,	,			Z	
ja	ja	0		J	
Kaarel	Kaarel	0		H	sg n
      	kaar	l		S	sg ad
      	kaarel	0		S	sg n
Smittal	####				
pidi	pida	i		V	s
    	pidi	0		K	
selle	see	0		P	sg g
     	sell	e		S	pl p
eest	eest	0		D	
    	eest	0		K	
    	esi	st		S	sg el
kõik	kõik	0		P	pl n
    	kõik	0		S	sg n
    	kõik	0		P	sg n
valla	vald	0		S	sg g
     	valla	0		D	
maksud	maks	d		S	pl n
ja	ja	0		J	
küdikorrad	küdi_kord	d		S	pl n
makmsa	####				
ja	ja	0		J	
tegema	tege	ma		V	ma
Enniste	####				
koha	koht	0		S	sg g
    	koha	0		S	sg g
    	koha	0		V	o
    	koha	0		S	sg n
    	koha	0		S	sg p
eest	eest	0		D	
    	eest	0		K	
    	esi	st		S	sg el
ja	ja	0		J	
peale	pea	le		S	sg all
     	peale	0		D	
     	peale	0		K	
selle	see	0		P	sg g
     	sell	e		S	pl p
60	60	0		N	?
rubla	rubla	0		S	sg g
     	rubla	0		S	sg n
     	rubla	0		S	sg p
raha	raha	0		S	sg g
    	raha	0		S	sg n
    	raha	0		S	sg p
Johan	Johan	0		H	sg n
Väisenfeldile	####				
iga	iga	0		P	sg g
   	iga	0		P	sg n
   	iga	0		P	sg p
   	iga	0		S	sg n
   	iga	0		S	sg p
aasta	aasta	0		S	sg g
     	aasta	0		S	sg n
rendi	rent	0		S	sg g
     	renti	0		V	o
raha	raha	0		S	sg g
    	raha	0		S	sg n
    	raha	0		S	sg p
maksma	maks	ma		V	ma
.	.			Z	
Juhan	Juhan	0		H	sg n
Väisenfeld	####				
kirjutas	kirjuta	s		V	s
ühe	üks	0		N	sg g
   	üks	0		P	sg g
   	ühe	0		S	sg n
lähe	lähe	0		S	sg n
    	mine	0		V	neg o
peal	pea	l		S	sg ad
    	peal	0		D	
    	peal	0		K	
kõik	kõik	0		P	pl n
    	kõik	0		S	sg n
    	kõik	0		P	sg n
need	see	d		P	pl n
tingimised	tingimine	d		S	pl n
ülles	####				
ja	ja	0		J	
mõlemad	mõlema	d		P	pl n
Kaarel	Kaarel	0		H	sg n
      	kaar	l		S	sg ad
      	kaarel	0		S	sg n
Smittal	####				
kui	kui	0		D	
   	kui	0		J	
rentnik	rentnik	0		S	sg n
,	,			Z	
ja	ja	0		J	
Juhan	Juhan	0		H	sg n
Väisenfeld	####				
kui	kui	0		D	
   	kui	0		J	
koha	koht	0		S	sg g
    	koha	0		S	sg g
    	koha	0		V	o
    	koha	0		S	sg n
    	koha	0		S	sg p
oomanik	####				
kirjutasid	kirjuta	sid		V	sid
ooma	####				
nimed	nimi	d		S	pl n
alla	alla	0		D	
    	alla	0		K	
,	,			Z	
ja	ja	0		J	
Kaarel	Kaarel	0		H	sg n
      	kaar	l		S	sg ad
      	kaarel	0		S	sg n
Smittal	####				
maksis	maks	is		V	s
      	maksi	s		S	sg in
J	J	0		Y	?
.	.			Z	
V.	V.	0		Y	?
nõudmise	nõudmine	0		S	sg g
peal	pea	l		S	sg ad
    	peal	0		D	
    	peal	0		K	
10	10	0		N	?
rubla	rubla	0		S	sg g
     	rubla	0		S	sg n
     	rubla	0		S	sg p
käsiraha	käsi_raha	0		S	sg g
        	käsi_raha	0		S	sg n
        	käsi_raha	0		S	sg p
.	.			Z	
mõne	mõni	0		P	sg g
aja	aeg	0		S	sg g
   	aja	0		V	o
pärast	pära	st		S	sg el
      	pärane	t		A	sg p
      	pärast	0		D	
      	pärast	0		K	
kuulis	kuul	is		V	s
      	kuul	s		S	sg in
Kaarel	Kaarel	0		H	sg n
      	kaar	l		S	sg ad
      	kaarel	0		S	sg n
Smittal	####				
teiste	teine	te		O	pl g
      	teine	te		P	pl g
inimeste	inimene	te		S	pl g
käest	käest	0		K	
     	käsi	st		S	sg el
et	et	0		J	
need	see	d		P	pl n
põllud	põld	d		S	pl n
mis	mis	0		P	pl n
   	mis	0		P	sg n
Juhan	Juhan	0		H	sg n
Väisenfeld	####				
Karli	Karl	0		H	adt
     	Karl	0		H	sg g
     	Karl	0		H	sg p
Schmittalil	####				
anda	and	a		V	da
tahtis	taht	is		V	s
kõievaesemad	####				
maad	maa	d		S	pl n
    	maa	d		S	sg p
,	,			Z	
ja	ja	0		J	
peale	pea	le		S	sg all
     	peale	0		D	
     	peale	0		K	
selle	see	0		P	sg g
     	sell	e		S	pl p
sugugi	sugugi	0		D	
poole	pool	0		N	sg g
     	pool	0		S	sg g
     	pool	e		S	pl p
     	poole	0		K	
     	poole	0		S	sg n
Enniste	####				
kohast	koht	st		S	sg el
      	koha	st		S	sg el
      	kohane	t		A	sg p
,	,			Z	
vaid	vaid	0		D	
    	vaid	0		J	
2	2	0		N	?
1	1	0		N	?
/	/			Z	
2	2	0		N	?
vakamaad	vaka_maa	d		S	pl n
        	vaka_maa	d		S	sg p
vähem	vähem	0		C	sg n
     	vähem	0		D	
.	.			Z	
sellepärast	selle_pärast	0		D	
läks	mine	s		V	s
Kaarel	Kaarel	0		H	sg n
      	kaar	l		S	sg ad
      	kaarel	0		S	sg n
Smittal	####				
Juh	Juh	0		Y	?
.	.			Z	
Väisenfeldi	####				
juuure	####				
ja	ja	0		J	
ütles	ütle	s		V	s
,	,			Z	
et	et	0		J	
tema	tema	0		P	sg g
    	tema	0		P	sg n
enam	enam	0		C	sg n
    	enam	0		D	
ei	ei	0		D	
  	ei	0		V	neg
taha	taht	0		V	o
    	taha	0		D	
    	taha	0		K	
võta	võt	0		V	o
tema	tema	0		P	sg g
    	tema	0		P	sg n
käest	käest	0		K	
     	käsi	st		S	sg el
need	see	d		P	pl n
Enniste	####				
maad	maa	d		S	pl n
    	maa	d		S	sg p
ja	ja	0		J	
nõudis	nõud	is		V	s
ooma	####				
10	10	0		N	?
rubla	rubla	0		S	sg g
     	rubla	0		S	sg n
     	rubla	0		S	sg p
käeraha	käe_raha	0		S	sg g
       	käe_raha	0		S	sg n
       	käe_raha	0		S	sg p
tagasi	tagasi	0		D	
      	tagasi	0		K	
,	,			Z	
et	et	0		J	
Juhan	Juhan	0		H	sg n
Väisenfeld	####				
seda	see	da		P	sg p
ei	ei	0		D	
  	ei	0		V	neg
tahtnud	taht	nud		V	nud
       	taht=nu	d		S	pl n
       	taht=nud	0		A	
       	taht=nud	0		A	sg n
       	taht=nud	d		A	pl n
maksta	maks	ta		V	da
      	maks	ta		V	ta
,	,			Z	
kaebas	kaeba	s		V	s
Kaarel	Kaarel	0		H	sg n
      	kaar	l		S	sg ad
      	kaarel	0		S	sg n
Smittal	####				
kohtuse	kohtune	0		A	sg g
,	,			Z	
sest	see	st		P	sg el
    	sest	0		J	
et	et	0		J	
Juh	Juh	0		Y	?
.	.			Z	
Väisenfeldil	####				
nüüd	nüüd	0		D	
juba	juba	0		D	
teine	teine	0		O	sg n
     	teine	0		P	sg n
rentnik	rentnik	0		S	sg n
on	ole	0		V	b
  	ole	0		V	vad
,	,			Z	
kelle	kes	0		P	pl g
     	kes	0		P	sg g
käest	käest	0		K	
     	käsi	st		S	sg el
tema	tema	0		P	sg g
    	tema	0		P	sg n
ka	ka	0		D	
10	10	0		N	?
rubla	rubla	0		S	sg g
     	rubla	0		S	sg n
     	rubla	0		S	sg p
käeraha	käe_raha	0		S	sg g
       	käe_raha	0		S	sg n
       	käe_raha	0		S	sg p
võtnud	võt	nud		V	nud
      	võt=nu	d		S	pl n
      	võt=nud	0		A	
      	võt=nud	0		A	sg n
      	võt=nud	d		A	pl n
.	.			Z	
astus	astu	s		V	s
ette	ette	0		D	
    	ette	0		K	
    	esi	tte		S	adt
Juhan	Juhan	0		H	sg n
Väisenfeld	####				
.	.			Z	
Meie	mina	0		P	pl g
    	mina	0		P	pl n
kauplesime	kauple	sime		V	sime
Enniste	####				
koha	koht	0		S	sg g
    	koha	0		S	sg g
    	koha	0		V	o
    	koha	0		S	sg n
    	koha	0		S	sg p
pärast	pära	st		S	sg el
      	pärane	t		A	sg p
      	pärast	0		D	
      	pärast	0		K	
Kaarel	Kaarel	0		H	sg n
      	kaar	l		S	sg ad
      	kaarel	0		S	sg n
Smittaliga	####				
.	.			Z	
Mina	mina	0		P	sg n
    	mina	0		S	sg g
    	mina	0		S	sg n
    	mina	0		S	sg p
näitasind	####				
temale	tema	le		P	sg all
kõik	kõik	0		P	pl n
    	kõik	0		S	sg n
    	kõik	0		P	sg n
põllud	põld	d		S	pl n
mis	mis	0		P	pl n
   	mis	0		P	sg n
mina	mina	0		P	sg n
    	mina	0		S	sg g
    	mina	0		S	sg n
    	mina	0		S	sg p
temale	tema	le		P	sg all
anda	and	a		V	da
tahtsind	####				
,	,			Z	
ja	ja	0		J	
tema	tema	0		P	sg g
    	tema	0		P	sg n
nägi	näge	i		V	s
sui	sui	0		D	
,	,			Z	
ja	ja	0		J	
sügise	sügis	0		S	sg g
väga	väga	0		D	
heaste	####				
mis	mis	0		P	pl n
   	mis	0		P	sg n
vili	vili	0		S	sg n
nende	see	de		P	pl g
     	tema	de		P	pl g
peal	pea	l		S	sg ad
    	peal	0		D	
    	peal	0		K	
kasvis	####				
.	.			Z	
mõlemad	mõlema	d		P	pl n
kirjutasime	kirjuta	sime		V	sime
ühe	üks	0		N	sg g
   	üks	0		P	sg g
   	ühe	0		S	sg n
väikese	väike	0		A	sg g
       	väikene	0		A	sg g
ooma	####				
tehtud	tehtu	d		S	pl n
      	tehtud	0		A	
      	tehtud	0		A	sg n
      	tehtud	d		A	pl n
      	tege	tud		V	tud
kontrakti	####				
alla	alla	0		D	
    	alla	0		K	
ja	ja	0		J	
mina	mina	0		P	sg n
    	mina	0		S	sg g
    	mina	0		S	sg n
    	mina	0		S	sg p
nõudsin	nõud	sin		V	sin
Karli	Karl	0		H	adt
     	Karl	0		H	sg g
     	Karl	0		H	sg p
Smittali	####				
käest	käest	0		K	
     	käsi	st		S	sg el
käeraha	käe_raha	0		S	sg g
       	käe_raha	0		S	sg n
       	käe_raha	0		S	sg p
,	,			Z	
ja	ja	0		J	
tema	tema	0		P	sg g
    	tema	0		P	sg n
maksis	maks	is		V	s
      	maksi	s		S	sg in
mulle	mull	e		S	pl p
     	mina	lle		P	sg all
     	mulle	0		S	sg n
10	10	0		N	?
rubla	rubla	0		S	sg g
     	rubla	0		S	sg n
     	rubla	0		S	sg p
.	.			Z	
Mina	mina	0		P	sg n
    	mina	0		S	sg g
    	mina	0		S	sg n
    	mina	0		S	sg p
olend	olend	0		S	sg n
juba	juba	0		D	
peaaegu	pea_aegu	0		D	
kõik	kõik	0		P	pl n
    	kõik	0		S	sg n
    	kõik	0		P	sg n
loomad	loom	d		S	pl n
äramüünud	ära_müü=nu	d		S	pl n
         	ära_müü=nud	0		A	
         	ära_müü=nud	0		A	sg n
         	ära_müü=nud	d		A	pl n
Nissi	Nissi	0		H	sg g
     	Nissi	0		H	sg n
laada	laat	0		S	sg g
peal	pea	l		S	sg ad
    	peal	0		D	
    	peal	0		K	
,	,			Z	
kui	kui	0		D	
   	kui	0		J	
Kaarel	Kaarel	0		H	sg n
      	kaar	l		S	sg ad
      	kaarel	0		S	sg n
minu	mina	0		P	sg g
juuure	####				
tuleb	tule	b		V	b
ja	ja	0		J	
ütleb	ütle	b		V	b
,	,			Z	
et	et	0		J	
ema	ema	0		S	sg g
   	ema	0		S	sg n
   	ema	0		S	sg p
ei	ei	0		D	
  	ei	0		V	neg
taha	taht	0		V	o
    	taha	0		D	
    	taha	0		K	
mo	####				
koha	koht	0		S	sg g
    	koha	0		S	sg g
    	koha	0		V	o
    	koha	0		S	sg n
    	koha	0		S	sg p
maad	maa	d		S	pl n
    	maa	d		S	sg p
mitte	mitte	0		D	
rentida	renti	da		V	da
,	,			Z	
sest	see	st		P	sg el
    	sest	0		J	
ta	tema	0		P	sg g
  	tema	0		P	sg n
olla	ole	a		V	da
kuulnud	kuul	nud		V	nud
       	kuul=nud	0		A	
       	kuul=nud	0		A	sg n
       	kuul=nud	d		A	pl n
       	kuulnu	d		S	pl n
et	et	0		J	
need	see	d		P	pl n
väga	väga	0		D	
sandit	####				
olla	ole	a		V	da
,	,			Z	
ja	ja	0		J	
nõudis	nõud	is		V	s
minu	mina	0		P	sg g
käest	käest	0		K	
     	käsi	st		S	sg el
käeraha	käe_raha	0		S	sg g
       	käe_raha	0		S	sg n
       	käe_raha	0		S	sg p
tagasi	tagasi	0		D	
      	tagasi	0		K	
,	,			Z	
aga	aga	0		J	
mina	mina	0		P	sg n
    	mina	0		S	sg g
    	mina	0		S	sg n
    	mina	0		S	sg p
ei	ei	0		D	
  	ei	0		V	neg
anna	and	0		V	o
    	anna	0		S	sg g
    	anna	0		S	sg n
seda	see	da		P	sg p
mitte	mitte	0		D	
.	.			Z	
nüd	####				
on	ole	0		V	b
  	ole	0		V	vad
mull	mull	0		S	sg n
kül	####				
teine	teine	0		O	sg n
     	teine	0		P	sg n
rentnik	rentnik	0		S	sg n
,	,			Z	
aga	aga	0		J	
kui	kui	0		D	
   	kui	0		J	
Kaarel	Kaarel	0		H	sg n
      	kaar	l		S	sg ad
      	kaarel	0		S	sg n
Smittal	####				
tahab	taht	b		V	b
silmapilk	silma_pilk	0		S	sg n
olen	ole	n		V	n
mina	mina	0		P	sg n
    	mina	0		S	sg g
    	mina	0		S	sg n
    	mina	0		S	sg p
valmis	valm	s		S	sg in
      	valmi	s		V	s
      	valmis	0		A	
      	valmis	0		A	sg n
      	valmis	0		D	
      	valmis	s		A	sg in
temale	tema	le		P	sg all
koha	koht	0		S	sg g
    	koha	0		S	sg g
    	koha	0		V	o
    	koha	0		S	sg n
    	koha	0		S	sg p
rendi	rent	0		S	sg g
     	renti	0		V	o
peal	pea	l		S	sg ad
    	peal	0		D	
    	peal	0		K	
anda	and	a		V	da
,	,			Z	
sellesama	see_sama	0		P	sg g
kontrakti	####				
järel	järel	0		D	
     	järel	0		K	
mis	mis	0		P	pl n
   	mis	0		P	sg n
meie	mina	0		P	pl g
    	mina	0		P	pl n
kahekiste	####				
allakirjutasime	####				
.	.			Z	
Said	saa	id		V	sid
küsitud	küsi	tud		V	tud
       	küsi=tu	d		S	pl n
       	küsi=tud	0		A	
       	küsi=tud	0		A	sg n
       	küsi=tud	d		A	pl n
Karli	Karl	0		H	adt
     	Karl	0		H	sg g
     	Karl	0		H	sg p
Smittali	####				
käest	käest	0		K	
     	käsi	st		S	sg el
Kas	kas	0		D	
sa	sina	0		P	sg n
tahad	taht	d		V	d
nüüd	nüüd	0		D	
veel	veel	0		D	
    	vesi	l		S	sg ad
selle	see	0		P	sg g
     	sell	e		S	pl p
kontrakti	####				
järel	järel	0		D	
     	järel	0		K	
Juhan	Juhan	0		H	sg n
Väisenfeldi	####				
käest	käest	0		K	
     	käsi	st		S	sg el
need	see	d		P	pl n
maad	maa	d		S	pl n
    	maa	d		S	sg p
rentida	renti	da		V	da
?	?			Z	
Kaarel	Kaarel	0		H	sg n
      	kaar	l		S	sg ad
      	kaarel	0		S	sg n
Smittal	####				
vastas	vasta	s		V	s
      	vastas	0		D	
      	vastas	0		K	
ei	ei	0		D	
  	ei	0		V	neg
taha	taht	0		V	o
    	taha	0		D	
    	taha	0		K	
!	!			Z	
Suurema	suurem	0		C	sg g
kohtu	kohtu	0		V	o
     	kohus	0		S	sg g
hooleks	hool	ks		S	sg tr
.	.			Z	
