ette	ette	0		D	
    	ette	0		K	
    	esi	tte		S	adt
sai	saa	i		V	s
   	sai	0		S	sg n
võetud	võe=tu	d		S	pl n
      	võetud	0		A	
      	võetud	0		A	sg n
      	võetud	d		A	pl n
      	võt	tud		V	tud
se	####				
assi	ass	0		S	adt
    	ass	0		S	sg g
    	ass	0		S	sg p
,	,			Z	
mis	mis	0		P	pl n
   	mis	0		P	sg n
mineva	minev	0		A	sg g
kord	kord	0		D	
    	kord	0		S	sg n
No	no	0		I	
5	5	0		N	?
Hans	Hans	0		H	sg n
Berg	Berg	0		H	sg n
kaevas	kaeva	s		V	s
Jaan	Jaan	0		H	sg n
    	jaan	0		S	sg n
    	jaan	0		Y	?
kork	kork	0		S	sg n
poeg	poeg	0		S	sg n
Adu	adu	0		V	o
üle	üle	0		D	
   	üle	0		K	
.	.			Z	
astus	astu	s		V	s
ette	ette	0		D	
    	ette	0		K	
    	esi	tte		S	adt
Jaan	Jaan	0		H	sg n
    	jaan	0		S	sg n
    	jaan	0		Y	?
kork	kork	0		S	sg n
9sa	####				
aastane	aastane	0		A	sg n
poeg	poeg	0		S	sg n
Adu	adu	0		V	o
ja	ja	0		J	
tunnistab	tunnista	b		V	b
,	,			Z	
et	et	0		J	
ta	tema	0		P	sg g
  	tema	0		P	sg n
ole	ole	0		V	o
leidnud	leid	nud		V	nud
       	leid=nu	d		S	pl n
       	leid=nud	0		A	
       	leid=nud	0		A	sg n
       	leid=nud	d		A	pl n
21	21	0		N	?
õuna	õud	na		S	sg es
    	õun	0		S	adt
    	õun	0		S	sg g
    	õun	0		S	sg p
Nagima	####				
sillaotsa	silla_ots	0		S	adt
         	silla_ots	0		S	sg g
         	silla_ots	0		S	sg p
kivi	kivi	0		S	sg g
    	kivi	0		S	sg n
    	kivi	0		S	sg p
aja	aeg	0		S	sg g
   	aja	0		V	o
seest	seest	0		D	
     	seest	0		K	
aga	aga	0		J	
Hans	Hans	0		H	sg n
Pergi	####				
aida	ait	0		S	sg g
põle	põle	0		V	o
ta	tema	0		P	sg g
  	tema	0		P	sg n
mitte	mitte	0		D	
saanud	saa	nud		V	nud
      	saa=nud	0		A	
      	saa=nud	0		A	sg n
      	saa=nud	d		A	pl n
      	saanu	d		S	pl n
.	.			Z	
et	et	0		J	
seal	seal	0		D	
    	siga	l		A	sg ad
    	siga	l		S	sg ad
mitte	mitte	0		D	
vanu	vana	u		A	pl p
    	vana	u		S	pl p
    	vanu	0		V	o
inimessi	####				
põle	põle	0		V	o
nägemas	näge	mas		V	mas
olnud	ol=nud	0		A	
     	ol=nud	0		A	sg n
     	ol=nud	d		A	pl n
     	ole	nud		V	nud
     	olnu	d		S	pl n
,	,			Z	
kui	kui	0		D	
   	kui	0		J	
poiss	poiss	0		S	sg n
aidas	ait	s		S	sg in
käis	käi	s		V	s
    	käis	0		S	sg n
,	,			Z	
aga	aga	0		J	
ometi	ometi	0		D	
et	et	0		J	
tal	tema	l		P	sg ad
õunu	õun	u		S	pl p
oli	ole	i		V	s
,	,			Z	
sest	see	st		P	sg el
    	sest	0		J	
arvab	arva	b		V	b
kohus	kohu	s		V	s
     	kohus	0		S	sg n
,	,			Z	
et	et	0		J	
ta	tema	0		P	sg g
  	tema	0		P	sg n
neid	neid	0		S	sg n
    	see	d		P	pl p
    	tema	d		P	pl p
ikka	ikka	0		D	
    	iga	0		S	adt
on	ole	0		V	b
  	ole	0		V	vad
varastand	####				
,	,			Z	
seda	see	da		P	sg p
mööda	mööda	0		A	
     	mööda	0		D	
     	mööda	0		K	
mõistab	mõist	b		V	b
kohus	kohu	s		V	s
     	kohus	0		S	sg n
:	:			Z	
Jaan	Jaan	0		H	sg n
    	jaan	0		S	sg n
    	jaan	0		Y	?
kork	kork	0		S	sg n
maksab	maks	b		V	b
oma	oma	0		A	sg g
   	oma	0		D	
   	oma	0		P	sg g
   	oma	0		S	sg g
   	oma	0		V	o
   	oma	0		A	sg n
   	oma	0		A	sg p
   	oma	0		P	sg n
   	oma	0		P	sg p
   	oma	0		S	sg n
   	oma	0		S	sg p
poja	poeg	0		S	sg g
    	poja	0		S	sg g
    	poja	0		S	sg n
    	poja	0		S	sg p
eest	eest	0		D	
    	eest	0		K	
    	esi	st		S	sg el
Hans	Hans	0		H	sg n
Bergil	Berg	l		H	sg ad
21	21	0		N	?
õuna	õud	na		S	sg es
    	õun	0		S	adt
    	õun	0		S	sg g
    	õun	0		S	sg p
ette	ette	0		D	
    	ette	0		K	
    	esi	tte		S	adt
21	21	0		N	?
kop	kop	0		Y	?
.	.			Z	
