ükstuat	####				
kaheksasaada	####				
üheksakümmend	üheksa_kümmend	0		N	sg n
kuuendamal	####				
aastal	aasta	l		S	sg ad
ühekstestkümnendal	####				
Jüri	Jüri	0		H	sg g
    	Jüri	0		H	sg n
kp	####				
.	.			Z	
astusivad	####				
emmaste	emm_aste	0		S	sg n
kogukonna	kogukond	0		S	sg g
kohtu	kohtu	0		V	o
     	kohus	0		S	sg g
ette	ette	0		D	
    	ette	0		K	
    	esi	tte		S	adt
kohtule	kohus	le		S	sg all
tuntud	tund	tud		V	tud
      	tuntu	d		S	pl n
      	tuntud	0		A	
      	tuntud	0		A	sg n
      	tuntud	d		A	pl n
emmaste	emm_aste	0		S	sg n
valla	vald	0		S	sg g
     	valla	0		D	
liikmed	liige	d		S	pl n
Mihkel	Mihkel	0		H	sg n
      	mihkel	0		A	sg n
      	mihkel	0		S	sg n
onu	onu	0		S	sg g
   	onu	0		S	sg n
   	onu	0		S	sg p
ja	ja	0		J	
Peet	Peet	0		H	sg n
    	peet	0		S	sg n
onu	onu	0		S	sg g
   	onu	0		S	sg n
   	onu	0		S	sg p
ja	ja	0		J	
palusivad	####				
ende	enne	0		S	sg g
järgmist	järgmine	t		A	sg p
suusõna	suu_sõna	0		S	sg g
       	suu_sõna	0		S	sg n
       	suu_sõna	0		S	sg p
lepingut	leping	t		S	sg p
kohtu	kohtu	0		V	o
     	kohus	0		S	sg g
raamatusse	raamat	sse		S	sg ill
üles	üles	0		D	
võtta	võt	a		V	da
:	:			Z	
1.	1.	0		O	?
,	,			Z	
käesoleva	käes_olev	0		A	sg g
aasta	aasta	0		S	sg g
     	aasta	0		S	sg n
Jüripäevast	jüri_päev	st		S	sg el
läheb	mine	b		V	b
Peet	Peet	0		H	sg n
    	peet	0		S	sg n
onu	onu	0		S	sg g
   	onu	0		S	sg n
   	onu	0		S	sg p
oma	oma	0		A	sg g
   	oma	0		D	
   	oma	0		P	sg g
   	oma	0		S	sg g
   	oma	0		V	o
   	oma	0		A	sg n
   	oma	0		A	sg p
   	oma	0		P	sg n
   	oma	0		P	sg p
   	oma	0		S	sg n
   	oma	0		S	sg p
perega	pere	ga		S	sg kom
Mihkel	Mihkel	0		H	sg n
      	mihkel	0		A	sg n
      	mihkel	0		S	sg n
onu	onu	0		S	sg g
   	onu	0		S	sg n
   	onu	0		S	sg p
juurde	juur	de		S	adt
      	juurde	0		D	
      	juurde	0		K	
elama	ela	ma		V	ma
ja	ja	0		J	
on	ole	0		V	b
  	ole	0		V	vad
tema	tema	0		P	sg g
    	tema	0		P	sg n
Mihklile	Mihkel	le		H	sg all
        	Mihkli	le		H	sg all
        	mihkel	le		A	sg all
        	mihkel	le		S	sg all
nii	nii	0		D	
kaua	kaua	0		D	
talukoha	talu_koht	0		S	sg g
pidamiseks	pidamine	ks		S	sg tr
abiks	abi	ks		S	sg tr
,	,			Z	
kuni	kuni	0		J	
    	kuni	0		K	
Mihkli	Mihkel	0		H	sg g
      	Mihkli	0		H	sg g
      	mihkel	0		A	sg g
      	mihkel	0		S	sg g
      	Mihkli	0		H	sg n
vend	vend	0		S	sg n
Peeter	Peeter	0		H	sg n
kroonuteenistusest	kroonu_teenistus	st		S	sg el
kodu	kodu	0		S	sg g
    	kodu	0		S	sg n
    	kodu	0		S	sg p
tuleb	tule	b		V	b
;	;			Z	
2.	2.	0		O	?
,	,			Z	
kui	kui	0		D	
   	kui	0		J	
talukoha	talu_koht	0		S	sg g
töödest	töö	dest		S	pl el
vahe	vahe	0		A	sg n
    	vahe	0		S	sg g
    	vahe	0		S	sg n
aeg	aeg	0		S	sg n
,	,			Z	
siis	siis	0		D	
    	siis	0		J	
võib	või	b		V	b
Peet	Peet	0		H	sg n
    	peet	0		S	sg n
onu	onu	0		S	sg g
   	onu	0		S	sg n
   	onu	0		S	sg p
seda	see	da		P	sg p
aega	aeg	0		S	adt
    	aeg	0		S	sg p
    	aega	0		K	
oma	oma	0		A	sg g
   	oma	0		D	
   	oma	0		P	sg g
   	oma	0		S	sg g
   	oma	0		V	o
   	oma	0		A	sg n
   	oma	0		A	sg p
   	oma	0		P	sg n
   	oma	0		P	sg p
   	oma	0		S	sg n
   	oma	0		S	sg p
amajade	####				
ehitamiseks	ehitamine	ks		S	sg tr
tarvitada	tarvita	da		V	da
;	;			Z	
3.	3.	0		O	?
,	,			Z	
kui	kui	0		D	
   	kui	0		J	
Peet	Peet	0		H	sg n
    	peet	0		S	sg n
ja	ja	0		J	
Mihkel	Mihkel	0		H	sg n
      	mihkel	0		A	sg n
      	mihkel	0		S	sg n
enam	enam	0		C	sg n
    	enam	0		D	
ühes	üks	s		N	sg in
    	üks	s		P	sg in
    	ühes	0		D	
    	ühes	0		K	
läbi	läbi	0		D	
    	läbi	0		K	
    	läbi	0		V	o
ei	ei	0		D	
  	ei	0		V	neg
saa	saa	0		V	o
,	,			Z	
siis	siis	0		D	
    	siis	0		J	
lahkuvad	lahku	vad		V	vad
        	lahkuv	d		A	pl n
nad	tema	d		P	pl n
ära	ära	0		D	
   	ära	0		V	neg o
ja	ja	0		J	
annab	and	b		V	b
Mihkel	Mihkel	0		H	sg n
      	mihkel	0		A	sg n
      	mihkel	0		S	sg n
talukoha	talu_koht	0		S	sg g
maadest	maa	dest		S	pl el
,	,			Z	
kui	kui	0		D	
   	kui	0		J	
mõisa	mõis	0		S	sg g
omaniku	omanik	0		S	sg g
poolt	pool	t		N	sg p
     	pool	t		S	sg p
     	poolt	0		D	
     	poolt	0		K	
takistust	takistus	t		S	sg p
ei	ei	0		D	
  	ei	0		V	neg
ole	ole	0		V	o
,	,			Z	
ühe	üks	0		N	sg g
   	üks	0		P	sg g
   	ühe	0		S	sg n
kolmandiku	kolmandik	0		N	sg g
          	kolmandik	0		S	sg g
usõ	####				
Peedu	Peedu	0		H	sg g
     	Peedu	0		H	sg n
kätte	kätte	0		K	
     	käsi	tte		S	adt
selle	see	0		P	sg g
     	sell	e		S	pl p
sama	sama	0		P	sg g
    	sama	0		P	sg n
    	sama	0		P	sg p
rendi	rent	0		S	sg g
     	renti	0		V	o
eest	eest	0		D	
    	eest	0		K	
    	esi	st		S	sg el
,	,			Z	
mis	mis	0		P	pl n
   	mis	0		P	sg n
nende	see	de		P	pl g
     	tema	de		P	pl g
maade	maa	de		S	pl g
eest	eest	0		D	
    	eest	0		K	
    	esi	st		S	sg el
mõisa	mõis	0		S	sg g
maksta	maks	ta		V	da
      	maks	ta		V	ta
tuleb	tule	b		V	b
ja	ja	0		J	
4.	4.	0		O	?
,	,			Z	
kui	kui	0		D	
   	kui	0		J	
Peet	Peet	0		H	sg n
    	peet	0		S	sg n
enne	enne	0		D	
    	enne	0		K	
    	enne	0		S	sg n
Mihkli	Mihkel	0		H	sg g
      	Mihkli	0		H	sg g
      	mihkel	0		A	sg g
      	mihkel	0		S	sg g
      	Mihkli	0		H	sg n
venna	vend	0		S	sg g
kodutulekut	kodu_tulek	t		S	sg p
lahkuda	lahku	da		V	da
piaks	####				
tahtma	taht	ma		V	ma
,	,			Z	
siis	siis	0		D	
    	siis	0		J	
kaotab	kaota	b		V	b
tema	tema	0		P	sg g
    	tema	0		P	sg n
maade	maa	de		S	pl g
kohta	koht	0		S	adt
     	kohta	0		K	
     	kohta	0		V	o
     	koht	0		S	sg p
õiguse	õigus	0		S	sg g
.	.			Z	
seda	see	da		P	sg p
kinnitavad	kinnita	vad		V	vad
          	kinnitav	d		A	pl n
oma	oma	0		A	sg g
   	oma	0		D	
   	oma	0		P	sg g
   	oma	0		S	sg g
   	oma	0		V	o
   	oma	0		A	sg n
   	oma	0		A	sg p
   	oma	0		P	sg n
   	oma	0		P	sg p
   	oma	0		S	sg n
   	oma	0		S	sg p
allkirjadega	all_kiri	dega		S	pl kom
:	:			Z	
Mihkel	Mihkel	0		H	sg n
      	mihkel	0		A	sg n
      	mihkel	0		S	sg n
onu	onu	0		S	sg g
   	onu	0		S	sg n
   	onu	0		S	sg p
,	,			Z	
Peet	Peet	0		H	sg n
    	peet	0		S	sg n
onu	onu	0		S	sg g
   	onu	0		S	sg n
   	onu	0		S	sg p
.	.			Z	
President	president	0		S	sg n
:	:			Z	
J_	####				
.	.			Z	
_	_			Z	
sõel	sõel	0		S	sg n
.	.			Z	
Liikmed	liige	d		S	pl n
:	:			Z	
J_	####				
.	.			Z	
_	_			Z	
eistrat	####				
.	.			Z	
T. Tatter	####				
.	.			Z	
J_	####				
.	.			Z	
_	_			Z	
kahu	kahk	0		S	sg g
    	kahu	0		S	sg g
    	kahu	0		S	sg n
    	kahu	0		S	sg p
.	.			Z	
kirjutaja	kirjutaja	0		S	sg g
         	kirjutaja	0		S	sg n
:	:			Z	
Prever	####				
.	.			Z	
