kohtus	kohtu	s		V	s
      	kohus	s		S	sg in
kaebas	kaeba	s		V	s
Aru	aru	0		S	sg g
   	aru	0		S	sg n
   	aru	0		S	sg p
kõrtsmik	kõrtsmik	0		S	sg n
Jüri	Jüri	0		H	sg g
    	Jüri	0		H	sg n
Sagelmann	####				
,	,			Z	
1886	1886	0		N	?
üks	üks	0		N	sg n
   	üks	0		P	sg n
pühapäev	püha_päev	0		S	sg n
on	ole	0		V	b
  	ole	0		V	vad
Kustas	Kusta	s		H	sg in
      	Kustas	0		H	sg n
Saarjärv	saar_järv	0		S	sg n
neile	see	le		P	pl all
     	tema	le		P	pl all
tulnud	tul=nud	0		A	
      	tul=nud	0		A	sg n
      	tul=nud	d		A	pl n
      	tule	nud		V	nud
      	tulnu	d		S	pl n
,	,			Z	
ja	ja	0		J	
temale	tema	le		P	sg all
lamud	####				
müüa	müü	a		V	da
pakunud	####				
,	,			Z	
ja	ja	0		J	
tema	tema	0		P	sg g
    	tema	0		P	sg n
on	ole	0		V	b
  	ole	0		V	vad
ka	ka	0		D	
kolm	kolm	0		N	sg n
lammast	lammas	t		S	sg p
ta	tema	0		P	sg g
  	tema	0		P	sg n
käest	käest	0		K	
     	käsi	st		S	sg el
ära	ära	0		D	
   	ära	0		V	neg o
kaubelnud	kauple	nud		V	nud
         	kaubel=nu	d		S	pl n
         	kaubel=nud	0		A	
         	kaubel=nud	0		A	sg n
         	kaubel=nud	d		A	pl n
,	,			Z	
mis	mis	0		P	pl n
   	mis	0		P	sg n
nad	tema	d		P	pl n
teine	teine	0		O	sg n
     	teine	0		P	sg n
teisega	teine	ga		O	sg kom
       	teine	ga		P	sg kom
kaks	kaks	0		N	sg n
rubla	rubla	0		S	sg g
     	rubla	0		S	sg n
     	rubla	0		S	sg p
tük	####				
leppinud	leppi	nud		V	nud
        	leppi=nu	d		S	pl n
        	leppi=nud	0		A	
        	leppi=nud	0		A	sg n
        	leppi=nud	d		A	pl n
,	,			Z	
ja	ja	0		J	
ta	tema	0		P	sg g
  	tema	0		P	sg n
on	ole	0		V	b
  	ole	0		V	vad
kahe	kaks	0		N	sg g
lamba	lammas	0		S	sg g
hinna	hind	0		S	sg g
,	,			Z	
neli	neli	0		N	sg n
(	(			Z	
4	4	0		N	?
)	)			Z	
rubla	rubla	0		S	sg g
     	rubla	0		S	sg n
     	rubla	0		S	sg p
K. Saarjärvele	####				
siis	siis	0		D	
    	siis	0		J	
kohe	kohe	0		A	sg n
    	kohe	0		D	
äramaksnud	ära_maks=nu	d		S	pl n
          	ära_maks=nud	0		A	
          	ära_maks=nud	0		A	sg n
          	ära_maks=nud	d		A	pl n
,	,			Z	
ja	ja	0		J	
ooma	####				
naise	naine	0		S	sg g
vana	vana	0		A	sg g
    	vana	0		A	sg n
    	vana	0		A	sg p
    	vana	0		S	sg g
    	vana	0		S	sg n
    	vana	0		S	sg p
külla	küll	0		S	adt
     	küll	0		S	sg g
     	küla	0		S	adt
     	küll	0		S	sg p
karja	kari	0		S	adt
     	kari	0		S	sg g
     	kari	0		S	sg p
arust	aru	st		S	sg el
     	arune	t		A	sg p
     	arust	0		K	
lambad	lammas	d		S	pl n
ooma	####				
karjaauruse	karja_aurune	0		A	sg g
lasknud	lask	nud		V	nud
       	lask=nu	d		S	pl n
       	lask=nud	0		A	
       	lask=nud	0		A	sg n
       	lask=nud	d		A	pl n
aeada	####				
.	.			Z	
selle	see	0		P	sg g
     	sell	e		S	pl p
järele	järele	0		D	
      	järele	0		K	
on	ole	0		V	b
  	ole	0		V	vad
aga	aga	0		J	
Kustas	Kusta	s		H	sg in
      	Kustas	0		H	sg n
Saarjärve	saar_järv	0		S	adt
         	saar_järv	0		S	sg g
         	saar_järv	0		S	sg p
naine	naine	0		S	sg n
salaja	salaja	0		D	
jälle	jälle	0		D	
lambad	lammas	d		S	pl n
tema	tema	0		P	sg g
    	tema	0		P	sg n
lambaste	####				
hulgast	hulk	st		S	sg el
       	hulgast	0		K	
karjaarust	karja_aru	st		S	sg el
          	karja_arune	t		A	sg p
äraajanud	ära_aja=nu	d		S	pl n
         	ära_aja=nud	0		A	
         	ära_aja=nud	0		A	sg n
         	ära_aja=nud	d		A	pl n
,	,			Z	
ja	ja	0		J	
ta	tema	0		P	sg g
  	tema	0		P	sg n
põle	põle	0		V	o
siiamaani	siia_maani	0		D	
lambud	####				
ega	ega	0		D	
   	ega	0		J	
4	4	0		N	?
rubla	rubla	0		S	sg g
     	rubla	0		S	sg n
     	rubla	0		S	sg p
raha	raha	0		S	sg g
    	raha	0		S	sg n
    	raha	0		S	sg p
tagasi	tagasi	0		D	
      	tagasi	0		K	
saanud	saa	nud		V	nud
      	saa=nud	0		A	
      	saa=nud	0		A	sg n
      	saa=nud	d		A	pl n
      	saanu	d		S	pl n
.	.			Z	
Sai	saa	i		V	s
   	sai	0		S	sg n
ette	ette	0		D	
    	ette	0		K	
    	esi	tte		S	adt
kutsutud	kutsu	tud		V	tud
        	kutsutu	d		S	pl n
        	kutsutud	0		A	
        	kutsutud	0		A	sg n
        	kutsutud	d		A	pl n
K. Saarjärv	####				
,	,			Z	
ja	ja	0		J	
ta	tema	0		P	sg g
  	tema	0		P	sg n
tunnistas	tunnista	s		V	s
,	,			Z	
et	et	0		J	
nemad	tema	d		P	pl n
küll	küll	0		D	
    	küll	0		S	sg n
nii	nii	0		D	
olla	ole	a		V	da
kaubelnud	kauple	nud		V	nud
         	kaubel=nu	d		S	pl n
         	kaubel=nud	0		A	
         	kaubel=nud	0		A	sg n
         	kaubel=nud	d		A	pl n
,	,			Z	
kui	kui	0		D	
   	kui	0		J	
J. Sagelmann	####				
üllemal	####				
on	ole	0		V	b
  	ole	0		V	vad
ülesannud	####				
,	,			Z	
aga	aga	0		J	
ta	tema	0		P	sg g
  	tema	0		P	sg n
põle	põle	0		V	o
mitte	mitte	0		D	
raha	raha	0		S	sg g
    	raha	0		S	sg n
    	raha	0		S	sg p
koppikastki	####				
J. Sagelmanni	####				
käest	käest	0		K	
     	käsi	st		S	sg el
kätte	kätte	0		K	
     	käsi	tte		S	adt
saanud	saa	nud		V	nud
      	saa=nud	0		A	
      	saa=nud	0		A	sg n
      	saa=nud	d		A	pl n
      	saanu	d		S	pl n
,	,			Z	
vaid	vaid	0		D	
    	vaid	0		J	
aga	aga	0		J	
muidu	muidu	0		D	
kaubelnud	kauple	nud		V	nud
         	kaubel=nu	d		S	pl n
         	kaubel=nud	0		A	
         	kaubel=nud	0		A	sg n
         	kaubel=nud	d		A	pl n
,	,			Z	
ja	ja	0		J	
sellepärast	selle_pärast	0		D	
on	ole	0		V	b
  	ole	0		V	vad
ta	tema	0		P	sg g
  	tema	0		P	sg n
naine	naine	0		S	sg n
ka	ka	0		D	
lambad	lammas	d		S	pl n
ära	ära	0		D	
   	ära	0		V	neg o
aejanud	####				
,	,			Z	
ega	ega	0		D	
   	ega	0		J	
poole	pool	0		N	sg g
     	pool	0		S	sg g
     	pool	e		S	pl p
     	poole	0		K	
     	poole	0		S	sg n
neid	neid	0		S	sg n
    	see	d		P	pl p
    	tema	d		P	pl p
J. Sagelmannile	####				
lasknud	lask	nud		V	nud
       	lask=nu	d		S	pl n
       	lask=nud	0		A	
       	lask=nud	0		A	sg n
       	lask=nud	d		A	pl n
müüa	müü	a		V	da
,	,			Z	
sest	see	st		P	sg el
    	sest	0		J	
et	et	0		J	
need	see	d		P	pl n
naise	naine	0		S	sg g
lambad	lammas	d		S	pl n
olnud	ol=nud	0		A	
     	ol=nud	0		A	sg n
     	ol=nud	d		A	pl n
     	ole	nud		V	nud
     	olnu	d		S	pl n
.	.			Z	
et	et	0		J	
neil	see	l		P	pl ad
    	tema	l		P	pl ad
kummagil	####				
põlnud	####				
selged	selge	d		A	pl n
tunnistust	tunnistus	t		S	sg p
ette	ette	0		D	
    	ette	0		K	
    	esi	tte		S	adt
tua	####				
,	,			Z	
jättis	jät	is		V	s
kohus	kohu	s		V	s
     	kohus	0		S	sg n
seda	see	da		P	sg p
asja	asi	0		S	adt
    	asi	0		S	sg g
    	asi	0		S	sg p
eestuleva	ees_tulev	0		A	sg g
kohtu	kohtu	0		V	o
     	kohus	0		S	sg g
päevaks	päev	ks		S	sg tr
seletada	seleta	da		V	da
,	,			Z	
kuni	kuni	0		J	
    	kuni	0		K	
nad	tema	d		P	pl n
paremat	parem	t		C	sg p
tunistust	####				
ette	ette	0		D	
    	ette	0		K	
    	esi	tte		S	adt
tuuvad	####				
.	.			Z	
