koos	koos	0		D	
    	koos	0		K	
    	koos	0		S	sg n
    	kubu	s		S	sg in
olid	ole	id		V	sid
talitaja	talitaja	0		S	sg g
        	talitaja	0		S	sg n
N_	####				
.	.			Z	
_	_			Z	
Mähle	####				
,	,			Z	
abbilis	####				
:	:			Z	
G	G	0		Y	?
.	.			Z	
_	_			Z	
Norwit	####				
ja	ja	0		J	
H	H	0		Y	?
.	.			Z	
_	_			Z	
Pissa	####				
kohtu	kohtu	0		V	o
     	kohus	0		S	sg g
päeva	päev	0		S	adt
     	päev	0		S	sg g
     	päev	0		S	sg p
pidamas	pida	mas		V	mas
.	.			Z	
Johann	Johann	0		H	sg n
Mölter	####				
kaebab	kaeba	b		V	b
kohtu	kohtu	0		V	o
     	kohus	0		S	sg g
ees	ees	0		D	
   	ees	0		K	
   	esi	s		S	sg in
,	,			Z	
et	et	0		J	
sel	see	l		P	sg ad
   	sel	0		Y	?
22	22	0		N	?
detsm	####				
:	:			Z	
tulnud	tul=nud	0		A	
      	tul=nud	0		A	sg n
      	tul=nud	d		A	pl n
      	tule	nud		V	nud
      	tulnu	d		S	pl n
tema	tema	0		P	sg g
    	tema	0		P	sg n
Tahkonast	####				
siia	siia	0		D	
    	siig	0		S	sg g
Kerde	####				
poodi	poo	di		V	ti
     	pood	0		S	adt
     	pood	0		S	sg p
,	,			Z	
Torni	torn	0		S	adt
     	torn	0		S	sg g
     	torn	0		S	sg p
kõrgemale	kõrgem	le		C	sg all
         	kõrgem	le		S	sg all
         	kõrgemale	0		D	
kaupa	kaup	0		S	adt
     	kaup	0		S	sg p
     	kaupa	0		K	
ostma	ost	ma		V	ma
.	.			Z	
ostnud	ost	nud		V	nud
      	ost=nu	d		S	pl n
      	ost=nud	0		A	
      	ost=nud	0		A	sg n
      	ost=nud	d		A	pl n
kõik	kõik	0		P	pl n
    	kõik	0		S	sg n
    	kõik	0		P	sg n
kaupäeva	####				
välja	välja	0		D	
     	välja	0		V	o
     	väli	0		S	adt
     	väli	0		S	sg g
     	väli	0		S	sg p
ja	ja	0		J	
vahetanud	vaheta	nud		V	nud
         	vaheta=nu	d		S	pl n
         	vaheta=nud	0		A	
         	vaheta=nud	0		A	sg n
         	vaheta=nud	d		A	pl n
seal	seal	0		D	
    	siga	l		A	sg ad
    	siga	l		S	sg ad
ka	ka	0		D	
ühe	üks	0		N	sg g
   	üks	0		P	sg g
   	ühe	0		S	sg n
25	25	0		N	?
rublase	rublane	0		A	sg g
       	rublane	0		S	sg g
paberi	paber	0		S	sg g
raha	raha	0		S	sg g
    	raha	0		S	sg n
    	raha	0		S	sg p
ära	ära	0		D	
   	ära	0		V	neg o
,	,			Z	
mis	mis	0		P	pl n
   	mis	0		P	sg n
vastu	vastu	0		D	
     	vastu	0		K	
ta	tema	0		P	sg g
  	tema	0		P	sg n
kaks	kaks	0		N	sg n
5	5	0		N	?
rub	####				
:	:			Z	
üks	üks	0		N	sg n
   	üks	0		P	sg n
3	3	0		N	?
rub	####				
:	:			Z	
,	,			Z	
kaks	kaks	0		N	sg n
1	1	0		N	?
rub	####				
:	:			Z	
paberi	paber	0		S	sg g
raha	raha	0		S	sg g
    	raha	0		S	sg n
    	raha	0		S	sg p
ja	ja	0		J	
10	10	0		N	?
rub	####				
:	:			Z	
klubisid	klubi	sid		S	pl p
saanud	saa	nud		V	nud
      	saa=nud	0		A	
      	saa=nud	0		A	sg n
      	saa=nud	d		A	pl n
      	saanu	d		S	pl n
.	.			Z	
oma	oma	0		A	sg g
   	oma	0		D	
   	oma	0		P	sg g
   	oma	0		S	sg g
   	oma	0		V	o
   	oma	0		A	sg n
   	oma	0		A	sg p
   	oma	0		P	sg n
   	oma	0		P	sg p
   	oma	0		S	sg n
   	oma	0		S	sg p
ostetud	ost	tud		V	tud
       	oste=tu	d		S	pl n
       	oste=tud	0		A	
       	oste=tud	0		A	sg n
       	oste=tud	d		A	pl n
kaupäeva	####				
ja	ja	0		J	
ka	ka	0		D	
see	see	0		P	sg n
raha	raha	0		S	sg g
    	raha	0		S	sg n
    	raha	0		S	sg p
pannud	pan=nu	d		S	pl n
      	pan=nud	0		A	
      	pan=nud	0		A	sg n
      	pan=nud	d		A	pl n
      	pane	nud		V	nud
ta	tema	0		P	sg g
  	tema	0		P	sg n
ühe	üks	0		N	sg g
   	üks	0		P	sg g
   	ühe	0		S	sg n
teklega	####				
vanni	vann	0		S	adt
     	vann	0		S	sg g
     	vann	0		S	sg p
sisse	siss	e		S	pl p
     	sisse	0		D	
     	sisse	0		K	
,	,			Z	
mis	mis	0		P	pl n
   	mis	0		P	sg n
tal	tema	l		P	sg ad
ree	regi	0		S	sg g
peal	pea	l		S	sg ad
    	peal	0		D	
    	peal	0		K	
selle	see	0		P	sg g
     	sell	e		S	pl p
tarvis	tarvis	0		D	
      	tarvis	0		K	
olnud	ol=nud	0		A	
     	ol=nud	0		A	sg n
     	ol=nud	d		A	pl n
     	ole	nud		V	nud
     	olnu	d		S	pl n
ja	ja	0		J	
sõitnud	sõit	nud		V	nud
       	sõit=nu	d		S	pl n
       	sõit=nud	0		A	
       	sõit=nud	0		A	sg n
       	sõit=nud	d		A	pl n
oma	oma	0		A	sg g
   	oma	0		D	
   	oma	0		P	sg g
   	oma	0		S	sg g
   	oma	0		V	o
   	oma	0		A	sg n
   	oma	0		A	sg p
   	oma	0		P	sg n
   	oma	0		P	sg p
   	oma	0		S	sg n
   	oma	0		S	sg p
voorimehega	voori_mees	ga		S	sg kom
seltsis	selts	s		S	sg in
       	seltsi	s		V	s
       	seltsis	0		D	
       	seltsis	0		K	
Johann	Johann	0		H	sg n
Lehtma	####				
juurde	juur	de		S	adt
      	juurde	0		D	
      	juurde	0		K	
,	,			Z	
ühe	üks	0		N	sg g
   	üks	0		P	sg g
   	ühe	0		S	sg n
soldati	soldat	0		S	sg g
armoonikat	####				
ära	ära	0		D	
   	ära	0		V	neg o
tooma	too	ma		V	ma
,	,			Z	
mis	mis	0		P	pl n
   	mis	0		P	sg n
seal	seal	0		D	
    	siga	l		A	sg ad
    	siga	l		S	sg ad
parantada	####				
olnud	ol=nud	0		A	
     	ol=nud	0		A	sg n
     	ol=nud	d		A	pl n
     	ole	nud		V	nud
     	olnu	d		S	pl n
.	.			Z	
et	et	0		J	
see	see	0		P	sg n
valmis	valm	s		S	sg in
      	valmi	s		V	s
      	valmis	0		A	
      	valmis	0		A	sg n
      	valmis	0		D	
      	valmis	s		A	sg in
ei	ei	0		D	
  	ei	0		V	neg
olnud	ol=nud	0		A	
     	ol=nud	0		A	sg n
     	ol=nud	d		A	pl n
     	ole	nud		V	nud
     	olnu	d		S	pl n
,	,			Z	
siis	siis	0		D	
    	siis	0		J	
istunud	istu	nud		V	nud
       	istu=nu	d		S	pl n
       	istu=nud	0		A	
       	istu=nud	0		A	sg n
       	istu=nud	d		A	pl n
nemad	tema	d		P	pl n
muidu	muidu	0		D	
seal	seal	0		D	
    	siga	l		A	sg ad
    	siga	l		S	sg ad
toas	tuba	s		S	sg in
ja	ja	0		J	
ajanud	aja	nud		V	nud
      	aja=nu	d		S	pl n
      	aja=nud	0		A	
      	aja=nud	0		A	sg n
      	aja=nud	d		A	pl n
juttu	jutt	0		S	adt
     	jutt	0		S	sg p
.	.			Z	
ja	ja	0		J	
Joh	####				
:	:			Z	
Lehtma	####				
käinud	käi	nud		V	nud
      	käi=nud	0		A	
      	käi=nud	0		A	sg n
      	käi=nud	d		A	pl n
      	käinu	d		S	pl n
kord	kord	0		D	
    	kord	0		S	sg n
üksi	üksi	0		D	
õues	õu	s		S	sg in
    	õues	0		D	
.	.			Z	
tema	tema	0		P	sg g
    	tema	0		P	sg n
sõitab	####				
sealt	sealt	0		D	
     	siga	lt		A	sg abl
     	siga	lt		S	sg abl
ära	ära	0		D	
   	ära	0		V	neg o
Tahkona	####				
,	,			Z	
ja	ja	0		J	
leiab	leid	b		V	b
seal	seal	0		D	
    	siga	l		A	sg ad
    	siga	l		S	sg ad
,	,			Z	
et	et	0		J	
ostetud	ost	tud		V	tud
       	oste=tu	d		S	pl n
       	oste=tud	0		A	
       	oste=tud	0		A	sg n
       	oste=tud	d		A	pl n
kaup	kaup	0		S	sg n
küll	küll	0		D	
    	küll	0		S	sg n
alles	alles	0		D	
,	,			Z	
aga	aga	0		J	
raha	raha	0		S	sg g
    	raha	0		S	sg n
    	raha	0		S	sg p
kadunud	kadu	nud		V	nud
       	kadunu	d		S	pl n
       	kadunud	0		A	
       	kadunud	0		A	sg n
       	kadunud	d		A	pl n
,	,			Z	
mis	mis	0		P	pl n
   	mis	0		P	sg n
ta	tema	0		P	sg g
  	tema	0		P	sg n
arvab	arva	b		V	b
Joh	####				
:	:			Z	
Lehtmat	####				
ära	ära	0		D	
   	ära	0		V	neg o
varastanud	varasta	nud		V	nud
          	varasta=nu	d		S	pl n
          	varasta=nud	0		A	
          	varasta=nud	0		A	sg n
          	varasta=nud	d		A	pl n
olevat	ole	vat		V	vat
      	olev	t		A	sg p
      	olev	t		S	sg p
,	,			Z	
sest	see	st		P	sg el
    	sest	0		J	
et	et	0		J	
temal	tema	l		P	sg ad
pühade	püha	de		A	pl g
      	püha	de		S	pl g
      	pühade	0		A	
      	pühade	0		D	
eel	eel	0		D	
   	eel	0		K	
   	esi	l		S	sg ad
rohkest	rohke	st		A	sg el
raha	raha	0		S	sg g
    	raha	0		S	sg n
    	raha	0		S	sg p
nähtud	nähtu	d		S	pl n
      	nähtu	d		V	d
      	nähtud	0		A	
      	nähtud	0		A	sg n
      	nähtud	d		A	pl n
      	näge	tud		V	tud
olema	ole	ma		V	ma
.	.			Z	
ka	ka	0		D	
olla	ole	a		V	da
ta	tema	0		P	sg g
  	tema	0		P	sg n
Leena	Lee	na		H	sg es
     	Leena	0		H	sg g
     	Leena	0		H	sg n
Sild	sild	0		S	sg n
kätte	kätte	0		K	
     	käsi	tte		S	adt
raha	raha	0		S	sg g
    	raha	0		S	sg n
    	raha	0		S	sg p
hoida	hoid	a		V	da
andnud	and	nud		V	nud
      	and=nu	d		S	pl n
      	and=nud	0		A	
      	and=nud	0		A	sg n
      	and=nud	d		A	pl n
.	.			Z	
Leena	Lee	na		H	sg es
     	Leena	0		H	sg g
     	Leena	0		H	sg n
Sild	sild	0		S	sg n
tunnistab	tunnista	b		V	b
kohtu	kohtu	0		V	o
     	kohus	0		S	sg g
ees	ees	0		D	
   	ees	0		K	
   	esi	s		S	sg in
:	:			Z	
et	et	0		J	
Joh	####				
:	:			Z	
Lehtma	####				
sel	see	l		P	sg ad
   	sel	0		Y	?
24m	24m	0		Y	?
detsm	####				
:	:			Z	
15	15	0		N	?
rub	####				
:	:			Z	
tema	tema	0		P	sg g
    	tema	0		P	sg n
ema	ema	0		S	sg g
   	ema	0		S	sg n
   	ema	0		S	sg p
kätte	kätte	0		K	
     	käsi	tte		S	adt
hoida	hoid	a		V	da
andnud	and	nud		V	nud
      	and=nu	d		S	pl n
      	and=nud	0		A	
      	and=nud	0		A	sg n
      	and=nud	d		A	pl n
,	,			Z	
mis	mis	0		P	pl n
   	mis	0		P	sg n
tema	tema	0		P	sg g
    	tema	0		P	sg n
aga	aga	0		J	
oma	oma	0		A	sg g
   	oma	0		D	
   	oma	0		P	sg g
   	oma	0		S	sg g
   	oma	0		V	o
   	oma	0		A	sg n
   	oma	0		A	sg p
   	oma	0		P	sg n
   	oma	0		P	sg p
   	oma	0		S	sg n
   	oma	0		S	sg p
kätte	kätte	0		K	
     	käsi	tte		S	adt
võtnud	võt	nud		V	nud
      	võt=nu	d		S	pl n
      	võt=nud	0		A	
      	võt=nud	0		A	sg n
      	võt=nud	d		A	pl n
ja	ja	0		J	
oma	oma	0		A	sg g
   	oma	0		D	
   	oma	0		P	sg g
   	oma	0		S	sg g
   	oma	0		V	o
   	oma	0		A	sg n
   	oma	0		A	sg p
   	oma	0		P	sg n
   	oma	0		P	sg p
   	oma	0		S	sg n
   	oma	0		S	sg p
kappi	kapp	0		S	adt
     	kapp	0		S	sg p
pannud	pan=nu	d		S	pl n
      	pan=nud	0		A	
      	pan=nud	0		A	sg n
      	pan=nud	d		A	pl n
      	pane	nud		V	nud
.	.			Z	
need	see	d		P	pl n
olnud	ol=nud	0		A	
     	ol=nud	0		A	sg n
     	ol=nud	d		A	pl n
     	ole	nud		V	nud
     	olnu	d		S	pl n
:	:			Z	
kaks	kaks	0		N	sg n
5	5	0		N	?
rub	####				
:	:			Z	
,	,			Z	
üks	üks	0		N	sg n
   	üks	0		P	sg n
3	3	0		N	?
rub	####				
:	:			Z	
ja	ja	0		J	
kaks	kaks	0		N	sg n
1	1	0		N	?
rub	####				
:	:			Z	
paberi	paber	0		S	sg g
raha	raha	0		S	sg g
    	raha	0		S	sg n
    	raha	0		S	sg p
.	.			Z	
seda	see	da		P	sg p
raha	raha	0		S	sg g
    	raha	0		S	sg n
    	raha	0		S	sg p
on	ole	0		V	b
  	ole	0		V	vad
ta	tema	0		P	sg g
  	tema	0		P	sg n
aga	aga	0		J	
teisel	teine	l		O	sg ad
      	teine	l		P	sg ad
jõulo	####				
pühal	püha	l		A	sg ad
     	püha	l		S	sg ad
sealt	sealt	0		D	
     	siga	lt		A	sg abl
     	siga	lt		S	sg abl
jälle	jälle	0		D	
ära	ära	0		D	
   	ära	0		V	neg o
viinud	vii	nud		V	nud
      	vii=nu	d		S	pl n
      	vii=nud	0		A	
      	vii=nud	0		A	sg n
      	vii=nud	d		A	pl n
.	.			Z	
ka	ka	0		D	
Andrus	Andrus	0		H	sg n
Mölter	####				
vastu	vastu	0		D	
     	vastu	0		K	
on	ole	0		V	b
  	ole	0		V	vad
ta	tema	0		P	sg g
  	tema	0		P	sg n
rääkinud	rääki	nud		V	nud
        	rääki=nu	d		S	pl n
        	rääki=nud	0		A	
        	rääki=nud	0		A	sg n
        	rääki=nud	d		A	pl n
,	,			Z	
et	et	0		J	
tal	tema	l		P	sg ad
Leena	Lee	na		H	sg es
     	Leena	0		H	sg g
     	Leena	0		H	sg n
Sild	sild	0		S	sg n
käes	käes	0		K	
    	käsi	s		S	sg in
15	15	0		N	?
rub	####				
:	:			Z	
hoida	hoid	a		V	da
on	ole	0		V	b
  	ole	0		V	vad
.	.			Z	
Joh	####				
:	:			Z	
Lehtma	####				
tunnistab	tunnista	b		V	b
:	:			Z	
et	et	0		J	
Joh	####				
:	:			Z	
Mölter	####				
tema	tema	0		P	sg g
    	tema	0		P	sg n
juures	juur	s		S	sg in
      	juures	0		D	
      	juures	0		K	
käinud	käi	nud		V	nud
      	käi=nud	0		A	
      	käi=nud	0		A	sg n
      	käi=nud	d		A	pl n
      	käinu	d		S	pl n
,	,			Z	
aga	aga	0		J	
tema	tema	0		P	sg g
    	tema	0		P	sg n
mitte	mitte	0		D	
sel	see	l		P	sg ad
   	sel	0		Y	?
ajal	aeg	l		S	sg ad
    	ajal	0		K	
õues	õu	s		S	sg in
    	õues	0		D	
pole	ole	0		V	neg o
käinud	käi	nud		V	nud
      	käi=nud	0		A	
      	käi=nud	0		A	sg n
      	käi=nud	d		A	pl n
      	käinu	d		S	pl n
.	.			Z	
niisama	nii_sama	0		D	
et	et	0		J	
tal	tema	l		P	sg ad
Leenu	Leenu	0		H	sg g
     	Leenu	0		H	sg n
Sild	sild	0		S	sg n
käes	käes	0		K	
    	käsi	s		S	sg in
raha	raha	0		S	sg g
    	raha	0		S	sg n
    	raha	0		S	sg p
olnud	ol=nud	0		A	
     	ol=nud	0		A	sg n
     	ol=nud	d		A	pl n
     	ole	nud		V	nud
     	olnu	d		S	pl n
,	,			Z	
aga	aga	0		J	
mitte	mitte	0		D	
niisugused	nii_sugune	d		P	pl n
kui	kui	0		D	
   	kui	0		J	
L_	####				
.	.			Z	
_	_			Z	
Sild	sild	0		S	sg n
tunnistab	tunnista	b		V	b
.	.			Z	
vaid	vaid	0		D	
    	vaid	0		J	
seal	seal	0		D	
    	siga	l		A	sg ad
    	siga	l		S	sg ad
olnud	ol=nud	0		A	
     	ol=nud	0		A	sg n
     	ol=nud	d		A	pl n
     	ole	nud		V	nud
     	olnu	d		S	pl n
üks	üks	0		N	sg n
   	üks	0		P	sg n
5	5	0		N	?
rub	####				
:	:			Z	
kolm	kolm	0		N	sg n
3	3	0		N	?
rub	####				
:	:			Z	
ja	ja	0		J	
kaks	kaks	0		N	sg n
1	1	0		N	?
rub	####				
:	:			Z	
paberi	paber	0		S	sg g
raha	raha	0		S	sg g
    	raha	0		S	sg n
    	raha	0		S	sg p
.	.			Z	
Joh	####				
:	:			Z	
Lehtma	####				
tunnistab	tunnista	b		V	b
,	,			Z	
et	et	0		J	
tema	tema	0		P	sg g
    	tema	0		P	sg n
enne	enne	0		D	
    	enne	0		K	
    	enne	0		S	sg n
pühasi	####				
Haapsalus	Haap_salu	s		H	sg in
ühe	üks	0		N	sg g
   	üks	0		P	sg g
   	ühe	0		S	sg n
25	25	0		N	?
rub	####				
:	:			Z	
paberi	paber	0		S	sg g
vahetanud	vaheta	nud		V	nud
         	vaheta=nu	d		S	pl n
         	vaheta=nud	0		A	
         	vaheta=nud	0		A	sg n
         	vaheta=nud	d		A	pl n
ja	ja	0		J	
nõnda	nõnda	0		D	
selle	see	0		P	sg g
     	sell	e		S	pl p
raha	raha	0		S	sg g
    	raha	0		S	sg n
    	raha	0		S	sg p
saanud	saa	nud		V	nud
      	saa=nud	0		A	
      	saa=nud	0		A	sg n
      	saa=nud	d		A	pl n
      	saanu	d		S	pl n
.	.			Z	
ütleb	ütle	b		V	b
enesel	ise	l		P	sg ad
mitte	mitte	0		D	
puudu	puudu	0		D	
     	puudu	0		V	o
olema	ole	ma		V	ma
,	,			Z	
sest	see	st		P	sg el
    	sest	0		J	
tal	tema	l		P	sg ad
olla	ole	a		V	da
veel	veel	0		D	
    	vesi	l		S	sg ad
kolm	kolm	0		N	sg n
25	25	0		N	?
rub	####				
:	:			Z	
paberit	paber	t		S	sg p
.	.			Z	
et	et	0		J	
selgemat	selgem	t		C	sg p
tunnistust	tunnistus	t		S	sg p
ei	ei	0		D	
  	ei	0		V	neg
ole	ole	0		V	o
,	,			Z	
jääb	jää	b		V	b
tänase	tänane	0		A	sg g
istumissest	####				
veel	veel	0		D	
    	vesi	l		S	sg ad
klaarimata	klaari	mata		V	mata
          	klaari=mata	0		A	
          	klaarim	ta		C	sg ab
.	.			Z	
