Ükstuhat	####				
üheksasada	üheksa_sada	0		N	sg n
kaheksa	kaheksa	0		N	sg g
       	kaheksa	0		N	sg n
aasta	aasta	0		S	sg g
     	aasta	0		S	sg n
Tetsembri	####				
kuu	kuu	0		S	sg g
   	kuu	0		S	sg n
1sel	####				
päeval	päev	l		S	sg ad
ilmusid	ilmu	sid		V	sid
Oru	org	0		S	sg g
valla	vald	0		S	sg g
     	valla	0		D	
kohtuse	kohtune	0		A	sg g
Oru	org	0		S	sg g
valla	vald	0		S	sg g
     	valla	0		D	
liige	liige	0		S	sg n
kustav	kus=tav	0		A	sg n
      	kuse	tav		V	tav
Priidu	Priit	0		H	sg g
      	Priidu	0		H	sg g
      	Priidu	0		H	sg n
poeg	poeg	0		S	sg n
Vahtmann	vaht_mann	0		S	sg n
ühes	üks	s		N	sg in
    	üks	s		P	sg in
    	ühes	0		D	
    	ühes	0		K	
ooma	####				
abikaasa	abi_kaasa	0		S	sg g
        	abi_kaasa	0		S	sg n
Anaga	####				
(	(			Z	
sündinud	sündi	nud		V	nud
        	sündinu	d		S	pl n
        	sündinud	0		A	
        	sündinud	0		A	sg n
        	sündinud	d		A	pl n
Krumholts	####				
)	)			Z	
ja	ja	0		J	
Oru	org	0		S	sg g
valla	vald	0		S	sg g
     	valla	0		D	
liige	liige	0		S	sg n
kustav	kus=tav	0		A	sg n
      	kuse	tav		V	tav
Krumholts	####				
Anne	Ann	e		H	pl p
    	Anne	0		H	sg g
    	anne	0		S	sg n
    	Anne	0		H	sg n
Vahtmanni	vaht_mann	0		S	adt
         	vaht_mann	0		S	sg g
         	vaht_mann	0		S	sg p
isa	isa	0		S	sg g
   	isa	0		S	sg n
   	isa	0		S	sg p
,	,			Z	
kes	kes	0		P	pl n
   	kes	0		P	sg n
kõik	kõik	0		P	pl n
    	kõik	0		S	sg n
    	kõik	0		P	sg n
järgmist	järgmine	t		A	sg p
avaldasid	avalda	sid		V	sid
:	:			Z	
1903	1903	0		N	?
aastal	aasta	l		S	sg ad
kui	kui	0		D	
   	kui	0		J	
kustav	kus=tav	0		A	sg n
      	kuse	tav		V	tav
Vahtmann	vaht_mann	0		S	sg n
ja	ja	0		J	
Anne	Ann	e		H	pl p
    	Anne	0		H	sg g
    	anne	0		S	sg n
    	Anne	0		H	sg n
Krumholts	####				
abielusse	abi_elu	sse		S	sg ill
astusid	astu	sid		V	sid
andis	and	is		V	s
kustav	kus=tav	0		A	sg n
      	kuse	tav		V	tav
Krumholts	####				
ooma	####				
tütrele	tütar	le		S	sg all
Annele	Anne	le		H	sg all
kaasavaraks	kaasa_vara	ks		S	sg tr
:	:			Z	
üks	üks	0		N	sg n
   	üks	0		P	sg n
lehm	lehm	0		S	sg n
30	30	0		N	?
rbl	rbl	0		Y	?
.	.			Z	
väärt	väärt	0		A	
     	väärt	0		D	
,	,			Z	
üks	üks	0		N	sg n
   	üks	0		P	sg n
hobune	hobune	0		S	sg n
30	30	0		N	?
rubla	rubla	0		S	sg g
     	rubla	0		S	sg n
     	rubla	0		S	sg p
väärt	väärt	0		A	
     	väärt	0		D	
,	,			Z	
üks	üks	0		N	sg n
   	üks	0		P	sg n
mullikas	mullikas	0		S	sg n
        	mullikas	s		S	sg in
10	10	0		N	?
rubla	rubla	0		S	sg g
     	rubla	0		S	sg n
     	rubla	0		S	sg p
väärt	väärt	0		A	
     	väärt	0		D	
,	,			Z	
5	5	0		N	?
lamast	####				
kokku	kokku	0		D	
     	kogu	0		S	adt
17	17	0		N	?
rubla	rubla	0		S	sg g
     	rubla	0		S	sg n
     	rubla	0		S	sg p
väärt	väärt	0		A	
     	väärt	0		D	
,	,			Z	
10	10	0		N	?
tündrit	tünder	t		S	sg p
karduhli	####				
seemet	seeme	t		S	sg p
15	15	0		N	?
rubla	rubla	0		S	sg g
     	rubla	0		S	sg n
     	rubla	0		S	sg p
väärt	väärt	0		A	
     	väärt	0		D	
,	,			Z	
üks	üks	0		N	sg n
   	üks	0		P	sg n
vooodi	####				
7	7	0		N	?
rubla	rubla	0		S	sg g
     	rubla	0		S	sg n
     	rubla	0		S	sg p
väärt	väärt	0		A	
     	väärt	0		D	
ja	ja	0		J	
selges	selge	s		A	sg in
rahas	raha	s		S	sg in
8	8	0		N	?
rtubla	####				
44	44	0		N	?
kop	kop	0		Y	?
.	.			Z	
selle	see	0		P	sg g
     	sell	e		S	pl p
varanduse	varandus	0		S	sg g
olen	ole	n		V	n
mina	mina	0		P	sg n
    	mina	0		S	sg g
    	mina	0		S	sg n
    	mina	0		S	sg p
kustav	kus=tav	0		A	sg n
      	kuse	tav		V	tav
Vahtmann	vaht_mann	0		S	sg n
ooma	####				
naise	naine	0		S	sg g
Anne	Ann	e		H	pl p
    	Anne	0		H	sg g
    	anne	0		S	sg n
    	Anne	0		H	sg n
käest	käest	0		K	
     	käsi	st		S	sg el
saanud	saa	nud		V	nud
      	saa=nud	0		A	
      	saa=nud	0		A	sg n
      	saa=nud	d		A	pl n
      	saanu	d		S	pl n
,	,			Z	
mis	mis	0		P	pl n
   	mis	0		P	sg n
mina	mina	0		P	sg n
    	mina	0		S	sg g
    	mina	0		S	sg n
    	mina	0		S	sg p
,	,			Z	
kui	kui	0		D	
   	kui	0		J	
mina	mina	0		P	sg n
    	mina	0		S	sg g
    	mina	0		S	sg n
    	mina	0		S	sg p
enne	enne	0		D	
    	enne	0		K	
    	enne	0		S	sg n
ooma	####				
naist	naine	t		S	sg p
peaksin	pida	ksin		V	ksin
suurema	suurem	0		C	sg g
ja	ja	0		J	
meiest	####				
varandust	varandus	t		S	sg p
järele	järele	0		D	
      	järele	0		K	
jääb	jää	b		V	b
selles	see	s		P	sg in
summas	summ	s		S	sg in
      	summa	s		S	sg in
,	,			Z	
mis	mis	0		P	pl n
   	mis	0		P	sg n
siin	siin	0		D	
    	siin	0		S	sg n
nimetatud	nimeta	tud		V	tud
         	nimetatu	d		S	pl n
         	nimetatud	0		A	
         	nimetatud	0		A	sg n
         	nimetatud	d		A	pl n
ooma	####				
naisele	naine	le		S	sg all
Anne	Ann	e		H	pl p
    	Anne	0		H	sg g
    	anne	0		S	sg n
    	Anne	0		H	sg n
kustavi	####				
tütre	tütar	0		S	sg g
Vahtmannile	vaht_mann	le		S	sg all
,	,			Z	
kui	kui	0		D	
   	kui	0		J	
tema	tema	0		P	sg g
    	tema	0		P	sg n
isikliku	isiklik	0		A	sg g
varanduse	varandus	0		S	sg g
pärida	päri	da		V	da
jätan	jät	n		V	n
,	,			Z	
niisamuti	nii_samuti	0		D	
ka	ka	0		D	
veel	veel	0		D	
    	vesi	l		S	sg ad
kõik	kõik	0		P	pl n
    	kõik	0		S	sg n
    	kõik	0		P	sg n
muu	muu	0		P	sg g
   	muu	0		S	sg g
   	muu	0		V	o
   	muu	0		P	sg n
   	muu	0		S	sg n
varandus	varandus	0		S	sg n
mis	mis	0		P	pl n
   	mis	0		P	sg n
minust	mina	st		P	sg el
peaks	pea	ks		S	sg tr
     	pida	ks		V	ks
järele	järele	0		D	
      	järele	0		K	
jäema	####				
annan	and	n		V	n
mina	mina	0		P	sg n
    	mina	0		S	sg g
    	mina	0		S	sg n
    	mina	0		S	sg p
üksipäini	üksi_päini	0		D	
ooma	####				
naisele	naine	le		S	sg all
pärida	päri	da		V	da
.	.			Z	
see	see	0		P	sg n
viimane	viimane	0		A	sg n
seadmine	seadmine	0		S	sg n
on	ole	0		V	b
  	ole	0		V	vad
enne	enne	0		D	
    	enne	0		K	
    	enne	0		S	sg n
allakirjutamist	alla_kirjutamine	t		S	sg p
kustav	kus=tav	0		A	sg n
      	kuse	tav		V	tav
ja	ja	0		J	
Anne	Ann	e		H	pl p
    	Anne	0		H	sg g
    	anne	0		S	sg n
    	Anne	0		H	sg n
Vahtmannile	vaht_mann	le		S	sg all
ja	ja	0		J	
Kustav	kus=tav	0		A	sg n
      	kuse	tav		V	tav
Krumholtsile	####				
ette	ette	0		D	
    	ette	0		K	
    	esi	tte		S	adt
loetud	loetu	d		S	pl n
      	loetud	0		A	
      	loetud	0		A	sg n
      	loetud	d		A	pl n
      	luge	tud		V	tud
ja	ja	0		J	
nende	see	de		P	pl g
     	tema	de		P	pl g
kõigi	kõik	0		P	pl g
poolt	pool	t		N	sg p
     	pool	t		S	sg p
     	poolt	0		D	
     	poolt	0		K	
ooma	####				
käega	käsi	ga		S	sg kom
alla	alla	0		D	
    	alla	0		K	
kirjutatud	kirjuta	tud		V	tud
          	kirjutatu	d		S	pl n
          	kirjutatud	0		A	
          	kirjutatud	0		A	sg n
          	kirjutatud	d		A	pl n
.	.			Z	
Ühes	üks	s		N	sg in
    	üks	s		P	sg in
    	ühes	0		D	
    	ühes	0		K	
sellega	see	ga		P	sg kom
tunnistab	tunnista	b		V	b
Oru	org	0		S	sg g
valla	vald	0		S	sg g
     	valla	0		D	
kohus	kohu	s		V	s
     	kohus	0		S	sg n
et	et	0		J	
need	see	d		P	pl n
üllemal	####				
nimetatud	nimeta	tud		V	tud
         	nimetatu	d		S	pl n
         	nimetatud	0		A	
         	nimetatud	0		A	sg n
         	nimetatud	d		A	pl n
isikus	isik	s		S	sg in
kohtule	kohus	le		S	sg all
isiklikult	isiklik	lt		A	sg abl
          	isiklikult	0		D	
tuntud	tund	tud		V	tud
      	tuntu	d		S	pl n
      	tuntud	0		A	
      	tuntud	0		A	sg n
      	tuntud	d		A	pl n
on	ole	0		V	b
  	ole	0		V	vad
ja	ja	0		J	
kustav	kus=tav	0		A	sg n
      	kuse	tav		V	tav
Vahtmann	vaht_mann	0		S	sg n
selge	selge	0		A	sg g
     	selge	0		A	sg n
mõistuse	mõistus	0		S	sg g
juuures	####				
on	ole	0		V	b
  	ole	0		V	vad
olemas	ole	mas		V	mas
.	.			Z	
Kustav	kus=tav	0		A	sg n
      	kuse	tav		V	tav
Vahtmann	vaht_mann	0		S	sg n
Anne	Ann	e		H	pl p
    	Anne	0		H	sg g
    	anne	0		S	sg n
    	Anne	0		H	sg n
Vahtmann	vaht_mann	0		S	sg n
Kustvat	####				
Krumhoolz	####				
Presidenti	president	0		S	adt
          	president	0		S	sg p
asemel	ase	l		S	sg ad
      	asemel	0		K	
kohtu	kohtu	0		V	o
     	kohus	0		S	sg g
liige	liige	0		S	sg n
:	:			Z	
K. Rein	####				
kohtu	kohtu	0		V	o
     	kohus	0		S	sg g
liikmed	liige	d		S	pl n
:	:			Z	
P	P	0		Y	?
Liin	liin	0		S	sg n
<	<			Z	
allkiri	all_kiri	0		S	sg n
J. Altmann	####				
kirjutaja	kirjutaja	0		S	sg g
         	kirjutaja	0		S	sg n
Joh	####				
.	.			Z	
Tilling	####				
