Johann	Johann	0		H	sg n
koid	koi	d		S	pl n
    	koi	d		S	sg p
astus	astu	s		V	s
ette	ette	0		D	
    	ette	0		K	
    	esi	tte		S	adt
ja	ja	0		J	
kaebab	kaeba	b		V	b
,	,			Z	
et	et	0		J	
Karl	Karl	0		H	sg n
Teras	tera	s		S	sg in
     	teras	0		S	sg n
suvel	suvi	l		S	sg ad
,	,			Z	
ilma	ilm	0		S	adt
    	ilm	0		S	sg g
    	ilma	0		D	
    	ilma	0		K	
    	ilm	0		S	sg p
tema	tema	0		P	sg g
    	tema	0		P	sg n
lubata	luba	ta		V	ta
,	,			Z	
tema	tema	0		P	sg g
    	tema	0		P	sg n
luubiga	luup	ga		S	sg kom
purjetanud	purjeta	nud		V	nud
          	purjeta=nu	d		S	pl n
          	purjeta=nud	0		A	
          	purjeta=nud	0		A	sg n
          	purjeta=nud	d		A	pl n
Tõrvaninale	tõrva_nina	le		S	sg all
.	.			Z	
tulnud	tul=nud	0		A	
      	tul=nud	0		A	sg n
      	tul=nud	d		A	pl n
      	tule	nud		V	nud
      	tulnu	d		S	pl n
jala	jalg	0		S	sg g
    	jala	0		D	
ise	ise	0		A	
   	ise	0		D	
   	ise	0		P	pl n
   	ise	0		P	sg n
ära	ära	0		D	
   	ära	0		V	neg o
mõõda	mõõt	0		V	o
maad	maa	d		S	pl n
    	maa	d		S	sg p
ja	ja	0		J	
jätnud	jät	nud		V	nud
      	jät=nu	d		S	pl n
      	jät=nud	0		A	
      	jät=nud	0		A	sg n
      	jät=nud	d		A	pl n
luubi	luup	0		S	sg g
     	luupi	0		V	o
purjedega	puri	dega		S	pl kom
sinna	sinna	0		D	
.	.			Z	
Luup	luup	0		S	sg n
saanud	saa	nud		V	nud
      	saa=nud	0		A	
      	saa=nud	0		A	sg n
      	saa=nud	d		A	pl n
      	saanu	d		S	pl n
tormist	torm	st		A	sg el
       	torm	st		S	sg el
       	tormine	t		A	sg p
äralõhutud	ära_lõhu=tu	d		S	pl n
          	ära_lõhu=tud	0		A	
          	ära_lõhu=tud	0		A	sg n
          	ära_lõhu=tud	d		A	pl n
,	,			Z	
niisama	nii_sama	0		D	
ka	ka	0		D	
purjed	puri	d		S	pl n
.	.			Z	
tema	tema	0		P	sg g
    	tema	0		P	sg n
pannud	pan=nu	d		S	pl n
      	pan=nud	0		A	
      	pan=nud	0		A	sg n
      	pan=nud	d		A	pl n
      	pane	nud		V	nud
K_	####				
.	.			Z	
_	_			Z	
Terase	terane	0		A	sg g
      	teras	0		S	sg g
seda	see	da		P	sg p
üles	üles	0		D	
maksma	maks	ma		V	ma
,	,			Z	
ta	tema	0		P	sg g
  	tema	0		P	sg n
maksnud	maks	nud		V	nud
       	maks=nu	d		S	pl n
       	maks=nud	0		A	
       	maks=nud	0		A	sg n
       	maks=nud	d		A	pl n
ka	ka	0		D	
4	4	0		N	?
rub	####				
.	.			Z	
hõb	####				
.	.			Z	
ära	ära	0		D	
   	ära	0		V	neg o
,	,			Z	
aga	aga	0		J	
tema	tema	0		P	sg g
    	tema	0		P	sg n
õuab	####				
3	3	0		N	?
rub	####				
.	.			Z	
hõb	####				
.	.			Z	
veel	veel	0		D	
    	vesi	l		S	sg ad
sest	see	st		P	sg el
    	sest	0		J	
tema	tema	0		P	sg g
    	tema	0		P	sg n
luup	luup	0		S	sg n
maksnud	maks	nud		V	nud
       	maks=nu	d		S	pl n
       	maks=nud	0		A	
       	maks=nud	0		A	sg n
       	maks=nud	d		A	pl n
7	7	0		N	?
rub	####				
.	.			Z	
hõb	####				
.	.			Z	
purjedega	puri	dega		S	pl kom
ühes	üks	s		N	sg in
    	üks	s		P	sg in
    	ühes	0		D	
    	ühes	0		K	
.	.			Z	
Karl	Karl	0		H	sg n
Teras	tera	s		S	sg in
     	teras	0		S	sg n
astus	astu	s		V	s
ette	ette	0		D	
    	ette	0		K	
    	esi	tte		S	adt
ja	ja	0		J	
räägib	rääki	b		V	b
välja	välja	0		D	
     	välja	0		V	o
     	väli	0		S	adt
     	väli	0		S	sg g
     	väli	0		S	sg p
,	,			Z	
et	et	0		J	
see	see	0		P	sg n
luup	luup	0		S	sg n
mitte	mitte	0		D	
üksi	üksi	0		D	
Joh	####				
.	.			Z	
koidu	koit	0		S	sg g
ei	ei	0		D	
  	ei	0		V	neg
ole	ole	0		V	o
vaid	vaid	0		D	
    	vaid	0		J	
G	G	0		Y	?
.	.			Z	
_	_			Z	
Kiil	kii	l		S	sg ad
    	kiil	0		S	sg n
ja	ja	0		J	
G	G	0		Y	?
.	.			Z	
_	_			Z	
Kraun	####				
on	ole	0		V	b
  	ole	0		V	vad
seal	seal	0		D	
    	siga	l		A	sg ad
    	siga	l		S	sg ad
ka	ka	0		D	
osamehed	osa_mees	d		S	pl n
.	.			Z	
Joh	####				
.	.			Z	
koid	koi	d		S	pl n
    	koi	d		S	sg p
pannud	pan=nu	d		S	pl n
      	pan=nud	0		A	
      	pan=nud	0		A	sg n
      	pan=nud	d		A	pl n
      	pane	nud		V	nud
teda	tema	da		P	sg p
luupi	luup	0		S	adt
     	luup	0		S	sg p
ülesmaksma	####				
ja	ja	0		J	
mitme	mitu	0		P	sg g
küsimise	küsimine	0		S	sg g
peale	pea	le		S	sg all
     	peale	0		D	
     	peale	0		K	
öelnud	öel=nu	d		S	pl n
      	öel=nud	0		A	
      	öel=nud	0		A	sg n
      	öel=nud	d		A	pl n
      	ütle	nud		V	nud
viimaks	vii	maks		V	maks
       	viimaks	0		D	
et	et	0		J	
temal	tema	l		P	sg ad
selle	see	0		P	sg g
     	sell	e		S	pl p
eest	eest	0		D	
    	eest	0		K	
    	esi	st		S	sg el
maksta	maks	ta		V	da
      	maks	ta		V	ta
on	ole	0		V	b
  	ole	0		V	vad
,	,			Z	
temale	tema	le		P	sg all
2	2	0		N	?
rub	####				
.	.			Z	
hõb	####				
.	.			Z	
G	G	0		Y	?
.	.			Z	
_	_			Z	
Kiil	kii	l		S	sg ad
    	kiil	0		S	sg n
ja	ja	0		J	
G	G	0		Y	?
.	.			Z	
_	_			Z	
Kraunile	####				
,	,			Z	
kumbkile	####				
1	1	0		N	?
rub	####				
.	.			Z	
25	25	0		N	?
kop	kop	0		Y	?
.	.			Z	
tema	tema	0		P	sg g
    	tema	0		P	sg n
maksnud	maks	nud		V	nud
       	maks=nu	d		S	pl n
       	maks=nud	0		A	
       	maks=nud	0		A	sg n
       	maks=nud	d		A	pl n
Joh	####				
.	.			Z	
koidule	koit	le		S	sg all
1	1	0		N	?
rub	####				
.	.			Z	
55	55	0		N	?
kop	kop	0		Y	?
.	.			Z	
välja	välja	0		D	
     	välja	0		V	o
     	väli	0		S	adt
     	väli	0		S	sg g
     	väli	0		S	sg p
ja	ja	0		J	
küsinud	küsi	nud		V	nud
       	küsi=nu	d		S	pl n
       	küsi=nud	0		A	
       	küsi=nud	0		A	sg n
       	küsi=nud	d		A	pl n
:	:			Z	
45	45	0		N	?
maksnu	maks=nu	0		S	sg g
      	maks=nu	0		S	sg n
teinekord	teine_kord	0		D	
,	,			Z	
siis	siis	0		D	
    	siis	0		J	
oleme	ole	me		V	me
klaariid	####				
?	?			Z	
Joh	####				
.	.			Z	
koid	koi	d		S	pl n
    	koi	d		S	sg p
vastanud	vasta	nud		V	nud
        	vasta=nud	0		A	
        	vasta=nud	0		A	sg n
        	vasta=nud	d		A	pl n
        	vastanu	d		S	pl n
:	:			Z	
Olgu	ole	gu		V	gu
nõnda	nõnda	0		D	
.	.			Z	
G	G	0		Y	?
.	.			Z	
_	_			Z	
Kiil	kii	l		S	sg ad
    	kiil	0		S	sg n
on	ole	0		V	b
  	ole	0		V	vad
oma	oma	0		A	sg g
   	oma	0		D	
   	oma	0		P	sg g
   	oma	0		S	sg g
   	oma	0		V	o
   	oma	0		A	sg n
   	oma	0		A	sg p
   	oma	0		P	sg n
   	oma	0		P	sg p
   	oma	0		S	sg n
   	oma	0		S	sg p
1	1	0		N	?
rub	####				
.	.			Z	
25	25	0		N	?
kop	kop	0		Y	?
.	.			Z	
ka	ka	0		D	
kätte	kätte	0		K	
     	käsi	tte		S	adt
saanud	saa	nud		V	nud
      	saa=nud	0		A	
      	saa=nud	0		A	sg n
      	saa=nud	d		A	pl n
      	saanu	d		S	pl n
ja	ja	0		J	
G	G	0		Y	?
.	.			Z	
_	_			Z	
Kraun	####				
1	1	0		N	?
rub	####				
,	,			Z	
25	25	0		N	?
kop	kop	0		Y	?
.	.			Z	
veel	veel	0		D	
    	vesi	l		S	sg ad
võlgu	võlg	u		S	pl p
     	võlgu	0		D	
.	.			Z	
teised	teine	d		O	pl n
      	teine	d		P	pl n
on	ole	0		V	b
  	ole	0		V	vad
rahul	rahu	l		S	sg ad
     	rahul	0		D	
,	,			Z	
aga	aga	0		J	
Joh	####				
.	.			Z	
koid	koi	d		S	pl n
    	koi	d		S	sg p
nõuab	nõud	b		V	b
nüüd	nüüd	0		D	
tema	tema	0		P	sg g
    	tema	0		P	sg n
käest	käest	0		K	
     	käsi	st		S	sg el
45	45	0		N	?
kop	kop	0		Y	?
asemeel	ase_meel	0		S	sg n
       	ase_mesi	l		S	sg ad
3	3	0		N	?
rub	####				
.	.			Z	
Gustav	Gustav	0		H	sg n
Kiil	kii	l		S	sg ad
    	kiil	0		S	sg n
ja	ja	0		J	
Gustav	Gustav	0		H	sg n
Kraun	####				
tunistavad	####				
et	et	0		J	
nad	tema	d		P	pl n
raha	raha	0		S	sg g
    	raha	0		S	sg n
    	raha	0		S	sg p
poolest	pool	st		N	sg el
       	pool	st		S	sg el
       	poolene	t		A	sg p
       	poolest	0		K	
selle	see	0		P	sg g
     	sell	e		S	pl p
luubi	luup	0		S	sg g
     	luupi	0		V	o
juures	juur	s		S	sg in
      	juures	0		D	
      	juures	0		K	
ühed	üks	d		N	pl n
    	üks	d		P	pl n
jaomehed	jao_mees	d		S	pl n
on	ole	0		V	b
  	ole	0		V	vad
aga	aga	0		J	
Joh	####				
.	.			Z	
koid	koi	d		S	pl n
    	koi	d		S	sg p
seal	seal	0		D	
    	siga	l		A	sg ad
    	siga	l		S	sg ad
juures	juur	s		S	sg in
      	juures	0		D	
      	juures	0		K	
rohkem	rohkem	0		D	
tööd	töö	d		S	pl n
    	töö	d		S	sg p
teinud	tege	nud		V	nud
      	tei=nud	0		A	
      	tei=nud	0		A	sg n
      	tei=nud	d		A	pl n
      	teinu	d		S	pl n
.	.			Z	
nemad	tema	d		P	pl n
on	ole	0		V	b
  	ole	0		V	vad
kumbki	kumbki	0		P	sg n
rahul	rahu	l		S	sg ad
     	rahul	0		D	
selle	see	0		P	sg g
     	sell	e		S	pl p
1	1	0		N	?
rub	####				
.	.			Z	
25	25	0		N	?
kop	kop	0		Y	?
.	.			Z	
ja	ja	0		J	
ei	ei	0		D	
  	ei	0		V	neg
nõua	nõud	0		V	o
enam	enam	0		C	sg n
    	enam	0		D	
.	.			Z	
kohus	kohu	s		V	s
     	kohus	0		S	sg n
tegi	sina	0	gi	P	pl g
    	tege	i		V	s
    	sina	0	gi	P	pl n
otsust	otsus	t		S	sg p
:	:			Z	
et	et	0		J	
Joh	####				
.	.			Z	
koid	koi	d		S	pl n
    	koi	d		S	sg p
mitte	mitte	0		D	
varsti	varsti	0		D	
Karl	Karl	0		H	sg n
Terasega	terane	ga		A	sg kom
        	teras	ga		S	sg kom
kindelt	####				
kaupa	kaup	0		S	adt
     	kaup	0		S	sg p
     	kaupa	0		K	
poole	pool	0		N	sg g
     	pool	0		S	sg g
     	pool	e		S	pl p
     	poole	0		K	
     	poole	0		S	sg n
teinud	tege	nud		V	nud
      	tei=nud	0		A	
      	tei=nud	0		A	sg n
      	tei=nud	d		A	pl n
      	teinu	d		S	pl n
,	,			Z	
piire	piir	e		S	pl p
     	piire	0		S	sg n
K_	####				
.	.			Z	
_	_			Z	
Teras	tera	s		S	sg in
     	teras	0		S	sg n
maksma	maks	ma		V	ma
peab	pida	b		V	b
,	,			Z	
ega	ega	0		D	
   	ega	0		J	
teiste	teine	te		O	pl g
      	teine	te		P	pl g
osalistega	osaline	tega		A	pl kom
seda	see	da		P	sg p
läbi	läbi	0		D	
    	läbi	0		K	
    	läbi	0		V	o
rääkinud	rääki	nud		V	nud
        	rääki=nu	d		S	pl n
        	rääki=nud	0		A	
        	rääki=nud	0		A	sg n
        	rääki=nud	d		A	pl n
,	,			Z	
peab	pida	b		V	b
Joh	####				
.	.			Z	
koid	koi	d		S	pl n
    	koi	d		S	sg p
nüüd	nüüd	0		D	
sellega	see	ga		P	sg kom
rahul	rahu	l		S	sg ad
     	rahul	0		D	
olema	ole	ma		V	ma
,	,			Z	
et	et	0		J	
K_	####				
.	.			Z	
_	_			Z	
Teras	tera	s		S	sg in
     	teras	0		S	sg n
temale	tema	le		P	sg all
veel	veel	0		D	
    	vesi	l		S	sg ad
maksab	maks	b		V	b
,	,			Z	
selle	see	0		P	sg g
     	sell	e		S	pl p
45	45	0		N	?
kop	kop	0		Y	?
.	.			Z	
asemeel	ase_meel	0		S	sg n
       	ase_mesi	l		S	sg ad
mis	mis	0		P	pl n
   	mis	0		P	sg n
tal	tema	l		P	sg ad
esimese	esimene	0		O	sg g
       	esimene	0		P	sg g
kaupäeva	####				
järel	järel	0		D	
     	järel	0		K	
saada	saa	da		V	da
     	saat	0		V	o
     	saa	da		V	ta
on	ole	0		V	b
  	ole	0		V	vad
.	.			Z	
1	1	0		N	?
rub	####				
.	.			Z	
hõb	####				
.	.			Z	
