ette	ette	0		D	
    	ette	0		K	
    	esi	tte		S	adt
ei	ei	0		D	
  	ei	0		V	neg
tulnud	tul=nud	0		A	
      	tul=nud	0		A	sg n
      	tul=nud	d		A	pl n
      	tule	nud		V	nud
      	tulnu	d		S	pl n
kedagi	keegi	dagi		P	sg p
.	.			Z	
kohtuvanem	kohtu_vanem	0		C	sg n
          	kohtu_vanem	0		S	sg n
:	:			Z	
J	J	0		Y	?
Kask	kask	0		S	sg n
I	I	0		O	?
 	I	0		Y	?
 	j	0		Y	?
korvamees	####				
J	J	0		Y	?
Rnnus	####				
II	II	0		O	?
  	II	0		Y	?
  	jj	0		Y	?
korvamees	####				
J	J	0		Y	?
koplik	kop=lik	0		A	sg n
kirjut	kirju	t		A	sg p
Marlei	####				
