kohtu	kohtu	0		V	o
     	kohus	0		S	sg g
korra	kord	0		S	sg g
pärast	pära	st		S	sg el
      	pärane	t		A	sg p
      	pärast	0		D	
      	pärast	0		K	
olid	ole	id		V	sid
Piisalu	pii_salu	0		S	sg g
       	pii_salu	0		S	sg n
       	pii_salu	0		S	sg p
valla	vald	0		S	sg g
     	valla	0		D	
kohtu	kohtu	0		V	o
     	kohus	0		S	sg g
hoones	hoone	s		S	sg in
kokku	kokku	0		D	
     	kogu	0		S	adt
tulnud	tul=nud	0		A	
      	tul=nud	0		A	sg n
      	tul=nud	d		A	pl n
      	tule	nud		V	nud
      	tulnu	d		S	pl n
.	.			Z	
kohtu	kohtu	0		V	o
     	kohus	0		S	sg g
vanem	vanem	0		C	sg n
     	vanem	0		S	sg n
Jaan	Jaan	0		H	sg n
    	jaan	0		S	sg n
    	jaan	0		Y	?
Karing	####				
kohtu	kohtu	0		V	o
     	kohus	0		S	sg g
kõrvamehed	kõrva_mees	d		S	pl n
Kustas	Kusta	s		H	sg in
      	Kustas	0		H	sg n
severman	####				
Jaan	Jaan	0		H	sg n
    	jaan	0		S	sg n
    	jaan	0		Y	?
Liiv	liiv	0		S	sg n
.	.			Z	
kohtu	kohtu	0		V	o
     	kohus	0		S	sg g
käiad	käi	d		S	pl n
     	käia	d		V	d
ei	ei	0		D	
  	ei	0		V	neg
olnud	ol=nud	0		A	
     	ol=nud	0		A	sg n
     	ol=nud	d		A	pl n
     	ole	nud		V	nud
     	olnu	d		S	pl n
,	,			Z	
ega	ega	0		D	
   	ega	0		J	
tulnud	tul=nud	0		A	
      	tul=nud	0		A	sg n
      	tul=nud	d		A	pl n
      	tule	nud		V	nud
      	tulnu	d		S	pl n
mingisugust	mingi_sugune	t		P	sg p
kaebtuse	####				
asja	asi	0		S	adt
    	asi	0		S	sg g
    	asi	0		S	sg p
ette	ette	0		D	
    	ette	0		K	
    	esi	tte		S	adt
võta	võt	0		V	o
.	.			Z	
kohtu	kohtu	0		V	o
     	kohus	0		S	sg g
vanem	vanem	0		C	sg n
     	vanem	0		S	sg n
Jaan	Jaan	0		H	sg n
    	jaan	0		S	sg n
    	jaan	0		Y	?
Karing	####				
(	(			Z	
allkiri	all_kiri	0		S	sg n
)	)			Z	
kohtu	kohtu	0		V	o
     	kohus	0		S	sg g
kõrvamehed	kõrva_mees	d		S	pl n
Kustas	Kusta	s		H	sg in
      	Kustas	0		H	sg n
severman	####				
XXX	XXX	0		O	?
   	XXX	0		Y	?
Jaan	Jaan	0		H	sg n
    	jaan	0		S	sg n
    	jaan	0		Y	?
Liiv	liiv	0		S	sg n
XXX	XXX	0		O	?
   	XXX	0		Y	?
kirjutaja	kirjutaja	0		S	sg g
         	kirjutaja	0		S	sg n
Kustas	Kusta	s		H	sg in
      	Kustas	0		H	sg n
Liiv	liiv	0		S	sg n
