Andrus	Andrus	0		H	sg n
Pissa	####				
naine	naine	0		S	sg n
Ingel	ingel	0		S	sg n
     	Inge	l		H	sg ad
astus	astu	s		V	s
ette	ette	0		D	
    	ette	0		K	
    	esi	tte		S	adt
ja	ja	0		J	
kaebab	kaeba	b		V	b
et	et	0		J	
16m	16m	0		Y	?
Juli	####				
kuu	kuu	0		S	sg g
   	kuu	0		S	sg n
päeva	päev	0		S	adt
     	päev	0		S	sg g
     	päev	0		S	sg p
õhtul	õhtu	l		S	sg ad
läinud	läinu	d		S	pl n
      	läinud	0		A	
      	läinud	0		A	sg n
      	läinud	d		A	pl n
      	mine	nud		V	nud
tema	tema	0		P	sg g
    	tema	0		P	sg n
aida	ait	0		S	sg g
ja	ja	0		J	
Joh	####				
.	.			Z	
ender	####				
naine	naine	0		S	sg n
Juula	####				
tulnud	tul=nud	0		A	
      	tul=nud	0		A	sg n
      	tul=nud	d		A	pl n
      	tule	nud		V	nud
      	tulnu	d		S	pl n
ka	ka	0		D	
sinna	sinna	0		D	
oma	oma	0		A	sg g
   	oma	0		D	
   	oma	0		P	sg g
   	oma	0		S	sg g
   	oma	0		V	o
   	oma	0		A	sg n
   	oma	0		A	sg p
   	oma	0		P	sg n
   	oma	0		P	sg p
   	oma	0		S	sg n
   	oma	0		S	sg p
lauda	laud	0		S	adt
     	laut	0		S	sg g
     	laud	0		S	sg p
juurde	juur	de		S	adt
      	juurde	0		D	
      	juurde	0		K	
,	,			Z	
tõstnud	tõst	nud		V	nud
       	tõst=nu	d		S	pl n
       	tõst=nud	0		A	
       	tõst=nud	0		A	sg n
       	tõst=nud	d		A	pl n
jala	jalg	0		S	sg g
    	jala	0		D	
kahe	kaks	0		N	sg g
käega	käsi	ga		S	sg kom
kahe	kaks	0		N	sg g
käega	käsi	ga		S	sg kom
üles	üles	0		D	
ja	ja	0		J	
näidanud	näita	nud		V	nud
        	näida=nu	d		S	pl n
        	näida=nud	0		A	
        	näida=nud	0		A	sg n
        	näida=nud	d		A	pl n
temale	tema	le		P	sg all
perset	perse	t		S	sg p
.	.			Z	
küsimise	küsimine	0		S	sg g
peale	pea	le		S	sg all
     	peale	0		D	
     	peale	0		K	
,	,			Z	
kas	kas	0		D	
ta	tema	0		P	sg g
  	tema	0		P	sg n
just	just	0		D	
    	just	0		I	
ise	ise	0		A	
   	ise	0		D	
   	ise	0		P	pl n
   	ise	0		P	sg n
seda	see	da		P	sg p
perse	perse	0		S	adt
     	perse	0		S	sg n
     	perse	0		S	sg g
näitamist	näitamine	t		S	sg p
näinud	näi	nud		V	nud
      	näge	nud		V	nud
      	näi=nud	0		A	
      	näi=nud	0		A	sg n
      	näi=nud	d		A	pl n
      	näinu	d		S	pl n
,	,			Z	
vastab	vasta	b		V	b
Ingel	ingel	0		S	sg n
     	Inge	l		H	sg ad
Pissa	####				
,	,			Z	
et	et	0		J	
mitte	mitte	0		D	
tema	tema	0		P	sg g
    	tema	0		P	sg n
ise	ise	0		A	
   	ise	0		D	
   	ise	0		P	pl n
   	ise	0		P	sg n
seda	see	da		P	sg p
poole	pool	0		N	sg g
     	pool	0		S	sg g
     	pool	e		S	pl p
     	poole	0		K	
     	poole	0		S	sg n
näinud	näi	nud		V	nud
      	näge	nud		V	nud
      	näi=nud	0		A	
      	näi=nud	0		A	sg n
      	näi=nud	d		A	pl n
      	näinu	d		S	pl n
,	,			Z	
ta	tema	0		P	sg g
  	tema	0		P	sg n
olnud	ol=nud	0		A	
     	ol=nud	0		A	sg n
     	ol=nud	d		A	pl n
     	ole	nud		V	nud
     	olnu	d		S	pl n
aida	ait	0		S	sg g
sees	sees	0		D	
    	sees	0		K	
aga	aga	0		J	
tema	tema	0		P	sg g
    	tema	0		P	sg n
11	11	0		N	?
aastane	aastane	0		A	sg n
tüttar	####				
kes	kes	0		P	pl n
   	kes	0		P	sg n
aida	ait	0		S	sg g
ukse	uks	0		S	sg g
ees	ees	0		D	
   	ees	0		K	
   	esi	s		S	sg in
seisnud	seis	nud		V	nud
       	seis=nu	d		S	pl n
       	seis=nud	0		A	
       	seis=nud	0		A	sg n
       	seis=nud	d		A	pl n
,	,			Z	
on	ole	0		V	b
  	ole	0		V	vad
seda	see	da		P	sg p
näinud	näi	nud		V	nud
      	näge	nud		V	nud
      	näi=nud	0		A	
      	näi=nud	0		A	sg n
      	näi=nud	d		A	pl n
      	näinu	d		S	pl n
ja	ja	0		J	
temale	tema	le		P	sg all
rääkinud	rääki	nud		V	nud
        	rääki=nu	d		S	pl n
        	rääki=nud	0		A	
        	rääki=nud	0		A	sg n
        	rääki=nud	d		A	pl n
.	.			Z	
saanud	saa	nud		V	nud
      	saa=nud	0		A	
      	saa=nud	0		A	sg n
      	saa=nud	d		A	pl n
      	saanu	d		S	pl n
ta	tema	0		P	sg g
  	tema	0		P	sg n
toa	tuba	0		S	sg g
juurde	juur	de		S	adt
      	juurde	0		D	
      	juurde	0		K	
läinud	läinu	d		S	pl n
      	läinud	0		A	
      	läinud	0		A	sg n
      	läinud	d		A	pl n
      	mine	nud		V	nud
öelnud	öel=nu	d		S	pl n
      	öel=nud	0		A	
      	öel=nud	0		A	sg n
      	öel=nud	d		A	pl n
      	ütle	nud		V	nud
tema	tema	0		P	sg g
    	tema	0		P	sg n
Juula	####				
endrile	####				
:	:			Z	
mis	mis	0		P	pl n
   	mis	0		P	sg n
mina	mina	0		P	sg n
    	mina	0		S	sg g
    	mina	0		S	sg n
    	mina	0		S	sg p
nii	nii	0		D	
kaugelt	kauge	lt		A	sg abl
       	kaugelt	0		D	
aru	aru	0		S	sg g
   	aru	0		S	sg n
   	aru	0		S	sg p
võisin	või	sin		V	sin
saada	saa	da		V	da
     	saat	0		V	o
     	saa	da		V	ta
,	,			Z	
on	ole	0		V	b
  	ole	0		V	vad
su	sina	0		P	sg g
perse	perse	0		S	adt
     	perse	0		S	sg n
     	perse	0		S	sg g
teist	sina	st		P	pl el
     	tee	ist		S	pl el
     	teist	0		D	
     	teine	t		O	sg p
     	teine	t		P	sg p
moodi	mood	0		S	adt
     	mood	0		S	sg p
     	moodi	0		A	
     	moodi	0		K	
,	,			Z	
või	või	0		S	sg g
   	või	0		V	o
   	või	0		D	
   	või	0		J	
   	või	0		S	sg n
on	ole	0		V	b
  	ole	0		V	vad
ta	tema	0		P	sg g
  	tema	0		P	sg n
niisama	nii_sama	0		D	
kui	kui	0		D	
   	kui	0		J	
mull	mull	0		S	sg n
.	.			Z	
J_	####				
.	.			Z	
_	_			Z	
ender	####				
lõimanud	####				
seal	seal	0		D	
    	siga	l		A	sg ad
    	siga	l		S	sg ad
teda	tema	da		P	sg p
,	,			Z	
öeldes	ütle	des		V	des
:	:			Z	
sina	sina	0		P	sg n
    	sina	0		S	sg g
    	sina	0		V	o
    	sina	0		S	sg n
    	sina	0		S	sg p
kurati	####				
varga	varas	0		S	sg g
ema	ema	0		S	sg g
   	ema	0		S	sg n
   	ema	0		S	sg p
!	!			Z	
tema	tema	0		P	sg g
    	tema	0		P	sg n
öelnud	öel=nu	d		S	pl n
      	öel=nud	0		A	
      	öel=nud	0		A	sg n
      	öel=nud	d		A	pl n
      	ütle	nud		V	nud
:	:			Z	
seda	see	da		P	sg p
ma	mina	0		P	sg n
kuulen	kuul	n		V	n
teiti	####				
käest	käest	0		K	
     	käsi	st		S	sg el
juba	juba	0		D	
ammu	amb	0		S	sg g
    	ambu	0		V	o
    	ammu	0		D	
    	ammu	0		V	o
.	.			Z	
vähe	vähe	0		D	
aja	aeg	0		S	sg g
   	aja	0		V	o
pärast	pära	st		S	sg el
      	pärane	t		A	sg p
      	pärast	0		D	
      	pärast	0		K	
tulnud	tul=nud	0		A	
      	tul=nud	0		A	sg n
      	tul=nud	d		A	pl n
      	tule	nud		V	nud
      	tulnu	d		S	pl n
Juula	####				
ender	####				
mees	mees	0		S	sg n
    	mesi	s		S	sg in
Johan	Johan	0		H	sg n
tema	tema	0		P	sg g
    	tema	0		P	sg n
õue	õu	0		S	adt
   	õu	0		S	sg g
   	õue	0		D	
   	õu	0		S	sg p
ka	ka	0		D	
öelnud	öel=nu	d		S	pl n
      	öel=nud	0		A	
      	öel=nud	0		A	sg n
      	öel=nud	d		A	pl n
      	ütle	nud		V	nud
:	:			Z	
mis	mis	0		P	pl n
   	mis	0		P	sg n
sa	sina	0		P	sg n
kurat	kurat	0		I	
     	kurat	0		S	sg n
mei	####				
rahvast	rahvas	st		S	sg el
       	rahvas	t		S	sg p
tahad	taht	d		V	d
,	,			Z	
ja	ja	0		J	
andnud	and	nud		V	nud
      	and=nu	d		S	pl n
      	and=nud	0		A	
      	and=nud	0		A	sg n
      	and=nud	d		A	pl n
temale	tema	le		P	sg all
kolm	kolm	0		N	sg n
hoopi	hoop	0		S	adt
     	hoop	0		S	sg p
.	.			Z	
tema	tema	0		P	sg g
    	tema	0		P	sg n
astunud	astu	nud		V	nud
       	astu=nu	d		S	pl n
       	astu=nud	0		A	
       	astu=nud	0		A	sg n
       	astu=nud	d		A	pl n
kotta	kott	0		S	adt
     	koda	0		S	adt
     	kott	0		S	sg p
,	,			Z	
võtnud	võt	nud		V	nud
      	võt=nu	d		S	pl n
      	võt=nud	0		A	
      	võt=nud	0		A	sg n
      	võt=nud	d		A	pl n
väikese	väike	0		A	sg g
       	väikene	0		A	sg g
keppi	kepp	0		S	adt
     	kepp	0		S	sg p
otsa	ots	0		S	adt
    	ots	0		S	sg g
    	otsa	0		D	
    	otsa	0		K	
    	otsa	0		V	o
    	ots	0		S	sg p
kätte	kätte	0		K	
     	käsi	tte		S	adt
ja	ja	0		J	
öelnud	öel=nu	d		S	pl n
      	öel=nud	0		A	
      	öel=nud	0		A	sg n
      	öel=nud	d		A	pl n
      	ütle	nud		V	nud
J_	####				
.	.			Z	
_	_			Z	
endrile	####				
:	:			Z	
kui	kui	0		D	
   	kui	0		J	
sa	sina	0		P	sg n
veel	veel	0		D	
    	vesi	l		S	sg ad
mu	mina	0		P	sg g
õue	õu	0		S	adt
   	õu	0		S	sg g
   	õue	0		D	
   	õu	0		S	sg p
astatud	####				
,	,			Z	
peksnu	peks=nu	0		S	sg g
      	peks=nu	0		S	sg n
ma	mina	0		P	sg n
snd	snd	0		Y	?
läbi	läbi	0		D	
    	läbi	0		K	
    	läbi	0		V	o
.	.			Z	
Joh	####				
.	.			Z	
ender	####				
tahtnud	taht	nud		V	nud
       	taht=nu	d		S	pl n
       	taht=nud	0		A	
       	taht=nud	0		A	sg n
       	taht=nud	d		A	pl n
keppi	kepp	0		S	adt
     	kepp	0		S	sg p
tema	tema	0		P	sg g
    	tema	0		P	sg n
käest	käest	0		K	
     	käsi	st		S	sg el
ära	ära	0		D	
   	ära	0		V	neg o
võtta	võt	a		V	da
,	,			Z	
tema	tema	0		P	sg g
    	tema	0		P	sg n
hakanud	hakka	nud		V	nud
       	haka=nu	d		S	pl n
       	haka=nud	0		A	
       	haka=nud	0		A	sg n
       	haka=nud	d		A	pl n
kahe	kaks	0		N	sg g
käega	käsi	ga		S	sg kom
Joh	####				
.	.			Z	
ender	####				
kätte	kätte	0		K	
     	käsi	tte		S	adt
kinni	kinni	0		D	
,	,			Z	
tahtnuf	####				
teda	tema	da		P	sg p
koja	koda	0		S	sg g
sisse	siss	e		S	pl p
     	sisse	0		D	
     	sisse	0		K	
tõmmata	tõmba	ta		V	da
       	tõmba	ta		V	ta
,	,			Z	
seal	seal	0		D	
    	siga	l		A	sg ad
    	siga	l		S	sg ad
maha	maha	0		D	
võtta	võt	a		V	da
ja	ja	0		J	
peks	peks	0		S	sg n
anda	and	a		V	da
,	,			Z	
aga	aga	0		J	
tema	tema	0		P	sg g
    	tema	0		P	sg n
mees	mees	0		S	sg n
    	mesi	s		S	sg in
on	ole	0		V	b
  	ole	0		V	vad
teda	tema	da		P	sg p
keelanud	keela	nud		V	nud
        	keela=nu	d		S	pl n
        	keela=nud	0		A	
        	keela=nud	0		A	sg n
        	keela=nud	d		A	pl n
ja	ja	0		J	
Joh	####				
.	.			Z	
endri	####				
välja	välja	0		D	
     	välja	0		V	o
     	väli	0		S	adt
     	väli	0		S	sg g
     	väli	0		S	sg p
lükanud	lükka	nud		V	nud
       	lüka=nu	d		S	pl n
       	lüka=nud	0		A	
       	lüka=nud	0		A	sg n
       	lüka=nud	d		A	pl n
.	.			Z	
tema	tema	0		P	sg g
    	tema	0		P	sg n
öelnud	öel=nu	d		S	pl n
      	öel=nud	0		A	
      	öel=nud	0		A	sg n
      	öel=nud	d		A	pl n
      	ütle	nud		V	nud
Joh	####				
.	.			Z	
endrile	####				
:	:			Z	
sa	sina	0		P	sg n
maksad	maks	d		S	pl n
      	maks	d		V	d
mu	mina	0		P	sg g
hoobid	hoop	d		S	pl n
!	!			Z	
Joh	####				
.	.			Z	
ender	####				
küsinud	küsi	nud		V	nud
       	küsi=nu	d		S	pl n
       	küsi=nud	0		A	
       	küsi=nud	0		A	sg n
       	küsi=nud	d		A	pl n
:	:			Z	
kes	kes	0		P	pl n
   	kes	0		P	sg n
sina	sina	0		P	sg n
    	sina	0		S	sg g
    	sina	0		V	o
    	sina	0		S	sg n
    	sina	0		S	sg p
ka	ka	0		D	
oled	ole	d		V	d
?	?			Z	
tema	tema	0		P	sg g
    	tema	0		P	sg n
öelnud	öel=nu	d		S	pl n
      	öel=nud	0		A	
      	öel=nud	0		A	sg n
      	öel=nud	d		A	pl n
      	ütle	nud		V	nud
:	:			Z	
Ma	mina	0		P	sg n
olen	ole	n		V	n
Andrus	Andrus	0		H	sg n
Pissa	####				
naine	naine	0		S	sg n
!	!			Z	
Joh	####				
.	.			Z	
ender	####				
öelnud	öel=nu	d		S	pl n
      	öel=nud	0		A	
      	öel=nud	0		A	sg n
      	öel=nud	d		A	pl n
      	ütle	nud		V	nud
:	:			Z	
on	ole	0		V	b
  	ole	0		V	vad
see	see	0		P	sg n
ka	ka	0		D	
kellegi	keegi	gi		P	sg g
mees	mees	0		S	sg n
    	mesi	s		S	sg in
,	,			Z	
see	see	0		P	sg n
on	ole	0		V	b
  	ole	0		V	vad
vana	vana	0		A	sg g
    	vana	0		A	sg n
    	vana	0		A	sg p
    	vana	0		S	sg g
    	vana	0		S	sg n
    	vana	0		S	sg p
lammas	lammas	0		S	sg n
.	.			Z	
mull	mull	0		S	sg n
on	ole	0		V	b
  	ole	0		V	vad
talitajate	talitaja	te		S	pl g
poolest	pool	st		N	sg el
       	pool	st		S	sg el
       	poolene	t		A	sg p
       	poolest	0		K	
luba	luba	0		S	sg n
    	luba	0		V	o
    	luba	0		S	sg p
käes	käes	0		K	
    	käsi	s		S	sg in
sinud	####				
kas	kas	0		D	
surnuks	surnu	ks		S	sg tr
       	surnud	ks		A	sg tr
       	sure	nuks		V	nuks
peksta	peks	ta		V	da
      	peks	ta		V	ta
.	.			Z	
Ingel	ingel	0		S	sg n
     	Inge	l		H	sg ad
läkk	####				
ja	ja	0		J	
Anna	and	0		V	o
    	Anna	0		H	sg g
    	Anna	0		H	sg n
    	anna	0		S	sg g
    	anna	0		S	sg n
Tõu	tõu	0		S	sg g
   	tõug	0		S	sg g
   	tõu	0		S	sg n
on	ole	0		V	b
  	ole	0		V	vad
viimsed	viimne	d		A	pl n
saanad	####				
pealt	pea	lt		S	sg abl
     	pealt	0		D	
     	pealt	0		K	
kuulnud	kuul	nud		V	nud
       	kuul=nud	0		A	
       	kuul=nud	0		A	sg n
       	kuul=nud	d		A	pl n
       	kuulnu	d		S	pl n
.	.			Z	
Andrus	Andrus	0		H	sg n
Pissa	####				
astus	astu	s		V	s
ette	ette	0		D	
    	ette	0		K	
    	esi	tte		S	adt
ja	ja	0		J	
rääkis	rääki	s		V	s
välja	välja	0		D	
     	välja	0		V	o
     	väli	0		S	adt
     	väli	0		S	sg g
     	väli	0		S	sg p
,	,			Z	
et	et	0		J	
tema	tema	0		P	sg g
    	tema	0		P	sg n
tüli	tüli	0		S	sg g
    	tüli	0		S	sg n
    	tüli	0		S	sg p
hakatust	hakatus	t		S	sg p
poole	pool	0		N	sg g
     	pool	0		S	sg g
     	pool	e		S	pl p
     	poole	0		K	
     	poole	0		S	sg n
näinud	näi	nud		V	nud
      	näge	nud		V	nud
      	näi=nud	0		A	
      	näi=nud	0		A	sg n
      	näi=nud	d		A	pl n
      	näinu	d		S	pl n
.	.			Z	
kaks	kaks	0		N	sg n
hoopi	hoop	0		S	adt
     	hoop	0		S	sg p
on	ole	0		V	b
  	ole	0		V	vad
Joh	####				
.	.			Z	
ender	####				
tema	tema	0		P	sg g
    	tema	0		P	sg n
näes	####				
tema	tema	0		P	sg g
    	tema	0		P	sg n
naist	naine	t		S	sg p
löönud	löö	nud		V	nud
      	löö=nu	d		S	pl n
      	löö=nud	0		A	
      	löö=nud	0		A	sg n
      	löö=nud	d		A	pl n
ja	ja	0		J	
teda	tema	da		P	sg p
lambaks	lammas	ks		S	sg tr
sõimanud	sõima	nud		V	nud
        	sõima=nu	d		S	pl n
        	sõima=nud	0		A	
        	sõima=nud	0		A	sg n
        	sõima=nud	d		A	pl n
ja	ja	0		J	
öelnud	öel=nu	d		S	pl n
      	öel=nud	0		A	
      	öel=nud	0		A	sg n
      	öel=nud	d		A	pl n
      	ütle	nud		V	nud
omal	oma	l		A	sg ad
    	oma	l		P	sg ad
    	oma	l		S	sg ad
talitajate	talitaja	te		S	pl g
poolest	pool	st		N	sg el
       	pool	st		S	sg el
       	poolene	t		A	sg p
       	poolest	0		K	
luba	luba	0		S	sg n
    	luba	0		V	o
    	luba	0		S	sg p
olevat	ole	vat		V	vat
      	olev	t		A	sg p
      	olev	t		S	sg p
tema	tema	0		P	sg g
    	tema	0		P	sg n
naist	naine	t		S	sg p
kas	kas	0		D	
surnuks	surnu	ks		S	sg tr
       	surnud	ks		A	sg tr
       	sure	nuks		V	nuks
peksta	peks	ta		V	da
      	peks	ta		V	ta
.	.			Z	
ütleb	ütle	b		V	b
et	et	0		J	
ei	ei	0		D	
  	ei	0		V	neg
tema	tema	0		P	sg g
    	tema	0		P	sg n
ega	ega	0		D	
   	ega	0		J	
ta	tema	0		P	sg g
  	tema	0		P	sg n
naine	naine	0		S	sg n
Joh	####				
.	.			Z	
nende	see	de		P	pl g
     	tema	de		P	pl g
mitte	mitte	0		D	
poole	pool	0		N	sg g
     	pool	0		S	sg g
     	pool	e		S	pl p
     	poole	0		K	
     	poole	0		S	sg n
löönud	löö	nud		V	nud
      	löö=nu	d		S	pl n
      	löö=nud	0		A	
      	löö=nud	0		A	sg n
      	löö=nud	d		A	pl n
.	.			Z	
Juula	####				
ender	####				
astus	astu	s		V	s
ette	ette	0		D	
    	ette	0		K	
    	esi	tte		S	adt
ja	ja	0		J	
sai	saa	i		V	s
   	sai	0		S	sg n
see	see	0		P	sg n
asi	asi	0		S	sg n
   	asi	0		V	o
tall	tall	0		S	sg n
ette	ette	0		D	
    	ette	0		K	
    	esi	tte		S	adt
pandud	pan=du	d		S	pl n
      	pan=dud	0		A	
      	pan=dud	0		A	sg n
      	pan=dud	d		A	pl n
      	pane	dud		V	tud
,	,			Z	
rääkis	rääki	s		V	s
välja	välja	0		D	
     	välja	0		V	o
     	väli	0		S	adt
     	väli	0		S	sg g
     	väli	0		S	sg p
,	,			Z	
et	et	0		J	
nimetatud	nimeta	tud		V	tud
         	nimetatu	d		S	pl n
         	nimetatud	0		A	
         	nimetatud	0		A	sg n
         	nimetatud	d		A	pl n
õhtul	õhtu	l		S	sg ad
olnud	ol=nud	0		A	
     	ol=nud	0		A	sg n
     	ol=nud	d		A	pl n
     	ole	nud		V	nud
     	olnu	d		S	pl n
Ingel	ingel	0		S	sg n
     	Inge	l		H	sg ad
Pissa	####				
oma	oma	0		A	sg g
   	oma	0		D	
   	oma	0		P	sg g
   	oma	0		S	sg g
   	oma	0		V	o
   	oma	0		A	sg n
   	oma	0		A	sg p
   	oma	0		P	sg n
   	oma	0		P	sg p
   	oma	0		S	sg n
   	oma	0		S	sg p
aidas	ait	s		S	sg in
ja	ja	0		J	
tema	tema	0		P	sg g
    	tema	0		P	sg n
poole	pool	0		N	sg g
     	pool	0		S	sg g
     	pool	e		S	pl p
     	poole	0		K	
     	poole	0		S	sg n
teda	tema	da		P	sg p
koguni	kogu	ni		S	sg ter
      	koguni	0		D	
näinud	näi	nud		V	nud
      	näge	nud		V	nud
      	näi=nud	0		A	
      	näi=nud	0		A	sg n
      	näi=nud	d		A	pl n
      	näinu	d		S	pl n
kui	kui	0		D	
   	kui	0		J	
tema	tema	0		P	sg g
    	tema	0		P	sg n
oma	oma	0		A	sg g
   	oma	0		D	
   	oma	0		P	sg g
   	oma	0		S	sg g
   	oma	0		V	o
   	oma	0		A	sg n
   	oma	0		A	sg p
   	oma	0		P	sg n
   	oma	0		P	sg p
   	oma	0		S	sg n
   	oma	0		S	sg p
lauda	laud	0		S	adt
     	laut	0		S	sg g
     	laud	0		S	sg p
juures	juur	s		S	sg in
      	juures	0		D	
      	juures	0		K	
käinud	käi	nud		V	nud
      	käi=nud	0		A	
      	käi=nud	0		A	sg n
      	käi=nud	d		A	pl n
      	käinu	d		S	pl n
oksi	oks	i		S	pl p
toomas	too	mas		V	mas
.	.			Z	
temal	tema	l		P	sg ad
läinud	läinu	d		S	pl n
      	läinud	0		A	
      	läinud	0		A	sg n
      	läinud	d		A	pl n
      	mine	nud		V	nud
seal	seal	0		D	
    	siga	l		A	sg ad
    	siga	l		S	sg ad
üks	üks	0		N	sg n
   	üks	0		P	sg n
uga	####				
jala	jalg	0		S	sg g
    	jala	0		D	
sisse	siss	e		S	pl p
     	sisse	0		D	
     	sisse	0		K	
,	,			Z	
et	et	0		J	
ta	tema	0		P	sg g
  	tema	0		P	sg n
palja	paljas	0		A	sg g
jalu	jalu	0		D	
olnud	ol=nud	0		A	
     	ol=nud	0		A	sg n
     	ol=nud	d		A	pl n
     	ole	nud		V	nud
     	olnu	d		S	pl n
,	,			Z	
tema	tema	0		P	sg g
    	tema	0		P	sg n
tõstnud	tõst	nud		V	nud
       	tõst=nu	d		S	pl n
       	tõst=nud	0		A	
       	tõst=nud	0		A	sg n
       	tõst=nud	d		A	pl n
jala	jalg	0		S	sg g
    	jala	0		D	
üles	üles	0		D	
,	,			Z	
võtnud	võt	nud		V	nud
      	võt=nu	d		S	pl n
      	võt=nud	0		A	
      	võt=nud	0		A	sg n
      	võt=nud	d		A	pl n
uga	####				
välja	välja	0		D	
     	välja	0		V	o
     	väli	0		S	adt
     	väli	0		S	sg g
     	väli	0		S	sg p
.	.			Z	
selle	see	0		P	sg g
     	sell	e		S	pl p
pärast	pära	st		S	sg el
      	pärane	t		A	sg p
      	pärast	0		D	
      	pärast	0		K	
on	ole	0		V	b
  	ole	0		V	vad
tema	tema	0		P	sg g
    	tema	0		P	sg n
kord	kord	0		D	
    	kord	0		S	sg n
jalga	jalg	0		S	adt
     	jalg	0		S	sg p
     	jalga	0		D	
tõstnud	tõst	nud		V	nud
       	tõst=nu	d		S	pl n
       	tõst=nud	0		A	
       	tõst=nud	0		A	sg n
       	tõst=nud	d		A	pl n
,	,			Z	
aga	aga	0		J	
mitte	mitte	0		D	
I_	####				
.	.			Z	
_	_			Z	
Pissale	####				
perset	perse	t		S	sg p
näidanud	näita	nud		V	nud
        	näida=nu	d		S	pl n
        	näida=nud	0		A	
        	näida=nud	0		A	sg n
        	näida=nud	d		A	pl n
,	,			Z	
sest	see	st		P	sg el
    	sest	0		J	
ta	tema	0		P	sg g
  	tema	0		P	sg n
poole	pool	0		N	sg g
     	pool	0		S	sg g
     	pool	e		S	pl p
     	poole	0		K	
     	poole	0		S	sg n
teda	tema	da		P	sg p
koguni	kogu	ni		S	sg ter
      	koguni	0		D	
näinud	näi	nud		V	nud
      	näge	nud		V	nud
      	näi=nud	0		A	
      	näi=nud	0		A	sg n
      	näi=nud	d		A	pl n
      	näinu	d		S	pl n
ega	ega	0		D	
   	ega	0		J	
sana	####				
temaga	tema	ga		P	sg kom
rääkinud	rääki	nud		V	nud
        	rääki=nu	d		S	pl n
        	rääki=nud	0		A	
        	rääki=nud	0		A	sg n
        	rääki=nud	d		A	pl n
.	.			Z	
pärast	pära	st		S	sg el
      	pärane	t		A	sg p
      	pärast	0		D	
      	pärast	0		K	
tulnud	tul=nud	0		A	
      	tul=nud	0		A	sg n
      	tul=nud	d		A	pl n
      	tule	nud		V	nud
      	tulnu	d		S	pl n
tema	tema	0		P	sg g
    	tema	0		P	sg n
oma	oma	0		A	sg g
   	oma	0		D	
   	oma	0		P	sg g
   	oma	0		S	sg g
   	oma	0		V	o
   	oma	0		A	sg n
   	oma	0		A	sg p
   	oma	0		P	sg n
   	oma	0		P	sg p
   	oma	0		S	sg n
   	oma	0		S	sg p
uksest	uks	st		S	sg el
õue	õu	0		S	adt
   	õu	0		S	sg g
   	õue	0		D	
   	õu	0		S	sg p
,	,			Z	
Ingel	ingel	0		S	sg n
     	Inge	l		H	sg ad
Pissa	####				
olnud	ol=nud	0		A	
     	ol=nud	0		A	sg n
     	ol=nud	d		A	pl n
     	ole	nud		V	nud
     	olnu	d		S	pl n
ka	ka	0		D	
väljas	välja	s		V	s
      	väli	s		S	sg in
      	väljas	0		D	
ja	ja	0		J	
öelnud	öel=nu	d		S	pl n
      	öel=nud	0		A	
      	öel=nud	0		A	sg n
      	öel=nud	d		A	pl n
      	ütle	nud		V	nud
temale	tema	le		P	sg all
:	:			Z	
näita	näita	0		V	o
veel	veel	0		D	
    	vesi	l		S	sg ad
,	,			Z	
näita	näita	0		V	o
veel	veel	0		D	
    	vesi	l		S	sg ad
!	!			Z	
tema	tema	0		P	sg g
    	tema	0		P	sg n
küsinud	küsi	nud		V	nud
       	küsi=nu	d		S	pl n
       	küsi=nud	0		A	
       	küsi=nud	0		A	sg n
       	küsi=nud	d		A	pl n
:	:			Z	
mis	mis	0		P	pl n
   	mis	0		P	sg n
asja	asi	0		S	adt
    	asi	0		S	sg g
    	asi	0		S	sg p
ma	mina	0		P	sg n
sulle	sina	lle		P	sg all
pean	pida	n		V	n
näitama	näita	ma		V	ma
,	,			Z	
mull	mull	0		S	sg n
poole	pool	0		N	sg g
     	pool	0		S	sg g
     	pool	e		S	pl p
     	poole	0		K	
     	poole	0		S	sg n
midagi	miski	dagi		P	sg p
näidata	näita	ta		V	da
       	näita	ta		V	ta
!	!			Z	
kui	kui	0		D	
   	kui	0		J	
tahad	taht	d		V	d
vaadata	vaata	ta		V	da
       	vaata	ta		V	ta
,	,			Z	
siis	siis	0		D	
    	siis	0		J	
vaata	vaata	0		V	o
varast	vara	st		S	sg el
      	varane	t		A	sg p
      	varas	t		S	sg p
oma	oma	0		A	sg g
   	oma	0		D	
   	oma	0		P	sg g
   	oma	0		S	sg g
   	oma	0		V	o
   	oma	0		A	sg n
   	oma	0		A	sg p
   	oma	0		P	sg n
   	oma	0		P	sg p
   	oma	0		S	sg n
   	oma	0		S	sg p
juures	juur	s		S	sg in
      	juures	0		D	
      	juures	0		K	
_	_			Z	
seda	see	da		P	sg p
öelnud	öel=nu	d		S	pl n
      	öel=nud	0		A	
      	öel=nud	0		A	sg n
      	öel=nud	d		A	pl n
      	ütle	nud		V	nud
ta	tema	0		P	sg g
  	tema	0		P	sg n
I_	####				
.	.			Z	
_	_			Z	
Pissa	####				
poja	poeg	0		S	sg g
    	poja	0		S	sg g
    	poja	0		S	sg n
    	poja	0		S	sg p
kohta	koht	0		S	adt
     	kohta	0		K	
     	kohta	0		V	o
     	koht	0		S	sg p
kes	kes	0		P	pl n
   	kes	0		P	sg n
seal	seal	0		D	
    	siga	l		A	sg ad
    	siga	l		S	sg ad
oma	oma	0		A	sg g
   	oma	0		D	
   	oma	0		P	sg g
   	oma	0		S	sg g
   	oma	0		V	o
   	oma	0		A	sg n
   	oma	0		A	sg p
   	oma	0		P	sg n
   	oma	0		P	sg p
   	oma	0		S	sg n
   	oma	0		S	sg p
ema	ema	0		S	sg g
   	ema	0		S	sg n
   	ema	0		S	sg p
juures	juur	s		S	sg in
      	juures	0		D	
      	juures	0		K	
seisnud	seis	nud		V	nud
       	seis=nu	d		S	pl n
       	seis=nud	0		A	
       	seis=nud	0		A	sg n
       	seis=nud	d		A	pl n
.	.			Z	
_	_			Z	
saanud	saa	nud		V	nud
      	saa=nud	0		A	
      	saa=nud	0		A	sg n
      	saa=nud	d		A	pl n
      	saanu	d		S	pl n
ta	tema	0		P	sg g
  	tema	0		P	sg n
mees	mees	0		S	sg n
    	mesi	s		S	sg in
Joh	####				
.	.			Z	
ender	####				
koju	kodu	0		S	adt
tulnud	tul=nud	0		A	
      	tul=nud	0		A	sg n
      	tul=nud	d		A	pl n
      	tule	nud		V	nud
      	tulnu	d		S	pl n
,	,			Z	
öelnud	öel=nu	d		S	pl n
      	öel=nud	0		A	
      	öel=nud	0		A	sg n
      	öel=nud	d		A	pl n
      	ütle	nud		V	nud
ta	tema	0		P	sg g
  	tema	0		P	sg n
oma	oma	0		A	sg g
   	oma	0		D	
   	oma	0		P	sg g
   	oma	0		S	sg g
   	oma	0		V	o
   	oma	0		A	sg n
   	oma	0		A	sg p
   	oma	0		P	sg n
   	oma	0		P	sg p
   	oma	0		S	sg n
   	oma	0		S	sg p
mehele	mees	le		S	sg all
et	et	0		J	
I_	####				
.	.			Z	
_	_			Z	
Pissa	####				
ei	ei	0		D	
  	ei	0		V	neg
anna	and	0		V	o
    	anna	0		S	sg g
    	anna	0		S	sg n
rahu	rahu	0		S	sg g
    	rahu	0		S	sg n
    	rahu	0		S	sg p
ja	ja	0		J	
rääkinud	rääki	nud		V	nud
        	rääki=nu	d		S	pl n
        	rääki=nud	0		A	
        	rääki=nud	0		A	sg n
        	rääki=nud	d		A	pl n
oma	oma	0		A	sg g
   	oma	0		D	
   	oma	0		P	sg g
   	oma	0		S	sg g
   	oma	0		V	o
   	oma	0		A	sg n
   	oma	0		A	sg p
   	oma	0		P	sg n
   	oma	0		P	sg p
   	oma	0		S	sg n
   	oma	0		S	sg p
mehele	mees	le		S	sg all
need	see	d		P	pl n
saanad	####				
,	,			Z	
mis	mis	0		P	pl n
   	mis	0		P	sg n
nad	tema	d		P	pl n
vahelatanud	####				
.	.			Z	
tema	tema	0		P	sg g
    	tema	0		P	sg n
mees	mees	0		S	sg n
    	mesi	s		S	sg in
läinud	läinu	d		S	pl n
      	läinud	0		A	
      	läinud	0		A	sg n
      	läinud	d		A	pl n
      	mine	nud		V	nud
välja	välja	0		D	
     	välja	0		V	o
     	väli	0		S	adt
     	väli	0		S	sg g
     	väli	0		S	sg p
ja	ja	0		J	
tema	tema	0		P	sg g
    	tema	0		P	sg n
jäänud	jää	nud		V	nud
      	jäänu	d		S	pl n
      	jäänud	0		A	
      	jäänud	0		A	sg n
      	jäänud	d		A	pl n
tuppa	tuba	0		S	adt
.	.			Z	
kuidas	kuidas	0		D	
tema	tema	0		P	sg g
    	tema	0		P	sg n
mees	mees	0		S	sg n
    	mesi	s		S	sg in
ja	ja	0		J	
Ingel	ingel	0		S	sg n
     	Inge	l		H	sg ad
Pissa	####				
õues	õu	s		S	sg in
    	õues	0		D	
riielnud	riidle	nud		V	nud
        	riiel=nu	d		S	pl n
        	riiel=nud	0		A	
        	riiel=nud	0		A	sg n
        	riiel=nud	d		A	pl n
ei	ei	0		D	
  	ei	0		V	neg
tea	tead	0		V	o
tema	tema	0		P	sg g
    	tema	0		P	sg n
.	.			Z	
Johann	Johann	0		H	sg n
ender	####				
astus	astu	s		V	s
ette	ette	0		D	
    	ette	0		K	
    	esi	tte		S	adt
ja	ja	0		J	
sai	saa	i		V	s
   	sai	0		S	sg n
see	see	0		P	sg n
asi	asi	0		S	sg n
   	asi	0		V	o
tall	tall	0		S	sg n
ettepandud	ette_pan=du	d		S	pl n
          	ette_pan=dud	0		A	
          	ette_pan=dud	0		A	sg n
          	ette_pan=dud	d		A	pl n
,	,			Z	
rääkis	rääki	s		V	s
välja	välja	0		D	
     	välja	0		V	o
     	väli	0		S	adt
     	väli	0		S	sg g
     	väli	0		S	sg p
et	et	0		J	
tema	tema	0		P	sg g
    	tema	0		P	sg n
oma	oma	0		A	sg g
   	oma	0		D	
   	oma	0		P	sg g
   	oma	0		S	sg g
   	oma	0		V	o
   	oma	0		A	sg n
   	oma	0		A	sg p
   	oma	0		P	sg n
   	oma	0		P	sg p
   	oma	0		S	sg n
   	oma	0		S	sg p
naise	naine	0		S	sg g
juttu	jutt	0		S	adt
     	jutt	0		S	sg p
peale	pea	le		S	sg all
     	peale	0		D	
     	peale	0		K	
välja	välja	0		D	
     	välja	0		V	o
     	väli	0		S	adt
     	väli	0		S	sg g
     	väli	0		S	sg p
läinud	läinu	d		S	pl n
      	läinud	0		A	
      	läinud	0		A	sg n
      	läinud	d		A	pl n
      	mine	nud		V	nud
ja	ja	0		J	
Ingel	ingel	0		S	sg n
     	Inge	l		H	sg ad
Pissa	####				
käest	käest	0		K	
     	käsi	st		S	sg el
küsinud	küsi	nud		V	nud
       	küsi=nu	d		S	pl n
       	küsi=nud	0		A	
       	küsi=nud	0		A	sg n
       	küsi=nud	d		A	pl n
:	:			Z	
mis	mis	0		P	pl n
   	mis	0		P	sg n
see	see	0		P	sg n
ometi	ometi	0		D	
on	ole	0		V	b
  	ole	0		V	vad
,	,			Z	
et	et	0		J	
sa	sina	0		P	sg n
meitele	####				
rahu	rahu	0		S	sg g
    	rahu	0		S	sg n
    	rahu	0		S	sg p
ei	ei	0		D	
  	ei	0		V	neg
anna	and	0		V	o
    	anna	0		S	sg g
    	anna	0		S	sg n
,	,			Z	
mis	mis	0		P	pl n
   	mis	0		P	sg n
sa	sina	0		P	sg n
ometi	ometi	0		D	
tahad	taht	d		V	d
?	?			Z	
Ingel	ingel	0		S	sg n
     	Inge	l		H	sg ad
Pissa	####				
öelnud	öel=nu	d		S	pl n
      	öel=nud	0		A	
      	öel=nud	0		A	sg n
      	öel=nud	d		A	pl n
      	ütle	nud		V	nud
temale	tema	le		P	sg all
:	:			Z	
sa	sina	0		P	sg n
oled	ole	d		V	d
mei	####				
maja	maja	0		S	sg g
    	maja	0		S	sg n
    	maja	0		S	sg p
vaht	vaht	0		S	sg n
,	,			Z	
sa	sina	0		P	sg n
ise	ise	0		A	
   	ise	0		D	
   	ise	0		P	pl n
   	ise	0		P	sg n
ütlesid	ütle	sid		V	sid
seda	see	da		P	sg p
ükskord	üks_kord	0		D	
meie	mina	0		P	pl g
    	mina	0		P	pl n
toas	tuba	s		S	sg in
.	.			Z	
tema	tema	0		P	sg g
    	tema	0		P	sg n
küsinud	küsi	nud		V	nud
       	küsi=nu	d		S	pl n
       	küsi=nud	0		A	
       	küsi=nud	0		A	sg n
       	küsi=nud	d		A	pl n
:	:			Z	
Millul	####				
sa	sina	0		P	sg n
mind	mina	d		P	sg p
oma	oma	0		A	sg g
   	oma	0		D	
   	oma	0		P	sg g
   	oma	0		S	sg g
   	oma	0		V	o
   	oma	0		A	sg n
   	oma	0		A	sg p
   	oma	0		P	sg n
   	oma	0		P	sg p
   	oma	0		S	sg n
   	oma	0		S	sg p
maja	maja	0		S	sg g
    	maja	0		S	sg n
    	maja	0		S	sg p
vahiks	vaht	ks		S	sg tr
      	vahti	ks		V	ks
tellisid	telli	sid		V	sid
?	?			Z	
Ingel	ingel	0		S	sg n
     	Inge	l		H	sg ad
Pissa	####				
öelnud	öel=nu	d		S	pl n
      	öel=nud	0		A	
      	öel=nud	0		A	sg n
      	öel=nud	d		A	pl n
      	ütle	nud		V	nud
:	:			Z	
tule	tuli	0		S	sg g
    	tule	0		V	o
kurat	kurat	0		I	
     	kurat	0		S	sg n
siia	siia	0		D	
    	siig	0		S	sg g
,	,			Z	
ma	mina	0		P	sg n
tahan	taht	n		V	n
sulle	sina	lle		P	sg all
näidata	näita	ta		V	da
       	näita	ta		V	ta
ja	ja	0		J	
tulnud	tul=nud	0		A	
      	tul=nud	0		A	sg n
      	tul=nud	d		A	pl n
      	tule	nud		V	nud
      	tulnu	d		S	pl n
temajuurde	tema_juur	de		S	adt
keppiga	kepp_iga	0		S	sg n
       	kepp_iga	0		S	sg p
.	.			Z	
tema	tema	0		P	sg g
    	tema	0		P	sg n
hakanud	hakka	nud		V	nud
       	haka=nu	d		S	pl n
       	haka=nud	0		A	
       	haka=nud	0		A	sg n
       	haka=nud	d		A	pl n
keppi	kepp	0		S	adt
     	kepp	0		S	sg p
otsast	ots	st		S	sg el
      	otsast	0		K	
kinni	kinni	0		D	
,	,			Z	
pidanud	pida	nud		V	nud
       	pida=nu	d		S	pl n
       	pida=nud	0		A	
       	pida=nud	0		A	sg n
       	pida=nud	d		A	pl n
keppi	kepp	0		S	adt
     	kepp	0		S	sg p
ta	tema	0		P	sg g
  	tema	0		P	sg n
käest	käest	0		K	
     	käsi	st		S	sg el
ära	ära	0		D	
   	ära	0		V	neg o
võtma	võt	ma		V	ma
aga	aga	0		J	
Ingel	ingel	0		S	sg n
     	Inge	l		H	sg ad
Pissa	####				
vedanud	veda	nud		V	nud
       	veda=nu	d		S	pl n
       	veda=nud	0		A	
       	veda=nud	0		A	sg n
       	veda=nud	d		A	pl n
teda	tema	da		P	sg p
kuni	kuni	0		J	
    	kuni	0		K	
oma	oma	0		A	sg g
   	oma	0		D	
   	oma	0		P	sg g
   	oma	0		S	sg g
   	oma	0		V	o
   	oma	0		A	sg n
   	oma	0		A	sg p
   	oma	0		P	sg n
   	oma	0		P	sg p
   	oma	0		S	sg n
   	oma	0		S	sg p
koja	koda	0		S	sg g
ukseni	uks	ni		S	sg ter
ja	ja	0		J	
tahtnud	taht	nud		V	nud
       	taht=nu	d		S	pl n
       	taht=nud	0		A	
       	taht=nud	0		A	sg n
       	taht=nud	d		A	pl n
teda	tema	da		P	sg p
kotta	kott	0		S	adt
     	koda	0		S	adt
     	kott	0		S	sg p
vedada	veda	da		V	da
,	,			Z	
aga	aga	0		J	
tema	tema	0		P	sg g
    	tema	0		P	sg n
lasknud	lask	nud		V	nud
       	lask=nu	d		S	pl n
       	lask=nud	0		A	
       	lask=nud	0		A	sg n
       	lask=nud	d		A	pl n
keppi	kepp	0		S	adt
     	kepp	0		S	sg p
omast	oma	st		A	sg el
     	oma	st		P	sg el
     	oma	st		S	sg el
     	omane	t		A	sg p
käest	käest	0		K	
     	käsi	st		S	sg el
lahti	laht	i		S	pl p
     	lahti	0		D	
ja	ja	0		J	
Ingel	ingel	0		S	sg n
     	Inge	l		H	sg ad
Pissa	####				
kukkunud	kukku	nud		V	nud
        	kukku=nu	d		S	pl n
        	kukku=nud	0		A	
        	kukku=nud	0		A	sg n
        	kukku=nud	d		A	pl n
vastu	vastu	0		D	
     	vastu	0		K	
seina	sein	0		S	adt
     	sein	0		S	sg g
     	sein	0		S	sg p
et	et	0		J	
tanu	tanu	0		S	sg g
    	tanu	0		S	sg n
    	tanu	0		S	sg p
pääst	####				
maha	maha	0		D	
kukkunud	kukku	nud		V	nud
        	kukku=nu	d		S	pl n
        	kukku=nud	0		A	
        	kukku=nud	0		A	sg n
        	kukku=nud	d		A	pl n
;	;			Z	
siis	siis	0		D	
    	siis	0		J	
öelnud	öel=nu	d		S	pl n
      	öel=nud	0		A	
      	öel=nud	0		A	sg n
      	öel=nud	d		A	pl n
      	ütle	nud		V	nud
ise	ise	0		A	
   	ise	0		D	
   	ise	0		P	pl n
   	ise	0		P	sg n
:	:			Z	
sa	sina	0		P	sg n
lõid	loo	id		V	sid
    	löö	id		V	sid
mind	mina	d		P	sg p
!	!			Z	
ja	ja	0		J	
ta	tema	0		P	sg g
  	tema	0		P	sg n
mees	mees	0		S	sg n
    	mesi	s		S	sg in
Andrus	Andrus	0		H	sg n
Pissa	####				
on	ole	0		V	b
  	ole	0		V	vad
ka	ka	0		D	
öelnud	öel=nu	d		S	pl n
      	öel=nud	0		A	
      	öel=nud	0		A	sg n
      	öel=nud	d		A	pl n
      	ütle	nud		V	nud
:	:			Z	
sa	sina	0		P	sg n
tuled	tuli	d		S	pl n
     	tule	d		V	d
siia	siia	0		D	
    	siig	0		S	sg g
teisi	teine	0		O	pl p
     	teine	0		P	pl p
peksma	peks	ma		V	ma
.	.			Z	
Joh	####				
.	.			Z	
ender	####				
ütleb	ütle	b		V	b
et	et	0		J	
Ingel	ingel	0		S	sg n
     	Inge	l		H	sg ad
Pissa	####				
ja	ja	0		J	
tema	tema	0		P	sg g
    	tema	0		P	sg n
lapsed	laps	d		S	pl n
kõige	kõik	0		P	sg g
     	kõige	0		D	
talve	talv	0		S	adt
     	talv	0		S	sg g
     	tali	0		S	adt
     	tali	0		S	sg g
     	talv	0		S	sg p
     	tali	0		S	sg p
neile	see	le		P	pl all
     	tema	le		P	pl all
rahu	rahu	0		S	sg g
    	rahu	0		S	sg n
    	rahu	0		S	sg p
ei	ei	0		D	
  	ei	0		V	neg
anna	and	0		V	o
    	anna	0		S	sg g
    	anna	0		S	sg n
ja	ja	0		J	
neid	neid	0		S	sg n
    	see	d		P	pl p
    	tema	d		P	pl p
sõimanud	sõima	nud		V	nud
        	sõima=nu	d		S	pl n
        	sõima=nud	0		A	
        	sõima=nud	0		A	sg n
        	sõima=nud	d		A	pl n
.	.			Z	
selle	see	0		P	sg g
     	sell	e		S	pl p
tüli	tüli	0		S	sg g
    	tüli	0		S	sg n
    	tüli	0		S	sg p
aegus	aegu	s		V	s
     	aegus	0		A	sg n
on	ole	0		V	b
  	ole	0		V	vad
Joh	####				
.	.			Z	
sihte	siht	e		S	pl p
oma	oma	0		A	sg g
   	oma	0		D	
   	oma	0		P	sg g
   	oma	0		S	sg g
   	oma	0		V	o
   	oma	0		A	sg n
   	oma	0		A	sg p
   	oma	0		P	sg n
   	oma	0		P	sg p
   	oma	0		S	sg n
   	oma	0		S	sg p
maja	maja	0		S	sg g
    	maja	0		S	sg n
    	maja	0		S	sg p
juurest	juur	st		S	sg el
       	juurest	0		K	
teda	tema	da		P	sg p
hüüdnud	hüüd	nud		V	nud
       	hüüd=nu	d		S	pl n
       	hüüd=nud	0		A	
       	hüüd=nud	0		A	sg n
       	hüüd=nud	d		A	pl n
:	:			Z	
sa	sina	0		P	sg n
oled	ole	d		V	d
nii	nii	0		D	
sitt	sitt	0		A	sg n
    	sitt	0		S	sg n
ja	ja	0		J	
jooksed	jooks	d		V	d
naise	naine	0		S	sg g
eest	eest	0		D	
    	eest	0		K	
    	esi	st		S	sg el
ära	ära	0		D	
   	ära	0		V	neg o
.	.			Z	
ja	ja	0		J	
M	M	0		O	?
 	M	0		Y	?
.	.			Z	
_	_			Z	
Tischlar	####				
on	ole	0		V	b
  	ole	0		V	vad
oma	oma	0		A	sg g
   	oma	0		D	
   	oma	0		P	sg g
   	oma	0		S	sg g
   	oma	0		V	o
   	oma	0		A	sg n
   	oma	0		A	sg p
   	oma	0		P	sg n
   	oma	0		P	sg p
   	oma	0		S	sg n
   	oma	0		S	sg p
õuest	õu	st		S	sg el
     	õuest	0		D	
ka	ka	0		D	
seda	see	da		P	sg p
tüli	tüli	0		S	sg g
    	tüli	0		S	sg n
    	tüli	0		S	sg p
pealt	pea	lt		S	sg abl
     	pealt	0		D	
     	pealt	0		K	
näinud	näi	nud		V	nud
      	näge	nud		V	nud
      	näi=nud	0		A	
      	näi=nud	0		A	sg n
      	näi=nud	d		A	pl n
      	näinu	d		S	pl n
.	.			Z	
Ingel	ingel	0		S	sg n
     	Inge	l		H	sg ad
läkk	####				
astus	astu	s		V	s
ette	ette	0		D	
    	ette	0		K	
    	esi	tte		S	adt
ja	ja	0		J	
sai	saa	i		V	s
   	sai	0		S	sg n
see	see	0		P	sg n
asi	asi	0		S	sg n
   	asi	0		V	o
tall	tall	0		S	sg n
ette	ette	0		D	
    	ette	0		K	
    	esi	tte		S	adt
pandud	pan=du	d		S	pl n
      	pan=dud	0		A	
      	pan=dud	0		A	sg n
      	pan=dud	d		A	pl n
      	pane	dud		V	tud
rääkis	rääki	s		V	s
välja	välja	0		D	
     	välja	0		V	o
     	väli	0		S	adt
     	väli	0		S	sg g
     	väli	0		S	sg p
:	:			Z	
et	et	0		J	
tema	tema	0		P	sg g
    	tema	0		P	sg n
tüli	tüli	0		S	sg g
    	tüli	0		S	sg n
    	tüli	0		S	sg p
hakatust	hakatus	t		S	sg p
ei	ei	0		D	
  	ei	0		V	neg
tea	tead	0		V	o
aga	aga	0		J	
kui	kui	0		D	
   	kui	0		J	
nemad	tema	d		P	pl n
Anna	and	0		V	o
    	Anna	0		H	sg g
    	Anna	0		H	sg n
    	anna	0		S	sg g
    	anna	0		S	sg n
Tõuga	tõu	ga		S	sg kom
     	tõug	ga		S	sg kom
kära	kära	0		S	sg g
    	kära	0		V	o
    	kära	0		S	sg n
    	kära	0		S	sg p
peale	pea	le		S	sg all
     	peale	0		D	
     	peale	0		K	
õue	õu	0		S	adt
   	õu	0		S	sg g
   	õue	0		D	
   	õu	0		S	sg p
tulnud	tul=nud	0		A	
      	tul=nud	0		A	sg n
      	tul=nud	d		A	pl n
      	tule	nud		V	nud
      	tulnu	d		S	pl n
_	_			Z	
elavad	ela	vad		V	vad
      	elav	d		A	pl n
      	elav	d		S	pl n
seal	seal	0		D	
    	siga	l		A	sg ad
    	siga	l		S	sg ad
nabris	####				
_	_			Z	
on	ole	0		V	b
  	ole	0		V	vad
tema	tema	0		P	sg g
    	tema	0		P	sg n
kuulnud	kuul	nud		V	nud
       	kuul=nud	0		A	
       	kuul=nud	0		A	sg n
       	kuul=nud	d		A	pl n
       	kuulnu	d		S	pl n
kui	kui	0		D	
   	kui	0		J	
Ingel	ingel	0		S	sg n
     	Inge	l		H	sg ad
Pissa	####				
öelnud	öel=nu	d		S	pl n
      	öel=nud	0		A	
      	öel=nud	0		A	sg n
      	öel=nud	d		A	pl n
      	ütle	nud		V	nud
:	:			Z	
sa	sina	0		P	sg n
pead	pea	d		S	pl n
    	pida	d		V	d
    	pea	d		S	sg p
mu	mina	0		P	sg g
3	3	0		N	?
koopi	####				
maksma	maks	ma		V	ma
!	!			Z	
Joh	####				
.	.			Z	
ender	####				
öelnud	öel=nu	d		S	pl n
      	öel=nud	0		A	
      	öel=nud	0		A	sg n
      	öel=nud	d		A	pl n
      	ütle	nud		V	nud
:	:			Z	
kurat	kurat	0		I	
     	kurat	0		S	sg n
,	,			Z	
ma	mina	0		P	sg n
maksnu	maks=nu	0		S	sg g
      	maks=nu	0		S	sg n
sinu	sina	0		P	sg g
hoobid	hoop	d		S	pl n
,	,			Z	
mull	mull	0		S	sg n
on	ole	0		V	b
  	ole	0		V	vad
talitajate	talitaja	te		S	pl g
poolest	pool	st		N	sg el
       	pool	st		S	sg el
       	poolene	t		A	sg p
       	poolest	0		K	
luba	luba	0		S	sg n
    	luba	0		V	o
    	luba	0		S	sg p
sinud	####				
kas	kas	0		D	
surnuks	surnu	ks		S	sg tr
       	surnud	ks		A	sg tr
       	sure	nuks		V	nuks
peksta	peks	ta		V	da
      	peks	ta		V	ta
.	.			Z	
Anna	and	0		V	o
    	Anna	0		H	sg g
    	Anna	0		H	sg n
    	anna	0		S	sg g
    	anna	0		S	sg n
Tõu	tõu	0		S	sg g
   	tõug	0		S	sg g
   	tõu	0		S	sg n
astus	astu	s		V	s
ette	ette	0		D	
    	ette	0		K	
    	esi	tte		S	adt
ja	ja	0		J	
rääkis	rääki	s		V	s
niisama	nii_sama	0		D	
kui	kui	0		D	
   	kui	0		J	
Ingel	ingel	0		S	sg n
     	Inge	l		H	sg ad
läkk	####				
.	.			Z	
Johann	Johann	0		H	sg n
sihte	siht	e		S	pl p
astus	astu	s		V	s
ette	ette	0		D	
    	ette	0		K	
    	esi	tte		S	adt
ja	ja	0		J	
sai	saa	i		V	s
   	sai	0		S	sg n
see	see	0		P	sg n
asi	asi	0		S	sg n
   	asi	0		V	o
tall	tall	0		S	sg n
ette	ette	0		D	
    	ette	0		K	
    	esi	tte		S	adt
pandud	pan=du	d		S	pl n
      	pan=dud	0		A	
      	pan=dud	0		A	sg n
      	pan=dud	d		A	pl n
      	pane	dud		V	tud
rääkis	rääki	s		V	s
välja	välja	0		D	
     	välja	0		V	o
     	väli	0		S	adt
     	väli	0		S	sg g
     	väli	0		S	sg p
:	:			Z	
et	et	0		J	
tema	tema	0		P	sg g
    	tema	0		P	sg n
midagi	miski	dagi		P	sg p
sest	see	st		P	sg el
    	sest	0		J	
tülist	tüli	st		S	sg el
poole	pool	0		N	sg g
     	pool	0		S	sg g
     	pool	e		S	pl p
     	poole	0		K	
     	poole	0		S	sg n
näinud	näi	nud		V	nud
      	näge	nud		V	nud
      	näi=nud	0		A	
      	näi=nud	0		A	sg n
      	näi=nud	d		A	pl n
      	näinu	d		S	pl n
,	,			Z	
kuid	kuu	id		S	pl p
    	kuid	0		J	
seda	see	da		P	sg p
kära	kära	0		S	sg g
    	kära	0		V	o
    	kära	0		S	sg n
    	kära	0		S	sg p
on	ole	0		V	b
  	ole	0		V	vad
tema	tema	0		P	sg g
    	tema	0		P	sg n
eemaalt	ee_maa	lt		S	sg abl
kuulnud	kuul	nud		V	nud
       	kuul=nud	0		A	
       	kuul=nud	0		A	sg n
       	kuul=nud	d		A	pl n
       	kuulnu	d		S	pl n
.	.			Z	
ei	ei	0		D	
  	ei	0		V	neg
ole	ole	0		V	o
tema	tema	0		P	sg g
    	tema	0		P	sg n
ka	ka	0		D	
neid	neid	0		S	sg n
    	see	d		P	pl p
    	tema	d		P	pl p
saanu	saanu	0		S	sg g
     	saanu	0		S	sg n
öelnud	öel=nu	d		S	pl n
      	öel=nud	0		A	
      	öel=nud	0		A	sg n
      	öel=nud	d		A	pl n
      	ütle	nud		V	nud
nii	nii	0		D	
kui	kui	0		D	
   	kui	0		J	
Joh	####				
.	.			Z	
ender	####				
tunistab	####				
kuulnud	kuul	nud		V	nud
       	kuul=nud	0		A	
       	kuul=nud	0		A	sg n
       	kuul=nud	d		A	pl n
       	kuulnu	d		S	pl n
olevat	ole	vat		V	vat
      	olev	t		A	sg p
      	olev	t		S	sg p
.	.			Z	
Mihkel	Mihkel	0		H	sg n
      	mihkel	0		A	sg n
      	mihkel	0		S	sg n
Tischlar	####				
astus	astu	s		V	s
ette	ette	0		D	
    	ette	0		K	
    	esi	tte		S	adt
ja	ja	0		J	
sai	saa	i		V	s
   	sai	0		S	sg n
see	see	0		P	sg n
asi	asi	0		S	sg n
   	asi	0		V	o
tall	tall	0		S	sg n
ette	ette	0		D	
    	ette	0		K	
    	esi	tte		S	adt
pandud	pan=du	d		S	pl n
      	pan=dud	0		A	
      	pan=dud	0		A	sg n
      	pan=dud	d		A	pl n
      	pane	dud		V	tud
rääkis	rääki	s		V	s
välja	välja	0		D	
     	välja	0		V	o
     	väli	0		S	adt
     	väli	0		S	sg g
     	väli	0		S	sg p
:	:			Z	
et	et	0		J	
tema	tema	0		P	sg g
    	tema	0		P	sg n
kül	####				
seda	see	da		P	sg p
kära	kära	0		S	sg g
    	kära	0		V	o
    	kära	0		S	sg n
    	kära	0		S	sg p
oma	oma	0		A	sg g
   	oma	0		D	
   	oma	0		P	sg g
   	oma	0		S	sg g
   	oma	0		V	o
   	oma	0		A	sg n
   	oma	0		A	sg p
   	oma	0		P	sg n
   	oma	0		P	sg p
   	oma	0		S	sg n
   	oma	0		S	sg p
õues	õu	s		S	sg in
    	õues	0		D	
kuulnud	kuul	nud		V	nud
       	kuul=nud	0		A	
       	kuul=nud	0		A	sg n
       	kuul=nud	d		A	pl n
       	kuulnu	d		S	pl n
aga	aga	0		J	
mitte	mitte	0		D	
saanu	saanu	0		S	sg g
     	saanu	0		S	sg n
poole	pool	0		N	sg g
     	pool	0		S	sg g
     	pool	e		S	pl p
     	poole	0		K	
     	poole	0		S	sg n
tähele	täht	le		S	sg all
      	tähele	0		X	
pannud	pan=nu	d		S	pl n
      	pan=nud	0		A	
      	pan=nud	0		A	sg n
      	pan=nud	d		A	pl n
      	pane	nud		V	nud
.	.			Z	
näinud	näi	nud		V	nud
      	näge	nud		V	nud
      	näi=nud	0		A	
      	näi=nud	0		A	sg n
      	näi=nud	d		A	pl n
      	näinu	d		S	pl n
poole	pool	0		N	sg g
     	pool	0		S	sg g
     	pool	e		S	pl p
     	poole	0		K	
     	poole	0		S	sg n
ta	tema	0		P	sg g
  	tema	0		P	sg n
ka	ka	0		D	
muud	muu	d		P	pl n
    	muu	d		S	pl n
    	muu	d		V	d
    	muu	d		P	sg p
    	muu	d		S	sg p
,	,			Z	
kui	kui	0		D	
   	kui	0		J	
et	et	0		J	
Ingel	ingel	0		S	sg n
     	Inge	l		H	sg ad
Pissa	####				
teivas	teivas	0		S	sg n
käes	käes	0		K	
    	käsi	s		S	sg in
Joh	####				
.	.			Z	
ender	####				
järel	järel	0		D	
     	järel	0		K	
läinud	läinu	d		S	pl n
      	läinud	0		A	
      	läinud	0		A	sg n
      	läinud	d		A	pl n
      	mine	nud		V	nud
.	.			Z	
suud	suu	d		S	pl n
    	suu	d		S	sg p
suud	suu	d		S	pl n
    	suu	d		S	sg p
vastu	vastu	0		D	
     	vastu	0		K	
pannes	pane	es		V	des
jäid	jää	id		V	sid
igaüks	iga_üks	0		P	sg n
kindlaks	kindel	ks		A	sg tr
oma	oma	0		A	sg g
   	oma	0		D	
   	oma	0		P	sg g
   	oma	0		S	sg g
   	oma	0		V	o
   	oma	0		A	sg n
   	oma	0		A	sg p
   	oma	0		P	sg n
   	oma	0		P	sg p
   	oma	0		S	sg n
   	oma	0		S	sg p
väljaütlemise	välja_ütlemine	0		S	sg g
juurde	juur	de		S	adt
      	juurde	0		D	
      	juurde	0		K	
.	.			Z	
et	et	0		J	
selgemat	selgem	t		C	sg p
tunnistust	tunnistus	t		S	sg p
ei	ei	0		D	
  	ei	0		V	neg
ole	ole	0		V	o
,	,			Z	
kas	kas	0		D	
Joh	####				
.	.			Z	
ender	####				
Ingel	ingel	0		S	sg n
     	Inge	l		H	sg ad
Pissat	####				
on	ole	0		V	b
  	ole	0		V	vad
löönud	löö	nud		V	nud
      	löö=nu	d		S	pl n
      	löö=nud	0		A	
      	löö=nud	0		A	sg n
      	löö=nud	d		A	pl n
või	või	0		S	sg g
   	või	0		V	o
   	või	0		D	
   	või	0		J	
   	või	0		S	sg n
mitte	mitte	0		D	
,	,			Z	
siiski	siiski	0		D	
saab	saa	b		V	b
Ingel	ingel	0		S	sg n
     	Inge	l		H	sg ad
läkk	####				
ja	ja	0		J	
Anna	and	0		V	o
    	Anna	0		H	sg g
    	Anna	0		H	sg n
    	anna	0		S	sg g
    	anna	0		S	sg n
Tõu	tõu	0		S	sg g
   	tõug	0		S	sg g
   	tõu	0		S	sg n
tunnistuse	tunnistus	0		S	sg g
järel	järel	0		D	
     	järel	0		K	
Joh	####				
.	.			Z	
ender	####				
süüdlaseks	süüdlane	ks		S	sg tr
tunnistatud	tunnista	tud		V	tud
           	tunnista=tu	d		S	pl n
           	tunnista=tud	0		A	
           	tunnista=tud	0		A	sg n
           	tunnista=tud	d		A	pl n
nende	see	de		P	pl g
     	tema	de		P	pl g
ähvardaamise	####				
saanade	####				
pärast	pära	st		S	sg el
      	pärane	t		A	sg p
      	pärast	0		D	
      	pärast	0		K	
ja	ja	0		J	
maksab	maks	b		V	b
2	2	0		N	?
rub	####				
.	.			Z	
hõb	####				
.	.			Z	
trahvi	trahv	0		S	adt
      	trahv	0		S	sg g
      	trahvi	0		V	o
      	trahv	0		S	sg p
.	.			Z	
Niisama	nii_sama	0		D	
ei	ei	0		D	
  	ei	0		V	neg
sa	sina	0		P	sg n
selgeks	selge	ks		A	sg tr
,	,			Z	
kas	kas	0		D	
Juula	####				
ender	####				
I_	####				
.	.			Z	
_	_			Z	
Pissale	####				
perset	perse	t		S	sg p
on	ole	0		V	b
  	ole	0		V	vad
näitnud	####				
või	või	0		S	sg g
   	või	0		V	o
   	või	0		D	
   	või	0		J	
   	või	0		S	sg n
mitte	mitte	0		D	
ja	ja	0		J	
seega	seega	0		D	
näitab	näita	b		V	b
et	et	0		J	
Ingel	ingel	0		S	sg n
     	Inge	l		H	sg ad
Pissa	####				
ise	ise	0		A	
   	ise	0		D	
   	ise	0		P	pl n
   	ise	0		P	sg n
see	see	0		P	sg n
tüli	tüli	0		S	sg g
    	tüli	0		S	sg n
    	tüli	0		S	sg p
alustaja	alustaja	0		S	sg g
        	alustaja	0		S	sg n
on	ole	0		V	b
  	ole	0		V	vad
ja	ja	0		J	
selle	see	0		P	sg g
     	sell	e		S	pl p
eest	eest	0		D	
    	eest	0		K	
    	esi	st		S	sg el
maksab	maks	b		V	b
Ingel	ingel	0		S	sg n
     	Inge	l		H	sg ad
Pissa	####				
1	1	0		N	?
rub	####				
.	.			Z	
hõb	####				
.	.			Z	
trahvi	trahv	0		S	adt
      	trahv	0		S	sg g
      	trahvi	0		V	o
      	trahv	0		S	sg p
.	.			Z	
peale	pea	le		S	sg all
     	peale	0		D	
     	peale	0		K	
seda	see	da		P	sg p
said	saa	id		V	sid
maanitsetud	####				
et	et	0		J	
rahus	rahu	s		S	sg in
peavad	pida	vad		V	vad
elama	ela	ma		V	ma
ja	ja	0		J	
mitte	mitte	0		D	
tülitsema	tülitse	ma		V	ma
.	.			Z	
et	et	0		J	
muud	muu	d		P	pl n
    	muu	d		S	pl n
    	muu	d		V	d
    	muu	d		P	sg p
    	muu	d		S	sg p
toimetust	toimetu	st		A	sg el
         	toimetus	t		S	sg p
polnud	ole	nud		V	neg nud
sai	saa	i		V	s
   	sai	0		S	sg n
kohtupäev	kohtu_päev	0		S	sg n
lõpetatud	lõpeta	tud		V	tud
         	lõpeta=tu	d		S	pl n
         	lõpetatud	0		A	
         	lõpetatud	0		A	sg n
         	lõpetatud	d		A	pl n
.	.			Z	
