kohtu	kohtu	0		V	o
     	kohus	0		S	sg g
korra	kord	0		S	sg g
pärast	pära	st		S	sg el
      	pärane	t		A	sg p
      	pärast	0		D	
      	pärast	0		K	
olid	ole	id		V	sid
Parila	####				
Kebla	####				
ja	ja	0		J	
Ridala	Ridala	0		H	sg g
      	Ridala	0		H	sg n
,	,			Z	
kogukonna	kogukond	0		S	sg g
majas	maja	s		S	sg in
kohtumehed	kohtu_mees	d		S	pl n
koos	koos	0		D	
    	koos	0		K	
    	koos	0		S	sg n
    	kubu	s		S	sg in
.	.			Z	
kohtu	kohtu	0		V	o
     	kohus	0		S	sg g
käiaid	####				
ei	ei	0		D	
  	ei	0		V	neg
olnud	ol=nud	0		A	
     	ol=nud	0		A	sg n
     	ol=nud	d		A	pl n
     	ole	nud		V	nud
     	olnu	d		S	pl n
ja	ja	0		J	
ei	ei	0		D	
  	ei	0		V	neg
olnud	ol=nud	0		A	
     	ol=nud	0		A	sg n
     	ol=nud	d		A	pl n
     	ole	nud		V	nud
     	olnu	d		S	pl n
ühtigi	ühtigi	0		D	
seletada	seleta	da		V	da
.	.			Z	
kohtu	kohtu	0		V	o
     	kohus	0		S	sg g
vanem	vanem	0		C	sg n
     	vanem	0		S	sg n
Ado	Ado	0		H	sg g
   	Ado	0		H	sg n
Kreis	kreis	0		S	sg n
XXX	XXX	0		O	?
   	XXX	0		Y	?
kohtu	kohtu	0		V	o
     	kohus	0		S	sg g
kämehed	####				
Kristov	####				
Luntsi	####				
XXX	XXX	0		O	?
   	XXX	0		Y	?
Villem	Villem	0		H	sg n
Meister	meister	0		S	sg n
XXX	XXX	0		O	?
   	XXX	0		Y	?
kirjutaja	kirjutaja	0		S	sg g
         	kirjutaja	0		S	sg n
T. Neider	####				
