Käändas	####				
sel	see	l		P	sg ad
   	sel	0		Y	?
06ndal	06=s	l		O	sg ad
Vebruaril	####				
1869	1869	0		N	?
istusid	ist	sid		S	pl p
       	istu	sid		V	sid
lauas	laud	s		S	sg in
kohtumees	kohtu_mees	0		S	sg n
Hans	Hans	0		H	sg n
Paumann	pau_mann	0		S	sg n
abimees	abi_mees	0		S	sg n
Toonu	too=nu	0		S	sg g
     	too=nu	0		S	sg n
Kirschmann	####				
.	.			Z	
abimees	abi_mees	0		S	sg n
Jüri	Jüri	0		H	sg g
    	Jüri	0		H	sg n
Mesner	####				
.	.			Z	
kaebamist	kaebamine	t		S	sg p
ei	ei	0		D	
  	ei	0		V	neg
olnud	ol=nud	0		A	
     	ol=nud	0		A	sg n
     	ol=nud	d		A	pl n
     	ole	nud		V	nud
     	olnu	d		S	pl n
.	.			Z	
kohtumees	kohtu_mees	0		S	sg n
Hans	Hans	0		H	sg n
Paumann	pau_mann	0		S	sg n
XXX	XXX	0		O	?
   	XXX	0		Y	?
abimees	abi_mees	0		S	sg n
Tõno	####				
Kirschmann	####				
XXX	XXX	0		O	?
   	XXX	0		Y	?
abimees	abi_mees	0		S	sg n
Jüri	Jüri	0		H	sg g
    	Jüri	0		H	sg n
Mesner	####				
XXX	XXX	0		O	?
   	XXX	0		Y	?
kirjutaja	kirjutaja	0		S	sg g
         	kirjutaja	0		S	sg n
HAunberg	####				
[	[			Z	
allkiri	all_kiri	0		S	sg n
]	]			Z	
