koos	koos	0		D	
    	koos	0		K	
    	koos	0		S	sg n
    	kubu	s		S	sg in
olid	ole	id		V	sid
Tallitaja	####				
:	:			Z	
P	P	0		Y	?
.	.			Z	
_	_			Z	
Naaber	naaber	0		S	sg n
,	,			Z	
abimehed	abi_mees	d		S	pl n
:	:			Z	
s	s	0		Y	?
.	.			Z	
läkk	####				
ja	ja	0		J	
V_	####				
.	.			Z	
_	_			Z	
Kutser	####				
kohtupäeva	kohtu_päev	0		S	adt
          	kohtu_päev	0		S	sg g
          	kohtu_päev	0		S	sg p
pidamas	pida	mas		V	mas
.	.			Z	
kohtu	kohtu	0		V	o
     	kohus	0		S	sg g
ette	ette	0		D	
    	ette	0		K	
    	esi	tte		S	adt
võeti	võt	ti		V	ti
asi	asi	0		S	sg n
   	asi	0		V	o
mis	mis	0		P	pl n
   	mis	0		P	sg n
protok	####				
.	.			Z	
VII	vii	0		V	o
   	vii	0		O	?
ja	ja	0		J	
8	8	0		N	?
al	####				
sel	see	l		P	sg ad
   	sel	0		Y	?
16	16	0		N	?
mail	maa	il		S	pl ad
    	mai	l		S	sg ad
    	mail	0		S	sg n
poolele	pool	le		N	sg all
       	pool	le		S	sg all
jäi	jää	i		V	s
.	.			Z	
Mare	Mare	0		H	sg g
    	Mare	0		H	sg n
Pill	pill	0		S	sg n
astus	astu	s		V	s
kohtu	kohtu	0		V	o
     	kohus	0		S	sg g
ette	ette	0		D	
    	ette	0		K	
    	esi	tte		S	adt
,	,			Z	
_	_			Z	
kes	kes	0		P	pl n
   	kes	0		P	sg n
24	24	0		N	?
tundi	tund	0		S	adt
     	tund	0		S	sg p
vangis	vang	s		S	sg in
peetatud	peeta	tud		V	tud
        	peeta=tu	d		S	pl n
        	peeta=tud	0		A	
        	peeta=tud	0		A	sg n
        	peeta=tud	d		A	pl n
sai	saa	i		V	s
   	sai	0		S	sg n
,	,			Z	
et	et	0		J	
oma	oma	0		A	sg g
   	oma	0		D	
   	oma	0		P	sg g
   	oma	0		S	sg g
   	oma	0		V	o
   	oma	0		A	sg n
   	oma	0		A	sg p
   	oma	0		P	sg n
   	oma	0		P	sg p
   	oma	0		S	sg n
   	oma	0		S	sg p
süüd	süü	d		S	pl n
    	süüd	0		S	sg n
    	süü	d		S	sg p
poole	pool	0		N	sg g
     	pool	0		S	sg g
     	pool	e		S	pl p
     	poole	0		K	
     	poole	0		S	sg n
ülestunistanud	####				
_	_			Z	
ja	ja	0		J	
tunistas	####				
nüüd	nüüd	0		D	
,	,			Z	
et	et	0		J	
tema	tema	0		P	sg g
    	tema	0		P	sg n
need	see	d		P	pl n
4	4	0		N	?
vabr	####				
.	.			Z	
lõnga	lõng	0		S	adt
     	lõng	0		S	sg g
     	lõng	0		S	sg p
poole	pool	0		N	sg g
     	pool	0		S	sg g
     	pool	e		S	pl p
     	poole	0		K	
     	poole	0		S	sg n
ja	ja	0		J	
2	2	0		N	?
väikest	väike	t		A	sg p
       	väikene	t		A	sg p
lõnga	lõng	0		S	adt
     	lõng	0		S	sg g
     	lõng	0		S	sg p
mässi	mässi	0		V	o
Liisu	liisk	0		S	sg g
     	liisu	0		V	o
Tarrale	####				
ühe	üks	0		N	sg g
   	üks	0		P	sg g
   	ühe	0		S	sg n
paari	paar	0		N	adt
     	paar	0		N	sg g
     	paar	0		S	adt
     	paar	0		S	sg g
     	paari	0		D	
     	paari	0		V	o
     	paar	0		N	sg p
     	paar	0		S	sg p
kinnaste	kinnas	te		S	pl g
eest	eest	0		D	
    	eest	0		K	
    	esi	st		S	sg el
on	ole	0		V	b
  	ole	0		V	vad
aanud	####				
.	.			Z	
tema	tema	0		P	sg g
    	tema	0		P	sg n
ütleb	ütle	b		V	b
neid	neid	0		S	sg n
    	see	d		P	pl p
    	tema	d		P	pl p
lõnga	lõng	0		S	adt
     	lõng	0		S	sg g
     	lõng	0		S	sg p
poolad	####				
Ann	Ann	0		H	sg n
Prähla	####				
käest	käest	0		K	
     	käsi	st		S	sg el
saanud	saa	nud		V	nud
      	saa=nud	0		A	
      	saa=nud	0		A	sg n
      	saa=nud	d		A	pl n
      	saanu	d		S	pl n
olevat	ole	vat		V	vat
      	olev	t		A	sg p
      	olev	t		S	sg p
,	,			Z	
kes	kes	0		P	pl n
   	kes	0		P	sg n
hilja	hilja	0		D	
aja	aeg	0		S	sg g
   	aja	0		V	o
eest	eest	0		D	
    	eest	0		K	
    	esi	st		S	sg el
ära	ära	0		D	
   	ära	0		V	neg o
surri	####				
.	.			Z	
Mare	Mare	0		H	sg g
    	Mare	0		H	sg n
Pill	pill	0		S	sg n
ütleb	ütle	b		V	b
:	:			Z	
et	et	0		J	
ta	tema	0		P	sg g
  	tema	0		P	sg n
seepärast	see_pärast	0		D	
oma	oma	0		A	sg g
   	oma	0		D	
   	oma	0		P	sg g
   	oma	0		S	sg g
   	oma	0		V	o
   	oma	0		A	sg n
   	oma	0		A	sg p
   	oma	0		P	sg n
   	oma	0		P	sg p
   	oma	0		S	sg n
   	oma	0		S	sg p
süüd	süü	d		S	pl n
    	süüd	0		S	sg n
    	süü	d		S	sg p
ennem	ennem	0		C	sg n
     	ennem	0		D	
poole	pool	0		N	sg g
     	pool	0		S	sg g
     	pool	e		S	pl p
     	poole	0		K	
     	poole	0		S	sg n
ülestunistanud	####				
,	,			Z	
et	et	0		J	
ta	tema	0		P	sg g
  	tema	0		P	sg n
arvanud	arva	nud		V	nud
       	arva=nu	d		S	pl n
       	arva=nud	0		A	
       	arva=nud	0		A	sg n
       	arva=nud	d		A	pl n
:	:			Z	
kes	kes	0		P	pl n
   	kes	0		P	sg n
mind	mina	d		P	sg p
ussub	####				
,	,			Z	
kui	kui	0		D	
   	kui	0		J	
ma	mina	0		P	sg n
ütelnu	ütel=nu	0		S	sg g
      	ütel=nu	0		S	sg n
,	,			Z	
et	et	0		J	
Ann	Ann	0		H	sg n
Prähla	####				
neid	neid	0		S	sg n
    	see	d		P	pl p
    	tema	d		P	pl p
mulle	mull	e		S	pl p
     	mina	lle		P	sg all
     	mulle	0		S	sg n
andis	and	is		V	s
.	.			Z	
Ann	Ann	0		H	sg n
Prähla	####				
isi	####				
on	ole	0		V	b
  	ole	0		V	vad
surnud	surnu	d		S	pl n
      	surnud	0		A	
      	surnud	0		A	sg n
      	surnud	d		A	pl n
      	sure	nud		V	nud
ja	ja	0		J	
mull	mull	0		S	sg n
poole	pool	0		N	sg g
     	pool	0		S	sg g
     	pool	e		S	pl p
     	poole	0		K	
     	poole	0		S	sg n
katagi	kat	0	gi	V	o
unistust	unistus	t		S	sg p
.	.			Z	
Mare	Mare	0		H	sg g
    	Mare	0		H	sg n
Pill	pill	0		S	sg n
tunistab	####				
nüüd	nüüd	0		D	
ka	ka	0		D	
tõeks	tõde	ks		S	sg tr
     	tõsi	ks		S	sg tr
,	,			Z	
et	et	0		J	
L_	####				
.	.			Z	
_	_			Z	
Tarra	####				
heile	####				
hommiku	hommik	0		S	sg g
nendel	see	del		P	pl ad
      	tema	del		P	pl ad
on	ole	0		V	b
  	ole	0		V	vad
käinud	käi	nud		V	nud
      	käi=nud	0		A	
      	käi=nud	0		A	sg n
      	käi=nud	d		A	pl n
      	käinu	d		S	pl n
,	,			Z	
aga	aga	0		J	
ütleb	ütle	b		V	b
et	et	0		J	
tema	tema	0		P	sg g
    	tema	0		P	sg n
ise	ise	0		A	
   	ise	0		D	
   	ise	0		P	pl n
   	ise	0		P	sg n
temaga	tema	ga		P	sg kom
mitte	mitte	0		D	
poole	pool	0		N	sg g
     	pool	0		S	sg g
     	pool	e		S	pl p
     	poole	0		K	
     	poole	0		S	sg n
rääkinud	rääki	nud		V	nud
        	rääki=nu	d		S	pl n
        	rääki=nud	0		A	
        	rääki=nud	0		A	sg n
        	rääki=nud	d		A	pl n
,	,			Z	
vaid	vaid	0		D	
    	vaid	0		J	
sel	see	l		P	sg ad
   	sel	0		Y	?
ajal	aeg	l		S	sg ad
    	ajal	0		K	
kodust	kodu	st		S	sg el
      	kodune	t		A	sg p
ära	ära	0		D	
   	ära	0		V	neg o
olnud	ol=nud	0		A	
     	ol=nud	0		A	sg n
     	ol=nud	d		A	pl n
     	ole	nud		V	nud
     	olnu	d		S	pl n
.	.			Z	
et	et	0		J	
nüüd	nüüd	0		D	
kohus	kohu	s		V	s
     	kohus	0		S	sg n
tema	tema	0		P	sg g
    	tema	0		P	sg n
tunistust	####				
,	,			Z	
et	et	0		J	
ta	tema	0		P	sg g
  	tema	0		P	sg n
need	see	d		P	pl n
poolad	####				
Ann	Ann	0		H	sg n
Prähla	####				
käest	käest	0		K	
     	käsi	st		S	sg el
on	ole	0		V	b
  	ole	0		V	vad
saanud	saa	nud		V	nud
      	saa=nud	0		A	
      	saa=nud	0		A	sg n
      	saa=nud	d		A	pl n
      	saanu	d		S	pl n
,	,			Z	
kes	kes	0		P	pl n
   	kes	0		P	sg n
surnud	surnu	d		S	pl n
      	surnud	0		A	
      	surnud	0		A	sg n
      	surnud	d		A	pl n
      	sure	nud		V	nud
on	ole	0		V	b
  	ole	0		V	vad
,	,			Z	
mitte	mitte	0		D	
uskuda	usku	da		V	da
ei	ei	0		D	
  	ei	0		V	neg
või	või	0		S	sg g
   	või	0		V	o
   	või	0		D	
   	või	0		J	
   	või	0		S	sg n
;	;			Z	
et	et	0		J	
aga	aga	0		J	
selgemat	selgem	t		C	sg p
tunistust	####				
loota	lood	ta		S	sg ab
     	loog	ta		S	sg ab
     	loot	a		V	da
     	lugu	ta		S	sg ab
ei	ei	0		D	
  	ei	0		V	neg
ole	ole	0		V	o
,	,			Z	
mõistis	mõist	is		V	s
kohus	kohu	s		V	s
     	kohus	0		S	sg n
teda	tema	da		P	sg p
süüaluseks	süü_alune	ks		A	sg tr
          	süü_alune	ks		S	sg tr
ja	ja	0		J	
tegi	sina	0	gi	P	pl g
    	tege	i		V	s
    	sina	0	gi	P	pl n
otsust	otsus	t		S	sg p
:	:			Z	
et	et	0		J	
Mare	Mare	0		H	sg g
    	Mare	0		H	sg n
Pill	pill	0		S	sg n
selle	see	0		P	sg g
     	sell	e		S	pl p
vargusesü	####				
eest	eest	0		D	
    	eest	0		K	
    	esi	st		S	sg el
maksab	maks	b		V	b
4	4	0		N	?
rub	####				
.	.			Z	
hõbe	hõbe	0		S	sg n
.	.			Z	
trahvi	trahv	0		S	adt
      	trahv	0		S	sg g
      	trahvi	0		V	o
      	trahv	0		S	sg p
.	.			Z	
1	1	0		N	?
rub	####				
.	.			Z	
50	50	0		N	?
kop	kop	0		Y	?
.	.			Z	
vabr	####				
.	.			Z	
val	####				
.	.			Z	
kahjutasumist	kahju_tasumine	t		S	sg p
,	,			Z	
ja	ja	0		J	
2	2	0		N	?
rub	####				
.	.			Z	
50	50	0		N	?
kop	kop	0		Y	?
.	.			Z	
vala	vala	0		V	o
laeka	laegas	0		S	adt
     	laegas	0		S	sg g
,	,			Z	
mis	mis	0		P	pl n
   	mis	0		P	sg n
2	2	0		N	?
näd	####				
.	.			Z	
aja	aeg	0		S	sg g
   	aja	0		V	o
sees	sees	0		D	
    	sees	0		K	
peab	pida	b		V	b
makstud	maks	tud		V	tud
       	maks=tu	d		S	pl n
       	maks=tud	0		A	
       	maks=tud	0		A	sg n
       	maks=tud	d		A	pl n
olema	ole	ma		V	ma
.	.			Z	
et	et	0		J	
muud	muu	d		P	pl n
    	muu	d		S	pl n
    	muu	d		V	d
    	muu	d		P	sg p
    	muu	d		S	sg p
toimetust	toimetu	st		A	sg el
         	toimetus	t		S	sg p
poole	pool	0		N	sg g
     	pool	0		S	sg g
     	pool	e		S	pl p
     	poole	0		K	
     	poole	0		S	sg n
olnud	ol=nud	0		A	
     	ol=nud	0		A	sg n
     	ol=nud	d		A	pl n
     	ole	nud		V	nud
     	olnu	d		S	pl n
sai	saa	i		V	s
   	sai	0		S	sg n
kohtupäev	kohtu_päev	0		S	sg n
lõpetatud	lõpeta	tud		V	tud
         	lõpeta=tu	d		S	pl n
         	lõpetatud	0		A	
         	lõpetatud	0		A	sg n
         	lõpetatud	d		A	pl n
.	.			Z	
