kaupäevakinnitus	####				
lesk	lesk	0		S	sg n
Ann	Ann	0		H	sg n
Müürisepp	müüri_sepp	0		S	sg n
ja	ja	0		J	
Andrus	Andrus	0		H	sg n
paras	paras	0		A	sg n
vahel	vahe	l		S	sg ad
     	vahel	0		D	
     	vahel	0		K	
.	.			Z	
8	8	0		N	?
)	)			Z	
Johann	Johann	0		H	sg n
Müürisepp	müüri_sepp	0		S	sg n
lesk	lesk	0		S	sg n
naine	naine	0		S	sg n
Ann	Ann	0		H	sg n
Müürisepp	müüri_sepp	0		S	sg n
müüb	müü	b		V	b
oma	oma	0		A	sg g
   	oma	0		D	
   	oma	0		P	sg g
   	oma	0		S	sg g
   	oma	0		V	o
   	oma	0		A	sg n
   	oma	0		A	sg p
   	oma	0		P	sg n
   	oma	0		P	sg p
   	oma	0		S	sg n
   	oma	0		S	sg p
maja	maja	0		S	sg g
    	maja	0		S	sg n
    	maja	0		S	sg p
mis	mis	0		P	pl n
   	mis	0		P	sg n
temal	tema	l		P	sg ad
siin	siin	0		D	
    	siin	0		S	sg n
Kerde	####				
vabriku	vabrik	0		S	sg g
krundi	krunt	0		S	sg g
      	krunti	0		V	o
peal	pea	l		S	sg ad
    	peal	0		D	
    	peal	0		K	
N 32	N32	0		Y	?
al	####				
seisab	seis	b		V	b
,	,			Z	
see	see	0		P	sg n
on	ole	0		V	b
  	ole	0		V	vad
,	,			Z	
elumaja	elu_maja	0		S	sg g
       	elu_maja	0		S	sg n
       	elu_maja	0		S	sg p
,	,			Z	
sealaot	####				
ja	ja	0		J	
pool	pool	0		K	
    	pool	0		N	sg n
    	pool	0		S	sg n
usõ	####				
saunast	saun	st		S	sg el
,	,			Z	
Andrus	Andrus	0		H	sg n
paarrasele	####				
80	80	0		N	?
(	(			Z	
kaheksakümne	kaheksa_kümmend	0		N	sg g
)	)			Z	
rub	####				
.	.			Z	
hõbe	hõbe	0		S	sg n
.	.			Z	
eest	eest	0		D	
    	eest	0		K	
    	esi	st		S	sg el
.	.			Z	
Andrus	Andrus	0		H	sg n
paras	paras	0		A	sg n
maksis	maks	is		V	s
      	maksi	s		S	sg in
siin	siin	0		D	
    	siin	0		S	sg n
kohtu	kohtu	0		V	o
     	kohus	0		S	sg g
ees	ees	0		D	
   	ees	0		K	
   	esi	s		S	sg in
see	see	0		P	sg n
80	80	0		N	?
(	(			Z	
kaheksakümmend	kaheksa_kümmend	0		N	sg n
)	)			Z	
rub	####				
.	.			Z	
hõbe	hõbe	0		S	sg n
.	.			Z	
Ann	Ann	0		H	sg n
Müüriseppale	####				
välja	välja	0		D	
     	välja	0		V	o
     	väli	0		S	adt
     	väli	0		S	sg g
     	väli	0		S	sg p
ja	ja	0		J	
on	ole	0		V	b
  	ole	0		V	vad
see	see	0		P	sg n
maja	maja	0		S	sg g
    	maja	0		S	sg n
    	maja	0		S	sg p
nüüd	nüüd	0		D	
Andrus	Andrus	0		H	sg n
paras	paras	0		A	sg n
omandus	omandus	0		S	sg n
.	.			Z	
Ann	Ann	0		H	sg n
Müürisepp	müüri_sepp	0		S	sg n
jaotas	jaota	s		V	s
seda	see	da		P	sg p
maja	maja	0		S	sg g
    	maja	0		S	sg n
    	maja	0		S	sg p
raha	raha	0		S	sg g
    	raha	0		S	sg n
    	raha	0		S	sg p
enese	ise	0		P	sg g
ja	ja	0		J	
oma	oma	0		A	sg g
   	oma	0		D	
   	oma	0		P	sg g
   	oma	0		S	sg g
   	oma	0		V	o
   	oma	0		A	sg n
   	oma	0		A	sg p
   	oma	0		P	sg n
   	oma	0		P	sg p
   	oma	0		S	sg n
   	oma	0		S	sg p
laste	laps	te		S	pl g
     	last	e		S	pl p
vahel	vahe	l		S	sg ad
     	vahel	0		D	
     	vahel	0		K	
järgmisel	järgmine	l		A	sg ad
viisil	viis	l		S	sg ad
      	viisil	0		K	
:	:			Z	
tema	tema	0		P	sg g
    	tema	0		P	sg n
ise	ise	0		A	
   	ise	0		D	
   	ise	0		P	pl n
   	ise	0		P	sg n
,	,			Z	
Ann	Ann	0		H	sg n
Müürisepp	müüri_sepp	0		S	sg n
sai	saa	i		V	s
   	sai	0		S	sg n
20	20	0		N	?
rub	####				
.	.			Z	
hõbe	hõbe	0		S	sg n
.	.			Z	
tema	tema	0		P	sg g
    	tema	0		P	sg n
poeg	poeg	0		S	sg n
,	,			Z	
Karl	Karl	0		H	sg n
Mürisepp	####				
sai	saa	i		V	s
   	sai	0		S	sg n
selle	see	0		P	sg g
     	sell	e		S	pl p
eest	eest	0		D	
    	eest	0		K	
    	esi	st		S	sg el
et	et	0		J	
oma	oma	0		A	sg g
   	oma	0		D	
   	oma	0		P	sg g
   	oma	0		S	sg g
   	oma	0		V	o
   	oma	0		A	sg n
   	oma	0		A	sg p
   	oma	0		P	sg n
   	oma	0		P	sg p
   	oma	0		S	sg n
   	oma	0		S	sg p
isa	isa	0		S	sg g
   	isa	0		S	sg n
   	isa	0		S	sg p
võlad	võlg	d		S	pl n
ära	ära	0		D	
   	ära	0		V	neg o
maksis	maks	is		V	s
      	maksi	s		S	sg in
:	:			Z	
40	40	0		N	?
rub	####				
.	.			Z	
hõbe	hõbe	0		S	sg n
.	.			Z	
tema	tema	0		P	sg g
    	tema	0		P	sg n
poeg	poeg	0		S	sg n
,	,			Z	
Peeter	Peeter	0		H	sg n
Müürisepp	müüri_sepp	0		S	sg n
sai	saa	i		V	s
   	sai	0		S	sg n
:	:			Z	
10	10	0		N	?
rub	####				
.	.			Z	
hõbe	hõbe	0		S	sg n
.	.			Z	
tema	tema	0		P	sg g
    	tema	0		P	sg n
tütar	tütar	0		S	sg n
Mari	Mari	0		H	sg g
    	mari	0		S	sg g
    	mari	0		S	sg n
    	Mari	0		H	sg n
    	mari	0		S	sg p
Müürisepp	müüri_sepp	0		S	sg n
sai	saa	i		V	s
   	sai	0		S	sg n
:	:			Z	
10	10	0		N	?
rub	####				
.	.			Z	
hõbe	hõbe	0		S	sg n
.	.			Z	
tema	tema	0		P	sg g
    	tema	0		P	sg n
tüttar	####				
Liisa	Liisa	0		H	sg g
     	Liisa	0		H	sg n
Müürisepp	müüri_sepp	0		S	sg n
kes	kes	0		P	pl n
   	kes	0		P	sg n
juba	juba	0		D	
mehe	mees	0		S	sg g
naine	naine	0		S	sg n
on	ole	0		V	b
  	ole	0		V	vad
,	,			Z	
ei	ei	0		D	
  	ei	0		V	neg
saanud	saa	nud		V	nud
      	saa=nud	0		A	
      	saa=nud	0		A	sg n
      	saa=nud	d		A	pl n
      	saanu	d		S	pl n
midagi	miski	dagi		P	sg p
sest	see	st		P	sg el
    	sest	0		J	
rahast	raha	st		S	sg el
,	,			Z	
sest	see	st		P	sg el
    	sest	0		J	
et	et	0		J	
ta	tema	0		P	sg g
  	tema	0		P	sg n
ema	ema	0		S	sg g
   	ema	0		S	sg n
   	ema	0		S	sg p
käest	käest	0		K	
     	käsi	st		S	sg el
juba	juba	0		D	
muud	muu	d		P	pl n
    	muu	d		S	pl n
    	muu	d		V	d
    	muu	d		P	sg p
    	muu	d		S	sg p
andid	####				
on	ole	0		V	b
  	ole	0		V	vad
saanud	saa	nud		V	nud
      	saa=nud	0		A	
      	saa=nud	0		A	sg n
      	saa=nud	d		A	pl n
      	saanu	d		S	pl n
kui	kui	0		D	
   	kui	0		J	
ta	tema	0		P	sg g
  	tema	0		P	sg n
mehele	mees	le		S	sg all
läinud	läinu	d		S	pl n
      	läinud	0		A	
      	läinud	0		A	sg n
      	läinud	d		A	pl n
      	mine	nud		V	nud
.	.			Z	
talitaja	talitaja	0		S	sg g
        	talitaja	0		S	sg n
:	:			Z	
A_	####				
.	.			Z	
_pakes	####				
/	/			Z	
allkiri	all_kiri	0		S	sg n
/	/			Z	
1	1	0		N	?
)	)			Z	
abimees	abi_mees	0		S	sg n
:	:			Z	
p	p	0		Y	?
.	.			Z	
Püss	püss	0		S	sg n
/	/			Z	
allkiri	all_kiri	0		S	sg n
/	/			Z	
2	2	0		N	?
)	)			Z	
""""	""""			Z	
:	:			Z	
V_	####				
.	.			Z	
_uusmann	####				
/	/			Z	
allkiri	all_kiri	0		S	sg n
/	/			Z	
kirjutaja	kirjutaja	0		S	sg g
         	kirjutaja	0		S	sg n
:	:			Z	
G_	####				
.	.			Z	
_Bransfeld	####				
/	/			Z	
allkiri	all_kiri	0		S	sg n
/	/			Z	
