kohtukorra	kohtu_kord	0		S	sg g
pärast	pära	st		S	sg el
      	pärane	t		A	sg p
      	pärast	0		D	
      	pärast	0		K	
olid	ole	id		V	sid
kokku	kokku	0		D	
     	kogu	0		S	adt
tulnud	tul=nud	0		A	
      	tul=nud	0		A	sg n
      	tul=nud	d		A	pl n
      	tule	nud		V	nud
      	tulnu	d		S	pl n
.	.			Z	
kohtuvanem	kohtu_vanem	0		C	sg n
          	kohtu_vanem	0		S	sg n
:	:			Z	
Hans	Hans	0		H	sg n
Paumann	pau_mann	0		S	sg n
.	.			Z	
abimees	abi_mees	0		S	sg n
:	:			Z	
Tõnno	####				
Kirschmann	####				
.	.			Z	
abimees	abi_mees	0		S	sg n
:	:			Z	
Jüri	Jüri	0		H	sg g
    	Jüri	0		H	sg n
Mesner	####				
kirjutaja	kirjutaja	0		S	sg g
         	kirjutaja	0		S	sg n
Hans	Hans	0		H	sg n
Aunberg	####				
astus	astu	s		V	s
ette	ette	0		D	
    	ette	0		K	
    	esi	tte		S	adt
Kända	kännas	0		S	sg g
vallast	vald	st		S	sg el
Hanssu	####				
tüttar	####				
Mari	Mari	0		H	sg g
    	mari	0		S	sg g
    	mari	0		S	sg n
    	Mari	0		H	sg n
    	mari	0		S	sg p
Papiaru	papi_aru	0		S	sg g
       	papi_aru	0		S	sg n
       	papi_aru	0		S	sg p
27	27	0		N	?
aasta	aasta	0		S	sg g
     	aasta	0		S	sg n
vana	vana	0		A	sg g
    	vana	0		A	sg n
    	vana	0		A	sg p
    	vana	0		S	sg g
    	vana	0		S	sg n
    	vana	0		S	sg p
et	et	0		J	
tema	tema	0		P	sg g
    	tema	0		P	sg n
oma	oma	0		A	sg g
   	oma	0		D	
   	oma	0		P	sg g
   	oma	0		S	sg g
   	oma	0		V	o
   	oma	0		A	sg n
   	oma	0		A	sg p
   	oma	0		P	sg n
   	oma	0		P	sg p
   	oma	0		S	sg n
   	oma	0		S	sg p
kurju	kurju	0		V	o
tegu	tegu	0		S	sg n
    	tegu	0		S	sg p
pidi	pida	i		V	s
    	pidi	0		K	
avalikultüles	####				
tunnistama	tunnista	ma		V	ma
.	.			Z	
Mari	Mari	0		H	sg g
    	mari	0		S	sg g
    	mari	0		S	sg n
    	Mari	0		H	sg n
    	mari	0		S	sg p
Papiaru	papi_aru	0		S	sg g
       	papi_aru	0		S	sg n
       	papi_aru	0		S	sg p
tunnistab	tunnista	b		V	b
,	,			Z	
et	et	0		J	
se	####				
las	las	0		D	
oli	ole	i		V	s
temal	tema	l		P	sg ad
sündinud	sündi	nud		V	nud
        	sündinu	d		S	pl n
        	sündinud	0		A	
        	sündinud	0		A	sg n
        	sündinud	d		A	pl n
4ndal	4=s	l		O	sg ad
Aprillis	aprill	s		S	sg in
se	####				
on	ole	0		V	b
  	ole	0		V	vad
puhava	####				
pärast	pära	st		S	sg el
      	pärane	t		A	sg p
      	pärast	0		D	
      	pärast	0		K	
lounat	####				
kella	kell	0		S	adt
     	kell	0		S	sg g
     	kella	0		V	o
     	kell	0		S	sg p
kolme	kolm	0		N	adt
     	kolm	0		N	sg g
     	kolm	0		N	sg p
aeal	####				
väljas	välja	s		V	s
      	väli	s		S	sg in
      	väljas	0		D	
tühjas	tühi	s		A	sg in
lautas	####				
,	,			Z	
kus	kus	0		D	
mitte	mitte	0		D	
loomi	loom	i		S	pl p
sees	sees	0		D	
    	sees	0		K	
ei	ei	0		D	
  	ei	0		V	neg
ole	ole	0		V	o
olnud	ol=nud	0		A	
     	ol=nud	0		A	sg n
     	ol=nud	d		A	pl n
     	ole	nud		V	nud
     	olnu	d		S	pl n
.	.			Z	
tema	tema	0		P	sg g
    	tema	0		P	sg n
issa	####				
tunnistab	tunnista	b		V	b
et	et	0		J	
tema	tema	0		P	sg g
    	tema	0		P	sg n
on	ole	0		V	b
  	ole	0		V	vad
ka	ka	0		D	
lautas	####				
käinud	käi	nud		V	nud
      	käi=nud	0		A	
      	käi=nud	0		A	sg n
      	käi=nud	d		A	pl n
      	käinu	d		S	pl n
,	,			Z	
Kui	kui	0		D	
   	kui	0		J	
las	las	0		D	
alles	alles	0		D	
sündimata	sündi	mata		V	mata
         	sündimata	0		A	
oli	ole	i		V	s
,	,			Z	
ja	ja	0		J	
on	ole	0		V	b
  	ole	0		V	vad
teda	tema	da		P	sg p
tupa	####				
kutsunud	kutsu	nud		V	nud
        	kutsu=nu	d		S	pl n
        	kutsu=nud	0		A	
        	kutsu=nud	0		A	sg n
        	kutsu=nud	d		A	pl n
,	,			Z	
aga	aga	0		J	
tema	tema	0		P	sg g
    	tema	0		P	sg n
ütelnud	ütle	nud		V	nud
       	ütel=nu	d		S	pl n
       	ütel=nud	0		A	
       	ütel=nud	0		A	sg n
       	ütel=nud	d		A	pl n
mul	mina	l		P	sg ad
on	ole	0		V	b
  	ole	0		V	vad
väga	väga	0		D	
soe	soe	0		A	sg n
   	soe	0		S	sg n
   	suge	0		V	o
   	susi	0		S	sg g
,	,			Z	
ja	ja	0		J	
minu	mina	0		P	sg g
pea	pea	0		D	
   	pea	0		S	sg g
   	pida	0		V	o
   	pea	0		S	sg n
on	ole	0		V	b
  	ole	0		V	vad
haige	haige	0		A	sg g
     	haige	0		A	sg n
     	haige	0		S	sg g
     	haige	0		S	sg n
,	,			Z	
ei	ei	0		D	
  	ei	0		V	neg
ma	mina	0		P	sg n
tule	tuli	0		S	sg g
    	tule	0		V	o
mitte	mitte	0		D	
ja	ja	0		J	
issa	####				
tulnud	tul=nud	0		A	
      	tul=nud	0		A	sg n
      	tul=nud	d		A	pl n
      	tule	nud		V	nud
      	tulnu	d		S	pl n
siis	siis	0		D	
    	siis	0		J	
ära	ära	0		D	
   	ära	0		V	neg o
tupa	####				
.	.			Z	
Ja	ja	0		J	
varsti	varsti	0		D	
oli	ole	i		V	s
las	las	0		D	
sündinud	sündi	nud		V	nud
        	sündinu	d		S	pl n
        	sündinud	0		A	
        	sündinud	0		A	sg n
        	sündinud	d		A	pl n
seal	seal	0		D	
    	siga	l		A	sg ad
    	siga	l		S	sg ad
samas	sama	s		P	sg in
     	samas	0		D	
lautas	####				
,	,			Z	
aga	aga	0		J	
seda	see	da		P	sg p
sündimise	sündimine	0		S	sg g
aega	aeg	0		S	adt
    	aeg	0		S	sg p
    	aega	0		K	
põle	põle	0		V	o
mitte	mitte	0		D	
kei	####				
näinud	näi	nud		V	nud
      	näge	nud		V	nud
      	näi=nud	0		A	
      	näi=nud	0		A	sg n
      	näi=nud	d		A	pl n
      	näinu	d		S	pl n
,	,			Z	
ja	ja	0		J	
tunnistab	tunnista	b		V	b
seda	see	da		P	sg p
ise	ise	0		A	
   	ise	0		D	
   	ise	0		P	pl n
   	ise	0		P	sg n
ka	ka	0		D	
et	et	0		J	
temal	tema	l		P	sg ad
on	ole	0		V	b
  	ole	0		V	vad
se	####				
nou	####				
olnud	ol=nud	0		A	
     	ol=nud	0		A	sg n
     	ol=nud	d		A	pl n
     	ole	nud		V	nud
     	olnu	d		S	pl n
,	,			Z	
et	et	0		J	
ma	mina	0		P	sg n
tahan	taht	n		V	n
teda	tema	da		P	sg p
ära	ära	0		D	
   	ära	0		V	neg o
hukkata	####				
,	,			Z	
et	et	0		J	
kei	####				
ei	ei	0		D	
  	ei	0		V	neg
pea	pea	0		D	
   	pea	0		S	sg g
   	pida	0		V	o
   	pea	0		S	sg n
teda	tema	da		P	sg p
nägema	näge	ma		V	ma
,	,			Z	
ja	ja	0		J	
nõnda	nõnda	0		D	
oli	ole	i		V	s
ka	ka	0		D	
teinud	tege	nud		V	nud
      	tei=nud	0		A	
      	tei=nud	0		A	sg n
      	tei=nud	d		A	pl n
      	teinu	d		S	pl n
.	.			Z	
tema	tema	0		P	sg g
    	tema	0		P	sg n
ütleb	ütle	b		V	b
kui	kui	0		D	
   	kui	0		J	
las	las	0		D	
oli	ole	i		V	s
sündinud	sündi	nud		V	nud
        	sündinu	d		S	pl n
        	sündinud	0		A	
        	sündinud	0		A	sg n
        	sündinud	d		A	pl n
,	,			Z	
siis	siis	0		D	
    	siis	0		J	
ta	tema	0		P	sg g
  	tema	0		P	sg n
võtnud	võt	nud		V	nud
      	võt=nu	d		S	pl n
      	võt=nud	0		A	
      	võt=nud	0		A	sg n
      	võt=nud	d		A	pl n
las	las	0		D	
ja	ja	0		J	
pannud	pan=nu	d		S	pl n
      	pan=nud	0		A	
      	pan=nud	0		A	sg n
      	pan=nud	d		A	pl n
      	pane	nud		V	nud
teda	tema	da		P	sg p
ukse	uks	0		S	sg g
läve	lävi	0		S	sg g
    	lävi	0		S	sg p
peale	pea	le		S	sg all
     	peale	0		D	
     	peale	0		K	
ja	ja	0		J	
istunud	istu	nud		V	nud
       	istu=nu	d		S	pl n
       	istu=nud	0		A	
       	istu=nud	0		A	sg n
       	istu=nud	d		A	pl n
tema	tema	0		P	sg g
    	tema	0		P	sg n
peale	pea	le		S	sg all
     	peale	0		D	
     	peale	0		K	
,	,			Z	
siis	siis	0		D	
    	siis	0		J	
hakanud	hakka	nud		V	nud
       	haka=nu	d		S	pl n
       	haka=nud	0		A	
       	haka=nud	0		A	sg n
       	haka=nud	d		A	pl n
käega	käsi	ga		S	sg kom
las	las	0		D	
ümber	ümber	0		D	
     	ümber	0		K	
kaela	kael	0		S	adt
     	kael	0		S	sg g
     	kaela	0		K	
     	kael	0		S	sg p
kinnija	####				
tõstnud	tõst	nud		V	nud
       	tõst=nu	d		S	pl n
       	tõst=nud	0		A	
       	tõst=nud	0		A	sg n
       	tõst=nud	d		A	pl n
teda	tema	da		P	sg p
ülesse	ülesse	0		D	
ja	ja	0		J	
ütleb	ütle	b		V	b
et	et	0		J	
tema	tema	0		P	sg g
    	tema	0		P	sg n
sündis	sündi	s		V	s
      	sünt	s		S	sg in
oovi	####				
mitte	mitte	0		D	
,	,			Z	
ja	ja	0		J	
jäänud	jää	nud		V	nud
      	jäänu	d		S	pl n
      	jäänud	0		A	
      	jäänud	0		A	sg n
      	jäänud	d		A	pl n
las	las	0		D	
õseks	####				
sinna	sinna	0		D	
lauta	laug	ta		S	sg ab
     	laut	0		S	adt
     	laut	0		S	sg p
.	.			Z	
Esmasba	####				
hommiku	hommik	0		S	sg g
võtnud	võt	nud		V	nud
      	võt=nu	d		S	pl n
      	võt=nud	0		A	
      	võt=nud	0		A	sg n
      	võt=nud	d		A	pl n
sealt	sealt	0		D	
     	siga	lt		A	sg abl
     	siga	lt		S	sg abl
ara	arg	0		A	sg g
las	las	0		D	
ja	ja	0		J	
viind	####				
üks	üks	0		N	sg n
   	üks	0		P	sg n
kolm	kolm	0		N	sg n
sada	sada	0		N	sg n
    	sada	0		N	sg p
samu	sama	u		P	pl p
maad	maa	d		S	pl n
    	maa	d		S	sg p
arvata	arva	ta		V	da
      	arva	ta		V	ta
      	arvata	0		D	
,	,			Z	
kus	kus	0		D	
ta	tema	0		P	sg g
  	tema	0		P	sg n
pannud	pan=nu	d		S	pl n
      	pan=nud	0		A	
      	pan=nud	0		A	sg n
      	pan=nud	d		A	pl n
      	pane	nud		V	nud
kivi	kivi	0		S	sg g
    	kivi	0		S	sg n
    	kivi	0		S	sg p
aia	aed	0		S	sg g
sisse	siss	e		S	pl p
     	sisse	0		D	
     	sisse	0		K	
ja	ja	0		J	
tulnud	tul=nud	0		A	
      	tul=nud	0		A	sg n
      	tul=nud	d		A	pl n
      	tule	nud		V	nud
      	tulnu	d		S	pl n
ise	ise	0		A	
   	ise	0		D	
   	ise	0		P	pl n
   	ise	0		P	sg n
ära	ära	0		D	
   	ära	0		V	neg o
tupa	####				
.	.			Z	
kaks	kaks	0		N	sg n
tundi	tund	0		S	adt
     	tund	0		S	sg p
võib	või	b		V	b
arvata	arva	ta		V	da
      	arva	ta		V	ta
      	arvata	0		D	
,	,			Z	
mis	mis	0		P	pl n
   	mis	0		P	sg n
las	las	0		D	
seal	seal	0		D	
    	siga	l		A	sg ad
    	siga	l		S	sg ad
oli	ole	i		V	s
siis	siis	0		D	
    	siis	0		J	
käskinud	käski	nud		V	nud
        	käski=nu	d		S	pl n
        	käski=nud	0		A	
        	käski=nud	0		A	sg n
        	käski=nud	d		A	pl n
tema	tema	0		P	sg g
    	tema	0		P	sg n
issa	####				
teda	tema	da		P	sg p
minna	mine	a		V	da
ja	ja	0		J	
las	las	0		D	
sealt	sealt	0		D	
     	siga	lt		A	sg abl
     	siga	lt		S	sg abl
ära	ära	0		D	
   	ära	0		V	neg o
tooma	too	ma		V	ma
,	,			Z	
ta	tema	0		P	sg g
  	tema	0		P	sg n
oli	ole	i		V	s
seda	see	da		P	sg p
teinud	tege	nud		V	nud
      	tei=nud	0		A	
      	tei=nud	0		A	sg n
      	tei=nud	d		A	pl n
      	teinu	d		S	pl n
.	.			Z	
Mart	Mart	0		H	sg n
    	mart	0		S	sg n
Papiaru	papi_aru	0		S	sg g
       	papi_aru	0		S	sg n
       	papi_aru	0		S	sg p
tegi	sina	0	gi	P	pl g
    	tege	i		V	s
    	sina	0	gi	P	pl n
pusergi	####				
kossisse	koss	sse		S	sg ill
las	las	0		D	
sai	saa	i		V	s
   	sai	0		S	sg n
pandud	pan=du	d		S	pl n
      	pan=dud	0		A	
      	pan=dud	0		A	sg n
      	pan=dud	d		A	pl n
      	pane	dud		V	tud
,	,			Z	
ja	ja	0		J	
Vöölmünder	####				
viis	vii	s		V	s
    	viis	0		N	sg n
    	viis	0		S	sg n
teda	tema	da		P	sg p
pühava	####				
kiriku	kirik	0		S	sg g
juure	juur	0		S	sg g
.	.			Z	
need	see	d		P	pl n
sanad	####				
mis	mis	0		P	pl n
   	mis	0		P	sg n
tema	tema	0		P	sg g
    	tema	0		P	sg n
ise	ise	0		A	
   	ise	0		D	
   	ise	0		P	pl n
   	ise	0		P	sg n
on	ole	0		V	b
  	ole	0		V	vad
tunnistanud	tunnista	nud		V	nud
           	tunnista=nu	d		S	pl n
           	tunnista=nud	0		A	
           	tunnista=nud	0		A	sg n
           	tunnista=nud	d		A	pl n
,	,			Z	
on	ole	0		V	b
  	ole	0		V	vad
sein	sein	0		S	sg n
ülesse	ülesse	0		D	
pandud	pan=du	d		S	pl n
      	pan=dud	0		A	
      	pan=dud	0		A	sg n
      	pan=dud	d		A	pl n
      	pane	dud		V	tud
,	,			Z	
muud	muu	d		P	pl n
    	muu	d		S	pl n
    	muu	d		V	d
    	muu	d		P	sg p
    	muu	d		S	sg p
korvaldast	####				
tunnistust	tunnistus	t		S	sg p
ei	ei	0		D	
  	ei	0		V	neg
tea	tead	0		V	o
üks	üks	0		N	sg n
   	üks	0		P	sg n
.	.			Z	
kohtuvanem	kohtu_vanem	0		C	sg n
          	kohtu_vanem	0		S	sg n
:	:			Z	
Hans	Hans	0		H	sg n
Paumann	pau_mann	0		S	sg n
.	.			Z	
XXX	XXX	0		O	?
   	XXX	0		Y	?
abimees	abi_mees	0		S	sg n
:	:			Z	
Tõno	####				
Kirschmann	####				
XXX	XXX	0		O	?
   	XXX	0		Y	?
abimees	abi_mees	0		S	sg n
:	:			Z	
Jüri	Jüri	0		H	sg g
    	Jüri	0		H	sg n
Mesner	####				
.	.			Z	
XXX	XXX	0		O	?
   	XXX	0		Y	?
kirjutaja	kirjutaja	0		S	sg g
         	kirjutaja	0		S	sg n
HAunberg	####				
.	.			Z	
[	[			Z	
allkiri	all_kiri	0		S	sg n
]	]			Z	
