koos	koos	0		D	
    	koos	0		K	
    	koos	0		S	sg n
    	kubu	s		S	sg in
olid	ole	id		V	sid
talitaja	talitaja	0		S	sg g
        	talitaja	0		S	sg n
:	:			Z	
P	P	0		Y	?
.	.			Z	
_	_			Z	
Naaber	naaber	0		S	sg n
,	,			Z	
abimehed	abi_mees	d		S	pl n
:	:			Z	
s	s	0		Y	?
.	.			Z	
läkk	####				
ja	ja	0		J	
V_	####				
.	.			Z	
_	_			Z	
Kutser	####				
seatud	sea=tu	d		S	pl n
      	sead	tud		V	tud
      	seatud	0		A	
      	seatud	0		A	sg n
      	seatud	d		A	pl n
kohtupäeva	kohtu_päev	0		S	adt
          	kohtu_päev	0		S	sg g
          	kohtu_päev	0		S	sg p
pidamas	pida	mas		V	mas
.	.			Z	
Mari	Mari	0		H	sg g
    	mari	0		S	sg g
    	mari	0		S	sg n
    	Mari	0		H	sg n
    	mari	0		S	sg p
Nabi	nabi	0		V	o
kaebab	kaeba	b		V	b
,	,			Z	
et	et	0		J	
temal	tema	l		P	sg ad
olnud	ol=nud	0		A	
     	ol=nud	0		A	sg n
     	ol=nud	d		A	pl n
     	ole	nud		V	nud
     	olnu	d		S	pl n
7	7	0		N	?
1	1	0		N	?
/	/			Z	
2	2	0		N	?
küünart	küünar	t		S	sg p
linnast	linn	st		S	sg el
riiet	riie	t		S	sg p
ja	ja	0		J	
sest	see	st		P	sg el
    	sest	0		J	
on	ole	0		V	b
  	ole	0		V	vad
Kreet	####				
Sinnik	####				
,	,			Z	
kes	kes	0		P	pl n
   	kes	0		P	sg n
ka	ka	0		D	
seal	seal	0		D	
    	siga	l		A	sg ad
    	siga	l		S	sg ad
kortris	####				
elab	ela	b		V	b
,	,			Z	
3	3	0		N	?
1	1	0		N	?
/	/			Z	
2	2	0		N	?
küün	küün	0		S	sg n
.	.			Z	
äravarastanud	ära_varasta=nu	d		S	pl n
             	ära_varasta=nud	0		A	
             	ära_varasta=nud	0		A	sg n
             	ära_varasta=nud	d		A	pl n
ja	ja	0		J	
sest	see	st		P	sg el
    	sest	0		J	
oma	oma	0		A	sg g
   	oma	0		D	
   	oma	0		P	sg g
   	oma	0		S	sg g
   	oma	0		V	o
   	oma	0		A	sg n
   	oma	0		A	sg p
   	oma	0		P	sg n
   	oma	0		P	sg p
   	oma	0		S	sg n
   	oma	0		S	sg p
poja	poeg	0		S	sg g
    	poja	0		S	sg g
    	poja	0		S	sg n
    	poja	0		S	sg p
särgile	särk	le		S	sg all
rinnaisise	####				
ja	ja	0		J	
varukad	####				
teinud	tege	nud		V	nud
      	tei=nud	0		A	
      	tei=nud	0		A	sg n
      	tei=nud	d		A	pl n
      	teinu	d		S	pl n
.	.			Z	
Särk	särk	0		S	sg n
on	ole	0		V	b
  	ole	0		V	vad
praegu	praegu	0		D	
siin	siin	0		D	
    	siin	0		S	sg n
,	,			Z	
niisama	nii_sama	0		D	
ka	ka	0		D	
riie	riie	0		S	sg n
ja	ja	0		J	
mõlemad	mõlema	d		P	pl n
lähtavad	####				
hästi	hästi	0		D	
koku	####				
.	.			Z	
Kreet	####				
Sinnik	####				
tunnistab	tunnista	b		V	b
,	,			Z	
et	et	0		J	
tema	tema	0		P	sg g
    	tema	0		P	sg n
seda	see	da		P	sg p
on	ole	0		V	b
  	ole	0		V	vad
võtnud	võt	nud		V	nud
      	võt=nu	d		S	pl n
      	võt=nud	0		A	
      	võt=nud	0		A	sg n
      	võt=nud	d		A	pl n
.	.			Z	
Riie	riie	0		S	sg n
seisnud	seis	nud		V	nud
       	seis=nu	d		S	pl n
       	seis=nud	0		A	
       	seis=nud	0		A	sg n
       	seis=nud	d		A	pl n
põööningal	####				
kasti	kast	0		S	adt
     	kast	0		S	sg g
     	kast	0		S	sg p
taga	taga	0		D	
    	taga	0		K	
    	taga	0		V	o
karwi	####				
peal	pea	l		S	sg ad
    	peal	0		D	
    	peal	0		K	
.	.			Z	
kohus	kohu	s		V	s
     	kohus	0		S	sg n
tegi	sina	0	gi	P	pl g
    	tege	i		V	s
    	sina	0	gi	P	pl n
otsust	otsus	t		S	sg p
:	:			Z	
et	et	0		J	
Kreet	####				
Sinnik	####				
maksab	maks	b		V	b
Mari	Mari	0		H	sg g
    	mari	0		S	sg g
    	mari	0		S	sg n
    	Mari	0		H	sg n
    	mari	0		S	sg p
Nabile	####				
70	70	0		N	?
kop	kop	0		Y	?
.	.			Z	
kahjutasumist	kahju_tasumine	t		S	sg p
riide	riid	e		S	pl p
     	riie	0		S	adt
     	riie	0		S	sg g
ette	ette	0		D	
    	ette	0		K	
    	esi	tte		S	adt
ja	ja	0		J	
istub	istu	b		V	b
48	48	0		N	?
tundi	tund	0		S	adt
     	tund	0		S	sg p
vangis	vang	s		S	sg in
oma	oma	0		A	sg g
   	oma	0		D	
   	oma	0		P	sg g
   	oma	0		S	sg g
   	oma	0		V	o
   	oma	0		A	sg n
   	oma	0		A	sg p
   	oma	0		P	sg n
   	oma	0		P	sg p
   	oma	0		S	sg n
   	oma	0		S	sg p
varguse	vargus	0		S	sg g
trahviks	trahv	ks		S	sg tr
        	trahvi	ks		V	ks
.	.			Z	
et	et	0		J	
muud	muu	d		P	pl n
    	muu	d		S	pl n
    	muu	d		V	d
    	muu	d		P	sg p
    	muu	d		S	sg p
toimetust	toimetu	st		A	sg el
         	toimetus	t		S	sg p
polnud	ole	nud		V	neg nud
,	,			Z	
sai	saa	i		V	s
   	sai	0		S	sg n
kohtupäev	kohtu_päev	0		S	sg n
lõpeetud	####				
.	.			Z	
