ette	ette	0		D	
    	ette	0		K	
    	esi	tte		S	adt
astus	astu	s		V	s
Juhan	Juhan	0		H	sg n
Jakobson	Jakobson	0		H	sg n
ja	ja	0		J	
avaldas	avalda	s		V	s
,	,			Z	
et	et	0		J	
temal	tema	l		P	sg ad
Hans	Hans	0		H	sg n
Pikas'e	####				
käest	käest	0		K	
     	käsi	st		S	sg el
pärida	päri	da		V	da
on	ole	0		V	b
  	ole	0		V	vad
:	:			Z	
Õlde	####				
eest	eest	0		D	
    	eest	0		K	
    	esi	st		S	sg el
2,52	2,52	0		N	?
kop	kop	0		Y	?
.	.			Z	
viie	viis	0		N	sg g
nädala	nädal	0		S	sg g
sõööma	####				
raha	raha	0		S	sg g
    	raha	0		S	sg n
    	raha	0		S	sg p
4,50	4,50	0		N	?
kop	kop	0		Y	?
.	.			Z	
9	9	0		N	?
päeva	päev	0		S	adt
     	päev	0		S	sg g
     	päev	0		S	sg p
hobuse	hobune	0		S	sg g
sõõtmine	####				
1,35	1,35	0		N	?
kop	kop	0		Y	?
.	.			Z	
selget	selge	t		A	sg p
raha	raha	0		S	sg g
    	raha	0		S	sg n
    	raha	0		S	sg p
7,00	7,00	0		N	?
kop	kop	0		Y	?
.	.			Z	
Suma	suma	0		S	sg g
    	suma	0		V	o
    	suma	0		S	sg n
    	suma	0		S	sg p
15,37	15,37	0		N	?
kop	kop	0		Y	?
.	.			Z	
Valgeväljalt	valge_väli	lt		S	sg abl
ära	ära	0		D	
   	ära	0		V	neg o
minnes	mine	es		V	des
jää	jää	0		S	sg g
   	jää	0		V	o
   	jää	0		S	sg n
see	see	0		P	sg n
raha	raha	0		S	sg g
    	raha	0		S	sg n
    	raha	0		S	sg p
sell	sell	0		S	sg n
põhjusel	põhjus	l		S	sg ad
maksmata	maks	mata		V	mata
        	maks=mata	0		A	
mulle	mull	e		S	pl p
     	mina	lle		P	sg all
     	mulle	0		S	sg n
,	,			Z	
et	et	0		J	
ehituse	ehitus	0		S	sg g
raha	raha	0		S	sg g
    	raha	0		S	sg n
    	raha	0		S	sg p
ei	ei	0		D	
  	ei	0		V	neg
olla	ole	a		V	da
veel	veel	0		D	
    	vesi	l		S	sg ad
mõisast	mõis	st		S	sg el
kõik	kõik	0		P	pl n
    	kõik	0		S	sg n
    	kõik	0		P	sg n
kätte	kätte	0		K	
     	käsi	tte		S	adt
saadud	saa	dud		V	tud
      	saadu	d		S	pl n
      	saadud	0		A	
      	saadud	0		A	sg n
      	saadud	d		A	pl n
.	.			Z	
ette	ette	0		D	
    	ette	0		K	
    	esi	tte		S	adt
astus	astu	s		V	s
Hans	Hans	0		H	sg n
Pikas	pikk	s		A	sg in
     	pikk	s		S	sg in
ja	ja	0		J	
ütles	ütle	s		V	s
:	:			Z	
Mina	mina	0		P	sg n
    	mina	0		S	sg g
    	mina	0		S	sg n
    	mina	0		S	sg p
maksin	maks	in		V	sin
Juh	Juh	0		Y	?
.	.			Z	
Jakobson'ile	####				
10	10	0		N	?
rubla	rubla	0		S	sg g
     	rubla	0		S	sg n
     	rubla	0		S	sg p
ära	ära	0		D	
   	ära	0		V	neg o
ja	ja	0		J	
mis	mis	0		P	pl n
   	mis	0		P	sg n
ta	tema	0		P	sg g
  	tema	0		P	sg n
veel	veel	0		D	
    	vesi	l		S	sg ad
nõuab	nõud	b		V	b
on	ole	0		V	b
  	ole	0		V	vad
ta	tema	0		P	sg g
  	tema	0		P	sg n
ilma	ilm	0		S	adt
    	ilm	0		S	sg g
    	ilma	0		D	
    	ilma	0		K	
    	ilm	0		S	sg p
aegu	aeg	u		S	pl p
    	aegu	0		K	
    	aegu	0		V	o
juuure	####				
teinud	tege	nud		V	nud
      	tei=nud	0		A	
      	tei=nud	0		A	sg n
      	tei=nud	d		A	pl n
      	teinu	d		S	pl n
.	.			Z	
Timal	####				
on	ole	0		V	b
  	ole	0		V	vad
mulle	mull	e		S	pl p
     	mina	lle		P	sg all
     	mulle	0		S	sg n
maksta	maks	ta		V	da
      	maks	ta		V	ta
:	:			Z	
4	4	0		N	?
mehe	mees	0		S	sg g
päeva	päev	0		S	adt
     	päev	0		S	sg g
     	päev	0		S	sg p
heinatööl	heina_töö	l		S	sg ad
2,00	2,00	0		N	?
kop	kop	0		Y	?
.	.			Z	
1	1	0		N	?
hobuse	hobune	0		S	sg g
päeva	päev	0		S	adt
     	päev	0		S	sg g
     	päev	0		S	sg p
heinatööl	heina_töö	l		S	sg ad
50	50	0		N	?
kop	kop	0		Y	?
.	.			Z	
3	3	0		N	?
hobuse	hobune	0		S	sg g
sõitu	sõit	0		S	adt
     	sõit	0		S	sg p
Hapsalu	####				
75	75	0		N	?
kop	kop	0		Y	?
.	.			Z	
Suma	suma	0		S	sg g
    	suma	0		V	o
    	suma	0		S	sg n
    	suma	0		S	sg p
3,25	3,25	0		N	?
kop	kop	0		Y	?
.	.			Z	
ette	ette	0		D	
    	ette	0		K	
    	esi	tte		S	adt
astus	astu	s		V	s
Hans	Hans	0		H	sg n
Tamvil	####				
ja	ja	0		J	
rääkis	rääki	s		V	s
:	:			Z	
Mina	mina	0		P	sg n
    	mina	0		S	sg g
    	mina	0		S	sg n
    	mina	0		S	sg p
olin	ole	in		V	sin
seekord	see_kord	0		D	
Valgeväljal	valge_väli	l		S	sg ad
,	,			Z	
kui	kui	0		D	
   	kui	0		J	
meister	meister	0		S	sg n
H. Pikas	####				
ooma	####				
rehnungi	rehnung	0		S	sg g
10	10	0		N	?
rbl	rbl	0		Y	?
.	.			Z	
ära	ära	0		D	
   	ära	0		V	neg o
maksis	maks	is		V	s
      	maksi	s		S	sg in
ning	ning	0		J	
7,42	7,42	0		N	?
kop	kop	0		Y	?
pidi	pida	i		V	s
    	pidi	0		K	
veel	veel	0		D	
    	vesi	l		S	sg ad
jäema	####				
,	,			Z	
mis	mis	0		P	pl n
   	mis	0		P	sg n
siis	siis	0		D	
    	siis	0		J	
pidi	pida	i		V	s
    	pidi	0		K	
makstud	maks	tud		V	tud
       	maks=tu	d		S	pl n
       	maks=tud	0		A	
       	maks=tud	0		A	sg n
       	maks=tud	d		A	pl n
saama	saa	ma		V	ma
     	saam	0		S	adt
     	saam	0		S	sg g
     	saam	0		S	sg p
,	,			Z	
kui	kui	0		D	
   	kui	0		J	
mõisast	mõis	st		S	sg el
raha	raha	0		S	sg g
    	raha	0		S	sg n
    	raha	0		S	sg p
on	ole	0		V	b
  	ole	0		V	vad
kätte	kätte	0		K	
     	käsi	tte		S	adt
saadud	saa	dud		V	tud
      	saadu	d		S	pl n
      	saadud	0		A	
      	saadud	0		A	sg n
      	saadud	d		A	pl n
.	.			Z	
kohtu	kohtu	0		V	o
     	kohus	0		S	sg g
otsus	otsus	0		S	sg n
:	:			Z	
Hans	Hans	0		H	sg n
Pikas'e	####				
nõudmine	nõudmine	0		S	sg n
3,25	3,25	0		N	?
kop	kop	0		Y	?
.	.			Z	
saab	saa	b		V	b
Juhan	Juhan	0		H	sg n
Jakobson'i	####				
15,37	15,37	0		N	?
kop	kop	0		Y	?
.	.			Z	
nõuudmisest	####				
maha	maha	0		D	
võetud	võe=tu	d		S	pl n
      	võetud	0		A	
      	võetud	0		A	sg n
      	võetud	d		A	pl n
      	võt	tud		V	tud
ja	ja	0		J	
H. Pikas	####				
peab	pida	b		V	b
tasuma	tasu	ma		V	ma
12,12	12,12	0		N	?
kop	kop	0		Y	?
.	.			Z	
J. Jakobsonile	####				
.	.			Z	
Peale	pea	le		S	sg all
     	peale	0		D	
     	peale	0		K	
seda	see	da		P	sg p
,	,			Z	
et	et	0		J	
ei	ei	0		D	
  	ei	0		V	neg
ole	ole	0		V	o
3me	####				
kohtu	kohtu	0		V	o
     	kohus	0		S	sg g
kutsete	kutse	te		S	pl g
peale	pea	le		S	sg all
     	peale	0		D	
     	peale	0		K	
ilmunud	ilmu	nud		V	nud
       	ilmu=nu	d		S	pl n
       	ilmu=nud	0		A	
       	ilmu=nud	0		A	sg n
       	ilmu=nud	d		A	pl n
ega	ega	0		D	
   	ega	0		J	
asjaliku	asjalik	0		A	sg g
vabandust	vabandus	t		S	sg p
         	vabandust	0		I	
kohtule	kohus	le		S	sg all
ette	ette	0		D	
    	ette	0		K	
    	esi	tte		S	adt
pannud	pan=nu	d		S	pl n
      	pan=nud	0		A	
      	pan=nud	0		A	sg n
      	pan=nud	d		A	pl n
      	pane	nud		V	nud
,	,			Z	
maksab	maks	b		V	b
H. Pikas	####				
Taluur	####				
.	.			Z	
s	s	0		Y	?
.	.			Z	
§	§	0		Y	?
57	57	0		N	?
ja	ja	0		J	
58	58	0		N	?
põhjusel	põhjus	l		S	sg ad
150	150	0		N	?
trahvi	trahv	0		S	adt
      	trahv	0		S	sg g
      	trahvi	0		V	o
      	trahv	0		S	sg p
valla	vald	0		S	sg g
     	valla	0		D	
laeka	laegas	0		S	adt
     	laegas	0		S	sg g
.	.			Z	
Täitmise	täitmine	0		S	sg g
leht	leht	0		S	sg n
Kreisi	kreis	0		S	adt
      	kreis	0		S	sg g
      	kreis	0		S	sg p
Politsei	politsei	0		S	sg g
        	politsei	0		S	sg n
abilisele	abiline	le		S	sg all
saadet	saade	t		S	sg p
.	.			Z	
11	11	0		N	?
April	####				
1890	1890	0		N	?
