kohtukäijaid	kohtu_käija	id		S	pl p
ei	ei	0		D	
  	ei	0		V	neg
olnud	ol=nud	0		A	
     	ol=nud	0		A	sg n
     	ol=nud	d		A	pl n
     	ole	nud		V	nud
     	olnu	d		S	pl n
ja	ja	0		J	
ei	ei	0		D	
  	ei	0		V	neg
olnud	ol=nud	0		A	
     	ol=nud	0		A	sg n
     	ol=nud	d		A	pl n
     	ole	nud		V	nud
     	olnu	d		S	pl n
mingisugust	mingi_sugune	t		P	sg p
kohtu	kohtu	0		V	o
     	kohus	0		S	sg g
asja	asi	0		S	adt
    	asi	0		S	sg g
    	asi	0		S	sg p
õiendada	õienda	da		V	da
.	.			Z	
kohtuvan	####				
.	.			Z	
Kustav	kus=tav	0		A	sg n
      	kuse	tav		V	tav
Thalheim	####				
kõrvasmees	####				
Hans	Hans	0		H	sg n
holmann	####				
kõrvasmees	####				
Hans	Hans	0		H	sg n
Hinnobert	####				
kirjutaja	kirjutaja	0		S	sg g
         	kirjutaja	0		S	sg n
A. Krein	####				
