kohtu	kohtu	0		V	o
     	kohus	0		S	sg g
korra	kord	0		S	sg g
pärast	pära	st		S	sg el
      	pärane	t		A	sg p
      	pärast	0		D	
      	pärast	0		K	
olid	ole	id		V	sid
Kuie	####				
valla	vald	0		S	sg g
     	valla	0		D	
kohtumajasse	kohtu_maja	sse		S	sg ill
kokku	kokku	0		D	
     	kogu	0		S	adt
tulnud	tul=nud	0		A	
      	tul=nud	0		A	sg n
      	tul=nud	d		A	pl n
      	tule	nud		V	nud
      	tulnu	d		S	pl n
:	:			Z	
kohtuvanem	kohtu_vanem	0		C	sg n
          	kohtu_vanem	0		S	sg n
,	,			Z	
kohtu	kohtu	0		V	o
     	kohus	0		S	sg g
kõrvamehed	kõrva_mees	d		S	pl n
ja	ja	0		J	
kirjutaja	kirjutaja	0		S	sg g
         	kirjutaja	0		S	sg n
.	.			Z	
aga	aga	0		J	
ei	ei	0		D	
  	ei	0		V	neg
olnud	ol=nud	0		A	
     	ol=nud	0		A	sg n
     	ol=nud	d		A	pl n
     	ole	nud		V	nud
     	olnu	d		S	pl n
kohtu	kohtu	0		V	o
     	kohus	0		S	sg g
käiaid	####				
,	,			Z	
ega	ega	0		D	
   	ega	0		J	
mingi	mingi	0		P	sg g
     	mink	0		S	sg g
     	minki	0		V	o
     	mingi	0		P	sg n
sugust	sugune	t		A	sg p
kohtu	kohtu	0		V	o
     	kohus	0		S	sg g
asja	asi	0		S	adt
    	asi	0		S	sg g
    	asi	0		S	sg p
seletamist	seletamine	t		S	sg p
.	.			Z	
kohtuvanem	kohtu_vanem	0		C	sg n
          	kohtu_vanem	0		S	sg n
:	:			Z	
kaarli	####				
Iis	####				
XXX	XXX	0		O	?
   	XXX	0		Y	?
kohtu	kohtu	0		V	o
     	kohus	0		S	sg g
kõrvamehed	kõrva_mees	d		S	pl n
Jaan	Jaan	0		H	sg n
    	jaan	0		S	sg n
    	jaan	0		Y	?
Anival	####				
XXX	XXX	0		O	?
   	XXX	0		Y	?
Kustas	Kusta	s		H	sg in
      	Kustas	0		H	sg n
Tammel	tamm	l		S	sg ad
XXX	XXX	0		O	?
   	XXX	0		Y	?
kirjutaja	kirjutaja	0		S	sg g
         	kirjutaja	0		S	sg n
J. Schillert	####				
