kaebama	kaeba	ma		V	ma
keegi	kee	0	gi	S	sg g
     	kee	0	gi	V	o
     	keegi	0		P	sg n
     	kee	0	gi	S	sg n
ei	ei	0		D	
  	ei	0		V	neg
ilmunud	ilmu	nud		V	nud
       	ilmu=nu	d		S	pl n
       	ilmu=nud	0		A	
       	ilmu=nud	0		A	sg n
       	ilmu=nud	d		A	pl n
;	;			Z	
pooleli	pooleli	0		D	
asju	asi	u		S	pl p
poole	pool	0		N	sg g
     	pool	0		S	sg g
     	pool	e		S	pl p
     	poole	0		K	
     	poole	0		S	sg n
!	!			Z	
eesistuja	ees_istuja	0		S	sg g
         	ees_istuja	0		S	sg n
:	:			Z	
Jaan	Jaan	0		H	sg n
    	jaan	0		S	sg n
    	jaan	0		Y	?
Kahm	kahm	0		S	sg n
I	I	0		O	?
 	I	0		Y	?
 	j	0		Y	?
kohtumõistja	kohtu_mõistja	0		S	sg g
            	kohtu_mõistja	0		S	sg n
II	II	0		O	?
  	II	0		Y	?
  	jj	0		Y	?
kohtumõistja	kohtu_mõistja	0		S	sg g
            	kohtu_mõistja	0		S	sg n
Hans	Hans	0		H	sg n
Rüü	rüü	0		S	sg g
   	rüü	0		S	sg n
XXX	XXX	0		O	?
   	XXX	0		Y	?
kirjutaja	kirjutaja	0		S	sg g
         	kirjutaja	0		S	sg n
L. Marleij	####				
