sai	saa	i		V	s
   	sai	0		S	sg n
ettevõetud	ette_võetud	0		A	
          	ette_võetud	0		A	sg n
          	ette_võetud	d		A	pl n
mis	mis	0		P	pl n
   	mis	0		P	sg n
Nr	Nr	0		Y	?
al	####				
sisse	siss	e		S	pl p
     	sisse	0		D	
     	sisse	0		K	
kaebatud	####				
oli	ole	i		V	s
:	:			Z	
Tõnis	Tõnis	0		H	sg n
Pihlamets	pihla_mets	0		S	sg n
ütles	ütle	s		V	s
et	et	0		J	
ta	tema	0		P	sg g
  	tema	0		P	sg n
on	ole	0		V	b
  	ole	0		V	vad
raiunud	raiu	nud		V	nud
       	raiu=nu	d		S	pl n
       	raiu=nud	0		A	
       	raiu=nud	0		A	sg n
       	raiu=nud	d		A	pl n
enne	enne	0		D	
    	enne	0		K	
    	enne	0		S	sg n
seda	see	da		P	sg p
kui	kui	0		D	
   	kui	0		J	
metsa	mets	0		S	adt
     	mets	0		S	sg g
     	mets	0		S	sg p
härra	härra	0		S	sg g
     	härra	0		S	sg n
tuli	tuli	0		S	sg n
    	tule	i		V	s
ja	ja	0		J	
siis	siis	0		D	
    	siis	0		J	
põle	põle	0		V	o
keeltust	####				
olnud	ol=nud	0		A	
     	ol=nud	0		A	sg n
     	ol=nud	d		A	pl n
     	ole	nud		V	nud
     	olnu	d		S	pl n
et	et	0		J	
oma	oma	0		A	sg g
   	oma	0		D	
   	oma	0		P	sg g
   	oma	0		S	sg g
   	oma	0		V	o
   	oma	0		A	sg n
   	oma	0		A	sg p
   	oma	0		P	sg n
   	oma	0		P	sg p
   	oma	0		S	sg n
   	oma	0		S	sg p
tarvis	tarvis	0		D	
      	tarvis	0		K	
ei	ei	0		D	
  	ei	0		V	neg
või	või	0		S	sg g
   	või	0		V	o
   	või	0		D	
   	või	0		J	
   	või	0		S	sg n
võtta	võt	a		V	da
,	,			Z	
ja	ja	0		J	
ma	mina	0		P	sg n
võtsin	võt	sin		V	sin
kodu	kodu	0		S	sg g
    	kodu	0		S	sg n
    	kodu	0		S	sg p
tarvis	tarvis	0		D	
      	tarvis	0		K	
.	.			Z	
