Tuli	tuli	0		S	sg n
    	tule	i		V	s
ette	ette	0		D	
    	ette	0		K	
    	esi	tte		S	adt
Võnnu	Võnnu	0		H	sg g
     	Võnnu	0		H	sg n
valla	vald	0		S	sg g
     	valla	0		D	
liige	liige	0		S	sg n
lesk	lesk	0		S	sg n
Ann	Ann	0		H	sg n
Mihkli	Mihkel	0		H	sg g
      	Mihkli	0		H	sg g
      	mihkel	0		A	sg g
      	mihkel	0		S	sg g
      	Mihkli	0		H	sg n
naine	naine	0		S	sg n
Kruus	kruus	0		S	sg n
,	,			Z	
ja	ja	0		J	
andis	and	is		V	s
ülles	####				
õõsel	####				
25	25	0		N	?
/	/			Z	
26	26	0		N	?
Nov.	Nov	0		Y	?
1891	1891	0		N	?
a.	a	0		Y	?
lautadi	####				
meie	mina	0		P	pl g
    	mina	0		P	pl n
aida	ait	0		S	sg g
müür	müür	0		S	sg n
maha	maha	0		D	
ja	ja	0		J	
aida	ait	0		S	sg g
eest	eest	0		D	
    	eest	0		K	
    	esi	st		S	sg el
varastati	varasta	ti		V	ti
ära	ära	0		D	
   	ära	0		V	neg o
järgmised	järgmine	d		A	pl n
asjad	asi	d		S	pl n
1	1	0		N	?
)	)			Z	
7	7	0		N	?
villast	vill	st		S	sg el
       	villa	st		S	sg el
       	villane	t		A	sg p
poe	pood	0		S	sg g
   	puge	0		V	o
guikut	####				
-	-			Z	
6	6	0		N	?
rubla	rubla	0		S	sg g
     	rubla	0		S	sg n
     	rubla	0		S	sg p
50	50	0		N	?
kop	kop	0		Y	?
.	.			Z	
kõik	kõik	0		P	pl n
    	kõik	0		S	sg n
    	kõik	0		P	sg n
kirjut	kirju	t		A	sg p
karva	karv	0		S	adt
     	karv	0		S	sg g
     	karva	0		A	
     	karv	0		S	sg p
,	,			Z	
2	2	0		N	?
)	)			Z	
2	2	0		N	?
sitsi	sits	0		S	adt
     	sits	0		S	sg g
     	sitsi	0		V	o
     	sits	0		S	sg p
ja	ja	0		J	
üks	üks	0		N	sg n
   	üks	0		P	sg n
poomvilla	poom_vill	0		S	adt
         	poom_vill	0		S	sg g
         	poom_vill	0		S	sg p
rätikut	rätik	t		S	sg p
kirjut	kirju	t		A	sg p
karva	karv	0		S	adt
     	karv	0		S	sg g
     	karva	0		A	
     	karv	0		S	sg p
-	-			Z	
70	70	0		N	?
kop	kop	0		Y	?
kokku	kokku	0		D	
     	kogu	0		S	adt
3	3	0		N	?
)	)			Z	
2	2	0		N	?
musta	must	0		A	adt
     	must	0		A	sg g
     	must	0		S	adt
     	must	0		S	sg g
     	musta	0		V	o
     	must	0		A	sg p
     	must	0		S	sg p
villast	vill	st		S	sg el
       	villa	st		S	sg el
       	villane	t		A	sg p
ratikut	####				
-	-			Z	
1	1	0		N	?
rub	####				
80	80	0		N	?
kop	kop	0		Y	?
4	4	0		N	?
)	)			Z	
3	3	0		N	?
valget	valge	t		A	sg p
      	valge	t		S	sg p
rätikut	rätik	t		S	sg p
-	-			Z	
nendest	see	dest		P	pl el
       	tema	dest		P	pl el
üks	üks	0		N	sg n
   	üks	0		P	sg n
klaar	klaar	0		A	sg n
kaks	kaks	0		N	sg n
tükki	tükk	0		S	adt
     	tükk	0		S	sg p
     	tükki	0		D	
kalingurit	####				
väärtus	väärtus	0		S	sg n
kokku	kokku	0		D	
     	kogu	0		S	adt
95	95	0		N	?
kop	kop	0		Y	?
.	.			Z	
5	5	0		N	?
)	)			Z	
üks	üks	0		N	sg n
   	üks	0		P	sg n
poe	pood	0		S	sg g
   	puge	0		V	o
kaela	kael	0		S	adt
     	kael	0		S	sg g
     	kaela	0		K	
     	kael	0		S	sg p
sal	####				
kirjut	kirju	t		A	sg p
karva	karv	0		S	adt
     	karv	0		S	sg g
     	karva	0		A	
     	karv	0		S	sg p
-	-			Z	
35	35	0		N	?
kop	kop	0		Y	?
.	.			Z	
6	6	0		N	?
)	)			Z	
üks	üks	0		N	sg n
   	üks	0		P	sg n
suve	suvi	0		S	sg g
    	suvi	0		S	sg p
müts	müts	0		S	sg n
    	müts	0		I	
-	-			Z	
65	65	0		N	?
kop	kop	0		Y	?
.	.			Z	
kahju	kahi	0		S	adt
     	kahi	0		S	sg g
     	kahi	0		S	sg p
     	kahju	0		S	sg g
     	kahju	0		S	sg n
     	kahju	0		S	sg p
kokku	kokku	0		D	
     	kogu	0		S	adt
10	10	0		N	?
rub	####				
.	.			Z	
95	95	0		N	?
kop	kop	0		Y	?
.	.			Z	
Ei	ei	0		D	
  	ei	0		V	neg
oska	oska	0		V	o
kirjutada	kirjuta	da		V	da
:	:			Z	
Ann	Ann	0		H	sg n
Kruus	kruus	0		S	sg n
XXX	XXX	0		O	?
   	XXX	0		Y	?
