1869	1869	0		N	?
kohus	kohu	s		V	s
     	kohus	0		S	sg n
oli	ole	i		V	s
sel	see	l		P	sg ad
   	sel	0		Y	?
4ndal	4=s	l		O	sg ad
jaanuars	####				
1868	1868	0		N	?
koos	koos	0		D	
    	koos	0		K	
    	koos	0		S	sg n
    	kubu	s		S	sg in
,	,			Z	
aga	aga	0		J	
ei	ei	0		D	
  	ei	0		V	neg
olnud	ol=nud	0		A	
     	ol=nud	0		A	sg n
     	ol=nud	d		A	pl n
     	ole	nud		V	nud
     	olnu	d		S	pl n
üks	üks	0		N	sg n
   	üks	0		P	sg n
seletada	seleta	da		V	da
.	.			Z	
kohtupeamees	kohtu_pea_mees	0		S	sg n
Jakob	Jakob	0		H	sg n
Iis	####				
(	(			Z	
XXX	XXX	0		O	?
   	XXX	0		Y	?
)	)			Z	
abimees	abi_mees	0		S	sg n
Juhan	Juhan	0		H	sg n
Krusert	####				
(	(			Z	
XXX	XXX	0		O	?
   	XXX	0		Y	?
)	)			Z	
abimees	abi_mees	0		S	sg n
Kustas	Kusta	s		H	sg in
      	Kustas	0		H	sg n
Lepberg	####				
(	(			Z	
XXX	XXX	0		O	?
   	XXX	0		Y	?
)	)			Z	
kirjutaja	kirjutaja	0		S	sg g
         	kirjutaja	0		S	sg n
R. Hirsch	####				
.	.			Z	
