2	2	0		N	?
)	)			Z	
astus	astu	s		V	s
ette	ette	0		D	
    	ette	0		K	
    	esi	tte		S	adt
lesk	lesk	0		S	sg n
Anne	Ann	e		H	pl p
    	Anne	0		H	sg g
    	anne	0		S	sg n
    	Anne	0		H	sg n
Alep	####				
ja	ja	0		J	
rääkis	rääki	s		V	s
välja	välja	0		D	
     	välja	0		V	o
     	väli	0		S	adt
     	väli	0		S	sg g
     	väli	0		S	sg p
:	:			Z	
Jüri	Jüri	0		H	sg g
    	Jüri	0		H	sg n
eermann	####				
auaste	au_aste	0		S	sg n
vallast	vald	st		S	sg el
olla	ole	a		V	da
Jüripäevast	jüri_päev	st		S	sg el
1878	1878	0		N	?
a.	a	0		Y	?
ta	tema	0		P	sg g
  	tema	0		P	sg n
poja	poeg	0		S	sg g
    	poja	0		S	sg g
    	poja	0		S	sg n
    	poja	0		S	sg p
Madise	Madis	0		H	sg g
      	madis	0		S	sg g
selle	see	0		P	sg g
     	sell	e		S	pl p
kaubaga	kaup	ga		S	sg kom
enese	ise	0		P	sg g
juure	juur	0		S	sg g
võtnud	võt	nud		V	nud
      	võt=nu	d		S	pl n
      	võt=nud	0		A	
      	võt=nud	0		A	sg n
      	võt=nud	d		A	pl n
,	,			Z	
et	et	0		J	
sui	sui	0		D	
pidanud	pida	nud		V	nud
       	pida=nu	d		S	pl n
       	pida=nud	0		A	
       	pida=nud	0		A	sg n
       	pida=nud	d		A	pl n
karjas	kari	s		S	sg in
käima	käi	ma		V	ma
     	käim	0		S	adt
     	käim	0		S	sg g
     	käim	0		S	sg p
ja	ja	0		J	
talve	talv	0		S	adt
     	talv	0		S	sg g
     	tali	0		S	adt
     	tali	0		S	sg g
     	talv	0		S	sg p
     	tali	0		S	sg p
kolis	koli	s		S	sg in
     	koli	s		V	s
käima	käi	ma		V	ma
     	käim	0		S	adt
     	käim	0		S	sg g
     	käim	0		S	sg p
;	;			Z	
aga	aga	0		J	
Jüri	Jüri	0		H	sg g
    	Jüri	0		H	sg n
eermann	####				
olla	ole	a		V	da
sügise	sügis	0		S	sg g
ta	tema	0		P	sg g
  	tema	0		P	sg n
poja	poeg	0		S	sg g
    	poja	0		S	sg g
    	poja	0		S	sg n
    	poja	0		S	sg p
siis	siis	0		D	
    	siis	0		J	
ära	ära	0		D	
   	ära	0		V	neg o
saatnud	saat	nud		V	nud
       	saat=nu	d		S	pl n
       	saat=nud	0		A	
       	saat=nud	0		A	sg n
       	saat=nud	d		A	pl n
,	,			Z	
kui	kui	0		D	
   	kui	0		J	
koli	koli	0		S	sg g
    	koli	0		V	o
    	koli	0		S	sg n
    	koli	0		S	sg p
aeg	aeg	0		S	sg n
hakanud	hakka	nud		V	nud
       	haka=nu	d		S	pl n
       	haka=nud	0		A	
       	haka=nud	0		A	sg n
       	haka=nud	d		A	pl n
,	,			Z	
ega	ega	0		D	
   	ega	0		J	
ole	ole	0		V	o
kolis	koli	s		S	sg in
     	koli	s		V	s
käimise	käimine	0		S	sg g
tarvis	tarvis	0		D	
      	tarvis	0		K	
üks	üks	0		N	sg n
   	üks	0		P	sg n
abi	abi	0		S	sg g
   	abi	0		S	sg n
   	abi	0		S	sg p
annud	####				
.	.			Z	
Anne	Ann	e		H	pl p
    	Anne	0		H	sg g
    	anne	0		S	sg n
    	Anne	0		H	sg n
Alep	####				
nõudis	nõud	is		V	s
Jüri	Jüri	0		H	sg g
    	Jüri	0		H	sg n
eermanni	####				
käest	käest	0		K	
     	käsi	st		S	sg el
Madise	Madis	0		H	sg g
      	madis	0		S	sg g
talve	talv	0		S	adt
     	talv	0		S	sg g
     	tali	0		S	adt
     	tali	0		S	sg g
     	talv	0		S	sg p
     	tali	0		S	sg p
kolis	koli	s		S	sg in
     	koli	s		V	s
käimise	käimine	0		S	sg g
söömisse	söömine	se		S	adt
abiks	abi	ks		S	sg tr
3	3	0		N	?
setverikut	####				
rukkit	####				
.	.			Z	
astus	astu	s		V	s
ette	ette	0		D	
    	ette	0		K	
    	esi	tte		S	adt
Jüri	Jüri	0		H	sg g
    	Jüri	0		H	sg n
eermann	####				
ja	ja	0		J	
ütles	ütle	s		V	s
Madis	Madis	0		H	sg n
     	madis	0		S	sg n
Alepa	####				
enese	ise	0		P	sg g
juure	juur	0		S	sg g
võttes	võt	es		V	des
      	võte	s		S	sg in
,	,			Z	
seda	see	da		P	sg p
kaupa	kaup	0		S	adt
     	kaup	0		S	sg p
     	kaupa	0		K	
mitte	mitte	0		D	
teinud	tege	nud		V	nud
      	tei=nud	0		A	
      	tei=nud	0		A	sg n
      	tei=nud	d		A	pl n
      	teinu	d		S	pl n
olevat	ole	vat		V	vat
      	olev	t		A	sg p
      	olev	t		S	sg p
,	,			Z	
et	et	0		J	
ta	tema	0		P	sg g
  	tema	0		P	sg n
teda	tema	da		P	sg p
talve	talv	0		S	adt
     	talv	0		S	sg g
     	tali	0		S	adt
     	tali	0		S	sg g
     	talv	0		S	sg p
     	tali	0		S	sg p
pidanud	pida	nud		V	nud
       	pida=nu	d		S	pl n
       	pida=nud	0		A	
       	pida=nud	0		A	sg n
       	pida=nud	d		A	pl n
koli	koli	0		S	sg g
    	koli	0		V	o
    	koli	0		S	sg n
    	koli	0		S	sg p
panema	pane	ma		V	ma
.	.			Z	
Ja	ja	0		J	
kui	kui	0		D	
   	kui	0		J	
Madis	Madis	0		H	sg n
     	madis	0		S	sg n
oleks	ole	ks		V	ks
hää	####				
poiss	poiss	0		S	sg n
olnud	ol=nud	0		A	
     	ol=nud	0		A	sg n
     	ol=nud	d		A	pl n
     	ole	nud		V	nud
     	olnu	d		S	pl n
,	,			Z	
siis	siis	0		D	
    	siis	0		J	
oleks	ole	ks		V	ks
ta	tema	0		P	sg g
  	tema	0		P	sg n
teda	tema	da		P	sg p
talve	talv	0		S	adt
     	talv	0		S	sg g
     	tali	0		S	adt
     	tali	0		S	sg g
     	talv	0		S	sg p
     	tali	0		S	sg p
,	,			Z	
üle	üle	0		D	
   	üle	0		K	
kauba	kaup	0		S	sg g
,	,			Z	
enese	ise	0		P	sg g
leival	leib	l		S	sg ad
pidanud	pida	nud		V	nud
       	pida=nu	d		S	pl n
       	pida=nud	0		A	
       	pida=nud	0		A	sg n
       	pida=nud	d		A	pl n
ja	ja	0		J	
ka	ka	0		D	
kooli	kool	i		S	pl p
     	kool	0		S	adt
     	kool	0		S	sg g
     	kool	0		S	sg p
pannud	pan=nu	d		S	pl n
      	pan=nud	0		A	
      	pan=nud	0		A	sg n
      	pan=nud	d		A	pl n
      	pane	nud		V	nud
;	;			Z	
aga	aga	0		J	
ta	tema	0		P	sg g
  	tema	0		P	sg n
olla	ole	a		V	da
tema	tema	0		P	sg g
    	tema	0		P	sg n
majas	maja	s		S	sg in
varastanud	varasta	nud		V	nud
          	varasta=nu	d		S	pl n
          	varasta=nud	0		A	
          	varasta=nud	0		A	sg n
          	varasta=nud	d		A	pl n
,	,			Z	
ja	ja	0		J	
ühe	üks	0		N	sg g
   	üks	0		P	sg g
   	ühe	0		S	sg n
teise	teine	0		O	adt
     	teine	0		O	sg g
     	teine	0		P	adt
     	teine	0		P	sg g
karjatsega	####				
seltsis	selts	s		S	sg in
       	seltsi	s		V	s
       	seltsis	0		D	
       	seltsis	0		K	
,	,			Z	
ühe	üks	0		N	sg g
   	üks	0		P	sg g
   	ühe	0		S	sg n
lamba	lammas	0		S	sg g
tule	tuli	0		S	sg g
    	tule	0		V	o
lõkke	lõke	0		S	sg g
peal	pea	l		S	sg ad
    	peal	0		D	
    	peal	0		K	
ära	ära	0		D	
   	ära	0		V	neg o
põletanud	põleta	nud		V	nud
         	põleta=nu	d		S	pl n
         	põleta=nud	0		A	
         	põleta=nud	0		A	sg n
         	põleta=nud	d		A	pl n
,	,			Z	
nõnda	nõnda	0		D	
et	et	0		J	
lamas	lama	s		V	s
on	ole	0		V	b
  	ole	0		V	vad
ära	ära	0		D	
   	ära	0		V	neg o
surnud	surnu	d		S	pl n
      	surnud	0		A	
      	surnud	0		A	sg n
      	surnud	d		A	pl n
      	sure	nud		V	nud
,	,			Z	
sepärast	####				
ei	ei	0		D	
  	ei	0		V	neg
olla	ole	a		V	da
ta	tema	0		P	sg g
  	tema	0		P	sg n
võinud	või	nud		V	nud
      	või=nu	d		S	pl n
      	või=nud	0		A	
      	või=nud	0		A	sg n
      	või=nud	d		A	pl n
teda	tema	da		P	sg p
talve	talv	0		S	adt
     	talv	0		S	sg g
     	tali	0		S	adt
     	tali	0		S	sg g
     	talv	0		S	sg p
     	tali	0		S	sg p
mitte	mitte	0		D	
pidada	pida	da		V	da
.	.			Z	
Otsus	otsus	0		S	sg n
:	:			Z	
et	et	0		J	
Madis	Madis	0		H	sg n
     	madis	0		S	sg n
Alep	####				
kolis	koli	s		S	sg in
     	koli	s		V	s
käia	käi	0		S	adt
    	käi	0		S	sg g
    	käi	a		V	da
    	käia	0		V	o
    	käi	0		S	sg p
las	las	0		D	
on	ole	0		V	b
  	ole	0		V	vad
ja	ja	0		J	
Jüri	Jüri	0		H	sg g
    	Jüri	0		H	sg n
eermann	####				
teadis	tead	is		V	s
      	teadis	0		S	sg n
seda	see	da		P	sg p
,	,			Z	
ja	ja	0		J	
kaupa	kaup	0		S	adt
     	kaup	0		S	sg p
     	kaupa	0		K	
tehes	tege	es		V	des
oleks	ole	ks		V	ks
pidanud	pida	nud		V	nud
       	pida=nu	d		S	pl n
       	pida=nud	0		A	
       	pida=nud	0		A	sg n
       	pida=nud	d		A	pl n
kas	kas	0		D	
kirja	kirja	0		A	
     	kirja	0		V	o
     	kiri	0		S	adt
     	kiri	0		S	sg g
     	kiri	0		S	sg p
läbi	läbi	0		D	
    	läbi	0		K	
    	läbi	0		V	o
ehk	ehk	0		D	
   	ehk	0		J	
tunnistus	tunnistus	0		S	sg n
meeste	meene	te		A	pl g
      	mees	te		S	pl g
kuuldes	kuul	des		V	des
       	kuule	s		S	sg in
nisuguse	####				
kauba	kaup	0		S	sg g
tegema	tege	ma		V	ma
,	,			Z	
et	et	0		J	
ta	tema	0		P	sg g
  	tema	0		P	sg n
talve	talv	0		S	adt
     	talv	0		S	sg g
     	tali	0		S	adt
     	tali	0		S	sg g
     	talv	0		S	sg p
     	tali	0		S	sg p
Madist	Madis	t		H	sg p
      	madis	t		S	sg p
ei	ei	0		D	
  	ei	0		V	neg
pea	pea	0		D	
   	pea	0		S	sg g
   	pida	0		V	o
   	pea	0		S	sg n
ega	ega	0		D	
   	ega	0		J	
koli	koli	0		S	sg g
    	koli	0		V	o
    	koli	0		S	sg n
    	koli	0		S	sg p
ei	ei	0		D	
  	ei	0		V	neg
pane	pan	e		S	pl p
    	pane	0		V	o
,	,			Z	
aga	aga	0		J	
Jüri	Jüri	0		H	sg g
    	Jüri	0		H	sg n
eermann	####				
nisugust	####				
kaupa	kaup	0		S	adt
     	kaup	0		S	sg p
     	kaupa	0		K	
mitte	mitte	0		D	
ei	ei	0		D	
  	ei	0		V	neg
ole	ole	0		V	o
teinud	tege	nud		V	nud
      	tei=nud	0		A	
      	tei=nud	0		A	sg n
      	tei=nud	d		A	pl n
      	teinu	d		S	pl n
,	,			Z	
sepärast	####				
kohus	kohu	s		V	s
     	kohus	0		S	sg n
mõistis	mõist	is		V	s
,	,			Z	
et	et	0		J	
Jüri	Jüri	0		H	sg g
    	Jüri	0		H	sg n
eermann	####				
peab	pida	b		V	b
se	####				
3	3	0		N	?
setveriku	setverik	0		S	sg g
rukkit	####				
Madise	Madis	0		H	sg g
      	madis	0		S	sg g
talve	talv	0		S	adt
     	talv	0		S	sg g
     	tali	0		S	adt
     	tali	0		S	sg g
     	talv	0		S	sg p
     	tali	0		S	sg p
koolis	kool	is		V	s
      	kool	s		S	sg in
käimise	käimine	0		S	sg g
toidu	toit	0		S	sg g
abiks	abi	ks		S	sg tr
Anne	Ann	e		H	pl p
    	Anne	0		H	sg g
    	anne	0		S	sg n
    	Anne	0		H	sg n
Alepale	ale_pale	0		S	sg g
       	ale_pale	0		S	sg n
maksma	maks	ma		V	ma
.	.			Z	
Ja	ja	0		J	
et	et	0		J	
Jüri	Jüri	0		H	sg g
    	Jüri	0		H	sg n
eermann	####				
siis	siis	0		D	
    	siis	0		J	
mitte	mitte	0		D	
ei	ei	0		D	
  	ei	0		V	neg
ole	ole	0		V	o
kohe	kohe	0		A	sg n
    	kohe	0		D	
ülesannud	####				
,	,			Z	
kui	kui	0		D	
   	kui	0		J	
Madis	Madis	0		H	sg n
     	madis	0		S	sg n
on	ole	0		V	b
  	ole	0		V	vad
varastanud	varasta	nud		V	nud
          	varasta=nu	d		S	pl n
          	varasta=nud	0		A	
          	varasta=nud	0		A	sg n
          	varasta=nud	d		A	pl n
ja	ja	0		J	
niisamuti	nii_samuti	0		D	
ta	tema	0		P	sg g
  	tema	0		P	sg n
lamba	lammas	0		S	sg g
ärapõletanud	ära_põleta=nu	d		S	pl n
            	ära_põleta=nud	0		A	
            	ära_põleta=nud	0		A	sg n
            	ära_põleta=nud	d		A	pl n
,	,			Z	
vaid	vaid	0		D	
    	vaid	0		J	
enese	ise	0		P	sg g
teada	tead	a		V	da
pidanud	pida	nud		V	nud
       	pida=nu	d		S	pl n
       	pida=nud	0		A	
       	pida=nud	0		A	sg n
       	pida=nud	d		A	pl n
ja	ja	0		J	
ütleb	ütle	b		V	b
sepärast	####				
teda	tema	da		P	sg p
mitte	mitte	0		D	
pidada	pida	da		V	da
võinud	või	nud		V	nud
      	või=nu	d		S	pl n
      	või=nud	0		A	
      	või=nud	0		A	sg n
      	või=nud	d		A	pl n
;	;			Z	
sepärast	####				
ei	ei	0		D	
  	ei	0		V	neg
saanud	saa	nud		V	nud
      	saa=nud	0		A	
      	saa=nud	0		A	sg n
      	saa=nud	d		A	pl n
      	saanu	d		S	pl n
Jüri	Jüri	0		H	sg g
    	Jüri	0		H	sg n
Ermanni	####				
ütlemine	ütlemine	0		S	sg n
mitte	mitte	0		D	
töeks	####				
petud	pett	d		S	pl n
;	;			Z	
aga	aga	0		J	
siiski	siiski	0		D	
sai	saa	i		V	s
   	sai	0		S	sg n
Jüri	Jüri	0		H	sg g
    	Jüri	0		H	sg n
Ermann	####				
käsko	####				
se	####				
lamba	lammas	0		S	sg g
põletamise	põletamine	0		S	sg g
üle	üle	0		D	
   	üle	0		K	
,	,			Z	
karjatsed	####				
ja	ja	0		J	
tunnistust	tunnistus	t		S	sg p
kohtu	kohtu	0		V	o
     	kohus	0		S	sg g
ette	ette	0		D	
    	ette	0		K	
    	esi	tte		S	adt
tua	####				
,	,			Z	
kelle	kes	0		P	pl g
     	kes	0		P	sg g
üle	üle	0		D	
   	üle	0		K	
kui	kui	0		D	
   	kui	0		J	
se	####				
saab	saa	b		V	b
tõsi	tõsi	0		S	pl p
    	tõsi	0		S	sg n
leitud	leid	tud		V	tud
      	leitu	d		S	pl n
      	leitud	0		A	
      	leitud	0		A	sg n
      	leitud	d		A	pl n
olevat	ole	vat		V	vat
      	olev	t		A	sg p
      	olev	t		S	sg p
,	,			Z	
kurja	kuri	0		A	adt
     	kuri	0		A	sg g
     	kuri	0		S	adt
     	kuri	0		S	sg g
     	kuri	0		A	sg p
     	kuri	0		S	sg p
vallatuse	vallatus	0		S	sg g
üle	üle	0		D	
   	üle	0		K	
karjatsed	####				
peavad	pida	vad		V	vad
karistud	####				
saama	saa	ma		V	ma
     	saam	0		S	adt
     	saam	0		S	sg g
     	saam	0		S	sg p
.	.			Z	
