6ndal	6=s	l		O	sg ad
Lehe	leht	0		S	sg g
Ku	####				
päeval	päev	l		S	sg ad
kohtu	kohtu	0		V	o
     	kohus	0		S	sg g
Mehed	mees	d		S	pl n
istusid	ist	sid		S	pl p
       	istu	sid		V	sid
koos	koos	0		D	
    	koos	0		K	
    	koos	0		S	sg n
    	kubu	s		S	sg in
.	.			Z	
Jüri	Jüri	0		H	sg g
    	Jüri	0		H	sg n
Pauvalt	####				
tuli	tuli	0		S	sg n
    	tule	i		V	s
kohtuse	kohtune	0		A	sg g
sellepärast	selle_pärast	0		D	
(	(			Z	
nad	tema	d		P	pl n
olid	ole	id		V	sid
)	)			Z	
et	et	0		J	
temal	tema	l		P	sg ad
Hans	Hans	0		H	sg n
Leistukki	####				
käest	käest	0		K	
     	käsi	st		S	sg el
oli	ole	i		V	s
pärimest	####				
Nemad	tema	d		P	pl n
olid	ole	id		V	sid
poole	pool	0		N	sg g
     	pool	0		S	sg g
     	pool	e		S	pl p
     	poole	0		K	
     	poole	0		S	sg n
maade	maa	de		S	pl g
peal	pea	l		S	sg ad
    	peal	0		D	
    	peal	0		K	
Jüri	Jüri	0		H	sg g
    	Jüri	0		H	sg n
Pouvalt	####				
oli	ole	i		V	s
peremees	pere_mees	0		S	sg n
ja	ja	0		J	
Hans	Hans	0		H	sg n
Leistukki	####				
pooled	pool	d		N	pl n
      	pool	d		S	pl n
maad	maa	d		S	pl n
    	maa	d		S	sg p
said	saa	id		V	sid
Jüri	Jüri	0		H	sg g
    	Jüri	0		H	sg n
Pauvaldi	####				
kätte	kätte	0		K	
     	käsi	tte		S	adt
Hans	Hans	0		H	sg n
Leistuk	####				
oli	ole	i		V	s
heinamaa	heina_maa	0		S	sg g
        	heina_maa	0		S	sg n
välja	välja	0		D	
     	välja	0		V	o
     	väli	0		S	adt
     	väli	0		S	sg g
     	väli	0		S	sg p
numan	####				
ja	ja	0		J	
natuke	natuke	0		D	
      	natuke	0		S	sg n
põltu	####				
välja	välja	0		D	
     	välja	0		V	o
     	väli	0		S	adt
     	väli	0		S	sg g
     	väli	0		S	sg p
numan	####				
kohtu	kohtu	0		V	o
     	kohus	0		S	sg g
Mehed	mees	d		S	pl n
mõistsid	mõist	sid		V	sid
et	et	0		J	
Hans	Hans	0		H	sg n
Leistuk	####				
maksan	maks	n		V	n
Jüri	Jüri	0		H	sg g
    	Jüri	0		H	sg n
Puvaldile	####				
tagasi	tagasi	0		D	
      	tagasi	0		K	
kolm	kolm	0		N	sg n
rubla	rubla	0		S	sg g
     	rubla	0		S	sg n
     	rubla	0		S	sg p
raha	raha	0		S	sg g
    	raha	0		S	sg n
    	raha	0		S	sg p
heinama	####				
eest	eest	0		D	
    	eest	0		K	
    	esi	st		S	sg el
ja	ja	0		J	
üks	üks	0		N	sg n
   	üks	0		P	sg n
külvmit	####				
rukkit	####				
Pöllo	####				
eest	eest	0		D	
    	eest	0		K	
    	esi	st		S	sg el
.	.			Z	
kohtu	kohtu	0		V	o
     	kohus	0		S	sg g
Mees	mees	0		S	sg n
    	mesi	s		S	sg in
Mihkel	Mihkel	0		H	sg n
      	mihkel	0		A	sg n
      	mihkel	0		S	sg n
Ennopärk	####				
XXX	XXX	0		O	?
   	XXX	0		Y	?
kõrva	kõrv	0		S	adt
     	kõrv	0		S	sg g
     	kõrv	0		S	sg p
Mehed	mees	d		S	pl n
Andrus	Andrus	0		H	sg n
Lemloh	####				
XXX	XXX	0		O	?
   	XXX	0		Y	?
Jaen	####				
Peeterpärk	####				
