Haeska	Haeska	0		H	sg g
      	Haeska	0		H	sg n
mõisa	mõis	0		S	sg g
valitsuse	valitsus	0		S	sg g
poolest	pool	st		N	sg el
       	pool	st		S	sg el
       	poolene	t		A	sg p
       	poolest	0		K	
sai	saa	i		V	s
   	sai	0		S	sg n
kaevatud	kaeba	tud		V	tud
        	kaeva	tud		V	tud
        	kaeva=tu	d		S	pl n
        	kaeva=tud	0		A	
        	kaeva=tud	0		A	sg n
        	kaeva=tud	d		A	pl n
,	,			Z	
et	et	0		J	
Andrus	Andrus	0		H	sg n
Krevon	####				
on	ole	0		V	b
  	ole	0		V	vad
heinamaa	heina_maa	0		S	sg g
        	heina_maa	0		S	sg n
aia	aed	0		S	sg g
maha	maha	0		D	
kiskunud	kisku	nud		V	nud
        	kisku=nu	d		S	pl n
        	kisku=nud	0		A	
        	kisku=nud	0		A	sg n
        	kisku=nud	d		A	pl n
ja	ja	0		J	
oomad	####				
hobosed	####				
mõisa	mõis	0		S	sg g
heinamaa	heina_maa	0		S	sg g
        	heina_maa	0		S	sg n
pealt	pea	lt		S	sg abl
     	pealt	0		D	
     	pealt	0		K	
välja	välja	0		D	
     	välja	0		V	o
     	väli	0		S	adt
     	väli	0		S	sg g
     	väli	0		S	sg p
toonud	too	nud		V	nud
      	too=nu	d		S	pl n
      	too=nud	0		A	
      	too=nud	0		A	sg n
      	too=nud	d		A	pl n
.	.			Z	
metsavaht	metsa_vaht	0		S	sg n
tunnistas	tunnista	s		V	s
et	et	0		J	
tema	tema	0		P	sg g
    	tema	0		P	sg n
selle	see	0		P	sg g
     	sell	e		S	pl p
koha	koht	0		S	sg g
    	koha	0		S	sg g
    	koha	0		V	o
    	koha	0		S	sg n
    	koha	0		S	sg p
oli	ole	i		V	s
just	just	0		D	
    	just	0		I	
enne	enne	0		D	
    	enne	0		K	
    	enne	0		S	sg n
seda	see	da		P	sg p
ülles	####				
teinud	tege	nud		V	nud
      	tei=nud	0		A	
      	tei=nud	0		A	sg n
      	tei=nud	d		A	pl n
      	teinu	d		S	pl n
ja	ja	0		J	
nüüd	nüüd	0		D	
oli	ole	i		V	s
jälle	jälle	0		D	
maha	maha	0		D	
kistud	kis=tu	d		S	pl n
      	kisku	tud		V	tud
      	kistud	0		A	
      	kistud	0		A	sg n
      	kistud	d		A	pl n
.	.			Z	
Juhan	Juhan	0		H	sg n
Birk	####				
mõisa	mõis	0		S	sg g
teomees	teo_mees	0		S	sg n
oli	ole	i		V	s
näinud	näi	nud		V	nud
      	näge	nud		V	nud
      	näi=nud	0		A	
      	näi=nud	0		A	sg n
      	näi=nud	d		A	pl n
      	näinu	d		S	pl n
Andrust	Andrus	t		H	sg p
sealt	sealt	0		D	
     	siga	lt		A	sg abl
     	siga	lt		S	sg abl
kohast	koht	st		S	sg el
      	koha	st		S	sg el
      	kohane	t		A	sg p
ooma	####				
hobosed	####				
ülle	ülle	0		D	
vali	vali	0		A	sg n
    	vali	0		V	o
välja	välja	0		D	
     	välja	0		V	o
     	väli	0		S	adt
     	väli	0		S	sg g
     	väli	0		S	sg p
viid	vii	d		V	d
.	.			Z	
kohtu	kohtu	0		V	o
     	kohus	0		S	sg g
poolest	pool	st		N	sg el
       	pool	st		S	sg el
       	poolene	t		A	sg p
       	poolest	0		K	
sai	saa	i		V	s
   	sai	0		S	sg n
kaevtuse	####				
alune	alune	0		A	sg n
     	alune	0		S	sg n
,	,			Z	
Andrus	Andrus	0		H	sg n
Krevon	####				
,	,			Z	
vastusele	vastus	le		S	sg all
võetud	võe=tu	d		S	pl n
      	võetud	0		A	
      	võetud	0		A	sg n
      	võetud	d		A	pl n
      	võt	tud		V	tud
ja	ja	0		J	
tema	tema	0		P	sg g
    	tema	0		P	sg n
saanud	saa	nud		V	nud
      	saa=nud	0		A	
      	saa=nud	0		A	sg n
      	saa=nud	d		A	pl n
      	saanu	d		S	pl n
seda	see	da		P	sg p
mitte	mitte	0		D	
ära	ära	0		D	
   	ära	0		V	neg o
salgada	####				
.	.			Z	
kohus	kohu	s		V	s
     	kohus	0		S	sg n
mõistis	mõist	is		V	s
:	:			Z	
et	et	0		J	
Andres	Andre	s		H	sg in
      	Andres	0		H	sg n
Krevon	####				
ooma	####				
hobosed	####				
sealt	sealt	0		D	
     	siga	lt		A	sg abl
     	siga	lt		S	sg abl
maha	maha	0		D	
kistud	kis=tu	d		S	pl n
      	kisku	tud		V	tud
      	kistud	0		A	
      	kistud	0		A	sg n
      	kistud	d		A	pl n
aiast	aed	st		S	sg el
ülle	ülle	0		D	
viinud	vii	nud		V	nud
      	vii=nu	d		S	pl n
      	vii=nud	0		A	
      	vii=nud	0		A	sg n
      	vii=nud	d		A	pl n
mis	mis	0		P	pl n
   	mis	0		P	sg n
päev	päev	0		S	sg n
enne	enne	0		D	
    	enne	0		K	
    	enne	0		S	sg n
seda	see	da		P	sg p
parandud	####				
saanud	saa	nud		V	nud
      	saa=nud	0		A	
      	saa=nud	0		A	sg n
      	saa=nud	d		A	pl n
      	saanu	d		S	pl n
,	,			Z	
siis	siis	0		D	
    	siis	0		J	
on	ole	0		V	b
  	ole	0		V	vad
moista	####				
,	,			Z	
et	et	0		J	
ta	tema	0		P	sg g
  	tema	0		P	sg n
aia	aed	0		S	sg g
maha	maha	0		D	
kiskund	####				
,	,			Z	
seepärast	see_pärast	0		D	
maksab	maks	b		V	b
tema	tema	0		P	sg g
    	tema	0		P	sg n
1	1	0		N	?
rubla	rubla	0		S	sg g
     	rubla	0		S	sg n
     	rubla	0		S	sg p
trahvi	trahv	0		S	adt
      	trahv	0		S	sg g
      	trahvi	0		V	o
      	trahv	0		S	sg p
mõisa	mõis	0		S	sg g
härrale	härra	le		S	sg all
.	.			Z	
Kui	kui	0		D	
   	kui	0		J	
se	####				
kohtu	kohtu	0		V	o
     	kohus	0		S	sg g
mõistus	mõistus	0		S	sg n
temale	tema	le		P	sg all
ette	ette	0		D	
    	ette	0		K	
    	esi	tte		S	adt
pandud	pan=du	d		S	pl n
      	pan=dud	0		A	
      	pan=dud	0		A	sg n
      	pan=dud	d		A	pl n
      	pane	dud		V	tud
sai	saa	i		V	s
   	sai	0		S	sg n
,	,			Z	
maksis	maks	is		V	s
      	maksi	s		S	sg in
ta	tema	0		P	sg g
  	tema	0		P	sg n
se	####				
trahv	trahv	0		S	sg n
välja	välja	0		D	
     	välja	0		V	o
     	väli	0		S	adt
     	väli	0		S	sg g
     	väli	0		S	sg p
,	,			Z	
mis	mis	0		P	pl n
   	mis	0		P	sg n
mõisa	mõis	0		S	sg g
härra	härra	0		S	sg g
     	härra	0		S	sg n
kätte	kätte	0		K	
     	käsi	tte		S	adt
toimetud	toimetu	d		A	pl n
sai	saa	i		V	s
   	sai	0		S	sg n
.	.			Z	
