sell	sell	0		S	sg n
(	(			Z	
1894	1894	0		N	?
)	)			Z	
ükstuhat	####				
kaheksasada	kaheksa_sada	0		N	sg n
üheksa	üheksa	0		N	sg g
      	üheksa	0		N	sg n
None	####				
neljandamal	####				
aastal	aasta	l		S	sg ad
kahekümnekaheksamal	####				
Paastu	paast	0		S	adt
      	paast	0		S	sg g
      	paastu	0		V	o
      	paast	0		S	sg p
kp	####				
.	.			Z	
astusid	astu	sid		V	sid
Sinelepa	sine_lepp	0		S	sg g
kogukonna	kogukond	0		S	sg g
kohtu	kohtu	0		V	o
     	kohus	0		S	sg g
ette	ette	0		D	
    	ette	0		K	
    	esi	tte		S	adt
Võnnu	Võnnu	0		H	sg g
     	Võnnu	0		H	sg n
valla	vald	0		S	sg g
     	valla	0		D	
liikmed	liige	d		S	pl n
Johan	Johan	0		H	sg n
Tõnise	Tõnis	0		H	sg g
poeg	poeg	0		S	sg n
Mang	####				
ja	ja	0		J	
Anne	Ann	e		H	pl p
    	Anne	0		H	sg g
    	anne	0		S	sg n
    	Anne	0		H	sg n
Tõnise	Tõnis	0		H	sg g
t	t	0		Y	?
.	.			Z	
Mang	####				
ja	ja	0		J	
lasksid	lask	sid		V	sid
järgmise	järgmine	0		A	sg g
lepingu	leping	0		S	sg g
kohtu	kohtu	0		V	o
     	kohus	0		S	sg g
raamatuse	raa_matus	0		S	sg g
ülles	####				
võta	võt	0		V	o
:	:			Z	
""""	""""			Z	
Tänasel	tänane	l		A	sg ad
päeval	päev	l		S	sg ad
laenan	laena	n		V	n
mina	mina	0		P	sg n
    	mina	0		S	sg g
    	mina	0		S	sg n
    	mina	0		S	sg p
Johan	Johan	0		H	sg n
Mang	####				
'	’			Z	
ule	####				
puhast	puhas	t		A	sg p
raha	raha	0		S	sg g
    	raha	0		S	sg n
    	raha	0		S	sg p
ükstõistNone	####				
rubla	rubla	0		S	sg g
     	rubla	0		S	sg n
     	rubla	0		S	sg p
46	46	0		N	?
kopik	####				
ja	ja	0		J	
saan	saa	n		V	n
    	saan	0		S	sg n
tema	tema	0		P	sg g
    	tema	0		P	sg n
,	,			Z	
Johan	Johan	0		H	sg n
Mangi	Man	0	gi	H	sg n
     	man	0	gi	D	
     	man	0	gi	K	
,	,			Z	
käest	käest	0		K	
     	käsi	st		S	sg el
sauna	saun	0		S	adt
     	saun	0		S	sg g
     	saun	0		S	sg p
hoone	hoone	0		S	sg g
     	hoone	0		S	sg n
,	,			Z	
mis	mis	0		P	pl n
   	mis	0		P	sg n
on	ole	0		V	b
  	ole	0		V	vad
Võnnu	Võnnu	0		H	sg g
     	Võnnu	0		H	sg n
valdas	valda	s		V	s
""""	""""			Z	
Saaniku	####				
küllas	küll	s		S	sg in
""""	""""			Z	
Tirtsi	####				
""""	""""			Z	
vabat	####				
koha	koht	0		S	sg g
    	koha	0		S	sg g
    	koha	0		V	o
    	koha	0		S	sg n
    	koha	0		S	sg p
peal	pea	l		S	sg ad
    	peal	0		D	
    	peal	0		K	
omale	oma	le		A	sg all
     	oma	le		P	sg all
     	oma	le		S	sg all
pandiks	pant	ks		S	sg tr
       	panti	ks		V	ks
seni	seni	0		D	
kauaks	kauaks	0		D	
kuni	kuni	0		J	
    	kuni	0		K	
Johan	Johan	0		H	sg n
Mang	####				
minu	mina	0		P	sg g
laenu	laen	0		S	adt
     	laen	0		S	sg g
     	laenu	0		V	o
     	laen	0		S	sg p
11	11	0		N	?
rbl	rbl	0		Y	?
.	.			Z	
46	46	0		N	?
kopik	####				
Sinelepa	sine_lepp	0		S	sg g
valla	vald	0		S	sg g
     	valla	0		D	
kohtus	kohtu	s		V	s
      	kohus	s		S	sg in
puhtas	puhas	s		A	sg in
rahas	raha	s		S	sg in
tagasi	tagasi	0		D	
      	tagasi	0		K	
maksab	maks	b		V	b
.	.			Z	
Oon	####				
Johan	Johan	0		H	sg n
Mang	####				
minule	mina	le		P	sg all
selle	see	0		P	sg g
     	sell	e		S	pl p
võla	võlg	0		S	sg g
välja	välja	0		D	
     	välja	0		V	o
     	väli	0		S	adt
     	väli	0		S	sg g
     	väli	0		S	sg p
maksnud	maks	nud		V	nud
       	maks=nu	d		S	pl n
       	maks=nud	0		A	
       	maks=nud	0		A	sg n
       	maks=nud	d		A	pl n
,	,			Z	
siis	siis	0		D	
    	siis	0		J	
saab	saa	b		V	b
see	see	0		P	sg n
sinane	####				
leping	leping	0		S	sg n
meie	mina	0		P	pl g
    	mina	0		P	pl n
eneste	ise	te		P	pl g
poolt	pool	t		N	sg p
     	pool	t		S	sg p
     	poolt	0		D	
     	poolt	0		K	
sellesama	see_sama	0		P	sg g
kohtu	kohtu	0		V	o
     	kohus	0		S	sg g
ees	ees	0		D	
   	ees	0		K	
   	esi	s		S	sg in
ära	ära	0		D	
   	ära	0		V	neg o
muudetud	muut	tud		V	tud
        	muude=tu	d		S	pl n
        	muude=tud	0		A	
        	muude=tud	0		A	sg n
        	muude=tud	d		A	pl n
.	.			Z	
Anne	Ann	e		H	pl p
    	Anne	0		H	sg g
    	anne	0		S	sg n
    	Anne	0		H	sg n
Mang	####				
Juhan	Juhan	0		H	sg n
Mang	####				
Lepingu	leping	0		S	sg g
osalised	osaline	d		A	pl n
on	ole	0		V	b
  	ole	0		V	vad
molemad	####				
kohtule	kohus	le		S	sg all
tuntud	tund	tud		V	tud
      	tuntu	d		S	pl n
      	tuntud	0		A	
      	tuntud	0		A	sg n
      	tuntud	d		A	pl n
ja	ja	0		J	
kõigist	kõik	st		P	pl el
v	v	0		Y	?
.	.			Z	
k	k	0		Y	?
.	.			Z	
s	s	0		Y	?
.	.			Z	
II	II	0		O	?
  	II	0		Y	?
  	jj	0		Y	?
jaos	jaos	0		S	sg n
    	jagu	s		S	sg in
§	§	0		Y	?
260	260	0		N	?
nimetatud	nimeta	tud		V	tud
         	nimetatu	d		S	pl n
         	nimetatud	0		A	
         	nimetatud	0		A	sg n
         	nimetatud	d		A	pl n
põhjustest	põhjus	test		S	pl el
priid	prii	d		A	pl n
     	prii	d		A	sg p
.	.			Z	
Vanem	vanem	0		C	sg n
     	vanem	0		S	sg n
:	:			Z	
I. Sasse	####				
kõrvamees	kõrva_mees	0		S	sg n
I	I	0		O	?
 	I	0		Y	?
 	j	0		Y	?
V. Spuhl	####				
kõrvamees	kõrva_mees	0		S	sg n
II	II	0		O	?
  	II	0		Y	?
  	jj	0		Y	?
M. Rõõmus	####				
kõrvamees	kõrva_mees	0		S	sg n
III	III	0		O	?
   	III	0		Y	?
kirjutaja	kirjutaja	0		S	sg g
         	kirjutaja	0		S	sg n
k	k	0		Y	?
.	.			Z	
künther	####				
