Ei	ei	0		D	
  	ei	0		V	neg
olnud	ol=nud	0		A	
     	ol=nud	0		A	sg n
     	ol=nud	d		A	pl n
     	ole	nud		V	nud
     	olnu	d		S	pl n
ühtigi	ühtigi	0		D	
toimetamas	toimeta	mas		V	mas
,	,			Z	
koos	koos	0		D	
    	koos	0		K	
    	koos	0		S	sg n
    	kubu	s		S	sg in
olid	ole	id		V	sid
kohtumehed	kohtu_mees	d		S	pl n
,	,			Z	
:	:			Z	
kohtuvanem	kohtu_vanem	0		C	sg n
          	kohtu_vanem	0		S	sg n
Mihkel	Mihkel	0		H	sg n
      	mihkel	0		A	sg n
      	mihkel	0		S	sg n
Sariis	####				
XXX	XXX	0		O	?
   	XXX	0		Y	?
abi	abi	0		S	sg g
   	abi	0		S	sg n
   	abi	0		S	sg p
mehed	mees	d		S	pl n
Jüri	Jüri	0		H	sg g
    	Jüri	0		H	sg n
Triksberg	####				
XXX	XXX	0		O	?
   	XXX	0		Y	?
Villem	Villem	0		H	sg n
Otsberg	####				
XXX	XXX	0		O	?
   	XXX	0		Y	?
