kohtu	kohtu	0		V	o
     	kohus	0		S	sg g
korra	kord	0		S	sg g
pärast	pära	st		S	sg el
      	pärane	t		A	sg p
      	pärast	0		D	
      	pärast	0		K	
olid	ole	id		V	sid
,	,			Z	
Parila	####				
Kebla	####				
ja	ja	0		J	
Ridala	Ridala	0		H	sg g
      	Ridala	0		H	sg n
kogukonna	kogukond	0		S	sg g
majase	####				
kohtumehed	kohtu_mees	d		S	pl n
kokku	kokku	0		D	
     	kogu	0		S	adt
tulnud	tul=nud	0		A	
      	tul=nud	0		A	sg n
      	tul=nud	d		A	pl n
      	tule	nud		V	nud
      	tulnu	d		S	pl n
.	.			Z	
kohtuvanem	kohtu_vanem	0		C	sg n
          	kohtu_vanem	0		S	sg n
:	:			Z	
Jaan	Jaan	0		H	sg n
    	jaan	0		S	sg n
    	jaan	0		Y	?
Jünter	####				
XXX	XXX	0		O	?
   	XXX	0		Y	?
kohtu	kohtu	0		V	o
     	kohus	0		S	sg g
kämehed	####				
:	:			Z	
Jüri	Jüri	0		H	sg g
    	Jüri	0		H	sg n
Nojer	####				
XXX	XXX	0		O	?
   	XXX	0		Y	?
Juhan	Juhan	0		H	sg n
Krabi	krabi	0		S	sg g
     	krabi	0		S	sg n
     	krabi	0		S	sg p
XXX	XXX	0		O	?
   	XXX	0		Y	?
kirjutaja	kirjutaja	0		S	sg g
         	kirjutaja	0		S	sg n
T. Neider	####				
