Pölnud	####				
mingisugust	mingi_sugune	t		P	sg p
kaebtust	####				
ega	ega	0		D	
   	ega	0		J	
kohtu	kohtu	0		V	o
     	kohus	0		S	sg g
käimist	käimine	t		S	sg p
.	.			Z	
kohtuvanem	kohtu_vanem	0		C	sg n
          	kohtu_vanem	0		S	sg n
:	:			Z	
J. Rehkalt	####				
XXX	XXX	0		O	?
   	XXX	0		Y	?
kõrvamehed	kõrva_mees	d		S	pl n
:	:			Z	
M. Reinberg	####				
XXX	XXX	0		O	?
   	XXX	0		Y	?
kõrvamehed	kõrva_mees	d		S	pl n
:	:			Z	
P	P	0		Y	?
.	.			Z	
kindel	kindel	0		A	sg n
XXX	XXX	0		O	?
   	XXX	0		Y	?
kirjutaja	kirjutaja	0		S	sg g
         	kirjutaja	0		S	sg n
:	:			Z	
C	C	0		O	?
 	C	0		Y	?
Allaberg	####				
