tuli	tuli	0		S	sg n
    	tule	i		V	s
ette	ette	0		D	
    	ette	0		K	
    	esi	tte		S	adt
Mäejagu	mäe_jagu	0		S	sg n
       	mäe_jagu	0		S	sg p
peremees	pere_mees	0		S	sg n
Jakob	Jakob	0		H	sg n
Spuhl	####				
,	,			Z	
kes	kes	0		P	pl n
   	kes	0		P	sg n
kogukonna	kogukond	0		S	sg g
kohtu	kohtu	0		V	o
     	kohus	0		S	sg g
abimees	abi_mees	0		S	sg n
,	,			Z	
ja	ja	0		J	
kaebab	kaeba	b		V	b
,	,			Z	
et	et	0		J	
temal	tema	l		P	sg ad
sel	see	l		P	sg ad
   	sel	0		Y	?
5ndal	5=s	l		O	sg ad
Ku	####				
päeva	päev	0		S	adt
     	päev	0		S	sg g
     	päev	0		S	sg p
öö	öö	0		S	sg g
  	öö	0		S	sg n
üks	üks	0		N	sg n
   	üks	0		P	sg n
kolme	kolm	0		N	adt
     	kolm	0		N	sg g
     	kolm	0		N	sg p
aastane	aastane	0		A	sg n
ema	ema	0		S	sg g
   	ema	0		S	sg n
   	ema	0		S	sg p
lamas	lama	s		V	s
lauast	laud	st		S	sg el
ära	ära	0		D	
   	ära	0		V	neg o
on	ole	0		V	b
  	ole	0		V	vad
varastud	####				
ja	ja	0		J	
arvab	arva	b		V	b
Matsijagu	matsi_jagu	0		S	sg n
         	matsi_jagu	0		S	sg p
Josepp	####				
korjus	korju	s		V	s
      	kori	s		S	sg in
      	korju	s		S	sg in
      	korjus	0		S	sg n
seda	see	da		P	sg p
on	ole	0		V	b
  	ole	0		V	vad
varastand	####				
,	,			Z	
et	et	0		J	
vankri	vanker	0		S	sg g
jäljed	jälg	d		S	pl n
on	ole	0		V	b
  	ole	0		V	vad
tulnd	####				
ja	ja	0		J	
Josepi	####				
õue	õu	0		S	adt
   	õu	0		S	sg g
   	õue	0		D	
   	õu	0		S	sg p
on	ole	0		V	b
  	ole	0		V	vad
siis	siis	0		D	
    	siis	0		J	
põrand	põrand	0		S	sg n
.	.			Z	
selle	see	0		P	sg g
     	sell	e		S	pl p
peal	pea	l		S	sg ad
    	peal	0		D	
    	peal	0		K	
tuli	tuli	0		S	sg n
    	tule	i		V	s
Hans	Hans	0		H	sg n
krooni	kroon	0		S	adt
      	kroon	0		S	sg g
      	krooni	0		V	o
      	kroon	0		S	sg p
naine	naine	0		S	sg n
Anu	Anu	0		H	sg g
   	anu	0		V	o
   	Anu	0		H	sg n
ja	ja	0		J	
tunnistab	tunnista	b		V	b
,	,			Z	
et	et	0		J	
tema	tema	0		P	sg g
    	tema	0		P	sg n
on	ole	0		V	b
  	ole	0		V	vad
näind	####				
kui	kui	0		D	
   	kui	0		J	
tema	tema	0		P	sg g
    	tema	0		P	sg n
Hapsalu	####				
läind	####				
te	sina	0		P	pl g
  	sina	0		P	pl n
peal	pea	l		S	sg ad
    	peal	0		D	
    	peal	0		K	
kui	kui	0		D	
   	kui	0		J	
Josepp	####				
korjus	korju	s		V	s
      	kori	s		S	sg in
      	korju	s		S	sg in
      	korjus	0		S	sg n
on	ole	0		V	b
  	ole	0		V	vad
ühe	üks	0		N	sg g
   	üks	0		P	sg g
   	ühe	0		S	sg n
valge	valge	0		A	sg g
     	valge	0		A	sg n
     	valge	0		S	sg g
     	valge	0		S	sg n
lambaga	lammas	ga		S	sg kom
Hapsalu	####				
sõitnud	sõit	nud		V	nud
       	sõit=nu	d		S	pl n
       	sõit=nud	0		A	
       	sõit=nud	0		A	sg n
       	sõit=nud	d		A	pl n
ja	ja	0		J	
ära	ära	0		D	
   	ära	0		V	neg o
müünd	####				
ühe	üks	0		N	sg g
   	üks	0		P	sg g
   	ühe	0		S	sg n
rubla	rubla	0		S	sg g
     	rubla	0		S	sg n
     	rubla	0		S	sg p
kaheksakomne	####				
kopiku	####				
eest	eest	0		D	
    	eest	0		K	
    	esi	st		S	sg el
.	.			Z	
Jakob	Jakob	0		H	sg n
Spuhl	####				
on	ole	0		V	b
  	ole	0		V	vad
Hapsalust	####				
lampa	####				
pea	pea	0		D	
   	pea	0		S	sg g
   	pida	0		V	o
   	pea	0		S	sg n
tagasi	tagasi	0		D	
      	tagasi	0		K	
ostnud	ost	nud		V	nud
      	ost=nu	d		S	pl n
      	ost=nud	0		A	
      	ost=nud	0		A	sg n
      	ost=nud	d		A	pl n
kus	kus	0		D	
tema	tema	0		P	sg g
    	tema	0		P	sg n
märk	märk	0		S	sg n
kõrva	kõrv	0		S	adt
     	kõrv	0		S	sg g
     	kõrv	0		S	sg p
sees	sees	0		D	
    	sees	0		K	
oli	ole	i		V	s
.	.			Z	
Sai	saa	i		V	s
   	sai	0		S	sg n
ette	ette	0		D	
    	ette	0		K	
    	esi	tte		S	adt
kutsutud	kutsu	tud		V	tud
        	kutsutu	d		S	pl n
        	kutsutud	0		A	
        	kutsutud	0		A	sg n
        	kutsutud	d		A	pl n
se	####				
varas	vara	s		S	sg in
     	varas	0		S	sg n
Josepp	####				
korjus	korju	s		V	s
      	kori	s		S	sg in
      	korju	s		S	sg in
      	korjus	0		S	sg n
kes	kes	0		P	pl n
   	kes	0		P	sg n
seda	see	da		P	sg p
ei	ei	0		D	
  	ei	0		V	neg
võind	####				
salgada	####				
,	,			Z	
et	et	0		J	
kohe	kohe	0		A	sg n
    	kohe	0		D	
tema	tema	0		P	sg g
    	tema	0		P	sg n
jälkide	jälk	de		A	pl g
peale	pea	le		S	sg all
     	peale	0		D	
     	peale	0		K	
on	ole	0		V	b
  	ole	0		V	vad
saadud	saa	dud		V	tud
      	saadu	d		S	pl n
      	saadud	0		A	
      	saadud	0		A	sg n
      	saadud	d		A	pl n
,	,			Z	
ja	ja	0		J	
lambapea	lamba_pea	0		S	sg g
        	lamba_pea	0		S	sg n
keda	kes	da		P	pl p
    	kes	da		P	sg p
müünd	####				
ta	tema	0		P	sg g
  	tema	0		P	sg n
ees	ees	0		D	
   	ees	0		K	
   	esi	s		S	sg in
näha	näge	a		V	da
,	,			Z	
on	ole	0		V	b
  	ole	0		V	vad
ta	tema	0		P	sg g
  	tema	0		P	sg n
ise	ise	0		A	
   	ise	0		D	
   	ise	0		P	pl n
   	ise	0		P	sg n
seda	see	da		P	sg p
tunnistand	####				
,	,			Z	
et	et	0		J	
ta	tema	0		P	sg g
  	tema	0		P	sg n
se	####				
lamba	lammas	0		S	sg g
on	ole	0		V	b
  	ole	0		V	vad
Mäejagu	mäe_jagu	0		S	sg n
       	mäe_jagu	0		S	sg p
lauast	laud	st		S	sg el
varastand	####				
ja	ja	0		J	
Hapsalus	####				
soltatile	####				
müünd	####				
ühe	üks	0		N	sg g
   	üks	0		P	sg g
   	ühe	0		S	sg n
rubla	rubla	0		S	sg g
     	rubla	0		S	sg n
     	rubla	0		S	sg p
kaheksa	kaheksa	0		N	sg g
       	kaheksa	0		N	sg n
kumne	####				
kopiku	####				
eest	eest	0		D	
    	eest	0		K	
    	esi	st		S	sg el
.	.			Z	
kohus	kohu	s		V	s
     	kohus	0		S	sg n
mõistis	mõist	is		V	s
:	:			Z	
et	et	0		J	
Josepp	####				
korjus	korju	s		V	s
      	kori	s		S	sg in
      	korju	s		S	sg in
      	korjus	0		S	sg n
selle	see	0		P	sg g
     	sell	e		S	pl p
on	ole	0		V	b
  	ole	0		V	vad
varastand	####				
ja	ja	0		J	
ühe	üks	0		N	sg g
   	üks	0		P	sg g
   	ühe	0		S	sg n
rubla	rubla	0		S	sg g
     	rubla	0		S	sg n
     	rubla	0		S	sg p
kaheksa	kaheksa	0		N	sg g
       	kaheksa	0		N	sg n
kümne	kümme	0		N	sg g
kopiku	####				
eest	eest	0		D	
    	eest	0		K	
    	esi	st		S	sg el
müünd	####				
,	,			Z	
mis	mis	0		P	pl n
   	mis	0		P	sg n
kolm	kolm	0		N	sg n
rubla	rubla	0		S	sg g
     	rubla	0		S	sg n
     	rubla	0		S	sg p
vaart	vaart	0		S	sg n
on	ole	0		V	b
  	ole	0		V	vad
,	,			Z	
peab	pida	b		V	b
tema	tema	0		P	sg g
    	tema	0		P	sg n
selle	see	0		P	sg g
     	sell	e		S	pl p
lamba	lammas	0		S	sg g
ette	ette	0		D	
    	ette	0		K	
    	esi	tte		S	adt
kolm	kolm	0		N	sg n
rubla	rubla	0		S	sg g
     	rubla	0		S	sg n
     	rubla	0		S	sg p
Jacub	####				
Spuhlile	####				
maksma	maks	ma		V	ma
ja	ja	0		J	
selle	see	0		P	sg g
     	sell	e		S	pl p
varguse	vargus	0		S	sg g
palgaks	palk	ks		S	sg tr
kohe	kohe	0		A	sg n
    	kohe	0		D	
sel	see	l		P	sg ad
   	sel	0		Y	?
kohtu	kohtu	0		V	o
     	kohus	0		S	sg g
päeval	päev	l		S	sg ad
kolmNone	####				
vitsa	vits	0		S	adt
     	vits	0		S	sg g
     	vits	0		S	sg p
hoopi	hoop	0		S	adt
     	hoop	0		S	sg p
ihonuhtlust	####				
saama	saa	ma		V	ma
     	saam	0		S	adt
     	saam	0		S	sg g
     	saam	0		S	sg p
.	.			Z	
koos	koos	0		D	
    	koos	0		K	
    	koos	0		S	sg n
    	kubu	s		S	sg in
olid	ole	id		V	sid
kohtuvanem	kohtu_vanem	0		C	sg n
          	kohtu_vanem	0		S	sg n
:	:			Z	
Juhan	Juhan	0		H	sg n
Kelemet	####				
XXX	XXX	0		O	?
   	XXX	0		Y	?
Jacub	####				
Spuhl	####				
XXX	XXX	0		O	?
   	XXX	0		Y	?
Jüri	Jüri	0		H	sg g
    	Jüri	0		H	sg n
Valgemäe	valge_mägi	0		S	sg g
XXX	XXX	0		O	?
   	XXX	0		Y	?
