Pölnud	####				
mingisugust	mingi_sugune	t		P	sg p
kaebtust	####				
ega	ega	0		D	
   	ega	0		J	
ka	ka	0		D	
kohtu	kohtu	0		V	o
     	kohus	0		S	sg g
käimist	käimine	t		S	sg p
ette	ette	0		D	
    	ette	0		K	
    	esi	tte		S	adt
tulnud	tul=nud	0		A	
      	tul=nud	0		A	sg n
      	tul=nud	d		A	pl n
      	tule	nud		V	nud
      	tulnu	d		S	pl n
.	.			Z	
kohtuvanem	kohtu_vanem	0		C	sg n
          	kohtu_vanem	0		S	sg n
:	:			Z	
J. Rechkalt	####				
XXX	XXX	0		O	?
   	XXX	0		Y	?
kohtu	kohtu	0		V	o
     	kohus	0		S	sg g
kõrvamees	kõrva_mees	0		S	sg n
:	:			Z	
M. Reinberg	####				
XXX	XXX	0		O	?
   	XXX	0		Y	?
kohtu	kohtu	0		V	o
     	kohus	0		S	sg g
kõrvamees	kõrva_mees	0		S	sg n
:	:			Z	
P	P	0		Y	?
.	.			Z	
kindel	kindel	0		A	sg n
XXX	XXX	0		O	?
   	XXX	0		Y	?
kirjutaja	kirjutaja	0		S	sg g
         	kirjutaja	0		S	sg n
:	:			Z	
C	C	0		O	?
 	C	0		Y	?
Allaberg	####				
