kohtukäiaid	####				
ega	ega	0		D	
   	ega	0		J	
kaevdust	####				
ei	ei	0		D	
  	ei	0		V	neg
olnud	ol=nud	0		A	
     	ol=nud	0		A	sg n
     	ol=nud	d		A	pl n
     	ole	nud		V	nud
     	olnu	d		S	pl n
see	see	0		P	sg n
päev	päev	0		S	sg n
kohtuvanem	kohtu_vanem	0		C	sg n
          	kohtu_vanem	0		S	sg n
:	:			Z	
Jüri	Jüri	0		H	sg g
    	Jüri	0		H	sg n
Piilenberg	####				
kõrvamees	kõrva_mees	0		S	sg n
:	:			Z	
Kustas	Kusta	s		H	sg in
      	Kustas	0		H	sg n
Mesner	####				
talitaja	talitaja	0		S	sg g
        	talitaja	0		S	sg n
:	:			Z	
Jüri	Jüri	0		H	sg g
    	Jüri	0		H	sg n
Kuusberg	####				
