Mäevalla	mäe_vald	0		S	sg g
kohtumajase	####				
tulid	tule	id		V	sid
kokku	kokku	0		D	
     	kogu	0		S	adt
:	:			Z	
kohtuvanem	kohtu_vanem	0		C	sg n
          	kohtu_vanem	0		S	sg n
ja	ja	0		J	
abimehed	abi_mees	d		S	pl n
,	,			Z	
aga	aga	0		J	
kohut	kohus	t		S	sg p
ei	ei	0		D	
  	ei	0		V	neg
olnud	ol=nud	0		A	
     	ol=nud	0		A	sg n
     	ol=nud	d		A	pl n
     	ole	nud		V	nud
     	olnu	d		S	pl n
mõista	mõist	0		V	o
      	mõist	a		V	da
.	.			Z	
eesistnik	####				
:	:			Z	
Jaan	Jaan	0		H	sg n
    	jaan	0		S	sg n
    	jaan	0		Y	?
Spuhl	####				
XXX	XXX	0		O	?
   	XXX	0		Y	?
Mihkel	Mihkel	0		H	sg n
      	mihkel	0		A	sg n
      	mihkel	0		S	sg n
Liiva	Liiva	0		H	sg g
     	liiv	0		S	adt
     	liiv	0		S	sg g
     	Liiva	0		H	sg n
     	liiv	0		S	sg p
XXX	XXX	0		O	?
   	XXX	0		Y	?
Johan	Johan	0		H	sg n
kaevand	kaevand	0		S	sg n
XXX	XXX	0		O	?
   	XXX	0		Y	?
kirjutaja	kirjutaja	0		S	sg g
         	kirjutaja	0		S	sg n
:	:			Z	
J. Spuhl	####				
