kaebas	kaeba	s		V	s
talitaja	talitaja	0		S	sg g
        	talitaja	0		S	sg n
,	,			Z	
et	et	0		J	
härjapea	härja_pea	0		S	sg g
        	härja_pea	0		S	sg n
külas	küla	s		S	sg in
olid	ole	id		V	sid
kaks	kaks	0		N	sg n
tüdrukud	tüdruk	d		S	pl n
juula	####				
Kasem	####				
ja	ja	0		J	
Liiisu	####				
Noksmann	####				
endid	ise	d		P	pl p
meesterahva	meeste_rahvas	0		S	sg g
riidise	####				
pannud	pan=nu	d		S	pl n
      	pan=nud	0		A	
      	pan=nud	0		A	sg n
      	pan=nud	d		A	pl n
      	pane	nud		V	nud
ja	ja	0		J	
siis	siis	0		D	
    	siis	0		J	
poiste	poiss	te		S	pl g
kombel	kombel	0		K	
      	komme	l		S	sg ad
mööda	mööda	0		A	
     	mööda	0		D	
     	mööda	0		K	
küla	küla	0		S	sg g
    	küla	0		S	sg n
    	küla	0		S	sg p
ja	ja	0		J	
kõrtsusid	####				
hulkunud	hulku	nud		V	nud
        	hulku=nu	d		S	pl n
        	hulku=nud	0		A	
        	hulku=nud	0		A	sg n
        	hulku=nud	d		A	pl n
,	,			Z	
ni	####				
kui	kui	0		D	
   	kui	0		J	
on	ole	0		V	b
  	ole	0		V	vad
Tammiku	tammik	0		S	sg g
ja	ja	0		J	
juuriku	####				
kõrtsis	kõrts	s		S	sg in
käinud	käi	nud		V	nud
      	käi=nud	0		A	
      	käi=nud	0		A	sg n
      	käi=nud	d		A	pl n
      	käinu	d		S	pl n
ja	ja	0		J	
siis	siis	0		D	
    	siis	0		J	
veel	veel	0		D	
    	vesi	l		S	sg ad
Tooma	Toomas	0		H	sg g
     	too	ma		V	ma
jaani	jaan	0		S	adt
     	jaan	0		S	sg g
     	jaan	0		S	sg p
vana	vana	0		A	sg g
    	vana	0		A	sg n
    	vana	0		A	sg p
    	vana	0		S	sg g
    	vana	0		S	sg n
    	vana	0		S	sg p
ja	ja	0		J	
Uuetoa	uue_tuba	0		S	sg g
peres	pere	s		S	sg in
käinud	käi	nud		V	nud
      	käi=nud	0		A	
      	käi=nud	0		A	sg n
      	käi=nud	d		A	pl n
      	käinu	d		S	pl n
,	,			Z	
õõ	####				
aial	aed	l		S	sg ad
,	,			Z	
kus	kus	0		D	
teised	teine	d		O	pl n
      	teine	d		P	pl n
maganud	maga	nud		V	nud
       	maga=nu	d		S	pl n
       	maga=nud	0		A	
       	maga=nud	0		A	sg n
       	maga=nud	d		A	pl n
.	.			Z	
vastu	vastu	0		D	
     	vastu	0		K	
hakent	####				
kloppinud	kloppi	nud		V	nud
         	kloppi=nu	d		S	pl n
         	kloppi=nud	0		A	
         	kloppi=nud	0		A	sg n
         	kloppi=nud	d		A	pl n
ja	ja	0		J	
sisse	siss	e		S	pl p
     	sisse	0		D	
     	sisse	0		K	
kippunud	kippu	nud		V	nud
        	kippu=nu	d		S	pl n
        	kippu=nud	0		A	
        	kippu=nud	0		A	sg n
        	kippu=nud	d		A	pl n
,	,			Z	
ja	ja	0		J	
sigariid	siga_riid	0		S	sg n
ja	ja	0		J	
paberossid	pabeross	d		S	pl n
tullega	####				
suus	suu	s		S	sg in
olnud	ol=nud	0		A	
     	ol=nud	0		A	sg n
     	ol=nud	d		A	pl n
     	ole	nud		V	nud
     	olnu	d		S	pl n
,	,			Z	
ja	ja	0		J	
siis	siis	0		D	
    	siis	0		J	
pere	pere	0		S	sg g
    	pere	0		S	sg n
püningule	####				
kippunud	kippu	nud		V	nud
        	kippu=nu	d		S	pl n
        	kippu=nud	0		A	
        	kippu=nud	0		A	sg n
        	kippu=nud	d		A	pl n
.	.			Z	
selle	see	0		P	sg g
     	sell	e		S	pl p
peale	pea	le		S	sg all
     	peale	0		D	
     	peale	0		K	
tunnistas	tunnista	s		V	s
Tooma	Toomas	0		H	sg g
     	too	ma		V	ma
jaani	jaan	0		S	adt
     	jaan	0		S	sg g
     	jaan	0		S	sg p
vanatoa	vana_tuba	0		S	sg g
mees	mees	0		S	sg n
    	mesi	s		S	sg in
Hans	Hans	0		H	sg n
Avik	####				
:	:			Z	
Nemad	tema	d		P	pl n
tulid	tule	id		V	sid
meie	mina	0		P	pl g
    	mina	0		P	pl n
tupa	####				
meeste	meene	te		A	pl g
      	mees	te		S	pl g
rahva	rahvas	0		S	sg g
riided	riie	d		S	pl n
olid	ole	id		V	sid
ümber	ümber	0		D	
     	ümber	0		K	
,	,			Z	
paslikid	####				
peas	pea	s		S	sg in
,	,			Z	
ja	ja	0		J	
otsisid	otsi	sid		V	sid
tüdrukud	tüdruk	d		S	pl n
taga	taga	0		D	
    	taga	0		K	
    	taga	0		V	o
,	,			Z	
aga	aga	0		J	
pea	pea	0		D	
   	pea	0		S	sg g
   	pida	0		V	o
   	pea	0		S	sg n
saime	saa	ime		V	sime
neid	neid	0		S	sg n
    	see	d		P	pl p
    	tema	d		P	pl p
avalikuks	avalik	ks		A	sg tr
.	.			Z	
siis	siis	0		D	
    	siis	0		J	
rääkis	rääki	s		V	s
teise	teine	0		O	adt
     	teine	0		O	sg g
     	teine	0		P	adt
     	teine	0		P	sg g
Tooma	Toomas	0		H	sg g
     	too	ma		V	ma
jaani	jaan	0		S	adt
     	jaan	0		S	sg g
     	jaan	0		S	sg p
peremees	pere_mees	0		S	sg n
Hans	Hans	0		H	sg n
Fried	####				
:	:			Z	
Minna	Minna	0		H	sg g
     	mine	a		V	da
     	Minna	0		H	sg n
magasin	maga	sin		V	sin
       	magasin	0		S	sg n
,	,			Z	
siis	siis	0		D	
    	siis	0		J	
klopis	klopp	s		S	sg in
üks	üks	0		N	sg n
   	üks	0		P	sg n
vastu	vastu	0		D	
     	vastu	0		K	
hakent	####				
ja	ja	0		J	
küsis	küsi	s		V	s
teed	tee	d		S	pl n
    	tege	d		V	d
    	tee	d		S	sg p
,	,			Z	
tegin	tege	in		V	sin
ukse	uks	0		S	sg g
lahti	laht	i		S	pl p
     	lahti	0		D	
tulid	tule	id		V	sid
kord	kord	0		D	
    	kord	0		S	sg n
tupa	####				
,	,			Z	
varssi	####				
läksid	mine	sid		V	sid
välja	välja	0		D	
     	välja	0		V	o
     	väli	0		S	adt
     	väli	0		S	sg g
     	väli	0		S	sg p
,	,			Z	
ja	ja	0		J	
tahtsid	taht	sid		V	sid
Noile	too	le		P	pl all
minna	mine	a		V	da
tüdrukuid	tüdruk	id		S	pl p
otsima	otsi	ma		V	ma
,	,			Z	
ma	mina	0		P	sg n
keelasin	keela	sin		V	sin
,	,			Z	
nad	tema	d		P	pl n
ei	ei	0		D	
  	ei	0		V	neg
kulanud	####				
,	,			Z	
siis	siis	0		D	
    	siis	0		J	
hakasin	####				
kinni	kinni	0		D	
viskasin	viska	sin		V	sin
uksest	uks	st		S	sg el
välja	välja	0		D	
     	välja	0		V	o
     	väli	0		S	adt
     	väli	0		S	sg g
     	väli	0		S	sg p
ja	ja	0		J	
ei	ei	0		D	
  	ei	0		V	neg
tunnud	####				
mitte	mitte	0		D	
.	.			Z	
siis	siis	0		D	
    	siis	0		J	
tuli	tuli	0		S	sg n
    	tule	i		V	s
ette	ette	0		D	
    	ette	0		K	
    	esi	tte		S	adt
juula	####				
Kasem	####				
ja	ja	0		J	
rääkis	rääki	s		V	s
meie	mina	0		P	pl g
    	mina	0		P	pl n
oleme	ole	me		V	me
Noksman	####				
nõnda	nõnda	0		D	
nalja	nali	0		S	adt
     	nali	0		S	sg g
     	nali	0		S	sg p
teinud	tege	nud		V	nud
      	tei=nud	0		A	
      	tei=nud	0		A	sg n
      	tei=nud	d		A	pl n
      	teinu	d		S	pl n
,	,			Z	
aga	aga	0		J	
Noksman	####				
kutsus	kutsu	s		V	s
      	kutsu	s		S	sg in
mind	mina	d		P	sg p
ja	ja	0		J	
oli	ole	i		V	s
ennast	ise	t		P	sg p
enne	enne	0		D	
    	enne	0		K	
    	enne	0		S	sg n
nõnda	nõnda	0		D	
ehitanud	ehita	nud		V	nud
        	ehita=nu	d		S	pl n
        	ehita=nud	0		A	
        	ehita=nud	0		A	sg n
        	ehita=nud	d		A	pl n
.	.			Z	
Liisu	liisk	0		S	sg g
     	liisu	0		V	o
Noksman	####				
ei	ei	0		D	
  	ei	0		V	neg
olnud	ol=nud	0		A	
     	ol=nud	0		A	sg n
     	ol=nud	d		A	pl n
     	ole	nud		V	nud
     	olnu	d		S	pl n
kohtu	kohtu	0		V	o
     	kohus	0		S	sg g
ees	ees	0		D	
   	ees	0		K	
   	esi	s		S	sg in
,	,			Z	
et	et	0		J	
küll	küll	0		D	
    	küll	0		S	sg n
oli	ole	i		V	s
kässo	####				
saanud	saa	nud		V	nud
      	saa=nud	0		A	
      	saa=nud	0		A	sg n
      	saa=nud	d		A	pl n
      	saanu	d		S	pl n
.	.			Z	
kohtu	kohtu	0		V	o
     	kohus	0		S	sg g
otsus	otsus	0		S	sg n
:	:			Z	
et	et	0		J	
juula	####				
Kasem	####				
ja	ja	0		J	
Liiisu	####				
Noksmann	####				
rumalat	rumal	t		A	sg p
nalja	nali	0		S	adt
     	nali	0		S	sg g
     	nali	0		S	sg p
on	ole	0		V	b
  	ole	0		V	vad
teinud	tege	nud		V	nud
      	tei=nud	0		A	
      	tei=nud	0		A	sg n
      	tei=nud	d		A	pl n
      	teinu	d		S	pl n
,	,			Z	
peavad	pida	vad		V	vad
mõlemad	mõlema	d		P	pl n
seadusse	seadus	se		S	adt
järel	järel	0		D	
     	järel	0		K	
Vaata	vaata	0		V	o
täiskogu	täis_kogu	0		S	sg g
        	täis_kogu	0		S	sg n
        	täis_kogu	0		S	sg p
prottokoll	####				
,	,			Z	
kus	kus	0		D	
mõistetud	mõist	tud		V	tud
         	mõiste=tu	d		S	pl n
         	mõiste=tud	0		A	
         	mõiste=tud	0		A	sg n
         	mõiste=tud	d		A	pl n
on	ole	0		V	b
  	ole	0		V	vad
,	,			Z	
et	et	0		J	
ümber	ümber	0		D	
     	ümber	0		K	
ulkujad	####				
pead	pea	d		S	pl n
    	pida	d		V	d
    	pea	d		S	sg p
kuni	kuni	0		J	
    	kuni	0		K	
kolm	kolm	0		N	sg n
rubla	rubla	0		S	sg g
     	rubla	0		S	sg n
     	rubla	0		S	sg p
trahvi	trahv	0		S	adt
      	trahv	0		S	sg g
      	trahvi	0		V	o
      	trahv	0		S	sg p
alla	alla	0		D	
    	alla	0		K	
langema	lange	ma		V	ma
.	.			Z	
Suurema	suurem	0		C	sg g
süüdlane	süüdlane	0		S	sg n
on	ole	0		V	b
  	ole	0		V	vad
Liiisu	####				
Noksmann	####				
et	et	0		J	
ta	tema	0		P	sg g
  	tema	0		P	sg n
enne	enne	0		D	
    	enne	0		K	
    	enne	0		S	sg n
seda	see	da		P	sg p
asutas	asuta	s		V	s
,	,			Z	
ta	tema	0		P	sg g
  	tema	0		P	sg n
peab	pida	b		V	b
3	3	0		N	?
rubla	rubla	0		S	sg g
     	rubla	0		S	sg n
     	rubla	0		S	sg p
trahvi	trahv	0		S	adt
      	trahv	0		S	sg g
      	trahvi	0		V	o
      	trahv	0		S	sg p
maksma	maks	ma		V	ma
oma	oma	0		A	sg g
   	oma	0		D	
   	oma	0		P	sg g
   	oma	0		S	sg g
   	oma	0		V	o
   	oma	0		A	sg n
   	oma	0		A	sg p
   	oma	0		P	sg n
   	oma	0		P	sg p
   	oma	0		S	sg n
   	oma	0		S	sg p
kõlbmata	####				
nalja	nali	0		S	adt
     	nali	0		S	sg g
     	nali	0		S	sg p
töö	töö	0		S	sg g
   	töö	0		S	sg n
melle	####				
tuletuseks	tuletus	ks		S	sg tr
.	.			Z	
Ja	ja	0		J	
juula	####				
Kasem	####				
1	1	0		N	?
R	R	0		Y	?
.	.			Z	
50	50	0		N	?
kop	kop	0		Y	?
.	.			Z	
mõlemad	mõlema	d		P	pl n
kahe	kaks	0		N	sg g
nädala	nädal	0		S	sg g
aiga	####				
.	.			Z	
kohtuvanem	kohtu_vanem	0		C	sg n
          	kohtu_vanem	0		S	sg n
:	:			Z	
H. Avik	####				
kõrvasmees	####				
:	:			Z	
Hans	Hans	0		H	sg n
Allik	Allik	0		H	sg n
Ado	Ado	0		H	sg g
   	Ado	0		H	sg n
Kask	kask	0		S	sg n
kirjutaja	kirjutaja	0		S	sg g
         	kirjutaja	0		S	sg n
:	:			Z	
J	J	0		Y	?
Reinans	####				
Liiisu	####				
Noksmann	####				
maksis	maks	is		V	s
      	maksi	s		S	sg in
oma	oma	0		A	sg g
   	oma	0		D	
   	oma	0		P	sg g
   	oma	0		S	sg g
   	oma	0		V	o
   	oma	0		A	sg n
   	oma	0		A	sg p
   	oma	0		P	sg n
   	oma	0		P	sg p
   	oma	0		S	sg n
   	oma	0		S	sg p
trahvi	trahv	0		S	adt
      	trahv	0		S	sg g
      	trahvi	0		V	o
      	trahv	0		S	sg p
3	3	0		N	?
rubl	####				
.	.			Z	
10	10	0		N	?
Mail	Mai	l		H	sg ad
    	maa	il		S	pl ad
    	mai	l		S	sg ad
    	mail	0		S	sg n
1876.	1876.	0		O	?
ka	ka	0		D	
Täiidetud	####				
.	.			Z	
