N 12	N12	0		Y	?
kohtukorrapärast	kohtu_korra_pärane	t		A	sg p
olid	ole	id		V	sid
Kuie	####				
valla	vald	0		S	sg g
     	valla	0		D	
kohtumajasse	kohtu_maja	sse		S	sg ill
kokku	kokku	0		D	
     	kogu	0		S	adt
tulnud	tul=nud	0		A	
      	tul=nud	0		A	sg n
      	tul=nud	d		A	pl n
      	tule	nud		V	nud
      	tulnu	d		S	pl n
.	.			Z	
kohtuvanem	kohtu_vanem	0		C	sg n
          	kohtu_vanem	0		S	sg n
Kustas	Kusta	s		H	sg in
      	Kustas	0		H	sg n
Sipelken	####				
kohtukõrvamees	kohtu_kõrva_mees	0		S	sg n
Jaan	Jaan	0		H	sg n
    	jaan	0		S	sg n
    	jaan	0		Y	?
Lepberg	####				
kohtukõrvamees	kohtu_kõrva_mees	0		S	sg n
Kustas	Kusta	s		H	sg in
      	Kustas	0		H	sg n
Krusel	####				
astus	astu	s		V	s
ette	ette	0		D	
    	ette	0		K	
    	esi	tte		S	adt
Mart	Mart	0		H	sg n
    	mart	0		S	sg n
Tammel	tamm	l		S	sg ad
ja	ja	0		J	
kaebas	kaeba	s		V	s
,	,			Z	
et	et	0		J	
Juhan	Juhan	0		H	sg n
Preibah	####				
on	ole	0		V	b
  	ole	0		V	vad
tema	tema	0		P	sg g
    	tema	0		P	sg n
käest	käest	0		K	
     	käsi	st		S	sg el
ühe	üks	0		N	sg g
   	üks	0		P	sg g
   	ühe	0		S	sg n
vana	vana	0		A	sg g
    	vana	0		A	sg n
    	vana	0		A	sg p
    	vana	0		S	sg g
    	vana	0		S	sg n
    	vana	0		S	sg p
hobuse	hobune	0		S	sg g
kaubelnud	kauple	nud		V	nud
         	kaubel=nu	d		S	pl n
         	kaubel=nud	0		A	
         	kaubel=nud	0		A	sg n
         	kaubel=nud	d		A	pl n
4	4	0		N	?
rbl	rbl	0		Y	?
25	25	0		N	?
kop	kop	0		Y	?
eest	eest	0		D	
    	eest	0		K	
    	esi	st		S	sg el
ja	ja	0		J	
ühe	üks	0		N	sg g
   	üks	0		P	sg g
   	ühe	0		S	sg n
ku	####				
aia	aed	0		S	sg g
peale	pea	le		S	sg all
     	peale	0		D	
     	peale	0		K	
enese	ise	0		P	sg g
kätte	kätte	0		K	
     	käsi	tte		S	adt
proovi	proov	0		S	adt
      	proov	0		S	sg g
      	proovi	0		V	o
      	proov	0		S	sg p
peale	pea	le		S	sg all
     	peale	0		D	
     	peale	0		K	
viinud	vii	nud		V	nud
      	vii=nu	d		S	pl n
      	vii=nud	0		A	
      	vii=nud	0		A	sg n
      	vii=nud	d		A	pl n
ja	ja	0		J	
peale	pea	le		S	sg all
     	peale	0		D	
     	peale	0		K	
se	####				
ku	####				
aia	aed	0		S	sg g
kuidas	kuidas	0		D	
nende	see	de		P	pl g
     	tema	de		P	pl g
kauo	####				
oli	ole	i		V	s
olnud	ol=nud	0		A	
     	ol=nud	0		A	sg n
     	ol=nud	d		A	pl n
     	ole	nud		V	nud
     	olnu	d		S	pl n
ei	ei	0		D	
  	ei	0		V	neg
maksnud	maks	nud		V	nud
       	maks=nu	d		S	pl n
       	maks=nud	0		A	
       	maks=nud	0		A	sg n
       	maks=nud	d		A	pl n
Juhan	Juhan	0		H	sg n
Preibah	####				
veel	veel	0		D	
    	vesi	l		S	sg ad
mitte	mitte	0		D	
seda	see	da		P	sg p
raha	raha	0		S	sg g
    	raha	0		S	sg n
    	raha	0		S	sg p
ära	ära	0		D	
   	ära	0		V	neg o
ega	ega	0		D	
   	ega	0		J	
viinud	vii	nud		V	nud
      	vii=nu	d		S	pl n
      	vii=nud	0		A	
      	vii=nud	0		A	sg n
      	vii=nud	d		A	pl n
ka	ka	0		D	
obust	####				
mitte	mitte	0		D	
kätte	kätte	0		K	
     	käsi	tte		S	adt
vaid	vaid	0		D	
    	vaid	0		J	
pidas	pida	s		V	s
veel	veel	0		D	
    	vesi	l		S	sg ad
peale	pea	le		S	sg all
     	peale	0		D	
     	peale	0		K	
se	####				
ku	####				
aia	aed	0		S	sg g
2	2	0		N	?
nädalad	nädal	d		S	pl n
hobuse	hobune	0		S	sg g
enese	ise	0		P	sg g
käes	käes	0		K	
    	käsi	s		S	sg in
siis	siis	0		D	
    	siis	0		J	
on	ole	0		V	b
  	ole	0		V	vad
se	####				
hobune	hobune	0		S	sg n
ära	ära	0		D	
   	ära	0		V	neg o
surnud	surnu	d		S	pl n
      	surnud	0		A	
      	surnud	0		A	sg n
      	surnud	d		A	pl n
      	sure	nud		V	nud
,	,			Z	
siis	siis	0		D	
    	siis	0		J	
ei	ei	0		D	
  	ei	0		V	neg
tahtnud	taht	nud		V	nud
       	taht=nu	d		S	pl n
       	taht=nud	0		A	
       	taht=nud	0		A	sg n
       	taht=nud	d		A	pl n
Juhan	Juhan	0		H	sg n
Preibah	####				
enam	enam	0		C	sg n
    	enam	0		D	
Mart	Mart	0		H	sg n
    	mart	0		S	sg n
Tammelile	####				
se	####				
raha	raha	0		S	sg g
    	raha	0		S	sg n
    	raha	0		S	sg p
maksda	####				
vaid	vaid	0		D	
    	vaid	0		J	
pakus	pakk	s		S	sg in
temale	tema	le		P	sg all
se	####				
naha	nahk	0		S	sg g
tagasi	tagasi	0		D	
      	tagasi	0		K	
aga	aga	0		J	
kohus	kohu	s		V	s
     	kohus	0		S	sg n
mõistis	mõist	is		V	s
et	et	0		J	
Juhan	Juhan	0		H	sg n
Preibah	####				
peab	pida	b		V	b
se	####				
4	4	0		N	?
rbl	rbl	0		Y	?
25	25	0		N	?
kop	kop	0		Y	?
maksma	maks	ma		V	ma
ja	ja	0		J	
ise	ise	0		A	
   	ise	0		D	
   	ise	0		P	pl n
   	ise	0		P	sg n
se	####				
naha	nahk	0		S	sg g
ära	ära	0		D	
   	ära	0		V	neg o
tarvitama	tarvita	ma		V	ma
.	.			Z	
kohtuvanem	kohtu_vanem	0		C	sg n
          	kohtu_vanem	0		S	sg n
Kustas	Kusta	s		H	sg in
      	Kustas	0		H	sg n
Sipelken	####				
(	(			Z	
XXX	XXX	0		O	?
   	XXX	0		Y	?
)	)			Z	
kohtukõrvamees	kohtu_kõrva_mees	0		S	sg n
Jaan	Jaan	0		H	sg n
    	jaan	0		S	sg n
    	jaan	0		Y	?
Lepberg	####				
(	(			Z	
XXX	XXX	0		O	?
   	XXX	0		Y	?
)	)			Z	
kohtukõrvamees	kohtu_kõrva_mees	0		S	sg n
Kustas	Kusta	s		H	sg in
      	Kustas	0		H	sg n
Krusel	####				
(	(			Z	
XXX	XXX	0		O	?
   	XXX	0		Y	?
)	)			Z	
kirjutaja	kirjutaja	0		S	sg g
         	kirjutaja	0		S	sg n
M. Väismann	####				
.	.			Z	
ilma	ilm	0		S	adt
    	ilm	0		S	sg g
    	ilma	0		D	
    	ilma	0		K	
    	ilm	0		S	sg p
trahvita	trahv	ta		S	sg ab
        	trahvi	ta		V	ta
seletud	seletu	d		V	d
