üks	üks	0		N	sg n
   	üks	0		P	sg n
tuat	####				
kaheksa	kaheksa	0		N	sg g
       	kaheksa	0		N	sg n
saada	saa	da		V	da
     	saat	0		V	o
     	saa	da		V	ta
üheksakümmend	üheksa_kümmend	0		N	sg n
üheksamal	####				
aastal	aasta	l		S	sg ad
Jüri	Jüri	0		H	sg g
    	Jüri	0		H	sg n
kuu	kuu	0		S	sg g
   	kuu	0		S	sg n
kaheksamal	####				
päeval	päev	l		S	sg ad
tulivad	####				
kõrgesaare	kõrge_saar	0		S	sg g
kogukonna	kogukond	0		S	sg g
kohtu	kohtu	0		V	o
     	kohus	0		S	sg g
avaliku	avalik	0		A	sg g
koosolekule	koos_olek	le		S	sg all
kõrgesaare	kõrge_saar	0		S	sg g
valla	vald	0		S	sg g
     	valla	0		D	
liikmed	liige	d		S	pl n
Jakob	Jakob	0		H	sg n
voelnus	####				
Ado	Ado	0		H	sg g
   	Ado	0		H	sg n
poeg	poeg	0		S	sg n
ja	ja	0		J	
Kustav	kus=tav	0		A	sg n
      	kuse	tav		V	tav
Aron	####				
Tooma	Toomas	0		H	sg g
     	too	ma		V	ma
poeg	poeg	0		S	sg n
ja	ja	0		J	
palusivad	####				
nende	see	de		P	pl g
     	tema	de		P	pl g
poolt	pool	t		N	sg p
     	pool	t		S	sg p
     	poolt	0		D	
     	poolt	0		K	
üles	üles	0		D	
kirjutada	kirjuta	da		V	da
järgmist	järgmine	t		A	sg p
suusõnalist	suu_sõnaline	t		A	sg p
kaupäeva	####				
lepingud	leping	d		S	pl n
.	.			Z	
Mina	mina	0		P	sg n
    	mina	0		S	sg g
    	mina	0		S	sg n
    	mina	0		S	sg p
Kustav	kus=tav	0		A	sg n
      	kuse	tav		V	tav
Aron	####				
ostsin	ost	sin		V	sin
Jakob	Jakob	0		H	sg n
Ado	Ado	0		H	sg g
   	Ado	0		H	sg n
p	p	0		Y	?
.	.			Z	
voelnus	####				
käest	käest	0		K	
     	käsi	st		S	sg el
tema	tema	0		P	sg g
    	tema	0		P	sg n
päralt	pära	lt		S	sg abl
      	päralt	0		K	
oleva	olev	0		A	sg g
     	olev	0		S	sg g
suureranna	suure_rand	0		S	sg g
kardoni	####				
platsi	plats	0		S	adt
      	plats	0		S	sg g
      	plats	0		S	sg p
peal	pea	l		S	sg ad
    	peal	0		D	
    	peal	0		K	
olevat	ole	vat		V	vat
      	olev	t		A	sg p
      	olev	t		S	sg p
majad	maja	d		S	pl n
:	:			Z	
elaamise	####				
maja	maja	0		S	sg g
    	maja	0		S	sg n
    	maja	0		S	sg p
aida	ait	0		S	sg g
ja	ja	0		J	
ühe	üks	0		N	sg g
   	üks	0		P	sg g
   	ühe	0		S	sg n
tali	tali	0		S	sg g
    	tali	0		S	sg n
    	tali	0		S	sg p
kõige	kõik	0		P	sg g
     	kõige	0		D	
maja	maja	0		S	sg g
    	maja	0		S	sg n
    	maja	0		S	sg p
ja	ja	0		J	
hoonede	####				
ees	ees	0		D	
   	ees	0		K	
   	esi	s		S	sg in
olevate	olev	te		A	pl g
       	olev	te		S	pl g
lukkudega	lukk	dega		S	pl kom
ära	ära	0		D	
   	ära	0		V	neg o
üks	üks	0		N	sg n
   	üks	0		P	sg n
saada	saa	da		V	da
     	saat	0		V	o
     	saa	da		V	ta
viiskümmend	viis_kümmend	0		N	sg n
kolme	kolm	0		N	adt
     	kolm	0		N	sg g
     	kolm	0		N	sg p
rubla	rubla	0		S	sg g
     	rubla	0		S	sg n
     	rubla	0		S	sg p
eest	eest	0		D	
    	eest	0		K	
    	esi	st		S	sg el
,	,			Z	
misuguse	####				
rahast	raha	st		S	sg el
kümme	kümme	0		N	sg n
rubla	rubla	0		S	sg g
     	rubla	0		S	sg n
     	rubla	0		S	sg p
niikaua	nii_kaua	0		D	
sise	####				
jääb	jää	b		V	b
,	,			Z	
kuni	kuni	0		J	
    	kuni	0		K	
maja	maja	0		S	sg g
    	maja	0		S	sg n
    	maja	0		S	sg p
endine	endine	0		A	sg n
peremees	pere_mees	0		S	sg n
Jakob	Jakob	0		H	sg n
voelnus	####				
on	ole	0		V	b
  	ole	0		V	vad
majast	maja	st		S	sg el
välja	välja	0		D	
     	välja	0		V	o
     	väli	0		S	adt
     	väli	0		S	sg g
     	väli	0		S	sg p
läinud	läinu	d		S	pl n
      	läinud	0		A	
      	läinud	0		A	sg n
      	läinud	d		A	pl n
      	mine	nud		V	nud
,	,			Z	
siis	siis	0		D	
    	siis	0		J	
saab	saa	b		V	b
tema	tema	0		P	sg g
    	tema	0		P	sg n
kümerubla	####				
kätte	kätte	0		K	
     	käsi	tte		S	adt
,	,			Z	
kui	kui	0		D	
   	kui	0		J	
kõik	kõik	0		P	pl n
    	kõik	0		S	sg n
    	kõik	0		P	sg n
kraam	kraam	0		S	sg n
nii	nii	0		D	
alles	alles	0		D	
on	ole	0		V	b
  	ole	0		V	vad
,	,			Z	
kuidas	kuidas	0		D	
meie	mina	0		P	pl g
    	mina	0		P	pl n
ise	ise	0		A	
   	ise	0		D	
   	ise	0		P	pl n
   	ise	0		P	sg n
üksteise	üks_teise	0		P	adt
        	üks_teise	0		P	sg g
vahel	vahe	l		S	sg ad
     	vahel	0		D	
     	vahel	0		K	
oleme	ole	me		V	me
kauplenud	####				
ja	ja	0		J	
ära	ära	0		D	
   	ära	0		V	neg o
näinud	näi	nud		V	nud
      	näge	nud		V	nud
      	näi=nud	0		A	
      	näi=nud	0		A	sg n
      	näi=nud	d		A	pl n
      	näinu	d		S	pl n
.	.			Z	
K	K	0		Y	?
Aron	####				
[	[			Z	
allkiri	all_kiri	0		S	sg n
]	]			Z	
Mina	mina	0		P	sg n
    	mina	0		S	sg g
    	mina	0		S	sg n
    	mina	0		S	sg p
Jakob	Jakob	0		H	sg n
voelnus	####				
tunnistan	tunnista	n		V	n
oma	oma	0		A	sg g
   	oma	0		D	
   	oma	0		P	sg g
   	oma	0		S	sg g
   	oma	0		V	o
   	oma	0		A	sg n
   	oma	0		A	sg p
   	oma	0		P	sg n
   	oma	0		P	sg p
   	oma	0		S	sg n
   	oma	0		S	sg p
allkirjagak	####				
,	,			Z	
et	et	0		J	
olen	ole	n		V	n
Gustav	Gustav	0		H	sg n
Aronile	####				
Tooma	Toomas	0		H	sg g
     	too	ma		V	ma
pojale	poeg	le		S	sg all
      	poja	le		S	sg all
tõeste	tõene	te		A	pl g
minu	mina	0		P	sg g
päralt	pära	lt		S	sg abl
      	päralt	0		K	
olevat	ole	vat		V	vat
      	olev	t		A	sg p
      	olev	t		S	sg p
suureranna	suure_rand	0		S	sg g
vana	vana	0		A	sg g
    	vana	0		A	sg n
    	vana	0		A	sg p
    	vana	0		S	sg g
    	vana	0		S	sg n
    	vana	0		S	sg p
kardoni	####				
platsi	plats	0		S	adt
      	plats	0		S	sg g
      	plats	0		S	sg p
peal	pea	l		S	sg ad
    	peal	0		D	
    	peal	0		K	
olevat	ole	vat		V	vat
      	olev	t		A	sg p
      	olev	t		S	sg p
ehitused	ehitus	d		S	pl n
:	:			Z	
elumaja	elu_maja	0		S	sg g
       	elu_maja	0		S	sg n
       	elu_maja	0		S	sg p
,	,			Z	
aida	ait	0		S	sg g
ja	ja	0		J	
tali	tali	0		S	sg g
    	tali	0		S	sg n
    	tali	0		S	sg p
müünud	müü	nud		V	nud
      	müü=nu	d		S	pl n
      	müü=nud	0		A	
      	müü=nud	0		A	sg n
      	müü=nud	d		A	pl n
nende	see	de		P	pl g
     	tema	de		P	pl g
tingimustega	tingimus	tega		S	pl kom
,	,			Z	
mis	mis	0		P	pl n
   	mis	0		P	sg n
tema	tema	0		P	sg g
    	tema	0		P	sg n
on	ole	0		V	b
  	ole	0		V	vad
siin	siin	0		D	
    	siin	0		S	sg n
üles	üles	0		D	
andnud	and	nud		V	nud
      	and=nu	d		S	pl n
      	and=nud	0		A	
      	and=nud	0		A	sg n
      	and=nud	d		A	pl n
ja	ja	0		J	
nõutavast	nõutav	st		A	sg el
rahast	raha	st		S	sg el
ükssaada	####				
nelikone	####				
kolm	kolm	0		N	sg n
rubla	rubla	0		S	sg g
     	rubla	0		S	sg n
     	rubla	0		S	sg p
kätte	kätte	0		K	
     	käsi	tte		S	adt
saanud	saa	nud		V	nud
      	saa=nud	0		A	
      	saa=nud	0		A	sg n
      	saa=nud	d		A	pl n
      	saanu	d		S	pl n
ja	ja	0		J	
üle	üle	0		D	
   	üle	0		K	
selle	see	0		P	sg g
     	sell	e		S	pl p
,	,			Z	
kui	kui	0		D	
   	kui	0		J	
ma	mina	0		P	sg n
majast	maja	st		S	sg el
olen	ole	n		V	n
välja	välja	0		D	
     	välja	0		V	o
     	väli	0		S	adt
     	väli	0		S	sg g
     	väli	0		S	sg p
läinud	läinu	d		S	pl n
      	läinud	0		A	
      	läinud	0		A	sg n
      	läinud	d		A	pl n
      	mine	nud		V	nud
ei	ei	0		D	
  	ei	0		V	neg
ole	ole	0		V	o
mull	mull	0		S	sg n
miski	miski	0		P	sg n
     	miski	0		S	sg g
     	miski	0		S	sg n
enam	enam	0		C	sg n
    	enam	0		D	
sellekohaga	selle_koht	ga		S	sg kom
           	selle_koha	ga		S	sg kom
tegemist	tegemine	t		S	sg p
,	,			Z	
kuni	kuni	0		J	
    	kuni	0		K	
Jüri	Jüri	0		H	sg g
    	Jüri	0		H	sg n
päevani	päev	ni		S	sg ter
1	1	0		N	?
a.	a	0		Y	?
maksta	maks	ta		V	da
      	maks	ta		V	ta
ise	ise	0		A	
   	ise	0		D	
   	ise	0		P	pl n
   	ise	0		P	sg n
majade	maja	de		S	pl g
eest	eest	0		D	
    	eest	0		K	
    	esi	st		S	sg el
ja	ja	0		J	
õnnetuse	õnnetus	0		S	sg g
korral	kord	l		S	sg ad
      	korral	0		D	
      	korral	0		K	
saanu	saanu	0		S	sg g
     	saanu	0		S	sg n
oma	oma	0		A	sg g
   	oma	0		D	
   	oma	0		P	sg g
   	oma	0		S	sg g
   	oma	0		V	o
   	oma	0		A	sg n
   	oma	0		A	sg p
   	oma	0		P	sg n
   	oma	0		P	sg p
   	oma	0		S	sg n
   	oma	0		S	sg p
raha	raha	0		S	sg g
    	raha	0		S	sg n
    	raha	0		S	sg p
Aronile	####				
tagasi	tagasi	0		D	
      	tagasi	0		K	
maksma	maks	ma		V	ma
..	..			Z	
J_	####				
.	.			Z	
_	_			Z	
voelnus	####				
[	[			Z	
allkiri	all_kiri	0		S	sg n
]	]			Z	
sellekaupäeva	####				
lepingus	leping	s		S	sg in
nimetatud	nimeta	tud		V	tud
         	nimetatu	d		S	pl n
         	nimetatud	0		A	
         	nimetatud	0		A	sg n
         	nimetatud	d		A	pl n
inimesed	inimene	d		S	pl n
kõrgesaare	kõrge_saar	0		S	sg g
valla	vald	0		S	sg g
     	valla	0		D	
liikmed	liige	d		S	pl n
Gustav	Gustav	0		H	sg n
Tooma	Toomas	0		H	sg g
     	too	ma		V	ma
p	p	0		Y	?
.	.			Z	
Aron	####				
ja	ja	0		J	
Jakob	Jakob	0		H	sg n
Ado	Ado	0		H	sg g
   	Ado	0		H	sg n
p	p	0		Y	?
.	.			Z	
voelnus	####				
,	,			Z	
on	ole	0		V	b
  	ole	0		V	vad
kõrgesaare	kõrge_saar	0		S	sg g
kogukonna	kogukond	0		S	sg g
kohtule	kohus	le		S	sg all
palelikult	pale=lik	lt		A	sg abl
          	pale=likult	0		D	
tuntud	tund	tud		V	tud
      	tuntu	d		S	pl n
      	tuntud	0		A	
      	tuntud	0		A	sg n
      	tuntud	d		A	pl n
ja	ja	0		J	
õiguse	õigus	0		S	sg g
omanduslikud	omandus=lik	d		A	pl n
aktite	####				
tegemise	tegemine	0		S	sg g
juures	juur	s		S	sg in
      	juures	0		D	
      	juures	0		K	
,	,			Z	
mis	mis	0		P	pl n
   	mis	0		P	sg n
kõrgesaare	kõrge_saar	0		S	sg g
kogukonna	kogukond	0		S	sg g
kohus	kohu	s		V	s
     	kohus	0		S	sg n
oma	oma	0		A	sg g
   	oma	0		D	
   	oma	0		P	sg g
   	oma	0		S	sg g
   	oma	0		V	o
   	oma	0		A	sg n
   	oma	0		A	sg p
   	oma	0		P	sg n
   	oma	0		P	sg p
   	oma	0		S	sg n
   	oma	0		S	sg p
allkirjaga	all_kiri	ga		S	sg kom
tunnistab	tunnista	b		V	b
.	.			Z	
