astus	astu	s		V	s
ette	ette	0		D	
    	ette	0		K	
    	esi	tte		S	adt
Jaan	Jaan	0		H	sg n
    	jaan	0		S	sg n
    	jaan	0		Y	?
Ulm	ulm	0		S	sg n
ja	ja	0		J	
rääkis	rääki	s		V	s
välja	välja	0		D	
     	välja	0		V	o
     	väli	0		S	adt
     	väli	0		S	sg g
     	väli	0		S	sg p
:	:			Z	
1877	1877	0		N	?
aastal	aasta	l		S	sg ad
pärast	pära	st		S	sg el
      	pärane	t		A	sg p
      	pärast	0		D	
      	pärast	0		K	
Michklipäeva	####				
olla	ole	a		V	da
Suistema	####				
kõrtsi	kõrts	0		S	adt
      	kõrts	0		S	sg g
      	kõrts	0		S	sg p
ees	ees	0		D	
   	ees	0		K	
   	esi	s		S	sg in
tema	tema	0		P	sg g
    	tema	0		P	sg n
hobasse	####				
valjad	valjad	d		S	pl n
peast	pea	st		S	sg el
     	peane	t		S	sg p
     	peast	0		K	
ja	ja	0		J	
telka	####				
rihm	rihm	0		S	sg n
pealt	pea	lt		S	sg abl
     	pealt	0		D	
     	pealt	0		K	
ära	ära	0		D	
   	ära	0		V	neg o
varastatud	varasta	tud		V	tud
          	varastatu	d		S	pl n
          	varastatud	0		A	
          	varastatud	0		A	sg n
          	varastatud	d		A	pl n
;	;			Z	
ja	ja	0		J	
sel	see	l		P	sg ad
   	sel	0		Y	?
korral	kord	l		S	sg ad
      	korral	0		D	
      	korral	0		K	
olla	ole	a		V	da
seal	seal	0		D	
    	siga	l		A	sg ad
    	siga	l		S	sg ad
kõrtsis	kõrts	s		S	sg in
olnud	ol=nud	0		A	
     	ol=nud	0		A	sg n
     	ol=nud	d		A	pl n
     	ole	nud		V	nud
     	olnu	d		S	pl n
,	,			Z	
Madis	Madis	0		H	sg n
     	madis	0		S	sg n
Sidam	####				
,	,			Z	
Jüri	Jüri	0		H	sg g
    	Jüri	0		H	sg n
ja	ja	0		J	
Jaan	Jaan	0		H	sg n
    	jaan	0		S	sg n
    	jaan	0		Y	?
Lubert	####				
.	.			Z	
aga	aga	0		J	
siis	siis	0		D	
    	siis	0		J	
ei	ei	0		D	
  	ei	0		V	neg
olla	ole	a		V	da
ta	tema	0		P	sg g
  	tema	0		P	sg n
mitte	mitte	0		D	
võinud	või	nud		V	nud
      	või=nu	d		S	pl n
      	või=nud	0		A	
      	või=nud	0		A	sg n
      	või=nud	d		A	pl n
teada	tead	a		V	da
saada	saa	da		V	da
     	saat	0		V	o
     	saa	da		V	ta
.	.			Z	
kes	kes	0		P	pl n
   	kes	0		P	sg n
neist	see	st		P	pl el
     	tema	st		P	pl el
kolmest	kolm	st		N	sg el
       	kolmene	t		A	sg p
varas	vara	s		S	sg in
     	varas	0		S	sg n
pidanud	pida	nud		V	nud
       	pida=nu	d		S	pl n
       	pida=nud	0		A	
       	pida=nud	0		A	sg n
       	pida=nud	d		A	pl n
olema	ole	ma		V	ma
.	.			Z	
Mineva	minev	0		A	sg g
aasta	aasta	0		S	sg g
     	aasta	0		S	sg n
1878	1878	0		N	?
enne	enne	0		D	
    	enne	0		K	
    	enne	0		S	sg n
Jaanipäeva	jaani_päev	0		S	adt
          	jaani_päev	0		S	sg g
          	jaani_päev	0		S	sg p
,	,			Z	
olla	ole	a		V	da
ta	tema	0		P	sg g
  	tema	0		P	sg n
enese	ise	0		P	sg g
varastud	####				
valjaste	valjad	te		S	pl g
su	sina	0		P	sg g
rauad	raud	d		S	pl n
,	,			Z	
Madis	Madis	0		H	sg n
     	madis	0		S	sg n
Sidami	####				
hobasse	####				
valjaste	valjad	te		S	pl g
külest	####				
leidnud	leid	nud		V	nud
       	leid=nu	d		S	pl n
       	leid=nud	0		A	
       	leid=nud	0		A	sg n
       	leid=nud	d		A	pl n
ja	ja	0		J	
niisamuti	nii_samuti	0		D	
selle	see	0		P	sg g
     	sell	e		S	pl p
varastud	####				
rihma	rihm	0		S	adt
     	rihm	0		S	sg g
     	rihma	0		V	o
     	rihm	0		S	sg p
Madis	Madis	0		H	sg n
     	madis	0		S	sg n
Sidami	####				
hobasse	####				
telkade	####				
pealt	pea	lt		S	sg abl
     	pealt	0		D	
     	pealt	0		K	
kätte	kätte	0		K	
     	käsi	tte		S	adt
saanud	saa	nud		V	nud
      	saa=nud	0		A	
      	saa=nud	0		A	sg n
      	saa=nud	d		A	pl n
      	saanu	d		S	pl n
.	.			Z	
astus	astu	s		V	s
ette	ette	0		D	
    	ette	0		K	
    	esi	tte		S	adt
Madis	Madis	0		H	sg n
     	madis	0		S	sg n
Sidam	####				
ja	ja	0		J	
tellis	telli	s		V	s
      	tellis	0		S	sg n
,	,			Z	
et	et	0		J	
se	####				
assi	ass	0		S	adt
    	ass	0		S	sg g
    	ass	0		S	sg p
täna	täna	0		D	
    	täna	0		V	o
seletamata	seleta	mata		V	mata
          	seleta=mata	0		A	
jääks	jää	ks		S	sg tr
     	jää	ks		V	ks
,	,			Z	
kuni	kuni	0		J	
    	kuni	0		K	
ta	tema	0		P	sg g
  	tema	0		P	sg n
tunnistust	tunnistus	t		S	sg p
toob	too	b		V	b
,	,			Z	
kelle	kes	0		P	pl g
     	kes	0		P	sg g
käest	käest	0		K	
     	käsi	st		S	sg el
ta	tema	0		P	sg g
  	tema	0		P	sg n
need	see	d		P	pl n
valjad	valjad	d		S	pl n
ja	ja	0		J	
telka	####				
rihma	rihm	0		S	adt
     	rihm	0		S	sg g
     	rihma	0		V	o
     	rihm	0		S	sg p
on	ole	0		V	b
  	ole	0		V	vad
saanud	saa	nud		V	nud
      	saa=nud	0		A	
      	saa=nud	0		A	sg n
      	saa=nud	d		A	pl n
      	saanu	d		S	pl n
;	;			Z	
jää	jää	0		S	sg g
   	jää	0		V	o
   	jää	0		S	sg n
teiseks	teine	ks		O	sg tr
       	teine	ks		P	sg tr
       	teiseks	0		D	
kohtupäevaks	kohtu_päev	ks		S	sg tr
.	.			Z	
