koos	koos	0		D	
    	koos	0		K	
    	koos	0		S	sg n
    	kubu	s		S	sg in
olid	ole	id		V	sid
:	:			Z	
tallitaja	####				
:	:			Z	
Nits	####				
:	:			Z	
Mähle	####				
,	,			Z	
abbilis	####				
:	:			Z	
Gus	####				
:	:			Z	
Kutser	####				
ha	ha	0		Y	?
G	G	0		Y	?
.	.			Z	
_	_			Z	
Jõesberg	####				
.	.			Z	
Villem	Villem	0		H	sg n
märjamaa	märja_maa	0		S	sg g
        	märja_maa	0		S	sg n
kaebab	kaeba	b		V	b
kohtu	kohtu	0		V	o
     	kohus	0		S	sg g
ees	ees	0		D	
   	ees	0		K	
   	esi	s		S	sg in
,	,			Z	
et	et	0		J	
Suurevalla	suure_vald	0		S	sg g
pois	poi	s		S	sg in
Thomas	Thomas	0		H	sg n
Kalju	Kalju	0		H	sg g
     	Kalju	0		H	sg n
     	kali	u		S	pl p
     	kalju	0		S	sg g
     	kalju	0		S	sg n
teda	tema	da		P	sg p
sel	see	l		P	sg ad
   	sel	0		Y	?
20mal	####				
oktoob	####				
:	:			Z	
Mäe	mägi	0		S	sg g
kõrtsi	kõrts	0		S	adt
      	kõrts	0		S	sg g
      	kõrts	0		S	sg p
juures	juur	s		S	sg in
      	juures	0		D	
      	juures	0		K	
kaks	kaks	0		N	sg n
korda	kord	0		S	adt
     	korda	0		V	o
     	kord	0		S	sg p
maha	maha	0		D	
lükanud	lükka	nud		V	nud
       	lüka=nu	d		S	pl n
       	lüka=nud	0		A	
       	lüka=nud	0		A	sg n
       	lüka=nud	d		A	pl n
,	,			Z	
ilma	ilm	0		S	adt
    	ilm	0		S	sg g
    	ilma	0		D	
    	ilma	0		K	
    	ilm	0		S	sg p
et	et	0		J	
tema	tema	0		P	sg g
    	tema	0		P	sg n
teda	tema	da		P	sg p
seal	seal	0		D	
    	siga	l		A	sg ad
    	siga	l		S	sg ad
enne	enne	0		D	
    	enne	0		K	
    	enne	0		S	sg n
vihale	viht	le		S	sg all
      	viha	le		A	sg all
      	viha	le		S	sg all
oleks	ole	ks		V	ks
ärritanud	ärrita	nud		V	nud
         	ärrita=nu	d		S	pl n
         	ärrita=nud	0		A	
         	ärrita=nud	0		A	sg n
         	ärrita=nud	d		A	pl n
.	.			Z	
niisama	nii_sama	0		D	
kaebab	kaeba	b		V	b
ka	ka	0		D	
Nig	####				
.	.			Z	
tänava	tänav	0		S	sg g
,	,			Z	
et	et	0		J	
see	see	0		P	sg n
kõrgemal	kõrgem	l		C	sg ad
        	kõrgem	l		S	sg ad
        	kõrgemal	0		D	
nimetatud	nimeta	tud		V	tud
         	nimetatu	d		S	pl n
         	nimetatud	0		A	
         	nimetatud	0		A	sg n
         	nimetatud	d		A	pl n
Thomas	Thomas	0		H	sg n
Kalju	Kalju	0		H	sg g
     	Kalju	0		H	sg n
     	kali	u		S	pl p
     	kalju	0		S	sg g
     	kalju	0		S	sg n
olla	ole	a		V	da
mooda	####				
läinud	läinu	d		S	pl n
      	läinud	0		A	
      	läinud	0		A	sg n
      	läinud	d		A	pl n
      	mine	nud		V	nud
kevadel	kevad	l		S	sg ad
       	kevade	l		S	sg ad
,	,			Z	
seal	seal	0		D	
    	siga	l		A	sg ad
    	siga	l		S	sg ad
sammas	sammas	0		S	sg n
kõrtsi	kõrts	0		S	adt
      	kõrts	0		S	sg g
      	kõrts	0		S	sg p
juures	juur	s		S	sg in
      	juures	0		D	
      	juures	0		K	
,	,			Z	
tema	tema	0		P	sg g
    	tema	0		P	sg n
kasuka	kasukas	0		S	sg g
katki	katki	0		D	
käristanud	kärista	nud		V	nud
          	kärista=nu	d		S	pl n
          	kärista=nud	0		A	
          	kärista=nud	0		A	sg n
          	kärista=nud	d		A	pl n
(	(			Z	
rinna	rind	0		S	sg g
eest	eest	0		D	
    	eest	0		K	
    	esi	st		S	sg el
)	)			Z	
,	,			Z	
mis	mis	0		P	pl n
   	mis	0		P	sg n
ta	tema	0		P	sg g
  	tema	0		P	sg n
praegugi	praegu	0	gi	D	
siin	siin	0		D	
    	siin	0		S	sg n
kohtus	kohtu	s		V	s
      	kohus	s		S	sg in
ette	ette	0		D	
    	ette	0		K	
    	esi	tte		S	adt
näitab	näita	b		V	b
.	.			Z	
Thomas	Thomas	0		H	sg n
Kalju	Kalju	0		H	sg g
     	Kalju	0		H	sg n
     	kali	u		S	pl p
     	kalju	0		S	sg g
     	kalju	0		S	sg n
tunnistab	tunnista	b		V	b
,	,			Z	
et	et	0		J	
see	see	0		P	sg n
tema	tema	0		P	sg g
    	tema	0		P	sg n
käest	käest	0		K	
     	käsi	st		S	sg el
küll	küll	0		D	
    	küll	0		S	sg n
nõnda	nõnda	0		D	
on	ole	0		V	b
  	ole	0		V	vad
joobnud	joobnu	d		S	pl n
       	joobnud	0		A	
       	joobnud	0		A	sg n
       	joobnud	d		A	pl n
peaga	pea	ga		S	sg kom
juhtunud	juhtu	nud		V	nud
        	juhtunu	d		S	pl n
        	juhtunud	0		A	
        	juhtunud	0		A	sg n
        	juhtunud	d		A	pl n
ja	ja	0		J	
palub	palu	b		V	b
Nig	####				
:	:			Z	
tänavaga	tänav	ga		S	sg kom
leppida	leppi	da		V	da
,	,			Z	
mis	mis	0		P	pl n
   	mis	0		P	sg n
see	see	0		P	sg n
issa	####				
soovis	soov	s		S	sg in
      	soovi	s		V	s
ja	ja	0		J	
Thomas	Thomas	0		H	sg n
Kalju	Kalju	0		H	sg g
     	Kalju	0		H	sg n
     	kali	u		S	pl p
     	kalju	0		S	sg g
     	kalju	0		S	sg n
maksis	maks	is		V	s
      	maksi	s		S	sg in
Nig	####				
:	:			Z	
tänavale	tänav	le		S	sg all
siis	siis	0		D	
    	siis	0		J	
60	60	0		N	?
kop	kop	0		Y	?
kahjutasumiseks	kahju_tasumine	ks		S	sg tr
,	,			Z	
misga	####				
teine	teine	0		O	sg n
     	teine	0		P	sg n
ka	ka	0		D	
rahul	rahu	l		S	sg ad
     	rahul	0		D	
oli	ole	i		V	s
ja	ja	0		J	
nõnda	nõnda	0		D	
on	ole	0		V	b
  	ole	0		V	vad
nende	see	de		P	pl g
     	tema	de		P	pl g
asi	asi	0		S	sg n
   	asi	0		V	o
kohtu	kohtu	0		V	o
     	kohus	0		S	sg g
poolest	pool	st		N	sg el
       	pool	st		S	sg el
       	poolene	t		A	sg p
       	poolest	0		K	
leppitud	####				
saanud	saa	nud		V	nud
      	saa=nud	0		A	
      	saa=nud	0		A	sg n
      	saa=nud	d		A	pl n
      	saanu	d		S	pl n
.	.			Z	
aga	aga	0		J	
et	et	0		J	
Villem	Villem	0		H	sg n
märjamaa	märja_maa	0		S	sg g
        	märja_maa	0		S	sg n
temast	tema	st		P	sg el
ilma	ilm	0		S	adt
    	ilm	0		S	sg g
    	ilma	0		D	
    	ilma	0		K	
    	ilm	0		S	sg p
süüta	süü	ta		S	sg ab
     	süüta	0		V	o
on	ole	0		V	b
  	ole	0		V	vad
mutatud	####				
ja	ja	0		J	
löödud	löö	dud		V	tud
      	löödu	d		S	pl n
      	löödud	0		A	
      	löödud	0		A	sg n
      	löödud	d		A	pl n
saanud	saa	nud		V	nud
      	saa=nud	0		A	
      	saa=nud	0		A	sg n
      	saa=nud	d		A	pl n
      	saanu	d		S	pl n
,	,			Z	
selle	see	0		P	sg g
     	sell	e		S	pl p
eest	eest	0		D	
    	eest	0		K	
    	esi	st		S	sg el
mõistis	mõist	is		V	s
kohus	kohu	s		V	s
     	kohus	0		S	sg n
,	,			Z	
et	et	0		J	
Thomas	Thomas	0		H	sg n
Kalju	Kalju	0		H	sg g
     	Kalju	0		H	sg n
     	kali	u		S	pl p
     	kalju	0		S	sg g
     	kalju	0		S	sg n
1	1	0		N	?
rbl	rbl	0		Y	?
:	:			Z	
raha	raha	0		S	sg g
    	raha	0		S	sg n
    	raha	0		S	sg p
trahvi	trahv	0		S	adt
      	trahv	0		S	sg g
      	trahvi	0		V	o
      	trahv	0		S	sg p
valla	vald	0		S	sg g
     	valla	0		D	
laeka	laegas	0		S	adt
     	laegas	0		S	sg g
maksab	maks	b		V	b
.	.			Z	
mis	mis	0		P	pl n
   	mis	0		P	sg n
tema	tema	0		P	sg g
    	tema	0		P	sg n
ka	ka	0		D	
varsti	varsti	0		D	
välja	välja	0		D	
     	välja	0		V	o
     	väli	0		S	adt
     	väli	0		S	sg g
     	väli	0		S	sg p
maksis	maks	is		V	s
      	maksi	s		S	sg in
.	.			Z	
