kohtu	kohtu	0		V	o
     	kohus	0		S	sg g
käiaid	####				
ei	ei	0		D	
  	ei	0		V	neg
olnud	ol=nud	0		A	
     	ol=nud	0		A	sg n
     	ol=nud	d		A	pl n
     	ole	nud		V	nud
     	olnu	d		S	pl n
,	,			Z	
kelle	kes	0		P	pl g
     	kes	0		P	sg g
ülle	ülle	0		D	
mõistust	mõistus	t		S	sg p
teha	tege	a		V	da
oli	ole	i		V	s
,	,			Z	
sepärast	####				
sai	saa	i		V	s
   	sai	0		S	sg n
koos	koos	0		D	
    	koos	0		K	
    	koos	0		S	sg n
    	kubu	s		S	sg in
istumine	istumine	0		S	sg n
muidu	muidu	0		D	
lõpetud	lõp	tud		V	tud
       	lõppe	tud		V	tud
       	lõpe=tu	d		S	pl n
       	lõpe=tud	0		A	
       	lõpe=tud	0		A	sg n
       	lõpe=tud	d		A	pl n
.	.			Z	
kohtuvanem	kohtu_vanem	0		C	sg n
          	kohtu_vanem	0		S	sg n
:	:			Z	
K. Ojasson	####				
[	[			Z	
allkiri	all_kiri	0		S	sg n
]	]			Z	
korvamees	####				
:	:			Z	
Hans	Hans	0		H	sg n
Viht	viht	0		S	sg n
""""	""""			Z	
:	:			Z	
Jaan	Jaan	0		H	sg n
    	jaan	0		S	sg n
    	jaan	0		Y	?
Umberg	####				
kirjutaja	kirjutaja	0		S	sg g
         	kirjutaja	0		S	sg n
:	:			Z	
Mihkel	Mihkel	0		H	sg n
      	mihkel	0		A	sg n
      	mihkel	0		S	sg n
Kruup	kruup	0		S	sg n
[	[			Z	
allkiri	all_kiri	0		S	sg n
]	]			Z	
