kaebas	kaeba	s		V	s
kohtu	kohtu	0		V	o
     	kohus	0		S	sg g
ees	ees	0		D	
   	ees	0		K	
   	esi	s		S	sg in
Jaan	Jaan	0		H	sg n
    	jaan	0		S	sg n
    	jaan	0		Y	?
PärtmannPaistaku	####				
sulane	sulane	0		S	sg n
      	sulane	0		V	o
,	,			Z	
et	et	0		J	
siimuKustas	####				
Viht	viht	0		S	sg n
olla	ole	a		V	da
teda	tema	da		P	sg p
ilma	ilm	0		S	adt
    	ilm	0		S	sg g
    	ilma	0		D	
    	ilma	0		K	
    	ilm	0		S	sg p
süüüta	####				
lõõnud	####				
.	.			Z	
ette	ette	0		D	
    	ette	0		K	
    	esi	tte		S	adt
sai	saa	i		V	s
   	sai	0		S	sg n
kutsutud	kutsu	tud		V	tud
        	kutsutu	d		S	pl n
        	kutsutud	0		A	
        	kutsutud	0		A	sg n
        	kutsutud	d		A	pl n
Kustas	Kusta	s		H	sg in
      	Kustas	0		H	sg n
Viht	viht	0		S	sg n
ja	ja	0		J	
teda	tema	da		P	sg p
ses	see	s		P	sg in
asjas	asi	s		S	sg in
ülekuulatud	üle_kuulatud	0		A	
           	üle_kuulatud	0		A	sg n
           	üle_kuulatud	d		A	pl n
,	,			Z	
kas	kas	0		D	
ta	tema	0		P	sg g
  	tema	0		P	sg n
on	ole	0		V	b
  	ole	0		V	vad
lõõnud	####				
,	,			Z	
tema	tema	0		P	sg g
    	tema	0		P	sg n
aga	aga	0		J	
ütleb	ütle	b		V	b
et	et	0		J	
ta	tema	0		P	sg g
  	tema	0		P	sg n
poole	pool	0		N	sg g
     	pool	0		S	sg g
     	pool	e		S	pl p
     	poole	0		K	
     	poole	0		S	sg n
mitte	mitte	0		D	
lõõnud	####				
;	;			Z	
aga	aga	0		J	
Jaan	Jaan	0		H	sg n
    	jaan	0		S	sg n
    	jaan	0		Y	?
Pärtmann	####				
olla	ole	a		V	da
tema	tema	0		P	sg g
    	tema	0		P	sg n
sea	sead	0		V	o
   	siga	0		A	sg g
   	siga	0		S	sg g
vigaseks	vigane	ks		A	sg tr
        	vigane	ks		S	sg tr
lõõnud	####				
.	.			Z	
Pitkema	####				
ülle	ülle	0		D	
kuulamisel	kuulamine	l		S	sg ad
tuli	tuli	0		S	sg n
    	tule	i		V	s
avalikuks	avalik	ks		A	sg tr
,	,			Z	
et	et	0		J	
nende	see	de		P	pl g
     	tema	de		P	pl g
mõlemate	mõlema	te		P	pl g
kaebtus	####				
tühine	tühine	0		A	sg n
on	ole	0		V	b
  	ole	0		V	vad
;	;			Z	
sepärast	####				
mõistis	mõist	is		V	s
kohus	kohu	s		V	s
     	kohus	0		S	sg n
,	,			Z	
et	et	0		J	
kumbki	kumbki	0		P	sg n
maksab	maks	b		V	b
valla	vald	0		S	sg g
     	valla	0		D	
laekasse	laegas	sse		S	sg ill
trahi	####				
Jaan	Jaan	0		H	sg n
    	jaan	0		S	sg n
    	jaan	0		Y	?
Pärtmann	####				
50	50	0		N	?
kop	kop	0		Y	?
.	.			Z	
ja	ja	0		J	
Kustas	Kusta	s		H	sg in
      	Kustas	0		H	sg n
Umberg	####				
50	50	0		N	?
kop	kop	0		Y	?
.	.			Z	
