kohtu	kohtu	0		V	o
     	kohus	0		S	sg g
korra	kord	0		S	sg g
pärast	pära	st		S	sg el
      	pärane	t		A	sg p
      	pärast	0		D	
      	pärast	0		K	
olid	ole	id		V	sid
Parila	####				
,	,			Z	
Kebla	####				
ja	ja	0		J	
Ridala	Ridala	0		H	sg g
      	Ridala	0		H	sg n
kogukonna	kogukond	0		S	sg g
majas	maja	s		S	sg in
kohtumehed	kohtu_mees	d		S	pl n
koos	koos	0		D	
    	koos	0		K	
    	koos	0		S	sg n
    	kubu	s		S	sg in
.	.			Z	
kohtu	kohtu	0		V	o
     	kohus	0		S	sg g
käiaid	####				
ei	ei	0		D	
  	ei	0		V	neg
olnud	ol=nud	0		A	
     	ol=nud	0		A	sg n
     	ol=nud	d		A	pl n
     	ole	nud		V	nud
     	olnu	d		S	pl n
ega	ega	0		D	
   	ega	0		J	
ühti	ühti	0		D	
    	ühti	0		V	o
seletust	seletus	t		S	sg p
kohtu	kohtu	0		V	o
     	kohus	0		S	sg g
vanem	vanem	0		C	sg n
     	vanem	0		S	sg n
Jaan	Jaan	0		H	sg n
    	jaan	0		S	sg n
    	jaan	0		Y	?
Jünter	####				
XXX	XXX	0		O	?
   	XXX	0		Y	?
kohtu	kohtu	0		V	o
     	kohus	0		S	sg g
kamehed	####				
Jüri	Jüri	0		H	sg g
    	Jüri	0		H	sg n
Nojer	####				
XXX	XXX	0		O	?
   	XXX	0		Y	?
Juhan	Juhan	0		H	sg n
Krabi	krabi	0		S	sg g
     	krabi	0		S	sg n
     	krabi	0		S	sg p
XXX	XXX	0		O	?
   	XXX	0		Y	?
kirjutaja	kirjutaja	0		S	sg g
         	kirjutaja	0		S	sg n
T. Neider	####				
