kaebas	kaeba	s		V	s
mõisa	mõis	0		S	sg g
politsei	politsei	0		S	sg g
        	politsei	0		S	sg n
vabatikku	vaba_tikk	0		S	adt
         	vaba_tikk	u		S	pl p
         	vaba_tikk	0		S	sg p
Andrus	Andrus	0		H	sg n
kolga	####				
üle	üle	0		D	
   	üle	0		K	
et	et	0		J	
temal	tema	l		P	sg ad
on	ole	0		V	b
  	ole	0		V	vad
ka	ka	0		D	
päevad	päev	d		S	pl n
võlga	võlg	0		S	adt
     	võlg	0		S	sg p
ja	ja	0		J	
talitaia	tali_taig	0		S	sg g
läbi	läbi	0		D	
    	läbi	0		K	
    	läbi	0		V	o
käsko	####				
on	ole	0		V	b
  	ole	0		V	vad
saanud	saa	nud		V	nud
      	saa=nud	0		A	
      	saa=nud	0		A	sg n
      	saa=nud	d		A	pl n
      	saanu	d		S	pl n
et	et	0		J	
hakenrihtri	####				
ette	ette	0		D	
    	ette	0		K	
    	esi	tte		S	adt
peab	pida	b		V	b
minema	mine	ma		V	ma
aga	aga	0		J	
pole	ole	0		V	neg o
mitte	mitte	0		D	
täitnud	täit	nud		V	nud
       	täit=nu	d		S	pl n
       	täit=nud	0		A	
       	täit=nud	0		A	sg n
       	täit=nud	d		A	pl n
käsko	####				
.	.			Z	
Sai	saa	i		V	s
   	sai	0		S	sg n
tema	tema	0		P	sg g
    	tema	0		P	sg n
kohtu	kohtu	0		V	o
     	kohus	0		S	sg g
ette	ette	0		D	
    	ette	0		K	
    	esi	tte		S	adt
kutsutud	kutsu	tud		V	tud
        	kutsutu	d		S	pl n
        	kutsutud	0		A	
        	kutsutud	0		A	sg n
        	kutsutud	d		A	pl n
,	,			Z	
kus	kus	0		D	
tema	tema	0		P	sg g
    	tema	0		P	sg n
ennast	ise	t		P	sg p
vabandab	vabanda	b		V	b
,	,			Z	
et	et	0		J	
hää	####				
meelega	meel	ga		S	sg kom
       	meelega	0		D	
päevad	päev	d		S	pl n
teeks	tee	ks		S	sg tr
     	tege	ks		V	ks
,	,			Z	
aga	aga	0		J	
ma	mina	0		P	sg n
olen	ole	n		V	n
teist	sina	st		P	pl el
     	tee	ist		S	pl el
     	teist	0		D	
     	teine	t		O	sg p
     	teine	t		P	sg p
meest	meene	t		A	sg p
     	mees	t		S	sg p
     	mesi	st		S	sg el
teenimas	teeni	mas		V	mas
None	####				
eest	eest	0		D	
    	eest	0		K	
    	esi	st		S	sg el
ja	ja	0		J	
naine	naine	0		S	sg n
on	ole	0		V	b
  	ole	0		V	vad
vigase	vigane	0		A	sg g
      	vigane	0		S	sg g
lasega	####				
kodu	kodu	0		S	sg g
    	kodu	0		S	sg n
    	kodu	0		S	sg p
nälgas	####				
,	,			Z	
kui	kui	0		D	
   	kui	0		J	
ma	mina	0		P	sg n
jauan	####				
tahan	taht	n		V	n
hää	####				
meelega	meel	ga		S	sg kom
       	meelega	0		D	
päevad	päev	d		S	pl n
teha	tege	a		V	da
,	,			Z	
palun	palu	n		V	n
nüüd	nüüd	0		D	
kohut	kohus	t		S	sg p
et	et	0		J	
lubab	luba	b		V	b
ma	mina	0		P	sg n
tahan	taht	n		V	n
minna	mine	a		V	da
ja	ja	0		J	
mõisa	mõis	0		S	sg g
herrat	####				
paluda	palu	da		V	da
ehk	ehk	0		D	
   	ehk	0		J	
kannatab	kannata	b		V	b
,	,			Z	
kus	kus	0		D	
tema	tema	0		P	sg g
    	tema	0		P	sg n
ja	ja	0		J	
seda	see	da		P	sg p
luba	luba	0		S	sg n
    	luba	0		V	o
    	luba	0		S	sg p
sai	saa	i		V	s
   	sai	0		S	sg n
,	,			Z	
aga	aga	0		J	
teine	teine	0		O	sg n
     	teine	0		P	sg n
kohtu	kohtu	0		V	o
     	kohus	0		S	sg g
päeva	päev	0		S	adt
     	päev	0		S	sg g
     	päev	0		S	sg p
tuled	tuli	d		S	pl n
     	tule	d		V	d
ette	ette	0		D	
    	ette	0		K	
    	esi	tte		S	adt
ja	ja	0		J	
pead	pea	d		S	pl n
    	pida	d		V	d
    	pea	d		S	sg p
trahvitud	trahvi	tud		V	tud
         	trahvi=tu	d		S	pl n
         	trahvi=tud	0		A	
         	trahvi=tud	0		A	sg n
         	trahvi=tud	d		A	pl n
et	et	0		J	
kässo	####				
vastu	vastu	0		D	
     	vastu	0		K	
panid	pan	d		S	pl n
     	pani	d		S	pl n
     	pane	id		V	sid
.	.			Z	
koos	koos	0		D	
    	koos	0		K	
    	koos	0		S	sg n
    	kubu	s		S	sg in
olid	ole	id		V	sid
kohtuvanem	kohtu_vanem	0		C	sg n
          	kohtu_vanem	0		S	sg n
Jaan	Jaan	0		H	sg n
    	jaan	0		S	sg n
    	jaan	0		Y	?
Sass	Sass	0		H	sg n
XXX	XXX	0		O	?
   	XXX	0		Y	?
Jaan	Jaan	0		H	sg n
    	jaan	0		S	sg n
    	jaan	0		Y	?
Spuhl	####				
XXX	XXX	0		O	?
   	XXX	0		Y	?
Juhan	Juhan	0		H	sg n
korjus	korju	s		V	s
      	kori	s		S	sg in
      	korju	s		S	sg in
      	korjus	0		S	sg n
XXX	XXX	0		O	?
   	XXX	0		Y	?
