koos	koos	0		D	
    	koos	0		K	
    	koos	0		S	sg n
    	kubu	s		S	sg in
olid	ole	id		V	sid
,	,			Z	
talitaja	talitaja	0		S	sg g
        	talitaja	0		S	sg n
,	,			Z	
A_	####				
.	.			Z	
_	_			Z	
pakes	####				
,	,			Z	
abimehed	abi_mees	d		S	pl n
:	:			Z	
P	P	0		Y	?
.	.			Z	
_	_			Z	
Püss	püss	0		S	sg n
ja	ja	0		J	
Villem	Villem	0		H	sg n
uusmann	uus_mann	0		S	sg n
seatud	sea=tu	d		S	pl n
      	sead	tud		V	tud
      	seatud	0		A	
      	seatud	0		A	sg n
      	seatud	d		A	pl n
kohtupäeva	kohtu_päev	0		S	adt
          	kohtu_päev	0		S	sg g
          	kohtu_päev	0		S	sg p
pidamas	pida	mas		V	mas
.	.			Z	
kõrgesti	kõrgesti	0		D	
auustatud	####				
Saare	Saare	0		H	sg g
     	saar	0		S	sg g
     	Saare	0		H	sg n
Läänemaa	Lääne_maa	0		H	sg g
        	Lääne_maa	0		H	sg n
        	lääne_maa	0		G	
haakenrihteri	####				
härrale	härra	le		S	sg all
saab	saa	b		V	b
Kerde	####				
vabr	####				
.	.			Z	
kogukonna	kogukond	0		S	sg g
valitsuse	valitsus	0		S	sg g
poolt	pool	t		N	sg p
     	pool	t		S	sg p
     	poolt	0		D	
     	poolt	0		K	
alandlikult	alandlik	lt		A	sg abl
           	alandlikult	0		D	
ette	ette	0		D	
    	ette	0		K	
    	esi	tte		S	adt
pandud	pan=du	d		S	pl n
      	pan=dud	0		A	
      	pan=dud	0		A	sg n
      	pan=dud	d		A	pl n
      	pane	dud		V	tud
,	,			Z	
et	et	0		J	
Kerde	####				
vabr	####				
.	.			Z	
kogukonna	kogukond	0		S	sg g
mees	mees	0		S	sg n
    	mesi	s		S	sg in
Simmo	####				
kõrges	kõrge	s		A	sg in
      	kõrges	0		S	sg n
,	,			Z	
51	51	0		N	?
3	3	0		N	?
/	/			Z	
4	4	0		N	?
a.	a	0		Y	?
vana	vana	0		A	sg g
    	vana	0		A	sg n
    	vana	0		A	sg p
    	vana	0		S	sg g
    	vana	0		S	sg n
    	vana	0		S	sg p
,	,			Z	
poismees	####				
,	,			Z	
sündiamise	####				
poolest	pool	st		N	sg el
       	pool	st		S	sg el
       	poolene	t		A	sg p
       	poolest	0		K	
käsist	käsi	st		S	pl el
vigane	vigane	0		A	sg n
      	vigane	0		S	sg n
,	,			Z	
teereisi	tee_reis	0		S	adt
        	tee_reis	0		S	sg g
        	tee_reis	0		S	sg p
peal	pea	l		S	sg ad
    	peal	0		D	
    	peal	0		K	
ühe	üks	0		N	sg g
   	üks	0		P	sg g
   	ühe	0		S	sg n
hääkilise	####				
Nonguse	####				
läbi	läbi	0		D	
    	läbi	0		K	
    	läbi	0		V	o
on	ole	0		V	b
  	ole	0		V	vad
ärasurnud	ära_surnu	d		S	pl n
         	ära_surnud	0		A	
         	ära_surnud	0		A	sg n
         	ära_surnud	d		A	pl n
.	.			Z	
sel	see	l		P	sg ad
   	sel	0		Y	?
10nd	10nd	0		Y	?
aprill	aprill	0		S	sg n
.	.			Z	
s	s	0		Y	?
.	.			Z	
a.	a	0		Y	?
sai	saa	i		V	s
   	sai	0		S	sg n
Simmo	####				
kõrges	kõrge	s		A	sg in
      	kõrges	0		S	sg n
siit	siit	0		D	
Kerdelt	####				
ühe	üks	0		N	sg g
   	üks	0		P	sg g
   	ühe	0		S	sg n
tellegrammiga	####				
suuremõisa	suure_mõis	0		S	sg g
saadatud	####				
.	.			Z	
sel	see	l		P	sg ad
   	sel	0		Y	?
11m	11m	0		Y	?
apr	apr	0		Y	?
.	.			Z	
s	s	0		Y	?
.	.			Z	
a.	a	0		Y	?
sealt	sealt	0		D	
     	siga	lt		A	sg abl
     	siga	lt		S	sg abl
tagasi	tagasi	0		D	
      	tagasi	0		K	
tulles	tule	es		V	des
käinud	käi	nud		V	nud
      	käi=nud	0		A	
      	käi=nud	0		A	sg n
      	käi=nud	d		A	pl n
      	käinu	d		S	pl n
s	s	0		Y	?
.	.			Z	
kõrges	kõrge	s		A	sg in
      	kõrges	0		S	sg n
pealõpäe	####				
külas	küla	s		S	sg in
ühes	üks	s		N	sg in
    	üks	s		P	sg in
    	ühes	0		D	
    	ühes	0		K	
peres	pere	s		S	sg in
sees	sees	0		D	
    	sees	0		K	
,	,			Z	
kus	kus	0		D	
talle	tall	e		S	pl p
     	tall	0		S	adt
     	tall	0		S	sg g
     	tema	lle		P	sg all
     	tall	0		S	sg p
süüa	söö	a		V	da
antud	an=tu	d		S	pl n
     	and	tud		V	tud
     	antud	0		A	
     	antud	0		A	sg n
     	antud	d		A	pl n
.	.			Z	
teises	teine	s		O	sg in
      	teine	s		P	sg in
peres	pere	s		S	sg in
käinud	käi	nud		V	nud
      	käi=nud	0		A	
      	käi=nud	0		A	sg n
      	käi=nud	d		A	pl n
      	käinu	d		S	pl n
ta	tema	0		P	sg g
  	tema	0		P	sg n
ka	ka	0		D	
sees	sees	0		D	
    	sees	0		K	
ja	ja	0		J	
palunud	palu	nud		V	nud
       	palu=nu	d		S	pl n
       	palu=nud	0		A	
       	palu=nud	0		A	sg n
       	palu=nud	d		A	pl n
selle	see	0		P	sg g
     	sell	e		S	pl p
pere	pere	0		S	sg g
    	pere	0		S	sg n
rahvast	rahvas	st		S	sg el
       	rahvas	t		S	sg p
,	,			Z	
et	et	0		J	
nad	tema	d		P	pl n
tema	tema	0		P	sg g
    	tema	0		P	sg n
kartuhvliid	####				
(	(			Z	
1	1	0		N	?
külimit	külimit	0		S	sg n
)	)			Z	
mis	mis	0		P	pl n
   	mis	0		P	sg n
ta	tema	0		P	sg g
  	tema	0		P	sg n
küllast	küll	st		S	sg el
       	küllane	t		A	sg p
saanud	saa	nud		V	nud
      	saa=nud	0		A	
      	saa=nud	0		A	sg n
      	saa=nud	d		A	pl n
      	saanu	d		S	pl n
,	,			Z	
Kerdele	####				
toos	toos	0		S	sg n
kui	kui	0		D	
   	kui	0		J	
juhtuvad	juhtu	vad		V	vad
        	juhtuv	d		A	pl n
sinna	sinna	0		D	
poole	pool	0		N	sg g
     	pool	0		S	sg g
     	pool	e		S	pl p
     	poole	0		K	
     	poole	0		S	sg n
tulema	tule	ma		V	ma
.	.			Z	
et	et	0		J	
s	s	0		Y	?
.	.			Z	
kõrges	kõrge	s		A	sg in
      	kõrges	0		S	sg n
20nd	####				
aprill	aprill	0		S	sg n
s	s	0		Y	?
.	.			Z	
a.	a	0		Y	?
veel	veel	0		D	
    	vesi	l		S	sg ad
koju	kodu	0		S	adt
poole	pool	0		N	sg g
     	pool	0		S	sg g
     	pool	e		S	pl p
     	poole	0		K	
     	poole	0		S	sg n
tagasi	tagasi	0		D	
      	tagasi	0		K	
tulnud	tul=nud	0		A	
      	tul=nud	0		A	sg n
      	tul=nud	d		A	pl n
      	tule	nud		V	nud
      	tulnu	d		S	pl n
,	,			Z	
kutsus	kutsu	s		V	s
      	kutsu	s		S	sg in
Kerde	####				
vabr	####				
.	.			Z	
valla	vald	0		S	sg g
     	valla	0		D	
Politsei	politsei	0		S	sg g
        	politsei	0		S	sg n
piire	piir	e		S	pl p
     	piire	0		S	sg n
nooori	####				
mehi	mees	0		S	pl p
kokku	kokku	0		D	
     	kogu	0		S	adt
ja	ja	0		J	
laksid	laksi	d		V	d
teda	tema	da		P	sg p
taga	taga	0		D	
    	taga	0		K	
    	taga	0		V	o
otsima	otsi	ma		V	ma
,	,			Z	
ja	ja	0		J	
leidsid	leid	sid		V	sid
s	s	0		Y	?
.	.			Z	
kõrges	kõrge	s		A	sg in
      	kõrges	0		S	sg n
surnud	surnu	d		S	pl n
      	surnud	0		A	
      	surnud	0		A	sg n
      	surnud	d		A	pl n
      	sure	nud		V	nud
keha	keha	0		S	sg g
    	keha	0		S	sg n
    	keha	0		S	sg p
pealõpäe	####				
niidist	niit	st		S	sg el
,	,			Z	
heinamaa	heina_maa	0		S	sg g
        	heina_maa	0		S	sg n
pealt	pea	lt		S	sg abl
     	pealt	0		D	
     	pealt	0		K	
piliroogude	####				
seast	seast	0		K	
     	siga	st		A	sg el
     	siga	st		S	sg el
kus	kus	0		D	
üks	üks	0		N	sg n
   	üks	0		P	sg n
madal	madal	0		A	sg n
     	madal	0		S	sg n
maakoht	maa_koht	0		S	sg n
olli	####				
ja	ja	0		J	
vesine	vesine	0		A	sg n
,	,			Z	
4	4	0		N	?
tolli	toll	0		S	adt
     	toll	0		S	sg g
     	tolli	0		V	o
     	toll	0		S	sg p
vat	####				
olli	####				
seal	seal	0		D	
    	siga	l		A	sg ad
    	siga	l		S	sg ad
kohas	koht	s		S	sg in
     	koha	s		S	sg in
     	koha	s		V	s
kus	kus	0		D	
s	s	0		Y	?
.	.			Z	
kõrges	kõrge	s		A	sg in
      	kõrges	0		S	sg n
surnud	surnu	d		S	pl n
      	surnud	0		A	
      	surnud	0		A	sg n
      	surnud	d		A	pl n
      	sure	nud		V	nud
keha	keha	0		S	sg g
    	keha	0		S	sg n
    	keha	0		S	sg p
seisis	seis	is		V	s
;	;			Z	
ühe	üks	0		N	sg g
   	üks	0		P	sg g
   	ühe	0		S	sg n
jalgtee	jalg_tee	0		S	sg g
       	jalg_tee	0		S	sg n
äärest	äär	st		S	sg el
      	äärest	0		K	
115	115	0		N	?
sammu	samm	0		S	adt
     	samm	0		S	sg g
     	sammu	0		V	o
     	samm	0		S	sg p
kõrvas	kõrv	s		S	sg in
.	.			Z	
see	see	0		P	sg n
koht	koht	0		S	sg n
on	ole	0		V	b
  	ole	0		V	vad
Kerdelt	####				
umbkau	####				
6	6	0		N	?
versta	verst	0		S	adt
      	verst	0		S	sg g
      	verst	0		S	sg p
kaugel	kauge	l		A	sg ad
      	kaugel	0		D	
,	,			Z	
pealõpäe	####				
küllast	küll	st		S	sg el
       	küllane	t		A	sg p
umbkau	####				
1	1	0		N	?
verst	verst	0		S	sg n
.	.			Z	
Arvaamise	arv_aamine	0		A	sg g
järel	järel	0		D	
     	järel	0		K	
on	ole	0		V	b
  	ole	0		V	vad
s	s	0		Y	?
.	.			Z	
kõrges	kõrge	s		A	sg in
      	kõrges	0		S	sg n
sinna	sinna	0		D	
ühe	üks	0		N	sg g
   	üks	0		P	sg g
   	ühe	0		S	sg n
häkkilise	####				
Nonguse	####				
kätte	kätte	0		K	
     	käsi	tte		S	adt
ärasurnud	ära_surnu	d		S	pl n
         	ära_surnud	0		A	
         	ära_surnud	0		A	sg n
         	ära_surnud	d		A	pl n
.	.			Z	
Politsei	politsei	0		S	sg g
        	politsei	0		S	sg n
ei	ei	0		D	
  	ei	0		V	neg
teadnud	tead	nud		V	nud
       	tead=nu	d		S	pl n
       	tead=nud	0		A	
       	tead=nud	0		A	sg n
       	tead=nud	d		A	pl n
teda	tema	da		P	sg p
ennem	ennem	0		C	sg n
     	ennem	0		D	
järel	järel	0		D	
     	järel	0		K	
otsida	otsi	da		V	da
,	,			Z	
sest	see	st		P	sg el
    	sest	0		J	
et	et	0		J	
s	s	0		Y	?
.	.			Z	
kõrges	kõrge	s		A	sg in
      	kõrges	0		S	sg n
mitte	mitte	0		D	
päris	päri	s		V	s
     	päris	0		A	
     	päris	0		D	
vabriku	vabrik	0		S	sg g
töömees	töö_mees	0		S	sg n
ei	ei	0		D	
  	ei	0		V	neg
olnud	ol=nud	0		A	
     	ol=nud	0		A	sg n
     	ol=nud	d		A	pl n
     	ole	nud		V	nud
     	olnu	d		S	pl n
ja	ja	0		J	
saagedast	####				
mitu	mitu	0		P	sg n
päeva	päev	0		S	adt
     	päev	0		S	sg g
     	päev	0		S	sg p
järjest	järg	st		S	sg el
       	järjest	0		D	
kodust	kodu	st		S	sg el
      	kodune	t		A	sg p
ära	ära	0		D	
   	ära	0		V	neg o
olli	####				
,	,			Z	
küllades	küll	des		S	pl in
,	,			Z	
sugulaste	sugulane	te		S	pl g
ja	ja	0		J	
tuttavaada	####				
juures	juur	s		S	sg in
      	juures	0		D	
      	juures	0		K	
.	.			Z	
sel	see	l		P	sg ad
   	sel	0		Y	?
22sel	####				
aprill	aprill	0		S	sg n
s	s	0		Y	?
.	.			Z	
a.	a	0		Y	?
sai	saa	i		V	s
   	sai	0		S	sg n
tema	tema	0		P	sg g
    	tema	0		P	sg n
surnukeha	surnu_keha	0		S	sg g
         	surnu_keha	0		S	sg n
         	surnu_keha	0		S	sg p
siin	siin	0		D	
    	siin	0		S	sg n
Kerde	####				
vabr	####				
.	.			Z	
tohtri	tohter	0		S	sg g
härra	härra	0		S	sg g
     	härra	0		S	sg n
poolest	pool	st		N	sg el
       	pool	st		S	sg el
       	poolene	t		A	sg p
       	poolest	0		K	
ülesleigatud	####				
ja	ja	0		J	
järelvaadatud	järel_vaata	tud		V	tud
             	järel_vaada=tu	d		S	pl n
             	järel_vaada=tud	0		A	
             	järel_vaada=tud	0		A	sg n
             	järel_vaada=tud	d		A	pl n
,	,			Z	
mis	mis	0		P	pl n
   	mis	0		P	sg n
üle	üle	0		D	
   	üle	0		K	
tohtrihärra	tohtri_härra	0		S	sg g
           	tohtri_härra	0		S	sg n
ise	ise	0		A	
   	ise	0		D	
   	ise	0		P	pl n
   	ise	0		P	sg n
ühe	üks	0		N	sg g
   	üks	0		P	sg g
   	ühe	0		S	sg n
protokolli	protokoll	0		S	adt
          	protokoll	0		S	sg g
          	protokolli	0		V	o
          	protokoll	0		S	sg p
saab	saa	b		V	b
andma	and	ma		V	ma
.	.			Z	
sel	see	l		P	sg ad
   	sel	0		Y	?
23nd	####				
apr	apr	0		Y	?
.	.			Z	
s	s	0		Y	?
.	.			Z	
a	a	0		Y	?
sai	saa	i		V	s
   	sai	0		S	sg n
s	s	0		Y	?
.	.			Z	
kõrges	kõrge	s		A	sg in
      	kõrges	0		S	sg n
surnud	surnu	d		S	pl n
      	surnud	0		A	
      	surnud	0		A	sg n
      	surnud	d		A	pl n
      	sure	nud		V	nud
keha	keha	0		S	sg g
    	keha	0		S	sg n
    	keha	0		S	sg p
maha	maha	0		D	
maetatud	####				
.	.			Z	
muud	muu	d		P	pl n
    	muu	d		S	pl n
    	muu	d		V	d
    	muu	d		P	sg p
    	muu	d		S	sg p
toimetust	toimetu	st		A	sg el
         	toimetus	t		S	sg p
täna	täna	0		D	
    	täna	0		V	o
ei	ei	0		D	
  	ei	0		V	neg
olnud	ol=nud	0		A	
     	ol=nud	0		A	sg n
     	ol=nud	d		A	pl n
     	ole	nud		V	nud
     	olnu	d		S	pl n
.	.			Z	
