kohtu	kohtu	0		V	o
     	kohus	0		S	sg g
korra	kord	0		S	sg g
pärast	pära	st		S	sg el
      	pärane	t		A	sg p
      	pärast	0		D	
      	pärast	0		K	
olid	ole	id		V	sid
,	,			Z	
Parila	####				
Kebla	####				
ja	ja	0		J	
Ridali	####				
kiriku	kirik	0		S	sg g
valla	vald	0		S	sg g
     	valla	0		D	
kogukonna	kogukond	0		S	sg g
majas	maja	s		S	sg in
kohtumehed	kohtu_mees	d		S	pl n
koos	koos	0		D	
    	koos	0		K	
    	koos	0		S	sg n
    	kubu	s		S	sg in
.	.			Z	
kohtu	kohtu	0		V	o
     	kohus	0		S	sg g
käiaid	####				
ei	ei	0		D	
  	ei	0		V	neg
olnud	ol=nud	0		A	
     	ol=nud	0		A	sg n
     	ol=nud	d		A	pl n
     	ole	nud		V	nud
     	olnu	d		S	pl n
ja	ja	0		J	
ei	ei	0		D	
  	ei	0		V	neg
olnud	ol=nud	0		A	
     	ol=nud	0		A	sg n
     	ol=nud	d		A	pl n
     	ole	nud		V	nud
     	olnu	d		S	pl n
ühtigi	ühtigi	0		D	
seletada	seleta	da		V	da
kohtu	kohtu	0		V	o
     	kohus	0		S	sg g
vanem	vanem	0		C	sg n
     	vanem	0		S	sg n
Jaan	Jaan	0		H	sg n
    	jaan	0		S	sg n
    	jaan	0		Y	?
Reints	####				
XXX	XXX	0		O	?
   	XXX	0		Y	?
kohtu	kohtu	0		V	o
     	kohus	0		S	sg g
kämehed	####				
Jüri	Jüri	0		H	sg g
    	Jüri	0		H	sg n
Klaos	####				
XXX	XXX	0		O	?
   	XXX	0		Y	?
Madis	Madis	0		H	sg n
     	madis	0		S	sg n
Pärten	####				
XXX	XXX	0		O	?
   	XXX	0		Y	?
kirjutaja	kirjutaja	0		S	sg g
         	kirjutaja	0		S	sg n
T. Neider	####				
