kohtu	kohtu	0		V	o
     	kohus	0		S	sg g
korra	kord	0		S	sg g
pärast	pära	st		S	sg el
      	pärane	t		A	sg p
      	pärast	0		D	
      	pärast	0		K	
olid	ole	id		V	sid
Piisalu	pii_salu	0		S	sg g
       	pii_salu	0		S	sg n
       	pii_salu	0		S	sg p
valla	vald	0		S	sg g
     	valla	0		D	
kohtu	kohtu	0		V	o
     	kohus	0		S	sg g
hoones	hoone	s		S	sg in
kokku	kokku	0		D	
     	kogu	0		S	adt
tulnud	tul=nud	0		A	
      	tul=nud	0		A	sg n
      	tul=nud	d		A	pl n
      	tule	nud		V	nud
      	tulnu	d		S	pl n
.	.			Z	
kohtu	kohtu	0		V	o
     	kohus	0		S	sg g
vanem	vanem	0		C	sg n
     	vanem	0		S	sg n
Jaan	Jaan	0		H	sg n
    	jaan	0		S	sg n
    	jaan	0		Y	?
Karing	####				
kohtu	kohtu	0		V	o
     	kohus	0		S	sg g
kõrvamehed	kõrva_mees	d		S	pl n
Kustas	Kusta	s		H	sg in
      	Kustas	0		H	sg n
severman	####				
Jaan	Jaan	0		H	sg n
    	jaan	0		S	sg n
    	jaan	0		Y	?
Liiv	liiv	0		S	sg n
4	4	0		N	?
härra	härra	0		S	sg g
     	härra	0		S	sg n
kaebas	kaeba	s		V	s
et	et	0		J	
valla	vald	0		S	sg g
     	valla	0		D	
loomad	loom	d		S	pl n
on	ole	0		V	b
  	ole	0		V	vad
mõisa	mõis	0		S	sg g
ma	mina	0		P	sg n
peal	pea	l		S	sg ad
    	peal	0		D	
    	peal	0		K	
käinud	käi	nud		V	nud
      	käi=nud	0		A	
      	käi=nud	0		A	sg n
      	käi=nud	d		A	pl n
      	käinu	d		S	pl n
ni	####				
kui	kui	0		D	
   	kui	0		J	
all	all	0		D	
   	all	0		K	
pool	pool	0		K	
    	pool	0		N	sg n
    	pool	0		S	sg n
seisab	seis	b		V	b
1	1	0		N	?
,	,			Z	
Nõmmukse	nõmm_uks	0		S	sg g
Jakob	Jakob	0		H	sg n
Valk	valk	0		S	sg n
14	14	0		N	?
looma	loo	ma		V	ma
     	loom	0		S	adt
     	loom	0		S	sg g
     	loom	0		S	sg p
kametsas	####				
2	2	0		N	?
,	,			Z	
Jaan	Jaan	0		H	sg n
    	jaan	0		S	sg n
    	jaan	0		Y	?
Tam	####				
3	3	0		N	?
""""	""""			Z	
3	3	0		N	?
,	,			Z	
Mart	Mart	0		H	sg n
    	mart	0		S	sg n
Kadarpik	####				
2	2	0		N	?
""""	""""			Z	
4	4	0		N	?
,	,			Z	
Kustas	Kusta	s		H	sg in
      	Kustas	0		H	sg n
Lai	lai	0		A	sg n
1	1	0		N	?
""""	""""			Z	
5	5	0		N	?
,	,			Z	
Kustas	Kusta	s		H	sg in
      	Kustas	0		H	sg n
Sarapuu	sara_puu	0		S	sg g
       	sara_puu	0		S	sg n
1	1	0		N	?
""""	""""			Z	
6	6	0		N	?
,	,			Z	
Jaan	Jaan	0		H	sg n
    	jaan	0		S	sg n
    	jaan	0		Y	?
Sunist	Sun	st		H	sg el
2	2	0		N	?
""""	""""			Z	
7	7	0		N	?
,	,			Z	
Kustas	Kusta	s		H	sg in
      	Kustas	0		H	sg n
Oman	oma	n		V	n
3	3	0		N	?
looma	loo	ma		V	ma
     	loom	0		S	adt
     	loom	0		S	sg g
     	loom	0		S	sg p
Rütle	####				
põllul	põld	l		S	sg ad
8	8	0		N	?
,	,			Z	
Jaan	Jaan	0		H	sg n
    	jaan	0		S	sg n
    	jaan	0		Y	?
Oman	oma	n		V	n
1	1	0		N	?
hobo	####				
naeride	####				
sees	sees	0		D	
    	sees	0		K	
9	9	0		N	?
,	,			Z	
kubjas	kubjas	0		S	sg n
1	1	0		N	?
10	10	0		N	?
,	,			Z	
Noka	nokk	0		S	sg g
1	1	0		N	?
""""	""""			Z	
11	11	0		N	?
,	,			Z	
Mardi	Mart	0		H	sg g
     	mart	0		S	sg g
2	2	0		N	?
siga	siga	0		A	sg n
    	siga	0		A	sg p
    	siga	0		S	sg n
    	siga	0		S	sg p
karduli	####				
sees	sees	0		D	
    	sees	0		K	
12	12	0		N	?
,	,			Z	
Kupmes	####				
2	2	0		N	?
""""	""""			Z	
kohus	kohu	s		V	s
     	kohus	0		S	sg n
mõistis	mõist	is		V	s
1	1	0		N	?
et	et	0		J	
üleval	ülev	l		A	sg ad
      	üleval	0		D	
nimetatud	nimeta	tud		V	tud
         	nimetatu	d		S	pl n
         	nimetatud	0		A	
         	nimetatud	0		A	sg n
         	nimetatud	d		A	pl n
inimesed	inimene	d		S	pl n
iga	iga	0		P	sg g
   	iga	0		P	sg n
   	iga	0		P	sg p
   	iga	0		S	sg n
   	iga	0		S	sg p
looma	loo	ma		V	ma
     	loom	0		S	adt
     	loom	0		S	sg g
     	loom	0		S	sg p
pealt	pea	lt		S	sg abl
     	pealt	0		D	
     	pealt	0		K	
10	10	0		N	?
kop	kop	0		Y	?
.	.			Z	
karjama	####				
trahv	trahv	0		S	sg n
23	23	0		N	?
looma	loo	ma		V	ma
     	loom	0		S	adt
     	loom	0		S	sg g
     	loom	0		S	sg p
2	2	0		N	?
rbl	rbl	0		Y	?
20	20	0		N	?
kop	kop	0		Y	?
2	2	0		N	?
,	,			Z	
Kustas	Kusta	s		H	sg in
      	Kustas	0		H	sg n
Oman	oma	n		V	n
maksab	maks	b		V	b
20	20	0		N	?
kop	kop	0		Y	?
looma	loo	ma		V	ma
     	loom	0		S	adt
     	loom	0		S	sg g
     	loom	0		S	sg p
pealt	pea	lt		S	sg abl
     	pealt	0		D	
     	pealt	0		K	
3	3	0		N	?
looma	loo	ma		V	ma
     	loom	0		S	adt
     	loom	0		S	sg g
     	loom	0		S	sg p
60	60	0		N	?
kop	kop	0		Y	?
,	,			Z	
3	3	0		N	?
,	,			Z	
Jaan	Jaan	0		H	sg n
    	jaan	0		S	sg n
    	jaan	0		Y	?
Oman	oma	n		V	n
1	1	0		N	?
hobo	####				
naeride	####				
sees	sees	0		D	
    	sees	0		K	
kubjas	kubjas	0		S	sg n
""""	""""			Z	
Noka	nokk	0		S	sg g
""""	""""			Z	
iga	iga	0		P	sg g
   	iga	0		P	sg n
   	iga	0		P	sg p
   	iga	0		S	sg n
   	iga	0		S	sg p
hobuse	hobune	0		S	sg g
pealt	pea	lt		S	sg abl
     	pealt	0		D	
     	pealt	0		K	
25	25	0		N	?
kop	kop	0		Y	?
3	3	0		N	?
hoost	hoog	st		S	sg el
75	75	0		N	?
kop	kop	0		Y	?
4	4	0		N	?
,	,			Z	
Mardi	Mart	0		H	sg g
     	mart	0		S	sg g
1	1	0		N	?
sigga	####				
karduli	####				
sees	sees	0		D	
    	sees	0		K	
20	20	0		N	?
kop	kop	0		Y	?
sea	sead	0		V	o
   	siga	0		A	sg g
   	siga	0		S	sg g
peale	pea	le		S	sg all
     	peale	0		D	
     	peale	0		K	
kaupmees	kaup_mees	0		S	sg n
""""	""""			Z	
2	2	0		N	?
sigga	####				
40	40	0		N	?
kop	kop	0		Y	?
valla	vald	0		S	sg g
     	valla	0		D	
laeka	laegas	0		S	adt
     	laegas	0		S	sg g
,	,			Z	
kohtu	kohtu	0		V	o
     	kohus	0		S	sg g
vanem	vanem	0		C	sg n
     	vanem	0		S	sg n
Jaan	Jaan	0		H	sg n
    	jaan	0		S	sg n
    	jaan	0		Y	?
Karing	####				
(	(			Z	
allkiri	all_kiri	0		S	sg n
)	)			Z	
kohtu	kohtu	0		V	o
     	kohus	0		S	sg g
kõrvamehed	kõrva_mees	d		S	pl n
Kustas	Kusta	s		H	sg in
      	Kustas	0		H	sg n
severman	####				
XXX	XXX	0		O	?
   	XXX	0		Y	?
Jaan	Jaan	0		H	sg n
    	jaan	0		S	sg n
    	jaan	0		Y	?
Liiv	liiv	0		S	sg n
XXX	XXX	0		O	?
   	XXX	0		Y	?
kirjutaja	kirjutaja	0		S	sg g
         	kirjutaja	0		S	sg n
Kustas	Kusta	s		H	sg in
      	Kustas	0		H	sg n
Liiv	liiv	0		S	sg n
mõistus	mõistus	0		S	sg n
täidetud	täit	tud		V	tud
        	täide=tu	d		S	pl n
        	täide=tud	0		A	
        	täide=tud	0		A	sg n
        	täide=tud	d		A	pl n
7ndal	7=s	l		O	sg ad
Okott	####				
1885	1885	0		N	?
