Jüri	Jüri	0		H	sg g
    	Jüri	0		H	sg n
Preis	####				
rääkis	rääki	s		V	s
välja	välja	0		D	
     	välja	0		V	o
     	väli	0		S	adt
     	väli	0		S	sg g
     	väli	0		S	sg p
:	:			Z	
Mari	Mari	0		H	sg g
    	mari	0		S	sg g
    	mari	0		S	sg n
    	Mari	0		H	sg n
    	mari	0		S	sg p
Landis	lant	s		S	sg in
Adu	adu	0		V	o
tüttar	####				
võtnud	võt	nud		V	nud
      	võt=nu	d		S	pl n
      	võt=nud	0		A	
      	võt=nud	0		A	sg n
      	võt=nud	d		A	pl n
2	2	0		N	?
nädalat	nädal	t		S	sg p
enne	enne	0		D	
    	enne	0		K	
    	enne	0		S	sg n
Michklipäeva	####				
tema	tema	0		P	sg g
    	tema	0		P	sg n
käest	käest	0		K	
     	käsi	st		S	sg el
teenistuse	teenistus	0		S	sg g
peale	pea	le		S	sg all
     	peale	0		D	
     	peale	0		K	
3	3	0		N	?
rubla	rubla	0		S	sg g
     	rubla	0		S	sg n
     	rubla	0		S	sg p
höb	####				
.	.			Z	
käeraha	käe_raha	0		S	sg g
       	käe_raha	0		S	sg n
       	käe_raha	0		S	sg p
vastu	vastu	0		D	
     	vastu	0		K	
ja	ja	0		J	
pidanud	pida	nud		V	nud
       	pida=nu	d		S	pl n
       	pida=nud	0		A	
       	pida=nud	0		A	sg n
       	pida=nud	d		A	pl n
mihklipäevast	mihkli_päev	st		S	sg el
teenistust	teenistus	t		S	sg p
peale	pea	le		S	sg all
     	peale	0		D	
     	peale	0		K	
hakama	####				
;	;			Z	
aga	aga	0		J	
Michklipäeval	####				
toonud	too	nud		V	nud
      	too=nu	d		S	pl n
      	too=nud	0		A	
      	too=nud	0		A	sg n
      	too=nud	d		A	pl n
M. Landis	####				
vastuvõetud	vastu_võetud	0		A	
           	vastu_võetud	0		A	sg n
           	vastu_võetud	d		A	pl n
käeraha	käe_raha	0		S	sg g
       	käe_raha	0		S	sg n
       	käe_raha	0		S	sg p
tagasi	tagasi	0		D	
      	tagasi	0		K	
ja	ja	0		J	
ütelnud	ütle	nud		V	nud
       	ütel=nu	d		S	pl n
       	ütel=nud	0		A	
       	ütel=nud	0		A	sg n
       	ütel=nud	d		A	pl n
enesel	ise	l		P	sg ad
teenistuse	teenistus	0		S	sg g
tulla	tule	a		V	da
mitte	mitte	0		D	
võimalik	võimalik	0		A	sg n
olevat	ole	vat		V	vat
      	olev	t		A	sg p
      	olev	t		S	sg p
.	.			Z	
Koog	####				
.	.			Z	
kohus	kohu	s		V	s
     	kohus	0		S	sg n
mõistis	mõist	is		V	s
,	,			Z	
et	et	0		J	
J. Krekov	####				
ja	ja	0		J	
M. Landis	####				
teisel	teine	l		O	sg ad
      	teine	l		P	sg ad
kohtu	kohtu	0		V	o
     	kohus	0		S	sg g
korral	kord	l		S	sg ad
      	korral	0		D	
      	korral	0		K	
peavad	pida	vad		V	vad
ette	ette	0		D	
    	ette	0		K	
    	esi	tte		S	adt
tulema	tule	ma		V	ma
.	.			Z	
