sel	see	l		P	sg ad
   	sel	0		Y	?
24ndal	24=s	l		O	sg ad
Seppt	####				
.	.			Z	
oli	ole	i		V	s
Putkaste	putk_aste	0		S	sg n
,	,			Z	
Enivere	####				
ja	ja	0		J	
Kulusi	####				
kogukonna	kogukond	0		S	sg g
kohus	kohu	s		V	s
     	kohus	0		S	sg n
koos	koos	0		D	
    	koos	0		K	
    	koos	0		S	sg n
    	kubu	s		S	sg in
.	.			Z	
kohtuvanem	kohtu_vanem	0		C	sg n
          	kohtu_vanem	0		S	sg n
Ado	Ado	0		H	sg g
   	Ado	0		H	sg n
Mutso	####				
kohtukõrvamehed	kohtu_kõrva_mees	d		S	pl n
:	:			Z	
Juri	Juri	0		H	sg g
    	Juri	0		H	sg n
Poomann	####				
""""	""""			Z	
Karl	Karl	0		H	sg n
Altvert	####				
Ei	ei	0		D	
  	ei	0		V	neg
tulnud	tul=nud	0		A	
      	tul=nud	0		A	sg n
      	tul=nud	d		A	pl n
      	tule	nud		V	nud
      	tulnu	d		S	pl n
selkorral	####				
midagist	####				
ete	esi	te		S	pl g
,	,			Z	
mis	mis	0		P	pl n
   	mis	0		P	sg n
oleks	ole	ks		V	ks
tulnud	tul=nud	0		A	
      	tul=nud	0		A	sg n
      	tul=nud	d		A	pl n
      	tule	nud		V	nud
      	tulnu	d		S	pl n
protokolli	protokoll	0		S	adt
          	protokoll	0		S	sg g
          	protokolli	0		V	o
          	protokoll	0		S	sg p
ülles	####				
panna	pand	0		S	sg g
     	pane	a		V	da
     	panna	0		S	sg g
     	panna	0		S	sg n
.	.			Z	
kohtuvanem	kohtu_vanem	0		C	sg n
          	kohtu_vanem	0		S	sg n
Ado	Ado	0		H	sg g
   	Ado	0		H	sg n
Mutso	####				
XXX	XXX	0		O	?
   	XXX	0		Y	?
kohtukõrvamees	kohtu_kõrva_mees	0		S	sg n
Juri	Juri	0		H	sg g
    	Juri	0		H	sg n
Poomann	####				
XXX	XXX	0		O	?
   	XXX	0		Y	?
""""	""""			Z	
Karl	Karl	0		H	sg n
Altvert	####				
XXX	XXX	0		O	?
   	XXX	0		Y	?
kirjutaja	kirjutaja	0		S	sg g
         	kirjutaja	0		S	sg n
F_	####				
.	.			Z	
_J	####				
.	.			Z	
Pichk	####				
