protokolli_id;year;month;day;teemagrupi_kood;H1_ID;H1_vald;H1_sugu;H1_amet;H2_ID;H2_sugu;H2_vald;H3_ID;H3_sugu;H3_vald;H4_ID;H4_sugu;H4_vald;H5_ID;H5_sugu;H5_vald;H6_ID;H6_sugu;H6_vald;H7_ID;H7_sugu;H7_vald;H8_ID;H8_sugu;H8_vald;H9_ID;H9_sugu;H9_vald;K1_ID;K1_vald;K1_sugu;K1_amet;K2_ID;K2_sugu;K2_vald;K3_ID;K3_sugu;K3_vald;K4_ID;K4_sugu;K4_vald;K5_ID;K5_sugu;K5_vald;K6_ID;K6_sugu;K6_vald;K7_ID;K7_sugu;K7_vald;K8_ID;K8_sugu;K8_vald;K9_ID;K9_sugu;K9_vald;K10_ID;K10_sugu;K10_vald
35786;1873;5;1;2;3044;8;1;14;;;;;;;;;;;;;;;;;;;;;;;;;3518;9;1;;;;;;;;;;;;;;;;;;;;;;;;;;;;
35790;1876;4;12;1;3537;8;1;;;;;;;;;;;;;;;;;;;;;;;;;;3506;9;1;;;;;;;;;;;;;;;;;;;;;;;;;;;;
35791;1877;3;7;1;3539;8;1;;;;;;;;;;;;;;;;;;;;;;;;;;3515;8;1;;;;;;;;;;;;;;;;;;;;;;;;;;;;
35793;1881;4;25;1;3549;8;1;;;;;;;;;;;;;;;;;;;;;;;;;;3517;8;1;;;;;;;;;;;;;;;;;;;;;;;;;;;;
35797;1884;1;2;1;3546;8;1;10;;;;;;;;;;;;;;;;;;;;;;;;;3298;8;1;;;;;;;;;;;;;;;;;;;;;;;;;;;;
35798;1884;1;2;1;3546;8;1;10;;;;;;;;;;;;;;;;;;;;;;;;;3008;8;1;;;;;;;;;;;;;;;;;;;;;;;;;;;;
35800;1884;3;1;1;3538;8;1;10;;;;;;;;;;;;;;;;;;;;;;;;;3322;8;1;;;;;;;;;;;;;;;;;;;;;;;;;;;;
35801;1884;3;1;1;3538;8;1;10;;;;;;;;;;;;;;;;;;;;;;;;;3517;8;1;;;;;;;;;;;;;;;;;;;;;;;;;;;;
35802;1885;3;16;1;3306;8;1;;;;;;;;;;;;;;;;;;;;;;;;;;3505;8;1;;;;;;;;;;;;;;;;;;;;;;;;;;;;
35803;1885;11;1;1;3168;8;1;;;;;;;;;;;;;;;;;;;;;;;;;;3504;8;1;;;;;;;;;;;;;;;;;;;;;;;;;;;;
35804;1886;3;1;1;3538;8;1;10;;;;;;;;;;;;;;;;;;;;;;;;;3241;8;1;;;;;;;;;;;;;;;;;;;;;;;;;;;;
35805;1887;1;25;3;3483;8;2;;;;;;;;;;;;;;;;;;;;;;;;;;3516;9;1;;;;;;;;;;;;;;;;;;;;;;;;;;;;
35808;1887;2;7;3;3519;8;2;;;;;;;;;;;;;;;;;;;;;;;;;;3514;9;2;;3129;1;9;;;;;;;;;;;;;;;;;;;;;;;;
35810;1887;3;7;1;3513;8;2;;;;;;;;;;;;;;;;;;;;;;;;;;3522;8;1;;;;;;;;;;;;;;;;;;;;;;;;;;;;
35813;1887;3;31;3;3534;9;1;12;;;;;;;;;;;;;;;;;;;;;;;;;3428;8;1;;3221;1;8;3434;1;8;;;;;;;;;;;;;;;;;;;;;
35820;1887;6;13;1;3535;8;2;;;;;;;;;;;;;;;;;;;;;;;;;;3509;9;1;;;;;;;;;;;;;;;;;;;;;;;;;;;;
35825;1887;8;13;3;3533;8;1;;;;;;;;;;;;;;;;;;;;;;;;;;3428;8;1;;3516;1;9;3180;1;8;;;;;;;;;;;;;;;;;;;;;
35840;1888;2;24;3;3508;8;1;10;;;;;;;;;;;;;;;;;;;;;;;;;3512;8;1;;;;;;;;;;;;;;;;;;;;;;;;;;;;
35884;1890;1;31;1;3018;9;1;12;;;;;;;;;;;;;;;;;;;;;;;;;3530;8;1;;;;;;;;;;;;;;;;;;;;;;;;;;;;
35896;1890;5;30;1;3417;8;1;;;;;;;;;;;;;;;;;;;;;;;;;;3527;8;1;;;;;;;;;;;;;;;;;;;;;;;;;;;;
35898;1890;6;13;1;3495;8;1;;;;;;;;;;;;;;;;;;;;;;;;;;3028;8;1;;;;;;;;;;;;;;;;;;;;;;;;;;;;
35906;1890;9;5;1;3306;8;1;;;;;;;;;;;;;;;;;;;;;;;;;;3016;8;1;;;;;;;;;;;;;;;;;;;;;;;;;;;;
35913;1890;10;31;2;3493;8;2;;;;;;;;;;;;;;;;;;;;;;;;;;3520;8;1;;;;;;;;;;;;;;;;;;;;;;;;;;;;
35915;1890;10;31;1;3532;8;1;;;;;;;;;;;;;;;;;;;;;;;;;;3484;8;1;;3121;2;8;;;;;;;;;;;;;;;;;;;;;;;;
35919;1890;11;28;3;3531;9;1;12;;;;;;;;;;;;;;;;;;;;;;;;;3487;8;2;;3070;2;8;;;;;;;;;;;;;;;;;;;;;;;;
35928;1867;2;25;1;3057;8;1;;;;;;;;;;;;;;;;;;;;;;;;;;3054;8;1;;;;;;;;;;;;;;;;;;;;;;;;;;;;
35983;1867;11;11;1;3000;8;1;;;;;;;;;;;;;;;;;;;;;;;;;;3056;8;1;;;;;;;;;;;;;;;;;;;;;;;;;;;;
36001;1868;3;23;3;3002;8;1;14;;;;;;;;;;;;;;;;;;;;;;;;;3040;8;1;;;;;;;;;;;;;;;;;;;;;;;;;;;;
36028;1868;11;16;3;3004;8;1;;;;;;;;;;;;;;;;;;;;;;;;;;3014;8;1;;;;;;;;;;;;;;;;;;;;;;;;;;;;
36033;1869;3;15;3;3005;8;1;;;;;;;;;;;;;;;;;;;;;;;;;;3046;8;1;;3208;1;9;;;;;;;;;;;;;;;;;;;;;;;;
36034;1869;3;15;3;3010;8;1;;;;;;;;;;;;;;;;;;;;;;;;;;3046;8;1;;3208;1;9;;;;;;;;;;;;;;;;;;;;;;;;
36035;1869;5;17;1;3006;8;1;;;;;;;;;;;;;;;;;;;;;;;;;;3298;8;1;;;;;;;;;;;;;;;;;;;;;;;;;;;;
36062;1870;8;1;3;3044;8;1;14;;;;;;;;;;;;;;;;;;;;;;;;;3054;8;1;;3344;1;8;;;;;;;;;;;;;;;;;;;;;;;;
36070;1870;9;12;3;3003;8;1;;;;;;;;;;;;;;;;;;;;;;;;;;3012;8;1;;3122;1;8;;;;;;;;;;;;;;;;;;;;;;;;
36079;1871;2;6;1;3014;8;1;;;;;;;;;;;;;;;;;;;;;;;;;;3430;8;2;;;;;;;;;;;;;;;;;;;;;;;;;;;;
36082;1871;3;15;3;3006;8;1;;;;;;;;;;;;;;;;;;;;;;;;;;3050;8;1;;;;;;;;;;;;;;;;;;;;;;;;;;;;
36083;1871;3;15;3;3007;3;1;;3148;1;3;;;;;;;;;;;;;;;;;;;;;;3077;8;1;;;;;;;;;;;;;;;;;;;;;;;;;;;;
36090;1871;9;27;3;3059;8;1;;;;;;;;;;;;;;;;;;;;;;;;;;3150;8;1;;;;;;;;;;;;;;;;;;;;;;;;;;;;
36093;1871;11;1;3;3060;8;2;;;;;;;;;;;;;;;;;;;;;;;;;;3027;8;2;;;;;;;;;;;;;;;;;;;;;;;;;;;;
36106;1872;1;31;1;3049;8;1;;;;;;;;;;;;;;;;;;;;;;;;;;3045;8;1;;;;;;;;;;;;;;;;;;;;;;;;;;;;
36135;1872;8;28;1;3011;8;1;;;;;;;;;;;;;;;;;;;;;;;;;;3041;8;2;;;;;;;;;;;;;;;;;;;;;;;;;;;;
36136;1872;9;4;3;3011;8;1;;;;;;;;;;;;;;;;;;;;;;;;;;3039;9;1;;;;;;;;;;;;;;;;;;;;;;;;;;;;
36137;1872;9;11;3;3016;8;1;;;;;;;;;;;;;;;;;;;;;;;;;;3056;8;1;;;;;;;;;;;;;;;;;;;;;;;;;;;;
36142;1872;10;16;1;3017;8;2;;;;;;;;;;;;;;;;;;;;;;;;;;3219;8;1;;;;;;;;;;;;;;;;;;;;;;;;;;;;
36150;1872;12;29;3;3018;9;1;12;;;;;;;;;;;;;;;;;;;;;;;;;3529;9;1;;3072;1;9;3033;2;9;3034;2;9;;;;;;;;;;;;;;;;;;
36178;1873;1;8;3;3056;8;1;;;;;;;;;;;;;;;;;;;;;;;;;;3035;8;1;;;;;;;;;;;;;;;;;;;;;;;;;;;;
36179;1873;1;8;3;3018;9;1;12;;;;;;;;;;;;;;;;;;;;;;;;;3268;8;1;;;;;;;;;;;;;;;;;;;;;;;;;;;;
36181;1873;2;13;3;3044;8;1;14;;;;;;;;;;;;;;;;;;;;;;;;;3043;8;1;;3088;1;9;;;;;;;;;;;;;;;;;;;;;;;;
36185;1873;3;26;1;3041;9;2;;;;;;;;;;;;;;;;;;;;;;;;;;3030;8;2;;;;;;;;;;;;;;;;;;;;;;;;;;;;
36187;1873;4;16;2;3039;9;1;;;;;;;;;;;;;;;;;;;;;;;;;;3032;8;1;;;;;;;;;;;;;;;;;;;;;;;;;;;;
36188;1873;4;18;3;3038;8;1;10;;;;;;;;;;;;;;;;;;;;;;;;;3031;8;2;;;;;;;;;;;;;;;;;;;;;;;;;;;;
36199;1873;7;30;3;3014;8;1;;;;;;;;;;;;;;;;;;;;;;;;;;3067;8;1;;;;;;;;;;;;;;;;;;;;;;;;;;;;
36210;1873;8;6;3;3025;8;1;;;;;;;;;;;;;;;;;;;;;;;;;;3077;8;1;;;;;;;;;;;;;;;;;;;;;;;;;;;;
36211;1873;8;13;3;3022;8;1;;;;;;;;;;;;;;;;;;;;;;;;;;3043;8;1;;;;;;;;;;;;;;;;;;;;;;;;;;;;
36215;1873;9;17;3;3020;8;2;;;;;;;;;;;;;;;;;;;;;;;;;;3024;8;2;;;;;;;;;;;;;;;;;;;;;;;;;;;;
36216;1873;9;17;3;3019;8;1;;3495;1;8;;;;;;;;;;;;;;;;;;;;;;3038;8;1;10;;;;;;;;;;;;;;;;;;;;;;;;;;;
36217;1873;9;24;"2; 3";3018;9;1;12;;;;;;;;;;;;;;;;;;;;;;;;;3526;8;1;;;;;;;;;;;;;;;;;;;;;;;;;;;;
36218;1873;9;24;3;3013;8;2;;;;;;;;;;;;;;;;;;;;;;;;;;3463;8;1;;;;;;;;;;;;;;;;;;;;;;;;;;;;
36222;1873;10;15;2;3009;9;1;;;;;;;;;;;;;;;;;;;;;;;;;;3006;8;1;;;;;;;;;;;;;;;;;;;;;;;;;;;;
36224;1873;10;29;3;3008;8;1;10;;;;;;;;;;;;;;;;;;;;;;;;;3502;8;2;;;;;;;;;;;;;;;;;;;;;;;;;;;;
36232;1874;1;7;3;3001;9;1;;3330;1;8;3079;1;8;;;;;;;;;;;;;;;;;;;3021;9;1;;3019;1;8;;1;8;3087;1;8;3190;1;8;3042;1;9;3539;1;8;;;;;;;;;
36272;1874;3;11;3;3216;8;1;14;;;;;;;;;;;;;;;;;;;;;;;;;3227;8;1;;;;;;;;;;;;;;;;;;;;;;;;;;;;
36279;1874;3;18;1;3044;8;1;14;;;;;;;;;;;;;;;;;;;;;;;;;3226;8;1;;3155;2;8;3089;2;8;3163;2;8;3166;1;8;3174;1;8;3045;1;8;3114;2;8;3151;2;8;3261;2;8
36280;1874;3;26;1;3219;8;1;;;;;;;;;;;;;;;;;;;;;;;;;;3510;8;1;;;;;;;;;;;;;;;;;;;;;;;;;;;;
36283;1874;4;22;1;3222;8;1;;;;;;;;;;;;;;;;;;;;;;;;;;3223;8;1;;;;;;;;;;;;;;;;;;;;;;;;;;;;
36284;1874;4;22;3;3223;8;1;;;;;;;;;;;;;;;;;;;;;;;;;;3222;8;1;;;;;;;;;;;;;;;;;;;;;;;;;;;;
36292;1874;6;17;1;3239;8;1;;;;;;;;;;;;;;;;;;;;;;;;;;3011;8;1;;;;;;;;;;;;;;;;;;;;;;;;;;;;
36293;1874;6;17;1;3044;8;1;14;;;;;;;;;;;;;;;;;;;;;;;;;3268;8;1;;;;;;;;;;;;;;;;;;;;;;;;;;;;
36294;1874;6;17;3;3241;8;1;;;;;;;;;;;;;;;;;;;;;;;;;;3510;8;1;;;;;;;;;;;;;;;;;;;;;;;;;;;;
36296;1874;7;15;1;3044;8;1;14;;;;;;;;;;;;;;;;;;;;;;;;;3345;8;1;;;;;;;;;;;;;;;;;;;;;;;;;;;;
36315;1874;7;15;1;3044;8;1;14;;;;;;;;;;;;;;;;;;;;;;;;;3510;8;1;;;;;;;;;;;;;;;;;;;;;;;;;;;;
36325;1874;9;23;3;3018;9;1;12;;;;;;;;;;;;;;;;;;;;;;;;;3306;8;1;;;;;;;;;;;;;;;;;;;;;;;;;;;;
36337;1875;1;13;3;3044;8;1;14;;;;;;;;;;;;;;;;;;;;;;;;;3025;8;1;;;;;;;;;;;;;;;;;;;;;;;;;;;;
36344;1875;3;3;3;3252;9;1;;;;;;;;;;;;;;;;;;;;;;;;;;3446;8;1;;;;;;;;;;;;;;;;;;;;;;;;;;;;
36353;1875;5;19;1;3533;8;1;;;;;;;;;;;;;;;;;;;;;;;;;;3323;8;2;;;;;;;;;;;;;;;;;;;;;;;;;;;;
36356;1875;6;11;1;3254;3;2;;;;;;;;;;;;;;;;;;;;;;;;;;3283;8;2;;;;;;;;;;;;;;;;;;;;;;;;;;;;
36357;1875;6;23;3;3018;9;1;12;;;;;;;;;;;;;;;;;;;;;;;;;3265;8;2;;;;;;;;;;;;;;;;;;;;;;;;;;;;
36358;1875;6;23;1;3164;8;1;;;;;;;;;;;;;;;;;;;;;;;;;;3322;8;1;;;;;;;;;;;;;;;;;;;;;;;;;;;;
36359;1875;6;23;3;3328;9;1;;;;;;;;;;;;;;;;;;;;;;;;;;3300;8;1;;;;;;;;;;;;;;;;;;;;;;;;;;;;
36363;1875;9;1;2;3018;9;1;12;;;;;;;;;;;;;;;;;;;;;;;;;3305;8;2;;;;;;;;;;;;;;;;;;;;;;;;;;;;
36365;1875;9;15;3;3201;8;1;11;;;;;;;;;;;;;;;;;;;;;;;;;3242;8;1;;;;;;;;;;;;;;;;;;;;;;;;;;;;
36367;1875;9;30;3;3262;9;2;;;;;;;;;;;;;;;;;;;;;;;;;;3336;8;2;;3123;2;8;3124;2;8;;;;;;;;;;;;;;;;;;;;;
36368;1875;9;30;1;3263;8;1;14;;;;;;;;;;;;;;;;;;;;;;;;;3268;8;1;;;;;;;;;;;;;;;;;;;;;;;;;;;;
36369;1875;9;30;"1; 3";3288;8;1;;;;;;;;;;;;;;;;;;;;;;;;;;3306;8;1;;;;;;;;;;;;;;;;;;;;;;;;;;;;
36371;1875;10;20;1;3263;8;1;14;;;;;;;;;;;;;;;;;;;;;;;;;3268;8;1;;;;;;;;;;;;;;;;;;;;;;;;;;;;
36373;1875;10;27;"1; 3";3152;8;1;10;;;;;;;;;;;;;;;;;;;;;;;;;3288;8;1;;;;;;;;;;;;;;;;;;;;;;;;;;;;
36375;1875;11;17;3;3277;8;2;;;;;;;;;;;;;;;;;;;;;;;;;;3067;8;1;;;;;;;;;;;;;;;;;;;;;;;;;;;;
36376;1875;11;17;"3; 2";3018;9;1;12;;;;;;;;;;;;;;;;;;;;;;;;;3324;8;2;;;;;;;;;;;;;;;;;;;;;;;;;;;;
36380;1875;12;8;3;3263;8;1;14;;;;;;;;;;;;;;;;;;;;;;;;;3315;8;1;;;;;;;;;;;;;;;;;;;;;;;;;;;;
36381;1875;12;16;3;3263;8;1;14;;;;;;;;;;;;;;;;;;;;;;;;;3303;8;1;;3111;1;8;;;;;;;;;;;;;;;;;;;;;;;;
36397;1876;2;23;1;3298;8;1;;;;;;;;;;;;;;;;;;;;;;;;;;3264;8;1;;;;;;;;;;;;;;;;;;;;;;;;;;;;
36403;1876;4;12;2;3025;8;1;;;;;;;;;;;;;;;;;;;;;;;;;;3291;9;1;;;;;;;;;;;;;;;;;;;;;;;;;;;;
36405;1876;4;26;1;3263;8;1;14;;;;;;;;;;;;;;;;;;;;;;;;;3077;8;1;;3153;1;8;3025;1;8;;;;;;;;;;;;;;;;;;;;;
36406;1876;4;26;2;3263;8;1;14;;;;;;;;;;;;;;;;;;;;;;;;;3224;9;1;;;;;;;;;;;;;;;;;;;;;;;;;;;;
36408;1876;5;10;2;3018;9;1;12;;;;;;;;;;;;;;;;;;;;;;;;;3320;8;1;;;;;;;;;;;;;;;;;;;;;;;;;;;;
36410;1876;6;7;2;3306;9;1;11;;;;;;;;;;;;;;;;;;;;;;;;;3326;8;1;;;;;;;;;;;;;;;;;;;;;;;;;;;;
36418;1876;9;13;"1; 3";3314;8;2;;;;;;;;;;;;;;;;;;;;;;;;;;3330;8;1;;;;;;;;;;;;;;;;;;;;;;;;;;;;
36420;1876;9;13;1;3316;9;1;;;;;;;;;;;;;;;;;;;;;;;;;;3341;8;1;;3072;1;8;;1;8;3064;1;9;;;;;;;;;;;;;;;;;;
36421;1876;9;13;1;3317;8;1;;;;;;;;;;;;;;;;;;;;;;;;;;3343;8;1;;;;;;;;;;;;;;;;;;;;;;;;;;;;
36422;1876;9;20;3;3318;8;2;;;;;;;;;;;;;;;;;;;;;;;;;;3036;8;2;;;;;;;;;;;;;;;;;;;;;;;;;;;;
36424;1876;9;27;1;3018;9;1;12;;;;;;;;;;;;;;;;;;;;;;;;;3292;8;1;;;;;;;;;;;;;;;;;;;;;;;;;;;;
36426;1876;10;11;2;3321;8;1;;;;;;;;;;;;;;;;;;;;;;;;;;3075;8;2;;;;;;;;;;;;;;;;;;;;;;;;;;;;
36431;1876;11;15;1;3325;8;1;;;;;;;;;;;;;;;;;;;;;;;;;;3067;8;1;;;;;;;;;;;;;;;;;;;;;;;;;;;;
36434;1876;12;6;3;3186;8;1;10;;;;;;;;;;;;;;;;;;;;;;;;;3334;8;1;;;;;;;;;;;;;;;;;;;;;;;;;;;;
36439;1876;12;20;3;3332;9;1;;;;;;;;;;;;;;;;;;;;;;;;;;3331;8;1;;;;;;;;;;;;;;;;;;;;;;;;;;;;
36453;1877;1;31;3;3263;8;1;14;;;;;;;;;;;;;;;;;;;;;;;;;3188;8;1;;;;;;;;;;;;;;;;;;;;;;;;;;;;
36455;1877;2;14;3;3495;8;1;14;;;;;;;;;;;;;;;;;;;;;;;;;3222;8;1;;;;;;;;;;;;;;;;;;;;;;;;;;;;
36461;1877;4;4;3;3018;9;1;12;;;;;;;;;;;;;;;;;;;;;;;;;3525;8;1;;;;;;;;;;;;;;;;;;;;;;;;;;;;
36462;1877;4;4;2;3350;9;2;;;;;;;;;;;;;;;;;;;;;;;;;;3201;8;1;11;;;;;;;;;;;;;;;;;;;;;;;;;;;
36494;1877;10;31;"1; 3";3018;9;1;12;;;;;;;;;;;;;;;;;;;;;;;;;3525;8;1;;;;;;;;;;;;;;;;;;;;;;;;;;;;
36499;1877;12;7;1;3402;9;1;14;;;;;;;;;;;;;;;;;;;;;;;;;3251;8;1;;3204;1;8;3438;1;8;3317;1;8;3343;1;8;3536;1;8;3425;1;8;3048;1;8;3401;1;8;3269;1;8
36500;1877;12;7;3;3405;8;1;;;;;;;;;;;;;;;;;;;;;;;;;;3425;8;1;;;;;;;;;;;;;;;;;;;;;;;;;;;;
36501;1877;12;7;3;3406;8;1;10;;;;;;;;;;;;;;;;;;;;;;;;;3425;8;1;;;;;;;;;;;;;;;;;;;;;;;;;;;;
36504;1878;1;9;1;3022;8;1;;;;;;;;;;;;;;;;;;;;;;;;;;3408;9;1;;3214;1;9;;;;;;;;;;;;;;;;;;;;;;;;
36525;1878;1;9;3;3424;9;1;;;;;;;;;;;;;;;;;;;;;;;;;;3507;8;1;;;;;;;;;;;;;;;;;;;;;;;;;;;;
36530;1878;2;20;3;3495;8;1;14;;;;;;;;;;;;;;;;;;;;;;;;;3222;8;1;;;;;;;;;;;;;;;;;;;;;;;;;;;;
36532;1878;3;13;3;3406;8;1;10;;;;;;;;;;;;;;;;;;;;;;;;;3434;8;1;;;;;;;;;;;;;;;;;;;;;;;;;;;;
36535;1878;4;10;3;3440;9;1;;;;;;;;;;;;;;;;;;;;;;;;;;3443;8;1;;;;;;;;;;;;;;;;;;;;;;;;;;;;
36536;1878;4;10;1;3440;9;1;;;;;;;;;;;;;;;;;;;;;;;;;;3400;8;1;11;;;;;;;;;;;;;;;;;;;;;;;;;;;
36541;1878;6;12;3;3321;8;1;;;;;;;;;;;;;;;;;;;;;;;;;;3439;8;1;;;;;;;;;;;;;;;;;;;;;;;;;;;;
36543;1878;7;10;3;3019;8;1;;;;;;;;;;;;;;;;;;;;;;;;;;3438;8;1;;;;;;;;;;;;;;;;;;;;;;;;;;;;
36549;1878;9;4;3;3453;9;1;;;;;;;;;;;;;;;;;;;;;;;;;;3434;8;1;;;;;;;;;;;;;;;;;;;;;;;;;;;;
36553;1878;10;2;1;3150;8;1;;;;;;;;;;;;;;;;;;;;;;;;;;3432;8;1;;3128;1;8;;;;;;;;;;;;;;;;;;;;;;;;
36557;1878;11;2;3;3461;8;1;;;;;;;;;;;;;;;;;;;;;;;;;;3508;8;1;;3097;1;8;;;;;;;;;;;;;;;;;;;;;;;;
36558;1878;11;2;3;3462;9;1;;;;;;;;;;;;;;;;;;;;;;;;;;3449;8;2;;;;;;;;;;;;;;;;;;;;;;;;;;;;
36567;1878;12;20;3;3495;8;1;14;;;;;;;;;;;;;;;;;;;;;;;;;3470;8;1;;3096;1;8;3210;1;8;3369;1;8;;;;;;;;;;;;;;;;;;
36569;1879;1;22;1;3472;8;1;10;;;;;;;;;;;;;;;;;;;;;;;;;3425;8;1;;3154;1;9;;;;;;;;;;;;;;;;;;;;;;;;
36577;1879;4;9;2;3480;8;1;;;;;;;;;;;;;;;;;;;;;;;;;;3482;8;2;;;;;;;;;;;;;;;;;;;;;;;;;;;;
36598;1879;8;6;1;3062;8;1;;3204;1;8;3536;1;8;3269;1;8;;;;;;;;;;;;;;;;3263;8;1;14;;;;;;;;;;;;;;;;;;;;;;;;;;;
36602;1879;9;10;1;3495;8;1;14;;;;;;;;;;;;;;;;;;;;;;;;;3022;8;1;;;;;;;;;;;;;;;;;;;;;;;;;;;;
36604;1879;9;10;3;3263;8;1;14;;;;;;;;;;;;;;;;;;;;;;;;;3549;8;1;;3113;1;8;3322;1;8;;;;;;;;;;;;;;;;;;;;;
36606;1879;9;24;1;3067;8;1;;;;;;;;;;;;;;;;;;;;;;;;;;3288;8;1;;;;;;;;;;;;;;;;;;;;;;;;;;;;
36607;1879;9;24;3;3025;8;1;;;;;;;;;;;;;;;;;;;;;;;;;;3153;8;1;;;;;;;;;;;;;;;;;;;;;;;;;;;;
36608;1879;9;24;1;3025;8;1;;;;;;;;;;;;;;;;;;;;;;;;;;3351;8;1;;;;;;;;;;;;;;;;;;;;;;;;;;;;
36609;1879;10;8;2;3068;9;1;;;;;;;;;;;;;;;;;;;;;;;;;;3027;8;2;;;;;;;;;;;;;;;;;;;;;;;;;;;;
36610;1879;10;8;3;3069;8;2;;;;;;;;;;;;;;;;;;;;;;;;;;3080;8;1;;;;;;;;;;;;;;;;;;;;;;;;;;;;
36612;1879;10;27;2;3071;8;1;;;;;;;;;;;;;;;;;;;;;;;;;;3357;8;1;11;;;;;;;;;;;;;;;;;;;;;;;;;;;
36614;1879;11;17;3;3073;8;2;;;;;;;;;;;;;;;;;;;;;;;;;;3479;8;1;;;;;;;;;;;;;;;;;;;;;;;;;;;;
36625;1880;2;9;1;3074;9;1;;;;;;;;;;;;;;;;;;;;;;;;;;3083;9;1;;;;;;;;;;;;;;;;;;;;;;;;;;;;
36628;1880;3;1;3;3075;8;2;;;;;;;;;;;;;;;;;;;;;;;;;;3086;8;1;;;;;;;;;;;;;;;;;;;;;;;;;;;;
36629;1880;3;8;1;3076;9;1;;;;;;;;;;;;;;;;;;;;;;;;;;3081;9;2;;;;;;;;;;;;;;;;;;;;;;;;;;;;
36630;1880;3;15;2;3077;8;1;;;;;;;;;;;;;;;;;;;;;;;;;;3085;9;1;;;;;;;;;;;;;;;;;;;;;;;;;;;;
36648;1880;5;8;2;3495;8;1;14;;;;;;;;;;;;;;;;;;;;;;;;;3082;8;1;;;;;;;;;;;;;;;;;;;;;;;;;;;;
36662;1880;9;13;1;3098;9;1;;;;;;;;;;;;;;;;;;;;;;;;;;3006;8;1;;;;;;;;;;;;;;;;;;;;;;;;;;;;
36663;1880;9;13;3;3099;8;1;;;;;;;;;;;;;;;;;;;;;;;;;;3528;8;1;;;;;;;;;;;;;;;;;;;;;;;;;;;;
36665;1880;9;27;3;3109;9;2;;;;;;;;;;;;;;;;;;;;;;;;;;3011;8;1;;;;;;;;;;;;;;;;;;;;;;;;;;;;
36672;1880;11;15;3;3107;9;1;12;;;;;;;;;;;;;;;;;;;;;;;;;3219;8;1;;;;;;;;;;;;;;;;;;;;;;;;;;;;
36673;1880;11;22;3;3108;8;2;11;;;;;;;;;;;;;;;;;;;;;;;;;3147;8;1;;;;;;;;;;;;;;;;;;;;;;;;;;;;
36679;1881;1;3;3;3115;8;2;;;;;;;;;;;;;;;;;;;;;;;;;;3112;8;1;;;;;;;;;;;;;;;;;;;;;;;;;;;;
36682;1881;1;31;1;3117;9;1;;;;;;;;;;;;;;;;;;;;;;;;;;3201;8;1;11;;;;;;;;;;;;;;;;;;;;;;;;;;;
36684;1881;2;14;2;3077;8;1;;;;;;;;;;;;;;;;;;;;;;;;;;3188;8;1;;;;;;;;;;;;;;;;;;;;;;;;;;;;
36685;1881;2;28;1;3120;9;1;;;;;;;;;;;;;;;;;;;;;;;;;;3110;8;1;;;;;;;;;;;;;;;;;;;;;;;;;;;;
36691;1881;4;11;3;3126;8;1;;;;;;;;;;;;;;;;;;;;;;;;;;3111;8;1;;;;;;;;;;;;;;;;;;;;;;;;;;;;
36693;1881;5;2;2;3128;8;1;14;;;;;;;;;;;;;;;;;;;;;;;;;3078;9;1;;;;;;;;;;;;;;;;;;;;;;;;;;;;
36718;1881;7;25;1;3136;8;1;;;;;;;;;;;;;;;;;;;;;;;;;;3035;8;1;;;;;;;;;;;;;;;;;;;;;;;;;;;;
36721;1881;8;11;"2; 3";3128;8;1;14;;;;;;;;;;;;;;;;;;;;;;;;;3082;8;1;;;;;;;;;;;;;;;;;;;;;;;;;;;;
36722;1881;8;22;1;3140;9;1;;;;;;;;;;;;;;;;;;;;;;;;;;3512;9;1;;;;;;;;;;;;;;;;;;;;;;;;;;;;
36727;1881;10;10;1;3136;8;1;;;;;;;;;;;;;;;;;;;;;;;;;;3128;8;1;14;;;;;;;;;;;;;;;;;;;;;;;;;;;
36729;1881;10;24;1;3147;8;1;;;;;;;;;;;;;;;;;;;;;;;;;;3176;9;1;12;;;;;;;;;;;;;;;;;;;;;;;;;;;
36734;1881;11;23;3;3152;8;1;10;;;;;;;;;;;;;;;;;;;;;;;;;3501;8;2;;;;;;;;;;;;;;;;;;;;;;;;;;;;
36735;1881;11;23;2;3153;8;1;;;;;;;;;;;;;;;;;;;;;;;;;;3220;8;1;;;;;;;;;;;;;;;;;;;;;;;;;;;;
36739;1881;11;30;2;3128;8;1;14;;;;;;;;;;;;;;;;;;;;;;;;;3503;9;2;;;;;;;;;;;;;;;;;;;;;;;;;;;;
36744;1882;2;22;3;3162;8;1;;;;;;;;;;;;;;;;;;;;;;;;;;3146;8;1;;;;;;;;;;;;;;;;;;;;;;;;;;;;
36745;1882;2;22;1;3161;8;1;11;;;;;;;;;;;;;;;;;;;;;;;;;3176;9;1;12;;;;;;;;;;;;;;;;;;;;;;;;;;;
36746;1882;3;8;1;3158;3;1;;;;;;;;;;;;;;;;;;;;;;;;;;3176;9;1;12;;;;;;;;;;;;;;;;;;;;;;;;;;;
36749;1882;3;22;1;3164;8;1;;;;;;;;;;;;;;;;;;;;;;;;;;3160;8;2;;;;;;;;;;;;;;;;;;;;;;;;;;;;
36752;1882;4;5;1;3061;8;1;;;;;;;;;;;;;;;;;;;;;;;;;;3159;9;1;;;;;;;;;;;;;;;;;;;;;;;;;;;;
36753;1882;4;19;3;3165;8;2;;;;;;;;;;;;;;;;;;;;;;;;;;3229;8;2;;;;;;;;;;;;;;;;;;;;;;;;;;;;
36775;1882;4;26;3;3167;8;2;;3149;2;8;;;;;;;;;;;;;;;;;;;;;;3499;8;1;;3176;1;9;;;;;;;;;;;;;;;;;;;;;;;;
36777;1882;4;26;1;3168;8;1;;;;;;;;;;;;;;;;;;;;;;;;;;3176;9;1;12;;;;;;;;;;;;;;;;;;;;;;;;;;;
36778;1882;5;3;1;3169;8;1;;;;;;;;;;;;;;;;;;;;;;;;;;3153;8;1;;;;;;;;;;;;;;;;;;;;;;;;;;;;
36779;1882;5;3;1;3170;8;1;;;;;;;;;;;;;;;;;;;;;;;;;;3019;8;1;;;;;;;;;;;;;;;;;;;;;;;;;;;;
36780;1882;5;3;1;3171;8;1;;;;;;;;;;;;;;;;;;;;;;;;;;3176;9;1;12;;;;;;;;;;;;;;;;;;;;;;;;;;;
36781;1882;5;3;1;3172;8;1;;;;;;;;;;;;;;;;;;;;;;;;;;3176;9;1;12;;;;;;;;;;;;;;;;;;;;;;;;;;;
36783;1882;5;24;1;3172;8;1;;;;;;;;;;;;;;;;;;;;;;;;;;3219;8;1;;;;;;;;;;;;;;;;;;;;;;;;;;;;
36784;1882;5;24;3;3188;8;1;;3053;2;8;;;;;;;;;;;;;;;;;;;;;;3173;8;2;;;;;;;;;;;;;;;;;;;;;;;;;;;;
36794;1882;10;18;3;3184;8;2;;;;;;;;;;;;;;;;;;;;;;;;;;3343;8;1;;;;;;;;;;;;;;;;;;;;;;;;;;;;
36795;1882;10;25;1;3185;8;1;;;;;;;;;;;;;;;;;;;;;;;;;;;8;2;;;;;;;;;;;;;;;;;;;;;;;;;;;;
36796;1882;11;1;3;3186;8;1;;;;;;;;;;;;;;;;;;;;;;;;;;3439;8;1;;;;;;;;;;;;;;;;;;;;;;;;;;;;
36797;1882;11;1;3;3187;8;1;;;;;;;;;;;;;;;;;;;;;;;;;;3188;8;1;;;;;;;;;;;;;;;;;;;;;;;;;;;;
36798;1882;11;1;1;3019;8;1;;;;;;;;;;;;;;;;;;;;;;;;;;3177;8;1;;;;;;;;;;;;;;;;;;;;;;;;;;;;
36807;1883;2;14;1;3067;8;1;;;;;;;;;;;;;;;;;;;;;;;;;;3157;8;1;;;;;;;;;;;;;;;;;;;;;;;;;;;;
36809;1883;2;21;3;3157;8;1;;;;;;;;;;;;;;;;;;;;;;;;;;3152;8;1;10;;;;;;;;;;;;;;;;;;;;;;;;;;;
36810;1883;3;7;1;3201;8;1;11;;;;;;;;;;;;;;;;;;;;;;;;;3189;9;1;;;;;;;;;;;;;;;;;;;;;;;;;;;;
36814;1883;3;28;3;3202;8;1;13;;;;;;;;;;;;;;;;;;;;;;;;;3196;8;1;;;;;;;;;;;;;;;;;;;;;;;;;;;;
36815;1883;3;28;1;3203;8;2;;;;;;;;;;;;;;;;;;;;;;;;;;3178;8;1;;;;;;;;;;;;;;;;;;;;;;;;;;;;
36817;1883;4;11;1;3018;9;1;12;;;;;;;;;;;;;;;;;;;;;;;;;3176;9;1;12;3244;2;9;;;;;;;;;;;;;;;;;;;;;;;;
36820;1883;4;25;1;3207;8;1;;;;;;;;;;;;;;;;;;;;;;;;;;3176;9;1;12;;;;;;;;;;;;;;;;;;;;;;;;;;;
36822;1883;5;9;3;3209;8;1;;;;;;;;;;;;;;;;;;;;;;;;;;3338;9;1;;;;;;;;;;;;;;;;;;;;;;;;;;;;
36823;1883;5;9;3;3207;8;1;;;;;;;;;;;;;;;;;;;;;;;;;;3338;9;1;;;;;;;;;;;;;;;;;;;;;;;;;;;;
36827;1883;6;13;3;3213;8;2;;;;;;;;;;;;;;;;;;;;;;;;;;3176;9;1;12;;;;;;;;;;;;;;;;;;;;;;;;;;;
36832;1883;8;22;3;3225;8;2;;;;;;;;;;;;;;;;;;;;;;;;;;3486;8;1;;3084;1;8;;;;;;;;;;;;;;;;;;;;;;;;
36838;1883;11;7;1;3025;8;1;;;;;;;;;;;;;;;;;;;;;;;;;;3047;9;1;14;;;;;;;;;;;;;;;;;;;;;;;;;;;
36839;1883;11;7;3;3237;8;1;;;;;;;;;;;;;;;;;;;;;;;;;;3067;8;1;;;;;;;;;;;;;;;;;;;;;;;;;;;;
36840;1883;11;7;1;3018;9;1;12;;;;;;;;;;;;;;;;;;;;;;;;;3176;9;1;12;3104;1;9;;;;;;;;;;;;;;;;;;;;;;;;
36841;1883;11;7;3;3243;8;1;;;;;;;;;;;;;;;;;;;;;;;;;;3344;8;1;;;;;;;;;;;;;;;;;;;;;;;;;;;;
36842;1883;11;7;1;3244;8;2;;;;;;;;;;;;;;;;;;;;;;;;;;3485;8;1;;;;;;;;;;;;;;;;;;;;;;;;;;;;
36843;1883;11;7;"1; 3";3152;8;1;10;;;;;;;;;;;;;;;;;;;;;;;;;3485;8;1;;;;;;;;;;;;;;;;;;;;;;;;;;;;
36845;1883;11;7;3;3248;8;1;;;;;;;;;;;;;;;;;;;;;;;;;;3235;8;2;;3105;1;8;;;;;;;;;;;;;;;;;;;;;;;;
36849;1883;11;15;3;3152;8;1;10;;;;;;;;;;;;;;;;;;;;;;;;;3019;8;1;;;;;;;;;;;;;;;;;;;;;;;;;;;;
36850;1883;11;15;3;3273;8;1;11;;;;;;;;;;;;;;;;;;;;;;;;;3019;8;1;;;;;;;;;;;;;;;;;;;;;;;;;;;;
36865;1884;1;23;1;3265;8;2;;;;;;;;;;;;;;;;;;;;;;;;;;3266;8;1;;;;;;;;;;;;;;;;;;;;;;;;;;;;
36866;1884;1;23;3;3266;8;1;;;;;;;;;;;;;;;;;;;;;;;;;;3026;8;1;;;;;;;;;;;;;;;;;;;;;;;;;;;;
36869;1884;3;19;3;3025;8;1;;;;;;;;;;;;;;;;;;;;;;;;;;3267;8;1;;;;;;;;;;;;;;;;;;;;;;;;;;;;
36870;1884;4;2;1;3273;8;1;11;3015;1;9;3471;1;8;3326;1;8;3270;1;3;3186;1;8;3271;1;9;3325;1;8;3413;1;8;3159;9;1;;;;;;;;;;;;;;;;;;;;;;;;;;;;
36881;1884;9;24;3;3289;9;1;;;;;;;;;;;;;;;;;;;;;;;;;;3274;9;1;;3338;1;9;3092;1;9;;;;;;;;;;;;;;;;;;;;;
36883;1884;10;29;1;3293;8;1;;;;;;;;;;;;;;;;;;;;;;;;;;3289;8;1;;;;;;;;;;;;;;;;;;;;;;;;;;;;
36885;1884;12;3;1;3297;8;1;15;;;;;;;;;;;;;;;;;;;;;;;;;3284;8;1;;3127;2;8;;;;;;;;;;;;;;;;;;;;;;;;
36895;1885;5;8;3;3360;9;1;;;;;;;;;;;;;;;;;;;;;;;;;;3512;8;1;;;;;;;;;;;;;;;;;;;;;;;;;;;;
36896;1885;5;20;3;3362;9;1;;;;;;;;;;;;;;;;;;;;;;;;;;3290;8;1;;;;;;;;;;;;;;;;;;;;;;;;;;;;
36899;1885;6;3;3;3209;8;1;;;;;;;;;;;;;;;;;;;;;;;;;;3338;9;1;;3207;1;8;;;;;;;;;;;;;;;;;;;;;;;;
36903;1885;7;30;3;3368;8;1;15;;;;;;;;;;;;;;;;;;;;;;;;;3051;3;1;;;;;;;;;;;;;;;;;;;;;;;;;;;;
36904;1885;7;30;3;3368;8;1;15;;;;;;;;;;;;;;;;;;;;;;;;;3023;8;1;;3055;1;8;;;;;;;;;;;;;;;;;;;;;;;;
36927;1885;8;19;3;3368;8;1;15;;;;;;;;;;;;;;;;;;;;;;;;;3492;8;1;;;;;;;;;;;;;;;;;;;;;;;;;;;;
36928;1885;8;19;3;3378;9;1;;;;;;;;;;;;;;;;;;;;;;;;;;3185;8;1;;;;;;;;;;;;;;;;;;;;;;;;;;;;
36930;1885;9;18;3;3339;9;1;;;;;;;;;;;;;;;;;;;;;;;;;;3272;8;2;;3093;1;9;;;;;;;;;;;;;;;;;;;;;;;;
36932;1885;10;21;3;3383;9;1;;;;;;;;;;;;;;;;;;;;;;;;;;3185;8;1;;;;;;;;;;;;;;;;;;;;;;;;;;;;
36934;1885;11;11;3;3348;9;1;;;;;;;;;;;;;;;;;;;;;;;;;;3321;8;1;;3102;2;8;;;;;;;;;;;;;;;;;;;;;;;;
36940;1886;1;20;1;3403;8;2;11;;;;;;;;;;;;;;;;;;;;;;;;;3029;9;1;;;;;;;;;;;;;;;;;;;;;;;;;;;;
36941;1886;1;27;3;3393;8;1;;;;;;;;;;;;;;;;;;;;;;;;;;3463;8;1;;3516;1;9;3428;1;8;3111;1;8;3094;1;8;3137;1;8;;;;;;;;;;;;
36942;1886;1;27;3;3412;9;1;;;;;;;;;;;;;;;;;;;;;;;;;;3209;8;1;;;;;;;;;;;;;;;;;;;;;;;;;;;;
36943;1886;2;10;3;3399;8;1;;;;;;;;;;;;;;;;;;;;;;;;;;3414;8;1;;;;;;;;;;;;;;;;;;;;;;;;;;;;
36947;1886;4;21;3;3410;9;1;;;;;;;;;;;;;;;;;;;;;;;;;;3415;9;1;;3106;1;9;;;;;;;;;;;;;;;;;;;;;;;;
36954;1886;5;19;1;3411;9;1;;;;;;;;;;;;;;;;;;;;;;;;;;3417;8;1;;;;;;;;;;;;;;;;;;;;;;;;;;;;
36955;1886;6;9;3;3413;8;1;;;;;;;;;;;;;;;;;;;;;;;;;;3404;8;1;;;;;;;;;;;;;;;;;;;;;;;;;;;;
36959;1886;8;19;3;3417;8;1;;;;;;;;;;;;;;;;;;;;;;;;;;3411;9;1;;;;;;;;;;;;;;;;;;;;;;;;;;;;
36960;1886;8;6;3;3418;9;1;10;;;;;;;;;;;;;;;;;;;;;;;;;3416;8;1;;3101;1;8;;;;;;;;;;;;;;;;;;;;;;;;
36961;1886;9;12;3;3025;8;1;;3077;1;8;;;;;;;;;;;;;;;;;;;;;;3349;8;1;;3103;2;8;;;;;;;;;;;;;;;;;;;;;;;;
36962;1886;9;27;3;3008;8;1;;;;;;;;;;;;;;;;;;;;;;;;;;3421;8;1;;3090;1;8;3180;1;8;;;;;;;;;;;;;;;;;;;;;
36964;1886;10;22;3;3436;9;1;10;;;;;;;;;;;;;;;;;;;;;;;;;3428;9;1;;;;;;;;;;;;;;;;;;;;;;;;;;;;
;;;;;;;;;;;;;;;;;;;;;;;;;;;;;;;;;;;;;;;;;;;;;;;;;;;;;;;;;;;;;;;
