Kohtu	O
korra	O
pärrast	O
ollid	O
Rawwila	B-LOC
ja	I-LOC
Palwerre	I-LOC
walla	I-LOC
hoones	I-LOC
kokko	O
tulnud	O
:	O
Kohtu	O
wannem	O
:	O
Jürri	B-PER
Ummus	I-PER
Kohtu	O
käemehed	O
Hans	B-PER
Härg	I-PER
Mik	B-PER
Elts	I-PER
Kirjotaja	O
H.Siimson	B-PER
Hinrek	B-PER
Oks	I-PER
kaebab	O
:	O
Temal	O
olla	O
Abrama	B-LOC_ORG
peremehe	O
käest	O
aasta	O
palk	O
saada	O
jäänud	O
mis	O
peremees	O
ei	O
lubada	O
mitte	O
maksta	O
,	O
sest	O
et	O
ta	O
teda	O
(	O
Oksa	B-PER
)	O
oma	O
rukiste	O
wargaks	O
arwata	O
.	O
Teenistuse	O
aastast	O
on	O
sugu	O
puudu	O
jäänud	O
,	O
põle	O
wõinud	O
teenida	O
et	O
jalg	O
haigeks	O
jäänud	O
.	O
7mal	O
Mail	O
1882	O
teenistus	O
hakanud	O
ja	O
18mal	O
Aprillil	O
1883	O
lõpetatud	O
.	O
Palgast	O
on	O
saada	O
raha	O
:	O
4	O
rubla	O
25	O
kopika	O
,	O
riidest	O
:	O
1	O
kasukas	O
,	O
1	O
west	O
,	O
willased	O
püksid	O
ja	O
üks	O
paar	O
sokid	O
.	O
Kaubeldud	O
palk	O
olnud	O
30	O
rubla	O
raha	O
ja	O
riided	O
,	O
rahast	O
on	O
saanud	O
15	O
rubla	O
kätte	O
,	O
puuraiumise	O
rahast	O
wõtnud	O
8	O
rubla	O
25	O
kopika	O
,	O
ja	O
puukaewumast	O
saanud	O
mis	O
linna	O
wiinud	O
2	O
rbl	O
.	O
50	O
kop	O
.	O
Saadud	O
on	O
:	O
25	O
rubla	O
75	O
kopika	O
.	O
Wana	O
ohjade	O
eest	O
mis	O
täna	O
käes	O
katki	O
läinud	O
pärida	O
peremees	O
weel	O
1	O
rubla	O
.	O
Ja	O
tema	O
riide	O
kast	O
olla	O
Abrama	B-LOC_ORG
peremehe	O
aidas	O
olnud	O
,	O
peremees	O
ei	O
ole	O
seda	O
kätte	O
annud	O
,	O
kasti	O
uks	O
on	O
lukus	O
olnud	O
ja	O
wõti	O
tema	O
oma	O
käes	O
;	O
aga	O
nüüd	O
on	O
tema	O
2	O
kuube	O
mis	O
kastis	O
seisnud	O
,	O
metsast	O
leitud	O
ühe	O
Abrama	B-LOC_ORG
pere	I-LOC_ORG
kotti	O
sees	O
,	O
mis	O
üks	O
lehm	O
põesast	O
wälja	O
tõmbanud	O
ja	O
neid	O
on	O
weel	O
tahtnud	O
Abrama	B-LOC_ORG
peremees	O
ärapärida	O
.	O
Aga	O
ei	O
ole	O
kuulda	O
olnud	O
et	O
wargad	O
Abrama	B-LOC
aitas	I-LOC
käinud	O
,	O
aga	O
tema	O
kasti	O
luk	O
on	O
lõhutud	O
olnud	O
.	O
Peremees	O
Joosep	B-PER
Wõrk	I-PER
tunnistab	O
:	O
Hinrek	B-PER
Oks	I-PER
ei	O
ole	O
aastat	O
täis	O
teeninud	O
seepärast	O
tema	O
riiet	O
ei	O
maksa	O
,	O
ühed	O
ohjad	O
on	O
Oks	B-PER
katki	O
teinud	O
,	O
nendest	O
nõuab	O
1	O
rubla	O
.	O
Puuraiumise	O
raha	O
34	O
pääwa	O
eest	O
on	O
Oks	B-PER
wäljawõtnud	O
,	O
arwab	O
pääwa	O
a	O
´	O
35	O
kop	O
,	O
see	O
on	O
11	O
rubla	O
90	O
kopika	O
puukoormast	O
mis	O
Oks	B-PER
pidi	O
müüma	O
2	O
rubla	O
70	O
kop	O
.	O
saama	O
,	O
aga	O
et	O
tema	O
ei	O
müünud	O
kus	O
tema	O
juhatanud	O
nõuab	O
3	O
rubla	O
,	O
se	O
on	O
ühtekokku	O
15	O
rubla	O
90	O
kop	O
.	O
raha	O
saanud	O
,	O
ülepea	O
palka	O
saanud	O
30	O
rubla	O
90	O
kopika	O
.	O
Ütleb	O
:	O
teenigu	O
aasta	O
täis	O
saab	O
täie	O
palga	O
ja	O
riide	O
.	O
Hinrek	B-PER
Oks	I-PER
tunnistab	O
:	O
Temma	O
on	O
sülla	O
wiisi	O
puie	O
raiunud	O
,	O
17	O
1	O
\	O
2	O
sülda	O
.	O
Küünla	O
pääwa	O
aial	O
raiunud	O
metsa	O
alt	O
lume	O
seest	O
korjades	O
,	O
50	O
kop	O
.	O
on	O
sülla	O
raiumisest	O
saanud	O
.	O
puukoormast	O
ei	O
ole	O
linnas	O
ennam	O
saanud	O
kui	O
2	O
rubla	O
50	O
kopika	O
.	O
Peremees	O
Joosep	B-PER
Wõrk	I-PER
arwab	O
aga	O
:	O
Oks	B-PER
olla	O
aga	O
wäga	O
huoletumalt	O
puid	O
raiunud	O
,	O
et	O
selle	O
34	O
pääwaga	O
ennam	O
põle	O
jõudnud	O
,	O
ja	O
jäeb	O
oma	O
pääwade	O
juure	O
ja	O
nende	O
hinda	O
;	O
aga	O
Oksa	B-PER
kastist	O
ja	O
tema	O
riietest	O
ei	O
ütle	O
tema	O
midagi	O
teadma	O
,	O
mis	O
wiisi	O
need	O
metsa	O
saanud	O
,	O
arwab	O
et	O
Oks	B-PER
ise	O
metsa	O
wiinud	O
kui	O
ta	O
tema	O
rukid	O
warastanud	O
.	O
Aga	O
et	O
rukiste	O
assi	O
jo	O
sügise	O
oli	O
ja	O
sulane	O
talwel	O
nende	O
kuubedega	O
käinud	O
ja	O
nüüd	O
kasti	O
wälja	O
ei	O
antud	O
saab	O
se	O
arwamine	O
tühiseks	O
pandud	O
.	O
Kohtu	O
poolt	O
saab	O
palga	O
asja	O
juures	O
arwatud	O
pääwa	O
hind	O
läbisegamine	O
50	O
kop	O
,	O
sellest	O
sööma	O
raha	O
20	O
kop	O
.	O
ja	O
tööpalka	O
30	O
kopika	O
,	O
see	O
on	O
34	O
puuraiumise	O
pääwa	O
eest	O
10	O
rubla	O
20	O
kop	O
.	O
puukoorma	O
hind	O
2	O
rubla	O
80	O
kop	O
.	O
Ohjade	O
eest	O
1	O
rubla	O
.	O
Oks	B-PER
on	O
siis	O
saanud	O
puole	O
aasta	O
palka	O
koku	O
14	O
rubla	O
,	O
peremehel	O
tuleb	O
juure	O
maksta	O
1	O
rubla	O
,	O
siis	O
saab	O
teine	O
puol	O
palka	O
tassa	O
15	O
rubla	O
.	O
Saamata	O
riiesaab	O
arwatud	O
.	O
Kassukas	O
7	O
rubla	O
,	O
kampsun	O
5	O
rubla	O
,	O
püksid	O
2	O
1	O
\	O
2	O
rubla	O
,	O
west	O
ja	O
sokid	O
1	O
rubla	O
,	O
see	O
on	O
koku	O
15	O
rubla	O
50	O
kop	O
.	O
selle	O
juure	O
raha	O
palga	O
1	O
rubla	O
,	O
teeb	O
summa	O
16	O
rubla	O
50	O
kop	O
.-Et	O
Oksal	B-PER
16	O
tööpääwa	O
aastast	O
puudo	O
jäänud	O
,	O
maksab	O
iga	O
pääwa	O
eest	O
ilma	O
toiduta	O
peremehele	O
35	O
kopika	O
,	O
see	O
on	O
koku	O
5	O
rubla	O
60	O
kopika	O
.	O
See	O
peremehe	O
rehnungist	O
maha	O
,	O
jäeb	O
peremehel	O
Oksale	B-PER
maksta	O
10	O
rubla	O
90	O
kopika	O
.	O
Hinrek	B-PER
Oks	I-PER
jäeb	O
selle	O
arwamise	O
juures	O
rahu	O
.	O
Wõrk	B-PER
ei	O
taha	O
seda	O
arwamist	O
wastowõtta	O
ja	O
nõuab	O
omale	O
järe	O
mõtlemise	O
aega	O
,	O
temale	O
sai	O
2	O
nädalad	O
aega	O
lubatud	O
,	O
et	O
tulewa	O
kohtu	O
pääwal	O
annab	O
teada	O
kas	O
ta	O
selle	O
juure	O
jäeb	O
.	O
Kohtu	O
wannem	O
:	O
Jürri	B-PER
Ummus	I-PER
Kohtu	O
käemehed	O
Hans	B-PER
Härg	I-PER
Mik	B-PER
Elts	I-PER
Kirjotaja	O
H.Siimson	B-PER
