Kaebaja	O
Madli	B-PER
Metsapihko	I-PER
Sikkeldist	B-LOC
,	O
kaewab	O
kohto	O
ees	O
,	O
minna	O
müüsin	O
Raplast	B-LOC
ladame	B-LOC
Kõrtsmikko	O
Tönnis	B-PER
Ringenwaldile	I-PER
wõid	O
,	O
jo	O
kõrtso	O
naene	O
lugges	O
rahha	O
laua	O
peale	O
,	O
minno	O
ette	O
,	O
ja	O
ma	O
wõtsin	O
rahha	O
,	O
ja	O
luggesin	O
ueste	O
,	O
agga	O
rahha	O
olli	O
Kuus	O
Kop	O
pudust	O
,	O
ja	O
ma	O
ütlesin	O
,	O
rahha	O
on	O
pudust	O
,	O
agga	O
Kõrtsmik	O
ütles	O
,	O
ehk	O
sa	O
wõtsid	O
muist	O
ärra	O
,	O
ja	O
Käskis	O
mind	O
riidest	O
ärra	O
wõtta	O
,	O
ehk	O
rahha	O
Kukkub	O
mahha	O
,	O
ja	O
ma	O
wõtsin	O
riided	O
ümmert	O
ärra	O
,	O
agga	O
rahha	O
ei	O
leidnud	O
.	O
Ja	O
Kõrtsmik	O
sai	O
Kohto	O
ette	O
kutsutud	O
,	O
ja	O
Kohhus	O
küssis	O
Kõrtsmiko	O
käest	O
,	O
kas	O
se	O
tõssi	O
on	O
,	O
mis	O
Madli	B-PER
Metsapihko	I-PER
so	O
peale	O
kaewab	O
,	O
(	O
ja	O
üllewal	O
nimmetud	O
asjad	O
said	O
ette	O
loetud	O
,	O
)	O
ja	O
Kõrtsmik	O
ütles	O
,	O
jah	O
minno	O
ostsin	O
temma	O
käest	O
wõid	O
,	O
ja	O
minno	O
naene	O
lugges	O
rahha	O
laua	O
peale	O
temma	O
ette	O
,	O
ja	O
Madli	B-PER
wõttis	O
rahha	O
,	O
ja	O
lugges	O
,	O
ja	O
ütles	O
,	O
rahha	O
on	O
pudust	O
,	O
ja	O
ma	O
ütlesin	O
,	O
ehk	O
sa	O
wõtsid	O
muist	O
sallaja	O
ärra	O
,	O
agga	O
Madli	B-PER
ütles	O
,	O
mul	O
ennesel	O
16	O
Kop	O
rahha	O
jures	O
,	O
miks	O
ma	O
sedda	O
rahha	O
wõtsin	O
,	O
ja	O
ma	O
Küssisin	O
,	O
näita	O
mulle	O
omma	O
rahha	O
ja	O
Madli	B-PER
näitas	O
,	O
ja	O
ma	O
luggesin	O
temma	O
rahha	O
ärra	O
,	O
ja	O
üks	O
Koppik	O
olli	O
pudust	O
,	O
mis	O
Madli	B-PER
ütles	O
ennesel	O
ollewad	O
,	O
ja	O
ma	O
ütlesin	O
,	O
ehk	O
ma	O
6	O
Kop	O
weeres	O
sinna	O
1	O
Kop	O
jure	O
,	O
te	O
ennast	O
riidest	O
lahti	O
,	O
ehk	O
rahha	O
kukub	O
mahha	O
,	O
agga	O
Madli	B-PER
ütles	O
,	O
Kui	O
sa	O
minno	O
ümmert	O
ei	O
rahha	O
leia	O
,	O
siis	O
sa	O
Kõrtsmik	O
tead	O
,	O
et	O
sa	O
Kohhe	O
wasto	O
silmi	O
saad	O
,	O
ja	O
Madli	B-PER
wõttis	O
riided	O
ümmert	O
lahti	O
,	O
agga	O
rahha	O
ei	O
leidnud	O
.	O
Ja	O
Madli	B-PER
andis	O
Kohhe	O
mulle	O
russikaga	O
wasto	O
silmi	O
.	O
Nenda	O
tunnistas	O
Kõrtsmik	O
Tõnnis	B-PER
Ringenwalt	I-PER
Kohto	O
ees	O
.	O
Ja	O
Käe	O
mehhed	O
,	O
Tõnnis	B-PER
Kuljus	I-PER
,	O
Allust	B-LOC
,	O
ja	O
Hans	B-PER
Neider	I-PER
,	O
Raplast	B-LOC
,	O
tunnistasid	O
,	O
et	O
se	O
Keik	O
tõssi	O
on	O
mis	O
Kõrtsmik	O
räkis	O
.	O
Ja	O
Kohhus	O
arwas	O
Kõrtsmikul	O
õigus	O
ollewad	O
,	O
sest	O
igga	O
üks	O
wõib	O
jubba	O
omma	O
taggo	O
otsita	O
.	O
agga	O
lüia	O
ei	O
tohhi	O
.	O
Ja	O
Kohhus	O
mõistis	O
,	O
et	O
Madli	B-PER
piddi	O
trahwi	O
maksma	O
,	O
wiis	O
kümmend	O
Kop	O
hõbbe	O
,	O
Allo	B-LOC_ORG
walla	O
laekasse	O
,	O
ja	O
sai	O
leppitud	O
ja	O
maksis	O
wälja	O
.	O
Kohto	O
wannem	O
Jaan	B-PER
Tiismann	I-PER
+	O
+	O
+	O
,	O
Korwa	O
mehhed	O
Mihkel	B-PER
Wiikberk	I-PER
+	O
+	O
+	O
,	O
Jürri	B-PER
Staub	I-PER
+	O
+	O
+	O
,	O
Kirjotaja	O
Mats	B-PER
Kerdi	I-PER
