Kohtu	O
korra	O
pärast	O
olid	O
Kaiu	B-ORG
walla	I-ORG
kohtusse	I-ORG
kokku	O
tulnud	O
:	O
Kohtu	O
wanem	O
:	O
Jaan	B-PER
Wiirun	I-PER
1.	O
kohtu	O
körwamees	O
:	O
Tomas	B-PER
Rassohn	I-PER
2	O
kohtu	O
körwamees	O
:	O
Mart	B-PER
Pauls	I-PER
Kirjutaja	O
:	O
Kaarel	B-PER
Kaasik	I-PER
.	O
Erma	B-LOC_ORG
peremees	O
Hans	B-PER
Limberg	I-PER
kaebab	O
et	O
Jüri	B-PER
Errin	I-PER
olla	O
tema	O
käest	O
üks	O
lehm	O
kauplend	O
Lihunik	O
Lihtrömile	B-PER
ja	O
lehm	O
pidand	O
18	O
rub	O
.	O
50	O
kop	O
.	O
maksma	O
:	O
ja	O
mina	O
isi	O
pidand	O
teda	O
Tallinna	B-LOC
lihunikku	O
ktte	O
wiima	O
,	O
kust	O
mina	O
kaubeldud	O
hind	O
pidin	O
kätte	O
saama	O
.	O
Aga	O
Lihunik	O
ei	O
maksnud	O
mite	O
kaubeldud	O
hinda	O
,	O
waid	O
13	O
rubla	O
,	O
ütles	O
et	O
lehm	O
olla	O
wäga	O
kalisti	O
kaubeltud	O
siis	O
jäi	O
minul	O
5	O
rubla	O
50	O
kop	O
.	O
kaubeltud	O
hinnast	O
raha	O
wähem	O
.	O
Sai	O
kohtu	O
ette	O
kutsutud	O
Jüri	B-PER
Errin	I-PER
,	O
ta	O
tunnistas	O
et	O
ta	O
olla	O
Hans	B-PER
Limbergi	I-PER
käest	O
lehma	O
kaublend	O
ja	O
luband	O
18	O
rub	O
50	O
kop	O
.	O
maksta	O
.	O
Lihunik	O
Felstrom	B-PER
tunnistas	O
et	O
lehm	O
olla	O
wangre	O
peal	O
linna	O
toodud	O
ja	O
liha	O
olla	O
kõhu	O
alt	O
ära	O
kloppitud	O
ja	O
naha	O
alt	O
werine	O
olnud	O
sepärast	O
ei	O
olla	O
tema	O
kaubeldud	O
hinda	O
maksnud	O
waid	O
13	O
rubla	O
,	O
ja	O
5	O
rub	O
.	O
50	O
kop	O
andmata	O
jätnud	O
.	O
Kohus	O
mõistis	O
ostja	O
ja	O
müüa	O
wahel	O
kahju	O
pooleks	O
:	O
Jüri	B-PER
Errin	I-PER
maksab	O
5	O
rublast	O
50	O
koppikast	O
Hans	B-PER
Limbergile	I-PER
2	O
rub	O
.	O
25	O
kop	O
.	O
sest	O
et	O
ta	O
lehma	O
kalli	O
hinna	O
eest	O
on	O
kaublend	O
ja	O
et	O
Hans	B-PER
Limberg	I-PER
wangrel	O
wiimise	O
labi	O
lehmale	O
kohu	O
alla	O
werre	O
naha	O
wahele	O
on	O
kloppind	O
.	O
Sellega	O
löpis	O
kohus	O
protokoll	O
sai	O
ette	O
loetud	O
ja	O
õige	O
leitud	O
.	O
(	O
Mõistetud	O
ja	O
mõistus	O
taidetud	O
sel	O
20mal	O
Webruaril	O
1882.	O
)	O
