Hans	B-PER
Arroso	I-PER
kaebab	O
:	O
Maaraia	B-LOC_ORG
kohha	I-LOC_ORG
mõisa	O
moonameeste	O
loomad	O
on	O
temma	O
heinamaal	O
heina	O
ärra	O
raiskanud	O
ja	O
pärrast	O
weel	O
heina	O
loo	O
peal	O
käinud	O
.	O
Temma	O
on	O
loomad	O
kinni	O
aianud	O
,	O
teised	O
on	O
omma	O
loomade	O
järrele	O
tulles	O
temmaga	O
ärra	O
leppinud	O
,	O
agga	O
Tõnno	B-PER
Gruno	I-PER
on	O
suureliseks	O
läinud	O
ja	O
öölnud	O
,	O
egga	O
ma	O
siis	O
wõi	O
ka	O
ennam	O
Rawwila	B-LOC_ORG
mõisa	I-LOC_ORG
moonakas	O
olla	O
,	O
kui	O
mo	O
lomad	O
kinni	O
aetakse	O
,	O
egga	O
olle	O
nõutud	O
trahwi	O
maksnud	O
,	O
on	O
2	O
hobbust	O
ja	O
2	O
weist	O
olnud	O
.	O
Tõnno	B-PER
Gruno	I-PER
tunn	O
.	O
temmal	O
on	O
karjane	O
juures	O
olnud	O
,	O
temma	O
ei	O
tea	O
kas	O
loomad	O
on	O
heinamaal	O
olnud	O
,	O
wõi	O
ei	O
,	O
ükskord	O
hobbused	O
on	O
wist	O
käinud	O
.	O
On	O
nähha	O
et	O
Gruno	B-PER
püab	O
ennast	O
muido	O
õigeks	O
panna	O
ja	O
on	O
wägga	O
suurelinne	O
.	O
Kohhus	O
mõistis	O
:	O
Tõnno	B-PER
Gruno	I-PER
peab	O
Hans	B-PER
Arrosole	I-PER
maksma	O
20	O
koppika	O
kumbagi	O
weikse	O
eest	O
ja	O
30	O
kop	O
.	O
kumbagi	O
hobbuse	O
eest	O
,	O
se	O
on	O
üllepea	O
1	O
rubla	O
.	O
Kohtu	O
wannem	O
:	O
Juhan	B-PER
Suursild	I-PER
Kohtu	O
käemehhed	O
:	O
Juhan	B-PER
Kant	I-PER
ja	O
Hans	B-PER
Härg	I-PER
Kirjotaja	O
H.Siimson	B-PER
