Sel	O
21mal	O
Nowembril	O
1868	O
olli	O
kohhos	O
koos	O
.	O
Kohtowannem	O
Maddis	B-PER
Ormas	I-PER
1.	O
Korwaskohtomees	O
Jurri	B-PER
Gernet	I-PER
2.	O
Juhhan	B-PER
Linsbach	I-PER
Siis	O
kaewasid	O
Kurkse	B-LOC_ORG
küllast	I-LOC_ORG
Ewa	B-PER
Rath	I-PER
,	O
ja	O
ta	O
tüttar	O
Liso	B-PER
Maddis	B-PER
Keelmanni	I-PER
peale	O
,	O
kes	O
nende	O
maeas	O
ellab	O
,	O
et	O
Maddis	B-PER
Keelmann	I-PER
neid	O
peab	O
peksma	O
ja	O
sõimama	O
,	O
ja	O
ei	O
lasse	O
neid	O
rahhus	O
ellada	O
.	O
Maddis	B-PER
Keelmann	I-PER
tunnistas	O
seddasamma	O
ka	O
Ewa	B-PER
Rath	I-PER
ja	O
ta	O
tütre	O
Liso	B-PER
peale	O
et	O
nemmad	O
teda	O
ka	O
peawad	O
wasto	O
sõimama	O
,	O
ja	O
tedda	O
wihkama	O
,	O
ja	O
tahtma	O
tedda	O
sealt	O
maeast	O
wälja	O
aiada	O
kuhhu	O
naad	O
tedda	O
ollid	O
kutsunud	O
,	O
ja	O
melitanud	O
.	O
Kohhos	O
agga	O
ei	O
teinud	O
muud	O
kui	O
nomis	O
neid	O
nimmetud	O
riidlejaid	O
,	O
ja	O
panni	O
neid	O
kohto	O
ees	O
leppima	O
,	O
mis	O
naad	O
ka	O
teggid	O
,	O
ja	O
tõutasid	O
ka	O
eddespiddi	O
ühheteisega	O
rahhu	O
sees	O
ellama	O
jäda	O
.	O
Kohtowannem	O
Maddis	B-PER
Ormas	I-PER
+	O
+	O
+	O
1	O
Kõrwasmees	O
Jürri	B-PER
Gernet	I-PER
+	O
+	O
+	O
2	O
Korwasmees	O
Juhhan	B-PER
Linsbach	I-PER
+	O
+	O
+	O
