Prottokoll	O
sel	O
1misse	O
Junis	O
1872.	O
Koos	O
ollid	O
kohto	O
Peawannem	O
Ado	B-PER
Kandelin	I-PER
Kõrwamehhed	O
Jaan	B-PER
Raudmez	I-PER
Jaan	B-PER
Epmann	I-PER
Kirjutaja	O
H. Saarmo	B-PER
№	O
14.	O
Kohto	O
ette	O
astus	O
Laupa	B-LOC_ORG
walla	I-LOC_ORG
mees	O
Hans	B-PER
Kilgas	I-PER
ja	O
kaebas	O
,	O
et	O
temma	O
on	O
Kirna	B-LOC
mehhe	O
Hans	B-PER
Wingiga	I-PER
Kirna	B-LOC
Wissowerre	B-LOC_ORG
kõrtsos	I-LOC_ORG
hobbosid	O
wahhetanud	O
ja	O
et	O
temma	O
on	O
ka	O
Hans	B-PER
Wingile	I-PER
5	O
rub	O
.	O
pealis	O
rahha	O
annud	O
,	O
ja	O
ka	O
wahhetamisse	O
jures	O
sedda	O
kaupa	O
teinud	O
,	O
et	O
kui	O
hobbused	O
(	O
olgo	O
kumagi	O
poolt	O
tahhes	O
)	O
peaksid	O
wiggased	O
ollema	O
,	O
et	O
siis	O
jälle	O
3	O
päewa	O
pärrast	O
kum	O
tahhes	O
wõib	O
ärra	O
tagganeda	O
;	O
agga	O
et	O
Hans	B-PER
Wingi	I-PER
hobbose	O
wigga	O
on	O
kohhe	O
pärrast	O
wahhetamist	O
wälja	O
paistnud	O
ja	O
sepärrast	O
tahtnud	O
kohhe	O
temma	O
Hans	B-PER
Wingi	I-PER
käest	O
omma	O
hobbust	O
ja	O
pealis	O
rahha	O
kätte	O
sada	O
,	O
agga	O
Hans	B-PER
Wing	I-PER
ei	O
olle	O
mitte	O
annud	O
ja	O
wimaks	O
on	O
temma	O
kül	O
sure	O
waewa	O
läbbi	O
omma	O
hobbose	O
Hans	B-PER
Wingi	I-PER
käest	O
kätte	O
sanud	O
,	O
agga	O
mitte	O
omma	O
pealis	O
rahha	O
,	O
ja	O
et	O
Johan	B-PER
Kanger	I-PER
ja	O
Hans	B-PER
Tõnsberg	I-PER
on	O
neil	O
wahhetamisse	O
jures	O
käemehheks	O
ollnud	O
.	O
Johan	B-PER
Kanger	I-PER
ja	O
Hans	B-PER
Tõnsberg	I-PER
tunnistasid	O
,	O
et	O
Hans	B-PER
Kilgase	I-PER
kaebtus	O
tõssi	O
on	O
.	O
Hans	B-PER
Wing	I-PER
astus	O
ette	O
ja	O
ütles	O
,	O
et	O
temma	O
ei	O
olle	O
tahtnud	O
sepärrast	O
Kilgase	B-PER
hobbust	O
egga	O
ka	O
tema	O
pealis	O
rahha	O
kätte	O
anda	O
,	O
et	O
Hans	B-PER
Kilgas	I-PER
on	O
temma	O
hobbose	O
wahhetamise	O
aego	O
wiggaseks	O
sõitnud	O
,	O
agga	O
wimaks	O
on	O
ta	O
kül	O
Kilgase	B-PER
Hobbose	O
kätte	O
annud	O
,	O
agga	O
mitte	O
temma	O
pealis	O
rahha	O
.	O
Mõistetud	O
sai	O
,	O
et	O
Hans	B-PER
Wing	I-PER
peab	O
Hans	B-PER
Kilgase	I-PER
pealis	O
rahha	O
se	O
on	O
5	O
rubla	O
taggasi	O
maksma	O
ja	O
se	O
mõistminne	O
peab	O
ka	O
8mal	O
Juni	O
k	O
.	O
p	O
.	O
täidetud	O
sama	O
ja	O
kui	O
jure	O
taggasi	O
minnema	O
ja	O
se	O
mõistminne	O
peab	O
2sel	O
Juni	O
k	O
.	O
p	O
.	O
täitetud	O
sama	O
ja	O
kui	O
se	O
mõistminne	O
mitte	O
8mal	O
täidetud	O
ei	O
olle	O
,	O
siis	O
peab	O
Hans	B-PER
Wing	I-PER
1	O
rubla	O
trahwi	O
walla	O
laekasse	O
maksma	O
.	O
Se	O
mõistminne	O
sai	O
kuludud	O
ja	O
Hans	B-PER
Wing	I-PER
ütles	O
,	O
et	O
temma	O
sedda	O
mõistmist	O
mitte	O
ei	O
täida	O
,	O
egga	O
ka	O
prottokoli	O
wälja	O
ei	O
wõtta	O
,	O
egga	O
ka	O
suremasse	O
kohtusse	O
ei	O
lähhe	O
.	O
On	O
ka	O
Prottokol	O
wälja	O
antud	O
.	O
Ado	B-PER
Kandelin	I-PER
Jaan	B-PER
Raudmez	I-PER
Jaan	B-PER
Epmann	I-PER
Tunnistusseks	O
kirjutaja	O
H. Saarmo	B-PER
/	O
allkiri	O
/	O
