1898	O
aastal	O
Augusti	O
kuu	O
13	O
päewal	O
ilmusid	O
Wäetsa	B-ORG
walla	I-ORG
kohtusse	I-ORG
Wäetsa	B-LOC_ORG
walla	I-LOC_ORG
liige	O
Kustas	B-PER
Tõnise	I-PER
p	I-PER
.	I-PER
Hermann	B-PER
ja	O
Kirna	B-LOC_ORG
walla	I-LOC_ORG
liige	O
Jüri	B-PER
Mardi	I-PER
p	I-PER
.	I-PER
Mäematt	B-PER
,	O
mõlemad	O
kohtule	O
isilikult	O
tuntud	O
,	O
ja	O
palusid	O
kohut	O
akti	O
raamatusse	O
üleswõtta	O
endi	O
suusõnalist	O
mahategu	O
,	O
mis	O
järgmine	O
on	O
:	O
1898	O
a.	O
Märtsikuus	O
ostis	O
Hermann	B-PER
Mäematile	B-PER
oma	O
rahaga	O
Kirna	B-LOC_ORG
mõisa	I-LOC_ORG
all	O
olewa	O
"	B-LOC_ORG
Natssauna	I-LOC_ORG
"	I-LOC_ORG
,	O
mille	O
eest	O
Mäematt	B-PER
Hermannile	B-PER
wõlgneb	O
kakssada	O
/	O
200	O
/	O
rubla	O
,	O
ennemalt	O
on	O
Hermannil	B-PER
Mäemati	B-PER
käest	O
saada	O
hobuse	O
raha	O
nelikümmend	O
wiis	O
/	O
45	O
/	O
rubla	O
,	O
aga	O
summa	O
kakssada	O
nelikümmend	O
wiis	O
8245	O
/	O
rubla	O
Kohtu	O
Eesistuja	O
:	O
A. Ehrenwerth	B-PER
/	O
allkiri	O
/	O
Kohtu	O
liikmed	O
:	O
A. Nipper	B-PER
/	O
allkiri	O
/	O
R. Krusberg	B-PER
/	O
allkiri	O
/	O
M. Prant	B-PER
/	O
allkiri	O
/	O
Kirjutaja	O
K. Pommer	B-PER
/	O
allkiri	O
/	O
