Sel	O
seatud	O
kohtopääwal	O
.	O
27	O
Octbr	O
1867.	O
Kaebab	O
Lena	B-PER
Leiwat	I-PER
oma	O
wallakohto	O
ees	O
,	O
et	O
Mihkel	B-PER
Kriik	I-PER
olla	O
sui	O
heina	O
aega	O
tedda	O
hirmsaste	O
käggistanud	O
.	O
Mihkel	B-PER
Kriik	I-PER
Issal	O
olli	O
üks	O
weike	O
heinama	O
tük	O
,	O
walla	O
polest	O
antud	O
,	O
ja	O
kui	O
tema	O
Issa	O
on	O
surnud	O
;	O
on	O
se	O
tük	O
heinamad	O
Lena	B-PER
Leiwatile	I-PER
antud	O
sand	O
.	O
Mihkel	B-PER
Kriik	I-PER
on	O
sullase	O
mees	O
olnud	O
,	O
seiamale	O
,	O
ja	O
nüüd	O
omma	O
kä	O
peal	O
hakkanud	O
ellama	O
.	O
Ja	O
on	O
sel	O
aastal	O
1867	O
sedda	O
weikest	O
heinama	O
tükki	O
ärra	O
niitnud	O
,	O
ja	O
Lena	B-PER
Leiwat	I-PER
on	O
läinud	O
sedda	O
logo	O
ülles	O
wötma	O
,	O
sepärast	O
on	O
Mihkel	B-PER
Kriik	I-PER
tedda	O
wägga	O
käggistanud	O
.	O
Kohtus	O
pandi	O
neid	O
leppima	O
ja	O
Mihkel	B-PER
Kriik	I-PER
maksis	O
Lena	B-PER
Leiwatile	I-PER
1	O
Rbl	O
Höb	O
.	O
sellega	O
naad	O
leppisid	O
.	O
ja	O
sellega	O
sai	O
otsus	O
tehtud	O
.	O
Kohtomees	O
Christjan	B-PER
Leiwat	I-PER
xxx	O
abbimees	O
Mihkel	B-PER
Norgan	I-PER
xxx	O
abbimees	O
Jürri	B-PER
Jöe	I-PER
xxx	O
kirjutaja	O
G. Bransfeld	B-PER
