Kohtu	O
korra	O
pärrast	O
ollid	O
Putkaste	B-LOC
Enniwere	I-LOC
ja	I-LOC
Kullusi	I-LOC
kogukonna	I-LOC
kohtu	I-LOC
maiase	I-LOC
sel	O
1sel	O
Februar	O
1875	O
kokku	O
tulnud	O
Kohtu	O
kõrwamees	O
Kaarl	B-PER
Laal	I-PER
"	O
"	O
"	O
Hans	B-PER
Altwerk	I-PER
ja	O
järge	O
mees	O
Ado	B-PER
Mutso	I-PER
sest	O
kohtu	O
peawannem	O
Peter	B-PER
Naeres	I-PER
on	O
haige	O
.	O
I	O
.	O
Astus	O
kohtu	O
ette	O
Prido	B-PER
Reinweit	I-PER
Kullusist	B-LOC
ja	O
kaebas	O
et	O
Kustas	B-PER
Tiik	I-PER
ka	O
Kullusist	B-LOC
on	O
tedda	O
ähwartanud	O
tappa	O
ja	O
wallu	O
anda	O
Kõrtsus	O
:	O
Ja	O
temma	O
läinud	O
kõrtsus	O
Kustase	B-PER
käest	O
küsima	O
mis	O
sa	O
mind	O
olled	O
ähwardanud	O
?	O
Ja	O
Kustas	B-PER
Tiik	I-PER
on	O
selle	O
küsimisse	O
peale	O
3	O
korda	O
puupeaga	O
nuuga	O
temma	O
sisse	O
pistnud	O
,	O
nenda	O
et	O
werd	O
keik	O
kohhad	O
täis	O
olnud	O
.	O
Ja	O
se	O
on	O
pühhapa	O
õhtu	O
29mal	O
Decembril	O
1874	O
olnud	O
.	O
II	O
.	O
Kustas	B-PER
Tiik	I-PER
sai	O
kohtu	O
ette	O
kutsutud	O
ja	O
ta	O
wabbandas	O
ennast	O
selleha	O
,	O
et	O
temma	O
ei	O
olle	O
tohtinud	O
muido	O
ännam	O
kõrtso	O
egga	O
ka	O
muiale	O
minna	O
,	O
kui	O
wõtta	O
tapmise	O
riista	O
jure	O
;	O
ja	O
et	O
Prido	B-PER
on	O
enni	O
Kõrtso	O
pengi	O
peale	O
temma	O
kallale	O
tulnud	O
,	O
ja	O
temma	O
wasta	O
pead	O
russikaga	O
lönud	O
.	O
Tunnistuseks	O
:	O
Jaan	B-PER
Altert	I-PER
Kullusist	B-LOC
astus	O
ette	O
,	O
ja	O
ütles	O
:	O
et	O
Prido	B-PER
ei	O
olle	O
tedda	O
mitte	O
enne	O
lönud	O
,	O
ja	O
weel	O
Tallitaja	O
Hans	B-PER
Täht	I-PER
Eniwerest	B-LOC
astus	O
kohtu	O
ette	O
ja	O
näitas	O
se	O
puupeaga	O
nugga	O
mis	O
ka	O
ta	O
teist	O
olli	O
pistnud	O
,	O
ja	O
ütles	O
et	O
ta	O
selle	O
kõrtso	O
perreme	O
Jurri	B-PER
Täht	I-PER
käest	O
olli	O
sanud	O
,	O
ja	O
et	O
Kõrtso	O
sullane	O
Hans	B-PER
Koppel	I-PER
olle	O
se	O
nugga	O
selle	O
poisi	O
Kustas	B-PER
Tiik	I-PER
käest	O
wasto	O
wõtnud	O
.	O
Kohtu	O
pea	O
wannema	O
asemel	O
kõrwamees	O
Kustas	B-PER
Laal	I-PER
XXX	O
Kohtu	O
kõrwamees	O
Hans	B-PER
Altwert	I-PER
-	O
järgemees	O
Ado	B-PER
Mutso	I-PER
Se	O
kaebdus	O
läks	O
surema	O
Hakenrihtne	O
kohtu	O
Pörri	B-LOC_ORG
moisa	I-LOC_ORG
