Üks	O
tuhat	O
kaheksa	O
sada	O
üheksakümmend	O
kuuendamal	O
aastal	O
Jüri	O
kuu	O
wiiendamal	O
päewal	O
,	O
Emmaste	B-LOC_ORG
wallast	I-LOC_ORG
kipper	O
Peet	B-PER
Rand	I-PER
,	O
talumehed	O
Mihkel	B-PER
Pikk	I-PER
ja	O
Peet	B-PER
Kivi	I-PER
,	O
kes	O
kohtule	O
tuntud	O
,	O
palusiwad	O
nendelt	O
sisseantud	O
kirjaliku	O
lepingut	O
selle	O
kohtu	O
lepingu	O
raamatusse	O
üles	O
wötta	O
:	O
Laewa	B-MISC
"	I-MISC
Erkuli	I-MISC
"	I-MISC
kipper	O
Peet	B-PER
Rand	I-PER
kauples	O
tänawuse	O
mere	O
söidu	O
ajaks	O
,	O
mis	O
kaheksamal	O
sellekp	O
.	O
Sõrul	B-LOC
algab	O
,	O
laewa	O
peale	O
madrusteks	O
,	O
Mihkel	B-PER
Pikk	I-PER
wiieteistkümne	O
rubla	O
ja	O
Peet	B-PER
Kiwi	I-PER
Kümne	O
rubla	O
kuu	O
palgaga	O
.	O
See	O
leping	O
sai	O
pärast	O
lepingu	O
raamatusse	O
kirjutamist	O
pooltele	O
ette	O
loetud	O
ja	O
Peet	B-PER
Kiwilt	I-PER
,	O
Peet	B-PER
Rannalt	I-PER
ja	O
Mihkel	B-PER
Pikk	I-PER
palwepeale	O
,	O
kes	O
ise	O
kirja	O
ei	O
oska	O
Juhanes	B-PER
Wäljaselt	I-PER
alla	O
kirjutatud	O
,	O
mis	O
kohus	O
õigeks	O
tunnistab	O
.	O
-	O
Ustawaks	O
tunnistatud	O
lepingu	O
wõttis	O
wasta	O
Peet	B-PER
Rand	I-PER
.	O
