Tuhat	O
kaheksasada	O
üheksakümne	O
kolmandamal	O
aastal	O
kolmekümnemal	O
Mihkli	O
k	O
.	O
p	O
.	O
tuliwad	O
Kõrgesare	B-ORG
kogukonna	I-ORG
kohtusse	I-ORG
Kustaw	B-PER
Mihkli	I-PER
p	I-PER
.	I-PER
Toos	B-PER
ja	O
(	O
Kreet	B-PER
)	O
Madli	B-PER
Toos	I-PER
ja	O
palusiwad	O
kohut	O
järgmist	O
suusõnalist	O
lepingut	O
lepingute	O
raamatusse	O
üles	O
wõtta	O
.	O
"	O
Mina	O
,	O
Kustaw	B-PER
Toos	I-PER
wõttan	O
oma	O
juure	O
majasse	O
oma	O
poja	O
Jakobi	B-PER
,	O
kes	O
nüid	O
surnud	O
on	O
,	O
naese	O
Madli	B-PER
tema	O
perega	O
,	O
nimelt	O
kolme	O
lapsega	O
:	O
Kustaw	B-PER
,	O
Willem	B-PER
ja	O
Kaarel	B-PER
ja	O
tüttar	O
Leenaga	B-PER
kes	O
neljas	O
on	O
nii	O
kaua	O
aja	O
peale	O
,	O
kunni	O
meil	O
õigekssaamine	O
kestab	O
ja	O
et	O
tüli	O
ei	O
tule	O
ei	O
minu	O
poolt	O
,	O
ega	O
Madli	B-PER
poolt	O
ja	O
et	O
siis	O
Madli	B-PER
Toos	I-PER
mulle	O
riided	O
parandab	O
ja	O
tarwilisel	O
korral	O
uued	O
muretseb	O
.	O
Kui	O
ta	O
seda	O
kõik	O
korralikult	O
täidab	O
,	O
siis	O
luban	O
mina	O
kõiki	O
minust	O
järele	O
jäänud	O
warandust	O
poja	O
poegadele	O
ja	O
tütrele	O
senna	O
sega	O
maja	O
arwates	O
.	O
Praegu	O
ja	O
niisamma	O
ka	O
edes	O
pidisel	O
ajal	O
,	O
kui	O
mull	O
weel	O
terwis	O
on	O
,	O
tahan	O
ma	O
igas	O
asjas	O
toimetaja	O
ja	O
töötegija	O
olla	O
,	O
niisamma	O
nõuan	O
ma	O
ka	O
seda	O
Madli	B-PER
Toos	I-PER
poolt	O
.	O
Selle	O
lepingu	O
mõlemalt	O
poolt	O
täitmise	O
tõenduseks	O
anname	O
meie	O
omad	O
allkirjad	O
Kustaw	B-PER
Toos	I-PER
ei	O
oska	O
kirja	O
,	O
kirjutas	O
tema	O
palwe	O
peale	O
Mihkel	B-PER
Kattel	I-PER
[	O
allkiri	O
]	O
Madli	B-PER
Toos	I-PER
[	O
allkiri	O
]	O
Selle	O
kauba	O
lepingus	O
nimetud	O
inimesed	O
on	O
kogukonna	O
kohtule	O
palelikult	O
tuntud	O
ja	O
kõik	O
õiguse	O
omanduslikud	O
antide	O
tegemise	O
juures	O
,	O
mis	O
Kõrgesare	B-ORG
kogukonna	I-ORG
kohus	I-ORG
omma	O
allkirjaga	O
tunnistab	O
Sõna	O
"	O
Kreet	B-PER
"	O
,	O
mis	O
klamrites	O
on	O
kuuendama	O
wiira	O
peal	O
mitte	O
õigeks	O
,	O
ega	O
tähenduslikuks	O
lugeda	O
.	O
