Kaebab	O
Jaan	B-PER
Lint	I-PER
:	O
8.	O
Septembril	O
s	O
.	O
a.	O
õhtu	O
arwata	O
kell	O
8	O
-	O
9	O
tulnud	O
tema	O
Penuja	B-LOC_ORG
mõisa	I-LOC_ORG
kõrtsist	O
ühes	O
Henn	B-PER
Muruga	I-PER
koeu	O
.	O
Magasi	O
aida	O
juure	O
jõudes	O
,	O
mis	O
umbes	O
2	O
wakamaad	O
kõrtsist	O
kaugel	O
,	O
näinud	O
nad	O
magasi	O
aida	O
räästa	O
all	O
ühte	O
salka	O
mehi	O
seiswad	O
,	O
neist	O
olla	O
naad	O
Hans	B-PER
Lindepuud	I-PER
,	O
Joh	B-PER
.	I-PER
Margust	B-PER
ja	O
Hans	B-PER
Ewertit	I-PER
ära	O
tunnud	O
,	O
teised	O
olnud	O
temal	O
tundmata	O
.	O
Aida	O
juurest	O
edasi	O
minnes	O
tulnud	O
tähendatud	O
meeste	O
tropp	O
temale	O
tee	O
peal	O
järele	O
,	O
hakanud	O
teda	O
kiwide	O
ja	O
puudega	O
wiskama	O
.	O
Tema	O
jooksnud	O
kuni	O
kohtumaeani	O
,	O
hakanud	O
seal	O
happi	O
karjuma	O
,	O
kohtu	O
teener	O
ei	O
olnud	O
aga	O
kodus	O
.	O
Seal	O
olla	O
tema	O
siis	O
ühe	O
mehe	O
tee	O
peal	O
kinni	O
tabada	O
saanud	O
ja	O
see	O
olnud	O
Johann	B-PER
Margus	I-PER
.	O
Tema	O
paluda	O
seda	O
asja	O
kui	O
teerööwimist	O
Keiserliku	O
Sillakohtule	O
pitkemaks	O
ülekuulamiseks	O
sesse	O
saata	O
.	O
Hans	B-PER
Lindepuu	I-PER
wastab	O
:	O
Tema	O
tulnud	O
kell	O
10	O
õhtul	O
ühes	O
Hans	B-PER
Ewert	I-PER
,	O
Johann	B-PER
Margus	I-PER
,	O
Jaan	B-PER
Pawlowits	I-PER
,	O
Hendrik	B-PER
Abras	I-PER
ja	O
Adu	B-PER
Willemsoniga	I-PER
koju	O
.	O
Jaan	B-PER
Linti	I-PER
ei	O
olewat	O
ta	O
tee	O
peal	O
näinud	O
ega	O
ka	O
et	O
peksetud	O
oleks	O
saanud	O
.	O
Hans	B-PER
Ewert	I-PER
wastab	O
:	O
Tema	O
tulnud	O
ühes	O
tähentatud	O
meestega	O
kell	O
10	O
kõrtsist	O
koju	O
.	O
Hans	B-PER
Lindepuu	I-PER
kõndinud	O
ees	O
ja	O
saanud	O
nemad	O
sellele	O
Konise	B-LOC
aia	I-LOC
juures	O
järele	O
.	O
Jaan	B-PER
Linti	I-PER
ei	O
olewat	O
ta	O
sugugi	O
näinud	O
.	O
Adu	B-PER
Willemson	I-PER
Holstrest	B-LOC
wastab	O
niisama	O
kui	O
Hans	B-PER
Ewert	I-PER
.	O
Hendrik	B-PER
Abras	I-PER
Takeperast	B-LOC
wastab	O
:	O
Tema	O
tulnud	O
ühes	O
Hans	B-PER
Lindepuu	I-PER
,	O
Jaan	B-PER
Pawlowitschi	I-PER
ja	O
Adu	B-PER
Willemsoniga	I-PER
ja	O
kahe	O
Penuja	B-LOC
mehega	O
,	O
keda	O
ta	O
mitte	O
ei	O
tunnud	O
,	O
õhtu	O
kõrtsist	O
koju	O
.	O
Jaan	B-PER
Linti	I-PER
ei	O
olewat	O
ta	O
tee	O
peal	O
