Tuhande	O
üheksa	O
saja	O
neljateistkümnemal	O
aastal	O
Nowembrikuu	O
kahekümnemal	O
pääwal	O
ilmusiwad	O
Laimjala	B-ORG
walla	I-ORG
kohtuse	I-ORG
Hellama	B-LOC_ORG
wallast	I-LOC_ORG
Iwan	B-PER
Iwani	I-PER
poeg	I-PER
Oidekiwi	I-PER
,	O
kes	O
selles	O
nimetud	O
wallas	O
elab	O
ja	O
Hellamäe	B-LOC_ORG
wallast	I-LOC_ORG
Mihail	B-PER
Iwani	I-PER
poeg	I-PER
Roi	I-PER
,	O
kes	O
Kogula	B-LOC_ORG
wallas	I-LOC_ORG
Wana-Lõwe	B-LOC_ORG
mõisas	I-LOC_ORG
elab	O
ja	O
awaldaasiwad	O
,	O
et	O
Iwan	B-PER
Oidekiwi	I-PER
on	O
selle	O
obligatsioni	O
wõlast	O
mis	O
obligatsion	O
on	O
19	O
Septembril	O
käesoleval	O
aastal	O
Kuresaare	B-LOC_ORG
linnas	I-LOC_ORG
Riia	B-ORG
Ringkonna	I-ORG
kohtu	I-ORG
Notariuse	O
juures	O
Hellamäe	B-LOC_ORG
wallas	I-LOC_ORG
Wõlla	B-LOC_ORG
külas	I-LOC_ORG
No	O
11	O
Nõmme	B-LOC_ORG
Uiellu	I-LOC_ORG
talu	I-LOC_ORG
kuha	I-LOC_ORG
peale	O
tehtud	O
-	O
tänassel	O
pääwal	O
Mihail	B-PER
Roile	I-PER
maksnud	O
ükssada	O
nelikümmend	O
rubla	O
ja	O
sellest	O
wõlast	O
nimelt	O
üheksast	O
kümenst	O
rublast	O
mis	O
ennenimetud	O
19	O
Septembril	O
No	O
11	O
Nõmme	B-LOC_ORG
Uiellu	I-LOC_ORG
talu	I-LOC_ORG
müüma	O
ostu	O
kontrahtis	O
wõlaks	O
on	O
kirjutud	O
Mihail	B-PER
Roile	I-PER
maksnud	O
kaheksa	O
teistkümmend	O
rubla	O
,	O
mida	O
raha	O
Oidekivi	B-PER
20	O
mööda	O
läinud	O
Oktobrikuu	O
pääwal	O
Hellamäe	B-ORG
walla	I-ORG
kohtu	I-ORG
ees	O
pidi	O
ära	O
maksma	O
.	O
Mihail	B-PER
Roi	I-PER
kohustab	O
ennast	O
Kuresaare	B-LOC_ORG
linna	I-LOC_ORG
Notariuse	O
juure	O
minema	O
,	O
siis	O
kui	O
No	O
11	O
Nõmme-Uielu	B-LOC_ORG
talu	I-LOC_ORG
ostu	O
akti	O
ja	O
obligatsioni	O
Notarius	O
Kuresaare	B-ORG
Rahukou	I-ORG
juures	O
olewa	O
Kreposti	O
jäuskonnast	O
kätte	O
saab	O
,	O
wastu	O
wõetud	O
wõlgu	O
selgeks	O
kirjutama	O
.	O
Maha	O
kriipsutud	O
"	O
oktoobrikuu	O
"	O
Mihail	B-PER
Roi	I-PER
[	O
allkiri	O
]	O
Iwan	B-PER
Oidekivi	I-PER
,	O
aga	O
et	O
ta	O
ise	O
kirjutada	O
ei	O
oska	O
kirjutas	O
tema	O
palwe	O
peale	O
Raeisa	B-PER
Oidekiwi	I-PER
[	O
allkiri	O
]	O
1914	O
aastal	O
Nowembri	O
kuu	O
20	O
pääwal	O
Laimjala	B-ORG
walla	I-ORG
kohus	I-ORG
seega	O
tunnistab	O
,	O
et	O
seesiinane	O
suusõnaline	O
lepping	O
,	O
mis	O
Iwan	B-PER
Oidekiwi	I-PER
ja	O
Mihail	B-PER
Roi	I-PER
wahel	O
tehtud	O
,	O
kellest	O
Oidekiwi	B-ORG
walla	I-ORG
kohtule	I-ORG
tuntud	O
,	O
aga	O
Mihail	B-PER
Roi	I-PER
pani	O
ette	O
isiku	O
tunnistuse	O
Hellamäe	B-ORG
walla	I-ORG
walitsuse	I-ORG
poolt	O
12	O
Nowembril	O
s	O
.	O
a.	O
No	O
1748	O
all	O
wälja	O
antud	O
;	O
siin	O
juures	O
peale	O
ette	O
lugemise	O
oliwad	O
mõlemad	O
sellega	O
rahul	O
ja	O
kinnitasiwad	O
Mihail	B-PER
Roi	I-PER
oma	O
allkirjaga	O
,	O
aga	O
Iwan	B-PER
Oidekiwi	I-PER
eest	O
tema	O
palwe	O
peale	O
tema	O
abikaasa	O
Raissa	B-PER
Oidekiwi	I-PER
.	O
maha	O
kriipsutud	O
"	O
kohtu	O
"	O
.	O
Eesistuja	O
:	O
I	B-PER
.	I-PER
Awik	B-PER
[	O
allkiri	O
]	O
kirjutaja	O
:	O
A.Küng	B-PER
[	O
allkiri	O
]	O
