Tulid	O
ette	O
Awinorme	B-LOC_ORG
Walla	I-LOC_ORG
ja	O
Tagametsa	B-LOC_ORG
talu	I-LOC_ORG
peremees	O
Jüri	B-PER
Toming	I-PER
Jaani	B-PER
poeg	O
oma	O
kolme	O
pojaga	O
Kusta	B-PER
Toming	I-PER
,	O
Josep	B-PER
Toming	I-PER
ja	O
Madis	B-PER
Tominguga	I-PER
ja	O
palus	O
Wallakohut	O
üks	O
pärantuse	O
lepping	O
tema	O
poegada	O
vahel	O
teha	O
et	O
kudaviisi	O
need	O
tema	O
liikuwad	O
ja	O
liikumatta	O
vara	O
pärivad	O
.	O
Oma	O
liikumatta	O
varantusest	O
on	O
tema	O
juba	O
oma	O
kahe	O
vanemale	O
pojale	O
Kusta	B-PER
Tomingule	I-PER
ja	O
Josep	B-PER
Tomingule	I-PER
kätte	O
annud	O
se	O
on	O
oma	O
talukruntist	O
kuhu	O
peale	O
nendel	O
on	O
majad	O
ehitatud	O
,	O
ja	O
on	O
tema	O
ka	O
Kustale	B-PER
ja	O
Josepile	B-PER
liikuva	O
varantuse	O
jaud	O
kätte	O
annud	O
nenda	O
et	O
nendel	O
tema	O
liikuvast	O
ja	O
liikumatta	O
varantusest	O
enab	O
jaggu	O
nõuda	O
ei	O
ole	O
,	O
tema	O
kolmas	O
poeg	O
Maddis	B-PER
Toming	I-PER
pärib	O
se	O
kolmas	O
jaggu	O
talukrunti	O
kus	O
peal	O
tema	O
praegust	O
elab	O
omale	O
parantuseks	O
peale	O
tema	O
surma	O
.	O
ja	O
ka	O
keik	O
liikuw	O
varantus	O
mis	O
temal	O
pärida	O
jäeb	O
,	O
peab	O
agga	O
sellest	O
liikuvast	O
varantusest	O
oma	O
kahe	O
sõsaralle	O
Lenole	B-PER
ja	O
Liisule	B-PER
kummagile	O
kaks	O
lehma	O
andma	O
.	O
igga	O
lehm	O
kolmekümne	O
rubla	O
väärtuses	O
,	O
minu	O
kahel	O
tüttrel	O
Lenul	B-PER
ja	O
Liisal	B-PER
jäeb	O
se	O
õigus	O
kui	O
nemad	O
mehele	O
ei	O
lähe	O
minu	O
majas	O
wenna	O
Madise	B-PER
juures	O
kunni	O
elu	O
otsani	O
elada	O
ja	O
peawad	O
nemad	O
majas	O
talu	O
tööd	O
tegema	O
ja	O
talu	O
küllest	O
toidust	O
ja	O
ihukattet	O
saama	O
,	O
kui	O
nemad	O
agga	O
Madisega	B-PER
ei	O
leppi	O
kokku	O
elama	O
ja	O
ühte	O
leiba	O
sööma	O
,	O
siis	O
voivad	O
nemad	O
küll	O
minu	O
majas	O
elada	O
.	O
ja	O
maksab	O
Maddis	B-PER
nendele	O
kummagi	O
kakssadda	O
viiskümmend	O
rubla	O
(	O
250	O
rubl	O
)	O
pärantuse	O
jaggu	O
,	O
Kui	O
se	O
peaks	O
olema	O
et	O
mina	O
enne	O
oma	O
abielu	O
naist	O
Ann	B-PER
Tomingud	I-PER
ära	O
suren	O
siis	O
peab	O
poeg	O
Maddis	B-PER
oma	O
Emada	O
Ann	B-PER
Tomingud	I-PER
kunni	O
tema	O
surmani	O
ausaste	O
toitma	O
ja	O
kattma	O
,	O
kui	O
minu	O
tüttred	O
Lena	B-PER
ja	O
Liisa	B-PER
peaksid	O
mehele	O
minema	O
siis	O
peab	O
Maddis	B-PER
nendele	O
pulmad	O
pidama	O
ja	O
kummagile	O
kaks	O
lehma	O
kätte	O
andma	O
ja	O
ei	O
ole	O
temal	O
siis	O
nendele	O
eespool	O
nimetud	O
summa	O
kummagile	O
kakssada	O
viiskümmend	O
rubla	O
maksmist	O
,	O
tüttar	O
Kai	B-PER
Pukk	I-PER
ei	O
sa	O
minu	O
pärantusest	O
enam	O
jaggu	O
sest	O
et	O
tema	O
on	O
mehele	O
minnes	O
oma	O
jaggu	O
kätte	O
sanud	O
;	O
Karjamaad	O
prugivad	O
kolm	O
venda	O
keik	O
ühes	O
koos	O
ja	O
peawad	O
nemad	O
ka	O
keik	O
ühes	O
karjamaa	O
aeda	O
tegema	O
,	O
Kusta	B-PER
,	O
Josep	B-PER
ja	O
Madis	B-PER
Tomingud	I-PER
annid	O
üles	O
et	O
nemad	O
oma	O
isa	O
seadmisega	O
rahul	O
on	O
.	O
Jüri	B-PER
Toming	I-PER
ei	O
moista	O
kirjutada	O
tema	O
palwe	O
peale	O
kirjutas	O
Joseb	B-PER
Ambos	I-PER
(	O
Allkiri	O
)	O
Kustaw	B-PER
Toming	I-PER
(	O
Allkiri	O
)	O
Josep	B-PER
Tomik	I-PER
(	O
Allkiri	O
)	O
Madis	B-PER
Toming	I-PER
(	O
Allkiri	O
)	O
1905	O
Aastal	O
Novembri	O
kuu	O
12	O
pääval	O
on	O
se	O
eesseisav	O
susanaline	O
pärantuse	O
lepping	O
Awinorme	B-ORG
Wallakohtule	I-ORG
Awinorme	B-LOC
Wallamajas	I-LOC
kohtu	O
protokolli	O
üles	O
kerjutamiseks	O
ja	O
kinnitamiseks	O
ette	O
kantud	O
Awinorme	B-LOC_ORG
walla	I-LOC_ORG
ja	O
Tagametsa	B-LOC_ORG
talu	I-LOC_ORG
peremehe	O
Jüri	B-PER
Tomingu	I-PER
Jaani	B-PER
poja	O
ja	O
tema	O
abielupoegade	O
Kusta	B-PER
Tomingu	I-PER
,	O
Josep	B-PER
Tomingu	I-PER
ja	O
Madis	B-PER
Tomingu	I-PER
poolt	O
liikuwa	O
ja	O
liikumatta	O
vara	O
pärimise	O
pärast	O
ja	O
on	O
need	O
leppingu	O
tegijad	O
Wallakohtule	O
tuntud	O
ja	O
teatud	O
ja	O
nemad	O
õiguse	O
võimelised	O
enda	O
vahel	O
leppinguid	O
teha	O
miks	O
pärast	O
nende	O
Pärantuse	O
lepping	O
on	O
tänasel	O
pääval	O
Kohtu	O
aktiramatuse	O
N 17	O
all	O
üleskirjutud	O
ja	O
kohtu	O
poolest	O
kinnitud	O
sanud	O
.	O
ja	O
saab	O
kohtu	O
poolest	O
tõeks	O
tunnistud	O
et	O
Jüri	B-PER
Tomingu	I-PER
eest	O
kes	O
kirjutada	O
ei	O
moista	O
on	O
tema	O
palvepeale	O
Awinorme	B-LOC_ORG
walla	I-LOC_ORG
ja	O
Saare	B-LOC_ORG
küla	I-LOC_ORG
taluperemees	O
Josep	B-PER
Ambus	I-PER
Jaani	B-PER
poeg	O
ja	O
Jüri	B-PER
Tomingu	I-PER
pojad	O
Kusta	B-PER
Toming	I-PER
,	O
Josep	B-PER
Toming	I-PER
ja	O
Maddis	B-PER
Toming	I-PER
omad	O
nimed	O
oma	O
käega	O
allakirjutanud	O
.	O
M. Adamson	B-PER
(	O
Allkiri	O
)	O
M	B-PER
Reisenpuk	I-PER
(	O
Allkiri	O
)	O
A. Welt	B-PER
(	O
Allkiri	O
)	O
Kirjutaja	O
Schulbach	B-PER
(	O
Allkiri	O
)	O
Gustaw	B-PER
Tomikule	I-PER
29	O
Apr	O
1908	O
a.	O
ärakiri	O
wälja	O
antud	O
Kirjutaja	O
Tõldsepp	B-PER
(	O
Allkiri	O
)	O
Madis	B-PER
Tomikule	I-PER
ärakiri	O
2	O
Mail	O
1908	O
a	O
ära	O
kiriantud	O
27.	O
okt.	O
1938	O
a.	O
ärakirjad	O
Al-der	B-PER
Kukk	I-PER
´	I-PER
ele	I-PER
ja	O
Joosep	B-PER
Toomingale	I-PER
