Joosep	B-PER
Arens	I-PER
kaebas	O
,	O
et	O
arwata	O
umbes	O
30	O
poissi	O
nelja	O
nädala	O
eest	O
tagasi	O
pool	O
pääw	O
öösi	O
tema	O
tarre	O
tulnud	O
ja	O
nõudnud	O
,	O
et	O
tema	O
oma	O
aida	O
ukse	O
lahti	O
laseks	O
,	O
sest	O
seal	O
olewat	O
üks	O
wõeras	O
mees	O
sees	O
;	O
aga	O
kui	O
tema	O
nende	O
tahtmist	O
ei	O
olewat	O
täitnud	O
,	O
on	O
nemad	O
wälja	O
läinud	O
ja	O
lubanud	O
aida	O
ukse	O
maha	O
lüüa	O
.	O
Kui	O
tema	O
pärast	O
kära	O
peale	O
wälja	O
läinud	O
,	O
olewad	O
poisid	O
aida	O
akna	O
katki	O
löönud	O
ning	O
ukse	O
luku	O
ära	O
rikkunud	O
.	O
Tema	O
tütrid	O
on	O
nemad	O
litsiks	O
nimetanud	O
,	O
kes	O
aidas	O
maganud	O
.	O
Tema	O
kahju	O
olnud	O
5	O
rbl	O
.	O
mis	O
poisid	O
teinud	O
ning	O
nõuab	O
selle	O
tasumist	O
,	O
kui	O
ka	O
öösise	O
ümber	O
hulkujate	O
ning	O
rahu	O
rikkujate	O
trahwimist	O
.	O
Peremehed	O
selle	O
hulga	O
poiste	O
sees	O
on	O
olnud	O
:	O
Jakob	B-PER
Tilba	I-PER
,	O
Jaan	B-PER
Silla	I-PER
,	O
Kusta	B-PER
Wisser	I-PER
,	O
Johan	B-PER
Tälli	I-PER
;	O
kõiki	O
ei	O
ole	O
tema	O
tunnud	O
,	O
aga	O
poisid	O
isi	O
peawad	O
neid	O
tundma	O
.	O
Jakob	B-PER
Tilba	I-PER
wastutas	O
,	O
et	O
tema	O
sellest	O
midagi	O
ei	O
tia	O
,	O
ei	O
ole	O
ka	O
sellest	O
hulkumisest	O
midagi	O
kuulnud	O
.	O
Jaan	B-PER
Silla	I-PER
salgas	O
,	O
nõnda	O
sama	O
,	O
kui	O
Jakob	B-PER
Tilba	I-PER
,	O
aga	O
kuulnud	O
on	O
,	O
et	O
seal	O
kära	O
olnud	O
.	O
Johan	B-PER
Tälli	I-PER
salgas	O
nõnda	O
sama	O
,	O
kui	O
teised	O
esimesed	O
.	O
Kusta	B-PER
Wisser	I-PER
ei	O
ole	O
tulnud	O
.	O
Kusta	B-PER
Goldberg	I-PER
,	O
kes	O
nende	O
seltsis	O
olewat	O
olnud	O
,	O
salgab	O
nõnda	O
sama	O
.	O
Joosep	B-PER
Arens	I-PER
andis	O
tunnistajaks	O
üles	O
Joosep	B-PER
Konts	I-PER
.	O
Otsus	O
:	O
Tunnistajad	O
ja	O
süüdlased	O
saawad	O
7.	O
Oktbr	O
ette	O
tallitatud	O
.	O
