Allatskiwwi	B-LOC
metsawallitseja	O
Gross	B-PER
kaebab	O
Filip	B-PER
Iwanow	I-PER
Bednow	I-PER
peale	O
,	O
se	O
olla	O
ülle	O
metsawahhi	O
keelu	O
kannud	O
kõrged	O
raidunud	O
,	O
ja	O
ülle	O
arru	O
jämmedad	O
puud	O
,	O
metsawaht	O
Mart	B-PER
Hindo	I-PER
keelanud	O
tedda	O
ja	O
küssinud	O
kerwest	O
ärra	O
,	O
agga	O
temma	O
polle	O
kerwest	O
annud	O
,	O
ja	O
näidanud	O
terra	O
.	O
Filip	B-PER
Iwanow	I-PER
Bednow	I-PER
annab	O
ka	O
järrele	O
,	O
et	O
temma	O
metsawahhile	O
kerwest	O
polle	O
ärra	O
annud	O
agga	O
terra	O
polle	O
näidanud	O
.	O
Mart	B-PER
Hindo	I-PER
wannutud	O
metsawaht	O
tunnistab	O
,	O
et	O
Filip	B-PER
Iwanow	I-PER
Bednow	I-PER
polle	O
kerwest	O
kääst	O
ärra	O
annud	O
ja	O
näidanud	O
kerwe	O
terra	O
,	O
ja	O
sõimanud	O
tedda	O
,	O
öölnud	O
ka	O
,	O
minna	O
wõin	O
raiduda	O
mis	O
minna	O
tahhan	O
,	O
sinna	O
polle	O
siin	O
keddagi	O
.	O
Kohhus	O
mõistis	O
:	O
Filip	B-PER
Iwanow	I-PER
Bednow	I-PER
saab	O
metsawahhile	O
wastahakkamise	O
eest	O
2.	O
x	O
24.	O
tunni	O
peale	O
koggukonna	O
wangihoonesse	O
kinnipandut	O
.	O
A. Krimm	B-PER
[	O
allkiri	O
]	O
,	O
pea	O
xxx	O
Maddis	B-PER
Erm	I-PER
,	O
kohtumees	O
A. Pärn	B-PER
[	O
allkiri	O
]	O
,	O
"	O
xxx	O
Tawet	B-PER
Kook	I-PER
,	O
"	O
/	O
:	O
Otsus	O
kulutud	O
sel	O
28.	O
Mail	O
c	O
.	O
Tallorahwa	B-MISC
seaduse	I-MISC
ramato	I-MISC
§§	O
772	O
ja	O
773	O
juhhatusel	O
rahhule	O
oldut	O
ja	O
Filip	B-PER
Iwanow	I-PER
Bednow	I-PER
kinni	O
pandut	O
:	O
/	O
