Kaibas	O
läsk	O
Liis	B-PER
Timmusk	I-PER
,	O
omma	O
Estkostja	O
Peter	B-PER
Kutzariga	I-PER
,	O
et	O
allanimmitud	O
Mehhed	O
temmal	O
kadunu	O
Mehhele	O
Wõlgu	O
jänud	O
ja	O
nüüd	O
ei	O
tahha	O
ärra	O
maksa	O
,	O
ni	O
kui	O
:	O
1.	O
Peter	B-PER
Matson	I-PER
4	O
/	O
3	O
Wakka	O
Rükki	O
2.	O
Pärt	B-PER
Miskon	I-PER
250	O
kop	O
.	O
Rahha	O
3.	O
Jakob	B-PER
Wilipson	I-PER
4	O
Rubl	O
.	O
Rahha	O
4.	O
Matze	B-LOC_ORG
Josep	B-PER
1	O
Rubl	O
.	O
Rahha	O
5.	O
Sakki	B-LOC_ORG
Jaan	B-PER
1	O
Rubl	O
.	O
Rahha	O
6.	O
Matze	B-LOC_ORG
Johan	B-PER
1	O
Rubl	O
.	O
Rahha	O
üllewannimmitud	O
Mehhed	O
ettekutsutud	O
,	O
wastotasid	O
:	O
1.	O
Peter	B-PER
Matson	I-PER
,	O
et	O
temma	O
om	O
sedda	O
wõlgu	O
jobba	O
ärramaksnu	O
ja	O
näuab	O
weel	O
Lässa	O
käest	O
7me	O
Päiwa	O
palka	O
,	O
ketti	O
temma	O
neile	O
om	O
orjanu	O
,	O
ja	O
kellest	O
läsk	O
mittemiddagi	O
ei	O
tia	O
.	O
2.	O
Pärt	B-PER
Mikson	I-PER
,	O
et	O
temma	O
om	O
sedda	O
Wõlgu	O
jobba	O
ärramaksnu	O
.	O
3.	O
Jakob	B-PER
Wilipson	I-PER
,	O
tunnistas	O
õiges	O
ja	O
pallel	O
Termini	O
päle	O
maksa	O
jätta	O
4.	O
Matze	B-LOC_ORG
Josep	B-PER
tunnistas	O
ärra	O
,	O
ja	O
pallel	O
Termini	O
päle	O
maksa	O
.	O
5.	O
Sakki	B-LOC_ORG
Jaan	B-PER
ütles	O
,	O
et	O
temma	O
sedda	O
1	O
Rublat	O
20	O
Punna	O
Oelgiga	O
om	O
ärra	O
tasunu	O
,	O
läsk	O
teesi	O
sest	O
kah	O
6.	O
Matze	B-LOC_ORG
Johan	B-PER
,	O
sallas	O
esmalt	O
,	O
ent	O
perrast	O
maksis	O
üts	O
Rubl	O
.	O
ärra	O
.	O
Sai	O
moistetud	O
:	O
et	O
Peter	B-PER
Matson	I-PER
ja	O
Pärt	B-PER
Mikson	I-PER
peawat	O
selle	O
Asja	O
ülle	O
wannutud	O
saama	O
.	O
Peter	B-PER
Issakson	I-PER
XXX	O
Josep	B-PER
Adoson	I-PER
XXX	O
Peter	B-PER
Akkert	I-PER
XXX	O
Johan	B-PER
Laan	I-PER
XXX	O
Widrik	B-PER
Harkmann	I-PER
XXX	O
