Protokolli	O
pääle	O
20	O
Maist	O
s	O
.	O
a.	O
No	O
86	O
tähendates	O
said	O
täna	O
sel	O
päewal	O
alan	O
pool	O
ülestähendatud	O
tunnistajad	O
ülekuulatud	O
:	O
Johan	B-PER
Nagel	I-PER
tunnistas	O
,	O
et	O
Jaan	B-PER
Kulp	I-PER
3	O
koormat	O
heinu	O
wäljast	O
poolt	O
sinna	O
majasse	O
tooma	O
pidanud	O
-	O
nõuab	O
enda	O
wiidetud	O
päewa	O
eest	O
1	O
rbl	O
.	O
tasutud	O
saada	O
.	O
Iwan	B-PER
Limonow	I-PER
tunnisatas	O
sedasama	O
mis	O
Johan	B-PER
Nagel	I-PER
.	O
Kusta	B-PER
Saarwa	I-PER
(	O
Sawi	B-PER
)	O
tunnistas	O
,	O
et	O
Jaan	B-PER
Kulbi	I-PER
karjus	O
74	O
sülda	O
aida	O
Hindrik	B-PER
Laari	I-PER
puist	O
on	O
teinud	O
,	O
sügise	O
aga	O
olnud	O
see	O
aid	O
kõik	O
ära	O
kadunud	O
.	O
Otsus	O
:	O
Tunnistajad	O
Jaan	B-PER
Piir	I-PER
Rasinalt	B-LOC
Johan	B-PER
Matson	I-PER
ja	O
Karl	B-PER
Zeiser	I-PER
saawad	O
töist	O
korda	O
29	O
Juuliks	O
s	O
.	O
a.	O
ette	O
tallitatud	O
.	O
