Tuli	O
ette	O
Poka	B-LOC_ORG
talu	I-LOC_ORG
omanik	O
Martin	B-PER
Undrits	I-PER
ja	O
kaewas	O
Uibo	B-LOC_ORG
talu	I-LOC_ORG
omaniku	O
Margus	B-PER
Mäggi	I-PER
pääle	O
:	O
"	O
Tema	O
on	O
minu	O
pääle	O
waletanud	O
,	O
et	O
minu	O
siad	O
olewat	O
suuretee	O
kraawisid	O
kinni	O
ajanu	O
tee	O
sõitmise	O
ajal	O
,	O
aga	O
minu	O
siad	O
oliwad	O
seekord	O
lautas	O
kinni	O
,	O
päälegi	O
ei	O
ole	O
mul	O
sugugi	O
niisuguseid	O
sigu	O
,	O
nagu	O
teesõitja	O
Wöörmündri	O
härra	O
Mossin	B-PER
,	O
kellele	O
Margus	B-PER
Mägi	I-PER
seda	O
ond	O
rääkinud	O
,	O
üles	O
on	O
andnud	O
.	O
Mina	O
nõuan	O
Margus	B-PER
Mäggi	I-PER
käest	O
,	O
et	O
tema	O
minu	O
pääle	O
on	O
waletanud	O
,	O
selle	O
siatrahwi	O
,	O
mis	O
wöörmündri	O
härra	O
minu	O
pääle	O
oli	O
arwanud	O
,	O
see	O
on	O
4	O
rbl	O
omale	O
tagasi	O
ja	O
Margus	B-PER
Mäggi	I-PER
maksku	O
pääle	O
selle	O
weel	O
siatrahw	O
ära	O
.	O
Oma	O
wiidetud	O
päewade	O
eest	O
nõuan	O
:	O
