Tännasel	O
pääwal	O
sai	O
Adrako	B-LOC_ORG
N 16	I-LOC_ORG
tallo	I-LOC_ORG
perremees	O
Jakob	B-PER
Pern	I-PER
ja	O
keik	O
temma	O
suggulaised	O
kolme	O
pühha	O
kulutamisse	O
läbbi	O
kerriko	O
sambas	O
,	O
Koggokonna	O
kohto	O
ette	O
kutsutud	O
ning	O
nendele	O
teada	O
antud	O
et	O
Jakob	B-PER
Pärn	I-PER
omma	O
suure	O
koggokonna	O
wõlla	O
pärrast	O
mis	O
temmal	O
Maggasis	O
on	O
12	O
Setwerti	O
25	O
kar	O
rukkid	O
3	O
Setwerti	O
40	O
1	O
/	O
2	O
kar	O
Odre	O
ja	O
57	O
kar	O
Kaero	O
.	O
saab	O
tallo	O
pealt	O
lahti	O
tehtud	O
,	O
ning	O
se	O
asse	O
selle	O
kätte	O
kes	O
need	O
wõllad	O
omma	O
peale	O
maksta	O
wõttab	O
,	O
antud	O
.	O
agga	O
kui	O
Jakob	B-PER
Pärna	I-PER
suggulaised	O
keski	O
sedda	O
tallo	O
asset	O
omma	O
kätte	O
wõtta	O
ei	O
tahha	O
,	O
siis	O
saab	O
se	O
tallo	O
asse	O
oksjoni	O
wiisil	O
wälja	O
pakkutud	O
.	O
Jakob	B-PER
Pärna	I-PER
suggulaisa	O
ei	O
olnud	O
keski	O
selle	O
nõudmissega	O
Koggokonna	O
kohto	O
ette	O
tulnud	O
,	O
et	O
nemmad	O
sedda	O
tallo	O
asset	O
N 16	O
omma	O
kätte	O
tahhawad	O
saada	O
.	O
Jakob	B-PER
Pärn	I-PER
kes	O
54	O
Aastad	O
wanna	O
astus	O
ette	O
ja	O
räkis	O
et	O
temma	O
nenda	O
waene	O
et	O
temmal	O
suggugi	O
ei	O
olle	O
omma	O
wõlga	O
kinni	O
maksta	O
ja	O
et	O
temma	O
lapsed	O
ka	O
weel	O
weikesed	O
.	O
kes	O
ei	O
joua	O
teenida	O
.	O
poeg	O
Mart	B-PER
14	O
Aastad	O
tuttar	O
Liisa	B-PER
11	O
Aastad	O
wanna	O
siis	O
palub	O
temma	O
Koggokonna	O
Kohhut	O
nenda	O
tehha	O
kudda	O
wiisi	O
temmal	O
parremb	O
on	O
.	O
Et	O
Wallawallitsus	O
ning	O
Koggokonna	O
Kohhus	O
on	O
Kihhelkonnakohtu	O
käest	O
kõwwad	O
käsku	O
sanud	O
keik	O
Maggasiwõllad	O
wiibimatta	O
sisse	O
nõuda	O
ning	O
nendele	O
kes	O
ei	O
joua	O
ommad	O
wõllad	O
kinnimaksta	O
oksjonid	O
ning	O
tallude	O
pealt	O
lahti	O
tehha	O
.	O
ja	O
et	O
Jakob	B-PER
Pärn	I-PER
ei	O
joua	O
omma	O
wõlga	O
ärra	O
maksta	O
,	O
ja	O
ka	O
temma	O
suggulaisa	O
ei	O
olle	O
nõudmissega	O
Koggo	O
Kohto	O
ette	O
tulnud	O
,	O
et	O
nemmad	O
sedda	O
tallo	O
omma	O
kätte	O
tahhawad	O
saada	O
,	O
saab	O
selle	O
pärrast	O
se	O
N 16	O
tallo	O
oksjoniwiisil	O
wälja	O
pakkutud	O
.	O
Se	O
Adrako	B-LOC_ORG
N 16	I-LOC_ORG
tallo	I-LOC_ORG
mis	O
1	O
thaler	O
58	O
Grossi	O
suured	O
sai	O
keige	O
tallo	O
honete	O
,	O
tallo	O
maa	O
ja	O
perremehhe	O
õigusega	O
awwalikkult	O
wälja	O
pakkutud	O
,	O
kes	O
rohkemb	O
pakkub	O
.	O
?	O
Mihkel	B-PER
Koppel	I-PER
kes	O
poismees	O
ja	O
26	O
Aastad	O
wanna	O
pakkus	O
125	O
rubla	O
.	O
Moistus	O
Et	O
selle	O
maja	O
peale	O
muud	O
pakkujad	O
ei	O
olle	O
olnud	O
kui	O
Mihkel	B-PER
Koppel	I-PER
kes	O
125	O
Rubla	O
pakkunud	O
.	O
peab	O
temma	O
se	O
rahha	O
kohhe	O
Koggokonnakohto	O
juure	O
sisse	O
maksma	O
,	O
mis	O
Maggasi	O
wõlla	O
ette	O
saab	O
rehkendud	O
,	O
ja	O
kui	O
Jakob	B-PER
Pärna	I-PER
suggulaisa	O
ennamb	O
pärrast	O
ueste	O
selle	O
nõudmissega	O
Koggokonnakohto	O
ette	O
ei	O
tulle	O
,	O
et	O
nemmad	O
nendasamma	O
paljo	O
tahhawad	O
maksta	O
ja	O
sedda	O
tallo	O
omma	O
kätte	O
nõudwad	O
.	O
saab	O
siis	O
Mihkel	B-PER
Koppel	I-PER
Ühhe	B-ORG
Keiserlikku	I-ORG
Baltia	I-ORG
Domänhowi	I-ORG
kohtule	I-ORG
perremehhe	O
kinnitusseks	O
ette	O
pantud	O
.	O
Mart	B-PER
Jaggo	I-PER
XXX	O
Mart	B-PER
Liis	I-PER
XXX	O
Jaan	B-PER
Saar	I-PER
XXX	O
