Ranna	B-LOC_ORG
moisas	I-LOC_ORG
sel	O
22mal	O
Julil	O
1855	O
aastal	O
olliwad	O
koos	O
pea	O
kohtomees	O
Johann	B-PER
Reinold	I-PER
abbi	O
"	O
Josepp	B-PER
Wonne	I-PER
abbi	O
"	O
Jaan	B-PER
Weskimets	I-PER
Moisamaa	O
kortsimehhe	O
Alepander	B-PER
Kruse	I-PER
kaibose	O
peale	O
on	O
Ommedo	B-LOC
kortsimees	O
Johann	B-PER
eheiaert	I-PER
kohto	O
ette	O
kutsutud	O
.	O
Kaibab	O
Aleksander	B-PER
Kruse	I-PER
et	O
temma	O
sawa	O
kubja	O
käest	O
1	O
Linno	O
pu	O
ostnud	O
mis	O
Tarrawere	B-LOC_ORG
mõisas	I-LOC_ORG
Juhhan	B-PER
Meinarti	I-PER
käes	O
hoida	O
olnud	O
,	O
kelle	O
ülle	O
ka	O
kaibaja	O
tunnis	O
kirja	O
ette	O
pannud	O
.	O
Sai	O
Johan	B-PER
Meinarti	I-PER
küssitud	O
kudda	O
assi	O
on	O
,	O
wastas	O
et	O
küll	O
olnud	O
1	O
meosi	O
pu	O
Darit	B-PER
Jwarki	I-PER
jaost	O
temma	O
käes	O
agga	O
se	O
linno	O
puu	O
surnud	O
ärra	O
selle	O
et	O
kohhe	O
mitte	O
järrele	O
ei	O
olle	O
tulnud	O
waid	O
weel	O
ku	O
aja	O
pärrast	O
nüüd	O
temma	O
ei	O
tahha	O
maksta	O
,	O
küssimisse	O
järrele	O
kas	O
käe	O
kirja	O
mis	O
26mus	O
Martsil	O
kirjutud	O
tunneb	O
,	O
utleb	O
et	O
temma	O
kirjutanud	O
.	O
Moistminne	O
Johann	B-PER
Meinarti	I-PER
käe	O
kirja	O
järrele	O
mis	O
26	O
Märtsil	O
kirjutud	O
moistetakse	O
et	O
Juhhan	B-PER
Meinarti	I-PER
maksab	O
linno	O
pu	O
eest	O
5	O
Rub	O
obbedat	O
selle	O
et	O
se	O
linno	O
pu	O
on	O
ärra	O
surnud	O
ja	O
püssib	O
surla	O
tähje	O
puud	O
endale	O
sest	O
kirja	O
sisse	O
ei	O
olle	O
aega	O
nimmetanud	O
millal	O
linno	O
pu	O
jarrele	O
tulla	O
,	O
waid	O
agga	O
üthelnud	O
et	O
igga	O
kord	O
woiks	O
käthe	O
sada	O
.	O
