Protokolli	O
edesiminek	O
N7	O
.	O
Writs	B-PER
Wreimann	I-PER
wälja	O
jäänud	O
ilma	O
wabandamata	O
.	O
Adam	B-PER
Suurman	I-PER
waband	O
oma	O
waljajäämist	O
haige	O
olemisega	O
ning	O
and	O
tunnistust	O
,	O
et	O
Setukese	O
Pognitsa	B-LOC_ORG
Mik	B-PER
kes	O
tema	O
,	O
Adam	B-PER
Suurmani	I-PER
käepääle	O
wilja	O
1886	O
aastal	O
kahkwa	O
magasist	O
laenanud	O
oli	O
,	O
on	O
temale	O
Adam	B-PER
Suurmannile	I-PER
üles	O
andnud	O
,	O
et	O
tema	O
wilja	O
mes	O
wõetud	O
mitte	O
äramaksa	O
ei	O
jõua	O
ning	O
on	O
pallunud	O
Adam	B-PER
Suurmanni	I-PER
seda	O
wilja	O
ära	O
maksa	O
,	O
kui	O
Adam	B-PER
Suurmann	I-PER
wilja	O
koormaga	O
Kahkwa	B-LOC
magasi	I-LOC
mann	O
om	O
tulnud	O
om	O
Pognitsa	B-LOC_ORG
Mik	B-PER
Setukese	O
Adam	B-PER
Suurmannile	I-PER
üttelnud	O
,	O
et	O
tema	O
Pognitsa	B-LOC_ORG
Mik	B-PER
,	O
kirjutaja	O
Wreimanniga	B-PER
õiges	O
om	O
saanud	O
,	O
ja	O
Adam	B-PER
Suurmann	O
om	O
sis	O
selle	O
massu	O
tarwis	O
toodud	O
wilja	O
kodu	O
tagasi	O
wiinud	O
.	O
Juhan	B-PER
Lepland	I-PER
ja	O
Jakob	B-PER
Parmann	I-PER
nõuawad	O
päewa	O
palka	O
.	O
Otsus	O
30	O
Januaris	O
sa	O
ette	O
tallitata	O
Pognitsa	B-LOC_ORG
Mik	B-PER
,	O
Writs	B-PER
Wreimann	I-PER
ja	O
kaebajad	O
.	O
Pääkohtumees	O
:	O
Kusta	B-PER
Rämman	I-PER
[	O
allkiri	O
]	O
Kohtumees	O
:	O
Kristian	B-PER
Kübar	I-PER
[	O
allkiri	O
]	O
abi	O
Josep	B-PER
Sults	I-PER
XXX	O
