Ue	B-LOC_ORG
Põltsama	I-LOC_ORG
moisas	I-LOC_ORG
sel	O
2	O
April	O
1856	O
Anno	B-PER
Janno	I-PER
on	O
emmale	O
Mall	B-PER
Kassile	I-PER
räginud	O
et	O
Tönno	B-PER
Reinberg	I-PER
on	O
temma	O
jures	O
ollnu	O
ja	O
temma	O
ga	O
rummalat	O
tööd	O
teinud	O
,	O
ja	O
on	O
temma	O
rasket	O
jalga	O
ollnu	O
,	O
on	O
Anno	B-PER
Janno	I-PER
ga	O
üttelnu	O
et	O
Rein	B-PER
Lindemann	I-PER
tedda	O
moisa	O
rehhes	O
piggistanud	O
,	O
selle	O
peale	O
on	O
temma	O
aiget	O
sanud	O
,	O
kuis	O
se	O
perrast	O
on	O
jänud	O
,	O
sedda	O
temma	O
ei	O
tea	O
.	O
Kay	B-PER
Oks	I-PER
üttleb	O
et	O
Anno	B-PER
Janno	I-PER
on	O
rasket	O
jalga	O
ollnu	O
ja	O
on	O
temma	O
küssinut	O
kuis	O
se	O
laps	O
on	O
jänud	O
on	O
Anno	B-PER
Janno	I-PER
sis	O
üttelnu	O
et	O
on	O
seade	O
ette	O
wissanut	O
,	O
on	O
üttelnu	O
et	O
medda	O
olli	O
,	O
Rein	B-PER
Lindemann	I-PER
on	O
tedda	O
rehhe	O
juris	O
pitsitanud	O
seal	O
on	O
temma	O
aigeks	O
jänud	O
.	O
Rein	B-PER
Lindemann	I-PER
üttleb	O
et	O
temma	O
ei	O
olle	O
mitte	O
Anno	B-PER
Janno	I-PER
piggistanud	O
,	O
ei	O
olle	O
tedda	O
puutnud	O
.	O
Ann	B-PER
Kert	I-PER
on	O
nainu	O
kui	O
Anno	B-PER
Janno	I-PER
sergi	O
on	O
pesnud	O
,	O
ja	O
on	O
küssinud	O
kuis	O
se	O
serg	O
ni	O
hukkas	O
on	O
,	O
ja	O
on	O
Anno	B-PER
üttelnu	O
,	O
et	O
se	O
swinne	O
serg	O
on	O
ollnu	O
,	O
muid	O
temma	O
ei	O
tea	O
.	O
Mart	B-PER
Weinglas	I-PER
XXX	O
Andres	B-PER
Reinert	I-PER
XXX	O
Mart	B-PER
Hundt	I-PER
XXX	O
