Kaiserlikko	B-ORG
Willandi	I-ORG
silla	I-ORG
kohto	I-ORG
kaesso	O
peale	O
peawat	O
24mal	O
selle	O
kuust	O
sadik	O
olstre	B-LOC_ORG
walla	I-LOC_ORG
peale	O
6	O
Soldadet	O
korteresama	O
pantat	O
ja	O
15	O
Krono	O
hobbostele	O
karja	O
ehk	O
soedamaed	O
sama	O
antut	O
,	O
sai	O
sies	O
selle	O
ülle	O
nau	O
peetut	O
ja	O
Kaesti	O
:	O
Et	O
ne	O
hobbosed	O
ja	O
mehhed	O
sel	O
wisil	O
sawat	O
jaggatut	O
et	O
Jurrimatsi	B-LOC_ORG
Jaan	B-PER
Lanel	I-PER
1	O
mees	O
ja	O
3	O
hobbosed	O
"	O
Andres	B-PER
Pertma	I-PER
1	O
"	O
"	O
3	O
"	O
Koigo	B-LOC_ORG
Jaan	B-PER
Koik	I-PER
1	O
"	O
"	O
3	O
"	O
Weske	B-LOC_ORG
Johan	B-PER
Ritson	I-PER
1	O
"	O
"	O
3	O
"	O
"	O
Peter	B-PER
Wesk	I-PER
1	O
"	O
"	O
Kumpose	B-LOC_ORG
Peter	B-PER
Jaanson	I-PER
1	O
"	O
"	O
peawat	O
körtere	O
wötma	O
ja	O
soedamad	O
hobbostele	O
juhhatama	O
,	O
kui	O
nemad	O
agga	O
kanemene	O
seia	O
seisma	O
saiwat	O
peawat	O
4	O
naedala	O
perast	O
teiste	O
tallote	O
sisse	O
sama	O
pantut	O
.	O
Soldatil	O
peab	O
Kohto	O
kaesso	O
järrel	O
enda	O
leib	O
ollema	O
,	O
körwalest	O
on	O
neil	O
agga	O
sealt	O
anda	O
kus	O
and	O
körteres	O
on	O
.	O
On	O
agga	O
nende	O
perremestel	O
ley	O
on	O
hobbosete	O
karjamad	O
anda	O
ja	O
Soldatele	O
körwalest	O
,	O
peab	O
sees	O
körwalest	O
nende	O
tallote	O
pealt	O
kus	O
karjamad	O
ei	O
olle	O
kokko	O
sama	O
woetut	O
ja	O
nendele	O
keta	O
anda	O
kus	O
ne	O
Soldatid	O
korteres	O
on	O
.	O
Johan	B-PER
Moks	I-PER
+	O
+	O
+	O
Pea	O
kohtomees	O
