Kadund Fromhold Balzari liikuw warandus sai 19 Septembril 1887 järgmisel wiisil oksjoni peal Lõhmuse metsawahi koha peal ära müütud:Asi			Ostja						
Hind			
Rbl.   Kop					1 hobuse küna			Johann Peterson			           40		1   "             "			    - " -			           40		1 käru			Andres Jaanson			           45		1 wankre kast			Tõnis Jürgens			           75		1 puu rattastega wanker			Johann Peterson			           45		1 rautud redeltega wanker			  - " -			  51 					Transport			  7       45		1 rautud wanker			Johann Balzar			  6         5		1 wana saksamaa ader			Märt Raudsepp			           21		1 rautud resla			Gotfried Boley			  1       35		1 rautamata regi			Jaak Parsmann			           15		1 rautud regi			Johann Balzar			          90		1 ader			    - " -			          55		1 talupoja ader			Jaan Päts			  1 		1 woodi			Märt Kansi			  1         5		2 sarja			Jaan Rattas			          40		1 linaseemne sari ja sõel			Johann Balzar			          22		1 wilja mõetmise wakk			Hans Balzar			          75		1 kuhwel ja kolmandik			Märt Kansi			          10		1 uus sõel			Jaak Parsmann			          22		1 seemendamise ader			Johann Balzar			  2  "  60		1 seemendamise ader			Hans Balzar			          50		1 saksamaa ader			Märt Raudsepp			          50		1 paar raud pulkadega äkla			Johann Peterson			  1       30		1 paar rautud poolpüttisi			Jaohann Balzar			          35		1   "       "           "			   - " -			          40		1   "       "          "			Jaan Rattas			          28		1 rangid ja päitsed			Toomas Silk			  1       95		1 rangid sleidega			Märt Raudsepp			          50		1 suur saag			Johann Peterson			          40		3 taldrekut ja 2 alustassi			Johann Balzar			          16		1 puu liud			Jaak Barsmann			            4		1 kruus ja soolakann			Mats Kärp			          17		4 kaussi			 Johann Balzar			           24		4    "			  - " -   			          20		1 sawi pott			Dora Janusson			           11		1 suur pada			Johann Peterson			  2       45		1 keskmine pada			Märt Raudsepp			           26		1 pada			Jakob Neumann			           41		1 keskmine pada			Ado Järw			  1        41		2 pangi			Johann Balzar			           22		2 lampi			Märt Raudsepp			           13		1 lamp			Mats Kärp			           27		2 paari nöör ohje			Johann Balzar			           21		1 lõng ohjad			Mats Kärp			           61		1 puu anum /:nõu:/			Johann Balzar			           47		1 seina kell			J. Raudsepp			  1		1 kohwi weske			Johann Markus			           70		1 tee kann ja söögi laud			Johann Lakk			           16		1 neljakandiline pann			Jaan Lääts			           21		1 suur neljakandiline pann			Andres Janusson			           35		2 nurmikut			Anu Henno			             7		2    "			Johann Balzar			            16		3    "			Jaak Parsmann			            24		2    "			Mats Kärp			            25		1 lüpsik			Jaan Müür			             10		1 lüpsik			Johann Balzar			            30		2 kappa			Jaan Päts			            25		2   "			Jaan Pill			             13		1 pütt /:nõu:/			Hans Balzar			             16		1 wask kanga suga			Toomas Silk			  1         90		2 puu suga			Jaan Pill			             44		2   "       "			Mats Kärp			             40		2 sõniku harki ja konks			Johann Tomson			             75		1 wask kattal ja õlest kübar			Mari Länkur			  1          20		2 paari niitsmed			Hans Hendrikson			              10		2 paari niitsmed			Hans Hendrikson			              28		2 paari niitsmid			Mats Kärp			              86		2 suurt pudelt			J. Raudsepp			              38		1   "         "			Jaak Luik			              29		1 paar kraasid			Hans Ritson			              22		3 Sirpi			Hans Hendrikson			              37		2 sirpi 			M. Schmidt			              43		1 later			Jaak Parsmann			              44		1    "			Hans Hendrikson			                5		1    "			Peter Nirk			              30		1 suur törine			  - " -			  1           55		1 kolmejalgne törine			Johann Till			               21		1 lehm			Gotfried Boley			18           50		1 lehm mullik			J. Raudsepp			  9           35		1 lehm			Johann Till			19            35		1 lehm			Märt Raudsepp			18            55		1  "			Johann Leppa			17		1 hall ruun hobune			Jaak Parsmann			59             5		1 kõrw   "       "			Jakob Neumann			52            75		1 kirju põrsas /:kunt:/			Peter Soorm			  4            25		1   "        "			Hans Hendrikson			  4            30		1   "        "			J. Raudsepp			  5		1 walge tall			 - " -			  1              70		1  must  "			 - " -			  1              80		1    "       "			 - " -			  1              40		1 walge oinas			Andres Janson			  1               15		1 walge lammas			J. Raudsepp			  3              10		1   "          "			Andres Janson			  3              70		1 must     "			Hans Ritson			  2              65		1 hall       "			Andres Janson			  3               10		1 tee kann			Hans Hendrikson			  1               25					Summa			268.82										
Eesseiswast summast 268 rublast 82 kop. sai kraani ette kandjatele Peter Nirgile ja Jaan Asule kumbagile 50 kop., ühte 1 rbl., wälja makstud ja jäi siis weel 267 rubla 82 kop. peakohtumehe Jaan Luiga kätte.
Peakohtumees JLuik [allkiri}
Kohtumehed MHansen [allkiri]
                        JJaama [allkiri]
                        JAndresson [allkiri]
Kirjut Raudsepp [allkiri]
