Tulli koggokonna kohto ette Annuse perrenaene Ann Jakobson ja andis üllesse, et temma tahta teistkorda ennast abbiellusse anda ja omma lastele parrandust üllesse panna: ja sawad nimmelt:
1. poeg Jakob 13 aastad wana:1 hobbune			50 rubla		1 lehm			20-		1 wanker			10-		1 saan			3-		1 lammas			1-50Kp		1 sigga			1-50-		=			86 rubl.		
2.poeg Josep 6 aastad:1 hobbune			50 rubla		1 lehm			20-		1 lammas			1-50Kp		1 sigga			1-50Kp		=			73.		
3.Tüttar Tio:1 lehm			20 rubla		1 lammas			1½ rubla		1 sigga			1½ rubla		=			23.		
emma Annele jäb wölla maksmiseks2 lehma			40 rubla		1 hobbune			30 rubla		2 lehma			40-		3 lammast			5 rubla		=			115.		Summa			297 rubla		
