Codem
Kohtu ette tulli Jürri Thaar ja pallus, et Hans Reier saas temmale
kassu lapsis lubbatud, ja andis ülles, et temmal ommal poega
ei olle
                                                                                        moistetud
sedda lubbata ja mahha kirjotada nenda kui tehtud.
