Ette	ette	ette	0		D	
tulli	tuli	tule	i		V	s
mõisa	mõisa	mõis	0		S	sg g
sep	sepp	sepp	0		S	sg n
Paul	Paul	Paul	0		H	sg n
Nedra	Nedra	Nedra	0		H	sg n
,	,	,			Z	
ja	ja	ja	0		J	
kaibas	kaebas	kaeba	s		V	s
,	,	,			Z	
et	et	et	0		J	
temma	tema	tema	0		P	sg n
ollew	olevat	ole	v		V	vat
Podratsiku	podrätsiku	podrätsik	0		S	sg g
Trofim	Trofim	Trofim	0		H	sg n
Tsehernowile	Tsehernovile	Tsehernov	le		H	sg all
sawus	####					
howi	hoovi	hoov	0		S	sg g
mannu	manu	manu	0		K	
sawwi	savi	savi	0		S	sg g
massina	masina	masin	0		S	sg g
tiisli	tiisli	tiisel	0		S	sg g
rawwa	raua	raud	0		S	sg g
kats	kaks	kaks	0		N	sg n
kõrd	kord	kord	0		S	sg n
ommast	omast	oma	st		S	sg el
rawwast	rauast	raud	st		S	sg el
,	,	,			Z	
ke	####					
katski	katki	katki	0		D	
lännu	läinud	mine	nu		V	nud
,	,	,			Z	
ja	ja	ja	0		J	
kolmas	kolmas	kolmas	0		O	sg n
kõrd	kord	kord	0		S	sg n
härra	härra	härra	0		S	sg g
rawwast	rauast	raud	st		S	sg el
tennu	teinud	tege	nu		V	nud
,	,	,			Z	
ent	ent	ent	0		J	
no	nood	see	d		P	pl n
kats	kaks	kaks	0		N	sg n
rauda	rauda	raud	0		S	sg p
jänu	jäänud	jää	nu		V	nud
tälle	talle	tema	le		P	sg all
taggasi	tagasi	tagasi	0		D	
ja	ja	ja	0		J	
ollew	olevat	ole	v		V	vat
essi	ise	ise	0		P	sg n
käünu	käinud	käi	nu		V	nud
rauda	rauda	raud	0		S	sg p
mannu	manu	manu	0		K	
pasman	passimas	pas	man		V	mas
ja	ja	ja	0		J	
muddeli	mudeli	mudel	0		S	sg g
wõtno	võtnud	võt	no		V	nud
,	,	,			Z	
ja	ja	ja	0		J	
kige	kõige	kõik	0		P	sg g
selle	selle	see	0		P	sg g
man	man	man	0		K	
aiga	aega	aeg	0		S	sg p
wiitnu	viitnud	viit	nu		V	nud
,	,	,			Z	
ja	ja	ja	0		J	
kuus	kuus	kuus	0		N	sg n
päiwatööd	päeva_tööd	päeva_töö	d		S	sg p
tennu	teinud	tege	nu		V	nud
,	,	,			Z	
to	too	too	0		P	sg n
töö	töö	töö	0		S	sg n
maso	maksu	maks	0		S	sg p
,	,	,			Z	
ja	ja	ja	0		J	
nõudis	nõudis	nõud	is		V	s
omma	oma	oma	0		P	sg g
töö	töö	töö	0		S	sg g
eest	eest	eest	0		K	
16	16	16	0		N	?
rubla	rubla	rubla	0		S	sg p
.	.	.			Z	
Sellepäle	sellepeale	selle_peale	0		D	
kutsuti	kutsuti	kutsu	ti		V	ti
Podrätsik	podrätsik	podrätsik	0		S	sg n
Trofim	Trofim	Trofim	0		H	sg n
Tsehernow	Tsehernov	Tsehernov	0		H	sg n
kohtu	kohtu	kohus	0		S	adt
ja	ja	ja	0		J	
loeti	loeti	luge	ti		V	ti
eensaiswa	eesseisva	ees_seis	va		V	v sg g
kaibus	kaebus	kaebus	0		S	sg n
ette	ette	ette	0		D	
,	,	,			Z	
ent	ent	ent	0		J	
temma	tema	tema	0		P	sg n
wastut	vastanud	vasta	ut		V	nud
,	,	,			Z	
et	et	et	0		J	
sep	sepp	sepp	0		S	sg n
Paul	Paul	Paul	0		H	sg n
Nedra	Nedra	Nedra	0		H	sg n
ollew	olevat	ole	v		V	vat
üts	üks	üks	0		P	sg n
kõrd	kord	kord	0		S	sg n
to	too	too	0		P	sg n
wanna	vana	vana	0		A	sg g
massina	masina	masin	0		S	sg g
tiisli	tiisli	tiisel	0		S	sg g
rawwa	rauad	raud	0		S	pl n
kokko	kokku	kokku	0		D	
jäkkanu	jätkanud	jäkka	nu		V	nud
,	,	,			Z	
ent	ent	ent	0		J	
lännu	läinud	mine	nu		V	nud
katski	katki	katki	0		D	
,	,	,			Z	
ja	ja	ja	0		J	
tõist	teist	teine	t		O	sg p
kõrd	kord	kord	0		S	sg n
ollew	olevat	ole	v		V	vat
ütte	ühe	üks	0		N	sg g
tükki	tüki	tükk	0		S	sg g
rauda	rauda	raud	0		S	sg p
tolle	tolle	too	0		P	sg g
sammale	samale	sama	le		P	sg all
wannale	vanale	vana	le		A	sg all
rawwale	rauale	raud	le		S	sg all
ümber	ümber	ümber	0		D	
pandno	pannud	pane	no		V	nud
,	,	,			Z	
ja	ja	ja	0		J	
jälle	jälle	jälle	0		D	
lännu	läinud	mine	nu		V	nud
katski	katki	katki	0		D	
,	,	,			Z	
ja	ja	ja	0		J	
sis	siis	siis	0		D	
ollew	olevat	ole	v		V	vat
mõisa	mõisa	mõis	0		S	sg g
härra	härra	härra	0		S	sg n
Richardt	Richard	Richardt	0		H	sg n
Baron	Baron	Baron	0		H	sg n
Maydell	Maydell	Maydell	0		H	sg n
ütte	ühe	üks	0		N	sg g
tükki	tüki	tükk	0		S	sg g
rauda	rauda	raud	0		S	sg p
ke	####					
ehk	ehk	ehk	0		D	
2	2	2	0		N	?
(	(	(			Z	
LM	lm	lm	0		Y	?
)	)	)			Z	
punda	punda	pund	0		S	sg p
rasse	raske	raske	0		A	sg n
ommalt	omalt	oma	lt		P	sg abl
poolt	poolt	poolt	0		K	
anda	anda	and	a		V	da
,	,	,			Z	
kellele	kellele	kes	le		P	sg all
sis	siis	siis	0		D	
ütte	ühe	üks	0		P	sg g
sure	suure	suur	0		A	sg g
mulku	mulgu	mulk	0		S	sg g
ja	ja	ja	0		J	
mõnne	mõne	mõni	0		P	sg g
väikse	väikse	väike	0		A	sg g
sisse	sisse	sisse	0		D	
lönu	löönud	löö	nu		V	nud
,	,	,			Z	
ja	ja	ja	0		J	
kui	kui	kui	0		J	
to	too	too	0		P	sg n
manno	manu	manu	0		K	
sai	sai	saa	i		V	s
,	,	,			Z	
sis	siis	siis	0		D	
wõino	võinud	või	no		V	nud
tööd	tööd	töö	d		S	sg p
nakada	nakata	nakka	da		V	da
teggema	tegema	tege	ma		V	ma
,	,	,			Z	
ent	ent	ent	0		J	
temma	tema	tema	0		P	sg n
sai	sai	saa	i		V	s
ka	ka	ka	0		D	
kahjo	kahju	kahju	0		S	sg p
neide	nende	see	ide		P	pl g
päiwi	päevade	päev	i		S	pl g
tööta	tööta	töö	ta		S	sg ab
saismise	seismise	seismine	0		S	sg g
perrast	pärast	pärast	0		K	
,	,	,			Z	
ja	ja	ja	0		J	
kiik	kõik	kõik	0		P	sg n
to	too	too	0		P	sg n
töö	töö	töö	0		S	sg g
teggemine	tegemine	tegemine	0		S	sg n
ei	ei	ei	0		V	neg
ollew	olevat	ole	v		V	vat
1	1	1	0		N	?
rubla	rubla	rubla	0		S	sg p
wärt	väärt	väärt	0		D	
.	.	.			Z	
Kohtomõistus	kohtu_mõistus	kohtu_mõistus	0		S	sg n
:	:	:			Z	
Kunna	kuna	kuna	0		J	
meije	meie	meie	0		P	sg g
ülle	üle	üle	0		D	
kaenu	kaenud	kae	nu		V	nud
,	,	,			Z	
et	et	et	0		J	
too	too	too	0		P	sg n
sawwi	savi	savi	0		S	sg g
massina	masina	masin	0		S	sg g
tiisli	tiisli	tiisel	0		S	sg g
raud	raud	raud	0		S	sg n
ehk	ehk	ehk	0		D	
2	2	2	0		N	?
LM	lm	lm	0		Y	?
rasse	raske	raske	0		A	sg n
om	on	ole	0		V	b
,	,	,			Z	
sis	siis	siis	0		D	
mõistame	mõistame	mõist	me		V	me
,	,	,			Z	
et	et	et	0		J	
4	4	4	0		N	?
kop	kop	kop	0		Y	?
.	.	.			Z	
nakla	nagla	nagel	0		S	sg g
päält	pealt	pealt	0		K	
töö	töö	töö	0		S	sg g
rahha	raha	raha	0		S	sg p
,	,	,			Z	
se	see	see	0		P	sg n
teep	teeb	tege	p		V	b
1rbl	1_rbl	1_rbl	0		Y	
60kop	60_kop	60_kop	0		Y	
ja	ja	ja	0		J	
2	2	2	0		N	?
rubla	rubla	rubla	0		S	sg p
katte	kahe	kaks	0		N	sg g
tõiste	teiste	teine	0		P	pl g
parrandamiste	parandamiste	parandamine	te		S	pl g
ja	ja	ja	0		J	
mano	manu	manu	0		D	
passmise	passimise	passimine	0		S	sg g
eest	eest	eest	0		K	
see	see	see	0		P	sg n
teep	teeb	tege	p		V	b
ülle	üle	üle	0		K	
kige	kõige	kõik	0		P	sg g
3	3	3	0		N	?
rubla	rubla	rubla	0		S	sg p
60	60	60	0		N	?
kopikat	kopikat	kopikas	t		S	sg p
,	,	,			Z	
kedda	keda	kes	da		P	sg p
Podrätsik	podrätsik	podrätsik	0		S	sg n
Trofim	Trofim	Trofim	0		H	sg n
Tsehernow	Tsehernov	Tsehernov	0		H	sg n
peap	peab	pida	b		V	b
14	14	14	0		N	?
päiwa	päeva	päev	0		S	sg g
sissen	sees	sees	0		K	
sep	sepp	sepp	0		S	sg n
Paul	Paul	Paul	0		H	sg n
Nedrale	Nedrale	Nedra	le		H	sg all
wälja	välja	välja	0		D	
masma	maksma	maks	ma		V	ma
.	.	.			Z	
Se	see	see	0		P	sg n
Kohtomõistus	kohtu_mõistus	kohtu_mõistus	0		S	sg n
sai	sai	saa	i		V	s
kohtonkäüijle	kohtus_käijatele	kohtus_käija	ijle		S	pl all
kulutedus	kuulutatud	kuuluta	dus		V	tud tr
sja	ja	ja	0		J	
§	§	§	0		Y	?
773	773	773	0		N	?
-	-	-			Z	
774	774	774	0		N	?
Tal	tal	tal	0		Y	
.	.	.			Z	
säd	säd	säd	0		Y	
.	.	.			Z	
ram	ram	ram	0		Y	
.	.	.			Z	
1860.	1860.	1860.	0		O	?
a.	a	a	0		Y	?
ärra	ära	ära	0		D	
selletedus	seletatud	seleta	dus		V	tud tr
,	,	,			Z	
mis	mis	mis	0		P	sg n
oppust	õppust	õppus	t		S	sg p
andwa	annavad	and	va		V	vad
suremba	suurema	suurem	0		C	sg g
kohtonkäümissest	kohtus_käimisest	kohtus_käimine	st		S	sg el
,	,	,			Z	
ja	ja	ja	0		J	
sep	sepp	sepp	0		S	sg n
Paul	Paul	Paul	0		H	sg n
Nedra	Nedra	Nedra	0		H	sg n
es	ei	ei	s		V	neg s
jä	jää	jää	0		V	o
tolleperrast	tollepärast	tolle_pärast	0		D	
selle	selle	see	0		P	sg g
mõistmisega	mõistmisega	mõistmine	ga		S	sg kom
rahhul	rahul	rahul	0		D	
,	,	,			Z	
et	et	et	0		J	
mis	mis	mis	0		P	sg n
16	16	16	0		N	?
rubla	rubla	rubla	0		S	sg p
es	ei	ei	s		V	neg s
mõisteta	mõisteta	mõist	ta		V	ta
,	,	,			Z	
ent	ent	ent	0		J	
Podratsik	podrätsik	podrätsik	0		S	sg n
Tsehernow	Tsehernov	Tsehernov	0		H	sg n
jäije	jäi	jää	ije		V	s
rahhul	rahul	rahul	0		D	
,	,	,			Z	
ja	ja	ja	0		J	
wimate	viimati	viimati	0		D	
sai	sai	saa	i		V	s
neile	neile	tema	le		P	pl all
§	§	§	0		Y	?
881	881	881	0		N	?
perra	perra	perra	0		K	
se	see	see	0		P	sg n
trükkito	trükitud	trükki	to		V	tud
oppuse	õppuse	õppus	0		S	sg g
leht	leht	leht	0		S	sg n
wälja	välja	välja	0		D	
antus	antud	and	tus		V	tud tr
.	.	.			Z	
13	13	13	0		N	?
Copia	koopia	koopia	0		S	sg n
wälja	välja	välja	0		D	
kirotet	kirjutatud	kirjuta	t		V	tud
kihhelkonna	kihelkonna	kihelkond	0		S	sg g
kohtule	kohtule	kohus	le		S	sg all
.	.	.			Z	
Päkohtomehe	peakohtumehed	pea_kohtu_mees	0		S	pl n
as	as	as	0		Y	
:	:	:			Z	
Tanil	Tanil	Tanil	0		H	sg n
Oinas	Oinas	Oinas	0		H	sg n
XXX	XXX	XXX	0		Y	?
Kohtomees	kohtumees	kohtu_mees	0		S	sg n
:	:	:			Z	
Tanil	Tanil	Tanil	0		H	sg n
Purge	Purge	Purge	0		H	sg n
XXX	XXX	XXX	0		Y	?
Abbi	abi	abi	0		S	sg n
kohtomees	kohtumees	kohtu_mees	0		S	sg n
:	:	:			Z	
Jakob	Jakob	Jakob	0		H	sg n
Kõiw	Kõiv	Kõiv	0		H	sg n
XXX	XXX	XXX	0		Y	?
Kirjotaja	kirjutaja	kirjutaja	0		S	sg n
:	:	:			Z	
/	/	/			Z	
P. Haberland	P_._Haberland	P_._Haberland	0		H	sg n
/	/	/			Z	
