Ette	ette	ette	0		D	
tulli	tuli	tule	i		V	s
Johann	Johann	Johann	0		H	sg n
Nooska	Nooska	Nooska	0		H	sg n
ja	ja	ja	0		J	
kaibas	kaebas	kaeba	s		V	s
et	et	et	0		J	
Alexander	Aleksander	Alexander	0		H	sg n
Bangowitsch	Bangovits	Bangovitsch	0		H	sg n
temmale	temale	tema	le		P	sg all
palka	palka	palk	0		S	sg p
wõlgu	võlgu	võlgu	0		D	
olewat	olevat	ole	vat		V	vat
36	36	36	0		N	?
Rbla	rbl	rbl	0		Y	?
nink	ning	ning	0		J	
pallep	palub	palu	p		V	b
kohhut	kohut	kohus	t		S	sg p
sedda	seda	see	da		P	sg p
temmale	temale	tema	le		P	sg all
wälja	välja	välja	0		D	
moista	mõista	mõist	a		V	da
.	.	.			Z	
Alexander	Aleksander	Alexander	0		H	sg n
Bangowitsch	Bangovits	Bangovitsch	0		H	sg n
ütles	ütles	ütle	s		V	s
et	et	et	0		J	
sellest	sellest	see	st		P	sg el
nõudmisest	nõudmisest	nõudmine	st		S	sg el
lähhep	läheb	mine	p		V	b
mahha	maha	maha	0		D	
:	:	:			Z	
30	30	30	0		N	?
N	N	N	0		Y	?
heringet	heeringat	heeringas	t		S	sg p
3	3	3	0		N	?
Rbl	rbl	rbl	0		Y	?
.	.	.			Z	
Päärahha	pearaha	pea_raha	0		S	sg n
masnud	maksnud	maks	nud		V	nud
6	6	6	0		N	?
Rbl	rbl	rbl	0		Y	?
.	.	.			Z	
4	4	4	0		N	?
Kop	kop	kop	0		Y	?
.	.	.			Z	
Rüä	rüa	rüga	0		S	sg g
nurme	nurme	nurm	0		S	sg g
krawe	kraave	kraav	e		S	pl g
eest	eest	eest	0		K	
4	4	4	0		N	?
Rbl	rbl	rbl	0		Y	?
.	.	.			Z	
37	37	37	0		N	?
Kop	kop	kop	0		Y	?
.	.	.			Z	
1	1	1	0		N	?
adder	ader	ader	0		S	sg n
warrastada	varrastada	varrasta	da		V	da
lasknu	lasknud	lask	nu		V	nud
3	3	3	0		N	?
Rbl	rbl	rbl	0		Y	?
.	.	.			Z	
kattuse	katuse	katus	0		S	sg g
parrandamine	parandamine	parandamine	0		S	sg n
1	1	1	0		N	?
Rbl	rbl	rbl	0		Y	?
.	.	.			Z	
pool	pool	pool	0		N	sg n
süld	süld	süld	0		S	sg n
puid	puid	puu	id		S	pl p
pudus	puudus	puudu	s		V	s
1	1	1	0		N	?
Rbl	rbl	rbl	0		Y	?
.	.	.			Z	
25	25	25	0		N	?
Kop	kop	kop	0		Y	?
.	.	.			Z	
talgu	talgu	talgud	0		S	sg g
piddamise	pidamise	pidamine	0		S	sg g
eest	eest	eest	0		K	
1e	1e	1e	0		Y	?
hobbesega	hobusega	hobune	ga		S	sg kom
se	see	see	0		P	sg n
om	on	ole	0		V	b
1	1	1	0		N	?
Rbl	rbl	rbl	0		Y	?
.	.	.			Z	
50	50	50	0		N	?
Kop	kop	kop	0		Y	?
.	.	.			Z	
wankri	vankri	vanker	0		S	sg g
katsgi	katki	katki	0		D	
murdnu	murdnud	murd	nu		V	nud
50	50	50	0		N	?
Kop	kop	kop	0		Y	?
.	.	.			Z	
linno	linu	lina	u		S	pl p
warrastada	varrastada	varrasta	da		V	da
lasknu	lasknud	lask	nu		V	nud
2	2	2	0		N	?
Rbl	rbl	rbl	0		Y	?
.	.	.			Z	
50	50	50	0		N	?
Kop	kop	kop	0		Y	?
.	.	.			Z	
Summa	summa	summa	0		S	sg n
22	22	22	0		N	?
Rbl	rbl	rbl	0		Y	?
.	.	.			Z	
66	66	66	0		N	?
Cop	kop	kop	0		Y	?
.	.	.			Z	
Sest	sest	sest	0		J	
Johann	Johann	Johann	0		H	sg n
Nooska	Nooska	Nooska	0		H	sg n
olli	oli	ole	i		V	s
2	2	2	0		N	?
aastat	aastat	aasta	t		S	sg p
enne	enne	enne	0		D	
minno	minu	mina	0		P	sg g
pois	poiss	poiss	0		S	sg n
nink	ning	ning	0		J	
perrast	pärast	pärast	0		D	
olli	oli	ole	i		V	s
üts	üks	üks	0		N	sg n
aastaig	aastaaeg	aasta_aeg	0		S	sg n
pole	poole	pool	0		N	sg g
terrä	tera	tera	0		S	sg g
mees	mees	mees	0		S	sg n
minno	minu	mina	0		P	sg g
man	man	man	0		K	
nink	ning	ning	0		J	
sis	siis	siis	0		D	
saije	sai	saa	ije		V	s
kiik	kõik	kõik	0		P	sg n
se	see	see	0		P	sg n
rehknud	rehkendanud	rehkenda	nud		V	nud
.	.	.			Z	
Johann	Johann	Johann	0		H	sg n
Nooska	Nooska	Nooska	0		H	sg n
ütles	ütles	ütle	s		V	s
et	et	et	0		J	
30	30	30	0		N	?
N	N	N	0		Y	?
heringit	heeringat	heeringas	t		S	sg p
om	on	ole	0		V	b
oig	õige	õige	0		A	sg n
3	3	3	0		N	?
Rbl	rbl	rbl	0		Y	?
.	.	.			Z	
Päärahha	pearaha	pea_raha	0		S	sg n
ei	ei	ei	0		V	neg
olle	ole	ole	0		V	o
mastu	makstud	maks	tu		V	tud
6	6	6	0		N	?
Rbl	rbl	rbl	0		Y	?
.	.	.			Z	
4	4	4	0		N	?
Cop	kop	kop	0		Y	?
.	.	.			Z	
Krawi	kraavi	kraav	0		S	sg g
puhhastamist	puhastamist	puhastamine	t		S	sg p
minnol	minul	mina	l		P	sg ad
ei	ei	ei	0		V	neg
ole	ole	ole	0		V	o
olnu	olnud	ole	nu		V	nud
leppingun	lepingus	leping	n		S	sg in
4	4	4	0		N	?
Rbl	rbl	rbl	0		Y	?
.	.	.			Z	
37	37	37	0		N	?
Cop	kop	kop	0		Y	?
.	.	.			Z	
Se	see	see	0		P	sg n
adder	ader	ader	0		S	sg n
anna	annan	and	0		V	n
mina	mina	mina	0		P	sg n
taggasi	tagasi	tagasi	0		D	
.	.	.			Z	
Kattust	katust	katus	t		S	sg p
es	ei	ei	s		V	neg s
ole	ole	ole	0		V	o
minnol	minul	mina	l		P	sg ad
parrandatu	parandatud	paranda	tu		V	tud
.	.	.			Z	
pool	pool	pool	0		N	sg n
süld	süld	süld	0		S	sg n
puid	puid	puu	id		S	pl p
ei	ei	ei	0		V	neg
ole	ole	ole	0		V	o
pudus	puudu	puudu	0		D	
jänü	jäänud	jää	nü		V	nud
.	.	.			Z	
Talgu	talgu	talgud	0		S	sg g
piddamine	pidamine	pidamine	0		S	sg n
om	on	ole	0		V	b
õige	õige	õige	0		A	sg g
wankri	vankri	vanker	0		S	sg g
katsgi	katki	katki	0		D	
murdmine	murdmine	murdmine	0		S	sg n
om	on	ole	0		V	b
õige	õige	õige	0		A	sg g
Selle	selle	see	0		P	sg g
lina	lina	lina	0		S	sg g
warguse	varguse	vargus	0		S	sg g
ajal	ajal	ajal	0		K	
es	ei	ei	s		V	neg s
olegi	olegi	ole	0	gi	V	o
minna	mina	mina	0		P	sg n
kotton	kodus	kodu	n		S	sg in
,	,	,			Z	
enge	enge	enge	0		J	
olli	oli	ole	i		V	s
mino	minu	mina	0		P	sg g
weli	veli	veli	0		S	sg n
assemel	asemel	asemel	0		K	
.	.	.			Z	
Kohtumees	kohtumees	kohtu_mees	0		S	sg n
Peter	Peeter	Peter	0		H	sg n
Kalman	Kalman	Kalman	0		H	sg n
tunnistas	tunnistas	tunnista	s		V	s
et	et	et	0		J	
Johann	Johann	Johann	0		H	sg n
Nooska	Nooska	Nooska	0		H	sg n
päärahha	pearaha	pea_raha	0		S	sg n
ei	ei	ei	0		V	neg
olle	ole	ole	0		V	o
mitte	mitte	mitte	0		D	
ärra	ära	ära	0		D	
mastu	makstud	maks	tu		V	tud
,	,	,			Z	
enge	enge	enge	0		J	
se	see	see	0		P	sg n
raha	raha	raha	0		S	sg n
om	on	ole	0		V	b
lännu	läinud	mine	nu		V	nud
Wido	Viido	Vido	0		H	sg n
Nooska	Nooska	Nooska	0		H	sg g
palgas	palgast	palk	s		S	sg el
hobbese	hobuse	hobune	0		S	sg g
wahtmise	vahtimise	vahtimine	0		S	sg g
eest	eest	eest	0		K	
.	.	.			Z	
Moistet	mõisteti	mõist	ti		V	ti
:	:	:			Z	
Bangowitschal	Bangovitsal	Bangovitsch	l		H	sg ad
jääp	jääb	jää	p		V	b
sis	siis	siis	0		D	
tassa	tasa	tasa	0		D	
massetus	makstud	maks	tus		V	tud tr
:	:	:			Z	
30	30	30	0		N	?
N	N	N	0		Y	?
heringet	heeringat	heeringas	t		S	sg p
3	3	3	0		N	?
Rbl	rbl	rbl	0		Y	?
.	.	.			Z	
krawi	kraavi	kraav	0		S	sg g
puhhastamise	puhastamise	puhastamine	0		S	sg g
eest	eest	eest	0		K	
4	4	4	0		N	?
Rbl	rbl	rbl	0		Y	?
.	.	.			Z	
37	37	37	0		N	?
Kop	kop	kop	0		Y	?
.	.	.			Z	
kattusse	katuse	katus	0		S	sg g
parrandamise	parandamise	parandamine	0		S	sg g
eest	eest	eest	0		K	
1	1	1	0		N	?
Rbl	rbl	rbl	0		Y	?
.	.	.			Z	
puu	puu	puu	0		S	sg g
weddamise	vedamise	vedamine	0		S	sg g
eest	eest	eest	0		K	
1	1	1	0		N	?
Rbl	rbl	rbl	0		Y	?
.	.	.			Z	
25	25	25	0		N	?
Kop	kop	kop	0		Y	?
talgu	talgu	talgud	0		S	sg g
piddamise	pidamise	pidamine	0		S	sg g
eest	eest	eest	0		K	
1	1	1	0		N	?
Rbl	rbl	rbl	0		Y	?
.	.	.			Z	
50	50	50	0		N	?
Kop	kop	kop	0		Y	?
.	.	.			Z	
wankri	vankri	vanker	0		S	sg g
katsgi	katki	katki	0		D	
murdmine	murdmine	murdmine	0		S	sg n
50	50	50	0		N	?
Kop	kop	kop	0		Y	?
.	.	.			Z	
Summa	summa	summa	0		S	sg n
11	11	11	0		N	?
Rbl	rbl	rbl	0		Y	?
.	.	.			Z	
62	62	62	0		N	?
Kop	kop	kop	0		Y	?
.	.	.			Z	
nink	ning	ning	0		J	
adder	ader	ader	0		S	sg n
peap	peab	pida	p		V	b
Johann	Johann	Johann	0		H	sg n
Nooska	Nooska	Nooska	0		H	sg g
wastu	vastu	vastu	0		D	
andma	andma	and	ma		V	ma
,	,	,			Z	
ent	ent	ent	0		J	
sis	siis	siis	0		D	
peap	peab	pida	p		V	b
Alexander	Aleksander	Alexander	0		H	sg n
Bangowitsch	Bangovits	Bangovitsch	0		H	sg n
weel	veel	veel	0		D	
Johann	Johann	Johann	0		H	sg n
Nooskale	Nooskale	Nooska	le		H	sg all
weel	veel	veel	0		D	
palka	palka	palk	0		S	sg p
perra	perra	perra	0		D	
masma	maksma	maks	ma		V	ma
24	24	24	0		N	?
Rbl	rbl	rbl	0		Y	?
.	.	.			Z	
38	38	38	0		N	?
Kop	kop	kop	0		Y	?
.	.	.			Z	
kuni	kuni	kuni	0		K	
20	20	20	0		N	?
April	aprill	aprill	0		S	sg n
1883	1883	1883	0		N	?
ärra	ära	ära	0		D	
massa	maksta	maks	a		V	da
.	.	.			Z	
Se	see	see	0		P	sg n
moistmine	mõistmine	mõistmine	0		S	sg n
om	on	ole	0		V	b
§	§	§	0		Y	?
773	773	773	0		N	?
ja	ja	ja	0		J	
774	774	774	0		N	?
perra	perra	perra	0		D	
kulutedu	kuulutatud	kuuluta	du		V	tud
ja	ja	ja	0		J	
oppusleht	õppusleht	õppus_leht	0		S	sg n
wälja	välja	välja	0		D	
antu	antud	antud	0		A	sg g
.	.	.			Z	
Pääkohtumees	peakohtumees	pea_kohtu_mees	0		S	sg n
K. Lõhmus	K_._Lõhmus	K_._Lõhmus	0		H	sg n
[	[	[			Z	
allkiri	allkiri	all_kiri	0		S	sg n
]	]	]			Z	
Kohtumees	kohtumees	kohtu_mees	0		S	sg n
Peter	Peeter	Peter	0		H	sg n
Prants	Prants	Prants	0		H	sg n
[	[	[			Z	
allkiri	allkiri	all_kiri	0		S	sg n
]	]	]			Z	
Kohtumees	kohtumees	kohtu_mees	0		S	sg n
Jaan	Jaan	Jaan	0		H	sg n
Oppar	Oppar	Oppar	0		H	sg n
XXX	XXX	XXX	0		Y	?
Kirjotaja	kirjutaja	kirjutaja	0		S	sg n
Jõggewa	Jõgeva	Jõggeva	0		H	sg n
