Kahkwa	Kahkva	Kahkwa	0		H	sg g
koggokonna	kogukonna	kogukond	0		S	sg g
kohtu	kohtu	kohus	0		S	sg g
een	ees	ees	0		K	
sel	sel	see	l		P	sg ad
20	20	20	0		N	?
Febr	veebr	veebr	0		Y	?
1867	1867	1867	0		N	?
Kaiwas	kaebas	kaeba	s		V	s
Räppina	Räpina	Räppina	0		H	sg g
mees	mees	mees	0		S	sg n
Iwan	Ivan	Iwan	0		H	sg n
Jakimi	Jakim	Jakim	0		H	sg n
et	et	et	0		J	
temma	tema	tema	0		P	sg n
om	on	ole	0		V	b
astal	aastal	aasta	l		S	sg ad
1864	1864	1864	0		N	?
Decembri	detsembri	detsember	0		S	sg g
kuul	kuu	kuu	l		S	sg ad
Kahkwa	Kahkva	Kahkwa	0		H	sg g
perremehhele	peremehele	pere_mees	le		S	sg all
Hendrik	Hendrik	Hendrik	0		H	sg n
Lepindile	Lepindile	Lepind	le		H	sg ad
30	30	30	0		N	?
Rbl	rbl	rbl	0		Y	?
rahha	raha	raha	0		S	sg p
lainanu	laenanud	laena	nu		V	nud
maggasi	magasini	magasin	0		S	sg g
wõlla	võla	võlg	0		S	sg g
massa	maksta	maks	a		V	da
se	see	see	0		P	sg n
pääle	peale	peale	0		D	
et	et	et	0		J	
H. Leping	H._Lepind	H._Lepind	0		H	sg n
annab	annab	and	b		V	b
ommast	omast	oma	st		P	sg el
maast	maast	maa	st		S	sg el
pool	pool	pool	0		N	sg n
maad	maad	maa	d		S	sg p
temmale	temale	tema	le		P	sg all
ja	ja	ja	0		J	
massab	maksab	maks	b		V	b
asta	aasta	aasta	0		S	sg g
perrast	pärast	pärast	0		K	
se	see	see	0		P	sg n
rahha	raha	raha	0		S	sg n
jälle	jälle	jälle	0		D	
taggasi	tagasi	tagasi	0		D	
.	.	.			Z	
Sis	siis	siis	0		D	
om	on	ole	0		V	b
nemma	nemad	tema	0		P	pl n
mõisa	mõisa	mõis	0		S	sg g
wallitsuse	valitsuse	valitsus	0		S	sg g
mannu	manu	manu	0		K	
lännuwa	läinud	mine	nnuva		V	nuvad
sedda	seda	see	da		P	sg p
asja	asja	asi	0		S	sg p
kinnitama	kinnitama	kinnita	ma		V	ma
ja	ja	ja	0		J	
mõisa	mõisa	mõis	0		S	sg g
walitsus	valitsus	valitsus	0		S	sg n
om	on	ole	0		V	b
ka	ka	ka	0		D	
sedda	seda	see	da		P	sg p
kaupa	kaupa	kaup	0		S	sg p
häs	heaks	hea	s		A	sg tr
kitnu	kiitnud	kiit	nu		V	nud
ja	ja	ja	0		J	
olles	oleks	ole	s		V	ks
...	...	...			Z	
Olles	oleks	ole	s		V	ks
Räppina	Räpina	Räppina	0		H	sg g
mehhele	mehele	mees	le		S	sg all
maa	maa	maa	0		S	sg g
rendi	rendi	rent	0		S	sg g
pääle	peale	peale	0		K	
lubbanu	lubanud	luba	nu		V	nud
ja	ja	ja	0		J	
se	see	see	0		P	sg n
30	30	30	0		N	?
Rbl	rbl	rbl	0		Y	?
wasta	vastu	vastu	0		D	
wõtnu	võtnud	võt	nu		V	nud
ja	ja	ja	0		J	
käsknu	käskinud	käski	nu		V	nud
I. Jakimid	I._Jakimit	I._Jakim	d		H	sg p
aseme	aseme	ase	0		S	sg g
otsmise	ostmise	ostmine	0		S	sg g
tähte	tähte	täht	0		S	sg p
tuwa	tuua	too	a		V	da
,	,	,			Z	
et	et	et	0		J	
sis	siis	siis	0		D	
saab	saab	saa	b		V	b
kondrat	kontraht	kontraht	0		S	sg n
tetus	tehtud	tege	tus		V	tud tr
.	.	.			Z	
Kui	kui	kui	0		J	
mees	mees	mees	0		S	sg n
om	on	ole	0		V	b
tähhe	tähe	täht	0		S	sg g
toonu	toonud	too	nu		V	nud
ei	ei	ei	0		V	neg
olle	ole	ole	0		V	o
mõisa	mõisa	mõis	0		S	sg g
wallitsus	valitsus	valitsus	0		S	sg n
rendi	rendi	rent	0		S	sg g
pääle	peale	peale	0		K	
maad	maad	maa	d		S	sg p
andnu	andnud	and	nu		V	nud
.	.	.			Z	
Se	see	see	0		P	sg n
pääle	peale	peale	0		D	
ei	ei	ei	0		V	neg
olle	ole	ole	0		V	o
I. Jakim	I._Jakim	I._Jakim	0		H	sg n
maad	maad	maa	d		S	sg p
wõtnu	võtnud	võt	nu		V	nud
ja	ja	ja	0		J	
mõisa	mõisa	mõis	0		S	sg g
walitsus	valitsus	valitsus	0		S	sg n
ei	ei	ei	0		V	neg
olle	ole	ole	0		V	o
temma	tema	tema	0		P	sg g
rahha	raha	raha	0		S	sg p
taggasi	tagasi	tagasi	0		D	
andnu	andnud	and	nu		V	nud
.	.	.			Z	
Tunnistaja	tunnistaja	tunnistaja	0		S	sg n
olles	oleks	ole	s		V	ks
Widu	Viido	Widu	0		H	sg n
Using	Using	Using	0		H	sg n
.	.	.			Z	
Ette	ette	ette	0		D	
tulli	tuli	tule	i		V	s
Hindrik	Hendrik	Hendrik	0		H	sg n
Lepind	Lepind	Lepind	0		H	sg n
ja	ja	ja	0		J	
ütel	ütles	ütle	0		V	s
,	,	,			Z	
et	et	et	0		J	
temal	temal	tema	l		P	sg ad
om	on	ole	0		V	b
ütte	ühe	üks	0		P	sg g
lesse	lese	lesk	0		S	sg g
naisega	naisega	naine	ga		S	sg kom
nimmelt	nimelt	nimelt	0		D	
Marri	Mari	Marri	0		H	sg n
Jaguman	Jaaguman	Jaguman	0		H	sg n
ni	nii	nii	0		D	
leppitu	lepitud	leppi	tu		V	tud
ollu	olnud	ole	lu		V	nud
,	,	,			Z	
et	et	et	0		J	
temma	tema	tema	0		P	sg g
annab	annab	and	b		V	b
se	sellele	see	0		P	sg all
naisele	naisele	naine	le		S	sg all
omma	oma	oma	0		P	sg g
majast	majast	maja	st		S	sg el
pool	pool	pool	0		N	sg n
maad	maad	maa	d		S	sg p
ja	ja	ja	0		J	
naine	naine	naine	0		S	sg n
lainab	laenab	laena	b		V	b
temmale	temale	tema	le		P	sg all
maggasi	magasini	magasin	0		S	sg g
wõlla	võla	võlg	0		S	sg g
massa	maksta	maks	a		V	da
30	30	30	0		N	?
Rbl	rbl	rbl	0		Y	?
mes	mis	mis	0		P	sg n
H. Lepind	H._Lepind	H._Lepind	0		H	sg n
asta	aasta	aasta	0		S	sg g
perrast	pärast	pärast	0		K	
jälle	jälle	jälle	0		D	
olles	oleks	ole	s		V	ks
piddanu	pidanud	pida	nu		V	nud
ärra	ära	ära	0		D	
massma	maksma	maks	ma		V	ma
.	.	.			Z	
Mõisa	mõisa	mõis	0		S	sg g
wallitsuse	valitsus	valitsus	0		S	sg n
om	on	ole	0		V	b
sedda	seda	see	da		P	sg p
kauba	kaupa	kaup	0		S	sg p
häs	heaks	hea	s		A	sg tr
kittnu	kiitnud	kiit	nu		V	nud
kui	kui	kui	0		J	
naine	naine	naine	0		S	sg n
hendale	endale	ise	le		P	sg all
mehhe	mehe	mees	0		S	sg g
wõttab	võtab	võt	b		V	b
.	.	.			Z	
Sis	siis	siis	0		D	
om	on	ole	0		V	b
nema	nemad	tema	0		P	pl n
sel	sel	see	l		P	sg ad
13	13	13	0		N	?
Debr	dets	dets	0		Y	?
1865	1865	1865	0		N	?
kohtumeiste	kohtumeeste	kohtu_mees	te		S	pl g
mannu	manu	manu	0		K	
lännuwa	läinud	mine	nnuva		V	nuvad
ja	ja	ja	0		J	
sel	sel	see	l		P	sg ad
30	30	30	0		N	?
Rbl	rbl	rbl	0		Y	?
rahha	raha	raha	0		S	sg p
kohtumeiste	kohtumeeste	kohtu_mees	te		S	pl g
kätte	kätte	kätte	0		K	
masnu	maksnud	maks	nu		V	nud
maggasi	magasini	magasin	0		S	sg g
wõlla	võla	võlg	0		S	sg g
pääle	peale	peale	0		K	
.	.	.			Z	
Ja	ja	ja	0		J	
kohtu	kohtu	kohus	0		S	sg g
mehhe	mehed	mees	0		S	pl n
om	on	ole	0		V	b
ka	ka	ka	0		D	
sedda	seda	see	da		P	sg p
kauba	kaupa	kaup	0		S	sg p
häs	heaks	hea	s		A	sg tr
kitnu	kiitnud	kiit	nu		V	nud
,	,	,			Z	
et	et	et	0		J	
H. Leping	H._Lepind	H._Lepind	0		H	sg n
ütsinda	üksinda	üksinda	0		D	
sedda	seda	see	da		P	sg p
maija	maja	maja	0		S	sg p
piddada	pidada	pida	da		V	da
ei	ei	ei	0		V	neg
jõuwa	jõua	jõud	0		V	o
.	.	.			Z	
Perrast	pärast	pärast	0		D	
om	on	ole	0		V	b
Widu	Viido	Widu	0		H	sg n
Using	Using	Using	0		H	sg n
H. Lepindile	H._Lepindile	H._Lepind	le		H	sg all
kõnnelnu	kõnelenud	kõnele	nu		V	nud
,	,	,			Z	
et	et	et	0		J	
anna	anna	and	0		V	o
minnu	minu	mina	0		P	sg g
suggulasele	sugulasele	sugulane	le		S	sg all
se	see	see	0		P	sg n
.	.	.			Z	
Ma	ma	mina	0		P	sg n
selle	selle	see	0		P	sg g
naisega	naisega	naine	ga		S	sg kom
sinna	sinna	sinna	0		D	
majan	majas	maja	n		S	sg in
läbbi	läbi	läbi	0		D	
ei	ei	ei	0		V	neg
sa	saa	saa	0		V	o
se	see	see	0		P	sg n
naine	naine	naine	0		S	sg n
om	on	ole	0		V	b
wäiga	väga	väga	0		D	
kiusaja	kiusaja	kiusaja	0		S	sg n
.	.	.			Z	
Sis	siis	siis	0		D	
om	on	ole	0		V	b
H. Lepind	H._Lepind	H._Lepind	0		H	sg n
mõnne	mõne	mõni	0		P	sg g
päiwa	päeva	päev	0		S	sg g
perrast	pärast	pärast	0		K	
mõisa	mõisa	mõis	0		S	adt
tullu	tulnud	tule	lu		V	nud
om	on	ole	0		V	b
Widu	Viido	Widu	0		H	sg n
Using	Using	Using	0		H	sg n
H. Lepindi	H._Lepindi	H._Lepind	0		H	sg g
mannu	manu	manu	0		K	
tullu	tulnud	tule	lu		V	nud
ja	ja	ja	0		J	
mõisawallitsusse	mõisavalitsuse	mõisa_valitsus	0		S	sg g
mannu	manu	manu	0		K	
kutsnu	kutsunud	kutsu	nu		V	nud
ja	ja	ja	0		J	
ütelnu	ütelnud	ütle	nu		V	nud
anna	anna	and	0		V	o
ika	ikka	ikka	0		D	
meile	meile	mina	le		P	pl all
se	see	see	0		P	sg n
ma	maa	maa	0		S	sg n
.	.	.			Z	
Kui	kui	kui	0		J	
mõisawalitsusse	mõisavalitsuse	mõisa_valitsus	0		S	sg g
mannu	manu	manu	0		D	
länuwa	läinud	mine	nuva		V	nuvad
om	on	ole	0		V	b
mõisawallitsus	mõisavalitsus	mõisa_valitsus	0		S	sg n
ka	ka	ka	0		D	
ütelnu	ütelnud	ütle	nu		V	nud
ei	ei	ei	0		V	neg
tija	tea	tead	0		V	o
kas	kas	kas	0		D	
naine	naine	naine	0		S	sg n
hendale	endale	ise	le		P	sg all
meest	meest	mees	t		S	sg p
saab	saab	saa	b		V	b
sinna	sinna	sinna	0		D	
wõid	võid	või	d		V	d
kül	küll	küll	0		D	
se	selle	see	0		P	sg g
Räppina	Räpina	Räppina	0		H	sg g
mehhega	mehega	mees	ga		S	sg kom
leppi	leppida	leppi	0		V	da
ja	ja	ja	0		J	
saab	saab	saa	b		V	b
se	see	see	0		P	sg n
rahha	raha	raha	0		S	sg n
naisele	naisele	naine	le		S	sg all
taggasi	tagasi	tagasi	0		D	
antus	antud	and	tus		V	tud tr
.	.	.			Z	
Sis	siis	siis	0		D	
om	on	ole	0		V	b
H. Lepping	H._Lepind	H._Lepind	0		H	sg n
se	selle	see	0		P	sg g
Räp	Räp	Räp	0		Y	?
.	.	.			Z	
mehhega	mehega	mees	ga		S	sg kom
ni	nii	nii	0		D	
samma	sama	sama	0		P	sg n
lepnu	leppinud	leppi	nu		V	nud
kui	kui	kui	0		J	
se	selle	see	0		P	sg g
naisegagi	naisegagi	naine	ga	gi	S	sg kom
kaubeldu	kaubeldud	kauple	du		V	tud
olli	oli	ole	i		V	s
,	,	,			Z	
sis	siis	siis	0		D	
om	on	ole	0		V	b
I. Jakim	I._Jakim	I._Jakim	0		H	sg n
30	30	30	0		N	?
Rbl	rbl	rbl	0		Y	?
mõisawalitsusse	mõisavalitsuse	mõisa_valitsus	0		S	sg g
kätte	kätte	kätte	0		K	
sisse	sisse	sisse	0		D	
masnu	maksnud	maks	nu		V	nud
ja	ja	ja	0		J	
mõisawalitsus	mõisavalitsus	mõisa_valitsus	0		S	sg n
om	on	ole	0		V	b
lubbanu	lubanud	luba	nu		V	nud
sedda	seda	see	da		P	sg p
rahha	raha	raha	0		S	sg p
se	sellele	see	0		P	sg all
naisele	naisele	naine	le		S	sg all
taggasi	tagasi	tagasi	0		D	
anda	anda	and	a		V	da
.	.	.			Z	
Ja	ja	ja	0		J	
H. Leping	H._Lepind	H._Lepind	0		H	sg n
om	on	ole	0		V	b
Iwwaniga	Ivaniga	Iwan	ga		H	sg kom
ni	nii	nii	0		D	
lepnu	leppinud	leppi	nu		V	nud
se	selle	see	0		P	sg g
wõlla	võla	võlg	0		S	sg g
tassumisse	tasumise	tasumine	0		S	sg g
perrast	pärast	pärast	0		K	
et	et	et	0		J	
H. Lepind	H._Lepind	H._Lepind	0		H	sg n
annab	annab	and	b		V	b
omma	oma	oma	0		P	sg g
welle	velje	veli	0		S	sg g
Iwwani	Ivani	Iwan	0		H	sg g
mannu	manu	manu	0		K	
teenma	teenima	teeni	ma		V	ma
ja	ja	ja	0		J	
Iwwan	Ivan	Iwan	0		H	sg n
olles	oleks	ole	s		V	ks
20	20	20	0		N	?
Rbl	rbl	rbl	0		Y	?
aastas	aastas	aasta	s		S	sg in
palga	palka	palk	0		S	sg p
lubbanu	lubanud	luba	nu		V	nud
,	,	,			Z	
ja	ja	ja	0		J	
10	10	10	0		N	?
Rbl	rbl	rbl	0		Y	?
olles	oleks	ole	s		V	ks
H. Lepind	H._Lepind	H._Lepind	0		H	sg n
weel	veel	veel	0		D	
rahhaga	rahaga	raha	ga		S	sg kom
masnu	maksnud	maks	nu		V	nud
nink	ning	ning	0		J	
sis	siis	siis	0		D	
olles	oleks	ole	s		V	ks
se	see	see	0		P	sg n
wõlg	võlg	võlg	0		S	sg n
tassa	tasa	tasa	0		D	
ollu	olnud	ole	lu		V	nud
.	.	.			Z	
I. Jakim	I._Jakim	I._Jakim	0		H	sg n
ei	ei	ei	0		V	neg
olle	ole	ole	0		V	o
maad	maad	maa	d		S	sg p
wõtnu	võtnud	võt	nu		V	nud
ja	ja	ja	0		J	
H. Lepind	H._Lepind	H._Lepind	0		H	sg n
ei	ei	ei	0		V	neg
olle	ole	ole	0		V	o
ütsinda	üksinda	üksinda	0		D	
ka	ka	ka	0		D	
terwet	tervet	terve	t		A	sg p
maad	maad	maa	d		S	sg p
piddata	pidada	pida	ta		V	da
jõudnu	jõudnud	jõud	nu		V	nud
ja	ja	ja	0		J	
H. Lepind	H._Lepind	H._Lepind	0		H	sg n
om	on	ole	0		V	b
se	see	see	0		P	sg n
läbbi	läbi	läbi	0		D	
ärra	ära	ära	0		D	
oksitus	eksitud	eksi	tus		V	tud tr
saanu	saanud	saa	nu		V	nud
.	.	.			Z	
Ja	ja	ja	0		J	
H. Lepind	H._Lepind	H._Lepind	0		H	sg n
ütleb	ütleb	ütle	b		V	b
et	et	et	0		J	
temmal	temal	tema	l		P	sg ad
nüüd	nüüd	nüüd	0		D	
koskilt	kuskilt	kuskilt	0		D	
massa	maksta	maks	a		V	da
ei	ei	ei	0		V	neg
olle	ole	ole	0		V	o
,	,	,			Z	
et	et	et	0		J	
kui	kui	kui	0		J	
tema	tema	tema	0		P	sg n
maija	majja	maja	0		S	adt
olles	oleks	ole	s		V	ks
jäänu	jäänud	jää	nu		V	nud
sis	siis	siis	0		D	
olles	oleks	ole	s		V	ks
tema	tema	tema	0		P	sg n
oma	oma	oma	0		P	sg g
täidnu	täitnud	täit	nu		V	nud
.	.	.			Z	
Mõisavalitsus	mõisavalitsus	mõisa_valitsus	0		S	sg n
ütel	ütles	ütle	0		V	s
temma	tema	tema	0		P	sg n
ei	ei	ei	0		V	neg
ole	ole	ole	0		V	o
Iwanile	Ivanile	Iwan	le		H	sg all
maad	maad	maa	d		S	sg p
rendi	rendi	rent	0		S	sg g
pääle	peale	peale	0		K	
lubbanu	lubanud	luba	nu		V	nud
.	.	.			Z	
Kohhus	kohus	kohus	0		S	sg n
mõist	mõistab	mõist	0		V	b
et	et	et	0		J	
I. Jakim	I._Jakim	I._Jakim	0		H	sg n
peab	peab	pida	b		V	b
5	5	5	0		N	?
Rubla	rubla	rubla	0		S	sg p
omast	omast	oma	st		P	sg el
rahhast	rahast	raha	st		S	sg el
kaodama	kaotama	kaota	ma		V	ma
et	et	et	0		J	
temma	tema	tema	0		P	sg n
ei	ei	ei	0		V	neg
olle	ole	ole	0		V	o
maad	maad	maa	d		S	sg p
wõtnu	võtnud	võt	nu		V	nud
ja	ja	ja	0		J	
H. Lepind	H._Lepind	H._Lepind	0		H	sg n
peab	peab	pida	b		V	b
25	25	25	0		N	?
R. I. Jakimile	R._I._Jakimile	R._I._Jakim	le		H	sg all
taggasi	tagasi	tagasi	0		D	
masma	maksma	maks	ma		V	ma
.	.	.			Z	
Sel	sel	see	l		P	sg ad
3	3	3	0		N	?
Aprilil	aprillil	aprill	l		S	sg ad
sai	sai	saa	i		V	s
kihhelkonna	kihelkonna	kihelkond	0		S	sg g
kohtu	kohtu	kohus	0		S	sg g
kässu	käsu	käsk	0		S	sg g
pääle	peale	peale	0		K	
se	see	see	0		P	sg n
25	25	25	0		N	?
R	R	R	0		Y	?
.	.	.			Z	
kolme	kolme	kolm	0		N	sg g
asta	aasta	aasta	0		S	sg g
pääle	peale	peale	0		K	
jaotetus	jaotatud	jaota	tus		V	tud tr
sedda	seda	see	da		P	sg p
wisi	viisi	viisi	0		D	
et	et	et	0		J	
H. Lepind	H._Lepind	H._Lepind	0		H	sg n
massab	maksab	maks	b		V	b
1867	1867	1867	0		N	?
astal	aastal	aasta	l		S	sg ad
5	5	5	0		N	?
Rbl	rbl	rbl	0		Y	?
ja	ja	ja	0		J	
1868	1868	1868	0		N	?
astal	aastal	aasta	l		S	sg ad
10	10	10	0		N	?
Rbl	rbl	rbl	0		Y	?
ja	ja	ja	0		J	
1869	1869	1869	0		N	?
astal	aastal	aasta	l		S	sg ad
10	10	10	0		N	?
Rbl	rbl	rbl	0		Y	?
Iwwan	Ivan	Iwan	0		H	sg n
Jakimile	Jakimile	Jakim	le		H	sg ad
.	.	.			Z	
Michel	Mihkel	Michel	0		H	sg n
Musting	Musting	Musting	0		H	sg n
Rein	Rein	Rein	0		H	sg n
Oinberg	Oinberg	Oinberg	0		H	sg n
J. Lepland	J._Lepland	J._Lepland	0		H	sg n
