Ette	ette	ette	0		D	
tulli	tuli	tule	i		V	s
Peter	Peeter	Peter	0		H	sg n
Leoski	Leoski	Leoski	0		H	sg g
naine	naine	naine	0		S	sg n
Katri	Katri	Katri	0		H	sg n
nink	ning	ning	0		J	
kaibas	kaebas	kaeba	s		V	s
,	,	,			Z	
et	et	et	0		J	
temma	tema	tema	0		P	sg n
poig	poeg	poeg	0		S	sg n
jooskno	jooksnud	jooks	no		V	nud
temma	tema	tema	0		P	sg g
manno	manu	manu	0		K	
ikkoga	itkuga	itk	ga		S	sg kom
nink	ning	ning	0		J	
üttelno	ütelnud	ütle	no		V	nud
et	et	et	0		J	
J	J	J	0		Y	?
Jassik	Jassik	Jassik	0		H	sg n
ollew	olevat	ole	v		V	vat
pesno	peksnud	peks	no		V	nud
,	,	,			Z	
sellepäle	sellepeale	selle_peale	0		D	
länno	läinud	mine	nno		V	nud
temma	tema	tema	0		P	sg n
Jaak	Jaak	Jaak	0		H	sg n
Jassiko	Jassiku	Jassik	0		H	sg g
manno	manu	manu	0		K	
nink	ning	ning	0		J	
küssino	küsinud	küsi	no		V	nud
mesperrast	mispärast	mis_pärast	0		D	
temma	tema	tema	0		P	sg n
last	last	laps	t		S	sg p
pesno	peksnud	peks	no		V	nud
,	,	,			Z	
ent	ent	ent	0		J	
J.Jassik	J._Jassik	J._Jassik	0		H	sg n
üttelno	ütelnud	ütle	no		V	nud
kas	kas	kas	0		D	
sinna	sina	sina	0		P	sg n
to	too	too	0		P	sg n
küssija	küsija	küsija	0		S	sg n
ollet	oled	ole	t		V	d
,	,	,			Z	
nink	ning	ning	0		J	
tõugano	tõuganud	tõuka	no		V	nud
tedda	teda	tema	da		P	sg p
kats	kaks	kaks	0		N	sg n
kõrd	korda	kord	0		S	sg p
sellepäle	sellepeale	selle_peale	0		D	
olno	olnud	ole	no		V	nud
temma	tema	tema	0		P	sg n
mitto	mitu	mitu	0		P	sg n
päiwa	päeva	päev	0		S	sg p
haige	haige	haige	0		A	sg n
,	,	,			Z	
kelle	kelle	kes	0		P	sg g
päle	peale	peale	0		K	
Tohtri	tohtri	tohter	0		S	sg g
Kiwi	Kivi	Kiwi	0		H	sg g
tunistus	tunnistus	tunnistus	0		S	sg n
.	.	.			Z	
Ette	ette	ette	0		D	
kutsuti	kutsuti	kutsu	ti		V	ti
Jaak	Jaak	Jaak	0		H	sg n
Jassik	Jassik	Jassik	0		H	sg n
nink	ning	ning	0		J	
loeti	loeti	luge	ti		V	ti
eenseiswa	eesseisva	ees_seis	va		V	v sg g
kaibus	kaebus	kaebus	0		S	sg n
ette	ette	ette	0		D	
ent	ent	ent	0		J	
temma	tema	tema	0		P	sg n
ütles	ütles	ütle	s		V	s
et	et	et	0		J	
ei	ei	ei	0		V	neg
olle	ole	ole	0		V	o
mitte	mitte	mitte	0		D	
Katri	Katri	Katri	0		H	sg n
Leoski	Leoski	Leoski	0		H	sg g
poiga	poega	poeg	0		S	sg p
pesno	peksnud	peks	no		V	nud
,	,	,			Z	
ent	ent	ent	0		J	
se	see	see	0		P	sg n
pois	poiss	poiss	0		S	sg n
ollew	olevat	ole	v		V	vat
temma	tema	tema	0		P	sg g
ree	ree	regi	0		S	sg g
sissest	seest	seest	0		K	
malga	malga	malk	0		S	sg g
wälja	välja	välja	0		D	
tõmmano	tõmmanud	tõmba	no		V	nud
ja	ja	ja	0		J	
temma	tema	tema	0		P	sg n
käskno	käskinud	käski	no		V	nud
taggasi	tagasi	tagasi	0		D	
wija	viia	vii	a		V	da
ent	ent	ent	0		J	
pois	poiss	poiss	0		S	sg n
joosno	jooksnud	jooks	no		V	nud
tarre	tarre	tare	0		S	adt
nink	ning	ning	0		J	
temma	tema	tema	0		P	sg n
länno	läinud	mine	nno		V	nud
perra	perra	perra	0		D	
,	,	,			Z	
pois	poiss	poiss	0		S	sg n
tükno	tükkinud	tükki	no		V	nud
sängi	sängi	säng	0		S	sg g
alla	alla	alla	0		K	
,	,	,			Z	
ent	ent	ent	0		J	
temma	tema	tema	0		P	sg n
üttelno	ütelnud	ütle	no		V	nud
kui	kui	kui	0		J	
sinna	sina	sina	0		P	sg n
wälja	välja	välja	0		D	
ei	ei	ei	0		V	neg
tulle	tule	tule	0		V	o
ja	ja	ja	0		J	
sedda	seda	see	da		P	sg p
malka	malka	malk	0		S	sg p
taggasi	tagasi	tagasi	0		D	
ei	ei	ei	0		V	neg
wi	vii	vii	0		V	o
sis	siis	siis	0		D	
minna	mina	mina	0		P	sg n
wõtta	võtan	võt	a		V	n
piidsa	piitsa	piits	0		S	sg g
,	,	,			Z	
sis	siis	siis	0		D	
tulno	tulnud	tule	no		V	nud
pois	poiss	poiss	0		S	sg n
wälja	välja	välja	0		D	
nink	ning	ning	0		J	
jooskno	jooksnud	jooks	no		V	nud
usses	uksest	uks	s		S	sg el
wälja	välja	välja	0		D	
Emma	ema	ema	0		S	sg g
manno	manu	manu	0		K	
.	.	.			Z	
Sellepäle	sellepeale	selle_peale	0		D	
tulno	tulnud	tule	no		V	nud
Katri	Katri	Katri	0		H	sg n
Leosk	Leoski	Leoski	0		H	sg n
(	(	(			Z	
poisi	poiss	poiss	0		S	sg g
Emma	ema	ema	0		S	sg n
)	)	)			Z	
nink	ning	ning	0		J	
tedda	teda	tema	da		P	sg p
sõimama	sõimama	sõima	ma		V	ma
ja	ja	ja	0		J	
tükno	tükkinud	tükki	no		V	nud
tälle	talle	tema	le		P	sg all
lähhembale	lähemale	lähemale	0		D	
ent	ent	ent	0		J	
temma	tema	tema	0		P	sg n
üttelno	ütelnud	ütle	no		V	nud
kül	küll	küll	0		D	
et	et	et	0		J	
minne	mine	mine	0		V	o
ometi	ometi	ometi	0		D	
ärra	ära	ära	0		D	
ent	ent	ent	0		J	
Katri	Katri	Katri	0		H	sg n
Leosk	Leoski	Leoski	0		H	sg n
ei	ei	ei	0		V	neg
olle	ole	ole	0		V	o
mitte	mitte	mitte	0		D	
ärra	ära	ära	0		D	
länno	läinud	mine	nno		V	nud
,	,	,			Z	
nink	ning	ning	0		J	
sis	siis	siis	0		D	
wimate	viimati	viimati	0		D	
om	on	ole	0		V	b
temma	tema	tema	0		P	sg n
tedda	teda	tema	da		P	sg p
hendast	endast	ise	st		P	sg el
ärra	ära	ära	0		D	
tõugano	tõuganud	tõuka	no		V	nud
.	.	.			Z	
Jaan	Jaan	Jaan	0		H	sg n
Russ	Russ	Russ	0		H	sg n
andse	andis	and	se		V	s
tunnistust	tunnistust	tunnistus	t		S	sg p
et	et	et	0		J	
Katri	Katri	Katri	0		H	sg n
Leosk	Leoski	Leoski	0		H	sg n
tulno	tulnud	tule	no		V	nud
kül	küll	küll	0		D	
Jaak	Jaak	Jaak	0		H	sg n
Jassiko	Jassiku	Jassik	0		H	sg g
manno	manu	manu	0		K	
nink	ning	ning	0		J	
sõimano	sõimanud	sõima	no		V	nud
ja	ja	ja	0		J	
sisom	siis_on	siis_ole	0		V	b
Jaak	Jaak	Jaak	0		H	sg n
Jassik	Jassik	Jassik	0		H	sg n
tedda	teda	tema	da		P	sg p
hendast	endast	ise	st		P	sg el
ärra	ära	ära	0		D	
tõugano	tõuganud	tõuka	no		V	nud
.	.	.			Z	
Kohtomõistus	kohtumõistus	kohtu_mõistus	0		S	sg n
:	:	:			Z	
Kunna	kuna	kuna	0		J	
nüüd	nüüd	nüüd	0		D	
Jaak	Jaak	Jaak	0		H	sg n
Jassik	Jassik	Jassik	0		H	sg n
Katri	Katri	Katri	0		H	sg n
Leoskit	Leoskit	Leoski	t		H	sg p
om	on	ole	0		V	b
tõugano	tõuganud	tõuka	no		V	nud
kunna	kuna	kuna	0		J	
wimane	viimane	viimane	0		A	sg n
omma	on	ole	0		V	b
poja	poja	poeg	0		S	sg g
perrast	pärast	pärast	0		K	
perra	perra	perra	0		D	
küssima	küsima	küsi	ma		V	ma
länno	läinud	mine	nno		V	nud
,	,	,			Z	
nink	ning	ning	0		J	
selle	selle	see	0		P	sg g
tõukamisse	tõukamise	tõukamine	0		S	sg g
perrast	pärast	pärast	0		K	
haige	haige	haige	0		A	sg n
olno	olnud	ole	no		V	nud
,	,	,			Z	
mes	mis	mis	0		P	sg n
Tohtri	tohtri	tohter	0		S	sg g
täht	täht	täht	0		S	sg n
tunnistab	tunnistab	tunnista	b		V	b
,	,	,			Z	
mõista	mõistame	mõist	0		V	me
meije	meie	mina	0		P	pl n
et	et	et	0		J	
Jaak	Jaak	Jaak	0		H	sg n
Jassik	Jassik	Jassik	0		H	sg n
massab	maksab	maks	b		V	b
1	1	1	0		N	?
(	(	(			Z	
üts	üks	üks	0		N	sg n
)	)	)			Z	
rubla	rubla	rubla	0		S	sg n
Katri	Katri	Katri	0		H	sg n
Leoskille	Leoskile	Leoski	lle		H	sg all
,	,	,			Z	
ja	ja	ja	0		J	
1.	1.	1.	0		O	?
(	(	(			Z	
üts	üks	üks	0		N	sg n
)	)	)			Z	
rubla	rubla	rubla	0		S	sg n
trahwi	trahvi	trahv	0		S	sg p
kog	kogu	kogu	0		S	sg n
.	.	.			Z	
konna	####					
Ladikude	laadikusse	laadik	de		S	sg ill
.	.	.			Z	
Se	see	see	0		P	sg n
kohtomõistus	kohtumõistus	kohtu_mõistus	0		S	sg n
sai	sai	saa	i		V	s
kohtonkäüjile	kohtuskäijatele	kohtus_käija	ile		S	pl all
kuulutedus	kuulutatud	kuuluta	dus		V	tud tr
nink	ning	ning	0		J	
§	§	§	0		Y	?
773	773	773	0		N	?
ja	ja	ja	0		J	
774	774	774	0		N	?
Tal	tal	tal	0		Y	?
.	.	.			Z	
säd	säd	säd	0		Y	?
.	.	.			Z	
ram	ram	ram	0		Y	?
.	.	.			Z	
1860.	1860.	1860.	0		O	?
a.	a.	a	0		Y	?
ärra	ära	ära	0		D	
selletedus	seletatud	seleta	dus		V	tud tr
mes	mis	mis	0		P	sg n
oppust	õppust	õppus	t		S	sg p
andwa	andvat	and	va		V	vat
suremba	suurema	suurem	0		C	sg g
kohton	kohtus	kohus	n		S	sg in
käümissest	käimisest	käimine	t		S	sg p
,	,	,			Z	
ent	ent	ent	0		J	
kohtonkäüja	kohtuskäijad	kohtus_käija	0		S	pl n
es	ei	ei	s		V	neg s
olle	ole	ole	0		V	o
sellega	sellega	see	ga		P	sg kom
rahhul	rahul	rahul	0		D	
nink	ning	ning	0		J	
wimate	viimati	viimati	0		D	
saije	sai	saa	ije		V	s
neile	neile	tema	le		P	pl all
ka	ka	ka	0		D	
§	§	§	0		Y	?
881.	881.	881.	0		O	?
perra	perra	perra	0		K	
se	see	see	0		P	sg n
trükkito	trükitud	trükki	to		V	tud
oppuse	õppuse	õppus	0		S	sg g
leht	leht	leht	0		S	sg n
wälja	välja	välja	0		D	
antus	antud	and	tus		V	tud tr
.	.	.			Z	
Päkohtomees	peakohtumees	pea_kohtu_mees	0		S	sg n
Jürri	Jüri	Jürri	0		H	sg n
Waldmann	Valdmann	Waldmann	0		H	sg n
XXX	XXX	XXX	0		Y	?
Kohtomees	kohtumees	kohtu_mees	0		S	sg n
Tannil	Tanel	Tannil	0		H	sg n
Oinas	Oinas	Oinas	0		H	sg n
XXX	XXX	XXX	0		Y	?
Kohtomees	kohtumees	kohtu_mees	0		S	sg n
Tannil	Tanel	Tannil	0		H	sg n
Purge	Purge	Purge	0		H	sg n
XXX	XXX	XXX	0		Y	?
Kirjotaja	kirjutaja	kirjutaja	0		S	sg g
/	/	/			Z	
allkiri	allkiri	all_kiri	0		S	sg n
/	/	/			Z	
