Laiksaares	laik_saar	s		S	sg in
vallakohtus	valla_kohus	s		S	sg in
sel	see	l		P	sg ad
   	sel	0		Y	?
19	19	0		N	?
Junil	####				
1868	1868	0		N	?
juures	juur	s		S	sg in
      	juures	0		D	
      	juures	0		K	
olid	ole	id		V	sid
:	:			Z	
peak	####				
.	.			Z	
Mats	Mats	0		H	sg n
    	mats	0		A	sg n
    	mats	0		S	sg n
Rast	####				
,	,			Z	
vanemk	####				
.	.			Z	
Hans	Hans	0		H	sg n
Tins	####				
,	,			Z	
ja	ja	0		J	
nooremkohtumees	noorem_kohtu_mees	0		S	sg n
:	:			Z	
Hans	Hans	0		H	sg n
Kamdron	####				
Said	saa	id		V	sid
tunnistused	tunnistus	d		S	pl n
ette	ette	0		D	
    	ette	0		K	
    	esi	tte		S	adt
kutsutud	kutsu	tud		V	tud
        	kutsutu	d		S	pl n
        	kutsutud	0		A	
        	kutsutud	0		A	sg n
        	kutsutud	d		A	pl n
ja	ja	0		J	
neilt	see	lt		P	pl abl
     	tema	lt		P	pl abl
Tauste	####				
Ado	Ado	0		H	sg g
   	Ado	0		H	sg n
talu	talu	0		S	sg g
    	talu	0		V	o
    	talu	0		S	sg n
    	talu	0		S	sg p
perast	####				
küsitud	küsi	tud		V	tud
       	küsi=tu	d		S	pl n
       	küsi=tud	0		A	
       	küsi=tud	0		A	sg n
       	küsi=tud	d		A	pl n
,	,			Z	
vastasid	vasta	sid		V	sid
:	:			Z	
1.	1.	0		O	?
Mats	Mats	0		H	sg n
    	mats	0		A	sg n
    	mats	0		S	sg n
Mõttus	Mõttus	0		H	sg n
:	:			Z	
tema	tema	0		P	sg g
    	tema	0		P	sg n
ei	ei	0		D	
  	ei	0		V	neg
teada	tead	a		V	da
midagi	miski	dagi		P	sg p
.	.			Z	
2.	2.	0		O	?
Jacub	####				
Leinatsaar	leina_tsaar	0		S	sg n
:	:			Z	
ei	ei	0		D	
  	ei	0		V	neg
olla	ole	a		V	da
tulnud	tul=nud	0		A	
      	tul=nud	0		A	sg n
      	tul=nud	d		A	pl n
      	tule	nud		V	nud
      	tulnu	d		S	pl n
,	,			Z	
-	-			Z	
teda	tema	da		P	sg p
jatsid	####				
ka	ka	0		D	
kohtukaijat	####				
maha	maha	0		D	
.	.			Z	
3.	3.	0		O	?
Juhann	####				
Abuth	####				
:	:			Z	
kui	kui	0		D	
   	kui	0		J	
Ado	Ado	0		H	sg g
   	Ado	0		H	sg n
Melkson	####				
olla	ole	a		V	da
essimise	####				
naisega	naine	ga		S	sg kom
elanud	ela	nud		V	nud
      	ela=nu	d		S	pl n
      	ela=nud	0		A	
      	ela=nud	0		A	sg n
      	ela=nud	d		A	pl n
,	,			Z	
üsna	üsna	0		D	
vaestviisi	vaest_viisi	0		D	
ja	ja	0		J	
nõndasammuti	####				
ka	ka	0		D	
teise	teine	0		O	adt
     	teine	0		O	sg g
     	teine	0		P	adt
     	teine	0		P	sg g
naisega	naine	ga		S	sg kom
vaest	vaag	st		S	sg el
     	vaene	t		A	sg p
     	vaene	t		S	sg p
viisi	viis	0		S	adt
     	viis	0		S	sg g
     	viis	i		N	pl p
     	viisi	0		K	
     	viis	0		S	sg p
aga	aga	0		J	
kui	kui	0		D	
   	kui	0		J	
isa	isa	0		S	sg g
   	isa	0		S	sg n
   	isa	0		S	sg p
ära	ära	0		D	
   	ära	0		V	neg o
surnud	surnu	d		S	pl n
      	surnud	0		A	
      	surnud	0		A	sg n
      	surnud	d		A	pl n
      	sure	nud		V	nud
,	,			Z	
sealt	sealt	0		D	
     	siga	lt		A	sg abl
     	siga	lt		S	sg abl
saanud	saa	nud		V	nud
      	saa=nud	0		A	
      	saa=nud	0		A	sg n
      	saa=nud	d		A	pl n
      	saanu	d		S	pl n
siis	siis	0		D	
    	siis	0		J	
vara	vara	0		D	
    	vara	0		S	sg g
    	vara	0		S	sg n
    	vara	0		S	sg p
ja	ja	0		J	
kraami	kraam	0		S	adt
      	kraam	0		S	sg g
      	kraami	0		V	o
      	kraam	0		S	sg p
.	.			Z	
Arvati	arva	ti		V	ti
kõige	kõik	0		P	sg g
     	kõige	0		D	
haledega	####				
:	:			Z	
et	et	0		J	
se	####				
assi	ass	0		S	adt
    	ass	0		S	sg g
    	ass	0		S	sg p
jääb	jää	b		V	b
ni	####				
kaua	kaua	0		D	
pooleli	pooleli	0		D	
,	,			Z	
kuni	kuni	0		J	
    	kuni	0		K	
Ado	Ado	0		H	sg g
   	Ado	0		H	sg n
Melkson	####				
poolt	pool	t		N	sg p
     	pool	t		S	sg p
     	poolt	0		D	
     	poolt	0		K	
ülesse	ülesse	0		D	
antud	an=tu	d		S	pl n
     	and	tud		V	tud
     	antud	0		A	
     	antud	0		A	sg n
     	antud	d		A	pl n
tunnistused	tunnistus	d		S	pl n
:	:			Z	
Reet	Reet	0		H	sg n
Ansson	####				
,	,			Z	
Jaan	Jaan	0		H	sg n
    	jaan	0		S	sg n
    	jaan	0		Y	?
Talts	Talts	0		H	sg n
ja	ja	0		J	
Ann	Ann	0		H	sg n
Melkson	####				
saavad	saa	vad		V	vad
      	saav	d		A	pl n
      	saav	d		S	pl n
järele	järele	0		D	
      	järele	0		K	
kuulatud	kuula	tud		V	tud
        	kuula=tu	d		S	pl n
        	kuula=tud	0		A	
        	kuula=tud	0		A	sg n
        	kuula=tud	d		A	pl n
.	.			Z	
