Mats	Mats	0		H	sg n
    	mats	0		A	sg n
    	mats	0		S	sg n
rublai	####				
kaebtuse	####				
asjas	asi	s		S	sg in
Hans	Hans	0		H	sg n
Kaur	kaur	0		S	sg n
vastu	vastu	0		D	
     	vastu	0		K	
Tame	####				
püüdi	####				
varguse	vargus	0		S	sg g
pärast	pära	st		S	sg el
      	pärane	t		A	sg p
      	pärast	0		D	
      	pärast	0		K	
:	:			Z	
selle	see	0		P	sg g
     	sell	e		S	pl p
kogukonna	kogukond	0		S	sg g
kohtu	kohtu	0		V	o
     	kohus	0		S	sg g
otsuse	otsus	0		S	sg g
põhjusel	põhjus	l		S	sg ad
sest	see	st		P	sg el
    	sest	0		J	
19	19	0		N	?
Aprillist	aprill	st		S	sg el
s	s	0		Y	?
.	.			Z	
a.	a	0		Y	?
№	№	0		Y	?
91	91	0		N	?
all	all	0		D	
   	all	0		K	
sai	saa	i		V	s
   	sai	0		S	sg n
asi	asi	0		S	sg n
   	asi	0		V	o
keiserliku	keiserlik	0		A	sg g
kaela	kael	0		S	adt
     	kael	0		S	sg g
     	kaela	0		K	
     	kael	0		S	sg p
kohtu	kohtu	0		V	o
     	kohus	0		S	sg g
seletusele	seletus	le		S	sg all
saadetud	saat	tud		V	tud
        	saade=tu	d		S	pl n
        	saadetud	0		A	
        	saadetud	0		A	sg n
        	saadetud	d		A	pl n
.	.			Z	
et	et	0		J	
asi	asi	0		S	sg n
   	asi	0		V	o
tema	tema	0		P	sg g
    	tema	0		P	sg n
keiserliku	keiserlik	0		A	sg g
kohtu	kohtu	0		V	o
     	kohus	0		S	sg g
väriline	####				
ei	ei	0		D	
  	ei	0		V	neg
olnud	ol=nud	0		A	
     	ol=nud	0		A	sg n
     	ol=nud	d		A	pl n
     	ole	nud		V	nud
     	olnu	d		S	pl n
sai	saa	i		V	s
   	sai	0		S	sg n
eesseisva	ees_seisev	0		A	sg g
asi	asi	0		S	sg n
   	asi	0		V	o
kogukonna	kogukond	0		S	sg g
kohtu	kohtu	0		V	o
     	kohus	0		S	sg g
kätte	kätte	0		K	
     	käsi	tte		S	adt
tagasi	tagasi	0		D	
      	tagasi	0		K	
saatatud	####				
otsusele	otsus	le		S	sg all
,	,			Z	
_	_			Z	
eesseisva	ees_seisev	0		A	sg g
asi	asi	0		S	sg n
   	asi	0		V	o
sai	saa	i		V	s
   	sai	0		S	sg n
kohtu	kohtu	0		V	o
     	kohus	0		S	sg g
käijatel	käija	tel		S	pl ad
ette	ette	0		D	
    	ette	0		K	
    	esi	tte		S	adt
pandud	pan=du	d		S	pl n
      	pan=dud	0		A	
      	pan=dud	0		A	sg n
      	pan=dud	d		A	pl n
      	pane	dud		V	tud
ehk	ehk	0		D	
   	ehk	0		J	
kuulutatud	kuuluta	tud		V	tud
          	kuuluta=tu	d		S	pl n
          	kuuluta=tud	0		A	
          	kuuluta=tud	0		A	sg n
          	kuuluta=tud	d		A	pl n
.	.			Z	
Hans	Hans	0		H	sg n
Kaur	kaur	0		S	sg n
palus	palu	s		S	sg in
     	palu	s		V	s
Andrus	Andrus	0		H	sg n
Saarma	saarmas	0		S	sg g
kui	kui	0		D	
   	kui	0		J	
tunnistajad	tunnistaja	d		S	pl n
ülle	ülle	0		D	
kuulada	####				
,	,			Z	
kes	kes	0		P	pl n
   	kes	0		P	sg n
näinud	näi	nud		V	nud
      	näge	nud		V	nud
      	näi=nud	0		A	
      	näi=nud	0		A	sg n
      	näi=nud	d		A	pl n
      	näinu	d		S	pl n
et	et	0		J	
ta	tema	0		P	sg g
  	tema	0		P	sg n
vankre	####				
kodarat	kodar	t		S	sg p
ja	ja	0		J	
muudru	####				
Vilandist	####				
küünla	küünal	0		S	sg g
ladalt	####				
1897	1897	0		N	?
aastal	aasta	l		S	sg ad
toonud	too	nud		V	nud
      	too=nu	d		S	pl n
      	too=nud	0		A	
      	too=nud	0		A	sg n
      	too=nud	d		A	pl n
.	.			Z	
Andres	Andre	s		H	sg in
      	Andres	0		H	sg n
Saarma	saarmas	0		S	sg g
andis	and	is		V	s
tunnistust	tunnistus	t		S	sg p
ta	tema	0		P	sg g
  	tema	0		P	sg n
ula	ula	0		D	
   	ula	0		V	o
näinud	näi	nud		V	nud
      	näge	nud		V	nud
      	näi=nud	0		A	
      	näi=nud	0		A	sg n
      	näi=nud	d		A	pl n
      	näinu	d		S	pl n
,	,			Z	
et	et	0		J	
kaebatul	####				
metada	####				
ja	ja	0		J	
saare	saar	0		S	sg g
puust	puu	st		S	sg el
     	puune	t		A	sg p
vankre	####				
kedarat	####				
saanis	saan	s		S	sg in
olnud	ol=nud	0		A	
     	ol=nud	0		A	sg n
     	ol=nud	d		A	pl n
     	ole	nud		V	nud
     	olnu	d		S	pl n
kui	kui	0		D	
   	kui	0		J	
ta	tema	0		P	sg g
  	tema	0		P	sg n
küünla	küünal	0		S	sg g
ladalt	####				
tulnud	tul=nud	0		A	
      	tul=nud	0		A	sg n
      	tul=nud	d		A	pl n
      	tule	nud		V	nud
      	tulnu	d		S	pl n
ja	ja	0		J	
seda	see	da		P	sg p
ula	ula	0		D	
   	ula	0		V	o
kaevatu	kaeva=tu	0		S	sg g
       	kaeva=tu	0		S	sg n
nimelt	nimelt	0		D	
      	nimi	lt		S	sg abl
ütelnud	ütle	nud		V	nud
       	ütel=nu	d		S	pl n
       	ütel=nud	0		A	
       	ütel=nud	0		A	sg n
       	ütel=nud	d		A	pl n
et	et	0		J	
tal	tema	l		P	sg ad
vankre	####				
muudru	####				
ka	ka	0		D	
ühes	üks	s		N	sg in
    	üks	s		P	sg in
    	ühes	0		D	
    	ühes	0		K	
toonud	too	nud		V	nud
      	too=nu	d		S	pl n
      	too=nud	0		A	
      	too=nud	0		A	sg n
      	too=nud	d		A	pl n
ja	ja	0		J	
neid	neid	0		S	sg n
    	see	d		P	pl p
    	tema	d		P	pl p
vaadata	vaata	ta		V	da
       	vaata	ta		V	ta
käskinud	käski	nud		V	nud
        	käski=nu	d		S	pl n
        	käski=nud	0		A	
        	käski=nud	0		A	sg n
        	käski=nud	d		A	pl n
aga	aga	0		J	
tunistaja	####				
ei	ei	0		D	
  	ei	0		V	neg
hoole	hoog	le		S	sg all
     	hool	0		S	sg g
     	hoole	0		S	sg n
neid	neid	0		S	sg n
    	see	d		P	pl p
    	tema	d		P	pl p
mitte	mitte	0		D	
vaadatanud	####				
.	.			Z	
Mats	Mats	0		H	sg n
    	mats	0		A	sg n
    	mats	0		S	sg n
rubla	rubla	0		S	sg g
     	rubla	0		S	sg n
     	rubla	0		S	sg p
lubas	luba	s		V	s
nimelt	nimelt	0		D	
      	nimi	lt		S	sg abl
eesseisva	ees_seisev	0		A	sg g
aija	####				
pärast	pära	st		S	sg el
      	pärane	t		A	sg p
      	pärast	0		D	
      	pärast	0		K	
vanduda	vandu	da		V	da
,	,			Z	
et	et	0		J	
need	see	d		P	pl n
tammad	####				
nimelt	nimelt	0		D	
      	nimi	lt		S	sg abl
Kaur	kaur	0		S	sg n
äravarastanud	ära_varasta=nu	d		S	pl n
             	ära_varasta=nud	0		A	
             	ära_varasta=nud	0		A	sg n
             	ära_varasta=nud	d		A	pl n
on	ole	0		V	b
  	ole	0		V	vad
ja	ja	0		J	
palub	palu	b		V	b
et	et	0		J	
Kaur	kaur	0		S	sg n
ka	ka	0		D	
seda	see	da		P	sg p
maha	maha	0		D	
laseks	lask	ks		V	ks
kirjaadata	####				
et	et	0		J	
ta	tema	0		P	sg g
  	tema	0		P	sg n
vanub	vanu	b		V	b
et	et	0		J	
ta	tema	0		P	sg g
  	tema	0		P	sg n
neid	neid	0		S	sg n
    	see	d		P	pl p
    	tema	d		P	pl p
tamest	####				
tema	tema	0		P	sg g
    	tema	0		P	sg n
ei	ei	0		D	
  	ei	0		V	neg
hoole	hoog	le		S	sg all
     	hool	0		S	sg g
     	hoole	0		S	sg n
varastanud	varasta	nud		V	nud
          	varasta=nu	d		S	pl n
          	varasta=nud	0		A	
          	varasta=nud	0		A	sg n
          	varasta=nud	d		A	pl n
,	,			Z	
et	et	0		J	
siis	siis	0		D	
    	siis	0		J	
tunistajad	####				
ei	ei	0		D	
  	ei	0		V	neg
pruuki	pruuk	0		S	adt
      	pruuk	0		S	sg p
siis	siis	0		D	
    	siis	0		J	
asjas	asi	s		S	sg in
vaeva	vaev	0		S	adt
     	vaev	0		S	sg g
     	vaeva	0		V	o
     	vaev	0		S	sg p
näha	näge	a		V	da
.	.			Z	
Kaevatu	kaeva=tu	0		S	sg g
       	kaeva=tu	0		S	sg n
ei	ei	0		D	
  	ei	0		V	neg
hoole	hoog	le		S	sg all
     	hool	0		S	sg g
     	hoole	0		S	sg n
seda	see	da		P	sg p
tema	tema	0		P	sg g
    	tema	0		P	sg n
nimelt	nimelt	0		D	
      	nimi	lt		S	sg abl
maha	maha	0		D	
laskinud	####				
kirjutada	kirjuta	da		V	da
kaebaja	kaebaja	0		S	sg g
       	kaebaja	0		S	sg n
andis	and	is		V	s
tunnistajaks	tunnistaja	ks		S	sg tr
Toomas	Toomas	0		H	sg n
      	Toomas	s		H	sg in
      	too	mas		V	mas
mees	mees	0		S	sg n
    	mesi	s		S	sg in
Pöglist	####				
ja	ja	0		J	
valavanem	####				
Johann	Johann	0		H	sg n
Oiia	####				
ja	ja	0		J	
Märt	Märt	0		H	sg n
kirnu	kirn	0		S	adt
     	kirn	0		S	sg g
     	kirn	0		S	sg p
Kaarlist	Kaarel	st		H	sg el
        	Kaarli	st		H	sg el
.	.			Z	
arvatud	arva	tud		V	tud
       	arva=tu	d		S	pl n
       	arva=tud	0		A	
       	arva=tud	0		A	sg n
       	arva=tud	d		A	pl n
:	:			Z	
eesseisva	ees_seisev	0		A	sg g
asi	asi	0		S	sg n
   	asi	0		V	o
teiseks	teine	ks		O	sg tr
       	teine	ks		P	sg tr
       	teiseks	0		D	
kohtu	kohtu	0		V	o
     	kohus	0		S	sg g
päevaks	päev	ks		S	sg tr
jäta	jät	0		V	o
siis	siis	0		D	
    	siis	0		J	
ülesantud	üles_antud	0		A	
         	üles_antud	0		A	sg n
         	üles_antud	d		A	pl n
tunistajad	####				
ka	ka	0		D	
kohtu	kohtu	0		V	o
     	kohus	0		S	sg g
käijad	käija	d		S	pl n
ette	ette	0		D	
    	ette	0		K	
    	esi	tte		S	adt
telli	telli	0		V	o
ja	ja	0		J	
asi	asi	0		S	sg n
   	asi	0		V	o
otsusele	otsus	le		S	sg all
saada	saa	da		V	da
     	saat	0		V	o
     	saa	da		V	ta
.	.			Z	
Jaak	Jaak	0		H	sg n
    	jaak	0		S	sg n
Raekson	####				
[	[			Z	
allkiri	all_kiri	0		S	sg n
]	]			Z	
Johann	Johann	0		H	sg n
sinnule	####				
[	[			Z	
allkiri	all_kiri	0		S	sg n
]	]			Z	
Peeter	Peeter	0		H	sg n
Kõrge	kõrge	0		A	sg g
     	kõrge	0		A	sg n
XXX	XXX	0		O	?
   	XXX	0		Y	?
