tuli	tuli	0		S	sg n
    	tule	i		V	s
ede	####				
Jaan	Jaan	0		H	sg n
    	jaan	0		S	sg n
    	jaan	0		Y	?
Suitt	####				
ja	ja	0		J	
rääkis	rääki	s		V	s
seda	see	da		P	sg p
et	et	0		J	
tema	tema	0		P	sg g
    	tema	0		P	sg n
oma	oma	0		A	sg g
   	oma	0		D	
   	oma	0		P	sg g
   	oma	0		S	sg g
   	oma	0		V	o
   	oma	0		A	sg n
   	oma	0		A	sg p
   	oma	0		P	sg n
   	oma	0		P	sg p
   	oma	0		S	sg n
   	oma	0		S	sg p
Oonni	####				
last	laps	t		S	sg p
    	last	0		S	sg n
mis	mis	0		P	pl n
   	mis	0		P	sg n
on	ole	0		V	b
  	ole	0		V	vad
sest	see	st		P	sg el
    	sest	0		J	
Juhann	####				
Suittist	####				
maha	maha	0		D	
jenut	####				
,	,			Z	
nende	see	de		P	pl g
     	tema	de		P	pl g
est	####				
oolt	####				
kanda	kand	0		S	adt
     	kand	a		V	da
     	kand	0		S	sg p
ja	ja	0		J	
neid	neid	0		S	sg n
    	see	d		P	pl p
    	tema	d		P	pl p
toita	toit	a		V	da
seni	seni	0		D	
kui	kui	0		D	
   	kui	0		J	
nemad	tema	d		P	pl n
Mehe	mees	0		S	sg g
arus	aru	s		S	sg in
saavat	saa	vat		V	vat
      	saav	t		A	sg p
      	saav	t		S	sg p
ja	ja	0		J	
ise	ise	0		A	
   	ise	0		D	
   	ise	0		P	pl n
   	ise	0		P	sg n
akavat	####				
ennast	ise	t		P	sg p
toita	toit	a		V	da
,	,			Z	
selle	see	0		P	sg g
     	sell	e		S	pl p
mõistuse	mõistus	0		S	sg g
jege	####				
kuidas	kuidas	0		D	
valla	vald	0		S	sg g
     	valla	0		D	
kohus	kohu	s		V	s
     	kohus	0		S	sg n
on	ole	0		V	b
  	ole	0		V	vad
mõistnut	mõist=nu	t		S	sg p
et	et	0		J	
tema	tema	0		P	sg g
    	tema	0		P	sg n
peab	pida	b		V	b
poole	pool	0		N	sg g
     	pool	0		S	sg g
     	pool	e		S	pl p
     	poole	0		K	
     	poole	0		S	sg n
Aasta	aasta	0		S	sg g
     	aasta	0		S	sg n
oma	oma	0		A	sg g
   	oma	0		D	
   	oma	0		P	sg g
   	oma	0		S	sg g
   	oma	0		V	o
   	oma	0		A	sg n
   	oma	0		A	sg p
   	oma	0		P	sg n
   	oma	0		P	sg p
   	oma	0		S	sg n
   	oma	0		S	sg p
est	####				
ja	ja	0		J	
poole	pool	0		N	sg g
     	pool	0		S	sg g
     	pool	e		S	pl p
     	poole	0		K	
     	poole	0		S	sg n
aasta	aasta	0		S	sg g
     	aasta	0		S	sg n
nende	see	de		P	pl g
     	tema	de		P	pl g
vaeste	vaene	te		A	pl g
      	vaene	te		S	pl g
Laste	laps	te		S	pl g
     	last	e		S	pl p
est	####				
muret	mure	t		S	sg p
kannap	####				
,	,			Z	
kui	kui	0		D	
   	kui	0		J	
tema	tema	0		P	sg g
    	tema	0		P	sg n
oma	oma	0		A	sg g
   	oma	0		D	
   	oma	0		P	sg g
   	oma	0		S	sg g
   	oma	0		V	o
   	oma	0		A	sg n
   	oma	0		A	sg p
   	oma	0		P	sg n
   	oma	0		P	sg p
   	oma	0		S	sg n
   	oma	0		S	sg p
teotus	teotus	0		S	sg n
teieste	####				
teidat	####				
moistas	####				
kogukonna	kogukond	0		S	sg g
kohus	kohu	s		V	s
     	kohus	0		S	sg n
teda	tema	da		P	sg p
mitte	mitte	0		D	
liisu	liisk	0		S	sg g
     	liisu	0		V	o
alla	alla	0		D	
    	alla	0		K	
perida	####				
.	.			Z	
kogukonna	kogukond	0		S	sg g
kohtu	kohtu	0		V	o
     	kohus	0		S	sg g
pea	pea	0		D	
   	pea	0		S	sg g
   	pida	0		V	o
   	pea	0		S	sg n
Hinn	####				
Läes	####				
XXX	XXX	0		O	?
   	XXX	0		Y	?
d	d	0		Y	?
""""	""""			Z	
-	-			Z	
d	d	0		Y	?
""""	""""			Z	
-	-			Z	
mees	mees	0		S	sg n
    	mesi	s		S	sg in
Juhann	####				
Pull	pull	0		A	sg n
    	pull	0		S	sg n
XXX	XXX	0		O	?
   	XXX	0		Y	?
d	d	0		Y	?
""""	""""			Z	
-	-			Z	
d	d	0		Y	?
""""	""""			Z	
-	-			Z	
mees	mees	0		S	sg n
    	mesi	s		S	sg in
Jacob	Jacob	0		H	sg n
Allas	Alla	s		H	sg in
XXX	XXX	0		O	?
   	XXX	0		Y	?
