oli	ole	i		V	s
kogukonna	kogukond	0		S	sg g
kohus	kohu	s		V	s
     	kohus	0		S	sg n
koos	koos	0		D	
    	koos	0		K	
    	koos	0		S	sg n
    	kubu	s		S	sg in
,	,			Z	
ja	ja	0		J	
kaevas	kaeva	s		V	s
Kihnu	Kihnu	0		H	adt
     	Kihnu	0		H	sg g
     	kihn	0		S	adt
     	kihn	0		S	sg g
     	kihnu	0		G	
     	Kihnu	0		H	sg n
     	kihn	0		S	sg p
kordzi	####				
naine	naine	0		S	sg n
Madli	####				
Kurrol	####				
et	et	0		J	
tema	tema	0		P	sg g
    	tema	0		P	sg n
aidast	ait	st		S	sg el
kirstu	kirst	0		S	adt
      	kirst	0		S	sg g
      	kirst	0		S	sg p
sest	see	st		P	sg el
    	sest	0		J	
2	2	0		N	?
rub	####				
40	40	0		N	?
Cop	####				
ärra	####				
varastut	####				
,	,			Z	
seda	see	da		P	sg p
raha	raha	0		S	sg g
    	raha	0		S	sg n
    	raha	0		S	sg p
on	ole	0		V	b
  	ole	0		V	vad
varastan	varasta	n		V	n
Josepi	####				
Türgi	Türgi	0		H	sg g
     	Türgi	0		H	sg n
     	türgi	0		G	
poig	####				
Jaan	Jaan	0		H	sg n
    	jaan	0		S	sg n
    	jaan	0		Y	?
ja	ja	0		J	
kordzi	####				
naine	naine	0		S	sg n
tema	tema	0		P	sg g
    	tema	0		P	sg n
sealt	sealt	0		D	
     	siga	lt		A	sg abl
     	siga	lt		S	sg abl
varguse	vargus	0		S	sg g
juurest	juur	st		S	sg el
       	juurest	0		K	
kede	####				
saanut	saanu	t		S	sg p
kui	kui	0		D	
   	kui	0		J	
se	####				
poiss	poiss	0		S	sg n
kirstu	kirst	0		S	adt
      	kirst	0		S	sg g
      	kirst	0		S	sg p
juures	juur	s		S	sg in
      	juures	0		D	
      	juures	0		K	
kabin	kabin	0		S	sg n
,	,			Z	
tehti	tege	ti		V	ti
valla	vald	0		S	sg g
     	valla	0		D	
kohtu	kohtu	0		V	o
     	kohus	0		S	sg g
est	####				
avalikus	avalik	s		A	sg in
ja	ja	0		J	
poiss	poiss	0		S	sg n
pandi	pant	0		S	sg g
     	panti	0		V	o
     	pane	di		V	ti
üles	üles	0		D	
tunnistama	tunnista	ma		V	ma
.	.			Z	
selle	see	0		P	sg g
     	sell	e		S	pl p
peal	pea	l		S	sg ad
    	peal	0		D	
    	peal	0		K	
mõistis	mõist	is		V	s
valla	vald	0		S	sg g
     	valla	0		D	
kohus	kohu	s		V	s
     	kohus	0		S	sg n
selle	see	0		P	sg g
     	sell	e		S	pl p
poisil	poiss	l		S	sg ad
Jaan	Jaan	0		H	sg n
    	jaan	0		S	sg n
    	jaan	0		Y	?
Türkil	####				
/	/			Z	
2	2	0		N	?
/	/			Z	
kaks	kaks	0		N	sg n
rubla	rubla	0		S	sg g
     	rubla	0		S	sg n
     	rubla	0		S	sg p
trapi	trapp	0		S	sg g
üks	üks	0		N	sg n
   	üks	0		P	sg n
rubla	rubla	0		S	sg g
     	rubla	0		S	sg n
     	rubla	0		S	sg p
valla	vald	0		S	sg g
     	valla	0		D	
laeka	laegas	0		S	adt
     	laegas	0		S	sg g
,	,			Z	
ja	ja	0		J	
teine	teine	0		O	sg n
     	teine	0		P	sg n
rubla	rubla	0		S	sg g
     	rubla	0		S	sg n
     	rubla	0		S	sg p
kõrtzi	####				
naisel	naine	l		S	sg ad
tema	tema	0		P	sg g
    	tema	0		P	sg n
vaeva	vaev	0		S	adt
     	vaev	0		S	sg g
     	vaeva	0		V	o
     	vaev	0		S	sg p
ja	ja	0		J	
aija	####				
vidu	vidu	0		S	sg g
    	vidu	0		S	sg n
    	vidu	0		S	sg p
est	####				
.	.			Z	
valla	vald	0		S	sg g
     	valla	0		D	
talitaja	talitaja	0		S	sg g
        	talitaja	0		S	sg n
Jaak	Jaak	0		H	sg n
    	jaak	0		S	sg n
Kosser	####				
XXX	XXX	0		O	?
   	XXX	0		Y	?
d	d	0		Y	?
""""	""""			Z	
pea	pea	0		D	
   	pea	0		S	sg g
   	pida	0		V	o
   	pea	0		S	sg n
kohtumees	kohtu_mees	0		S	sg n
Lia	####				
Palu	pala	u		S	pl p
    	palu	0		S	sg g
    	palu	0		V	o
    	palu	0		S	sg n
    	palu	0		S	sg p
XXX	XXX	0		O	?
   	XXX	0		Y	?
d	d	0		Y	?
""""	""""			Z	
kohtu	kohtu	0		V	o
     	kohus	0		S	sg g
mees	mees	0		S	sg n
    	mesi	s		S	sg in
Jaan	Jaan	0		H	sg n
    	jaan	0		S	sg n
    	jaan	0		Y	?
Kiegejon	####				
XXX	XXX	0		O	?
   	XXX	0		Y	?
d	d	0		Y	?
""""	""""			Z	
d	d	0		Y	?
""""	""""			Z	
Jacob	Jacob	0		H	sg n
Allas	Alla	s		H	sg in
XXX	XXX	0		O	?
   	XXX	0		Y	?
