see	see	0		P	sg n
kohtumees	kohtu_mees	0		S	sg n
Jaak	Jaak	0		H	sg n
    	jaak	0		S	sg n
Kivisso	####				
annab	and	b		V	b
annab	and	b		V	b
nüüd	nüüd	0		D	
see	see	0		P	sg n
üle	üle	0		D	
   	üle	0		K	
teadust	teadus	t		S	sg p
,	,			Z	
et	et	0		J	
tema	tema	0		P	sg g
    	tema	0		P	sg n
käsu	käsk	0		S	sg g
järel	järel	0		D	
     	järel	0		K	
jooondegade	####				
tooli	tool	0		S	adt
     	tool	0		S	sg g
     	tool	0		S	sg p
talul	talu	l		S	sg ad
läinud	läinu	d		S	pl n
      	läinud	0		A	
      	läinud	0		A	sg n
      	läinud	d		A	pl n
      	mine	nud		V	nud
,	,			Z	
seal	seal	0		D	
    	siga	l		A	sg ad
    	siga	l		S	sg ad
aga	aga	0		J	
ühtegi	ühte	0	gi	D	
      	üks	0	gi	N	adt
      	üks	0	gi	P	adt
      	ühe	0	gi	S	sg g
      	üks	0	gi	N	sg p
      	üks	0	gi	P	sg p
püüd	püü	d		S	pl n
    	püüd	0		S	sg n
    	püü	d		S	sg p
ei	ei	0		D	
  	ei	0		V	neg
ole	ole	0		V	o
lõidnud	####				
,	,			Z	
sest	see	st		P	sg el
    	sest	0		J	
et	et	0		J	
need	see	d		P	pl n
mõtsavahi	####				
arvamise	arvamine	0		S	sg g
järel	järel	0		D	
     	järel	0		K	
varastatud	varasta	tud		V	tud
          	varastatu	d		S	pl n
          	varastatud	0		A	
          	varastatud	0		A	sg n
          	varastatud	d		A	pl n
puud	puu	d		S	pl n
    	puud	0		S	sg n
    	puu	d		S	sg p
juba	juba	0		D	
ammuuki	####				
ühe	üks	0		N	sg g
   	üks	0		P	sg g
   	ühe	0		S	sg n
use	####				
lingis	link	s		S	sg in
pandud	pan=du	d		S	pl n
      	pan=dud	0		A	
      	pan=dud	0		A	sg n
      	pan=dud	d		A	pl n
      	pane	dud		V	tud
on	ole	0		V	b
  	ole	0		V	vad
.	.			Z	
5.	5.	0		O	?
sai	saa	i		V	s
   	sai	0		S	sg n
sulase	sulane	0		S	sg g
Peeter	Peeter	0		H	sg n
raua	raud	0		S	sg g
käest	käest	0		K	
     	käsi	st		S	sg el
küstud	####				
,	,			Z	
kas	kas	0		D	
tema	tema	0		P	sg g
    	tema	0		P	sg n
mõtsavahel	####				
Johann	Johann	0		H	sg n
Kepnikkul	####				
üles	üles	0		D	
annud	####				
,	,			Z	
et	et	0		J	
tema	tema	0		P	sg g
    	tema	0		P	sg n
peremees	pere_mees	0		S	sg n
Hans	Hans	0		H	sg n
Lepp	lepp	0		S	sg n
mineva	minev	0		A	sg g
kevade	kevad	0		S	sg g
      	kevade	0		S	sg g
      	kevade	0		S	sg n
12	12	0		N	?
koormad	koorem	d		S	pl n
       	koorma	d		V	d
kuseroovikud	kuse_roovik	d		S	pl n
kroonu	kroonu	0		S	sg g
      	kroonu	0		S	sg n
mõtsast	####				
varastanud	varasta	nud		V	nud
          	varasta=nu	d		S	pl n
          	varasta=nud	0		A	
          	varasta=nud	0		A	sg n
          	varasta=nud	d		A	pl n
on	ole	0		V	b
  	ole	0		V	vad
?	?			Z	
vastas	vasta	s		V	s
      	vastas	0		D	
      	vastas	0		K	
seesama	see_sama	0		P	sg n
,	,			Z	
et	et	0		J	
tema	tema	0		P	sg g
    	tema	0		P	sg n
seda	see	da		P	sg p
asja	asi	0		S	adt
    	asi	0		S	sg g
    	asi	0		S	sg p
küll	küll	0		D	
    	küll	0		S	sg n
viha	viht	0		S	sg g
    	viha	0		A	sg g
    	viha	0		A	sg n
    	viha	0		A	sg p
    	viha	0		S	sg g
    	viha	0		S	sg n
    	viha	0		S	sg p
pärast	pära	st		S	sg el
      	pärane	t		A	sg p
      	pärast	0		D	
      	pärast	0		K	
on	ole	0		V	b
  	ole	0		V	vad
üles	üles	0		D	
annud	####				
.	.			Z	
seepeale	see_peale	0		D	
vastas	vasta	s		V	s
      	vastas	0		D	
      	vastas	0		K	
Hans	Hans	0		H	sg n
Sepp	sepp	0		S	sg n
,	,			Z	
et	et	0		J	
tema	tema	0		P	sg g
    	tema	0		P	sg n
kedagi	keegi	dagi		P	sg p
roovigi	roov	0	gi	S	adt
       	roov	0	gi	S	sg g
       	roovi	0	gi	V	o
       	roov	0	gi	S	sg p
keelatud	keela	tud		V	tud
        	keelatu	d		S	pl n
        	keelatud	0		A	
        	keelatud	0		A	sg n
        	keelatud	d		A	pl n
kroonumõtsast	####				
ei	ei	0		D	
  	ei	0		V	neg
on	ole	0		V	b
  	ole	0		V	vad
raggunud	####				
,	,			Z	
vaid	vaid	0		D	
    	vaid	0		J	
selle	see	0		P	sg g
     	sell	e		S	pl p
uue	uus	0		A	sg g
sihi	siht	0		S	sg g
    	sihti	0		V	o
ragumise	####				
ajal	aeg	l		S	sg ad
    	ajal	0		K	
VanaKariste	####				
ning	ning	0		J	
vodivilt	####				
mõtsa	####				
vahel	vahe	l		S	sg ad
     	vahel	0		D	
     	vahel	0		K	
_	_			Z	
mõned	mõni	d		P	pl n
teevad	tege	vad		V	vad
korjäänud	####				
ning	ning	0		J	
mõtsavahi	####				
Johann	Johann	0		H	sg n
Kepnikku	####				
loaga	luba	ga		S	sg kom
     	luga	ga		S	sg kom
koju	kodu	0		S	adt
viinud	vii	nud		V	nud
      	vii=nu	d		S	pl n
      	vii=nud	0		A	
      	vii=nud	0		A	sg n
      	vii=nud	d		A	pl n
.	.			Z	
ka	ka	0		D	
ütles	ütle	s		V	s
Hans	Hans	0		H	sg n
Sepp	sepp	0		S	sg n
et	et	0		J	
üleültse	####				
Peeter	Peeter	0		H	sg n
raua	raud	0		S	sg g
üleandmist	üle_andmine	t		S	sg p
ei	ei	0		D	
  	ei	0		V	neg
või	või	0		S	sg g
   	või	0		V	o
   	või	0		D	
   	või	0		J	
   	või	0		S	sg n
tõeks	tõde	ks		S	sg tr
     	tõsi	ks		S	sg tr
kinnitada	kinnita	da		V	da
,	,			Z	
sest	see	st		P	sg el
    	sest	0		J	
et	et	0		J	
nemad	tema	d		P	pl n
juba	juba	0		D	
ammugi	ammugi	0		D	
ühetõisega	####				
suure	suur	0		A	sg g
viha	viht	0		S	sg g
    	viha	0		A	sg g
    	viha	0		A	sg n
    	viha	0		A	sg p
    	viha	0		S	sg g
    	viha	0		S	sg n
    	viha	0		S	sg p
sees	sees	0		D	
    	sees	0		K	
on	ole	0		V	b
  	ole	0		V	vad
.	.			Z	
Mõistetud	mõist	tud		V	tud
         	mõiste=tu	d		S	pl n
         	mõiste=tud	0		A	
         	mõiste=tud	0		A	sg n
         	mõiste=tud	d		A	pl n
nende	see	de		P	pl g
     	tema	de		P	pl g
puuvarguse	puu_vargus	0		S	sg g
asjade	asi	de		S	pl g
üle	üle	0		D	
   	üle	0		K	
mõtsahärra	####				
von	####				
Brookil	####				
üks	üks	0		N	sg n
   	üks	0		P	sg n
Protokolli_kiri	####				
saada	saa	da		V	da
     	saat	0		V	o
     	saa	da		V	ta
.	.			Z	
