astus	astu	s		V	s
ette	ette	0		D	
    	ette	0		K	
    	esi	tte		S	adt
Sindist	Sindi	st		H	sg el
Pussi	puss	0		S	adt
     	puss	0		S	sg g
     	puss	0		S	sg p
Juri	Juri	0		H	sg g
    	Juri	0		H	sg n
Pusse	puss	e		S	pl p
ja	ja	0		J	
kaebas	kaeba	s		V	s
,	,			Z	
et	et	0		J	
tema	tema	0		P	sg g
    	tema	0		P	sg n
on	ole	0		V	b
  	ole	0		V	vad
Juun	####				
kuul	kuu	l		S	sg ad
    	kuul	0		S	sg n
enne	enne	0		D	
    	enne	0		K	
    	enne	0		S	sg n
heina	hein	0		S	adt
     	hein	0		S	sg g
     	hein	0		S	sg p
tegemist	tegemine	t		S	sg p
ooma	####				
aasa	aas	0		S	adt
    	aas	0		S	sg g
    	aasa	0		V	o
    	aas	0		S	sg p
heinamaa	heina_maa	0		S	sg g
        	heina_maa	0		S	sg n
pealt	pea	lt		S	sg abl
     	pealt	0		D	
     	pealt	0		K	
Jaan	Jaan	0		H	sg n
    	jaan	0		S	sg n
    	jaan	0		Y	?
Elendi	####				
2	2	0		N	?
hobust	hobu	st		S	sg el
      	hobune	t		S	sg p
kaks	kaks	0		N	sg n
korda	kord	0		S	adt
     	korda	0		V	o
     	kord	0		S	sg p
2	2	0		N	?
lehma	lehm	0		S	adt
     	lehm	0		S	sg g
     	lehm	0		S	sg p
ja	ja	0		J	
3	3	0		N	?
härga	härg	0		S	adt
     	härg	0		S	sg p
ühe	üks	0		N	sg g
   	üks	0		P	sg g
   	ühe	0		S	sg n
korra	kord	0		S	sg g
ja	ja	0		J	
7	7	0		N	?
karilooma	kari_loom	0		S	adt
         	kari_loom	0		S	sg g
         	kari_loom	0		S	sg p
ühe	üks	0		N	sg g
   	üks	0		P	sg g
   	ühe	0		S	sg n
korra	kord	0		S	sg g
ning	ning	0		J	
Nerju	####				
Jakob	Jakob	0		H	sg n
Hanson	####				
2	2	0		N	?
hobust	hobu	st		S	sg el
      	hobune	t		S	sg p
ühe	üks	0		N	sg g
   	üks	0		P	sg g
   	ühe	0		S	sg n
korra	kord	0		S	sg g
ja	ja	0		J	
Pulli	pull	0		A	adt
     	pull	0		A	sg g
     	pull	0		S	adt
     	pull	0		S	sg g
     	pulli	0		V	o
     	pull	0		A	sg p
     	pull	0		S	sg p
Mihkel	Mihkel	0		H	sg n
      	mihkel	0		A	sg n
      	mihkel	0		S	sg n
Jürjensoni	####				
ühe	üks	0		N	sg g
   	üks	0		P	sg g
   	ühe	0		S	sg n
hobuse	hobune	0		S	sg g
2	2	0		N	?
korda	kord	0		S	adt
     	korda	0		V	o
     	kord	0		S	sg p
kinni	kinni	0		D	
võtnud	võt	nud		V	nud
      	võt=nu	d		S	pl n
      	võt=nud	0		A	
      	võt=nud	0		A	sg n
      	võt=nud	d		A	pl n
ja	ja	0		J	
nõuad	nõud	d		V	d
ooma	####				
kahjutasumist	kahju_tasumine	t		S	sg p
nimetud	nimetu	d		A	pl n
looma	loo	ma		V	ma
     	loom	0		S	adt
     	loom	0		S	sg g
     	loom	0		S	sg p
oomanikude	####				
käest	käest	0		K	
     	käsi	st		S	sg el
100	100	0		N	?
puuda	puud	0		S	adt
     	puud	0		S	sg g
     	puud	0		S	sg p
heinu	hein	u		S	pl p
,	,			Z	
nagu	nagu	0		D	
    	nagu	0		J	
seda	see	da		P	sg p
kahju	kahi	0		S	adt
     	kahi	0		S	sg g
     	kahi	0		S	sg p
     	kahju	0		S	sg g
     	kahju	0		S	sg n
     	kahju	0		S	sg p
kohtumees	kohtu_mees	0		S	sg n
Tõnis	Tõnis	0		H	sg n
Kuller	kuller	0		S	sg n
üllevaadanud	####				
on	ole	0		V	b
  	ole	0		V	vad
ja	ja	0		J	
peale	pea	le		S	sg all
     	peale	0		D	
     	peale	0		K	
selle	see	0		P	sg g
     	sell	e		S	pl p
veel	veel	0		D	
    	vesi	l		S	sg ad
seadusliku	seaduslik	0		A	sg g
pantimise	panti=mine	0		S	sg g
raha	raha	0		S	sg g
    	raha	0		S	sg n
    	raha	0		S	sg p
.	.			Z	
et	et	0		J	
tema	tema	0		P	sg g
    	tema	0		P	sg n
kahju	kahi	0		S	adt
     	kahi	0		S	sg g
     	kahi	0		S	sg p
     	kahju	0		S	sg g
     	kahju	0		S	sg n
     	kahju	0		S	sg p
tõest	tõene	t		A	sg p
     	tõde	st		S	sg el
     	tõsi	st		S	sg el
suur	suur	0		A	sg n
on	ole	0		V	b
  	ole	0		V	vad
,	,			Z	
olla	ole	a		V	da
selleks	see	ks		P	sg tr
selgeste	####				
aru	aru	0		S	sg g
   	aru	0		S	sg n
   	aru	0		S	sg p
saada	saa	da		V	da
     	saat	0		V	o
     	saa	da		V	ta
et	et	0		J	
tema	tema	0		P	sg g
    	tema	0		P	sg n
selle	see	0		P	sg g
     	sell	e		S	pl p
heinamaa	heina_maa	0		S	sg g
        	heina_maa	0		S	sg n
pealt	pea	lt		S	sg abl
     	pealt	0		D	
     	pealt	0		K	
1884	1884	0		N	?
aastal	aasta	l		S	sg ad
40	40	0		N	?
saadu	saad	0		S	adt
     	saadu	0		S	sg g
     	saadud	0		A	sg g
     	saad	0		S	sg p
     	saadu	0		S	sg n
heinu	hein	u		S	pl p
saanud	saa	nud		V	nud
      	saa=nud	0		A	
      	saa=nud	0		A	sg n
      	saa=nud	d		A	pl n
      	saanu	d		S	pl n
,	,			Z	
see	see	0		P	sg n
aasta	aasta	0		S	sg g
     	aasta	0		S	sg n
aga	aga	0		J	
ainult	ainu	lt		S	sg abl
      	ainult	0		D	
6	6	0		N	?
saadu	saad	0		S	adt
     	saadu	0		S	sg g
     	saadud	0		A	sg g
     	saad	0		S	sg p
     	saadu	0		S	sg n
.	.			Z	
kohtumees	kohtu_mees	0		S	sg n
Tõnis	Tõnis	0		H	sg n
Kuller	kuller	0		S	sg n
ütleb	ütle	b		V	b
,	,			Z	
et	et	0		J	
tema	tema	0		P	sg g
    	tema	0		P	sg n
on	ole	0		V	b
  	ole	0		V	vad
Juun	####				
kuu	kuu	0		S	sg g
   	kuu	0		S	sg n
sees	sees	0		D	
    	sees	0		K	
selle	see	0		P	sg g
     	sell	e		S	pl p
Juri	Juri	0		H	sg g
    	Juri	0		H	sg n
Pusse	puss	e		S	pl p
,	,			Z	
loomadest	loom	dest		S	pl el
ära	ära	0		D	
   	ära	0		V	neg o
sõtkutud	sõtku	tud		V	tud
        	sõtku=tu	d		S	pl n
        	sõtku=tud	0		A	
        	sõtku=tud	0		A	sg n
        	sõtku=tud	d		A	pl n
heinamaa	heina_maa	0		S	sg g
        	heina_maa	0		S	sg n
järel	järel	0		D	
     	järel	0		K	
vaadanud	vaata	nud		V	nud
        	vaada=nu	d		S	pl n
        	vaada=nud	0		A	
        	vaada=nud	0		A	sg n
        	vaada=nud	d		A	pl n
ja	ja	0		J	
arvab	arva	b		V	b
tema	tema	0		P	sg g
    	tema	0		P	sg n
kahju	kahi	0		S	adt
     	kahi	0		S	sg g
     	kahi	0		S	sg p
     	kahju	0		S	sg g
     	kahju	0		S	sg n
     	kahju	0		S	sg p
vähemalt	vähem	lt		C	sg abl
        	vähemalt	0		D	
50	50	0		N	?
puuda	puud	0		S	adt
     	puud	0		S	sg g
     	puud	0		S	sg p
heinu	hein	u		S	pl p
suure	suur	0		A	sg g
olevat	ole	vat		V	vat
      	olev	t		A	sg p
      	olev	t		S	sg p
.	.			Z	
kutsumise	kutsumine	0		S	sg g
peale	pea	le		S	sg all
     	peale	0		D	
     	peale	0		K	
olid	ole	id		V	sid
ette	ette	0		D	
    	ette	0		K	
    	esi	tte		S	adt
tulnud	tul=nud	0		A	
      	tul=nud	0		A	sg n
      	tul=nud	d		A	pl n
      	tule	nud		V	nud
      	tulnu	d		S	pl n
:	:			Z	
Jaan	Jaan	0		H	sg n
    	jaan	0		S	sg n
    	jaan	0		Y	?
Elend	####				
,	,			Z	
Jakob	Jakob	0		H	sg n
Hanson	####				
ja	ja	0		J	
Mihkel	Mihkel	0		H	sg n
      	mihkel	0		A	sg n
      	mihkel	0		S	sg n
Jürjenson	####				
ja	ja	0		J	
salganud	####				
mitte	mitte	0		D	
seda	see	da		P	sg p
et	et	0		J	
nende	see	de		P	pl g
     	tema	de		P	pl g
loomad	loom	d		S	pl n
Juri	Juri	0		H	sg g
    	Juri	0		H	sg n
Pusse	puss	e		S	pl p
heinamaas	heina_maa	s		S	sg in
käinud	käi	nud		V	nud
      	käi=nud	0		A	
      	käi=nud	0		A	sg n
      	käi=nud	d		A	pl n
      	käinu	d		S	pl n
,	,			Z	
on	ole	0		V	b
  	ole	0		V	vad
vaid	vaid	0		D	
    	vaid	0		J	
püüdsid	püüd	sid		V	sid
Juri	Juri	0		H	sg g
    	Juri	0		H	sg n
Pussega	####				
lepitust	lepitus	t		S	sg p
teha	tege	a		V	da
,	,			Z	
mis	mis	0		P	pl n
   	mis	0		P	sg n
aga	aga	0		J	
mitte	mitte	0		D	
ei	ei	0		D	
  	ei	0		V	neg
sündinud	sündi	nud		V	nud
        	sündinu	d		S	pl n
        	sündinud	0		A	
        	sündinud	0		A	sg n
        	sündinud	d		A	pl n
.	.			Z	
(	(			Z	
astusid	astu	sid		V	sid
välja	välja	0		D	
     	välja	0		V	o
     	väli	0		S	adt
     	väli	0		S	sg g
     	väli	0		S	sg p
)	)			Z	
Sai	saa	i		V	s
   	sai	0		S	sg n
mõistetud	mõist	tud		V	tud
         	mõiste=tu	d		S	pl n
         	mõiste=tud	0		A	
         	mõiste=tud	0		A	sg n
         	mõiste=tud	d		A	pl n
:	:			Z	
et	et	0		J	
maksavad	maks	vad		V	vad
Jaan	Jaan	0		H	sg n
    	jaan	0		S	sg n
    	jaan	0		Y	?
Elend	####				
,	,			Z	
Jakob	Jakob	0		H	sg n
Hanson	####				
ja	ja	0		J	
Mihkel	Mihkel	0		H	sg n
      	mihkel	0		A	sg n
      	mihkel	0		S	sg n
Jürjenson	####				
Juri	Juri	0		H	sg g
    	Juri	0		H	sg n
Pusse	puss	e		S	pl p
50	50	0		N	?
puuda	puud	0		S	adt
     	puud	0		S	sg g
     	puud	0		S	sg p
heinu	hein	u		S	pl p
kahju	kahi	0		S	adt
     	kahi	0		S	sg g
     	kahi	0		S	sg p
     	kahju	0		S	sg g
     	kahju	0		S	sg n
     	kahju	0		S	sg p
tasumiseks	tasumine	ks		S	sg tr
ja	ja	0		J	
nimelt	nimelt	0		D	
      	nimi	lt		S	sg abl
iga	iga	0		P	sg g
   	iga	0		P	sg n
   	iga	0		P	sg p
   	iga	0		S	sg n
   	iga	0		S	sg p
looma	loo	ma		V	ma
     	loom	0		S	adt
     	loom	0		S	sg g
     	loom	0		S	sg p
pealt	pea	lt		S	sg abl
     	pealt	0		D	
     	pealt	0		K	
3	3	0		N	?
1	1	0		N	?
/	/			Z	
3	3	0		N	?
puud	puu	d		S	pl n
    	puud	0		S	sg n
    	puu	d		S	sg p
heinu	hein	u		S	pl p
.	.			Z	
Jaan	Jaan	0		H	sg n
    	jaan	0		S	sg n
    	jaan	0		Y	?
Elend	####				
maksab	maks	b		V	b
11	11	0		N	?
looma	loo	ma		V	ma
     	loom	0		S	adt
     	loom	0		S	sg g
     	loom	0		S	sg p
eest	eest	0		D	
    	eest	0		K	
    	esi	st		S	sg el
37	37	0		N	?
puuda	puud	0		S	adt
     	puud	0		S	sg g
     	puud	0		S	sg p
.	.			Z	
Jakob	Jakob	0		H	sg n
Hanson	####				
2	2	0		N	?
looma	loo	ma		V	ma
     	loom	0		S	adt
     	loom	0		S	sg g
     	loom	0		S	sg p
seest	seest	0		D	
     	seest	0		K	
6	6	0		N	?
½	####				
puuda	puud	0		S	adt
     	puud	0		S	sg g
     	puud	0		S	sg p
ja	ja	0		J	
Mihkel	Mihkel	0		H	sg n
      	mihkel	0		A	sg n
      	mihkel	0		S	sg n
Jürjenson	####				
2	2	0		N	?
looma	loo	ma		V	ma
     	loom	0		S	adt
     	loom	0		S	sg g
     	loom	0		S	sg p
eest	eest	0		D	
    	eest	0		K	
    	esi	st		S	sg el
6	6	0		N	?
½	####				
puuda	puud	0		S	adt
     	puud	0		S	sg g
     	puud	0		S	sg p
