Võlla	võllas	0		S	sg g
vallast	vald	st		S	sg el
Tani	####				
Jaan	Jaan	0		H	sg n
    	jaan	0		S	sg n
    	jaan	0		Y	?
Karu	karu	0		S	sg g
    	karu	0		S	sg n
    	karu	0		S	sg p
nõuab	nõud	b		V	b
ooma	####				
isa	isa	0		S	sg g
   	isa	0		S	sg n
   	isa	0		S	sg p
kohta	koht	0		S	adt
     	kohta	0		K	
     	kohta	0		V	o
     	koht	0		S	sg p
Jaagu	Jaak	0		H	sg g
     	jaak	0		S	sg g
Talu	talu	0		S	sg g
    	talu	0		V	o
    	talu	0		S	sg n
    	talu	0		S	sg p
kätte	kätte	0		K	
     	käsi	tte		S	adt
saada	saa	da		V	da
     	saat	0		V	o
     	saa	da		V	ta
mis	mis	0		P	pl n
   	mis	0		P	sg n
na	na	0		D	
35-aastast	35_aastane	t		A	sg p
Jaagu	Jaak	0		H	sg g
     	jaak	0		S	sg g
Madise	Madis	0		H	sg g
      	madis	0		S	sg g
kätte	kätte	0		K	
     	käsi	tte		S	adt
saanud	saa	nud		V	nud
      	saa=nud	0		A	
      	saa=nud	0		A	sg n
      	saa=nud	d		A	pl n
      	saanu	d		S	pl n
anttud	####				
et	et	0		J	
nad	tema	d		P	pl n
lasi	lask	i		V	s
    	lasi	0		S	sg g
    	lasi	0		S	sg n
    	lasi	0		S	sg p
pikand	####				
kasvatama	kasva	tama		V	tama
         	kasvata	ma		V	ma
,	,			Z	
aga	aga	0		J	
nüüd	nüüd	0		D	
on	ole	0		V	b
  	ole	0		V	vad
selle	see	0		P	sg g
     	sell	e		S	pl p
koha	koht	0		S	sg g
    	koha	0		S	sg g
    	koha	0		V	o
    	koha	0		S	sg n
    	koha	0		S	sg p
ooma	####				
poja	poeg	0		S	sg g
    	poja	0		S	sg g
    	poja	0		S	sg n
    	poja	0		S	sg p
Jüri	Jüri	0		H	sg g
    	Jüri	0		H	sg n
Piirsonile	piir_soni	le		S	sg all
,	,			Z	
aga	aga	0		J	
et	et	0		J	
tema	tema	0		P	sg g
    	tema	0		P	sg n
täiehealine	täie_hea=line	0		A	sg n
on	ole	0		V	b
  	ole	0		V	vad
nõuab	nõud	b		V	b
seda	see	da		P	sg p
kohta	koht	0		S	adt
     	kohta	0		K	
     	kohta	0		V	o
     	koht	0		S	sg p
kätte	kätte	0		K	
     	käsi	tte		S	adt
saada	saa	da		V	da
     	saat	0		V	o
     	saa	da		V	ta
.	.			Z	
kutsuti	kutsu	ti		V	ti
ette	ette	0		D	
    	ette	0		K	
    	esi	tte		S	adt
Jaagu	Jaak	0		H	sg g
     	jaak	0		S	sg g
Jüri	Jüri	0		H	sg g
    	Jüri	0		H	sg n
Pirsen	####				
ja	ja	0		J	
ütleb	ütle	b		V	b
,	,			Z	
et	et	0		J	
selle	see	0		P	sg g
     	sell	e		S	pl p
Tani	####				
Jaan	Jaan	0		H	sg n
    	jaan	0		S	sg n
    	jaan	0		Y	?
Karu	karu	0		S	sg g
    	karu	0		S	sg n
    	karu	0		S	sg p
nõudmise	nõudmine	0		S	sg g
vastu	vastu	0		D	
     	vastu	0		K	
temal	tema	l		P	sg ad
ütelda	ütle	da		V	da
      	ütle	da		V	ta
et	et	0		J	
see	see	0		P	sg n
tema	tema	0		P	sg g
    	tema	0		P	sg n
kae	kae	0		I	
   	kae	0		S	sg g
   	kae	0		V	o
   	kae	0		S	sg n
olev	ole	v		V	v
    	olev	0		A	sg n
    	olev	0		S	sg n
isa	isa	0		S	sg g
   	isa	0		S	sg n
   	isa	0		S	sg p
koht	koht	0		S	sg n
on	ole	0		V	b
  	ole	0		V	vad
32	32	0		N	?
aasta	aasta	0		S	sg g
     	aasta	0		S	sg n
eest	eest	0		D	
    	eest	0		K	
    	esi	st		S	sg el
,	,			Z	
Päremees	####				
olnud	ol=nud	0		A	
     	ol=nud	0		A	sg n
     	ol=nud	d		A	pl n
     	ole	nud		V	nud
     	olnu	d		S	pl n
ja	ja	0		J	
tema	tema	0		P	sg g
    	tema	0		P	sg n
sest	see	st		P	sg el
    	sest	0		J	
Jaagu	Jaak	0		H	sg g
     	jaak	0		S	sg g
Talu	talu	0		S	sg g
    	talu	0		V	o
    	talu	0		S	sg n
    	talu	0		S	sg p
No	no	0		I	
46	46	0		N	?
on	ole	0		V	b
  	ole	0		V	vad
tema	tema	0		P	sg g
    	tema	0		P	sg n
kätte	kätte	0		K	
     	käsi	tte		S	adt
rentitud	####				
ja	ja	0		J	
tema	tema	0		P	sg g
    	tema	0		P	sg n
sest	see	st		P	sg el
    	sest	0		J	
tallust	tallus	t		S	sg p
Päremees	####				
on	ole	0		V	b
  	ole	0		V	vad
.	.			Z	
Sai	saa	i		V	s
   	sai	0		S	sg n
mõistetud	mõist	tud		V	tud
         	mõiste=tu	d		S	pl n
         	mõiste=tud	0		A	
         	mõiste=tud	0		A	sg n
         	mõiste=tud	d		A	pl n
:	:			Z	
et	et	0		J	
see	see	0		P	sg n
Jaan	Jaan	0		H	sg n
    	jaan	0		S	sg n
    	jaan	0		Y	?
Karu	karu	0		S	sg g
    	karu	0		S	sg n
    	karu	0		S	sg p
pärimine	pärimine	0		S	sg n
selle	see	0		P	sg g
     	sell	e		S	pl p
Jaagu	Jaak	0		H	sg g
     	jaak	0		S	sg g
Madis	Madis	0		H	sg n
     	madis	0		S	sg n
Piirsoni	piir_soni	0		S	sg g
        	piir_soni	0		S	sg n
        	piir_soni	0		S	sg p
vastu	vastu	0		D	
     	vastu	0		K	
on	ole	0		V	b
  	ole	0		V	vad
,	,			Z	
siis	siis	0		D	
    	siis	0		J	
on	ole	0		V	b
  	ole	0		V	vad
need	see	d		P	pl n
uueste	####				
ette	ette	0		D	
    	ette	0		K	
    	esi	tte		S	adt
kutsuda	kutsu	da		V	da
.	.			Z	
