kindlaks	kindel	ks		A	sg tr
saanud	saa	nud		V	nud
      	saa=nud	0		A	
      	saa=nud	0		A	sg n
      	saa=nud	d		A	pl n
      	saanu	d		S	pl n
kogukonna	kogukond	0		S	sg g
kohtu	kohtu	0		V	o
     	kohus	0		S	sg g
otsuse	otsus	0		S	sg g
täitmiseks	täitmine	ks		S	sg tr
sai	saa	i		V	s
   	sai	0		S	sg n
kohtu	kohtu	0		V	o
     	kohus	0		S	sg g
poolt	pool	t		N	sg p
     	pool	t		S	sg p
     	poolt	0		D	
     	poolt	0		K	
kinnitatud	kinnita	tud		V	tud
          	kinnita=tu	d		S	pl n
          	kinnita=tud	0		A	
          	kinnita=tud	0		A	sg n
          	kinnita=tud	d		A	pl n
Jaak	Jaak	0		H	sg n
    	jaak	0		S	sg n
mõisavalla	mõisa_vald	0		S	sg g
varandus	varandus	0		S	sg n
5	5	0		N	?
rbl	rbl	0		Y	?
magasini	magas	ni		S	sg ter
        	magasin	0		S	adt
        	magasin	0		S	sg g
        	magasin	0		S	sg p
võla	võlg	0		S	sg g
ette	ette	0		D	
    	ette	0		K	
    	esi	tte		S	adt
,	,			Z	
vallavalitsuse	valla_valitsus	0		S	sg g
heaks	hea	ks		A	sg tr
     	hea	ks		S	sg tr
     	heaks	0		D	
     	heaks	0		K	
kinnipannud	kinni_pan=nu	d		S	pl n
           	kinni_pan=nud	0		A	
           	kinni_pan=nud	0		A	sg n
           	kinni_pan=nud	d		A	pl n
,	,			Z	
ette	ette	0		D	
    	ette	0		K	
    	esi	tte		S	adt
seda	see	da		P	sg p
veel	veel	0		D	
    	vesi	l		S	sg ad
äramaksnud	ära_maks=nu	d		S	pl n
          	ära_maks=nud	0		A	
          	ära_maks=nud	0		A	sg n
          	ära_maks=nud	d		A	pl n
pole	ole	0		V	neg o
,	,			Z	
mis	mis	0		P	pl n
   	mis	0		P	sg n
mõisavalale	mõis_aval	le		A	sg all
ka	ka	0		D	
teatavaks	teatav	ks		A	sg tr
sai	saa	i		V	s
   	sai	0		S	sg n
tehtud	tehtu	d		S	pl n
      	tehtud	0		A	
      	tehtud	0		A	sg n
      	tehtud	d		A	pl n
      	tege	tud		V	tud
.	.			Z	
Kästi	käski	ti		V	ti
:	:			Z	
seda	see	da		P	sg p
kirja	kirja	0		A	
     	kirja	0		V	o
     	kiri	0		S	adt
     	kiri	0		S	sg g
     	kiri	0		S	sg p
pannud	pan=nu	d		S	pl n
      	pan=nud	0		A	
      	pan=nud	0		A	sg n
      	pan=nud	d		A	pl n
      	pane	nud		V	nud
.	.			Z	
