Tulid	tule	id		V	sid
kohtu	kohtu	0		V	o
     	kohus	0		S	sg g
ette	ette	0		D	
    	ette	0		K	
    	esi	tte		S	adt
Karl	Karl	0		H	sg n
Pumpernikel	####				
ja	ja	0		J	
Karl	Karl	0		H	sg n
Jurn	####				
ja	ja	0		J	
tegi	sina	0	gi	P	pl g
    	tege	i		V	s
    	sina	0	gi	P	pl n
enda	ise	0		P	sg g
asjus	asi	us		S	pl in
priimehelikult	prii_mehelik	lt		A	sg abl
              	prii_meheliku=lt	0		D	
se	####				
leppus	####				
:	:			Z	
Karl	Karl	0		H	sg n
Jurn	####				
teeb	tege	b		V	b
tänasest	tänane	st		A	sg el
päevast	päev	st		S	sg el
       	päevane	t		A	sg p
Karl	Karl	0		H	sg n
Pumpernikdel	####				
ülle	ülle	0		D	
nädali	####				
7.	7.	0		O	?
päeva	päev	0		S	adt
     	päev	0		S	sg g
     	päev	0		S	sg p
jala	jalg	0		S	sg g
    	jala	0		D	
peremehe	pere_mees	0		S	sg g
leivaga	leib	ga		S	sg kom
ja	ja	0		J	
maksab	maks	b		V	b
puiduva	####				
hobasse	####				
vahetuse	vahetus	0		S	sg g
hinna	hind	0		S	sg g
8	8	0		N	?
rub	####				
Jüri	Jüri	0		H	sg g
    	Jüri	0		H	sg n
päevaks	päev	ks		S	sg tr
1875	1875	0		N	?
ära	ära	0		D	
   	ära	0		V	neg o
.	.			Z	
-	-			Z	
ja	ja	0		J	
Karl	Karl	0		H	sg n
juurn	####				
saab	saa	b		V	b
peremehe	pere_mees	0		S	sg g
käest	käest	0		K	
     	käsi	st		S	sg el
tuleva	tulev	0		A	sg g
sui	sui	0		D	
nii	nii	0		D	
paljs	####				
maad	maa	d		S	pl n
    	maa	d		S	sg p
,	,			Z	
kus	kus	0		D	
uma	####				
sõnniku	sõnnik	0		S	sg g
paneb	pane	b		V	b
ja	ja	0		J	
säalt	####				
sõnniku	sõnnik	0		S	sg g
maa	maa	0		S	sg g
   	maa	0		S	sg n
päelt	####				
saab	saa	b		V	b
kaks	kaks	0		N	sg n
vilja	vili	0		S	adt
     	vili	0		S	sg g
     	vili	0		S	sg p
,	,			Z	
maatük	####				
se	####				
tarvis	tarvis	0		D	
      	tarvis	0		K	
tellitud	telli	tud		V	tud
        	telli=tu	d		S	pl n
        	telli=tud	0		A	
        	telli=tud	0		A	sg n
        	telli=tud	d		A	pl n
vastu	vastu	0		D	
     	vastu	0		K	
Araksed	####				
kaera	kaer	0		S	adt
     	kaer	0		S	sg g
     	kaer	0		S	sg p
kõrre	kõrs	0		S	sg g
maa	maa	0		S	sg g
   	maa	0		S	sg n
,	,			Z	
-	-			Z	
selle	see	0		P	sg g
     	sell	e		S	pl p
päele	####				
jätsid	jät	sid		V	sid
maa	maa	0		S	sg g
   	maa	0		S	sg n
järele	järele	0		D	
      	järele	0		K	
,	,			Z	
so.	so	0		Y	?
et	et	0		J	
Karl	Karl	0		H	sg n
Jurn	####				
ei	ei	0		D	
  	ei	0		V	neg
võta	võt	0		V	o
maad	maa	d		S	pl n
    	maa	d		S	sg p
,	,			Z	
ja	ja	0		J	
võib	või	b		V	b
oomasõnniku	####				
anda	and	a		V	da
kellele	kes	le		P	pl all
       	kes	le		P	sg all
tahab	taht	b		V	b
,	,			Z	
kui	kui	0		D	
   	kui	0		J	
aga	aga	0		J	
Kivisela	####				
päele	####				
pandud	pan=du	d		S	pl n
      	pan=dud	0		A	
      	pan=dud	0		A	sg n
      	pan=dud	d		A	pl n
      	pane	dud		V	tud
saab	saa	b		V	b
.	.			Z	
-	-			Z	
mõistetud	mõist	tud		V	tud
         	mõiste=tu	d		S	pl n
         	mõiste=tud	0		A	
         	mõiste=tud	0		A	sg n
         	mõiste=tud	d		A	pl n
;	;			Z	
et	et	0		J	
se	####				
protokolli	protokoll	0		S	adt
          	protokoll	0		S	sg g
          	protokolli	0		V	o
          	protokoll	0		S	sg p
kirjoodud	####				
kuida	####				
siin	siin	0		D	
    	siin	0		S	sg n
on	ole	0		V	b
  	ole	0		V	vad
sündinud	sündi	nud		V	nud
        	sündinu	d		S	pl n
        	sündinud	0		A	
        	sündinud	0		A	sg n
        	sündinud	d		A	pl n
.	.			Z	
-	-			Z	
kõrvasistnik	####				
:	:			Z	
Abram	####				
Kask	kask	0		S	sg n
XXX	XXX	0		O	?
   	XXX	0		Y	?
Karl	Karl	0		H	sg n
Kurm	####				
XXX	XXX	0		O	?
   	XXX	0		Y	?
Substitut	####				
:	:			Z	
Jüri	Jüri	0		H	sg g
    	Jüri	0		H	sg n
Puck	####				
XXX	XXX	0		O	?
   	XXX	0		Y	?
