mai	mai	0		S	sg g
   	mai	0		S	sg n
Baltasar	####				
-	-			Z	
käemees	käe_mees	0		S	sg n
tema	tema	0		P	sg g
    	tema	0		P	sg n
mees	mees	0		S	sg n
    	mesi	s		S	sg in
Kristjan	Kristjan	0		H	sg n
-	-			Z	
kaebab	kaeba	b		V	b
,	,			Z	
et	et	0		J	
Jaan	Jaan	0		H	sg n
    	jaan	0		S	sg n
    	jaan	0		Y	?
Vilter	####				
teda	tema	da		P	sg p
9.	9.	0		O	?
Oktobril	####				
s	s	0		Y	?
.	.			Z	
a.	a	0		Y	?
rusikaga	rusikas	ga		S	sg kom
ja	ja	0		J	
laua	laud	0		S	sg g
tükiga	tükk	ga		S	sg kom
nõnda	nõnda	0		D	
hirmsasti	hirmsasti	0		D	
peksnud	peks	nud		V	nud
       	peks=nu	d		S	pl n
       	peks=nud	0		A	
       	peks=nud	0		A	sg n
       	peks=nud	d		A	pl n
ja	ja	0		J	
ähvardanud	ähvarda	nud		V	nud
          	ähvarda=nu	d		S	pl n
          	ähvarda=nud	0		A	
          	ähvarda=nud	0		A	sg n
          	ähvarda=nud	d		A	pl n
teda	tema	da		P	sg p
sooodumaks	####				
ära	ära	0		D	
   	ära	0		V	neg o
tapa	tap	0		V	o
    	tapp	0		S	sg g
,	,			Z	
selle	see	0		P	sg g
     	sell	e		S	pl p
peksmise	peksmine	0		S	sg g
läbi	läbi	0		D	
    	läbi	0		K	
    	läbi	0		V	o
olla	ole	a		V	da
tema	tema	0		P	sg g
    	tema	0		P	sg n
haigeks	haige	ks		A	sg tr
       	haige	ks		S	sg tr
jäänud	jää	nud		V	nud
      	jäänu	d		S	pl n
      	jäänud	0		A	
      	jäänud	0		A	sg n
      	jäänud	d		A	pl n
ja	ja	0		J	
põdenud	põde	nud		V	nud
       	põde=nu	d		S	pl n
       	põde=nud	0		A	
       	põde=nud	0		A	sg n
       	põde=nud	d		A	pl n
ning	ning	0		J	
pidanud	pida	nud		V	nud
       	pida=nu	d		S	pl n
       	pida=nud	0		A	
       	pida=nud	0		A	sg n
       	pida=nud	d		A	pl n
tohtrirohtu	tohtri_rohi	0		S	adt
           	tohtri_rohi	0		S	sg p
tarvitama	tarvita	ma		V	ma
nõuab	nõud	b		V	b
selle	see	0		P	sg g
     	sell	e		S	pl p
eest	eest	0		D	
    	eest	0		K	
    	esi	st		S	sg el
Jaan	Jaan	0		H	sg n
    	jaan	0		S	sg n
    	jaan	0		Y	?
Vilteri	####				
käest	käest	0		K	
     	käsi	st		S	sg el
5	5	0		N	?
rbl	rbl	0		Y	?
.	.			Z	
tohtri	tohter	0		S	sg g
kuulu	kuuld	0		S	sg g
     	kuulu	0		V	o
ja	ja	0		J	
rohu	rohi	0		S	sg g
raha	raha	0		S	sg g
    	raha	0		S	sg n
    	raha	0		S	sg p
ja	ja	0		J	
annab	and	b		V	b
tema	tema	0		P	sg g
    	tema	0		P	sg n
kohtu	kohtu	0		V	o
     	kohus	0		S	sg g
karistuse	karistus	0		S	sg g
alla	alla	0		D	
    	alla	0		K	
.	.			Z	
Jaan	Jaan	0		H	sg n
    	jaan	0		S	sg n
    	jaan	0		Y	?
Vilter	####				
vastab	vasta	b		V	b
selle	see	0		P	sg g
     	sell	e		S	pl p
kaebtuse	####				
peale	pea	le		S	sg all
     	peale	0		D	
     	peale	0		K	
,	,			Z	
et	et	0		J	
tema	tema	0		P	sg g
    	tema	0		P	sg n
mai	mai	0		S	sg g
   	mai	0		S	sg n
Baltasaart	####				
mitte	mitte	0		D	
peksnud	peks	nud		V	nud
       	peks=nu	d		S	pl n
       	peks=nud	0		A	
       	peks=nud	0		A	sg n
       	peks=nud	d		A	pl n
ei	ei	0		D	
  	ei	0		V	neg
ole	ole	0		V	o
vaid	vaid	0		D	
    	vaid	0		J	
ainult	ainu	lt		S	sg abl
      	ainult	0		D	
mai	mai	0		S	sg g
   	mai	0		S	sg n
Baltasaare	####				
olla	ole	a		V	da
tema	tema	0		P	sg g
    	tema	0		P	sg n
tisleri	tisler	0		S	sg g
tuast	####				
m	m	0		Y	?
välja	välja	0		D	
     	välja	0		V	o
     	väli	0		S	adt
     	väli	0		S	sg g
     	väli	0		S	sg p
viskanud	####				
sest	see	st		P	sg el
    	sest	0		J	
et	et	0		J	
mai	mai	0		S	sg g
   	mai	0		S	sg n
Baltasar	####				
sealt	sealt	0		D	
     	siga	lt		A	sg abl
     	siga	lt		S	sg abl
laas	laas	0		S	sg n
viima	vii	ma		V	ma
tulnud	tul=nud	0		A	
      	tul=nud	0		A	sg n
      	tul=nud	d		A	pl n
      	tule	nud		V	nud
      	tulnu	d		S	pl n
mis	mis	0		P	pl n
   	mis	0		P	sg n
mõisavalitsuse	mõisa_valitsus	0		S	sg g
poolt	pool	t		N	sg p
     	pool	t		S	sg p
     	poolt	0		D	
     	poolt	0		K	
keeldud	keeldu	d		V	d
olnud	ol=nud	0		A	
     	ol=nud	0		A	sg n
     	ol=nud	d		A	pl n
     	ole	nud		V	nud
     	olnu	d		S	pl n
.	.			Z	
Karl	Karl	0		H	sg n
Jäär	jäär	0		S	sg n
tunistab	####				
,	,			Z	
et	et	0		J	
tema	tema	0		P	sg g
    	tema	0		P	sg n
seda	see	da		P	sg p
poole	pool	0		N	sg g
     	pool	0		S	sg g
     	pool	e		S	pl p
     	poole	0		K	
     	poole	0		S	sg n
näinu	näinu	0		S	sg g
     	näinu	0		S	sg n
et	et	0		J	
Jaan	Jaan	0		H	sg n
    	jaan	0		S	sg n
    	jaan	0		Y	?
Vilter	####				
mai	mai	0		S	sg g
   	mai	0		S	sg n
Baltasart	####				
lõõnud	####				
,	,			Z	
aga	aga	0		J	
Jaan	Jaan	0		H	sg n
    	jaan	0		S	sg n
    	jaan	0		Y	?
Vilter	####				
olla	ole	a		V	da
teda	tema	da		P	sg p
(	(			Z	
mai	mai	0		S	sg g
   	mai	0		S	sg n
Baltasart	####				
)	)			Z	
tuast	####				
välja	välja	0		D	
     	välja	0		V	o
     	väli	0		S	adt
     	väli	0		S	sg g
     	väli	0		S	sg p
ajanud	aja	nud		V	nud
      	aja=nu	d		S	pl n
      	aja=nud	0		A	
      	aja=nud	0		A	sg n
      	aja=nud	d		A	pl n
ja	ja	0		J	
ähvardanud	ähvarda	nud		V	nud
          	ähvarda=nu	d		S	pl n
          	ähvarda=nud	0		A	
          	ähvarda=nud	0		A	sg n
          	ähvarda=nud	d		A	pl n
teda	tema	da		P	sg p
maha	maha	0		D	
lüüa	löö	a		V	da
kui	kui	0		D	
   	kui	0		J	
tema	tema	0		P	sg g
    	tema	0		P	sg n
tuast	####				
välja	välja	0		D	
     	välja	0		V	o
     	väli	0		S	adt
     	väli	0		S	sg g
     	väli	0		S	sg p
ei	ei	0		D	
  	ei	0		V	neg
lähä	####				
kui	kui	0		D	
   	kui	0		J	
mai	mai	0		S	sg g
   	mai	0		S	sg n
Baltasar	####				
siiski	siiski	0		D	
mitte	mitte	0		D	
välja	välja	0		D	
     	välja	0		V	o
     	väli	0		S	adt
     	väli	0		S	sg g
     	väli	0		S	sg p
poole	pool	0		N	sg g
     	pool	0		S	sg g
     	pool	e		S	pl p
     	poole	0		K	
     	poole	0		S	sg n
läinud	läinu	d		S	pl n
      	läinud	0		A	
      	läinud	0		A	sg n
      	läinud	d		A	pl n
      	mine	nud		V	nud
olla	ole	a		V	da
Jaan	Jaan	0		H	sg n
    	jaan	0		S	sg n
    	jaan	0		Y	?
Vilter	####				
teda	tema	da		P	sg p
kaks	kaks	0		N	sg n
korda	kord	0		S	adt
     	korda	0		V	o
     	kord	0		S	sg p
kätt	käsi	tt		S	sg p
pidi	pida	i		V	s
    	pidi	0		K	
mõõööda	####				
põrmandut	####				
taga	taga	0		D	
    	taga	0		K	
    	taga	0		V	o
vedanud	veda	nud		V	nud
       	veda=nu	d		S	pl n
       	veda=nud	0		A	
       	veda=nud	0		A	sg n
       	veda=nud	d		A	pl n
ja	ja	0		J	
pärast	pära	st		S	sg el
      	pärane	t		A	sg p
      	pärast	0		D	
      	pärast	0		K	
ühe	üks	0		N	sg g
   	üks	0		P	sg g
   	ühe	0		S	sg n
kase	kask	0		S	sg g
plangiga	plank	ga		A	sg kom
        	plank	ga		S	sg kom
mai	mai	0		S	sg g
   	mai	0		S	sg n
Baltasaart	####				
mõõööda	####				
põrmandut	####				
edasi	edasi	0		D	
     	edasi	0		K	
lükanud	lükka	nud		V	nud
       	lüka=nu	d		S	pl n
       	lüka=nud	0		A	
       	lüka=nud	0		A	sg n
       	lüka=nud	d		A	pl n
.	.			Z	
Karl	Karl	0		H	sg n
Jäär	jäär	0		S	sg n
tunistus	####				
avaldati	avalda	ti		V	ti
.	.			Z	
mai	mai	0		S	sg g
   	mai	0		S	sg n
Baltasar	####				
näitas	näita	s		V	s
ka	ka	0		D	
tohtritunistuse	####				
16	16	0		N	?
Oktb	####				
.	.			Z	
1889	1889	0		N	?
ette	ette	0		D	
    	ette	0		K	
    	esi	tte		S	adt
kus	kus	0		D	
tunistatud	####				
on	ole	0		V	b
  	ole	0		V	vad
,	,			Z	
et	et	0		J	
mai	mai	0		S	sg g
   	mai	0		S	sg n
Baltasaarel	####				
param	####				
poolt	pool	t		N	sg p
     	pool	t		S	sg p
     	poolt	0		D	
     	poolt	0		K	
kopsul	kops	l		S	sg ad
viga	viga	0		S	sg n
    	viga	0		S	sg p
olla	ole	a		V	da
ja	ja	0		J	
ka	ka	0		D	
parampool	####				
õla	õlg	0		S	sg g
paistetanud	paisteta	nud		V	nud
           	paisteta=nu	d		S	pl n
           	paistetanud	0		A	
           	paistetanud	0		A	sg n
           	paistetanud	d		A	pl n
.	.			Z	
mõistetud	mõist	tud		V	tud
         	mõiste=tu	d		S	pl n
         	mõiste=tud	0		A	
         	mõiste=tud	0		A	sg n
         	mõiste=tud	d		A	pl n
:	:			Z	
kohus	kohu	s		V	s
     	kohus	0		S	sg n
arvab	arva	b		V	b
otsuseks	otsus	ks		S	sg tr
Jaan	Jaan	0		H	sg n
    	jaan	0		S	sg n
    	jaan	0		Y	?
Vilter	####				
peab	pida	b		V	b
mai	mai	0		S	sg g
   	mai	0		S	sg n
Baltasaarele	####				
3	3	0		N	?
rubla	rubla	0		S	sg g
     	rubla	0		S	sg n
     	rubla	0		S	sg p
tohtri	tohter	0		S	sg g
kuuludeks	####				
maksma	maks	ma		V	ma
ja	ja	0		J	
langeb	lange	b		V	b
24	24	0		N	?
tunniks	tund	ks		S	sg tr
vangi	vang	0		S	adt
     	vang	0		S	sg g
     	vang	0		S	sg p
.	.			Z	
Otsus	otsus	0		S	sg n
avaldati	avalda	ti		V	ti
ja	ja	0		J	
teadustati	teadusta	ti		V	ti
,	,			Z	
et	et	0		J	
8	8	0		N	?
päeva	päev	0		S	adt
     	päev	0		S	sg g
     	päev	0		S	sg p
edasi	edasi	0		D	
     	edasi	0		K	
kaebtuse	####				
aega	aeg	0		S	adt
    	aeg	0		S	sg p
    	aega	0		K	
on	ole	0		V	b
  	ole	0		V	vad
.	.			Z	
Jaan	Jaan	0		H	sg n
    	jaan	0		S	sg n
    	jaan	0		Y	?
Vilter	####				
apelers	####				
17	17	0		N	?
Novembril	november	l		S	sg ad
1889	1889	0		N	?
