Kihnu	Kihnu	0		H	adt
     	Kihnu	0		H	sg g
     	kihn	0		S	adt
     	kihn	0		S	sg g
     	kihnu	0		G	
     	Kihnu	0		H	sg n
     	kihn	0		S	sg p
valla	vald	0		S	sg g
     	valla	0		D	
talupoeg	talu_poeg	0		S	sg n
Jaak	Jaak	0		H	sg n
    	jaak	0		S	sg n
Leas	Lea	s		H	sg in
tuli	tuli	0		S	sg n
    	tule	i		V	s
kohtu	kohtu	0		V	o
     	kohus	0		S	sg g
ette	ette	0		D	
    	ette	0		K	
    	esi	tte		S	adt
ja	ja	0		J	
rääkis	rääki	s		V	s
:	:			Z	
et	et	0		J	
tema	tema	0		P	sg g
    	tema	0		P	sg n
poeg	poeg	0		S	sg n
Jaan	Jaan	0		H	sg n
    	jaan	0		S	sg n
    	jaan	0		Y	?
Leas	Lea	s		H	sg in
enne	enne	0		D	
    	enne	0		K	
    	enne	0		S	sg n
ooma	####				
surma	surm	0		S	adt
     	surm	0		S	sg g
     	surma	0		V	o
     	surm	0		S	sg p
andis	and	is		V	s
ülles	####				
,	,			Z	
et	et	0		J	
temal	tema	l		P	sg ad
Kihnu	Kihnu	0		H	adt
     	Kihnu	0		H	sg g
     	kihn	0		S	adt
     	kihn	0		S	sg g
     	kihnu	0		G	
     	Kihnu	0		H	sg n
     	kihn	0		S	sg p
valla	vald	0		S	sg g
     	valla	0		D	
mehe	mees	0		S	sg g
jaani	jaan	0		S	adt
     	jaan	0		S	sg g
     	jaan	0		S	sg p
Uuetoa	uue_tuba	0		S	sg g
käest	käest	0		K	
     	käsi	st		S	sg el
jäänud	jää	nud		V	nud
      	jäänu	d		S	pl n
      	jäänud	0		A	
      	jäänud	0		A	sg n
      	jäänud	d		A	pl n
saada	saa	da		V	da
     	saat	0		V	o
     	saa	da		V	ta
8	8	0		N	?
rubla	rubla	0		S	sg g
     	rubla	0		S	sg n
     	rubla	0		S	sg p
raha	raha	0		S	sg g
    	raha	0		S	sg n
    	raha	0		S	sg p
mis	mis	0		P	pl n
   	mis	0		P	sg n
ta	tema	0		P	sg g
  	tema	0		P	sg n
temale	tema	le		P	sg all
rjas	####				
on	ole	0		V	b
  	ole	0		V	vad
lainanud	####				
.	.			Z	
Lainatud	####				
on	ole	0		V	b
  	ole	0		V	vad
olnud	ol=nud	0		A	
     	ol=nud	0		A	sg n
     	ol=nud	d		A	pl n
     	ole	nud		V	nud
     	olnu	d		S	pl n
10	10	0		N	?
rubla	rubla	0		S	sg g
     	rubla	0		S	sg n
     	rubla	0		S	sg p
,	,			Z	
aga	aga	0		J	
2	2	0		N	?
rubla	rubla	0		S	sg g
     	rubla	0		S	sg n
     	rubla	0		S	sg p
on	ole	0		V	b
  	ole	0		V	vad
ta	tema	0		P	sg g
  	tema	0		P	sg n
kätte	kätte	0		K	
     	käsi	tte		S	adt
saanud	saa	nud		V	nud
      	saa=nud	0		A	
      	saa=nud	0		A	sg n
      	saa=nud	d		A	pl n
      	saanu	d		S	pl n
;	;			Z	
ühes	üks	s		N	sg in
    	üks	s		P	sg in
    	ühes	0		D	
    	ühes	0		K	
jaani	jaan	0		S	adt
     	jaan	0		S	sg g
     	jaan	0		S	sg p
Uuetoaga	uue_tuba	ga		S	sg kom
on	ole	0		V	b
  	ole	0		V	vad
ka	ka	0		D	
lainanud	####				
Äetemeeste	####				
valla	vald	0		S	sg g
     	valla	0		D	
mees	mees	0		S	sg n
    	mesi	s		S	sg in
Härmasilla	härma_sild	0		S	sg g
Juri	Juri	0		H	sg g
    	Juri	0		H	sg n
Andresson	####				
,	,			Z	
aga	aga	0		J	
se	####				
on	ole	0		V	b
  	ole	0		V	vad
ära	ära	0		D	
   	ära	0		V	neg o
maksnud	maks	nud		V	nud
       	maks=nu	d		S	pl n
       	maks=nud	0		A	
       	maks=nud	0		A	sg n
       	maks=nud	d		A	pl n
,	,			Z	
ja	ja	0		J	
selle	see	0		P	sg g
     	sell	e		S	pl p
laenamise	laenamine	0		S	sg g
juures	juur	s		S	sg in
      	juures	0		D	
      	juures	0		K	
olnud	ol=nud	0		A	
     	ol=nud	0		A	sg n
     	ol=nud	d		A	pl n
     	ole	nud		V	nud
     	olnu	d		S	pl n
tema-Jaan	tema-Jaan	0		H	sg n
Uuetoa	uue_tuba	0		S	sg g
käemeheks-ja	käe_mehe+ks-ja	0		J	
kui	kui	0		D	
   	kui	0		J	
Jaan	Jaan	0		H	sg n
    	jaan	0		S	sg n
    	jaan	0		Y	?
Uuetoa	uue_tuba	0		S	sg g
lainanud	####				
,	,			Z	
siis	siis	0		D	
    	siis	0		J	
olnud	ol=nud	0		A	
     	ol=nud	0		A	sg n
     	ol=nud	d		A	pl n
     	ole	nud		V	nud
     	olnu	d		S	pl n
Juri	Juri	0		H	sg g
    	Juri	0		H	sg n
Andresson	####				
käemeheks	käe_mees	ks		S	sg tr
,	,			Z	
sest	see	st		P	sg el
    	sest	0		J	
laenamisest	laenamine	st		S	sg el
on	ole	0		V	b
  	ole	0		V	vad
5	5	0		N	?
aastat	aasta	t		S	sg p
tagasi	tagasi	0		D	
      	tagasi	0		K	
.	.			Z	
Jaak	Jaak	0		H	sg n
    	jaak	0		S	sg n
Lease	####				
naine	naine	0		S	sg n
Tiju	####				
Leas	Lea	s		H	sg in
rääkis	rääki	s		V	s
kohtu	kohtu	0		V	o
     	kohus	0		S	sg g
ees	ees	0		D	
   	ees	0		K	
   	esi	s		S	sg in
ka	ka	0		D	
nõndasaama	####				
.	.			Z	
selle	see	0		P	sg g
     	sell	e		S	pl p
raha	raha	0		S	sg g
    	raha	0		S	sg n
    	raha	0		S	sg p
laenamise	laenamine	0		S	sg g
juttu	jutt	0		S	adt
     	jutt	0		S	sg p
ajal	aeg	l		S	sg ad
    	ajal	0		K	
,	,			Z	
kui	kui	0		D	
   	kui	0		J	
Jaak	Jaak	0		H	sg n
    	jaak	0		S	sg n
Lease	####				
poeg	poeg	0		S	sg n
Jaan	Jaan	0		H	sg n
    	jaan	0		S	sg n
    	jaan	0		Y	?
Leas	Lea	s		H	sg in
rääkis	rääki	s		V	s
enne	enne	0		D	
    	enne	0		K	
    	enne	0		S	sg n
ooma	####				
surma	surm	0		S	adt
     	surm	0		S	sg g
     	surma	0		V	o
     	surm	0		S	sg p
olnud	ol=nud	0		A	
     	ol=nud	0		A	sg n
     	ol=nud	d		A	pl n
     	ole	nud		V	nud
     	olnu	d		S	pl n
tunistajaks	####				
juures	juur	s		S	sg in
      	juures	0		D	
      	juures	0		K	
Kihnu	Kihnu	0		H	adt
     	Kihnu	0		H	sg g
     	kihn	0		S	adt
     	kihn	0		S	sg g
     	kihnu	0		G	
     	Kihnu	0		H	sg n
     	kihn	0		S	sg p
valla	vald	0		S	sg g
     	valla	0		D	
mees	mees	0		S	sg n
    	mesi	s		S	sg in
Pärt	Pärt	0		H	sg n
Kosser	####				
,	,			Z	
Kreeka-Vene	Kreeka-Vene	0		H	sg g
           	Kreeka-Vene	0		H	sg n
õikit	####				
usku	usk	0		S	adt
    	usk	0		S	sg p
.	.			Z	
Sai	saa	i		V	s
   	sai	0		S	sg n
Pärt	Pärt	0		H	sg n
Kosser	####				
kohtu	kohtu	0		V	o
     	kohus	0		S	sg g
ette	ette	0		D	
    	ette	0		K	
    	esi	tte		S	adt
nõutud	nõu=tu	d		S	pl n
      	nõu=tud	0		A	
      	nõu=tud	0		A	sg n
      	nõu=tud	d		A	pl n
      	nõud	tud		V	tud
      	nõutu	d		A	pl n
ja	ja	0		J	
tema	tema	0		P	sg g
    	tema	0		P	sg n
rääkis	rääki	s		V	s
ooma	####				
tunnistuseks	tunnistus	ks		S	sg tr
:	:			Z	
et	et	0		J	
Jaan	Jaan	0		H	sg n
    	jaan	0		S	sg n
    	jaan	0		Y	?
Leas	Lea	s		H	sg in
on	ole	0		V	b
  	ole	0		V	vad
seda	see	da		P	sg p
töeste	####				
enne	enne	0		D	
    	enne	0		K	
    	enne	0		S	sg n
ooma	####				
surma	surm	0		S	adt
     	surm	0		S	sg g
     	surma	0		V	o
     	surm	0		S	sg p
rääkinud	rääki	nud		V	nud
        	rääki=nu	d		S	pl n
        	rääki=nud	0		A	
        	rääki=nud	0		A	sg n
        	rääki=nud	d		A	pl n
,	,			Z	
et	et	0		J	
temal	tema	l		P	sg ad
jaani	jaan	0		S	adt
     	jaan	0		S	sg g
     	jaan	0		S	sg p
Uuetoa	uue_tuba	0		S	sg g
käest	käest	0		K	
     	käsi	st		S	sg el
8	8	0		N	?
rubla	rubla	0		S	sg g
     	rubla	0		S	sg n
     	rubla	0		S	sg p
veel	veel	0		D	
    	vesi	l		S	sg ad
saada	saa	da		V	da
     	saat	0		V	o
     	saa	da		V	ta
on	ole	0		V	b
  	ole	0		V	vad
10	10	0		N	?
rubla	rubla	0		S	sg g
     	rubla	0		S	sg n
     	rubla	0		S	sg p
laenamisest	laenamine	st		S	sg el
(	(			Z	
2	2	0		N	?
rubla	rubla	0		S	sg g
     	rubla	0		S	sg n
     	rubla	0		S	sg p
on	ole	0		V	b
  	ole	0		V	vad
ära	ära	0		D	
   	ära	0		V	neg o
makstud	maks	tud		V	tud
       	maks=tu	d		S	pl n
       	maks=tud	0		A	
       	maks=tud	0		A	sg n
       	maks=tud	d		A	pl n
)	)			Z	
.	.			Z	
Sai	saa	i		V	s
   	sai	0		S	sg n
Jaan	Jaan	0		H	sg n
    	jaan	0		S	sg n
    	jaan	0		Y	?
Uuetoa	uue_tuba	0		S	sg g
kohtu	kohtu	0		V	o
     	kohus	0		S	sg g
ette	ette	0		D	
    	ette	0		K	
    	esi	tte		S	adt
nõutud	nõu=tu	d		S	pl n
      	nõu=tud	0		A	
      	nõu=tud	0		A	sg n
      	nõu=tud	d		A	pl n
      	nõud	tud		V	tud
      	nõutu	d		A	pl n
ja	ja	0		J	
tema	tema	0		P	sg g
    	tema	0		P	sg n
rääkis	rääki	s		V	s
:	:			Z	
et	et	0		J	
temal	tema	l		P	sg ad
jaani	jaan	0		S	adt
     	jaan	0		S	sg g
     	jaan	0		S	sg p
Leasele	####				
mitte	mitte	0		D	
üks	üks	0		N	sg n
   	üks	0		P	sg n
koppik	####				
enam	enam	0		C	sg n
    	enam	0		D	
maksta	maks	ta		V	da
      	maks	ta		V	ta
ei	ei	0		D	
  	ei	0		V	neg
ole	ole	0		V	o
;	;			Z	
Jaki	jakk	0		S	sg g
rahast	raha	st		S	sg el
,	,			Z	
3	3	0		N	?
rublast	rubla	st		S	sg el
       	rublane	t		A	sg p
       	rublane	t		S	sg p
,	,			Z	
jäänud	jää	nud		V	nud
      	jäänu	d		S	pl n
      	jäänud	0		A	
      	jäänud	0		A	sg n
      	jäänud	d		A	pl n
1	1	0		N	?
rubla	rubla	0		S	sg g
     	rubla	0		S	sg n
     	rubla	0		S	sg p
anda	and	a		V	da
,	,			Z	
aga	aga	0		J	
seda	see	da		P	sg p
on	ole	0		V	b
  	ole	0		V	vad
ta	tema	0		P	sg g
  	tema	0		P	sg n
ka	ka	0		D	
kõrtsis	kõrts	s		S	sg in
kopikate	kopikas	te		S	pl g
viisi	viis	0		S	adt
     	viis	0		S	sg g
     	viis	i		N	pl p
     	viisi	0		K	
     	viis	0		S	sg p
ära	ära	0		D	
   	ära	0		V	neg o
tasunud	tasu	nud		V	nud
       	tasu=nu	d		S	pl n
       	tasu=nud	0		A	
       	tasu=nud	0		A	sg n
       	tasu=nud	d		A	pl n
,	,			Z	
aga	aga	0		J	
10	10	0		N	?
rubla	rubla	0		S	sg g
     	rubla	0		S	sg n
     	rubla	0		S	sg p
rjas	####				
ta	tema	0		P	sg g
  	tema	0		P	sg n
poole	pool	0		N	sg g
     	pool	0		S	sg g
     	pool	e		S	pl p
     	poole	0		K	
     	poole	0		S	sg n
mitte	mitte	0		D	
võtnud	võt	nud		V	nud
      	võt=nu	d		S	pl n
      	võt=nud	0		A	
      	võt=nud	0		A	sg n
      	võt=nud	d		A	pl n
,	,			Z	
seda	see	da		P	sg p
tema	tema	0		P	sg g
    	tema	0		P	sg n
ei	ei	0		D	
  	ei	0		V	neg
tea	tead	0		V	o
,	,			Z	
Jaan	Jaan	0		H	sg n
    	jaan	0		S	sg n
    	jaan	0		Y	?
Leas	Lea	s		H	sg in
on	ole	0		V	b
  	ole	0		V	vad
tõistele	####				
küll	küll	0		D	
    	küll	0		S	sg n
raha	raha	0		S	sg g
    	raha	0		S	sg n
    	raha	0		S	sg p
lainanud	####				
.	.			Z	
kohus	kohu	s		V	s
     	kohus	0		S	sg n
mõistis	mõist	is		V	s
:	:			Z	
et	et	0		J	
nad	tema	d		P	pl n
enne	enne	0		D	
    	enne	0		K	
    	enne	0		S	sg n
poole	pool	0		N	sg g
     	pool	0		S	sg g
     	pool	e		S	pl p
     	poole	0		K	
     	poole	0		S	sg n
selle	see	0		P	sg g
     	sell	e		S	pl p
raha	raha	0		S	sg g
    	raha	0		S	sg n
    	raha	0		S	sg p
ülle	ülle	0		D	
nõudmist	nõudmine	t		S	sg p
teinud	tege	nud		V	nud
      	tei=nud	0		A	
      	tei=nud	0		A	sg n
      	tei=nud	d		A	pl n
      	teinu	d		S	pl n
,	,			Z	
vaid	vaid	0		D	
    	vaid	0		J	
üksnes	üksnes	0		D	
tunnistaja	tunnistaja	0		S	sg g
          	tunnistaja	0		S	sg n
Pärt	Pärt	0		H	sg n
Kosseri	####				
tunnistuse	tunnistus	0		S	sg g
läbi-Jaan	läbi-Jaan	0		H	sg n
Uuetoa	uue_tuba	0		S	sg g
peab	pida	b		V	b
sest	see	st		P	sg el
    	sest	0		J	
8	8	0		N	?
rublast-5	rublas+t-5	0		N	?
rubla	rubla	0		S	sg g
     	rubla	0		S	sg n
     	rubla	0		S	sg p
Jaaku	Jaak	0		H	adt
     	Jaak	0		H	sg p
     	jaak	0		S	adt
     	jaak	0		S	sg p
Leasele	####				
poja	poeg	0		S	sg g
    	poja	0		S	sg g
    	poja	0		S	sg n
    	poja	0		S	sg p
jaani	jaan	0		S	adt
     	jaan	0		S	sg g
     	jaan	0		S	sg p
raha	raha	0		S	sg g
    	raha	0		S	sg n
    	raha	0		S	sg p
ära	ära	0		D	
   	ära	0		V	neg o
maksma	maks	ma		V	ma
.	.			Z	
Jaan	Jaan	0		H	sg n
    	jaan	0		S	sg n
    	jaan	0		Y	?
Uuetoa	uue_tuba	0		S	sg g
ütles	ütle	s		V	s
,	,			Z	
et	et	0		J	
tema	tema	0		P	sg g
    	tema	0		P	sg n
enne	enne	0		D	
    	enne	0		K	
    	enne	0		S	sg n
ei	ei	0		D	
  	ei	0		V	neg
maksta	maks	ta		V	da
      	maks	ta		V	ta
kui	kui	0		D	
   	kui	0		J	
ta	tema	0		P	sg g
  	tema	0		P	sg n
Juri	Juri	0		H	sg g
    	Juri	0		H	sg n
Andresson	####				
on	ole	0		V	b
  	ole	0		V	vad
kokku	kokku	0		D	
     	kogu	0		S	adt
saanud	saa	nud		V	nud
      	saa=nud	0		A	
      	saa=nud	0		A	sg n
      	saa=nud	d		A	pl n
      	saanu	d		S	pl n
ja	ja	0		J	
teada	tead	a		V	da
saanud	saa	nud		V	nud
      	saa=nud	0		A	
      	saa=nud	0		A	sg n
      	saa=nud	d		A	pl n
      	saanu	d		S	pl n
,	,			Z	
et	et	0		J	
se	####				
raha	raha	0		S	sg g
    	raha	0		S	sg n
    	raha	0		S	sg p
lainamine	####				
töösi	####				
on	ole	0		V	b
  	ole	0		V	vad
;	;			Z	
Jaak	Jaak	0		H	sg n
    	jaak	0		S	sg n
Leas	Lea	s		H	sg in
ei	ei	0		D	
  	ei	0		V	neg
olnud	ol=nud	0		A	
     	ol=nud	0		A	sg n
     	ol=nud	d		A	pl n
     	ole	nud		V	nud
     	olnu	d		S	pl n
selle	see	0		P	sg g
     	sell	e		S	pl p
mõistusega	mõistus	ga		S	sg kom
rahul	rahu	l		S	sg ad
     	rahul	0		D	
,	,			Z	
vaid	vaid	0		D	
    	vaid	0		J	
nõudis	nõud	is		V	s
tervet	terve	t		A	sg p
      	terve	t		S	sg p
8	8	0		N	?
rubla	rubla	0		S	sg g
     	rubla	0		S	sg n
     	rubla	0		S	sg p
kätte	kätte	0		K	
     	käsi	tte		S	adt
saada	saa	da		V	da
     	saat	0		V	o
     	saa	da		V	ta
ja	ja	0		J	
sellepärast	selle_pärast	0		D	
palus	palu	s		S	sg in
     	palu	s		V	s
Apelätsjoni	####				
väljaandmist	välja_andmine	t		S	sg p
et	et	0		J	
ooma	####				
kaebdust	####				
keiserliku	keiserlik	0		A	sg g
Pärnu	Pärnu	0		H	adt
     	Pärnu	0		H	sg g
     	Pärnu	0		H	sg n
     	pärnu	0		G	
I	I	0		O	?
 	I	0		Y	?
 	j	0		Y	?
Kihelkonna	Kihelkonna	0		H	sg g
          	kihelkond	0		S	sg g
          	Kihelkonna	0		H	sg n
kohtule	kohus	le		S	sg all
ette	ette	0		D	
    	ette	0		K	
    	esi	tte		S	adt
vija	####				
ja	ja	0		J	
se	####				
sai	saa	i		V	s
   	sai	0		S	sg n
ka	ka	0		D	
temale	tema	le		P	sg all
kätte	kätte	0		K	
     	käsi	tte		S	adt
antud	an=tu	d		S	pl n
     	and	tud		V	tud
     	antud	0		A	
     	antud	0		A	sg n
     	antud	d		A	pl n
.	.			Z	
Kihnu	Kihnu	0		H	adt
     	Kihnu	0		H	sg g
     	kihn	0		S	adt
     	kihn	0		S	sg g
     	kihnu	0		G	
     	Kihnu	0		H	sg n
     	kihn	0		S	sg p
valla	vald	0		S	sg g
     	valla	0		D	
kogukonna	kogukond	0		S	sg g
kohus	kohu	s		V	s
     	kohus	0		S	sg n
.	.			Z	
Peakohtumees	pea_kohtu_mees	0		S	sg n
:	:			Z	
Jakob	Jakob	0		H	sg n
mättas	mätas	s		S	sg in
XXX	XXX	0		O	?
   	XXX	0		Y	?
kohtumehed	kohtu_mees	d		S	pl n
:	:			Z	
Juri	Juri	0		H	sg g
    	Juri	0		H	sg n
Vahkel	####				
XXX	XXX	0		O	?
   	XXX	0		Y	?
Jaan	Jaan	0		H	sg n
    	jaan	0		S	sg n
    	jaan	0		Y	?
Pull	pull	0		A	sg n
    	pull	0		S	sg n
XXX	XXX	0		O	?
   	XXX	0		Y	?
