tuli	tuli	0		S	sg n
    	tule	i		V	s
see	see	0		P	sg n
peremees	pere_mees	0		S	sg n
Koiksaare	####				
Jaan	Jaan	0		H	sg n
    	jaan	0		S	sg n
    	jaan	0		Y	?
Sepp	sepp	0		S	sg n
kohtu	kohtu	0		V	o
     	kohus	0		S	sg g
ette	ette	0		D	
    	ette	0		K	
    	esi	tte		S	adt
,	,			Z	
ning	ning	0		J	
palus	palu	s		S	sg in
     	palu	s		V	s
kogukonna	kogukond	0		S	sg g
kohut	kohus	t		S	sg p
,	,			Z	
et	et	0		J	
kohus	kohu	s		V	s
     	kohus	0		S	sg n
nii	nii	0		D	
hea	hea	0		A	sg g
   	hea	0		A	sg n
   	hea	0		S	sg g
   	hea	0		S	sg n
oleks	ole	ks		V	ks
,	,			Z	
ning	ning	0		J	
tema	tema	0		P	sg g
    	tema	0		P	sg n
venna	vend	0		S	sg g
,	,			Z	
selle	see	0		P	sg g
     	sell	e		S	pl p
tooli	tool	0		S	adt
     	tool	0		S	sg g
     	tool	0		S	sg p
peremehe	pere_mees	0		S	sg g
Hans	Hans	0		H	sg n
Seppa	sepp	0		S	adt
     	sepp	0		S	sg p
käest	käest	0		K	
     	käsi	st		S	sg el
küssiks	####				
,	,			Z	
mis	mis	0		P	pl n
   	mis	0		P	sg n
ta	tema	0		P	sg g
  	tema	0		P	sg n
temmast	####				
tahab	taht	b		V	b
,	,			Z	
et	et	0		J	
tema	tema	0		P	sg g
    	tema	0		P	sg n
teda	tema	da		P	sg p
hobusevargas	hobuse_varas	s		S	sg in
,	,			Z	
n.n.	####				
e	e	0		Y	?
.	.			Z	
sõimab	sõima	b		V	b
,	,			Z	
ning	ning	0		J	
et	et	0		J	
Hans	Hans	0		H	sg n
Sepp	sepp	0		S	sg n
kohtu	kohtu	0		V	o
     	kohus	0		S	sg g
ees	ees	0		D	
   	ees	0		K	
   	esi	s		S	sg in
üles	üles	0		D	
annaks	and	ks		V	ks
      	anna	ks		S	sg tr
,	,			Z	
kui	kui	0		D	
   	kui	0		J	
suur	suur	0		A	sg n
see	see	0		P	sg n
võlg	võlg	0		S	sg n
on	ole	0		V	b
  	ole	0		V	vad
,	,			Z	
mis	mis	0		P	pl n
   	mis	0		P	sg n
ta	tema	0		P	sg g
  	tema	0		P	sg n
ütleb	ütle	b		V	b
tema	tema	0		P	sg g
    	tema	0		P	sg n
käest	käest	0		K	
     	käsi	st		S	sg el
nõuda	nõud	a		V	da
olevat	ole	vat		V	vat
      	olev	t		A	sg p
      	olev	t		S	sg p
.	.			Z	
kutsuti	kutsu	ti		V	ti
ette	ette	0		D	
    	ette	0		K	
    	esi	tte		S	adt
Hans	Hans	0		H	sg n
Sepp	sepp	0		S	sg n
ning	ning	0		J	
küsiti	küsi	ti		V	ti
,	,			Z	
kui	kui	0		D	
   	kui	0		J	
suur	suur	0		A	sg n
see	see	0		P	sg n
võlg	võlg	0		S	sg n
on	ole	0		V	b
  	ole	0		V	vad
,	,			Z	
mis	mis	0		P	pl n
   	mis	0		P	sg n
Jaan	Jaan	0		H	sg n
    	jaan	0		S	sg n
    	jaan	0		Y	?
Seppa	sepp	0		S	adt
     	sepp	0		S	sg p
temale	tema	le		P	sg all
võlgu	võlg	u		S	pl p
     	võlgu	0		D	
on	ole	0		V	b
  	ole	0		V	vad
.	.			Z	
Hans	Hans	0		H	sg n
Sepp	sepp	0		S	sg n
andis	and	is		V	s
üles	üles	0		D	
,	,			Z	
et	et	0		J	
temal	tema	l		P	sg ad
nõuda	nõud	a		V	da
on	ole	0		V	b
  	ole	0		V	vad
:	:			Z	
1	1	0		N	?
,	,			Z	
146	146	0		N	?
rbl	rbl	0		Y	?
Bko	####				
,	,			Z	
mis	mis	0		P	pl n
   	mis	0		P	sg n
tema	tema	0		P	sg g
    	tema	0		P	sg n
oksjoni	oksjon	0		S	sg g
peal	pea	l		S	sg ad
    	peal	0		D	
    	peal	0		K	
Jaan	Jaan	0		H	sg n
    	jaan	0		S	sg n
    	jaan	0		Y	?
Seppa	sepp	0		S	adt
     	sepp	0		S	sg p
heaks	hea	ks		A	sg tr
     	hea	ks		S	sg tr
     	heaks	0		D	
     	heaks	0		K	
,	,			Z	
kui	kui	0		D	
   	kui	0		J	
ta	tema	0		P	sg g
  	tema	0		P	sg n
peremeheks	pere_mees	ks		S	sg tr
saanud	saa	nud		V	nud
      	saa=nud	0		A	
      	saa=nud	0		A	sg n
      	saa=nud	d		A	pl n
      	saanu	d		S	pl n
,	,			Z	
välja	välja	0		D	
     	välja	0		V	o
     	väli	0		S	adt
     	väli	0		S	sg g
     	väli	0		S	sg p
andnud	and	nud		V	nud
      	and=nu	d		S	pl n
      	and=nud	0		A	
      	and=nud	0		A	sg n
      	and=nud	d		A	pl n
.	.			Z	
2	2	0		N	?
,	,			Z	
38	38	0		N	?
rbl	rbl	0		Y	?
.	.			Z	
Bko	####				
,	,			Z	
räimeste	####				
eest	eest	0		D	
    	eest	0		K	
    	esi	st		S	sg el
,	,			Z	
mis	mis	0		P	pl n
   	mis	0		P	sg n
ta	tema	0		P	sg g
  	tema	0		P	sg n
Jaanile	Jaan	le		H	sg all
       	Jaani	le		H	sg all
       	jaan	le		S	sg all
ka	ka	0		D	
see	see	0		P	sg n
kord	kord	0		D	
    	kord	0		S	sg n
Pärnust	Pärnu	st		H	sg el
toonud	too	nud		V	nud
      	too=nu	d		S	pl n
      	too=nud	0		A	
      	too=nud	0		A	sg n
      	too=nud	d		A	pl n
,	,			Z	
3	3	0		N	?
,	,			Z	
35	35	0		N	?
rbl	rbl	0		Y	?
Bko	####				
selgest	selge	st		A	sg el
raha	raha	0		S	sg g
    	raha	0		S	sg n
    	raha	0		S	sg p
.	.			Z	
_	_			Z	
teeb	tege	b		V	b
summa	summ	0		S	adt
     	summ	0		S	sg g
     	summ	0		S	sg p
     	summa	0		S	sg g
     	summa	0		S	sg n
192	192	0		N	?
rbl	rbl	0		Y	?
Bko	####				
.	.			Z	
selle	see	0		P	sg g
     	sell	e		S	pl p
raha	raha	0		S	sg g
    	raha	0		S	sg n
    	raha	0		S	sg p
peale	pea	le		S	sg all
     	peale	0		D	
     	peale	0		K	
andis	and	is		V	s
Hans	Hans	0		H	sg n
Sepp	sepp	0		S	sg n
veel	veel	0		D	
    	vesi	l		S	sg ad
üles	üles	0		D	
,	,			Z	
on	ole	0		V	b
  	ole	0		V	vad
Jaan	Jaan	0		H	sg n
    	jaan	0		S	sg n
    	jaan	0		Y	?
S	S	0		Y	?
.	.			Z	
mulle	mull	e		S	pl p
     	mina	lle		P	sg all
     	mulle	0		S	sg n
ära	ära	0		D	
   	ära	0		V	neg o
tasunud	tasu	nud		V	nud
       	tasu=nu	d		S	pl n
       	tasu=nud	0		A	
       	tasu=nud	0		A	sg n
       	tasu=nud	d		A	pl n
:	:			Z	
_	_			Z	
1	1	0		N	?
,	,			Z	
10	10	0		N	?
rbl	rbl	0		Y	?
Bko	####				
selgest	selge	st		A	sg el
raha	raha	0		S	sg g
    	raha	0		S	sg n
    	raha	0		S	sg p
.	.			Z	
2	2	0		N	?
,	,			Z	
18	18	0		N	?
_	_			Z	
90	90	0		N	?
kop	kop	0		Y	?
B	B	0		Y	?
.	.			Z	
ühe	üks	0		N	sg g
   	üks	0		P	sg g
   	ühe	0		S	sg n
pütti	pütt	0		S	adt
     	pütt	0		S	sg p
sula	sula	0		A	sg g
    	sula	0		S	sg g
    	sula	0		V	o
    	sula	0		A	sg n
    	sula	0		A	sg p
    	sula	0		S	sg n
    	sula	0		S	sg p
hind	hind	0		S	sg n
,	,			Z	
ning	ning	0		J	
3	3	0		N	?
,	,			Z	
7	7	0		N	?
_	_			Z	
_	_			Z	
B. None	####				
ehk	ehk	0		D	
   	ehk	0		J	
2	2	0		N	?
puuddelit	####				
rummi	rumm	0		S	adt
     	rumm	0		S	sg g
     	rumm	0		S	sg p
None	####				
.	.			Z	
Summa	summ	0		S	adt
     	summ	0		S	sg g
     	summ	0		S	sg p
     	summa	0		S	sg g
     	summa	0		S	sg n
35	35	0		N	?
rbl	rbl	0		Y	?
90	90	0		N	?
kop	kop	0		Y	?
Bko	####				
.	.			Z	
_	_			Z	
tuli	tuli	0		S	sg n
    	tule	i		V	s
ette	ette	0		D	
    	ette	0		K	
    	esi	tte		S	adt
Endrik	Endrik	0		H	sg n
Sepp	sepp	0		S	sg n
,	,			Z	
ning	ning	0		J	
tunnistas	tunnista	s		V	s
,	,			Z	
et	et	0		J	
tema	tema	0		P	sg g
    	tema	0		P	sg n
Hans	Hans	0		H	sg n
Seppa	sepp	0		S	adt
     	sepp	0		S	sg p
kätte	kätte	0		K	
     	käsi	tte		S	adt
100	100	0		N	?
rbl	rbl	0		Y	?
Bko	####				
andnud	and	nud		V	nud
      	and=nu	d		S	pl n
      	and=nud	0		A	
      	and=nud	0		A	sg n
      	and=nud	d		A	pl n
,	,			Z	
ka	ka	0		D	
Jaan	Jaan	0		H	sg n
    	jaan	0		S	sg n
    	jaan	0		Y	?
Seppa	sepp	0		S	adt
     	sepp	0		S	sg p
heaks	hea	ks		A	sg tr
     	hea	ks		S	sg tr
     	heaks	0		D	
     	heaks	0		K	
kui	kui	0		D	
   	kui	0		J	
ta	tema	0		P	sg g
  	tema	0		P	sg n
peremehes	pere_mees	s		S	sg in
saanud	saa	nud		V	nud
      	saa=nud	0		A	
      	saa=nud	0		A	sg n
      	saa=nud	d		A	pl n
      	saanu	d		S	pl n
.	.			Z	
need	see	d		P	pl n
100	100	0		N	?
rbl	rbl	0		Y	?
Bko	####				
on	ole	0		V	b
  	ole	0		V	vad
Jaan	Jaan	0		H	sg n
    	jaan	0		S	sg n
    	jaan	0		Y	?
Sepp	sepp	0		S	sg n
mulle	mull	e		S	pl p
     	mina	lle		P	sg all
     	mulle	0		S	sg n
ära	ära	0		D	
   	ära	0		V	neg o
maksnud	maks	nud		V	nud
       	maks=nu	d		S	pl n
       	maks=nud	0		A	
       	maks=nud	0		A	sg n
       	maks=nud	d		A	pl n
,	,			Z	
ning	ning	0		J	
on	ole	0		V	b
  	ole	0		V	vad
need	see	d		P	pl n
100	100	0		N	?
rbl	rbl	0		Y	?
,	,			Z	
mis	mis	0		P	pl n
   	mis	0		P	sg n
Hansu	Hans	0		H	adt
     	Hans	0		H	sg g
     	Hans	0		H	sg p
kätte	kätte	0		K	
     	käsi	tte		S	adt
andsin	and	sin		V	sin
,	,			Z	
nüüd	nüüd	0		D	
Jaanile	Jaan	le		H	sg all
       	Jaani	le		H	sg all
       	jaan	le		S	sg all
käsuks	käsk	ks		S	sg tr
.	.			Z	
_	_			Z	
Hans	Hans	0		H	sg n
Sepp	sepp	0		S	sg n
tunnistas	tunnista	s		V	s
selle	see	0		P	sg g
     	sell	e		S	pl p
õige	õige	0		A	sg g
    	õige	0		A	sg n
    	õige	0		D	
olevat	ole	vat		V	vat
      	olev	t		A	sg p
      	olev	t		S	sg p
.	.			Z	
_	_			Z	
selle	see	0		P	sg g
     	sell	e		S	pl p
perra	####				
on	ole	0		V	b
  	ole	0		V	vad
nüüd	nüüd	0		D	
Jaan	Jaan	0		H	sg n
    	jaan	0		S	sg n
    	jaan	0		Y	?
Sepp	sepp	0		S	sg n
Hans	Hans	0		H	sg n
Seppale	####				
oma	oma	0		A	sg g
   	oma	0		D	
   	oma	0		P	sg g
   	oma	0		S	sg g
   	oma	0		V	o
   	oma	0		A	sg n
   	oma	0		A	sg p
   	oma	0		P	sg n
   	oma	0		P	sg p
   	oma	0		S	sg n
   	oma	0		S	sg p
võla	võlg	0		S	sg g
peale	pea	le		S	sg all
     	peale	0		D	
     	peale	0		K	
maksnud	maks	nud		V	nud
       	maks=nu	d		S	pl n
       	maks=nud	0		A	
       	maks=nud	0		A	sg n
       	maks=nud	d		A	pl n
135	135	0		N	?
rbl	rbl	0		Y	?
90	90	0		N	?
kop	kop	0		Y	?
B	B	0		Y	?
.	.			Z	
ning	ning	0		J	
jääb	jää	b		V	b
tal	tema	l		P	sg ad
veel	veel	0		D	
    	vesi	l		S	sg ad
maksa	maks	0		S	adt
     	maks	0		S	sg g
     	maks	0		V	o
     	maks	0		S	sg p
38	38	0		N	?
rbl	rbl	0		Y	?
10	10	0		N	?
kop	kop	0		Y	?
Bko	####				
ehk	ehk	0		D	
   	ehk	0		J	
23	23	0		N	?
rbl	rbl	0		Y	?
75	75	0		N	?
kop	kop	0		Y	?
õdbe	####				
.	.			Z	
_	_			Z	
Jaan	Jaan	0		H	sg n
    	jaan	0		S	sg n
    	jaan	0		Y	?
Sepp	sepp	0		S	sg n
maksis	maks	is		V	s
      	maksi	s		S	sg in
siis	siis	0		D	
    	siis	0		J	
ka	ka	0		D	
need	see	d		P	pl n
23	23	0		N	?
rbl	rbl	0		Y	?
75	75	0		N	?
kop	kop	0		Y	?
õb	####				
.	.			Z	
kogukonna	kogukond	0		S	sg g
kohtu	kohtu	0		V	o
     	kohus	0		S	sg g
nähes	näge	es		V	des
Hans	Hans	0		H	sg n
Seppale	####				
ära	ära	0		D	
   	ära	0		V	neg o
ning	ning	0		J	
mõlemad	mõlema	d		P	pl n
lepsid	####				
üks	üks	0		N	sg n
   	üks	0		P	sg n
teisega	teine	ga		O	sg kom
       	teine	ga		P	sg kom
suud	suu	d		S	pl n
    	suu	d		S	sg p
sanda	####				
ära	ära	0		D	
   	ära	0		V	neg o
.	.			Z	
_	_			Z	
Peeter	Peeter	0		H	sg n
Päkon	####				
[	[			Z	
allkiri	all_kiri	0		S	sg n
]	]			Z	
