Laiksaare	laik_saar	0		S	sg g
kogukonna	kogukond	0		S	sg g
kohus	kohu	s		V	s
     	kohus	0		S	sg n
sel	see	l		P	sg ad
   	sel	0		Y	?
19ndal	19=s	l		O	sg ad
märz	####				
1865	1865	0		N	?
kohtus	kohtu	s		V	s
      	kohus	s		S	sg in
olid	ole	id		V	sid
pea	pea	0		D	
   	pea	0		S	sg g
   	pida	0		V	o
   	pea	0		S	sg n
kohtumees	kohtu_mees	0		S	sg n
Juh	Juh	0		Y	?
.	.			Z	
Peterson	Peterson	0		H	sg n
kohtumees	kohtu_mees	0		S	sg n
Jüri	Jüri	0		H	sg g
    	Jüri	0		H	sg n
Orav	orav	0		S	sg n
-	-			Z	
,	,			Z	
,	,			Z	
-	-			Z	
Jaan	Jaan	0		H	sg n
    	jaan	0		S	sg n
    	jaan	0		Y	?
Kurm	####				
mõisa	mõis	0		S	sg g
valitsus	valitsus	0		S	sg n
kaivas	####				
oma	oma	0		A	sg g
   	oma	0		D	
   	oma	0		P	sg g
   	oma	0		S	sg g
   	oma	0		V	o
   	oma	0		A	sg n
   	oma	0		A	sg p
   	oma	0		P	sg n
   	oma	0		P	sg p
   	oma	0		S	sg n
   	oma	0		S	sg p
Sauniku	saunik	0		S	sg g
Endrek	####				
Toootsi	####				
peale	pea	le		S	sg all
     	peale	0		D	
     	peale	0		K	
.	.			Z	
1.	1.	0		O	?
et	et	0		J	
poiss	poiss	0		S	sg n
Jüri	Jüri	0		H	sg g
    	Jüri	0		H	sg n
võtnut	võt=nu	t		S	sg p
oma	oma	0		A	sg g
   	oma	0		D	
   	oma	0		P	sg g
   	oma	0		S	sg g
   	oma	0		V	o
   	oma	0		A	sg n
   	oma	0		A	sg p
   	oma	0		P	sg n
   	oma	0		P	sg p
   	oma	0		S	sg n
   	oma	0		S	sg p
Naedali	####				
Leva	####				
ja	ja	0		J	
Reimet	####				
velga	####				
pidanut	pida=nu	t		S	sg p
töse	####				
tulema	tule	ma		V	ma
,	,			Z	
aga	aga	0		J	
ei	ei	0		D	
  	ei	0		V	neg
tulnud	tul=nud	0		A	
      	tul=nud	0		A	sg n
      	tul=nud	d		A	pl n
      	tule	nud		V	nud
      	tulnu	d		S	pl n
raha	raha	0		S	sg g
    	raha	0		S	sg n
    	raha	0		S	sg p
perast	####				
töese	####				
ega	ega	0		D	
   	ega	0		J	
tulnud	tul=nud	0		A	
      	tul=nud	0		A	sg n
      	tul=nud	d		A	pl n
      	tule	nud		V	nud
      	tulnu	d		S	pl n
oma	oma	0		A	sg g
   	oma	0		D	
   	oma	0		P	sg g
   	oma	0		S	sg g
   	oma	0		V	o
   	oma	0		A	sg n
   	oma	0		A	sg p
   	oma	0		P	sg n
   	oma	0		P	sg p
   	oma	0		S	sg n
   	oma	0		S	sg p
peris	####				
peivi	####				
mis	mis	0		P	pl n
   	mis	0		P	sg n
taliga	tali	ga		S	sg kom
Naedalil	####				
tehja	####				
ond	####				
tegema	tege	ma		V	ma
,	,			Z	
et	et	0		J	
kül	####				
mõisa	mõis	0		S	sg g
valitsus	valitsus	0		S	sg n
kaks	kaks	0		N	sg n
korda	kord	0		S	adt
     	korda	0		V	o
     	kord	0		S	sg p
Kasko	kasko	0		S	sg g
     	kasko	0		S	sg n
,	,			Z	
tema	tema	0		P	sg g
    	tema	0		P	sg n
jerel	####				
satnud	####				
siski	####				
tema	tema	0		P	sg g
    	tema	0		P	sg n
seda	see	da		P	sg p
kulda	kuld	0		S	adt
     	kulda	0		V	o
     	kuld	0		S	sg p
ei	ei	0		D	
  	ei	0		V	neg
ole	ole	0		V	o
võtnud	võt	nud		V	nud
      	võt=nu	d		S	pl n
      	võt=nud	0		A	
      	võt=nud	0		A	sg n
      	võt=nud	d		A	pl n
.	.			Z	
2.	2.	0		O	?
et	et	0		J	
tema	tema	0		P	sg g
    	tema	0		P	sg n
poig	####				
Juhann	####				
kiss	####				
kargamehe	####				
ammetti	####				
peal	pea	l		S	sg ad
    	peal	0		D	
    	peal	0		K	
mõisas	mõis	s		S	sg in
oli	ole	i		V	s
oma	oma	0		A	sg g
   	oma	0		D	
   	oma	0		P	sg g
   	oma	0		S	sg g
   	oma	0		V	o
   	oma	0		A	sg n
   	oma	0		A	sg p
   	oma	0		P	sg n
   	oma	0		P	sg p
   	oma	0		S	sg n
   	oma	0		S	sg p
ohtuse	####				
lebi	####				
oli	ole	i		V	s
ühe	üks	0		N	sg g
   	üks	0		P	sg g
   	ühe	0		S	sg n
mõisa	mõis	0		S	sg g
Lehma	lehm	0		S	adt
     	lehm	0		S	sg g
     	lehm	0		S	sg p
lasnud	####				
Lõga	####				
ennast	ise	t		P	sg p
erapua	####				
,	,			Z	
ja	ja	0		J	
kui	kui	0		D	
   	kui	0		J	
mõisa	mõis	0		S	sg g
valitsus	valitsus	0		S	sg n
tema	tema	0		P	sg g
    	tema	0		P	sg n
peal	pea	l		S	sg ad
    	peal	0		D	
    	peal	0		K	
tapelnud	taple	nud		V	nud
        	tapel=nu	d		S	pl n
        	tapel=nud	0		A	
        	tapel=nud	0		A	sg n
        	tapel=nud	d		A	pl n
ja	ja	0		J	
lubanud	luba	nud		V	nud
       	luba=nu	d		S	pl n
       	luba=nud	0		A	
       	luba=nud	0		A	sg n
       	luba=nud	d		A	pl n
temal	tema	l		P	sg ad
vitsu	vits	u		S	pl p
lasta	lask	ta		V	da
     	lask	ta		V	ta
anda	and	a		V	da
Pois	poi	s		S	sg in
gusnud	####				
ärra	####				
ja	ja	0		J	
oli	ole	i		V	s
Nedal	####				
aega	aeg	0		S	adt
    	aeg	0		S	sg p
    	aega	0		K	
kadunud	kadu	nud		V	nud
       	kadunu	d		S	pl n
       	kadunud	0		A	
       	kadunud	0		A	sg n
       	kadunud	d		A	pl n
ga	####				
on	ole	0		V	b
  	ole	0		V	vad
tema	tema	0		P	sg g
    	tema	0		P	sg n
asemel	ase	l		S	sg ad
      	asemel	0		K	
pidunud	####				
ühe	üks	0		N	sg g
   	üks	0		P	sg g
   	ühe	0		S	sg n
teise	teine	0		O	adt
     	teine	0		O	sg g
     	teine	0		P	adt
     	teine	0		P	sg g
inimesse	inimene	se		S	adt
tema	tema	0		P	sg g
    	tema	0		P	sg n
asemel	ase	l		S	sg ad
      	asemel	0		K	
pidama	pida	ma		V	ma
.	.			Z	
3.	3.	0		O	?
et	et	0		J	
Saunamehel	sauna_mees	l		S	sg ad
Endrek	####				
Toootsil	####				
oli	ole	i		V	s
mõisa	mõis	0		S	sg g
valitsus	valitsus	0		S	sg n
keo	####				
annud	####				
et	et	0		J	
peab	pida	b		V	b
mõisa	mõis	0		S	sg g
tulema	tule	ma		V	ma
,	,			Z	
kelle	kes	0		P	pl g
     	kes	0		P	sg g
keso	####				
peal	pea	l		S	sg ad
    	peal	0		D	
    	peal	0		K	
tema	tema	0		P	sg g
    	tema	0		P	sg n
tuli	tuli	0		S	sg n
    	tule	i		V	s
,	,			Z	
mõisa	mõis	0		S	sg g
valitsus	valitsus	0		S	sg n
oma	oma	0		A	sg g
   	oma	0		D	
   	oma	0		P	sg g
   	oma	0		S	sg g
   	oma	0		V	o
   	oma	0		A	sg n
   	oma	0		A	sg p
   	oma	0		P	sg n
   	oma	0		P	sg p
   	oma	0		S	sg n
   	oma	0		S	sg p
õnnetus	õnnetu	s		A	sg in
       	õnnetus	0		S	sg n
oli	ole	i		V	s
rekinud	####				
ja	ja	0		J	
keinud	####				
teda	tema	da		P	sg p
et	et	0		J	
tema	tema	0		P	sg g
    	tema	0		P	sg n
Poga	####				
oletuse	oletus	0		S	sg g
lebi	####				
see	see	0		P	sg n
Lehm	lehm	0		S	sg n
surnud	surnu	d		S	pl n
      	surnud	0		A	
      	surnud	0		A	sg n
      	surnud	d		A	pl n
      	sure	nud		V	nud
see	see	0		P	sg n
Lehm	lehm	0		S	sg n
metsa	mets	0		S	adt
     	mets	0		S	sg g
     	mets	0		S	sg p
viga	viga	0		S	sg n
    	viga	0		S	sg p
ja	ja	0		J	
nahk	nahk	0		S	sg n
Sillast	sild	st		S	sg el
ärra	####				
võta	võt	0		V	o
ja	ja	0		J	
mõisa	mõis	0		S	sg g
tua	####				
,	,			Z	
kellepeal	kelle_pea	l		S	sg ad
Endrek	####				
velga	####				
leks	####				
aga	aga	0		J	
es	es			H	?
vasta	vasta	0		V	o
kedagi	keegi	dagi		P	sg p
,	,			Z	
teisel	teine	l		O	sg ad
      	teine	l		P	sg ad
Paeval	####				
soitis	####				
mõisa	mõis	0		S	sg g
valitsus	valitsus	0		S	sg n
velga	####				
,	,			Z	
et	et	0		J	
Endrek	####				
ei	ei	0		D	
  	ei	0		V	neg
olnud	ol=nud	0		A	
     	ol=nud	0		A	sg n
     	ol=nud	d		A	pl n
     	ole	nud		V	nud
     	olnu	d		S	pl n
veel	veel	0		D	
    	vesi	l		S	sg ad
selle	see	0		P	sg g
     	sell	e		S	pl p
Lehma	lehm	0		S	adt
     	lehm	0		S	sg g
     	lehm	0		S	sg p
jerel	####				
tulnud	tul=nud	0		A	
      	tul=nud	0		A	sg n
      	tul=nud	d		A	pl n
      	tule	nud		V	nud
      	tulnu	d		S	pl n
saadis	####				
uesti	####				
keo	####				
,	,			Z	
tuli	tuli	0		S	sg n
    	tule	i		V	s
mõisa	mõis	0		S	sg g
valitsus	valitsus	0		S	sg n
kodu	kodu	0		S	sg g
    	kodu	0		S	sg n
    	kodu	0		S	sg p
ja	ja	0		J	
Lehm	lehm	0		S	sg n
oli	ole	i		V	s
ikka	ikka	0		D	
    	iga	0		S	adt
veel	veel	0		D	
    	vesi	l		S	sg ad
Karga	karga	0		V	o
aigas	####				
maas	maa	s		S	sg in
    	maas	0		D	
,	,			Z	
oli	ole	i		V	s
selle	see	0		P	sg g
     	sell	e		S	pl p
mooga	####				
3	3	0		N	?
Paiva	####				
karja	kari	0		S	adt
     	kari	0		S	sg g
     	kari	0		S	sg p
ajas	aeg	s		S	sg in
    	aja	s		V	s
maas	maa	s		S	sg in
    	maas	0		D	
.	.			Z	
Sai	saa	i		V	s
   	sai	0		S	sg n
sisse	siss	e		S	pl p
     	sisse	0		D	
     	sisse	0		K	
kutsutud	kutsu	tud		V	tud
        	kutsutu	d		S	pl n
        	kutsutud	0		A	
        	kutsutud	0		A	sg n
        	kutsutud	d		A	pl n
Poeg	poeg	0		S	sg n
Jüri	Jüri	0		H	sg g
    	Jüri	0		H	sg n
ja	ja	0		J	
tema	tema	0		P	sg g
    	tema	0		P	sg n
käest	käest	0		K	
     	käsi	st		S	sg el
küsitut	küsi=tu	t		S	sg p
miks	miks	0		D	
    	miks	0		S	sg n
taa	####				
oma	oma	0		A	sg g
   	oma	0		D	
   	oma	0		P	sg g
   	oma	0		S	sg g
   	oma	0		V	o
   	oma	0		A	sg n
   	oma	0		A	sg p
   	oma	0		P	sg n
   	oma	0		P	sg p
   	oma	0		S	sg n
   	oma	0		S	sg p
nädala	nädal	0		S	sg g
Leib	leib	0		S	sg n
ja	ja	0		J	
Reimet	####				
velga	####				
võtnud	võt	nud		V	nud
      	võt=nu	d		S	pl n
      	võt=nud	0		A	
      	võt=nud	0		A	sg n
      	võt=nud	d		A	pl n
ja	ja	0		J	
mitte	mitte	0		D	
ei	ei	0		D	
  	ei	0		V	neg
pole	ole	0		V	neg o
mõisa	mõis	0		S	sg g
tuese	####				
läinud	läinu	d		S	pl n
      	läinud	0		A	
      	läinud	0		A	sg n
      	läinud	d		A	pl n
      	mine	nud		V	nud
,	,			Z	
kuss	kuss	0		I	
peal	pea	l		S	sg ad
    	peal	0		D	
    	peal	0		K	
tema	tema	0		P	sg g
    	tema	0		P	sg n
vastas	vasta	s		V	s
      	vastas	0		D	
      	vastas	0		K	
et	et	0		J	
tema	tema	0		P	sg g
    	tema	0		P	sg n
koguni	kogu	ni		S	sg ter
      	koguni	0		D	
enam	enam	0		C	sg n
    	enam	0		D	
mõisa	mõis	0		S	sg g
töese	####				
ei	ei	0		D	
  	ei	0		V	neg
lehe	leht	0		S	sg g
,	,			Z	
ja	ja	0		J	
on	ole	0		V	b
  	ole	0		V	vad
oma	oma	0		A	sg g
   	oma	0		D	
   	oma	0		P	sg g
   	oma	0		S	sg g
   	oma	0		V	o
   	oma	0		A	sg n
   	oma	0		A	sg p
   	oma	0		P	sg n
   	oma	0		P	sg p
   	oma	0		S	sg n
   	oma	0		S	sg p
Leib	leib	0		S	sg n
metsa	mets	0		S	adt
     	mets	0		S	sg g
     	mets	0		S	sg p
Praua	####				
guurest	####				
velga	####				
võtnud	võt	nud		V	nud
      	võt=nu	d		S	pl n
      	võt=nud	0		A	
      	võt=nud	0		A	sg n
      	võt=nud	d		A	pl n
.	.			Z	
Sai	saa	i		V	s
   	sai	0		S	sg n
sisse	siss	e		S	pl p
     	sisse	0		D	
     	sisse	0		K	
kutsutud	kutsu	tud		V	tud
        	kutsutu	d		S	pl n
        	kutsutud	0		A	
        	kutsutud	0		A	sg n
        	kutsutud	d		A	pl n
Poeg	poeg	0		S	sg n
Juhann	####				
ja	ja	0		J	
tema	tema	0		P	sg g
    	tema	0		P	sg n
käest	käest	0		K	
     	käsi	st		S	sg el
küsitud	küsi	tud		V	tud
       	küsi=tu	d		S	pl n
       	küsi=tud	0		A	
       	küsi=tud	0		A	sg n
       	küsi=tud	d		A	pl n
miks	miks	0		D	
    	miks	0		S	sg n
tema	tema	0		P	sg g
    	tema	0		P	sg n
ond	####				
ärra	####				
gusnud	####				
ilma	ilm	0		S	adt
    	ilm	0		S	sg g
    	ilma	0		D	
    	ilma	0		K	
    	ilm	0		S	sg p
üks	üks	0		N	sg n
   	üks	0		P	sg n
sõnna	####				
lausmata	####				
,	,			Z	
kelle	kes	0		P	pl g
     	kes	0		P	sg g
peal	pea	l		S	sg ad
    	peal	0		D	
    	peal	0		K	
teme	####				
vastas	vasta	s		V	s
      	vastas	0		D	
      	vastas	0		K	
mõisa	mõis	0		S	sg g
härra	härra	0		S	sg g
     	härra	0		S	sg n
oleva	olev	0		A	sg g
     	olev	0		S	sg g
ehvardanud	####				
teda	tema	da		P	sg p
peksa	peks	0		V	o
     	peksa	0		X	
laska	####				
selle	see	0		P	sg g
     	sell	e		S	pl p
perast	####				
ond	####				
tema	tema	0		P	sg g
    	tema	0		P	sg n
ärra	####				
gusnud	####				
.	.			Z	
Sai	saa	i		V	s
   	sai	0		S	sg n
Sisse	siss	e		S	pl p
     	sisse	0		D	
     	sisse	0		K	
kutsutud	kutsu	tud		V	tud
        	kutsutu	d		S	pl n
        	kutsutud	0		A	
        	kutsutud	0		A	sg n
        	kutsutud	d		A	pl n
Saunamees	sauna_mees	0		S	sg n
Endrek	####				
ja	ja	0		J	
tema	tema	0		P	sg g
    	tema	0		P	sg n
käest	käest	0		K	
     	käsi	st		S	sg el
küsitud	küsi	tud		V	tud
       	küsi=tu	d		S	pl n
       	küsi=tud	0		A	
       	küsi=tud	0		A	sg n
       	küsi=tud	d		A	pl n
,	,			Z	
miks	miks	0		D	
    	miks	0		S	sg n
tema	tema	0		P	sg g
    	tema	0		P	sg n
keso	####				
vastu	vastu	0		D	
     	vastu	0		K	
pannud	pan=nu	d		S	pl n
      	pan=nud	0		A	
      	pan=nud	0		A	sg n
      	pan=nud	d		A	pl n
      	pane	nud		V	nud
ja	ja	0		J	
mitte	mitte	0		D	
ei	ei	0		D	
  	ei	0		V	neg
ole	ole	0		V	o
kui	kui	0		D	
   	kui	0		J	
kestud	####				
selle	see	0		P	sg g
     	sell	e		S	pl p
lehma	lehm	0		S	adt
     	lehm	0		S	sg g
     	lehm	0		S	sg p
Naha	nahk	0		S	sg g
selgast	####				
ärra	####				
võtnud	võt	nud		V	nud
      	võt=nu	d		S	pl n
      	võt=nud	0		A	
      	võt=nud	0		A	sg n
      	võt=nud	d		A	pl n
,	,			Z	
kuss	kuss	0		I	
peale	pea	le		S	sg all
     	peale	0		D	
     	peale	0		K	
tema	tema	0		P	sg g
    	tema	0		P	sg n
vastas	vasta	s		V	s
      	vastas	0		D	
      	vastas	0		K	
et	et	0		J	
selleperast	####				
tema	tema	0		P	sg g
    	tema	0		P	sg n
ei	ei	0		D	
  	ei	0		V	neg
ole	ole	0		V	o
seelega	####				
tegemest	####				
teinud	tege	nud		V	nud
      	tei=nud	0		A	
      	tei=nud	0		A	sg n
      	tei=nud	d		A	pl n
      	teinu	d		S	pl n
et	et	0		J	
see	see	0		P	sg n
Jüri	Jüri	0		H	sg g
    	Jüri	0		H	sg n
Poisi	poiss	0		S	sg g
peale	pea	le		S	sg all
     	peale	0		D	
     	peale	0		K	
aetud	ae=tu	d		S	pl n
     	aetud	0		A	
     	aetud	0		A	sg n
     	aetud	d		A	pl n
     	aja	tud		V	tud
.	.			Z	
mõisteti	mõist	ti		V	ti
:	:			Z	
et	et	0		J	
Jüri	Jüri	0		H	sg g
    	Jüri	0		H	sg n
saab	saa	b		V	b
selle	see	0		P	sg g
     	sell	e		S	pl p
Vastupanemese	####				
est	####				
20	20	0		N	?
oppi	opp	0		S	adt
    	opp	0		S	sg p
vitso	####				
ja	ja	0		J	
peab	pida	b		V	b
teise	teine	0		O	adt
     	teine	0		O	sg g
     	teine	0		P	adt
     	teine	0		P	sg g
Paeva	####				
mõisa	mõis	0		S	sg g
töese	####				
tulema	tule	ma		V	ma
.	.			Z	
Juhunn	####				
saab	saa	b		V	b
selle	see	0		P	sg g
     	sell	e		S	pl p
üleanetuse	####				
eest	eest	0		D	
    	eest	0		K	
    	esi	st		S	sg el
et	et	0		J	
tima	####				
ärra	####				
ond	####				
goosnud	####				
10	10	0		N	?
oppi	opp	0		S	adt
    	opp	0		S	sg p
Vitso	####				
,	,			Z	
ja	ja	0		J	
Endrek	####				
saab	saa	b		V	b
selle	see	0		P	sg g
     	sell	e		S	pl p
eest	eest	0		D	
    	eest	0		K	
    	esi	st		S	sg el
et	et	0		J	
tema	tema	0		P	sg g
    	tema	0		P	sg n
keo	####				
ei	ei	0		D	
  	ei	0		V	neg
ole	ole	0		V	o
kulnud	####				
ha	ha	0		Y	?
vastupannud	vastu_pan=nu	d		S	pl n
           	vastu_pan=nud	0		A	
           	vastu_pan=nud	0		A	sg n
           	vastu_pan=nud	d		A	pl n
15	15	0		N	?
oppi	opp	0		S	adt
    	opp	0		S	sg p
vitsa	vits	0		S	adt
     	vits	0		S	sg g
     	vits	0		S	sg p
,	,			Z	
ja	ja	0		J	
peab	pida	b		V	b
Muretsema	muretse	ma		V	ma
et	et	0		J	
see	see	0		P	sg n
Lehma	lehm	0		S	adt
     	lehm	0		S	sg g
     	lehm	0		S	sg p
nahk	nahk	0		S	sg n
mõisa	mõis	0		S	sg g
tagasi	tagasi	0		D	
      	tagasi	0		K	
saab	saa	b		V	b
.	.			Z	
Peale	pea	le		S	sg all
     	peale	0		D	
     	peale	0		K	
selle	see	0		P	sg g
     	sell	e		S	pl p
ütles	ütle	s		V	s
mõisa	mõis	0		S	sg g
valitsus	valitsus	0		S	sg n
see	see	0		P	sg n
perast	####				
et	et	0		J	
tema	tema	0		P	sg g
    	tema	0		P	sg n
oma	oma	0		A	sg g
   	oma	0		D	
   	oma	0		P	sg g
   	oma	0		S	sg g
   	oma	0		V	o
   	oma	0		A	sg n
   	oma	0		A	sg p
   	oma	0		P	sg n
   	oma	0		P	sg p
   	oma	0		S	sg n
   	oma	0		S	sg p
Last	laps	t		S	sg p
    	last	0		S	sg n
mugale	####				
teenistuses	teenistus	s		S	sg in
           	teenistuses	0		A	
           	teenistuses	0		D	
annab	and	b		V	b
peab	pida	b		V	b
tema	tema	0		P	sg g
    	tema	0		P	sg n
Jüri	Jüri	0		H	sg g
    	Jüri	0		H	sg n
paevaks	####				
sealt	sealt	0		D	
     	siga	lt		A	sg abl
     	siga	lt		S	sg abl
magast	####				
vela	####				
minema	mine	ma		V	ma
,	,			Z	
see	see	0		P	sg n
ond	####				
temal	tema	l		P	sg ad
guba	####				
küünlaae	####				
öeldud	öeldu	d		S	pl n
      	öeldud	0		A	
      	öeldud	0		A	sg n
      	öeldud	d		A	pl n
      	ütle	dud		V	tud
,	,			Z	
ja	ja	0		J	
see	see	0		P	sg n
pisike	pisike	0		A	sg n
Sauna	saun	0		S	adt
     	saun	0		S	sg g
     	saun	0		S	sg p
üles	üles	0		D	
raiomene	####				
mis	mis	0		P	pl n
   	mis	0		P	sg n
veel	veel	0		D	
    	vesi	l		S	sg ad
valmis	valm	s		S	sg in
      	valmi	s		V	s
      	valmis	0		A	
      	valmis	0		A	sg n
      	valmis	0		D	
      	valmis	s		A	sg in
ei	ei	0		D	
  	ei	0		V	neg
ole	ole	0		V	o
vatavat	####				
kohtumehed	kohtu_mees	d		S	pl n
üle	üle	0		D	
   	üle	0		K	
mis	mis	0		P	pl n
   	mis	0		P	sg n
taa	####				
veert	veer	t		S	sg p
ond	####				
,	,			Z	
ja	ja	0		J	
sis	####				
saab	saa	b		V	b
tema	tema	0		P	sg g
    	tema	0		P	sg n
makstud	maks	tud		V	tud
       	maks=tu	d		S	pl n
       	maks=tud	0		A	
       	maks=tud	0		A	sg n
       	maks=tud	d		A	pl n
,	,			Z	
seda	see	da		P	sg p
raiomest	####				
.	.			Z	
