tuli	tuli	0		S	sg n
    	tule	i		V	s
see	see	0		P	sg n
naine	naine	0		S	sg n
Mari	Mari	0		H	sg g
    	mari	0		S	sg g
    	mari	0		S	sg n
    	Mari	0		H	sg n
    	mari	0		S	sg p
katssu	####				
siia	siia	0		D	
    	siig	0		S	sg g
kohtu	kohtu	0		V	o
     	kohus	0		S	sg g
ette	ette	0		D	
    	ette	0		K	
    	esi	tte		S	adt
ning	ning	0		J	
kaebas	kaeba	s		V	s
,	,			Z	
et	et	0		J	
tema	tema	0		P	sg g
    	tema	0		P	sg n
tüddar	####				
3	3	0		N	?
aastad	aasta	d		S	pl n
Jaanimarguse	####				
Enno	Enno	0		H	sg g
    	Enno	0		H	sg n
juures	juur	s		S	sg in
      	juures	0		D	
      	juures	0		K	
karjatseks	####				
olnud	ol=nud	0		A	
     	ol=nud	0		A	sg n
     	ol=nud	d		A	pl n
     	ole	nud		V	nud
     	olnu	d		S	pl n
,	,			Z	
ning	ning	0		J	
tema	tema	0		P	sg g
    	tema	0		P	sg n
tüddar	####				
selle	see	0		P	sg g
     	sell	e		S	pl p
aja	aeg	0		S	sg g
   	aja	0		V	o
eest	eest	0		D	
    	eest	0		K	
    	esi	st		S	sg el
mitte	mitte	0		D	
rohkem	rohkem	0		D	
kui	kui	0		D	
   	kui	0		J	
üks	üks	0		N	sg n
   	üks	0		P	sg n
poolpeetud	pool_peetu	d		S	pl n
          	pool_peetud	0		A	
          	pool_peetud	0		A	sg n
          	pool_peetud	d		A	pl n
vammus	vammus	0		S	sg n
saanud	saa	nud		V	nud
      	saa=nud	0		A	
      	saa=nud	0		A	sg n
      	saa=nud	d		A	pl n
      	saanu	d		S	pl n
.	.			Z	
Jaanimarguse	####				
Enn	Enn	0		H	sg n
aastas	aasta	s		S	sg in
ette	ette	0		D	
    	ette	0		K	
    	esi	tte		S	adt
ning	ning	0		J	
ütles	ütle	s		V	s
et	et	0		J	
see	see	0		P	sg n
Mari	Mari	0		H	sg g
    	mari	0		S	sg g
    	mari	0		S	sg n
    	Mari	0		H	sg n
    	mari	0		S	sg p
katssu	####				
tüddar	####				
küll	küll	0		D	
    	küll	0		S	sg n
3	3	0		N	?
aastad	aasta	d		S	pl n
tema	tema	0		P	sg g
    	tema	0		P	sg n
juures	juur	s		S	sg in
      	juures	0		D	
      	juures	0		K	
karjatseks	####				
olnud	ol=nud	0		A	
     	ol=nud	0		A	sg n
     	ol=nud	d		A	pl n
     	ole	nud		V	nud
     	olnu	d		S	pl n
,	,			Z	
mis	mis	0		P	pl n
   	mis	0		P	sg n
teenistuse	teenistus	0		S	sg g
eest	eest	0		D	
    	eest	0		K	
    	esi	st		S	sg el
tema	tema	0		P	sg g
    	tema	0		P	sg n
sel	see	l		P	sg ad
   	sel	0		Y	?
tüdrukul	tüdruk	l		S	sg ad
üks	üks	0		N	sg n
   	üks	0		P	sg n
vammus	vammus	0		S	sg n
mis	mis	0		P	pl n
   	mis	0		P	sg n
kaks	kaks	0		N	sg n
korda	kord	0		S	adt
     	korda	0		V	o
     	kord	0		S	sg p
seljas	selg	s		S	sg in
olnud	ol=nud	0		A	
     	ol=nud	0		A	sg n
     	ol=nud	d		A	pl n
     	ole	nud		V	nud
     	olnu	d		S	pl n
,	,			Z	
annud	####				
.	.			Z	
_	_			Z	
Kohus	kohu	s		V	s
     	kohus	0		S	sg n
kulles	kulles	0		S	sg n
see	see	0		P	sg n
kaebus	kaebus	0		S	sg n
heaste	####				
üle	üle	0		D	
   	üle	0		K	
ning	ning	0		J	
mõistis	mõist	is		V	s
et	et	0		J	
Jaanimarguse	####				
Enn	Enn	0		H	sg n
sel	see	l		P	sg ad
   	sel	0		Y	?
karjatüdrukul	karja_tüdruk	l		S	sg ad
½	####				
vammust	vammus	t		S	sg p
ehk	ehk	0		D	
   	ehk	0		J	
2	2	0		N	?
R	R	0		Y	?
,	,			Z	
.	.			Z	
50	50	0		N	?
kp	####				
B	B	0		Y	?
.	.			Z	
peab	pida	b		V	b
kätte	kätte	0		K	
     	käsi	tte		S	adt
andma	and	ma		V	ma
,	,			Z	
ehk	ehk	0		D	
   	ehk	0		J	
ka	ka	0		D	
teeb	tege	b		V	b
Jaanimarguse	####				
Enn	Enn	0		H	sg n
sel	see	l		P	sg ad
   	sel	0		Y	?
tüdrukul	tüdruk	l		S	sg ad
1	1	0		N	?
terve	terve	0		A	sg g
     	terve	0		A	sg n
     	terve	0		S	sg g
     	terve	0		S	sg n
vammus	vammus	0		S	sg n
ning	ning	0		J	
saab	saa	b		V	b
siis	siis	0		D	
    	siis	0		J	
aga	aga	0		J	
2	2	0		N	?
R	R	0		Y	?
.	.			Z	
50	50	0		N	?
kp	####				
B	B	0		Y	?
.	.			Z	
tagasi	tagasi	0		D	
      	tagasi	0		K	
maksetud	makse=tu	d		A	pl n
.	.			Z	
_	_			Z	
sel	see	l		P	sg ad
   	sel	0		Y	?
naisel	naine	l		S	sg ad
Mari	Mari	0		H	sg g
    	mari	0		S	sg g
    	mari	0		S	sg n
    	Mari	0		H	sg n
    	mari	0		S	sg p
sukalts	####				
on	ole	0		V	b
  	ole	0		V	vad
õigus	õigus	0		S	sg n
selle	see	0		P	sg g
     	sell	e		S	pl p
asjaga	asi	ga		S	sg kom
teha	tege	a		V	da
kuidas	kuidas	0		D	
tema	tema	0		P	sg g
    	tema	0		P	sg n
tahab	taht	b		V	b
.	.			Z	
Johann	Johann	0		H	sg n
Leppik	Leppik	0		H	sg n
[	[			Z	
allkiri	all_kiri	0		S	sg n
]	]			Z	
