ette	ette	0		D	
    	ette	0		K	
    	esi	tte		S	adt
kutsutud	kutsu	tud		V	tud
        	kutsutu	d		S	pl n
        	kutsutud	0		A	
        	kutsutud	0		A	sg n
        	kutsutud	d		A	pl n
sai	saa	i		V	s
   	sai	0		S	sg n
Sindi	Sindi	0		H	sg g
     	Sindi	0		H	sg n
mees	mees	0		S	sg n
    	mesi	s		S	sg in
Jaan	Jaan	0		H	sg n
    	jaan	0		S	sg n
    	jaan	0		Y	?
Jakobson	Jakobson	0		H	sg n
kes	kes	0		P	pl n
   	kes	0		P	sg n
pühapäev	püha_päev	0		S	sg n
õhtul	õhtu	l		S	sg ad
4.	4.	0		O	?
Novembril	november	l		S	sg ad
s	s	0		Y	?
.	.			Z	
a.	a	0		Y	?
Sindi	Sindi	0		H	sg g
     	Sindi	0		H	sg n
mõisa	mõis	0		S	sg g
kõrtsist	kõrts	st		S	sg el
tüli	tüli	0		S	sg g
    	tüli	0		S	sg n
    	tüli	0		S	sg p
tegemise	tegemine	0		S	sg g
pärast	pära	st		S	sg el
      	pärane	t		A	sg p
      	pärast	0		D	
      	pärast	0		K	
valla	vald	0		S	sg g
     	valla	0		D	
vangi	vang	0		S	adt
     	vang	0		S	sg g
     	vang	0		S	sg p
maiasse	maia	sse		S	sg ill
       	maias	sse		A	sg ill
kinni	kinni	0		D	
toodud	too	dud		V	tud
      	toodu	d		S	pl n
      	toodud	0		A	
      	toodud	0		A	sg n
      	toodud	d		A	pl n
sai	saa	i		V	s
   	sai	0		S	sg n
,	,			Z	
kus	kus	0		D	
juuures	####				
tema	tema	0		P	sg g
    	tema	0		P	sg n
valla	vald	0		S	sg g
     	valla	0		D	
vahemehe	vahe_mees	0		S	sg g
käest	käest	0		K	
     	käsi	st		S	sg el
valla	vald	0		S	sg g
     	valla	0		D	
lambi	lamp	0		A	sg g
     	lamp	0		S	sg g
,	,			Z	
mis	mis	0		P	pl n
   	mis	0		P	sg n
2.50	2.50	0		N	?
kopik	####				
maksab	maks	b		V	b
meelega	meel	ga		S	sg kom
       	meelega	0		D	
maha	maha	0		D	
ja	ja	0		J	
seega	seega	0		D	
puruks	puru	ks		S	sg tr
      	puruks	0		D	
lõi	loo	i		V	s
   	löö	i		V	s
ning	ning	0		J	
peale	pea	le		S	sg all
     	peale	0		D	
     	peale	0		K	
selle	see	0		P	sg g
     	sell	e		S	pl p
kui	kui	0		D	
   	kui	0		J	
pandud	pan=du	d		S	pl n
      	pan=dud	0		A	
      	pan=dud	0		A	sg n
      	pan=dud	d		A	pl n
      	pane	dud		V	tud
oli	ole	i		V	s
vangimaias	vangi_maia	s		S	sg in
          	vangi_maias	0		A	sg n
          	vangi_maias	s		A	sg in
magamise	magamine	0		S	sg g
raamidega	raam	dega		S	pl kom
vastu	vastu	0		D	
     	vastu	0		K	
ust	uks	t		S	sg p
   	ust	0		I	
rohkeste	####				
tund	tund	0		S	sg n
aega	aeg	0		S	adt
    	aeg	0		S	sg p
    	aega	0		K	
põrutas	põruta	s		V	s
,	,			Z	
nii	nii	0		D	
et	et	0		J	
kõik	kõik	0		P	pl n
    	kõik	0		S	sg n
    	kõik	0		P	sg n
lubi	lubi	0		S	sg n
vangi	vang	0		S	adt
     	vang	0		S	sg g
     	vang	0		S	sg p
maea	####				
seinde	####				
pragude	pragu	de		S	pl g
vahelt	vahe	lt		S	sg abl
      	vahelt	0		D	
      	vahelt	0		K	
maha	maha	0		D	
langes	lange	s		V	s
      	lange	s		S	sg in
ja	ja	0		J	
pea	pea	0		D	
   	pea	0		S	sg g
   	pida	0		V	o
   	pea	0		S	sg n
ka	ka	0		D	
ukse	uks	0		S	sg g
maha	maha	0		D	
lõõnud	####				
oleks	ole	ks		V	ks
,	,			Z	
mispärast	mis_pärast	0		D	
kolm	kolm	0		N	sg n
meest	meene	t		A	sg p
     	mees	t		S	sg p
     	mesi	st		S	sg el
teda	tema	da		P	sg p
valvama	valva	ma		V	ma
pandud	pan=du	d		S	pl n
      	pan=dud	0		A	
      	pan=dud	0		A	sg n
      	pan=dud	d		A	pl n
      	pane	dud		V	tud
said	saa	id		V	sid
ja	ja	0		J	
kelledele	kes	dele		P	pl all
150	150	0		N	?
kop	kop	0		Y	?
vahtimise	vahtimine	0		S	sg g
palgaks	palk	ks		S	sg tr
makstud	maks	tud		V	tud
       	maks=tu	d		S	pl n
       	maks=tud	0		A	
       	maks=tud	0		A	sg n
       	maks=tud	d		A	pl n
sai	saa	i		V	s
   	sai	0		S	sg n
ning	ning	0		J	
vastas	vasta	s		V	s
      	vastas	0		D	
      	vastas	0		K	
Jaan	Jaan	0		H	sg n
    	jaan	0		S	sg n
    	jaan	0		Y	?
Jakobson	Jakobson	0		H	sg n
,	,			Z	
et	et	0		J	
tema	tema	0		P	sg g
    	tema	0		P	sg n
seda	see	da		P	sg p
valu	valu	0		S	sg g
    	valu	0		V	o
    	valu	0		S	sg n
    	valu	0		S	sg p
ja	ja	0		J	
via	####				
pärast	pära	st		S	sg el
      	pärane	t		A	sg p
      	pärast	0		D	
      	pärast	0		K	
teinud	tege	nud		V	nud
      	tei=nud	0		A	
      	tei=nud	0		A	sg n
      	tei=nud	d		A	pl n
      	teinu	d		S	pl n
olla	ole	a		V	da
,	,			Z	
mis	mis	0		P	pl n
   	mis	0		P	sg n
peale	pea	le		S	sg all
     	peale	0		D	
     	peale	0		K	
kohus	kohu	s		V	s
     	kohus	0		S	sg n
:	:			Z	
mõistuse	mõistus	0		S	sg g
tegi	sina	0	gi	P	pl g
    	tege	i		V	s
    	sina	0	gi	P	pl n
:	:			Z	
Jaan	Jaan	0		H	sg n
    	jaan	0		S	sg n
    	jaan	0		Y	?
Jakobson	Jakobson	0		H	sg n
saab	saa	b		V	b
30	30	0		N	?
hoopi	hoop	0		S	adt
     	hoop	0		S	sg p
vitsu	vits	u		S	pl p
selle	see	0		P	sg g
     	sell	e		S	pl p
rõõvli	####				
kombel	kombel	0		K	
      	komme	l		S	sg ad
ennast	ise	t		P	sg p
vangi	vang	0		S	adt
     	vang	0		S	sg g
     	vang	0		S	sg p
maias	maia	s		S	sg in
     	maias	0		A	sg n
     	maias	s		A	sg in
ülles	####				
pidamise	pidamine	0		S	sg g
eest	eest	0		D	
    	eest	0		K	
    	esi	st		S	sg el
ja	ja	0		J	
maksab	maks	b		V	b
4	4	0		N	?
rubla	rubla	0		S	sg g
     	rubla	0		S	sg n
     	rubla	0		S	sg p
kahjutasumist	kahju_tasumine	t		S	sg p
8	8	0		N	?
päeva	päev	0		S	adt
     	päev	0		S	sg g
     	päev	0		S	sg p
pärast	pära	st		S	sg el
      	pärane	t		A	sg p
      	pärast	0		D	
      	pärast	0		K	
.	.			Z	
30	30	0		N	?
hoopi	hoop	0		S	adt
     	hoop	0		S	sg p
vitsu	vits	u		S	pl p
sai	saa	i		V	s
   	sai	0		S	sg n
kohe	kohe	0		A	sg n
    	kohe	0		D	
kätte	kätte	0		K	
     	käsi	tte		S	adt
antud	an=tu	d		S	pl n
     	and	tud		V	tud
     	antud	0		A	
     	antud	0		A	sg n
     	antud	d		A	pl n
.	.			Z	
eesistnik	####				
:	:			Z	
Juri	Juri	0		H	sg g
    	Juri	0		H	sg n
Pusse	puss	e		S	pl p
XXX	XXX	0		O	?
   	XXX	0		Y	?
kohtumees	kohtu_mees	0		S	sg n
Jaak	Jaak	0		H	sg n
    	jaak	0		S	sg n
Nerjussov	####				
XXX	XXX	0		O	?
   	XXX	0		Y	?
kohtumees	kohtu_mees	0		S	sg n
:	:			Z	
Tõnis	Tõnis	0		H	sg n
Kuller	kuller	0		S	sg n
XXX	XXX	0		O	?
   	XXX	0		Y	?
