keiserlikko	####				
Pärnu	Pärnu	0		H	adt
     	Pärnu	0		H	sg g
     	Pärnu	0		H	sg n
     	pärnu	0		G	
silla	sild	0		S	sg g
kohtu	kohtu	0		V	o
     	kohus	0		S	sg g
käsu	käsk	0		S	sg g
peale	pea	le		S	sg all
     	peale	0		D	
     	peale	0		K	
22	22	0		N	?
Aprilist	####				
sa	sina	0		P	sg n
sab	####				
No	no	0		I	
2906.	2906.	0		O	?
võeti	võt	ti		V	ti
Kihlepa	####				
metsa	mets	0		S	adt
     	mets	0		S	sg g
     	mets	0		S	sg p
Hära	####				
agana	agan	0		S	sg g
vargust	vargus	t		S	sg p
järgi	järg	i		S	pl p
     	järgi	0		D	
     	järgi	0		K	
     	järgi	0		V	o
otsida	otsi	da		V	da
Urruste	####				
kiriku	kirik	0		S	sg g
härra	härra	0		S	sg g
     	härra	0		S	sg n
maade	maa	de		S	pl g
rentnikude	####				
Audrus	Audru	s		H	sg in
Arjaka	####				
ja	ja	0		J	
märt	####				
Reheso	####				
juuures	####				
kas	kas	0		D	
neilt	see	lt		P	pl abl
     	tema	lt		P	pl abl
sest	see	st		P	sg el
    	sest	0		J	
12mast	####				
Aprili	####				
õõsist	####				
agana	agan	0		S	sg g
vargusest	vargus	st		S	sg el
midagist	####				
ees	ees	0		D	
   	ees	0		K	
   	esi	s		S	sg in
leida	leid	a		V	da
oleks	ole	ks		V	ks
,	,			Z	
kus	kus	0		D	
neilt	see	lt		P	pl abl
     	tema	lt		P	pl abl
midagist	####				
leida	leid	a		V	da
polnud	ole	nud		V	neg nud
kui	kui	0		D	
   	kui	0		J	
aga	aga	0		J	
seda	see	da		P	sg p
,	,			Z	
et	et	0		J	
see	see	0		P	sg n
saapa	saabas	0		S	sg g
jälg	jälg	0		S	sg n
üksi	üksi	0		D	
sehokene	####				
on	ole	0		V	b
  	ole	0		V	vad
olnud	ol=nud	0		A	
     	ol=nud	0		A	sg n
     	ol=nud	d		A	pl n
     	ole	nud		V	nud
     	olnu	d		S	pl n
lume	lumi	0		S	sg g
peal	pea	l		S	sg ad
    	peal	0		D	
    	peal	0		K	
kui	kui	0		D	
   	kui	0		J	
Andrus	Andrus	0		H	sg n
Arjaka	####				
ette	ette	0		D	
    	ette	0		K	
    	esi	tte		S	adt
näitetud	näite=tu	d		A	pl n
kalavikski	kala_viks	0	ki	A	sg n
          	kala_viks	0	ki	S	sg n
saabas	saabas	0		S	sg n
.	.			Z	
kutsuti	kutsu	ti		V	ti
ette	ette	0		D	
    	ette	0		K	
    	esi	tte		S	adt
Andrus	Andrus	0		H	sg n
Arjakas	Arjakas	0		H	sg n
ja	ja	0		J	
salgab	salga	b		V	b
et	et	0		J	
tema	tema	0		P	sg g
    	tema	0		P	sg n
poole	pool	0		N	sg g
     	pool	0		S	sg g
     	pool	e		S	pl p
     	poole	0		K	
     	poole	0		S	sg n
mitte	mitte	0		D	
metsa	mets	0		S	adt
     	mets	0		S	sg g
     	mets	0		S	sg p
Hära	####				
aganaid	agan	id		S	pl p
vargil	vargil	0		D	
käinud	käi	nud		V	nud
      	käi=nud	0		A	
      	käi=nud	0		A	sg n
      	käi=nud	d		A	pl n
      	käinu	d		S	pl n
,	,			Z	
et	et	0		J	
selle	see	0		P	sg g
     	sell	e		S	pl p
õõsi	õõs	i		S	pl p
poole	pool	0		N	sg g
     	pool	0		S	sg g
     	pool	e		S	pl p
     	poole	0		K	
     	poole	0		S	sg n
kodu	kodu	0		S	sg g
    	kodu	0		S	sg n
    	kodu	0		S	sg p
olnud	ol=nud	0		A	
     	ol=nud	0		A	sg n
     	ol=nud	d		A	pl n
     	ole	nud		V	nud
     	olnu	d		S	pl n
vaid	vaid	0		D	
    	vaid	0		J	
Audru	Audru	0		H	sg g
     	Audru	0		H	sg n
veskel	####				
.	.			Z	
kutsuti	kutsu	ti		V	ti
ette	ette	0		D	
    	ette	0		K	
    	esi	tte		S	adt
tunnistus	tunnistus	0		S	sg n
kohtumees	kohtu_mees	0		S	sg n
Toomas	Toomas	0		H	sg n
      	Toomas	s		H	sg in
      	too	mas		V	mas
Saar	saar	0		S	sg n
ja	ja	0		J	
tunnistab	tunnista	b		V	b
et	et	0		J	
nemad	tema	d		P	pl n
metsa	mets	0		S	adt
     	mets	0		S	sg g
     	mets	0		S	sg p
Hära	####				
nõudmise	nõudmine	0		S	sg g
peale	pea	le		S	sg all
     	peale	0		D	
     	peale	0		K	
Hära	####				
sulase	sulane	0		S	sg g
Hans	Hans	0		H	sg n
Lovasega	####				
sinna	sinna	0		D	
läinud	läinu	d		S	pl n
      	läinud	0		A	
      	läinud	0		A	sg n
      	läinud	d		A	pl n
      	mine	nud		V	nud
Andrus	Andrus	0		H	sg n
Arjaka	####				
majasse	maja	sse		S	sg ill
minevat	mine	vat		V	vat
       	minev	t		A	sg p
ja	ja	0		J	
agana	agan	0		S	sg g
rada	rada	0		S	sg n
    	rada	0		S	sg p
olnud	ol=nud	0		A	
     	ol=nud	0		A	sg n
     	ol=nud	d		A	pl n
     	ole	nud		V	nud
     	olnu	d		S	pl n
neil	see	l		P	pl ad
    	tema	l		P	pl ad
jälgil	jälk	l		A	sg ad
täga	####				
kuni	kuni	0		J	
    	kuni	0		K	
sinna	sinna	0		D	
Andruse	Andrus	0		H	sg g
Arjaka	####				
juuure	####				
ria	####				
alla	alla	0		D	
    	alla	0		K	
järgi	järg	i		S	pl p
     	järgi	0		D	
     	järgi	0		K	
     	järgi	0		V	o
otsima	otsi	ma		V	ma
ninna	nina	0		S	adt
tahtnud	taht	nud		V	nud
       	taht=nu	d		S	pl n
       	taht=nud	0		A	
       	taht=nud	0		A	sg n
       	taht=nud	d		A	pl n
on	ole	0		V	b
  	ole	0		V	vad
naised	naine	d		S	pl n
välja	välja	0		D	
     	välja	0		V	o
     	väli	0		S	adt
     	väli	0		S	sg g
     	väli	0		S	sg p
tulnud	tul=nud	0		A	
      	tul=nud	0		A	sg n
      	tul=nud	d		A	pl n
      	tule	nud		V	nud
      	tulnu	d		S	pl n
ütelnud	ütle	nud		V	nud
       	ütel=nu	d		S	pl n
       	ütel=nud	0		A	
       	ütel=nud	0		A	sg n
       	ütel=nud	d		A	pl n
et	et	0		J	
mehi	mees	0		S	pl p
kodu	kodu	0		S	sg g
    	kodu	0		S	sg n
    	kodu	0		S	sg p
poole	pool	0		N	sg g
     	pool	0		S	sg g
     	pool	e		S	pl p
     	poole	0		K	
     	poole	0		S	sg n
ja	ja	0		J	
ei	ei	0		D	
  	ei	0		V	neg
ole	ole	0		V	o
neid	neid	0		S	sg n
    	see	d		P	pl p
    	tema	d		P	pl p
selle	see	0		P	sg g
     	sell	e		S	pl p
sulasega	sulane	ga		S	sg kom
Hans	Hans	0		H	sg n
Lõvasega	####				
ria	####				
alust	alg	st		S	sg el
     	alune	t		A	sg p
     	alune	t		S	sg p
     	alus	t		S	sg p
läbi	läbi	0		D	
    	läbi	0		K	
    	läbi	0		V	o
otsida	otsi	da		V	da
lasknud	lask	nud		V	nud
       	lask=nu	d		S	pl n
       	lask=nud	0		A	
       	lask=nud	0		A	sg n
       	lask=nud	d		A	pl n
,	,			Z	
vaid	vaid	0		D	
    	vaid	0		J	
akanud	####				
seda	see	da		P	sg p
sulast	sula	st		A	sg el
      	sula	st		S	sg el
      	sulane	t		S	sg p
kohe	kohe	0		A	sg n
    	kohe	0		D	
rõugaste	####				
peksma	peks	ma		V	ma
.	.			Z	
kutsuti	kutsu	ti		V	ti
ette	ette	0		D	
    	ette	0		K	
    	esi	tte		S	adt
Mari	Mari	0		H	sg g
    	mari	0		S	sg g
    	mari	0		S	sg n
    	Mari	0		H	sg n
    	mari	0		S	sg p
Arjaks	####				
ja	ja	0		J	
ei	ei	0		D	
  	ei	0		V	neg
salga	salga	0		V	o
     	salk	0		S	sg g
,	,			Z	
et	et	0		J	
on	ole	0		V	b
  	ole	0		V	vad
keelnud	####				
seda	see	da		P	sg p
Hans	Hans	0		H	sg n
Lõvast	####				
ja	ja	0		J	
kohtumeest	kohtu_mees	t		S	sg p
ria	####				
alast	ala	st		S	sg el
     	alane	t		A	sg p
läbi	läbi	0		D	
    	läbi	0		K	
    	läbi	0		V	o
otsimast	otsi	mast		V	mast
,	,			Z	
selle	see	0		P	sg g
     	sell	e		S	pl p
pärast	pära	st		S	sg el
      	pärane	t		A	sg p
      	pärast	0		D	
      	pärast	0		K	
et	et	0		J	
nende	see	de		P	pl g
     	tema	de		P	pl g
viamehed	####				
on	ole	0		V	b
  	ole	0		V	vad
.	.			Z	
kutsuti	kutsu	ti		V	ti
ette	ette	0		D	
    	ette	0		K	
    	esi	tte		S	adt
Ann	Ann	0		H	sg n
Räheso	####				
ja	ja	0		J	
ei	ei	0		D	
  	ei	0		V	neg
salga	salga	0		V	o
     	salk	0		S	sg g
ka	ka	0		D	
,	,			Z	
et	et	0		J	
on	ole	0		V	b
  	ole	0		V	vad
keelnud	####				
Ria	####				
alust	alg	st		S	sg el
     	alune	t		A	sg p
     	alune	t		S	sg p
     	alus	t		S	sg p
läbi	läbi	0		D	
    	läbi	0		K	
    	läbi	0		V	o
otsida	otsi	da		V	da
,	,			Z	
Hans	Hans	0		H	sg n
Lõõvast	####				
,	,			Z	
sest	see	st		P	sg el
    	sest	0		J	
et	et	0		J	
see	see	0		P	sg n
Mari	Mari	0		H	sg g
    	mari	0		S	sg g
    	mari	0		S	sg n
    	Mari	0		H	sg n
    	mari	0		S	sg p
Arjakas	Arjakas	0		H	sg n
riidus	####				
olnud	ol=nud	0		A	
     	ol=nud	0		A	sg n
     	ol=nud	d		A	pl n
     	ole	nud		V	nud
     	olnu	d		S	pl n
ja	ja	0		J	
Hans	Hans	0		H	sg n
Löövas	lööv	s		A	sg in
Mari	Mari	0		H	sg g
    	mari	0		S	sg g
    	mari	0		S	sg n
    	Mari	0		H	sg n
    	mari	0		S	sg p
Arjakast	Arjakas	t		H	sg p
peksnud	peks	nud		V	nud
       	peks=nu	d		S	pl n
       	peks=nud	0		A	
       	peks=nud	0		A	sg n
       	peks=nud	d		A	pl n
ja	ja	0		J	
see	see	0		P	sg n
kohtumees	kohtu_mees	0		S	sg n
Toooomas	####				
Saar	saar	0		S	sg n
on	ole	0		V	b
  	ole	0		V	vad
teda	tema	da		P	sg p
ka	ka	0		D	
kaks	kaks	0		N	sg n
korda	kord	0		S	adt
     	korda	0		V	o
     	kord	0		S	sg p
lüija	####				
tahtnud	taht	nud		V	nud
       	taht=nu	d		S	pl n
       	taht=nud	0		A	
       	taht=nud	0		A	sg n
       	taht=nud	d		A	pl n
kutsuti	kutsu	ti		V	ti
ette	ette	0		D	
    	ette	0		K	
    	esi	tte		S	adt
Mari	Mari	0		H	sg g
    	mari	0		S	sg g
    	mari	0		S	sg n
    	Mari	0		H	sg n
    	mari	0		S	sg p
Arjaka	####				
tüttar	####				
Liiisu	####				
Arjakas	Arjakas	0		H	sg n
ja	ja	0		J	
ütleb	ütle	b		V	b
et	et	0		J	
tema	tema	0		P	sg g
    	tema	0		P	sg n
poole	pool	0		N	sg g
     	pool	0		S	sg g
     	pool	e		S	pl p
     	poole	0		K	
     	poole	0		S	sg n
lõõnd	####				
,	,			Z	
vaid	vaid	0		D	
    	vaid	0		J	
ooma	####				
emale	ema	le		S	sg all
api	####				
läind	####				
.	.			Z	
kutsuti	kutsu	ti		V	ti
ete	esi	te		S	pl g
Andrus	Andrus	0		H	sg n
Arjaka	####				
tüdruk	tüdruk	0		S	sg n
Riino	####				
Toomson	####				
ja	ja	0		J	
ütleb	ütle	b		V	b
et	et	0		J	
tema	tema	0		P	sg g
    	tema	0		P	sg n
poole	pool	0		N	sg g
     	pool	0		S	sg g
     	pool	e		S	pl p
     	poole	0		K	
     	poole	0		S	sg n
ketagist	####				
lõõnud	####				
vaid	vaid	0		D	
    	vaid	0		J	
see	see	0		P	sg n
Hans	Hans	0		H	sg n
Lovas	####				
on	ole	0		V	b
  	ole	0		V	vad
neid	neid	0		S	sg n
    	see	d		P	pl p
    	tema	d		P	pl p
naise	naine	0		S	sg g
peksnud	peks	nud		V	nud
       	peks=nu	d		S	pl n
       	peks=nud	0		A	
       	peks=nud	0		A	sg n
       	peks=nud	d		A	pl n
.	.			Z	
kutsuti	kutsu	ti		V	ti
ette	ette	0		D	
    	ette	0		K	
    	esi	tte		S	adt
Andrus	Andrus	0		H	sg n
Arjakas	Arjakas	0		H	sg n
manuline	manuline	0		S	sg n
Madli	####				
Lehtmets	leht_mets	0		S	sg n
ei	ei	0		D	
  	ei	0		V	neg
ole	ole	0		V	o
tulnud	tul=nud	0		A	
      	tul=nud	0		A	sg n
      	tul=nud	d		A	pl n
      	tule	nud		V	nud
      	tulnu	d		S	pl n
,	,			Z	
sest	see	st		P	sg el
    	sest	0		J	
et	et	0		J	
koto	####				
enne	enne	0		D	
    	enne	0		K	
    	enne	0		S	sg n
seda	see	da		P	sg p
kasko	kasko	0		S	sg g
     	kasko	0		S	sg n
on	ole	0		V	b
  	ole	0		V	vad
välja	välja	0		D	
     	välja	0		V	o
     	väli	0		S	adt
     	väli	0		S	sg g
     	väli	0		S	sg p
läinud	läinu	d		S	pl n
      	läinud	0		A	
      	läinud	0		A	sg n
      	läinud	d		A	pl n
      	mine	nud		V	nud
,	,			Z	
mis	mis	0		P	pl n
   	mis	0		P	sg n
peale	pea	le		S	sg all
     	peale	0		D	
     	peale	0		K	
Hans	Hans	0		H	sg n
Löövas	lööv	s		A	sg in
kõvaste	####				
kaebab	kaeba	b		V	b
,	,			Z	
et	et	0		J	
see	see	0		P	sg n
Madli	####				
Lehtmets	leht_mets	0		S	sg n
just	just	0		D	
    	just	0		I	
on	ole	0		V	b
  	ole	0		V	vad
sundint	####				
neid	neid	0		S	sg n
    	see	d		P	pl p
    	tema	d		P	pl p
teisa	####				
naisa	####				
teda	tema	da		P	sg p
peksma	peks	ma		V	ma
.	.			Z	
Sai	saa	i		V	s
   	sai	0		S	sg n
mõistetud	mõist	tud		V	tud
         	mõiste=tu	d		S	pl n
         	mõiste=tud	0		A	
         	mõiste=tud	0		A	sg n
         	mõiste=tud	d		A	pl n
:	:			Z	
et	et	0		J	
need	see	d		P	pl n
naised	naine	d		S	pl n
Mari	Mari	0		H	sg g
    	mari	0		S	sg g
    	mari	0		S	sg n
    	Mari	0		H	sg n
    	mari	0		S	sg p
Arjakas	Arjakas	0		H	sg n
ja	ja	0		J	
Ann	Ann	0		H	sg n
Räheso	####				
seda	see	da		P	sg p
ei	ei	0		D	
  	ei	0		V	neg
salga	salga	0		V	o
     	salk	0		S	sg g
,	,			Z	
et	et	0		J	
seda	see	da		P	sg p
metsa	mets	0		S	adt
     	mets	0		S	sg g
     	mets	0		S	sg p
Hära	####				
sulast	sula	st		A	sg el
      	sula	st		S	sg el
      	sulane	t		S	sg p
Hans	Hans	0		H	sg n
Lõvast	####				
ja	ja	0		J	
kohtu	kohtu	0		V	o
     	kohus	0		S	sg g
meest	meene	t		A	sg p
     	mees	t		S	sg p
     	mesi	st		S	sg el
Toooomas	####				
Saari	saar	i		S	pl p
on	ole	0		V	b
  	ole	0		V	vad
keelnud	####				
nende	see	de		P	pl g
     	tema	de		P	pl g
ria	####				
alast	ala	st		S	sg el
     	alane	t		A	sg p
läbi	läbi	0		D	
    	läbi	0		K	
    	läbi	0		V	o
otsimast	otsi	mast		V	mast
,	,			Z	
niisama	nii_sama	0		D	
ka	ka	0		D	
seda	see	da		P	sg p
,	,			Z	
et	et	0		J	
selle	see	0		P	sg g
     	sell	e		S	pl p
kohtumehe	kohtu_mees	0		S	sg g
vastu	vastu	0		D	
     	vastu	0		K	
pannud	pan=nu	d		S	pl n
      	pan=nud	0		A	
      	pan=nud	0		A	sg n
      	pan=nud	d		A	pl n
      	pane	nud		V	nud
ja	ja	0		J	
veelgi	veelgi	0		D	
      	vesi	l	gi	S	sg ad
metsa	mets	0		S	adt
     	mets	0		S	sg g
     	mets	0		S	sg p
Hära	####				
sulast	sula	st		A	sg el
      	sula	st		S	sg el
      	sulane	t		S	sg p
Hans	Hans	0		H	sg n
Lõvast	####				
on	ole	0		V	b
  	ole	0		V	vad
sääl	####				
ria	####				
all	all	0		D	
   	all	0		K	
peksnud	peks	nud		V	nud
       	peks=nu	d		S	pl n
       	peks=nud	0		A	
       	peks=nud	0		A	sg n
       	peks=nud	d		A	pl n
,	,			Z	
et	et	0		J	
küll	küll	0		D	
    	küll	0		S	sg n
ütlevad	ütle	vad		V	vad
       	ütlev	d		A	pl n
et	et	0		J	
Hans	Hans	0		H	sg n
Löövas	lööv	s		A	sg in
neid	neid	0		S	sg n
    	see	d		P	pl p
    	tema	d		P	pl p
naisa	####				
on	ole	0		V	b
  	ole	0		V	vad
peksnud	peks	nud		V	nud
       	peks=nu	d		S	pl n
       	peks=nud	0		A	
       	peks=nud	0		A	sg n
       	peks=nud	d		A	pl n
,	,			Z	
siis	siis	0		D	
    	siis	0		J	
saab	saa	b		V	b
see	see	0		P	sg n
ülekuulamise	üle_kuulamine	0		S	sg g
protokoll	protokoll	0		S	sg n
keiserlikko	####				
Pärnu	Pärnu	0		H	adt
     	Pärnu	0		H	sg g
     	Pärnu	0		H	sg n
     	pärnu	0		G	
Sillakohtuse	silla_kohtune	0		A	sg g
kõrgemalt	kõrgem	lt		C	sg abl
         	kõrgem	lt		S	sg abl
         	kõrgemalt	0		D	
mõistusele	mõistus	le		S	sg all
sisse	siss	e		S	pl p
     	sisse	0		D	
     	sisse	0		K	
saatetud	saate=tu	d		A	pl n
,	,			Z	
et	et	0		J	
Pärnu	Pärnu	0		H	adt
     	Pärnu	0		H	sg g
     	Pärnu	0		H	sg n
     	pärnu	0		G	
Silla	sild	0		S	sg g
kohtu	kohtu	0		V	o
     	kohus	0		S	sg g
poolt	pool	t		N	sg p
     	pool	t		S	sg p
     	poolt	0		D	
     	poolt	0		K	
neid	neid	0		S	sg n
    	see	d		P	pl p
    	tema	d		P	pl p
vastu	vastu	0		D	
     	vastu	0		K	
akajaid	####				
kohtumehele	kohtu_mees	le		S	sg all
,	,			Z	
trahvitud	trahvi	tud		V	tud
         	trahvi=tu	d		S	pl n
         	trahvi=tud	0		A	
         	trahvi=tud	0		A	sg n
         	trahvi=tud	d		A	pl n
saaksid	saa	ksid		V	ksid
.	.			Z	
