protokoll	protokoll	0		S	sg n
N	N	0		Y	?
:	:			Z	
22	22	0		N	?
asjus	asi	us		S	pl in
s	s	0		Y	?
.	.			Z	
a.	a	0		Y	?
Tuli	tuli	0		S	sg n
    	tule	i		V	s
Raisnikku	####				
Tõnis	Tõnis	0		H	sg n
Klaassen	####				
kutsumise	kutsumine	0		S	sg g
peale	pea	le		S	sg all
     	peale	0		D	
     	peale	0		K	
kohtu	kohtu	0		V	o
     	kohus	0		S	sg g
ette	ette	0		D	
    	ette	0		K	
    	esi	tte		S	adt
ja	ja	0		J	
ei	ei	0		D	
  	ei	0		V	neg
olnud	ol=nud	0		A	
     	ol=nud	0		A	sg n
     	ol=nud	d		A	pl n
     	ole	nud		V	nud
     	olnu	d		S	pl n
temal	tema	l		P	sg ad
ooma	####				
rendi	rent	0		S	sg g
     	renti	0		V	o
võla	võlg	0		S	sg g
102	102	0		N	?
rubla	rubla	0		S	sg g
     	rubla	0		S	sg n
     	rubla	0		S	sg p
62	62	0		N	?
kopiku	####				
tasumiseks	tasumine	ks		S	sg tr
sugugi	sugugi	0		D	
maha	maha	0		D	
maksta	maks	ta		V	da
      	maks	ta		V	ta
,	,			Z	
ega	ega	0		D	
   	ega	0		J	
võinud	või	nud		V	nud
      	või=nu	d		S	pl n
      	või=nud	0		A	
      	või=nud	0		A	sg n
      	või=nud	d		A	pl n
ka	ka	0		D	
tärmini	tärmin	0		S	sg g
nimetada	nimeta	da		V	da
millal	millal	0		D	
ta	tema	0		P	sg g
  	tema	0		P	sg n
seda	see	da		P	sg p
võlga	võlg	0		S	adt
     	võlg	0		S	sg p
tasuma	tasu	ma		V	ma
saab	saa	b		V	b
,	,			Z	
sest	see	st		P	sg el
    	sest	0		J	
Sai	saa	i		V	s
   	sai	0		S	sg n
mõistetud	mõist	tud		V	tud
         	mõiste=tu	d		S	pl n
         	mõiste=tud	0		A	
         	mõiste=tud	0		A	sg n
         	mõiste=tud	d		A	pl n
:	:			Z	
Tõnis	Tõnis	0		H	sg n
Klaassen	####				
ooma	####				
võlga	võlg	0		S	adt
     	võlg	0		S	sg p
kuni	kuni	0		J	
    	kuni	0		K	
16.	16.	0		O	?
märzini	####				
s	s	0		Y	?
.	.			Z	
a.	a	0		Y	?
veel	veel	0		D	
    	vesi	l		S	sg ad
ära	ära	0		D	
   	ära	0		V	neg o
maksnud	maks	nud		V	nud
       	maks=nu	d		S	pl n
       	maks=nud	0		A	
       	maks=nud	0		A	sg n
       	maks=nud	d		A	pl n
ei	ei	0		D	
  	ei	0		V	neg
ole	ole	0		V	o
,	,			Z	
siis	siis	0		D	
    	siis	0		J	
saab	saa	b		V	b
tema	tema	0		P	sg g
    	tema	0		P	sg n
varandusest	varandus	st		S	sg el
see	see	0		P	sg n
raha	raha	0		S	sg g
    	raha	0		S	sg n
    	raha	0		S	sg p
102	102	0		N	?
rubla	rubla	0		S	sg g
     	rubla	0		S	sg n
     	rubla	0		S	sg p
62	62	0		N	?
kopik	####				
.	.			Z	
27.	27.	0		O	?
märtsil	märts	l		S	sg ad
s	s	0		Y	?
.	.			Z	
a.	a	0		Y	?
riisumise	riisumine	0		S	sg g
läbi	läbi	0		D	
    	läbi	0		K	
    	läbi	0		V	o
sisse	siss	e		S	pl p
     	sisse	0		D	
     	sisse	0		K	
nõutud	nõu=tu	d		S	pl n
      	nõu=tud	0		A	
      	nõu=tud	0		A	sg n
      	nõu=tud	d		A	pl n
      	nõud	tud		V	tud
      	nõutu	d		A	pl n
.	.			Z	
Otsus	otsus	0		S	sg n
kuulutud	kuulu	tud		V	tud
        	kuulu=tu	d		S	pl n
        	kuulu=tud	0		A	
        	kuulu=tud	0		A	sg n
        	kuulu=tud	d		A	pl n
.	.			Z	
Vaata	vaata	0		V	o
protok	####				
.	.			Z	
N	N	0		Y	?
:	:			Z	
49	49	0		N	?
