surnud	surnu	d		S	pl n
      	surnud	0		A	
      	surnud	0		A	sg n
      	surnud	d		A	pl n
      	sure	nud		V	nud
Märt	Märt	0		H	sg n
Reimanni	####				
vöörmündrad	####				
Jaan	Jaan	0		H	sg n
    	jaan	0		S	sg n
    	jaan	0		Y	?
Reimann	####				
tuli	tuli	0		S	sg n
    	tule	i		V	s
ette	ette	0		D	
    	ette	0		K	
    	esi	tte		S	adt
ja	ja	0		J	
kaebas	kaeba	s		V	s
tal	tema	l		P	sg ad
olla	ole	a		V	da
surnud	surnu	d		S	pl n
      	surnud	0		A	
      	surnud	0		A	sg n
      	surnud	d		A	pl n
      	sure	nud		V	nud
Märt	Märt	0		H	sg n
Reimanni	####				
pärandajate	päranda=ja	te		S	pl g
heaks	hea	ks		A	sg tr
     	hea	ks		S	sg tr
     	heaks	0		D	
     	heaks	0		K	
Jaani	Jaan	0		H	adt
     	Jaan	0		H	sg g
     	Jaani	0		H	sg g
     	jaan	0		S	adt
     	jaan	0		S	sg g
     	Jaan	0		H	sg p
     	Jaani	0		H	sg n
     	jaan	0		S	sg p
kiriku	kirik	0		S	sg g
valla	vald	0		S	sg g
     	valla	0		D	
mees	mees	0		S	sg n
    	mesi	s		S	sg in
Johann	Johann	0		H	sg n
Rebane	rebane	0		S	sg n
käest	käest	0		K	
     	käsi	st		S	sg el
2	2	0		N	?
rbl	rbl	0		Y	?
saada	saa	da		V	da
     	saat	0		V	o
     	saa	da		V	ta
,	,			Z	
ja	ja	0		J	
palub	palu	b		V	b
kohud	kohu	d		V	d
et	et	0		J	
kaevatu	kaeva=tu	0		S	sg g
       	kaeva=tu	0		S	sg n
saaks	saa	ks		V	ks
sunitatud	####				
nime	nimi	0		S	sg g
    	nimi	0		S	sg p
2	2	0		N	?
rubla	rubla	0		S	sg g
     	rubla	0		S	sg n
     	rubla	0		S	sg p
Märt	Märt	0		H	sg n
Reimanni	####				
parandajade	####				
heaks	hea	ks		A	sg tr
     	hea	ks		S	sg tr
     	heaks	0		D	
     	heaks	0		K	
sisse	siss	e		S	pl p
     	sisse	0		D	
     	sisse	0		K	
ajada	aja	da		V	da
.	.			Z	
Johann	Johann	0		H	sg n
Rebane	rebane	0		S	sg n
tuli	tuli	0		S	sg n
    	tule	i		V	s
ette	ette	0		D	
    	ette	0		K	
    	esi	tte		S	adt
ja	ja	0		J	
veksdas	####				
kaebtuse	####				
peale	pea	le		S	sg all
     	peale	0		D	
     	peale	0		K	
tal	tema	l		P	sg ad
ei	ei	0		D	
  	ei	0		V	neg
hoole	hoog	le		S	sg all
     	hool	0		S	sg g
     	hoole	0		S	sg n
mitte	mitte	0		D	
üks	üks	0		N	sg n
   	üks	0		P	sg n
kopik	####				
Märt	Märt	0		H	sg n
Reimannil	####				
võlgu	võlg	u		S	pl p
     	võlgu	0		D	
maksa	maks	0		S	adt
     	maks	0		S	sg g
     	maks	0		V	o
     	maks	0		S	sg p
vaid	vaid	0		D	
    	vaid	0		J	
olla	ole	a		V	da
küll	küll	0		D	
    	küll	0		S	sg n
kaevatud	kaeba	tud		V	tud
        	kaeva	tud		V	tud
        	kaeva=tu	d		S	pl n
        	kaeva=tud	0		A	
        	kaeva=tud	0		A	sg n
        	kaeva=tud	d		A	pl n
surnud	surnu	d		S	pl n
      	surnud	0		A	
      	surnud	0		A	sg n
      	surnud	d		A	pl n
      	sure	nud		V	nud
Reimanni	####				
käest	käest	0		K	
     	käsi	st		S	sg el
3	3	0		N	?
rbl	rbl	0		Y	?
saada	saa	da		V	da
     	saat	0		V	o
     	saa	da		V	ta
see	see	0		P	sg n
eest	eest	0		D	
    	eest	0		K	
    	esi	st		S	sg el
et	et	0		J	
tal	tema	l		P	sg ad
surnud	surnu	d		S	pl n
      	surnud	0		A	
      	surnud	0		A	sg n
      	surnud	d		A	pl n
      	sure	nud		V	nud
Märt	Märt	0		H	sg n
Reimannil	####				
2	2	0		N	?
korda	kord	0		S	adt
     	korda	0		V	o
     	kord	0		S	sg p
hobust	hobu	st		S	sg el
      	hobune	t		S	sg p
Villandis	####				
sõitmise	sõitmine	0		S	sg g
tarvis	tarvis	0		D	
      	tarvis	0		K	
andnud	and	nud		V	nud
      	and=nu	d		S	pl n
      	and=nud	0		A	
      	and=nud	0		A	sg n
      	and=nud	d		A	pl n
.	.			Z	
surnud	surnu	d		S	pl n
      	surnud	0		A	
      	surnud	0		A	sg n
      	surnud	d		A	pl n
      	sure	nud		V	nud
Märt	Märt	0		H	sg n
Reimanni	####				
naine	naine	0		S	sg n
Maret	Mare	t		H	sg p
     	Maret	0		H	sg n
andis	and	is		V	s
tunnistust	tunnistus	t		S	sg p
et	et	0		J	
Johann	Johann	0		H	sg n
Rebane	rebane	0		S	sg n
võlgnetud	võlgne	tud		V	tud
         	võlgne=tu	d		S	pl n
         	võlgne=tud	0		A	
         	võlgne=tud	0		A	sg n
         	võlgne=tud	d		A	pl n
2	2	0		N	?
rbl	rbl	0		Y	?
surnud	surnu	d		S	pl n
      	surnud	0		A	
      	surnud	0		A	sg n
      	surnud	d		A	pl n
      	sure	nud		V	nud
Märt	Märt	0		H	sg n
Reimannil	####				
.	.			Z	
kui	kui	0		D	
   	kui	0		J	
kohtu	kohtu	0		V	o
     	kohus	0		S	sg g
käijadel	####				
kõige	kõik	0		P	sg g
     	kõige	0		D	
vähvmad	####				
ette	ette	0		D	
    	ette	0		K	
    	esi	tte		S	adt
tuua	too	a		V	da
ei	ei	0		D	
  	ei	0		V	neg
olnud	ol=nud	0		A	
     	ol=nud	0		A	sg n
     	ol=nud	d		A	pl n
     	ole	nud		V	nud
     	olnu	d		S	pl n
_	_			Z	
ühendasid	ühenda	sid		V	sid
kohtu	kohtu	0		V	o
     	kohus	0		S	sg g
ligmad	####				
endid	ise	d		P	pl p
selle	see	0		P	sg g
     	sell	e		S	pl p
otsusele	otsus	le		S	sg all
:	:			Z	
Johann	Johann	0		H	sg n
Rebane	rebane	0		S	sg n
peab	pida	b		V	b
surnud	surnu	d		S	pl n
      	surnud	0		A	
      	surnud	0		A	sg n
      	surnud	d		A	pl n
      	sure	nud		V	nud
Märt	Märt	0		H	sg n
Reimanni	####				
perandajade	####				
heaks	hea	ks		A	sg tr
     	hea	ks		S	sg tr
     	heaks	0		D	
     	heaks	0		K	
2	2	0		N	?
rbl	rbl	0		Y	?
8	8	0		N	?
päeva	päev	0		S	adt
     	päev	0		S	sg g
     	päev	0		S	sg p
aja	aeg	0		S	sg g
   	aja	0		V	o
sees	sees	0		D	
    	sees	0		K	
välja	välja	0		D	
     	välja	0		V	o
     	väli	0		S	adt
     	väli	0		S	sg g
     	väli	0		S	sg p
maksma	maks	ma		V	ma
.	.			Z	
Kusta	Kusta	0		H	sg g
     	Kusta	0		H	sg n
     	kuse	ta		V	da
     	kuse	ta		V	ta
Leppik	Leppik	0		H	sg n
XXX	XXX	0		O	?
   	XXX	0		Y	?
Andres	Andre	s		H	sg in
      	Andres	0		H	sg n
Saarma	saarmas	0		S	sg g
[	[			Z	
allkiri	all_kiri	0		S	sg n
]	]			Z	
Jaak	Jaak	0		H	sg n
    	jaak	0		S	sg n
Raekson	####				
[	[			Z	
allkiri	all_kiri	0		S	sg n
]	]			Z	
