andis	and	is		V	s
see	see	0		P	sg n
peremees	pere_mees	0		S	sg n
Märt	Märt	0		H	sg n
Uinud	uinu	d		V	d
üles	üles	0		D	
,	,			Z	
et	et	0		J	
tema	tema	0		P	sg g
    	tema	0		P	sg n
sel	see	l		P	sg ad
   	sel	0		Y	?
sulasel	sulane	l		S	sg ad
Hans	Hans	0		H	sg n
pargil	park	l		S	sg ad
5	5	0		N	?
R	R	0		Y	?
.	.			Z	
õdbe	####				
mõne	mõni	0		P	sg g
aasta	aasta	0		S	sg g
     	aasta	0		S	sg n
eest	eest	0		D	
    	eest	0		K	
    	esi	st		S	sg el
võlgu	võlg	u		S	pl p
     	võlgu	0		D	
annud	####				
,	,			Z	
mida	mis	da		P	pl p
    	mis	da		P	sg p
Hans	Hans	0		H	sg n
park	park	0		S	sg n
juba	juba	0		D	
ammugi	ammugi	0		D	
ära	ära	0		D	
   	ära	0		V	neg o
tasuda	tasu	da		V	da
lubanud	luba	nud		V	nud
       	luba=nu	d		S	pl n
       	luba=nud	0		A	
       	luba=nud	0		A	sg n
       	luba=nud	d		A	pl n
,	,			Z	
aga	aga	0		J	
ommetegin	####				
sinniajani	####				
veel	veel	0		D	
    	vesi	l		S	sg ad
pole	ole	0		V	neg o
ära	ära	0		D	
   	ära	0		V	neg o
maksnud	maks	nud		V	nud
       	maks=nu	d		S	pl n
       	maks=nud	0		A	
       	maks=nud	0		A	sg n
       	maks=nud	d		A	pl n
vaid	vaid	0		D	
    	vaid	0		J	
seda	see	da		P	sg p
palalt	pala	lt		S	sg abl
peettab	####				
.	.			Z	
Hans	Hans	0		H	sg n
park	park	0		S	sg n
aastas	aasta	s		S	sg in
ette	ette	0		D	
    	ette	0		K	
    	esi	tte		S	adt
ning	ning	0		J	
andis	and	is		V	s
seda	see	da		P	sg p
tunnistust	tunnistus	t		S	sg p
,	,			Z	
et	et	0		J	
tema	tema	0		P	sg g
    	tema	0		P	sg n
Märt	Märt	0		H	sg n
Undile	Unt	le		H	sg all
küll	küll	0		D	
    	küll	0		S	sg n
5	5	0		N	?
R	R	0		Y	?
.	.			Z	
õdbe	####				
võlgu	võlg	u		S	pl p
     	võlgu	0		D	
on	ole	0		V	b
  	ole	0		V	vad
,	,			Z	
ning	ning	0		J	
lubab	luba	b		V	b
see	see	0		P	sg n
raha	raha	0		S	sg g
    	raha	0		S	sg n
    	raha	0		S	sg p
Märt	Märt	0		H	sg n
Uinni	####				
termini	term	ni		S	sg ter
       	termin	0		S	sg g
andmise	andmine	0		S	sg g
järel	järel	0		D	
     	järel	0		K	
Abja	Abja	0		H	sg g
    	Abja	0		H	sg n
_	_			Z	
ladani	####				
selsamal	see_sama	l		P	sg ad
aastal	aasta	l		S	sg ad
ära	ära	0		D	
   	ära	0		V	neg o
maksa	maks	0		S	adt
     	maks	0		S	sg g
     	maks	0		V	o
     	maks	0		S	sg p
.	.			Z	
