Ja	ja	0		J	
perie	####				
Thomas	Thomas	0		H	sg n
Vesikas	####				
ja	ja	0		J	
Joop	####				
Vesikas	####				
oma	oma	0		A	sg g
   	oma	0		D	
   	oma	0		P	sg g
   	oma	0		S	sg g
   	oma	0		V	o
   	oma	0		A	sg n
   	oma	0		A	sg p
   	oma	0		P	sg n
   	oma	0		P	sg p
   	oma	0		S	sg n
   	oma	0		S	sg p
naisega	naine	ga		S	sg kom
et	et	0		J	
nemad	tema	d		P	pl n
mõisas	mõis	s		S	sg in
Aida	ait	0		S	sg g
ulu	ulg	0		S	sg g
   	ulgu	0		V	o
   	ulu	0		V	o
alt	alt	0		S	sg n
   	alt	0		D	
   	alt	0		K	
30	30	0		N	?
Tellis	telli	s		V	s
      	tellis	0		S	sg n
kivi	kivi	0		S	sg g
    	kivi	0		S	sg n
    	kivi	0		S	sg p
varastanut	varasta=nu	t		S	sg p
ja	ja	0		J	
tehti	tege	ti		V	ti
seda	see	da		P	sg p
varguse	vargus	0		S	sg g
Asja	asi	0		S	adt
    	asi	0		S	sg g
    	asi	0		S	sg p
avalikus	avalik	s		A	sg in
.	.			Z	
mõistis	mõist	is		V	s
kohus	kohu	s		V	s
     	kohus	0		S	sg n
.	.			Z	
et	et	0		J	
tema	tema	0		P	sg g
    	tema	0		P	sg n
selle	see	0		P	sg g
     	sell	e		S	pl p
varguse	vargus	0		S	sg g
est	####				
mis	mis	0		P	pl n
   	mis	0		P	sg n
temal	tema	l		P	sg ad
avalikus	avalik	s		A	sg in
tehti	tege	ti		V	ti
3	3	0		N	?
rubla	rubla	0		S	sg g
     	rubla	0		S	sg n
     	rubla	0		S	sg p
ob	####				
.	.			Z	
trapi	trapp	0		S	sg g
maksap	####				
.	.			Z	
