tuli	tuli	0		S	sg n
    	tule	i		V	s
see	see	0		P	sg n
peremees	pere_mees	0		S	sg n
tooli	tool	0		S	adt
     	tool	0		S	sg g
     	tool	0		S	sg p
Hans	Hans	0		H	sg n
ette	ette	0		D	
    	ette	0		K	
    	esi	tte		S	adt
ja	ja	0		J	
kaebas	kaeba	s		V	s
kurmi	####				
Hansu	Hans	0		H	adt
     	Hans	0		H	sg g
     	Hans	0		H	sg p
sulase	sulane	0		S	sg g
Peeter	Peeter	0		H	sg n
raud	raud	0		S	sg n
peale	pea	le		S	sg all
     	peale	0		D	
     	peale	0		K	
,	,			Z	
et	et	0		J	
tema	tema	0		P	sg g
    	tema	0		P	sg n
temale	tema	le		P	sg all
5	5	0		N	?
rbl	rbl	0		Y	?
õb	####				
.	.			Z	
3	3	0		N	?
aastat	aasta	t		S	sg p
juba	juba	0		D	
võlgu	võlg	u		S	pl p
     	võlgu	0		D	
on	ole	0		V	b
  	ole	0		V	vad
,	,			Z	
ja	ja	0		J	
ei	ei	0		D	
  	ei	0		V	neg
taha	taht	0		V	o
    	taha	0		D	
    	taha	0		K	
ära	ära	0		D	
   	ära	0		V	neg o
maksa	maks	0		S	adt
     	maks	0		S	sg g
     	maks	0		V	o
     	maks	0		S	sg p
.	.			Z	
tuli	tuli	0		S	sg n
    	tule	i		V	s
ette	ette	0		D	
    	ette	0		K	
    	esi	tte		S	adt
Peeter	Peeter	0		H	sg n
raud	raud	0		S	sg n
ja	ja	0		J	
palus	palu	s		S	sg in
     	palu	s		V	s
,	,			Z	
et	et	0		J	
kohus	kohu	s		V	s
     	kohus	0		S	sg n
talle	tall	e		S	pl p
     	tall	0		S	adt
     	tall	0		S	sg g
     	tema	lle		P	sg all
     	tall	0		S	sg p
veel	veel	0		D	
    	vesi	l		S	sg ad
väha	####				
aega	aeg	0		S	adt
    	aeg	0		S	sg p
    	aega	0		K	
anas	####				
,	,			Z	
ja	ja	0		J	
lubas	luba	s		V	s
need	see	d		P	pl n
5	5	0		N	?
rubl	####				
.	.			Z	
õb	####				
.	.			Z	
tooli	tool	0		S	adt
     	tool	0		S	sg g
     	tool	0		S	sg p
Hansule	Hans	le		H	sg all
Jaanipäevaks	jaani_päev	ks		S	sg tr
1851.	1851.	0		O	?
äramaksa	ära_maks	0		S	adt
        	ära_maks	0		S	sg g
        	ära_maks	0		S	sg p
.	.			Z	
sellega	see	ga		P	sg kom
oli	ole	i		V	s
peremees	pere_mees	0		S	sg n
tooli	tool	0		S	adt
     	tool	0		S	sg g
     	tool	0		S	sg p
Hans	Hans	0		H	sg n
rahul	rahu	l		S	sg ad
     	rahul	0		D	
.	.			Z	
