ette	ette	0		D	
    	ette	0		K	
    	esi	tte		S	adt
tulid	tule	id		V	sid
siit	siit	0		D	
valla	vald	0		S	sg g
     	valla	0		D	
liige	liige	0		S	sg n
Hans	Hans	0		H	sg n
Juhan	Juhan	0		H	sg n
p	p	0		Y	?
.	.			Z	
Ritson	####				
praegune	praegune	0		A	sg n
Laagre	####				
No	no	0		I	
79	79	0		N	?
oomanik	####				
ning	ning	0		J	
Audru	Audru	0		H	sg g
     	Audru	0		H	sg n
valla	vald	0		S	sg g
     	valla	0		D	
liige	liige	0		S	sg n
Hendrik	Hendrik	0		H	sg n
Hendriku	Hendrik	0		H	sg g
p	p	0		Y	?
.	.			Z	
Lell	lell	0		S	sg n
ja	ja	0		J	
palusid	palu	sid		S	pl p
       	palu	sid		V	sid
eneste	ise	te		P	pl g
vahel	vahe	l		S	sg ad
     	vahel	0		D	
     	vahel	0		K	
maha	maha	0		D	
tehtud	tehtu	d		S	pl n
      	tehtud	0		A	
      	tehtud	0		A	sg n
      	tehtud	d		A	pl n
      	tege	tud		V	tud
lepingud	leping	d		S	pl n
üllesse	####				
kirjutada	kirjuta	da		V	da
,	,			Z	
nimelt	nimelt	0		D	
      	nimi	lt		S	sg abl
Hans	Hans	0		H	sg n
Ritson	####				
annab	and	b		V	b
ooma	####				
heinamaast	heina_maa	st		S	sg el
20	20	0		N	?
vakamaad	vaka_maa	d		S	pl n
        	vaka_maa	d		S	sg p
12	12	0		N	?
aastaks	aasta	ks		S	sg tr
Hendrik	Hendrik	0		H	sg n
Lelle	Lelle	0		H	sg g
     	lell	0		S	adt
     	lell	0		S	sg g
     	Lelle	0		H	sg n
     	lell	0		S	sg p
kätte	kätte	0		K	
     	käsi	tte		S	adt
rendi	rent	0		S	sg g
     	renti	0		V	o
peale	pea	le		S	sg all
     	peale	0		D	
     	peale	0		K	
ning	ning	0		J	
maksab	maks	b		V	b
Hendrik	Hendrik	0		H	sg n
Lelle	Lelle	0		H	sg g
     	lell	0		S	adt
     	lell	0		S	sg g
     	Lelle	0		H	sg n
     	lell	0		S	sg p
temale	tema	le		P	sg all
selle	see	0		P	sg g
     	sell	e		S	pl p
eest	eest	0		D	
    	eest	0		K	
    	esi	st		S	sg el
iga	iga	0		P	sg g
   	iga	0		P	sg n
   	iga	0		P	sg p
   	iga	0		S	sg n
   	iga	0		S	sg p
aasta	aasta	0		S	sg g
     	aasta	0		S	sg n
50	50	0		N	?
rubl	####				
.	.			Z	
renti	rent	0		S	adt
     	rent	0		S	sg p
,	,			Z	
nõnda	nõnda	0		D	
et	et	0		J	
esimese	esimene	0		O	sg g
       	esimene	0		P	sg g
aasta	aasta	0		S	sg g
     	aasta	0		S	sg n
s. o.	s.o	0		Y	?
1895	1895	0		N	?
aasta	aasta	0		S	sg g
     	aasta	0		S	sg n
rendi	rent	0		S	sg g
     	renti	0		V	o
maksab	maks	b		V	b
täna	täna	0		D	
    	täna	0		V	o
siin	siin	0		D	
    	siin	0		S	sg n
valla	vald	0		S	sg g
     	valla	0		D	
kohtu	kohtu	0		V	o
     	kohus	0		S	sg g
ees	ees	0		D	
   	ees	0		K	
   	esi	s		S	sg in
ära	ära	0		D	
   	ära	0		V	neg o
aga	aga	0		J	
järgmistel	järgmine	tel		A	pl ad
aastatel	aasta	tel		S	pl ad
iga	iga	0		P	sg g
   	iga	0		P	sg n
   	iga	0		P	sg p
   	iga	0		S	sg n
   	iga	0		S	sg p
aasta	aasta	0		S	sg g
     	aasta	0		S	sg n
1sel	####				
Aprillil	aprill	l		S	sg ad
25	25	0		N	?
rubl	####				
.	.			Z	
ja	ja	0		J	
20.	20.	0		O	?
Oktobril	####				
25	25	0		N	?
rubl	####				
.	.			Z	
/	/			Z	
H. Ritson	####				
/	/			Z	
Hendrik	Hendrik	0		H	sg n
Lelle	Lelle	0		H	sg g
     	lell	0		S	adt
     	lell	0		S	sg g
     	Lelle	0		H	sg n
     	lell	0		S	sg p
on	ole	0		V	b
  	ole	0		V	vad
sellega	see	ga		P	sg kom
rahul	rahu	l		S	sg ad
     	rahul	0		D	
.	.			Z	
/	/			Z	
Hendrik	Hendrik	0		H	sg n
Lell	lell	0		S	sg n
/	/			Z	
siin	siin	0		D	
    	siin	0		S	sg n
ees	ees	0		D	
   	ees	0		K	
   	esi	s		S	sg in
pool	pool	0		K	
    	pool	0		N	sg n
    	pool	0		S	sg n
nimetatud	nimeta	tud		V	tud
         	nimetatu	d		S	pl n
         	nimetatud	0		A	
         	nimetatud	0		A	sg n
         	nimetatud	d		A	pl n
inimesed	inimene	d		S	pl n
on	ole	0		V	b
  	ole	0		V	vad
valla	vald	0		S	sg g
     	valla	0		D	
kohtule	kohus	le		S	sg all
tuntud	tund	tud		V	tud
      	tuntu	d		S	pl n
      	tuntud	0		A	
      	tuntud	0		A	sg n
      	tuntud	d		A	pl n
.	.			Z	
eesistnik	####				
:	:			Z	
/	/			Z	
H. Ainisson	####				
/	/			Z	
kohtunik	kohtunik	0		S	sg n
:	:			Z	
/	/			Z	
P. Kuter	####				
/	/			Z	
""""	""""			Z	
/	/			Z	
M. Hanson	####				
/	/			Z	
kirjutaja	kirjutaja	0		S	sg g
         	kirjutaja	0		S	sg n
:	:			Z	
/	/			Z	
J. Toomson	####				
/	/			Z	
