küühnu	####				
kogukonna	kogukond	0		S	sg g
kohtu	kohtu	0		V	o
     	kohus	0		S	sg g
ette	ette	0		D	
    	ette	0		K	
    	esi	tte		S	adt
tuli	tuli	0		S	sg n
    	tule	i		V	s
küühnu	####				
valla	vald	0		S	sg g
     	valla	0		D	
otstavku	####				
soldat	soldat	0		S	sg n
Jakob	Jakob	0		H	sg n
Arget	####				
(	(			Z	
24l	24	l		N	sg ad
Januaril	####				
)	)			Z	
1sel	####				
Mail	Mai	l		H	sg ad
    	maa	il		S	pl ad
    	mai	l		S	sg ad
    	mail	0		S	sg n
sel	see	l		P	sg ad
   	sel	0		Y	?
1885	1885	0		N	?
aastal	aasta	l		S	sg ad
ja	ja	0		J	
rääkis	rääki	s		V	s
:	:			Z	
et	et	0		J	
nõnda	nõnda	0		D	
kui	kui	0		D	
   	kui	0		J	
temal	tema	l		P	sg ad
üks	üks	0		N	sg n
   	üks	0		P	sg n
last	laps	t		S	sg p
    	last	0		S	sg n
ei	ei	0		D	
  	ei	0		V	neg
ole	ole	0		V	o
olemas	ole	mas		V	mas
ja	ja	0		J	
tema	tema	0		P	sg g
    	tema	0		P	sg n
juba	juba	0		D	
lasest	####				
saadik	saadik	0		K	
      	saadik	0		S	sg n
küühnu	####				
valla	vald	0		S	sg g
     	valla	0		D	
talupoja	talu_poeg	0		S	sg g
Jaan	Jaan	0		H	sg n
    	jaan	0		S	sg n
    	jaan	0		Y	?
Argeti	####				
poja	poeg	0		S	sg g
    	poja	0		S	sg g
    	poja	0		S	sg n
    	poja	0		S	sg p
Enn	Enn	0		H	sg n
Argeti	####				
oomale	####				
kasvu	kasv	0		S	adt
     	kasv	0		S	sg g
     	kasvu	0		A	
     	kasv	0		S	sg p
pojaks	poeg	ks		S	sg tr
      	poja	ks		S	sg tr
on	ole	0		V	b
  	ole	0		V	vad
võtnud	võt	nud		V	nud
      	võt=nu	d		S	pl n
      	võt=nud	0		A	
      	võt=nud	0		A	sg n
      	võt=nud	d		A	pl n
,	,			Z	
kes	kes	0		P	pl n
   	kes	0		P	sg n
temale	tema	le		P	sg all
ja	ja	0		J	
tema	tema	0		P	sg g
    	tema	0		P	sg n
naisele	naine	le		S	sg all
toitajaks	toit_aeg	ks		S	sg tr
ja	ja	0		J	
eesmuretsejaks	ees_muretseja	ks		S	sg tr
saab	saa	b		V	b
olema	ole	ma		V	ma
.	.			Z	
aga	aga	0		J	
et	et	0		J	
nõnda	nõnda	0		D	
kui	kui	0		D	
   	kui	0		J	
tema-Jakob	tema-Jakob	0		H	sg n
Arget	####				
nüüd	nüüd	0		D	
juba	juba	0		D	
vanaks	vana	ks		A	sg tr
      	vana	ks		S	sg tr
on	ole	0		V	b
  	ole	0		V	vad
jäänud	jää	nud		V	nud
      	jäänu	d		S	pl n
      	jäänud	0		A	
      	jäänud	0		A	sg n
      	jäänud	d		A	pl n
ja	ja	0		J	
ise	ise	0		A	
   	ise	0		D	
   	ise	0		P	pl n
   	ise	0		P	sg n
tõbine	tõbine	0		A	sg n
on	ole	0		V	b
  	ole	0		V	vad
ja	ja	0		J	
et	et	0		J	
ta	tema	0		P	sg g
  	tema	0		P	sg n
enne	enne	0		D	
    	enne	0		K	
    	enne	0		S	sg n
poole	pool	0		N	sg g
     	pool	0		S	sg g
     	pool	e		S	pl p
     	poole	0		K	
     	poole	0		S	sg n
seda	see	da		P	sg p
teadnud	tead	nud		V	nud
       	tead=nu	d		S	pl n
       	tead=nud	0		A	
       	tead=nud	0		A	sg n
       	tead=nud	d		A	pl n
laska	####				
protokoli	####				
ülles	####				
panda	pand	0		S	adt
     	panda	0		S	sg g
     	pane	da		V	ta
     	pand	0		S	sg p
     	panda	0		S	sg n
,	,			Z	
palus	palu	s		S	sg in
     	palu	s		V	s
nüüd	nüüd	0		D	
seda	see	da		P	sg p
protokoli	####				
ülles	####				
panda	pand	0		S	adt
     	panda	0		S	sg g
     	pane	da		V	ta
     	pand	0		S	sg p
     	panda	0		S	sg n
ja	ja	0		J	
seda	see	da		P	sg p
Enn	Enn	0		H	sg n
jaani	jaan	0		S	adt
     	jaan	0		S	sg g
     	jaan	0		S	sg p
poega	poeg	0		S	adt
     	pood	ga		S	sg kom
     	poeg	0		S	sg p
Argeti	####				
,	,			Z	
kes	kes	0		P	pl n
   	kes	0		P	sg n
neile	see	le		P	pl all
     	tema	le		P	pl all
nende	see	de		P	pl g
     	tema	de		P	pl g
vanaduses	vanadus	s		S	sg in
üllaspidajaks	üllas_pidaja	ks		S	sg tr
ja	ja	0		J	
toitajaks	toit_aeg	ks		S	sg tr
saab	saa	b		V	b
olema	ole	ma		V	ma
,	,			Z	
täitsa	täitsa	0		D	
tema	tema	0		P	sg g
    	tema	0		P	sg n
kasvu	kasv	0		S	adt
     	kasv	0		S	sg g
     	kasvu	0		A	
     	kasv	0		S	sg p
pojaks	poeg	ks		S	sg tr
      	poja	ks		S	sg tr
tunistada	####				
ja	ja	0		J	
kinnitada	kinnita	da		V	da
,	,			Z	
sellega	see	ga		P	sg kom
,	,			Z	
et	et	0		J	
pärast	pära	st		S	sg el
      	pärane	t		A	sg p
      	pärast	0		D	
      	pärast	0		K	
nende	see	de		P	pl g
     	tema	de		P	pl g
surma	surm	0		S	adt
     	surm	0		S	sg g
     	surma	0		V	o
     	surm	0		S	sg p
Enn	Enn	0		H	sg n
Arget	####				
pärib	päri	b		V	b
nende	see	de		P	pl g
     	tema	de		P	pl g
elu	elu	0		S	sg g
   	elu	0		S	sg n
   	elu	0		S	sg p
maja	maja	0		S	sg g
    	maja	0		S	sg n
    	maja	0		S	sg p
ja	ja	0		J	
elu	elu	0		S	sg g
   	elu	0		S	sg n
   	elu	0		S	sg p
maja	maja	0		S	sg g
    	maja	0		S	sg n
    	maja	0		S	sg p
kraaami	####				
.	.			Z	
Enn	Enn	0		H	sg n
Argeti	####				
vanemad	vanem	d		C	pl n
       	vanem	d		S	pl n
:	:			Z	
isa	isa	0		S	sg g
   	isa	0		S	sg n
   	isa	0		S	sg p
Jaan	Jaan	0		H	sg n
    	jaan	0		S	sg n
    	jaan	0		Y	?
Arget	####				
ja	ja	0		J	
Ema	ema	0		S	sg g
   	ema	0		S	sg n
   	ema	0		S	sg p
Mari	Mari	0		H	sg g
    	mari	0		S	sg g
    	mari	0		S	sg n
    	Mari	0		H	sg n
    	mari	0		S	sg p
tunistasid	####				
seda	see	da		P	sg p
kasvu	kasv	0		S	adt
     	kasv	0		S	sg g
     	kasvu	0		A	
     	kasv	0		S	sg p
pojaks	poeg	ks		S	sg tr
      	poja	ks		S	sg tr
võtmist	võtmine	t		S	sg p
õigeks	õige	ks		A	sg tr
ja	ja	0		J	
et	et	0		J	
nemad	tema	d		P	pl n
hää	####				
meelega	meel	ga		S	sg kom
       	meelega	0		D	
ooma	####				
poja	poeg	0		S	sg g
    	poja	0		S	sg g
    	poja	0		S	sg n
    	poja	0		S	sg p
Ennu	Enn	0		H	adt
    	Enn	0		H	sg g
    	Enn	0		H	sg p
on	ole	0		V	b
  	ole	0		V	vad
annud	####				
Jakob	Jakob	0		H	sg n
Argetile	####				
kasvu	kasv	0		S	adt
     	kasv	0		S	sg g
     	kasvu	0		A	
     	kasv	0		S	sg p
pojaks	poeg	ks		S	sg tr
      	poja	ks		S	sg tr
,	,			Z	
mis	mis	0		P	pl n
   	mis	0		P	sg n
peale	pea	le		S	sg all
     	peale	0		D	
     	peale	0		K	
ka	ka	0		D	
Enn	Enn	0		H	sg n
Arget	####				
ooma	####				
tahtmist	tahtmine	t		S	sg p
avaldas	avalda	s		V	s
ja	ja	0		J	
tõotas	tõota	s		V	s
kui	kui	0		D	
   	kui	0		J	
hää	####				
ja	ja	0		J	
sõnakuulelik	sõna_kuulelik	0		A	sg n
las	las	0		D	
olla	ole	a		V	da
ja	ja	0		J	
neile	see	le		P	pl all
     	tema	le		P	pl all
-	-			Z	
Jakob	Jakob	0		H	sg n
Argetile	####				
ja	ja	0		J	
tema	tema	0		P	sg g
    	tema	0		P	sg n
naisele	naine	le		S	sg all
nende	see	de		P	pl g
     	tema	de		P	pl g
vanaduses	vanadus	s		S	sg in
toidust	toit	st		S	sg el
       	toidune	t		A	sg p
       	toidus	t		S	sg p
anda	and	a		V	da
ja	ja	0		J	
kõikipiti	####				
nende	see	de		P	pl g
     	tema	de		P	pl g
eest	eest	0		D	
    	eest	0		K	
    	esi	st		S	sg el
hoolt	hoog	lt		S	sg abl
     	hool	t		S	sg p
ja	ja	0		J	
murit	####				
kandma	kand	ma		V	ma
.	.			Z	
Enn	Enn	0		H	sg n
Arget	####				
on	ole	0		V	b
  	ole	0		V	vad
nüüd	nüüd	0		D	
12	12	0		N	?
aastat	aasta	t		S	sg p
vana	vana	0		A	sg g
    	vana	0		A	sg n
    	vana	0		A	sg p
    	vana	0		S	sg g
    	vana	0		S	sg n
    	vana	0		S	sg p
.	.			Z	
kohus	kohu	s		V	s
     	kohus	0		S	sg n
mõistis	mõist	is		V	s
:	:			Z	
et	et	0		J	
nõnda	nõnda	0		D	
kui	kui	0		D	
   	kui	0		J	
se	####				
laseks	lask	ks		V	ks
võtmine	võtmine	0		S	sg n
Jakob	Jakob	0		H	sg n
Argeti	####				
poolest	pool	st		N	sg el
       	pool	st		S	sg el
       	poolene	t		A	sg p
       	poolest	0		K	
Ennu	Enn	0		H	adt
    	Enn	0		H	sg g
    	Enn	0		H	sg p
jaani	jaan	0		S	adt
     	jaan	0		S	sg g
     	jaan	0		S	sg p
poja	poeg	0		S	sg g
    	poja	0		S	sg g
    	poja	0		S	sg n
    	poja	0		S	sg p
Argeti	####				
vahel	vahe	l		S	sg ad
     	vahel	0		D	
     	vahel	0		K	
õiki	####				
on	ole	0		V	b
  	ole	0		V	vad
,-siis	####				
tunistada	####				
seda	see	da		P	sg p
kasvu	kasv	0		S	adt
     	kasv	0		S	sg g
     	kasvu	0		A	
     	kasv	0		S	sg p
pojaks	poeg	ks		S	sg tr
      	poja	ks		S	sg tr
võtmist	võtmine	t		S	sg p
täijesti	####				
kindlaks	kindel	ks		A	sg tr
ja	ja	0		J	
paluda	palu	da		V	da
austud	####				
keiserliku	keiserlik	0		A	sg g
Pärnu	Pärnu	0		H	adt
     	Pärnu	0		H	sg g
     	Pärnu	0		H	sg n
     	pärnu	0		G	
I	I	0		O	?
 	I	0		Y	?
 	j	0		Y	?
kihelkonna	kihelkond	0		S	sg g
kohut	kohus	t		S	sg p
seda	see	da		P	sg p
Enn	Enn	0		H	sg n
jaani	jaan	0		S	adt
     	jaan	0		S	sg g
     	jaan	0		S	sg p
poega	poeg	0		S	adt
     	pood	ga		S	sg kom
     	poeg	0		S	sg p
Argeti	####				
Jakob	Jakob	0		H	sg n
Argeti	####				
kasvu	kasv	0		S	adt
     	kasv	0		S	sg g
     	kasvu	0		A	
     	kasv	0		S	sg p
pojaks	poeg	ks		S	sg tr
      	poja	ks		S	sg tr
kinnitada	kinnita	da		V	da
(	(			Z	
ühes	üks	s		N	sg in
    	üks	s		P	sg in
    	ühes	0		D	
    	ühes	0		K	
päris	päri	s		V	s
     	päris	0		A	
     	päris	0		D	
poja	poeg	0		S	sg g
    	poja	0		S	sg g
    	poja	0		S	sg n
    	poja	0		S	sg p
õigusega	õigus	ga		S	sg kom
)	)			Z	
,	,			Z	
mis	mis	0		P	pl n
   	mis	0		P	sg n
ka	ka	0		D	
küühnu	####				
valla	vald	0		S	sg g
     	valla	0		D	
kogukonna	kogukond	0		S	sg g
kohus	kohu	s		V	s
     	kohus	0		S	sg n
nende	see	de		P	pl g
     	tema	de		P	pl g
palve	palve	0		S	sg g
     	palve	0		S	sg n
peale	pea	le		S	sg all
     	peale	0		D	
     	peale	0		K	
siin	siin	0		D	
    	siin	0		S	sg n
sellega	see	ga		P	sg kom
alandlikult	alandlik	lt		A	sg abl
           	alandlikult	0		D	
austud	####				
keiserliku	keiserlik	0		A	sg g
Pärnu	Pärnu	0		H	adt
     	Pärnu	0		H	sg g
     	Pärnu	0		H	sg n
     	pärnu	0		G	
I	I	0		O	?
 	I	0		Y	?
 	j	0		Y	?
kihelkonna	kihelkond	0		S	sg g
kohtule	kohus	le		S	sg all
ette	ette	0		D	
    	ette	0		K	
    	esi	tte		S	adt
paneb	pane	b		V	b
.	.			Z	
küühnu	####				
valla	vald	0		S	sg g
     	valla	0		D	
kogukonna	kogukond	0		S	sg g
kohus	kohu	s		V	s
     	kohus	0		S	sg n
.	.			Z	
pea	pea	0		D	
   	pea	0		S	sg g
   	pida	0		V	o
   	pea	0		S	sg n
kohtumees	kohtu_mees	0		S	sg n
:	:			Z	
Enn	Enn	0		H	sg n
Alas	ala	s		S	sg in
XXX	XXX	0		O	?
   	XXX	0		Y	?
kohtumehed	kohtu_mees	d		S	pl n
:	:			Z	
Mihkel	Mihkel	0		H	sg n
      	mihkel	0		A	sg n
      	mihkel	0		S	sg n
Larents	####				
XXX	XXX	0		O	?
   	XXX	0		Y	?
Juri	Juri	0		H	sg g
    	Juri	0		H	sg n
Laus	laug	s		S	sg in
XXX	XXX	0		O	?
   	XXX	0		Y	?
