Võla	võlg	0		S	sg g
Koogukonna	koogu_konn	0		S	adt
          	koogu_konn	0		S	sg g
          	koogu_konn	0		S	sg p
kohus	kohu	s		V	s
     	kohus	0		S	sg n
sell	sell	0		S	sg n
30.	30.	0		O	?
märtsil	märts	l		S	sg ad
1878	1878	0		N	?
olid	ole	id		V	sid
kohtumehed	kohtu_mees	d		S	pl n
koos	koos	0		D	
    	koos	0		K	
    	koos	0		S	sg n
    	kubu	s		S	sg in
:	:			Z	
astus	astu	s		V	s
ette	ette	0		D	
    	ette	0		K	
    	esi	tte		S	adt
Võla	võlg	0		S	sg g
vallast	vald	st		S	sg el
Poisikse	####				
Talu	talu	0		S	sg g
    	talu	0		V	o
    	talu	0		S	sg n
    	talu	0		S	sg p
peremees	pere_mees	0		S	sg n
Ado	Ado	0		H	sg g
   	Ado	0		H	sg n
Brudel	####				
ja	ja	0		J	
palub	palu	b		V	b
kogukonna	kogukond	0		S	sg g
kohut	kohus	t		S	sg p
ooma	####				
vanaduse	vanadus	0		S	sg g
pärast	pära	st		S	sg el
      	pärane	t		A	sg p
      	pärast	0		D	
      	pärast	0		K	
tema	tema	0		P	sg g
    	tema	0		P	sg n
palvet	palve	t		S	sg p
kuulda	kuul	da		V	da
      	kuul	da		V	ta
võta	võt	0		V	o
ja	ja	0		J	
teda	tema	da		P	sg p
peremehe	pere_mees	0		S	sg g
arust	aru	st		S	sg el
     	arune	t		A	sg p
     	arust	0		K	
maha	maha	0		D	
arvata	arva	ta		V	da
      	arva	ta		V	ta
      	arvata	0		D	
,	,			Z	
et	et	0		J	
tema	tema	0		P	sg g
    	tema	0		P	sg n
juba	juba	0		D	
vana	vana	0		A	sg g
    	vana	0		A	sg n
    	vana	0		A	sg p
    	vana	0		S	sg g
    	vana	0		S	sg n
    	vana	0		S	sg p
ja	ja	0		J	
elatant	####				
mees	mees	0		S	sg n
    	mesi	s		S	sg in
on	ole	0		V	b
  	ole	0		V	vad
ja	ja	0		J	
ei	ei	0		D	
  	ei	0		V	neg
jõua	jõud	0		V	o
ooma	####				
Talu	talu	0		S	sg g
    	talu	0		V	o
    	talu	0		S	sg n
    	talu	0		S	sg p
koha	koht	0		S	sg g
    	koha	0		S	sg g
    	koha	0		V	o
    	koha	0		S	sg n
    	koha	0		S	sg p
eest	eest	0		D	
    	eest	0		K	
    	esi	st		S	sg el
nii	nii	0		D	
hoolt	hoog	lt		S	sg abl
     	hool	t		S	sg p
aga	aga	0		J	
murit	####				
kanda	kand	0		S	adt
     	kand	a		V	da
     	kand	0		S	sg p
,	,			Z	
kui	kui	0		D	
   	kui	0		J	
tarvis	tarvis	0		D	
      	tarvis	0		K	
läheb	mine	b		V	b
,	,			Z	
aga	aga	0		J	
et	et	0		J	
temal	tema	l		P	sg ad
hea	hea	0		A	sg g
   	hea	0		A	sg n
   	hea	0		S	sg g
   	hea	0		S	sg n
väimees	väi_mees	0		S	sg n
on	ole	0		V	b
  	ole	0		V	vad
kes	kes	0		P	pl n
   	kes	0		P	sg n
temal	tema	l		P	sg ad
kõikis	####				
abiks	abi	ks		S	sg tr
olnud	ol=nud	0		A	
     	ol=nud	0		A	sg n
     	ol=nud	d		A	pl n
     	ole	nud		V	nud
     	olnu	d		S	pl n
,	,			Z	
siis	siis	0		D	
    	siis	0		J	
on	ole	0		V	b
  	ole	0		V	vad
tema	tema	0		P	sg g
    	tema	0		P	sg n
tahtmine	tahtmine	0		S	sg n
et	et	0		J	
see	see	0		P	sg n
Väimees	väi_mees	0		S	sg n
Jaan	Jaan	0		H	sg n
    	jaan	0		S	sg n
    	jaan	0		Y	?
aitaja	aitaja	0		S	sg g
      	aitaja	0		S	sg n
selle	see	0		P	sg g
     	sell	e		S	pl p
Poisikse	####				
talu	talu	0		S	sg g
    	talu	0		V	o
    	talu	0		S	sg n
    	talu	0		S	sg p
peremeheks	pere_mees	ks		S	sg tr
kogukonna	kogukond	0		S	sg g
kohtu	kohtu	0		V	o
     	kohus	0		S	sg g
poolt	pool	t		N	sg p
     	pool	t		S	sg p
     	poolt	0		D	
     	poolt	0		K	
Riia	Riia	0		H	sg g
    	Riia	0		H	sg n
Dumajnenhoovi	####				
kohtule	kohus	le		S	sg all
ette	ette	0		D	
    	ette	0		K	
    	esi	tte		S	adt
pandud	pan=du	d		S	pl n
      	pan=dud	0		A	
      	pan=dud	0		A	sg n
      	pan=dud	d		A	pl n
      	pane	dud		V	tud
saaks	saa	ks		V	ks
ja	ja	0		J	
tema	tema	0		P	sg g
    	tema	0		P	sg n
nimi	nimi	0		S	sg n
selle	see	0		P	sg g
     	sell	e		S	pl p
Poisikse	####				
Ado	Ado	0		H	sg g
   	Ado	0		H	sg n
kontrakti	####				
kirjutud	####				
saaks	saa	ks		V	ks
.	.			Z	
Sai	saa	i		V	s
   	sai	0		S	sg n
mõistetud	mõist	tud		V	tud
         	mõiste=tu	d		S	pl n
         	mõiste=tud	0		A	
         	mõiste=tud	0		A	sg n
         	mõiste=tud	d		A	pl n
:	:			Z	
et	et	0		J	
kohus	kohu	s		V	s
     	kohus	0		S	sg n
peab	pida	b		V	b
selle	see	0		P	sg g
     	sell	e		S	pl p
vana	vana	0		A	sg g
    	vana	0		A	sg n
    	vana	0		A	sg p
    	vana	0		S	sg g
    	vana	0		S	sg n
    	vana	0		S	sg p
Poisiku	poi_sikk	0		S	sg g
Ado	Ado	0		H	sg g
   	Ado	0		H	sg n
Brudeli	####				
taluperemehe	talu_pere_mees	0		S	sg g
palvet	palve	t		S	sg p
kuulda	kuul	da		V	da
      	kuul	da		V	ta
võta	võt	0		V	o
,	,			Z	
et	et	0		J	
tema	tema	0		P	sg g
    	tema	0		P	sg n
juba	juba	0		D	
isi	####				
peale	pea	le		S	sg all
     	peale	0		D	
     	peale	0		K	
70	70	0		N	?
aastat	aasta	t		S	sg p
vana	vana	0		A	sg g
    	vana	0		A	sg n
    	vana	0		A	sg p
    	vana	0		S	sg g
    	vana	0		S	sg n
    	vana	0		S	sg p
mees	mees	0		S	sg n
    	mesi	s		S	sg in
on	ole	0		V	b
  	ole	0		V	vad
,	,			Z	
ja	ja	0		J	
sellel	see	l		P	sg ad
oomal	####				
poegi	poeg	i		S	pl p
     	poegi	0		V	o
     	pood	0	gi	S	sg g
     	puge	0	gi	V	o
ei	ei	0		D	
  	ei	0		V	neg
ole	ole	0		V	o
,	,			Z	
kui	kui	0		D	
   	kui	0		J	
kaks	kaks	0		N	sg n
tüttart	####				
ja	ja	0		J	
see	see	0		P	sg n
vanem	vanem	0		C	sg n
     	vanem	0		S	sg n
tüttar	####				
juba	juba	0		D	
20	20	0		N	?
aastat	aasta	t		S	sg p
mehel	mees	l		S	sg ad
on	ole	0		V	b
  	ole	0		V	vad
ja	ja	0		J	
nüüd	nüüd	0		D	
see	see	0		P	sg n
tema	tema	0		P	sg g
    	tema	0		P	sg n
noorem	noorem	0		C	sg n
tüttar	####				
kodu	kodu	0		S	sg g
    	kodu	0		S	sg n
    	kodu	0		S	sg p
mehel	mees	l		S	sg ad
on	ole	0		V	b
  	ole	0		V	vad
Jaan	Jaan	0		H	sg n
    	jaan	0		S	sg n
    	jaan	0		Y	?
aitajal	aitaja	l		S	sg ad
ja	ja	0		J	
see	see	0		P	sg n
juba	juba	0		D	
kolm	kolm	0		N	sg n
aastat	aasta	t		S	sg p
,	,			Z	
selle	see	0		P	sg g
     	sell	e		S	pl p
talu	talu	0		S	sg g
    	talu	0		V	o
    	talu	0		S	sg n
    	talu	0		S	sg p
koha	koht	0		S	sg g
    	koha	0		S	sg g
    	koha	0		V	o
    	koha	0		S	sg n
    	koha	0		S	sg p
eest	eest	0		D	
    	eest	0		K	
    	esi	st		S	sg el
murit	####				
kandnud	kand	nud		V	nud
       	kand=nu	d		S	pl n
       	kand=nud	0		A	
       	kand=nud	0		A	sg n
       	kand=nud	d		A	pl n
,	,			Z	
siis	siis	0		D	
    	siis	0		J	
peab	pida	b		V	b
see	see	0		P	sg n
Jaan	Jaan	0		H	sg n
    	jaan	0		S	sg n
    	jaan	0		Y	?
aitaja	aitaja	0		S	sg g
      	aitaja	0		S	sg n
selle	see	0		P	sg g
     	sell	e		S	pl p
Ado	Ado	0		H	sg g
   	Ado	0		H	sg n
Brudelile	####				
toitjaks	toitja	ks		S	sg tr
jääma	jää	ma		V	ma
     	jääm	0		S	adt
     	jääm	0		S	sg g
     	jääm	0		S	sg p
ja	ja	0		J	
siit	siit	0		D	
kogukonna	kogukond	0		S	sg g
kohus	kohu	s		V	s
     	kohus	0		S	sg n
paneb	pane	b		V	b
seda	see	da		P	sg p
Dumajnenhoovi	####				
kohtule	kohus	le		S	sg all
ette	ette	0		D	
    	ette	0		K	
    	esi	tte		S	adt
,	,			Z	
et	et	0		J	
see	see	0		P	sg n
Jaan	Jaan	0		H	sg n
    	jaan	0		S	sg n
    	jaan	0		Y	?
aitaja	aitaja	0		S	sg g
      	aitaja	0		S	sg n
üks	üks	0		N	sg n
   	üks	0		P	sg n
laitmata	lait	mata		V	mata
        	lait=mata	0		A	
mees	mees	0		S	sg n
    	mesi	s		S	sg in
on	ole	0		V	b
  	ole	0		V	vad
,	,			Z	
ja	ja	0		J	
tema	tema	0		P	sg g
    	tema	0		P	sg n
ka	ka	0		D	
selle	see	0		P	sg g
     	sell	e		S	pl p
Poisiku	poi_sikk	0		S	sg g
Ado	Ado	0		H	sg g
   	Ado	0		H	sg n
Brudelile	####				
toitjaks	toitja	ks		S	sg tr
jääb	jää	b		V	b
,	,			Z	
siis	siis	0		D	
    	siis	0		J	
see	see	0		P	sg n
ka	ka	0		D	
selle	see	0		P	sg g
     	sell	e		S	pl p
Poisiku	poi_sikk	0		S	sg g
Talu	talu	0		S	sg g
    	talu	0		V	o
    	talu	0		S	sg n
    	talu	0		S	sg p
No	no	0		I	
80	80	0		N	?
Päremeheks	####				
kinnitud	kinnitu	d		V	d
saaks	saa	ks		V	ks
.	.			Z	
