kohtu	kohtu	0		V	o
     	kohus	0		S	sg g
ette	ette	0		D	
    	ette	0		K	
    	esi	tte		S	adt
tuli	tuli	0		S	sg n
    	tule	i		V	s
Kihnu	Kihnu	0		H	adt
     	Kihnu	0		H	sg g
     	kihn	0		S	adt
     	kihn	0		S	sg g
     	kihnu	0		G	
     	Kihnu	0		H	sg n
     	kihn	0		S	sg p
valla	vald	0		S	sg g
     	valla	0		D	
""""	""""			Z	
tungi-Tooma	tungi-Toomas	0		H	sg g
""""	""""			Z	
talukoha	talu_koht	0		S	sg g
peremehe	pere_mees	0		S	sg g
Toomas	Toomas	0		H	sg n
      	Toomas	s		H	sg in
      	too	mas		V	mas
Tungeni	####				
vanem	vanem	0		C	sg n
     	vanem	0		S	sg n
väimees	väi_mees	0		S	sg n
Kustav	kus=tav	0		A	sg n
      	kuse	tav		V	tav
Sutt	sutt	0		S	sg n
    	susi	tt		S	sg p
ja	ja	0		J	
rääkis	rääki	s		V	s
:	:			Z	
et	et	0		J	
nõnda	nõnda	0		D	
kui	kui	0		D	
   	kui	0		J	
tema	tema	0		P	sg g
    	tema	0		P	sg n
äi	äi	0		S	sg n
selle	see	0		P	sg g
     	sell	e		S	pl p
talukoha	talu_koht	0		S	sg g
peremees	pere_mees	0		S	sg n
Toomas	Toomas	0		H	sg n
      	Toomas	s		H	sg in
      	too	mas		V	mas
Tungen	####				
juba	juba	0		D	
9	9	0		N	?
aastat	aasta	t		S	sg p
surnud	surnu	d		S	pl n
      	surnud	0		A	
      	surnud	0		A	sg n
      	surnud	d		A	pl n
      	sure	nud		V	nud
on	ole	0		V	b
  	ole	0		V	vad
,	,			Z	
siis	siis	0		D	
    	siis	0		J	
et	et	0		J	
nõnda	nõnda	0		D	
kui	kui	0		D	
   	kui	0		J	
temal	tema	l		P	sg ad
poega	poeg	0		S	adt
     	pood	ga		S	sg kom
     	poeg	0		S	sg p
järele	järele	0		D	
      	järele	0		K	
jäänud	jää	nud		V	nud
      	jäänu	d		S	pl n
      	jäänud	0		A	
      	jäänud	0		A	sg n
      	jäänud	d		A	pl n
ei	ei	0		D	
  	ei	0		V	neg
ole	ole	0		V	o
,-tema	####				
Kustav	kus=tav	0		A	sg n
      	kuse	tav		V	tav
Sutt	sutt	0		S	sg n
    	susi	tt		S	sg p
kui	kui	0		D	
   	kui	0		J	
vanem	vanem	0		C	sg n
     	vanem	0		S	sg n
väimees	väi_mees	0		S	sg n
saaks	saa	ks		V	ks
selle	see	0		P	sg g
     	sell	e		S	pl p
""""	""""			Z	
tungi-Tooma	tungi-Toomas	0		H	sg g
""""	""""			Z	
talukoha	talu_koht	0		S	sg g
peremeheks	pere_mees	ks		S	sg tr
kinnitud	kinnitu	d		V	d
ja	ja	0		J	
temale	tema	le		P	sg all
selle	see	0		P	sg g
     	sell	e		S	pl p
talukoha	talu_koht	0		S	sg g
õigus	õigus	0		S	sg n
antud	an=tu	d		S	pl n
     	and	tud		V	tud
     	antud	0		A	
     	antud	0		A	sg n
     	antud	d		A	pl n
,	,			Z	
mis	mis	0		P	pl n
   	mis	0		P	sg n
ka	ka	0		D	
tema	tema	0		P	sg g
    	tema	0		P	sg n
naine	naine	0		S	sg n
Reet	Reet	0		H	sg n
soovib	soovi	b		V	b
,	,			Z	
ja	ja	0		J	
ka	ka	0		D	
ooma	####				
sooovi	####				
siin	siin	0		D	
    	siin	0		S	sg n
kohtu	kohtu	0		V	o
     	kohus	0		S	sg g
ees	ees	0		D	
   	ees	0		K	
   	esi	s		S	sg in
avaldas	avalda	s		V	s
,	,			Z	
ja	ja	0		J	
palusid	palu	sid		S	pl p
       	palu	sid		V	sid
seda	see	da		P	sg p
protokoli	####				
ülles	####				
panda	pand	0		S	adt
     	panda	0		S	sg g
     	pane	da		V	ta
     	pand	0		S	sg p
     	panda	0		S	sg n
ja	ja	0		J	
Baltimaa	Balti_maa	0		H	sg g
        	Balti_maa	0		H	sg n
Domäni	####				
Valitsusele	valitsus	le		S	sg all
ette	ette	0		D	
    	ette	0		K	
    	esi	tte		S	adt
panda	pand	0		S	adt
     	panda	0		S	sg g
     	pane	da		V	ta
     	pand	0		S	sg p
     	panda	0		S	sg n
.	.			Z	
valla	vald	0		S	sg g
     	valla	0		D	
kohus	kohu	s		V	s
     	kohus	0		S	sg n
kuuldes	kuul	des		V	des
       	kuule	s		S	sg in
seda	see	da		P	sg p
ja	ja	0		J	
mõistis	mõist	is		V	s
:	:			Z	
et	et	0		J	
nõnda	nõnda	0		D	
kui	kui	0		D	
   	kui	0		J	
Kustav	kus=tav	0		A	sg n
      	kuse	tav		V	tav
Sutt	sutt	0		S	sg n
    	susi	tt		S	sg p
selle	see	0		P	sg g
     	sell	e		S	pl p
""""	""""			Z	
tungi-Tooma	tungi-Toomas	0		H	sg g
""""	""""			Z	
talukoha	talu_koht	0		S	sg g
peremehe	pere_mees	0		S	sg g
Toomas	Toomas	0		H	sg n
      	Toomas	s		H	sg in
      	too	mas		V	mas
Tungeni	####				
vanem	vanem	0		C	sg n
     	vanem	0		S	sg n
väimees	väi_mees	0		S	sg n
on	ole	0		V	b
  	ole	0		V	vad
ja	ja	0		J	
sel	see	l		P	sg ad
   	sel	0		Y	?
Toomas	Toomas	0		H	sg n
      	Toomas	s		H	sg in
      	too	mas		V	mas
Tungenil	####				
poega	poeg	0		S	adt
     	pood	ga		S	sg kom
     	poeg	0		S	sg p
pärimas	päri	mas		V	mas
ei	ei	0		D	
  	ei	0		V	neg
ole	ole	0		V	o
,	,			Z	
siis	siis	0		D	
    	siis	0		J	
tema	tema	0		P	sg g
    	tema	0		P	sg n
naise	naine	0		S	sg g
Reeda	Reet	0		H	sg g
     	reet	0		V	o
sooovimise	####				
järele	järele	0		D	
      	järele	0		K	
tunnistada	tunnista	da		V	da
Kustav	kus=tav	0		A	sg n
      	kuse	tav		V	tav
Sutti	sutt	0		S	adt
     	sutt	0		S	sg p
kui	kui	0		D	
   	kui	0		J	
vanemat	vanem	t		C	sg p
       	vanem	t		S	sg p
Toomas	Toomas	0		H	sg n
      	Toomas	s		H	sg in
      	too	mas		V	mas
Tungeni	####				
väimeest	väi_mees	t		S	sg p
selle	see	0		P	sg g
     	sell	e		S	pl p
""""	""""			Z	
tungi-Tooma	tungi-Toomas	0		H	sg g
""""	""""			Z	
talukoha	talu_koht	0		S	sg g
peremeheks	pere_mees	ks		S	sg tr
sellega	see	ga		P	sg kom
,	,			Z	
et	et	0		J	
ta	tema	0		P	sg g
  	tema	0		P	sg n
onlikult	####				
ja	ja	0		J	
viisipärast	viisi_pärane	t		A	sg p
selle	see	0		P	sg g
     	sell	e		S	pl p
talukoha	talu_koht	0		S	sg g
maksud	maks	d		S	pl n
maksab	maks	b		V	b
,	,			Z	
tema	tema	0		P	sg g
    	tema	0		P	sg n
võlad	võlg	d		S	pl n
tasub	tasu	b		V	b
,	,			Z	
ja	ja	0		J	
kõik	kõik	0		P	pl n
    	kõik	0		S	sg n
    	kõik	0		P	sg n
kohused	kohus	d		S	pl n
täidab	täit	b		V	b
mis	mis	0		P	pl n
   	mis	0		P	sg n
selle	see	0		P	sg g
     	sell	e		S	pl p
talukoha	talu_koht	0		S	sg g
peale	pea	le		S	sg all
     	peale	0		D	
     	peale	0		K	
seaduslikult	seaduslik	lt		A	sg abl
            	seaduslikult	0		D	
lanevad	####				
,	,			Z	
panda	pand	0		S	adt
     	panda	0		S	sg g
     	pane	da		V	ta
     	pand	0		S	sg p
     	panda	0		S	sg n
seda	see	da		P	sg p
kõik	kõik	0		P	pl n
    	kõik	0		S	sg n
    	kõik	0		P	sg n
protokoli	####				
ülles	####				
ja	ja	0		J	
viimaks	vii	maks		V	maks
       	viimaks	0		D	
ka	ka	0		D	
Domäni	####				
Valitsusele	valitsus	le		S	sg all
ette	ette	0		D	
    	ette	0		K	
    	esi	tte		S	adt
panda	pand	0		S	adt
     	panda	0		S	sg g
     	pane	da		V	ta
     	pand	0		S	sg p
     	panda	0		S	sg n
kinnitamiseks	kinnitamine	ks		S	sg tr
ja	ja	0		J	
mis	mis	0		P	pl n
   	mis	0		P	sg n
ka	ka	0		D	
täidetud	täit	tud		V	tud
        	täide=tu	d		S	pl n
        	täide=tud	0		A	
        	täide=tud	0		A	sg n
        	täide=tud	d		A	pl n
sai	saa	i		V	s
   	sai	0		S	sg n
.	.			Z	
Kihnu	Kihnu	0		H	adt
     	Kihnu	0		H	sg g
     	kihn	0		S	adt
     	kihn	0		S	sg g
     	kihnu	0		G	
     	Kihnu	0		H	sg n
     	kihn	0		S	sg p
valla	vald	0		S	sg g
     	valla	0		D	
kogukonna	kogukond	0		S	sg g
kohus	kohu	s		V	s
     	kohus	0		S	sg n
.	.			Z	
Peakohtumees	pea_kohtu_mees	0		S	sg n
:	:			Z	
Jakob	Jakob	0		H	sg n
mättas	mätas	s		S	sg in
XXX	XXX	0		O	?
   	XXX	0		Y	?
kohtumehed	kohtu_mees	d		S	pl n
:	:			Z	
Jüri	Jüri	0		H	sg g
    	Jüri	0		H	sg n
Vahkel	####				
XXX	XXX	0		O	?
   	XXX	0		Y	?
Jaan	Jaan	0		H	sg n
    	jaan	0		S	sg n
    	jaan	0		Y	?
Pull	pull	0		A	sg n
    	pull	0		S	sg n
XXX	XXX	0		O	?
   	XXX	0		Y	?
