Laiksaare	laik_saar	0		S	sg g
kogukonnakohtus	kogukonna_kohus	s		S	sg in
sell	sell	0		S	sg n
5ndal	5=s	l		O	sg ad
Octobril	####				
1862	1862	0		N	?
Endine	endine	0		A	sg n
Laiksaare	laik_saar	0		S	sg g
kõrtsimees	kõrtsi_mees	0		S	sg n
Jaan	Jaan	0		H	sg n
    	jaan	0		S	sg n
    	jaan	0		Y	?
Tammekänd	tamme_känd	0		S	sg n
Võlla	võllas	0		S	sg g
vallast	vald	st		S	sg el
kaebas	kaeba	s		V	s
,	,			Z	
et	et	0		J	
tema	tema	0		P	sg g
    	tema	0		P	sg n
on	ole	0		V	b
  	ole	0		V	vad
siit	siit	0		D	
metsavahil	metsa_vaht	l		S	sg ad
Hendrek	####				
Toomsohn	####				
3	3	0		N	?
rubla	rubla	0		S	sg g
     	rubla	0		S	sg n
     	rubla	0		S	sg p
72	72	0		N	?
kopp	kopp	0		S	sg n
.	.			Z	
ligi	ligi	0		D	
    	ligi	0		K	
paari	paar	0		N	adt
     	paar	0		N	sg g
     	paar	0		S	adt
     	paar	0		S	sg g
     	paari	0		D	
     	paari	0		V	o
     	paar	0		N	sg p
     	paar	0		S	sg p
aasta	aasta	0		S	sg g
     	aasta	0		S	sg n
eest	eest	0		D	
    	eest	0		K	
    	esi	st		S	sg el
lainanud	####				
,	,			Z	
mis	mis	0		P	pl n
   	mis	0		P	sg n
nüüd	nüüd	0		D	
Hendrek	####				
temal	tema	l		P	sg ad
et	et	0		J	
tahta	taht	a		V	da
ära	ära	0		D	
   	ära	0		V	neg o
maksta	maks	ta		V	da
      	maks	ta		V	ta
.	.			Z	
Hendrek	####				
ütleb	ütle	b		V	b
,	,			Z	
et	et	0		J	
tema	tema	0		P	sg g
    	tema	0		P	sg n
Jaanil	Jaan	l		H	sg ad
      	Jaani	l		H	sg ad
      	jaan	l		S	sg ad
juba	juba	0		D	
keik	####				
olla	ole	a		V	da
ära	ära	0		D	
   	ära	0		V	neg o
tasoonud	####				
,	,			Z	
aga	aga	0		J	
üks	üks	0		N	sg n
   	üks	0		P	sg n
tunnistus	tunnistus	0		S	sg n
Võlla	võllas	0		S	sg g
mees	mees	0		S	sg n
    	mesi	s		S	sg in
Jüri	Jüri	0		H	sg g
    	Jüri	0		H	sg n
Toomikas	####				
tunnistab	tunnista	b		V	b
,	,			Z	
et	et	0		J	
kui	kui	0		D	
   	kui	0		J	
Jaan	Jaan	0		H	sg n
    	jaan	0		S	sg n
    	jaan	0		Y	?
on	ole	0		V	b
  	ole	0		V	vad
Hendreko	####				
käest	käest	0		K	
     	käsi	st		S	sg el
mineva	minev	0		A	sg g
kevade	kevad	0		S	sg g
      	kevade	0		S	sg g
      	kevade	0		S	sg n
oma	oma	0		A	sg g
   	oma	0		D	
   	oma	0		P	sg g
   	oma	0		S	sg g
   	oma	0		V	o
   	oma	0		A	sg n
   	oma	0		A	sg p
   	oma	0		P	sg n
   	oma	0		P	sg p
   	oma	0		S	sg n
   	oma	0		S	sg p
võlga	võlg	0		S	adt
     	võlg	0		S	sg p
pärinud	päri	nud		V	nud
       	päri=nu	d		S	pl n
       	päri=nud	0		A	
       	päri=nud	0		A	sg n
       	päri=nud	d		A	pl n
,	,			Z	
siis	siis	0		D	
    	siis	0		J	
on	ole	0		V	b
  	ole	0		V	vad
Hendrek	####				
ütelnud	ütle	nud		V	nud
       	ütel=nu	d		S	pl n
       	ütel=nud	0		A	
       	ütel=nud	0		A	sg n
       	ütel=nud	d		A	pl n
,	,			Z	
""""	""""			Z	
kannata	kand	ta		S	sg ab
       	kanna	ta		S	sg ab
       	kannata	0		V	o
minuga	mina	ga		P	sg kom
,	,			Z	
mull	mull	0		S	sg n
ei	ei	0		D	
  	ei	0		V	neg
ole	ole	0		V	o
praego	####				
maksta	maks	ta		V	da
      	maks	ta		V	ta
.	.			Z	
""""	""""			Z	
et	et	0		J	
nüüd	nüüd	0		D	
Hendrek	####				
ütleb	ütle	b		V	b
,	,			Z	
et	et	0		J	
tema	tema	0		P	sg g
    	tema	0		P	sg n
Jaani	Jaan	0		H	adt
     	Jaan	0		H	sg g
     	Jaani	0		H	sg g
     	jaan	0		S	adt
     	jaan	0		S	sg g
     	Jaan	0		H	sg p
     	Jaani	0		H	sg n
     	jaan	0		S	sg p
None	####				
juba	juba	0		D	
siis	siis	0		D	
    	siis	0		J	
on	ole	0		V	b
  	ole	0		V	vad
ära	ära	0		D	
   	ära	0		V	neg o
tasoonud	####				
,	,			Z	
kui	kui	0		D	
   	kui	0		J	
Jaan	Jaan	0		H	sg n
    	jaan	0		S	sg n
    	jaan	0		Y	?
siit	siit	0		D	
kõrtsist	kõrts	st		S	sg el
ära	ära	0		D	
   	ära	0		V	neg o
läinud	läinu	d		S	pl n
      	läinud	0		A	
      	läinud	0		A	sg n
      	läinud	d		A	pl n
      	mine	nud		V	nud
,	,			Z	
aga	aga	0		J	
minneva	####				
kevade	kevad	0		S	sg g
      	kevade	0		S	sg g
      	kevade	0		S	sg n
veel	veel	0		D	
    	vesi	l		S	sg ad
,	,			Z	
nikui	####				
se	####				
tunnistus	tunnistus	0		S	sg n
ütleb	ütle	b		V	b
,	,			Z	
seda	see	da		P	sg p
ei	ei	0		D	
  	ei	0		V	neg
ütelnud	ütle	nud		V	nud
       	ütel=nu	d		S	pl n
       	ütel=nud	0		A	
       	ütel=nud	0		A	sg n
       	ütel=nud	d		A	pl n
tasoodud	####				
olevat	ole	vat		V	vat
      	olev	t		A	sg p
      	olev	t		S	sg p
,	,			Z	
siis	siis	0		D	
    	siis	0		J	
mõistis	mõist	is		V	s
kohus	kohu	s		V	s
     	kohus	0		S	sg n
,	,			Z	
sepärast	####				
et	et	0		J	
Hendrek	####				
seda	see	da		P	sg p
tunnistust	tunnistus	t		S	sg p
valeks	vale	ks		A	sg tr
      	vale	ks		S	sg tr
aiab	####				
,	,			Z	
et	et	0		J	
selle	see	0		P	sg g
     	sell	e		S	pl p
protokolli	protokoll	0		S	adt
          	protokoll	0		S	sg g
          	protokolli	0		V	o
          	protokoll	0		S	sg p
ära	ära	0		D	
   	ära	0		V	neg o
kiri	kiri	0		S	sg n
tarvis	tarvis	0		D	
      	tarvis	0		K	
ausa	aus	0		A	sg g
keiserlikko	####				
kihelkonnakohtu	kihelkonna_kohus	0		S	sg g
kätte	kätte	0		K	
     	käsi	tte		S	adt
se	####				
palvega	palve	ga		S	sg kom
saata	saat	a		V	da
,	,			Z	
et	et	0		J	
seesama	see_sama	0		P	sg n
ni	####				
hää	####				
oleks	ole	ks		V	ks
,	,			Z	
ka	ka	0		D	
seda	see	da		P	sg p
pisukest	pisuke	t		A	sg p
        	pisukene	t		A	sg p
rio	####				
asja	asi	0		S	adt
    	asi	0		S	sg g
    	asi	0		S	sg p
seletada	seleta	da		V	da
ja	ja	0		J	
tunnistust	tunnistus	t		S	sg p
vannutada	vannuta	da		V	da
võtaks	võt	ks		V	ks
.	.			Z	
