Mihkel	Mihkel	0		H	sg n
      	mihkel	0		A	sg n
      	mihkel	0		S	sg n
Juurikas	juurikas	0		S	sg n
        	juurikas	s		S	sg in
Toorist	toor	st		S	sg el
       	toori	st		S	sg el
kellel	kes	l		P	pl ad
      	kes	l		P	sg ad
15	15	0		N	?
rubl	####				
.	.			Z	
41	41	0		N	?
kop	kop	0		Y	?
.	.			Z	
vana	vana	0		A	sg g
    	vana	0		A	sg n
    	vana	0		A	sg p
    	vana	0		S	sg g
    	vana	0		S	sg n
    	vana	0		S	sg p
ja	ja	0		J	
4	4	0		N	?
rubl	####				
.	.			Z	
19	19	0		N	?
kop	kop	0		Y	?
1889	1889	0		N	?
/	/			Z	
90	90	0		N	?
aasta	aasta	0		S	sg g
     	aasta	0		S	sg n
vallamaksud	valla_maks	d		S	pl n
võlga	võlg	0		S	adt
     	võlg	0		S	sg p
on	ole	0		V	b
  	ole	0		V	vad
,	,			Z	
mille	mis	0		P	pl g
     	mis	0		P	sg g
ülle	ülle	0		D	
temale	tema	le		P	sg all
mitmed	mitu	d		P	pl n
kohtu	kohtu	0		V	o
     	kohus	0		S	sg g
tärminiid	####				
selle	see	0		P	sg g
     	sell	e		S	pl p
tasumiseks	tasumine	ks		S	sg tr
antud	an=tu	d		S	pl n
     	and	tud		V	tud
     	antud	0		A	
     	antud	0		A	sg n
     	antud	d		A	pl n
(	(			Z	
N	N	0		Y	?
:	:			Z	
314	314	0		N	?
)	)			Z	
,	,			Z	
ka	ka	0		D	
kõige	kõik	0		P	sg g
     	kõige	0		D	
väiksendal	####				
mõedul	####				
jõudumööööda	####				
,	,			Z	
ei	ei	0		D	
  	ei	0		V	neg
ole	ole	0		V	o
seesama	see_sama	0		P	sg n
ka	ka	0		D	
mitte	mitte	0		D	
kõige	kõik	0		P	sg g
     	kõige	0		D	
vähemat	vähem	t		C	sg p
osa	osa	0		S	sg g
   	osa	0		S	sg n
   	osa	0		S	sg p
sellest	see	st		P	sg el
vähendada	vähenda	da		V	da
püidnud	####				
ja	ja	0		J	
oli	ole	i		V	s
täna	täna	0		D	
    	täna	0		V	o
jälle	jälle	0		D	
kohtu	kohtu	0		V	o
     	kohus	0		S	sg g
ette	ette	0		D	
    	ette	0		K	
    	esi	tte		S	adt
kutsutud	kutsu	tud		V	tud
        	kutsutu	d		S	pl n
        	kutsutud	0		A	
        	kutsutud	0		A	sg n
        	kutsutud	d		A	pl n
,	,			Z	
kohal	koht	l		S	sg ad
     	koha	l		S	sg ad
     	kohal	0		D	
     	kohal	0		K	
aga	aga	0		J	
täiesti	täiesti	0		D	
joobnud	joobnu	d		S	pl n
       	joobnud	0		A	
       	joobnud	0		A	sg n
       	joobnud	d		A	pl n
olekul	olek	l		S	sg ad
ilmus	ilmu	s		V	s
ja	ja	0		J	
milest	####				
nähe	nähe	0		S	sg n
on	ole	0		V	b
  	ole	0		V	vad
,	,			Z	
et	et	0		J	
temal	tema	l		P	sg ad
joomise	joomine	0		S	sg g
ja	ja	0		J	
lakkumise	lakku=mine	0		S	sg g
tarvis	tarvis	0		D	
      	tarvis	0		K	
raha	raha	0		S	sg g
    	raha	0		S	sg n
    	raha	0		S	sg p
külalt	küla	lt		S	sg abl
on	ole	0		V	b
  	ole	0		V	vad
,	,			Z	
aga	aga	0		J	
ainult	ainu	lt		S	sg abl
      	ainult	0		D	
hooletuse	hooletus	0		S	sg g
ja	ja	0		J	
halva	halb	0		A	sg g
     	halva	0		V	o
elu	elu	0		S	sg g
   	elu	0		S	sg n
   	elu	0		S	sg p
viiside	viis	de		S	pl g
pärast	pära	st		S	sg el
      	pärane	t		A	sg p
      	pärast	0		D	
      	pärast	0		K	
mitte	mitte	0		D	
ooma	####				
vallamaksusi	####				
maksta	maks	ta		V	da
      	maks	ta		V	ta
ei	ei	0		D	
  	ei	0		V	neg
taha	taht	0		V	o
    	taha	0		D	
    	taha	0		K	
ja	ja	0		J	
Sai	saa	i		V	s
   	sai	0		S	sg n
mõistetud	mõist	tud		V	tud
         	mõiste=tu	d		S	pl n
         	mõiste=tud	0		A	
         	mõiste=tud	0		A	sg n
         	mõiste=tud	d		A	pl n
:	:			Z	
Mihkel	Mihkel	0		H	sg n
      	mihkel	0		A	sg n
      	mihkel	0		S	sg n
Juurikas	juurikas	0		S	sg n
        	juurikas	s		S	sg in
peab	pida	b		V	b
igas	iga	s		P	sg in
kuus	kuu	s		S	sg in
    	kuus	0		N	sg n
tänasest	tänane	st		A	sg el
päevast	päev	st		S	sg el
       	päevane	t		A	sg p
arvatud	arva	tud		V	tud
       	arva=tu	d		S	pl n
       	arva=tud	0		A	
       	arva=tud	0		A	sg n
       	arva=tud	d		A	pl n
2	2	0		N	?
rubl	####				
.	.			Z	
ooma	####				
vallamaksude	valla_maks	de		S	pl g
võla	võlg	0		S	sg g
vähendamiseks	vähendamine	ks		S	sg tr
kohtu	kohtu	0		V	o
     	kohus	0		S	sg g
kätte	kätte	0		K	
     	käsi	tte		S	adt
ära	ära	0		D	
   	ära	0		V	neg o
maksma	maks	ma		V	ma
,	,			Z	
et	et	0		J	
aga	aga	0		J	
kohtu	kohtu	0		V	o
     	kohus	0		S	sg g
ees	ees	0		D	
   	ees	0		K	
   	esi	s		S	sg in
purjus	purjus	0		A	
      	purjus	0		D	
olnud	ol=nud	0		A	
     	ol=nud	0		A	sg n
     	ol=nud	d		A	pl n
     	ole	nud		V	nud
     	olnu	d		S	pl n
ja	ja	0		J	
väga	väga	0		D	
hooletu	hooletu	0		A	sg g
       	hooletu	0		A	sg n
ooma	####				
valla	vald	0		S	sg g
     	valla	0		D	
maksude	maks	de		S	pl g
maksmisega	maksmine	ga		S	sg kom
olnud	ol=nud	0		A	
     	ol=nud	0		A	sg n
     	ol=nud	d		A	pl n
     	ole	nud		V	nud
     	olnu	d		S	pl n
saab	saa	b		V	b
tema	tema	0		P	sg g
    	tema	0		P	sg n
viisteist	viis_teist	0		N	sg n
None	####				
hoopi	hoop	0		S	adt
     	hoop	0		S	sg p
vitsu	vits	u		S	pl p
nuhtluseks	nuhtlus	ks		S	sg tr
.	.			Z	
see	see	0		P	sg n
mõistus	mõistus	0		S	sg n
sai	saa	i		V	s
   	sai	0		S	sg n
kohe	kohe	0		A	sg n
    	kohe	0		D	
ette	ette	0		D	
    	ette	0		K	
    	esi	tte		S	adt
kuulutud	kuulu	tud		V	tud
        	kuulu=tu	d		S	pl n
        	kuulu=tud	0		A	
        	kuulu=tud	0		A	sg n
        	kuulu=tud	d		A	pl n
ja	ja	0		J	
Apellatsjoni	####				
seadus	seadu	s		V	s
      	seadus	0		A	sg n
      	seadus	0		S	sg n
tutvaks	####				
tehtud	tehtu	d		S	pl n
      	tehtud	0		A	
      	tehtud	0		A	sg n
      	tehtud	d		A	pl n
      	tege	tud		V	tud
.	.			Z	
