sel	see	l		P	sg ad
   	sel	0		Y	?
14nendal	####				
Junil	####				
1825	1825	0		N	?
võtsid	võt	sid		V	sid
need	see	d		P	pl n
kohtumeest	kohtu_mees	t		S	sg p
Jaak	Jaak	0		H	sg n
    	jaak	0		S	sg n
mingas	####				
,	,			Z	
Johann	Johann	0		H	sg n
kõrts	kõrts	0		S	sg n
ning	ning	0		J	
see	see	0		P	sg n
vöörmünder	vöörmünder	0		S	sg n
Hans	Hans	0		H	sg n
sose	####				
selle	see	0		P	sg g
     	sell	e		S	pl p
ära	ära	0		D	
   	ära	0		V	neg o
surnud	surnu	d		S	pl n
      	surnud	0		A	
      	surnud	0		A	sg n
      	surnud	d		A	pl n
      	sure	nud		V	nud
sulase	sulane	0		S	sg g
Peeter	Peeter	0		H	sg n
Masingu	Masing	0		H	sg g
varanduse	varandus	0		S	sg g
üles	üles	0		D	
,	,			Z	
ning	ning	0		J	
on	ole	0		V	b
  	ole	0		V	vad
seesama	see_sama	0		P	sg n
nii	nii	0		D	
palju	palju	0		D	
     	palju	0		P	sg g
     	palju	0		P	sg n
kui	kui	0		D	
   	kui	0		J	
nemad	tema	d		P	pl n
suure	suur	0		A	sg g
vaevaga	vaev	ga		S	sg kom
selle	see	0		P	sg g
     	sell	e		S	pl p
sele	####				
naise	naine	0		S	sg g
Tiina	Tiina	0		H	sg g
     	Tiina	0		H	sg n
Masingu	Masing	0		H	sg g
käest	käest	0		K	
     	käsi	st		S	sg el
kätte	kätte	0		K	
     	käsi	tte		S	adt
saanud	saa	nud		V	nud
      	saa=nud	0		A	
      	saa=nud	0		A	sg n
      	saa=nud	d		A	pl n
      	saanu	d		S	pl n
,	,			Z	
nimelt	nimelt	0		D	
      	nimi	lt		S	sg abl
:	:			Z	
a.	a	0		Y	?
raha	raha	0		S	sg g
    	raha	0		S	sg n
    	raha	0		S	sg p
selgest	selge	st		A	sg el
raha	raha	0		S	sg g
    	raha	0		S	sg n
    	raha	0		S	sg p
None	####				
õddabu	####				
None	####				
375	375	0		N	?
rbl	rbl	0		Y	?
.	.			Z	
50	50	0		N	?
kop	kop	0		Y	?
.	.			Z	
võlga	võlg	0		S	adt
     	võlg	0		S	sg p
:	:			Z	
Endrik	Endrik	0		H	sg n
Leppiku	Leppik	0		H	sg g
käes	käes	0		K	
    	käsi	s		S	sg in
6	6	0		N	?
R	R	0		Y	?
.	.			Z	
Hans	Hans	0		H	sg n
Masingu	Masing	0		H	sg g
käes	käes	0		K	
    	käsi	s		S	sg in
10	10	0		N	?
_	_			Z	
16	16	0		N	?
_	_			Z	
_	_			Z	
Summa	summ	0		S	adt
     	summ	0		S	sg g
     	summ	0		S	sg p
     	summa	0		S	sg g
     	summa	0		S	sg n
391	391	0		N	?
rbl	rbl	0		Y	?
.	.			Z	
50	50	0		N	?
kop	kop	0		Y	?
.	.			Z	
h	h	0		Y	?
.	.			Z	
b	b	0		Y	?
.	.			Z	
muu	muu	0		P	sg g
   	muu	0		S	sg g
   	muu	0		V	o
   	muu	0		P	sg n
   	muu	0		S	sg n
varandus	varandus	0		S	sg n
9.	9.	0		O	?
punda	####				
linna	linn	0		S	adt
     	linn	0		S	sg g
     	linn	0		S	sg p
1	1	0		N	?
vastne	vastne	0		A	sg n
      	vastne	0		S	sg n
kasukas	kasukas	0		S	sg n
       	kasukas	s		S	sg in
2	2	0		N	?
vastsest	vastne	st		A	sg el
        	vastne	st		S	sg el
vammused	vammus	d		S	pl n
2	2	0		N	?
linnatsest	####				
kangad	kangas	d		S	pl n
,	,			Z	
kokku	kokku	0		D	
     	kogu	0		S	adt
36	36	0		N	?
küünart	küünar	t		S	sg p
1	1	0		N	?
villane	villane	0		A	sg n
kangas	kangas	0		S	sg n
      	kangas	s		S	sg in
.	.			Z	
18	18	0		N	?
küünart	küünar	t		S	sg p
pik	####				
1	1	0		N	?
poolpeetud	pool_peetu	d		S	pl n
          	pool_peetud	0		A	
          	pool_peetud	0		A	sg n
          	pool_peetud	d		A	pl n
kasukas	kasukas	0		S	sg n
       	kasukas	s		S	sg in
1	1	0		N	?
saag	saag	0		S	sg n
3	3	0		N	?
kirvest	kirves	st		S	sg el
       	kirves	t		S	sg p
1	1	0		N	?
paar	paar	0		N	sg n
    	paar	0		S	sg n
ääreid	####				
7	7	0		N	?
sirpi	sirp	0		S	adt
     	sirp	0		S	sg p
1	1	0		N	?
ladik	####				
1	1	0		N	?
kastiga	kast	ga		S	sg kom
laud	laud	0		S	sg n
    	laug	d		S	pl n
1	1	0		N	?
sõel	sõel	0		S	sg n
1	1	0		N	?
hobune	hobune	0		S	sg n
1	1	0		N	?
lehm	lehm	0		S	sg n
1	1	0		N	?
vanker	vanker	0		S	sg n
ilma	ilm	0		S	adt
    	ilm	0		S	sg g
    	ilma	0		D	
    	ilma	0		K	
    	ilm	0		S	sg p
piisilteda	####				
1	1	0		N	?
tõug	tõug	0		S	sg n
kangro	####				
telge	telg	0		S	adt
     	telg	0		S	sg p
1	1	0		N	?
raudarrudega	####				
hark	hark	0		S	sg n
1	1	0		N	?
tasku	tasku	0		S	adt
     	tasku	0		S	sg g
     	tasku	0		S	sg n
uur	uur	0		S	sg n
2	2	0		N	?
pada	pada	0		S	sg g
    	pada	0		S	sg n
    	pada	0		S	sg p
4	4	0		N	?
lamma	####				
nahka	nahk	0		S	adt
     	nahk	0		S	sg p
     	nahka	0		D	
3	3	0		N	?
patja	padi	0		S	adt
     	padi	0		S	sg p
1	1	0		N	?
kirst	kirst	0		S	sg n
1	1	0		N	?
tek	####				
sees	sees	0		D	
    	sees	0		K	
tänaseks	tänane	ks		A	sg tr
        	tänaseks	0		D	
päevaks	päev	ks		S	sg tr
said	saa	id		V	sid
siis	siis	0		D	
    	siis	0		J	
selle	see	0		P	sg g
     	sell	e		S	pl p
ärrasurnud	####				
Peeter	Peeter	0		H	sg n
Masingu	Masing	0		H	sg g
lesk	lesk	0		S	sg n
Tiina	Tiina	0		H	sg g
     	Tiina	0		H	sg n
mingas	####				
,	,			Z	
niisamu	####				
ka	ka	0		D	
selle	see	0		P	sg g
     	sell	e		S	pl p
ära	ära	0		D	
   	ära	0		V	neg o
surnud	surnu	d		S	pl n
      	surnud	0		A	
      	surnud	0		A	sg n
      	surnud	d		A	pl n
      	sure	nud		V	nud
mehe	mees	0		S	sg g
sugulased	sugulane	d		S	pl n
,	,			Z	
tema	tema	0		P	sg g
    	tema	0		P	sg n
vendade	vend	de		S	pl g
lapsed	laps	d		S	pl n
,	,			Z	
nimelt	nimelt	0		D	
      	nimi	lt		S	sg abl
:	:			Z	
Jaak	Jaak	0		H	sg n
    	jaak	0		S	sg n
mingas	####				
Karl	Karl	0		H	sg n
mingas	####				
Toomas	Toomas	0		H	sg n
      	Toomas	s		H	sg in
      	too	mas		V	mas
mingas	####				
Jaan	Jaan	0		H	sg n
    	jaan	0		S	sg n
    	jaan	0		Y	?
mingas	####				
Endrik	Endrik	0		H	sg n
mingas	####				
Hans	Hans	0		H	sg n
mingas	####				
Peeter	Peeter	0		H	sg n
mingas	####				
Mats	Mats	0		H	sg n
    	mats	0		A	sg n
    	mats	0		S	sg n
mingas	####				
Mari	Mari	0		H	sg g
    	mari	0		S	sg g
    	mari	0		S	sg n
    	Mari	0		H	sg n
    	mari	0		S	sg p
kõll	kõll	0		I	
Kadri	Kadri	0		H	sg g
     	Kadri	0		H	sg n
     	kadri	0		S	sg g
     	kadri	0		S	sg n
mingas	####				
ning	ning	0		J	
Reet	Reet	0		H	sg n
mingas	####				
siia	siia	0		D	
    	siig	0		S	sg g
kohtu	kohtu	0		V	o
     	kohus	0		S	sg g
ette	ette	0		D	
    	ette	0		K	
    	esi	tte		S	adt
telitatud	####				
,	,			Z	
et	et	0		J	
sest	see	st		P	sg el
    	sest	0		J	
varandusest	varandus	st		S	sg el
aru	aru	0		S	sg g
   	aru	0		S	sg n
   	aru	0		S	sg p
saaks	saa	ks		V	ks
peetud	peetu	d		S	pl n
      	peetu	d		V	d
      	peetud	0		A	
      	peetud	0		A	sg n
      	peetud	d		A	pl n
      	pida	tud		V	tud
,	,			Z	
ning	ning	0		J	
seesama	see_sama	0		P	sg n
ära	ära	0		D	
   	ära	0		V	neg o
jäetud	jäe=tu	d		S	pl n
      	jäe=tud	0		A	
      	jäe=tud	0		A	sg n
      	jäe=tud	d		A	pl n
      	jät	tud		V	tud
.	.			Z	
_	_			Z	
nõudis	nõud	is		V	s
siis	siis	0		D	
    	siis	0		J	
kohus	kohu	s		V	s
     	kohus	0		S	sg n
Tiina	Tiina	0		H	sg g
     	Tiina	0		H	sg n
Masingu	Masing	0		H	sg g
käest	käest	0		K	
     	käsi	st		S	sg el
,	,			Z	
mis	mis	0		P	pl n
   	mis	0		P	sg n
ja	ja	0		J	
kui	kui	0		D	
   	kui	0		J	
palju	palju	0		D	
     	palju	0		P	sg g
     	palju	0		P	sg n
tema	tema	0		P	sg g
    	tema	0		P	sg n
ühes	üks	s		N	sg in
    	üks	s		P	sg in
    	ühes	0		D	
    	ühes	0		K	
toonud	too	nud		V	nud
      	too=nu	d		S	pl n
      	too=nud	0		A	
      	too=nud	0		A	sg n
      	too=nud	d		A	pl n
,	,			Z	
kui	kui	0		D	
   	kui	0		J	
tema	tema	0		P	sg g
    	tema	0		P	sg n
selle	see	0		P	sg g
     	sell	e		S	pl p
kadunud	kadu	nud		V	nud
       	kadunu	d		S	pl n
       	kadunud	0		A	
       	kadunud	0		A	sg n
       	kadunud	d		A	pl n
sale	sale	0		A	sg n
Peeter	Peeter	0		H	sg n
Matsingule	####				
mehele	mees	le		S	sg all
läinud	läinu	d		S	pl n
      	läinud	0		A	
      	läinud	0		A	sg n
      	läinud	d		A	pl n
      	mine	nud		V	nud
?	?			Z	
kostis	kost	s		S	sg in
      	kost	is		V	s
Tiina	Tiina	0		H	sg g
     	Tiina	0		H	sg n
mingas	####				
,	,			Z	
et	et	0		J	
tema	tema	0		P	sg g
    	tema	0		P	sg n
ühes	üks	s		N	sg in
    	üks	s		P	sg in
    	ühes	0		D	
    	ühes	0		K	
toonud	too	nud		V	nud
      	too=nu	d		S	pl n
      	too=nud	0		A	
      	too=nud	0		A	sg n
      	too=nud	d		A	pl n
:	:			Z	
1	1	0		N	?
lehm	lehm	0		S	sg n
1	1	0		N	?
mullik	mul=lik	0		A	sg n
4	4	0		N	?
lammast	lammas	t		S	sg p
10	10	0		N	?
rubla	rubla	0		S	sg g
     	rubla	0		S	sg n
     	rubla	0		S	sg p
õddabu	####				
ning	ning	0		J	
omad	oma	d		A	pl n
    	oma	d		P	pl n
    	oma	d		S	pl n
    	oma	d		V	d
riided	riie	d		S	pl n
.	.			Z	
1.	1.	0		O	?
selle	see	0		P	sg g
     	sell	e		S	pl p
järgi	järg	i		S	pl p
     	järgi	0		D	
     	järgi	0		K	
     	järgi	0		V	o
nõudis	nõud	is		V	s
Karl	Karl	0		H	sg n
mingas	####				
selle	see	0		P	sg g
     	sell	e		S	pl p
eest	eest	0		D	
    	eest	0		K	
    	esi	st		S	sg el
,	,			Z	
et	et	0		J	
see	see	0		P	sg n
kadunud	kadu	nud		V	nud
       	kadunu	d		S	pl n
       	kadunud	0		A	
       	kadunud	0		A	sg n
       	kadunud	d		A	pl n
Peeter	Peeter	0		H	sg n
mingas	####				
5	5	0		N	?
aastad	aasta	d		S	pl n
tema	tema	0		P	sg g
    	tema	0		P	sg n
juures	juur	s		S	sg in
      	juures	0		D	
      	juures	0		K	
elanud	ela	nud		V	nud
      	ela=nu	d		S	pl n
      	ela=nud	0		A	
      	ela=nud	0		A	sg n
      	ela=nud	d		A	pl n
ning	ning	0		J	
ka	ka	0		D	
4	4	0		N	?
vakka	vakk	0		S	adt
     	vakk	0		S	sg p
     	vakka	0		D	
alla	alla	0		D	
    	alla	0		K	
maad	maa	d		S	pl n
    	maa	d		S	sg p
tema	tema	0		P	sg g
    	tema	0		P	sg n
käes	käes	0		K	
    	käsi	s		S	sg in
pruukida	pruuki	da		V	da
olnud	ol=nud	0		A	
     	ol=nud	0		A	sg n
     	ol=nud	d		A	pl n
     	ole	nud		V	nud
     	olnu	d		S	pl n
,	,			Z	
aasta	aasta	0		S	sg g
     	aasta	0		S	sg n
pealt	pea	lt		S	sg abl
     	pealt	0		D	
     	pealt	0		K	
10	10	0		N	?
rbl	rbl	0		Y	?
õb	####				
,	,			Z	
kokku	kokku	0		D	
     	kogu	0		S	adt
50	50	0		N	?
rubl	####				
.	.			Z	
õb	####				
.	.			Z	
kümme	kümme	0		N	sg n
rbl	rbl	0		Y	?
õb	####				
.	.			Z	
ütles	ütle	s		V	s
tema	tema	0		P	sg g
    	tema	0		P	sg n
laenatmise	####				
läbi	läbi	0		D	
    	läbi	0		K	
    	läbi	0		V	o
kätte	kätte	0		K	
     	käsi	tte		S	adt
saanud	saa	nud		V	nud
      	saa=nud	0		A	
      	saa=nud	0		A	sg n
      	saa=nud	d		A	pl n
      	saanu	d		S	pl n
olevat	ole	vat		V	vat
      	olev	t		A	sg p
      	olev	t		S	sg p
ning	ning	0		J	
nõuab	nõud	b		V	b
tema	tema	0		P	sg g
    	tema	0		P	sg n
siis	siis	0		D	
    	siis	0		J	
nüüd	nüüd	0		D	
veel	veel	0		D	
    	vesi	l		S	sg ad
40	40	0		N	?
rubl	####				
.	.			Z	
õddabu	####				
.	.			Z	
'	’			Z	
2.	2.	0		O	?
nõudis	nõud	is		V	s
see	see	0		P	sg n
naine	naine	0		S	sg n
puutunikku	####				
Tiina	Tiina	0		H	sg g
     	Tiina	0		H	sg n
puutunuk	####				
ühe	üks	0		N	sg g
   	üks	0		P	sg g
   	ühe	0		S	sg n
tekki	tekk	0		S	adt
     	tekki	0		V	o
     	tekk	0		S	sg p
eest	eest	0		D	
    	eest	0		K	
    	esi	st		S	sg el
,	,			Z	
mis	mis	0		P	pl n
   	mis	0		P	sg n
ta	tema	0		P	sg g
  	tema	0		P	sg n
mitme	mitu	0		P	sg g
aasta	aasta	0		S	sg g
     	aasta	0		S	sg n
eest	eest	0		D	
    	eest	0		K	
    	esi	st		S	sg el
kadunud	kadu	nud		V	nud
       	kadunu	d		S	pl n
       	kadunud	0		A	
       	kadunud	0		A	sg n
       	kadunud	d		A	pl n
Peeter	Peeter	0		H	sg n
Matsingule	####				
andnud	and	nud		V	nud
      	and=nu	d		S	pl n
      	and=nud	0		A	
      	and=nud	0		A	sg n
      	and=nud	d		A	pl n
4	4	0		N	?
rubl	####				
.	.			Z	
õb	####				
.	.			Z	
selle	see	0		P	sg g
     	sell	e		S	pl p
nõudmise	nõudmine	0		S	sg g
tunnistas	tunnista	s		V	s
see	see	0		P	sg n
lesk	lesk	0		S	sg n
Tiina	Tiina	0		H	sg g
     	Tiina	0		H	sg n
mingas	####				
õige	õige	0		A	sg g
    	õige	0		A	sg n
    	õige	0		D	
olevat	ole	vat		V	vat
      	olev	t		A	sg p
      	olev	t		S	sg p
.	.			Z	
3.	3.	0		O	?
nõudis	nõud	is		V	s
see	see	0		P	sg n
tüdruk	tüdruk	0		S	sg n
Kadri	Kadri	0		H	sg g
     	Kadri	0		H	sg n
     	kadri	0		S	sg g
     	kadri	0		S	sg n
mingas	####				
ühe	üks	0		N	sg g
   	üks	0		P	sg g
   	ühe	0		S	sg n
puna	puna	0		S	sg g
    	puna	0		V	o
    	puna	0		S	sg n
    	puna	0		S	sg p
linade	lina	de		S	pl g
eest	eest	0		D	
    	eest	0		K	
    	esi	st		S	sg el
,	,			Z	
mis	mis	0		P	pl n
   	mis	0		P	sg n
kadunud	kadu	nud		V	nud
       	kadunu	d		S	pl n
       	kadunud	0		A	
       	kadunud	0		A	sg n
       	kadunud	d		A	pl n
Peeter	Peeter	0		H	sg n
mingas	####				
temale	tema	le		P	sg all
tema	tema	0		P	sg g
    	tema	0		P	sg n
aasta	aasta	0		S	sg g
     	aasta	0		S	sg n
palga	palk	0		S	sg g
peale	pea	le		S	sg all
     	peale	0		D	
     	peale	0		K	
võlgu	võlg	u		S	pl p
     	võlgu	0		D	
jäänud	jää	nud		V	nud
      	jäänu	d		S	pl n
      	jäänud	0		A	
      	jäänud	0		A	sg n
      	jäänud	d		A	pl n
,	,			Z	
2	2	0		N	?
rubla	rubla	0		S	sg g
     	rubla	0		S	sg n
     	rubla	0		S	sg p
õddabu	####				
.	.			Z	
see	see	0		P	sg n
lesk	lesk	0		S	sg n
Tiina	Tiina	0		H	sg g
     	Tiina	0		H	sg n
mingas	####				
arvas	arva	s		V	s
selle	see	0		P	sg g
     	sell	e		S	pl p
nõudmise	nõudmine	0		S	sg g
küll	küll	0		D	
    	küll	0		S	sg n
õige	õige	0		A	sg g
    	õige	0		A	sg n
    	õige	0		D	
võivad	või	vad		V	vad
      	võiv	d		A	pl n
olla	ole	a		V	da
.	.			Z	
4.	4.	0		O	?
selle	see	0		P	sg g
     	sell	e		S	pl p
Peeter	Peeter	0		H	sg n
Masingu	Masing	0		H	sg g
matmise	matmine	0		S	sg g
tarvis	tarvis	0		D	
      	tarvis	0		K	
on	ole	0		V	b
  	ole	0		V	vad
kuulutatud	kuuluta	tud		V	tud
          	kuuluta=tu	d		S	pl n
          	kuuluta=tud	0		A	
          	kuuluta=tud	0		A	sg n
          	kuuluta=tud	d		A	pl n
:	:			Z	
Praoski	pragu	s	ki	S	sg in
Härrale	härra	le		S	sg all
:	:			Z	
1	1	0		N	?
rubl	####				
.	.			Z	
h	h	0		Y	?
.	.			Z	
1.	1.	0		O	?
lehma	lehm	0		S	adt
     	lehm	0		S	sg g
     	lehm	0		S	sg p
eest	eest	0		D	
    	eest	0		K	
    	esi	st		S	sg el
4	4	0		N	?
_	_			Z	
jahude	jahu	de		S	pl g
,	,			Z	
piima	piim	0		S	adt
     	piim	0		S	sg g
     	piim	0		S	sg p
ning	ning	0		J	
ole	ole	0		V	o
tarvis	tarvis	0		D	
      	tarvis	0		K	
5	5	0		N	?
_	_			Z	
Summa	summ	0		S	adt
     	summ	0		S	sg g
     	summ	0		S	sg p
     	summa	0		S	sg g
     	summa	0		S	sg n
10	10	0		N	?
rubl	####				
õddabu	####				
Mõistetud	mõist	tud		V	tud
         	mõiste=tu	d		S	pl n
         	mõiste=tud	0		A	
         	mõiste=tud	0		A	sg n
         	mõiste=tud	d		A	pl n
Kohus	kohu	s		V	s
     	kohus	0		S	sg n
maksis	maks	is		V	s
      	maksi	s		S	sg in
need	see	d		P	pl n
võla	võlg	0		S	sg g
ning	ning	0		J	
muud	muu	d		P	pl n
    	muu	d		S	pl n
    	muu	d		V	d
    	muu	d		P	sg p
    	muu	d		S	sg p
nõudmisest	nõudmine	st		S	sg el
oma	oma	0		A	sg g
   	oma	0		D	
   	oma	0		P	sg g
   	oma	0		S	sg g
   	oma	0		V	o
   	oma	0		A	sg n
   	oma	0		A	sg p
   	oma	0		P	sg n
   	oma	0		P	sg p
   	oma	0		S	sg n
   	oma	0		S	sg p
mõistmise	mõistmine	0		S	sg g
järel	järel	0		D	
     	järel	0		K	
välja	välja	0		D	
     	välja	0		V	o
     	väli	0		S	adt
     	väli	0		S	sg g
     	väli	0		S	sg p
,	,			Z	
kuidas	kuidas	0		D	
siin	siin	0		D	
    	siin	0		S	sg n
seisav	####				
Rechnung	####				
näitab	näita	b		V	b
:	:			Z	
selet	####				
raha	raha	0		S	sg g
    	raha	0		S	sg n
    	raha	0		S	sg p
oli	ole	i		V	s
järele	järele	0		D	
      	järele	0		K	
jäänud	jää	nud		V	nud
      	jäänu	d		S	pl n
      	jäänud	0		A	
      	jäänud	0		A	sg n
      	jäänud	d		A	pl n
375	375	0		N	?
rbl	rbl	0		Y	?
.	.			Z	
50	50	0		N	?
kop	kop	0		Y	?
.	.			Z	
võlg	võlg	0		S	sg n
mis	mis	0		P	pl n
   	mis	0		P	sg n
Hendrik	Hendrik	0		H	sg n
Leppiku	Leppik	0		H	sg g
käes	käes	0		K	
    	käsi	s		S	sg in
_	_			Z	
6	6	0		N	?
_	_			Z	
""""	""""			Z	
_	_			Z	
d	d	0		Y	?
°,	°	0		Y	?
mis	mis	0		P	pl n
   	mis	0		P	sg n
Hans	Hans	0		H	sg n
Masingu	Masing	0		H	sg g
käes	käes	0		K	
    	käsi	s		S	sg in
_	_			Z	
10	10	0		N	?
_	_			Z	
""""	""""			Z	
_	_			Z	
teeb	tege	b		V	b
summa	summ	0		S	adt
     	summ	0		S	sg g
     	summ	0		S	sg p
     	summa	0		S	sg g
     	summa	0		S	sg n
391	391	0		N	?
rbl	rbl	0		Y	?
.	.			Z	
50	50	0		N	?
kop	kop	0		Y	?
.	.			Z	
h	h	0		Y	?
.	.			Z	
sealt	sealt	0		D	
     	siga	lt		A	sg abl
     	siga	lt		S	sg abl
juurest	juur	st		S	sg el
       	juurest	0		K	
sai	saa	i		V	s
   	sai	0		S	sg n
välja	välja	0		D	
     	välja	0		V	o
     	väli	0		S	adt
     	väli	0		S	sg g
     	väli	0		S	sg p
maksetud	makse=tu	d		A	pl n
:	:			Z	
Karl	Karl	0		H	sg n
Matsingule	####				
5	5	0		N	?
aasta	aasta	0		S	sg g
     	aasta	0		S	sg n
hüüri	####				
ning	ning	0		J	
maarendi	maa_rent	0		S	sg g
raha	raha	0		S	sg g
    	raha	0		S	sg n
    	raha	0		S	sg p
,	,			Z	
kohtumõistmise	kohtu_mõistmine	0		S	sg g
järele	järele	0		D	
      	järele	0		K	
6	6	0		N	?
rubla	rubla	0		S	sg g
     	rubla	0		S	sg n
     	rubla	0		S	sg p
aasta	aasta	0		S	sg g
     	aasta	0		S	sg n
pealt	pea	lt		S	sg abl
     	pealt	0		D	
     	pealt	0		K	
,	,			Z	
need	see	d		P	pl n
10	10	0		N	?
rubl	####				
õb	####				
.	.			Z	
mis	mis	0		P	pl n
   	mis	0		P	sg n
juba	juba	0		D	
kui	kui	0		D	
   	kui	0		J	
võlg	võlg	0		S	sg n
tema	tema	0		P	sg g
    	tema	0		P	sg n
käes	käes	0		K	
    	käsi	s		S	sg in
,	,			Z	
maha	maha	0		D	
arvatud	arva	tud		V	tud
       	arva=tu	d		S	pl n
       	arva=tud	0		A	
       	arva=tud	0		A	sg n
       	arva=tud	d		A	pl n
20	20	0		N	?
rub	####				
.	.			Z	
õb	####				
.	.			Z	
selle	see	0		P	sg g
     	sell	e		S	pl p
naise	naine	0		S	sg g
puutunikku	####				
Tiina	Tiina	0		H	sg g
     	Tiina	0		H	sg n
puutunikkule	####				
ühe	üks	0		N	sg g
   	üks	0		P	sg g
   	ühe	0		S	sg n
tekki	tekk	0		S	adt
     	tekki	0		V	o
     	tekk	0		S	sg p
eest	eest	0		D	
    	eest	0		K	
    	esi	st		S	sg el
4	4	0		N	?
_	_			Z	
""""	""""			Z	
_	_			Z	
selle	see	0		P	sg g
     	sell	e		S	pl p
tüdruku	tüdruk	0		S	sg g
Kadri	Kadri	0		H	sg g
     	Kadri	0		H	sg n
     	kadri	0		S	sg g
     	kadri	0		S	sg n
Matsingule	####				
1	1	0		N	?
puna	puna	0		S	sg g
    	puna	0		V	o
    	puna	0		S	sg n
    	puna	0		S	sg p
linade	lina	de		S	pl g
eest	eest	0		D	
    	eest	0		K	
    	esi	st		S	sg el
2	2	0		N	?
_	_			Z	
""""	""""			Z	
_	_			Z	
matmise	matmine	0		S	sg g
kulu	kulg	0		S	sg g
    	kulu	0		S	sg g
    	kulu	0		V	o
    	kulu	0		S	sg n
    	kulu	0		S	sg p
raha	raha	0		S	sg g
    	raha	0		S	sg n
    	raha	0		S	sg p
10	10	0		N	?
_	_			Z	
""""	""""			Z	
_	_			Z	
36	36	0		N	?
_	_			Z	
""""	""""			Z	
_	_			Z	
jääb	jää	b		V	b
järele	järele	0		D	
      	järele	0		K	
553	553	0		N	?
rubl	####				
.	.			Z	
50	50	0		N	?
kop	kop	0		Y	?
h	h	0		Y	?
.	.			Z	
seest	seest	0		D	
     	seest	0		K	
varandusest	varandus	st		S	sg el
on	ole	0		V	b
  	ole	0		V	vad
ära	ära	0		D	
   	ära	0		V	neg o
kinkitud	####				
:	:			Z	
2.	2.	0		O	?
vastsest	vastne	st		A	sg el
        	vastne	st		S	sg el
vammust	vammus	t		S	sg p
,	,			Z	
1	1	0		N	?
Karl	Karl	0		H	sg n
Matsingul	####				
1.	1.	0		O	?
Toomas	Toomas	0		H	sg n
      	Toomas	s		H	sg in
      	too	mas		V	mas
Matsingul	####				
1.	1.	0		O	?
ladik	####				
1	1	0		N	?
tasku	tasku	0		S	adt
     	tasku	0		S	sg g
     	tasku	0		S	sg n
uur	uur	0		S	sg n
}	}			Z	
Peeter	Peeter	0		H	sg n
Matsingul	####				
_	_			Z	
1	1	0		N	?
pane	pan	e		S	pl p
    	pane	0		V	o
,	,			Z	
mis	mis	0		P	pl n
   	mis	0		P	sg n
Kulle	kull	e		S	pl p
Märtsi	märts	0		S	adt
      	märts	0		S	sg g
      	märts	0		S	sg p
jagu	jagu	0		S	sg n
    	jagu	0		V	o
    	jagu	0		S	sg p
.	.			Z	
_	_			Z	
seepeale	see_peale	0		D	
sjaga	####				
Kohus	kohu	s		V	s
     	kohus	0		S	sg n
seda	see	da		P	sg p
järele	järele	0		D	
      	järele	0		K	
jäänud	jää	nud		V	nud
      	jäänu	d		S	pl n
      	jäänud	0		A	
      	jäänud	0		A	sg n
      	jäänud	d		A	pl n
varandust	varandus	t		S	sg p
selle	see	0		P	sg g
     	sell	e		S	pl p
sele	####				
Tiina	Tiina	0		H	sg g
     	Tiina	0		H	sg n
Masingu	Masing	0		H	sg g
ning	ning	0		J	
nende	see	de		P	pl g
     	tema	de		P	pl g
pärijateks	pärija	teks		S	pl tr
vahel	vahe	l		S	sg ad
     	vahel	0		D	
     	vahel	0		K	
,	,			Z	
ilma	ilm	0		S	adt
    	ilm	0		S	sg g
    	ilma	0		D	
    	ilma	0		K	
    	ilm	0		S	sg p
et	et	0		J	
see	see	0		P	sg n
nendele	see	dele		P	pl all
       	tema	dele		P	pl all
kätte	kätte	0		K	
     	käsi	tte		S	adt
sai	saa	i		V	s
   	sai	0		S	sg n
antud	an=tu	d		S	pl n
     	and	tud		V	tud
     	antud	0		A	
     	antud	0		A	sg n
     	antud	d		A	pl n
,	,			Z	
sedaviisi	seda_viisi	0		D	
ära	ära	0		D	
   	ära	0		V	neg o
:	:			Z	
see	see	0		P	sg n
lesinaine	####				
Tiina	Tiina	0		H	sg g
     	Tiina	0		H	sg n
mingas	####				
saab	saa	b		V	b
tagasi	tagasi	0		D	
      	tagasi	0		K	
,	,			Z	
mis	mis	0		P	pl n
   	mis	0		P	sg n
tema	tema	0		P	sg g
    	tema	0		P	sg n
ühes	üks	s		N	sg in
    	üks	s		P	sg in
    	ühes	0		D	
    	ühes	0		K	
toonud	too	nud		V	nud
      	too=nu	d		S	pl n
      	too=nud	0		A	
      	too=nud	0		A	sg n
      	too=nud	d		A	pl n
kui	kui	0		D	
   	kui	0		J	
:	:			Z	
1	1	0		N	?
lehm	lehm	0		S	sg n
1	1	0		N	?
hobune	hobune	0		S	sg n
None	####				
ühe	üks	0		N	sg g
   	üks	0		P	sg g
   	ühe	0		S	sg n
mulliku	mul=lik	0		A	sg g
ning	ning	0		J	
4	4	0		N	?
lamma	####				
eest	eest	0		D	
    	eest	0		K	
    	esi	st		S	sg el
None	####				
1	1	0		N	?
vastne	vastne	0		A	sg n
      	vastne	0		S	sg n
kasukas	kasukas	0		S	sg n
       	kasukas	s		S	sg in
1	1	0		N	?
tek	####				
,	,			Z	
mis	mis	0		P	pl n
   	mis	0		P	sg n
tema	tema	0		P	sg g
    	tema	0		P	sg n
henda	####				
jagu	jagu	0		S	sg n
    	jagu	0		V	o
    	jagu	0		S	sg p
ning	ning	0		J	
10	10	0		N	?
rubla	rubla	0		S	sg g
     	rubla	0		S	sg n
     	rubla	0		S	sg p
õddabu	####				
seest	seest	0		D	
     	seest	0		K	
et	et	0		J	
Peeter	Peeter	0		H	sg n
Matsingul	####				
,	,			Z	
enne	enne	0		D	
    	enne	0		K	
    	enne	0		S	sg n
kui	kui	0		D	
   	kui	0		J	
tema	tema	0		P	sg g
    	tema	0		P	sg n
selle	see	0		P	sg g
     	sell	e		S	pl p
naise	naine	0		S	sg g
hendale	####				
võtnud	võt	nud		V	nud
      	võt=nu	d		S	pl n
      	võt=nud	0		A	
      	võt=nud	0		A	sg n
      	võt=nud	d		A	pl n
,	,			Z	
4000	4000	0		N	?
rubl	####				
.	.			Z	
Bko	####				
on	ole	0		V	b
  	ole	0		V	vad
olnud	ol=nud	0		A	
     	ol=nud	0		A	sg n
     	ol=nud	d		A	pl n
     	ole	nud		V	nud
     	olnu	d		S	pl n
,	,			Z	
ning	ning	0		J	
sest	see	st		P	sg el
    	sest	0		J	
rahast	raha	st		S	sg el
nüüd	nüüd	0		D	
mitte	mitte	0		D	
ennamb	####				
ei	ei	0		D	
  	ei	0		V	neg
ole	ole	0		V	o
,	,			Z	
kui	kui	0		D	
   	kui	0		J	
kõigis	kõik	s		P	pl in
391	391	0		N	?
rbl	rbl	0		Y	?
50	50	0		N	?
kop	kop	0		Y	?
.	.			Z	
õddabu	####				
,	,			Z	
on	ole	0		V	b
  	ole	0		V	vad
näha	näge	a		V	da
,	,			Z	
et	et	0		J	
see	see	0		P	sg n
lesinaine	####				
Tiina	Tiina	0		H	sg g
     	Tiina	0		H	sg n
mingas	####				
ennamb	####				
on	ole	0		V	b
  	ole	0		V	vad
avitanud	avita	nud		V	nud
        	avita=nu	d		S	pl n
        	avita=nud	0		A	
        	avita=nud	0		A	sg n
        	avita=nud	d		A	pl n
selle	see	0		P	sg g
     	sell	e		S	pl p
mehe	mees	0		S	sg g
vara	vara	0		D	
    	vara	0		S	sg g
    	vara	0		S	sg n
    	vara	0		S	sg p
raisaada	####				
,	,			Z	
kui	kui	0		D	
   	kui	0		J	
teda	tema	da		P	sg p
kokkupidada	####				
ning	ning	0		J	
kasvaadata	####				
.	.			Z	
arvas	arva	s		V	s
kohus	kohu	s		V	s
     	kohus	0		S	sg n
et	et	0		J	
temal	tema	l		P	sg ad
sest	see	st		P	sg el
    	sest	0		J	
rahast	raha	st		S	sg el
mitte	mitte	0		D	
ossa	osa	0		S	adt
ei	ei	0		D	
  	ei	0		V	neg
pea	pea	0		D	
   	pea	0		S	sg g
   	pida	0		V	o
   	pea	0		S	sg n
olema	ole	ma		V	ma
,	,			Z	
vaid	vaid	0		D	
    	vaid	0		J	
saab	saa	b		V	b
see	see	0		P	sg n
raha	raha	0		S	sg g
    	raha	0		S	sg n
    	raha	0		S	sg p
selle	see	0		P	sg g
     	sell	e		S	pl p
ära	ära	0		D	
   	ära	0		V	neg o
surnud	surnu	d		S	pl n
      	surnud	0		A	
      	surnud	0		A	sg n
      	surnud	d		A	pl n
      	sure	nud		V	nud
Peeter	Peeter	0		H	sg n
Masingu	Masing	0		H	sg g
vendade	vend	de		S	pl g
lastele	laps	tele		S	pl all
,	,			Z	
sest	see	st		P	sg el
    	sest	0		J	
et	et	0		J	
see	see	0		P	sg n
raha	raha	0		S	sg g
    	raha	0		S	sg n
    	raha	0		S	sg p
enne	enne	0		D	
    	enne	0		K	
    	enne	0		S	sg n
seda	see	da		P	sg p
on	ole	0		V	b
  	ole	0		V	vad
sissetulnud	sisse_tulnu	d		S	pl n
kui	kui	0		D	
   	kui	0		J	
Peeter	Peeter	0		H	sg n
mingas	####				
selle	see	0		P	sg g
     	sell	e		S	pl p
Tiina	Tiina	0		H	sg g
     	Tiina	0		H	sg n
Masingu	Masing	0		H	sg g
hendale	####				
on	ole	0		V	b
  	ole	0		V	vad
naiseks	naine	ks		S	sg tr
võtnud	võt	nud		V	nud
      	võt=nu	d		S	pl n
      	võt=nud	0		A	
      	võt=nud	0		A	sg n
      	võt=nud	d		A	pl n
.	.			Z	
see	see	0		P	sg n
naine	naine	0		S	sg n
Tiina	Tiina	0		H	sg g
     	Tiina	0		H	sg n
mingas	####				
saab	saa	b		V	b
aga	aga	0		J	
veel	veel	0		D	
    	vesi	l		S	sg ad
,	,			Z	
kui	kui	0		D	
   	kui	0		J	
tema	tema	0		P	sg g
    	tema	0		P	sg n
selle	see	0		P	sg g
     	sell	e		S	pl p
mõistusega	mõistus	ga		S	sg kom
rahul	rahu	l		S	sg ad
     	rahul	0		D	
on	ole	0		V	b
  	ole	0		V	vad
,	,			Z	
need	see	d		P	pl n
pärajäänud	pära_jäänu	d		S	pl n
          	pära_jäänud	0		A	
          	pära_jäänud	0		A	sg n
          	pära_jäänud	d		A	pl n
asjad	asi	d		S	pl n
.	.			Z	
kui	kui	0		D	
   	kui	0		J	
tema	tema	0		P	sg g
    	tema	0		P	sg n
rahul	rahu	l		S	sg ad
     	rahul	0		D	
ei	ei	0		D	
  	ei	0		V	neg
ole	ole	0		V	o
,	,			Z	
siis	siis	0		D	
    	siis	0		J	
müükssada	####				
oksjoni	oksjon	0		S	sg g
viisil	viis	l		S	sg ad
      	viisil	0		K	
needsamad	see_sama	d		P	pl n
ka	ka	0		D	
ära	ära	0		D	
   	ära	0		V	neg o
.	.			Z	
_	_			Z	
siis	siis	0		D	
    	siis	0		J	
sjaga	####				
Kohus	kohu	s		V	s
     	kohus	0		S	sg n
need	see	d		P	pl n
553	553	0		N	?
rbl	rbl	0		Y	?
50	50	0		N	?
kop	kop	0		Y	?
õdbe	####				
.	.			Z	
kust	kusi	t		S	sg p
    	kust	0		D	
juurest	juur	st		S	sg el
       	juurest	0		K	
veel	veel	0		D	
    	vesi	l		S	sg ad
10	10	0		N	?
rbl	rbl	0		Y	?
õb	####				
.	.			Z	
Tiina	Tiina	0		H	sg g
     	Tiina	0		H	sg n
Masingu	Masing	0		H	sg g
ostja	ostja	0		S	sg g
     	ostja	0		S	sg n
on	ole	0		V	b
  	ole	0		V	vad
maha	maha	0		D	
arvatud	arva	tud		V	tud
       	arva=tu	d		S	pl n
       	arva=tud	0		A	
       	arva=tud	0		A	sg n
       	arva=tud	d		A	pl n
12ne	12	0		N	sg g
jao	jagu	0		S	sg g
sisse	siss	e		S	pl p
     	sisse	0		D	
     	sisse	0		K	
ning	ning	0		J	
saavad	saa	vad		V	vad
      	saav	d		A	pl n
      	saav	d		S	pl n
siis	siis	0		D	
    	siis	0		J	
.	.			Z	
Jaak	Jaak	0		H	sg n
    	jaak	0		S	sg n
mingas	####				
28	28	0		N	?
rubl	####				
.	.			Z	
79⅙	####				
kop	kop	0		Y	?
õb	####				
.	.			Z	
Karl	Karl	0		H	sg n
mingas	####				
28	28	0		N	?
""""	""""			Z	
79⅙	####				
""""	""""			Z	
Karl	Karl	0		H	sg n
mingas	####				
28	28	0		N	?
""""	""""			Z	
79⅙	####				
""""	""""			Z	
Toomas	Toomas	0		H	sg n
      	Toomas	s		H	sg in
      	too	mas		V	mas
mingas	####				
28	28	0		N	?
""""	""""			Z	
79⅙	####				
""""	""""			Z	
Jaan	Jaan	0		H	sg n
    	jaan	0		S	sg n
    	jaan	0		Y	?
mingas	####				
28	28	0		N	?
""""	""""			Z	
79⅙	####				
""""	""""			Z	
Endrik	Endrik	0		H	sg n
mingas	####				
28	28	0		N	?
""""	""""			Z	
79⅙	####				
""""	""""			Z	
Hans	Hans	0		H	sg n
mingas	####				
28	28	0		N	?
""""	""""			Z	
79⅙	####				
""""	""""			Z	
Peeter	Peeter	0		H	sg n
mingas	####				
28	28	0		N	?
""""	""""			Z	
79⅙	####				
""""	""""			Z	
Mats	Mats	0		H	sg n
    	mats	0		A	sg n
    	mats	0		S	sg n
mingas	####				
28	28	0		N	?
""""	""""			Z	
79⅙	####				
""""	""""			Z	
Mari	Mari	0		H	sg g
    	mari	0		S	sg g
    	mari	0		S	sg n
    	Mari	0		H	sg n
    	mari	0		S	sg p
kõll	kõll	0		I	
28	28	0		N	?
""""	""""			Z	
79⅙	####				
""""	""""			Z	
Kadri	Kadri	0		H	sg g
     	Kadri	0		H	sg n
     	kadri	0		S	sg g
     	kadri	0		S	sg n
mingas	####				
28	28	0		N	?
""""	""""			Z	
79⅙	####				
""""	""""			Z	
Reet	Reet	0		H	sg n
mingas	####				
28	28	0		N	?
""""	""""			Z	
79⅙	####				
""""	""""			Z	
Summa	summ	0		S	adt
     	summ	0		S	sg g
     	summ	0		S	sg p
     	summa	0		S	sg g
     	summa	0		S	sg n
345	345	0		N	?
rubl	####				
.	.			Z	
50	50	0		N	?
kop	kop	0		Y	?
.	.			Z	
õb	####				
.	.			Z	
seest	seest	0		D	
     	seest	0		K	
nüüd	nüüd	0		D	
,	,			Z	
et	et	0		J	
see	see	0		P	sg n
lesinaine	####				
Tiina	Tiina	0		H	sg g
     	Tiina	0		H	sg n
mingas	####				
selle	see	0		P	sg g
     	sell	e		S	pl p
otsusega	otsus	ga		S	sg kom
mitte	mitte	0		D	
rahul	rahu	l		S	sg ad
     	rahul	0		D	
ei	ei	0		D	
  	ei	0		V	neg
ole	ole	0		V	o
,	,			Z	
siis	siis	0		D	
    	siis	0		J	
pantu	####				
see	see	0		P	sg n
raha	raha	0		S	sg g
    	raha	0		S	sg n
    	raha	0		S	sg p
,	,			Z	
ilma	ilm	0		S	adt
    	ilm	0		S	sg g
    	ilma	0		D	
    	ilma	0		K	
    	ilm	0		S	sg p
selle	see	0		P	sg g
     	sell	e		S	pl p
väljas	välja	s		V	s
      	väli	s		S	sg in
      	väljas	0		D	
seisav	####				
võlatud	võla=tu	d		A	pl n
329	329	0		N	?
rbl	rbl	0		Y	?
50	50	0		N	?
kop	kop	0		Y	?
õb	####				
.	.			Z	
ning	ning	0		J	
selle	see	0		P	sg g
     	sell	e		S	pl p
Tiina	Tiina	0		H	sg g
     	Tiina	0		H	sg n
Masingu	Masing	0		H	sg g
jagu	jagu	0		S	sg n
    	jagu	0		V	o
    	jagu	0		S	sg p
raha	raha	0		S	sg g
    	raha	0		S	sg n
    	raha	0		S	sg p
10	10	0		N	?
rubl	####				
.	.			Z	
õddabu	####				
kokku	kokku	0		D	
     	kogu	0		S	adt
933	933	0		N	?
rubl	####				
50	50	0		N	?
kop	kop	0		Y	?
õddabu	####				
,	,			Z	
kogukonna	kogukond	0		S	sg g
kohtu	kohtu	0		V	o
     	kohus	0		S	sg g
nähes	näge	es		V	des
valla	vald	0		S	sg g
     	valla	0		D	
ladikusse	####				
,	,			Z	
ning	ning	0		J	
antu	antud	0		A	sg g
selle	see	0		P	sg g
     	sell	e		S	pl p
naise	naine	0		S	sg g
Tiina	Tiina	0		H	sg g
     	Tiina	0		H	sg n
Matsingule	####				
seesinane	see_sinane	0		P	sg n
protokoli	####				
kiri	kiri	0		S	sg n
,	,			Z	
et	et	0		J	
tema	tema	0		P	sg g
    	tema	0		P	sg n
võiks	või	ks		S	sg tr
     	või	ks		V	ks
Uelemasse	####				
kohtuse	kohtune	0		A	sg g
mina	mina	0		P	sg n
    	mina	0		S	sg g
    	mina	0		S	sg n
    	mina	0		S	sg p
oma	oma	0		A	sg g
   	oma	0		D	
   	oma	0		P	sg g
   	oma	0		S	sg g
   	oma	0		V	o
   	oma	0		A	sg n
   	oma	0		A	sg p
   	oma	0		P	sg n
   	oma	0		P	sg p
   	oma	0		S	sg n
   	oma	0		S	sg p
õigust	õigus	t		S	sg p
otsma	####				
.	.			Z	
_	_			Z	
Peeter	Peeter	0		H	sg n
Päkon	####				
