tuli	tuli	0		S	sg n
    	tule	i		V	s
see	see	0		P	sg n
meie	mina	0		P	pl g
    	mina	0		P	pl n
engekirjas	####				
seisav	####				
tüdruk	tüdruk	0		S	sg n
Liso	####				
Tomson	Tomson	0		H	sg n
siia	siia	0		D	
    	siig	0		S	sg g
kohtu	kohtu	0		V	o
     	kohus	0		S	sg g
peale	pea	le		S	sg all
     	peale	0		D	
     	peale	0		K	
ning	ning	0		J	
andis	and	is		V	s
üles	üles	0		D	
,	,			Z	
et	et	0		J	
tema	tema	0		P	sg g
    	tema	0		P	sg n
tulevade	####				
kevade	kevad	0		S	sg g
      	kevade	0		S	sg g
      	kevade	0		S	sg n
siit	siit	0		D	
vallast	vald	st		S	sg el
tahab	taht	b		V	b
välja	välja	0		D	
     	välja	0		V	o
     	väli	0		S	adt
     	väli	0		S	sg g
     	väli	0		S	sg p
mina	mina	0		P	sg n
    	mina	0		S	sg g
    	mina	0		S	sg n
    	mina	0		S	sg p
.	.			Z	
