Laiksaar	laik_saar	0		S	sg n
kemeindegerichts	####				
den	####				
6.	6.	0		O	?
October	####				
1866	1866	0		N	?
kegenvärtig	####				
:	:			Z	
kemeindegerichts	####				
Vorsitzer	####				
Substitut	####				
Johann	Johann	0		H	sg n
Tals	####				
Beisitzer	####				
Hans	Hans	0		H	sg n
Tins	####				
-	-			Z	
,	,			Z	
,	,			Z	
-	-			Z	
Teennis	####				
Baers	####				
Treten	####				
vor	####				
die	####				
Vormünder	####				
des	####				
Karl	Karl	0		H	sg n
Lainatsaar	####				
aus	au	s		S	sg in
   	aus	0		A	sg n
Lalaste	####				
,	,			Z	
Liiva	Liiva	0		H	sg g
     	liiv	0		S	adt
     	liiv	0		S	sg g
     	Liiva	0		H	sg n
     	liiv	0		S	sg p
Kasper	####				
Petersohn	####				
und	und	0		S	sg n
   	uni	0		S	sg p
Loigu	loik	0		S	sg g
Jacob	Jacob	0		H	sg n
Andersohn	####				
und	und	0		S	sg n
   	uni	0		S	sg p
degavirten	####				
Fõlgendes	####				
.	.			Z	
Nachdem	####				
auf	####				
für	####				
Bitte	bitt	e		S	pl p
von	####				
diesem	####				
kemeindegerichte	####				
dem	####				
bissergen	####				
Lalaste	####				
Virtschen	####				
Jür	####				
Trei	trei	0		V	o
des	####				
kesinde	####				
gekrundrss	####				
voorden	####				
(	(			Z	
vide	####				
protokoll	protokoll	0		S	sg n
Nr	Nr	0		Y	?
88	88	0		N	?
voom	####				
25.	25.	0		O	?
august	august	0		S	sg n
      	auk	st		S	sg el
1866	1866	0		N	?
)	)			Z	
seien	####				
sis	####				
,	,			Z	
degavaten	####				
,	,			Z	
bisser	####				
mit	####				
sich	####				
zu	####				
Vache	####				
gegeangen	####				
,	,			Z	
ven	####				
sis	####				
zum	####				
Virtsche	####				
des	####				
Lalaste	####				
kesindes	####				
bis	bis	0		I	
zuur	####				
Velgicheigkei	####				
hers	####				
Schutzlings	####				
vorschlage	####				
Raünken	####				
und	und	0		S	sg n
   	uni	0		S	sg p
fänden	####				
damnach	####				
,	,			Z	
dass	####				
der	####				
Jacob	Jacob	0		H	sg n
Lainatsaar	####				
,	,			Z	
Vaterbrüder	####				
des	####				
zu	####				
Karl	Karl	0		H	sg n
,	,			Z	
am	####				
besten	####				
sich	####				
õigen	####				
,	,			Z	
das	####				
Lalaste	####				
kesinde	####				
vechrand	####				
der	####				
vässten	####				
10	10	0		N	?
Jahre	####				
bus	####				
zuur	####				
Voljärigkei	####				
das	####				
Karl	Karl	0		H	sg n
zu	####				
Bevirtschaften	####				
,	,			Z	
veil	####				
derselbe	####				
vässter	####				
dammärter	####				
des	####				
Lezterer	####				
und	und	0		S	sg n
   	uni	0		S	sg p
aussendem	####				
laut	laut	0		S	sg n
aussage	aus_sage	0		A	sg n
mehner	####				
kangen	kange	n		V	n
es	es			H	?
(	(			Z	
auf	####				
ihr	####				
auf	####				
dem	####				
Starbebette	####				
ausguchvagene	####				
Vunsch	####				
des	####				
ehemaliiken	####				
Lalaste	####				
kesindesvirtschen	####				
Karl	Karl	0		H	sg n
Lainatsaar	####				
,	,			Z	
Staker	####				
des	####				
fallfichtigen	####				
und	und	0		S	sg n
   	uni	0		S	sg p
zuur	####				
kesindesvervaltung	####				
ausfichigen	####				
Jaak	Jaak	0		H	sg n
    	jaak	0		S	sg n
Lainatsaar	####				
sei	####				
,	,			Z	
dass	####				
des	####				
Lezteren	####				
Bruder	####				
der	####				
vorbemte	####				
Jacob	Jacob	0		H	sg n
Lainatsaar	####				
als	####				
Virtsch	####				
einguetzt	####				
vurde	####				
.	.			Z	
In	jn	0		Y	?
lezterer	####				
Beziefung	####				
lauten	####				
sis	####				
den	####				
kemeintegeirchts	####				
Vorsitzer	####				
Karl	Karl	0		H	sg n
Tals	####				
und	und	0		S	sg n
   	uni	0		S	sg p
den	####				
Knecht	####				
Jür	####				
Andersohn	####				
als	####				
Zuauf	####				
zu	####				
vervesene	####				
.	.			Z	
kemeindegerichts	####				
Vorsitzer	####				
Karl	Karl	0		H	sg n
Tals	####				
sagte	####				
auf	####				
basvegen	####				
aus	au	s		S	sg in
   	aus	0		A	sg n
:	:			Z	
In	jn	0		Y	?
der	####				
Nacht	####				
des	####				
Ablabers	####				
des	####				
gemaligu	####				
Lalaste	####				
kesindes	####				
Virtsch	####				
Karl	Karl	0		H	sg n
Tals	####				
sei	####				
er	####				
am	####				
Starbebette	####				
des	####				
Leztenen	####				
evesen	####				
und	und	0		S	sg n
   	uni	0		S	sg p
habe	habe	0		S	sg n
Karl	Karl	0		H	sg n
Lainatsaar	####				
sein	sein	0		S	sg n
Bederen	####				
ausguchveche	####				
,	,			Z	
dass	####				
es	es			H	?
ihm	####				
nichts	####				
versamt	####				
sai	saa	i		V	s
   	sai	0		S	sg n
,	,			Z	
nach	####				
5	5	0		N	?
Jahre	####				
zu	####				
leben	####				
,	,			Z	
bis	bis	0		I	
sein	sein	0		S	sg n
zväiter	####				
sohn	####				
Jacob	Jacob	0		H	sg n
Lainatsaar	####				
voljärig	####				
verde	####				
,	,			Z	
damit	####				
er	####				
demselben	####				
des	####				
Lalaste	####				
kesinde	####				
übergabe	####				
,	,			Z	
da	####				
sein	sein	0		S	sg n
Erstgebonenen	####				
Jaak	Jaak	0		H	sg n
    	jaak	0		S	sg n
Lainatsaar	####				
fallfichtig	####				
und	und	0		S	sg n
   	uni	0		S	sg p
stats	####				
ausgeherhem	####				
gegen	####				
ihn	####				
evesen	####				
.	.			Z	
Knecht	####				
Jür	####				
Andersohn	####				
,	,			Z	
velcher	####				
auf	####				
am	####				
Starbebette	####				
evesen	####				
,	,			Z	
sagte	####				
ganz	####				
daselbe	####				
ans	####				
in	####				
Beziehnung	####				
auf	####				
die	####				
aufanrung	####				
des	####				
Karl	Karl	0		H	sg n
Lainatsaar	####				
.	.			Z	
Nachdem	####				
diese	####				
ausfragen	####				
der	####				
Vormündern	####				
väffert	####				
verden	####				
varen	####				
,	,			Z	
beten	####				
deselben	####				
dasu	####				
virken	####				
zu	####				
volen	####				
,	,			Z	
dass	####				
in	####				
Nebereinstimmung	####				
mit	####				
dem	####				
Vunsche	####				
des	####				
Verstorbenen	####				
und	und	0		S	sg n
   	uni	0		S	sg p
veil	####				
Jacob	Jacob	0		H	sg n
Lainatsaar	####				
als	####				
viisster	####				
Ververter	####				
sich	####				
mehr	####				
zuur	####				
kesindevervaltung	####				
õigen	####				
als	####				
der	####				
entfordstesende	####				
und	und	0		S	sg n
   	uni	0		S	sg p
in	####				
fortvärendem	####				
Sprit	####				
lebende	####				
Jür	####				
Trei	trei	0		V	o
-	-			Z	
endlich	####				
veil	####				
meisten	####				
,	,			Z	
dass	####				
demselben	####				
in	####				
Frühjatr	####				
1869	1869	0		N	?
bis	bis	0		I	
zuur	####				
Voljärigkei	####				
des	####				
Karl	Karl	0		H	sg n
Lainatsaar	####				
das	####				
kesinde	####				
zuur	####				
Vervaltung	####				
übergeben	####				
verde	####				
.	.			Z	
Bei	bei	0		S	sg g
   	bei	0		S	sg n
der	####				
Bevegung	####				
der	####				
Richter	Richter	0		H	sg n
angab	####				
sich	####				
inso	####				
,	,			Z	
das	####				
vie	####				
Meinungs	####				
verschiedehei	####				
derselbe	####				
verfunden	####				
und	und	0		S	sg n
   	uni	0		S	sg p
einten	####				
sich	####				
dannoch	####				
die	####				
Rihter	####				
Johann	Johann	0		H	sg n
Tals	####				
und	und	0		S	sg n
   	uni	0		S	sg p
Hans	Hans	0		H	sg n
Tins	####				
auf	####				
krund	####				
des	####				
§	§	0		Y	?
877	877	0		N	?
der	####				
Allerlässt	####				
bestätigten	####				
Baue	####				
entvordung	####				
voom	####				
Jahre	####				
1860	1860	0		N	?
zu	####				
dem	####				
erkentniss	####				
:	:			Z	
Dass	####				
Anbereinstimmung	####				
mit	####				
dem	####				
Vuntse	vunts	e		S	pl p
der	####				
Vormünder	####				
des	####				
Karl	Karl	0		H	sg n
Lainatsaat	####				
und	und	0		S	sg n
   	uni	0		S	sg p
dem	####				
lezten	####				
Villen	####				
des	####				
krossvaters	####				
des	####				
Leztenen	####				
,	,			Z	
-	-			Z	
das	####				
Lalaste	####				
kesinde	####				
zu	####				
kange	kang	e		S	pl p
     	kange	0		A	sg g
     	kange	0		V	o
     	kange	0		A	sg n
1867	1867	0		N	?
bis	bis	0		I	
zuur	####				
Voljärigkei	####				
des	####				
Karl	Karl	0		H	sg n
Lainatsaar	####				
,	,			Z	
dessen	####				
Oonkel	####				
Jacob	Jacob	0		H	sg n
Lainatsaar	####				
zu	####				
übergabe	####				
und	und	0		S	sg n
   	uni	0		S	sg p
zu	####				
disem	####				
Behufe	####				
ihr	####				
härr	####				
Beseits	####				
kescheiersgehilfe	####				
von	####				
Tanberheim	####				
zu	####				
bitter	bitter	0		S	sg n
sei	####				
,	,			Z	
dasei	####				
abzielende	####				
Anordnund	####				
treffen	####				
zu	####				
volen	####				
.	.			Z	
Der	####				
kemeindegerichts	####				
Beisitzer	####				
Teennis	####				
Baers	####				
gab	####				
auf	####				
krund	####				
des	####				
§	§	0		Y	?
879	879	0		N	?
sein	sein	0		S	sg n
aberveisende	####				
Meinung	####				
vie	####				
fõlgt	####				
zu	####				
protokoll	protokoll	0		S	sg n
.	.			Z	
""""	""""			Z	
Er	####				
vole	####				
der	####				
Jür	####				
Trei	trei	0		V	o
ans	####				
dem	####				
Lalaste	####				
kesinde	####				
nicht	####				
verdrängen	####				
,	,			Z	
veil	####				
demselben	####				
das	####				
kesinde	####				
zuur	####				
den	####				
früheren	####				
kemeinsrichters	####				
und	und	0		S	sg n
   	uni	0		S	sg p
andreme	####				
sichere	####				
autanitaten	####				
bereis	####				
übergaben	####				
sei	####				
.	.			Z	
kemeindegerichts	####				
Vorsitzer	####				
Substitut	####				
Joh	####				
.	.			Z	
Tals	####				
-	-			Z	
,	,			Z	
,	,			Z	
-	-			Z	
Beisitzer	####				
Hans	Hans	0		H	sg n
Tins	####				
xxx	####				
-	-			Z	
,	,			Z	
,	,			Z	
-	-			Z	
-	-			Z	
,	,			Z	
,	,			Z	
-	-			Z	
Teennis	####				
Baers	####				
xxx	####				
kem	####				
.	.			Z	
Schr	####				
.	.			Z	
[	[			Z	
allkiri	all_kiri	0		S	sg n
]	]			Z	
