vallavanem	valla_vanem	0		S	sg n
Johann	Johann	0		H	sg n
Oiia	####				
tuli	tuli	0		S	sg n
    	tule	i		V	s
ette	ette	0		D	
    	ette	0		K	
    	esi	tte		S	adt
ja	ja	0		J	
kaebas	kaeba	s		V	s
et	et	0		J	
siitkogukonna	####				
likmi	####				
Els	####				
Välba	####				
on	ole	0		V	b
  	ole	0		V	vad
sel	see	l		P	sg ad
   	sel	0		Y	?
17ndal	17=s	l		O	sg ad
Septembril	september	l		S	sg ad
s	s	0		Y	?
.	.			Z	
a.	a	0		Y	?
kel	kes	l		P	sg ad
12	12	0		N	?
laada	laat	0		S	sg g
laps	laps	0		S	sg n
olnud	ol=nud	0		A	
     	ol=nud	0		A	sg n
     	ol=nud	d		A	pl n
     	ole	nud		V	nud
     	olnu	d		S	pl n
,	,			Z	
ja	ja	0		J	
kaevatu	kaeva=tu	0		S	sg g
       	kaeva=tu	0		S	sg n
on	ole	0		V	b
  	ole	0		V	vad
oma	oma	0		A	sg g
   	oma	0		D	
   	oma	0		P	sg g
   	oma	0		S	sg g
   	oma	0		V	o
   	oma	0		A	sg n
   	oma	0		A	sg p
   	oma	0		P	sg n
   	oma	0		P	sg p
   	oma	0		S	sg n
   	oma	0		S	sg p
laps	laps	0		S	sg n
ära	ära	0		D	
   	ära	0		V	neg o
kautanud	####				
,	,			Z	
kuhu	kuhu	0		D	
kaevatu	kaeva=tu	0		S	sg g
       	kaeva=tu	0		S	sg n
lapse	laps	0		S	sg g
pannud	pan=nu	d		S	pl n
      	pan=nud	0		A	
      	pan=nud	0		A	sg n
      	pan=nud	d		A	pl n
      	pane	nud		V	nud
ei	ei	0		D	
  	ei	0		V	neg
hoole	hoog	le		S	sg all
     	hool	0		S	sg g
     	hoole	0		S	sg n
enam	enam	0		C	sg n
    	enam	0		D	
kätte	kätte	0		K	
     	käsi	tte		S	adt
leida	leid	a		V	da
,	,			Z	
kaebaja	kaebaja	0		S	sg g
       	kaebaja	0		S	sg n
palub	palu	b		V	b
asja	asi	0		S	adt
    	asi	0		S	sg g
    	asi	0		S	sg p
seletuse	seletus	0		S	sg g
ja	ja	0		J	
üle	üle	0		D	
   	üle	0		K	
kuulamisele	kuulamine	le		S	sg all
võtta	võt	a		V	da
ja	ja	0		J	
sui	sui	0		D	
alust	alg	st		S	sg el
     	alune	t		A	sg p
     	alune	t		S	sg p
     	alus	t		S	sg p
sõdusliku	####				
trahvi	trahv	0		S	adt
      	trahv	0		S	sg g
      	trahvi	0		V	o
      	trahv	0		S	sg p
alla	alla	0		D	
    	alla	0		K	
tõmbastud	####				
kaebaja	kaebaja	0		S	sg g
       	kaebaja	0		S	sg n
andis	and	is		V	s
tunistajaks	####				
üles	üles	0		D	
peakohtumees	pea_kohtu_mees	0		S	sg n
Kusta	Kusta	0		H	sg g
     	Kusta	0		H	sg n
     	kuse	ta		V	da
     	kuse	ta		V	ta
Leppik	Leppik	0		H	sg n
ja	ja	0		J	
kohtumees	kohtu_mees	0		S	sg n
Hans	Hans	0		H	sg n
Röand	####				
,	,			Z	
Hans	Hans	0		H	sg n
Viidik	####				
ja	ja	0		J	
Lilla	lilla	0		A	sg g
     	lilla	0		A	sg n
     	lilla	0		S	sg g
     	lilla	0		S	sg n
taluperenaine	talu_pere_naine	0		S	sg n
Leena	Lee	na		H	sg es
     	Leena	0		H	sg g
     	Leena	0		H	sg n
Röand	####				
.	.			Z	
_	_			Z	
Els	####				
Vaba	vaba	0		A	sg g
    	vaba	0		A	sg n
    	vaba	0		A	sg p
on	ole	0		V	b
  	ole	0		V	vad
haiguse	haigus	0		S	sg g
pärast	pära	st		S	sg el
      	pärane	t		A	sg p
      	pärast	0		D	
      	pärast	0		K	
enne	enne	0		D	
    	enne	0		K	
    	enne	0		S	sg n
sõdusliku	####				
aja	aeg	0		S	sg g
   	aja	0		V	o
pärast	pära	st		S	sg el
      	pärane	t		A	sg p
      	pärast	0		D	
      	pärast	0		K	
välja	välja	0		D	
     	välja	0		V	o
     	väli	0		S	adt
     	väli	0		S	sg g
     	väli	0		S	sg p
jäänud	jää	nud		V	nud
      	jäänu	d		S	pl n
      	jäänud	0		A	
      	jäänud	0		A	sg n
      	jäänud	d		A	pl n
pea	pea	0		D	
   	pea	0		S	sg g
   	pida	0		V	o
   	pea	0		S	sg n
kohtumees	kohtu_mees	0		S	sg n
Kusta	Kusta	0		H	sg g
     	Kusta	0		H	sg n
     	kuse	ta		V	da
     	kuse	ta		V	ta
Leppik	Leppik	0		H	sg n
andis	and	is		V	s
tunistust	####				
ta	tema	0		P	sg g
  	tema	0		P	sg n
on	ole	0		V	b
  	ole	0		V	vad
nimelt	nimelt	0		D	
      	nimi	lt		S	sg abl
sel	see	l		P	sg ad
   	sel	0		Y	?
17	17	0		N	?
Septembril	september	l		S	sg ad
s	s	0		Y	?
.	.			Z	
a.	a	0		Y	?
kel	kes	l		P	sg ad
4	4	0		N	?
peale	pea	le		S	sg all
     	peale	0		D	
     	peale	0		K	
löunat	####				
kaevatu	kaeva=tu	0		S	sg g
       	kaeva=tu	0		S	sg n
juures	juur	s		S	sg in
      	juures	0		D	
      	juures	0		K	
käinud	käi	nud		V	nud
      	käi=nud	0		A	
      	käi=nud	0		A	sg n
      	käi=nud	d		A	pl n
      	käinu	d		S	pl n
ja	ja	0		J	
kaevatu	kaeva=tu	0		S	sg g
       	kaeva=tu	0		S	sg n
käest	käest	0		K	
     	käsi	st		S	sg el
järele	järele	0		D	
      	järele	0		K	
küsinud	küsi	nud		V	nud
       	küsi=nu	d		S	pl n
       	küsi=nud	0		A	
       	küsi=nud	0		A	sg n
       	küsi=nud	d		A	pl n
kas	kas	0		D	
ta	tema	0		P	sg g
  	tema	0		P	sg n
terve	terve	0		A	sg g
     	terve	0		A	sg n
     	terve	0		S	sg g
     	terve	0		S	sg n
tütruk	####				
on	ole	0		V	b
  	ole	0		V	vad
või	või	0		S	sg g
   	või	0		V	o
   	või	0		D	
   	või	0		J	
   	või	0		S	sg n
on	ole	0		V	b
  	ole	0		V	vad
tal	tema	l		P	sg ad
midagi	miski	dagi		P	sg p
viga	viga	0		S	sg n
    	viga	0		S	sg p
,	,			Z	
see	see	0		P	sg n
peale	pea	le		S	sg all
     	peale	0		D	
     	peale	0		K	
on	ole	0		V	b
  	ole	0		V	vad
kaevatu	kaeva=tu	0		S	sg g
       	kaeva=tu	0		S	sg n
vastanud	vasta	nud		V	nud
        	vasta=nud	0		A	
        	vasta=nud	0		A	sg n
        	vasta=nud	d		A	pl n
        	vastanu	d		S	pl n
,	,			Z	
tal	tema	l		P	sg ad
ei	ei	0		D	
  	ei	0		V	neg
hoole	hoog	le		S	sg all
     	hool	0		S	sg g
     	hoole	0		S	sg n
kõige	kõik	0		P	sg g
     	kõige	0		D	
vähemad	vähem	d		C	pl n
viga	viga	0		S	sg n
    	viga	0		S	sg p
.	.			Z	
_	_			Z	
Hans	Hans	0		H	sg n
Röand	####				
None	####				
:	:			Z	
kohtumees	kohtu_mees	0		S	sg n
:	:			Z	
None	####				
andis	and	is		V	s
tunistust	####				
Kaevatu	kaeva=tu	0		S	sg g
       	kaeva=tu	0		S	sg n
on	ole	0		V	b
  	ole	0		V	vad
ütelnud	ütle	nud		V	nud
       	ütel=nu	d		S	pl n
       	ütel=nud	0		A	
       	ütel=nud	0		A	sg n
       	ütel=nud	d		A	pl n
sel	see	l		P	sg ad
   	sel	0		Y	?
21	21	0		N	?
Septembril	september	l		S	sg ad
sa	sina	0		P	sg n
.	.			Z	
alles	alles	0		D	
,	,			Z	
et	et	0		J	
,	,			Z	
tal	tema	l		P	sg ad
sel	see	l		P	sg ad
   	sel	0		Y	?
17	17	0		N	?
Septembril	september	l		S	sg ad
s	s	0		Y	?
.	.			Z	
a.	a	0		Y	?
kell	kell	0		S	sg n
12	12	0		N	?
lõuna	lõuna	0		S	sg g
     	lõuna	0		S	sg n
laada	laat	0		S	sg g
laps	laps	0		S	sg n
on	ole	0		V	b
  	ole	0		V	vad
põhu	põhk	0		S	sg g
kõlguses	kõlgus	s		S	sg in
olnud	ol=nud	0		A	
     	ol=nud	0		A	sg n
     	ol=nud	d		A	pl n
     	ole	nud		V	nud
     	olnu	d		S	pl n
,	,			Z	
ja	ja	0		J	
kaevatu	kaeva=tu	0		S	sg g
       	kaeva=tu	0		S	sg n
oma	oma	0		A	sg g
   	oma	0		D	
   	oma	0		P	sg g
   	oma	0		S	sg g
   	oma	0		V	o
   	oma	0		A	sg n
   	oma	0		A	sg p
   	oma	0		P	sg n
   	oma	0		P	sg p
   	oma	0		S	sg n
   	oma	0		S	sg p
laps	laps	0		S	sg n
sinna	sinna	0		D	
jäätnud	####				
,	,			Z	
ja	ja	0		J	
sealt	sealt	0		D	
     	siga	lt		A	sg abl
     	siga	lt		S	sg abl
on	ole	0		V	b
  	ole	0		V	vad
laps	laps	0		S	sg n
ära	ära	0		D	
   	ära	0		V	neg o
katunud	####				
,	,			Z	
kuusta	####				
jäänud	jää	nud		V	nud
      	jäänu	d		S	pl n
      	jäänud	0		A	
      	jäänud	0		A	sg n
      	jäänud	d		A	pl n
ei	ei	0		D	
  	ei	0		V	neg
teada	tead	a		V	da
kaevatu	kaeva=tu	0		S	sg g
       	kaeva=tu	0		S	sg n
vallavanem	valla_vanem	0		S	sg n
Johann	Johann	0		H	sg n
Oja	oja	0		S	sg g
   	oja	0		S	sg n
   	oja	0		S	sg p
andis	and	is		V	s
tunistust	####				
,	,			Z	
ta	tema	0		P	sg g
  	tema	0		P	sg n
on	ole	0		V	b
  	ole	0		V	vad
sel	see	l		P	sg ad
   	sel	0		Y	?
21	21	0		N	?
Septembril	september	l		S	sg ad
s	s	0		Y	?
.	.			Z	
a.	a	0		Y	?
kaebaja	kaebaja	0		S	sg g
       	kaebaja	0		S	sg n
juures	juur	s		S	sg in
      	juures	0		D	
      	juures	0		K	
käinud	käi	nud		V	nud
      	käi=nud	0		A	
      	käi=nud	0		A	sg n
      	käi=nud	d		A	pl n
      	käinu	d		S	pl n
ja	ja	0		J	
järele	järele	0		D	
      	järele	0		K	
nõudnud	nõud	nud		V	nud
       	nõud=nu	d		S	pl n
       	nõud=nud	0		A	
       	nõud=nud	0		A	sg n
       	nõud=nud	d		A	pl n
ka	ka	0		D	
kaevatu	kaeva=tu	0		S	sg g
       	kaeva=tu	0		S	sg n
terve	terve	0		A	sg g
     	terve	0		A	sg n
     	terve	0		S	sg g
     	terve	0		S	sg n
inimine	####				
on	ole	0		V	b
  	ole	0		V	vad
kus	kus	0		D	
peale	pea	le		S	sg all
     	peale	0		D	
     	peale	0		K	
ta	tema	0		P	sg g
  	tema	0		P	sg n
tunistanud	####				
et	et	0		J	
ta	tema	0		P	sg g
  	tema	0		P	sg n
mitte	mitte	0		D	
terve	terve	0		A	sg g
     	terve	0		A	sg n
     	terve	0		S	sg g
     	terve	0		S	sg n
ei	ei	0		D	
  	ei	0		V	neg
hoole	hoog	le		S	sg all
     	hool	0		S	sg g
     	hoole	0		S	sg n
ja	ja	0		J	
temal	tema	l		P	sg ad
sel	see	l		P	sg ad
   	sel	0		Y	?
17	17	0		N	?
Septembril	september	l		S	sg ad
s	s	0		Y	?
.	.			Z	
a.	a	0		Y	?
ine	####				
laps	laps	0		S	sg n
ära	ära	0		D	
   	ära	0		V	neg o
olnud	ol=nud	0		A	
     	ol=nud	0		A	sg n
     	ol=nud	d		A	pl n
     	ole	nud		V	nud
     	olnu	d		S	pl n
kui	kui	0		D	
   	kui	0		J	
kohtu	kohtu	0		V	o
     	kohus	0		S	sg g
meest	meene	t		A	sg p
     	mees	t		S	sg p
     	mesi	st		S	sg el
tema	tema	0		P	sg g
    	tema	0		P	sg n
juures	juur	s		S	sg in
      	juures	0		D	
      	juures	0		K	
käinud	käi	nud		V	nud
      	käi=nud	0		A	
      	käi=nud	0		A	sg n
      	käi=nud	d		A	pl n
      	käinu	d		S	pl n
,	,			Z	
kus	kus	0		D	
peale	pea	le		S	sg all
     	peale	0		D	
     	peale	0		K	
vallavanem	valla_vanem	0		S	sg n
:	:			Z	
järele	järele	0		D	
      	järele	0		K	
nõudnud	nõud	nud		V	nud
       	nõud=nu	d		S	pl n
       	nõud=nud	0		A	
       	nõud=nud	0		A	sg n
       	nõud=nud	d		A	pl n
kas	kas	0		D	
laps	laps	0		S	sg n
elanud	ela	nud		V	nud
      	ela=nu	d		S	pl n
      	ela=nud	0		A	
      	ela=nud	0		A	sg n
      	ela=nud	d		A	pl n
ja	ja	0		J	
kus	kus	0		D	
ta	tema	0		P	sg g
  	tema	0		P	sg n
teda	tema	da		P	sg p
pandnud	####				
,	,			Z	
see	see	0		P	sg n
peale	pea	le		S	sg all
     	peale	0		D	
     	peale	0		K	
on	ole	0		V	b
  	ole	0		V	vad
kaevatu	kaeva=tu	0		S	sg g
       	kaeva=tu	0		S	sg n
vastanud	vasta	nud		V	nud
        	vasta=nud	0		A	
        	vasta=nud	0		A	sg n
        	vasta=nud	d		A	pl n
        	vastanu	d		S	pl n
,	,			Z	
laps	laps	0		S	sg n
ehk	ehk	0		D	
   	ehk	0		J	
oli	ole	i		V	s
ilma	ilm	0		S	adt
    	ilm	0		S	sg g
    	ilma	0		D	
    	ilma	0		K	
    	ilm	0		S	sg p
hingeda	####				
,	,			Z	
ta	tema	0		P	sg g
  	tema	0		P	sg n
on	ole	0		V	b
  	ole	0		V	vad
teda	tema	da		P	sg p
kulguses	####				
jätnud	jät	nud		V	nud
      	jät=nu	d		S	pl n
      	jät=nud	0		A	
      	jät=nud	0		A	sg n
      	jät=nud	d		A	pl n
,	,			Z	
kaevatu	kaeva=tu	0		S	sg g
       	kaeva=tu	0		S	sg n
on	ole	0		V	b
  	ole	0		V	vad
mitmel	mitu	l		P	sg ad
korral	kord	l		S	sg ad
      	korral	0		D	
      	korral	0		K	
kõlgus	kõlgus	0		S	sg n
läbi	läbi	0		D	
    	läbi	0		K	
    	läbi	0		V	o
otsinud	otsi	nud		V	nud
       	otsi=nu	d		S	pl n
       	otsi=nud	0		A	
       	otsi=nud	0		A	sg n
       	otsi=nud	d		A	pl n
ei	ei	0		D	
  	ei	0		V	neg
hoole	hoog	le		S	sg all
     	hool	0		S	sg g
     	hoole	0		S	sg n
aga	aga	0		J	
peale	pea	le		S	sg all
     	peale	0		D	
     	peale	0		K	
selle	see	0		P	sg g
     	sell	e		S	pl p
enam	enam	0		C	sg n
    	enam	0		D	
midagi	miski	dagi		P	sg p
lõidnud	####				
ja	ja	0		J	
ei	ei	0		D	
  	ei	0		V	neg
tea	tead	0		V	o
kus	kus	0		D	
laps	laps	0		S	sg n
sealt	sealt	0		D	
     	siga	lt		A	sg abl
     	siga	lt		S	sg abl
jäänud	jää	nud		V	nud
      	jäänu	d		S	pl n
      	jäänud	0		A	
      	jäänud	0		A	sg n
      	jäänud	d		A	pl n
.	.			Z	
_	_			Z	
Leenu	Leenu	0		H	sg g
     	Leenu	0		H	sg n
Röand	####				
None	####				
Kaevatu	kaeva=tu	0		S	sg g
       	kaeva=tu	0		S	sg n
perenaine	pere_naine	0		S	sg n
andis	and	is		V	s
tunistust	####				
ta	tema	0		P	sg g
  	tema	0		P	sg n
on	ole	0		V	b
  	ole	0		V	vad
sel	see	l		P	sg ad
   	sel	0		Y	?
12ndal	12=s	l		O	sg ad
Septembril	september	l		S	sg ad
s	s	0		Y	?
.	.			Z	
a.	a	0		Y	?
kaevatuga	kaeva=tu	ga		S	sg kom
saunas	saun	s		S	sg in
käinud	käi	nud		V	nud
      	käi=nud	0		A	
      	käi=nud	0		A	sg n
      	käi=nud	d		A	pl n
      	käinu	d		S	pl n
ja	ja	0		J	
on	ole	0		V	b
  	ole	0		V	vad
siis	siis	0		D	
    	siis	0		J	
aru	aru	0		S	sg g
   	aru	0		S	sg n
   	aru	0		S	sg p
saanud	saa	nud		V	nud
      	saa=nud	0		A	
      	saa=nud	0		A	sg n
      	saa=nud	d		A	pl n
      	saanu	d		S	pl n
et	et	0		J	
kaevatu	kaeva=tu	0		S	sg g
       	kaeva=tu	0		S	sg n
mitte	mitte	0		D	
minu	mina	0		P	sg g
terve	terve	0		A	sg g
     	terve	0		A	sg n
     	terve	0		S	sg g
     	terve	0		S	sg n
inimine	####				
ei	ei	0		D	
  	ei	0		V	neg
hoole	hoog	le		S	sg all
     	hool	0		S	sg g
     	hoole	0		S	sg n
,	,			Z	
kus	kus	0		D	
peale	pea	le		S	sg all
     	peale	0		D	
     	peale	0		K	
tunistaja	####				
järele	järele	0		D	
      	järele	0		K	
nõudnud	nõud	nud		V	nud
       	nõud=nu	d		S	pl n
       	nõud=nud	0		A	
       	nõud=nud	0		A	sg n
       	nõud=nud	d		A	pl n
kas	kas	0		D	
kaevatu	kaeva=tu	0		S	sg g
       	kaeva=tu	0		S	sg n
terve	terve	0		A	sg g
     	terve	0		A	sg n
     	terve	0		S	sg g
     	terve	0		S	sg n
on	ole	0		V	b
  	ole	0		V	vad
,	,			Z	
kaevatu	kaeva=tu	0		S	sg g
       	kaeva=tu	0		S	sg n
on	ole	0		V	b
  	ole	0		V	vad
seepeale	see_peale	0		D	
vastanud	vasta	nud		V	nud
        	vasta=nud	0		A	
        	vasta=nud	0		A	sg n
        	vasta=nud	d		A	pl n
        	vastanu	d		S	pl n
,	,			Z	
ta	tema	0		P	sg g
  	tema	0		P	sg n
on	ole	0		V	b
  	ole	0		V	vad
nimelt	nimelt	0		D	
      	nimi	lt		S	sg abl
terve	terve	0		A	sg g
     	terve	0		A	sg n
     	terve	0		S	sg g
     	terve	0		S	sg n
sel	see	l		P	sg ad
   	sel	0		Y	?
20	20	0		N	?
Septembril	september	l		S	sg ad
s	s	0		Y	?
.	.			Z	
a.	a	0		Y	?
on	ole	0		V	b
  	ole	0		V	vad
tunistaja	####				
jälle	jälle	0		D	
järele	järele	0		D	
      	järele	0		K	
nõudnud	nõud	nud		V	nud
       	nõud=nu	d		S	pl n
       	nõud=nud	0		A	
       	nõud=nud	0		A	sg n
       	nõud=nud	d		A	pl n
,	,			Z	
siis	siis	0		D	
    	siis	0		J	
on	ole	0		V	b
  	ole	0		V	vad
kaevatu	kaeva=tu	0		S	sg g
       	kaeva=tu	0		S	sg n
tunistanud	####				
et	et	0		J	
tal	tema	l		P	sg ad
sel	see	l		P	sg ad
   	sel	0		Y	?
17	17	0		N	?
Septembril	september	l		S	sg ad
s	s	0		Y	?
.	.			Z	
a.	a	0		Y	?
ine	####				
löunat	####				
laps	laps	0		S	sg n
on	ole	0		V	b
  	ole	0		V	vad
olnud	ol=nud	0		A	
     	ol=nud	0		A	sg n
     	ol=nud	d		A	pl n
     	ole	nud		V	nud
     	olnu	d		S	pl n
keda	kes	da		P	pl p
    	kes	da		P	sg p
ta	tema	0		P	sg g
  	tema	0		P	sg n
kõlguse	kõlgus	0		S	sg g
jätnud	jät	nud		V	nud
      	jät=nu	d		S	pl n
      	jät=nud	0		A	
      	jät=nud	0		A	sg n
      	jät=nud	d		A	pl n
,	,			Z	
ja	ja	0		J	
peale	pea	le		S	sg all
     	peale	0		D	
     	peale	0		K	
selle	see	0		P	sg g
     	sell	e		S	pl p
on	ole	0		V	b
  	ole	0		V	vad
kaevatu	kaeva=tu	0		S	sg g
       	kaeva=tu	0		S	sg n
lapse	laps	0		S	sg g
taga	taga	0		D	
    	taga	0		K	
    	taga	0		V	o
otsinud	otsi	nud		V	nud
       	otsi=nu	d		S	pl n
       	otsi=nud	0		A	
       	otsi=nud	0		A	sg n
       	otsi=nud	d		A	pl n
ja	ja	0		J	
ei	ei	0		D	
  	ei	0		V	neg
hoole	hoog	le		S	sg all
     	hool	0		S	sg g
     	hoole	0		S	sg n
teda	tema	da		P	sg p
kõlgusest	kõlgus	st		S	sg el
enam	enam	0		C	sg n
    	enam	0		D	
lõitnud	####				
Siis	siis	0		D	
    	siis	0		J	
sai	saa	i		V	s
   	sai	0		S	sg n
arvatud	arva	tud		V	tud
       	arva=tu	d		S	pl n
       	arva=tud	0		A	
       	arva=tud	0		A	sg n
       	arva=tud	d		A	pl n
:	:			Z	
et	et	0		J	
Els	####				
Vaba	vaba	0		A	sg g
    	vaba	0		A	sg n
    	vaba	0		A	sg p
ine	####				
saadusliku	saadus=lik	0		A	sg g
aja	aeg	0		S	sg g
   	aja	0		V	o
pärast	pära	st		S	sg el
      	pärane	t		A	sg p
      	pärast	0		D	
      	pärast	0		K	
välja	välja	0		D	
     	välja	0		V	o
     	väli	0		S	adt
     	väli	0		S	sg g
     	väli	0		S	sg p
jäänud	jää	nud		V	nud
      	jäänu	d		S	pl n
      	jäänud	0		A	
      	jäänud	0		A	sg n
      	jäänud	d		A	pl n
siis	siis	0		D	
    	siis	0		J	
teisel	teine	l		O	sg ad
      	teine	l		P	sg ad
kohtu	kohtu	0		V	o
     	kohus	0		S	sg g
päeval	päev	l		S	sg ad
kohtu	kohtu	0		V	o
     	kohus	0		S	sg g
käijad	käija	d		S	pl n
ette	ette	0		D	
    	ette	0		K	
    	esi	tte		S	adt
telli	telli	0		V	o
ja	ja	0		J	
asi	asi	0		S	sg n
   	asi	0		V	o
otsusele	otsus	le		S	sg all
saada	saa	da		V	da
     	saat	0		V	o
     	saa	da		V	ta
.	.			Z	
_	_			Z	
peakohtumees	pea_kohtu_mees	0		S	sg n
Kusta	Kusta	0		H	sg g
     	Kusta	0		H	sg n
     	kuse	ta		V	da
     	kuse	ta		V	ta
Leppik	Leppik	0		H	sg n
[	[			Z	
allkiri	all_kiri	0		S	sg n
]	]			Z	
kõrvalistnik	####				
Andres	Andre	s		H	sg in
      	Andres	0		H	sg n
Saarma	saarmas	0		S	sg g
[	[			Z	
allkiri	all_kiri	0		S	sg n
]	]			Z	
_	_			Z	
""""	""""			Z	
_	_			Z	
Jaak	Jaak	0		H	sg n
    	jaak	0		S	sg n
Raekson	####				
[	[			Z	
allkiri	all_kiri	0		S	sg n
]	]			Z	
