kohtu	kohtu	0		V	o
     	kohus	0		S	sg g
ette	ette	0		D	
    	ette	0		K	
    	esi	tte		S	adt
tuli	tuli	0		S	sg n
    	tule	i		V	s
Saaru	####				
Jaan	Jaan	0		H	sg n
    	jaan	0		S	sg n
    	jaan	0		Y	?
Matt	matt	0		A	sg n
    	matt	0		S	sg n
ja	ja	0		J	
kaibas	####				
,	,			Z	
et	et	0		J	
pühapäev	püha_päev	0		S	sg n
11ndal	11=s	l		O	sg ad
Martsil	####				
Joob	joo	b		V	b
Täll	####				
ja	ja	0		J	
Peeter	Peeter	0		H	sg n
Tapp	tapp	0		S	sg n
teda	tema	da		P	sg p
kõrtsis	kõrts	s		S	sg in
peksnud	peks	nud		V	nud
       	peks=nu	d		S	pl n
       	peks=nud	0		A	
       	peks=nud	0		A	sg n
       	peks=nud	d		A	pl n
.	.			Z	
Tima-Jaan	####				
Matt	matt	0		A	sg n
    	matt	0		S	sg n
tulnud	tul=nud	0		A	
      	tul=nud	0		A	sg n
      	tul=nud	d		A	pl n
      	tule	nud		V	nud
      	tulnu	d		S	pl n
leti	lett	0		S	sg g
tagast	####				
välja	välja	0		D	
     	välja	0		V	o
     	väli	0		S	adt
     	väli	0		S	sg g
     	väli	0		S	sg p
ja	ja	0		J	
istunud	istu	nud		V	nud
       	istu=nu	d		S	pl n
       	istu=nud	0		A	
       	istu=nud	0		A	sg n
       	istu=nud	d		A	pl n
ette	ette	0		D	
    	ette	0		K	
    	esi	tte		S	adt
suure	suur	0		A	sg g
kõrtsi	kõrts	0		S	adt
      	kõrts	0		S	sg g
      	kõrts	0		S	sg p
pengi	####				
peale	pea	le		S	sg all
     	peale	0		D	
     	peale	0		K	
Jaak	Jaak	0		H	sg n
    	jaak	0		S	sg n
Leasega	####				
ja	ja	0		J	
rääkinud	rääki	nud		V	nud
        	rääki=nu	d		S	pl n
        	rääki=nud	0		A	
        	rääki=nud	0		A	sg n
        	rääki=nud	d		A	pl n
isekeskes	####				
,	,			Z	
siis	siis	0		D	
    	siis	0		J	
tulnud	tul=nud	0		A	
      	tul=nud	0		A	sg n
      	tul=nud	d		A	pl n
      	tule	nud		V	nud
      	tulnu	d		S	pl n
ilma	ilm	0		S	adt
    	ilm	0		S	sg g
    	ilma	0		D	
    	ilma	0		K	
    	ilm	0		S	sg p
mingisuguse	mingi_sugune	0		P	sg g
tülita	tüli	ta		S	sg ab
      	tülita	0		V	o
Joob	joo	b		V	b
Täll	####				
lõõnud	####				
tema	tema	0		P	sg g
    	tema	0		P	sg n
piibu	piip	0		S	sg g
suust	suu	st		S	sg el
maha	maha	0		D	
ja	ja	0		J	
ninast	nina	st		S	sg el
vere	veri	0		S	sg g
välja	välja	0		D	
     	välja	0		V	o
     	väli	0		S	adt
     	väli	0		S	sg g
     	väli	0		S	sg p
ja	ja	0		J	
tema	tema	0		P	sg g
    	tema	0		P	sg n
-	-			Z	
Jaan	Jaan	0		H	sg n
    	jaan	0		S	sg n
    	jaan	0		Y	?
Matt	matt	0		A	sg n
    	matt	0		S	sg n
lükanud	lükka	nud		V	nud
       	lüka=nu	d		S	pl n
       	lüka=nud	0		A	
       	lüka=nud	0		A	sg n
       	lüka=nud	d		A	pl n
teda	tema	da		P	sg p
mitto	####				
korda	kord	0		S	adt
     	korda	0		V	o
     	kord	0		S	sg p
enesest	ise	st		P	sg el
ära	ära	0		D	
   	ära	0		V	neg o
,	,			Z	
aga	aga	0		J	
Joob	joo	b		V	b
Täll	####				
et	et	0		J	
ta	tema	0		P	sg g
  	tema	0		P	sg n
joonud	joo	nud		V	nud
      	joo=nu	d		S	pl n
      	joo=nud	0		A	
      	joo=nud	0		A	sg n
      	joo=nud	d		A	pl n
olnud	ol=nud	0		A	
     	ol=nud	0		A	sg n
     	ol=nud	d		A	pl n
     	ole	nud		V	nud
     	olnu	d		S	pl n
tikkunud	tikku	nud		V	nud
        	tikku=nu	d		S	pl n
        	tikku=nud	0		A	
        	tikku=nud	0		A	sg n
        	tikku=nud	d		A	pl n
ikka	ikka	0		D	
    	iga	0		S	adt
jälle	jälle	0		D	
tema	tema	0		P	sg g
    	tema	0		P	sg n
kalale	kala	le		S	sg all
,	,			Z	
viimaks	vii	maks		V	maks
       	viimaks	0		D	
tulnud	tul=nud	0		A	
      	tul=nud	0		A	sg n
      	tul=nud	d		A	pl n
      	tule	nud		V	nud
      	tulnu	d		S	pl n
Peeter	Peeter	0		H	sg n
Tapp	tapp	0		S	sg n
ja	ja	0		J	
akanud	####				
teda	tema	da		P	sg p
sabastega	sabane	tega		S	pl kom
peksma	peks	ma		V	ma
ja	ja	0		J	
peksnud	peks	nud		V	nud
       	peks=nu	d		S	pl n
       	peks=nud	0		A	
       	peks=nud	0		A	sg n
       	peks=nud	d		A	pl n
tema	tema	0		P	sg g
    	tema	0		P	sg n
pea	pea	0		D	
   	pea	0		S	sg g
   	pida	0		V	o
   	pea	0		S	sg n
muhkusi	####				
täis	täi	s		S	sg in
    	täi	s		V	s
    	täis	0		A	
    	täis	0		A	sg n
    	täis	0		D	
    	täis	0		S	sg n
,	,			Z	
silma	silm	0		S	adt
     	silm	0		S	sg g
     	silma	0		V	o
     	silm	0		S	sg p
nägu	nägu	0		S	sg n
    	nägu	0		S	sg p
,	,			Z	
õlg	õlg	0		S	sg n
,	,			Z	
ja	ja	0		J	
reije	####				
peal	pea	l		S	sg ad
    	peal	0		D	
    	peal	0		K	
oli	ole	i		V	s
sabaste	sabane	te		S	pl g
rauadega	####				
peksnud	peks	nud		V	nud
       	peks=nu	d		S	pl n
       	peks=nud	0		A	
       	peks=nud	0		A	sg n
       	peks=nud	d		A	pl n
nõnda	nõnda	0		D	
,	,			Z	
et	et	0		J	
need	see	d		P	pl n
armit	####				
olid	ole	id		V	sid
selgeste	####				
näha	näge	a		V	da
.	.			Z	
Tema	tema	0		P	sg g
    	tema	0		P	sg n
särgi	särg	i		S	pl p
     	särk	0		S	sg g
rinna	rind	0		S	sg g
eest	eest	0		D	
    	eest	0		K	
    	esi	st		S	sg el
rees	regi	s		S	sg in
ära	ära	0		D	
   	ära	0		V	neg o
tömmatud	####				
ja	ja	0		J	
piip	piip	0		I	
    	piip	0		S	sg n
ära	ära	0		D	
   	ära	0		V	neg o
kadunud	kadu	nud		V	nud
       	kadunu	d		S	pl n
       	kadunud	0		A	
       	kadunud	0		A	sg n
       	kadunud	d		A	pl n
.	.			Z	
selle	see	0		P	sg g
     	sell	e		S	pl p
peksmise	peksmine	0		S	sg g
ajal	aeg	l		S	sg ad
    	ajal	0		K	
ütelnud	ütle	nud		V	nud
       	ütel=nu	d		S	pl n
       	ütel=nud	0		A	
       	ütel=nud	0		A	sg n
       	ütel=nud	d		A	pl n
Peeter	Peeter	0		H	sg n
Tapp	tapp	0		S	sg n
,	,			Z	
se	####				
on	ole	0		V	b
  	ole	0		V	vad
nüüd	nüüd	0		D	
hobuste	hobune	te		S	pl g
palk	palk	0		S	sg n
,	,			Z	
ja	ja	0		J	
sedasaama	####				
ka	ka	0		D	
ütelnud	ütle	nud		V	nud
       	ütel=nu	d		S	pl n
       	ütel=nud	0		A	
       	ütel=nud	0		A	sg n
       	ütel=nud	d		A	pl n
Toomas	Toomas	0		H	sg n
      	Toomas	s		H	sg in
      	too	mas		V	mas
Tapp	tapp	0		S	sg n
,	,			Z	
Peetri	Peeter	0		H	sg g
      	Peetri	0		H	sg g
      	Peetri	0		H	sg n
Tapp	tapp	0		S	sg n
vend	vend	0		S	sg n
kes	kes	0		P	pl n
   	kes	0		P	sg n
ka	ka	0		D	
kõrtsis	kõrts	s		S	sg in
olnud	ol=nud	0		A	
     	ol=nud	0		A	sg n
     	ol=nud	d		A	pl n
     	ole	nud		V	nud
     	olnu	d		S	pl n
.	.			Z	
Jaan	Jaan	0		H	sg n
    	jaan	0		S	sg n
    	jaan	0		Y	?
Matt	matt	0		A	sg n
    	matt	0		S	sg n
tunistuse	####				
järele	järele	0		D	
      	järele	0		K	
se	####				
hobuste	hobune	te		S	pl g
assi	ass	0		S	adt
    	ass	0		S	sg g
    	ass	0		S	sg p
olnud	ol=nud	0		A	
     	ol=nud	0		A	sg n
     	ol=nud	d		A	pl n
     	ole	nud		V	nud
     	olnu	d		S	pl n
nisugune	####				
:	:			Z	
mineva	minev	0		A	sg g
aasta	aasta	0		S	sg g
     	aasta	0		S	sg n
tema	tema	0		P	sg g
    	tema	0		P	sg n
võtnud	võt	nud		V	nud
      	võt=nu	d		S	pl n
      	võt=nud	0		A	
      	võt=nud	0		A	sg n
      	võt=nud	d		A	pl n
Toomas	Toomas	0		H	sg n
      	Toomas	s		H	sg in
      	too	mas		V	mas
Tapp	tapp	0		S	sg n
hobused	hobune	d		S	pl n
ooma	####				
põllu	põld	0		S	sg g
pealt	pea	lt		S	sg abl
     	pealt	0		D	
     	pealt	0		K	
kinni	kinni	0		D	
,	,			Z	
ehk	ehk	0		D	
   	ehk	0		J	
küll	küll	0		D	
    	küll	0		S	sg n
kohtumehed	kohtu_mees	d		S	pl n
vatanud	####				
seda	see	da		P	sg p
hobuste	hobune	te		S	pl g
põllu	põld	0		S	sg g
peal	pea	l		S	sg ad
    	peal	0		D	
    	peal	0		K	
olemist	olem	st		S	sg el
       	olemine	t		S	sg p
ülle	ülle	0		D	
,	,			Z	
aga	aga	0		J	
et	et	0		J	
tema	tema	0		P	sg g
    	tema	0		P	sg n
poole	pool	0		N	sg g
     	pool	0		S	sg g
     	pool	e		S	pl p
     	poole	0		K	
     	poole	0		S	sg n
tahtnud	taht	nud		V	nud
       	taht=nu	d		S	pl n
       	taht=nud	0		A	
       	taht=nud	0		A	sg n
       	taht=nud	d		A	pl n
sellepärast	selle_pärast	0		D	
kohtuse	kohtune	0		A	sg g
minna	mine	a		V	da
,	,			Z	
annud	####				
hobused	hobune	d		S	pl n
ilma	ilm	0		S	adt
    	ilm	0		S	sg g
    	ilma	0		D	
    	ilma	0		K	
    	ilm	0		S	sg p
kohtuta	kohtu	ta		V	ta
       	kohus	ta		S	sg ab
kätte	kätte	0		K	
     	käsi	tte		S	adt
,	,			Z	
aga	aga	0		J	
se	####				
via	####				
olnud	ol=nud	0		A	
     	ol=nud	0		A	sg n
     	ol=nud	d		A	pl n
     	ole	nud		V	nud
     	olnu	d		S	pl n
neil	see	l		P	pl ad
    	tema	l		P	pl ad
sellepärast	selle_pärast	0		D	
ikka	ikka	0		D	
    	iga	0		S	adt
meeles	meel	s		S	sg in
,	,			Z	
et	et	0		J	
ta	tema	0		P	sg g
  	tema	0		P	sg n
hobused	hobune	d		S	pl n
kinni	kinni	0		D	
võtnud	võt	nud		V	nud
      	võt=nu	d		S	pl n
      	võt=nud	0		A	
      	võt=nud	0		A	sg n
      	võt=nud	d		A	pl n
ja	ja	0		J	
Peeter	Peeter	0		H	sg n
Tapp	tapp	0		S	sg n
ja	ja	0		J	
Toomas	Toomas	0		H	sg n
      	Toomas	s		H	sg in
      	too	mas		V	mas
Tapp	tapp	0		S	sg n
lubanud	luba	nud		V	nud
       	luba=nu	d		S	pl n
       	luba=nud	0		A	
       	luba=nud	0		A	sg n
       	luba=nud	d		A	pl n
teda	tema	da		P	sg p
veel	veel	0		D	
    	vesi	l		S	sg ad
hästi	hästi	0		D	
peksa	peks	0		V	o
     	peksa	0		X	
.	.			Z	
Sai	saa	i		V	s
   	sai	0		S	sg n
Joob	joo	b		V	b
Täll	####				
kohtu	kohtu	0		V	o
     	kohus	0		S	sg g
ette	ette	0		D	
    	ette	0		K	
    	esi	tte		S	adt
nõutud	nõu=tu	d		S	pl n
      	nõu=tud	0		A	
      	nõu=tud	0		A	sg n
      	nõu=tud	d		A	pl n
      	nõud	tud		V	tud
      	nõutu	d		A	pl n
rääkis	rääki	s		V	s
tema	tema	0		P	sg g
    	tema	0		P	sg n
,	,			Z	
et	et	0		J	
tema	tema	0		P	sg g
    	tema	0		P	sg n
midagi	miski	dagi		P	sg p
sest	see	st		P	sg el
    	sest	0		J	
ei	ei	0		D	
  	ei	0		V	neg
tea	tead	0		V	o
mikspärast	miks_pära	st		S	sg el
          	miks_pärane	t		A	sg p
tema	tema	0		P	sg g
    	tema	0		P	sg n
Jan	Jan	0		H	sg n
Matt	matt	0		A	sg n
    	matt	0		S	sg n
tülise	####				
läinud	läinu	d		S	pl n
      	läinud	0		A	
      	läinud	0		A	sg n
      	läinud	d		A	pl n
      	mine	nud		V	nud
ja	ja	0		J	
mis	mis	0		P	pl n
   	mis	0		P	sg n
ta	tema	0		P	sg g
  	tema	0		P	sg n
teinud	tege	nud		V	nud
      	tei=nud	0		A	
      	tei=nud	0		A	sg n
      	tei=nud	d		A	pl n
      	teinu	d		S	pl n
,	,			Z	
sest	see	st		P	sg el
    	sest	0		J	
ta	tema	0		P	sg g
  	tema	0		P	sg n
olnud	ol=nud	0		A	
     	ol=nud	0		A	sg n
     	ol=nud	d		A	pl n
     	ole	nud		V	nud
     	olnu	d		S	pl n
joonud	joo	nud		V	nud
      	joo=nu	d		S	pl n
      	joo=nud	0		A	
      	joo=nud	0		A	sg n
      	joo=nud	d		A	pl n
.	.			Z	
Sai	saa	i		V	s
   	sai	0		S	sg n
Peeter	Peeter	0		H	sg n
Tapp	tapp	0		S	sg n
kohtu	kohtu	0		V	o
     	kohus	0		S	sg g
ette	ette	0		D	
    	ette	0		K	
    	esi	tte		S	adt
nõutud	nõu=tu	d		S	pl n
      	nõu=tud	0		A	
      	nõu=tud	0		A	sg n
      	nõu=tud	d		A	pl n
      	nõud	tud		V	tud
      	nõutu	d		A	pl n
rääkis	rääki	s		V	s
tema	tema	0		P	sg g
    	tema	0		P	sg n
,	,			Z	
et	et	0		J	
tema	tema	0		P	sg g
    	tema	0		P	sg n
poole	pool	0		N	sg g
     	pool	0		S	sg g
     	pool	e		S	pl p
     	poole	0		K	
     	poole	0		S	sg n
mitte	mitte	0		D	
sabastega	sabane	tega		S	pl kom
jaani	jaan	0		S	adt
     	jaan	0		S	sg g
     	jaan	0		S	sg p
Matt	matt	0		A	sg n
    	matt	0		S	sg n
peksnud	peks	nud		V	nud
       	peks=nu	d		S	pl n
       	peks=nud	0		A	
       	peks=nud	0		A	sg n
       	peks=nud	d		A	pl n
,	,			Z	
vaid	vaid	0		D	
    	vaid	0		J	
siis	siis	0		D	
    	siis	0		J	
kui	kui	0		D	
   	kui	0		J	
Joob	joo	b		V	b
Täll	####				
api	####				
karjunud	karju	nud		V	nud
        	karju=nu	d		S	pl n
        	karju=nud	0		A	
        	karju=nud	0		A	sg n
        	karju=nud	d		A	pl n
tema	tema	0		P	sg g
    	tema	0		P	sg n
läinud	läinu	d		S	pl n
      	läinud	0		A	
      	läinud	0		A	sg n
      	läinud	d		A	pl n
      	mine	nud		V	nud
ja	ja	0		J	
muidu	muidu	0		D	
rinnustanud	rinnusta	nud		V	nud
           	rinnusta=nu	d		S	pl n
           	rinnusta=nud	0		A	
           	rinnusta=nud	0		A	sg n
           	rinnusta=nud	d		A	pl n
teda	tema	da		P	sg p
ja	ja	0		J	
selle	see	0		P	sg g
     	sell	e		S	pl p
juures	juur	s		S	sg in
      	juures	0		D	
      	juures	0		K	
läinud	läinu	d		S	pl n
      	läinud	0		A	
      	läinud	0		A	sg n
      	läinud	d		A	pl n
      	mine	nud		V	nud
rinna	rind	0		S	sg g
eest	eest	0		D	
    	eest	0		K	
    	esi	st		S	sg el
särgi	särg	i		S	pl p
     	särk	0		S	sg g
rees	regi	s		S	sg in
ära	ära	0		D	
   	ära	0		V	neg o
ja	ja	0		J	
peale	pea	le		S	sg all
     	peale	0		D	
     	peale	0		K	
sellegi	see	0	gi	P	sg g
       	sell	e	gi	S	pl p
veel	veel	0		D	
    	vesi	l		S	sg ad
sellest	see	st		P	sg el
et	et	0		J	
Jaan	Jaan	0		H	sg n
    	jaan	0		S	sg n
    	jaan	0		Y	?
Matt	matt	0		A	sg n
    	matt	0		S	sg n
tema	tema	0		P	sg g
    	tema	0		P	sg n
piibu	piip	0		S	sg g
oleva	olev	0		A	sg g
     	olev	0		S	sg g
katki	katki	0		D	
murdnud	murd	nud		V	nud
       	murd=nu	d		S	pl n
       	murd=nud	0		A	
       	murd=nud	0		A	sg n
       	murd=nud	d		A	pl n
selle	see	0		P	sg g
     	sell	e		S	pl p
rabelemise	rabelemine	0		S	sg g
ajal	aeg	l		S	sg ad
    	ajal	0		K	
.	.			Z	
Toomas	Toomas	0		H	sg n
      	Toomas	s		H	sg in
      	too	mas		V	mas
Tapp	tapp	0		S	sg n
sai	saa	i		V	s
   	sai	0		S	sg n
kohtu	kohtu	0		V	o
     	kohus	0		S	sg g
ette	ette	0		D	
    	ette	0		K	
    	esi	tte		S	adt
nõutud	nõu=tu	d		S	pl n
      	nõu=tud	0		A	
      	nõu=tud	0		A	sg n
      	nõu=tud	d		A	pl n
      	nõud	tud		V	tud
      	nõutu	d		A	pl n
rääkis	rääki	s		V	s
tema	tema	0		P	sg g
    	tema	0		P	sg n
,	,			Z	
et	et	0		J	
tema	tema	0		P	sg g
    	tema	0		P	sg n
sest	see	st		P	sg el
    	sest	0		J	
tülist	tüli	st		S	sg el
midagi	miski	dagi		P	sg p
ei	ei	0		D	
  	ei	0		V	neg
tea	tead	0		V	o
,	,			Z	
mikspärast	miks_pära	st		S	sg el
          	miks_pärane	t		A	sg p
nemad	tema	d		P	pl n
tülise	####				
läinud	läinu	d		S	pl n
      	läinud	0		A	
      	läinud	0		A	sg n
      	läinud	d		A	pl n
      	mine	nud		V	nud
ja	ja	0		J	
mis	mis	0		P	pl n
   	mis	0		P	sg n
mooodi	####				
,	,			Z	
sest	see	st		P	sg el
    	sest	0		J	
ta	tema	0		P	sg g
  	tema	0		P	sg n
olnud	ol=nud	0		A	
     	ol=nud	0		A	sg n
     	ol=nud	d		A	pl n
     	ole	nud		V	nud
     	olnu	d		S	pl n
leti	lett	0		S	sg g
taga	taga	0		D	
    	taga	0		K	
    	taga	0		V	o
.	.			Z	
Kui	kui	0		D	
   	kui	0		J	
ta	tema	0		P	sg g
  	tema	0		P	sg n
kära	kära	0		S	sg g
    	kära	0		V	o
    	kära	0		S	sg n
    	kära	0		S	sg p
kuulnud	kuul	nud		V	nud
       	kuul=nud	0		A	
       	kuul=nud	0		A	sg n
       	kuul=nud	d		A	pl n
       	kuulnu	d		S	pl n
,	,			Z	
tulnud	tul=nud	0		A	
      	tul=nud	0		A	sg n
      	tul=nud	d		A	pl n
      	tule	nud		V	nud
      	tulnu	d		S	pl n
suure	suur	0		A	sg g
kõrtsi	kõrts	0		S	adt
      	kõrts	0		S	sg g
      	kõrts	0		S	sg p
ja	ja	0		J	
näinud	näi	nud		V	nud
      	näge	nud		V	nud
      	näi=nud	0		A	
      	näi=nud	0		A	sg n
      	näi=nud	d		A	pl n
      	näinu	d		S	pl n
et	et	0		J	
Jaan	Jaan	0		H	sg n
    	jaan	0		S	sg n
    	jaan	0		Y	?
Matt	matt	0		A	sg n
    	matt	0		S	sg n
Joob	joo	b		V	b
Tällega	####				
lõhkunud	lõhku	nud		V	nud
        	lõhku=nu	d		S	pl n
        	lõhku=nud	0		A	
        	lõhku=nud	0		A	sg n
        	lõhku=nud	d		A	pl n
ja	ja	0		J	
kui	kui	0		D	
   	kui	0		J	
Peeter	Peeter	0		H	sg n
Tapp	tapp	0		S	sg n
jaani	jaan	0		S	adt
     	jaan	0		S	sg g
     	jaan	0		S	sg p
Matt	matt	0		A	sg n
    	matt	0		S	sg n
kalale	kala	le		S	sg all
läinud	läinu	d		S	pl n
      	läinud	0		A	
      	läinud	0		A	sg n
      	läinud	d		A	pl n
      	mine	nud		V	nud
,	,			Z	
siis	siis	0		D	
    	siis	0		J	
tema	tema	0		P	sg g
    	tema	0		P	sg n
tömbanud	####				
Peeter	Peeter	0		H	sg n
Tapu	tapp	0		S	sg g
jaani	jaan	0		S	adt
     	jaan	0		S	sg g
     	jaan	0		S	sg p
Matt	matt	0		A	sg n
    	matt	0		S	sg n
kalalt	kala	lt		S	sg abl
ära	ära	0		D	
   	ära	0		V	neg o
ja	ja	0		J	
ütelnud	ütle	nud		V	nud
       	ütel=nu	d		S	pl n
       	ütel=nud	0		A	
       	ütel=nud	0		A	sg n
       	ütel=nud	d		A	pl n
,	,			Z	
mis	mis	0		P	pl n
   	mis	0		P	sg n
teie	sina	0		P	pl g
    	sina	0		P	pl n
siin	siin	0		D	
    	siin	0		S	sg n
nõndapalju	####				
lõhute	lõhku	te		V	te
.	.			Z	
Tulnud	tul=nud	0		A	
      	tul=nud	0		A	sg n
      	tul=nud	d		A	pl n
      	tule	nud		V	nud
      	tulnu	d		S	pl n
küühnu	####				
kaupmees	kaup_mees	0		S	sg n
Endrik	Endrik	0		H	sg n
Vestman	####				
,	,			Z	
kes	kes	0		P	pl n
   	kes	0		P	sg n
ka	ka	0		D	
kõrtsi	kõrts	0		S	adt
      	kõrts	0		S	sg g
      	kõrts	0		S	sg p
pidaja	pidaja	0		S	sg g
      	pidaja	0		S	sg n
vend	vend	0		S	sg n
on	ole	0		V	b
  	ole	0		V	vad
ja	ja	0		J	
oleva	olev	0		A	sg g
     	olev	0		S	sg g
akanud	####				
Jan	Jan	0		H	sg n
Matt	matt	0		A	sg n
    	matt	0		S	sg n
käratsema	käratse	ma		V	ma
ja	ja	0		J	
Jaan	Jaan	0		H	sg n
    	jaan	0		S	sg n
    	jaan	0		Y	?
Matt	matt	0		A	sg n
    	matt	0		S	sg n
akanud	####				
nõudma	nõud	ma		V	ma
peiksu	####				
vilja	vili	0		S	adt
     	vili	0		S	sg g
     	vili	0		S	sg p
.	.			Z	
Sai	saa	i		V	s
   	sai	0		S	sg n
Endrik	Endrik	0		H	sg n
Vestman	####				
kohtu	kohtu	0		V	o
     	kohus	0		S	sg g
ette	ette	0		D	
    	ette	0		K	
    	esi	tte		S	adt
nõutud	nõu=tu	d		S	pl n
      	nõu=tud	0		A	
      	nõu=tud	0		A	sg n
      	nõu=tud	d		A	pl n
      	nõud	tud		V	tud
      	nõutu	d		A	pl n
rääkis	rääki	s		V	s
tema	tema	0		P	sg g
    	tema	0		P	sg n
,	,			Z	
et	et	0		J	
tema	tema	0		P	sg g
    	tema	0		P	sg n
tulnud	tul=nud	0		A	
      	tul=nud	0		A	sg n
      	tul=nud	d		A	pl n
      	tule	nud		V	nud
      	tulnu	d		S	pl n
kõrtsi	kõrts	0		S	adt
      	kõrts	0		S	sg g
      	kõrts	0		S	sg p
ja	ja	0		J	
ütelnud	ütle	nud		V	nud
       	ütel=nu	d		S	pl n
       	ütel=nud	0		A	
       	ütel=nud	0		A	sg n
       	ütel=nud	d		A	pl n
viina	viin	0		S	adt
     	viin	0		S	sg g
     	viin	0		S	sg p
müüjale	müüja	le		S	sg all
Juhan	Juhan	0		H	sg n
Tällele	####				
,	,			Z	
kel	kes	l		P	sg ad
on	ole	0		V	b
  	ole	0		V	vad
ju	ju	0		D	
10	10	0		N	?
pane	pan	e		S	pl p
    	pane	0		V	o
lett	lett	0		S	sg n
kinni	kinni	0		D	
,	,			Z	
inimesed	inimene	d		S	pl n
peavad	pida	vad		V	vad
väljaminema	####				
,	,			Z	
siis	siis	0		D	
    	siis	0		J	
läinud	läinu	d		S	pl n
      	läinud	0		A	
      	läinud	0		A	sg n
      	läinud	d		A	pl n
      	mine	nud		V	nud
ka	ka	0		D	
inimesed	inimene	d		S	pl n
leti	lett	0		S	sg g
tagast	####				
välja	välja	0		D	
     	välja	0		V	o
     	väli	0		S	adt
     	väli	0		S	sg g
     	väli	0		S	sg p
suure	suur	0		A	sg g
kõrtsi	kõrts	0		S	adt
      	kõrts	0		S	sg g
      	kõrts	0		S	sg p
,	,			Z	
lett	lett	0		S	sg n
saanud	saa	nud		V	nud
      	saa=nud	0		A	
      	saa=nud	0		A	sg n
      	saa=nud	d		A	pl n
      	saanu	d		S	pl n
kinni	kinni	0		D	
pandud	pan=du	d		S	pl n
      	pan=dud	0		A	
      	pan=dud	0		A	sg n
      	pan=dud	d		A	pl n
      	pane	dud		V	tud
ja	ja	0		J	
nemad	tema	d		P	pl n
akanud	####				
raha	raha	0		S	sg g
    	raha	0		S	sg n
    	raha	0		S	sg p
lugema	luge	ma		V	ma
ja	ja	0		J	
kuulnud	kuul	nud		V	nud
       	kuul=nud	0		A	
       	kuul=nud	0		A	sg n
       	kuul=nud	d		A	pl n
       	kuulnu	d		S	pl n
riiidu	####				
kõrtsis	kõrts	s		S	sg in
võtnud	võt	nud		V	nud
      	võt=nu	d		S	pl n
      	võt=nud	0		A	
      	võt=nud	0		A	sg n
      	võt=nud	d		A	pl n
lambi	lamp	0		A	sg g
     	lamp	0		S	sg g
ja	ja	0		J	
läinud	läinu	d		S	pl n
      	läinud	0		A	
      	läinud	0		A	sg n
      	läinud	d		A	pl n
      	mine	nud		V	nud
vaatama	vaata	ma		V	ma
ja	ja	0		J	
näinud	näi	nud		V	nud
      	näge	nud		V	nud
      	näi=nud	0		A	
      	näi=nud	0		A	sg n
      	näi=nud	d		A	pl n
      	näinu	d		S	pl n
küll	küll	0		D	
    	küll	0		S	sg n
seda	see	da		P	sg p
tüli	tüli	0		S	sg g
    	tüli	0		S	sg n
    	tüli	0		S	sg p
,	,			Z	
et	et	0		J	
Joob	joo	b		V	b
Täll	####				
Jaan	Jaan	0		H	sg n
    	jaan	0		S	sg n
    	jaan	0		Y	?
Mattega	####				
koos	koos	0		D	
    	koos	0		K	
    	koos	0		S	sg n
    	kubu	s		S	sg in
olnud	ol=nud	0		A	
     	ol=nud	0		A	sg n
     	ol=nud	d		A	pl n
     	ole	nud		V	nud
     	olnu	d		S	pl n
ja	ja	0		J	
kui	kui	0		D	
   	kui	0		J	
Peeter	Peeter	0		H	sg n
Tapp	tapp	0		S	sg n
sinna	sinna	0		D	
vahele	vahe	le		S	sg all
      	vahele	0		D	
      	vahele	0		K	
tikkunud	tikku	nud		V	nud
        	tikku=nu	d		S	pl n
        	tikku=nud	0		A	
        	tikku=nud	0		A	sg n
        	tikku=nud	d		A	pl n
ütelnud	ütle	nud		V	nud
       	ütel=nu	d		S	pl n
       	ütel=nud	0		A	
       	ütel=nud	0		A	sg n
       	ütel=nud	d		A	pl n
tema	tema	0		P	sg g
    	tema	0		P	sg n
Peeter	Peeter	0		H	sg n
Tapule	tapp	le		S	sg all
,	,			Z	
ära	ära	0		D	
   	ära	0		V	neg o
sina	sina	0		P	sg n
    	sina	0		S	sg g
    	sina	0		V	o
    	sina	0		S	sg n
    	sina	0		S	sg p
mitte	mitte	0		D	
puudu	puudu	0		D	
     	puudu	0		V	o
las	las	0		D	
nad	tema	d		P	pl n
kahekeski	####				
olla	ole	a		V	da
;	;			Z	
Joob	joo	b		V	b
Tällele	####				
ütelnud	ütle	nud		V	nud
       	ütel=nu	d		S	pl n
       	ütel=nud	0		A	
       	ütel=nud	0		A	sg n
       	ütel=nud	d		A	pl n
,	,			Z	
jätta	jät	a		V	da
järele	järele	0		D	
      	järele	0		K	
sina	sina	0		P	sg n
    	sina	0		S	sg g
    	sina	0		V	o
    	sina	0		S	sg n
    	sina	0		S	sg p
ei	ei	0		D	
  	ei	0		V	neg
sa	sina	0		P	sg n
ju	ju	0		D	
Jaan	Jaan	0		H	sg n
    	jaan	0		S	sg n
    	jaan	0		Y	?
Matt	matt	0		A	sg n
    	matt	0		S	sg n
vastu	vastu	0		D	
     	vastu	0		K	
,	,			Z	
tuli	tuli	0		S	sg n
    	tule	i		V	s
aga	aga	0		J	
kustutud	kustu	tud		V	tud
        	kustu=tu	d		S	pl n
        	kustu=tud	0		A	
        	kustu=tud	0		A	sg n
        	kustu=tud	d		A	pl n
tema	tema	0		P	sg g
    	tema	0		P	sg n
käes	käes	0		K	
    	käsi	s		S	sg in
ära	ära	0		D	
   	ära	0		V	neg o
,	,			Z	
aga	aga	0		J	
seda	see	da		P	sg p
tema	tema	0		P	sg g
    	tema	0		P	sg n
poole	pool	0		N	sg g
     	pool	0		S	sg g
     	pool	e		S	pl p
     	poole	0		K	
     	poole	0		S	sg n
tähele	täht	le		S	sg all
      	tähele	0		X	
pannud	pan=nu	d		S	pl n
      	pan=nud	0		A	
      	pan=nud	0		A	sg n
      	pan=nud	d		A	pl n
      	pane	nud		V	nud
kes	kes	0		P	pl n
   	kes	0		P	sg n
se	####				
kustutaja	kustutaja	0		S	sg g
         	kustutaja	0		S	sg n
oli	ole	i		V	s
,	,			Z	
tema	tema	0		P	sg g
    	tema	0		P	sg n
läinud	läinu	d		S	pl n
      	läinud	0		A	
      	läinud	0		A	sg n
      	läinud	d		A	pl n
      	mine	nud		V	nud
uesti	####				
tuld	tuli	0		S	sg p
tuooma	####				
ja	ja	0		J	
kui	kui	0		D	
   	kui	0		J	
ta	tema	0		P	sg g
  	tema	0		P	sg n
tulega	tuli	ga		S	sg kom
tagasi	tagasi	0		D	
      	tagasi	0		K	
tulnud	tul=nud	0		A	
      	tul=nud	0		A	sg n
      	tul=nud	d		A	pl n
      	tule	nud		V	nud
      	tulnu	d		S	pl n
,	,			Z	
siis	siis	0		D	
    	siis	0		J	
olnud	ol=nud	0		A	
     	ol=nud	0		A	sg n
     	ol=nud	d		A	pl n
     	ole	nud		V	nud
     	olnu	d		S	pl n
juba	juba	0		D	
kõik	kõik	0		P	pl n
    	kõik	0		S	sg n
    	kõik	0		P	sg n
kära	kära	0		S	sg g
    	kära	0		V	o
    	kära	0		S	sg n
    	kära	0		S	sg p
rahu	rahu	0		S	sg g
    	rahu	0		S	sg n
    	rahu	0		S	sg p
,	,			Z	
et	et	0		J	
Jaan	Jaan	0		H	sg n
    	jaan	0		S	sg n
    	jaan	0		Y	?
Matt	matt	0		A	sg n
    	matt	0		S	sg n
nõnda	nõnda	0		D	
pekstud	peks	tud		V	tud
       	peks=tu	d		S	pl n
       	peks=tud	0		A	
       	peks=tud	0		A	sg n
       	peks=tud	d		A	pl n
oli	ole	i		V	s
siis	siis	0		D	
    	siis	0		J	
sai	saa	i		V	s
   	sai	0		S	sg n
tema	tema	0		P	sg g
    	tema	0		P	sg n
sel	see	l		P	sg ad
   	sel	0		Y	?
ajal	aeg	l		S	sg ad
    	ajal	0		K	
pekstud	peks	tud		V	tud
       	peks=tu	d		S	pl n
       	peks=tud	0		A	
       	peks=tud	0		A	sg n
       	peks=tud	d		A	pl n
,	,			Z	
kui	kui	0		D	
   	kui	0		J	
tema	tema	0		P	sg g
    	tema	0		P	sg n
tuld	tuli	0		S	sg p
tuoomas	####				
oli	ole	i		V	s
.	.			Z	
kohus	kohu	s		V	s
     	kohus	0		S	sg n
mõistis	mõist	is		V	s
:	:			Z	
et	et	0		J	
edaspidi	edas_pidi	0		D	
ei	ei	0		D	
  	ei	0		V	neg
pea	pea	0		D	
   	pea	0		S	sg g
   	pida	0		V	o
   	pea	0		S	sg n
enam	enam	0		C	sg n
    	enam	0		D	
seda	see	da		P	sg p
olema	ole	ma		V	ma
ja	ja	0		J	
õõsel	####				
veel	veel	0		D	
    	vesi	l		S	sg ad
kõrtsis	kõrts	s		S	sg in
vahtida	vahti	da		V	da
ja	ja	0		J	
viina	viin	0		S	adt
     	viin	0		S	sg g
     	viin	0		S	sg p
lakkuda	lakku	da		V	da
.	.			Z	
Joobile	####				
Täll	####				
15	15	0		N	?
hoopi	hoop	0		S	adt
     	hoop	0		S	sg p
vitsa	vits	0		S	adt
     	vits	0		S	sg g
     	vits	0		S	sg p
ja	ja	0		J	
Peetrile	Peeter	le		H	sg all
        	Peetri	le		H	sg all
Tapp	tapp	0		S	sg n
15.	15.	0		O	?
Jaan	Jaan	0		H	sg n
    	jaan	0		S	sg n
    	jaan	0		Y	?
Matt	matt	0		A	sg n
    	matt	0		S	sg n
aga	aga	0		J	
nõudis	nõud	is		V	s
rahaga	raha	ga		S	sg kom
tasumist	tasumine	t		S	sg p
selle	see	0		P	sg g
     	sell	e		S	pl p
peksmise	peksmine	0		S	sg g
ette	ette	0		D	
    	ette	0		K	
    	esi	tte		S	adt
ja	ja	0		J	
nimelt	nimelt	0		D	
      	nimi	lt		S	sg abl
10	10	0		N	?
rubla	rubla	0		S	sg g
     	rubla	0		S	sg n
     	rubla	0		S	sg p
,	,			Z	
siis	siis	0		D	
    	siis	0		J	
sai	saa	i		V	s
   	sai	0		S	sg n
vitsa	vits	0		S	adt
     	vits	0		S	sg g
     	vits	0		S	sg p
nuhtlus	nuhtlus	0		S	sg n
ümber	ümber	0		D	
     	ümber	0		K	
muudetud	muut	tud		V	tud
        	muude=tu	d		S	pl n
        	muude=tud	0		A	
        	muude=tud	0		A	sg n
        	muude=tud	d		A	pl n
raha	raha	0		S	sg g
    	raha	0		S	sg n
    	raha	0		S	sg p
maksuks	maks	ks		S	sg tr
nõnda	nõnda	0		D	
,	,			Z	
et	et	0		J	
Joob	joo	b		V	b
Täll	####				
maksab	maks	b		V	b
Jaanile	Jaan	le		H	sg all
       	Jaani	le		H	sg all
       	jaan	le		S	sg all
Matt	matt	0		A	sg n
    	matt	0		S	sg n
1	1	0		N	?
rubla	rubla	0		S	sg g
     	rubla	0		S	sg n
     	rubla	0		S	sg p
ja	ja	0		J	
nõndasaama	####				
ka	ka	0		D	
Peeter	Peeter	0		H	sg n
Tapp	tapp	0		S	sg n
1	1	0		N	?
rubla	rubla	0		S	sg g
     	rubla	0		S	sg n
     	rubla	0		S	sg p
ja	ja	0		J	
strahvi	####				
mõlemad	mõlema	d		P	pl n
25	25	0		N	?
kop	kop	0		Y	?
.	.			Z	
valla	vald	0		S	sg g
     	valla	0		D	
vaeste	vaene	te		A	pl g
      	vaene	te		S	pl g
laeka	laegas	0		S	adt
     	laegas	0		S	sg g
.	.			Z	
Jaan	Jaan	0		H	sg n
    	jaan	0		S	sg n
    	jaan	0		Y	?
Matt	matt	0		A	sg n
    	matt	0		S	sg n
ei	ei	0		D	
  	ei	0		V	neg
olnud	ol=nud	0		A	
     	ol=nud	0		A	sg n
     	ol=nud	d		A	pl n
     	ole	nud		V	nud
     	olnu	d		S	pl n
sellega	see	ga		P	sg kom
rahul	rahu	l		S	sg ad
     	rahul	0		D	
ja	ja	0		J	
nõudis	nõud	is		V	s
protokoli	####				
väljaandmist	välja_andmine	t		S	sg p
et	et	0		J	
austud	####				
keiserliku	keiserlik	0		A	sg g
kihelkonna	kihelkond	0		S	sg g
kohtu	kohtu	0		V	o
     	kohus	0		S	sg g
ees	ees	0		D	
   	ees	0		K	
   	esi	s		S	sg in
ooma	####				
kaebdust	####				
tõsta	tõst	0		V	o
     	tõst	a		V	da
ja	ja	0		J	
ette	ette	0		D	
    	ette	0		K	
    	esi	tte		S	adt
panda	pand	0		S	adt
     	panda	0		S	sg g
     	pane	da		V	ta
     	pand	0		S	sg p
     	panda	0		S	sg n
,	,			Z	
mis	mis	0		P	pl n
   	mis	0		P	sg n
ka	ka	0		D	
sai	saa	i		V	s
   	sai	0		S	sg n
temale	tema	le		P	sg all
antud	an=tu	d		S	pl n
     	and	tud		V	tud
     	antud	0		A	
     	antud	0		A	sg n
     	antud	d		A	pl n
.	.			Z	
küühnu	####				
valla	vald	0		S	sg g
     	valla	0		D	
kogukonna	kogukond	0		S	sg g
kohus	kohu	s		V	s
     	kohus	0		S	sg n
pea	pea	0		D	
   	pea	0		S	sg g
   	pida	0		V	o
   	pea	0		S	sg n
kohtumees	kohtu_mees	0		S	sg n
:	:			Z	
Enn	Enn	0		H	sg n
Alas	ala	s		S	sg in
XXX	XXX	0		O	?
   	XXX	0		Y	?
kohtumehed	kohtu_mees	d		S	pl n
:	:			Z	
Mihkel	Mihkel	0		H	sg n
      	mihkel	0		A	sg n
      	mihkel	0		S	sg n
Larents	####				
XXX	XXX	0		O	?
   	XXX	0		Y	?
valla	vald	0		S	sg g
     	valla	0		D	
vanem	vanem	0		C	sg n
     	vanem	0		S	sg n
:	:			Z	
Lija	####				
Eljas	####				
XXX	XXX	0		O	?
   	XXX	0		Y	?
antud	an=tu	d		S	pl n
     	and	tud		V	tud
     	antud	0		A	
     	antud	0		A	sg n
     	antud	d		A	pl n
2	2	0		N	?
IV	IV	0		O	?
  	IV	0		Y	?
1884	1884	0		N	?
N116	N116	0		Y	?
al	####				
.	.			Z	
