Astus	astu	s		V	s
Utta	ut	a		V	da
väikenne	####				
peremees	pere_mees	0		S	sg n
Johann	Johann	0		H	sg n
Utt	utt	0		S	sg n
siia	siia	0		D	
    	siig	0		S	sg g
kohtu	kohtu	0		V	o
     	kohus	0		S	sg g
ette	ette	0		D	
    	ette	0		K	
    	esi	tte		S	adt
ning	ning	0		J	
kaebus	kaebus	0		S	sg n
et	et	0		J	
tema	tema	0		P	sg g
    	tema	0		P	sg n
ära	ära	0		D	
   	ära	0		V	neg o
surnud	surnu	d		S	pl n
      	surnud	0		A	
      	surnud	0		A	sg n
      	surnud	d		A	pl n
      	sure	nud		V	nud
Essa	####				
juba	juba	0		D	
mõne	mõni	0		P	sg g
aasta	aasta	0		S	sg g
     	aasta	0		S	sg n
eest	eest	0		D	
    	eest	0		K	
    	esi	st		S	sg el
Morits	####				
Käälpa	####				
11	11	0		N	?
R	R	0		Y	?
.	.			Z	
30	30	0		N	?
kop	kop	0		Y	?
B	B	0		Y	?
.	.			Z	
laenanud	laena	nud		V	nud
        	laena=nu	d		S	pl n
        	laena=nud	0		A	
        	laena=nud	0		A	sg n
        	laena=nud	d		A	pl n
,	,			Z	
mida	mis	da		P	pl p
    	mis	da		P	sg p
Morits	####				
Kääp	####				
pidanud	pida	nud		V	nud
       	pida=nu	d		S	pl n
       	pida=nud	0		A	
       	pida=nud	0		A	sg n
       	pida=nud	d		A	pl n
juba	juba	0		D	
ammuuki	####				
kätte	kätte	0		K	
     	käsi	tte		S	adt
maksma	maks	ma		V	ma
,	,			Z	
aga	aga	0		J	
ommetegin	####				
sinniajani	####				
veel	veel	0		D	
    	vesi	l		S	sg ad
ei	ei	0		D	
  	ei	0		V	neg
ole	ole	0		V	o
ära	ära	0		D	
   	ära	0		V	neg o
tasunud	tasu	nud		V	nud
       	tasu=nu	d		S	pl n
       	tasu=nud	0		A	
       	tasu=nud	0		A	sg n
       	tasu=nud	d		A	pl n
.	.			Z	
_	_			Z	
Morits	####				
Kääp	####				
aastas	aasta	s		S	sg in
ette	ette	0		D	
    	ette	0		K	
    	esi	tte		S	adt
ning	ning	0		J	
andis	and	is		V	s
enesest	ise	st		P	sg el
seda	see	da		P	sg p
tunnistust	tunnistus	t		S	sg p
küll	küll	0		D	
    	küll	0		S	sg n
Johann	Johann	0		H	sg n
Utta	ut	a		V	da
ära	ära	0		D	
   	ära	0		V	neg o
surnud	surnu	d		S	pl n
      	surnud	0		A	
      	surnud	0		A	sg n
      	surnud	d		A	pl n
      	sure	nud		V	nud
Essa	####				
käest	käest	0		K	
     	käsi	st		S	sg el
11	11	0		N	?
R 30	R30	0		Y	?
kp	####				
B	B	0		Y	?
.	.			Z	
laenanud	laena	nud		V	nud
        	laena=nu	d		S	pl n
        	laena=nud	0		A	
        	laena=nud	0		A	sg n
        	laena=nud	d		A	pl n
olevad	olev	d		A	pl n
      	olev	d		S	pl n
mida	mis	da		P	pl p
    	mis	da		P	sg p
raha	raha	0		S	sg g
    	raha	0		S	sg n
    	raha	0		S	sg p
tema	tema	0		P	sg g
    	tema	0		P	sg n
Johann	Johann	0		H	sg n
Utta	ut	a		V	da
ootamise	ootamine	0		S	sg g
järel	järel	0		D	
     	järel	0		K	
Märdipäevani	####				
selsamal	see_sama	l		P	sg ad
aastas	aasta	s		S	sg in
lubas	luba	s		V	s
ära	ära	0		D	
   	ära	0		V	neg o
maksa	maks	0		S	adt
     	maks	0		S	sg g
     	maks	0		V	o
     	maks	0		S	sg p
.	.			Z	
_	_			Z	
Johann	Johann	0		H	sg n
Leppik	Leppik	0		H	sg n
[	[			Z	
allkiri	all_kiri	0		S	sg n
}	}			Z	
