oli	ole	i		V	s
valla	vald	0		S	sg g
     	valla	0		D	
kohus	kohu	s		V	s
     	kohus	0		S	sg n
koos	koos	0		D	
    	koos	0		K	
    	koos	0		S	sg n
    	kubu	s		S	sg in
,	,			Z	
kaevas	kaeva	s		V	s
Engel	Enge	l		H	sg ad
Larens	####				
et	et	0		J	
Rael	raad	l		S	sg ad
Tungen	####				
kis	####				
tema	tema	0		P	sg g
    	tema	0		P	sg n
selsis	####				
üheks	üks	ks		N	sg tr
     	üks	ks		P	sg tr
Saunas	saun	s		S	sg in
elasit	####				
ühte	ühte	0		D	
    	üks	0		N	adt
    	üks	0		P	adt
    	ühe	0		S	sg g
    	üks	0		N	sg p
    	üks	0		P	sg p
Vahheseina	####				
maha	maha	0		D	
lohknut	####				
ja	ja	0		J	
neid	neid	0		S	sg n
    	see	d		P	pl p
    	tema	d		P	pl p
ärra	####				
vedanut	veda=nu	t		S	sg p
mis	mis	0		P	pl n
   	mis	0		P	sg n
tema	tema	0		P	sg g
    	tema	0		P	sg n
salaja	salaja	0		D	
teinut	teinu	t		S	sg p
ilma	ilm	0		S	adt
    	ilm	0		S	sg g
    	ilma	0		D	
    	ilma	0		K	
    	ilm	0		S	sg p
vallakohtumehstel	####				
nimetata	nimeta	ta		V	ta
.	.			Z	
Ja	ja	0		J	
tema	tema	0		P	sg g
    	tema	0		P	sg n
selle	see	0		P	sg g
     	sell	e		S	pl p
üle	üle	0		D	
   	üle	0		K	
südi	südi	0		A	sg g
    	südi	0		A	sg n
    	südi	0		A	sg p
mõistetut	mõiste=tu	t		S	sg p
.	.			Z	
Rael	raad	l		S	sg ad
ütlep	####				
et	et	0		J	
need	see	d		P	pl n
tema	tema	0		P	sg g
    	tema	0		P	sg n
puud	puu	d		S	pl n
    	puud	0		S	sg n
    	puu	d		S	sg p
ole	ole	0		V	o
mis	mis	0		P	pl n
   	mis	0		P	sg n
tema	tema	0		P	sg g
    	tema	0		P	sg n
üheksa	üheksa	0		N	sg g
      	üheksa	0		N	sg n
aasta	aasta	0		S	sg g
     	aasta	0		S	sg n
est	####				
teinut	teinu	t		S	sg p
oma	oma	0		A	sg g
   	oma	0		D	
   	oma	0		P	sg g
   	oma	0		S	sg g
   	oma	0		V	o
   	oma	0		A	sg n
   	oma	0		A	sg p
   	oma	0		P	sg n
   	oma	0		P	sg p
   	oma	0		S	sg n
   	oma	0		S	sg p
poudega	####				
.	.			Z	
mõisteti	mõist	ti		V	ti
.	.			Z	
et	et	0		J	
se	####				
naene	####				
kes	kes	0		P	pl n
   	kes	0		P	sg n
seda	see	da		P	sg p
Seina	sein	0		S	adt
     	sein	0		S	sg g
     	sein	0		S	sg p
oma	oma	0		A	sg g
   	oma	0		D	
   	oma	0		P	sg g
   	oma	0		S	sg g
   	oma	0		V	o
   	oma	0		A	sg n
   	oma	0		A	sg p
   	oma	0		P	sg n
   	oma	0		P	sg p
   	oma	0		S	sg n
   	oma	0		S	sg p
lubaga	####				
ja	ja	0		J	
ilma	ilm	0		S	adt
    	ilm	0		S	sg g
    	ilma	0		D	
    	ilma	0		K	
    	ilm	0		S	sg p
kohtumeste	kohtu_mest	e		S	pl p
taedmata	####				
maha	maha	0		D	
lohknut	####				
sai	saa	i		V	s
   	sai	0		S	sg n
temal	tema	l		P	sg ad
Rael	raad	l		S	sg ad
öldut	####				
et	et	0		J	
se	####				
Sein	sein	0		S	sg n
8	8	0		N	?
paeva	####				
perast	####				
on	ole	0		V	b
  	ole	0		V	vad
oma	oma	0		A	sg g
   	oma	0		D	
   	oma	0		P	sg g
   	oma	0		S	sg g
   	oma	0		V	o
   	oma	0		A	sg n
   	oma	0		A	sg p
   	oma	0		P	sg n
   	oma	0		P	sg p
   	oma	0		S	sg n
   	oma	0		S	sg p
koha	koht	0		S	sg g
    	koha	0		S	sg g
    	koha	0		V	o
    	koha	0		S	sg n
    	koha	0		S	sg p
peal	pea	l		S	sg ad
    	peal	0		D	
    	peal	0		K	
üles	üles	0		D	
aritut	####				
saap	####				
.	.			Z	
