Jaanud	####				
Lipplab	####				
välikstest	####				
kaebab	kaeba	b		V	b
:	:			Z	
kevadel	kevad	l		S	sg ad
       	kevade	l		S	sg ad
1885	1885	0		N	?
olnud	ol=nud	0		A	
     	ol=nud	0		A	sg n
     	ol=nud	d		A	pl n
     	ole	nud		V	nud
     	olnu	d		S	pl n
tema	tema	0		P	sg g
    	tema	0		P	sg n
Penuja	####				
Mustsema	####				
talus	talu	s		S	sg in
     	talu	s		V	s
korteris	korter	s		S	sg in
ja	ja	0		J	
saanud	saa	nud		V	nud
      	saa=nud	0		A	
      	saa=nud	0		A	sg n
      	saa=nud	d		A	pl n
      	saanu	d		S	pl n
temal	tema	l		P	sg ad
sealsamas	seal_samas	0		D	
38	38	0		N	?
rubla	rubla	0		S	sg g
     	rubla	0		S	sg n
     	rubla	0		S	sg p
raha	raha	0		S	sg g
    	raha	0		S	sg n
    	raha	0		S	sg p
ära	ära	0		D	
   	ära	0		V	neg o
varastatud	varasta	tud		V	tud
          	varastatu	d		S	pl n
          	varastatud	0		A	
          	varastatud	0		A	sg n
          	varastatud	d		A	pl n
.	.			Z	
raha	raha	0		S	sg g
    	raha	0		S	sg n
    	raha	0		S	sg p
olnud	ol=nud	0		A	
     	ol=nud	0		A	sg n
     	ol=nud	d		A	pl n
     	ole	nud		V	nud
     	olnu	d		S	pl n
temal	tema	l		P	sg ad
tares	tare	s		S	sg in
voodi	voodi	0		S	sg g
     	voodi	0		S	sg n
päetsi	####				
kotti	kott	0		S	adt
     	kotti	0		D	
     	kott	i		S	pl p
     	kott	0		S	sg p
all	all	0		D	
   	all	0		K	
.	.			Z	
kui	kui	0		D	
   	kui	0		J	
tema	tema	0		P	sg g
    	tema	0		P	sg n
raha	raha	0		S	sg g
    	raha	0		S	sg n
    	raha	0		S	sg p
kotti	kott	0		S	adt
     	kotti	0		D	
     	kott	i		S	pl p
     	kott	0		S	sg p
voodisse	voodi	sse		S	sg ill
kotti	kott	0		S	adt
     	kotti	0		D	
     	kott	i		S	pl p
     	kott	0		S	sg p
ala	ala	0		S	sg g
   	ala	0		S	sg n
   	ala	0		S	sg p
pannud	pan=nu	d		S	pl n
      	pan=nud	0		A	
      	pan=nud	0		A	sg n
      	pan=nud	d		A	pl n
      	pane	nud		V	nud
,	,			Z	
olnud	ol=nud	0		A	
     	ol=nud	0		A	sg n
     	ol=nud	d		A	pl n
     	ole	nud		V	nud
     	olnu	d		S	pl n
Reet	Reet	0		H	sg n
Holtsmann	####				
ja	ja	0		J	
Jaan	Jaan	0		H	sg n
    	jaan	0		S	sg n
    	jaan	0		Y	?
Holtsmann	####				
ka	ka	0		D	
tares	tare	s		S	sg in
.	.			Z	
tema	tema	0		P	sg g
    	tema	0		P	sg n
läinud	läinu	d		S	pl n
      	läinud	0		A	
      	läinud	0		A	sg n
      	läinud	d		A	pl n
      	mine	nud		V	nud
seepeale	see_peale	0		D	
tarest	tare	st		S	sg el
välja	välja	0		D	
     	välja	0		V	o
     	väli	0		S	adt
     	väli	0		S	sg g
     	väli	0		S	sg p
,	,			Z	
kui	kui	0		D	
   	kui	0		J	
ta	tema	0		P	sg g
  	tema	0		P	sg n
natukese	natuke	0		S	sg g
        	natukene	0		S	sg g
aea	####				
pärast	pära	st		S	sg el
      	pärane	t		A	sg p
      	pärast	0		D	
      	pärast	0		K	
jälle	jälle	0		D	
tarre	tare	0		S	adt
     	tarre	0		S	sg n
tagasi	tagasi	0		D	
      	tagasi	0		K	
tulnud	tul=nud	0		A	
      	tul=nud	0		A	sg n
      	tul=nud	d		A	pl n
      	tule	nud		V	nud
      	tulnu	d		S	pl n
,	,			Z	
olnud	ol=nud	0		A	
     	ol=nud	0		A	sg n
     	ol=nud	d		A	pl n
     	ole	nud		V	nud
     	olnu	d		S	pl n
raha	raha	0		S	sg g
    	raha	0		S	sg n
    	raha	0		S	sg p
kott	kott	0		S	sg n
kadunud	kadu	nud		V	nud
       	kadunu	d		S	pl n
       	kadunud	0		A	
       	kadunud	0		A	sg n
       	kadunud	d		A	pl n
ja	ja	0		J	
Reet	Reet	0		H	sg n
Holtsmann	####				
ei	ei	0		D	
  	ei	0		V	neg
ole	ole	0		V	o
enam	enam	0		C	sg n
    	enam	0		D	
seal	seal	0		D	
    	siga	l		A	sg ad
    	siga	l		S	sg ad
olnud	ol=nud	0		A	
     	ol=nud	0		A	sg n
     	ol=nud	d		A	pl n
     	ole	nud		V	nud
     	olnu	d		S	pl n
.	.			Z	
peale	pea	le		S	sg all
     	peale	0		D	
     	peale	0		K	
kaevatute	kaeva=tu	te		S	pl g
ei	ei	0		D	
  	ei	0		V	neg
hoole	hoog	le		S	sg all
     	hool	0		S	sg g
     	hoole	0		S	sg n
sell	sell	0		S	sg n
korral	kord	l		S	sg ad
      	korral	0		D	
      	korral	0		K	
muud	muu	d		P	pl n
    	muu	d		S	pl n
    	muu	d		V	d
    	muu	d		P	sg p
    	muu	d		S	sg p
hinge	hing	0		S	adt
     	hing	0		S	sg g
     	hinge	0		S	sg g
     	hinge	0		S	sg n
     	hing	0		S	sg p
kodus	kodu	s		S	sg in
olnud	ol=nud	0		A	
     	ol=nud	0		A	sg n
     	ol=nud	d		A	pl n
     	ole	nud		V	nud
     	olnu	d		S	pl n
.	.			Z	
peale	pea	le		S	sg all
     	peale	0		D	
     	peale	0		K	
lõunat	lõuna	t		S	sg p
olla	ole	a		V	da
rahakott	raha_kott	0		S	sg n
voodisse	voodi	sse		S	sg ill
tagasi	tagasi	0		D	
      	tagasi	0		K	
pandud	pan=du	d		S	pl n
      	pan=dud	0		A	
      	pan=dud	0		A	sg n
      	pan=dud	d		A	pl n
      	pane	dud		V	tud
ja	ja	0		J	
38	38	0		N	?
rbl	rbl	0		Y	?
.	.			Z	
raha	raha	0		S	sg g
    	raha	0		S	sg n
    	raha	0		S	sg p
ära	ära	0		D	
   	ära	0		V	neg o
võetud	võe=tu	d		S	pl n
      	võetud	0		A	
      	võetud	0		A	sg n
      	võetud	d		A	pl n
      	võt	tud		V	tud
.	.			Z	
34	34	0		N	?
rbl	rbl	0		Y	?
.	.			Z	
olla	ole	a		V	da
veel	veel	0		D	
    	vesi	l		S	sg ad
kotti	kott	0		S	adt
     	kotti	0		D	
     	kott	i		S	pl p
     	kott	0		S	sg p
jäetud	jäe=tu	d		S	pl n
      	jäe=tud	0		A	
      	jäe=tud	0		A	sg n
      	jäe=tud	d		A	pl n
      	jät	tud		V	tud
.	.			Z	
et	et	0		J	
sell	sell	0		S	sg n
korral	kord	l		S	sg ad
      	korral	0		D	
      	korral	0		K	
teisi	teine	0		O	pl p
     	teine	0		P	pl p
inimesi	inimene	i		S	pl p
kodus	kodu	s		S	sg in
ei	ei	0		D	
  	ei	0		V	neg
hoole	hoog	le		S	sg all
     	hool	0		S	sg g
     	hoole	0		S	sg n
olnud	ol=nud	0		A	
     	ol=nud	0		A	sg n
     	ol=nud	d		A	pl n
     	ole	nud		V	nud
     	olnu	d		S	pl n
,	,			Z	
siis	siis	0		D	
    	siis	0		J	
pidada	pida	da		V	da
Reet	Reet	0		H	sg n
Holtsmann	####				
tõesti	tõesti	0		D	
sest	see	st		P	sg el
    	sest	0		J	
rahast	raha	st		S	sg el
teadma	tead	ma		V	ma
.	.			Z	
tema	tema	0		P	sg g
    	tema	0		P	sg n
paluda	palu	da		V	da
seda	see	da		P	sg p
asja	asi	0		S	adt
    	asi	0		S	sg g
    	asi	0		S	sg p
keiserliku	keiserlik	0		A	sg g
Villandi	vill_and	0		S	adt
        	vill_and	0		S	sg p
Sillakohtu	silla_kohus	0		S	sg g
kätte	kätte	0		K	
     	käsi	tte		S	adt
anda	and	a		V	da
.	.			Z	
Reet	Reet	0		H	sg n
Holtsmann	####				
pistiku	pistik	0		S	sg g
vastab	vasta	b		V	b
nõumees	nõu_mees	0		S	sg n
Peeter	Peeter	0		H	sg n
Kuill	####				
juures	juur	s		S	sg in
      	juures	0		D	
      	juures	0		K	
olles	ole	es		V	des
,	,			Z	
et	et	0		J	
tema	tema	0		P	sg g
    	tema	0		P	sg n
Jaanud	####				
Lipplab	####				
raha	raha	0		S	sg g
    	raha	0		S	sg n
    	raha	0		S	sg p
näinud	näi	nud		V	nud
      	näge	nud		V	nud
      	näi=nud	0		A	
      	näi=nud	0		A	sg n
      	näi=nud	d		A	pl n
      	näinu	d		S	pl n
ega	ega	0		D	
   	ega	0		J	
varastanud	varasta	nud		V	nud
          	varasta=nu	d		S	pl n
          	varasta=nud	0		A	
          	varasta=nud	0		A	sg n
          	varasta=nud	d		A	pl n
ei	ei	0		D	
  	ei	0		V	neg
olla	ole	a		V	da
ega	ega	0		D	
   	ega	0		J	
teada	tead	a		V	da
sest	see	st		P	sg el
    	sest	0		J	
kõigevähemat	####				
.	.			Z	
Jaan	Jaan	0		H	sg n
    	jaan	0		S	sg n
    	jaan	0		Y	?
Holtsmann	####				
Kõpust	Kõpu	st		H	sg el
      	kõpp	st		S	sg el
puudub	puudu	b		V	b
.	.			Z	
Jaanud	####				
Lipplab	####				
annab	and	b		V	b
üles	üles	0		D	
,	,			Z	
et	et	0		J	
Reet	Reet	0		H	sg n
Holtsmanni	####				
mehel	mees	l		S	sg ad
Peet	Peet	0		H	sg n
    	peet	0		S	sg n
Holtsmannil	####				
enne	enne	0		D	
    	enne	0		K	
    	enne	0		S	sg n
raha	raha	0		S	sg g
    	raha	0		S	sg n
    	raha	0		S	sg p
ei	ei	0		D	
  	ei	0		V	neg
olevat	ole	vat		V	vat
      	olev	t		A	sg p
      	olev	t		S	sg p
olnud	ol=nud	0		A	
     	ol=nud	0		A	sg n
     	ol=nud	d		A	pl n
     	ole	nud		V	nud
     	olnu	d		S	pl n
.	.			Z	
peale	pea	le		S	sg all
     	peale	0		D	
     	peale	0		K	
tema	tema	0		P	sg g
    	tema	0		P	sg n
raha	raha	0		S	sg g
    	raha	0		S	sg n
    	raha	0		S	sg p
ärakadumise	ära_kadumine	0		S	sg g
olla	ole	a		V	da
see	see	0		P	sg n
6	6	0		N	?
sedvärki	####				
kaeru	kaer	u		S	pl p
ostnud	ost	nud		V	nud
      	ost=nu	d		S	pl n
      	ost=nud	0		A	
      	ost=nud	0		A	sg n
      	ost=nud	d		A	pl n
ja	ja	0		J	
raha	raha	0		S	sg g
    	raha	0		S	sg n
    	raha	0		S	sg p
välja	välja	0		D	
     	välja	0		V	o
     	väli	0		S	adt
     	väli	0		S	sg g
     	väli	0		S	sg p
maksnud	maks	nud		V	nud
       	maks=nu	d		S	pl n
       	maks=nud	0		A	
       	maks=nud	0		A	sg n
       	maks=nud	d		A	pl n
.	.			Z	
Reet	Reet	0		H	sg n
Holtsmann	####				
ütleb	ütle	b		V	b
,	,			Z	
et	et	0		J	
tema	tema	0		P	sg g
    	tema	0		P	sg n
mees	mees	0		S	sg n
    	mesi	s		S	sg in
oma	oma	0		A	sg g
   	oma	0		D	
   	oma	0		P	sg g
   	oma	0		S	sg g
   	oma	0		V	o
   	oma	0		A	sg n
   	oma	0		A	sg p
   	oma	0		P	sg n
   	oma	0		P	sg p
   	oma	0		S	sg n
   	oma	0		S	sg p
venna	vend	0		S	sg g
käest	käest	0		K	
     	käsi	st		S	sg el
50	50	0		N	?
rubla	rubla	0		S	sg g
     	rubla	0		S	sg n
     	rubla	0		S	sg p
võlgarah	####				
kätte	kätte	0		K	
     	käsi	tte		S	adt
saanud	saa	nud		V	nud
      	saa=nud	0		A	
      	saa=nud	0		A	sg n
      	saa=nud	d		A	pl n
      	saanu	d		S	pl n
olla	ole	a		V	da
.	.			Z	
Kästi	käski	ti		V	ti
:	:			Z	
seda	see	da		P	sg p
kirja	kirja	0		A	
     	kirja	0		V	o
     	kiri	0		S	adt
     	kiri	0		S	sg g
     	kiri	0		S	sg p
pannud	pan=nu	d		S	pl n
      	pan=nud	0		A	
      	pan=nud	0		A	sg n
      	pan=nud	d		A	pl n
      	pane	nud		V	nud
ja	ja	0		J	
protokoli	####				
ärakiri	ära_kiri	0		S	sg n
keiserliku	keiserlik	0		A	sg g
Villandi	vill_and	0		S	adt
        	vill_and	0		S	sg p
Sillakohtule	silla_kohus	le		S	sg all
pikemaks	pikem	ks		C	sg tr
ülekuulamiseks	üle_kuulamine	ks		S	sg tr
sisse	siss	e		S	pl p
     	sisse	0		D	
     	sisse	0		K	
saada	saa	da		V	da
     	saat	0		V	o
     	saa	da		V	ta
.	.			Z	
