nekrut	nekrut	0		S	sg n
Ainn	####				
Saarts	####				
andis	and	is		V	s
ülles	####				
,	,			Z	
et	et	0		J	
temal	tema	l		P	sg ad
pärida	päri	da		V	da
olla	ole	a		V	da
Mihkel	Mihkel	0		H	sg n
      	mihkel	0		A	sg n
      	mihkel	0		S	sg n
Vihmanilt	####				
1	1	0		N	?
rubl	####				
50	50	0		N	?
kop	kop	0		Y	?
Kusa	####				
Jüri	Jüri	0		H	sg g
    	Jüri	0		H	sg n
Prinsi	####				
käest	käest	0		K	
     	käsi	st		S	sg el
3	3	0		N	?
""""	""""			Z	
31	31	0		N	?
""""	""""			Z	
ja	ja	0		J	
palus	palu	s		S	sg in
     	palu	s		V	s
,	,			Z	
et	et	0		J	
see	see	0		P	sg n
võlg	võlg	0		S	sg n
temale	tema	le		P	sg all
saaks	saa	ks		V	ks
sisse	siss	e		S	pl p
     	sisse	0		D	
     	sisse	0		K	
nõutud	nõu=tu	d		S	pl n
      	nõu=tud	0		A	
      	nõu=tud	0		A	sg n
      	nõu=tud	d		A	pl n
      	nõud	tud		V	tud
      	nõutu	d		A	pl n
.	.			Z	
mõistis	mõist	is		V	s
kohus	kohu	s		V	s
     	kohus	0		S	sg n
:	:			Z	
seda	see	da		P	sg p
protokolli	protokoll	0		S	adt
          	protokoll	0		S	sg g
          	protokolli	0		V	o
          	protokoll	0		S	sg p
maha	maha	0		D	
kirjutada	kirjuta	da		V	da
.	.			Z	
