Kääbab	####				
mõisavalitsuse	mõisa_valitsus	0		S	sg g
nimel	nimel	0		K	
     	nimi	l		S	sg ad
Peeter	Peeter	0		H	sg n
kind	####				
:	:			Z	
kohtuotsuse	kohtu_otsus	0		S	sg g
järele	järele	0		D	
      	järele	0		K	
pidanud	pida	nud		V	nud
       	pida=nu	d		S	pl n
       	pida=nud	0		A	
       	pida=nud	0		A	sg n
       	pida=nud	d		A	pl n
Peeter	Peeter	0		H	sg n
Aus	au	s		S	sg in
   	aus	0		A	sg n
aja	aeg	0		S	sg g
   	aja	0		V	o
ja	ja	0		J	
katuse	katus	0		S	sg g
ära	ära	0		D	
   	ära	0		V	neg o
pärama	####				
.	.			Z	
mõisa	mõis	0		S	sg g
olla	ole	a		V	da
materiali	####				
juure	juur	0		S	sg g
viinud	vii	nud		V	nud
      	vii=nu	d		S	pl n
      	vii=nud	0		A	
      	vii=nud	0		A	sg n
      	vii=nud	d		A	pl n
,	,			Z	
Aus	au	s		S	sg in
   	aus	0		A	sg n
ei	ei	0		D	
  	ei	0		V	neg
hoole	hoog	le		S	sg all
     	hool	0		S	sg g
     	hoole	0		S	sg n
aga	aga	0		J	
midagi	miski	dagi		P	sg p
parandanud	paranda	nud		V	nud
          	paranda=nu	d		S	pl n
          	paranda=nud	0		A	
          	paranda=nud	0		A	sg n
          	paranda=nud	d		A	pl n
ja	ja	0		J	
pidanud	pida	nud		V	nud
       	pida=nu	d		S	pl n
       	pida=nud	0		A	
       	pida=nud	0		A	sg n
       	pida=nud	d		A	pl n
mõisa	mõis	0		S	sg g
seda	see	da		P	sg p
issi	issi	0		S	sg g
    	issi	0		S	sg n
tegema	tege	ma		V	ma
.	.			Z	
nõuda	nõud	a		V	da
3	3	0		N	?
rubla	rubla	0		S	sg g
     	rubla	0		S	sg n
     	rubla	0		S	sg p
ja	ja	0		J	
paluda	palu	da		V	da
välja	välja	0		D	
     	välja	0		V	o
     	väli	0		S	adt
     	väli	0		S	sg g
     	väli	0		S	sg p
mõista	mõist	0		V	o
      	mõist	a		V	da
.	.			Z	
Peeter	Peeter	0		H	sg n
Aus	au	s		S	sg in
   	aus	0		A	sg n
ei	ei	0		D	
  	ei	0		V	neg
saa	saa	0		V	o
oma	oma	0		A	sg g
   	oma	0		D	
   	oma	0		P	sg g
   	oma	0		S	sg g
   	oma	0		V	o
   	oma	0		A	sg n
   	oma	0		A	sg p
   	oma	0		P	sg n
   	oma	0		P	sg p
   	oma	0		S	sg n
   	oma	0		S	sg p
vabandamiseks	vabandamine	ks		S	sg tr
midagi	miski	dagi		P	sg p
ette	ette	0		D	
    	ette	0		K	
    	esi	tte		S	adt
tuua	too	a		V	da
.	.			Z	
otsus	otsus	0		S	sg n
:	:			Z	
et	et	0		J	
Peeter	Peeter	0		H	sg n
Aus	au	s		S	sg in
   	aus	0		A	sg n
tõt	####				
tegematu	tege=matu	0		A	sg g
        	tege=matu	0		A	sg n
jätnud	jät	nud		V	nud
      	jät=nu	d		S	pl n
      	jät=nud	0		A	
      	jät=nud	0		A	sg n
      	jät=nud	d		A	pl n
peab	pida	b		V	b
tema	tema	0		P	sg g
    	tema	0		P	sg n
8	8	0		N	?
päeva	päev	0		S	adt
     	päev	0		S	sg g
     	päev	0		S	sg p
sees	sees	0		D	
    	sees	0		K	
mõisa	mõis	0		S	sg g
valitsusele	valitsus	le		S	sg all
3	3	0		N	?
rubla	rubla	0		S	sg g
     	rubla	0		S	sg n
     	rubla	0		S	sg p
välja	välja	0		D	
     	välja	0		V	o
     	väli	0		S	adt
     	väli	0		S	sg g
     	väli	0		S	sg p
maksma	maks	ma		V	ma
.	.			Z	
otsus	otsus	0		S	sg n
sai	saa	i		V	s
   	sai	0		S	sg n
kuulutatud	kuuluta	tud		V	tud
          	kuuluta=tu	d		S	pl n
          	kuuluta=tud	0		A	
          	kuuluta=tud	0		A	sg n
          	kuuluta=tud	d		A	pl n
.	.			Z	
