astus	astu	s		V	s
ette	ette	0		D	
    	ette	0		K	
    	esi	tte		S	adt
Sindi	Sindi	0		H	sg g
     	Sindi	0		H	sg n
Pustuski	pus=tu	s	ki	S	sg in
        	pus=tus	0	ki	S	sg n
mõisa	mõis	0		S	sg g
rentnik	rentnik	0		S	sg n
Johan	Johan	0		H	sg n
Thal	####				
ja	ja	0		J	
kaebas	kaeba	s		V	s
,	,			Z	
et	et	0		J	
mõisa	mõis	0		S	sg g
sulane	sulane	0		S	sg n
      	sulane	0		V	o
Karl	Karl	0		H	sg n
Hendrekson	####				
hooletuse	hooletus	0		S	sg g
läbi	läbi	0		D	
    	läbi	0		K	
    	läbi	0		V	o
sügisel	sügis	l		S	sg ad
2	2	0		N	?
1	1	0		N	?
/	/			Z	
2	2	0		N	?
vakka	vakk	0		S	adt
     	vakk	0		S	sg p
     	vakka	0		D	
odre	####				
maha	maha	0		D	
jooksta	jooks	ta		V	da
       	jooks	ta		V	ta
lasknud	lask	nud		V	nud
       	lask=nu	d		S	pl n
       	lask=nud	0		A	
       	lask=nud	0		A	sg n
       	lask=nud	d		A	pl n
,	,			Z	
tee	tee	0		S	sg g
   	tege	0		V	o
   	tee	0		S	sg n
peal	pea	l		S	sg ad
    	peal	0		D	
    	peal	0		K	
ja	ja	0		J	
nõuab	nõud	b		V	b
tema	tema	0		P	sg g
    	tema	0		P	sg n
ooma	####				
kahju	kahi	0		S	adt
     	kahi	0		S	sg g
     	kahi	0		S	sg p
     	kahju	0		S	sg g
     	kahju	0		S	sg n
     	kahju	0		S	sg p
tasumist	tasumine	t		S	sg p
6	6	0		N	?
rubla	rubla	0		S	sg g
     	rubla	0		S	sg n
     	rubla	0		S	sg p
.	.			Z	
astus	astu	s		V	s
ette	ette	0		D	
    	ette	0		K	
    	esi	tte		S	adt
Karl	Karl	0		H	sg n
Hendrekson	####				
ja	ja	0		J	
ütles	ütle	s		V	s
selle	see	0		P	sg g
     	sell	e		S	pl p
tõsi	tõsi	0		S	pl p
    	tõsi	0		S	sg n
olevat	ole	vat		V	vat
      	olev	t		A	sg p
      	olev	t		S	sg p
,	,			Z	
et	et	0		J	
kogemata	koge	mata		V	mata
        	koge=mata	0		A	
        	kogemata	0		D	
kotti	kott	0		S	adt
     	kotti	0		D	
     	kott	i		S	pl p
     	kott	0		S	sg p
suu	suu	0		S	sg g
   	suu	0		S	sg n
vankri	vanker	0		S	sg g
peal	pea	l		S	sg ad
    	peal	0		D	
    	peal	0		K	
lahti	laht	i		S	pl p
     	lahti	0		D	
läinud	läinu	d		S	pl n
      	läinud	0		A	
      	läinud	0		A	sg n
      	läinud	d		A	pl n
      	mine	nud		V	nud
ja	ja	0		J	
odre	####				
maha	maha	0		D	
jooksnud	jooks	nud		V	nud
        	jooks=nu	d		S	pl n
        	jooks=nud	0		A	
        	jooks=nud	0		A	sg n
        	jooks=nud	d		A	pl n
.	.			Z	
Sai	saa	i		V	s
   	sai	0		S	sg n
mõistetud	mõist	tud		V	tud
         	mõiste=tu	d		S	pl n
         	mõiste=tud	0		A	
         	mõiste=tud	0		A	sg n
         	mõiste=tud	d		A	pl n
:	:			Z	
Karl	Karl	0		H	sg n
Hendrekson	####				
maksab	maks	b		V	b
8	8	0		N	?
päeva	päev	0		S	adt
     	päev	0		S	sg g
     	päev	0		S	sg p
aia	aed	0		S	sg g
sees	sees	0		D	
    	sees	0		K	
rentnik	rentnik	0		S	sg n
Joh	####				
.	.			Z	
Thalile	####				
3	3	0		N	?
rubla	rubla	0		S	sg g
     	rubla	0		S	sg n
     	rubla	0		S	sg p
kahju	kahi	0		S	adt
     	kahi	0		S	sg g
     	kahi	0		S	sg p
     	kahju	0		S	sg g
     	kahju	0		S	sg n
     	kahju	0		S	sg p
tasumist	tasumine	t		S	sg p
.	.			Z	
Otsus	otsus	0		S	sg n
kuulutud	kuulu	tud		V	tud
        	kuulu=tu	d		S	pl n
        	kuulu=tud	0		A	
        	kuulu=tud	0		A	sg n
        	kuulu=tud	d		A	pl n
.	.			Z	
