Jakob	Jakob	0		H	sg n
Saardson	####				
Saugast	Sauga	st		H	sg el
kaebab	kaeba	b		V	b
,	,			Z	
et	et	0		J	
augusti	august	0		S	sg g
kuu	kuu	0		S	sg g
   	kuu	0		S	sg n
lõpul	lõpp	l		A	sg ad
     	lõpp	l		S	sg ad
on	ole	0		V	b
  	ole	0		V	vad
Mihkel	Mihkel	0		H	sg n
      	mihkel	0		A	sg n
      	mihkel	0		S	sg n
Tannebaumi	####				
ja	ja	0		J	
Hendrik	Hendrik	0		H	sg n
Tannebaumi	####				
koerad	koer	d		A	pl n
      	koer	d		S	pl n
on	ole	0		V	b
  	ole	0		V	vad
temal	tema	l		P	sg ad
kaks	kaks	0		N	sg n
lamast	####				
ära	ära	0		D	
   	ära	0		V	neg o
murdnud	murd	nud		V	nud
       	murd=nu	d		S	pl n
       	murd=nud	0		A	
       	murd=nud	0		A	sg n
       	murd=nud	d		A	pl n
ja	ja	0		J	
nõuab	nõud	b		V	b
nende	see	de		P	pl g
     	tema	de		P	pl g
eest	eest	0		D	
    	eest	0		K	
    	esi	st		S	sg el
kolm	kolm	0		N	sg n
rubla	rubla	0		S	sg g
     	rubla	0		S	sg n
     	rubla	0		S	sg p
.	.			Z	
Mihkel	Mihkel	0		H	sg n
      	mihkel	0		A	sg n
      	mihkel	0		S	sg n
Tannebaum	####				
ütleb	ütle	b		V	b
,	,			Z	
ja	ja	0		J	
Hendrik	Hendrik	0		H	sg n
Tannebaum	####				
ütlevad	ütle	vad		V	vad
       	ütlev	d		A	pl n
,	,			Z	
et	et	0		J	
nemad	tema	d		P	pl n
mitte	mitte	0		D	
ei	ei	0		D	
  	ei	0		V	neg
tea	tead	0		V	o
,	,			Z	
et	et	0		J	
nende	see	de		P	pl g
     	tema	de		P	pl g
koerad	koer	d		A	pl n
      	koer	d		S	pl n
lambaid	lammas	id		S	pl p
oleks	ole	ks		V	ks
murdnud	murd	nud		V	nud
       	murd=nu	d		S	pl n
       	murd=nud	0		A	
       	murd=nud	0		A	sg n
       	murd=nud	d		A	pl n
,	,			Z	
ega	ega	0		D	
   	ega	0		J	
seepärast	see_pärast	0		D	
ka	ka	0		D	
ruttu	rutt	0		S	adt
     	rutt	0		S	sg p
     	ruttu	0		D	
kahju	kahi	0		S	adt
     	kahi	0		S	sg g
     	kahi	0		S	sg p
     	kahju	0		S	sg g
     	kahju	0		S	sg n
     	kahju	0		S	sg p
tasumist	tasumine	t		S	sg p
ei	ei	0		D	
  	ei	0		V	neg
taha	taht	0		V	o
    	taha	0		D	
    	taha	0		K	
anda	and	a		V	da
.	.			Z	
tunnistuse	tunnistus	0		S	sg g
pärast	pära	st		S	sg el
      	pärane	t		A	sg p
      	pärast	0		D	
      	pärast	0		K	
8	8	0		N	?
Detsembri	detsember	0		S	sg g
peale	pea	le		S	sg all
     	peale	0		D	
     	peale	0		K	
jäänud	jää	nud		V	nud
      	jäänu	d		S	pl n
      	jäänud	0		A	
      	jäänud	0		A	sg n
      	jäänud	d		A	pl n
.	.			Z	
