Andres	Andre	s		H	sg in
      	Andres	0		H	sg n
Saarts	####				
ja	ja	0		J	
Jüri	Jüri	0		H	sg g
    	Jüri	0		H	sg n
Saarts	####				
leppisid	leppi	sid		V	sid
siin	siin	0		D	
    	siin	0		S	sg n
:	:			Z	
need	see	d		P	pl n
givid	####				
,	,			Z	
mis	mis	0		P	pl n
   	mis	0		P	sg n
Jüri	Jüri	0		H	sg g
    	Jüri	0		H	sg n
Saarts	####				
Andres	Andre	s		H	sg in
      	Andres	0		H	sg n
Saartsi	####				
tänavasse	tänav	sse		S	sg ill
on	ole	0		V	b
  	ole	0		V	vad
jätnud	jät	nud		V	nud
      	jät=nu	d		S	pl n
      	jät=nud	0		A	
      	jät=nud	0		A	sg n
      	jät=nud	d		A	pl n
,	,			Z	
saab	saa	b		V	b
Andres	Andre	s		H	sg in
      	Andres	0		H	sg n
Saarts	####				
oomale	####				
ja	ja	0		J	
Jüri	Jüri	0		H	sg g
    	Jüri	0		H	sg n
Saarts	####				
saab	saa	b		V	b
Mäesauna	mäe_saun	0		S	adt
        	mäe_saun	0		S	sg g
        	mäe_saun	0		S	sg p
ahju	ahi	0		S	adt
    	ahi	0		S	sg g
    	ahi	0		S	sg p
vare	vare	0		S	sg g
    	vare	0		S	sg n
givid	####				
oomale	####				
.	.			Z	
mõisteti	mõist	ti		V	ti
seda	see	da		P	sg p
protokolli	protokoll	0		S	adt
          	protokoll	0		S	sg g
          	protokolli	0		V	o
          	protokoll	0		S	sg p
maha	maha	0		D	
kirjutada	kirjuta	da		V	da
.	.			Z	
