vallavanem	valla_vanem	0		S	sg n
Hans	Hans	0		H	sg n
Lasn	####				
kaebas	kaeba	s		V	s
,	,			Z	
et	et	0		J	
Jakobi	Jakob	0		H	sg g
Peeter	Peeter	0		H	sg n
Peetermann	####				
,	,			Z	
Kurena	kurg	na		S	sg es
Hans	Hans	0		H	sg n
Rabi	rabi	0		S	sg g
    	rabi	0		S	sg n
    	rabi	0		S	sg p
,	,			Z	
Illu	####				
Peet	Peet	0		H	sg n
    	peet	0		S	sg n
ja	ja	0		J	
pere	pere	0		S	sg g
    	pere	0		S	sg n
Jüri	Jüri	0		H	sg g
    	Jüri	0		H	sg n
on	ole	0		V	b
  	ole	0		V	vad
5	5	0		N	?
Junil	####				
talinna	####				
maantee	maan_tee	0		S	sg g
       	maan_tee	0		S	sg n
peal	pea	l		S	sg ad
    	peal	0		D	
    	peal	0		K	
oomad	####				
maantee	maan_tee	0		S	sg g
       	maan_tee	0		S	sg n
kraaavid	####				
puhastamata	puhasta	mata		V	mata
           	puhasta=mata	0		A	
jätnud	jät	nud		V	nud
      	jät=nu	d		S	pl n
      	jät=nud	0		A	
      	jät=nud	0		A	sg n
      	jät=nud	d		A	pl n
ja	ja	0		J	
nuab	####				
selle	see	0		P	sg g
     	sell	e		S	pl p
töö	töö	0		S	sg g
   	töö	0		S	sg n
eest	eest	0		D	
    	eest	0		K	
    	esi	st		S	sg el
mis	mis	0		P	pl n
   	mis	0		P	sg n
sääl	####				
ära	ära	0		D	
   	ära	0		V	neg o
teha	tege	a		V	da
lasknud	lask	nud		V	nud
       	lask=nu	d		S	pl n
       	lask=nud	0		A	
       	lask=nud	0		A	sg n
       	lask=nud	d		A	pl n
iga	iga	0		P	sg g
   	iga	0		P	sg n
   	iga	0		P	sg p
   	iga	0		S	sg n
   	iga	0		S	sg p
ühelt	üks	lt		N	sg abl
     	üks	lt		P	sg abl
25	25	0		N	?
kop	kop	0		Y	?
.	.			Z	
maaksid	####				
igaüks	iga_üks	0		P	sg n
25	25	0		N	?
kop	kop	0		Y	?
.	.			Z	
