astus	astu	s		V	s
ette	ette	0		D	
    	ette	0		K	
    	esi	tte		S	adt
Võllast	võllas	st		S	sg el
       	võllas	t		S	sg p
Ain	Ain	0		H	sg n
Lipmann	####				
ja	ja	0		J	
kaebab	kaeba	b		V	b
ära	ära	0		D	
   	ära	0		V	neg o
surnud	surnu	d		S	pl n
      	surnud	0		A	
      	surnud	0		A	sg n
      	surnud	d		A	pl n
      	sure	nud		V	nud
Tiidu	Tiit	0		H	sg g
Aadu	Aadu	0		H	sg g
    	Aadu	0		H	sg n
Kuuske	kuusk	0		S	adt
      	kuusk	0		S	sg p
käemeeste	käe_mees	te		S	pl g
Jüri	Jüri	0		H	sg g
    	Jüri	0		H	sg n
Peterson	Peterson	0		H	sg n
ja	ja	0		J	
Jüri	Jüri	0		H	sg g
    	Jüri	0		H	sg n
Toominga	Tooming	0		H	sg g
        	toomingas	0		S	sg g
peale	pea	le		S	sg all
     	peale	0		D	
     	peale	0		K	
,	,			Z	
et	et	0		J	
need	see	d		P	pl n
teda	tema	da		P	sg p
säalt	####				
Tiiidu	####				
Aaadu	####				
Kuuske	kuusk	0		S	adt
      	kuusk	0		S	sg p
talust	talu	st		S	sg el
ära	ära	0		D	
   	ära	0		V	neg o
ajavad	aja	vad		V	vad
      	ajav	d		A	pl n
,	,			Z	
et	et	0		J	
tema	tema	0		P	sg g
    	tema	0		P	sg n
kuul	kuu	l		S	sg ad
    	kuul	0		S	sg n
kahe	kaks	0		N	sg g
aasta	aasta	0		S	sg g
     	aasta	0		S	sg n
eest	eest	0		D	
    	eest	0		K	
    	esi	st		S	sg el
on	ole	0		V	b
  	ole	0		V	vad
sinna	sinna	0		D	
taluse	####				
rentnikuks	rentnik	ks		S	sg tr
akanud	####				
ja	ja	0		J	
pikand	####				
mitto	####				
veel	veel	0		D	
    	vesi	l		S	sg ad
sääl	####				
rentnik	rentnik	0		S	sg n
olema	ole	ma		V	ma
aga	aga	0		J	
nüüd	nüüd	0		D	
on	ole	0		V	b
  	ole	0		V	vad
Päremees	####				
ära	ära	0		D	
   	ära	0		V	neg o
surnud	surnu	d		S	pl n
      	surnud	0		A	
      	surnud	0		A	sg n
      	surnud	d		A	pl n
      	sure	nud		V	nud
ja	ja	0		J	
nende	see	de		P	pl g
     	tema	de		P	pl g
laste	laps	te		S	pl g
     	last	e		S	pl p
poolt	pool	t		N	sg p
     	pool	t		S	sg p
     	poolt	0		D	
     	poolt	0		K	
Vöörmündrit	vöörmünder	t		S	sg p
ajavat	aja	vat		V	vat
      	ajav	t		A	sg p
teda	tema	da		P	sg p
see	see	0		P	sg n
Jüri	Jüri	0		H	sg g
    	Jüri	0		H	sg n
päevast	päev	st		S	sg el
       	päevane	t		A	sg p
ära	ära	0		D	
   	ära	0		V	neg o
,	,			Z	
nõuab	nõud	b		V	b
aga	aga	0		J	
selle	see	0		P	sg g
     	sell	e		S	pl p
aja	aeg	0		S	sg g
   	aja	0		V	o
sees	sees	0		D	
    	sees	0		K	
sest	see	st		P	sg el
    	sest	0		J	
ülles	####				
tehtud	tehtu	d		S	pl n
      	tehtud	0		A	
      	tehtud	0		A	sg n
      	tehtud	d		A	pl n
      	tege	tud		V	tud
ühe	üks	0		N	sg g
   	üks	0		P	sg g
   	ühe	0		S	sg n
uue	uus	0		A	sg g
vakkama	####				
maa	maa	0		S	sg g
   	maa	0		S	sg n
eest	eest	0		D	
    	eest	0		K	
    	esi	st		S	sg el
12	12	0		N	?
rubla	rubla	0		S	sg g
     	rubla	0		S	sg n
     	rubla	0		S	sg p
raiumise	raiumine	0		S	sg g
eest	eest	0		D	
    	eest	0		K	
    	esi	st		S	sg el
ja	ja	0		J	
3	3	0		N	?
rubla	rubla	0		S	sg g
     	rubla	0		S	sg n
     	rubla	0		S	sg p
põletamise	põletamine	0		S	sg g
eest	eest	0		D	
    	eest	0		K	
    	esi	st		S	sg el
.	.			Z	
kutsuti	kutsu	ti		V	ti
ette	ette	0		D	
    	ette	0		K	
    	esi	tte		S	adt
lese	lesk	0		S	sg g
Liisu	liisk	0		S	sg g
     	liisu	0		V	o
Kuuske	kuusk	0		S	adt
      	kuusk	0		S	sg p
Vöörmündeid	####				
Jüri	Jüri	0		H	sg g
    	Jüri	0		H	sg n
Piirson	####				
ja	ja	0		J	
Jüri	Jüri	0		H	sg g
    	Jüri	0		H	sg n
Toomingas	Tooming	s		H	sg in
         	toomingas	0		S	sg n
         	toomingas	s		S	sg in
ja	ja	0		J	
ütlevad	ütle	vad		V	vad
       	ütlev	d		A	pl n
,	,			Z	
et	et	0		J	
see	see	0		P	sg n
Ain	Ain	0		H	sg n
Lipmann	####				
on	ole	0		V	b
  	ole	0		V	vad
ühe	üks	0		N	sg g
   	üks	0		P	sg g
   	ühe	0		S	sg n
vilja	vili	0		S	adt
     	vili	0		S	sg g
     	vili	0		S	sg p
juba	juba	0		D	
kätte	kätte	0		K	
     	käsi	tte		S	adt
saanud	saa	nud		V	nud
      	saa=nud	0		A	
      	saa=nud	0		A	sg n
      	saa=nud	d		A	pl n
      	saanu	d		S	pl n
sest	see	st		P	sg el
    	sest	0		J	
uuest	uus	st		A	sg el
maast	maa	st		S	sg el
ka	ka	0		D	
6	6	0		N	?
vakka	vakk	0		S	adt
     	vakk	0		S	sg p
     	vakka	0		D	
otri	oder	i		S	pl p
,	,			Z	
sellepärast	selle_pärast	0		D	
Sai	saa	i		V	s
   	sai	0		S	sg n
mõistetud	mõist	tud		V	tud
         	mõiste=tu	d		S	pl n
         	mõiste=tud	0		A	
         	mõiste=tud	0		A	sg n
         	mõiste=tud	d		A	pl n
:	:			Z	
et	et	0		J	
selle	see	0		P	sg g
     	sell	e		S	pl p
Ain	Ain	0		H	sg n
Lipmannil	####				
poole	pool	0		N	sg g
     	pool	0		S	sg g
     	pool	e		S	pl p
     	poole	0		K	
     	poole	0		S	sg n
ühtigi	ühtigi	0		D	
kontrakti	####				
kohtu	kohtu	0		V	o
     	kohus	0		S	sg g
juuures	####				
maha	maha	0		D	
tehtud	tehtu	d		S	pl n
      	tehtud	0		A	
      	tehtud	0		A	sg n
      	tehtud	d		A	pl n
      	tege	tud		V	tud
ja	ja	0		J	
kinnitud	kinnitu	d		V	d
ei	ei	0		D	
  	ei	0		V	neg
siit	siit	0		D	
valla	vald	0		S	sg g
     	valla	0		D	
kohtust	kohtune	t		A	sg p
       	kohus	st		S	sg el
ega	ega	0		D	
   	ega	0		J	
ka	ka	0		D	
kihelkonnast	kihelkond	st		S	sg el
siis	siis	0		D	
    	siis	0		J	
ei	ei	0		D	
  	ei	0		V	neg
või	või	0		S	sg g
   	või	0		V	o
   	või	0		D	
   	või	0		J	
   	või	0		S	sg n
siit	siit	0		D	
kohus	kohu	s		V	s
     	kohus	0		S	sg n
ühtigi	ühtigi	0		D	
kahju	kahi	0		S	adt
     	kahi	0		S	sg g
     	kahi	0		S	sg p
     	kahju	0		S	sg g
     	kahju	0		S	sg n
     	kahju	0		S	sg p
tasumist	tasumine	t		S	sg p
Ain	Ain	0		H	sg n
Lipmannile	####				
Tiiidu	####				
tallust	tallus	t		S	sg p
maksta	maks	ta		V	da
      	maks	ta		V	ta
mõista	mõist	0		V	o
      	mõist	a		V	da
,	,			Z	
et	et	0		J	
surm	surm	0		S	sg n
on	ole	0		V	b
  	ole	0		V	vad
kõik	kõik	0		P	pl n
    	kõik	0		S	sg n
    	kõik	0		P	sg n
kontraktit	####				
katki	katki	0		D	
murdnud	murd	nud		V	nud
       	murd=nu	d		S	pl n
       	murd=nud	0		A	
       	murd=nud	0		A	sg n
       	murd=nud	d		A	pl n
,	,			Z	
lesk	lesk	0		S	sg n
Liiisu	####				
nõuab	nõud	b		V	b
seda	see	da		P	sg p
,	,			Z	
et	et	0		J	
see	see	0		P	sg n
Ain	Ain	0		H	sg n
Lipmann	####				
võib	või	b		V	b
tuleva	tulev	0		A	sg g
nädali	####				
ära	ära	0		D	
   	ära	0		V	neg o
minna	mine	a		V	da
ja	ja	0		J	
jääb	jää	b		V	b
siis	siis	0		D	
    	siis	0		J	
üksi	üksi	0		D	
sinna	sinna	0		D	
majasse	maja	sse		S	sg ill
Apelatsioni	####				
vormalises	####				
ette	ette	0		D	
    	ette	0		K	
    	esi	tte		S	adt
kuulutud	kuulu	tud		V	tud
        	kuulu=tu	d		S	pl n
        	kuulu=tud	0		A	
        	kuulu=tud	0		A	sg n
        	kuulu=tud	d		A	pl n
ja	ja	0		J	
kõik	kõik	0		P	pl n
    	kõik	0		S	sg n
    	kõik	0		P	sg n
olid	ole	id		V	sid
sellega	see	ga		P	sg kom
rahul	rahu	l		S	sg ad
     	rahul	0		D	
.	.			Z	
pea	pea	0		D	
   	pea	0		S	sg g
   	pida	0		V	o
   	pea	0		S	sg n
kohtumees	kohtu_mees	0		S	sg n
:	:			Z	
Karl	Karl	0		H	sg n
Allikivi	####				
XXX	XXX	0		O	?
   	XXX	0		Y	?
kohtumees	kohtu_mees	0		S	sg n
Thomas	Thomas	0		H	sg n
Saart	saar	t		S	sg p
XXX	XXX	0		O	?
   	XXX	0		Y	?
""""	""""			Z	
Thomas	Thomas	0		H	sg n
Soomann	soo_mann	0		S	sg n
XXX	XXX	0		O	?
   	XXX	0		Y	?
""""	""""			Z	
Jaan	Jaan	0		H	sg n
    	jaan	0		S	sg n
    	jaan	0		Y	?
Suurevälja	suure_väli	0		S	adt
          	suure_väli	0		S	sg g
          	suure_väli	0		S	sg p
XXX	XXX	0		O	?
   	XXX	0		Y	?
kirjutaja	kirjutaja	0		S	sg g
         	kirjutaja	0		S	sg n
JSimonson	####				
