Hans	Hans	0		H	sg n
Kassik	####				
maksab	maks	b		V	b
Ann	Ann	0		H	sg n
Ilbakule	####				
½	####				
vakka	vakk	0		S	adt
     	vakk	0		S	sg p
     	vakka	0		D	
rukkid	rukis	d		S	pl n
ning	ning	0		J	
½	####				
vakka	vakk	0		S	adt
     	vakk	0		S	sg p
     	vakka	0		D	
otre	####				
.	.			Z	
_	_			Z	
