kaebas	kaeba	s		V	s
Hans	Hans	0		H	sg n
Peterson	Peterson	0		H	sg n
,	,			Z	
et	et	0		J	
tema	tema	0		P	sg g
    	tema	0		P	sg n
olla	ole	a		V	da
kevadi	####				
omale	oma	le		A	sg all
     	oma	le		P	sg all
     	oma	le		S	sg all
tütriku	####				
Mari	Mari	0		H	sg g
    	mari	0		S	sg g
    	mari	0		S	sg n
    	Mari	0		H	sg n
    	mari	0		S	sg p
ruuli	####				
aasta	aasta	0		S	sg g
     	aasta	0		S	sg n
peale	pea	le		S	sg all
     	peale	0		D	
     	peale	0		K	
rentinud	renti	nud		V	nud
        	renti=nu	d		S	pl n
        	renti=nud	0		A	
        	renti=nud	0		A	sg n
        	renti=nud	d		A	pl n
ja	ja	0		J	
nüie	####				
ei	ei	0		D	
  	ei	0		V	neg
tulla	tule	a		V	da
tema	tema	0		P	sg g
    	tema	0		P	sg n
teinistuse	####				
,	,			Z	
-	-			Z	
tahab	taht	b		V	b
et	et	0		J	
kohus	kohu	s		V	s
     	kohus	0		S	sg n
teda	tema	da		P	sg p
sunniks	sund	ks		S	sg tr
       	sundi	ks		V	ks
.	.			Z	
Mari	Mari	0		H	sg g
    	mari	0		S	sg g
    	mari	0		S	sg n
    	Mari	0		H	sg n
    	mari	0		S	sg p
ruul	####				
vastas	vasta	s		V	s
      	vastas	0		D	
      	vastas	0		K	
küsimise	küsimine	0		S	sg g
peale	pea	le		S	sg all
     	peale	0		D	
     	peale	0		K	
:	:			Z	
tema	tema	0		P	sg g
    	tema	0		P	sg n
ei	ei	0		D	
  	ei	0		V	neg
minna	mine	a		V	da
mitte	mitte	0		D	
Hans	Hans	0		H	sg n
Petersoni	Peterson	0		H	adt
         	Peterson	0		H	sg g
         	Peterson	0		H	sg p
teenima	teeni	ma		V	ma
,	,			Z	
selle	see	0		P	sg g
     	sell	e		S	pl p
pärast	pära	st		S	sg el
      	pärane	t		A	sg p
      	pärast	0		D	
      	pärast	0		K	
et	et	0		J	
ei	ei	0		D	
  	ei	0		V	neg
olla	ole	a		V	da
mitte	mitte	0		D	
teda	tema	da		P	sg p
kevadi	####				
vastu	vastu	0		D	
     	vastu	0		K	
võtnud	võt	nud		V	nud
      	võt=nu	d		S	pl n
      	võt=nud	0		A	
      	võt=nud	0		A	sg n
      	võt=nud	d		A	pl n
,	,			Z	
sest	see	st		P	sg el
    	sest	0		J	
olla	ole	a		V	da
kevadi	####				
2	2	0		N	?
korda	kord	0		S	adt
     	korda	0		V	o
     	kord	0		S	sg p
käinud	käi	nud		V	nud
      	käi=nud	0		A	
      	käi=nud	0		A	sg n
      	käi=nud	d		A	pl n
      	käinu	d		S	pl n
pakumas	####				
ja	ja	0		J	
siis	siis	0		D	
    	siis	0		J	
teinud	tege	nud		V	nud
      	tei=nud	0		A	
      	tei=nud	0		A	sg n
      	tei=nud	d		A	pl n
      	teinu	d		S	pl n
teda	tema	da		P	sg p
kaebaja	kaebaja	0		S	sg g
       	kaebaja	0		S	sg n
omast	oma	st		A	sg el
     	oma	st		P	sg el
     	oma	st		S	sg el
     	omane	t		A	sg p
raha	raha	0		S	sg g
    	raha	0		S	sg n
    	raha	0		S	sg p
.	.			Z	
selle	see	0		P	sg g
     	sell	e		S	pl p
peale	pea	le		S	sg all
     	peale	0		D	
     	peale	0		K	
ütles	ütle	s		V	s
Hans	Hans	0		H	sg n
Peterson	Peterson	0		H	sg n
,	,			Z	
et	et	0		J	
tüdrik	####				
olla	ole	a		V	da
ennast	ise	t		P	sg p
küll	küll	0		D	
    	küll	0		S	sg n
pakunud	####				
,	,			Z	
aga	aga	0		J	
vastanud	vasta	nud		V	nud
        	vasta=nud	0		A	
        	vasta=nud	0		A	sg n
        	vasta=nud	d		A	pl n
        	vastanu	d		S	pl n
,	,			Z	
et	et	0		J	
peab	pida	b		V	b
Jüri	Jüri	0		H	sg g
    	Jüri	0		H	sg n
päeva	päev	0		S	adt
     	päev	0		S	sg g
     	päev	0		S	sg p
aeg	aeg	0		S	sg n
tulema	tule	ma		V	ma
,	,			Z	
või	või	0		S	sg g
   	või	0		V	o
   	või	0		D	
   	või	0		J	
   	või	0		S	sg n
maksku	maks	ku		V	gu
tema	tema	0		P	sg g
    	tema	0		P	sg n
kaeraha	kae_raha	0		S	sg g
       	kae_raha	0		S	sg n
       	kae_raha	0		S	sg p
ära	ära	0		D	
   	ära	0		V	neg o
,	,			Z	
siis	siis	0		D	
    	siis	0		J	
võib	või	b		V	b
lahti	laht	i		S	pl p
     	lahti	0		D	
saada	saa	da		V	da
     	saat	0		V	o
     	saa	da		V	ta
.	.			Z	
talitaja	talitaja	0		S	sg g
        	talitaja	0		S	sg n
Jaan	Jaan	0		H	sg n
    	jaan	0		S	sg n
    	jaan	0		Y	?
Kurm	####				
ütles	ütle	s		V	s
,	,			Z	
et	et	0		J	
enne	enne	0		D	
    	enne	0		K	
    	enne	0		S	sg n
Jüri	Jüri	0		H	sg g
    	Jüri	0		H	sg n
päeva	päev	0		S	adt
     	päev	0		S	sg g
     	päev	0		S	sg p
olla	ole	a		V	da
Mari	Mari	0		H	sg g
    	mari	0		S	sg g
    	mari	0		S	sg n
    	Mari	0		H	sg n
    	mari	0		S	sg p
ruul	####				
tema	tema	0		P	sg g
    	tema	0		P	sg n
juures	juur	s		S	sg in
      	juures	0		D	
      	juures	0		K	
käinud	käi	nud		V	nud
      	käi=nud	0		A	
      	käi=nud	0		A	sg n
      	käi=nud	d		A	pl n
      	käinu	d		S	pl n
ja	ja	0		J	
kaebanud	####				
,	,			Z	
et	et	0		J	
vana	vana	0		A	sg g
    	vana	0		A	sg n
    	vana	0		A	sg p
    	vana	0		S	sg g
    	vana	0		S	sg n
    	vana	0		S	sg p
peremees	pere_mees	0		S	sg n
lasknud	lask	nud		V	nud
       	lask=nu	d		S	pl n
       	lask=nud	0		A	
       	lask=nud	0		A	sg n
       	lask=nud	d		A	pl n
lahti	laht	i		S	pl p
     	lahti	0		D	
ja	ja	0		J	
uus	uus	0		A	sg n
ei	ei	0		D	
  	ei	0		V	neg
võta	võt	0		V	o
,	,			Z	
mis	mis	0		P	pl n
   	mis	0		P	sg n
peab	pida	b		V	b
nüid	####				
tegema	tege	ma		V	ma
,	,			Z	
-	-			Z	
sellepärast	selle_pärast	0		D	
keelnud	####				
käeraha	käe_raha	0		S	sg g
       	käe_raha	0		S	sg n
       	käe_raha	0		S	sg p
tagasi	tagasi	0		D	
      	tagasi	0		K	
andmast	and	mast		V	mast
.	.			Z	
Mari	Mari	0		H	sg g
    	mari	0		S	sg g
    	mari	0		S	sg n
    	Mari	0		H	sg n
    	mari	0		S	sg p
ruul	####				
seisis	seis	is		V	s
selle	see	0		P	sg g
     	sell	e		S	pl p
peale	pea	le		S	sg all
     	peale	0		D	
     	peale	0		K	
,	,			Z	
et	et	0		J	
ei	ei	0		D	
  	ei	0		V	neg
olla	ole	a		V	da
Jüri	Jüri	0		H	sg g
    	Jüri	0		H	sg n
päeva	päev	0		S	adt
     	päev	0		S	sg g
     	päev	0		S	sg p
aegas	####				
Hans	Hans	0		H	sg n
Peterson	Peterson	0		H	sg n
temale	tema	le		P	sg all
järele	järele	0		D	
      	järele	0		K	
saatnud	saat	nud		V	nud
       	saat=nu	d		S	pl n
       	saat=nud	0		A	
       	saat=nud	0		A	sg n
       	saat=nud	d		A	pl n
,	,			Z	
kuida	####				
kaup	kaup	0		S	sg n
olnud	ol=nud	0		A	
     	ol=nud	0		A	sg n
     	ol=nud	d		A	pl n
     	ole	nud		V	nud
     	olnu	d		S	pl n
.	.			Z	
tunnistuse	tunnistus	0		S	sg g
ei	ei	0		D	
  	ei	0		V	neg
ole	ole	0		V	o
kumkilt	####				
poolt	pool	t		N	sg p
     	pool	t		S	sg p
     	poolt	0		D	
     	poolt	0		K	
.	.			Z	
Arvati	arva	ti		V	ti
kõige	kõik	0		P	sg g
     	kõige	0		D	
haledega	####				
:	:			Z	
et	et	0		J	
Mari	Mari	0		H	sg g
    	mari	0		S	sg g
    	mari	0		S	sg n
    	Mari	0		H	sg n
    	mari	0		S	sg p
ruul	####				
läheb	mine	b		V	b
uie	####				
peremehe	pere_mees	0		S	sg g
Hans	Hans	0		H	sg n
Personi	####				
juure	juur	0		S	sg g
teenima	teeni	ma		V	ma
ja	ja	0		J	
tema	tema	0		P	sg g
    	tema	0		P	sg n
aasta	aasta	0		S	sg g
     	aasta	0		S	sg n
lõppeb	lõppe	b		V	b
tuleva	tulev	0		A	sg g
aasta	aasta	0		S	sg g
     	aasta	0		S	sg n
sel	see	l		P	sg ad
   	sel	0		Y	?
sama	sama	0		P	sg g
    	sama	0		P	sg n
    	sama	0		P	sg p
aeal	####				
,	,			Z	
ja	ja	0		J	
siis	siis	0		D	
    	siis	0		J	
lähab	####				
jälle	jälle	0		D	
vana	vana	0		A	sg g
    	vana	0		A	sg n
    	vana	0		A	sg p
    	vana	0		S	sg g
    	vana	0		S	sg n
    	vana	0		S	sg p
peremehe	pere_mees	0		S	sg g
juure	juur	0		S	sg g
oma	oma	0		A	sg g
   	oma	0		D	
   	oma	0		P	sg g
   	oma	0		S	sg g
   	oma	0		V	o
   	oma	0		A	sg n
   	oma	0		A	sg p
   	oma	0		P	sg n
   	oma	0		P	sg p
   	oma	0		S	sg n
   	oma	0		S	sg p
astad	####				
täis	täi	s		S	sg in
    	täi	s		V	s
    	täis	0		A	
    	täis	0		A	sg n
    	täis	0		D	
    	täis	0		S	sg n
teenima	teeni	ma		V	ma
,	,			Z	
sest	see	st		P	sg el
    	sest	0		J	
muida	####				
saab	saa	b		V	b
Mari	Mari	0		H	sg g
    	mari	0		S	sg g
    	mari	0		S	sg n
    	Mari	0		H	sg n
    	mari	0		S	sg p
ruul	####				
laia	lai	0		A	adt
    	lai	0		A	sg g
    	laia	0		V	o
    	lai	0		A	sg p
välja	välja	0		D	
     	välja	0		V	o
     	väli	0		S	adt
     	väli	0		S	sg g
     	väli	0		S	sg p
peale	pea	le		S	sg all
     	peale	0		D	
     	peale	0		K	
,	,			Z	
selle	see	0		P	sg g
     	sell	e		S	pl p
pärast	pära	st		S	sg el
      	pärane	t		A	sg p
      	pärast	0		D	
      	pärast	0		K	
,	,			Z	
et	et	0		J	
siin	siin	0		D	
    	siin	0		S	sg n
valdas	valda	s		V	s
se	####				
pruug	####				
et	et	0		J	
aasta	aasta	0		S	sg g
     	aasta	0		S	sg n
kevadi	####				
Jüri	Jüri	0		H	sg g
    	Jüri	0		H	sg n
päeva	päev	0		S	adt
     	päev	0		S	sg g
     	päev	0		S	sg p
aegas	####				
akkab	####				
.	.			Z	
selle	see	0		P	sg g
     	sell	e		S	pl p
otsusega	otsus	ga		S	sg kom
ei	ei	0		D	
  	ei	0		V	neg
olnud	ol=nud	0		A	
     	ol=nud	0		A	sg n
     	ol=nud	d		A	pl n
     	ole	nud		V	nud
     	olnu	d		S	pl n
Mari	Mari	0		H	sg g
    	mari	0		S	sg g
    	mari	0		S	sg n
    	Mari	0		H	sg n
    	mari	0		S	sg p
ruul	####				
mitte	mitte	0		D	
rahul	rahu	l		S	sg ad
     	rahul	0		D	
.	.			Z	
mõistetud	mõist	tud		V	tud
         	mõiste=tu	d		S	pl n
         	mõiste=tud	0		A	
         	mõiste=tud	0		A	sg n
         	mõiste=tud	d		A	pl n
:	:			Z	
et	et	0		J	
Mari	Mari	0		H	sg g
    	mari	0		S	sg g
    	mari	0		S	sg n
    	Mari	0		H	sg n
    	mari	0		S	sg p
ruulil	####				
apellationi	####				
välja	välja	0		D	
     	välja	0		V	o
     	väli	0		S	adt
     	väli	0		S	sg g
     	väli	0		S	sg p
anda	and	a		V	da
.	.			Z	
