Sai	saa	i		V	s
   	sai	0		S	sg n
sisse	siss	e		S	pl p
     	sisse	0		D	
     	sisse	0		K	
kutsutud	kutsu	tud		V	tud
        	kutsutu	d		S	pl n
        	kutsutud	0		A	
        	kutsutud	0		A	sg n
        	kutsutud	d		A	pl n
Jüri	Jüri	0		H	sg g
    	Jüri	0		H	sg n
Mardik	####				
kohtu	kohtu	0		V	o
     	kohus	0		S	sg g
ette	ette	0		D	
    	ette	0		K	
    	esi	tte		S	adt
,	,			Z	
ja	ja	0		J	
küsti	####				
tema	tema	0		P	sg g
    	tema	0		P	sg n
käest	käest	0		K	
     	käsi	st		S	sg el
,	,			Z	
miks	miks	0		D	
    	miks	0		S	sg n
perast	####				
tema	tema	0		P	sg g
    	tema	0		P	sg n
mõisa	mõis	0		S	sg g
valitsuse	valitsus	0		S	sg g
kässul	####				
vastu	vastu	0		D	
     	vastu	0		K	
pannud	pan=nu	d		S	pl n
      	pan=nud	0		A	
      	pan=nud	0		A	sg n
      	pan=nud	d		A	pl n
      	pane	nud		V	nud
ja	ja	0		J	
mitte	mitte	0		D	
oma	oma	0		A	sg g
   	oma	0		D	
   	oma	0		P	sg g
   	oma	0		S	sg g
   	oma	0		V	o
   	oma	0		A	sg n
   	oma	0		A	sg p
   	oma	0		P	sg n
   	oma	0		P	sg p
   	oma	0		S	sg n
   	oma	0		S	sg p
naise	naine	0		S	sg g
ja	ja	0		J	
pojaga	poeg	ga		S	sg kom
      	poja	ga		S	sg kom
mõisa	mõis	0		S	sg g
tulnud	tul=nud	0		A	
      	tul=nud	0		A	sg n
      	tul=nud	d		A	pl n
      	tule	nud		V	nud
      	tulnu	d		S	pl n
kui	kui	0		D	
   	kui	0		J	
temale	tema	le		P	sg all
kaeskidi	####				
.	.			Z	
Jüri	Jüri	0		H	sg g
    	Jüri	0		H	sg n
Mardik	####				
vastas	vasta	s		V	s
      	vastas	0		D	
      	vastas	0		K	
selle	see	0		P	sg g
     	sell	e		S	pl p
peal	pea	l		S	sg ad
    	peal	0		D	
    	peal	0		K	
et	et	0		J	
tema	tema	0		P	sg g
    	tema	0		P	sg n
oleva	olev	0		A	sg g
     	olev	0		S	sg g
essi	####				
kül	####				
mõisa	mõis	0		S	sg g
tulnud	tul=nud	0		A	
      	tul=nud	0		A	sg n
      	tul=nud	d		A	pl n
      	tule	nud		V	nud
      	tulnu	d		S	pl n
,	,			Z	
aga	aga	0		J	
naise	naine	0		S	sg g
ja	ja	0		J	
poja	poeg	0		S	sg g
    	poja	0		S	sg g
    	poja	0		S	sg n
    	poja	0		S	sg p
ta	tema	0		P	sg g
  	tema	0		P	sg n
ei	ei	0		D	
  	ei	0		V	neg
arvanud	arva	nud		V	nud
       	arva=nu	d		S	pl n
       	arva=nud	0		A	
       	arva=nud	0		A	sg n
       	arva=nud	d		A	pl n
vaja	vaja	0		D	
    	vaja	0		V	o
olla	ole	a		V	da
lige	lige	0		A	sg n
tua	####				
.	.			Z	
mõisteti	mõist	ti		V	ti
:	:			Z	
selle	see	0		P	sg g
     	sell	e		S	pl p
perast	####				
et	et	0		J	
Jüri	Jüri	0		H	sg g
    	Jüri	0		H	sg n
Mardik	####				
mõisa	mõis	0		S	sg g
käesso	####				
ei	ei	0		D	
  	ei	0		V	neg
kulnud	####				
,	,			Z	
peab	pida	b		V	b
tema	tema	0		P	sg g
    	tema	0		P	sg n
kaksNone	####				
opi	opp	0		S	sg g
vitsad	vits	d		S	pl n
saama	saa	ma		V	ma
     	saam	0		S	adt
     	saam	0		S	sg g
     	saam	0		S	sg p
.	.			Z	
