Von	####				
seiste	####				
des	####				
alt	alt	0		S	sg n
   	alt	0		D	
   	alt	0		K	
Karrishofschen	####				
kinnimiegaritsch	####				
viird	####				
auf	####				
krund	####				
des	####				
või	või	0		S	sg g
   	või	0		V	o
   	või	0		D	
   	või	0		J	
   	või	0		S	sg n
seldembrine	####				
aufenomenen	####				
Astec	####				
d	d	0		Y	?
.	.			Z	
2	2	0		N	?
April	####				
1851	1851	0		N	?
erdihchur	####				
atepiitsiti	####				
,	,			Z	
tass	tass	0		S	sg n
nii	nii	0		D	
uus	uus	0		A	sg n
m	m	0		Y	?
publ	####				
.	.			Z	
None	####				
alt	alt	0		S	sg n
   	alt	0		D	
   	alt	0		K	
Karrishof	####				
värseichteenne	####				
Bauergemeindegliider	####				
Undi	Unt	0		H	sg g
    	und	i		S	pl p
Endrik	Endrik	0		H	sg n
sabas	saba	s		S	sg in
45	45	0		N	?
Jahr	####				
alt	alt	0		S	sg n
   	alt	0		D	
   	alt	0		K	
dessin	####				
sohn	####				
Hans	Hans	0		H	sg n
26	26	0		N	?
""""	""""			Z	
""""	""""			Z	
Karl	Karl	0		H	sg n
king	king	0		S	sg n
20	20	0		N	?
""""	""""			Z	
""""	""""			Z	
Hans	Hans	0		H	sg n
Sigats	####				
22	22	0		N	?
""""	""""			Z	
""""	""""			Z	
Jaan	Jaan	0		H	sg n
    	jaan	0		S	sg n
    	jaan	0		Y	?
Kalit	####				
20	20	0		N	?
""""	""""			Z	
""""	""""			Z	
Johann	Johann	0		H	sg n
Kepnik	####				
39	39	0		N	?
""""	""""			Z	
""""	""""			Z	
Märt	Märt	0		H	sg n
Mägi	Mägi	0		H	sg g
    	mägi	0		S	sg n
    	Mägi	0		H	sg n
20	20	0		N	?
""""	""""			Z	
""""	""""			Z	
Jaan	Jaan	0		H	sg n
    	jaan	0		S	sg n
    	jaan	0		Y	?
Kepnik	####				
39	39	0		N	?
""""	""""			Z	
""""	""""			Z	
Endrik	Endrik	0		H	sg n
Ilves	ilves	0		S	sg n
47	47	0		N	?
""""	""""			Z	
""""	""""			Z	
Hans	Hans	0		H	sg n
õisar	####				
20	20	0		N	?
""""	""""			Z	
""""	""""			Z	
Jüri	Jüri	0		H	sg g
    	Jüri	0		H	sg n
Ilves	ilves	0		S	sg n
45	45	0		N	?
""""	""""			Z	
""""	""""			Z	
Jaan	Jaan	0		H	sg n
    	jaan	0		S	sg n
    	jaan	0		Y	?
õisar	####				
36	36	0		N	?
""""	""""			Z	
""""	""""			Z	
Peeter	Peeter	0		H	sg n
aastmann	####				
20	20	0		N	?
""""	""""			Z	
""""	""""			Z	
Jaak	Jaak	0		H	sg n
    	jaak	0		S	sg n
Kukk	kukk	0		S	sg n
18	18	0		N	?
""""	""""			Z	
""""	""""			Z	
Endrik	Endrik	0		H	sg n
õisar	####				
40	40	0		N	?
""""	""""			Z	
""""	""""			Z	
sich	####				
või	või	0		S	sg g
   	või	0		V	o
   	või	0		D	
   	või	0		J	
   	või	0		S	sg n
nimese	####				
kinnimiegarichti	####				
kumaldet	####				
,	,			Z	
None	####				
sich	####				
aus	au	s		S	sg in
   	aus	0		A	sg n
reifem	####				
Antreeeb	####				
None	####				
uskuvsunen	####				
,	,			Z	
sum	####				
Eintrett	####				
in	####				
nii	nii	0		D	
nach	####				
nende	see	de		P	pl g
     	tema	de		P	pl g
vestiesenud	####				
Verordonen	####				
uus	uus	0		A	sg n
oranurisende	####				
permanteen	####				
Forstnud	####				
ühn	####				
õitber	####				
lärkärt	####				
hendab	####				
;	;			Z	
nõu	nõu	0		S	sg g
   	nõu	0		S	sg n
   	nõu	0		S	sg p
auf	####				
der	####				
sannud	####				
Beetrbk	####				
der	####				
laut	laut	0		S	sg n
§	§	0		Y	?
130	130	0		N	?
des	####				
Forstusstav	####				
puustilerteen	####				
Landeriinud	####				
Anspruch	####				
uus	uus	0		A	sg n
machen	####				
;	;			Z	
sallf	####				
nii	nii	0		D	
Einvengisu	####				
selderman	####				
um	####				
volin	volin	0		S	sg n
Beetrbki	####				
unhudlich	####				
siin	siin	0		D	
    	siin	0		S	sg n
sollte	####				
,	,			Z	
sonnder	####				
minde	####				
sii	####				
sich	####				
in	####				
äresti	####				
Besigune	####				
nende	see	de		P	pl g
     	tema	de		P	pl g
hiir	hiir	0		A	sg n
    	hiir	0		S	sg n
Livland	####				
gelenukse	####				
Regulirungsprinsipinud	####				
tervunferinud	####				
.	.			Z	
alt	alt	0		S	sg n
   	alt	0		D	
   	alt	0		K	
Karrishof	####				
,	,			Z	
Kemeintegtcheri	####				
nende	see	de		P	pl g
     	tema	de		P	pl g
2.	2.	0		O	?
April	####				
1851.	1851.	0		O	?
mi	####				
minna	mine	a		V	da
des	####				
kinnimiegaritsch	####				
Peeter	Peeter	0		H	sg n
Päkon	####				
Vorsterits	####				
Jaak	Jaak	0		H	sg n
    	jaak	0		S	sg n
mingas	####				
Beisitson	####				
Johann	Johann	0		H	sg n
kõrts	kõrts	0		S	sg n
d	d	0		Y	?
.	.			Z	
