Jakob	Jakob	0		H	sg n
Frsch	####				
kaibab	####				
et	et	0		J	
Maeako	####				
Hendrek	####				
on	ole	0		V	b
  	ole	0		V	vad
salaja	salaja	0		D	
oma	oma	0		A	sg g
   	oma	0		D	
   	oma	0		P	sg g
   	oma	0		S	sg g
   	oma	0		V	o
   	oma	0		A	sg n
   	oma	0		A	sg p
   	oma	0		P	sg n
   	oma	0		P	sg p
   	oma	0		S	sg n
   	oma	0		S	sg p
mära	mära	0		S	sg g
    	mära	0		S	sg n
    	mära	0		S	sg p
lasknud	lask	nud		V	nud
       	lask=nu	d		S	pl n
       	lask=nud	0		A	
       	lask=nud	0		A	sg n
       	lask=nud	d		A	pl n
tema	tema	0		P	sg g
    	tema	0		P	sg n
karjamaale	karja_maa	le		S	sg all
tema	tema	0		P	sg g
    	tema	0		P	sg n
täku	täkk	0		S	sg g
juure	juur	0		S	sg g
via	####				
ja	ja	0		J	
on	ole	0		V	b
  	ole	0		V	vad
se	####				
mära	mära	0		S	sg g
    	mära	0		S	sg n
    	mära	0		S	sg p
tema	tema	0		P	sg g
    	tema	0		P	sg n
täku	täkk	0		S	sg g
väga	väga	0		D	
hirmsasti	hirmsasti	0		D	
ära	ära	0		D	
   	ära	0		V	neg o
raiunud	raiu	nud		V	nud
       	raiu=nu	d		S	pl n
       	raiu=nud	0		A	
       	raiu=nud	0		A	sg n
       	raiu=nud	d		A	pl n
ette	ette	0		D	
    	ette	0		K	
    	esi	tte		S	adt
tuli	tuli	0		S	sg n
    	tule	i		V	s
peremees	pere_mees	0		S	sg n
Maeako	####				
Hendrek	####				
ja	ja	0		J	
ütles	ütle	s		V	s
et	et	0		J	
tema	tema	0		P	sg g
    	tema	0		P	sg n
seda	see	da		P	sg p
hobust	hobu	st		S	sg el
      	hobune	t		S	sg p
mitte	mitte	0		D	
ei	ei	0		D	
  	ei	0		V	neg
oolel	####				
sinna	sinna	0		D	
karjamaale	karja_maa	le		S	sg all
via	####				
lasknud	lask	nud		V	nud
       	lask=nu	d		S	pl n
       	lask=nud	0		A	
       	lask=nud	0		A	sg n
       	lask=nud	d		A	pl n
vaid	vaid	0		D	
    	vaid	0		J	
on	ole	0		V	b
  	ole	0		V	vad
hobu	hobu	0		S	sg g
    	hobu	0		S	sg n
    	hobu	0		S	sg p
ise	ise	0		A	
   	ise	0		D	
   	ise	0		P	pl n
   	ise	0		P	sg n
ennast	ise	t		P	sg p
poiste	poiss	te		S	pl g
käest	käest	0		K	
     	käsi	st		S	sg el
lahti	laht	i		S	pl p
     	lahti	0		D	
tõmmanud	tõmba	nud		V	nud
        	tõmma=nu	d		S	pl n
        	tõmma=nud	0		A	
        	tõmma=nud	0		A	sg n
        	tõmma=nud	d		A	pl n
ja	ja	0		J	
sinna	sinna	0		D	
karjamaale	karja_maa	le		S	sg all
hüppanud	####				
.	.			Z	
sellepärast	selle_pärast	0		D	
jää	jää	0		S	sg g
   	jää	0		V	o
   	jää	0		S	sg n
se	####				
assi	ass	0		S	adt
    	ass	0		S	sg g
    	ass	0		S	sg p
edespidi	####				
tunnistuste	tunnistus	te		S	pl g
käest	käest	0		K	
     	käsi	st		S	sg el
järele	järele	0		D	
      	järele	0		K	
kuulatavaks	kuulata=v	ks		A	sg tr
.	.			Z	
