Tohvri	####				
jaani	jaan	0		S	adt
     	jaan	0		S	sg g
     	jaan	0		S	sg p
naine	naine	0		S	sg n
lesk	lesk	0		S	sg n
Mari	Mari	0		H	sg g
    	mari	0		S	sg g
    	mari	0		S	sg n
    	Mari	0		H	sg n
    	mari	0		S	sg p
Väsik	####				
tuli	tuli	0		S	sg n
    	tule	i		V	s
kohtu	kohtu	0		V	o
     	kohus	0		S	sg g
ette	ette	0		D	
    	ette	0		K	
    	esi	tte		S	adt
ja	ja	0		J	
kaibas	####				
,	,			Z	
et	et	0		J	
Peeter	Peeter	0		H	sg n
Väsik	####				
ei	ei	0		D	
  	ei	0		V	neg
täida	täi	da		V	da
     	täit	0		V	o
mitte	mitte	0		D	
seda	see	da		P	sg p
mis	mis	0		P	pl n
   	mis	0		P	sg n
ta	tema	0		P	sg g
  	tema	0		P	sg n
2sel	####				
Novembril	november	l		S	sg ad
on	ole	0		V	b
  	ole	0		V	vad
kohtumeeste	kohtu_mees	te		S	pl g
ees	ees	0		D	
   	ees	0		K	
   	esi	s		S	sg in
lubanud	luba	nud		V	nud
       	luba=nu	d		S	pl n
       	luba=nud	0		A	
       	luba=nud	0		A	sg n
       	luba=nud	d		A	pl n
ja	ja	0		J	
ei	ei	0		D	
  	ei	0		V	neg
anna	and	0		V	o
    	anna	0		S	sg g
    	anna	0		S	sg n
veel	veel	0		D	
    	vesi	l		S	sg ad
seni	seni	0		D	
ajani	aeg	ni		S	sg ter
temale	tema	le		P	sg all
lauta	laug	ta		S	sg ab
     	laut	0		S	adt
     	laut	0		S	sg p
kätte	kätte	0		K	
     	käsi	tte		S	adt
.	.			Z	
Peeter	Peeter	0		H	sg n
tuli	tuli	0		S	sg n
    	tule	i		V	s
kohtu	kohtu	0		V	o
     	kohus	0		S	sg g
ette	ette	0		D	
    	ette	0		K	
    	esi	tte		S	adt
ja	ja	0		J	
rääkis	rääki	s		V	s
:	:			Z	
et	et	0		J	
tema	tema	0		P	sg g
    	tema	0		P	sg n
ei	ei	0		D	
  	ei	0		V	neg
ole	ole	0		V	o
Marit	Mari	t		H	sg p
ketagi	keta	0	gi	S	sg g
      	keta	0	gi	S	sg n
käskinud	käski	nud		V	nud
        	käski=nu	d		S	pl n
        	käski=nud	0		A	
        	käski=nud	0		A	sg n
        	käski=nud	d		A	pl n
lauast	laud	st		S	sg el
välja	välja	0		D	
     	välja	0		V	o
     	väli	0		S	adt
     	väli	0		S	sg g
     	väli	0		S	sg p
võta	võt	0		V	o
ja	ja	0		J	
mingisugust	mingi_sugune	t		P	sg p
tüli	tüli	0		S	sg g
    	tüli	0		S	sg n
    	tüli	0		S	sg p
ka	ka	0		D	
selle	see	0		P	sg g
     	sell	e		S	pl p
juures	juur	s		S	sg in
      	juures	0		D	
      	juures	0		K	
midagi	miski	dagi		P	sg p
teinud	tege	nud		V	nud
      	tei=nud	0		A	
      	tei=nud	0		A	sg n
      	tei=nud	d		A	pl n
      	teinu	d		S	pl n
.	.			Z	
selle	see	0		P	sg g
     	sell	e		S	pl p
peale	pea	le		S	sg all
     	peale	0		D	
     	peale	0		K	
tuli	tuli	0		S	sg n
    	tule	i		V	s
vana	vana	0		A	sg g
    	vana	0		A	sg n
    	vana	0		A	sg p
    	vana	0		S	sg g
    	vana	0		S	sg n
    	vana	0		S	sg p
Ema	ema	0		S	sg g
   	ema	0		S	sg n
   	ema	0		S	sg p
Toomas	Toomas	0		H	sg n
      	Toomas	s		H	sg in
      	too	mas		V	mas
Vesika	####				
lesk	lesk	0		S	sg n
Mari	Mari	0		H	sg g
    	mari	0		S	sg g
    	mari	0		S	sg n
    	Mari	0		H	sg n
    	mari	0		S	sg p
Väsik	####				
ja	ja	0		J	
rääkis	rääki	s		V	s
:	:			Z	
et	et	0		J	
kui	kui	0		D	
   	kui	0		J	
poja	poeg	0		S	sg g
    	poja	0		S	sg g
    	poja	0		S	sg n
    	poja	0		S	sg p
naisele	naine	le		S	sg all
ja	ja	0		J	
pojale	poeg	le		S	sg all
      	poja	le		S	sg all
saavad	saa	vad		V	vad
      	saav	d		A	pl n
      	saav	d		S	pl n
lauad	laud	d		S	pl n
ära	ära	0		D	
   	ära	0		V	neg o
jagatud	jaga	tud		V	tud
       	jaga=tu	d		S	pl n
       	jaga=tud	0		A	
       	jaga=tud	0		A	sg n
       	jaga=tud	d		A	pl n
,	,			Z	
kus	kus	0		D	
siis	siis	0		D	
    	siis	0		J	
tema	tema	0		P	sg g
    	tema	0		P	sg n
ooma	####				
elajad	elajas	d		S	pl n
paneb	pane	b		V	b
,	,			Z	
poeg	poeg	0		S	sg n
ähvardab	ähvarda	b		V	b
elumajast	elu_maja	st		S	sg el
välja	välja	0		D	
     	välja	0		V	o
     	väli	0		S	adt
     	väli	0		S	sg g
     	väli	0		S	sg p
ajada	aja	da		V	da
ja	ja	0		J	
ka	ka	0		D	
maad	maa	d		S	pl n
    	maa	d		S	sg p
käest	käest	0		K	
     	käsi	st		S	sg el
ära	ära	0		D	
   	ära	0		V	neg o
võta	võt	0		V	o
,	,			Z	
mis	mis	0		P	pl n
   	mis	0		P	sg n
tema	tema	0		P	sg g
    	tema	0		P	sg n
käes	käes	0		K	
    	käsi	s		S	sg in
pruugida	####				
on	ole	0		V	b
  	ole	0		V	vad
ja	ja	0		J	
mis	mis	0		P	pl n
   	mis	0		P	sg n
juba	juba	0		D	
lahkumise	lahkumine	0		S	sg g
ajal	aeg	l		S	sg ad
    	ajal	0		K	
tema	tema	0		P	sg g
    	tema	0		P	sg n
mehest	mees	st		S	sg el
temale	tema	le		P	sg all
kätte	kätte	0		K	
     	käsi	tte		S	adt
jäänud	jää	nud		V	nud
      	jäänu	d		S	pl n
      	jäänud	0		A	
      	jäänud	0		A	sg n
      	jäänud	d		A	pl n
.	.			Z	
kohus	kohu	s		V	s
     	kohus	0		S	sg n
mõistis	mõist	is		V	s
:	:			Z	
et	et	0		J	
suur	suur	0		A	sg n
lamaste	####				
laut	laut	0		S	sg n
jääb	jää	b		V	b
Marile	Mari	le		H	sg all
      	mari	le		S	sg all
Väsikale	####				
ja	ja	0		J	
tara	tara	0		S	sg g
    	tara	0		S	sg n
    	tara	0		S	sg p
ja	ja	0		J	
laut	laut	0		S	sg n
tua	####				
tagast-Peetrile	####				
,	,			Z	
vana	vana	0		A	sg g
    	vana	0		A	sg n
    	vana	0		A	sg p
    	vana	0		S	sg g
    	vana	0		S	sg n
    	vana	0		S	sg p
Emaale	####				
Marile	Mari	le		H	sg all
      	mari	le		S	sg all
Väsikale	####				
jääb	jää	b		V	b
seesama	see_sama	0		P	sg n
kätte	kätte	0		K	
     	käsi	tte		S	adt
kus	kus	0		D	
ta	tema	0		P	sg g
  	tema	0		P	sg n
elajad	elajas	d		S	pl n
praego	####				
sees	sees	0		D	
    	sees	0		K	
on	ole	0		V	b
  	ole	0		V	vad
ja	ja	0		J	
nõndasaama	####				
ka	ka	0		D	
need	see	d		P	pl n
maad	maa	d		S	pl n
    	maa	d		S	sg p
mis	mis	0		P	pl n
   	mis	0		P	sg n
ta	tema	0		P	sg g
  	tema	0		P	sg n
käes	käes	0		K	
    	käsi	s		S	sg in
seni	seni	0		D	
ajani	aeg	ni		S	sg ter
pruuukida	####				
olid	ole	id		V	sid
,	,			Z	
ja	ja	0		J	
elumajast	elu_maja	st		S	sg el
ei	ei	0		D	
  	ei	0		V	neg
või	või	0		S	sg g
   	või	0		V	o
   	või	0		D	
   	või	0		J	
   	või	0		S	sg n
ükski	üks	0	ki	N	sg n
     	üks	0	ki	P	sg n
     	ükski	0		D	
teda	tema	da		P	sg p
välja	välja	0		D	
     	välja	0		V	o
     	väli	0		S	adt
     	väli	0		S	sg g
     	väli	0		S	sg p
ajada	aja	da		V	da
,	,			Z	
temal	tema	l		P	sg ad
peab	pida	b		V	b
ruum	ruum	0		S	sg n
olema	ole	ma		V	ma
tuas	####				
ja	ja	0		J	
nõnda	nõnda	0		D	
saama	saa	ma		V	ma
     	saam	0		S	adt
     	saam	0		S	sg g
     	saam	0		S	sg p
ka	ka	0		D	
kambris	kamber	s		S	sg in
.	.			Z	
küühnu	####				
valla	vald	0		S	sg g
     	valla	0		D	
kogukonna	kogukond	0		S	sg g
kohus	kohu	s		V	s
     	kohus	0		S	sg n
.	.			Z	
Peakohtumees	pea_kohtu_mees	0		S	sg n
:	:			Z	
Enn	Enn	0		H	sg n
Alas	ala	s		S	sg in
XXX	XXX	0		O	?
   	XXX	0		Y	?
kohtumehed	kohtu_mees	d		S	pl n
:	:			Z	
Mihkel	Mihkel	0		H	sg n
      	mihkel	0		A	sg n
      	mihkel	0		S	sg n
Larents	####				
XXX	XXX	0		O	?
   	XXX	0		Y	?
Juri	Juri	0		H	sg g
    	Juri	0		H	sg n
Laus	laug	s		S	sg in
XXX	XXX	0		O	?
   	XXX	0		Y	?
