eodem	####				
dato	####				
.	.			Z	
oli	ole	i		V	s
mõisas	mõis	s		S	sg in
tullo	####				
kohtumehet	####				
ja	ja	0		J	
valla-võhrmündriht	####				
ja	ja	0		J	
sai	saa	i		V	s
   	sai	0		S	sg n
sellele	see	le		P	sg all
Kreiskommissär	####				
härra	härra	0		S	sg g
     	härra	0		S	sg n
kiri	kiri	0		S	sg n
Nr	Nr	0		Y	?
374	374	0		N	?
ette	ette	0		D	
    	ette	0		K	
    	esi	tte		S	adt
lohetut	lohe=tu	t		A	sg p
,	,			Z	
keele	kee	le		S	sg all
     	keel	0		S	sg g
peal	pea	l		S	sg ad
    	peal	0		D	
    	peal	0		K	
nemaht	####				
kokku	kokku	0		D	
     	kogu	0		S	adt
räägis	####				
,	,			Z	
nemaht	####				
tahavat	####				
kül	####				
kui	kui	0		D	
   	kui	0		J	
üle	üle	0		D	
   	üle	0		K	
Laiksaar	laik_saar	0		S	sg n
ja	ja	0		J	
5	5	0		N	?
teise	teine	0		O	adt
     	teine	0		O	sg g
     	teine	0		P	adt
     	teine	0		P	sg g
kroohnu	####				
vallaht	####				
sahvat	####				
üks	üks	0		N	sg n
   	üks	0		P	sg n
kohus	kohu	s		V	s
     	kohus	0		S	sg n
pandut	pan=du	t		S	sg p
,	,			Z	
kus	kus	0		D	
sii	####				
kohus	kohu	s		V	s
     	kohus	0		S	sg n
saab	saa	b		V	b
Laiksaare	laik_saar	0		S	sg g
mõisas	mõis	s		S	sg in
pandut	pan=du	t		S	sg p
,	,			Z	
nõnda	nõnda	0		D	
kui	kui	0		D	
   	kui	0		J	
Laiksaar	laik_saar	0		S	sg n
ka	ka	0		D	
kepaikas	####				
on	ole	0		V	b
  	ole	0		V	vad
.	.			Z	
mõisa	mõis	0		S	sg g
polizei	####				
peava	####				
ka	ka	0		D	
selle	see	0		P	sg g
     	sell	e		S	pl p
sutremba	####				
kohtukätte	kohtu_käsi	tte		S	adt
antut	antud	t		A	sg p
sahma	sahma	0		V	o
,	,			Z	
selleperast	####				
kui	kui	0		D	
   	kui	0		J	
üks	üks	0		N	sg n
   	üks	0		P	sg n
mõisavalitseja	mõisa_valitseja	0		S	sg g
              	mõisa_valitseja	0		S	sg n
või	või	0		S	sg g
   	või	0		V	o
   	või	0		D	
   	või	0		J	
   	või	0		S	sg n
seks	see	ks		P	sg tr
    	seks	0		S	sg n
ei	ei	0		D	
  	ei	0		V	neg
või	või	0		S	sg g
   	või	0		V	o
   	või	0		D	
   	või	0		J	
   	või	0		S	sg n
üle	üle	0		D	
   	üle	0		K	
teise	teine	0		O	adt
     	teine	0		O	sg g
     	teine	0		P	adt
     	teine	0		P	sg g
mõisat	mõis	t		S	sg p
olla	ole	a		V	da
,	,			Z	
ja	ja	0		J	
seda	see	da		P	sg p
ilma	ilm	0		S	adt
    	ilm	0		S	sg g
    	ilma	0		D	
    	ilma	0		K	
    	ilm	0		S	sg p
maksu	maks	0		S	adt
     	maks	0		S	sg g
     	maks	u		S	pl p
     	maks	0		S	sg p
ka	ka	0		D	
ei	ei	0		D	
  	ei	0		V	neg
sib	####				
,	,			Z	
kus	kus	0		D	
vallal	vald	l		S	sg ad
jelle	####				
sutrembat	####				
maksuht	####				
tuleb	tule	b		V	b
,	,			Z	
aga	aga	0		J	
kus	kus	0		D	
sii	####				
polizei	####				
uhve	####				
kohtu	kohtu	0		V	o
     	kohus	0		S	sg g
kätte	kätte	0		K	
     	käsi	tte		S	adt
saab	saa	b		V	b
antut	antud	t		A	sg p
,	,			Z	
ja	ja	0		J	
sel	see	l		P	sg ad
   	sel	0		Y	?
iga	iga	0		P	sg g
   	iga	0		P	sg n
   	iga	0		P	sg p
   	iga	0		S	sg n
   	iga	0		S	sg p
vallahst	####				
või	või	0		S	sg g
   	või	0		V	o
   	või	0		D	
   	või	0		J	
   	või	0		S	sg n
üks	üks	0		N	sg n
   	üks	0		P	sg n
või	või	0		S	sg g
   	või	0		V	o
   	või	0		D	
   	või	0		J	
   	või	0		S	sg n
kaks	kaks	0		N	sg n
kohtumehet	####				
ihstuvat	####				
,	,			Z	
sis	####				
neid	neid	0		S	sg n
    	see	d		P	pl p
    	tema	d		P	pl p
on	ole	0		V	b
  	ole	0		V	vad
sel	see	l		P	sg ad
   	sel	0		Y	?
kus	kus	0		D	
selle	see	0		P	sg g
     	sell	e		S	pl p
mõisa	mõis	0		S	sg g
polizei	####				
assjaht	ass_jaht	0		S	sg n
ette	ette	0		D	
    	ette	0		K	
    	esi	tte		S	adt
tulevat	tule	vat		V	vat
       	tulev	t		A	sg p
.	.			Z	
kohus	kohu	s		V	s
     	kohus	0		S	sg n
mõistis	mõist	is		V	s
:	:			Z	
se	####				
prottokoll	####				
ülespanema	####				
ja	ja	0		J	
mõisa-valitsejal	mõisa-valitseja	l		S	sg ad
anda	and	a		V	da
,	,			Z	
las	las	0		D	
Kreiskommissär	####				
härrale	härra	le		S	sg all
saata	saat	a		V	da
.	.			Z	
