No	no	0		I	
24	24	0		N	?
Oktobril	####				
Sauga	Sauga	0		H	sg g
     	Sauga	0		H	sg n
kogukonna	kogukond	0		S	sg g
kohtus	kohtu	s		V	s
      	kohus	s		S	sg in
,	,			Z	
koos	koos	0		D	
    	koos	0		K	
    	koos	0		S	sg n
    	kubu	s		S	sg in
olid	ole	id		V	sid
:	:			Z	
peak	####				
.	.			Z	
M. Peterson	####				
kohtumees	kohtu_mees	0		S	sg n
P. Lepik	####				
,	,			Z	
J. Ravon	####				
,	,			Z	
M. Janson	####				
Riino	####				
Uumalas	####				
kaebas	kaeba	s		V	s
et	et	0		J	
soldat	soldat	0		S	sg n
Laus	laug	s		S	sg in
Holter	####				
ta	tema	0		P	sg g
  	tema	0		P	sg n
tuuura	####				
ei	ei	0		D	
  	ei	0		V	neg
pea	pea	0		D	
   	pea	0		S	sg g
   	pida	0		V	o
   	pea	0		S	sg n
tagasi	tagasi	0		D	
      	tagasi	0		K	
tooma	too	ma		V	ma
.	.			Z	
Atstavko	####				
soldat	soldat	0		S	sg n
Laus	laug	s		S	sg in
Holter	####				
ütles	ütle	s		V	s
et	et	0		J	
tal	tema	l		P	sg ad
Riino	####				
käest	käest	0		K	
     	käsi	st		S	sg el
üks	üks	0		N	sg n
   	üks	0		P	sg n
rehnung	rehnung	0		S	sg n
5	5	0		N	?
R 25	R25	0		Y	?
kop	kop	0		Y	?
.	.			Z	
saada	saa	da		V	da
     	saat	0		V	o
     	saa	da		V	ta
on	ole	0		V	b
  	ole	0		V	vad
mõistus	mõistus	0		S	sg n
:	:			Z	
Holter	####				
peab	pida	b		V	b
Riinole	####				
5	5	0		N	?
koppik	####				
veel	veel	0		D	
    	vesi	l		S	sg ad
tagasi	tagasi	0		D	
      	tagasi	0		K	
maksma	maks	ma		V	ma
ja	ja	0		J	
se	####				
tuur	tuur	0		S	sg n
8	8	0		N	?
päeva	päev	0		S	adt
     	päev	0		S	sg g
     	päev	0		S	sg p
sees	sees	0		D	
    	sees	0		K	
ära	ära	0		D	
   	ära	0		V	neg o
tooma	too	ma		V	ma
.	.			Z	
