Laiksaare	laik_saar	0		S	sg g
kogukonna	kogukond	0		S	sg g
kohus	kohu	s		V	s
     	kohus	0		S	sg n
sel	see	l		P	sg ad
   	sel	0		Y	?
21.	21.	0		O	?
April	####				
1866.	1866.	0		O	?
kohtus	kohtu	s		V	s
      	kohus	s		S	sg in
olid	ole	id		V	sid
:	:			Z	
pea	pea	0		D	
   	pea	0		S	sg g
   	pida	0		V	o
   	pea	0		S	sg n
kohtumees	kohtu_mees	0		S	sg n
Karl	Karl	0		H	sg n
Tals	####				
kohtumees	kohtu_mees	0		S	sg n
Hans	Hans	0		H	sg n
Tins	####				
-	-			Z	
,	,			Z	
,	,			Z	
-	-			Z	
Teennis	####				
Baers	####				
tuli	tuli	0		S	sg n
    	tule	i		V	s
ette	ette	0		D	
    	ette	0		K	
    	esi	tte		S	adt
Lalaste	####				
Saunik	saunik	0		S	sg n
Villem	Villem	0		H	sg n
Jehtz	####				
ja	ja	0		J	
kaibas	####				
,	,			Z	
tema	tema	0		P	sg g
    	tema	0		P	sg n
oleva	olev	0		A	sg g
     	olev	0		S	sg g
jau	####				
18	18	0		N	?
Aastas	aasta	s		S	sg in
Lalaste	####				
taluhs	####				
ehlane	####				
ja	ja	0		J	
väikset	####				
pelu-	####				
ja	ja	0		J	
einamaa	####				
tükkisit	####				
pruuhknu	####				
,	,			Z	
aga	aga	0		J	
nuid	####				
tahava	####				
peremees	pere_mees	0		S	sg n
Jür	####				
Trei	trei	0		V	o
teend	####				
vela	####				
ajjat	####				
.	.			Z	
peremees	pere_mees	0		S	sg n
Jür	####				
Trei	trei	0		V	o
vastas	vasta	s		V	s
      	vastas	0		D	
      	vastas	0		K	
:	:			Z	
tema	tema	0		P	sg g
    	tema	0		P	sg n
muiduugi	####				
tahava	####				
kaevaja	kaeva=ja	0		S	sg g
       	kaeva=ja	0		S	sg n
velaaijat	####				
,	,			Z	
selleperast	####				
kui	kui	0		D	
   	kui	0		J	
tema	tema	0		P	sg g
    	tema	0		P	sg n
tahava	####				
koguni	kogu	ni		S	sg ter
      	koguni	0		D	
brihv	####				
sel	see	l		P	sg ad
   	sel	0		Y	?
ehlada	####				
,	,			Z	
ei	ei	0		D	
  	ei	0		V	neg
tahava	####				
temal	tema	l		P	sg ad
missugust	mis_sugune	t		P	sg p
rent	rent	0		S	sg n
maksat	####				
või	või	0		S	sg g
   	või	0		V	o
   	või	0		D	
   	või	0		J	
   	või	0		S	sg n
Peivat	####				
tetta	####				
.	.			Z	
Ülemineva	üle_minev	0		A	sg g
Aasta	aasta	0		S	sg g
     	aasta	0		S	sg n
oleva	olev	0		A	sg g
     	olev	0		S	sg g
tema	tema	0		P	sg g
    	tema	0		P	sg n
12	12	0		N	?
rubla	rubla	0		S	sg g
     	rubla	0		S	sg n
     	rubla	0		S	sg p
raha	raha	0		S	sg g
    	raha	0		S	sg n
    	raha	0		S	sg p
rent	rent	0		S	sg n
selle	see	0		P	sg g
     	sell	e		S	pl p
maad	maa	d		S	pl n
    	maa	d		S	sg p
ihst	####				
maksno	####				
,	,			Z	
mineva	minev	0		A	sg g
Aasta	aasta	0		S	sg g
     	aasta	0		S	sg n
iga	iga	0		P	sg g
   	iga	0		P	sg n
   	iga	0		P	sg p
   	iga	0		S	sg n
   	iga	0		S	sg p
üle	üle	0		D	
   	üle	0		K	
nedal	####				
5	5	0		N	?
peivat	####				
tenno	####				
,	,			Z	
aga	aga	0		J	
nuid	####				
ei	ei	0		D	
  	ei	0		V	neg
lubava	lubav	0		A	sg g
kedagi	keegi	dagi		P	sg p
tehja	####				
.	.			Z	
Kus	kus	0		D	
Villem	Villem	0		H	sg n
nuid	####				
jelle	####				
neid	neid	0		S	sg n
    	see	d		P	pl p
    	tema	d		P	pl p
Peivat	####				
lubava	lubav	0		A	sg g
tehja	####				
,	,			Z	
sis	####				
tema	tema	0		P	sg g
    	tema	0		P	sg n
jätava	####				
sisse	siss	e		S	pl p
     	sisse	0		D	
     	sisse	0		K	
.	.			Z	
Villem	Villem	0		H	sg n
üttles	####				
,	,			Z	
sedamoda	####				
oleva	olev	0		A	sg g
     	olev	0		S	sg g
kül	####				
ollu	####				
,	,			Z	
aga	aga	0		J	
keele	kee	le		S	sg all
     	keel	0		S	sg g
ihst	####				
tema	tema	0		P	sg g
    	tema	0		P	sg n
võiva	võiv	0		A	sg g
neid	neid	0		S	sg n
    	see	d		P	pl p
    	tema	d		P	pl p
peivat	####				
tehja	####				
,	,			Z	
jau	####				
peremees	pere_mees	0		S	sg n
võttava	võtt_ava	0		S	sg g
       	võtt_ava	0		S	sg n
       	võtt_ava	0		S	sg p
üks	üks	0		N	sg n
   	üks	0		P	sg n
tück	####				
einamaa	####				
ärra	####				
.	.			Z	
kohus	kohu	s		V	s
     	kohus	0		S	sg n
mõistis	mõist	is		V	s
:	:			Z	
Jür	####				
Trei	trei	0		V	o
peab	pida	b		V	b
kaevajal	kaeva=ja	l		S	sg ad
Villem	Villem	0		H	sg n
Jehtz	####				
puha	puha	0		D	
neid	neid	0		S	sg n
    	see	d		P	pl p
    	tema	d		P	pl p
maad	maa	d		S	pl n
    	maa	d		S	sg p
kätte	kätte	0		K	
     	käsi	tte		S	adt
andma	and	ma		V	ma
,	,			Z	
mis	mis	0		P	pl n
   	mis	0		P	sg n
mineva	minev	0		A	sg g
Aasta	aasta	0		S	sg g
     	aasta	0		S	sg n
oli	ole	i		V	s
,	,			Z	
aga	aga	0		J	
peab	pida	b		V	b
Villem	Villem	0		H	sg n
peremehil	####				
selle	see	0		P	sg g
     	sell	e		S	pl p
ihst	####				
iga	iga	0		P	sg g
   	iga	0		P	sg n
   	iga	0		P	sg p
   	iga	0		S	sg n
   	iga	0		S	sg p
üle	üle	0		D	
   	üle	0		K	
nedal	####				
5	5	0		N	?
peivat	####				
tettama	####				
,	,			Z	
nõnda	nõnda	0		D	
samo	####				
kui	kui	0		D	
   	kui	0		J	
mineva	minev	0		A	sg g
Aasta	aasta	0		S	sg g
     	aasta	0		S	sg n
§	§	0		Y	?
565.	565.	0		O	?
sii	####				
mõistus	mõistus	0		S	sg n
sai	saa	i		V	s
   	sai	0		S	sg n
ette	ette	0		D	
    	ette	0		K	
    	esi	tte		S	adt
lohetut	lohe=tu	t		A	sg p
,	,			Z	
keele	kee	le		S	sg all
     	keel	0		S	sg g
peal	pea	l		S	sg ad
    	peal	0		D	
    	peal	0		K	
Villem	Villem	0		H	sg n
üttles	####				
;	;			Z	
tema	tema	0		P	sg g
    	tema	0		P	sg n
eijoleva	####				
rahu	rahu	0		S	sg g
    	rahu	0		S	sg n
    	rahu	0		S	sg p
,	,			Z	
ja	ja	0		J	
sai	saa	i		V	s
   	sai	0		S	sg n
temale	tema	le		P	sg all
õppuse	õppus	0		S	sg g
kiri	kiri	0		S	sg n
kätteantut	kätte_an=tu	t		S	sg p
.	.			Z	
