Laiksaare	laik_saar	0		S	sg g
kogukonna	kogukond	0		S	sg g
kohus	kohu	s		V	s
     	kohus	0		S	sg n
sel	see	l		P	sg ad
   	sel	0		Y	?
28.	28.	0		O	?
Novembril	november	l		S	sg ad
1867	1867	0		N	?
kohtus	kohtu	s		V	s
      	kohus	s		S	sg in
oli	ole	i		V	s
:	:			Z	
pea	pea	0		D	
   	pea	0		S	sg g
   	pida	0		V	o
   	pea	0		S	sg n
kohtumees	kohtu_mees	0		S	sg n
Karl	Karl	0		H	sg n
Tals	####				
kohtumees	kohtu_mees	0		S	sg n
Hans	Hans	0		H	sg n
Tinz	####				
Toonnis	####				
Behrs	####				
kaebas	kaeba	s		V	s
se	####				
Maret	Mare	t		H	sg p
     	Maret	0		H	sg n
Orav	orav	0		S	sg n
Pihke	pihk	e		S	pl p
talust	talu	st		S	sg el
tema	tema	0		P	sg g
    	tema	0		P	sg n
oleva	olev	0		A	sg g
     	olev	0		S	sg g
mineva	minev	0		A	sg g
teisipaev	####				
kuulnud	kuul	nud		V	nud
       	kuul=nud	0		A	
       	kuul=nud	0		A	sg n
       	kuul=nud	d		A	pl n
       	kuulnu	d		S	pl n
koera	koer	0		A	adt
     	koer	0		A	sg g
     	koer	0		S	adt
     	koer	0		S	sg g
     	koer	0		A	sg p
     	koer	0		S	sg p
okumise	####				
,	,			Z	
ja	ja	0		J	
et	et	0		J	
uks	uks	0		S	sg n
inimene	inimene	0		S	sg n
tema	tema	0		P	sg g
    	tema	0		P	sg n
aida	ait	0		S	sg g
juuures	####				
käinud	käi	nud		V	nud
      	käi=nud	0		A	
      	käi=nud	0		A	sg n
      	käi=nud	d		A	pl n
      	käinu	d		S	pl n
,	,			Z	
aga	aga	0		J	
pelganud	####				
vaatama	vaata	ma		V	ma
minna	mine	a		V	da
,	,			Z	
selle	see	0		P	sg g
     	sell	e		S	pl p
pärast	pära	st		S	sg el
      	pärane	t		A	sg p
      	pärast	0		D	
      	pärast	0		K	
et	et	0		J	
oksj	####				
olnud	ol=nud	0		A	
     	ol=nud	0		A	sg n
     	ol=nud	d		A	pl n
     	ole	nud		V	nud
     	olnu	d		S	pl n
,	,			Z	
tema	tema	0		P	sg g
    	tema	0		P	sg n
mees	mees	0		S	sg n
    	mesi	s		S	sg in
olnud	ol=nud	0		A	
     	ol=nud	0		A	sg n
     	ol=nud	d		A	pl n
     	ole	nud		V	nud
     	olnu	d		S	pl n
Vango	####				
talus	talu	s		S	sg in
     	talu	s		V	s
pulmas	pulm	s		S	sg in
,	,			Z	
aga	aga	0		J	
kui	kui	0		D	
   	kui	0		J	
ta	tema	0		P	sg g
  	tema	0		P	sg n
ommiku	####				
vaatama	vaata	ma		V	ma
läinud	läinu	d		S	pl n
      	läinud	0		A	
      	läinud	0		A	sg n
      	läinud	d		A	pl n
      	mine	nud		V	nud
,	,			Z	
leidnud	leid	nud		V	nud
       	leid=nu	d		S	pl n
       	leid=nud	0		A	
       	leid=nud	0		A	sg n
       	leid=nud	d		A	pl n
et	et	0		J	
Aeda	aed	0		S	adt
    	aed	0		S	sg p
uks	uks	0		S	sg n
lahti	laht	i		S	pl p
     	lahti	0		D	
,	,			Z	
kes	kes	0		P	pl n
   	kes	0		P	sg n
allati	####				
seisnud	seis	nud		V	nud
       	seis=nu	d		S	pl n
       	seis=nud	0		A	
       	seis=nud	0		A	sg n
       	seis=nud	d		A	pl n
paelaga	pael	ga		S	sg kom
kinni	kinni	0		D	
seoodud	####				
,	,			Z	
ja	ja	0		J	
tema	tema	0		P	sg g
    	tema	0		P	sg n
kirst	kirst	0		S	sg n
mes	####				
hää	####				
uije	####				
lukkuga	####				
lahti	laht	i		S	pl p
     	lahti	0		D	
olnud	ol=nud	0		A	
     	ol=nud	0		A	sg n
     	ol=nud	d		A	pl n
     	ole	nud		V	nud
     	olnu	d		S	pl n
lõhutud	lõhku	tud		V	tud
       	lõhu=tu	d		S	pl n
       	lõhu=tud	0		A	
       	lõhu=tud	0		A	sg n
       	lõhu=tud	d		A	pl n
ja	ja	0		J	
murtud	mur=tu	d		S	pl n
      	mur=tud	0		A	
      	mur=tud	0		A	sg n
      	mur=tud	d		A	pl n
      	murd	tud		V	tud
,	,			Z	
ja	ja	0		J	
seal	seal	0		D	
    	siga	l		A	sg ad
    	siga	l		S	sg ad
välja	välja	0		D	
     	välja	0		V	o
     	väli	0		S	adt
     	väli	0		S	sg g
     	väli	0		S	sg p
võetud	võe=tu	d		S	pl n
      	võetud	0		A	
      	võetud	0		A	sg n
      	võetud	d		A	pl n
      	võt	tud		V	tud
ehk	ehk	0		D	
   	ehk	0		J	
ära	ära	0		D	
   	ära	0		V	neg o
varastud	####				
se	####				
varandus	varandus	0		S	sg n
mes	####				
seija	####				
on	ole	0		V	b
  	ole	0		V	vad
üles	üles	0		D	
pandud	pan=du	d		S	pl n
      	pan=dud	0		A	
      	pan=dud	0		A	sg n
      	pan=dud	d		A	pl n
      	pane	dud		V	tud
,	,			Z	
2	2	0		N	?
põle	põle	0		V	o
väärt	väärt	0		A	
     	väärt	0		D	
1	1	0		N	?
1	1	0		N	?
/	/			Z	
2	2	0		N	?
1	1	0		N	?
rättig	####				
-	-			Z	
50	50	0		N	?
kop	kop	0		Y	?
2	2	0		N	?
naela	nael	0		S	adt
     	nael	0		S	sg g
     	nael	0		S	sg p
varvitud	####				
longat	####				
1	1	0		N	?
50	50	0		N	?
9	9	0		N	?
Lama	lama	0		V	o
nahka	nahk	0		S	adt
     	nahk	0		S	sg p
     	nahka	0		D	
5	5	0		N	?
50	50	0		N	?
selget	selge	t		A	sg p
raha	raha	0		S	sg g
    	raha	0		S	sg n
    	raha	0		S	sg p
-	-			Z	
5	5	0		N	?
koko	####				
7	7	0		N	?
R	R	0		Y	?
55	55	0		N	?
kop	kop	0		Y	?
aga	aga	0		J	
veel	veel	0		D	
    	vesi	l		S	sg ad
oleva	olev	0		A	sg g
     	olev	0		S	sg g
ühe	üks	0		N	sg g
   	üks	0		P	sg g
   	ühe	0		S	sg n
kangestükki	####				
ära	ära	0		D	
   	ära	0		V	neg o
lõikanud	####				
mes	####				
50	50	0		N	?
kuenart	####				
pik	####				
oleva	olev	0		A	sg g
     	olev	0		S	sg g
ilma	ilm	0		S	adt
    	ilm	0		S	sg g
    	ilma	0		D	
    	ilma	0		K	
    	ilm	0		S	sg p
mõõttmata	####				
veel	veel	0		D	
    	vesi	l		S	sg ad
.	.			Z	
aga	aga	0		J	
sinna	sinna	0		D	
aida	ait	0		S	sg g
juuure	####				
üks	üks	0		N	sg n
   	üks	0		P	sg n
kepp	kepp	0		S	sg n
maha	maha	0		D	
jäänud	jää	nud		V	nud
      	jäänu	d		S	pl n
      	jäänud	0		A	
      	jäänud	0		A	sg n
      	jäänud	d		A	pl n
,	,			Z	
keda	kes	da		P	pl p
    	kes	da		P	sg p
palju	palju	0		D	
     	palju	0		P	sg g
     	palju	0		P	sg n
tunnistaks	tunnista	ks		V	ks
Jüri	Jüri	0		H	sg g
    	Jüri	0		H	sg n
Mardiku	####				
kepi	kepp	0		S	sg g
    	keppi	0		V	o
olevat	ole	vat		V	vat
      	olev	t		A	sg p
      	olev	t		S	sg p
.	.			Z	
aga	aga	0		J	
veel	veel	0		D	
    	vesi	l		S	sg ad
ilma	ilm	0		S	adt
    	ilm	0		S	sg g
    	ilma	0		D	
    	ilma	0		K	
    	ilm	0		S	sg p
seleta	seleta	0		V	o
leidnud	leid	nud		V	nud
       	leid=nu	d		S	pl n
       	leid=nud	0		A	
       	leid=nud	0		A	sg n
       	leid=nud	d		A	pl n
Mart	Mart	0		H	sg n
    	mart	0		S	sg n
Orav	orav	0		S	sg n
Jüri	Jüri	0		H	sg g
    	Jüri	0		H	sg n
Mardiku	####				
heina	hein	0		S	adt
     	hein	0		S	sg g
     	hein	0		S	sg p
kuhjas	kuhja	s		V	s
      	kuhi	s		S	sg in
need	see	d		P	pl n
9	9	0		N	?
lama	lama	0		V	o
nahka	nahk	0		S	adt
     	nahk	0		S	sg p
     	nahka	0		D	
,	,			Z	
valla	vald	0		S	sg g
     	valla	0		D	
talitaja	talitaja	0		S	sg g
        	talitaja	0		S	sg n
Ado	Ado	0		H	sg g
   	Ado	0		H	sg n
Kamdron	####				
,	,			Z	
ja	ja	0		J	
valla	vald	0		S	sg g
     	valla	0		D	
vüürmänder	####				
Ado	Ado	0		H	sg g
   	Ado	0		H	sg n
Talsi	####				
ka	ka	0		D	
tunnistavad	tunnista	vad		V	vad
           	tunnista=v	d		A	pl n
,	,			Z	
et	et	0		J	
nemad	tema	d		P	pl n
oleva	olev	0		A	sg g
     	olev	0		S	sg g
ka	ka	0		D	
selle	see	0		P	sg g
     	sell	e		S	pl p
korra	kord	0		S	sg g
mõisa	mõis	0		S	sg g
olnud	ol=nud	0		A	
     	ol=nud	0		A	sg n
     	ol=nud	d		A	pl n
     	ole	nud		V	nud
     	olnu	d		S	pl n
,	,			Z	
kui	kui	0		D	
   	kui	0		J	
se	####				
kaebaja	kaebaja	0		S	sg g
       	kaebaja	0		S	sg n
tulnud	tul=nud	0		A	
      	tul=nud	0		A	sg n
      	tul=nud	d		A	pl n
      	tule	nud		V	nud
      	tulnu	d		S	pl n
kaebama	kaeba	ma		V	ma
,	,			Z	
ja	ja	0		J	
Jüri	Jüri	0		H	sg g
    	Jüri	0		H	sg n
Mardik	####				
olnud	ol=nud	0		A	
     	ol=nud	0		A	sg n
     	ol=nud	d		A	pl n
     	ole	nud		V	nud
     	olnu	d		S	pl n
kõrtsis	kõrts	s		S	sg in
kel	kes	l		P	sg ad
nemad	tema	d		P	pl n
ära	ära	0		D	
   	ära	0		V	neg o
üttelnud	####				
et	et	0		J	
tem	####				
peab	pida	b		V	b
paigal	paik	l		S	sg ad
      	paigal	0		D	
seisma	seis	ma		V	ma
,	,			Z	
seni	seni	0		D	
kui	kui	0		D	
   	kui	0		J	
se	####				
Maret	Mare	t		H	sg p
     	Maret	0		H	sg n
Orav	orav	0		S	sg n
selle	see	0		P	sg g
     	sell	e		S	pl p
kepi	kepp	0		S	sg g
    	keppi	0		V	o
kodus	kodu	s		S	sg in
ära	ära	0		D	
   	ära	0		V	neg o
toob	too	b		V	b
,	,			Z	
ja	ja	0		J	
need	see	d		P	pl n
tunnistused	tunnistus	d		S	pl n
ära	ära	0		D	
   	ära	0		V	neg o
ligi	ligi	0		D	
    	ligi	0		K	
tuuva	####				
,	,			Z	
aga	aga	0		J	
ta	tema	0		P	sg g
  	tema	0		P	sg n
on	ole	0		V	b
  	ole	0		V	vad
ära	ära	0		D	
   	ära	0		V	neg o
põgenenud	põgene	nud		V	nud
         	põgene=nu	d		S	pl n
         	põgene=nud	0		A	
         	põgene=nud	0		A	sg n
         	põgene=nud	d		A	pl n
,	,			Z	
aga	aga	0		J	
nemat	####				
on	ole	0		V	b
  	ole	0		V	vad
saatnud	saat	nud		V	nud
       	saat=nu	d		S	pl n
       	saat=nud	0		A	
       	saat=nud	0		A	sg n
       	saat=nud	d		A	pl n
kaks	kaks	0		N	sg n
mees	mees	0		S	sg n
    	mesi	s		S	sg in
järel	järel	0		D	
     	järel	0		K	
,	,			Z	
kes	kes	0		P	pl n
   	kes	0		P	sg n
teda	tema	da		P	sg p
on	ole	0		V	b
  	ole	0		V	vad
kinni	kinni	0		D	
võtnud	võt	nud		V	nud
      	võt=nu	d		S	pl n
      	võt=nud	0		A	
      	võt=nud	0		A	sg n
      	võt=nud	d		A	pl n
ja	ja	0		J	
tagasi	tagasi	0		D	
      	tagasi	0		K	
toonud	too	nud		V	nud
      	too=nu	d		S	pl n
      	too=nud	0		A	
      	too=nud	0		A	sg n
      	too=nud	d		A	pl n
,	,			Z	
selle	see	0		P	sg g
     	sell	e		S	pl p
pärast	pära	st		S	sg el
      	pärane	t		A	sg p
      	pärast	0		D	
      	pärast	0		K	
nemad	tema	d		P	pl n
mõtleva	mõtlev	0		A	sg g
ja	ja	0		J	
arvava	arvav	0		A	sg g
,	,			Z	
et	et	0		J	
ta	tema	0		P	sg g
  	tema	0		P	sg n
süü	süü	0		S	sg g
   	süü	0		S	sg n
alune	alune	0		A	sg n
     	alune	0		S	sg n
oleva	olev	0		A	sg g
     	olev	0		S	sg g
,	,			Z	
ja	ja	0		J	
et	et	0		J	
ka	ka	0		D	
se	####				
Jüri	Jüri	0		H	sg g
    	Jüri	0		H	sg n
Mardik	####				
oleva	olev	0		A	sg g
     	olev	0		S	sg g
tuntav	tund	tav		V	tav
      	tuntav	0		A	sg n
varas	vara	s		S	sg in
     	varas	0		S	sg n
enne	enne	0		D	
    	enne	0		K	
    	enne	0		S	sg n
.	.			Z	
Mart	Mart	0		H	sg n
    	mart	0		S	sg n
Orav	orav	0		S	sg n
,	,			Z	
vanutud	vanu	tud		V	tud
       	vanu=tu	d		S	pl n
       	vanu=tud	0		A	
       	vanu=tud	0		A	sg n
       	vanu=tud	d		A	pl n
metsa	mets	0		S	adt
     	mets	0		S	sg g
     	mets	0		S	sg p
Vahe	vahe	0		A	sg n
    	vahe	0		S	sg g
    	vahe	0		S	sg n
abi	abi	0		S	sg g
   	abi	0		S	sg n
   	abi	0		S	sg p
,	,			Z	
ka	ka	0		D	
tunnistab	tunnista	b		V	b
,	,			Z	
et	et	0		J	
kuhja	kuhja	0		V	o
     	kuhi	0		S	adt
     	kuhi	0		S	sg g
     	kuhi	0		S	sg p
seis	seis	0		I	
    	seis	0		S	sg n
vargus	vargus	0		S	sg n
olnud	ol=nud	0		A	
     	ol=nud	0		A	sg n
     	ol=nud	d		A	pl n
     	ole	nud		V	nud
     	olnu	d		S	pl n
,	,			Z	
ta	tema	0		P	sg g
  	tema	0		P	sg n
kodus	kodu	s		S	sg in
võtnud	võt	nud		V	nud
      	võt=nu	d		S	pl n
      	võt=nud	0		A	
      	võt=nud	0		A	sg n
      	võt=nud	d		A	pl n
jälgi	jälg	i		S	pl p
     	jälgi	0		V	o
     	jälk	0		A	sg g
üles	üles	0		D	
,	,			Z	
ja	ja	0		J	
jälgi	jälg	i		S	pl p
     	jälgi	0		V	o
     	jälk	0		A	sg g
vööda	####				
läinud	läinu	d		S	pl n
      	läinud	0		A	
      	läinud	0		A	sg n
      	läinud	d		A	pl n
      	mine	nud		V	nud
.	.			Z	
Jüri	Jüri	0		H	sg g
    	Jüri	0		H	sg n
Mardiku	####				
kuhjas	kuhja	s		V	s
      	kuhi	s		S	sg in
leidnud	leid	nud		V	nud
       	leid=nu	d		S	pl n
       	leid=nud	0		A	
       	leid=nud	0		A	sg n
       	leid=nud	d		A	pl n
nee	####				
9	9	0		N	?
lammenahad	####				
,	,			Z	
ja	ja	0		J	
jället	####				
läinud	läinu	d		S	pl n
      	läinud	0		A	
      	läinud	0		A	sg n
      	läinud	d		A	pl n
      	mine	nud		V	nud
otse	otse	0		D	
ka	ka	0		D	
Jüri	Jüri	0		H	sg g
    	Jüri	0		H	sg n
Mardiku	####				
sauna	saun	0		S	adt
     	saun	0		S	sg g
     	saun	0		S	sg p
juuure	####				
.	.			Z	
siis	siis	0		D	
    	siis	0		J	
oleva	olev	0		A	sg g
     	olev	0		S	sg g
tama	####				
selle	see	0		P	sg g
     	sell	e		S	pl p
kõrtsi	kõrts	0		S	adt
      	kõrts	0		S	sg g
      	kõrts	0		S	sg p
mehe	mees	0		S	sg g
Peet	Peet	0		H	sg n
    	peet	0		S	sg n
Kukk	kukk	0		S	sg n
,	,			Z	
ja	ja	0		J	
Mangu	mangu	0		V	o
Meutus	####				
juur	juur	0		S	sg n
kutsunud	kutsu	nud		V	nud
        	kutsu=nu	d		S	pl n
        	kutsu=nud	0		A	
        	kutsu=nud	0		A	sg n
        	kutsu=nud	d		A	pl n
ja	ja	0		J	
nee	####				
nahat	####				
välja	välja	0		D	
     	välja	0		V	o
     	väli	0		S	adt
     	väli	0		S	sg g
     	väli	0		S	sg p
võtnud	võt	nud		V	nud
      	võt=nu	d		S	pl n
      	võt=nud	0		A	
      	võt=nud	0		A	sg n
      	võt=nud	d		A	pl n
kuhjast	kuhi	st		S	sg el
,	,			Z	
aga	aga	0		J	
nõnda	nõnda	0		D	
sama	sama	0		P	sg g
    	sama	0		P	sg n
    	sama	0		P	sg p
kes	kes	0		P	pl n
   	kes	0		P	sg n
tunnistavad	tunnista	vad		V	vad
           	tunnista=v	d		A	pl n
,	,			Z	
sai	saa	i		V	s
   	sai	0		S	sg n
ette	ette	0		D	
    	ette	0		K	
    	esi	tte		S	adt
võetud	võe=tu	d		S	pl n
      	võetud	0		A	
      	võetud	0		A	sg n
      	võetud	d		A	pl n
      	võt	tud		V	tud
ja	ja	0		J	
näitatud	####				
se	####				
sarapuu	sara_puu	0		S	sg g
       	sara_puu	0		S	sg n
kepp	kepp	0		S	sg n
mes	####				
aida	ait	0		S	sg g
ukse	uks	0		S	sg g
eest	eest	0		D	
    	eest	0		K	
    	esi	st		S	sg el
leitud	leid	tud		V	tud
      	leitu	d		S	pl n
      	leitud	0		A	
      	leitud	0		A	sg n
      	leitud	d		A	pl n
,	,			Z	
kelle	kes	0		P	pl g
     	kes	0		P	sg g
peale	pea	le		S	sg all
     	peale	0		D	
     	peale	0		K	
veel	veel	0		D	
    	vesi	l		S	sg ad
tunnistusend	####				
Peet	Peet	0		H	sg n
    	peet	0		S	sg n
Kukk	kukk	0		S	sg n
,	,			Z	
Mangu	mangu	0		V	o
mõitus	####				
,	,			Z	
Mart	Mart	0		H	sg n
    	mart	0		S	sg n
Orav	orav	0		S	sg n
nemat	####				
tunnistavat	tunnista	vat		V	vat
           	tunnista=v	t		A	sg p
et	et	0		J	
se	####				
kepp	kepp	0		S	sg n
oleva	olev	0		A	sg g
     	olev	0		S	sg g
Jüri	Jüri	0		H	sg g
    	Jüri	0		H	sg n
Mardiku	####				
iagu	####				
,	,			Z	
ja	ja	0		J	
oleva	olev	0		A	sg g
     	olev	0		S	sg g
mittu	####				
korda	kord	0		S	adt
     	korda	0		V	o
     	kord	0		S	sg p
ta	tema	0		P	sg g
  	tema	0		P	sg n
käes	käes	0		K	
    	käsi	s		S	sg in
näinud	näi	nud		V	nud
      	näge	nud		V	nud
      	näi=nud	0		A	
      	näi=nud	0		A	sg n
      	näi=nud	d		A	pl n
      	näinu	d		S	pl n
selgeste	####				
.	.			Z	
Sai	saa	i		V	s
   	sai	0		S	sg n
ette	ette	0		D	
    	ette	0		K	
    	esi	tte		S	adt
kutsutud	kutsu	tud		V	tud
        	kutsutu	d		S	pl n
        	kutsutud	0		A	
        	kutsutud	0		A	sg n
        	kutsutud	d		A	pl n
Jüri	Jüri	0		H	sg g
    	Jüri	0		H	sg n
Mardik	####				
,	,			Z	
salgas	salga	s		V	s
      	salk	s		S	sg in
et	et	0		J	
ta	tema	0		P	sg g
  	tema	0		P	sg n
ej	####				
oleva	olev	0		A	sg g
     	olev	0		S	sg g
varastanud	varasta	nud		V	nud
          	varasta=nu	d		S	pl n
          	varasta=nud	0		A	
          	varasta=nud	0		A	sg n
          	varasta=nud	d		A	pl n
.	.			Z	
see	see	0		P	sg n
kepp	kepp	0		S	sg n
võiva	võiv	0		A	sg g
olla	ole	a		V	da
et	et	0		J	
mõne	mõni	0		P	sg g
korra	kord	0		S	sg g
ka	ka	0		D	
tema	tema	0		P	sg g
    	tema	0		P	sg n
käe	käsi	0		S	sg g
olnud	ol=nud	0		A	
     	ol=nud	0		A	sg n
     	ol=nud	d		A	pl n
     	ole	nud		V	nud
     	olnu	d		S	pl n
,	,			Z	
tema	tema	0		P	sg g
    	tema	0		P	sg n
mõnda	mõni	0		P	adt
     	mõni	da		P	sg p
korda	kord	0		S	adt
     	korda	0		V	o
     	kord	0		S	sg p
võttva	####				
mes	####				
tahes	tahes	0		D	
puu	puu	0		S	sg g
   	puu	0		S	sg n
kätte	kätte	0		K	
     	käsi	tte		S	adt
,	,			Z	
ja	ja	0		J	
jälle	jälle	0		D	
viskava	viska=v	0		A	sg g
maha	maha	0		D	
,	,			Z	
üks	üks	0		N	sg n
   	üks	0		P	sg n
kord	kord	0		D	
    	kord	0		S	sg n
ühe	üks	0		N	sg g
   	üks	0		P	sg g
   	ühe	0		S	sg n
,	,			Z	
teine	teine	0		O	sg n
     	teine	0		P	sg n
kord	kord	0		D	
    	kord	0		S	sg n
teise	teine	0		O	adt
     	teine	0		O	sg g
     	teine	0		P	adt
     	teine	0		P	sg g
,	,			Z	
aga	aga	0		J	
nõnda	nõnda	0		D	
et	et	0		J	
õige	õige	0		A	sg g
    	õige	0		A	sg n
    	õige	0		D	
tunnistuse	tunnistus	0		S	sg g
,	,			Z	
ja	ja	0		J	
märgid	märk	d		S	pl n
      	märki	d		V	d
läbi	läbi	0		D	
    	läbi	0		K	
    	läbi	0		V	o
näha	näge	a		V	da
et	et	0		J	
Jüri	Jüri	0		H	sg g
    	Jüri	0		H	sg n
Mardik	####				
se	####				
varas	vara	s		S	sg in
     	varas	0		S	sg n
on	ole	0		V	b
  	ole	0		V	vad
,	,			Z	
sai	saa	i		V	s
   	sai	0		S	sg n
mõistud	####				
seda	see	da		P	sg p
asja	asi	0		S	adt
    	asi	0		S	sg g
    	asi	0		S	sg p
keiserliku	keiserlik	0		A	sg g
Sill	####				
kohtu	kohtu	0		V	o
     	kohus	0		S	sg g
kaugema	kaugem	0		C	sg g
mõistuse	mõistus	0		S	sg g
ja	ja	0		J	
üle	üle	0		D	
   	üle	0		K	
kuulamise	kuulamine	0		S	sg g
alla	alla	0		D	
    	alla	0		K	
.	.			Z	
