astus	astu	s		V	s
ette	ette	0		D	
    	ette	0		K	
    	esi	tte		S	adt
Mihkel	Mihkel	0		H	sg n
      	mihkel	0		A	sg n
      	mihkel	0		S	sg n
kuusk	kuusk	0		S	sg n
,	,			Z	
ja	ja	0		J	
kaebab	kaeba	b		V	b
,	,			Z	
et	et	0		J	
temal	tema	l		P	sg ad
Purju	purju	0		D	
Jaan	Jaan	0		H	sg n
    	jaan	0		S	sg n
    	jaan	0		Y	?
Soomanni	soo_mann	0		S	adt
        	soo_mann	0		S	sg g
        	soo_mann	0		S	sg p
käest	käest	0		K	
     	käsi	st		S	sg el
40ne	40	0		N	sg g
maja	maja	0		S	sg g
    	maja	0		S	sg n
    	maja	0		S	sg p
ehituse	ehitus	0		S	sg g
päeva	päev	0		S	adt
     	päev	0		S	sg g
     	päev	0		S	sg p
eest	eest	0		D	
    	eest	0		K	
    	esi	st		S	sg el
24	24	0		N	?
rubla	rubla	0		S	sg g
     	rubla	0		S	sg n
     	rubla	0		S	sg p
hõbe	hõbe	0		S	sg n
saada	saa	da		V	da
     	saat	0		V	o
     	saa	da		V	ta
on	ole	0		V	b
  	ole	0		V	vad
,	,			Z	
a	a	0		Y	?
60	60	0		N	?
koppik	####				
päeva	päev	0		S	adt
     	päev	0		S	sg g
     	päev	0		S	sg p
pealt	pea	lt		S	sg abl
     	pealt	0		D	
     	pealt	0		K	
.	.			Z	
kutsuti	kutsu	ti		V	ti
ette	ette	0		D	
    	ette	0		K	
    	esi	tte		S	adt
Jaan	Jaan	0		H	sg n
    	jaan	0		S	sg n
    	jaan	0		Y	?
Soomann	soo_mann	0		S	sg n
ja	ja	0		J	
ütleb	ütle	b		V	b
,	,			Z	
et	et	0		J	
temal	tema	l		P	sg ad
ühtigi	ühtigi	0		D	
võlga	võlg	0		S	adt
     	võlg	0		S	sg p
maksta	maks	ta		V	da
      	maks	ta		V	ta
poole	pool	0		N	sg g
     	pool	0		S	sg g
     	pool	e		S	pl p
     	poole	0		K	
     	poole	0		S	sg n
,	,			Z	
sest	see	st		P	sg el
    	sest	0		J	
et	et	0		J	
tema	tema	0		P	sg g
    	tema	0		P	sg n
on	ole	0		V	b
  	ole	0		V	vad
ooma	####				
maa	maa	0		S	sg g
   	maa	0		S	sg n
heinamaast	heina_maa	st		S	sg el
8	8	0		N	?
vakkamaad	####				
heinamaad	heina_maa	d		S	pl n
         	heina_maa	d		S	sg p
,	,			Z	
selle	see	0		P	sg g
     	sell	e		S	pl p
Mihkel	Mihkel	0		H	sg n
      	mihkel	0		A	sg n
      	mihkel	0		S	sg n
Kuuse	kuune	0		A	sg g
     	kuusk	0		S	sg g
kätte	kätte	0		K	
     	käsi	tte		S	adt
annud	####				
et	et	0		J	
see	see	0		P	sg n
iga	iga	0		P	sg g
   	iga	0		P	sg n
   	iga	0		P	sg p
   	iga	0		S	sg n
   	iga	0		S	sg p
aasta	aasta	0		S	sg g
     	aasta	0		S	sg n
viis	vii	s		V	s
    	viis	0		N	sg n
    	viis	0		S	sg n
rubla	rubla	0		S	sg g
     	rubla	0		S	sg n
     	rubla	0		S	sg p
renti	rent	0		S	adt
     	rent	0		S	sg p
maksab	maks	b		V	b
,	,			Z	
nõnda	nõnda	0		D	
on	ole	0		V	b
  	ole	0		V	vad
see	see	0		P	sg n
heinamaa	heina_maa	0		S	sg g
        	heina_maa	0		S	sg n
selle	see	0		P	sg g
     	sell	e		S	pl p
töö	töö	0		S	sg g
   	töö	0		S	sg n
eest	eest	0		D	
    	eest	0		K	
    	esi	st		S	sg el
Mihkel	Mihkel	0		H	sg n
      	mihkel	0		A	sg n
      	mihkel	0		S	sg n
Kuuse	kuune	0		A	sg g
     	kuusk	0		S	sg g
käes	käes	0		K	
    	käsi	s		S	sg in
4	4	0		N	?
aastat	aasta	t		S	sg p
olnud	ol=nud	0		A	
     	ol=nud	0		A	sg n
     	ol=nud	d		A	pl n
     	ole	nud		V	nud
     	olnu	d		S	pl n
ja	ja	0		J	
sellega	see	ga		P	sg kom
on	ole	0		V	b
  	ole	0		V	vad
siis	siis	0		D	
    	siis	0		J	
tasa	tasa	0		D	
arvatud	arva	tud		V	tud
       	arva=tu	d		S	pl n
       	arva=tud	0		A	
       	arva=tud	0		A	sg n
       	arva=tud	d		A	pl n
,	,			Z	
peale	pea	le		S	sg all
     	peale	0		D	
     	peale	0		K	
selle	see	0		P	sg g
     	sell	e		S	pl p
ütleb	ütle	b		V	b
veel	veel	0		D	
    	vesi	l		S	sg ad
,	,			Z	
et	et	0		J	
see	see	0		P	sg n
Mihkel	Mihkel	0		H	sg n
      	mihkel	0		A	sg n
      	mihkel	0		S	sg n
kuusk	kuusk	0		S	sg n
poole	pool	0		N	sg g
     	pool	0		S	sg g
     	pool	e		S	pl p
     	poole	0		K	
     	poole	0		S	sg n
40.	40.	0		O	?
päeva	päev	0		S	adt
     	päev	0		S	sg g
     	päev	0		S	sg p
töös	töö	s		S	sg in
olnud	ol=nud	0		A	
     	ol=nud	0		A	sg n
     	ol=nud	d		A	pl n
     	ole	nud		V	nud
     	olnu	d		S	pl n
,	,			Z	
vaid	vaid	0		D	
    	vaid	0		J	
kaks	kaks	0		N	sg n
nädalid	####				
paljalt	paljalt	0		D	
       	paljas	lt		A	sg abl
seltsis	selts	s		S	sg in
       	seltsi	s		V	s
       	seltsis	0		D	
       	seltsis	0		K	
selle	see	0		P	sg g
     	sell	e		S	pl p
Madis	Madis	0		H	sg n
     	madis	0		S	sg n
Meibaumiga	####				
ega	ega	0		D	
   	ega	0		J	
poole	pool	0		N	sg g
     	pool	0		S	sg g
     	pool	e		S	pl p
     	poole	0		K	
     	poole	0		S	sg n
ka	ka	0		D	
seda	see	da		P	sg p
maja	maja	0		S	sg g
    	maja	0		S	sg n
    	maja	0		S	sg p
täiesti	täiesti	0		D	
valmis	valm	s		S	sg in
      	valmi	s		V	s
      	valmis	0		A	
      	valmis	0		A	sg n
      	valmis	0		D	
      	valmis	s		A	sg in
ehitanud	ehita	nud		V	nud
        	ehita=nu	d		S	pl n
        	ehita=nud	0		A	
        	ehita=nud	0		A	sg n
        	ehita=nud	d		A	pl n
.	.			Z	
-	-			Z	
kutsuti	kutsu	ti		V	ti
ette	ette	0		D	
    	ette	0		K	
    	esi	tte		S	adt
tunnistuse	tunnistus	0		S	sg g
mees	mees	0		S	sg n
    	mesi	s		S	sg in
Madis	Madis	0		H	sg n
     	madis	0		S	sg n
Meibaum	####				
ja	ja	0		J	
tunnistab	tunnista	b		V	b
,	,			Z	
et	et	0		J	
tema	tema	0		P	sg g
    	tema	0		P	sg n
kül	####				
selle	see	0		P	sg g
     	sell	e		S	pl p
Jaan	Jaan	0		H	sg n
    	jaan	0		S	sg n
    	jaan	0		Y	?
Soomanni	soo_mann	0		S	adt
        	soo_mann	0		S	sg g
        	soo_mann	0		S	sg p
maja	maja	0		S	sg g
    	maja	0		S	sg n
    	maja	0		S	sg p
ehitanud	ehita	nud		V	nud
        	ehita=nu	d		S	pl n
        	ehita=nud	0		A	
        	ehita=nud	0		A	sg n
        	ehita=nud	d		A	pl n
,	,			Z	
mitto	####				
korda	kord	0		S	adt
     	korda	0		V	o
     	kord	0		S	sg p
,	,			Z	
aga	aga	0		J	
nimelt	nimelt	0		D	
      	nimi	lt		S	sg abl
on	ole	0		V	b
  	ole	0		V	vad
,	,			Z	
et	et	0		J	
Mihkel	Mihkel	0		H	sg n
      	mihkel	0		A	sg n
      	mihkel	0		S	sg n
Kuusega	kuune	ga		A	sg kom
       	kuusk	ga		S	sg kom
2	2	0		N	?
nädalid	####				
toa	tuba	0		S	sg g
töös	töö	s		S	sg in
Jaan	Jaan	0		H	sg n
    	jaan	0		S	sg n
    	jaan	0		Y	?
Meibaumiga	####				
jälle	jälle	0		D	
üks	üks	0		N	sg n
   	üks	0		P	sg n
nädal	nädal	0		S	sg n
toa	tuba	0		S	sg g
töö	töö	0		S	sg g
   	töö	0		S	sg n
juuures	####				
ja	ja	0		J	
peale	pea	le		S	sg all
     	peale	0		D	
     	peale	0		K	
seda	see	da		P	sg p
veel	veel	0		D	
    	vesi	l		S	sg ad
ria	####				
alust	alg	st		S	sg el
     	alune	t		A	sg p
     	alune	t		S	sg p
     	alus	t		S	sg p
ehitanud	ehita	nud		V	nud
        	ehita=nu	d		S	pl n
        	ehita=nud	0		A	
        	ehita=nud	0		A	sg n
        	ehita=nud	d		A	pl n
,	,			Z	
pärast	pära	st		S	sg el
      	pärane	t		A	sg p
      	pärast	0		D	
      	pärast	0		K	
aga	aga	0		J	
Ado	Ado	0		H	sg g
   	Ado	0		H	sg n
ja	ja	0		J	
Must	must	0		A	sg n
    	must	0		S	sg n
    	mina	st		P	sg el
Jüriga	Jüri	ga		H	sg kom
kammert	####				
ehitanud	ehita	nud		V	nud
        	ehita=nu	d		S	pl n
        	ehita=nud	0		A	
        	ehita=nud	0		A	sg n
        	ehita=nud	d		A	pl n
,	,			Z	
ja	ja	0		J	
ka	ka	0		D	
see	see	0		P	sg n
Mihkel	Mihkel	0		H	sg n
      	mihkel	0		A	sg n
      	mihkel	0		S	sg n
kuusk	kuusk	0		S	sg n
on	ole	0		V	b
  	ole	0		V	vad
ütelnud	ütle	nud		V	nud
       	ütel=nu	d		S	pl n
       	ütel=nud	0		A	
       	ütel=nud	0		A	sg n
       	ütel=nud	d		A	pl n
,	,			Z	
et	et	0		J	
65	65	0		N	?
koppik	####				
päevas	päev	s		S	sg in
saab	saa	b		V	b
,	,			Z	
ka	ka	0		D	
ütelnud	ütle	nud		V	nud
       	ütel=nu	d		S	pl n
       	ütel=nud	0		A	
       	ütel=nud	0		A	sg n
       	ütel=nud	d		A	pl n
et	et	0		J	
raha	raha	0		S	sg g
    	raha	0		S	sg n
    	raha	0		S	sg p
ei	ei	0		D	
  	ei	0		V	neg
saa	saa	0		V	o
vaid	vaid	0		D	
    	vaid	0		J	
heinamaad	heina_maa	d		S	pl n
         	heina_maa	d		S	sg p
saab	saa	b		V	b
töö	töö	0		S	sg g
   	töö	0		S	sg n
eest	eest	0		D	
    	eest	0		K	
    	esi	st		S	sg el
,	,			Z	
ja	ja	0		J	
tunnistab	tunnista	b		V	b
ka	ka	0		D	
et	et	0		J	
see	see	0		P	sg n
Mihkel	Mihkel	0		H	sg n
      	mihkel	0		A	sg n
      	mihkel	0		S	sg n
kuusk	kuusk	0		S	sg n
poole	pool	0		N	sg g
     	pool	0		S	sg g
     	pool	e		S	pl p
     	poole	0		K	
     	poole	0		S	sg n
järjest	järg	st		S	sg el
       	järjest	0		D	
tööd	töö	d		S	pl n
    	töö	d		S	sg p
teinud	tege	nud		V	nud
      	tei=nud	0		A	
      	tei=nud	0		A	sg n
      	tei=nud	d		A	pl n
      	teinu	d		S	pl n
,	,			Z	
vaid	vaid	0		D	
    	vaid	0		J	
ka	ka	0		D	
mõned	mõni	d		P	pl n
nädalid	####				
ära	ära	0		D	
   	ära	0		V	neg o
olnud	ol=nud	0		A	
     	ol=nud	0		A	sg n
     	ol=nud	d		A	pl n
     	ole	nud		V	nud
     	olnu	d		S	pl n
,	,			Z	
aga	aga	0		J	
seda	see	da		P	sg p
ei	ei	0		D	
  	ei	0		V	neg
tea	tead	0		V	o
tõeste	tõene	te		A	pl g
tunnistada	tunnista	da		V	da
kas	kas	0		D	
Mihkel	Mihkel	0		H	sg n
      	mihkel	0		A	sg n
      	mihkel	0		S	sg n
kuusk	kuusk	0		S	sg n
40	40	0		N	?
päeva	päev	0		S	adt
     	päev	0		S	sg g
     	päev	0		S	sg p
töös	töö	s		S	sg in
olnud	ol=nud	0		A	
     	ol=nud	0		A	sg n
     	ol=nud	d		A	pl n
     	ole	nud		V	nud
     	olnu	d		S	pl n
.	.			Z	
kutsuti	kutsu	ti		V	ti
ette	ette	0		D	
    	ette	0		K	
    	esi	tte		S	adt
teine	teine	0		O	sg n
     	teine	0		P	sg n
tunnistuse	tunnistus	0		S	sg g
mees	mees	0		S	sg n
    	mesi	s		S	sg in
Jaan	Jaan	0		H	sg n
    	jaan	0		S	sg n
    	jaan	0		Y	?
Meibaum	####				
,	,			Z	
ja	ja	0		J	
tunnistab	tunnista	b		V	b
et	et	0		J	
kül	####				
selle	see	0		P	sg g
     	sell	e		S	pl p
Mihkel	Mihkel	0		H	sg n
      	mihkel	0		A	sg n
      	mihkel	0		S	sg n
Kuusega	kuune	ga		A	sg kom
       	kuusk	ga		S	sg kom
on	ole	0		V	b
  	ole	0		V	vad
Jaan	Jaan	0		H	sg n
    	jaan	0		S	sg n
    	jaan	0		Y	?
Soomanni	soo_mann	0		S	adt
        	soo_mann	0		S	sg g
        	soo_mann	0		S	sg p
maja	maja	0		S	sg g
    	maja	0		S	sg n
    	maja	0		S	sg p
ehitanud	ehita	nud		V	nud
        	ehita=nu	d		S	pl n
        	ehita=nud	0		A	
        	ehita=nud	0		A	sg n
        	ehita=nud	d		A	pl n
,	,			Z	
tuba	tuba	0		S	sg n
    	tuba	0		S	sg p
ja	ja	0		J	
kammert	####				
,	,			Z	
ja	ja	0		J	
ka	ka	0		D	
seda	see	da		P	sg p
on	ole	0		V	b
  	ole	0		V	vad
kuulnud	kuul	nud		V	nud
       	kuul=nud	0		A	
       	kuul=nud	0		A	sg n
       	kuul=nud	d		A	pl n
       	kuulnu	d		S	pl n
,	,			Z	
et	et	0		J	
65	65	0		N	?
kop	kop	0		Y	?
päevas	päev	s		S	sg in
saab	saa	b		V	b
,	,			Z	
ei	ei	0		D	
  	ei	0		V	neg
või	või	0		S	sg g
   	või	0		V	o
   	või	0		D	
   	või	0		J	
   	või	0		S	sg n
aga	aga	0		J	
ka	ka	0		D	
seda	see	da		P	sg p
tunnistada	tunnista	da		V	da
,	,			Z	
ka	ka	0		D	
see	see	0		P	sg n
Mihkel	Mihkel	0		H	sg n
      	mihkel	0		A	sg n
      	mihkel	0		S	sg n
kuusk	kuusk	0		S	sg n
on	ole	0		V	b
  	ole	0		V	vad
just	just	0		D	
    	just	0		I	
seal	seal	0		D	
    	siga	l		A	sg ad
    	siga	l		S	sg ad
40	40	0		N	?
päeva	päev	0		S	adt
     	päev	0		S	sg g
     	päev	0		S	sg p
töös	töö	s		S	sg in
olnud	ol=nud	0		A	
     	ol=nud	0		A	sg n
     	ol=nud	d		A	pl n
     	ole	nud		V	nud
     	olnu	d		S	pl n
.	.			Z	
-	-			Z	
Võeti	võt	ti		V	ti
ette	ette	0		D	
    	ette	0		K	
    	esi	tte		S	adt
Mihkel	Mihkel	0		H	sg n
      	mihkel	0		A	sg n
      	mihkel	0		S	sg n
Kuusest	kuune	st		A	sg el
       	kuusk	st		S	sg el
sisse	siss	e		S	pl p
     	sisse	0		D	
     	sisse	0		K	
antud	an=tu	d		S	pl n
     	and	tud		V	tud
     	antud	0		A	
     	antud	0		A	sg n
     	antud	d		A	pl n
Rehnung	rehnung	0		S	sg n
27mast	####				
Aprillist	aprill	st		S	sg el
,	,			Z	
kus	kus	0		D	
sees	sees	0		D	
    	sees	0		K	
60	60	0		N	?
koppik	####				
tööpäevade	töö_päev	de		S	pl g
eest	eest	0		D	
    	eest	0		K	
    	esi	st		S	sg el
kirjutud	####				
seisab	seis	b		V	b
,	,			Z	
ja	ja	0		J	
isi	####				
ka	ka	0		D	
kohtu	kohtu	0		V	o
     	kohus	0		S	sg g
ees	ees	0		D	
   	ees	0		K	
   	esi	s		S	sg in
suusõnaga	suu_sõna	ga		S	sg kom
tunnistab	tunnista	b		V	b
et	et	0		J	
60	60	0		N	?
koppik	####				
päevas	päev	s		S	sg in
saab	saa	b		V	b
,	,			Z	
ja	ja	0		J	
Rehnungi	rehnung	0		S	sg g
teise	teine	0		O	adt
     	teine	0		O	sg g
     	teine	0		P	adt
     	teine	0		P	sg g
pool	pool	0		K	
    	pool	0		N	sg n
    	pool	0		S	sg n
küllje	####				
peal	pea	l		S	sg ad
    	peal	0		D	
    	peal	0		K	
seisab	seis	b		V	b
,	,			Z	
et	et	0		J	
neli	neli	0		N	sg n
aastat	aasta	t		S	sg p
kaks	kaks	0		N	sg n
vakkamaad	####				
põldu	põld	0		S	adt
     	põld	0		S	sg p
pruuukida	####				
on	ole	0		V	b
  	ole	0		V	vad
olnud	ol=nud	0		A	
     	ol=nud	0		A	sg n
     	ol=nud	d		A	pl n
     	ole	nud		V	nud
     	olnu	d		S	pl n
,	,			Z	
ja	ja	0		J	
ise	ise	0		A	
   	ise	0		D	
   	ise	0		P	pl n
   	ise	0		P	sg n
ütles	ütle	s		V	s
ka	ka	0		D	
jälle	jälle	0		D	
kohtu	kohtu	0		V	o
     	kohus	0		S	sg g
ees	ees	0		D	
   	ees	0		K	
   	esi	s		S	sg in
,	,			Z	
et	et	0		J	
Heinamaad	heina_maa	d		S	pl n
         	heina_maa	d		S	sg p
on	ole	0		V	b
  	ole	0		V	vad
olnud	ol=nud	0		A	
     	ol=nud	0		A	sg n
     	ol=nud	d		A	pl n
     	ole	nud		V	nud
     	olnu	d		S	pl n
ka	ka	0		D	
kaks	kaks	0		N	sg n
vakkamaad	####				
,	,			Z	
siis	siis	0		D	
    	siis	0		J	
on	ole	0		V	b
  	ole	0		V	vad
arvata	arva	ta		V	da
      	arva	ta		V	ta
      	arvata	0		D	
,	,			Z	
et	et	0		J	
selle	see	0		P	sg g
     	sell	e		S	pl p
Mihkel	Mihkel	0		H	sg n
      	mihkel	0		A	sg n
      	mihkel	0		S	sg n
Kuuse	kuune	0		A	sg g
     	kuusk	0		S	sg g
pärimine	pärimine	0		S	sg n
kahtlane	kahtlane	0		A	sg n
on	ole	0		V	b
  	ole	0		V	vad
,	,			Z	
ja	ja	0		J	
mitte	mitte	0		D	
selge	selge	0		A	sg g
     	selge	0		A	sg n
ei	ei	0		D	
  	ei	0		V	neg
ole	ole	0		V	o
.	.			Z	
-	-			Z	
sellepärast	selle_pärast	0		D	
.	.			Z	
-	-			Z	
Sai	saa	i		V	s
   	sai	0		S	sg n
mõistetud	mõist	tud		V	tud
         	mõiste=tu	d		S	pl n
         	mõiste=tud	0		A	
         	mõiste=tud	0		A	sg n
         	mõiste=tud	d		A	pl n
:	:			Z	
et	et	0		J	
selle	see	0		P	sg g
     	sell	e		S	pl p
Mihkel	Mihkel	0		H	sg n
      	mihkel	0		A	sg n
      	mihkel	0		S	sg n
Kuusel	kuune	l		A	sg ad
      	kuusk	l		S	sg ad
mitte	mitte	0		D	
selged	selge	d		A	pl n
pärimise	pärimine	0		S	sg g
põhust	põhk	st		S	sg el
      	põhune	t		A	sg p
ei	ei	0		D	
  	ei	0		V	neg
ole	ole	0		V	o
,	,			Z	
mis	mis	0		P	pl n
   	mis	0		P	sg n
kõige	kõik	0		P	sg g
     	kõige	0		D	
tema	tema	0		P	sg g
    	tema	0		P	sg n
Rehnungi	rehnung	0		S	sg g
ja	ja	0		J	
välja	välja	0		D	
     	välja	0		V	o
     	väli	0		S	adt
     	väli	0		S	sg g
     	väli	0		S	sg p
ütlemisega	ütlemine	ga		S	sg kom
ühte	ühte	0		D	
    	üks	0		N	adt
    	üks	0		P	adt
    	ühe	0		S	sg g
    	üks	0		N	sg p
    	üks	0		P	sg p
ei	ei	0		D	
  	ei	0		V	neg
läha	####				
,	,			Z	
et	et	0		J	
neli	neli	0		N	sg n
aastat	aasta	t		S	sg p
2	2	0		N	?
vakkamaad	####				
põldu	põld	0		S	adt
     	põld	0		S	sg p
ja	ja	0		J	
jälle	jälle	0		D	
4	4	0		N	?
aastat	aasta	t		S	sg p
2	2	0		N	?
vakkamaad	####				
heinamaad	heina_maa	d		S	pl n
         	heina_maa	d		S	sg p
selle	see	0		P	sg g
     	sell	e		S	pl p
töö	töö	0		S	sg g
   	töö	0		S	sg n
ja	ja	0		J	
ka	ka	0		D	
raha	raha	0		S	sg g
    	raha	0		S	sg n
    	raha	0		S	sg p
laenu	laen	0		S	adt
     	laen	0		S	sg g
     	laenu	0		V	o
     	laen	0		S	sg p
eest	eest	0		D	
    	eest	0		K	
    	esi	st		S	sg el
selle	see	0		P	sg g
     	sell	e		S	pl p
Mihkel	Mihkel	0		H	sg n
      	mihkel	0		A	sg n
      	mihkel	0		S	sg n
Kuuse	kuune	0		A	sg g
     	kuusk	0		S	sg g
käes	käes	0		K	
    	käsi	s		S	sg in
on	ole	0		V	b
  	ole	0		V	vad
olnud	ol=nud	0		A	
     	ol=nud	0		A	sg n
     	ol=nud	d		A	pl n
     	ole	nud		V	nud
     	olnu	d		S	pl n
selle	see	0		P	sg g
     	sell	e		S	pl p
Jaan	Jaan	0		H	sg n
    	jaan	0		S	sg n
    	jaan	0		Y	?
Somani	####				
maast	maa	st		S	sg el
,	,			Z	
siis	siis	0		D	
    	siis	0		J	
ei	ei	0		D	
  	ei	0		V	neg
või	või	0		S	sg g
   	või	0		V	o
   	või	0		D	
   	või	0		J	
   	või	0		S	sg n
siit	siit	0		D	
kohus	kohu	s		V	s
     	kohus	0		S	sg n
ilma	ilm	0		S	adt
    	ilm	0		S	sg g
    	ilma	0		D	
    	ilma	0		K	
    	ilm	0		S	sg p
selge	selge	0		A	sg g
     	selge	0		A	sg n
tunnistuseta	tunnistus	ta		S	sg ab
ühtigi	ühtigi	0		D	
nende	see	de		P	pl g
     	tema	de		P	pl g
töö	töö	0		S	sg g
   	töö	0		S	sg n
päivi	####				
maksta	maks	ta		V	da
      	maks	ta		V	ta
mõista	mõist	0		V	o
      	mõist	a		V	da
.	.			Z	
sest	see	st		P	sg el
    	sest	0		J	
et	et	0		J	
nende	see	de		P	pl g
     	tema	de		P	pl g
40ne	40	0		N	sg g
päeva	päev	0		S	adt
     	päev	0		S	sg g
     	päev	0		S	sg p
ülle	ülle	0		D	
Mihkel	Mihkel	0		H	sg n
      	mihkel	0		A	sg n
      	mihkel	0		S	sg n
Kuusel	kuune	l		A	sg ad
      	kuusk	l		S	sg ad
teistest	teine	test		O	pl el
        	teine	test		P	pl el
töömeestest	töö_mees	test		S	pl el
ühte	ühte	0		D	
    	üks	0		N	adt
    	üks	0		P	adt
    	ühe	0		S	sg g
    	üks	0		N	sg p
    	üks	0		P	sg p
selged	selge	d		A	pl n
tunnistust	tunnistus	t		S	sg p
ei	ei	0		D	
  	ei	0		V	neg
ole	ole	0		V	o
.	.			Z	
Mihkel	Mihkel	0		H	sg n
      	mihkel	0		A	sg n
      	mihkel	0		S	sg n
kuusk	kuusk	0		S	sg n
ei	ei	0		D	
  	ei	0		V	neg
ole	ole	0		V	o
sellega	see	ga		P	sg kom
rahul	rahu	l		S	sg ad
     	rahul	0		D	
.	.			Z	
-	-			Z	
