kohtu	kohtu	0		V	o
     	kohus	0		S	sg g
ette	ette	0		D	
    	ette	0		K	
    	esi	tte		S	adt
tuli	tuli	0		S	sg n
    	tule	i		V	s
Juhani	Juhan	0		H	sg g
      	juha	ni		S	sg ter
Mihkel	Mihkel	0		H	sg n
      	mihkel	0		A	sg n
      	mihkel	0		S	sg n
Vidrik	####				
ja	ja	0		J	
rääkis	rääki	s		V	s
:	:			Z	
et	et	0		J	
temal	tema	l		P	sg ad
on	ole	0		V	b
  	ole	0		V	vad
Laasu	####				
Kustavi	####				
Oatii	####				
käest	käest	0		K	
     	käsi	st		S	sg el
10	10	0		N	?
rubla	rubla	0		S	sg g
     	rubla	0		S	sg n
     	rubla	0		S	sg p
saada	saa	da		V	da
     	saat	0		V	o
     	saa	da		V	ta
mis	mis	0		P	pl n
   	mis	0		P	sg n
ta	tema	0		P	sg g
  	tema	0		P	sg n
temale	tema	le		P	sg all
lainanud	####				
ja	ja	0		J	
nõudis	nõud	is		V	s
seda	see	da		P	sg p
kätte	kätte	0		K	
     	käsi	tte		S	adt
.	.			Z	
Kustav	kus=tav	0		A	sg n
      	kuse	tav		V	tav
Oad	uba	d		S	pl n
sai	saa	i		V	s
   	sai	0		S	sg n
kohtu	kohtu	0		V	o
     	kohus	0		S	sg g
ette	ette	0		D	
    	ette	0		K	
    	esi	tte		S	adt
nõutud	nõu=tu	d		S	pl n
      	nõu=tud	0		A	
      	nõu=tud	0		A	sg n
      	nõu=tud	d		A	pl n
      	nõud	tud		V	tud
      	nõutu	d		A	pl n
ja	ja	0		J	
tema	tema	0		P	sg g
    	tema	0		P	sg n
tunnistas	tunnista	s		V	s
seda	see	da		P	sg p
töeks	####				
,	,			Z	
aga	aga	0		J	
et	et	0		J	
nõnda	nõnda	0		D	
kui	kui	0		D	
   	kui	0		J	
temal	tema	l		P	sg ad
praegu	praegu	0		D	
raha	raha	0		S	sg g
    	raha	0		S	sg n
    	raha	0		S	sg p
ei	ei	0		D	
  	ei	0		V	neg
ole	ole	0		V	o
siis	siis	0		D	
    	siis	0		J	
palus	palu	s		S	sg in
     	palu	s		V	s
kannatada	kannata	da		V	da
ja	ja	0		J	
lubas	luba	s		V	s
ära	ära	0		D	
   	ära	0		V	neg o
maksta	maks	ta		V	da
      	maks	ta		V	ta
kui	kui	0		D	
   	kui	0		J	
ta	tema	0		P	sg g
  	tema	0		P	sg n
raha	raha	0		S	sg g
    	raha	0		S	sg n
    	raha	0		S	sg p
saab	saa	b		V	b
ja	ja	0		J	
sellega	see	ga		P	sg kom
Mihkel	Mihkel	0		H	sg n
      	mihkel	0		A	sg n
      	mihkel	0		S	sg n
Vidrik	####				
oli	ole	i		V	s
ka	ka	0		D	
rahul	rahu	l		S	sg ad
     	rahul	0		D	
ja	ja	0		J	
seda	see	da		P	sg p
viisi	viis	0		S	adt
     	viis	0		S	sg g
     	viis	i		N	pl p
     	viisi	0		K	
     	viis	0		S	sg p
leppisid	leppi	sid		V	sid
.	.			Z	
Kihnu	Kihnu	0		H	adt
     	Kihnu	0		H	sg g
     	kihn	0		S	adt
     	kihn	0		S	sg g
     	kihnu	0		G	
     	Kihnu	0		H	sg n
     	kihn	0		S	sg p
valla	vald	0		S	sg g
     	valla	0		D	
kogukonna	kogukond	0		S	sg g
kohus	kohu	s		V	s
     	kohus	0		S	sg n
.	.			Z	
Peakohtumees	pea_kohtu_mees	0		S	sg n
:	:			Z	
Jakob	Jakob	0		H	sg n
mättas	mätas	s		S	sg in
XXX	XXX	0		O	?
   	XXX	0		Y	?
kohtumehed	kohtu_mees	d		S	pl n
:	:			Z	
Jüri	Jüri	0		H	sg g
    	Jüri	0		H	sg n
Vahkel	####				
XXX	XXX	0		O	?
   	XXX	0		Y	?
Jaan	Jaan	0		H	sg n
    	jaan	0		S	sg n
    	jaan	0		Y	?
Pull	pull	0		A	sg n
    	pull	0		S	sg n
XXX	XXX	0		O	?
   	XXX	0		Y	?
