Laiksaare	laik_saar	0		S	sg g
kogukonna	kogukond	0		S	sg g
kohus	kohu	s		V	s
     	kohus	0		S	sg n
sel	see	l		P	sg ad
   	sel	0		Y	?
21.	21.	0		O	?
April	####				
1866.	1866.	0		O	?
kohtus	kohtu	s		V	s
      	kohus	s		S	sg in
olid	ole	id		V	sid
:	:			Z	
pea	pea	0		D	
   	pea	0		S	sg g
   	pida	0		V	o
   	pea	0		S	sg n
kohtumees	kohtu_mees	0		S	sg n
Karl	Karl	0		H	sg n
Tals	####				
kohtumees	kohtu_mees	0		S	sg n
Hans	Hans	0		H	sg n
Tins	####				
-	-			Z	
,	,			Z	
,	,			Z	
-	-			Z	
Teennis	####				
Baers	####				
Kaibas	####				
vana	vana	0		A	sg g
    	vana	0		A	sg n
    	vana	0		A	sg p
    	vana	0		S	sg g
    	vana	0		S	sg n
    	vana	0		S	sg p
mees	mees	0		S	sg n
    	mesi	s		S	sg in
Johann	Johann	0		H	sg n
Saul	Saul	0		H	sg n
oma	oma	0		A	sg g
   	oma	0		D	
   	oma	0		P	sg g
   	oma	0		S	sg g
   	oma	0		V	o
   	oma	0		A	sg n
   	oma	0		A	sg p
   	oma	0		P	sg n
   	oma	0		P	sg p
   	oma	0		S	sg n
   	oma	0		S	sg p
Poija	####				
,	,			Z	
peremehe	pere_mees	0		S	sg g
possa	####				
Pedi	####				
peal	pea	l		S	sg ad
    	peal	0		D	
    	peal	0		K	
,	,			Z	
kui	kui	0		D	
   	kui	0		J	
ei	ei	0		D	
  	ei	0		V	neg
annava	####				
temale	tema	le		P	sg all
leiba	leib	0		S	adt
     	leib	0		S	sg p
;	;			Z	
aga	aga	0		J	
kus	kus	0		D	
nemaht	####				
ette	ette	0		D	
    	ette	0		K	
    	esi	tte		S	adt
tuli	tuli	0		S	sg n
    	tule	i		V	s
,	,			Z	
leppisid	leppi	sid		V	sid
seda	see	da		P	sg p
mohda	####				
ärra	####				
,	,			Z	
kui	kui	0		D	
   	kui	0		J	
Poeg	poeg	0		S	sg n
Peet	Peet	0		H	sg n
    	peet	0		S	sg n
Saul	Saul	0		H	sg n
pruuhgib	####				
neid	neid	0		S	sg n
    	see	d		P	pl p
    	tema	d		P	pl p
maad	maa	d		S	pl n
    	maa	d		S	sg p
ja	ja	0		J	
einamaad	####				
mis	mis	0		P	pl n
   	mis	0		P	sg n
issä	####				
käs	####				
oli	ole	i		V	s
,	,			Z	
aga	aga	0		J	
annab	and	b		V	b
issale	####				
leiba	leib	0		S	adt
     	leib	0		S	sg p
ja	ja	0		J	
mis	mis	0		P	pl n
   	mis	0		P	sg n
temale	tema	le		P	sg all
vehl	####				
tarvis	tarvis	0		D	
      	tarvis	0		K	
.	.			Z	
kohus	kohu	s		V	s
     	kohus	0		S	sg n
mõistis	mõist	is		V	s
:	:			Z	
se	####				
prottokoll	####				
ülespanema	####				
.	.			Z	
