tuli	tuli	0		S	sg n
    	tule	i		V	s
ette	ette	0		D	
    	ette	0		K	
    	esi	tte		S	adt
Laasu	####				
Jaan	Jaan	0		H	sg n
    	jaan	0		S	sg n
    	jaan	0		Y	?
Oad	uba	d		S	pl n
ja	ja	0		J	
ütles	ütle	s		V	s
,	,			Z	
et	et	0		J	
temal	tema	l		P	sg ad
Enn	Enn	0		H	sg n
Tungeni	####				
käest	käest	0		K	
     	käsi	st		S	sg el
on	ole	0		V	b
  	ole	0		V	vad
laeva	laev	0		S	adt
     	laev	0		S	sg g
     	laev	0		S	sg p
raha	raha	0		S	sg g
    	raha	0		S	sg n
    	raha	0		S	sg p
saada	saa	da		V	da
     	saat	0		V	o
     	saa	da		V	ta
7	7	0		N	?
rubl	####				
.	.			Z	
20	20	0		N	?
kop	kop	0		Y	?
.	.			Z	
ja	ja	0		J	
Mihkel	Mihkel	0		H	sg n
      	mihkel	0		A	sg n
      	mihkel	0		S	sg n
Allassele	####				
2	2	0		N	?
rubla	rubla	0		S	sg g
     	rubla	0		S	sg n
     	rubla	0		S	sg p
(	(			Z	
55	55	0		N	?
)	)			Z	
48	48	0		N	?
kop	kop	0		Y	?
.	.			Z	
mis	mis	0		P	pl n
   	mis	0		P	sg n
Enn	Enn	0		H	sg n
Tungen	####				
lainanud	####				
(	(			Z	
52	52	0		N	?
kop	kop	0		Y	?
.	.			Z	
maha	maha	0		D	
arvatud	arva	tud		V	tud
       	arva=tu	d		S	pl n
       	arva=tud	0		A	
       	arva=tud	0		A	sg n
       	arva=tud	d		A	pl n
3	3	0		N	?
rublast	rubla	st		S	sg el
       	rublane	t		A	sg p
       	rublane	t		S	sg p
)	)			Z	
ja	ja	0		J	
veel	veel	0		D	
    	vesi	l		S	sg ad
Enn	Enn	0		H	sg n
Tungen	####				
lainas	####				
valla	vald	0		S	sg g
     	valla	0		D	
laekast	laegas	st		S	sg el
10	10	0		N	?
rubl	####				
.	.			Z	
Ja	ja	0		J	
nüid	####				
kui	kui	0		D	
   	kui	0		J	
tema	tema	0		P	sg g
    	tema	0		P	sg n
juhtub	juhtu	b		V	b
soldaniks	####				
minema	mine	ma		V	ma
,	,			Z	
siis	siis	0		D	
    	siis	0		J	
laeva	laev	0		S	adt
     	laev	0		S	sg g
     	laev	0		S	sg p
rahast	raha	st		S	sg el
,	,			Z	
kõik	kõik	0		P	pl n
    	kõik	0		S	sg n
    	kõik	0		P	sg n
seda	see	da		P	sg p
ära	ära	0		D	
   	ära	0		V	neg o
maksta	maks	ta		V	da
      	maks	ta		V	ta
,	,			Z	
kui	kui	0		D	
   	kui	0		J	
laev	laev	0		S	sg n
teenib	teeni	b		V	b
ja	ja	0		J	
nimet	####				
Laaso	####				
Jaanile	Jaan	le		H	sg all
       	Jaani	le		H	sg all
       	jaan	le		S	sg all
,	,			Z	
Jaani	Jaan	0		H	adt
     	Jaan	0		H	sg g
     	Jaani	0		H	sg g
     	jaan	0		S	adt
     	jaan	0		S	sg g
     	Jaan	0		H	sg p
     	Jaani	0		H	sg n
     	jaan	0		S	sg p
päevaks	päev	ks		S	sg tr
,	,			Z	
aga	aga	0		J	
Mihklele	####				
Allas	Alla	s		H	sg in
ja	ja	0		J	
valla	vald	0		S	sg g
     	valla	0		D	
laeka	laegas	0		S	adt
     	laegas	0		S	sg g
Pärtli	Pärtel	0		H	sg g
päevaks	päev	ks		S	sg tr
.	.			Z	
laev	laev	0		S	sg n
jääb	jää	b		V	b
Tohvri	####				
Jaani	Jaan	0		H	adt
     	Jaan	0		H	sg g
     	Jaani	0		H	sg g
     	jaan	0		S	adt
     	jaan	0		S	sg g
     	Jaan	0		H	sg p
     	Jaani	0		H	sg n
     	jaan	0		S	sg p
Vesikas	####				
käe	käsi	0		S	sg g
peale	pea	le		S	sg all
     	peale	0		D	
     	peale	0		K	
,	,			Z	
ja	ja	0		J	
peale	pea	le		S	sg all
     	peale	0		D	
     	peale	0		K	
selle	see	0		P	sg g
     	sell	e		S	pl p
kui	kui	0		D	
   	kui	0		J	
Pärtli	Pärtel	0		H	sg g
päevaks	päev	ks		S	sg tr
poole	pool	0		N	sg g
     	pool	0		S	sg g
     	pool	e		S	pl p
     	poole	0		K	
     	poole	0		S	sg n
mitte	mitte	0		D	
kõik	kõik	0		P	pl n
    	kõik	0		S	sg n
    	kõik	0		P	sg n
se	####				
ülevel	####				
nimetud	nimetu	d		A	pl n
raha	raha	0		S	sg g
    	raha	0		S	sg n
    	raha	0		S	sg p
ära	ära	0		D	
   	ära	0		V	neg o
makstud	maks	tud		V	tud
       	maks=tu	d		S	pl n
       	maks=tud	0		A	
       	maks=tud	0		A	sg n
       	maks=tud	d		A	pl n
,	,			Z	
siis	siis	0		D	
    	siis	0		J	
võib	või	b		V	b
se	####				
laev	laev	0		S	sg n
ära	ära	0		D	
   	ära	0		V	neg o
müüdut	müü=du	t		S	sg p
saama	saa	ma		V	ma
     	saam	0		S	adt
     	saam	0		S	sg g
     	saam	0		S	sg p
.	.			Z	
kõige	kõik	0		P	sg g
     	kõige	0		D	
selle	see	0		P	sg g
     	sell	e		S	pl p
asjade	asi	de		S	pl g
juures	juur	s		S	sg in
      	juures	0		D	
      	juures	0		K	
olid	ole	id		V	sid
tunnistajad	tunnistaja	d		S	pl n
:	:			Z	
Tohvri	####				
Jaan	Jaan	0		H	sg n
    	jaan	0		S	sg n
    	jaan	0		Y	?
Vesikas	####				
,	,			Z	
Antsu	Ants	0		H	adt
     	Ants	0		H	sg g
     	Ants	0		H	sg p
Laas	laas	0		S	sg n
Oad	uba	d		S	pl n
ja	ja	0		J	
Peetri	Peeter	0		H	sg g
      	Peetri	0		H	sg g
      	Peetri	0		H	sg n
Toomas	Toomas	0		H	sg n
      	Toomas	s		H	sg in
      	too	mas		V	mas
Vesikas	####				
.	.			Z	
Laasu	####				
Jaan	Jaan	0		H	sg n
    	jaan	0		S	sg n
    	jaan	0		Y	?
Oad	uba	d		S	pl n
7	7	0		N	?
r	r	0		Y	?
.	.			Z	
20	20	0		N	?
k	k	0		Y	?
.	.			Z	
ja	ja	0		J	
Mihkel	Mihkel	0		H	sg n
      	mihkel	0		A	sg n
      	mihkel	0		S	sg n
Allasele	####				
2	2	0		N	?
r	r	0		Y	?
.	.			Z	
48	48	0		N	?
k	k	0		Y	?
.	.			Z	
ära	ära	0		D	
   	ära	0		V	neg o
makstud	maks	tud		V	tud
       	maks=tu	d		S	pl n
       	maks=tud	0		A	
       	maks=tud	0		A	sg n
       	maks=tud	d		A	pl n
on	ole	0		V	b
  	ole	0		V	vad
.	.			Z	
10	10	0		N	?
rubl	####				
.	.			Z	
jää	jää	0		S	sg g
   	jää	0		V	o
   	jää	0		S	sg n
Jüri	Jüri	0		H	sg g
    	Jüri	0		H	sg n
Rand	rand	0		S	sg n
kätte	kätte	0		K	
     	käsi	tte		S	adt
.	.			Z	
valla	vald	0		S	sg g
     	valla	0		D	
vanemb	####				
:	:			Z	
Jüri	Jüri	0		H	sg g
    	Jüri	0		H	sg n
Vahkel	####				
XXX	XXX	0		O	?
   	XXX	0		Y	?
Vöölmünder	####				
:	:			Z	
Ants	Ants	0		H	sg n
Sep	####				
XXX	XXX	0		O	?
   	XXX	0		Y	?
pea	pea	0		D	
   	pea	0		S	sg g
   	pida	0		V	o
   	pea	0		S	sg n
kohtumees	kohtu_mees	0		S	sg n
:	:			Z	
Jakob	Jakob	0		H	sg n
Allas	Alla	s		H	sg in
XXX	XXX	0		O	?
   	XXX	0		Y	?
abi	abi	0		S	sg g
   	abi	0		S	sg n
   	abi	0		S	sg p
kohtumees	kohtu_mees	0		S	sg n
:	:			Z	
Jüri	Jüri	0		H	sg g
    	Jüri	0		H	sg n
Vidrik	####				
XXX	XXX	0		O	?
   	XXX	0		Y	?
