kohtumehed	kohtu_mees	d		S	pl n
kutsusid	kutsu	sid		V	sid
        	kutsu	sid		S	pl p
kohtu	kohtu	0		V	o
     	kohus	0		S	sg g
ette	ette	0		D	
    	ette	0		K	
    	esi	tte		S	adt
Kadaka	kadakas	0		S	sg g
Reet	Reet	0		H	sg n
,	,			Z	
sellepärast	selle_pärast	0		D	
et	et	0		J	
tema	tema	0		P	sg g
    	tema	0		P	sg n
Sauendi	####				
hollendre	####				
Mathiseni	####				
emandat	emand	t		S	sg p
ühe	üks	0		N	sg g
   	üks	0		P	sg g
   	ühe	0		S	sg n
ropu	ropp	0		A	sg g
viisi	viis	0		S	adt
     	viis	0		S	sg g
     	viis	i		N	pl p
     	viisi	0		K	
     	viis	0		S	sg p
peale	pea	le		S	sg all
     	peale	0		D	
     	peale	0		K	
on	ole	0		V	b
  	ole	0		V	vad
sõimanud	sõima	nud		V	nud
        	sõima=nu	d		S	pl n
        	sõima=nud	0		A	
        	sõima=nud	0		A	sg n
        	sõima=nud	d		A	pl n
,	,			Z	
nõnda	nõnda	0		D	
kutsuti	kutsu	ti		V	ti
ka	ka	0		D	
sellesama	see_sama	0		P	sg g
süü	süü	0		S	sg g
   	süü	0		S	sg n
pärast	pära	st		S	sg el
      	pärane	t		A	sg p
      	pärast	0		D	
      	pärast	0		K	
se	####				
nekruti	nekrut	0		S	sg g
lesk	lesk	0		S	sg n
naine	naine	0		S	sg n
Insiku	####				
Reet	Reet	0		H	sg n
ette	ette	0		D	
    	ette	0		K	
    	esi	tte		S	adt
,	,			Z	
se	####				
on	ole	0		V	b
  	ole	0		V	vad
ähvardanud	ähvarda	nud		V	nud
          	ähvarda=nu	d		S	pl n
          	ähvarda=nud	0		A	
          	ähvarda=nud	0		A	sg n
          	ähvarda=nud	d		A	pl n
,	,			Z	
et	et	0		J	
tema	tema	0		P	sg g
    	tema	0		P	sg n
Tahab	taht	b		V	b
,	,			Z	
hollendrit	####				
Mathiseni	####				
,	,			Z	
tema	tema	0		P	sg g
    	tema	0		P	sg n
emandat	emand	t		S	sg p
ja	ja	0		J	
nende	see	de		P	pl g
     	tema	de		P	pl g
lojosed	####				
ära	ära	0		D	
   	ära	0		V	neg o
nõiduda	nõidu	da		V	da
,	,			Z	
nõnda	nõnda	0		D	
kui	kui	0		D	
   	kui	0		J	
tema	tema	0		P	sg g
    	tema	0		P	sg n
sedaviisi	seda_viisi	0		D	
mitmele	mitu	le		P	sg all
on	ole	0		V	b
  	ole	0		V	vad
teinud	tege	nud		V	nud
      	tei=nud	0		A	
      	tei=nud	0		A	sg n
      	tei=nud	d		A	pl n
      	teinu	d		S	pl n
,	,			Z	
nõnda	nõnda	0		D	
kui	kui	0		D	
   	kui	0		J	
nimega	nimi	ga		S	sg kom
Perdi	####				
Jakobil	Jakob	l		H	sg ad
,	,			Z	
ja	ja	0		J	
veel	veel	0		D	
    	vesi	l		S	sg ad
teistel	teine	tel		O	pl ad
       	teine	tel		P	pl ad
.	.			Z	
selle	see	0		P	sg g
     	sell	e		S	pl p
ette	ette	0		D	
    	ette	0		K	
    	esi	tte		S	adt
sai	saa	i		V	s
   	sai	0		S	sg n
temale	tema	le		P	sg all
20	20	0		N	?
hoopi	hoop	0		S	adt
     	hoop	0		S	sg p
vitsad	vits	d		S	pl n
mõistetud	mõist	tud		V	tud
         	mõiste=tu	d		S	pl n
         	mõiste=tud	0		A	
         	mõiste=tud	0		A	sg n
         	mõiste=tud	d		A	pl n
,	,			Z	
aga	aga	0		J	
seda	see	da		P	sg p
trahvi	trahv	0		S	adt
      	trahv	0		S	sg g
      	trahvi	0		V	o
      	trahv	0		S	sg p
ei	ei	0		D	
  	ei	0		V	neg
võinud	või	nud		V	nud
      	või=nu	d		S	pl n
      	või=nud	0		A	
      	või=nud	0		A	sg n
      	või=nud	d		A	pl n
naine	naine	0		S	sg n
mitte	mitte	0		D	
saada	saa	da		V	da
     	saat	0		V	o
     	saa	da		V	ta
,	,			Z	
sest	see	st		P	sg el
    	sest	0		J	
et	et	0		J	
tema	tema	0		P	sg g
    	tema	0		P	sg n
ennast	ise	t		P	sg p
raske	rask	e		S	pl p
     	raske	0		A	sg g
     	raske	0		A	sg n
(	(			Z	
schvangen	####				
)	)			Z	
olevat	ole	vat		V	vat
      	olev	t		A	sg p
      	olev	t		S	sg p
ütles	ütle	s		V	s
,	,			Z	
sellepärast	selle_pärast	0		D	
sai	saa	i		V	s
   	sai	0		S	sg n
temale	tema	le		P	sg all
4	4	0		N	?
rubl	####				
:	:			Z	
b_	####				
.	.			Z	
_aj	####				
.	.			Z	
trahviks	trahv	ks		S	sg tr
        	trahvi	ks		V	ks
pandud	pan=du	d		S	pl n
      	pan=dud	0		A	
      	pan=dud	0		A	sg n
      	pan=dud	d		A	pl n
      	pane	dud		V	tud
,	,			Z	
ja	ja	0		J	
se	####				
moisteti	####				
valla	vald	0		S	sg g
     	valla	0		D	
laeka	laegas	0		S	adt
     	laegas	0		S	sg g
.	.			Z	
sellesama	see_sama	0		P	sg g
naise	naine	0		S	sg g
peale	pea	le		S	sg all
     	peale	0		D	
     	peale	0		K	
sai	saa	i		V	s
   	sai	0		S	sg n
veel	veel	0		D	
    	vesi	l		S	sg ad
kaevatud	kaeba	tud		V	tud
        	kaeva	tud		V	tud
        	kaeva=tu	d		S	pl n
        	kaeva=tud	0		A	
        	kaeva=tud	0		A	sg n
        	kaeva=tud	d		A	pl n
,	,			Z	
et	et	0		J	
tema	tema	0		P	sg g
    	tema	0		P	sg n
mõisast	mõis	st		S	sg el
1	1	0		N	?
koorem	koorem	0		S	sg n
,	,			Z	
arvata	arva	ta		V	da
      	arva	ta		V	ta
      	arvata	0		D	
neli	neli	0		N	sg n
None	####				
pange	pang	0		S	adt
     	pang	0		S	sg g
     	pane	ge		V	ge
     	pang	0		S	sg p
Räimed	räim	d		S	pl n
varastanud	varasta	nud		V	nud
          	varasta=nu	d		S	pl n
          	varasta=nud	0		A	
          	varasta=nud	0		A	sg n
          	varasta=nud	d		A	pl n
,	,			Z	
ja	ja	0		J	
need	see	d		P	pl n
räimed	räim	d		S	pl n
ühte	ühte	0		D	
    	üks	0		N	adt
    	üks	0		P	adt
    	ühe	0		S	sg g
    	üks	0		N	sg p
    	üks	0		P	sg p
mõisa	mõis	0		S	sg g
paati	paat	0		A	adt
     	paat	0		A	sg p
     	paat	0		S	adt
     	paat	0		S	sg p
,	,			Z	
mis	mis	0		P	pl n
   	mis	0		P	sg n
mere	meri	0		S	sg g
ääres	äär	s		S	sg in
     	ääres	0		K	
ankrus	ankur	s		S	sg in
oli	ole	i		V	s
ära	ära	0		D	
   	ära	0		V	neg o
peitnud	peit	nud		V	nud
       	peit=nu	d		S	pl n
       	peit=nud	0		A	
       	peit=nud	0		A	sg n
       	peit=nud	d		A	pl n
,	,			Z	
selle	see	0		P	sg g
     	sell	e		S	pl p
peale	pea	le		S	sg all
     	peale	0		D	
     	peale	0		K	
on	ole	0		V	b
  	ole	0		V	vad
veel	veel	0		D	
    	vesi	l		S	sg ad
kupja	kupjas	0		A	sg g
     	kubjas	0		S	sg g
käest	käest	0		K	
     	käsi	st		S	sg el
teise	teine	0		O	adt
     	teine	0		O	sg g
     	teine	0		P	adt
     	teine	0		P	sg g
koorma	koorem	0		S	sg g
      	koorma	0		V	o
järele	järele	0		D	
      	järele	0		K	
kuulata	kuula	ta		V	da
       	kuulata	0		V	o
       	kuula	ta		V	ta
,	,			Z	
selle	see	0		P	sg g
     	sell	e		S	pl p
eest	eest	0		D	
    	eest	0		K	
    	esi	st		S	sg el
sai	saa	i		V	s
   	sai	0		S	sg n
kahju	kahi	0		S	adt
     	kahi	0		S	sg g
     	kahi	0		S	sg p
     	kahju	0		S	sg g
     	kahju	0		S	sg n
     	kahju	0		S	sg p
tasuks	tasu	ks		S	sg tr
      	tasu	ks		V	ks
16	16	0		N	?
rbl	rbl	0		Y	?
:	:			Z	
tema	tema	0		P	sg g
    	tema	0		P	sg n
lehm	lehm	0		S	sg n
pandiks	pant	ks		S	sg tr
       	panti	ks		V	ks
võetud	võe=tu	d		S	pl n
      	võetud	0		A	
      	võetud	0		A	sg n
      	võetud	d		A	pl n
      	võt	tud		V	tud
.	.			Z	
kolmandaks	kolmandaks	0		D	
          	kolmas	ks		O	sg tr
on	ole	0		V	b
  	ole	0		V	vad
veel	veel	0		D	
    	vesi	l		S	sg ad
üks	üks	0		N	sg n
   	üks	0		P	sg n
koeravargus	koera_vargus	0		S	sg n
tähele	täht	le		S	sg all
      	tähele	0		X	
panna	pand	0		S	sg g
     	pane	a		V	da
     	panna	0		S	sg g
     	panna	0		S	sg n
,	,			Z	
ja	ja	0		J	
siis	siis	0		D	
    	siis	0		J	
kaebas	kaeba	s		V	s
kohtumees	kohtu_mees	0		S	sg n
Adla	####				
Hans	Hans	0		H	sg n
,	,			Z	
se	####				
sama	sama	0		P	sg g
    	sama	0		P	sg n
    	sama	0		P	sg p
naine	naine	0		S	sg n
oleks	ole	ks		V	ks
oese	####				
märssidega	märss	dega		S	pl kom
heinad	hein	d		S	pl n
varastanud	varasta	nud		V	nud
          	varasta=nu	d		S	pl n
          	varasta=nud	0		A	
          	varasta=nud	0		A	sg n
          	varasta=nud	d		A	pl n
,	,			Z	
ja	ja	0		J	
selle	see	0		P	sg g
     	sell	e		S	pl p
juures	juur	s		S	sg in
      	juures	0		D	
      	juures	0		K	
kinni	kinni	0		D	
võetud	võe=tu	d		S	pl n
      	võetud	0		A	
      	võetud	0		A	sg n
      	võetud	d		A	pl n
      	võt	tud		V	tud
saanud	saa	nud		V	nud
      	saa=nud	0		A	
      	saa=nud	0		A	sg n
      	saa=nud	d		A	pl n
      	saanu	d		S	pl n
,	,			Z	
aga	aga	0		J	
naine	naine	0		S	sg n
salgas	salga	s		V	s
      	salk	s		S	sg in
seda	see	da		P	sg p
,	,			Z	
üteldes	ütle	des		V	des
,	,			Z	
et	et	0		J	
tema	tema	0		P	sg g
    	tema	0		P	sg n
need	see	d		P	pl n
heinad	hein	d		S	pl n
Sutti	sutt	0		S	adt
     	sutt	0		S	sg p
Reeda	Reet	0		H	sg g
     	reet	0		V	o
käest	käest	0		K	
     	käsi	st		S	sg el
olles	ole	es		V	des
saanud	saa	nud		V	nud
      	saa=nud	0		A	
      	saa=nud	0		A	sg n
      	saa=nud	d		A	pl n
      	saanu	d		S	pl n
.	.			Z	
neljandaks	neljandaks	0		D	
          	neljas	ks		O	sg tr
,	,			Z	
on	ole	0		V	b
  	ole	0		V	vad
tema	tema	0		P	sg g
    	tema	0		P	sg n
Lause	lause	0		S	sg g
     	lause	0		S	sg n
Peetri	Peeter	0		H	sg g
      	Peetri	0		H	sg g
      	Peetri	0		H	sg n
käest	käest	0		K	
     	käsi	st		S	sg el
üks	üks	0		N	sg n
   	üks	0		P	sg n
tal	tema	l		P	sg ad
varastanud	varasta	nud		V	nud
          	varasta=nu	d		S	pl n
          	varasta=nud	0		A	
          	varasta=nud	0		A	sg n
          	varasta=nud	d		A	pl n
,	,			Z	
selle	see	0		P	sg g
     	sell	e		S	pl p
tallele	tall	le		S	sg all
       	tallele	0		D	
üks	üks	0		N	sg n
   	üks	0		P	sg n
võeras	####				
täht	täht	0		S	sg n
teinud	tege	nud		V	nud
      	tei=nud	0		A	
      	tei=nud	0		A	sg n
      	tei=nud	d		A	pl n
      	teinu	d		S	pl n
.	.			Z	
sest	see	st		P	sg el
    	sest	0		J	
et	et	0		J	
se	####				
tal	tema	l		P	sg ad
nüüd	nüüd	0		D	
veel	veel	0		D	
    	vesi	l		S	sg ad
elab	ela	b		V	b
,	,			Z	
saab	saa	b		V	b
Peeter	Peeter	0		H	sg n
enese	ise	0		P	sg g
Tal	tema	l		P	sg ad
kätte	kätte	0		K	
     	käsi	tte		S	adt
.	.			Z	
nõnda	nõnda	0		D	
viisi	viis	0		S	adt
     	viis	0		S	sg g
     	viis	i		N	pl p
     	viisi	0		K	
     	viis	0		S	sg p
on	ole	0		V	b
  	ole	0		V	vad
se	####				
naine	naine	0		S	sg n
ka	ka	0		D	
üks	üks	0		N	sg n
   	üks	0		P	sg n
mõisa	mõis	0		S	sg g
vasikas	vasikas	0		S	sg n
       	vasikas	s		S	sg in
ümmer	####				
vahetanud	vaheta	nud		V	nud
         	vaheta=nu	d		S	pl n
         	vaheta=nud	0		A	
         	vaheta=nud	0		A	sg n
         	vaheta=nud	d		A	pl n
,	,			Z	
seda	see	da		P	sg p
jõudis	jõud	is		V	s
tema	tema	0		P	sg g
    	tema	0		P	sg n
oma	oma	0		A	sg g
   	oma	0		D	
   	oma	0		P	sg g
   	oma	0		S	sg g
   	oma	0		V	o
   	oma	0		A	sg n
   	oma	0		A	sg p
   	oma	0		P	sg n
   	oma	0		P	sg p
   	oma	0		S	sg n
   	oma	0		S	sg p
libeda	libe	0		A	sg g
      	libe	0		S	sg g
keelega	keel	ga		S	sg kom
ja	ja	0		J	
rääkimusega	####				
enesest	ise	st		P	sg el
pöörda	pöörda	0		V	o
,	,			Z	
aga	aga	0		J	
oma	oma	0		A	sg g
   	oma	0		D	
   	oma	0		P	sg g
   	oma	0		S	sg g
   	oma	0		V	o
   	oma	0		A	sg n
   	oma	0		A	sg p
   	oma	0		P	sg n
   	oma	0		P	sg p
   	oma	0		S	sg n
   	oma	0		S	sg p
pettust	pettus	t		S	sg p
ja	ja	0		J	
vargust	vargus	t		S	sg p
ikka	ikka	0		D	
    	iga	0		S	adt
ropu	ropp	0		A	sg g
viisiga	viis	ga		S	sg kom
kasvatand	####				
.	.			Z	
Kihnu	Kihnu	0		H	adt
     	Kihnu	0		H	sg g
     	kihn	0		S	adt
     	kihn	0		S	sg g
     	kihnu	0		G	
     	Kihnu	0		H	sg n
     	kihn	0		S	sg p
mõisas	mõis	s		S	sg in
sel	see	l		P	sg ad
   	sel	0		Y	?
26damal	####				
Jüri	Jüri	0		H	sg g
    	Jüri	0		H	sg n
ku	####				
päeval	päev	l		S	sg ad
1843	1843	0		N	?
kogu	kogu	0		A	
    	kogu	0		S	sg g
    	kogu	0		V	o
    	kogu	0		S	sg n
    	kogu	0		S	sg p
konna	konn	0		S	adt
     	konn	0		S	sg g
     	konn	0		S	sg p
kohtu	kohtu	0		V	o
     	kohus	0		S	sg g
vanem	vanem	0		C	sg n
     	vanem	0		S	sg n
Arvi	Arvi	0		H	sg g
    	Arvi	0		H	sg n
Allika	allikas	0		S	sg g
,	,			Z	
abimees	abi_mees	0		S	sg n
Hans	Hans	0		H	sg n
Allas	Alla	s		H	sg in
,	,			Z	
Toomas	Toomas	0		H	sg n
      	Toomas	s		H	sg in
      	too	mas		V	mas
Tungen	####				
