Ann	Ann	0		H	sg n
Rast	####				
ütles	ütle	s		V	s
küsimise	küsimine	0		S	sg g
peale	pea	le		S	sg all
     	peale	0		D	
     	peale	0		K	
:	:			Z	
kui	kui	0		D	
   	kui	0		J	
Kadri	Kadri	0		H	sg g
     	Kadri	0		H	sg n
     	kadri	0		S	sg g
     	kadri	0		S	sg n
Priidik	####				
neil	see	l		P	pl ad
    	tema	l		P	pl ad
käinud	käi	nud		V	nud
      	käi=nud	0		A	
      	käi=nud	0		A	sg n
      	käi=nud	d		A	pl n
      	käinu	d		S	pl n
,	,			Z	
kaebanud	####				
et	et	0		J	
Mama	####				
olla	ole	a		V	da
enne	enne	0		D	
    	enne	0		K	
    	enne	0		S	sg n
2	2	0		N	?
korda	kord	0		S	adt
     	korda	0		V	o
     	kord	0		S	sg p
ja	ja	0		J	
Villem	Villem	0		H	sg n
Unnifer	####				
üks	üks	0		N	sg n
   	üks	0		P	sg n
kord	kord	0		D	
    	kord	0		S	sg n
peksnud	peks	nud		V	nud
       	peks=nu	d		S	pl n
       	peks=nud	0		A	
       	peks=nud	0		A	sg n
       	peks=nud	d		A	pl n
,	,			Z	
-	-			Z	
temal	tema	l		P	sg ad
sadanud	sada	nud		V	nud
       	sada=nu	d		S	pl n
       	sada=nud	0		A	
       	sada=nud	0		A	sg n
       	sada=nud	d		A	pl n
veel	veel	0		D	
    	vesi	l		S	sg ad
lüpsik	lüpsik	0		S	sg n
oma	oma	0		A	sg g
   	oma	0		D	
   	oma	0		P	sg g
   	oma	0		S	sg g
   	oma	0		V	o
   	oma	0		A	sg n
   	oma	0		A	sg p
   	oma	0		P	sg n
   	oma	0		P	sg p
   	oma	0		S	sg n
   	oma	0		S	sg p
laua	laud	0		S	sg g
ukse	uks	0		S	sg g
eest	eest	0		D	
    	eest	0		K	
    	esi	st		S	sg el
käest	käest	0		K	
     	käsi	st		S	sg el
maha	maha	0		D	
kui	kui	0		D	
   	kui	0		J	
Mama	####				
peksnud	peks	nud		V	nud
       	peks=nu	d		S	pl n
       	peks=nud	0		A	
       	peks=nud	0		A	sg n
       	peks=nud	d		A	pl n
,	,			Z	
-	-			Z	
ka	ka	0		D	
näidanud	näita	nud		V	nud
        	näida=nu	d		S	pl n
        	näida=nud	0		A	
        	näida=nud	0		A	sg n
        	näida=nud	d		A	pl n
oma	oma	0		A	sg g
   	oma	0		D	
   	oma	0		P	sg g
   	oma	0		S	sg g
   	oma	0		V	o
   	oma	0		A	sg n
   	oma	0		A	sg p
   	oma	0		P	sg n
   	oma	0		P	sg p
   	oma	0		S	sg n
   	oma	0		S	sg p
peksu	peks	0		S	adt
     	peks	0		S	sg g
     	peks	0		S	sg p
hoopid	####				
,	,			Z	
pihade	####				
peal	pea	l		S	sg ad
    	peal	0		D	
    	peal	0		K	
olnud	ol=nud	0		A	
     	ol=nud	0		A	sg n
     	ol=nud	d		A	pl n
     	ole	nud		V	nud
     	olnu	d		S	pl n
verised	verine	d		A	pl n
ripsud	####				
,	,			Z	
puusa	puus	0		S	adt
     	puus	0		S	sg g
     	puus	0		S	sg p
ots	ots	0		S	sg n
olnud	ol=nud	0		A	
     	ol=nud	0		A	sg n
     	ol=nud	d		A	pl n
     	ole	nud		V	nud
     	olnu	d		S	pl n
sindine	####				
ja	ja	0		J	
mokkad	####				
paistetanud	paisteta	nud		V	nud
           	paisteta=nu	d		S	pl n
           	paistetanud	0		A	
           	paistetanud	0		A	sg n
           	paistetanud	d		A	pl n
,	,			Z	
-	-			Z	
aga	aga	0		J	
persed	perse	d		S	pl n
ei	ei	0		D	
  	ei	0		V	neg
olla	ole	a		V	da
hieelanud	####				
naidata	####				
,	,			Z	
-	-			Z	
ja	ja	0		J	
ise	ise	0		A	
   	ise	0		D	
   	ise	0		P	pl n
   	ise	0		P	sg n
ikkenud	####				
kui	kui	0		D	
   	kui	0		J	
üks	üks	0		N	sg n
   	üks	0		P	sg n
väike	väike	0		A	sg n
las	las	0		D	
.	.			Z	
Arvati	arva	ti		V	ti
kõige	kõik	0		P	sg g
     	kõige	0		D	
haledega	####				
:	:			Z	
1.	1.	0		O	?
et	et	0		J	
Villem	Villem	0		H	sg n
Unnifer	####				
maksab	maks	b		V	b
oma	oma	0		A	sg g
   	oma	0		D	
   	oma	0		P	sg g
   	oma	0		S	sg g
   	oma	0		V	o
   	oma	0		A	sg n
   	oma	0		A	sg p
   	oma	0		P	sg n
   	oma	0		P	sg p
   	oma	0		S	sg n
   	oma	0		S	sg p
naisega	naine	ga		S	sg kom
Kadri	Kadri	0		H	sg g
     	Kadri	0		H	sg n
     	kadri	0		S	sg g
     	kadri	0		S	sg n
Priidikule	####				
peksu	peks	0		S	adt
     	peks	0		S	sg g
     	peks	0		S	sg p
eest	eest	0		D	
    	eest	0		K	
    	esi	st		S	sg el
5	5	0		N	?
rub	####				
.	.			Z	
valu	valu	0		S	sg g
    	valu	0		V	o
    	valu	0		S	sg n
    	valu	0		S	sg p
raha	raha	0		S	sg g
    	raha	0		S	sg n
    	raha	0		S	sg p
ja	ja	0		J	
Kadri	Kadri	0		H	sg g
     	Kadri	0		H	sg n
     	kadri	0		S	sg g
     	kadri	0		S	sg n
Priidik	####				
maksab	maks	b		V	b
sell	sell	0		S	sg n
eeest	####				
1	1	0		N	?
rub	####				
.	.			Z	
trahvi	trahv	0		S	adt
      	trahv	0		S	sg g
      	trahvi	0		V	o
      	trahv	0		S	sg p
valla	vald	0		S	sg g
     	valla	0		D	
ladiku	####				
,	,			Z	
et	et	0		J	
üle	üle	0		D	
   	üle	0		K	
keelo	####				
lainud	####				
lehmi	lehm	i		S	pl p
lüpsma	lüps	ma		V	ma
.	.			Z	
selle	see	0		P	sg g
     	sell	e		S	pl p
otsusega	otsus	ga		S	sg kom
ei	ei	0		D	
  	ei	0		V	neg
olnud	ol=nud	0		A	
     	ol=nud	0		A	sg n
     	ol=nud	d		A	pl n
     	ole	nud		V	nud
     	olnu	d		S	pl n
keegi	kee	0	gi	S	sg g
     	kee	0	gi	V	o
     	keegi	0		P	sg n
     	kee	0	gi	S	sg n
rahul	rahu	l		S	sg ad
     	rahul	0		D	
.	.			Z	
mõistetud	mõist	tud		V	tud
         	mõiste=tu	d		S	pl n
         	mõiste=tud	0		A	
         	mõiste=tud	0		A	sg n
         	mõiste=tud	d		A	pl n
et	et	0		J	
apellatsioni	####				
kirjad	kirja	d		V	d
      	kiri	d		S	pl n
välja	välja	0		D	
     	välja	0		V	o
     	väli	0		S	adt
     	väli	0		S	sg g
     	väli	0		S	sg p
anda	and	a		V	da
.	.			Z	
