Hütsa Perdi Warrandus on ülles Kirjotud Mis temma Lesse naise ning Poia perrida jääb.			Rub			Kop		Honetäis palkisid 2 märra hobbust makswad			30					1,4ja aastane Söin m:12 Rub 1,3 aastane Soin m 9			21					2he aastane Söin m:6 Rub ärrit wassik m 2 Rub			8					4 lammast makswad 4 Rub 2 Sigga m:8.Rub			12					Kahhed pari hobbuse Raud Rattad makswad			18					ühhe hobbuse Raud Rattad makswad 9 Rub			9					Kahhed pu Rattad m:4 Rub 27me wakkane Wilja Kerst m:3.Rub,2 6 wakkane 3 Rub			10					23 wakkane m:2 Rub 50 Kop			2			50		Sola Kihha m.1 Rub 1 Kalla polik m 50 Kop			1			50		3 Kalla Kihha makswad 1 Rub			1					2 tari kihha m:2 Rub 50 Kop,1 laegas m:70 Kop			3			20		3,70me tobist,ölle Kihha makswad 3 Rub			3					2  40me tobist ölle Kihha m:1 Rub 20 Kop			1			20		2 Kärp sagi m:1 Rub 20 Kop pukswanti m 20 kop			1			40		Kässi saag,m 30 Kop Rui pink m 1 Rub 50 K			1			80		Söma Reind m:1 Rub 6 wikkatid m:2 Rub			3					2 Raud wölwiga Keia m:3 Rub			3					6 leisgad Rauda m 1 Rub 20 Kop			1			20		1 tossin laudi m:4 Rub 1 Raud Kang m 30 Kop			4			30		Kapso Kihha m 30 Kop jahwe Kiwwid 1 Rub			1			30		2 ölle tört m:4 Rub 1,4ja Randane pada m								1 Kahhe randane makswad 3 Rub			3					3 Sülda Kettisid 80 Kop Lööts m 3 Rub			3			80		allasi m:2 Rub 2 wassarad 50 Kop pärak 50 K			3					3med pihhid silm Raud m 50 Kop						50		2 lasna m 50 Kop 3 Kirwest m 1 Rub			1			50		lewwa löime m 50 Kop lewwa Kappi m:1 Rub			1			50		Korri laegas-50 Kop pissine laegas 50 Kop			1					Tuliko Kolgas jäggo m:7 Rub			7								158			70					Rub			Kop		Räim laewa Kolmas jäggo m:2 Rub			2					Rei Rattas m:50 Kop. 5 Wörko m:10 Rub			10			50		2 ohherdid-50 Kop  2 Raud ohherdi pärra m 40 Kop						90		1 Püs maksab 1 Rub 50 Kop			1			50		Riin Kasa toond 1 lehm m:10 Rub			10					7 lammast makswad			7								158			70					31			90					190			60		
Selle Warrandusse Kirjotamisse jures on need eest Kostjad Pawel Armand ning Mihkel Redi olnud ning nendele hinna Arwanud
Pea Kohtu Mees Laes Moondo +++,Kohtu Mees Roman Pehgme
