Sauga	Sauga	Sauga	0		H	sg g
Koggokonna	kogukonna	kogukond	0		S	sg g
Kohus	kohus	kohus	0		S	sg n
1.	1.	1.	0		O	?
Abram	Aabram	Abram	0		H	sg n
Holter	Holter	Holter	0		H	sg n
kaebab	kaebab	kaeba	b		V	b
et	et	et	0		J	
temma	tema	tema	0		P	sg g
Kusiku	Kuusiku	Kuusiku	0		H	sg g
Ainnile	Ainile	Ain	le		H	sg all
3	3	3	0		N	?
Rubl	rubl	rubl	0		Y	?
80	80	80	0		N	?
Kop	kop	kop	0		Y	?
rahha	raha	raha	0		S	sg p
laenanud	laenanud	laena	nud		V	nud
ja	ja	ja	0		J	
2	2	2	0		N	?
Rubl	rubl	rubl	0		Y	?
50	50	50	0		N	?
Kop	kop	kop	0		Y	?
wina	viina	viin	0		S	sg g
wolga	võlga	võlg	0		S	sg p
annud	andnud	and	nud		V	nud
4	4	4	0		N	?
tubbakast	tubakast	tubakas	st		S	sg el
36	36	36	0		N	?
Kop	kop	kop	0		Y	?
1	1	1	0		N	?
/	/	/			Z	
2	2	2	0		N	?
topi	toopi	toop	0		S	sg p
wina	viina	viin	0		S	sg p
2	2	2	0		N	?
?	?	?			Z	
Kop	kop	kop	0		Y	?
1	1	1	0		N	?
Korter	korter	korter	0		S	sg n
wina	viina	viin	0		S	sg p
8Kopp	8_kop	8_kop	0		Y	
?	?	?			Z	
kokko	kokku	kokku	0		D	
10	10	10	0		N	?
Rubl	rubl	rubl	0		Y	?
94	94	94	0		N	?
Kopp	kop	kop	0		Y	
.	.	.			Z	
-	-	-			Z	
Ain	Ain	Ain	0		H	sg n
ütleb	ütleb	ütle	b		V	b
2	2	2	0		N	?
Rubl	rubl	rubl	0		Y	?
50	50	50	0		N	?
Kopp	kop	kop	0		Y	
eest	eest	eest	0		K	
wina	viina	viin	0		S	sg p
ei	ei	ei	0		V	neg
olle	ole	ole	0		V	o
minna	mina	mina	0		P	sg n
mitte	mitte	mitte	0		D	
wolgi	võlgu	võlgu	0		D	
janud	jäänud	jää	nud		V	nud
,	,	,			Z	
Tubbakas	tubakas	tubakas	0		S	sg n
36	36	36	0		N	?
kop	kop	kop	0		Y	?
,	,	,			Z	
1	1	1	0		N	?
/	/	/			Z	
2	2	2	0		N	?
topi	toopi	toop	0		S	sg p
wina	viina	viin	0		S	sg p
20	20	20	0		N	?
kop	kop	kop	0		Y	?
korter	korter	korter	0		S	sg n
wina	viina	viin	0		S	sg p
8	8	8	0		N	?
kop	kop	kop	0		Y	?
on	on	ole	0		V	b
tõssi	tõsi	tõsi	0		D	
ja	ja	ja	0		J	
3	3	3	0		N	?
Rubla	rubla	rubla	0		S	sg p
10	10	10	0		N	?
Koppikat	kopikat	kopikas	t		S	sg p
eest	eest	eest	0		K	
ollen	olen	ole	n		V	n
minna	mina	mina	0		P	sg n
2	2	2	0		N	?
wakka	vakka	vakk	0		S	sg p
kaeru	kaeru	kaer	u		S	pl p
ja	ja	ja	0		J	
üks	üks	üks	0		N	sg n
küllimit	külimit	külimit	0		S	sg n
nissu	nisu	nisu	0		S	sg p
nissu	nisu	nisu	0		S	sg p
sulle	sulle	sina	lle		P	sg all
toonud	toonud	too	nud		V	nud
se	see	see	0		P	sg n
peab	peab	pida	b		V	b
makstud	makstud	maks	tud		V	tud
ollema	olema	ole	ma		V	ma
.	.	.			Z	
Abram	Aabram	Abram	0		H	sg n
ütles	ütles	ütle	s		V	s
selle	selle	see	0		P	sg g
ka	ka	ka	0		D	
tõssi	tõsi	tõsi	0		D	
ollewad	olevat	ole	vad		V	vat
.	.	.			Z	
Nüüd	nüüd	nüüd	0		D	
mõistis	mõistis	mõist	is		V	s
kohhus	kohus	kohus	0		S	sg n
70	70	70	0		N	?
kop	kop	kop	0		Y	?
mis	mis	mis	0		P	sg n
Abram	Aabram	Abram	0		H	sg n
ütleb	ütleb	ütle	b		V	b
rohkem	rohkem	rohkem	0		D	
ollewad	olevat	ole	vad		V	vat
poleks	pooleks	pooleks	0		D	
ja	ja	ja	0		J	
Ain	Ain	Ain	0		H	sg n
maksab	maksab	maks	b		V	b
35	35	35	0		N	?
tubbakas	tubakas	tubakas	0		S	sg n
32	32	32	0		N	?
kop	kop	kop	0		Y	?
pool	pool	pool	0		N	sg n
topi	toopi	toop	0		S	sg p
ärra	ära	ära	0		D	
20	20	20	0		N	?
?	?	?			Z	
wina	viina	viin	0		S	sg p
8	8	8	0		N	?
kop	kop	kop	0		Y	?
maksab	maksab	maks	b		V	b
Ain	Ain	Ain	0		H	sg n
Abramale	Aabramale	Abram	le		H	sg all
kätte	kätte	kätte	0		K	
2	2	2	0		N	?
Rub	rub	rub	0		Y	
50	50	50	0		N	?
koppika	kopikat	kopikas	0		S	sg p
?	?	?			Z	
jääb	jääb	jää	b		V	b
temma	tema	tema	0		P	sg n
ilma	ilma	ilma	0		D	
selle	selle	see	0		P	sg g
eest	eest	eest	0		K	
et	et	et	0		J	
ei	ei	ei	0		V	neg
tohhi	tohi	toht	i		V	o
mitte	mitte	mitte	0		D	
wina	viina	viin	0		S	sg p
wõlgu	võlgu	võlgu	0		D	
anda	anda	and	a		V	da
.	.	.			Z	
Ja	ja	ja	0		J	
Ain	Ain	Ain	0		H	sg n
jääb	jääb	jää	b		V	b
24	24	24	0		N	?
tunniks	tunniks	tund	ks		S	sg tr
kinni	kinni	kinni	0		D	
et	et	et	0		J	
kartis	kartis	kart	is		V	s
ilma	ilma	ilma	0		K	
asjata	asjata	asi	ta		S	sg ab
wina	viina	viin	0		S	sg g
wolgu	võlgu	võlgu	0		D	
himmustab	himustab	himusta	b		V	b
.	.	.			Z	
-	-	-			Z	
2	2	2	0		N	?
,	,	,			Z	
Mart	Mart	Mart	0		H	sg n
Matsun	Matsun	Matsun	0		H	sg n
wõttis	võttis	võt	is		V	s
Rediku	Reediku	Redik	0		H	sg g
Toma	Tooma	Toma	0		H	sg g
Mihkle	Mihkli	Mihkel	0		H	sg g
maia	maja	maja	0		S	sg p
ülles	üles	üles	0		D	
ladduda	laduda	ladu	da		V	da
omma	oma	oma	0		P	sg g
peale	peale	peale	0		K	
se	see	see	0		P	sg n
on	on	ole	0		V	b
tubba	tuba	tuba	0		S	sg n
rehhe	rehe	rehi	0		S	sg g
allune	alune	alune	0		S	sg n
suur	suur	suur	0		A	sg n
kammer	kamber	kamber	0		S	sg n
ja	ja	ja	0		J	
veike	väike	väike	0		A	sg n
kammmer	kamber	kamber	0		S	sg n
saab	saab	saa	b		V	b
ülle	üle	üle	0		K	
selle	selle	see	0		P	sg g
tö	töö	töö	0		S	sg g
35	35	35	0		N	?
Rub	rub	rub	0		Y	
40kop	40_kop	40_kop	0		Y	
.	.	.			Z	
tänne	tänane	tänane	0		D	
?	?	?			Z	
pääw	päev	päev	0		S	sg n
anti	anti	and	ti		V	ti
Mardile	Mardile	Mart	le		H	sg all
käerahhaks	käerahaks	käe_raha	ks		S	sg tr
5	5	5	0		N	?
Rub	rub	rub	0		Y	
,	,	,			Z	
20	20	20	0		N	?
junil	juunil	juuni	l		S	sg ad
5	5	5	0		N	?
Rub	rub	rub	0		Y	
,	,	,			Z	
4ndal	4ndal	4=s	l		O	sg ad
julil	juulil	juuli	l		S	sg ad
sai	sai	saa	i		V	s
Mihkel	Mihkel	Mihkel	0		H	sg n
Lilles	Lilles	Lilles	0		H	sg n
10	10	10	0		N	?
Rub	rub	rub	0		Y	
,	,	,			Z	
18	18	18	0		N	?
julil	juulil	juuli	l		S	sg ad
Maddis	Madis	Maddis	0		H	sg n
Sommer	Sommer	Sommer	0		H	sg n
3	3	3	0		N	?
Rub	rub	rub	0		Y	
kingitud	kingitud	kinki	tud		V	tud
win	viin	viin	0		S	sg n
rahhaks	rahaks	raha	ks		S	sg tr
40	40	40	0		N	?
kop	kop	kop	0		Y	
,	,	,			Z	
1sel	esimesel	esimene	l		O	sg ad
augustil	augustil	august	l		S	sg ad
sai	sai	saa	i		V	s
Sommer	Sommer	Sommer	0		H	sg n
10rub	10_rub	10_rub	0		Y	
,	,	,			Z	
Matsun	Matsun	Matsun	0		H	sg n
2	2	2	0		N	?
Rub	rub	rub	0		Y	
.	.	.			Z	
3.	3.	3.	0		O	?
Peter	Peeter	Peter	0		H	sg n
Holter	Holter	Holter	0		H	sg n
oiendas	õiendas	õienda	s		V	s
omma	oma	oma	0		P	sg g
sullase	sulase	sulane	0		S	sg g
Peter	Peeter	Peter	0		H	sg n
Kutani	Kutani	Kutan	0		H	sg g
palka	palka	palk	0		S	sg p
nenda	nõnda	nõnda	0		D	
et	et	et	0		J	
selle	selle	see	0		P	sg g
aasta	aasta	aasta	0		S	sg g
sullase	sulase	sulane	0		S	sg g
palk	palk	palk	0		S	sg n
teggi	tegi	tege	i		V	s
velja	välja	välja	0		D	
25	25	25	0		N	?
Rub	rub	rub	0		Y	
60	60	60	0		N	?
kop	kop	kop	0		Y	?
se	see	see	0		P	sg n
palk	palk	palk	0		S	sg n
teeb	teeb	tege	b		V	b
52	52	52	0		N	?
naddali	nädala	nädal	0		S	sg g
peale	peale	peale	0		K	
walja	välja	välja	0		D	
49	49	49	0		N	?
kop	kop	kop	0		Y	?
.	.	.			Z	
Peter	Peeter	Peter	0		H	sg n
on	on	ole	0		V	b
teninud	teeninud	teeni	nud		V	nud
37	37	37	0		N	?
näddalad	nädalat	nädal	d		S	sg p
,	,	,			Z	
teeb	teeb	tege	b		V	b
sis	siis	siis	0		D	
ülle	üle	üle	0		K	
37	37	37	0		N	?
näddala	nädala	nädal	0		S	sg g
peält	pealt	pealt	0		K	
wälja	välja	välja	0		D	
18	18	18	0		N	?
Rub	rub	rub	0		Y	
13	13	13	0		N	?
kop	kop	kop	0		Y	?
.	.	.			Z	
siis	siis	siis	0		D	
jab	jääb	jää	b		V	b
weel	veel	veel	0		D	
sest	sest	see	st		P	sg el
18	18	18	0		N	?
Rubla	rubla	rubla	0		S	sg p
13	13	13	0		N	?
kop	kop	kop	0		Y	?
.	.	.			Z	
mahha	maha	maha	0		D	
arwatud	arvatud	arva	tud		V	tud
mis	mis	mis	0		P	pl n
Kutan	Kutan	Kutan	0		H	sg n
kätte	kätte	kätte	0		K	
sanud	saanud	saa	nud		V	nud
2w	2w	2w	0		Y	?
odrad	oder	oder	d		S	pl n
3	3	3	0		N	?
Rub	rub	rub	0		Y	
.	.	.			Z	
20	20	20	0		N	?
kop	kop	kop	0		Y	?
.	.	.			Z	
kasukas	kasukas	kasukas	0		S	sg n
5	5	5	0		N	?
Rub	rub	rub	0		Y	
2	2	2	0		N	?
1	1	1	0		N	?
/	/	/			Z	
2	2	2	0		N	?
särki	särki	särk	0		S	sg p
2	2	2	0		N	?
Rubla	rubla	rubla	0		S	sg p
25	25	25	0		N	?
kop	kop	kop	0		Y	?
.	.	.			Z	
2	2	2	0		N	?
paari	paari	paar	0		S	sg p
püksid	püksid	püks	d		S	pl n
1	1	1	0		N	?
Rubla	rubla	rubla	0		S	sg n
2	2	2	0		N	?
paari	paari	paar	0		S	sg p
kindad	kindad	kinnas	d		S	pl n
30	30	30	0		N	?
kop	kop	kop	0		Y	?
.	.	.			Z	
ühte	ühte	ühte	0		D	
kokku	kokku	kokku	0		D	
sanud	saanud	saa	nud		V	nud
Kutan	Kutan	Kutan	0		H	sg n
11	11	11	0		N	?
Rub	rub	rub	0		Y	
75	75	75	0		N	?
kop	kop	kop	0		Y	?
.	.	.			Z	
nenda	nõnda	nõnda	0		D	
maksab	maksab	maks	b		V	b
perremees	peremees	pere_mees	0		S	sg n
weel	veel	veel	0		D	
jure	juurde	juurde	0		D	
6	6	6	0		N	?
rubla	rubla	rubla	0		S	sg p
38	38	38	0		N	?
kop	kop	kop	0		Y	?
.	.	.			Z	
Wannna	Vana	Wanna	0		H	sg n
Holtre	Holtre	Holter	0		H	sg g
Ainn	Ain	Ain	0		H	sg n
pärrib	pärib	päri	b		V	b
mis	mis	mis	0		P	sg n
temma	tema	tema	0		P	sg n
Kutanil	Kutanil	Kutan	l		H	sg ad
laenanud	laenanud	laena	nud		V	nud
1	1	1	0		N	?
R	R	R	0		Y	?
mahha	maha	maha	0		D	
arwata	arvata	arva	ta		V	da
.	.	.			Z	
Ja	ja	ja	0		J	
perremehhel	peremehel	pere_mees	l		S	sg ad
Peetrel	Peetril	Peter	l		H	sg ad
on	on	ole	0		V	b
läinud	läinud	mine	nud		V	nud
weel	veel	veel	0		D	
matmisse	matmise	matmine	0		S	sg g
kullu	kulu	kulu	0		S	sg n
kirst	kirst	kirst	0		S	sg n
1	1	1	0		N	?
R 30	R30	R30	0		Y	?
kop	kop	kop	0		Y	?
.	.	.			Z	
ja	ja	ja	0		J	
pallvus	palvus	palvus	0		S	sg n
?	?	?			Z	
1	1	1	0		N	?
R 3	R3	R3	0		Y	?
kop	kop	kop	0		Y	?
.	.	.			Z	
Nüüd	nüüd	nüüd	0		D	
jäib	jääb	jää	b		V	b
weel	veel	veel	0		D	
ülle	üle	üle	0		D	
.	.	.			Z	
2	2	2	0		N	?
Rub	rub	rub	0		Y	
,	,	,			Z	
75	75	75	0		N	?
kop	kop	kop	0		Y	?
.	.	.			Z	
Siit	siit	siit	0		D	
läheb	läheb	mine	b		V	b
mahha	maha	maha	0		D	
veel	veel	veel	0		D	
mis	mis	mis	0		P	sg n
Peter	Peeter	Peter	0		H	sg n
rohkem	rohkem	rohkem	0		D	
?	?	?			Z	
1	1	1	0		N	?
Rub	rub	rub	0		Y	
13	13	13	0		N	?
kop	kop	kop	0		Y	?
pearahha	pearaha	pea_raha	0		S	sg n
-	-	-			Z	
?	?	?			Z	
Aini	Aini	Ain	0		H	sg g
?	?	?			Z	
?	?	?			Z	
1	1	1	0		N	?
Rub	rub	rub	0		Y	
62	62	62	0		N	?
kop	kop	kop	0		Y	?
32	32	32	0		N	?
kop	kop	kop	0		Y	?
mahha	maha	maha	0		D	
4.	4.	4.	0		O	?
Se	see	see	0		P	sg n
500	500	500	0		N	?
Rublane	rublane	rublane	0		S	sg n
weksel	veksel	veksel	0		S	sg n
mis	mis	mis	0		P	sg n
Hans	Hans	Hans	0		H	sg n
Rabbi	Rabbi	Rabbi	0		H	sg n
300	300	300	0		N	?
rub	rubl	rubl	0		Y	?
,	,	,			Z	
ja	ja	ja	0		J	
Tõnnis	Tõnis	Tõnnis	0		H	sg n
Hints	Hints	Hints	0		H	sg n
200	200	200	0		N	?
rubla	rubla	rubla	0		S	sg p
kokko	kokku	kokku	0		D	
on	on	ole	0		V	b
pannud	pannud	pane	nud		V	nud
,	,	,			Z	
ja	ja	ja	0		J	
ostnud	ostnud	ost	nud		V	nud
ja	ja	ja	0		J	
Kolmat	kolmandat	kolmas	t		O	sg p
aastat	aastat	aasta	t		S	sg p
Rendi	rendi	rent	0		S	sg g
Herra	härra	härra	0		S	sg n
Baueri	Baueri	Bauer	0		H	sg g
käest	käest	käest	0		K	
intressid	intressid	intress	d		S	pl n
sanud	saanud	saa	nud		V	nud
,	,	,			Z	
ning	ning	ning	0		J	
omma	oma	oma	0		P	sg g
seätud	seatud	sead	tud		V	tud
aia	aja	aeg	0		S	sg g
peale	peale	peale	0		K	
10	10	10	0		N	?
aastad	aastat	aasta	d		S	sg p
peab	peab	pida	b		V	b
kestma	kestma	kest	ma		V	ma
,	,	,			Z	
leppisid	leppisid	leppi	sid		V	sid
nemmad	nemad	tema	d		P	pl n
tänna	täna	täna	0		D	
nenda	nõnda	nõnda	0		D	
et	et	et	0		J	
Hans	Hans	Hans	0		H	sg n
maksab	maksab	maks	b		V	b
ikka	ikka	ikka	0		D	
nenda	nõnda	nõnda	0		D	
kui	kui	kui	0		J	
ennegi	ennegi	ennegi	0		D	
Tõnnisel	Tõnisel	Tõnnis	l		H	sg ad
omma	oma	oma	0		P	sg g
seätud	seatud	sead	tud		V	tud
aasta	aasta	aasta	0		S	sg g
intressid	intressid	intress	d		S	pl n
õigel	õigel	õige	l		A	sg ad
ajal	ajal	aeg	l		S	sg ad
,	,	,			Z	
ja	ja	ja	0		J	
kui	kui	kui	0		J	
siis	siis	siis	0		D	
peaks	peaks	pida	ks		V	ks
middagi	midagi	miski	da	gi	P	sg p
pudu	puudu	puudu	0		D	
jäma	jääma	jää	ma		V	ma
,	,	,			Z	
sedda	seda	see	da		P	sg p
kahju	kahju	kahju	0		S	sg p
kannawad	kannavad	kand	vad		V	vad
mollemad	mõlemad	mõlema	d		P	pl n
oma	oma	oma	0		P	sg g
rahha	raha	raha	0		S	sg g
suruse	suuruse	suurus	0		S	sg g
järrel	järel	järel	0		K	
.	.	.			Z	
-	-	-			Z	
